c229c0db8a82bdc5a60362fc46f58550a74a4fef 
X,x_velocity,cp,uw_b,wall_distance,
-0.25,0,0.180939,0,1e-16,
-0.25,0.052971,0.180942,-3.87977e-07,2.59026e-05,
-0.25,0.106992,0.180941,-1.34124e-05,5.22493e-05,
-0.25,0.159977,0.180941,-9.89651e-05,7.94916e-05,
-0.25,0.206488,0.180941,-0.000275474,0.000108097,
-0.25,0.243943,0.180941,-0.000445811,0.000138555,
-0.25,0.273942,0.180942,-0.000568064,0.000171389,
-0.25,0.298703,0.180943,-0.000654102,0.000207163,
-0.25,0.319844,0.180943,-0.00071707,0.000246489,
-0.25,0.338438,0.180944,-0.000765404,0.000290044,
-0.25,0.355198,0.180945,-0.000804521,0.000338574,
-0.25,0.370606,0.180947,-0.000837528,0.000392915,
-0.25,0.384998,0.180949,-0.000866443,0.000454,
-0.25,0.39862,0.18095,-0.000892597,0.000522878,
-0.25,0.411654,0.180953,-0.000916894,0.000600734,
-0.25,0.424239,0.180955,-0.000939954,0.000688907,
-0.25,0.436487,0.180958,-0.000962203,0.000788915,
-0.25,0.448483,0.180962,-0.000983928,0.000902478,
-0.25,0.460303,0.180966,-0.00100531,0.00103155,
-0.25,0.472005,0.18097,-0.00102646,0.00117836,
-0.25,0.483642,0.180975,-0.0010474,0.00134543,
-0.25,0.495259,0.18098,-0.00106812,0.00153564,
-0.25,0.506898,0.180985,-0.00108857,0.00175227,
-0.25,0.518593,0.180991,-0.00110871,0.00199906,
-0.25,0.530379,0.180997,-0.0011284,0.00228026,
-0.25,0.542289,0.181002,-0.00114745,0.00260072,
-0.25,0.554351,0.181007,-0.00116564,0.00296597,
-0.25,0.566595,0.181012,-0.00118271,0.00338233,
-0.25,0.57905,0.181015,-0.00119836,0.00385697,
-0.25,0.591745,0.181016,-0.00121225,0.00439809,
-0.25,0.604711,0.181013,-0.00122401,0.00501505,
-0.25,0.61798,0.181006,-0.0012332,0.00571851,
-0.25,0.631591,0.180992,-0.00123934,0.00652062,
-0.25,0.645585,0.18097,-0.00124185,0.00743527,
-0.25,0.660015,0.180936,-0.00124006,0.00847826,
-0.25,0.674945,0.180887,-0.00123318,0.00966765,
-0.25,0.690456,0.180816,-0.00122022,0.011024,
-0.25,0.706651,0.18072,-0.00119994,0.0125709,
-0.25,0.723667,0.180588,-0.00117062,0.0143349,
-0.25,0.741679,0.180411,-0.00113068,0.0163469,
-0.25,0.760927,0.180174,-0.00108366,0.0186414,
-0.25,0.781969,0.179869,-0.00100404,0.0212585,
-0.25,0.805558,0.179479,-0.000879641,0.0242434,
-0.25,0.831783,0.178984,-0.000712792,0.0276478,
-0.25,0.859022,0.178327,-0.000518881,0.031531,
-0.25,0.884433,0.177525,-0.000294489,0.0359602,
-0.25,0.903451,0.176455,-9.38684e-05,0.0410123,
-0.25,0.910957,0.175019,-1.46853e-05,0.0467752,
-0.25,0.912512,0.173537,-1.54957e-06,0.0533488,
-0.25,0.913402,0.171807,-2.60661e-07,0.0608475,
-0.25,0.914413,0.169777,-4.80956e-08,0.0694016,
-0.25,0.915606,0.167411,-1.31388e-08,0.0791597,
-0.25,0.916989,0.164667,-8.32366e-09,0.0902917,
-0.25,0.918589,0.161493,-7.84227e-09,0.102991,
-0.25,0.920441,0.157826,-7.87908e-09,0.117479,
-0.25,0.922575,0.153601,-7.94019e-09,0.134008,
-0.25,0.925025,0.148768,-7.95104e-09,0.152865,
-0.25,0.927808,0.14326,-7.90145e-09,0.17438,
-0.25,0.93095,0.137032,-7.76674e-09,0.198926,
-0.25,0.934443,0.130076,-7.58817e-09,0.226933,
-0.25,0.938359,0.122364,-7.31429e-09,0.258887,
-0.25,0.942608,0.113992,-6.98276e-09,0.295348,
-0.25,0.9473,0.104703,-6.53677e-09,0.33695,
-0.25,0.952166,0.0951038,-6.00758e-09,0.384419,
-0.25,0.957297,0.0849951,-5.44501e-09,0.438586,
-0.25,0.962532,0.0746317,-4.78115e-09,0.500395,
-0.25,0.967693,0.0643695,-4.12045e-09,0.570927,
-0.25,0.972823,0.0543074,-3.50504e-09,0.651415,
-0.25,0.977746,0.0447767,-2.90569e-09,0.743264,
-0.25,0.982266,0.0356811,-2.34954e-09,0.848083,
-0.25,0.986435,0.0274144,-1.83489e-09,0.967704,
-0.25,0.990053,0.0201841,-1.38145e-09,1.10422,
-0.25,0.993135,0.0140562,-9.99047e-10,1.26002,
-0.25,0.995601,0.00908601,-6.89567e-10,1.43784,
-0.25,0.997527,0.00526805,-4.46156e-10,1.64079,
-0.25,0.998861,0.00252495,-2.63002e-10,1.86641,
-0.25,0.999725,0.000769644,-1.35737e-10,2.12427,
-0.25,1.00017,-0.000181631,-5.04355e-11,2.41998,
-0.25,1.00019,-0.000224256,-4.43692e-11,2.46413,
-0.25,1.00032,-0.000505274,-4.05923e-12,2.75802,
-0.25,1.00023,-0.000390925,2.23145e-11,3.14513,
-0.25,0.999999,1.50981e-05,2.92659e-11,3.58873,

0.688,0,-0.291479,0,1e-16,
0.688,-0.0101997,-0.291486,7.20343e-09,2.33816e-05,
0.688,-0.018999,-0.291493,2.17007e-07,4.71702e-05,
0.688,-0.026399,-0.291501,1.78537e-06,7.17799e-05,
0.688,-0.0321812,-0.291508,6.86013e-06,9.76391e-05,
0.688,-0.0359322,-0.291522,1.35839e-05,0.000125198,
0.688,-0.0374994,-0.291507,9.79633e-06,0.000154937,
0.688,-0.0374216,-0.291543,-1.52073e-05,0.000187374,
0.688,-0.0363761,-0.291543,-5.88136e-05,0.000223074,
0.688,-0.0347785,-0.291552,-0.00011478,0.00026266,
0.688,-0.0328163,-0.291561,-0.000180259,0.000306822,
0.688,-0.0305562,-0.291571,-0.000254942,0.000356332,
0.688,-0.0280101,-0.291581,-0.000339569,0.000412053,
0.688,-0.0251594,-0.291591,-0.000435442,0.000474959,
0.688,-0.0219681,-0.291601,-0.000544175,0.000546147,
0.688,-0.0183846,-0.291611,-0.000667682,0.000626864,
0.688,-0.0143428,-0.291621,-0.000808152,0.000718519,
0.688,-0.00975952,-0.29163,-0.000968057,0.000822716,
0.688,-0.00453112,-0.291639,-0.00115007,0.000941278,
0.688,0.00147087,-0.291646,-0.00135743,0.00107628,
0.688,0.00840462,-0.291651,-0.00159435,0.00123008,
0.688,0.016472,-0.291652,-0.00186403,0.00140539,
0.688,0.0259334,-0.291647,-0.00217065,0.00160526,
0.688,0.0371259,-0.291636,-0.00251851,0.0018332,
0.688,0.0504845,-0.291616,-0.00291086,0.00209321,
0.688,0.0665662,-0.291581,-0.00334949,0.00238985,
0.688,0.0860821,-0.291534,-0.00383547,0.00272832,
0.688,0.109945,-0.291472,-0.00441157,0.00311456,
0.688,0.139841,-0.29137,-0.00497058,0.00355536,
0.688,0.178602,-0.29122,-0.00547671,0.00405845,
0.688,0.229488,-0.291063,-0.00596988,0.00463268,
0.688,0.295849,-0.290817,-0.00632324,0.00528813,
0.688,0.381173,-0.29051,-0.0063578,0.00603632,
0.688,0.487238,-0.289387,-0.0059976,0.00689042,
0.688,0.610307,-0.288457,-0.00528763,0.00786545,
0.688,0.736143,-0.287274,-0.00425708,0.00897856,
0.688,0.845404,-0.286258,-0.00309149,0.0102494,
0.688,0.925048,-0.284915,-0.00203495,0.0117002,
0.688,0.975652,-0.282957,-0.00109078,0.0133567,
0.688,1.00535,-0.280496,-0.000608654,0.015248,
0.688,1.02348,-0.277231,-0.000401309,0.0174016,
0.688,1.03645,-0.273284,-0.000323989,0.0197947,
0.688,1.04752,-0.268527,-0.000294483,0.0225411,
0.688,1.05816,-0.262985,-0.000271078,0.0256954,
0.688,1.06914,-0.25662,-0.000241247,0.0293134,
0.688,1.08104,-0.249424,-0.00021787,0.0334589,
0.688,1.09579,-0.241377,-0.000131838,0.0382051,
0.688,1.1062,-0.233893,-2.19714e-05,0.0436361,
0.688,1.11176,-0.228681,2.38046e-05,0.0498477,
0.688,1.11226,-0.222852,1.88867e-05,0.0569175,
0.688,1.11095,-0.219267,-2.67354e-06,0.0649586,
0.688,1.12249,-0.245465,-8.54134e-06,0.074169,
0.688,1.19713,-0.401548,-2.90626e-06,0.0847119,
0.688,1.29138,-0.590881,-8.86464e-07,0.0967654,
0.688,1.32674,-0.660174,-1.42496e-07,0.110475,
0.688,1.32577,-0.657797,9.54854e-09,0.126175,
0.688,1.31657,-0.639467,4.28079e-08,0.144131,
0.688,1.30211,-0.610751,4.43273e-08,0.164669,
0.688,1.2868,-0.579655,3.88551e-08,0.188038,
0.688,1.27105,-0.54797,3.49387e-08,0.214753,
0.688,1.25429,-0.514505,3.23982e-08,0.245311,
0.688,1.23618,-0.477934,3.04008e-08,0.280275,
0.688,1.21629,-0.437304,2.92995e-08,0.320142,
0.688,1.19334,-0.390855,3.12673e-08,0.365789,
0.688,1.16443,-0.332542,3.70418e-08,0.417836,
0.688,1.12664,-0.255679,3.2498e-08,0.477372,
0.688,1.09479,-0.190897,1.7625e-08,0.545486,
0.688,1.07953,-0.159763,9.2636e-09,0.623218,
0.688,1.06738,-0.134996,7.15876e-09,0.712106,
0.688,1.05603,-0.112196,5.73946e-09,0.813782,
0.688,1.04587,-0.0915465,4.46564e-09,0.930041,
0.688,1.03688,-0.0736034,3.40808e-09,1.06261,
0.688,1.02914,-0.0579684,2.54448e-09,1.21441,
0.688,1.02256,-0.044899,1.86094e-09,1.38796,
0.688,1.01715,-0.0340218,1.33331e-09,1.58636,
0.688,1.01272,-0.0252068,9.4091e-10,1.81256,
0.688,1.00918,-0.0181667,6.53553e-10,2.0716,
0.688,1.00635,-0.0125149,4.54178e-10,2.36771,
0.688,1.00407,-0.00799325,3.31005e-10,2.70619,
0.688,1.00218,-0.00432123,2.36679e-10,3.09309,
0.688,1.0006,-0.00117215,2.04782e-10,3.53533,

0.813,0,-0.129788,0,1e-16,
0.813,-0.0103593,-0.129791,5.30279e-09,2.32716e-05,
0.813,-0.0203348,-0.129795,1.69473e-07,4.69491e-05,
0.813,-0.030027,-0.1298,1.65739e-06,7.14457e-05,
0.813,-0.0393376,-0.129806,8.25194e-06,9.71887e-05,
0.813,-0.0477642,-0.129811,2.529e-05,0.000124627,
0.813,-0.0545059,-0.129815,5.06985e-05,0.000154241,
0.813,-0.0592229,-0.12982,7.15061e-05,0.000186546,
0.813,-0.0622868,-0.129826,7.92955e-05,0.000222108,
0.813,-0.0642367,-0.129833,7.54193e-05,0.000261547,
0.813,-0.0654593,-0.129842,6.32713e-05,0.000305554,
0.813,-0.0661856,-0.129848,4.51458e-05,0.000354897,
0.813,-0.0665516,-0.129866,2.20443e-05,0.000410441,
0.813,-0.0666333,-0.129853,-5.82305e-06,0.000473157,
0.813,-0.0664755,-0.129887,-3.82861e-05,0.000544144,
0.813,-0.0661032,-0.129895,-7.58886e-05,0.000624646,
0.813,-0.0655255,-0.12991,-0.00011929,0.000716071,
0.813,-0.0647443,-0.129926,-0.000169077,0.000820025,
0.813,-0.0637533,-0.129945,-0.000226218,0.000938328,
0.813,-0.0625404,-0.129966,-0.00029171,0.00107306,
0.813,-0.0610877,-0.129989,-0.000366762,0.00122658,
0.813,-0.0593717,-0.130016,-0.00045277,0.00140158,
0.813,-0.0573625,-0.130045,-0.000551358,0.00160114,
0.813,-0.0550229,-0.130078,-0.000664415,0.00182877,
0.813,-0.0523068,-0.130114,-0.000794128,0.00208846,
0.813,-0.0491577,-0.130155,-0.000942944,0.00238478,
0.813,-0.0455062,-0.130199,-0.00111373,0.00272294,
0.813,-0.0412658,-0.130248,-0.00130991,0.00310889,
0.813,-0.036328,-0.130302,-0.00153541,0.00354942,
0.813,-0.0305557,-0.130361,-0.0017948,0.00405228,
0.813,-0.0237732,-0.130425,-0.00209341,0.00462634,
0.813,-0.0157538,-0.130493,-0.0024374,0.00528169,
0.813,-0.00619988,-0.130564,-0.00283282,0.0060299,
0.813,0.00527232,-0.130638,-0.00328911,0.00688414,
0.813,0.0191638,-0.130714,-0.00381808,0.00785949,
0.813,0.036162,-0.130787,-0.00442627,0.00897314,
0.813,0.0572355,-0.130849,-0.00512307,0.0102448,
0.813,0.0837215,-0.130948,-0.00597108,0.0116968,
0.813,0.118082,-0.131004,-0.00698201,0.0133548,
0.813,0.165742,-0.130898,-0.00786135,0.0152482,
0.813,0.235633,-0.130639,-0.00878885,0.0173973,
0.813,0.339553,-0.129817,-0.00928025,0.0197681,
0.813,0.487821,-0.128,-0.00868221,0.0225011,
0.813,0.665238,-0.126645,-0.00701714,0.0256452,
0.813,0.820075,-0.126173,-0.00468862,0.0292561,
0.813,0.916558,-0.126418,-0.00191285,0.033398,
0.813,0.963311,-0.125743,-0.00071679,0.0379504,
0.813,0.990475,-0.124088,-0.00039769,0.0431839,
0.813,1.01497,-0.12173,-0.000300044,0.0492266,
0.813,1.03785,-0.117959,-0.000174991,0.0561862,
0.813,1.05191,-0.11599,-5.48946e-05,0.0641865,
0.813,1.05725,-0.113145,-6.49797e-06,0.0732535,
0.813,1.05878,-0.10988,3.62716e-06,0.0836093,
0.813,1.05423,-0.106127,2.20158e-06,0.0955186,
0.813,1.04712,-0.101584,4.53735e-07,0.10911,
0.813,1.04288,-0.0964514,7.84119e-08,0.124602,
0.813,1.03738,-0.0920202,6.7063e-09,0.142358,
0.813,1.04051,-0.0852853,1.24193e-09,0.162626,
0.813,1.03798,-0.0815566,2.14624e-09,0.185823,
0.813,1.03407,-0.0770324,1.57025e-09,0.212297,
0.813,1.03316,-0.0732354,6.49061e-10,0.242651,
0.813,1.0333,-0.0709384,-9.92963e-11,0.277301,
0.813,1.03423,-0.0705868,-7.55556e-10,0.316941,
0.813,1.03609,-0.0714441,-8.05475e-10,0.36227,
0.813,1.03627,-0.073181,-8.82644e-10,0.41413,
0.813,1.0374,-0.0749974,-8.73257e-10,0.473389,
0.813,1.03801,-0.0763788,-1.9943e-10,0.54123,
0.813,1.03779,-0.0757308,4.80536e-10,0.618788,
0.813,1.03657,-0.0731029,1.09555e-09,0.707593,
0.813,1.03426,-0.0683055,1.49073e-09,0.809092,
0.813,1.03101,-0.0618383,1.67607e-09,0.925335,
0.813,1.02714,-0.05399,1.65836e-09,1.05821,
0.813,1.02294,-0.0455485,1.49879e-09,1.21017,
0.813,1.01875,-0.0372566,1.25317e-09,1.38391,
0.813,1.01489,-0.0294846,9.91898e-10,1.58247,
0.813,1.01142,-0.0225799,7.54658e-10,1.81009,
0.813,1.00849,-0.0167807,5.55025e-10,2.07007,
0.813,1.00603,-0.0118678,3.99161e-10,2.36772,
0.813,1.00403,-0.0079517,2.93407e-10,2.70818,
0.813,1.00228,-0.00448224,2.11462e-10,3.09651,
0.813,1.00096,-0.00188716,1.60599e-10,3.54123,

0.938,0,-0.0535782,0,1e-16,
0.938,-0.0108447,-0.0535808,2.18803e-09,2.32316e-05,
0.938,-0.0216564,-0.0535832,6.57453e-08,4.68694e-05,
0.938,-0.0325716,-0.0535865,6.74772e-07,7.13267e-05,
0.938,-0.043642,-0.0535902,3.64201e-06,9.70313e-05,
0.938,-0.0546897,-0.0535941,1.28737e-05,0.000124433,
0.938,-0.0651307,-0.0535974,3.20923e-05,0.000154011,
0.938,-0.0741324,-0.0535996,5.86907e-05,0.000186283,
0.938,-0.0812133,-0.0536013,8.36946e-05,0.000221814,
0.938,-0.0864906,-0.053603,0.000100603,0.000261227,
0.938,-0.0903709,-0.0536049,0.000108655,0.000305212,
0.938,-0.0932425,-0.0536075,0.000109375,0.000354541,
0.938,-0.095385,-0.0536102,0.000104415,0.000410078,
0.938,-0.0969913,-0.0536132,9.50908e-05,0.000472798,
0.938,-0.0981879,-0.0536163,8.20639e-05,0.000543802,
0.938,-0.0990574,-0.0536199,6.55584e-05,0.000624336,
0.938,-0.0996529,-0.0536234,4.56091e-05,0.000715816,
0.938,-0.100009,-0.0536318,2.2022e-05,0.000819848,
0.938,-0.100146,-0.0536262,-5.9103e-06,0.000938261,
0.938,-0.100073,-0.0535755,-3.82152e-05,0.00107314,
0.938,-0.099797,-0.0536402,-7.53368e-05,0.00122685,
0.938,-0.0993136,-0.0536348,-0.000118493,0.00140211,
0.938,-0.0986157,-0.0536343,-0.00016809,0.00160199,
0.938,-0.0976922,-0.0536346,-0.000224985,0.00183001,
0.938,-0.0965263,-0.0536357,-0.000290309,0.0020902,
0.938,-0.0950972,-0.0536369,-0.000365204,0.00238713,
0.938,-0.0933782,-0.0536381,-0.000451002,0.00272605,
0.938,-0.0913373,-0.0536396,-0.000549215,0.00311293,
0.938,-0.0889351,-0.0536415,-0.00066155,0.00355458,
0.938,-0.0861249,-0.0536441,-0.000789976,0.00405882,
0.938,-0.0828489,-0.0536478,-0.000936743,0.00463453,
0.938,-0.0790375,-0.0536535,-0.00110446,0.00529188,
0.938,-0.0746046,-0.0536616,-0.00129606,0.00604249,
0.938,-0.0694445,-0.0536733,-0.00151489,0.00689961,
0.938,-0.0634236,-0.0536896,-0.00176507,0.0078784,
0.938,-0.0563721,-0.0537126,-0.00205148,0.00899617,
0.938,-0.0480693,-0.0537429,-0.00237959,0.0102727,
0.938,-0.0382278,-0.0537833,-0.00275488,0.0117305,
0.938,-0.0264729,-0.0538285,-0.00318357,0.0133955,
0.938,-0.012306,-0.0538812,-0.00367319,0.0152971,
0.938,0.00493258,-0.053935,-0.00424169,0.017469,
0.938,0.0261405,-0.0539843,-0.00489809,0.0199391,
0.938,0.0525918,-0.054033,-0.0056749,0.0225116,
0.938,0.0862085,-0.0541596,-0.0066883,0.0255164,
0.938,0.131128,-0.0540901,-0.00778887,0.0290096,
0.938,0.196445,-0.053535,-0.00876206,0.0330545,
0.938,0.297434,-0.0521398,-0.00944019,0.0377237,
0.938,0.449768,-0.0490695,-0.0090149,0.0426984,
0.938,0.640899,-0.0478732,-0.00751968,0.0484919,
0.938,0.812143,-0.0487039,-0.00513077,0.0552419,
0.938,0.923667,-0.0499438,-0.00217861,0.0630705,
0.938,0.98289,-0.0498795,-0.000745735,0.0721179,
0.938,1.01327,-0.0474476,-0.000212562,0.0822909,
0.938,1.02449,-0.0477921,-3.283e-05,0.0938338,
0.938,1.02549,-0.0486931,8.57539e-07,0.107215,
0.938,1.02372,-0.0481847,2.67845e-06,0.122488,
0.938,1.01778,-0.04782,6.7845e-07,0.139919,
0.938,1.01646,-0.0452635,1.51178e-08,0.160003,
0.938,1.0177,-0.0441243,-2.86789e-09,0.18281,
0.938,1.01783,-0.0434409,9.90717e-10,0.208986,
0.938,1.01711,-0.0423732,2.89638e-10,0.239003,
0.938,1.01735,-0.0409391,-1.13387e-10,0.273269,
0.938,1.01816,-0.0401248,-3.56509e-10,0.312507,
0.938,1.01953,-0.0391145,-2.28296e-10,0.357468,
0.938,1.01945,-0.0391019,-1.26528e-11,0.408929,
0.938,1.01944,-0.0389112,-9.85882e-11,0.467901,
0.938,1.01949,-0.0390714,-1.44371e-10,0.535368,
0.938,1.01959,-0.0391782,-8.89136e-11,0.612662,
0.938,1.01964,-0.0391072,4.4495e-11,0.701152,
0.938,1.01936,-0.0384876,2.38263e-10,0.802634,
0.938,1.01865,-0.0370498,4.16912e-10,0.91874,
0.938,1.01749,-0.0346145,5.66671e-10,1.05163,
0.938,1.01583,-0.0314291,6.45715e-10,1.20403,
0.938,1.01382,-0.0273552,6.5073e-10,1.37848,
0.938,1.01163,-0.0229355,5.96846e-10,1.57802,
0.938,1.0094,-0.0185211,5.07912e-10,1.80652,
0.938,1.0073,-0.0143635,4.07692e-10,2.06844,
0.938,1.00539,-0.0106293,3.11882e-10,2.3677,
0.938,1.00378,-0.0074375,2.37405e-10,2.7102,
0.938,1.00231,-0.00454906,1.69611e-10,3.1022,
0.938,1.00119,-0.00235232,1.3389e-10,3.55094,

1,0,-0.0381695,0,1e-16,
1,-0.0175391,-0.038171,7.76366e-09,2.32217e-05,
1,-0.0350792,-0.038173,2.68019e-07,4.685e-05,
1,-0.0527911,-0.0381759,2.67954e-06,7.12984e-05,
1,-0.0705747,-0.0381798,1.33959e-05,9.6995e-05,
1,-0.0877332,-0.0381843,4.12226e-05,0.00012439,
1,-0.103023,-0.0381894,8.60551e-05,0.000153963,
1,-0.115486,-0.0381956,0.000133818,0.000186233,
1,-0.125042,-0.0382037,0.00017091,0.000221764,
1,-0.132192,-0.0382139,0.000193511,0.000261182,
1,-0.137548,-0.0382264,0.000203827,0.000305176,
1,-0.141611,-0.038241,0.000205168,0.000354519,
1,-0.144741,-0.038258,0.0002001,0.000410078,
1,-0.147179,-0.0382776,0.000190229,0.000472828,
1,-0.149088,-0.0383,0.000176459,0.000543873,
1,-0.150576,-0.0383255,0.000159265,0.000624461,
1,-0.151716,-0.0383544,0.000138895,0.000716009,
1,-0.152558,-0.0383877,0.000115375,0.000820128,
1,-0.153136,-0.0384225,8.87877e-05,0.000938651,
1,-0.153472,-0.038473,5.86294e-05,0.00107366,
1,-0.153576,-0.0384972,2.41792e-05,0.00122754,
1,-0.153452,-0.0385392,-1.45294e-05,0.001403,
1,-0.153101,-0.0385965,-5.81117e-05,0.00160314,
1,-0.152514,-0.0386707,-0.000107354,0.00183147,
1,-0.151681,-0.0387505,-0.000163163,0.00209203,
1,-0.150582,-0.0388261,-0.000226701,0.00238941,
1,-0.149194,-0.0389137,-0.000298851,0.00272886,
1,-0.14749,-0.0390111,-0.000380899,0.00311639,
1,-0.145432,-0.0391196,-0.000474284,0.00355882,
1,-0.142977,-0.0392395,-0.00058058,0.00406398,
1,-0.140074,-0.0393714,-0.000701569,0.00464079,
1,-0.13666,-0.039516,-0.000839207,0.00529946,
1,-0.13266,-0.0396735,-0.000995617,0.00605162,
1,-0.127983,-0.0398438,-0.00117324,0.0069106,
1,-0.122521,-0.0400271,-0.00137492,0.00789159,
1,-0.116138,-0.0402217,-0.00160307,0.00901195,
1,-0.108673,-0.0404263,-0.00185951,0.0102915,
1,-0.0999339,-0.0406394,-0.00214592,0.011753,
1,-0.089682,-0.0408589,-0.00246298,0.0134223,
1,-0.0776301,-0.0410852,-0.00282368,0.0153289,
1,-0.0633082,-0.0413379,-0.00322719,0.0175068,
1,-0.0456344,-0.0416235,-0.00357155,0.0199945,
1,-0.0231112,-0.0419381,-0.00401301,0.0228361,
1,0.00574819,-0.0423014,-0.0045839,0.0260822,
1,0.0423423,-0.0427327,-0.00531964,0.0297904,
1,0.088091,-0.043423,-0.00622619,0.0340265,
1,0.146127,-0.044066,-0.00733014,0.0388658,
1,0.225223,-0.0442099,-0.00854312,0.0443714,
1,0.342218,-0.0425967,-0.00915554,0.050306,
1,0.509368,-0.0386201,-0.0085039,0.0567779,
1,0.700429,-0.0347738,-0.00678262,0.0643629,
1,0.860322,-0.0327512,-0.00403873,0.073201,
1,0.959315,-0.0321202,-0.00138913,0.0834523,
1,1.00271,-0.0275278,-0.000312287,0.0952491,
1,1.01323,-0.027569,-2.96509e-05,0.108351,
1,1.01358,-0.0266447,5.93309e-06,0.123411,
1,1.00985,-0.0248071,3.68156e-06,0.140887,
1,1.00554,-0.0232674,5.06053e-07,0.160913,
1,1.00548,-0.0214383,-2.16888e-09,0.183368,
1,1.00596,-0.0205609,-1.80915e-09,0.209311,
1,1.00587,-0.0200299,-6.72664e-10,0.239097,
1,1.00635,-0.0196761,-6.92623e-10,0.273067,
1,1.00744,-0.0197489,-8.4825e-10,0.312052,
1,1.00963,-0.020161,-8.43403e-10,0.356741,
1,1.01044,-0.020996,-5.97696e-10,0.407906,
1,1.01101,-0.0219287,-6.34509e-10,0.466542,
1,1.01159,-0.0232069,-6.34759e-10,0.53384,
1,1.01223,-0.0244345,-5.71886e-10,0.610826,
1,1.01294,-0.025708,-4.29983e-10,0.699112,
1,1.01339,-0.0264491,-1.88203e-10,0.800294,
1,1.01349,-0.0267121,1.7368e-11,0.916281,
1,1.0132,-0.0260544,1.86364e-10,1.04923,
1,1.01249,-0.0246878,3.19461e-10,1.2016,
1,1.01133,-0.0223614,3.96208e-10,1.37615,
1,1.00989,-0.0194458,4.1089e-10,1.57647,
1,1.00825,-0.016233,3.83578e-10,1.80575,
1,1.00776,-0.0152719,3.67663e-10,1.88256,
1,1.00659,-0.0129482,3.28996e-10,2.0677,
1,1.00499,-0.00981307,2.63271e-10,2.36835,
1,1.00359,-0.00704631,2.04143e-10,2.71278,
1,1.00229,-0.00452835,1.5262e-10,3.10614,
1,1.00128,-0.00253609,1.20896e-10,3.55725,

1.125,0,0.0705358,0,1e-16,
1.125,-0.0116695,0.0705322,2.21915e-08,2.2977e-05,
1.125,-0.0228666,0.0705331,7.78144e-07,4.63572e-05,
1.125,-0.0335526,0.070533,7.16749e-06,7.05508e-05,
1.125,-0.0430762,0.0705326,2.99386e-05,9.59823e-05,
1.125,-0.0502979,0.0705315,6.74471e-05,0.000123098,
1.125,-0.0549879,0.0705297,9.624e-05,0.000152375,
1.125,-0.0578936,0.0705266,0.000106014,0.000184326,
1.125,-0.0597343,0.070522,0.000102613,0.000219514,
1.125,-0.0609367,0.0705159,9.17707e-05,0.000258557,
1.125,-0.0617293,0.0705081,7.61624e-05,0.000302141,
1.125,-0.0622366,0.0704982,5.68228e-05,0.000351033,
1.125,-0.0625284,0.0704862,3.40251e-05,0.000406094,
1.125,-0.0626453,0.0704715,7.70826e-06,0.000468293,
1.125,-0.0626106,0.0704539,-2.2428e-05,0.000538726,
1.125,-0.0624372,0.0704326,-5.68136e-05,0.000618634,
1.125,-0.062131,0.0704073,-9.59577e-05,0.000709426,
1.125,-0.0616931,0.070377,-0.000140489,0.000812702,
1.125,-0.0611207,0.070341,-0.000191147,0.000930284,
1.125,-0.0604082,0.0702983,-0.000248775,0.00106425,
1.125,-0.059547,0.070248,-0.000314364,0.00121696,
1.125,-0.0585256,0.0701885,-0.000389022,0.00139111,
1.125,-0.0573302,0.0701186,-0.000474018,0.00158979,
1.125,-0.0559436,0.0700367,-0.000570793,0.00181649,
1.125,-0.0543456,0.0699411,-0.000681058,0.00207523,
1.125,-0.0525116,0.0698298,-0.000806685,0.00237059,
1.125,-0.0504127,0.0697007,-0.000949803,0.00270779,
1.125,-0.0480145,0.0695518,-0.00111283,0.0030928,
1.125,-0.0452758,0.0693809,-0.00129866,0.00353243,
1.125,-0.0421464,0.0691859,-0.00151038,0.00403447,
1.125,-0.0385665,0.0689647,-0.0017515,0.00460781,
1.125,-0.0344625,0.0687161,-0.00202595,0.00526262,
1.125,-0.0297452,0.0684387,-0.00233842,0.00601049,
1.125,-0.0243019,0.0681322,-0.00269372,0.00686471,
1.125,-0.017995,0.0677969,-0.00309712,0.00784041,
1.125,-0.0106513,0.067434,-0.00355478,0.00895492,
1.125,-0.00205523,0.0670475,-0.00407412,0.010228,
1.125,0.00807629,0.0666428,-0.00465768,0.0116823,
1.125,0.0201047,0.0662251,-0.0053127,0.0133436,
1.125,0.0344879,0.0657976,-0.00604734,0.0152415,
1.125,0.0518132,0.0653712,-0.0068616,0.0174097,
1.125,0.0728501,0.0649512,-0.00775718,0.0198867,
1.125,0.0986307,0.0646599,-0.00901646,0.0227167,
1.125,0.132376,0.0646401,-0.00968865,0.0259499,
1.125,0.179011,0.0646155,-0.0103377,0.029644,
1.125,0.241486,0.0644044,-0.0108249,0.0338647,
1.125,0.32184,0.0640544,-0.0108778,0.0386871,
1.125,0.421838,0.0635418,-0.0102618,0.0441974,
1.125,0.539687,0.0628914,-0.00892394,0.0504935,
1.125,0.665657,0.062068,-0.00705101,0.0576879,
1.125,0.783193,0.0613371,-0.00504903,0.0659089,
1.125,0.878336,0.0582194,-0.00254519,0.0753032,
1.125,0.939751,0.0603104,-0.000824913,0.0860384,
1.125,0.967323,0.0565463,-0.000179593,0.0983063,
1.125,0.972997,0.0534837,-2.5059e-05,0.112326,
1.125,0.974009,0.0505434,-3.06999e-06,0.128348,
1.125,0.972361,0.0473517,-5.89809e-07,0.146659,
1.125,0.971883,0.0439878,-5.30097e-07,0.167586,
1.125,0.974738,0.0403807,-1.85901e-07,0.191503,
1.125,0.977398,0.0366007,-3.96688e-08,0.218838,
1.125,0.979686,0.0325674,-9.43112e-09,0.250082,
1.125,0.982494,0.0283335,-3.45821e-09,0.285792,
1.125,0.985944,0.0238499,-2.49403e-09,0.32661,
1.125,0.990044,0.0193358,-2.24796e-09,0.373265,
1.125,0.992703,0.0146858,-2.06028e-09,0.426595,
1.125,0.995104,0.0101014,-1.99422e-09,0.487555,
1.125,0.997305,0.00562714,-1.78649e-09,0.55724,
1.125,0.99944,0.00130053,-1.50973e-09,0.636898,
1.125,1.00151,-0.0027131,-1.19169e-09,0.72796,
1.125,1.00329,-0.00618002,-8.72865e-10,0.82855,
1.125,1.00473,-0.00912645,-5.92177e-10,0.94298,
1.125,1.00521,-0.0100803,-4.86038e-10,1.00315,
1.125,1.00579,-0.0112097,-3.60182e-10,1.07453,
1.125,1.00646,-0.0125837,-1.39785e-10,1.22528,
1.125,1.00661,-0.0129416,8.70651e-12,1.39832,
1.125,1.00637,-0.0124025,1.08299e-10,1.59646,
1.125,1.00579,-0.0113147,1.61236e-10,1.82431,
1.125,1.00499,-0.00974824,1.7669e-10,2.08526,
1.125,1.00404,-0.00791239,1.63976e-10,2.38489,
1.125,1.00311,-0.00609108,1.39667e-10,2.72763,
1.125,1.00218,-0.00429173,1.10928e-10,3.12069,
1.125,1.00145,-0.00286707,8.72671e-11,3.57128,

1.25,0,0.151442,0,1e-16,
1.25,0.017058,0.15144,-4.17401e-08,2.27149e-05,
1.25,0.0345712,0.15144,-1.56091e-06,4.58292e-05,
1.25,0.0524701,0.15144,-1.50637e-05,6.97496e-05,
1.25,0.0694646,0.151439,-6.40151e-05,9.48968e-05,
1.25,0.0832818,0.151438,-0.000146587,0.000121713,
1.25,0.0932188,0.151437,-0.000222287,0.000150671,
1.25,0.100249,0.151433,-0.000273509,0.00018228,
1.25,0.105449,0.151429,-0.00030753,0.000217097,
1.25,0.109519,0.151422,-0.000332887,0.000255735,
1.25,0.112873,0.151414,-0.000354532,0.000298876,
1.25,0.115755,0.151404,-0.000375084,0.00034728,
1.25,0.118318,0.151391,-0.000396049,0.000401801,
1.25,0.12066,0.151375,-0.000418426,0.000463402,
1.25,0.122851,0.151356,-0.000443017,0.00053317,
1.25,0.124941,0.151333,-0.000470513,0.000612337,
1.25,0.126969,0.151306,-0.000501554,0.000702303,
1.25,0.128964,0.151273,-0.000536842,0.000804657,
1.25,0.130955,0.151235,-0.000577168,0.00092121,
1.25,0.132963,0.151188,-0.000623379,0.00105402,
1.25,0.135013,0.151134,-0.000676359,0.00120545,
1.25,0.137124,0.151069,-0.000737182,0.00137816,
1.25,0.13932,0.150993,-0.000807115,0.00157523,
1.25,0.141625,0.150904,-0.000887552,0.00180013,
1.25,0.144063,0.1508,-0.000979987,0.00205686,
1.25,0.146662,0.150678,-0.00108623,0.00234997,
1.25,0.149453,0.150537,-0.00120844,0.00268466,
1.25,0.152474,0.150374,-0.00134897,0.00306685,
1.25,0.155765,0.150186,-0.00151039,0.00350335,
1.25,0.159376,0.149971,-0.00169578,0.00400188,
1.25,0.163365,0.149727,-0.00190871,0.00457132,
1.25,0.167802,0.149451,-0.00215309,0.00522176,
1.25,0.172774,0.149143,-0.00243317,0.00596478,
1.25,0.178385,0.1488,-0.0027538,0.00681358,
1.25,0.184767,0.148424,-0.0031204,0.00778325,
1.25,0.192084,0.148016,-0.00353861,0.00889105,
1.25,0.200544,0.147577,-0.00401403,0.0101567,
1.25,0.210412,0.147115,-0.00455222,0.0116027,
1.25,0.222029,0.146631,-0.0051579,0.0132548,
1.25,0.235837,0.146132,-0.00583372,0.0151425,
1.25,0.252408,0.145627,-0.00657862,0.0172993,
1.25,0.272482,0.145092,-0.00739231,0.0197638,
1.25,0.297056,0.144713,-0.00854586,0.0225799,
1.25,0.329275,0.144651,-0.00897411,0.0257978,
1.25,0.373552,0.144582,-0.00933317,0.0294749,
1.25,0.430967,0.144175,-0.0094442,0.0336769,
1.25,0.500858,0.143446,-0.00907853,0.0384787,
1.25,0.581308,0.142414,-0.00814271,0.0439663,
1.25,0.66774,0.14096,-0.00670217,0.0502376,
1.25,0.752378,0.139134,-0.0050083,0.0574048,
1.25,0.827144,0.136107,-0.00321881,0.0655959,
1.25,0.886552,0.132282,-0.00141959,0.0749575,
1.25,0.924188,0.127552,-0.000439688,0.0856571,
1.25,0.939115,0.121938,-9.75496e-05,0.0978863,
1.25,0.942884,0.115724,-2.15437e-05,0.111864,
1.25,0.944171,0.109319,-6.21193e-06,0.127841,
1.25,0.94461,0.102547,-2.28251e-06,0.146102,
1.25,0.946942,0.0953912,-9.06878e-07,0.166976,
1.25,0.951721,0.0881217,-2.56649e-07,0.190837,
1.25,0.956015,0.0806168,-5.8158e-08,0.218113,
1.25,0.960105,0.0728425,-1.4506e-08,0.249292,
1.25,0.964694,0.0650407,-5.39237e-09,0.284935,
1.25,0.969914,0.0571154,-3.80483e-09,0.325682,
1.25,0.975532,0.0492567,-3.4145e-09,0.372264,
1.25,0.979528,0.0415809,-3.21167e-09,0.425519,
1.25,0.983286,0.0341338,-3.08976e-09,0.486402,
1.25,0.986733,0.0270463,-2.72327e-09,0.55601,
1.25,0.990001,0.020368,-2.2658e-09,0.635594,
1.25,0.993119,0.0142677,-1.80278e-09,0.726585,
1.25,0.995882,0.00868444,-1.37006e-09,0.83062,
1.25,0.998223,0.00399537,-1.00942e-09,0.949574,
1.25,1.0002,-3.12797e-05,-7.08125e-10,1.08559,
1.25,1.00171,-0.0030616,-4.55301e-10,1.24111,
1.25,1.00278,-0.00524348,-2.58964e-10,1.41894,
1.25,1.00341,-0.00648179,-1.07671e-10,1.62229,
1.25,1.00359,-0.00691552,-1.17716e-12,1.84947,
1.25,1.00345,-0.00666176,4.93898e-11,2.10883,
1.25,1.00306,-0.00595431,7.60082e-11,2.40658,
1.25,1.00257,-0.00501655,7.9739e-11,2.74752,
1.25,1.00251,-0.00489522,7.84491e-11,2.79119,
1.25,1.00199,-0.00392299,6.80203e-11,3.13954,
1.25,1.00157,-0.00312774,4.6824e-11,3.5883,

1.375,0,0.15368,0,1e-16,
1.375,0.0380916,0.153679,-1.19914e-07,2.24527e-05,
1.375,0.076633,0.153679,-4.33331e-06,4.53013e-05,
1.375,0.115301,0.153679,-3.82156e-05,6.89485e-05,
1.375,0.151449,0.153679,-0.000140742,9.38113e-05,
1.375,0.181575,0.153678,-0.000285987,0.000120328,
1.375,0.204822,0.153677,-0.000412775,0.000148967,
1.375,0.22246,0.153676,-0.000503194,0.000180234,
1.375,0.236038,0.153674,-0.000564775,0.00021468,
1.375,0.246765,0.153671,-0.000607408,0.000252914,
1.375,0.255481,0.153667,-0.000638372,0.000295611,
1.375,0.262759,0.153661,-0.000662509,0.000343527,
1.375,0.268989,0.153654,-0.000682951,0.000397509,
1.375,0.27444,0.153645,-0.000701769,0.000458511,
1.375,0.279304,0.153634,-0.000720401,0.000527614,
1.375,0.283719,0.15362,-0.000739925,0.00060604,
1.375,0.287788,0.153604,-0.000761213,0.00069518,
1.375,0.291591,0.153583,-0.000785053,0.000796613,
1.375,0.295192,0.153559,-0.0008122,0.000912136,
1.375,0.298641,0.153529,-0.000843432,0.0010438,
1.375,0.301984,0.153494,-0.000879545,0.00119393,
1.375,0.305258,0.153452,-0.00092145,0.00136521,
1.375,0.308499,0.153402,-0.000970162,0.00156067,
1.375,0.311739,0.153342,-0.00102683,0.00178377,
1.375,0.315014,0.153272,-0.00109268,0.00203849,
1.375,0.318354,0.15319,-0.00116918,0.00232935,
1.375,0.321795,0.153094,-0.00125804,0.00266152,
1.375,0.325376,0.152982,-0.00136119,0.00304091,
1.375,0.329139,0.152852,-0.00148067,0.00347427,
1.375,0.33313,0.152702,-0.00161897,0.0039693,
1.375,0.337404,0.15253,-0.00177893,0.00453483,
1.375,0.342025,0.152335,-0.00196374,0.00518091,
1.375,0.347071,0.152114,-0.00217668,0.00591907,
1.375,0.352632,0.151866,-0.00242164,0.00676245,
1.375,0.358822,0.151591,-0.0027029,0.0077261,
1.375,0.365778,0.151288,-0.0030249,0.00882719,
1.375,0.373676,0.150958,-0.00339173,0.0100854,
1.375,0.382729,0.150602,-0.00380753,0.0115231,
1.375,0.393215,0.150221,-0.00427563,0.013166,
1.375,0.405481,0.149818,-0.00479743,0.0150434,
1.375,0.419973,0.14939,-0.00537059,0.017189,
1.375,0.437246,0.148943,-0.00598804,0.0196409,
1.375,0.45801,0.148456,-0.00664901,0.0224431,
1.375,0.483233,0.148043,-0.00748476,0.0256456,
1.375,0.515583,0.147829,-0.00769335,0.0293058,
1.375,0.55819,0.147594,-0.00768086,0.0334891,
1.375,0.610657,0.147009,-0.00736067,0.0382704,
1.375,0.670344,0.146083,-0.00661276,0.0437353,
1.375,0.73374,0.144742,-0.00545978,0.0499817,
1.375,0.796056,0.142979,-0.00408722,0.0571216,
1.375,0.852959,0.140487,-0.00241311,0.0652828,
1.375,0.898946,0.137784,-0.00102641,0.0746118,
1.375,0.926598,0.133717,-0.000293403,0.0852759,
1.375,0.937102,0.129289,-5.99988e-05,0.0974663,
1.375,0.939489,0.12431,-1.218e-05,0.111402,
1.375,0.939861,0.118922,-3.56019e-06,0.127333,
1.375,0.939958,0.113199,-1.59369e-06,0.145546,
1.375,0.942356,0.106956,-6.82759e-07,0.166367,
1.375,0.946637,0.100223,-1.98649e-07,0.190171,
1.375,0.950541,0.0931489,-4.76856e-08,0.217387,
1.375,0.954392,0.0857781,-1.27794e-08,0.248502,
1.375,0.958866,0.0780551,-5.10208e-09,0.284078,
1.375,0.963961,0.0701658,-3.75246e-09,0.324754,
1.375,0.969479,0.0622214,-3.44308e-09,0.371263,
1.375,0.973504,0.0541992,-3.30147e-09,0.424442,
1.375,0.977387,0.0463684,-3.23732e-09,0.485249,
1.375,0.981047,0.0387293,-2.91166e-09,0.554781,
1.375,0.984584,0.0314385,-2.46985e-09,0.634289,
1.375,0.988025,0.0246096,-2.0042e-09,0.725209,
1.375,0.991136,0.0183448,-1.56936e-09,0.82918,
1.375,0.993892,0.0126985,-1.20157e-09,0.948077,
1.375,0.996299,0.00783289,-8.91627e-10,1.08405,
1.375,0.998312,0.00377205,-6.29092e-10,1.23955,
1.375,0.999881,0.000585133,-4.17679e-10,1.41738,
1.375,1.00104,-0.00175304,-2.49244e-10,1.62076,
1.375,1.00176,-0.00325126,-1.25938e-10,1.85337,
1.375,1.00213,-0.00402071,-3.78556e-11,2.1194,
1.375,1.00217,-0.00417823,7.13179e-12,2.42367,
1.375,1.00205,-0.00396359,2.81181e-11,2.77091,
1.375,1.0018,-0.00352613,2.93344e-11,3.16112,
1.375,1.00161,-0.00320095,1.8265e-11,3.6087,

-3.19886,0,0.0204737,0,0,
-2.99627,0,0.00610648,0,0,
-2.80402,0,0.00442049,0,0,
-2.62157,0,0.00373133,0,0,
-2.44842,0,0.00371389,0,0,
-2.2841,0,0.00420631,0,0,
-2.12815,0,0.00474818,0,0,
-1.98016,0,0.00561749,0,0,
-1.83971,0,0.00659873,0,0,
-1.70643,0,0.0079554,0,0,
-1.57994,0,0.00935987,0,0,
-1.4599,0,0.0113982,0,0,
-1.34598,0,0.013641,0,0,
-1.23786,0,0.0162079,0,0,
-1.13526,0,0.0195063,0,0,
-1.03789,0,0.0231837,0,0,
-0.945488,0,0.0279171,0,0,
-0.857795,0,0.0332101,0,0,
-0.774572,0,0.0400727,0,0,
-0.695593,0,0.0477652,0,0,
-0.620641,0,0.0578491,0,0,
-0.54951,0,0.0691575,0,0,
-0.482006,0,0.0841525,0,0,
-0.417943,0,0.10099,0,0,
-0.357147,0,0.1237,0,0,
-0.29945,0,0.149351,0,0,
-0.244696,0,0.184328,0,0,
-0.192732,0,0.218883,0,0,
-0.143419,0,0.269551,0,0,
-0.0966231,0,0.321571,0,0,
-0.0522148,0,0.343483,0,0,
-0.0100698,0,0.348139,0,0,
0.0299268,0,0.337729,0,0,
0.0678843,0,0.293816,0,0,
0.103908,0,0.24031,0,0,
0.138096,0,0.112166,0,0,
0.17054,0,-0.000522947,0,0,
0.20133,0,-0.0885435,0,0,
0.230551,0,-0.165215,0,0,
0.258281,0,-0.228767,0,0,
0.284598,0,-0.287753,0,0,
0.309574,0,-0.338046,0,0,
0.333275,0,-0.383321,0,0,
0.355769,0,-0.424885,0,0,
0.377115,0,-0.461353,0,0,
0.397374,0,-0.496129,0,0,
0.416599,0,-0.526467,0,0,
0.434844,0,-0.555319,0,0,
0.452159,0,-0.580867,0,0,
0.468591,0,-0.605085,0,0,
0.484186,0,-0.626789,0,0,
0.498985,0,-0.647289,0,0,
0.51303,0,-0.66601,0,0,
0.526358,0,-0.683582,0,0,
0.539007,0,-0.699474,0,0,
0.551012,0,-0.714266,0,0,
0.562404,0,-0.728248,0,0,
0.573215,0,-0.74105,0,0,
0.583475,0,-0.753295,0,0,
0.593212,0,-0.764404,0,0,
0.602453,0,-0.774889,0,0,
0.611222,0,-0.773389,0,0,
0.619544,0,-0.749064,0,0,
0.627442,0,-0.703664,0,0,
0.634938,0,-0.602436,0,0,
0.642051,0,-0.515574,0,0,
0.648801,0,-0.453922,0,0,
0.655207,0,-0.414595,0,0,
0.661287,0,-0.377342,0,0,
0.667057,0,-0.353893,0,0,
0.672532,0,-0.333337,0,0,
0.677729,0,-0.318135,0,0,
0.68266,0,-0.303849,0,0,
0.68734,0,-0.293067,0,0,
0.691781,0,-0.282379,0,0,
0.695996,0,-0.274132,0,0,
0.699996,0,-0.266136,0,0,
0.703996,0,-0.259272,0,0,
0.707996,0,-0.252294,0,0,
0.712135,0,-0.245868,0,0,
0.716416,0,-0.239108,0,0,
0.720846,0,-0.232749,0,0,
0.725429,0,-0.226113,0,0,
0.730171,0,-0.219751,0,0,
0.735076,0,-0.213168,0,0,
0.740151,0,-0.206741,0,0,
0.745402,0,-0.200174,0,0,
0.750835,0,-0.193638,0,0,
0.756455,0,-0.187027,0,0,
0.76227,0,-0.180078,0,0,
0.768286,0,-0.174146,0,0,
0.77451,0,-0.166913,0,0,
0.78095,0,-0.160291,0,0,
0.787612,0,-0.153518,0,0,
0.794505,0,-0.146761,0,0,
0.801636,0,-0.140031,0,0,
0.809014,0,-0.133275,0,0,
0.816647,0,-0.126596,0,0,
0.824544,0,-0.1199,0,0,
0.832715,0,-0.113331,0,0,
0.841168,0,-0.106773,0,0,
0.849914,0,-0.100368,0,0,
0.858962,0,-0.0940261,0,0,
0.868323,0,-0.0878836,0,0,
0.878008,0,-0.0818541,0,0,
0.888028,0,-0.0760762,0,0,
0.898395,0,-0.0704729,0,0,
0.90912,0,-0.0651889,0,0,
0.920216,0,-0.0602239,0,0,
0.931697,0,-0.0557975,0,0,
0.943574,0,-0.0516158,0,0,
0.955862,0,-0.0500535,0,0,
0.968576,0,-0.0455915,0,0,
0.981729,0,-0.0447449,0,0,
0.995332,0,-0.0385943,0,0,
1.00941,0,-0.0373135,0,0,
1.02397,0,-0.0194786,0,0,
1.03904,0,-0.0145064,0,0,
1.05463,0,0.00010365,0,0,
1.07076,0,0.0152299,0,0,
1.08745,0,0.0327192,0,0,
1.10471,0,0.0504006,0,0,
1.12258,0,0.068257,0,0,
1.14106,0,0.0856426,0,0,
1.16018,0,0.101774,0,0,
1.17996,0,0.116928,0,0,
1.20043,0,0.129629,0,0,
1.22161,0,0.140563,0,0,
1.24351,0,0.149944,0,0,
1.26618,0,0.155178,0,0,
1.28963,0,0.159501,0,0,
1.31389,0,0.159976,0,0,
1.33899,0,0.158946,0,0,
1.36496,0,0.155322,0,0,
1.39183,0,0.15093,0,0,
1.41962,0,0.144236,0,0,
1.44838,0,0.137398,0,0,
1.47813,0,0.129095,0,0,
1.50892,0,0.121104,0,0,
1.54076,0,0.112303,0,0,
1.57371,0,0.104126,0,0,
1.6078,0,0.0955897,0,0,
1.64307,0,0.0878134,0,0,
1.67956,0,0.0799997,0,0,
1.71731,0,0.0729671,0,0,
1.75637,0,0.0661052,0,0,
1.79677,0,0.0599683,0,0,
1.83858,0,0.0541003,0,0,
1.88183,0,0.0488795,0,0,
1.92658,0,0.0439433,0,0,
1.97288,0,0.0395303,0,0,
2.02078,0,0.0356381,0,0,
2.07033,0,0.031879,0,0,
2.1216,0,0.0286247,0,0,
2.17465,0,0.0255809,0,0,
2.22953,0,0.0229137,0,0,
2.2863,0,0.0204312,0,0,
2.34505,0,0.0182393,0,0,
2.40582,0,0.0162819,0,0,
2.4687,0,0.0144581,0,0,
2.53375,0,0.0128747,0,0,
2.60105,0,0.0114122,0,0,
2.67068,0,0.0101257,0,0,
2.74272,0,0.00893721,0,0,
2.81725,0,0.00789892,0,0,
2.89436,0,0.0069341,0,0,
2.97414,0,0.00609651,0,0,
3.05668,0,0.00531832,0,0,
3.14207,0,0.00464146,0,0,
3.23042,0,0.00402034,0,0,
3.32182,0,0.00347579,0,0,
3.41639,0,0.00298383,0,0,
3.51423,0,0.00252565,0,0,
3.61545,0,0.0021296,0,0,
3.72017,0,0.00175493,0,0,
3.82852,0,0.00143004,0,0,
3.94062,0,0.00111184,0,0,
4.05659,0,0.000833245,0,0,
4.17658,0,0.000564799,0,0,
4.30072,0,0.000298159,0,0,
4.42915,0,0.00158189,0,0,

