57cf754d84e2e688933e31c67b39787480dc0310 
X,x_velocity,cp,uw_b,wall_distance,
-0.25,0,0.180793,0,1e-16,
-0.25,0.0524219,0.180795,-3.74077e-07,2.59026e-05,
-0.25,0.105898,0.180795,-1.2956e-05,5.22493e-05,
-0.25,0.15842,0.180795,-9.61177e-05,7.94916e-05,
-0.25,0.20465,0.180795,-0.000269481,0.000108097,
-0.25,0.241959,0.180795,-0.00043831,0.000138555,
-0.25,0.271872,0.180796,-0.000559984,0.000171389,
-0.25,0.296574,0.180796,-0.000645716,0.000207163,
-0.25,0.317672,0.180797,-0.000708486,0.000246489,
-0.25,0.336234,0.180798,-0.000756626,0.000290044,
-0.25,0.352971,0.180799,-0.000795555,0.000338574,
-0.25,0.368363,0.1808,-0.000828364,0.000392915,
-0.25,0.382747,0.180802,-0.00085706,0.000454,
-0.25,0.396369,0.180804,-0.000882966,0.000522878,
-0.25,0.409409,0.180806,-0.000906977,0.000600734,
-0.25,0.422009,0.180809,-0.000929703,0.000688907,
-0.25,0.434279,0.180812,-0.000951561,0.000788915,
-0.25,0.446306,0.180815,-0.000972826,0.000902478,
-0.25,0.458164,0.180819,-0.000993672,0.00103155,
-0.25,0.469914,0.180824,-0.00101419,0.00117836,
-0.25,0.481608,0.180828,-0.00103439,0.00134543,
-0.25,0.493291,0.180833,-0.00105425,0.00153564,
-0.25,0.505004,0.180839,-0.00107371,0.00175227,
-0.25,0.516784,0.180844,-0.00109271,0.00199906,
-0.25,0.528663,0.18085,-0.00111111,0.00228026,
-0.25,0.540675,0.180855,-0.00112871,0.00260072,
-0.25,0.552848,0.18086,-0.00114527,0.00296597,
-0.25,0.56521,0.180864,-0.00116055,0.00338233,
-0.25,0.577789,0.180866,-0.00117424,0.00385697,
-0.25,0.590613,0.180866,-0.00118602,0.00439809,
-0.25,0.603711,0.180862,-0.00119554,0.00501505,
-0.25,0.617113,0.180854,-0.00120241,0.00571851,
-0.25,0.630853,0.180839,-0.00120618,0.00652062,
-0.25,0.644972,0.180815,-0.00120637,0.00743527,
-0.25,0.659515,0.180778,-0.0012024,0.00847826,
-0.25,0.674538,0.180726,-0.00119361,0.00966765,
-0.25,0.690111,0.180653,-0.00117911,0.011024,
-0.25,0.706317,0.180554,-0.00115759,0.0125709,
-0.25,0.723246,0.180418,-0.00113035,0.0143349,
-0.25,0.741077,0.180238,-0.00109609,0.0163469,
-0.25,0.760294,0.18,-0.00103499,0.0186414,
-0.25,0.781582,0.17969,-0.000949257,0.0212585,
-0.25,0.805471,0.17929,-0.000830125,0.0242434,
-0.25,0.831911,0.178788,-0.00067319,0.0276478,
-0.25,0.859244,0.178128,-0.000492945,0.031531,
-0.25,0.884643,0.17732,-0.000280854,0.0359602,
-0.25,0.9036,0.176243,-8.93915e-05,0.0410123,
-0.25,0.911077,0.174803,-1.39798e-05,0.0467752,
-0.25,0.912631,0.173315,-1.48179e-06,0.0533488,
-0.25,0.913524,0.171579,-2.51245e-07,0.0608475,
-0.25,0.914537,0.169543,-4.67142e-08,0.0694016,
-0.25,0.915731,0.167171,-1.28152e-08,0.0791597,
-0.25,0.917115,0.164422,-8.11436e-09,0.0902917,
-0.25,0.918718,0.161246,-7.64369e-09,0.102991,
-0.25,0.920572,0.157573,-7.68377e-09,0.117479,
-0.25,0.922708,0.153341,-7.7475e-09,0.134008,
-0.25,0.925159,0.148502,-7.76453e-09,0.152865,
-0.25,0.927943,0.142993,-7.72411e-09,0.17438,
-0.25,0.931086,0.136783,-7.60065e-09,0.198926,
-0.25,0.934578,0.129839,-7.43418e-09,0.226933,
-0.25,0.938494,0.122117,-7.17796e-09,0.258887,
-0.25,0.942744,0.113749,-6.86154e-09,0.295348,
-0.25,0.947431,0.104463,-6.43264e-09,0.33695,
-0.25,0.952296,0.0948281,-5.92286e-09,0.384419,
-0.25,0.957427,0.0847214,-5.37674e-09,0.438586,
-0.25,0.96266,0.074385,-4.72902e-09,0.500395,
-0.25,0.967822,0.0641237,-4.08268e-09,0.570927,
-0.25,0.972952,0.0540541,-3.47838e-09,0.651415,
-0.25,0.977875,0.0445379,-2.88865e-09,0.743264,
-0.25,0.982397,0.0354275,-2.33828e-09,0.848083,
-0.25,0.986566,0.0271573,-1.8274e-09,0.967704,
-0.25,0.990182,0.0199121,-1.37721e-09,1.10422,
-0.25,0.993265,0.0137932,-9.95932e-10,1.26002,
-0.25,0.995723,0.00883447,-6.86187e-10,1.43784,
-0.25,0.997637,0.00502979,-4.43132e-10,1.64079,
-0.25,0.998964,0.0023194,-2.60053e-10,1.86641,
-0.25,0.999816,0.000594588,-1.32589e-10,2.12427,
-0.25,1.00024,-0.000319831,-4.58876e-11,2.41998,
-0.25,1.00026,-0.00035773,-3.99753e-11,2.46413,
-0.25,1.00036,-0.000607237,-6.93121e-13,2.75802,
-0.25,1.00025,-0.000447953,2.58925e-11,3.14513,
-0.25,0.999995,1.82993e-05,3.27806e-11,3.58873,

0.688,0,-0.378395,0,1e-16,
0.688,-0.00833107,-0.378401,1.1923e-08,2.33816e-05,
0.688,-0.0133691,-0.378426,2.08327e-07,4.71702e-05,
0.688,-0.0149425,-0.378413,-1.75345e-07,7.17799e-05,
0.688,-0.0128261,-0.378454,-1.20417e-05,9.76391e-05,
0.688,-0.00767315,-0.378464,-6.35395e-05,0.000125198,
0.688,-0.00119717,-0.378484,-0.000164376,0.000154937,
0.688,0.00538996,-0.378502,-0.000291702,0.000187374,
0.688,0.0117977,-0.378519,-0.000429634,0.000223074,
0.688,0.018112,-0.378534,-0.00057695,0.00026266,
0.688,0.0244931,-0.378549,-0.00073654,0.000306822,
0.688,0.0311024,-0.378563,-0.00091178,0.000356332,
0.688,0.0380957,-0.378576,-0.00110599,0.000412053,
0.688,0.0456299,-0.378587,-0.00132247,0.000474959,
0.688,0.0538729,-0.378597,-0.00156457,0.000546147,
0.688,0.0630126,-0.378604,-0.00183568,0.000626864,
0.688,0.073266,-0.378607,-0.00213916,0.000718519,
0.688,0.0848889,-0.378605,-0.00247814,0.000822716,
0.688,0.0981848,-0.378596,-0.00285523,0.000941278,
0.688,0.113513,-0.378576,-0.00327195,0.00107628,
0.688,0.131293,-0.378544,-0.00372908,0.00123008,
0.688,0.152012,-0.378498,-0.00422571,0.00140539,
0.688,0.176202,-0.378431,-0.00482941,0.00160526,
0.688,0.205223,-0.378342,-0.00530129,0.0018332,
0.688,0.241064,-0.378231,-0.00575744,0.00209321,
0.688,0.285196,-0.378096,-0.00617704,0.00238985,
0.688,0.338707,-0.377943,-0.00649207,0.00272832,
0.688,0.40237,-0.377769,-0.0066189,0.00311456,
0.688,0.476282,-0.377636,-0.00649975,0.00355536,
0.688,0.559107,-0.377341,-0.00610716,0.00405845,
0.688,0.647061,-0.377092,-0.00544608,0.00463268,
0.688,0.735507,-0.377353,-0.00459519,0.00528813,
0.688,0.818981,-0.377865,-0.00368927,0.00603632,
0.688,0.892343,-0.378637,-0.00286782,0.00689042,
0.688,0.952061,-0.379615,-0.00218562,0.00786545,
0.688,0.997507,-0.380958,-0.0016373,0.00897856,
0.688,1.03104,-0.382609,-0.00115661,0.0102494,
0.688,1.05547,-0.384722,-0.000887213,0.0117002,
0.688,1.07378,-0.387274,-0.000772916,0.0133567,
0.688,1.08881,-0.390379,-0.000765258,0.015248,
0.688,1.10287,-0.394253,-0.000809836,0.0174016,
0.688,1.11732,-0.399155,-0.000858148,0.0197947,
0.688,1.13285,-0.405384,-0.000881904,0.0225411,
0.688,1.15004,-0.413674,-0.000865567,0.0256954,
0.688,1.16899,-0.425458,-0.000844729,0.0293134,
0.688,1.1916,-0.443709,-0.000842066,0.0334589,
0.688,1.22196,-0.476348,-0.000790901,0.0382051,
0.688,1.26238,-0.538337,-0.000629883,0.0436361,
0.688,1.31301,-0.632572,-0.000349461,0.0498477,
0.688,1.35176,-0.709248,-8.78144e-05,0.0569175,
0.688,1.36319,-0.733655,-5.646e-06,0.0649586,
0.688,1.36244,-0.731742,4.07187e-07,0.074169,
0.688,1.35853,-0.724099,2.87473e-07,0.0847119,
0.688,1.34973,-0.706413,1.20763e-07,0.0967654,
0.688,1.33913,-0.684892,6.25516e-08,0.110475,
0.688,1.32785,-0.66189,4.75056e-08,0.126175,
0.688,1.31571,-0.637476,4.29058e-08,0.144131,
0.688,1.30243,-0.611157,4.02646e-08,0.164669,
0.688,1.28809,-0.582202,3.76649e-08,0.188038,
0.688,1.27263,-0.551123,3.50707e-08,0.214753,
0.688,1.25606,-0.517856,3.25464e-08,0.245311,
0.688,1.23833,-0.481925,3.02041e-08,0.280275,
0.688,1.21933,-0.443476,2.82612e-08,0.320142,
0.688,1.19872,-0.401537,2.69337e-08,0.365789,
0.688,1.1759,-0.355201,2.62558e-08,0.417836,
0.688,1.15019,-0.303069,2.56713e-08,0.477372,
0.688,1.12188,-0.245675,2.28507e-08,0.545486,
0.688,1.09515,-0.191471,1.63867e-08,0.623218,
0.688,1.07544,-0.151292,1.04323e-08,0.712106,
0.688,1.06071,-0.121745,7.09838e-09,0.813782,
0.688,1.0487,-0.0972241,5.16464e-09,0.930041,
0.688,1.03856,-0.076983,3.78707e-09,1.06261,
0.688,1.03012,-0.0599836,2.74704e-09,1.21441,
0.688,1.02312,-0.0460229,1.96956e-09,1.38796,
0.688,1.01745,-0.0346171,1.39057e-09,1.58636,
0.688,1.01288,-0.0254952,9.69432e-10,1.81256,
0.688,1.00926,-0.0182875,6.68286e-10,2.0716,
0.688,1.00639,-0.0126285,4.61901e-10,2.36771,
0.688,1.0041,-0.00807249,3.28844e-10,2.70619,
0.688,1.00222,-0.00436081,2.33175e-10,3.09309,
0.688,1.00069,-0.00130728,1.80397e-10,3.53533,

0.813,0,-0.113141,0,1e-16,
0.813,-0.00728418,-0.113146,6.36271e-09,2.32716e-05,
0.813,-0.0139384,-0.113151,1.91756e-07,4.69491e-05,
0.813,-0.019988,-0.113158,1.73249e-06,7.14457e-05,
0.813,-0.0252536,-0.113164,7.59961e-06,9.71887e-05,
0.813,-0.0292976,-0.11317,1.88855e-05,0.000124627,
0.813,-0.031833,-0.113177,2.78345e-05,0.000154241,
0.813,-0.0331346,-0.113182,2.57989e-05,0.000186546,
0.813,-0.0336591,-0.113198,1.31513e-05,0.000222108,
0.813,-0.0337129,-0.113196,-6.79615e-06,0.000261547,
0.813,-0.0334621,-0.113216,-3.18503e-05,0.000305554,
0.813,-0.0329918,-0.113226,-6.13813e-05,0.000354897,
0.813,-0.0323413,-0.11324,-9.55173e-05,0.000410441,
0.813,-0.0315291,-0.113255,-0.000134535,0.000473157,
0.813,-0.0305601,-0.113272,-0.000179057,0.000544144,
0.813,-0.0294312,-0.11329,-0.000229803,0.000624646,
0.813,-0.0281333,-0.113312,-0.000287652,0.000716071,
0.813,-0.0266527,-0.113335,-0.00035363,0.000820025,
0.813,-0.0249712,-0.113362,-0.000428937,0.000938328,
0.813,-0.0230663,-0.113392,-0.000514972,0.00107306,
0.813,-0.0209105,-0.113426,-0.000613285,0.00122658,
0.813,-0.0184713,-0.113464,-0.000725625,0.00140158,
0.813,-0.0157097,-0.113506,-0.000854056,0.00160114,
0.813,-0.0125792,-0.113553,-0.001001,0.00182877,
0.813,-0.0090236,-0.113606,-0.00116915,0.00208846,
0.813,-0.00497528,-0.113664,-0.00136159,0.00238478,
0.813,-0.000352121,-0.113728,-0.00158144,0.00272294,
0.813,0.00494228,-0.113799,-0.00183449,0.00310889,
0.813,0.0110267,-0.113877,-0.00212419,0.00354942,
0.813,0.0180527,-0.113961,-0.00245621,0.00405228,
0.813,0.0262117,-0.114052,-0.0028368,0.00462634,
0.813,0.0357464,-0.114148,-0.00327286,0.00528169,
0.813,0.0469675,-0.114248,-0.00377202,0.0060299,
0.813,0.0602761,-0.11435,-0.0043425,0.00688414,
0.813,0.0761936,-0.114449,-0.00499265,0.00785949,
0.813,0.0954021,-0.114542,-0.00572722,0.00897314,
0.813,0.118776,-0.114686,-0.00665931,0.0102448,
0.813,0.148346,-0.114779,-0.00772734,0.0116968,
0.813,0.189204,-0.114681,-0.00856871,0.0133548,
0.813,0.249675,-0.114469,-0.00942498,0.0152482,
0.813,0.34044,-0.113799,-0.00984993,0.0173973,
0.813,0.472499,-0.112197,-0.0090612,0.0197681,
0.813,0.636558,-0.110587,-0.00717554,0.0225011,
0.813,0.785916,-0.110276,-0.00488204,0.0256452,
0.813,0.8846,-0.109899,-0.00235045,0.0292561,
0.813,0.93691,-0.108882,-0.000921619,0.033398,
0.813,0.965773,-0.106862,-0.000468611,0.0379504,
0.813,0.988806,-0.104052,-0.00034328,0.0431839,
0.813,1.01133,-0.100376,-0.00024398,0.0492266,
0.813,1.03048,-0.0962832,-0.000107617,0.0561862,
0.813,1.04013,-0.0925144,-1.71626e-05,0.0641865,
0.813,1.04205,-0.0882095,2.32242e-06,0.0732535,
0.813,1.04205,-0.0833269,3.32622e-06,0.0836093,
0.813,1.03341,-0.0775153,1.09442e-06,0.0955186,
0.813,1.0275,-0.0698288,1.6357e-07,0.10911,
0.813,1.02399,-0.0629024,3.5009e-08,0.124602,
0.813,1.01558,-0.0565383,4.4825e-09,0.142358,
0.813,1.01968,-0.0472373,4.87839e-10,0.162626,
0.813,1.01901,-0.043683,1.50031e-09,0.185823,
0.813,1.01398,-0.0400913,7.09852e-10,0.212297,
0.813,1.01528,-0.0387176,-8.88787e-10,0.242651,
0.813,1.0189,-0.0419161,-1.66673e-09,0.277301,
0.813,1.02354,-0.0466544,-2.06895e-09,0.316941,
0.813,1.02611,-0.0541041,-2.57417e-09,0.36227,
0.813,1.03001,-0.0614974,-3.24659e-09,0.41413,
0.813,1.03391,-0.0683303,-2.90685e-09,0.473389,
0.813,1.03656,-0.0738525,-1.51424e-09,0.54123,
0.813,1.0375,-0.0754261,-9.90121e-12,0.618788,
0.813,1.03679,-0.0736627,8.26826e-10,0.707593,
0.813,1.03474,-0.0693926,1.43602e-09,0.809092,
0.813,1.03149,-0.0627744,1.72004e-09,0.925335,
0.813,1.02746,-0.0547552,1.71815e-09,1.05821,
0.813,1.02313,-0.0459915,1.54135e-09,1.21017,
0.813,1.01885,-0.0374199,1.28252e-09,1.38391,
0.813,1.0149,-0.0295004,1.00899e-09,1.58247,
0.813,1.01142,-0.0225717,7.58974e-10,1.81009,
0.813,1.00847,-0.0167132,5.55239e-10,2.07007,
0.813,1.00602,-0.011896,3.99159e-10,2.36772,
0.813,1.00402,-0.00792016,2.95171e-10,2.70818,
0.813,1.0023,-0.00453149,2.05257e-10,3.09651,
0.813,1.00102,-0.00197393,1.54795e-10,3.54123,

0.938,0,-0.00977031,0,1e-16,
0.938,-0.00876341,-0.00977297,2.69509e-09,2.32316e-05,
0.938,-0.0173712,-0.0097766,7.97679e-08,4.68694e-05,
0.938,-0.0259242,-0.00978074,8.05431e-07,7.13267e-05,
0.938,-0.0344131,-0.00978528,4.24539e-06,9.70313e-05,
0.938,-0.042562,-0.00978991,1.43347e-05,0.000124433,
0.938,-0.0497259,-0.00979352,3.29102e-05,0.000154011,
0.938,-0.0553004,-0.00979654,5.3767e-05,0.000186283,
0.938,-0.0592651,-0.00979928,6.82032e-05,0.000221814,
0.938,-0.0620047,-0.00980357,7.35968e-05,0.000261227,
0.938,-0.0638909,-0.00980842,7.14407e-05,0.000305212,
0.938,-0.0651938,-0.00981387,6.39809e-05,0.000354541,
0.938,-0.0660834,-0.00982021,5.25127e-05,0.000410078,
0.938,-0.066663,-0.00982666,3.76611e-05,0.000472798,
0.938,-0.0669961,-0.00983866,1.95737e-05,0.000543802,
0.938,-0.0671204,-0.00983321,-2.04811e-06,0.000624336,
0.938,-0.0670566,-0.00980833,-2.71451e-05,0.000715816,
0.938,-0.066819,-0.00986223,-5.61504e-05,0.000819848,
0.938,-0.0664095,-0.00986107,-8.99237e-05,0.000938261,
0.938,-0.0658269,-0.00986924,-0.000128716,0.00107314,
0.938,-0.0650653,-0.00987797,-0.000173279,0.00122685,
0.938,-0.0641138,-0.00988845,-0.000224521,0.00140211,
0.938,-0.062958,-0.00989988,-0.000283353,0.00160199,
0.938,-0.061579,-0.00991261,-0.000350884,0.00183001,
0.938,-0.0599536,-0.00992637,-0.000428359,0.0020902,
0.938,-0.0580536,-0.00994202,-0.000517206,0.00238713,
0.938,-0.0558448,-0.00995932,-0.00061908,0.00272605,
0.938,-0.0532862,-0.00997889,-0.000735875,0.00311293,
0.938,-0.0503282,-0.0100008,-0.000869724,0.00355458,
0.938,-0.0469111,-0.0100265,-0.0010231,0.00405882,
0.938,-0.0429623,-0.0100562,-0.00119884,0.00463453,
0.938,-0.0383927,-0.0100911,-0.00140025,0.00529188,
0.938,-0.0330929,-0.0101328,-0.00163102,0.00604249,
0.938,-0.0269276,-0.0101831,-0.00189547,0.00689961,
0.938,-0.0197282,-0.0102436,-0.00219833,0.0078784,
0.938,-0.0112879,-0.0103168,-0.00254424,0.00899617,
0.938,-0.00136515,-0.0104061,-0.00294308,0.0102727,
0.938,0.0103154,-0.0105152,-0.00340301,0.0117305,
0.938,0.0240876,-0.0106414,-0.00393172,0.0133955,
0.938,0.0403823,-0.0107834,-0.00453908,0.0152971,
0.938,0.059794,-0.010935,-0.00522814,0.017469,
0.938,0.0831325,-0.0110881,-0.00600529,0.0199391,
0.938,0.111479,-0.0113455,-0.00704424,0.0225116,
0.938,0.147826,-0.0114417,-0.00812249,0.0255164,
0.938,0.199519,-0.0110952,-0.00898861,0.0290096,
0.938,0.279195,-0.0102036,-0.00966213,0.0330545,
0.938,0.402278,-0.00811107,-0.00937271,0.0377237,
0.938,0.570014,-0.00589894,-0.00789673,0.0426984,
0.938,0.740214,-0.00692139,-0.00579721,0.0484919,
0.938,0.8624,-0.00816777,-0.00309251,0.0552419,
0.938,0.934776,-0.00959603,-0.00116348,0.0630705,
0.938,0.974478,-0.0083553,-0.000389552,0.0721179,
0.938,0.995641,-0.00775205,-9.54501e-05,0.0822909,
0.938,1.00208,-0.0094264,-1.00799e-05,0.0938338,
0.938,1.00178,-0.0106095,3.4679e-07,0.107215,
0.938,1.00029,-0.0109825,6.12218e-07,0.122488,
0.938,0.995765,-0.012053,1.08613e-07,0.139919,
0.938,0.995848,-0.0103619,-3.20163e-08,0.160003,
0.938,0.999585,-0.0105604,-8.95571e-09,0.18281,
0.938,1.00073,-0.0122634,-1.20848e-09,0.208986,
0.938,1.00161,-0.0126475,-6.51774e-10,0.239003,
0.938,1.00339,-0.0135264,-8.92533e-10,0.273269,
0.938,1.00695,-0.0146143,-9.37405e-10,0.312507,
0.938,1.00838,-0.0172327,-7.66317e-10,0.357468,
0.938,1.00939,-0.0195808,-1.05983e-09,0.408929,
0.938,1.01113,-0.0225179,-1.40102e-09,0.467901,
0.938,1.01288,-0.0258878,-1.35375e-09,0.535368,
0.938,1.01447,-0.0291274,-1.11856e-09,0.612662,
0.938,1.0159,-0.0317314,-7.60533e-10,0.701152,
0.938,1.01677,-0.0334101,-2.31252e-10,0.802634,
0.938,1.01688,-0.0335004,7.86118e-11,0.91874,
0.938,1.01628,-0.0323155,3.66911e-10,1.05163,
0.938,1.01506,-0.0298063,5.25005e-10,1.20403,
0.938,1.01332,-0.0263758,5.83015e-10,1.37848,
0.938,1.0113,-0.0223475,5.59588e-10,1.57802,
0.938,1.00919,-0.0181243,4.86387e-10,1.80652,
0.938,1.00717,-0.0140826,3.94279e-10,2.06844,
0.938,1.00532,-0.0104639,3.02659e-10,2.3677,
0.938,1.00374,-0.00735417,2.27832e-10,2.7102,
0.938,1.00232,-0.00461563,1.64111e-10,3.1022,
0.938,1.00123,-0.00240321,1.29892e-10,3.55094,

1,0,0.0172016,0,1e-16,
1,-0.0152821,0.0171975,7.1068e-09,2.32217e-05,
1,-0.0303034,0.0171941,2.41418e-07,4.685e-05,
1,-0.0452077,0.0171899,2.38146e-06,7.12984e-05,
1,-0.0598749,0.0171851,1.17962e-05,9.6995e-05,
1,-0.0736323,0.0171797,3.59408e-05,0.00012439,
1,-0.0853534,0.0171742,7.34778e-05,0.000153963,
1,-0.0943228,0.0171676,0.00011011,0.000186233,
1,-0.100751,0.0171599,0.000134135,0.000221764,
1,-0.105286,0.0171505,0.000144485,0.000261182,
1,-0.108523,0.0171398,0.00014474,0.000305176,
1,-0.110874,0.0171275,0.000138217,0.000354519,
1,-0.112603,0.0171138,0.000126928,0.000410078,
1,-0.113873,0.0170982,0.000111926,0.000472828,
1,-0.114787,0.0170807,9.37151e-05,0.000543873,
1,-0.115411,0.017061,7.24987e-05,0.000624461,
1,-0.115789,0.0170391,4.83948e-05,0.000716009,
1,-0.115949,0.017017,2.09865e-05,0.000820128,
1,-0.115903,0.0170137,-1.02932e-05,0.000938651,
1,-0.11566,0.0169595,-4.52679e-05,0.00107366,
1,-0.115222,0.0169307,-8.46125e-05,0.00122754,
1,-0.114585,0.016895,-0.000129278,0.001403,
1,-0.113739,0.0168555,-0.000179743,0.00160314,
1,-0.112672,0.0168109,-0.000236982,0.00183147,
1,-0.111364,0.0167617,-0.000302007,0.00209203,
1,-0.109794,0.0167063,-0.000375948,0.00238941,
1,-0.107932,0.0166454,-0.000460073,0.00272886,
1,-0.105745,0.0165778,-0.000555837,0.00311639,
1,-0.103193,0.0165042,-0.000664918,0.00355882,
1,-0.100225,0.0164228,-0.000789169,0.00406398,
1,-0.0967851,0.0163348,-0.000930675,0.00464079,
1,-0.0928016,0.0162394,-0.00109182,0.00529946,
1,-0.0881907,0.0161382,-0.0012753,0.00605162,
1,-0.0828496,0.0160299,-0.00148408,0.0069106,
1,-0.0766534,0.0159178,-0.00172137,0.00789159,
1,-0.0694481,0.0158026,-0.00199071,0.00901195,
1,-0.0610428,0.0156897,-0.0022957,0.0102915,
1,-0.0511992,0.0155821,-0.00263971,0.011753,
1,-0.0396186,0.0154896,-0.00302559,0.0134223,
1,-0.0259269,0.0154249,-0.00346957,0.0153289,
1,-0.00955677,0.0153881,-0.00395263,0.0175068,
1,0.010272,0.0153576,-0.00452666,0.0199945,
1,0.0346005,0.0152674,-0.00513073,0.0228361,
1,0.0647394,0.0150237,-0.00583766,0.0260822,
1,0.102172,0.0144713,-0.00665268,0.0297904,
1,0.149608,0.013674,-0.00759279,0.0340265,
1,0.213182,0.0130231,-0.00865002,0.0388658,
1,0.304909,0.01342,-0.00943627,0.0443714,
1,0.441042,0.0158945,-0.0090308,0.050306,
1,0.613035,0.0183293,-0.00739826,0.0567779,
1,0.773853,0.0204215,-0.00530197,0.0643629,
1,0.889656,0.0193818,-0.00233983,0.073201,
1,0.95404,0.0224994,-0.000697013,0.0834523,
1,0.980267,0.0221835,-0.00012937,0.0952491,
1,0.985824,0.0210488,-1.13836e-05,0.108351,
1,0.985939,0.0201528,7.34726e-07,0.123411,
1,0.982615,0.0197009,4.38552e-07,0.140887,
1,0.980885,0.0192476,-1.22455e-07,0.160913,
1,0.983506,0.0177575,-6.81294e-08,0.183368,
1,0.986322,0.0156625,-1.38631e-08,0.209311,
1,0.98837,0.0133382,-3.25344e-09,0.239097,
1,0.990725,0.0107526,-1.71782e-09,0.273067,
1,0.99515,0.00763549,-1.43951e-09,0.312052,
1,0.997887,0.00388638,-1.19548e-09,0.356741,
1,0.999698,0.000100755,-1.37925e-09,0.407906,
1,1.0019,-0.00399982,-1.70952e-09,0.466542,
1,1.00417,-0.00835209,-1.7189e-09,0.53384,
1,1.0063,-0.0126072,-1.48824e-09,0.610826,
1,1.00829,-0.0164759,-1.15091e-09,0.699112,
1,1.00993,-0.0197294,-7.76601e-10,0.800294,
1,1.01109,-0.0218876,-4.08052e-10,0.916281,
1,1.01154,-0.022849,-4.04391e-11,1.04923,
1,1.01132,-0.0223508,1.49406e-10,1.2016,
1,1.01058,-0.0208736,2.95681e-10,1.37615,
1,1.00939,-0.018499,3.54578e-10,1.57647,
1,1.00793,-0.0156078,3.48113e-10,1.80575,
1,1.00748,-0.0147174,3.36396e-10,1.88256,
1,1.0064,-0.0125637,3.0785e-10,2.0677,
1,1.00488,-0.00957724,2.49366e-10,2.36835,
1,1.00354,-0.00696542,1.94362e-10,2.71278,
1,1.00229,-0.00454507,1.47378e-10,3.10614,
1,1.00132,-0.00261311,1.16417e-10,3.55725,

1.125,0,0.131923,0,1e-16,
1.125,0.00113313,0.13192,-4.34787e-09,2.2977e-05,
1.125,0.0028078,0.131921,-2.20015e-07,4.63572e-05,
1.125,0.00502594,0.13192,-2.6599e-06,7.05508e-05,
1.125,0.00754319,0.13192,-1.32838e-05,9.59823e-05,
1.125,0.00982697,0.131918,-3.39e-05,0.000123098,
1.125,0.0116321,0.131915,-5.62813e-05,0.000152375,
1.125,0.0130594,0.13191,-7.6339e-05,0.000184326,
1.125,0.0142527,0.131904,-9.5201e-05,0.000219514,
1.125,0.0153097,0.131895,-0.000114342,0.000258557,
1.125,0.0162908,0.131884,-0.00013473,0.000302141,
1.125,0.0172348,0.13187,-0.000157032,0.000351033,
1.125,0.0181682,0.131854,-0.000181804,0.000406094,
1.125,0.0191111,0.131834,-0.000209576,0.000468293,
1.125,0.0200794,0.13181,-0.0002409,0.000538726,
1.125,0.0210872,0.131781,-0.000276372,0.000618634,
1.125,0.0221474,0.131747,-0.000316653,0.000709426,
1.125,0.0232727,0.131706,-0.000362485,0.000812702,
1.125,0.0244758,0.131658,-0.00041471,0.000930284,
1.125,0.0257701,0.131601,-0.000474284,0.00106425,
1.125,0.0271702,0.131533,-0.000542289,0.00121696,
1.125,0.0286918,0.131453,-0.000619962,0.00139111,
1.125,0.0303523,0.13136,-0.000708715,0.00158979,
1.125,0.0321713,0.13125,-0.000810156,0.00181649,
1.125,0.0341711,0.131122,-0.000926114,0.00207523,
1.125,0.0363769,0.130972,-0.00105868,0.00237059,
1.125,0.038818,0.130799,-0.00121022,0.00270779,
1.125,0.0415282,0.130598,-0.00138345,0.0030928,
1.125,0.0445473,0.130366,-0.00158141,0.00353243,
1.125,0.0479221,0.130101,-0.00180761,0.00403447,
1.125,0.0517084,0.129799,-0.00206596,0.00460781,
1.125,0.0559732,0.129458,-0.00236087,0.00526262,
1.125,0.0607978,0.129074,-0.00269721,0.00601049,
1.125,0.0662811,0.128648,-0.00308036,0.00686471,
1.125,0.0725453,0.128178,-0.00351617,0.00784041,
1.125,0.0797418,0.127666,-0.00401083,0.00895492,
1.125,0.0880602,0.127115,-0.00457067,0.010228,
1.125,0.0977393,0.12653,-0.00520199,0.0116823,
1.125,0.109083,0.125918,-0.00591049,0.0133436,
1.125,0.122477,0.125287,-0.00670056,0.0152415,
1.125,0.13842,0.124656,-0.00757695,0.0174097,
1.125,0.157561,0.124086,-0.00871116,0.0198867,
1.125,0.181578,0.124008,-0.00990646,0.0227167,
1.125,0.214733,0.124358,-0.0104123,0.0259499,
1.125,0.262412,0.12464,-0.0108647,0.029644,
1.125,0.327019,0.124502,-0.0109866,0.0338647,
1.125,0.409451,0.124067,-0.0104914,0.0386871,
1.125,0.508884,0.123319,-0.00923815,0.0441974,
1.125,0.618992,0.122133,-0.00743397,0.0504935,
1.125,0.726719,0.120408,-0.00545155,0.0576879,
1.125,0.818888,0.117725,-0.00340748,0.0659089,
1.125,0.88786,0.114686,-0.00135149,0.0753032,
1.125,0.928288,0.11164,-0.000370457,0.0860384,
1.125,0.943026,0.106304,-6.76843e-05,0.0983063,
1.125,0.946271,0.100857,-1.17411e-05,0.112326,
1.125,0.947402,0.0953666,-2.77697e-06,0.128348,
1.125,0.947385,0.0895464,-9.47178e-07,0.146659,
1.125,0.949502,0.0832598,-4.06771e-07,0.167586,
1.125,0.954831,0.0768519,-1.17374e-07,0.191503,
1.125,0.959667,0.0701813,-2.55596e-08,0.218838,
1.125,0.963941,0.0631835,-6.64471e-09,0.250082,
1.125,0.968972,0.0559115,-3.11335e-09,0.285792,
1.125,0.975302,0.0486605,-2.36035e-09,0.32661,
1.125,0.979603,0.041307,-2.14397e-09,0.373265,
1.125,0.983109,0.0338307,-2.40134e-09,0.426595,
1.125,0.986842,0.0265796,-2.70821e-09,0.487555,
1.125,0.99044,0.0194666,-2.6154e-09,0.55724,
1.125,0.993744,0.0127763,-2.24083e-09,0.636898,
1.125,0.996858,0.00661486,-1.79806e-09,0.72796,
1.125,0.999624,0.00106812,-1.36044e-09,0.82855,
1.125,1.00196,-0.00357348,-9.57775e-10,0.94298,
1.125,1.00277,-0.00521271,-7.99752e-10,1.00315,
1.125,1.00374,-0.00715522,-6.12302e-10,1.07453,
1.125,1.00498,-0.00965302,-3.33114e-10,1.22528,
1.125,1.00562,-0.0109193,-9.30739e-11,1.39832,
1.125,1.00569,-0.0110823,2.99758e-11,1.59646,
1.125,1.00533,-0.0104091,1.17565e-10,1.82431,
1.125,1.0047,-0.00917262,1.49214e-10,2.08526,
1.125,1.00388,-0.00757652,1.49148e-10,2.38489,
1.125,1.00303,-0.00592487,1.31563e-10,2.72763,
1.125,1.00215,-0.00424343,1.04155e-10,3.12069,
1.125,1.00146,-0.00294783,8.06111e-11,3.57128,

1.25,0,0.176272,0,1e-16,
1.25,0.0316433,0.17627,-1.17693e-07,2.27149e-05,
1.25,0.0637234,0.176271,-4.27468e-06,4.58292e-05,
1.25,0.0957818,0.17627,-3.80119e-05,6.97496e-05,
1.25,0.12494,0.17627,-0.000140049,9.48968e-05,
1.25,0.14778,0.176269,-0.0002792,0.000121713,
1.25,0.16414,0.176267,-0.000390931,0.000150671,
1.25,0.175843,0.176264,-0.000463411,0.00018228,
1.25,0.184547,0.17626,-0.000509782,0.000217097,
1.25,0.191333,0.176254,-0.000541899,0.000255735,
1.25,0.196859,0.176246,-0.000566803,0.000298876,
1.25,0.201527,0.176237,-0.000588402,0.00034728,
1.25,0.205595,0.176224,-0.000608965,0.000401801,
1.25,0.209228,0.176209,-0.000629933,0.000463402,
1.25,0.212545,0.176191,-0.000652339,0.00053317,
1.25,0.215628,0.176169,-0.000677022,0.000612337,
1.25,0.218539,0.176142,-0.000704739,0.000702303,
1.25,0.221327,0.17611,-0.000736237,0.000804657,
1.25,0.224032,0.176072,-0.000772297,0.00092121,
1.25,0.226686,0.176027,-0.000813762,0.00105402,
1.25,0.22932,0.175973,-0.000861571,0.00120545,
1.25,0.231961,0.175908,-0.000916775,0.00137816,
1.25,0.234636,0.175833,-0.000980569,0.00157523,
1.25,0.237371,0.175744,-0.00105431,0.00180013,
1.25,0.240193,0.175639,-0.00113956,0.00205686,
1.25,0.243132,0.175516,-0.00123808,0.00234997,
1.25,0.246218,0.175373,-0.00135193,0.00268466,
1.25,0.249488,0.175207,-0.00148341,0.00306685,
1.25,0.25298,0.175014,-0.00163521,0.00350335,
1.25,0.256742,0.174793,-0.00181034,0.00400188,
1.25,0.260826,0.174539,-0.00201226,0.00457132,
1.25,0.265296,0.17425,-0.00224487,0.00522176,
1.25,0.270227,0.173922,-0.00251257,0.00596478,
1.25,0.275712,0.173554,-0.00282025,0.00681358,
1.25,0.281861,0.173143,-0.00317327,0.00778325,
1.25,0.288813,0.17269,-0.00357745,0.00889105,
1.25,0.29674,0.172193,-0.00403881,0.0101567,
1.25,0.305856,0.171654,-0.00456336,0.0116027,
1.25,0.316435,0.171075,-0.0051565,0.0132548,
1.25,0.328821,0.170459,-0.00582216,0.0151425,
1.25,0.343456,0.169811,-0.0065614,0.0172993,
1.25,0.360903,0.16912,-0.00738298,0.0197638,
1.25,0.381948,0.16855,-0.00856944,0.0225799,
1.25,0.409357,0.168441,-0.00921153,0.0257978,
1.25,0.448057,0.168637,-0.0093531,0.0294749,
1.25,0.500931,0.168403,-0.00919822,0.0336769,
1.25,0.566417,0.167686,-0.0085207,0.0384787,
1.25,0.640336,0.166677,-0.00728258,0.0439663,
1.25,0.716629,0.164925,-0.00566099,0.0502376,
1.25,0.787726,0.16255,-0.00403154,0.0574048,
1.25,0.848775,0.159053,-0.00208722,0.0655959,
1.25,0.894007,0.155048,-0.000770287,0.0749575,
1.25,0.918256,0.149717,-0.00019059,0.0856571,
1.25,0.926681,0.143833,-3.614e-05,0.0978863,
1.25,0.92884,0.137302,-8.33264e-06,0.111864,
1.25,0.930063,0.130418,-2.64829e-06,0.127841,
1.25,0.931275,0.123133,-1.04348e-06,0.146102,
1.25,0.93511,0.115431,-3.97248e-07,0.166976,
1.25,0.940977,0.107387,-1.09085e-07,0.190837,
1.25,0.946219,0.0990798,-2.53293e-08,0.218113,
1.25,0.951214,0.0904188,-7.20035e-09,0.249292,
1.25,0.957179,0.0814691,-3.54223e-09,0.284935,
1.25,0.964095,0.0724338,-2.74006e-09,0.325682,
1.25,0.968964,0.0633924,-2.556e-09,0.372264,
1.25,0.973142,0.0543971,-2.87721e-09,0.425519,
1.25,0.977579,0.0455901,-3.20923e-09,0.486402,
1.25,0.981816,0.0371196,-3.07908e-09,0.55601,
1.25,0.985732,0.0290879,-2.65242e-09,0.635594,
1.25,0.989456,0.0215994,-2.15915e-09,0.726585,
1.25,0.992831,0.014828,-1.68245e-09,0.83062,
1.25,0.995798,0.00884914,-1.26406e-09,0.949574,
1.25,0.998295,0.00376765,-9.05243e-10,1.08559,
1.25,1.00029,-0.000220696,-6.03757e-10,1.24111,
1.25,1.00174,-0.00316745,-3.62772e-10,1.41894,
1.25,1.00267,-0.00502979,-1.79898e-10,1.62229,
1.25,1.0031,-0.00593745,-4.85746e-11,1.84947,
1.25,1.00313,-0.00602792,2.21477e-11,2.10883,
1.25,1.00286,-0.00555083,5.77143e-11,2.40658,
1.25,1.00247,-0.00480691,6.82217e-11,2.74752,
1.25,1.00241,-0.00470165,6.74434e-11,2.79119,
1.25,1.00196,-0.00385774,6.10683e-11,3.13954,
1.25,1.00158,-0.00318836,3.8373e-11,3.5883,

1.375,0,0.152128,0,1e-16,
1.375,0.0483523,0.152127,-2.21474e-07,2.24527e-05,
1.375,0.0971659,0.152127,-7.84823e-06,4.53013e-05,
1.375,0.145593,0.152127,-6.46811e-05,6.89485e-05,
1.375,0.189703,0.152127,-0.000212958,9.38113e-05,
1.375,0.225793,0.152127,-0.00039165,0.000120328,
1.375,0.253863,0.152126,-0.000533633,0.000148967,
1.375,0.27568,0.152125,-0.000632774,0.000180234,
1.375,0.292926,0.152123,-0.000701046,0.00021468,
1.375,0.306844,0.152121,-0.000748906,0.000252914,
1.375,0.318314,0.152118,-0.000783545,0.000295611,
1.375,0.327958,0.152114,-0.000809783,0.000343527,
1.375,0.336222,0.152109,-0.000830881,0.000397509,
1.375,0.343426,0.152102,-0.000849115,0.000458511,
1.375,0.349807,0.152093,-0.000866122,0.000527614,
1.375,0.355542,0.152082,-0.000883135,0.00060604,
1.375,0.360767,0.152069,-0.000901141,0.00069518,
1.375,0.365586,0.152052,-0.000920988,0.000796613,
1.375,0.370083,0.152032,-0.000943461,0.000912136,
1.375,0.374326,0.152008,-0.000969329,0.0010438,
1.375,0.378372,0.151978,-0.000999386,0.00119393,
1.375,0.382271,0.151943,-0.00103448,0.00136521,
1.375,0.386065,0.151901,-0.00107555,0.00156067,
1.375,0.389793,0.15185,-0.00112363,0.00178377,
1.375,0.393495,0.151791,-0.0011799,0.00203849,
1.375,0.397205,0.15172,-0.00124568,0.00232935,
1.375,0.40096,0.151637,-0.00132248,0.00266152,
1.375,0.4048,0.15154,-0.00141203,0.00304091,
1.375,0.408765,0.151427,-0.00151629,0.00347427,
1.375,0.412899,0.151295,-0.00163745,0.0039693,
1.375,0.417253,0.151142,-0.00177805,0.00453483,
1.375,0.421884,0.150968,-0.00194091,0.00518091,
1.375,0.426858,0.150768,-0.00212918,0.00591907,
1.375,0.432254,0.150542,-0.00234637,0.00676245,
1.375,0.438165,0.150286,-0.00259628,0.0077261,
1.375,0.444704,0.15,-0.00288294,0.00882719,
1.375,0.452011,0.149683,-0.0032105,0.0100854,
1.375,0.460254,0.149334,-0.00358294,0.0115231,
1.375,0.469646,0.148953,-0.00400362,0.013166,
1.375,0.480449,0.148538,-0.00447462,0.0150434,
1.375,0.492992,0.14809,-0.00499561,0.017189,
1.375,0.507682,0.147607,-0.00556223,0.0196409,
1.375,0.525025,0.147089,-0.00618402,0.0224431,
1.375,0.545759,0.146591,-0.00694248,0.0256456,
1.375,0.571859,0.146301,-0.00746977,0.0293058,
1.375,0.60707,0.146233,-0.00734981,0.0334891,
1.375,0.653442,0.1459,-0.00691401,0.0382704,
1.375,0.707963,0.145147,-0.00606008,0.0437353,
1.375,0.765468,0.144012,-0.0048339,0.0499817,
1.375,0.820971,0.142331,-0.00339023,0.0571216,
1.375,0.870892,0.140613,-0.00175995,0.0652828,
1.375,0.908681,0.137637,-0.000616586,0.0746118,
1.375,0.927926,0.134243,-0.000131906,0.0852759,
1.375,0.933857,0.130435,-2.02634e-05,0.0974663,
1.375,0.93496,0.126142,-3.87391e-06,0.111402,
1.375,0.935105,0.121442,-1.27538e-06,0.127333,
1.375,0.935659,0.116377,-6.44626e-07,0.145546,
1.375,0.939041,0.110765,-2.6371e-07,0.166367,
1.375,0.943506,0.104709,-7.23367e-08,0.190171,
1.375,0.947375,0.0982295,-1.78948e-08,0.217387,
1.375,0.951473,0.0913316,-5.63778e-09,0.248502,
1.375,0.956734,0.0840125,-2.98384e-09,0.284078,
1.375,0.962763,0.0764239,-2.3342e-09,0.324754,
1.375,0.966721,0.0685347,-2.21812e-09,0.371263,
1.375,0.970419,0.0604905,-2.59325e-09,0.424442,
1.375,0.974438,0.0523629,-2.94333e-09,0.485249,
1.375,0.978331,0.0444423,-2.87917e-09,0.554781,
1.375,0.982045,0.0367043,-2.54081e-09,0.634289,
1.375,0.985666,0.0293725,-2.12299e-09,0.725209,
1.375,0.989039,0.0225233,-1.70803e-09,0.82918,
1.375,0.992114,0.0162827,-1.33254e-09,0.948077,
1.375,0.994813,0.0108265,-1.00643e-09,1.08405,
1.375,0.997123,0.00616071,-7.26358e-10,1.23955,
1.375,0.998962,0.00241329,-4.93264e-10,1.41738,
1.375,1.00036,-0.000399771,-3.07155e-10,1.62076,
1.375,1.00127,-0.00228642,-1.65899e-10,1.85337,
1.375,1.0018,-0.00337346,-7.04541e-11,2.1194,
1.375,1.00197,-0.00378032,-9.11647e-12,2.42367,
1.375,1.00193,-0.00372611,1.30727e-11,2.77091,
1.375,1.00174,-0.00342089,2.16488e-11,3.16112,
1.375,1.00161,-0.00323006,1.09316e-11,3.6087,

-3.19886,0,0.0205257,0,0,
-2.99627,0,0.0060773,0,0,
-2.80402,0,0.00439463,0,0,
-2.62157,0,0.00370535,0,0,
-2.44842,0,0.00368963,0,0,
-2.2841,0,0.00417739,0,0,
-2.12815,0,0.00471292,0,0,
-1.98016,0,0.00557836,0,0,
-1.83971,0,0.00655025,0,0,
-1.70643,0,0.00790015,0,0,
-1.57994,0,0.00929539,0,0,
-1.4599,0,0.0113243,0,0,
-1.34598,0,0.0135581,0,0,
-1.23786,0,0.0161144,0,0,
-1.13526,0,0.0194025,0,0,
-1.03789,0,0.0230697,0,0,
-0.945488,0,0.0277936,0,0,
-0.857795,0,0.0330786,0,0,
-0.774572,0,0.0399363,0,0,
-0.695593,0,0.047625,0,0,
-0.620641,0,0.0577097,0,0,
-0.54951,0,0.0690185,0,0,
-0.482006,0,0.0840257,0,0,
-0.417943,0,0.100866,0,0,
-0.357147,0,0.123592,0,0,
-0.29945,0,0.149234,0,0,
-0.244696,0,0.184178,0,0,
-0.192732,0,0.218579,0,0,
-0.143419,0,0.269,0,0,
-0.0966231,0,0.320874,0,0,
-0.0522148,0,0.342813,0,0,
-0.0100698,0,0.347474,0,0,
0.0299268,0,0.337218,0,0,
0.0678843,0,0.293414,0,0,
0.103908,0,0.240222,0,0,
0.138096,0,0.112233,0,0,
0.17054,0,-0.000436723,0,0,
0.20133,0,-0.0885395,0,0,
0.230551,0,-0.165304,0,0,
0.258281,0,-0.228886,0,0,
0.284598,0,-0.287958,0,0,
0.309574,0,-0.338265,0,0,
0.333275,0,-0.383564,0,0,
0.355769,0,-0.425191,0,0,
0.377115,0,-0.461673,0,0,
0.397374,0,-0.496514,0,0,
0.416599,0,-0.526866,0,0,
0.434844,0,-0.555781,0,0,
0.452159,0,-0.581343,0,0,
0.468591,0,-0.60562,0,0,
0.484186,0,-0.627338,0,0,
0.498985,0,-0.647888,0,0,
0.51303,0,-0.666647,0,0,
0.526358,0,-0.684234,0,0,
0.539007,0,-0.70018,0,0,
0.551012,0,-0.714999,0,0,
0.562404,0,-0.729025,0,0,
0.573215,0,-0.7418,0,0,
0.583475,0,-0.753934,0,0,
0.593212,0,-0.76506,0,0,
0.602453,0,-0.775653,0,0,
0.611222,0,-0.785048,0,0,
0.619544,0,-0.793784,0,0,
0.627442,0,-0.80156,0,0,
0.634938,0,-0.805065,0,0,
0.642051,0,-0.801014,0,0,
0.648801,0,-0.754648,0,0,
0.655207,0,-0.690661,0,0,
0.661287,0,-0.603882,0,0,
0.667057,0,-0.534814,0,0,
0.672532,0,-0.478958,0,0,
0.677729,0,-0.439725,0,0,
0.68266,0,-0.406681,0,0,
0.68734,0,-0.381723,0,0,
0.691781,0,-0.359323,0,0,
0.695996,0,-0.341642,0,0,
0.699996,0,-0.325073,0,0,
0.703996,0,-0.311308,0,0,
0.707996,0,-0.297372,0,0,
0.712135,0,-0.285472,0,0,
0.716416,0,-0.272881,0,0,
0.720846,0,-0.262026,0,0,
0.725429,0,-0.250655,0,0,
0.730171,0,-0.240499,0,0,
0.735076,0,-0.230014,0,0,
0.740151,0,-0.220317,0,0,
0.745402,0,-0.210405,0,0,
0.750835,0,-0.200956,0,0,
0.756455,0,-0.191359,0,0,
0.76227,0,-0.181632,0,0,
0.768286,0,-0.173217,0,0,
0.77451,0,-0.163361,0,0,
0.78095,0,-0.154317,0,0,
0.787612,0,-0.145107,0,0,
0.794505,0,-0.135972,0,0,
0.801636,0,-0.126914,0,0,
0.809014,0,-0.117795,0,0,
0.816647,0,-0.108883,0,0,
0.824544,0,-0.0998669,0,0,
0.832715,0,-0.0911251,0,0,
0.841168,0,-0.0823214,0,0,
0.849914,0,-0.0738262,0,0,
0.858962,0,-0.0653079,0,0,
0.868323,0,-0.0571335,0,0,
0.878008,0,-0.0489841,0,0,
0.888028,0,-0.0412287,0,0,
0.898395,0,-0.0335676,0,0,
0.90912,0,-0.026367,0,0,
0.920216,0,-0.0193818,0,0,
0.931697,0,-0.0131489,0,0,
0.943574,0,-0.00678274,0,0,
0.955862,0,-0.00324549,0,0,
0.968576,0,0.00281135,0,0,
0.981729,0,0.00525248,0,0,
0.995332,0,0.0146558,0,0,
1.00941,0,0.0223306,0,0,
1.02397,0,0.0422669,0,0,
1.03904,0,0.0506173,0,0,
1.05463,0,0.0664333,0,0,
1.07076,0,0.0824516,0,0,
1.08745,0,0.0992492,0,0,
1.10471,0,0.115444,0,0,
1.12258,0,0.130152,0,0,
1.14106,0,0.14366,0,0,
1.16018,0,0.154481,0,0,
1.17996,0,0.163975,0,0,
1.20043,0,0.170022,0,0,
1.22161,0,0.174234,0,0,
1.24351,0,0.176649,0,0,
1.26618,0,0.175331,0,0,
1.28963,0,0.173061,0,0,
1.31389,0,0.168155,0,0,
1.33899,0,0.162611,0,0,
1.36496,0,0.154995,0,0,
1.39183,0,0.147325,0,0,
1.41962,0,0.138374,0,0,
1.44838,0,0.129783,0,0,
1.47813,0,0.120493,0,0,
1.50892,0,0.111869,0,0,
1.54076,0,0.10297,0,0,
1.57371,0,0.0948548,0,0,
1.6078,0,0.0867459,0,0,
1.64307,0,0.0794028,0,0,
1.67956,0,0.0722278,0,0,
1.71731,0,0.0657615,0,0,
1.75637,0,0.0595675,0,0,
1.79677,0,0.0540334,0,0,
1.83858,0,0.0487725,0,0,
1.88183,0,0.0440979,0,0,
1.92658,0,0.0397047,0,0,
1.97288,0,0.0357632,0,0,
2.02078,0,0.0322685,0,0,
2.07033,0,0.0289201,0,0,
2.1216,0,0.0259983,0,0,
2.17465,0,0.0232853,0,0,
2.22953,0,0.0208883,0,0,
2.2863,0,0.0186555,0,0,
2.34505,0,0.0166778,0,0,
2.40582,0,0.0149079,0,0,
2.4687,0,0.0132627,0,0,
2.53375,0,0.0118181,0,0,
2.60105,0,0.0104876,0,0,
2.67068,0,0.00931764,0,0,
2.74272,0,0.00823188,0,0,
2.81725,0,0.00728285,0,0,
2.89436,0,0.00639845,0,0,
2.97414,0,0.00562738,0,0,
3.05668,0,0.0049125,0,0,
3.14207,0,0.00429141,0,0,
3.23042,0,0.00370648,0,0,
3.32182,0,0.00320898,0,0,
3.41639,0,0.00275363,0,0,
3.51423,0,0.00232916,0,0,
3.61545,0,0.0019654,0,0,
3.72017,0,0.00160945,0,0,
3.82852,0,0.0013033,0,0,
3.94062,0,0.00101209,0,0,
4.05659,0,0.000768551,0,0,
4.17658,0,0.000512911,0,0,
4.30072,0,0.000271594,0,0,
4.42915,0,0.00151839,0,0,

