f2325d72f6636d938a5f528d2a980444d785801a 
X,x_velocity,cp,uw_b,wall_distance,
-0.25,0,0.180538,0,1e-16,
-0.25,0.0532461,0.18054,-3.96911e-07,2.59026e-05,
-0.25,0.107538,0.180539,-1.37059e-05,5.22493e-05,
-0.25,0.160735,0.180539,-0.000100816,7.94916e-05,
-0.25,0.207324,0.180539,-0.000279531,0.000108097,
-0.25,0.244723,0.180539,-0.000452016,0.000138555,
-0.25,0.274649,0.18054,-0.000573174,0.000171389,
-0.25,0.299373,0.18054,-0.000658768,0.000207163,
-0.25,0.320501,0.180541,-0.000721368,0.000246489,
-0.25,0.339103,0.180542,-0.000769405,0.000290044,
-0.25,0.355885,0.180543,-0.000808277,0.000338574,
-0.25,0.371326,0.180545,-0.000841052,0.000392915,
-0.25,0.38576,0.180546,-0.000869727,0.000454,
-0.25,0.399433,0.180548,-0.000895623,0.000522878,
-0.25,0.412524,0.180551,-0.000919631,0.000600734,
-0.25,0.425174,0.180553,-0.000942363,0.000688907,
-0.25,0.437492,0.180556,-0.000964239,0.000788915,
-0.25,0.449566,0.18056,-0.000985541,0.000902478,
-0.25,0.461468,0.180563,-0.00100644,0.00103155,
-0.25,0.473261,0.180568,-0.00102704,0.00117836,
-0.25,0.484996,0.180572,-0.00104736,0.00134543,
-0.25,0.496717,0.180577,-0.00106737,0.00153564,
-0.25,0.508467,0.180583,-0.00108702,0.00175227,
-0.25,0.520279,0.180588,-0.00110625,0.00199906,
-0.25,0.532189,0.180594,-0.00112492,0.00228026,
-0.25,0.544228,0.180599,-0.00114283,0.00260072,
-0.25,0.556423,0.180604,-0.00115976,0.00296597,
-0.25,0.568802,0.180608,-0.00117544,0.00338233,
-0.25,0.581391,0.18061,-0.00118958,0.00385697,
-0.25,0.594214,0.18061,-0.00120186,0.00439809,
-0.25,0.607297,0.180607,-0.00121193,0.00501505,
-0.25,0.620665,0.180598,-0.00121938,0.00571851,
-0.25,0.634344,0.180584,-0.0012238,0.00652062,
-0.25,0.64836,0.180561,-0.00122469,0.00743527,
-0.25,0.662743,0.180526,-0.00122147,0.00847826,
-0.25,0.677521,0.180476,-0.0012134,0.00966765,
-0.25,0.692719,0.180407,-0.00119942,0.011024,
-0.25,0.708348,0.180312,-0.0011816,0.0125709,
-0.25,0.724473,0.180183,-0.00115799,0.0143349,
-0.25,0.741386,0.180007,-0.00111684,0.0163469,
-0.25,0.759591,0.179772,-0.00105851,0.0186414,
-0.25,0.779739,0.179464,-0.000975671,0.0212585,
-0.25,0.802496,0.179069,-0.000860076,0.0242434,
-0.25,0.828119,0.178575,-0.000705438,0.0276478,
-0.25,0.855439,0.177927,-0.000521955,0.031531,
-0.25,0.881446,0.17713,-0.000324666,0.0359602,
-0.25,0.901713,0.17609,-0.000111897,0.0410123,
-0.25,0.910767,0.174655,-1.94658e-05,0.0467752,
-0.25,0.912702,0.17315,-2.01579e-06,0.0533488,
-0.25,0.913618,0.171427,-3.21842e-07,0.0608475,
-0.25,0.914625,0.169396,-5.86834e-08,0.0694016,
-0.25,0.915815,0.167034,-1.45813e-08,0.0791597,
-0.25,0.917197,0.16429,-8.35572e-09,0.0902917,
-0.25,0.918797,0.161111,-7.68901e-09,0.102991,
-0.25,0.920648,0.157441,-7.71089e-09,0.117479,
-0.25,0.922785,0.153221,-7.7734e-09,0.134008,
-0.25,0.925233,0.148374,-7.78994e-09,0.152865,
-0.25,0.928018,0.142867,-7.75109e-09,0.17438,
-0.25,0.931162,0.13665,-7.62567e-09,0.198926,
-0.25,0.934653,0.129738,-7.45684e-09,0.226933,
-0.25,0.938568,0.122,-7.19817e-09,0.258887,
-0.25,0.942817,0.113587,-6.88074e-09,0.295348,
-0.25,0.947505,0.104331,-6.45032e-09,0.33695,
-0.25,0.952372,0.0946982,-5.93815e-09,0.384419,
-0.25,0.957504,0.0845732,-5.3891e-09,0.438586,
-0.25,0.962738,0.0742231,-4.73968e-09,0.500395,
-0.25,0.967904,0.0639838,-4.09067e-09,0.570927,
-0.25,0.973034,0.0538789,-3.48382e-09,0.651415,
-0.25,0.97796,0.0443511,-2.89342e-09,0.743264,
-0.25,0.982486,0.0352475,-2.34195e-09,0.848083,
-0.25,0.986659,0.0269598,-1.82922e-09,0.967704,
-0.25,0.990273,0.0197397,-1.37793e-09,1.10422,
-0.25,0.993357,0.0136199,-9.95985e-10,1.26002,
-0.25,0.995813,0.00865851,-6.85211e-10,1.43784,
-0.25,0.997721,0.004859,-4.41437e-10,1.64079,
-0.25,0.999041,0.00215698,-2.57688e-10,1.86641,
-0.25,0.999881,0.000454583,-1.29982e-10,2.12427,
-0.25,1.0003,-0.000426122,-4.38903e-11,2.41998,
-0.25,1.00031,-0.000459895,-3.78887e-11,2.46413,
-0.25,1.00041,-0.000681919,2.00794e-12,2.75802,
-0.25,1.00027,-0.000491708,2.90628e-11,3.14513,
-0.25,0.999998,8.42055e-06,3.42905e-11,3.58873,

0.688,0,-0.505745,0,1e-16,
0.688,-0.000153293,-0.505766,-1.37382e-08,2.33816e-05,
0.688,0.00687775,-0.505795,-1.4991e-06,4.71702e-05,
0.688,0.0213736,-0.505827,-2.40339e-05,7.17799e-05,
0.688,0.0419017,-0.50586,-0.000139722,9.76391e-05,
0.688,0.0640092,-0.505898,-0.00039401,0.000125198,
0.688,0.0843905,-0.505932,-0.000706336,0.000154937,
0.688,0.102752,-0.505959,-0.0010144,0.000187374,
0.688,0.119832,-0.505981,-0.00131521,0.000223074,
0.688,0.136366,-0.505999,-0.00161877,0.00026266,
0.688,0.152938,-0.506014,-0.00193296,0.000306822,
0.688,0.170009,-0.506026,-0.00226265,0.000356332,
0.688,0.187976,-0.506034,-0.0026108,0.000412053,
0.688,0.207199,-0.506039,-0.00297975,0.000474959,
0.688,0.228042,-0.506042,-0.00337082,0.000546147,
0.688,0.250875,-0.506039,-0.00378102,0.000626864,
0.688,0.276046,-0.506028,-0.00422488,0.000718519,
0.688,0.304163,-0.506016,-0.00462891,0.000822716,
0.688,0.336155,-0.506006,-0.00497837,0.000941278,
0.688,0.372763,-0.505994,-0.00529406,0.00107628,
0.688,0.414316,-0.505984,-0.00555923,0.00123008,
0.688,0.460832,-0.505985,-0.00575053,0.00140539,
0.688,0.51203,-0.506007,-0.00583648,0.00160526,
0.688,0.56721,-0.50607,-0.00579176,0.0018332,
0.688,0.625131,-0.506198,-0.00560013,0.00209321,
0.688,0.684355,-0.506434,-0.0052711,0.00238985,
0.688,0.743433,-0.506831,-0.00483476,0.00272832,
0.688,0.800997,-0.507462,-0.0043334,0.00311456,
0.688,0.855846,-0.508245,-0.00380978,0.00355536,
0.688,0.907383,-0.509406,-0.00329348,0.00405845,
0.688,0.955548,-0.510945,-0.00280515,0.00463268,
0.688,1.00023,-0.512827,-0.00236317,0.00528813,
0.688,1.04075,-0.51523,-0.00198691,0.00603632,
0.688,1.07549,-0.51834,-0.00169429,0.00689042,
0.688,1.10351,-0.522351,-0.00145092,0.00786545,
0.688,1.12583,-0.527522,-0.00125237,0.00897856,
0.688,1.14432,-0.534106,-0.001204,0.0102494,
0.688,1.1609,-0.542709,-0.00129316,0.0117002,
0.688,1.17733,-0.554102,-0.00148396,0.0133567,
0.688,1.19524,-0.569462,-0.00170998,0.015248,
0.688,1.21574,-0.590315,-0.00190657,0.0174016,
0.688,1.23977,-0.618213,-0.00202297,0.0197947,
0.688,1.26758,-0.653671,-0.00201351,0.0225411,
0.688,1.29893,-0.694432,-0.0018536,0.0256954,
0.688,1.33045,-0.73369,-0.00139825,0.0293134,
0.688,1.35626,-0.763314,-0.000787497,0.0334589,
0.688,1.37351,-0.778237,-0.000270706,0.0382051,
0.688,1.38135,-0.780089,-4.6907e-05,0.0436361,
0.688,1.38325,-0.776918,9.86584e-06,0.0498477,
0.688,1.38115,-0.769683,1.57032e-05,0.0569175,
0.688,1.37465,-0.756696,7.08013e-06,0.0649586,
0.688,1.36695,-0.740998,1.82107e-06,0.074169,
0.688,1.35859,-0.724052,4.22349e-07,0.0847119,
0.688,1.34945,-0.705734,1.21598e-07,0.0967654,
0.688,1.33951,-0.685549,5.97467e-08,0.110475,
0.688,1.32859,-0.663298,4.65989e-08,0.126175,
0.688,1.31649,-0.639032,4.27743e-08,0.144131,
0.688,1.30321,-0.612599,4.00539e-08,0.164669,
0.688,1.28894,-0.583705,3.72995e-08,0.188038,
0.688,1.27358,-0.552865,3.47321e-08,0.214753,
0.688,1.2571,-0.519983,3.21298e-08,0.245311,
0.688,1.23955,-0.484548,2.94931e-08,0.280275,
0.688,1.22093,-0.446464,2.72512e-08,0.320142,
0.688,1.20094,-0.405969,2.55943e-08,0.365789,
0.688,1.17934,-0.362067,2.42627e-08,0.417836,
0.688,1.15575,-0.314209,2.30942e-08,0.477372,
0.688,1.13022,-0.262728,2.12018e-08,0.545486,
0.688,1.10423,-0.209707,1.7318e-08,0.623218,
0.688,1.0817,-0.164228,1.22009e-08,0.712106,
0.688,1.06443,-0.129129,8.17939e-09,0.813782,
0.688,1.05092,-0.101857,5.69714e-09,0.930041,
0.688,1.03994,-0.0796967,4.0592e-09,1.06261,
0.688,1.03096,-0.0617072,2.89591e-09,1.21441,
0.688,1.02363,-0.0470729,2.0501e-09,1.38796,
0.688,1.01775,-0.035256,1.43315e-09,1.58636,
0.688,1.01306,-0.0258891,9.92279e-10,1.81256,
0.688,1.00937,-0.0184952,6.79647e-10,2.0716,
0.688,1.00646,-0.0127851,4.6789e-10,2.36771,
0.688,1.00416,-0.00820856,3.27015e-10,2.70619,
0.688,1.00227,-0.00445245,2.32442e-10,3.09309,
0.688,1.00076,-0.00149059,1.73785e-10,3.53533,

0.813,0,-0.10246,0,1e-16,
0.813,-0.00466053,-0.102465,5.63882e-09,2.32716e-05,
0.813,-0.00849365,-0.102473,1.4965e-07,4.69491e-05,
0.813,-0.0114755,-0.10248,1.10288e-06,7.14457e-05,
0.813,-0.0134455,-0.102489,3.29062e-06,9.71887e-05,
0.813,-0.0142687,-0.102496,2.92139e-06,0.000124627,
0.813,-0.0141742,-0.102507,-6.81115e-06,0.000154241,
0.813,-0.013571,-0.102517,-2.62659e-05,0.000186546,
0.813,-0.0127242,-0.102529,-5.17803e-05,0.000222108,
0.813,-0.0117425,-0.102541,-8.1413e-05,0.000261547,
0.813,-0.0106638,-0.102555,-0.000114778,0.000305554,
0.813,-0.0094956,-0.102571,-0.000152206,0.000354897,
0.813,-0.00823337,-0.102588,-0.000194274,0.000410441,
0.813,-0.00686624,-0.102607,-0.00024171,0.000473157,
0.813,-0.00538038,-0.102629,-0.000295337,0.000544144,
0.813,-0.00375906,-0.102653,-0.000356114,0.000624646,
0.813,-0.00198329,-0.102681,-0.000425132,0.000716071,
0.813,-3.11565e-05,-0.102712,-0.000503637,0.000820025,
0.813,0.00212211,-0.102747,-0.00059307,0.000938328,
0.813,0.00450502,-0.102786,-0.000695019,0.00107306,
0.813,0.00715043,-0.10283,-0.000811348,0.00122658,
0.813,0.0100967,-0.102879,-0.000944192,0.00140158,
0.813,0.0133886,-0.102934,-0.00109598,0.00160114,
0.813,0.017079,-0.102994,-0.00126949,0.00182877,
0.813,0.0212307,-0.103063,-0.00146795,0.00208846,
0.813,0.0259189,-0.103137,-0.00169499,0.00238478,
0.813,0.031234,-0.10322,-0.00195476,0.00272294,
0.813,0.0372862,-0.103309,-0.00225202,0.00310889,
0.813,0.0442102,-0.103407,-0.00259218,0.00354942,
0.813,0.0521725,-0.103512,-0.00298133,0.00405228,
0.813,0.0613802,-0.103623,-0.00342623,0.00462634,
0.813,0.0720923,-0.103739,-0.0039342,0.00528169,
0.813,0.0846348,-0.103856,-0.00451306,0.0060299,
0.813,0.0994196,-0.103972,-0.00517058,0.00688414,
0.813,0.116967,-0.104079,-0.00591031,0.00785949,
0.813,0.13791,-0.104236,-0.00683682,0.00897314,
0.813,0.163747,-0.104348,-0.00796723,0.0102448,
0.813,0.198719,-0.10426,-0.00875101,0.0116968,
0.813,0.249684,-0.104065,-0.00958783,0.0133548,
0.813,0.324487,-0.103689,-0.0101781,0.0152482,
0.813,0.432359,-0.102664,-0.00986776,0.0173973,
0.813,0.576601,-0.100689,-0.00806207,0.0197681,
0.813,0.729115,-0.0995872,-0.00550654,0.0225011,
0.813,0.841731,-0.0993293,-0.00336915,0.0256452,
0.813,0.905576,-0.0981655,-0.00151862,0.0292561,
0.813,0.940189,-0.0958415,-0.00067404,0.033398,
0.813,0.963384,-0.092787,-0.000423395,0.0379504,
0.813,0.984937,-0.0889112,-0.000331099,0.0431839,
0.813,1.00661,-0.0840823,-0.000215643,0.0492266,
0.813,1.02407,-0.0785633,-7.70379e-05,0.0561862,
0.813,1.03163,-0.072745,-2.13069e-06,0.0641865,
0.813,1.03097,-0.0672225,9.96729e-06,0.0732535,
0.813,1.02401,-0.0595055,3.89948e-06,0.0836093,
0.813,1.01744,-0.0504833,1.03793e-06,0.0955186,
0.813,1.00728,-0.0424879,1.36545e-07,0.10911,
0.813,1.0086,-0.0310494,1.7254e-08,0.124602,
0.813,1.0045,-0.0224047,7.88503e-09,0.142358,
0.813,0.995673,-0.0146335,3.28897e-09,0.162626,
0.813,0.995179,-0.00534993,-1.84616e-10,0.185823,
0.813,1.00238,-0.00145433,-1.49516e-09,0.212297,
0.813,1.00489,-0.00477354,-1.03448e-09,0.242651,
0.813,1.00533,-0.0112416,-2.43109e-09,0.277301,
0.813,1.01215,-0.0225705,-4.52389e-09,0.316941,
0.813,1.01784,-0.0389936,-6.01667e-09,0.36227,
0.813,1.0259,-0.0534001,-6.04567e-09,0.41413,
0.813,1.03226,-0.0658487,-4.72426e-09,0.473389,
0.813,1.03652,-0.0741393,-2.42106e-09,0.54123,
0.813,1.0382,-0.0772729,-2.70402e-10,0.618788,
0.813,1.03771,-0.0757585,7.3809e-10,0.707593,
0.813,1.03563,-0.0713439,1.509e-09,0.809092,
0.813,1.0322,-0.0643534,1.81431e-09,0.925335,
0.813,1.02799,-0.0557457,1.7963e-09,1.05821,
0.813,1.02347,-0.0466815,1.59875e-09,1.21017,
0.813,1.01905,-0.0378549,1.3149e-09,1.38391,
0.813,1.01502,-0.0297945,1.02493e-09,1.58247,
0.813,1.01149,-0.0227498,7.69449e-10,1.81009,
0.813,1.00852,-0.0167695,5.58363e-10,2.07007,
0.813,1.00605,-0.0119422,3.93366e-10,2.36772,
0.813,1.00406,-0.00804817,2.82695e-10,2.70818,
0.813,1.00235,-0.00463842,2.01408e-10,3.09651,
0.813,1.00107,-0.00208931,1.63327e-10,3.54123,

0.938,0,0.0230071,0,1e-16,
0.938,-0.00631892,0.0230018,3.08775e-09,2.32316e-05,
0.938,-0.0123553,0.0229976,8.8711e-08,4.68694e-05,
0.938,-0.0181648,0.0229925,8.63786e-07,7.13267e-05,
0.938,-0.0236787,0.0229873,4.30239e-06,9.70313e-05,
0.938,-0.0285826,0.0229822,1.31457e-05,0.000124433,
0.938,-0.0323955,0.0229778,2.58968e-05,0.000154011,
0.938,-0.034965,0.0229731,3.52032e-05,0.000186283,
0.938,-0.0365589,0.0229671,3.67403e-05,0.000221814,
0.938,-0.0375047,0.0229595,3.15952e-05,0.000261227,
0.938,-0.038032,0.0229527,2.19294e-05,0.000305212,
0.938,-0.0382747,0.0229385,8.8164e-06,0.000354541,
0.938,-0.0383056,0.0229662,-7.32445e-06,0.000410078,
0.938,-0.0381673,0.0229181,-2.62551e-05,0.000472798,
0.938,-0.0378829,0.0229172,-4.83268e-05,0.000543802,
0.938,-0.0374624,0.022906,-7.37547e-05,0.000624336,
0.938,-0.0369109,0.0228945,-0.000102903,0.000715816,
0.938,-0.036226,0.0228808,-0.000136415,0.000819848,
0.938,-0.0354025,0.0228657,-0.000174819,0.000938261,
0.938,-0.0344314,0.0228488,-0.000218838,0.00107314,
0.938,-0.0333007,0.0228301,-0.000269305,0.00122685,
0.938,-0.031995,0.0228091,-0.00032716,0.00140211,
0.938,-0.0304961,0.0227861,-0.000393465,0.00160199,
0.938,-0.0287818,0.0227601,-0.000469483,0.00183001,
0.938,-0.0268261,0.0227314,-0.000556662,0.0020902,
0.938,-0.0245977,0.0226991,-0.000656637,0.00238713,
0.938,-0.0220603,0.0226634,-0.000771269,0.00272605,
0.938,-0.0191703,0.0226229,-0.00090275,0.00311293,
0.938,-0.0158761,0.022578,-0.00105356,0.00355458,
0.938,-0.0121159,0.0225271,-0.00122648,0.00405882,
0.938,-0.00781624,0.0224702,-0.00142454,0.00463453,
0.938,-0.0028905,0.0224054,-0.001652,0.00529188,
0.938,0.00276449,0.0223325,-0.00191243,0.00604249,
0.938,0.00927209,0.0222494,-0.00221134,0.00689961,
0.938,0.0167786,0.0221559,-0.00255552,0.0078784,
0.938,0.0254688,0.0220512,-0.00294969,0.00899617,
0.938,0.03558,0.0219365,-0.00339992,0.0102727,
0.938,0.047406,0.0218139,-0.0039132,0.0117305,
0.938,0.0613241,0.0216856,-0.00449773,0.0133955,
0.938,0.0778144,0.0215573,-0.0051625,0.0152971,
0.938,0.0974961,0.0214358,-0.00591273,0.017469,
0.938,0.121135,0.0212219,-0.00684154,0.0199391,
0.938,0.150408,0.0210298,-0.00802972,0.0225116,
0.938,0.190409,0.0211404,-0.0088527,0.0255164,
0.938,0.250467,0.0215406,-0.00964448,0.0290096,
0.938,0.342979,0.0225059,-0.00993319,0.0330545,
0.938,0.479027,0.0248686,-0.00887467,0.0377237,
0.938,0.64435,0.0255856,-0.0066271,0.0426984,
0.938,0.785902,0.0233839,-0.0044009,0.0484919,
0.938,0.875468,0.0219731,-0.00222211,0.0552419,
0.938,0.930344,0.0210527,-0.000873616,0.0630705,
0.938,0.965353,0.0235933,-0.000293148,0.0721179,
0.938,0.981357,0.021239,-5.80664e-05,0.0822909,
0.938,0.984589,0.0189858,-3.20766e-06,0.0938338,
0.938,0.98228,0.0174312,7.13257e-07,0.107215,
0.938,0.980727,0.0169384,-1.76386e-07,0.122488,
0.938,0.9823,0.0164374,-8.38791e-08,0.139919,
0.938,0.982331,0.0146395,-1.75873e-08,0.160003,
0.938,0.983579,0.0137604,-9.3632e-09,0.18281,
0.938,0.988663,0.0123959,-4.61594e-09,0.208986,
0.938,0.996134,0.0110541,-1.93417e-09,0.239003,
0.938,0.997694,0.00695148,-8.95099e-10,0.273269,
0.938,0.999104,0.00406471,-9.46314e-10,0.312507,
0.938,1.00001,-0.000239238,-1.33008e-09,0.357468,
0.938,1.00205,-0.00492414,-2.05027e-09,0.408929,
0.938,1.00506,-0.0105917,-2.49641e-09,0.467901,
0.938,1.00814,-0.0165855,-2.37081e-09,0.535368,
0.938,1.01094,-0.0221865,-1.89592e-09,0.612662,
0.938,1.01339,-0.0269811,-1.32025e-09,0.701152,
0.938,1.01515,-0.0303129,-6.95336e-10,0.802634,
0.938,1.01591,-0.0316992,-8.93079e-11,0.91874,
0.938,1.01568,-0.0310323,2.24417e-10,1.05163,
0.938,1.0147,-0.0291276,4.57419e-10,1.20403,
0.938,1.0131,-0.0259809,5.46836e-10,1.37848,
0.938,1.01118,-0.0221058,5.40574e-10,1.57802,
0.938,1.00911,-0.0180062,4.74995e-10,1.80652,
0.938,1.00713,-0.0140544,3.88892e-10,2.06844,
0.938,1.0053,-0.0104304,3.01666e-10,2.3677,
0.938,1.00375,-0.0074015,2.28598e-10,2.7102,
0.938,1.00234,-0.00463851,1.61969e-10,3.1022,
0.938,1.00129,-0.00252583,1.24524e-10,3.55094,

1,0,0.0607085,0,1e-16,
1,-0.0123663,0.0607049,7.62835e-09,2.32217e-05,
1,-0.0242713,0.0607007,2.53696e-07,4.685e-05,
1,-0.0358137,0.0606958,2.44779e-06,7.12984e-05,
1,-0.0468101,0.0606906,1.17547e-05,9.6995e-05,
1,-0.0565662,0.0606854,3.39407e-05,0.00012439,
1,-0.0641955,0.0606802,6.39567e-05,0.000153963,
1,-0.0695109,0.0606744,8.71486e-05,0.000186233,
1,-0.073033,0.0606677,9.68218e-05,0.000221764,
1,-0.075367,0.0606597,9.56016e-05,0.000261182,
1,-0.0769338,0.0606508,8.73598e-05,0.000305176,
1,-0.0779859,0.0606412,7.44622e-05,0.000354519,
1,-0.0786716,0.0606297,5.80299e-05,0.000410078,
1,-0.0790785,0.0606193,3.86963e-05,0.000472828,
1,-0.0792624,0.0605992,1.65485e-05,0.000543873,
1,-0.0792541,0.0606197,-8.61952e-06,0.000624461,
1,-0.0790734,0.0605723,-3.67846e-05,0.000716009,
1,-0.0787313,0.0605622,-6.83986e-05,0.000820128,
1,-0.0782311,0.0605441,-0.000103928,0.000938651,
1,-0.0775719,0.0605245,-0.000143935,0.00107366,
1,-0.0767476,0.0605023,-0.000189194,0.00122754,
1,-0.0757483,0.0604774,-0.000240449,0.001403,
1,-0.0745608,0.0604497,-0.000298588,0.00160314,
1,-0.0731683,0.0604187,-0.000364626,0.00183147,
1,-0.0715503,0.0603848,-0.000439712,0.00209203,
1,-0.0696817,0.060347,-0.000525142,0.00238941,
1,-0.0675333,0.0603052,-0.000622388,0.00272886,
1,-0.0650703,0.0602593,-0.000733129,0.00311639,
1,-0.0622513,0.0602095,-0.000859262,0.00355882,
1,-0.0590277,0.0601553,-0.00100292,0.00406398,
1,-0.0553416,0.0600968,-0.00116652,0.00464079,
1,-0.051124,0.0600347,-0.00135277,0.00529946,
1,-0.0462919,0.0599696,-0.0015647,0.00605162,
1,-0.0407455,0.0599026,-0.00180569,0.0069106,
1,-0.0343633,0.0598351,-0.00207944,0.00789159,
1,-0.026997,0.0597707,-0.00239003,0.00901195,
1,-0.0184648,0.0597121,-0.00274165,0.0102915,
1,-0.00854534,0.0596639,-0.00313847,0.011753,
1,0.00302052,0.0596322,-0.00359014,0.0134223,
1,0.0165251,0.0596123,-0.00410623,0.0153289,
1,0.0323509,0.0596165,-0.00471012,0.0175068,
1,0.0510986,0.0596278,-0.00539742,0.0199945,
1,0.073771,0.0595018,-0.006188,0.0228361,
1,0.102168,0.0590399,-0.00686398,0.0260822,
1,0.138945,0.0582417,-0.00764384,0.0297904,
1,0.188321,0.0574244,-0.00855544,0.0340265,
1,0.258386,0.0573457,-0.00944168,0.0388658,
1,0.36278,0.0579095,-0.00970102,0.0443714,
1,0.507538,0.0606853,-0.00848373,0.050306,
1,0.669061,0.0623454,-0.00615573,0.0567779,
1,0.80226,0.0620421,-0.00402159,0.0643629,
1,0.894029,0.0588845,-0.00172266,0.073201,
1,0.942682,0.0630496,-0.000477888,0.0834523,
1,0.961878,0.059382,-7.97723e-05,0.0952491,
1,0.964065,0.0565229,-6.04702e-06,0.108351,
1,0.963343,0.0542996,-1.50244e-06,0.123411,
1,0.964248,0.0518286,-6.58042e-07,0.140887,
1,0.965415,0.0487697,-1.92221e-07,0.160913,
1,0.967212,0.0454828,-6.61137e-08,0.183368,
1,0.971841,0.0418363,-2.49074e-08,0.209311,
1,0.981189,0.0374188,-6.65216e-09,0.239097,
1,0.985446,0.0318998,-2.02529e-09,0.273067,
1,0.988161,0.0268626,-1.46184e-09,0.312052,
1,0.989884,0.0210481,-1.62443e-09,0.356741,
1,0.992305,0.0149968,-2.1824e-09,0.407906,
1,0.995549,0.00859041,-2.62779e-09,0.466542,
1,0.998993,0.00188803,-2.59325e-09,0.53384,
1,1.0022,-0.00449837,-2.2195e-09,0.610826,
1,1.00521,-0.0104713,-1.72617e-09,0.699112,
1,1.00773,-0.015409,-1.18227e-09,0.800294,
1,1.00956,-0.0189606,-6.81684e-10,0.916281,
1,1.01058,-0.0208715,-2.33043e-10,1.04923,
1,1.01072,-0.0211768,5.294e-11,1.2016,
1,1.01018,-0.0200838,2.3946e-10,1.37615,
1,1.00915,-0.0180141,3.20577e-10,1.57647,
1,1.00779,-0.0153369,3.29451e-10,1.80575,
1,1.00736,-0.0144858,3.20787e-10,1.88256,
1,1.00632,-0.0124266,2.99576e-10,2.0677,
1,1.00485,-0.00950562,2.4931e-10,2.36835,
1,1.00354,-0.00698124,1.9627e-10,2.71278,
1,1.00231,-0.00458209,1.4211e-10,3.10614,
1,1.00137,-0.00271146,1.07568e-10,3.55725,

1.125,0,0.168836,0,1e-16,
1.125,0.010686,0.168832,-3.75351e-08,2.2977e-05,
1.125,0.021893,0.168833,-1.42981e-06,4.63572e-05,
1.125,0.0334702,0.168833,-1.37966e-05,7.05508e-05,
1.125,0.0441926,0.168832,-5.63081e-05,9.59823e-05,
1.125,0.0524055,0.16883,-0.000119999,0.000123098,
1.125,0.0580783,0.168827,-0.00017192,0.000152375,
1.125,0.062087,0.168823,-0.000206598,0.000184326,
1.125,0.0651183,0.168816,-0.000232097,0.000219514,
1.125,0.0675689,0.168807,-0.000254052,0.000258557,
1.125,0.0696592,0.168796,-0.000275216,0.000302141,
1.125,0.0715198,0.168782,-0.000297096,0.000351033,
1.125,0.0732315,0.168765,-0.000320656,0.000406094,
1.125,0.0748495,0.168745,-0.000346638,0.000468293,
1.125,0.0764123,0.16872,-0.00037566,0.000538726,
1.125,0.07795,0.168691,-0.000408367,0.000618634,
1.125,0.0794859,0.168656,-0.000445481,0.000709426,
1.125,0.0810414,0.168614,-0.000487748,0.000812702,
1.125,0.0826346,0.168564,-0.000535949,0.000930284,
1.125,0.0842837,0.168505,-0.000591009,0.00106425,
1.125,0.0860056,0.168436,-0.000654062,0.00121696,
1.125,0.0878194,0.168354,-0.000726303,0.00139111,
1.125,0.0897436,0.168257,-0.000809037,0.00158979,
1.125,0.0917994,0.168144,-0.000903815,0.00181649,
1.125,0.0940091,0.168011,-0.00101255,0.00207523,
1.125,0.0963992,0.167855,-0.00113728,0.00237059,
1.125,0.0989981,0.167674,-0.00128024,0.00270779,
1.125,0.10184,0.167464,-0.00144408,0.0030928,
1.125,0.104962,0.167221,-0.00163201,0.00353243,
1.125,0.108411,0.166942,-0.0018475,0.00403447,
1.125,0.112241,0.166622,-0.00209433,0.00460781,
1.125,0.116515,0.166258,-0.00237691,0.00526262,
1.125,0.12131,0.165847,-0.00270051,0.00601049,
1.125,0.126722,0.165385,-0.00307066,0.00686471,
1.125,0.132865,0.164872,-0.00349332,0.00784041,
1.125,0.139884,0.164307,-0.0039751,0.00895492,
1.125,0.147956,0.163693,-0.00452335,0.010228,
1.125,0.157309,0.163031,-0.00514522,0.0116823,
1.125,0.168229,0.162327,-0.00584731,0.0133436,
1.125,0.181086,0.161593,-0.00663548,0.0152415,
1.125,0.196354,0.16084,-0.00751762,0.0174097,
1.125,0.214666,0.160207,-0.00876464,0.0198867,
1.125,0.238116,0.16024,-0.00979079,0.0227167,
1.125,0.271324,0.160721,-0.0102412,0.0259499,
1.125,0.319202,0.160964,-0.0105896,0.029644,
1.125,0.383491,0.16069,-0.0105445,0.0338647,
1.125,0.464241,0.160011,-0.00983574,0.0386871,
1.125,0.559257,0.158921,-0.0083825,0.0441974,
1.125,0.660561,0.157185,-0.0064675,0.0504935,
1.125,0.755032,0.154893,-0.00455251,0.0576879,
1.125,0.832264,0.150967,-0.00252575,0.0659089,
1.125,0.886755,0.147958,-0.000931311,0.0753032,
1.125,0.916101,0.142521,-0.000234595,0.0860384,
1.125,0.925405,0.136257,-4.29003e-05,0.0983063,
1.125,0.927812,0.129569,-1.02253e-05,0.112326,
1.125,0.929895,0.122629,-3.59292e-06,0.128348,
1.125,0.933037,0.115397,-1.17028e-06,0.146659,
1.125,0.936583,0.10774,-3.48861e-07,0.167586,
1.125,0.941513,0.0997231,-1.07654e-07,0.191503,
1.125,0.949628,0.0911405,-3.19123e-08,0.218838,
1.125,0.960084,0.0826666,-8.17082e-09,0.250082,
1.125,0.96552,0.0735533,-3.08327e-09,0.285792,
1.125,0.969843,0.0645105,-2.38623e-09,0.32661,
1.125,0.973151,0.0553458,-2.56492e-09,0.373265,
1.125,0.977069,0.0462247,-3.07595e-09,0.426595,
1.125,0.981492,0.0372213,-3.40854e-09,0.487555,
1.125,0.985909,0.028552,-3.23884e-09,0.55724,
1.125,0.98996,0.0203438,-2.76263e-09,0.636898,
1.125,0.993815,0.0125702,-2.22377e-09,0.72796,
1.125,0.997239,0.00576292,-1.69447e-09,0.82855,
1.125,1.00018,-6.65514e-05,-1.21198e-09,0.94298,
1.125,1.00123,-0.00213458,-1.01898e-09,1.00315,
1.125,1.00248,-0.00458606,-7.89905e-10,1.07453,
1.125,1.0041,-0.00791139,-4.47607e-10,1.22528,
1.125,1.00502,-0.00975058,-1.79409e-10,1.39832,
1.125,1.00532,-0.0103319,-4.23321e-12,1.59646,
1.125,1.00509,-0.0099219,8.62349e-11,1.82431,
1.125,1.00456,-0.00888111,1.32238e-10,2.08526,
1.125,1.0038,-0.00743045,1.3936e-10,2.38489,
1.125,1.003,-0.00587324,1.24355e-10,2.72763,
1.125,1.00217,-0.00430706,9.71741e-11,3.12069,
1.125,1.00151,-0.00302823,7.54809e-11,3.57128,

1.25,0,0.186123,0,1e-16,
1.25,0.0390012,0.186121,-1.66394e-07,2.27149e-05,
1.25,0.0784149,0.186122,-5.96519e-06,4.58292e-05,
1.25,0.117549,0.186122,-5.09872e-05,6.97496e-05,
1.25,0.152857,0.186121,-0.000176701,9.48968e-05,
1.25,0.180679,0.186121,-0.000335996,0.000121713,
1.25,0.201057,0.186119,-0.000461465,0.000150671,
1.25,0.215955,0.186117,-0.000544414,0.00018228,
1.25,0.22718,0.186113,-0.000598292,0.000217097,
1.25,0.235966,0.186108,-0.000634996,0.000255735,
1.25,0.243102,0.186102,-0.000662192,0.000298876,
1.25,0.249091,0.186093,-0.000684424,0.00034728,
1.25,0.254259,0.186083,-0.000704446,0.000401801,
1.25,0.258826,0.18607,-0.000724008,0.000463402,
1.25,0.262946,0.186054,-0.000744317,0.00053317,
1.25,0.266727,0.186034,-0.000766316,0.000612337,
1.25,0.270252,0.186011,-0.000790833,0.000702303,
1.25,0.273582,0.185982,-0.000818632,0.000804657,
1.25,0.27677,0.185948,-0.000850468,0.00092121,
1.25,0.279855,0.185907,-0.000887152,0.00105402,
1.25,0.282875,0.185858,-0.000929617,0.00120545,
1.25,0.285862,0.1858,-0.000978852,0.00137816,
1.25,0.288846,0.185731,-0.00103595,0.00157523,
1.25,0.291856,0.185649,-0.00110216,0.00180013,
1.25,0.294922,0.185553,-0.00117901,0.00205686,
1.25,0.298073,0.185441,-0.00126814,0.00234997,
1.25,0.301342,0.185309,-0.00137139,0.00268466,
1.25,0.304765,0.185155,-0.00149091,0.00306685,
1.25,0.30838,0.184976,-0.00162928,0.00350335,
1.25,0.312232,0.18477,-0.00178943,0.00400188,
1.25,0.316372,0.184532,-0.00197459,0.00457132,
1.25,0.320861,0.18426,-0.00218843,0.00522176,
1.25,0.325771,0.183951,-0.00243528,0.00596478,
1.25,0.331188,0.183601,-0.00271973,0.00681358,
1.25,0.337216,0.183208,-0.00304678,0.00778325,
1.25,0.343983,0.18277,-0.00342186,0.00889105,
1.25,0.351648,0.182289,-0.00385081,0.0101567,
1.25,0.360407,0.18176,-0.0043392,0.0116027,
1.25,0.370507,0.181187,-0.00489187,0.0132548,
1.25,0.382259,0.18057,-0.00551243,0.0151425,
1.25,0.396059,0.179909,-0.00620222,0.0172993,
1.25,0.412408,0.179204,-0.00698964,0.0197638,
1.25,0.432103,0.178635,-0.00806448,0.0225799,
1.25,0.457771,0.178512,-0.00867687,0.0257978,
1.25,0.494071,0.178654,-0.0087556,0.0294749,
1.25,0.543755,0.178402,-0.00853432,0.0336769,
1.25,0.605002,0.177741,-0.00780169,0.0384787,
1.25,0.673318,0.176542,-0.00654613,0.0439663,
1.25,0.742446,0.17477,-0.00496469,0.0502376,
1.25,0.805422,0.17229,-0.0033398,0.0574048,
1.25,0.858,0.168883,-0.00160233,0.0655959,
1.25,0.895017,0.164781,-0.000541172,0.0749575,
1.25,0.912848,0.159727,-0.000121708,0.0856571,
1.25,0.918531,0.154133,-2.32771e-05,0.0978863,
1.25,0.920254,0.147918,-6.40845e-06,0.111864,
1.25,0.922041,0.141254,-2.41753e-06,0.127841,
1.25,0.92481,0.134068,-8.67457e-07,0.146102,
1.25,0.928591,0.126364,-2.8926e-07,0.166976,
1.25,0.934194,0.11827,-9.39627e-08,0.190837,
1.25,0.942783,0.10956,-2.76437e-08,0.218113,
1.25,0.952497,0.100582,-7.32902e-09,0.249292,
1.25,0.957583,0.0911481,-3.03387e-09,0.284935,
1.25,0.96184,0.0814774,-2.46915e-09,0.325682,
1.25,0.965275,0.0718632,-2.70034e-09,0.372264,
1.25,0.96941,0.0622312,-3.24541e-09,0.425519,
1.25,0.974057,0.0527052,-3.58251e-09,0.486402,
1.25,0.978698,0.0434408,-3.40977e-09,0.55601,
1.25,0.982982,0.0345838,-2.92484e-09,0.635594,
1.25,0.98709,0.026322,-2.39973e-09,0.726585,
1.25,0.990865,0.0187013,-1.8973e-09,0.83062,
1.25,0.994249,0.0119324,-1.44066e-09,0.949574,
1.25,0.99711,0.00616653,-1.03827e-09,1.08559,
1.25,0.999401,0.00153951,-7.01168e-10,1.24111,
1.25,1.0011,-0.00191368,-4.32433e-10,1.41894,
1.25,1.00224,-0.00419114,-2.25364e-10,1.62229,
1.25,1.00281,-0.00536944,-8.03492e-11,1.84947,
1.25,1.00296,-0.00567712,5.99793e-12,2.10883,
1.25,1.00276,-0.00534214,4.53136e-11,2.40658,
1.25,1.00242,-0.00470897,6.03155e-11,2.74752,
1.25,1.00237,-0.00461582,5.97486e-11,2.79119,
1.25,1.00195,-0.00386837,5.5086e-11,3.13954,
1.25,1.00162,-0.00328878,3.491e-11,3.5883,

1.375,0,0.149428,0,1e-16,
1.375,0.0528957,0.149427,-2.7955e-07,2.24527e-05,
1.375,0.106251,0.149427,-9.81562e-06,4.53013e-05,
1.375,0.158939,0.149427,-7.8484e-05,6.89485e-05,
1.375,0.2065,0.149427,-0.000246771,9.38113e-05,
1.375,0.245309,0.149427,-0.000437246,0.000120328,
1.375,0.275779,0.149427,-0.000583664,0.000148967,
1.375,0.29985,0.149426,-0.000685242,0.000180234,
1.375,0.319225,0.149425,-0.000755608,0.00021468,
1.375,0.335116,0.149423,-0.000805319,0.000252914,
1.375,0.348382,0.149421,-0.000841406,0.000295611,
1.375,0.359634,0.149418,-0.000868495,0.000343527,
1.375,0.369322,0.149413,-0.000889772,0.000397509,
1.375,0.377779,0.149408,-0.000907482,0.000458511,
1.375,0.385259,0.149401,-0.000923305,0.000527614,
1.375,0.391957,0.149392,-0.000938519,0.00060604,
1.375,0.398026,0.149382,-0.000954156,0.00069518,
1.375,0.403586,0.149368,-0.000971092,0.000796613,
1.375,0.408734,0.149352,-0.000990129,0.000912136,
1.375,0.413551,0.149331,-0.00101203,0.0010438,
1.375,0.418103,0.149307,-0.00103756,0.00119393,
1.375,0.422448,0.149277,-0.00106753,0.00136521,
1.375,0.426634,0.149241,-0.00110283,0.00156067,
1.375,0.430708,0.149199,-0.0011444,0.00178377,
1.375,0.43471,0.149148,-0.00119335,0.00203849,
1.375,0.438682,0.149088,-0.00125089,0.00232935,
1.375,0.44266,0.149016,-0.0013184,0.00266152,
1.375,0.446687,0.148933,-0.00139744,0.00304091,
1.375,0.450801,0.148835,-0.00148982,0.00347427,
1.375,0.45505,0.14872,-0.00159755,0.0039693,
1.375,0.45948,0.148587,-0.0017229,0.00453483,
1.375,0.464147,0.148434,-0.00186844,0.00518091,
1.375,0.469114,0.148258,-0.00203705,0.00591907,
1.375,0.474453,0.148057,-0.00223189,0.00676245,
1.375,0.480251,0.14783,-0.00245638,0.0077261,
1.375,0.486611,0.147573,-0.00271416,0.00882719,
1.375,0.493658,0.147287,-0.00300897,0.0100854,
1.375,0.501544,0.146968,-0.00334444,0.0115231,
1.375,0.510457,0.146617,-0.00372362,0.013166,
1.375,0.520629,0.146232,-0.00414863,0.0150434,
1.375,0.532348,0.145814,-0.00461947,0.017189,
1.375,0.545973,0.145354,-0.00513361,0.0196409,
1.375,0.561955,0.144867,-0.00571257,0.0224431,
1.375,0.581034,0.144399,-0.006366,0.0256456,
1.375,0.604935,0.144108,-0.00690675,0.0293058,
1.375,0.637083,0.144035,-0.00676969,0.0334891,
1.375,0.679754,0.143741,-0.00633417,0.0382704,
1.375,0.730193,0.143091,-0.00550461,0.0437353,
1.375,0.783278,0.141943,-0.00433042,0.0499817,
1.375,0.834253,0.140906,-0.00292505,0.0571216,
1.375,0.879483,0.138899,-0.00143461,0.0652828,
1.375,0.911814,0.136411,-0.000458148,0.0746118,
1.375,0.926841,0.13336,-8.85337e-05,0.0852759,
1.375,0.931172,0.130052,-1.28202e-05,0.0974663,
1.375,0.931807,0.126279,-2.85242e-06,0.111402,
1.375,0.932499,0.122101,-1.15483e-06,0.127333,
1.375,0.933964,0.11753,-4.6989e-07,0.145546,
1.375,0.936544,0.112462,-1.83086e-07,0.166367,
1.375,0.941207,0.10689,-6.61625e-08,0.190171,
1.375,0.948529,0.100881,-2.00659e-08,0.217387,
1.375,0.956344,0.0943265,-5.33677e-09,0.248502,
1.375,0.960092,0.0872381,-2.21323e-09,0.284078,
1.375,0.96306,0.0798736,-1.8438e-09,0.324754,
1.375,0.965442,0.0720769,-2.13074e-09,0.371263,
1.375,0.968769,0.0641478,-2.67391e-09,0.424442,
1.375,0.972577,0.0561915,-3.04505e-09,0.485249,
1.375,0.976627,0.0478982,-2.97786e-09,0.554781,
1.375,0.980372,0.0400731,-2.62317e-09,0.634289,
1.375,0.98414,0.0324243,-2.22075e-09,0.725209,
1.375,0.987681,0.0252104,-1.80782e-09,0.82918,
1.375,0.990972,0.0186256,-1.42789e-09,0.948077,
1.375,0.993882,0.0127214,-1.08666e-09,1.08405,
1.375,0.996374,0.00766898,-7.89695e-10,1.23955,
1.375,0.99838,0.00356706,-5.43707e-10,1.41738,
1.375,0.999935,0.000447699,-3.45564e-10,1.62076,
1.375,1.00099,-0.00171365,-1.93806e-10,1.85337,
1.375,1.00161,-0.00299376,-8.78562e-11,2.1194,
1.375,1.00186,-0.0035379,-1.94553e-11,2.42367,
1.375,1.00187,-0.00360691,6.91601e-12,2.77091,
1.375,1.00173,-0.00341641,1.71665e-11,3.16112,
1.375,1.00163,-0.00332258,5.942e-12,3.6087,

-3.19886,0,0.0209189,0,0,
-2.99627,0,0.00594866,0,0,
-2.80402,0,0.00433114,0,0,
-2.62157,0,0.0036854,0,0,
-2.44842,0,0.00367595,0,0,
-2.2841,0,0.00417384,0,0,
-2.12815,0,0.0047117,0,0,
-1.98016,0,0.00556878,0,0,
-1.83971,0,0.00653829,0,0,
-1.70643,0,0.0078811,0,0,
-1.57994,0,0.00926988,0,0,
-1.4599,0,0.0112894,0,0,
-1.34598,0,0.0135138,0,0,
-1.23786,0,0.0160596,0,0,
-1.13526,0,0.0193359,0,0,
-1.03789,0,0.0229933,0,0,
-0.945488,0,0.0277048,0,0,
-0.857795,0,0.0329763,0,0,
-0.774572,0,0.0398226,0,0,
-0.695593,0,0.047493,0,0,
-0.620641,0,0.0575576,0,0,
-0.54951,0,0.0688457,0,0,
-0.482006,0,0.083828,0,0,
-0.417943,0,0.100641,0,0,
-0.357147,0,0.123343,0,0,
-0.29945,0,0.148983,0,0,
-0.244696,0,0.183923,0,0,
-0.192732,0,0.218432,0,0,
-0.143419,0,0.268983,0,0,
-0.0966231,0,0.321115,0,0,
-0.0522148,0,0.342879,0,0,
-0.0100698,0,0.347722,0,0,
0.0299268,0,0.337374,0,0,
0.0678843,0,0.293478,0,0,
0.103908,0,0.239903,0,0,
0.138096,0,0.111766,0,0,
0.17054,0,-0.000992765,0,0,
0.20133,0,-0.0888614,0,0,
0.230551,0,-0.165595,0,0,
0.258281,0,-0.229123,0,0,
0.284598,0,-0.288162,0,0,
0.309574,0,-0.338444,0,0,
0.333275,0,-0.383732,0,0,
0.355769,0,-0.425375,0,0,
0.377115,0,-0.461841,0,0,
0.397374,0,-0.496713,0,0,
0.416599,0,-0.527061,0,0,
0.434844,0,-0.556004,0,0,
0.452159,0,-0.581567,0,0,
0.468591,0,-0.605873,0,0,
0.484186,0,-0.627596,0,0,
0.498985,0,-0.648168,0,0,
0.51303,0,-0.666947,0,0,
0.526358,0,-0.684585,0,0,
0.539007,0,-0.700601,0,0,
0.551012,0,-0.715447,0,0,
0.562404,0,-0.729516,0,0,
0.573215,0,-0.74229,0,0,
0.583475,0,-0.754438,0,0,
0.593212,0,-0.765592,0,0,
0.602453,0,-0.77622,0,0,
0.611222,0,-0.785715,0,0,
0.619544,0,-0.794762,0,0,
0.627442,0,-0.803328,0,0,
0.634938,0,-0.811111,0,0,
0.642051,0,-0.818374,0,0,
0.648801,0,-0.824621,0,0,
0.655207,0,-0.8276,0,0,
0.661287,0,-0.816366,0,0,
0.667057,0,-0.772808,0,0,
0.672532,0,-0.719342,0,0,
0.677729,0,-0.636922,0,0,
0.68266,0,-0.566904,0,0,
0.68734,0,-0.512434,0,0,
0.691781,0,-0.467408,0,0,
0.695996,0,-0.433333,0,0,
0.699996,0,-0.403416,0,0,
0.703996,0,-0.378687,0,0,
0.707996,0,-0.355468,0,0,
0.712135,0,-0.335671,0,0,
0.716416,0,-0.315628,0,0,
0.720846,0,-0.298906,0,0,
0.725429,0,-0.281385,0,0,
0.730171,0,-0.26666,0,0,
0.735076,0,-0.251263,0,0,
0.740151,0,-0.237904,0,0,
0.745402,0,-0.224243,0,0,
0.750835,0,-0.211845,0,0,
0.756455,0,-0.19922,0,0,
0.76227,0,-0.186798,0,0,
0.768286,0,-0.176204,0,0,
0.77451,0,-0.163901,0,0,
0.78095,0,-0.152682,0,0,
0.787612,0,-0.141327,0,0,
0.794505,0,-0.130167,0,0,
0.801636,0,-0.119109,0,0,
0.809014,0,-0.108101,0,0,
0.816647,0,-0.0972992,0,0,
0.824544,0,-0.0864777,0,0,
0.832715,0,-0.0760099,0,0,
0.841168,0,-0.0654297,0,0,
0.849914,0,-0.0553375,0,0,
0.858962,0,-0.0450893,0,0,
0.868323,0,-0.0353794,0,0,
0.878008,0,-0.0255462,0,0,
0.888028,0,-0.0162736,0,0,
0.898395,0,-0.00695584,0,0,
0.90912,0,0.00182126,0,0,
0.920216,0,0.0105211,0,0,
0.931697,0,0.0185916,0,0,
0.943574,0,0.0269115,0,0,
0.955862,0,0.0326622,0,0,
0.968576,0,0.0405926,0,0,
0.981729,0,0.0448595,0,0,
0.995332,0,0.0563203,0,0,
1.00941,0,0.0695494,0,0,
1.02397,0,0.0893319,0,0,
1.03904,0,0.100021,0,0,
1.05463,0,0.115267,0,0,
1.07076,0,0.130042,0,0,
1.08745,0,0.14413,0,0,
1.10471,0,0.157008,0,0,
1.12258,0,0.167609,0,0,
1.14106,0,0.176971,0,0,
1.16018,0,0.183165,0,0,
1.17996,0,0.188053,0,0,
1.20043,0,0.18973,0,0,
1.22161,0,0.189438,0,0,
1.24351,0,0.18756,0,0,
1.26618,0,0.182542,0,0,
1.28963,0,0.177195,0,0,
1.31389,0,0.16966,0,0,
1.33899,0,0.161942,0,0,
1.36496,0,0.152748,0,0,
1.39183,0,0.143864,0,0,
1.41962,0,0.13416,0,0,
1.44838,0,0.125053,0,0,
1.47813,0,0.115575,0,0,
1.50892,0,0.106886,0,0,
1.54076,0,0.0981408,0,0,
1.57371,0,0.0902093,0,0,
1.6078,0,0.0824142,0,0,
1.64307,0,0.0753947,0,0,
1.67956,0,0.0685806,0,0,
1.71731,0,0.0624597,0,0,
1.75637,0,0.056613,0,0,
1.79677,0,0.0513936,0,0,
1.83858,0,0.0464396,0,0,
1.88183,0,0.0420222,0,0,
1.92658,0,0.0378762,0,0,
1.97288,0,0.0341469,0,0,
2.02078,0,0.0308367,0,0,
2.07033,0,0.0276741,0,0,
2.1216,0,0.0248963,0,0,
2.17465,0,0.022323,0,0,
2.22953,0,0.0200412,0,0,
2.2863,0,0.0179211,0,0,
2.34505,0,0.01603,0,0,
2.40582,0,0.0143354,0,0,
2.4687,0,0.0127607,0,0,
2.53375,0,0.0113714,0,0,
2.60105,0,0.0100935,0,0,
2.67068,0,0.00896117,0,0,
2.74272,0,0.00791721,0,0,
2.81725,0,0.00700555,0,0,
2.89436,0,0.00617093,0,0,
2.97414,0,0.00543482,0,0,
3.05668,0,0.00475222,0,0,
3.14207,0,0.00415193,0,0,
3.23042,0,0.0035903,0,0,
3.32182,0,0.0031093,0,0,
3.41639,0,0.00266912,0,0,
3.51423,0,0.00225552,0,0,
3.61545,0,0.00188386,0,0,
3.72017,0,0.00155687,0,0,
3.82852,0,0.00126032,0,0,
3.94062,0,0.000979199,0,0,
4.05659,0,0.000734199,0,0,
4.17658,0,0.000484168,0,0,
4.30072,0,0.000252658,0,0,
4.42915,0,0.00149414,0,0,

