6f0f00326f69e2080aa363a72f6ec6a68b3193b1 
X,x_velocity,cp,uw_b,wall_distance,
-0.25,0,0.18056,0,1e-16,
-0.25,0.0533361,0.180562,-3.99176e-07,2.59026e-05,
-0.25,0.107717,0.180562,-1.37799e-05,5.22493e-05,
-0.25,0.160989,0.180562,-0.000101271,7.94916e-05,
-0.25,0.207626,0.180562,-0.000280472,0.000108097,
-0.25,0.245052,0.180562,-0.000453163,0.000138555,
-0.25,0.274995,0.180563,-0.000574429,0.000171389,
-0.25,0.299731,0.180563,-0.000660074,0.000207163,
-0.25,0.320868,0.180564,-0.000722708,0.000246489,
-0.25,0.339478,0.180565,-0.000770776,0.000290044,
-0.25,0.356265,0.180566,-0.000809676,0.000338574,
-0.25,0.37171,0.180568,-0.000842482,0.000392915,
-0.25,0.386147,0.180569,-0.000871192,0.000454,
-0.25,0.399821,0.180571,-0.000897129,0.000522878,
-0.25,0.412913,0.180573,-0.000921186,0.000600734,
-0.25,0.425563,0.180576,-0.000943979,0.000688907,
-0.25,0.437879,0.180579,-0.000965929,0.000788915,
-0.25,0.449951,0.180583,-0.000987319,0.000902478,
-0.25,0.461851,0.180586,-0.00100833,0.00103155,
-0.25,0.473639,0.180591,-0.00102905,0.00117836,
-0.25,0.485369,0.180595,-0.00104951,0.00134543,
-0.25,0.497086,0.1806,-0.00106968,0.00153564,
-0.25,0.508828,0.180606,-0.00108952,0.00175227,
-0.25,0.520635,0.180611,-0.00110897,0.00199906,
-0.25,0.532538,0.180617,-0.00112789,0.00228026,
-0.25,0.544568,0.180622,-0.00114609,0.00260072,
-0.25,0.556756,0.180627,-0.00116334,0.00296597,
-0.25,0.569128,0.180631,-0.00117939,0.00338233,
-0.25,0.58171,0.180634,-0.00119395,0.00385697,
-0.25,0.594528,0.180634,-0.0012067,0.00439809,
-0.25,0.607608,0.180631,-0.0012173,0.00501505,
-0.25,0.620974,0.180623,-0.00122536,0.00571851,
-0.25,0.634653,0.180609,-0.00123047,0.00652062,
-0.25,0.648674,0.180586,-0.00123216,0.00743527,
-0.25,0.663065,0.180552,-0.00122987,0.00847826,
-0.25,0.677858,0.180503,-0.0012229,0.00966765,
-0.25,0.693076,0.180434,-0.00121023,0.011024,
-0.25,0.708733,0.180341,-0.0011922,0.0125709,
-0.25,0.724845,0.180214,-0.00117207,0.0143349,
-0.25,0.741652,0.180041,-0.00113699,0.0163469,
-0.25,0.759714,0.17981,-0.0010791,0.0186414,
-0.25,0.779753,0.179506,-0.000996153,0.0212585,
-0.25,0.802438,0.179115,-0.000879534,0.0242434,
-0.25,0.827988,0.178624,-0.000722834,0.0276478,
-0.25,0.855217,0.17798,-0.000536055,0.031531,
-0.25,0.881234,0.177187,-0.000329482,0.0359602,
-0.25,0.901611,0.17615,-0.000113615,0.0410123,
-0.25,0.910725,0.174717,-1.97457e-05,0.0467752,
-0.25,0.912669,0.173215,-2.03539e-06,0.0533488,
-0.25,0.913585,0.171495,-3.23516e-07,0.0608475,
-0.25,0.914591,0.169467,-5.87935e-08,0.0694016,
-0.25,0.91578,0.167105,-1.45454e-08,0.0791597,
-0.25,0.91716,0.164366,-8.314e-09,0.0902917,
-0.25,0.918759,0.161195,-7.64998e-09,0.102991,
-0.25,0.920609,0.15753,-7.67138e-09,0.117479,
-0.25,0.922742,0.153305,-7.73525e-09,0.134008,
-0.25,0.925189,0.148467,-7.75559e-09,0.152865,
-0.25,0.927972,0.142971,-7.7194e-09,0.17438,
-0.25,0.931115,0.136765,-7.59695e-09,0.198926,
-0.25,0.934606,0.129806,-7.43061e-09,0.226933,
-0.25,0.938519,0.122085,-7.17344e-09,0.258887,
-0.25,0.942765,0.113692,-6.86015e-09,0.295348,
-0.25,0.947454,0.104405,-6.43458e-09,0.33695,
-0.25,0.952321,0.0947996,-5.92499e-09,0.384419,
-0.25,0.957454,0.0846795,-5.37811e-09,0.438586,
-0.25,0.962688,0.0743021,-4.73112e-09,0.500395,
-0.25,0.967853,0.0640902,-4.08544e-09,0.570927,
-0.25,0.972986,0.0540005,-3.4799e-09,0.651415,
-0.25,0.977911,0.0444371,-2.89007e-09,0.743264,
-0.25,0.982437,0.0353512,-2.33953e-09,0.848083,
-0.25,0.986608,0.0270734,-1.82792e-09,0.967704,
-0.25,0.990224,0.0198329,-1.37742e-09,1.10422,
-0.25,0.993307,0.0137155,-9.95916e-10,1.26002,
-0.25,0.995765,0.00875211,-6.85571e-10,1.43784,
-0.25,0.997675,0.00495051,-4.42259e-10,1.64079,
-0.25,0.998999,0.00224111,-2.5895e-10,1.86641,
-0.25,0.999845,0.000529798,-1.31164e-10,2.12427,
-0.25,1.00027,-0.000369514,-4.456e-11,2.41998,
-0.25,1.00028,-0.000404579,-3.86091e-11,2.46413,
-0.25,1.00038,-0.000635209,9.3437e-13,2.75802,
-0.25,1.00026,-0.00046212,2.69112e-11,3.14513,
-0.25,1.00001,6.04291e-06,3.12794e-11,3.58873,

0.688,0,-0.48132,0,1e-16,
0.688,-0.0014384,-0.481316,-6.84093e-09,2.33816e-05,
0.688,0.00367782,-0.481364,-1.1044e-06,4.71702e-05,
0.688,0.0156416,-0.481386,-1.89882e-05,7.17799e-05,
0.688,0.033334,-0.481418,-0.000115281,9.76391e-05,
0.688,0.0528134,-0.481453,-0.000336572,0.000125198,
0.688,0.0708898,-0.481485,-0.000616922,0.000154937,
0.688,0.0871607,-0.481512,-0.000897578,0.000187374,
0.688,0.102254,-0.481534,-0.00117402,0.000223074,
0.688,0.116834,-0.481553,-0.00145548,0.00026266,
0.688,0.131428,-0.48157,-0.00174966,0.000306822,
0.688,0.146462,-0.481583,-0.00206179,0.000356332,
0.688,0.162301,-0.481593,-0.00239509,0.000412053,
0.688,0.17928,-0.481599,-0.0027515,0.000474959,
0.688,0.197728,-0.4816,-0.00313241,0.000546147,
0.688,0.217987,-0.481597,-0.00353897,0.000626864,
0.688,0.240417,-0.481587,-0.00396863,0.000718519,
0.688,0.265362,-0.481566,-0.00444135,0.000822716,
0.688,0.293466,-0.48154,-0.00486589,0.000941278,
0.688,0.325708,-0.481509,-0.00524024,0.00107628,
0.688,0.362918,-0.481474,-0.00556276,0.00123008,
0.688,0.405488,-0.481441,-0.00583439,0.00140539,
0.688,0.453394,-0.481414,-0.00601963,0.00160526,
0.688,0.506333,-0.481415,-0.00608318,0.0018332,
0.688,0.563665,-0.481461,-0.00599744,0.00209321,
0.688,0.624167,-0.481575,-0.00574756,0.00238985,
0.688,0.686285,-0.481828,-0.00534561,0.00272832,
0.688,0.748357,-0.482128,-0.00482812,0.00311456,
0.688,0.808755,-0.48275,-0.00424268,0.00355536,
0.688,0.866112,-0.483655,-0.00363881,0.00405845,
0.688,0.919726,-0.484864,-0.00305549,0.00463268,
0.688,0.969339,-0.486361,-0.00252378,0.00528813,
0.688,1.01446,-0.488403,-0.0020671,0.00603632,
0.688,1.05324,-0.49089,-0.00170697,0.00689042,
0.688,1.08409,-0.494185,-0.00143822,0.00786545,
0.688,1.1079,-0.498336,-0.00117842,0.00897856,
0.688,1.12684,-0.503625,-0.00107389,0.0102494,
0.688,1.14295,-0.510404,-0.00110878,0.0117002,
0.688,1.15808,-0.519294,-0.0012446,0.0133567,
0.688,1.17405,-0.531317,-0.00145406,0.015248,
0.688,1.19241,-0.547939,-0.00167774,0.0174016,
0.688,1.21462,-0.571186,-0.00185723,0.0197947,
0.688,1.24134,-0.603626,-0.00192334,0.0225411,
0.688,1.27314,-0.645731,-0.00187894,0.0256954,
0.688,1.30845,-0.694031,-0.00167261,0.0293134,
0.688,1.34281,-0.737502,-0.00109282,0.0334589,
0.688,1.36705,-0.765219,-0.000437851,0.0382051,
0.688,1.37827,-0.774232,-9.2891e-05,0.0436361,
0.688,1.38131,-0.772787,1.20145e-07,0.0498477,
0.688,1.38018,-0.768167,1.28072e-05,0.0569175,
0.688,1.3744,-0.756241,6.77157e-06,0.0649586,
0.688,1.36682,-0.740856,1.84308e-06,0.074169,
0.688,1.35838,-0.723644,4.31101e-07,0.0847119,
0.688,1.34918,-0.705166,1.22663e-07,0.0967654,
0.688,1.33922,-0.685078,5.97185e-08,0.110475,
0.688,1.3283,-0.662813,4.65201e-08,0.126175,
0.688,1.31619,-0.638414,4.26805e-08,0.144131,
0.688,1.30291,-0.61194,4.00721e-08,0.164669,
0.688,1.28858,-0.583206,3.74485e-08,0.188038,
0.688,1.27319,-0.552219,3.47813e-08,0.214753,
0.688,1.25671,-0.519043,3.22033e-08,0.245311,
0.688,1.23908,-0.483505,2.97123e-08,0.280275,
0.688,1.2203,-0.445292,2.75041e-08,0.320142,
0.688,1.20013,-0.404179,2.59871e-08,0.365789,
0.688,1.1781,-0.359759,2.49207e-08,0.417836,
0.688,1.15386,-0.310633,2.38931e-08,0.477372,
0.688,1.12748,-0.25684,2.18237e-08,0.545486,
0.688,1.10101,-0.203668,1.71706e-08,0.623218,
0.688,1.07929,-0.158977,1.16293e-08,0.712106,
0.688,1.06291,-0.126104,7.78703e-09,0.813782,
0.688,1.04998,-0.0998993,5.49242e-09,0.930041,
0.688,1.03932,-0.0785289,3.95886e-09,1.06261,
0.688,1.03054,-0.060842,2.84391e-09,1.21441,
0.688,1.02335,-0.0464472,2.01627e-09,1.38796,
0.688,1.01756,-0.0348408,1.41399e-09,1.58636,
0.688,1.01292,-0.0255984,9.77921e-10,1.81256,
0.688,1.00928,-0.0183073,6.74402e-10,2.0716,
0.688,1.00638,-0.0126054,4.64027e-10,2.36771,
0.688,1.0041,-0.00806854,3.22808e-10,2.70619,
0.688,1.00222,-0.00439344,2.33926e-10,3.09309,
0.688,1.00071,-0.00135618,1.88561e-10,3.53533,

0.813,0,-0.10213,0,1e-16,
0.813,-0.00434068,-0.102137,4.91326e-09,2.32716e-05,
0.813,-0.00786626,-0.102144,1.28333e-07,4.69491e-05,
0.813,-0.0105523,-0.102151,9.20522e-07,7.14457e-05,
0.813,-0.012258,-0.102159,2.57999e-06,9.71887e-05,
0.813,-0.0128751,-0.102164,1.39027e-06,0.000124627,
0.813,-0.0126257,-0.102175,-9.01842e-06,0.000154241,
0.813,-0.0119083,-0.102185,-2.88133e-05,0.000186546,
0.813,-0.0109746,-0.102196,-5.43659e-05,0.000222108,
0.813,-0.00992633,-0.102208,-8.37726e-05,0.000261547,
0.813,-0.00879441,-0.102221,-0.000116765,0.000305554,
0.813,-0.00758235,-0.102236,-0.000153697,0.000354897,
0.813,-0.00628276,-0.102253,-0.000195163,0.000410441,
0.813,-0.0048833,-0.102271,-0.000241884,0.000473157,
0.813,-0.00336878,-0.102292,-0.000294687,0.000544144,
0.813,-0.00172179,-0.102315,-0.000354509,0.000624646,
0.813,7.73149e-05,-0.102341,-0.000422415,0.000716071,
0.813,0.00205063,-0.10237,-0.000499647,0.000820025,
0.813,0.0042232,-0.102403,-0.000587575,0.000938328,
0.813,0.0066238,-0.10244,-0.000687804,0.00107306,
0.813,0.00928553,-0.102481,-0.000802153,0.00122658,
0.813,0.0122468,-0.102528,-0.000932693,0.00140158,
0.813,0.0155525,-0.10258,-0.0010818,0.00160114,
0.813,0.0192555,-0.102638,-0.0012522,0.00182877,
0.813,0.0234185,-0.102702,-0.00144701,0.00208846,
0.813,0.0281166,-0.102774,-0.00166983,0.00238478,
0.813,0.0334406,-0.102853,-0.00192472,0.00272294,
0.813,0.0395003,-0.102939,-0.00221631,0.00310889,
0.813,0.0464308,-0.103034,-0.00254987,0.00354942,
0.813,0.0543984,-0.103136,-0.00293132,0.00405228,
0.813,0.0636103,-0.103244,-0.00336727,0.00462634,
0.813,0.0743258,-0.103358,-0.00386488,0.00528169,
0.813,0.0868716,-0.103475,-0.00443179,0.0060299,
0.813,0.101661,-0.103591,-0.0050755,0.00688414,
0.813,0.119215,-0.103705,-0.00579978,0.00785949,
0.813,0.140174,-0.103869,-0.00674233,0.00897314,
0.813,0.16629,-0.103977,-0.00778095,0.0102448,
0.813,0.202064,-0.103889,-0.00855934,0.0116968,
0.813,0.254337,-0.103718,-0.00937947,0.0133548,
0.813,0.331094,-0.10336,-0.00992633,0.0152482,
0.813,0.441919,-0.102319,-0.00952945,0.0173973,
0.813,0.589442,-0.100315,-0.00765357,0.0197681,
0.813,0.741719,-0.0995649,-0.00513968,0.0225011,
0.813,0.850061,-0.0994409,-0.00310065,0.0256452,
0.813,0.909899,-0.0984758,-0.00133423,0.0292561,
0.813,0.942238,-0.09654,-0.000604478,0.033398,
0.813,0.964269,-0.0938463,-0.000394091,0.0379504,
0.813,0.985169,-0.0905461,-0.000318502,0.0431839,
0.813,1.00676,-0.08638,-0.00021641,0.0492266,
0.813,1.02495,-0.0820216,-9.26714e-05,0.0561862,
0.813,1.03575,-0.0763083,-1.25987e-05,0.0641865,
0.813,1.03699,-0.0721968,8.07287e-06,0.0732535,
0.813,1.028,-0.0655828,3.71069e-06,0.0836093,
0.813,1.01887,-0.0578743,6.39919e-07,0.0955186,
0.813,1.01482,-0.0496591,1.1957e-07,0.10911,
0.813,1.00745,-0.0424015,1.91638e-08,0.124602,
0.813,1.0063,-0.0335387,9.31655e-10,0.142358,
0.813,1.01125,-0.0264223,1.03847e-09,0.162626,
0.813,1.00587,-0.0231201,1.33227e-09,0.185823,
0.813,1.00464,-0.0211922,-5.29546e-10,0.212297,
0.813,1.00769,-0.0244023,-1.8136e-09,0.242651,
0.813,1.01258,-0.0306172,-2.8132e-09,0.277301,
0.813,1.01887,-0.0390044,-3.47459e-09,0.316941,
0.813,1.02454,-0.0489409,-3.78627e-09,0.36227,
0.813,1.02847,-0.0592457,-4.17496e-09,0.41413,
0.813,1.0333,-0.0678921,-3.62735e-09,0.473389,
0.813,1.03674,-0.0742976,-1.87028e-09,0.54123,
0.813,1.03789,-0.0765734,-9.89914e-11,0.618788,
0.813,1.03726,-0.0746683,8.17335e-10,0.707593,
0.813,1.03514,-0.0703441,1.48856e-09,0.809092,
0.813,1.03178,-0.0634047,1.77879e-09,0.925335,
0.813,1.02764,-0.0550732,1.76276e-09,1.05821,
0.813,1.0232,-0.0461184,1.57042e-09,1.21017,
0.813,1.01885,-0.0374583,1.29792e-09,1.38391,
0.813,1.01487,-0.029489,1.0139e-09,1.58247,
0.813,1.01138,-0.0225006,7.61293e-10,1.81009,
0.813,1.00843,-0.0166281,5.52978e-10,2.07007,
0.813,1.00599,-0.0118024,3.91353e-10,2.36772,
0.813,1.00401,-0.0079143,2.85046e-10,2.70818,
0.813,1.00229,-0.00456268,2.0001e-10,3.09651,
0.813,1.00101,-0.00200351,1.5968e-10,3.54123,

0.938,0,0.0219279,0,1e-16,
0.938,-0.0063443,0.021925,2.94464e-09,2.32316e-05,
0.938,-0.0124112,0.0219203,8.47099e-08,4.68694e-05,
0.938,-0.0182605,0.0219151,8.26919e-07,7.13267e-05,
0.938,-0.0238307,0.0219095,4.14076e-06,9.70313e-05,
0.938,-0.0288183,0.021904,1.2786e-05,0.000124433,
0.938,-0.0327395,0.0218993,2.55856e-05,0.000154011,
0.938,-0.0354124,0.0218941,3.53374e-05,0.000186283,
0.938,-0.0370828,0.0218882,3.73693e-05,0.000221814,
0.938,-0.0380817,0.0218802,3.2574e-05,0.000261227,
0.938,-0.038645,0.0218741,2.31248e-05,0.000305212,
0.938,-0.0389132,0.021855,1.01433e-05,0.000354541,
0.938,-0.0389617,0.0218872,-5.93188e-06,0.000410078,
0.938,-0.038836,0.0218427,-2.47889e-05,0.000472798,
0.938,-0.0385603,0.0218384,-4.67955e-05,0.000543802,
0.938,-0.0381455,0.0218275,-7.22174e-05,0.000624336,
0.938,-0.0375965,0.0218159,-0.000101375,0.000715816,
0.938,-0.0369118,0.0218023,-0.00013488,0.000819848,
0.938,-0.036086,0.0217871,-0.000173297,0.000938261,
0.938,-0.0351102,0.0217702,-0.000217347,0.00107314,
0.938,-0.0339721,0.0217516,-0.000267835,0.00122685,
0.938,-0.0326565,0.0217308,-0.000325703,0.00140211,
0.938,-0.0311447,0.0217076,-0.000392039,0.00160199,
0.938,-0.0294141,0.0216818,-0.00046809,0.00183001,
0.938,-0.0274383,0.0216532,-0.000555272,0.0020902,
0.938,-0.0251856,0.0216212,-0.000655218,0.00238713,
0.938,-0.0226186,0.0215854,-0.000769816,0.00272605,
0.938,-0.019693,0.0215455,-0.000901209,0.00311293,
0.938,-0.0163559,0.0215008,-0.00105183,0.00355458,
0.938,-0.0125443,0.0214506,-0.00122446,0.00405882,
0.938,-0.00818282,0.0213939,-0.00142207,0.00463453,
0.938,-0.00318327,0.02133,-0.00164901,0.00529188,
0.938,0.00255994,0.021257,-0.00190827,0.00604249,
0.938,0.00917127,0.0211743,-0.00220613,0.00689961,
0.938,0.0167966,0.0210807,-0.00254919,0.0078784,
0.938,0.0256213,0.0209763,-0.00294173,0.00899617,
0.938,0.0358842,0.0208603,-0.00338962,0.0102727,
0.938,0.0478822,0.020737,-0.00389958,0.0117305,
0.938,0.0619967,0.0206072,-0.00447969,0.0133955,
0.938,0.0787148,0.020478,-0.00513868,0.0152971,
0.938,0.0986644,0.0203506,-0.0058832,0.017469,
0.938,0.122636,0.0201306,-0.00682973,0.0199391,
0.938,0.152527,0.0199634,-0.00797281,0.0225116,
0.938,0.193772,0.0201018,-0.00877382,0.0255164,
0.938,0.25604,0.0205169,-0.00955021,0.0290096,
0.938,0.352054,0.021597,-0.00976394,0.0330545,
0.938,0.492179,0.0240178,-0.0085917,0.0377237,
0.938,0.658451,0.0243981,-0.00632271,0.0426984,
0.938,0.795951,0.0221803,-0.00417005,0.0484919,
0.938,0.880333,0.0203983,-0.00196825,0.0552419,
0.938,0.930902,0.0195037,-0.000794335,0.0630705,
0.938,0.967035,0.0215942,-0.000287197,0.0721179,
0.938,0.984935,0.0204814,-5.5257e-05,0.0822909,
0.938,0.987591,0.0168074,-3.18691e-06,0.0938338,
0.938,0.986033,0.0154878,1.1517e-06,0.107215,
0.938,0.981392,0.0135062,2.56467e-07,0.122488,
0.938,0.98056,0.0135719,-1.02699e-07,0.139919,
0.938,0.984669,0.0122363,-4.64481e-08,0.160003,
0.938,0.988946,0.0103248,-7.47603e-09,0.18281,
0.938,0.990206,0.00790172,-1.53457e-09,0.208986,
0.938,0.991701,0.00579172,-1.14907e-09,0.239003,
0.938,0.994595,0.00307103,-1.42792e-09,0.273269,
0.938,0.998664,-0.000204992,-1.71613e-09,0.312507,
0.938,1.00265,-0.00393923,-1.64515e-09,0.357468,
0.938,1.0043,-0.00895014,-1.74527e-09,0.408929,
0.938,1.00659,-0.0137402,-2.16289e-09,0.467901,
0.938,1.00936,-0.0190316,-2.08527e-09,0.535368,
0.938,1.01182,-0.0239823,-1.64084e-09,0.612662,
0.938,1.01393,-0.0278271,-1.14874e-09,0.701152,
0.938,1.01547,-0.0308608,-5.47722e-10,0.802634,
0.938,1.01601,-0.0317954,-3.44485e-11,0.91874,
0.938,1.01568,-0.0310824,2.60277e-10,1.05163,
0.938,1.01465,-0.029001,4.70942e-10,1.20403,
0.938,1.01303,-0.0258047,5.49774e-10,1.37848,
0.938,1.01111,-0.0219346,5.3806e-10,1.57802,
0.938,1.00904,-0.0178507,4.74403e-10,1.80652,
0.938,1.00707,-0.0139102,3.86977e-10,2.06844,
0.938,1.00525,-0.0103161,2.9824e-10,2.3677,
0.938,1.0037,-0.00724632,2.24781e-10,2.7102,
0.938,1.0023,-0.00456559,1.64491e-10,3.1022,
0.938,1.00122,-0.00248266,1.30279e-10,3.55094,

1,0,0.0590705,0,1e-16,
1,-0.012605,0.0590674,7.42908e-09,2.32217e-05,
1,-0.024758,0.0590632,2.47492e-07,4.685e-05,
1,-0.036562,0.0590584,2.39298e-06,7.12984e-05,
1,-0.0478433,0.0590532,1.15387e-05,9.6995e-05,
1,-0.0579152,0.0590479,3.35856e-05,0.00012439,
1,-0.0658686,0.0590427,6.40257e-05,0.000153963,
1,-0.0714619,0.0590368,8.83158e-05,0.000186233,
1,-0.0751948,0.05903,9.91651e-05,0.000221764,
1,-0.0776805,0.059022,9.87704e-05,0.000261182,
1,-0.0793568,0.059013,9.10405e-05,0.000305176,
1,-0.0804903,0.0590033,7.84599e-05,0.000354519,
1,-0.0812381,0.0589917,6.22199e-05,0.000410078,
1,-0.0816932,0.0589813,4.30061e-05,0.000472828,
1,-0.0819153,0.058957,2.09384e-05,0.000543873,
1,-0.0819375,0.0589862,-4.16634e-06,0.000624461,
1,-0.081781,0.058933,-3.23303e-05,0.000716009,
1,-0.0814575,0.0589228,-6.39977e-05,0.000820128,
1,-0.0809711,0.0589051,-9.95933e-05,0.000938651,
1,-0.0803209,0.0588856,-0.000139715,0.00107366,
1,-0.0795009,0.0588634,-0.000185137,0.00122754,
1,-0.0785014,0.0588385,-0.000236619,0.001403,
1,-0.0773087,0.0588109,-0.000295063,0.00160314,
1,-0.0759055,0.0587803,-0.00036149,0.00183147,
1,-0.0742707,0.0587466,-0.000437076,0.00209203,
1,-0.0723785,0.0587092,-0.000523142,0.00238941,
1,-0.0701986,0.0586681,-0.000621179,0.00272886,
1,-0.0676947,0.0586232,-0.000732885,0.00311639,
1,-0.0648243,0.0585743,-0.000860206,0.00355882,
1,-0.0615364,0.0585211,-0.00100532,0.00406398,
1,-0.0577708,0.0584642,-0.00117064,0.00464079,
1,-0.0534554,0.0584037,-0.00135889,0.00529946,
1,-0.0485039,0.0583404,-0.00157314,0.00605162,
1,-0.0428117,0.058275,-0.00181667,0.0069106,
1,-0.0362526,0.0582099,-0.00209298,0.00789159,
1,-0.0286723,0.0581469,-0.0024058,0.00901195,
1,-0.0198835,0.0580903,-0.00275875,0.0102915,
1,-0.00965939,0.0580432,-0.00315531,0.011753,
1,0.00226127,0.0580121,-0.00360488,0.0134223,
1,0.0161661,0.0579915,-0.00411689,0.0153289,
1,0.0324283,0.0580008,-0.00472379,0.0175068,
1,0.0516962,0.0580012,-0.00539933,0.0199945,
1,0.0750557,0.0578401,-0.0061586,0.0228361,
1,0.104222,0.0573531,-0.00683938,0.0260822,
1,0.141776,0.0565251,-0.00762592,0.0297904,
1,0.192091,0.0557932,-0.00853865,0.0340265,
1,0.263821,0.0557434,-0.00940006,0.0388658,
1,0.371198,0.0564257,-0.00957314,0.0443714,
1,0.519165,0.0592995,-0.00823027,0.050306,
1,0.680644,0.061067,-0.0058797,0.0567779,
1,0.809007,0.060467,-0.00379888,0.0643629,
1,0.895632,0.0580416,-0.00158752,0.073201,
1,0.945564,0.0614411,-0.000452159,0.0834523,
1,0.964818,0.0575119,-7.34825e-05,0.0952491,
1,0.96783,0.0547932,-4.72991e-06,0.108351,
1,0.96583,0.0523595,2.64427e-07,0.123411,
1,0.963271,0.0498214,-3.34482e-07,0.140887,
1,0.965357,0.0469644,-2.69445e-07,0.160913,
1,0.970874,0.0432254,-7.07742e-08,0.183368,
1,0.974652,0.038891,-1.28183e-08,0.209311,
1,0.977301,0.0344389,-3.57951e-09,0.239097,
1,0.980878,0.0296434,-2.21884e-09,0.273067,
1,0.985793,0.0242489,-2.25905e-09,0.312052,
1,0.991336,0.018505,-2.16335e-09,0.356741,
1,0.993995,0.0122863,-2.06489e-09,0.407906,
1,0.996764,0.0062024,-2.42821e-09,0.466542,
1,0.999975,-5.52239e-05,-2.43596e-09,0.53384,
1,1.00301,-0.00608296,-2.07394e-09,0.610826,
1,1.00583,-0.0116149,-1.59576e-09,0.699112,
1,1.00815,-0.0161384,-1.08331e-09,0.800294,
1,1.00981,-0.0193907,-6.09616e-10,0.916281,
1,1.01069,-0.0210801,-1.83361e-10,1.04923,
1,1.01075,-0.0212064,6.62749e-11,1.2016,
1,1.01017,-0.02007,2.49751e-10,1.37615,
1,1.00912,-0.0179647,3.24891e-10,1.57647,
1,1.00775,-0.0152523,3.33399e-10,1.80575,
1,1.00732,-0.014395,3.23648e-10,1.88256,
1,1.00627,-0.0123209,2.998e-10,2.0677,
1,1.0048,-0.00942726,2.48017e-10,2.36835,
1,1.0035,-0.00684268,1.95339e-10,2.71278,
1,1.00227,-0.00447769,1.44914e-10,3.10614,
1,1.00131,-0.00266132,1.12096e-10,3.55725,

1.125,0,0.168198,0,1e-16,
1.125,0.010538,0.168194,-3.65091e-08,2.2977e-05,
1.125,0.0215978,0.168195,-1.39184e-06,4.63572e-05,
1.125,0.0330341,0.168195,-1.34565e-05,7.05508e-05,
1.125,0.0436486,0.168194,-5.51387e-05,9.59823e-05,
1.125,0.0518023,0.168193,-0.000118066,0.000123098,
1.125,0.0574443,0.16819,-0.000169723,0.000152375,
1.125,0.0614339,0.168185,-0.000204383,0.000184326,
1.125,0.0644527,0.168178,-0.000229935,0.000219514,
1.125,0.0668936,0.168169,-0.000251947,0.000258557,
1.125,0.068977,0.168158,-0.000273216,0.000302141,
1.125,0.0708323,0.168144,-0.000295241,0.000351033,
1.125,0.0725407,0.168127,-0.000318974,0.000406094,
1.125,0.0741566,0.168106,-0.00034515,0.000468293,
1.125,0.0757188,0.168082,-0.000374424,0.000538726,
1.125,0.0772571,0.168052,-0.000407449,0.000618634,
1.125,0.0787954,0.168017,-0.000444912,0.000709426,
1.125,0.0803544,0.167975,-0.000487564,0.000812702,
1.125,0.0819529,0.167925,-0.000536241,0.000930284,
1.125,0.0836087,0.167866,-0.000591886,0.00106425,
1.125,0.0853397,0.167796,-0.000655566,0.00121696,
1.125,0.0871642,0.167713,-0.000728494,0.00139111,
1.125,0.0891016,0.167616,-0.000812059,0.00158979,
1.125,0.091173,0.167502,-0.000907843,0.00181649,
1.125,0.0934018,0.167368,-0.00101765,0.00207523,
1.125,0.0958139,0.167212,-0.00114355,0.00237059,
1.125,0.0984389,0.16703,-0.00128791,0.00270779,
1.125,0.101311,0.166819,-0.00145341,0.0030928,
1.125,0.10447,0.166574,-0.00164314,0.00353243,
1.125,0.107961,0.166293,-0.00186057,0.00403447,
1.125,0.111841,0.165972,-0.00210968,0.00460781,
1.125,0.116173,0.165607,-0.00239494,0.00526262,
1.125,0.121039,0.165194,-0.00272135,0.00601049,
1.125,0.126533,0.164732,-0.00309451,0.00686471,
1.125,0.132775,0.164218,-0.0035206,0.00784041,
1.125,0.139911,0.163653,-0.00400627,0.00895492,
1.125,0.148125,0.163039,-0.00455852,0.010228,
1.125,0.157648,0.162378,-0.00518443,0.0116823,
1.125,0.168776,0.161677,-0.00589062,0.0133436,
1.125,0.181884,0.160948,-0.00668273,0.0152415,
1.125,0.19746,0.160193,-0.00757198,0.0174097,
1.125,0.216167,0.159641,-0.00890476,0.0198867,
1.125,0.240566,0.159772,-0.00971314,0.0227167,
1.125,0.275556,0.160236,-0.0101782,0.0259499,
1.125,0.32514,0.160351,-0.0105221,0.029644,
1.125,0.39052,0.159982,-0.0104475,0.0338647,
1.125,0.471792,0.159261,-0.0096971,0.0386871,
1.125,0.566671,0.158144,-0.00821614,0.0441974,
1.125,0.667001,0.156381,-0.00629229,0.0504935,
1.125,0.759902,0.153994,-0.00439287,0.0576879,
1.125,0.835954,0.150134,-0.00237898,0.0659089,
1.125,0.889969,0.146729,-0.000868545,0.0753032,
1.125,0.919576,0.141483,-0.000213732,0.0860384,
1.125,0.928874,0.135071,-3.58162e-05,0.0983063,
1.125,0.930501,0.128344,-6.71638e-06,0.112326,
1.125,0.930648,0.121349,-2.11478e-06,0.128348,
1.125,0.931732,0.114022,-1.02425e-06,0.146659,
1.125,0.937788,0.106155,-3.73805e-07,0.167586,
1.125,0.944837,0.0980831,-8.76606e-08,0.191503,
1.125,0.950113,0.0896364,-1.87714e-08,0.218838,
1.125,0.954805,0.0809902,-5.68702e-09,0.250082,
1.125,0.960485,0.0720981,-3.36428e-09,0.285792,
1.125,0.967319,0.0628229,-3.18451e-09,0.32661,
1.125,0.974379,0.0538682,-2.98417e-09,0.373265,
1.125,0.978104,0.0447311,-2.95091e-09,0.426595,
1.125,0.982228,0.0358077,-3.29405e-09,0.487555,
1.125,0.986529,0.0273093,-3.16475e-09,0.55724,
1.125,0.990531,0.0192142,-2.69887e-09,0.636898,
1.125,0.994308,0.0116444,-2.16224e-09,0.72796,
1.125,0.997657,0.00503937,-1.63451e-09,0.82855,
1.125,1.00047,-0.000577564,-1.16179e-09,0.94298,
1.125,1.00148,-0.00259683,-9.75854e-10,1.00315,
1.125,1.00268,-0.00499037,-7.55195e-10,1.07453,
1.125,1.00422,-0.0081371,-4.23779e-10,1.22528,
1.125,1.00509,-0.00989479,-1.63014e-10,1.39832,
1.125,1.00534,-0.0103635,2.75767e-12,1.59646,
1.125,1.00508,-0.00991818,9.1188e-11,1.82431,
1.125,1.00454,-0.00884858,1.35006e-10,2.08526,
1.125,1.00377,-0.00736552,1.4011e-10,2.38489,
1.125,1.00296,-0.00579144,1.23777e-10,2.72763,
1.125,1.00213,-0.00420506,9.78931e-11,3.12069,
1.125,1.00146,-0.00293887,7.70886e-11,3.57128,

1.25,0,0.185073,0,1e-16,
1.25,0.0390776,0.18507,-1.65595e-07,2.27149e-05,
1.25,0.078569,0.185071,-5.93665e-06,4.58292e-05,
1.25,0.117787,0.185071,-5.07605e-05,6.97496e-05,
1.25,0.153201,0.18507,-0.000176091,9.48968e-05,
1.25,0.181152,0.18507,-0.000335286,0.000121713,
1.25,0.201655,0.185068,-0.000461003,0.000150671,
1.25,0.216659,0.185066,-0.000544297,0.00018228,
1.25,0.227968,0.185062,-0.000598483,0.000217097,
1.25,0.236822,0.185057,-0.000635439,0.000255735,
1.25,0.244011,0.185051,-0.000662822,0.000298876,
1.25,0.250044,0.185043,-0.000685202,0.00034728,
1.25,0.255249,0.185032,-0.000705341,0.000401801,
1.25,0.259848,0.185019,-0.000725004,0.000463402,
1.25,0.263994,0.185003,-0.000745425,0.00053317,
1.25,0.2678,0.184983,-0.000767556,0.000612337,
1.25,0.271347,0.18496,-0.000792219,0.000702303,
1.25,0.274698,0.184931,-0.000820189,0.000804657,
1.25,0.277905,0.184897,-0.000852245,0.00092121,
1.25,0.28101,0.184856,-0.000889215,0.00105402,
1.25,0.28405,0.184806,-0.000932004,0.00120545,
1.25,0.287056,0.184748,-0.000981617,0.00137816,
1.25,0.29006,0.184679,-0.00103919,0.00157523,
1.25,0.293091,0.184597,-0.001106,0.00180013,
1.25,0.296179,0.184501,-0.00118352,0.00205686,
1.25,0.299355,0.184388,-0.00127342,0.00234997,
1.25,0.302651,0.184256,-0.00137762,0.00268466,
1.25,0.306103,0.184101,-0.00149829,0.00306685,
1.25,0.309751,0.183922,-0.00163793,0.00350335,
1.25,0.31364,0.183715,-0.00179937,0.00400188,
1.25,0.317823,0.183477,-0.00198593,0.00457132,
1.25,0.322359,0.183204,-0.00220143,0.00522176,
1.25,0.327323,0.182894,-0.00245003,0.00596478,
1.25,0.332801,0.182544,-0.00273639,0.00681358,
1.25,0.338899,0.182152,-0.00306556,0.00778325,
1.25,0.345746,0.181713,-0.003443,0.00889105,
1.25,0.353503,0.18123,-0.00387434,0.0101567,
1.25,0.362367,0.180701,-0.00436516,0.0116027,
1.25,0.372588,0.180127,-0.00492039,0.0132548,
1.25,0.384478,0.179507,-0.00554339,0.0151425,
1.25,0.398433,0.178842,-0.00623732,0.0172993,
1.25,0.414964,0.178136,-0.00702869,0.0197638,
1.25,0.434914,0.177617,-0.00814415,0.0225799,
1.25,0.461251,0.17756,-0.00857603,0.0257978,
1.25,0.498754,0.177681,-0.00865048,0.0294749,
1.25,0.549166,0.177349,-0.00841997,0.0336769,
1.25,0.610347,0.176638,-0.00767596,0.0384787,
1.25,0.678197,0.17542,-0.00641841,0.0439663,
1.25,0.746849,0.173628,-0.00484538,0.0502376,
1.25,0.809588,0.17112,-0.00322409,0.0574048,
1.25,0.862095,0.167656,-0.00152578,0.0655959,
1.25,0.899075,0.163532,-0.000498809,0.0749575,
1.25,0.916577,0.158441,-0.000104066,0.0856571,
1.25,0.921403,0.152838,-1.6567e-05,0.0978863,
1.25,0.92166,0.146562,-3.76473e-06,0.111864,
1.25,0.921806,0.140006,-1.71433e-06,0.127841,
1.25,0.924342,0.132676,-8.50307e-07,0.146102,
1.25,0.93063,0.124918,-2.89224e-07,0.166976,
1.25,0.936989,0.116795,-6.90605e-08,0.190837,
1.25,0.941894,0.108169,-1.62156e-08,0.218113,
1.25,0.946691,0.099039,-5.45528e-09,0.249292,
1.25,0.952598,0.0897087,-3.42979e-09,0.284935,
1.25,0.959559,0.0802603,-3.25996e-09,0.325682,
1.25,0.966488,0.0707705,-3.06663e-09,0.372264,
1.25,0.970262,0.0610397,-3.09159e-09,0.425519,
1.25,0.974603,0.0516239,-3.47377e-09,0.486402,
1.25,0.97915,0.0424622,-3.35321e-09,0.55601,
1.25,0.983415,0.0336696,-2.88989e-09,0.635594,
1.25,0.987501,0.0255276,-2.36553e-09,0.726585,
1.25,0.991234,0.0179861,-1.85773e-09,0.83062,
1.25,0.994522,0.011415,-1.40504e-09,0.949574,
1.25,0.997325,0.00576783,-1.0134e-09,1.08559,
1.25,0.999572,0.00126529,-6.79498e-10,1.24111,
1.25,1.0012,-0.00210722,-4.17421e-10,1.41894,
1.25,1.00231,-0.00432471,-2.16394e-10,1.62229,
1.25,1.00284,-0.00542446,-7.26086e-11,1.84947,
1.25,1.00296,-0.00568247,9.73406e-12,2.10883,
1.25,1.00275,-0.00531414,4.83192e-11,2.40658,
1.25,1.00239,-0.00465844,6.21496e-11,2.74752,
1.25,1.00234,-0.00456183,6.15773e-11,2.79119,
1.25,1.00192,-0.00378674,5.68491e-11,3.13954,
1.25,1.00158,-0.0031687,3.40946e-11,3.5883,

1.375,0,0.147955,0,1e-16,
1.375,0.0530103,0.147955,-2.80186e-07,2.24527e-05,
1.375,0.106483,0.147955,-9.8376e-06,4.53013e-05,
1.375,0.159287,0.147955,-7.8638e-05,6.89485e-05,
1.375,0.206958,0.147955,-0.000247174,9.38113e-05,
1.375,0.245876,0.147955,-0.000437875,0.000120328,
1.375,0.276449,0.147955,-0.00058445,0.000148967,
1.375,0.300621,0.147954,-0.000686137,0.000180234,
1.375,0.32009,0.147953,-0.000756617,0.00021468,
1.375,0.336071,0.147951,-0.000806478,0.000252914,
1.375,0.349419,0.147949,-0.000842686,0.000295611,
1.375,0.360746,0.147946,-0.000869878,0.000343527,
1.375,0.370501,0.147942,-0.000891228,0.000397509,
1.375,0.379017,0.147937,-0.000908989,0.000458511,
1.375,0.386549,0.14793,-0.000924833,0.000527614,
1.375,0.393293,0.147921,-0.000940049,0.00060604,
1.375,0.399402,0.147911,-0.000955673,0.00069518,
1.375,0.404998,0.147897,-0.000972591,0.000796613,
1.375,0.410179,0.147881,-0.000991603,0.000912136,
1.375,0.415025,0.147861,-0.00101348,0.0010438,
1.375,0.419603,0.147837,-0.00103899,0.00119393,
1.375,0.423972,0.147807,-0.00106896,0.00136521,
1.375,0.42818,0.147772,-0.00110426,0.00156067,
1.375,0.432275,0.14773,-0.00114587,0.00178377,
1.375,0.436298,0.147679,-0.00119486,0.00203849,
1.375,0.440289,0.147619,-0.00125248,0.00232935,
1.375,0.444287,0.147549,-0.0013201,0.00266152,
1.375,0.448333,0.147466,-0.00139931,0.00304091,
1.375,0.452469,0.147368,-0.00149188,0.00347427,
1.375,0.456739,0.147254,-0.00159984,0.0039693,
1.375,0.461193,0.147122,-0.00172549,0.00453483,
1.375,0.465886,0.14697,-0.00187139,0.00518091,
1.375,0.470882,0.146795,-0.0020404,0.00591907,
1.375,0.476254,0.146595,-0.00223568,0.00676245,
1.375,0.48209,0.146368,-0.00246066,0.0077261,
1.375,0.488493,0.146113,-0.00271897,0.00882719,
1.375,0.495591,0.145828,-0.0030143,0.0100854,
1.375,0.503537,0.145511,-0.00335023,0.0115231,
1.375,0.51252,0.145162,-0.00372977,0.013166,
1.375,0.522775,0.144779,-0.00415485,0.0150434,
1.375,0.534593,0.144361,-0.0046254,0.017189,
1.375,0.548337,0.143906,-0.00513831,0.0196409,
1.375,0.56446,0.143419,-0.0057158,0.0224431,
1.375,0.583716,0.142963,-0.00638857,0.0256456,
1.375,0.608027,0.142699,-0.00684549,0.0293058,
1.375,0.640859,0.142628,-0.00669979,0.0334891,
1.375,0.683976,0.142309,-0.00625882,0.0382704,
1.375,0.734434,0.141633,-0.00542877,0.0437353,
1.375,0.787455,0.140476,-0.00425678,0.0499817,
1.375,0.838519,0.139446,-0.00285375,0.0571216,
1.375,0.883889,0.137422,-0.00137693,0.0652828,
1.375,0.916087,0.134929,-0.00041817,0.0746118,
1.375,0.930284,0.13186,-7.20849e-05,0.0852759,
1.375,0.93361,0.128555,-7.7009e-06,0.0974663,
1.375,0.932737,0.124793,-1.0563e-06,0.111402,
1.375,0.931949,0.120658,-8.31672e-07,0.127333,
1.375,0.933918,0.116032,-5.31358e-07,0.145546,
1.375,0.939011,0.110998,-1.82381e-07,0.166367,
1.375,0.943488,0.105519,-4.29518e-08,0.190171,
1.375,0.946916,0.0994987,-1.06194e-08,0.217387,
1.375,0.950432,0.0929624,-3.94732e-09,0.248502,
1.375,0.955236,0.0860701,-2.70508e-09,0.284078,
1.375,0.961035,0.0787391,-2.63331e-09,0.324754,
1.375,0.9666,0.0710843,-2.4644e-09,0.371263,
1.375,0.969535,0.0632087,-2.51505e-09,0.424442,
1.375,0.973031,0.0552126,-2.94911e-09,0.485249,
1.375,0.977012,0.0471077,-2.93358e-09,0.554781,
1.375,0.980736,0.0393217,-2.59015e-09,0.634289,
1.375,0.98448,0.0317307,-2.19151e-09,0.725209,
1.375,0.987994,0.0246539,-1.77959e-09,0.82918,
1.375,0.991218,0.0180993,-1.40345e-09,0.948077,
1.375,0.994087,0.012314,-1.06733e-09,1.08405,
1.375,0.996537,0.00736125,-7.73548e-10,1.23955,
1.375,0.9985,0.00333351,-5.3011e-10,1.41738,
1.375,1.00001,0.000288475,-3.35033e-10,1.62076,
1.375,1.00103,-0.00180044,-1.85891e-10,1.85337,
1.375,1.00163,-0.00302675,-8.25192e-11,2.1194,
1.375,1.00186,-0.00353489,-1.59855e-11,2.42367,
1.375,1.00185,-0.00357383,8.13232e-12,2.77091,
1.375,1.0017,-0.0033498,1.82024e-11,3.16112,
1.375,1.0016,-0.00320508,7.05082e-12,3.6087,

-3.19886,0,0.0209344,0,0,
-2.99627,0,0.00594785,0,0,
-2.80402,0,0.00433917,0,0,
-2.62157,0,0.00369239,0,0,
-2.44842,0,0.00368556,0,0,
-2.2841,0,0.00418849,0,0,
-2.12815,0,0.00472687,0,0,
-1.98016,0,0.0055885,0,0,
-1.83971,0,0.0065597,0,0,
-1.70643,0,0.00790632,0,0,
-1.57994,0,0.00929865,0,0,
-1.4599,0,0.0113195,0,0,
-1.34598,0,0.0135477,0,0,
-1.23786,0,0.0160955,0,0,
-1.13526,0,0.0193753,0,0,
-1.03789,0,0.0230341,0,0,
-0.945488,0,0.0277482,0,0,
-0.857795,0,0.0330225,0,0,
-0.774572,0,0.0398701,0,0,
-0.695593,0,0.0475427,0,0,
-0.620641,0,0.0576069,0,0,
-0.54951,0,0.0688964,0,0,
-0.482006,0,0.0838739,0,0,
-0.417943,0,0.100685,0,0,
-0.357147,0,0.123377,0,0,
-0.29945,0,0.149012,0,0,
-0.244696,0,0.183944,0,0,
-0.192732,0,0.218481,0,0,
-0.143419,0,0.269106,0,0,
-0.0966231,0,0.321362,0,0,
-0.0522148,0,0.343129,0,0,
-0.0100698,0,0.347977,0,0,
0.0299268,0,0.337604,0,0,
0.0678843,0,0.293691,0,0,
0.103908,0,0.239991,0,0,
0.138096,0,0.111758,0,0,
0.17054,0,-0.00103828,0,0,
0.20133,0,-0.0888721,0,0,
0.230551,0,-0.165577,0,0,
0.258281,0,-0.229097,0,0,
0.284598,0,-0.288105,0,0,
0.309574,0,-0.338381,0,0,
0.333275,0,-0.383653,0,0,
0.355769,0,-0.425271,0,0,
0.377115,0,-0.461732,0,0,
0.397374,0,-0.496582,0,0,
0.416599,0,-0.526924,0,0,
0.434844,0,-0.555846,0,0,
0.452159,0,-0.581405,0,0,
0.468591,0,-0.605693,0,0,
0.484186,0,-0.62741,0,0,
0.498985,0,-0.647967,0,0,
0.51303,0,-0.666744,0,0,
0.526358,0,-0.68438,0,0,
0.539007,0,-0.700382,0,0,
0.551012,0,-0.715213,0,0,
0.562404,0,-0.729249,0,0,
0.573215,0,-0.742017,0,0,
0.583475,0,-0.754155,0,0,
0.593212,0,-0.765298,0,0,
0.602453,0,-0.775922,0,0,
0.611222,0,-0.785406,0,0,
0.619544,0,-0.794441,0,0,
0.627442,0,-0.802954,0,0,
0.634938,0,-0.810604,0,0,
0.642051,0,-0.817629,0,0,
0.648801,0,-0.822787,0,0,
0.655207,0,-0.822256,0,0,
0.661287,0,-0.804743,0,0,
0.667057,0,-0.747766,0,0,
0.672532,0,-0.683349,0,0,
0.677729,0,-0.60319,0,0,
0.68266,0,-0.537102,0,0,
0.68734,0,-0.487502,0,0,
0.691781,0,-0.445892,0,0,
0.695996,0,-0.414252,0,0,
0.699996,0,-0.386541,0,0,
0.703996,0,-0.363536,0,0,
0.707996,0,-0.341747,0,0,
0.712135,0,-0.323178,0,0,
0.716416,0,-0.304362,0,0,
0.720846,0,-0.28871,0,0,
0.725429,0,-0.272295,0,0,
0.730171,0,-0.25854,0,0,
0.735076,0,-0.244294,0,0,
0.740151,0,-0.231814,0,0,
0.745402,0,-0.219088,0,0,
0.750835,0,-0.207393,0,0,
0.756455,0,-0.195484,0,0,
0.76227,0,-0.183656,0,0,
0.768286,0,-0.17353,0,0,
0.77451,0,-0.161752,0,0,
0.78095,0,-0.150934,0,0,
0.787612,0,-0.140008,0,0,
0.794505,0,-0.129142,0,0,
0.801636,0,-0.118423,0,0,
0.809014,0,-0.107632,0,0,
0.816647,0,-0.0970962,0,0,
0.824544,0,-0.0864361,0,0,
0.832715,0,-0.0761598,0,0,
0.841168,0,-0.0656938,0,0,
0.849914,0,-0.0557243,0,0,
0.858962,0,-0.0455616,0,0,
0.868323,0,-0.0359339,0,0,
0.878008,0,-0.0261875,0,0,
0.888028,0,-0.0169664,0,0,
0.898395,0,-0.00774746,0,0,
0.90912,0,0.000984266,0,0,
0.920216,0,0.00959393,0,0,
0.931697,0,0.017546,0,0,
0.943574,0,0.0258027,0,0,
0.955862,0,0.0313633,0,0,
0.968576,0,0.0392628,0,0,
0.981729,0,0.0433814,0,0,
0.995332,0,0.0548326,0,0,
1.00941,0,0.0676087,0,0,
1.02397,0,0.087818,0,0,
1.03904,0,0.0983046,0,0,
1.05463,0,0.113889,0,0,
1.07076,0,0.128984,0,0,
1.08745,0,0.143284,0,0,
1.10471,0,0.156327,0,0,
1.12258,0,0.166964,0,0,
1.14106,0,0.176372,0,0,
1.16018,0,0.182468,0,0,
1.17996,0,0.187313,0,0,
1.20043,0,0.188842,0,0,
1.22161,0,0.188492,0,0,
1.24351,0,0.186556,0,0,
1.26618,0,0.181374,0,0,
1.28963,0,0.17592,0,0,
1.31389,0,0.168276,0,0,
1.33899,0,0.160504,0,0,
1.36496,0,0.151287,0,0,
1.39183,0,0.142373,0,0,
1.41962,0,0.132679,0,0,
1.44838,0,0.123589,0,0,
1.47813,0,0.114151,0,0,
1.50892,0,0.1055,0,0,
1.54076,0,0.0968242,0,0,
1.57371,0,0.0889492,0,0,
1.6078,0,0.0812353,0,0,
1.64307,0,0.074288,0,0,
1.67956,0,0.0675474,0,0,
1.71731,0,0.0615026,0,0,
1.75637,0,0.0557408,0,0,
1.79677,0,0.0505911,0,0,
1.83858,0,0.0457143,0,0,
1.88183,0,0.0413617,0,0,
1.92658,0,0.0372792,0,0,
1.97288,0,0.0336074,0,0,
2.02078,0,0.030345,0,0,
2.07033,0,0.0272254,0,0,
2.1216,0,0.0244878,0,0,
2.17465,0,0.0219564,0,0,
2.22953,0,0.0197124,0,0,
2.2863,0,0.0176274,0,0,
2.34505,0,0.0157678,0,0,
2.40582,0,0.0141042,0,0,
2.4687,0,0.0125494,0,0,
2.53375,0,0.0111823,0,0,
2.60105,0,0.00992119,0,0,
2.67068,0,0.00880731,0,0,
2.74272,0,0.00778012,0,0,
2.81725,0,0.00688462,0,0,
2.89436,0,0.00606629,0,0,
2.97414,0,0.00534333,0,0,
3.05668,0,0.00467147,0,0,
3.14207,0,0.00408167,0,0,
3.23042,0,0.00352352,0,0,
3.32182,0,0.00306085,0,0,
3.41639,0,0.00262723,0,0,
3.51423,0,0.00221795,0,0,
3.61545,0,0.00185584,0,0,
3.72017,0,0.001533,0,0,
3.82852,0,0.00124339,0,0,
3.94062,0,0.000964469,0,0,
4.05659,0,0.000727811,0,0,
4.17658,0,0.000480418,0,0,
4.30072,0,0.000249495,0,0,
4.42915,0,0.00148601,0,0,

