80f982e3de2013ef8fbb5b800f8bed81d0625edb 
X,x_velocity,cp,uw_b,wall_distance,
-0.25,0,0.18042,0,1e-16,
-0.25,0.0537443,0.180422,-4.15429e-07,2.59026e-05,
-0.25,0.108524,0.180422,-1.43148e-05,5.22493e-05,
-0.25,0.162085,0.180422,-0.000104662,7.94916e-05,
-0.25,0.208752,0.180422,-0.000288022,0.000108097,
-0.25,0.245944,0.180422,-0.000465025,0.000138555,
-0.25,0.275637,0.180423,-0.000583385,0.000171389,
-0.25,0.300191,0.180424,-0.000668659,0.000207163,
-0.25,0.321193,0.180424,-0.000730365,0.000246489,
-0.25,0.339707,0.180425,-0.000777966,0.000290044,
-0.25,0.356426,0.180427,-0.000816576,0.000338574,
-0.25,0.371821,0.180428,-0.000849203,0.000392915,
-0.25,0.386222,0.18043,-0.00087781,0.000454,
-0.25,0.399869,0.180432,-0.000903701,0.000522878,
-0.25,0.412941,0.180434,-0.000927758,0.000600734,
-0.25,0.425576,0.180437,-0.00095059,0.000688907,
-0.25,0.437881,0.18044,-0.000972612,0.000788915,
-0.25,0.449945,0.180443,-0.000994105,0.000902478,
-0.25,0.46184,0.180447,-0.00101524,0.00103155,
-0.25,0.473625,0.180451,-0.00103612,0.00117836,
-0.25,0.485353,0.180456,-0.00105676,0.00134543,
-0.25,0.497069,0.180461,-0.00107713,0.00153564,
-0.25,0.508813,0.180467,-0.00109717,0.00175227,
-0.25,0.52062,0.180472,-0.00111682,0.00199906,
-0.25,0.532524,0.180478,-0.00113594,0.00228026,
-0.25,0.544556,0.180483,-0.00115432,0.00260072,
-0.25,0.556743,0.180489,-0.00117172,0.00296597,
-0.25,0.569111,0.180493,-0.00118789,0.00338233,
-0.25,0.581686,0.180495,-0.00120251,0.00385697,
-0.25,0.594492,0.180496,-0.00121526,0.00439809,
-0.25,0.607551,0.180493,-0.00122576,0.00501505,
-0.25,0.620886,0.180485,-0.00123362,0.00571851,
-0.25,0.634521,0.180472,-0.0012384,0.00652062,
-0.25,0.648478,0.180449,-0.00123958,0.00743527,
-0.25,0.662782,0.180416,-0.00123652,0.00847826,
-0.25,0.677451,0.180367,-0.00122829,0.00966765,
-0.25,0.692496,0.1803,-0.00121469,0.011024,
-0.25,0.707929,0.180206,-0.00119707,0.0125709,
-0.25,0.723885,0.180077,-0.00116717,0.0143349,
-0.25,0.740647,0.179902,-0.00112649,0.0163469,
-0.25,0.758624,0.179669,-0.00106923,0.0186414,
-0.25,0.778429,0.179363,-0.000987695,0.0212585,
-0.25,0.800776,0.178971,-0.000874075,0.0242434,
-0.25,0.826064,0.178479,-0.000721089,0.0276478,
-0.25,0.853425,0.177837,-0.000536101,0.031531,
-0.25,0.879712,0.177042,-0.00035022,0.0359602,
-0.25,0.900552,0.176018,-0.000126534,0.0410123,
-0.25,0.910512,0.17459,-2.35121e-05,0.0467752,
-0.25,0.912724,0.17307,-2.45658e-06,0.0533488,
-0.25,0.913663,0.171352,-3.77946e-07,0.0608475,
-0.25,0.914668,0.169322,-6.83834e-08,0.0694016,
-0.25,0.91586,0.166956,-1.61441e-08,0.0791597,
-0.25,0.917243,0.164213,-8.6786e-09,0.0902917,
-0.25,0.918843,0.161042,-7.84913e-09,0.102991,
-0.25,0.920693,0.157378,-7.84454e-09,0.117479,
-0.25,0.922825,0.153152,-7.90088e-09,0.134008,
-0.25,0.925271,0.148315,-7.91474e-09,0.152865,
-0.25,0.928053,0.142825,-7.86792e-09,0.17438,
-0.25,0.931195,0.136587,-7.73467e-09,0.198926,
-0.25,0.934685,0.12965,-7.55787e-09,0.226933,
-0.25,0.938597,0.121933,-7.28919e-09,0.258887,
-0.25,0.942846,0.113536,-6.96029e-09,0.295348,
-0.25,0.94753,0.104276,-6.51642e-09,0.33695,
-0.25,0.952394,0.0946436,-5.99398e-09,0.384419,
-0.25,0.957526,0.0845405,-5.43385e-09,0.438586,
-0.25,0.962758,0.074215,-4.77235e-09,0.500395,
-0.25,0.967921,0.0639261,-4.11484e-09,0.570927,
-0.25,0.97305,0.053851,-3.50128e-09,0.651415,
-0.25,0.977973,0.0443458,-2.905e-09,0.743264,
-0.25,0.9825,0.0352412,-2.34927e-09,0.848083,
-0.25,0.98667,0.0269528,-1.83312e-09,0.967704,
-0.25,0.990283,0.0197108,-1.38004e-09,1.10422,
-0.25,0.993366,0.0136033,-9.96885e-10,1.26002,
-0.25,0.99582,0.00863935,-6.85388e-10,1.43784,
-0.25,0.997727,0.00484222,-4.41345e-10,1.64079,
-0.25,0.999045,0.0021478,-2.57558e-10,1.86641,
-0.25,0.999884,0.000446544,-1.29622e-10,2.12427,
-0.25,1.0003,-0.000431903,-4.3339e-11,2.41998,
-0.25,1.00031,-0.000465448,-3.73384e-11,2.46413,
-0.25,1.00041,-0.000685942,2.54725e-12,2.75802,
-0.25,1.00027,-0.000490908,2.89486e-11,3.14513,
-0.25,0.999999,6.54768e-06,3.41993e-11,3.58873,

0.688,0,-0.535325,0,1e-16,
0.688,0.00296469,-0.535324,-3.23701e-08,2.33816e-05,
0.688,0.0140857,-0.535374,-2.46025e-06,4.71702e-05,
0.688,0.0335378,-0.535403,-3.54523e-05,7.17799e-05,
0.688,0.0591964,-0.535442,-0.00019064,9.76391e-05,
0.688,0.08572,-0.535483,-0.000503688,0.000125198,
0.688,0.109782,-0.535519,-0.000866002,0.000154937,
0.688,0.131384,-0.535547,-0.00121353,0.000187374,
0.688,0.151464,-0.535569,-0.00154763,0.000223074,
0.688,0.170875,-0.535586,-0.00187999,0.00026266,
0.688,0.190263,-0.5356,-0.00221872,0.000306822,
0.688,0.210127,-0.535611,-0.00256862,0.000356332,
0.688,0.230875,-0.535618,-0.00293265,0.000412053,
0.688,0.252868,-0.535623,-0.0033121,0.000474959,
0.688,0.276431,-0.535623,-0.00371051,0.000546147,
0.688,0.301911,-0.53562,-0.00413574,0.000626864,
0.688,0.330057,-0.53562,-0.00449101,0.000718519,
0.688,0.361763,-0.535626,-0.0048213,0.000822716,
0.688,0.397551,-0.535633,-0.00512548,0.000941278,
0.688,0.437678,-0.535645,-0.00538105,0.00107628,
0.688,0.482179,-0.535668,-0.00557163,0.00123008,
0.688,0.530756,-0.535715,-0.00566986,0.00140539,
0.688,0.582687,-0.535805,-0.00565122,0.00160526,
0.688,0.636866,-0.535955,-0.00550339,0.0018332,
0.688,0.69216,-0.53621,-0.00523414,0.00209321,
0.688,0.747399,-0.536618,-0.00486718,0.00238985,
0.688,0.801445,-0.537223,-0.00443602,0.00272832,
0.688,0.853279,-0.538072,-0.00397625,0.00311456,
0.688,0.902333,-0.539222,-0.0035156,0.00355536,
0.688,0.948546,-0.540719,-0.00307005,0.00405845,
0.688,0.992087,-0.542623,-0.00264751,0.00463268,
0.688,1.03282,-0.545038,-0.00226172,0.00528813,
0.688,1.06978,-0.548125,-0.00193284,0.00603632,
0.688,1.10148,-0.5521,-0.00168258,0.00689042,
0.688,1.12729,-0.557257,-0.00150405,0.00786545,
0.688,1.14845,-0.563857,-0.0013699,0.00897856,
0.688,1.16673,-0.572475,-0.00139495,0.0102494,
0.688,1.18414,-0.58361,-0.00155075,0.0117002,
0.688,1.202,-0.598345,-0.00176642,0.0133567,
0.688,1.22135,-0.617649,-0.00197826,0.015248,
0.688,1.24321,-0.642392,-0.00210557,0.0174016,
0.688,1.26761,-0.672524,-0.00213138,0.0197947,
0.688,1.29455,-0.706307,-0.00198518,0.0225411,
0.688,1.32211,-0.73903,-0.00160242,0.0256954,
0.688,1.34624,-0.765682,-0.00104915,0.0293134,
0.688,1.36426,-0.781238,-0.000503626,0.0334589,
0.688,1.37635,-0.785993,-0.000171516,0.0382051,
0.688,1.38284,-0.784293,-2.83533e-05,0.0436361,
0.688,1.38457,-0.780381,1.92218e-05,0.0498477,
0.688,1.38131,-0.770079,2.06632e-05,0.0569175,
0.688,1.37458,-0.756474,8.23155e-06,0.0649586,
0.688,1.36689,-0.740848,2.06234e-06,0.074169,
0.688,1.35861,-0.724056,4.79136e-07,0.0847119,
0.688,1.34949,-0.70574,1.35033e-07,0.0967654,
0.688,1.33952,-0.685617,6.31052e-08,0.110475,
0.688,1.32859,-0.663301,4.77719e-08,0.126175,
0.688,1.31647,-0.638973,4.33411e-08,0.144131,
0.688,1.30319,-0.612581,4.03598e-08,0.164669,
0.688,1.28891,-0.58375,3.74389e-08,0.188038,
0.688,1.27356,-0.552805,3.4648e-08,0.214753,
0.688,1.25713,-0.519897,3.19258e-08,0.245311,
0.688,1.2396,-0.484484,2.92606e-08,0.280275,
0.688,1.22101,-0.4466,2.6938e-08,0.320142,
0.688,1.20107,-0.406199,2.53134e-08,0.365789,
0.688,1.17947,-0.362391,2.39858e-08,0.417836,
0.688,1.15596,-0.314768,2.27655e-08,0.477372,
0.688,1.13056,-0.263237,2.0933e-08,0.545486,
0.688,1.10464,-0.210858,1.71939e-08,0.623218,
0.688,1.08206,-0.164639,1.22067e-08,0.712106,
0.688,1.0646,-0.12969,8.20342e-09,0.813782,
0.688,1.05104,-0.101993,5.69235e-09,0.930041,
0.688,1.04001,-0.0798894,4.0652e-09,1.06261,
0.688,1.03098,-0.0617401,2.89994e-09,1.21441,
0.688,1.02364,-0.0470044,2.04895e-09,1.38796,
0.688,1.01775,-0.0352476,1.43178e-09,1.58636,
0.688,1.01306,-0.0258694,9.91109e-10,1.81256,
0.688,1.00936,-0.0184963,6.77917e-10,2.0716,
0.688,1.00646,-0.0127341,4.62713e-10,2.36771,
0.688,1.00415,-0.00819052,3.19684e-10,2.70619,
0.688,1.00226,-0.00447238,2.32678e-10,3.09309,
0.688,1.00076,-0.00145301,1.94275e-10,3.53533,

0.813,0,-0.101511,0,1e-16,
0.813,-0.00419087,-0.101517,5.34398e-09,2.32716e-05,
0.813,-0.00751212,-0.101524,1.35168e-07,4.69491e-05,
0.813,-0.00993476,-0.101532,9.07139e-07,7.14457e-05,
0.813,-0.0113136,-0.10154,2.0808e-06,9.71887e-05,
0.813,-0.0115874,-0.101547,-1.0687e-06,0.000124627,
0.813,-0.0110663,-0.101557,-1.45715e-05,0.000154241,
0.813,-0.0101628,-0.101567,-3.7081e-05,0.000186546,
0.813,-0.00909957,-0.101579,-6.4745e-05,0.000222108,
0.813,-0.00795234,-0.101592,-9.6092e-05,0.000261547,
0.813,-0.00673768,-0.101606,-0.000131118,0.000305554,
0.813,-0.00545109,-0.101622,-0.000170244,0.000354897,
0.813,-0.00408176,-0.101639,-0.000214056,0.000410441,
0.813,-0.00261503,-0.101659,-0.000263347,0.000473157,
0.813,-0.00103409,-0.101681,-0.000319006,0.000544144,
0.813,0.000679818,-0.101706,-0.000382035,0.000624646,
0.813,0.00254737,-0.101734,-0.00045358,0.000716071,
0.813,0.0045918,-0.101765,-0.00053492,0.000820025,
0.813,0.00683915,-0.1018,-0.000627516,0.000938328,
0.813,0.00931916,-0.101839,-0.000733048,0.00107306,
0.813,0.0120659,-0.101883,-0.000853435,0.00122658,
0.813,0.0151188,-0.101933,-0.000990868,0.00140158,
0.813,0.0185241,-0.101988,-0.00114785,0.00160114,
0.813,0.0223359,-0.10205,-0.00132726,0.00182877,
0.813,0.0266187,-0.102119,-0.00153234,0.00208846,
0.813,0.0314491,-0.102196,-0.00176684,0.00238478,
0.813,0.0369197,-0.10228,-0.00203505,0.00272294,
0.813,0.0431428,-0.102372,-0.00234187,0.00310889,
0.813,0.0502562,-0.102473,-0.00269276,0.00354942,
0.813,0.0584291,-0.102582,-0.00309392,0.00405228,
0.813,0.0678722,-0.102697,-0.00355226,0.00462634,
0.813,0.0788485,-0.102817,-0.00407526,0.00528169,
0.813,0.091689,-0.10294,-0.00467066,0.0060299,
0.813,0.10681,-0.10306,-0.00534623,0.00688414,
0.813,0.124736,-0.10318,-0.00610662,0.00785949,
0.813,0.146115,-0.103345,-0.00712105,0.00897314,
0.813,0.172879,-0.103426,-0.00816372,0.0102448,
0.813,0.209729,-0.103296,-0.00896829,0.0116968,
0.813,0.263485,-0.103079,-0.00979369,0.0133548,
0.813,0.341787,-0.102643,-0.0102946,0.0152482,
0.813,0.453108,-0.101508,-0.00979432,0.0173973,
0.813,0.597841,-0.099517,-0.00782519,0.0197681,
0.813,0.744641,-0.0986057,-0.00523299,0.0225011,
0.813,0.849024,-0.0982358,-0.00316254,0.0256452,
0.813,0.907376,-0.0968833,-0.00144284,0.0292561,
0.813,0.939544,-0.0941928,-0.000672549,0.033398,
0.813,0.961878,-0.091028,-0.000441921,0.0379504,
0.813,0.982697,-0.0870123,-0.00035528,0.0431839,
0.813,1.00411,-0.0818914,-0.000240445,0.0492266,
0.813,1.02181,-0.0758266,-8.61598e-05,0.0561862,
0.813,1.02871,-0.0700144,-3.13371e-07,0.0641865,
0.813,1.02815,-0.0635258,9.14502e-06,0.0732535,
0.813,1.02534,-0.0555624,5.23692e-06,0.0836093,
0.813,1.01308,-0.046967,1.40758e-06,0.0955186,
0.813,1.00558,-0.0368024,1.65716e-07,0.10911,
0.813,1.00474,-0.0267401,3.28702e-08,0.124602,
0.813,0.996161,-0.0176955,9.37816e-09,0.142358,
0.813,0.993482,-0.00809114,4.67155e-10,0.162626,
0.813,1.00141,-0.000246007,-8.25205e-10,0.185823,
0.813,1.00103,-0.00106596,5.31199e-10,0.212297,
0.813,0.997841,-0.00469011,-1.82657e-09,0.242651,
0.813,1.00489,-0.0119756,-4.59333e-09,0.277301,
0.813,1.01353,-0.02575,-5.74597e-09,0.316941,
0.813,1.01884,-0.0414625,-6.5492e-09,0.36227,
0.813,1.02681,-0.055116,-6.37684e-09,0.41413,
0.813,1.03292,-0.0668539,-4.75134e-09,0.473389,
0.813,1.03691,-0.0750641,-2.32707e-09,0.54123,
0.813,1.03846,-0.0775177,-1.99523e-10,0.618788,
0.813,1.03787,-0.076155,7.92708e-10,0.707593,
0.813,1.03572,-0.0715514,1.53655e-09,0.809092,
0.813,1.03225,-0.0644427,1.83243e-09,0.925335,
0.813,1.02799,-0.0558155,1.80389e-09,1.05821,
0.813,1.02347,-0.0466712,1.59576e-09,1.21017,
0.813,1.01903,-0.037831,1.31584e-09,1.38391,
0.813,1.015,-0.0297115,1.02365e-09,1.58247,
0.813,1.01146,-0.0226853,7.64259e-10,1.81009,
0.813,1.0085,-0.0167798,5.57799e-10,2.07007,
0.813,1.00604,-0.0118999,4.00501e-10,2.36772,
0.813,1.00405,-0.00797174,2.91736e-10,2.70818,
0.813,1.00234,-0.00463432,1.97817e-10,3.09651,
0.813,1.00106,-0.00210186,1.53022e-10,3.54123,

0.938,0,0.0298005,0,1e-16,
0.938,-0.00567917,0.0297954,3.12974e-09,2.32316e-05,
0.938,-0.0110403,0.0297908,8.87699e-08,4.68694e-05,
0.938,-0.0161289,0.0297853,8.505e-07,7.13267e-05,
0.938,-0.0208658,0.0297797,4.13094e-06,9.70313e-05,
0.938,-0.0249459,0.0297742,1.21063e-05,0.000124433,
0.938,-0.0279708,0.0297693,2.24591e-05,0.000154011,
0.938,-0.0299002,0.0297636,2.83238e-05,0.000186283,
0.938,-0.0310165,0.0297568,2.67989e-05,0.000221814,
0.938,-0.0316123,0.0297487,1.9536e-05,0.000261227,
0.938,-0.0318745,0.0297382,8.29401e-06,0.000305212,
0.938,-0.0319058,0.0297519,-6.01439e-06,0.000354541,
0.938,-0.0317639,0.0297188,-2.30267e-05,0.000410078,
0.938,-0.0314788,0.0297131,-4.29225e-05,0.000472798,
0.938,-0.0310654,0.0297015,-6.58455e-05,0.000543802,
0.938,-0.0305307,0.0296892,-9.2115e-05,0.000624336,
0.938,-0.0298749,0.0296751,-0.000122264,0.000715816,
0.938,-0.0290941,0.0296592,-0.000156786,0.000819848,
0.938,-0.0281809,0.0296416,-0.000196311,0.000938261,
0.938,-0.0271253,0.0296219,-0.000241569,0.00107314,
0.938,-0.0259141,0.0296003,-0.000293413,0.00122685,
0.938,-0.0245315,0.0295757,-0.000352804,0.00140211,
0.938,-0.0229586,0.0295486,-0.000420846,0.00160199,
0.938,-0.0211727,0.0295182,-0.000498835,0.00183001,
0.938,-0.0191476,0.0294846,-0.000588254,0.0020902,
0.938,-0.0168521,0.0294467,-0.000690782,0.00238713,
0.938,-0.0142496,0.0294047,-0.000808351,0.00272605,
0.938,-0.0112969,0.0293575,-0.000943223,0.00311293,
0.938,-0.00794273,0.0293056,-0.00109795,0.00355458,
0.938,-0.00412605,0.0292469,-0.00127539,0.00405882,
0.938,0.00022515,0.029182,-0.001479,0.00463453,
0.938,0.00519619,0.0291093,-0.001713,0.00529188,
0.938,0.0108903,0.029029,-0.00198163,0.00604249,
0.938,0.0174345,0.0289398,-0.00228984,0.00689961,
0.938,0.0249853,0.0288417,-0.00264325,0.0078784,
0.938,0.0337387,0.0287348,-0.00304845,0.00899617,
0.938,0.0439394,0.0286201,-0.00351193,0.0102727,
0.938,0.0558912,0.0285001,-0.00404138,0.0117305,
0.938,0.0699812,0.0283771,-0.00464522,0.0133955,
0.938,0.0866984,0.0282573,-0.00533217,0.0152971,
0.938,0.106665,0.0281387,-0.00610819,0.017469,
0.938,0.130649,0.0279216,-0.0071174,0.0199391,
0.938,0.160683,0.0277676,-0.00825444,0.0225116,
0.938,0.202318,0.0279178,-0.00906308,0.0255164,
0.938,0.264984,0.028319,-0.00981964,0.0290096,
0.938,0.360617,0.0293282,-0.00997755,0.0330545,
0.938,0.498228,0.031577,-0.00874132,0.0377237,
0.938,0.659755,0.0319414,-0.00640073,0.0426984,
0.938,0.792831,0.0296107,-0.00417984,0.0484919,
0.938,0.875608,0.0282271,-0.00211003,0.0552419,
0.938,0.92775,0.0271864,-0.000852387,0.0630705,
0.938,0.960331,0.0285504,-0.000306984,0.0721179,
0.938,0.977744,0.0274824,-7.24614e-05,0.0822909,
0.938,0.981999,0.0247071,-5.56477e-06,0.0938338,
0.938,0.979932,0.0229965,7.6986e-07,0.107215,
0.938,0.977962,0.0219785,2.41825e-08,0.122488,
0.938,0.97747,0.0208251,-6.41895e-08,0.139919,
0.938,0.977931,0.0197995,-4.84533e-08,0.160003,
0.938,0.982909,0.0183946,-2.08851e-08,0.18281,
0.938,0.990545,0.0170875,-4.3513e-09,0.208986,
0.938,0.991384,0.0128527,-1.16201e-09,0.239003,
0.938,0.99292,0.0104427,-1.58178e-09,0.273269,
0.938,0.997157,0.00709129,-1.83171e-09,0.312507,
0.938,0.999005,0.00172817,-1.8617e-09,0.357468,
0.938,1.0013,-0.00343682,-2.47891e-09,0.408929,
0.938,1.00451,-0.0093823,-2.83697e-09,0.467901,
0.938,1.00769,-0.0156922,-2.576e-09,0.535368,
0.938,1.01062,-0.0214247,-2.01674e-09,0.612662,
0.938,1.01316,-0.0264962,-1.38542e-09,0.701152,
0.938,1.01499,-0.0298853,-7.2735e-10,0.802634,
0.938,1.01578,-0.0313998,-1.01411e-10,0.91874,
0.938,1.01558,-0.0309544,2.13134e-10,1.05163,
0.938,1.01462,-0.0289538,4.52457e-10,1.20403,
0.938,1.01304,-0.0258209,5.43626e-10,1.37848,
0.938,1.01113,-0.0219435,5.36021e-10,1.57802,
0.938,1.00908,-0.0179225,4.73699e-10,1.80652,
0.938,1.00711,-0.0139703,3.8672e-10,2.06844,
0.938,1.00529,-0.0104116,2.96763e-10,2.3677,
0.938,1.00374,-0.00737164,2.2369e-10,2.7102,
0.938,1.00234,-0.00460746,1.64153e-10,3.1022,
0.938,1.00127,-0.0025699,1.28381e-10,3.55094,

1,0,0.0710054,0,1e-16,
1,-0.0114269,0.0710022,7.83657e-09,2.32217e-05,
1,-0.0223247,0.0709976,2.58096e-07,4.685e-05,
1,-0.0327848,0.0709925,2.46469e-06,7.12984e-05,
1,-0.0426142,0.0709872,1.16554e-05,9.6995e-05,
1,-0.0511358,0.070982,3.27828e-05,0.00012439,
1,-0.057579,0.0709769,5.94468e-05,0.000153963,
1,-0.061908,0.0709711,7.75613e-05,0.000186233,
1,-0.0646875,0.0709643,8.26219e-05,0.000221764,
1,-0.0664732,0.0709564,7.8056e-05,0.000261182,
1,-0.0676249,0.0709481,6.74491e-05,0.000305176,
1,-0.0683509,0.0709378,5.27317e-05,0.000354519,
1,-0.0687703,0.0709303,3.49315e-05,0.000410078,
1,-0.0689557,0.0709067,1.43657e-05,0.000472828,
1,-0.0689479,0.0709288,-9.09464e-06,0.000543873,
1,-0.0687714,0.0708887,-3.52729e-05,0.000624461,
1,-0.0684421,0.0708796,-6.45207e-05,0.000716009,
1,-0.0679657,0.0708638,-9.73794e-05,0.000820128,
1,-0.0673433,0.0708468,-0.000134304,0.000938651,
1,-0.0665711,0.0708275,-0.000175992,0.00107366,
1,-0.0656415,0.0708061,-0.000223128,0.00122754,
1,-0.0645437,0.0707821,-0.000276523,0.001403,
1,-0.0632638,0.0707554,-0.000337095,0.00160314,
1,-0.0617845,0.0707256,-0.000405882,0.00183147,
1,-0.0600852,0.0706927,-0.000484062,0.00209203,
1,-0.0581413,0.070656,-0.000572966,0.00238941,
1,-0.0559238,0.0706156,-0.00067411,0.00272886,
1,-0.053399,0.0705711,-0.000789201,0.00311639,
1,-0.0505269,0.0705226,-0.000920177,0.00355882,
1,-0.0472607,0.0704697,-0.00106922,0.00406398,
1,-0.0435451,0.0704126,-0.00123881,0.00464079,
1,-0.0393142,0.0703517,-0.00143172,0.00529946,
1,-0.0344898,0.0702878,-0.0016511,0.00605162,
1,-0.0289774,0.0702214,-0.00190046,0.0069106,
1,-0.022663,0.0701545,-0.00218378,0.00789159,
1,-0.0154076,0.0700892,-0.00250551,0.00901195,
1,-0.00704075,0.0700291,-0.0028706,0.0102915,
1,0.00264451,0.0699777,-0.00328575,0.011753,
1,0.0138929,0.0699386,-0.00375889,0.0134223,
1,0.0270068,0.0699082,-0.00429727,0.0153289,
1,0.0423986,0.0699043,-0.00492121,0.0175068,
1,0.0606508,0.0699179,-0.00565766,0.0199945,
1,0.0828193,0.0697896,-0.00647276,0.0228361,
1,0.110908,0.0692536,-0.00714286,0.0260822,
1,0.147937,0.0683932,-0.00792177,0.0297904,
1,0.19857,0.0677166,-0.0088301,0.0340265,
1,0.27125,0.0676727,-0.00966716,0.0388658,
1,0.378477,0.0683335,-0.00978585,0.0443714,
1,0.523183,0.0708728,-0.00835374,0.050306,
1,0.679781,0.0722673,-0.00591508,0.0567779,
1,0.806044,0.0714825,-0.00380152,0.0643629,
1,0.890445,0.0683981,-0.00164639,0.073201,
1,0.937097,0.0714381,-0.000495329,0.0834523,
1,0.957338,0.0676666,-9.54107e-05,0.0952491,
1,0.960725,0.0644724,-9.40708e-06,0.108351,
1,0.96027,0.061494,-1.29542e-06,0.123411,
1,0.959442,0.0584556,-5.71789e-07,0.140887,
1,0.960257,0.0551406,-3.02571e-07,0.160913,
1,0.964138,0.0513056,-1.32862e-07,0.183368,
1,0.973483,0.0468783,-3.09173e-08,0.209311,
1,0.977546,0.0411621,-5.28625e-09,0.239097,
1,0.980274,0.0360743,-2.70531e-09,0.273067,
1,0.985274,0.0302928,-2.45759e-09,0.312052,
1,0.988335,0.02379,-2.2982e-09,0.356741,
1,0.991252,0.017222,-2.70062e-09,0.407906,
1,0.994748,0.010343,-3.03122e-09,0.466542,
1,0.998306,0.00334252,-2.85951e-09,0.53384,
1,1.00168,-0.00346433,-2.39334e-09,0.610826,
1,1.00483,-0.00968103,-1.82688e-09,0.699112,
1,1.00746,-0.0147837,-1.2411e-09,0.800294,
1,1.00937,-0.0185103,-7.12458e-10,0.916281,
1,1.01044,-0.0206125,-2.59395e-10,1.04923,
1,1.01062,-0.0209379,4.79752e-11,1.2016,
1,1.0101,-0.0199322,2.32446e-10,1.37615,
1,1.0091,-0.0179097,3.15793e-10,1.57647,
1,1.00775,-0.0152542,3.28946e-10,1.80575,
1,1.00733,-0.0144078,3.191e-10,1.88256,
1,1.00629,-0.0123597,2.95035e-10,2.0677,
1,1.00483,-0.00949668,2.41831e-10,2.36835,
1,1.00352,-0.00691509,1.88623e-10,2.71278,
1,1.00231,-0.00456413,1.4408e-10,3.10614,
1,1.00136,-0.00273547,1.14695e-10,3.55725,

1.125,0,0.176906,0,1e-16,
1.125,0.013351,0.176902,-4.91733e-08,2.2977e-05,
1.125,0.0272166,0.176903,-1.85119e-06,4.63572e-05,
1.125,0.0413799,0.176903,-1.75415e-05,7.05508e-05,
1.125,0.0543047,0.176902,-6.97607e-05,9.59823e-05,
1.125,0.0640682,0.176901,-0.000144995,0.000123098,
1.125,0.0707531,0.176898,-0.000204227,0.000152375,
1.125,0.0754451,0.176893,-0.000242543,0.000184326,
1.125,0.0789687,0.176886,-0.000269759,0.000219514,
1.125,0.0817943,0.176877,-0.00029245,0.000258557,
1.125,0.0841844,0.176866,-0.000313872,0.000302141,
1.125,0.0862929,0.176852,-0.00033573,0.000351033,
1.125,0.0882157,0.176835,-0.000359081,0.000406094,
1.125,0.0900167,0.176814,-0.00038471,0.000468293,
1.125,0.091741,0.176789,-0.000413302,0.000538726,
1.125,0.0934224,0.17676,-0.00044552,0.000618634,
1.125,0.0950881,0.176724,-0.000482058,0.000709426,
1.125,0.0967608,0.176682,-0.000523665,0.000812702,
1.125,0.0984606,0.176632,-0.000571174,0.000930284,
1.125,0.100207,0.176572,-0.000625519,0.00106425,
1.125,0.102018,0.176502,-0.000687758,0.00121696,
1.125,0.103912,0.176419,-0.000759095,0.00139111,
1.125,0.10591,0.176321,-0.000840902,0.00158979,
1.125,0.108032,0.176205,-0.000934744,0.00181649,
1.125,0.110302,0.17607,-0.00104241,0.00207523,
1.125,0.112744,0.175912,-0.00116595,0.00237059,
1.125,0.11539,0.175727,-0.00130771,0.00270779,
1.125,0.11827,0.175513,-0.00147034,0.0030928,
1.125,0.121425,0.175265,-0.0016569,0.00353243,
1.125,0.124899,0.17498,-0.00187087,0.00403447,
1.125,0.128745,0.174653,-0.00211618,0.00460781,
1.125,0.133027,0.174281,-0.0023973,0.00526262,
1.125,0.137822,0.17386,-0.00271924,0.00601049,
1.125,0.143223,0.173389,-0.0030876,0.00686471,
1.125,0.149343,0.172864,-0.00350859,0.00784041,
1.125,0.156327,0.172286,-0.00398894,0.00895492,
1.125,0.16435,0.171657,-0.0045358,0.010228,
1.125,0.173637,0.170979,-0.00515651,0.0116823,
1.125,0.184475,0.170259,-0.00585808,0.0133436,
1.125,0.197227,0.169506,-0.00664667,0.0152415,
1.125,0.212367,0.168738,-0.00753217,0.0174097,
1.125,0.230528,0.168064,-0.00874378,0.0198867,
1.125,0.253648,0.168057,-0.00985003,0.0227167,
1.125,0.286239,0.168552,-0.0102736,0.0259499,
1.125,0.333483,0.16883,-0.0105836,0.029644,
1.125,0.397101,0.168551,-0.0104917,0.0338647,
1.125,0.47672,0.167829,-0.00973215,0.0386871,
1.125,0.569595,0.166678,-0.0082416,0.0441974,
1.125,0.667622,0.164844,-0.00630588,0.0504935,
1.125,0.75803,0.162387,-0.00440313,0.0576879,
1.125,0.831388,0.158382,-0.00243835,0.0659089,
1.125,0.88341,0.154883,-0.000932095,0.0753032,
1.125,0.912593,0.14928,-0.000254562,0.0860384,
1.125,0.922905,0.1428,-5.03162e-05,0.0983063,
1.125,0.925391,0.135749,-1.11862e-05,0.112326,
1.125,0.926789,0.128508,-3.59015e-06,0.128348,
1.125,0.928596,0.120909,-1.35486e-06,0.146659,
1.125,0.932888,0.112896,-5.16415e-07,0.167586,
1.125,0.940759,0.104114,-1.61659e-07,0.191503,
1.125,0.950719,0.0956045,-3.46011e-08,0.218838,
1.125,0.955792,0.0865023,-7.86022e-09,0.250082,
1.125,0.960897,0.0769533,-4.13991e-09,0.285792,
1.125,0.967406,0.0674944,-3.44251e-09,0.32661,
1.125,0.971715,0.0579669,-3.32045e-09,0.373265,
1.125,0.976055,0.0484267,-3.67687e-09,0.426595,
1.125,0.980694,0.0390636,-3.84269e-09,0.487555,
1.125,0.985186,0.0300667,-3.51674e-09,0.55724,
1.125,0.989382,0.0214734,-2.9367e-09,0.636898,
1.125,0.99335,0.013558,-2.33372e-09,0.72796,
1.125,0.996901,0.00647174,-1.76531e-09,0.82855,
1.125,0.999924,0.000499048,-1.25594e-09,0.94298,
1.125,1.00101,-0.00165779,-1.0549e-09,1.00315,
1.125,1.0023,-0.00421489,-8.16319e-10,1.07453,
1.125,1.00397,-0.007594,-4.63585e-10,1.22528,
1.125,1.00493,-0.00958897,-1.91454e-10,1.39832,
1.125,1.00526,-0.0102013,-8.23976e-12,1.59646,
1.125,1.00504,-0.0098345,8.08884e-11,1.82431,
1.125,1.00452,-0.00882937,1.29494e-10,2.08526,
1.125,1.00378,-0.00738961,1.36426e-10,2.38489,
1.125,1.00298,-0.00583158,1.21926e-10,2.72763,
1.125,1.00216,-0.00426122,9.80733e-11,3.12069,
1.125,1.00151,-0.00300947,7.72277e-11,3.57128,

1.25,0,0.187434,0,1e-16,
1.25,0.0410671,0.187432,-1.8487e-07,2.27149e-05,
1.25,0.0825438,0.187433,-6.60131e-06,4.58292e-05,
1.25,0.123637,0.187432,-5.57092e-05,6.97496e-05,
1.25,0.160571,0.187432,-0.000189285,9.48968e-05,
1.25,0.189657,0.187432,-0.000354327,0.000121713,
1.25,0.211057,0.18743,-0.000483026,0.000150671,
1.25,0.226784,0.187428,-0.000568257,0.00018228,
1.25,0.238679,0.187425,-0.00062386,0.000217097,
1.25,0.248006,0.18742,-0.000661707,0.000255735,
1.25,0.255583,0.187414,-0.000689524,0.000298876,
1.25,0.261935,0.187406,-0.000711976,0.00034728,
1.25,0.267407,0.187396,-0.000731908,0.000401801,
1.25,0.272232,0.187383,-0.000751144,0.000463402,
1.25,0.276572,0.187368,-0.000770958,0.00053317,
1.25,0.280544,0.187349,-0.000792324,0.000612337,
1.25,0.284235,0.187326,-0.000816074,0.000702303,
1.25,0.287712,0.187298,-0.000842983,0.000804657,
1.25,0.291028,0.187264,-0.000873825,0.00092121,
1.25,0.294227,0.187224,-0.00090942,0.00105402,
1.25,0.297348,0.187177,-0.000950655,0.00120545,
1.25,0.300424,0.18712,-0.000998518,0.00137816,
1.25,0.303486,0.187052,-0.00105412,0.00157523,
1.25,0.306565,0.186972,-0.00111873,0.00180013,
1.25,0.30969,0.186878,-0.00119378,0.00205686,
1.25,0.312891,0.186767,-0.0012809,0.00234997,
1.25,0.316201,0.186638,-0.00138199,0.00268466,
1.25,0.319656,0.186486,-0.00149919,0.00306685,
1.25,0.323294,0.18631,-0.00163494,0.00350335,
1.25,0.327159,0.186106,-0.00179207,0.00400188,
1.25,0.331301,0.185871,-0.00197375,0.00457132,
1.25,0.33578,0.185601,-0.00218359,0.00522176,
1.25,0.340666,0.185294,-0.00242566,0.00596478,
1.25,0.346042,0.184947,-0.00270448,0.00681358,
1.25,0.352008,0.184558,-0.00302504,0.00778325,
1.25,0.35869,0.184124,-0.00339273,0.00889105,
1.25,0.366239,0.183644,-0.00381313,0.0101567,
1.25,0.374848,0.183116,-0.00429184,0.0116027,
1.25,0.384754,0.182541,-0.00483387,0.0132548,
1.25,0.396261,0.18192,-0.00544293,0.0151425,
1.25,0.40975,0.181254,-0.00612183,0.0172993,
1.25,0.425714,0.180556,-0.00689687,0.0197638,
1.25,0.444951,0.179964,-0.00789531,0.0225799,
1.25,0.469759,0.179779,-0.00861232,0.0257978,
1.25,0.504502,0.179909,-0.00866956,0.0294749,
1.25,0.552481,0.179736,-0.00843252,0.0336769,
1.25,0.612017,0.179035,-0.00769792,0.0384787,
1.25,0.678371,0.177868,-0.00645235,0.0439663,
1.25,0.74537,0.17611,-0.00488813,0.0502376,
1.25,0.806465,0.173632,-0.00327867,0.0574048,
1.25,0.857627,0.170228,-0.00159888,0.0655959,
1.25,0.894132,0.166194,-0.000560527,0.0749575,
1.25,0.912254,0.161197,-0.000132999,0.0856571,
1.25,0.918183,0.155703,-2.56384e-05,0.0978863,
1.25,0.919635,0.149497,-6.53489e-06,0.111864,
1.25,0.920753,0.142972,-2.47733e-06,0.127841,
1.25,0.922945,0.135855,-1.05223e-06,0.146102,
1.25,0.927751,0.128203,-4.13539e-07,0.166976,
1.25,0.935666,0.11997,-1.25713e-07,0.190837,
1.25,0.944148,0.11143,-2.74799e-08,0.218113,
1.25,0.948785,0.102259,-7.11881e-09,0.249292,
1.25,0.954019,0.0927018,-4.06264e-09,0.284935,
1.25,0.960277,0.0830825,-3.42529e-09,0.325682,
1.25,0.964471,0.0732738,-3.35748e-09,0.372264,
1.25,0.968867,0.0635189,-3.7576e-09,0.425519,
1.25,0.973609,0.0538682,-3.9373e-09,0.486402,
1.25,0.978216,0.0444389,-3.61993e-09,0.55601,
1.25,0.982559,0.035451,-3.05994e-09,0.635594,
1.25,0.986742,0.0270215,-2.48659e-09,0.726585,
1.25,0.990587,0.0192579,-1.95043e-09,0.83062,
1.25,0.994023,0.012434,-1.47448e-09,0.949574,
1.25,0.996936,0.00651721,-1.06405e-09,1.08559,
1.25,0.999287,0.00180436,-7.16842e-10,1.24111,
1.25,1.00101,-0.00170114,-4.41475e-10,1.41894,
1.25,1.00217,-0.0040448,-2.3157e-10,1.62229,
1.25,1.00277,-0.00527047,-8.37206e-11,1.84947,
1.25,1.00292,-0.00562241,5.37312e-12,2.10883,
1.25,1.00274,-0.00531517,4.57292e-11,2.40658,
1.25,1.0024,-0.00468534,6.07925e-11,2.74752,
1.25,1.00235,-0.00458997,6.00609e-11,2.79119,
1.25,1.00195,-0.00382481,5.40818e-11,3.13954,
1.25,1.00163,-0.00323282,3.22358e-11,3.5883,

1.375,0,0.147963,0,1e-16,
1.375,0.0541728,0.147962,-2.99583e-07,2.24527e-05,
1.375,0.108805,0.147962,-1.04905e-05,4.53013e-05,
1.375,0.162664,0.147962,-8.31287e-05,6.89485e-05,
1.375,0.211107,0.147962,-0.000257934,9.38113e-05,
1.375,0.250527,0.147962,-0.000452777,0.000120328,
1.375,0.281508,0.147962,-0.000599617,0.000148967,
1.375,0.30608,0.147961,-0.000701236,0.000180234,
1.375,0.325947,0.14796,-0.000771679,0.00021468,
1.375,0.342317,0.147958,-0.000821566,0.000252914,
1.375,0.356035,0.147956,-0.000857789,0.000295611,
1.375,0.367707,0.147954,-0.000884923,0.000343527,
1.375,0.377774,0.14795,-0.000906098,0.000397509,
1.375,0.386572,0.147945,-0.000923552,0.000458511,
1.375,0.394354,0.147939,-0.000938935,0.000527614,
1.375,0.401318,0.14793,-0.00095353,0.00060604,
1.375,0.407621,0.14792,-0.000968374,0.00069518,
1.375,0.413386,0.147908,-0.000984351,0.000796613,
1.375,0.418713,0.147892,-0.00100226,0.000912136,
1.375,0.423686,0.147873,-0.00102285,0.0010438,
1.375,0.428374,0.14785,-0.00104691,0.00119393,
1.375,0.432835,0.147822,-0.00107521,0.00136521,
1.375,0.437122,0.147788,-0.00110862,0.00156067,
1.375,0.441282,0.147748,-0.00114809,0.00178377,
1.375,0.445356,0.147699,-0.00119467,0.00203849,
1.375,0.449385,0.147642,-0.00124956,0.00232935,
1.375,0.45341,0.147574,-0.00131409,0.00266152,
1.375,0.45747,0.147494,-0.0013898,0.00304091,
1.375,0.461607,0.147399,-0.00147841,0.00347427,
1.375,0.465864,0.147289,-0.00158189,0.0039693,
1.375,0.47029,0.147162,-0.00170246,0.00453483,
1.375,0.47494,0.147014,-0.00184262,0.00518091,
1.375,0.479874,0.146844,-0.00200513,0.00591907,
1.375,0.485163,0.14665,-0.00219309,0.00676245,
1.375,0.490892,0.146429,-0.00240983,0.0077261,
1.375,0.497162,0.14618,-0.00265892,0.00882719,
1.375,0.504092,0.145902,-0.002944,0.0100854,
1.375,0.511831,0.145592,-0.00326862,0.0115231,
1.375,0.52056,0.145249,-0.00363587,0.013166,
1.375,0.530506,0.144873,-0.00404785,0.0150434,
1.375,0.541946,0.144463,-0.00450487,0.017189,
1.375,0.55523,0.144014,-0.00500456,0.0196409,
1.375,0.570794,0.143536,-0.00556945,0.0224431,
1.375,0.589362,0.143072,-0.00616795,0.0256456,
1.375,0.612366,0.14274,-0.0067758,0.0293058,
1.375,0.64298,0.142632,-0.0066679,0.0334891,
1.375,0.683919,0.142375,-0.00624497,0.0382704,
1.375,0.732887,0.141774,-0.00543675,0.0437353,
1.375,0.784809,0.140664,-0.00428871,0.0499817,
1.375,0.834901,0.139722,-0.00290481,0.0571216,
1.375,0.879574,0.13775,-0.00144869,0.0652828,
1.375,0.91193,0.13538,-0.000479409,0.0746118,
1.375,0.927325,0.13243,-9.74242e-05,0.0852759,
1.375,0.931801,0.129245,-1.39659e-05,0.0974663,
1.375,0.932174,0.125582,-2.5679e-06,0.111402,
1.375,0.932122,0.121556,-1.10601e-06,0.127333,
1.375,0.933284,0.117105,-6.20481e-07,0.145546,
1.375,0.937295,0.112182,-2.77102e-07,0.166367,
1.375,0.94388,0.106706,-8.36529e-08,0.190171,
1.375,0.950076,0.100793,-1.78714e-08,0.217387,
1.375,0.953326,0.0944126,-4.91658e-09,0.248502,
1.375,0.957318,0.0874906,-3.04814e-09,0.284078,
1.375,0.962217,0.0800993,-2.6031e-09,0.324754,
1.375,0.965185,0.0724488,-2.59545e-09,0.371263,
1.375,0.968646,0.0646067,-3.03962e-09,0.424442,
1.375,0.972526,0.0566152,-3.28096e-09,0.485249,
1.375,0.976409,0.0483907,-3.10381e-09,0.554781,
1.375,0.980171,0.0405214,-2.70949e-09,0.634289,
1.375,0.983946,0.03277,-2.26612e-09,0.725209,
1.375,0.9875,0.0255763,-1.83847e-09,0.82918,
1.375,0.990821,0.0189008,-1.45135e-09,0.948077,
1.375,0.993756,0.0129665,-1.10176e-09,1.08405,
1.375,0.996278,0.00787883,-8.01509e-10,1.23955,
1.375,0.998311,0.00372016,-5.51093e-10,1.41738,
1.375,0.999882,0.000565116,-3.49667e-10,1.62076,
1.375,1.00094,-0.00162612,-1.95597e-10,1.85337,
1.375,1.00158,-0.00293901,-8.84813e-11,2.1194,
1.375,1.00184,-0.00350742,-1.98491e-11,2.42367,
1.375,1.00186,-0.00358475,5.17401e-12,2.77091,
1.375,1.00172,-0.0033775,1.49709e-11,3.16112,
1.375,1.00164,-0.00325371,4.41744e-12,3.6087,

-3.19886,0,0.0211161,0,0,
-2.99627,0,0.00595917,0,0,
-2.80402,0,0.00433071,0,0,
-2.62157,0,0.00369493,0,0,
-2.44842,0,0.00368588,0,0,
-2.2841,0,0.00417374,0,0,
-2.12815,0,0.00470213,0,0,
-1.98016,0,0.00556965,0,0,
-1.83971,0,0.00654775,0,0,
-1.70643,0,0.00789319,0,0,
-1.57994,0,0.0092804,0,0,
-1.4599,0,0.0112961,0,0,
-1.34598,0,0.0135182,0,0,
-1.23786,0,0.0160607,0,0,
-1.13526,0,0.0193353,0,0,
-1.03789,0,0.022986,0,0,
-0.945488,0,0.027693,0,0,
-0.857795,0,0.0329661,0,0,
-0.774572,0,0.0398105,0,0,
-0.695593,0,0.0474802,0,0,
-0.620641,0,0.0575431,0,0,
-0.54951,0,0.0688319,0,0,
-0.482006,0,0.0838126,0,0,
-0.417943,0,0.100613,0,0,
-0.357147,0,0.123285,0,0,
-0.29945,0,0.148888,0,0,
-0.244696,0,0.183803,0,0,
-0.192732,0,0.218286,0,0,
-0.143419,0,0.26876,0,0,
-0.0966231,0,0.320862,0,0,
-0.0522148,0,0.342614,0,0,
-0.0100698,0,0.347467,0,0,
0.0299268,0,0.337152,0,0,
0.0678843,0,0.293315,0,0,
0.103908,0,0.239694,0,0,
0.138096,0,0.111653,0,0,
0.17054,0,-0.00103662,0,0,
0.20133,0,-0.0888007,0,0,
0.230551,0,-0.165507,0,0,
0.258281,0,-0.229019,0,0,
0.284598,0,-0.28803,0,0,
0.309574,0,-0.338301,0,0,
0.333275,0,-0.383585,0,0,
0.355769,0,-0.425219,0,0,
0.377115,0,-0.461679,0,0,
0.397374,0,-0.496545,0,0,
0.416599,0,-0.526892,0,0,
0.434844,0,-0.555831,0,0,
0.452159,0,-0.581394,0,0,
0.468591,0,-0.605696,0,0,
0.484186,0,-0.627422,0,0,
0.498985,0,-0.647998,0,0,
0.51303,0,-0.666769,0,0,
0.526358,0,-0.684376,0,0,
0.539007,0,-0.700357,0,0,
0.551012,0,-0.715186,0,0,
0.562404,0,-0.72923,0,0,
0.573215,0,-0.742038,0,0,
0.583475,0,-0.754254,0,0,
0.593212,0,-0.765435,0,0,
0.602453,0,-0.776112,0,0,
0.611222,0,-0.785621,0,0,
0.619544,0,-0.79466,0,0,
0.627442,0,-0.803237,0,0,
0.634938,0,-0.811062,0,0,
0.642051,0,-0.818467,0,0,
0.648801,0,-0.825141,0,0,
0.655207,0,-0.830218,0,0,
0.661287,0,-0.824704,0,0,
0.667057,0,-0.796854,0,0,
0.672532,0,-0.756727,0,0,
0.677729,0,-0.676418,0,0,
0.68266,0,-0.60394,0,0,
0.68734,0,-0.542771,0,0,
0.691781,0,-0.492649,0,0,
0.695996,0,-0.4547,0,0,
0.699996,0,-0.421516,0,0,
0.703996,0,-0.394265,0,0,
0.707996,0,-0.368728,0,0,
0.712135,0,-0.347028,0,0,
0.716416,0,-0.32526,0,0,
0.720846,0,-0.30711,0,0,
0.725429,0,-0.288326,0,0,
0.730171,0,-0.272679,0,0,
0.735076,0,-0.256365,0,0,
0.740151,0,-0.242357,0,0,
0.745402,0,-0.227964,0,0,
0.750835,0,-0.215026,0,0,
0.756455,0,-0.201784,0,0,
0.76227,0,-0.188847,0,0,
0.768286,0,-0.177813,0,0,
0.77451,0,-0.165083,0,0,
0.78095,0,-0.153466,0,0,
0.787612,0,-0.141746,0,0,
0.794505,0,-0.130197,0,0,
0.801636,0,-0.118771,0,0,
0.809014,0,-0.107355,0,0,
0.816647,0,-0.096164,0,0,
0.824544,0,-0.0849046,0,0,
0.832715,0,-0.0739955,0,0,
0.841168,0,-0.0629269,0,0,
0.849914,0,-0.0523629,0,0,
0.858962,0,-0.0416414,0,0,
0.868323,0,-0.0314984,0,0,
0.878008,0,-0.0212233,0,0,
0.888028,0,-0.0115426,0,0,
0.898395,0,-0.00179541,0,0,
0.90912,0,0.00740415,0,0,
0.920216,0,0.0165761,0,0,
0.931697,0,0.0250974,0,0,
0.943574,0,0.0339592,0,0,
0.955862,0,0.0402761,0,0,
0.968576,0,0.0488045,0,0,
0.981729,0,0.0537924,0,0,
0.995332,0,0.0659097,0,0,
1.00941,0,0.0812717,0,0,
1.02397,0,0.100853,0,0,
1.03904,0,0.112631,0,0,
1.05463,0,0.127443,0,0,
1.07076,0,0.141511,0,0,
1.08745,0,0.154556,0,0,
1.10471,0,0.166405,0,0,
1.12258,0,0.175827,0,0,
1.14106,0,0.184061,0,0,
1.16018,0,0.18891,0,0,
1.17996,0,0.192821,0,0,
1.20043,0,0.193171,0,0,
1.22161,0,0.191783,0,0,
1.24351,0,0.189131,0,0,
1.26618,0,0.183202,0,0,
1.28963,0,0.177141,0,0,
1.31389,0,0.169025,0,0,
1.33899,0,0.160836,0,0,
1.36496,0,0.151361,0,0,
1.39183,0,0.142269,0,0,
1.41962,0,0.132469,0,0,
1.44838,0,0.123301,0,0,
1.47813,0,0.113868,0,0,
1.50892,0,0.10521,0,0,
1.54076,0,0.0965685,0,0,
1.57371,0,0.0887183,0,0,
1.6078,0,0.0810382,0,0,
1.64307,0,0.074104,0,0,
1.67956,0,0.0674021,0,0,
1.71731,0,0.0613758,0,0,
1.75637,0,0.055645,0,0,
1.79677,0,0.0505166,0,0,
1.83858,0,0.0456562,0,0,
1.88183,0,0.0413189,0,0,
1.92658,0,0.0372583,0,0,
1.97288,0,0.0335997,0,0,
2.02078,0,0.030353,0,0,
2.07033,0,0.0272479,0,0,
2.1216,0,0.0245221,0,0,
2.17465,0,0.0219989,0,0,
2.22953,0,0.019756,0,0,
2.2863,0,0.0176709,0,0,
2.34505,0,0.0158103,0,0,
2.40582,0,0.0141453,0,0,
2.4687,0,0.0125939,0,0,
2.53375,0,0.0112282,0,0,
2.60105,0,0.009971,0,0,
2.67068,0,0.00886107,0,0,
2.74272,0,0.00782867,0,0,
2.81725,0,0.00691887,0,0,
2.89436,0,0.00607115,0,0,
2.97414,0,0.00532707,0,0,
3.05668,0,0.00465222,0,0,
3.14207,0,0.00407198,0,0,
3.23042,0,0.00352222,0,0,
3.32182,0,0.0030648,0,0,
3.41639,0,0.00263678,0,0,
3.51423,0,0.00222626,0,0,
3.61545,0,0.00186828,0,0,
3.72017,0,0.00154097,0,0,
3.82852,0,0.0012496,0,0,
3.94062,0,0.000967695,0,0,
4.05659,0,0.000732535,0,0,
4.17658,0,0.00048632,0,0,
4.30072,0,0.000255815,0,0,
4.42915,0,0.00151086,0,0,

