2eeac3bd7895eccd14036f1e02bb0bda8803c323 
X,x_velocity,cp,uw_b,wall_distance,
-0.25,0,0.180361,0,1e-16,
-0.25,0.0541684,0.180363,-4.27862e-07,2.59026e-05,
-0.25,0.109363,0.180363,-1.47184e-05,5.22493e-05,
-0.25,0.163254,0.180363,-0.000107127,7.94916e-05,
-0.25,0.210074,0.180363,-0.000293255,0.000108097,
-0.25,0.247295,0.180363,-0.000471488,0.000138555,
-0.25,0.276982,0.180363,-0.00058976,0.000171389,
-0.25,0.301527,0.180364,-0.000675004,0.000207163,
-0.25,0.322523,0.180365,-0.000736712,0.000246489,
-0.25,0.341034,0.180366,-0.000784374,0.000290044,
-0.25,0.357751,0.180367,-0.000823104,0.000338574,
-0.25,0.373145,0.180368,-0.000855892,0.000392915,
-0.25,0.387545,0.18037,-0.000884695,0.000454,
-0.25,0.40119,0.180372,-0.000910813,0.000522878,
-0.25,0.41426,0.180374,-0.000935132,0.000600734,
-0.25,0.426892,0.180376,-0.000958261,0.000688907,
-0.25,0.439194,0.180379,-0.000980618,0.000788915,
-0.25,0.451253,0.180383,-0.00100249,0.000902478,
-0.25,0.463141,0.180387,-0.00102405,0.00103155,
-0.25,0.474918,0.180391,-0.00104539,0.00117836,
-0.25,0.486636,0.180396,-0.00106656,0.00134543,
-0.25,0.49834,0.180401,-0.00108752,0.00153564,
-0.25,0.510069,0.180406,-0.00110821,0.00175227,
-0.25,0.521861,0.180412,-0.00112859,0.00199906,
-0.25,0.533747,0.180417,-0.00114853,0.00228026,
-0.25,0.54576,0.180423,-0.00116783,0.00260072,
-0.25,0.557926,0.180428,-0.00118628,0.00296597,
-0.25,0.570273,0.180433,-0.00120361,0.00338233,
-0.25,0.582828,0.180436,-0.00121954,0.00385697,
-0.25,0.595613,0.180437,-0.00123376,0.00439809,
-0.25,0.608653,0.180434,-0.00124591,0.00501505,
-0.25,0.621973,0.180428,-0.00125562,0.00571851,
-0.25,0.635597,0.180415,-0.00126247,0.00652062,
-0.25,0.649549,0.180394,-0.00126596,0.00743527,
-0.25,0.663853,0.180363,-0.00126554,0.00847826,
-0.25,0.678533,0.180317,-0.00126049,0.00966765,
-0.25,0.693604,0.180253,-0.00124989,0.011024,
-0.25,0.709065,0.180165,-0.0012341,0.0125709,
-0.25,0.72492,0.180043,-0.00121451,0.0143349,
-0.25,0.741334,0.179878,-0.00118804,0.0163469,
-0.25,0.758857,0.179655,-0.00113059,0.0186414,
-0.25,0.778282,0.179357,-0.00104782,0.0212585,
-0.25,0.800328,0.178973,-0.000930992,0.0242434,
-0.25,0.825345,0.17849,-0.000771361,0.0276478,
-0.25,0.852485,0.177858,-0.000574809,0.031531,
-0.25,0.878855,0.177075,-0.000369963,0.0359602,
-0.25,0.900087,0.176062,-0.000134792,0.0410123,
-0.25,0.910407,0.174639,-2.53131e-05,0.0467752,
-0.25,0.912705,0.173123,-2.61987e-06,0.0533488,
-0.25,0.913648,0.171415,-3.94981e-07,0.0608475,
-0.25,0.914649,0.169393,-7.05263e-08,0.0694016,
-0.25,0.915824,0.16704,-1.633e-08,0.0791597,
-0.25,0.9172,0.164304,-8.63342e-09,0.0902917,
-0.25,0.918793,0.161139,-7.77873e-09,0.102991,
-0.25,0.920639,0.157474,-7.78295e-09,0.117479,
-0.25,0.922771,0.153258,-7.84448e-09,0.134008,
-0.25,0.925215,0.148419,-7.86034e-09,0.152865,
-0.25,0.927996,0.142934,-7.81885e-09,0.17438,
-0.25,0.931137,0.136717,-7.69001e-09,0.198926,
-0.25,0.934626,0.12977,-7.51661e-09,0.226933,
-0.25,0.938537,0.122056,-7.25106e-09,0.258887,
-0.25,0.942781,0.113677,-6.92895e-09,0.295348,
-0.25,0.94747,0.104412,-6.49267e-09,0.33695,
-0.25,0.952335,0.0947751,-5.97251e-09,0.384419,
-0.25,0.957465,0.0846424,-5.41672e-09,0.438586,
-0.25,0.962699,0.0742954,-4.75995e-09,0.500395,
-0.25,0.967862,0.0640564,-4.1058e-09,0.570927,
-0.25,0.972993,0.0539709,-3.49524e-09,0.651415,
-0.25,0.977917,0.0444462,-2.90092e-09,0.743264,
-0.25,0.982445,0.0353582,-2.34644e-09,0.848083,
-0.25,0.986615,0.0270671,-1.83143e-09,0.967704,
-0.25,0.990229,0.0198275,-1.3791e-09,1.10422,
-0.25,0.993311,0.0137111,-9.96739e-10,1.26002,
-0.25,0.995768,0.00874737,-6.85858e-10,1.43784,
-0.25,0.997677,0.00494679,-4.42289e-10,1.64079,
-0.25,0.999001,0.00223948,-2.58933e-10,1.86641,
-0.25,0.999846,0.000528844,-1.31089e-10,2.12427,
-0.25,1.00027,-0.000369495,-4.44663e-11,2.41998,
-0.25,1.00028,-0.000405013,-3.85431e-11,2.46413,
-0.25,1.00038,-0.000638667,8.15987e-13,2.75802,
-0.25,1.00026,-0.000462446,2.6783e-11,3.14513,
-0.25,1.00001,1.35158e-05,3.21739e-11,3.58873,

0.688,0,-0.474508,0,1e-16,
0.688,0.000160821,-0.474533,-1.37173e-08,2.33816e-05,
0.688,0.00687087,-0.474557,-1.41559e-06,4.71702e-05,
0.688,0.0203944,-0.474587,-2.24449e-05,7.17799e-05,
0.688,0.0393456,-0.474617,-0.000129713,9.76391e-05,
0.688,0.0594957,-0.474652,-0.000363827,0.000125198,
0.688,0.0777971,-0.474683,-0.000649303,0.000154937,
0.688,0.0940686,-0.474709,-0.0009301,0.000187374,
0.688,0.109035,-0.474731,-0.00120493,0.000223074,
0.688,0.123388,-0.47475,-0.0014841,0.00026266,
0.688,0.137662,-0.474766,-0.00177569,0.000306822,
0.688,0.152272,-0.474779,-0.00208514,0.000356332,
0.688,0.167568,-0.474789,-0.00241598,0.000412053,
0.688,0.183864,-0.474794,-0.0027704,0.000474959,
0.688,0.201465,-0.474795,-0.00314984,0.000546147,
0.688,0.220675,-0.474791,-0.00355597,0.000626864,
0.688,0.241825,-0.474782,-0.00398854,0.000718519,
0.688,0.265241,-0.474761,-0.00444823,0.000822716,
0.688,0.291277,-0.474729,-0.00494647,0.000941278,
0.688,0.320834,-0.474697,-0.00532196,0.00107628,
0.688,0.354956,-0.474664,-0.00567721,0.00123008,
0.688,0.394137,-0.474626,-0.0059758,0.00140539,
0.688,0.438522,-0.47459,-0.00620118,0.00160526,
0.688,0.487972,-0.474579,-0.00631573,0.0018332,
0.688,0.542134,-0.474608,-0.00628623,0.00209321,
0.688,0.600307,-0.474701,-0.00609088,0.00238985,
0.688,0.66121,-0.474919,-0.00572841,0.00272832,
0.688,0.723424,-0.475119,-0.00522201,0.00311456,
0.688,0.785403,-0.475675,-0.00461069,0.00355536,
0.688,0.845645,-0.476504,-0.00394675,0.00405845,
0.688,0.903006,-0.477616,-0.00328479,0.00463268,
0.688,0.956593,-0.479049,-0.00267138,0.00528813,
0.688,1.00529,-0.480876,-0.00213632,0.00603632,
0.688,1.04698,-0.483321,-0.00171275,0.00689042,
0.688,1.07951,-0.48646,-0.00142413,0.00786545,
0.688,1.10384,-0.490426,-0.00115823,0.00897856,
0.688,1.12267,-0.495423,-0.0010301,0.0102494,
0.688,1.13844,-0.501865,-0.00105923,0.0117002,
0.688,1.15309,-0.510277,-0.00118985,0.0133567,
0.688,1.16837,-0.521628,-0.00139085,0.015248,
0.688,1.1858,-0.537276,-0.00162252,0.0174016,
0.688,1.20725,-0.559257,-0.0018241,0.0197947,
0.688,1.23343,-0.590418,-0.00188821,0.0225411,
0.688,1.26498,-0.632112,-0.0018625,0.0256954,
0.688,1.30104,-0.681562,-0.00172848,0.0293134,
0.688,1.33641,-0.72819,-0.00118525,0.0334589,
0.688,1.36289,-0.759924,-0.000524346,0.0382051,
0.688,1.37636,-0.772047,-0.000123964,0.0436361,
0.688,1.38052,-0.771519,-5.07639e-06,0.0498477,
0.688,1.37968,-0.767236,1.31825e-05,0.0569175,
0.688,1.3744,-0.756049,7.54149e-06,0.0649586,
0.688,1.36688,-0.7409,2.17927e-06,0.074169,
0.688,1.35841,-0.723694,5.16371e-07,0.0847119,
0.688,1.3492,-0.705252,1.40777e-07,0.0967654,
0.688,1.33923,-0.685003,6.36159e-08,0.110475,
0.688,1.3283,-0.662759,4.76606e-08,0.126175,
0.688,1.31617,-0.638418,4.32667e-08,0.144131,
0.688,1.30286,-0.611746,4.03703e-08,0.164669,
0.688,1.28852,-0.583043,3.75338e-08,0.188038,
0.688,1.27314,-0.552136,3.47977e-08,0.214753,
0.688,1.25665,-0.518853,3.21333e-08,0.245311,
0.688,1.23904,-0.483292,2.95871e-08,0.280275,
0.688,1.22026,-0.445273,2.73542e-08,0.320142,
0.688,1.20006,-0.404215,2.58131e-08,0.365789,
0.688,1.178,-0.359543,2.47576e-08,0.417836,
0.688,1.15373,-0.3103,2.37528e-08,0.477372,
0.688,1.12726,-0.256416,2.17134e-08,0.545486,
0.688,1.1008,-0.203075,1.7048e-08,0.623218,
0.688,1.07913,-0.158727,1.15346e-08,0.712106,
0.688,1.06282,-0.125886,7.73342e-09,0.813782,
0.688,1.0499,-0.099761,5.46436e-09,0.930041,
0.688,1.03928,-0.0784434,3.93174e-09,1.06261,
0.688,1.03053,-0.060764,2.82993e-09,1.21441,
0.688,1.02334,-0.0464352,2.01253e-09,1.38796,
0.688,1.01755,-0.0348497,1.41026e-09,1.58636,
0.688,1.01292,-0.0255806,9.76863e-10,1.81256,
0.688,1.00927,-0.0183397,6.70857e-10,2.0716,
0.688,1.00639,-0.0126322,4.61916e-10,2.36771,
0.688,1.00409,-0.00807182,3.21952e-10,2.70619,
0.688,1.00222,-0.00438107,2.32292e-10,3.09309,
0.688,1.00071,-0.0013686,1.86528e-10,3.53533,

0.813,0,-0.103497,0,1e-16,
0.813,-0.00433958,-0.103501,4.55518e-09,2.32716e-05,
0.813,-0.00789712,-0.103508,1.20535e-07,4.69491e-05,
0.813,-0.0106579,-0.103515,8.8926e-07,7.14457e-05,
0.813,-0.0124905,-0.103523,2.682e-06,9.71887e-05,
0.813,-0.0132661,-0.103527,2.33912e-06,0.000124627,
0.813,-0.0131516,-0.103541,-6.49431e-06,0.000154241,
0.813,-0.0125295,-0.103548,-2.47275e-05,0.000186546,
0.813,-0.0116648,-0.10356,-4.89347e-05,0.000222108,
0.813,-0.010671,-0.103571,-7.70926e-05,0.000261547,
0.813,-0.00958562,-0.103584,-0.000108835,0.000305554,
0.813,-0.00841576,-0.103598,-0.00014444,0.000354897,
0.813,-0.0071562,-0.103614,-0.000184452,0.000410441,
0.813,-0.00579611,-0.103632,-0.000229559,0.000473157,
0.813,-0.00432122,-0.103652,-0.000280568,0.000544144,
0.813,-0.00271489,-0.103674,-0.000338391,0.000624646,
0.813,-0.000958038,-0.103699,-0.000404051,0.000716071,
0.813,0.000970787,-0.103727,-0.000478761,0.000820025,
0.813,0.00309612,-0.103758,-0.000563856,0.000938328,
0.813,0.00544589,-0.103793,-0.00066084,0.00107306,
0.813,0.00805232,-0.103833,-0.000771432,0.00122658,
0.813,0.0109525,-0.103877,-0.000897651,0.00140158,
0.813,0.0141903,-0.103926,-0.00104181,0.00160114,
0.813,0.0178167,-0.103981,-0.00120651,0.00182877,
0.813,0.0218929,-0.104042,-0.00139473,0.00208846,
0.813,0.0264912,-0.104109,-0.00160995,0.00238478,
0.813,0.0316995,-0.104183,-0.00185608,0.00272294,
0.813,0.0376237,-0.104264,-0.00213758,0.00310889,
0.813,0.0443937,-0.104352,-0.00245947,0.00354942,
0.813,0.0521693,-0.104447,-0.00282751,0.00405228,
0.813,0.0611492,-0.104547,-0.00324803,0.00462634,
0.813,0.0715812,-0.104653,-0.00372798,0.00528169,
0.813,0.0837772,-0.104761,-0.00427482,0.0060299,
0.813,0.0981312,-0.104869,-0.00489611,0.00688414,
0.813,0.115141,-0.104976,-0.00559637,0.00785949,
0.813,0.135421,-0.105133,-0.00652261,0.00897314,
0.813,0.160752,-0.105234,-0.00751029,0.0102448,
0.813,0.195607,-0.10515,-0.00827762,0.0116968,
0.813,0.246674,-0.104991,-0.00910824,0.0133548,
0.813,0.321832,-0.104657,-0.00971641,0.0152482,
0.813,0.430962,-0.103651,-0.00946021,0.0173973,
0.813,0.578783,-0.101587,-0.00769087,0.0197681,
0.813,0.73587,-0.100508,-0.00512732,0.0225011,
0.813,0.848731,-0.100604,-0.00304832,0.0256452,
0.813,0.909481,-0.0996545,-0.00139766,0.0292561,
0.813,0.941582,-0.0975697,-0.000622944,0.033398,
0.813,0.963375,-0.0948692,-0.000403567,0.0379504,
0.813,0.983546,-0.0915844,-0.000328508,0.0431839,
0.813,1.0045,-0.0874604,-0.000234139,0.0492266,
0.813,1.02302,-0.0829899,-0.000110451,0.0561862,
0.813,1.03512,-0.0774232,-2.19815e-05,0.0641865,
0.813,1.0383,-0.0725948,8.7515e-06,0.0732535,
0.813,1.03015,-0.0662288,5.5808e-06,0.0836093,
0.813,1.01896,-0.0588365,9.74872e-07,0.0955186,
0.813,1.01582,-0.049979,1.62133e-07,0.10911,
0.813,1.00773,-0.042718,2.92148e-08,0.124602,
0.813,1.00577,-0.0336691,7.2315e-10,0.142358,
0.813,1.01278,-0.0258685,1.02122e-09,0.162626,
0.813,1.0066,-0.0230303,1.7185e-09,0.185823,
0.813,1.00555,-0.0208293,-5.08513e-10,0.212297,
0.813,1.00779,-0.0243034,-1.97084e-09,0.242651,
0.813,1.01259,-0.0304437,-3.25613e-09,0.277301,
0.813,1.0192,-0.0385926,-3.75542e-09,0.316941,
0.813,1.02335,-0.049332,-4.45044e-09,0.36227,
0.813,1.02855,-0.0593537,-4.85172e-09,0.41413,
0.813,1.03348,-0.0681059,-3.74282e-09,0.473389,
0.813,1.03678,-0.0743564,-1.85031e-09,0.54123,
0.813,1.03791,-0.0765133,-8.9073e-11,0.618788,
0.813,1.03724,-0.0746707,8.27655e-10,0.707593,
0.813,1.03514,-0.0704515,1.48541e-09,0.809092,
0.813,1.03177,-0.0633413,1.7808e-09,0.925335,
0.813,1.02763,-0.0550597,1.76064e-09,1.05821,
0.813,1.02321,-0.046116,1.56877e-09,1.21017,
0.813,1.01885,-0.0374431,1.29519e-09,1.38391,
0.813,1.01488,-0.0294815,1.01195e-09,1.58247,
0.813,1.01138,-0.0225081,7.58354e-10,1.81009,
0.813,1.00843,-0.0166337,5.5198e-10,2.07007,
0.813,1.00599,-0.0118085,3.89091e-10,2.36772,
0.813,1.004,-0.0078714,2.78727e-10,2.70818,
0.813,1.00229,-0.0045341,2.01018e-10,3.09651,
0.813,1.00102,-0.00202758,1.61364e-10,3.54123,

0.938,0,0.0189034,0,1e-16,
0.938,-0.00646384,0.0188992,3.25322e-09,2.32316e-05,
0.938,-0.0126444,0.0188947,9.356e-08,4.68694e-05,
0.938,-0.0185994,0.0188895,9.11959e-07,7.13267e-05,
0.938,-0.024257,0.0188841,4.54223e-06,9.70313e-05,
0.938,-0.0292866,0.0188788,1.38473e-05,0.000124433,
0.938,-0.0331899,0.0188743,2.71721e-05,0.000154011,
0.938,-0.0358181,0.0188694,3.68658e-05,0.000186283,
0.938,-0.0374551,0.0188635,3.86134e-05,0.000221814,
0.938,-0.0384353,0.0188554,3.35529e-05,0.000261227,
0.938,-0.0389905,0.0188495,2.39203e-05,0.000305212,
0.938,-0.0392575,0.0188276,1.07974e-05,0.000354541,
0.938,-0.0393092,0.018867,-5.37874e-06,0.000410078,
0.938,-0.0391901,0.0188134,-2.43158e-05,0.000472798,
0.938,-0.0389233,0.0188117,-4.64392e-05,0.000543802,
0.938,-0.0385194,0.0188,-7.19233e-05,0.000624336,
0.938,-0.0379837,0.0187881,-0.000101116,0.000715816,
0.938,-0.0373143,0.0187738,-0.000134675,0.000819848,
0.938,-0.0365061,0.0187579,-0.000173128,0.000938261,
0.938,-0.0355504,0.0187402,-0.000217197,0.00107314,
0.938,-0.0344355,0.0187205,-0.000267696,0.00122685,
0.938,-0.0331464,0.0186984,-0.000325561,0.00140211,
0.938,-0.0316651,0.018674,-0.000391866,0.00160199,
0.938,-0.0299701,0.0186467,-0.000467862,0.00183001,
0.938,-0.0280356,0.0186164,-0.000554973,0.0020902,
0.938,-0.0258313,0.0185823,-0.000654828,0.00238713,
0.938,-0.0233214,0.0185445,-0.000769307,0.00272605,
0.938,-0.0204635,0.0185022,-0.000900576,0.00311293,
0.938,-0.017207,0.0184549,-0.0010511,0.00355458,
0.938,-0.0134916,0.0184019,-0.00122369,0.00405882,
0.938,-0.0092451,0.0183426,-0.00142155,0.00463453,
0.938,-0.00438096,0.0182761,-0.0016484,0.00529188,
0.938,0.00120386,0.0182015,-0.00190837,0.00604249,
0.938,0.00763089,0.0181182,-0.00220737,0.00689961,
0.938,0.0150462,0.0180258,-0.00255096,0.0078784,
0.938,0.0236345,0.0179239,-0.00294457,0.00899617,
0.938,0.0336306,0.0178128,-0.00339435,0.0102727,
0.938,0.0453269,0.0176962,-0.00390751,0.0117305,
0.938,0.0590974,0.0175757,-0.00449233,0.0133955,
0.938,0.0754176,0.0174584,-0.00515779,0.0152971,
0.938,0.0948984,0.0173451,-0.00591094,0.017469,
0.938,0.118306,0.0171395,-0.00688351,0.0199391,
0.938,0.147581,0.0170105,-0.00802718,0.0225116,
0.938,0.188156,0.0171964,-0.00884535,0.0255164,
0.938,0.249591,0.0176233,-0.00966156,0.0290096,
0.938,0.344594,0.0186742,-0.00994325,0.0330545,
0.938,0.484571,0.0212052,-0.00878881,0.0377237,
0.938,0.653311,0.0218738,-0.00644922,0.0426984,
0.938,0.793944,0.0195902,-0.00416639,0.0484919,
0.938,0.879371,0.0175688,-0.00208769,0.0552419,
0.938,0.92871,0.0166355,-0.000836865,0.0630705,
0.938,0.964923,0.0184684,-0.000329064,0.0721179,
0.938,0.985356,0.0187324,-7.4918e-05,0.0822909,
0.938,0.989238,0.0146075,-5.32315e-06,0.0938338,
0.938,0.987688,0.0134369,1.35636e-06,0.107215,
0.938,0.983511,0.0119903,4.23318e-07,0.122488,
0.938,0.981465,0.0116384,-1.14044e-07,0.139919,
0.938,0.986043,0.0107677,-6.59933e-08,0.160003,
0.938,0.990586,0.00884183,-1.02734e-08,0.18281,
0.938,0.991866,0.00667132,-1.83584e-09,0.208986,
0.938,0.993051,0.0046163,-1.206e-09,0.239003,
0.938,0.995421,0.00218248,-1.58303e-09,0.273269,
0.938,0.999808,-0.000641328,-1.6925e-09,0.312507,
0.938,1.00207,-0.00503723,-1.62931e-09,0.357468,
0.938,1.00406,-0.00943914,-2.09807e-09,0.408929,
0.938,1.00684,-0.0141884,-2.37716e-09,0.467901,
0.938,1.00959,-0.0193984,-2.11111e-09,0.535368,
0.938,1.01195,-0.024176,-1.63468e-09,0.612662,
0.938,1.01403,-0.0280889,-1.14614e-09,0.701152,
0.938,1.01554,-0.0309175,-5.33977e-10,0.802634,
0.938,1.01605,-0.0319115,-2.89204e-11,0.91874,
0.938,1.01571,-0.0311741,2.66523e-10,1.05163,
0.938,1.01466,-0.0290464,4.75017e-10,1.20403,
0.938,1.01304,-0.025792,5.52939e-10,1.37848,
0.938,1.01111,-0.0219416,5.38873e-10,1.57802,
0.938,1.00905,-0.0178348,4.7463e-10,1.80652,
0.938,1.00707,-0.0138972,3.88313e-10,2.06844,
0.938,1.00526,-0.0103408,3.02362e-10,2.3677,
0.938,1.00372,-0.00731341,2.31856e-10,2.7102,
0.938,1.0023,-0.0045501,1.62132e-10,3.1022,
0.938,1.00122,-0.00246457,1.23087e-10,3.55094,

1,0,0.0569968,0,1e-16,
1,-0.012524,0.0569941,7.84127e-09,2.32217e-05,
1,-0.0245975,0.0569898,2.61085e-07,4.685e-05,
1,-0.0363165,0.0569851,2.52071e-06,7.12984e-05,
1,-0.0474882,0.0569798,1.20979e-05,9.6995e-05,
1,-0.0573958,0.0569747,3.48637e-05,0.00012439,
1,-0.065136,0.0569695,6.5527e-05,0.000153963,
1,-0.0705245,0.0569637,8.91609e-05,0.000186233,
1,-0.0741001,0.0569569,9.91167e-05,0.000221764,
1,-0.0764746,0.056949,9.80156e-05,0.000261182,
1,-0.0780729,0.0569402,8.9791e-05,0.000305176,
1,-0.0791502,0.0569305,7.68439e-05,0.000354519,
1,-0.0798566,0.0569193,6.03179e-05,0.000410078,
1,-0.0802809,0.0569086,4.08554e-05,0.000472828,
1,-0.0804794,0.0568889,1.84957e-05,0.000543873,
1,-0.0804832,0.0569131,-6.91358e-06,0.000624461,
1,-0.0803127,0.0568608,-3.54089e-05,0.000716009,
1,-0.0799785,0.0568525,-6.75177e-05,0.000820128,
1,-0.0794839,0.0568351,-0.000103628,0.000938651,
1,-0.0788279,0.0568165,-0.000144376,0.00107366,
1,-0.0780039,0.056795,-0.000190566,0.00122754,
1,-0.0770022,0.056771,-0.000242953,0.001403,
1,-0.0758091,0.0567443,-0.000302465,0.00160314,
1,-0.0744076,0.0567147,-0.000370141,0.00183147,
1,-0.0727769,0.056682,-0.000447153,0.00209203,
1,-0.0708919,0.0566458,-0.000534835,0.00238941,
1,-0.068723,0.056606,-0.000634708,0.00272886,
1,-0.0662356,0.0565625,-0.000748479,0.00311639,
1,-0.0633884,0.0565148,-0.000878069,0.00355882,
1,-0.0601333,0.0564632,-0.00102565,0.00406398,
1,-0.0564132,0.0564076,-0.00119365,0.00464079,
1,-0.0521602,0.0563484,-0.00138479,0.00529946,
1,-0.0472939,0.0562855,-0.00160211,0.00605162,
1,-0.0417175,0.0562206,-0.001849,0.0069106,
1,-0.0353141,0.0561545,-0.00212924,0.00789159,
1,-0.0279415,0.0560895,-0.00244697,0.00901195,
1,-0.0194262,0.0560276,-0.00280664,0.0102915,
1,-0.00955597,0.0559734,-0.00321296,0.011753,
1,0.00192251,0.0559315,-0.00367386,0.0134223,
1,0.015306,0.0558962,-0.00419818,0.0153289,
1,0.0309826,0.0558872,-0.00482238,0.0175068,
1,0.0496115,0.0558626,-0.00552058,0.0199945,
1,0.0723286,0.0556513,-0.00627138,0.0228361,
1,0.100816,0.0551035,-0.00695502,0.0260822,
1,0.137531,0.0542027,-0.00774784,0.0297904,
1,0.186781,0.0534535,-0.00867486,0.0340265,
1,0.257363,0.0533903,-0.00956238,0.0388658,
1,0.363734,0.0541116,-0.00978027,0.0443714,
1,0.512147,0.0570766,-0.00841512,0.050306,
1,0.676372,0.0591543,-0.00591476,0.0567779,
1,0.80703,0.0583574,-0.00373526,0.0643629,
1,0.892206,0.0563012,-0.0016819,0.073201,
1,0.943456,0.0592396,-0.000518636,0.0834523,
1,0.965073,0.0558584,-9.57327e-05,0.0952491,
1,0.969105,0.0531925,-7.86861e-06,0.108351,
1,0.967804,0.0506329,3.32469e-07,0.123411,
1,0.964576,0.04808,-3.21071e-07,0.140887,
1,0.966563,0.0454972,-3.51272e-07,0.160913,
1,0.972282,0.0418024,-9.61241e-08,0.183368,
1,0.976285,0.0376344,-1.70804e-08,0.209311,
1,0.978799,0.0332918,-4.35106e-09,0.239097,
1,0.981904,0.0286323,-2.6251e-09,0.273067,
1,0.987276,0.0234003,-2.35231e-09,0.312052,
1,0.990908,0.0175659,-2.13399e-09,0.356741,
1,0.993686,0.0118512,-2.44038e-09,0.407906,
1,0.996947,0.00572598,-2.72895e-09,0.466542,
1,1.00025,-0.000496014,-2.51612e-09,0.53384,
1,1.00319,-0.0064538,-2.0732e-09,0.610826,
1,1.00594,-0.0118524,-1.58481e-09,0.699112,
1,1.00823,-0.0162658,-1.0775e-09,0.800294,
1,1.00986,-0.0194766,-6.03953e-10,0.916281,
1,1.01073,-0.0211439,-1.77515e-10,1.04923,
1,1.01078,-0.0212281,6.95999e-11,1.2016,
1,1.01018,-0.0200783,2.53234e-10,1.37615,
1,1.00913,-0.0179764,3.26403e-10,1.57647,
1,1.00775,-0.0152496,3.34063e-10,1.80575,
1,1.00732,-0.0143958,3.24182e-10,1.88256,
1,1.00628,-0.0123303,3.00025e-10,2.0677,
1,1.00481,-0.00942442,2.47715e-10,2.36835,
1,1.0035,-0.00687857,1.93875e-10,2.71278,
1,1.00227,-0.00451383,1.42842e-10,3.10614,
1,1.00131,-0.00264948,1.10787e-10,3.55725,

1.125,0,0.166611,0,1e-16,
1.125,0.0103833,0.166607,-3.69775e-08,2.2977e-05,
1.125,0.0212927,0.166608,-1.41061e-06,4.63572e-05,
1.125,0.0325759,0.166608,-1.36199e-05,7.05508e-05,
1.125,0.0430229,0.166607,-5.55478e-05,9.59823e-05,
1.125,0.0510158,0.166606,-0.00011821,0.000123098,
1.125,0.0565361,0.166603,-0.000169248,0.000152375,
1.125,0.0604413,0.166598,-0.000203497,0.000184326,
1.125,0.0634004,0.166591,-0.000228883,0.000219514,
1.125,0.0657969,0.166582,-0.000250877,0.000258557,
1.125,0.0678456,0.166571,-0.000272212,0.000302141,
1.125,0.0696727,0.166557,-0.000294357,0.000351033,
1.125,0.0713573,0.16654,-0.000318252,0.000406094,
1.125,0.0729528,0.166519,-0.000344625,0.000468293,
1.125,0.074497,0.166494,-0.00037413,0.000538726,
1.125,0.0760191,0.166464,-0.000407421,0.000618634,
1.125,0.0775426,0.166429,-0.000445187,0.000709426,
1.125,0.079088,0.166387,-0.000488183,0.000812702,
1.125,0.0806736,0.166336,-0.000537249,0.000930284,
1.125,0.0823173,0.166277,-0.000593331,0.00106425,
1.125,0.0840366,0.166207,-0.000657505,0.00121696,
1.125,0.0858496,0.166124,-0.000730991,0.00139111,
1.125,0.0877757,0.166026,-0.000815181,0.00158979,
1.125,0.0898356,0.165911,-0.000911666,0.00181649,
1.125,0.0920525,0.165776,-0.00102226,0.00207523,
1.125,0.0944521,0.165619,-0.00114905,0.00237059,
1.125,0.0970637,0.165436,-0.00129439,0.00270779,
1.125,0.0999209,0.165222,-0.00146101,0.0030928,
1.125,0.103063,0.164976,-0.00165198,0.00353243,
1.125,0.106535,0.164693,-0.00187082,0.00403447,
1.125,0.110392,0.164368,-0.00212151,0.00460781,
1.125,0.114698,0.163999,-0.00240854,0.00526262,
1.125,0.11953,0.163582,-0.00273699,0.00601049,
1.125,0.124985,0.163113,-0.00311251,0.00686471,
1.125,0.131176,0.162592,-0.00354131,0.00784041,
1.125,0.138249,0.162019,-0.00403015,0.00895492,
1.125,0.146382,0.161394,-0.00458615,0.010228,
1.125,0.155801,0.160721,-0.00521657,0.0116823,
1.125,0.166792,0.160005,-0.00592826,0.0133436,
1.125,0.179721,0.159259,-0.00672727,0.0152415,
1.125,0.195057,0.158487,-0.00763256,0.0174097,
1.125,0.213474,0.157966,-0.00900475,0.0198867,
1.125,0.237666,0.158147,-0.00974832,0.0227167,
1.125,0.27254,0.158614,-0.0102524,0.0259499,
1.125,0.321688,0.158694,-0.0106582,0.029644,
1.125,0.38623,0.158316,-0.0106578,0.0338647,
1.125,0.466628,0.157624,-0.00997582,0.0386871,
1.125,0.561177,0.156545,-0.00851505,0.0441974,
1.125,0.662055,0.154861,-0.00654,0.0504935,
1.125,0.755952,0.152546,-0.00454295,0.0576879,
1.125,0.832496,0.148848,-0.00254064,0.0659089,
1.125,0.887311,0.145315,-0.000964442,0.0753032,
1.125,0.918733,0.14026,-0.000257652,0.0860384,
1.125,0.929654,0.134007,-4.69221e-05,0.0983063,
1.125,0.931689,0.127267,-8.75194e-06,0.112326,
1.125,0.932066,0.120348,-2.54344e-06,0.128348,
1.125,0.932608,0.113082,-1.27217e-06,0.146659,
1.125,0.938799,0.10522,-4.95091e-07,0.167586,
1.125,0.946069,0.0972672,-1.18641e-07,0.191503,
1.125,0.951537,0.0888812,-2.50257e-08,0.218838,
1.125,0.956041,0.0802767,-7.20762e-09,0.250082,
1.125,0.961597,0.0712579,-4.02376e-09,0.285792,
1.125,0.968567,0.0622968,-3.33879e-09,0.32661,
1.125,0.973565,0.0533258,-3.16773e-09,0.373265,
1.125,0.97782,0.0442034,-3.50419e-09,0.426595,
1.125,0.982391,0.0354064,-3.65794e-09,0.487555,
1.125,0.986775,0.0269672,-3.29245e-09,0.55724,
1.125,0.9907,0.0187919,-2.7259e-09,0.636898,
1.125,0.994421,0.0115447,-2.16964e-09,0.72796,
1.125,0.997744,0.00480409,-1.63687e-09,0.82855,
1.125,1.00053,-0.000707197,-1.15798e-09,0.94298,
1.125,1.00153,-0.0027157,-9.71139e-10,1.00315,
1.125,1.00272,-0.0050967,-7.49432e-10,1.07453,
1.125,1.00425,-0.00815183,-4.20354e-10,1.22528,
1.125,1.00511,-0.00994686,-1.60295e-10,1.39832,
1.125,1.00536,-0.010426,3.53789e-12,1.59646,
1.125,1.0051,-0.00994603,9.23597e-11,1.82431,
1.125,1.00455,-0.00885956,1.3406e-10,2.08526,
1.125,1.00378,-0.00736612,1.38457e-10,2.38489,
1.125,1.00297,-0.00580425,1.23112e-10,2.72763,
1.125,1.00213,-0.00421587,9.99135e-11,3.12069,
1.125,1.00146,-0.00295137,7.9257e-11,3.57128,

1.25,0,0.184891,0,1e-16,
1.25,0.0392592,0.184888,-1.72106e-07,2.27149e-05,
1.25,0.078934,0.184889,-6.16526e-06,4.58292e-05,
1.25,0.11829,0.184888,-5.25336e-05,6.97496e-05,
1.25,0.153689,0.184888,-0.000181033,9.48968e-05,
1.25,0.181464,0.184888,-0.000342274,0.000121713,
1.25,0.201736,0.184886,-0.000468241,0.000150671,
1.25,0.216526,0.184884,-0.000551108,0.00018228,
1.25,0.227659,0.18488,-0.000604804,0.000217097,
1.25,0.236372,0.184875,-0.000641432,0.000255735,
1.25,0.243451,0.184868,-0.000668664,0.000298876,
1.25,0.249396,0.18486,-0.000691038,0.00034728,
1.25,0.254529,0.184849,-0.000711281,0.000401801,
1.25,0.25907,0.184836,-0.000731134,0.000463402,
1.25,0.263168,0.184819,-0.000751812,0.00053317,
1.25,0.266932,0.184799,-0.000774263,0.000612337,
1.25,0.270444,0.184775,-0.000799305,0.000702303,
1.25,0.273765,0.184746,-0.000827712,0.000804657,
1.25,0.276945,0.184711,-0.000860267,0.00092121,
1.25,0.280026,0.184669,-0.000897803,0.00105402,
1.25,0.283043,0.184619,-0.000941228,0.00120545,
1.25,0.286029,0.18456,-0.000991556,0.00137816,
1.25,0.289014,0.184489,-0.00104993,0.00157523,
1.25,0.292027,0.184406,-0.00111765,0.00180013,
1.25,0.295097,0.184308,-0.00119623,0.00205686,
1.25,0.298255,0.184193,-0.00128739,0.00234997,
1.25,0.301534,0.184058,-0.00139309,0.00268466,
1.25,0.304967,0.183901,-0.00151556,0.00306685,
1.25,0.308596,0.183718,-0.00165737,0.00350335,
1.25,0.312465,0.183507,-0.00182143,0.00400188,
1.25,0.316625,0.183264,-0.00201106,0.00457132,
1.25,0.321137,0.182985,-0.00222998,0.00522176,
1.25,0.326072,0.182668,-0.0024824,0.00596478,
1.25,0.331516,0.182309,-0.00277299,0.00681358,
1.25,0.337572,0.181906,-0.00310686,0.00778325,
1.25,0.344367,0.181457,-0.00348954,0.00889105,
1.25,0.352057,0.180961,-0.00392679,0.0101567,
1.25,0.360835,0.180417,-0.00442436,0.0116027,
1.25,0.370945,0.179826,-0.00498743,0.0132548,
1.25,0.382691,0.179187,-0.00562,0.0151425,
1.25,0.396461,0.178503,-0.00632814,0.0172993,
1.25,0.412766,0.17778,-0.00714236,0.0197638,
1.25,0.432489,0.177289,-0.00828409,0.0225799,
1.25,0.458689,0.177291,-0.00865904,0.0257978,
1.25,0.496042,0.177416,-0.00876107,0.0294749,
1.25,0.545888,0.177061,-0.0085765,0.0336769,
1.25,0.606256,0.17634,-0.00788037,0.0384787,
1.25,0.673504,0.175137,-0.00664986,0.0439663,
1.25,0.74214,0.173392,-0.00506174,0.0502376,
1.25,0.805286,0.170925,-0.00342658,0.0574048,
1.25,0.85859,0.167486,-0.00166447,0.0655959,
1.25,0.896924,0.163373,-0.000573492,0.0749575,
1.25,0.916124,0.158283,-0.000130425,0.0856571,
1.25,0.921965,0.152696,-2.18774e-05,0.0978863,
1.25,0.922361,0.146362,-4.85591e-06,0.111864,
1.25,0.922675,0.139783,-2.10164e-06,0.127841,
1.25,0.924791,0.132416,-1.08312e-06,0.146102,
1.25,0.93139,0.124707,-3.88405e-07,0.166976,
1.25,0.937998,0.116575,-9.38243e-08,0.190837,
1.25,0.943059,0.107867,-2.15994e-08,0.218113,
1.25,0.947691,0.0988362,-6.91296e-09,0.249292,
1.25,0.953552,0.0894428,-4.07089e-09,0.284935,
1.25,0.960461,0.0799413,-3.42143e-09,0.325682,
1.25,0.965459,0.0704056,-3.30112e-09,0.372264,
1.25,0.969885,0.060862,-3.69185e-09,0.425519,
1.25,0.974694,0.0513757,-3.86421e-09,0.486402,
1.25,0.979329,0.0422824,-3.49619e-09,0.55601,
1.25,0.983532,0.0334789,-2.93487e-09,0.635594,
1.25,0.98758,0.0253894,-2.38389e-09,0.726585,
1.25,0.991291,0.0178943,-1.86749e-09,0.83062,
1.25,0.994579,0.0112987,-1.40786e-09,0.949574,
1.25,0.997363,0.00566355,-1.01133e-09,1.08559,
1.25,0.999592,0.00118896,-6.7812e-10,1.24111,
1.25,1.00121,-0.002108,-4.14976e-10,1.41894,
1.25,1.00231,-0.00430669,-2.14836e-10,1.62229,
1.25,1.00285,-0.00544158,-7.21475e-11,1.84947,
1.25,1.00297,-0.00569616,9.31599e-12,2.10883,
1.25,1.00275,-0.00532026,4.76828e-11,2.40658,
1.25,1.00239,-0.00465772,6.18041e-11,2.74752,
1.25,1.00234,-0.00456127,6.13202e-11,2.79119,
1.25,1.00192,-0.0037875,5.73225e-11,3.13954,
1.25,1.00158,-0.00317939,3.56783e-11,3.5883,

1.375,0,0.148302,0,1e-16,
1.375,0.0533785,0.148301,-2.89981e-07,2.24527e-05,
1.375,0.107217,0.148301,-1.017e-05,4.53013e-05,
1.375,0.160325,0.148301,-8.09814e-05,6.89485e-05,
1.375,0.208126,0.148301,-0.00025303,9.38113e-05,
1.375,0.246988,0.148301,-0.000446401,0.000120328,
1.375,0.277423,0.148301,-0.000593169,0.000148967,
1.375,0.301438,0.1483,-0.00069477,0.000180234,
1.375,0.320747,0.148299,-0.000765084,0.00021468,
1.375,0.336575,0.148298,-0.000814773,0.000252914,
1.375,0.349781,0.148295,-0.00085083,0.000295611,
1.375,0.360979,0.148292,-0.000877911,0.000343527,
1.375,0.37062,0.148288,-0.000899198,0.000397509,
1.375,0.379036,0.148283,-0.000916951,0.000458511,
1.375,0.386481,0.148276,-0.000932837,0.000527614,
1.375,0.393149,0.148267,-0.000948139,0.00060604,
1.375,0.399192,0.148256,-0.000963891,0.00069518,
1.375,0.40473,0.148243,-0.000980977,0.000796613,
1.375,0.409861,0.148226,-0.00100019,0.000912136,
1.375,0.414662,0.148206,-0.0010223,0.0010438,
1.375,0.4192,0.148181,-0.00104809,0.00119393,
1.375,0.423533,0.148151,-0.00107836,0.00136521,
1.375,0.427709,0.148115,-0.00111401,0.00156067,
1.375,0.431773,0.148073,-0.00115601,0.00178377,
1.375,0.435767,0.148021,-0.00120545,0.00203849,
1.375,0.439731,0.147961,-0.00126356,0.00232935,
1.375,0.443702,0.147889,-0.00133174,0.00266152,
1.375,0.447721,0.147805,-0.00141158,0.00304091,
1.375,0.45183,0.147706,-0.00150488,0.00347427,
1.375,0.456071,0.14759,-0.00161367,0.0039693,
1.375,0.460494,0.147456,-0.00174027,0.00453483,
1.375,0.465154,0.147301,-0.00188727,0.00518091,
1.375,0.470112,0.147124,-0.00205757,0.00591907,
1.375,0.475442,0.14692,-0.00225437,0.00676245,
1.375,0.48123,0.14669,-0.00248116,0.0077261,
1.375,0.487578,0.14643,-0.00274166,0.00882719,
1.375,0.494612,0.146139,-0.00303968,0.0100854,
1.375,0.502482,0.145815,-0.00337893,0.0115231,
1.375,0.511377,0.145459,-0.00376266,0.013166,
1.375,0.521529,0.145068,-0.00419307,0.0150434,
1.375,0.533228,0.144642,-0.00467041,0.017189,
1.375,0.546834,0.144177,-0.00519196,0.0196409,
1.375,0.562799,0.143684,-0.00578297,0.0224431,
1.375,0.581889,0.143225,-0.0064568,0.0256456,
1.375,0.605972,0.142962,-0.00693737,0.0293058,
1.375,0.638403,0.142897,-0.00680208,0.0334891,
1.375,0.680899,0.142581,-0.00639222,0.0382704,
1.375,0.730619,0.141903,-0.00559774,0.0437353,
1.375,0.783123,0.140761,-0.00444659,0.0499817,
1.375,0.834251,0.139737,-0.00302266,0.0571216,
1.375,0.880366,0.137731,-0.00151275,0.0652828,
1.375,0.914056,0.135239,-0.000489118,0.0746118,
1.375,0.929893,0.132155,-9.2289e-05,0.0852759,
1.375,0.933898,0.128832,-1.07642e-05,0.0974663,
1.375,0.933304,0.125036,-1.51807e-06,0.111402,
1.375,0.932601,0.120883,-9.80286e-07,0.127333,
1.375,0.934119,0.116213,-6.78387e-07,0.145546,
1.375,0.939606,0.111135,-2.48678e-07,0.166367,
1.375,0.944331,0.105632,-5.86746e-08,0.190171,
1.375,0.947887,0.0995617,-1.41612e-08,0.217387,
1.375,0.95131,0.0930037,-5.00284e-09,0.248502,
1.375,0.956093,0.0860391,-3.1658e-09,0.284078,
1.375,0.961622,0.0787424,-2.70005e-09,0.324754,
1.375,0.96547,0.0710171,-2.6604e-09,0.371263,
1.375,0.969108,0.0631209,-3.05165e-09,0.424442,
1.375,0.973047,0.0551585,-3.29544e-09,0.485249,
1.375,0.97713,0.0470051,-3.06687e-09,0.554781,
1.375,0.980798,0.0392408,-2.63725e-09,0.634289,
1.375,0.984526,0.0316517,-2.21639e-09,0.725209,
1.375,0.988027,0.0245738,-1.79218e-09,0.82918,
1.375,0.991249,0.0180314,-1.40912e-09,0.948077,
1.375,0.99411,0.0122716,-1.06919e-09,1.08405,
1.375,0.996556,0.00729628,-7.74464e-10,1.23955,
1.375,0.998516,0.00330099,-5.29947e-10,1.41738,
1.375,1.00002,0.000263686,-3.34585e-10,1.62076,
1.375,1.00104,-0.00181549,-1.85683e-10,1.85337,
1.375,1.00163,-0.00303753,-8.25342e-11,2.1194,
1.375,1.00186,-0.00353998,-1.59835e-11,2.42367,
1.375,1.00185,-0.00357562,8.19405e-12,2.77091,
1.375,1.0017,-0.00335031,1.8584e-11,3.16112,
1.375,1.0016,-0.00321013,7.03424e-12,3.6087,

-3.19886,0,0.0211451,0,0,
-2.99627,0,0.00597385,0,0,
-2.80402,0,0.00433952,0,0,
-2.62157,0,0.00370488,0,0,
-2.44842,0,0.00369827,0,0,
-2.2841,0,0.00418631,0,0,
-2.12815,0,0.00471618,0,0,
-1.98016,0,0.00557951,0,0,
-1.83971,0,0.0065632,0,0,
-1.70643,0,0.0079132,0,0,
-1.57994,0,0.00930225,0,0,
-1.4599,0,0.0113219,0,0,
-1.34598,0,0.0135495,0,0,
-1.23786,0,0.0160952,0,0,
-1.13526,0,0.0193755,0,0,
-1.03789,0,0.0230298,0,0,
-0.945488,0,0.0277397,0,0,
-0.857795,0,0.0330151,0,0,
-0.774572,0,0.039859,0,0,
-0.695593,0,0.0475253,0,0,
-0.620641,0,0.0575814,0,0,
-0.54951,0,0.068861,0,0,
-0.482006,0,0.0838225,0,0,
-0.417943,0,0.100613,0,0,
-0.357147,0,0.123255,0,0,
-0.29945,0,0.148843,0,0,
-0.244696,0,0.183741,0,0,
-0.192732,0,0.218343,0,0,
-0.143419,0,0.269054,0,0,
-0.0966231,0,0.32146,0,0,
-0.0522148,0,0.343228,0,0,
-0.0100698,0,0.348072,0,0,
0.0299268,0,0.337609,0,0,
0.0678843,0,0.293668,0,0,
0.103908,0,0.239709,0,0,
0.138096,0,0.111475,0,0,
0.17054,0,-0.00128947,0,0,
0.20133,0,-0.0889515,0,0,
0.230551,0,-0.165588,0,0,
0.258281,0,-0.229077,0,0,
0.284598,0,-0.288027,0,0,
0.309574,0,-0.338297,0,0,
0.333275,0,-0.383573,0,0,
0.355769,0,-0.425168,0,0,
0.377115,0,-0.461624,0,0,
0.397374,0,-0.496445,0,0,
0.416599,0,-0.526793,0,0,
0.434844,0,-0.555694,0,0,
0.452159,0,-0.581262,0,0,
0.468591,0,-0.605532,0,0,
0.484186,0,-0.62726,0,0,
0.498985,0,-0.647807,0,0,
0.51303,0,-0.666568,0,0,
0.526358,0,-0.684174,0,0,
0.539007,0,-0.70012,0,0,
0.551012,0,-0.714952,0,0,
0.562404,0,-0.728996,0,0,
0.573215,0,-0.741802,0,0,
0.583475,0,-0.753994,0,0,
0.593212,0,-0.765157,0,0,
0.602453,0,-0.77582,0,0,
0.611222,0,-0.785296,0,0,
0.619544,0,-0.794316,0,0,
0.627442,0,-0.802793,0,0,
0.634938,0,-0.810386,0,0,
0.642051,0,-0.817322,0,0,
0.648801,0,-0.821782,0,0,
0.655207,0,-0.81999,0,0,
0.661287,0,-0.800349,0,0,
0.667057,0,-0.741034,0,0,
0.672532,0,-0.674835,0,0,
0.677729,0,-0.595569,0,0,
0.68266,0,-0.529921,0,0,
0.68734,0,-0.48063,0,0,
0.691781,0,-0.439427,0,0,
0.695996,0,-0.407993,0,0,
0.699996,0,-0.380549,0,0,
0.703996,0,-0.35776,0,0,
0.707996,0,-0.336263,0,0,
0.712135,0,-0.317949,0,0,
0.716416,0,-0.299411,0,0,
0.720846,0,-0.283943,0,0,
0.725429,0,-0.267812,0,0,
0.730171,0,-0.254236,0,0,
0.735076,0,-0.24024,0,0,
0.740151,0,-0.228012,0,0,
0.745402,0,-0.215617,0,0,
0.750835,0,-0.2043,0,0,
0.756455,0,-0.192849,0,0,
0.76227,0,-0.181474,0,0,
0.768286,0,-0.171833,0,0,
0.77451,0,-0.160545,0,0,
0.78095,0,-0.150245,0,0,
0.787612,0,-0.1398,0,0,
0.794505,0,-0.129421,0,0,
0.801636,0,-0.119158,0,0,
0.809014,0,-0.108798,0,0,
0.816647,0,-0.0986472,0,0,
0.824544,0,-0.0883471,0,0,
0.832715,0,-0.0783547,0,0,
0.841168,0,-0.0681646,0,0,
0.849914,0,-0.0583862,0,0,
0.858962,0,-0.0484074,0,0,
0.868323,0,-0.0389029,0,0,
0.878008,0,-0.0292741,0,0,
0.888028,0,-0.0201384,0,0,
0.898395,0,-0.0109656,0,0,
0.90912,0,-0.0022584,0,0,
0.920216,0,0.00636888,0,0,
0.931697,0,0.0144594,0,0,
0.943574,0,0.0228332,0,0,
0.955862,0,0.0286094,0,0,
0.968576,0,0.0368153,0,0,
0.981729,0,0.0412361,0,0,
0.995332,0,0.0528333,0,0,
1.00941,0,0.0653851,0,0,
1.02397,0,0.0855727,0,0,
1.03904,0,0.0961512,0,0,
1.05463,0,0.111854,0,0,
1.07076,0,0.126979,0,0,
1.08745,0,0.141349,0,0,
1.10471,0,0.154521,0,0,
1.12258,0,0.165348,0,0,
1.14106,0,0.174986,0,0,
1.16018,0,0.18134,0,0,
1.17996,0,0.186418,0,0,
1.20043,0,0.188202,0,0,
1.22161,0,0.188073,0,0,
1.24351,0,0.186323,0,0,
1.26618,0,0.18132,0,0,
1.28963,0,0.176008,0,0,
1.31389,0,0.168462,0,0,
1.33899,0,0.160771,0,0,
1.36496,0,0.151614,0,0,
1.39183,0,0.142754,0,0,
1.41962,0,0.133086,0,0,
1.44838,0,0.124014,0,0,
1.47813,0,0.114583,0,0,
1.50892,0,0.105933,0,0,
1.54076,0,0.097237,0,0,
1.57371,0,0.0893465,0,0,
1.6078,0,0.0816039,0,0,
1.64307,0,0.0746226,0,0,
1.67956,0,0.0678476,0,0,
1.71731,0,0.0617728,0,0,
1.75637,0,0.0559801,0,0,
1.79677,0,0.0508085,0,0,
1.83858,0,0.0458957,0,0,
1.88183,0,0.0415245,0,0,
1.92658,0,0.037424,0,0,
1.97288,0,0.0337361,0,0,
2.02078,0,0.0304605,0,0,
2.07033,0,0.0273276,0,0,
2.1216,0,0.0245851,0,0,
2.17465,0,0.022048,0,0,
2.22953,0,0.0197954,0,0,
2.2863,0,0.0177013,0,0,
2.34505,0,0.0158348,0,0,
2.40582,0,0.0141626,0,0,
2.4687,0,0.0126081,0,0,
2.53375,0,0.0112392,0,0,
2.60105,0,0.00997959,0,0,
2.67068,0,0.00886945,0,0,
2.74272,0,0.00783725,0,0,
2.81725,0,0.00692914,0,0,
2.89436,0,0.00608316,0,0,
2.97414,0,0.00533558,0,0,
3.05668,0,0.00464911,0,0,
3.14207,0,0.00406367,0,0,
3.23042,0,0.00350935,0,0,
3.32182,0,0.00305579,0,0,
3.41639,0,0.00263225,0,0,
3.51423,0,0.00222233,0,0,
3.61545,0,0.00186285,0,0,
3.72017,0,0.0015355,0,0,
3.82852,0,0.0012444,0,0,
3.94062,0,0.000962829,0,0,
4.05659,0,0.000723393,0,0,
4.17658,0,0.000479981,0,0,
4.30072,0,0.00025088,0,0,
4.42915,0,0.00151575,0,0,

