f88e8cabfcc6a91316c6782f4665fe78c3c1ee16 
X,x_velocity,cp,uw_b,wall_distance,
-0.25,0,0.179502,0,1e-16,
-0.25,0.0577895,0.179504,-6.02589e-07,2.59026e-05,
-0.25,0.116475,0.179504,-2.03709e-05,5.22493e-05,
-0.25,0.172646,0.179504,-0.00014155,7.94916e-05,
-0.25,0.219017,0.179504,-0.000374182,0.000108097,
-0.25,0.254366,0.179504,-0.000556712,0.000138555,
-0.25,0.282038,0.179504,-0.000671537,0.000171389,
-0.25,0.304701,0.179505,-0.000753089,0.000207163,
-0.25,0.324064,0.179506,-0.000810815,0.000246489,
-0.25,0.341312,0.179507,-0.000849826,0.000290044,
-0.25,0.35712,0.179508,-0.000884852,0.000338574,
-0.25,0.371857,0.179509,-0.000915234,0.000392915,
-0.25,0.385783,0.179511,-0.000942424,0.000454,
-0.25,0.399093,0.179513,-0.00096745,0.000522878,
-0.25,0.41193,0.179515,-0.000991033,0.000600734,
-0.25,0.424411,0.179518,-0.00101368,0.000688907,
-0.25,0.436624,0.179521,-0.00103575,0.000788915,
-0.25,0.448646,0.179524,-0.00105749,0.000902478,
-0.25,0.460536,0.179528,-0.00107905,0.00103155,
-0.25,0.47235,0.179532,-0.00110052,0.00117836,
-0.25,0.484131,0.179537,-0.00112192,0.00134543,
-0.25,0.495921,0.179542,-0.00114322,0.00153564,
-0.25,0.507756,0.179547,-0.00116434,0.00175227,
-0.25,0.519667,0.179553,-0.00118522,0.00199906,
-0.25,0.531685,0.179559,-0.00120575,0.00228026,
-0.25,0.543837,0.179565,-0.00122575,0.00260072,
-0.25,0.556149,0.179571,-0.00124501,0.00296597,
-0.25,0.568642,0.179576,-0.00126326,0.00338233,
-0.25,0.581337,0.179581,-0.00128026,0.00385697,
-0.25,0.594252,0.179583,-0.00129574,0.00439809,
-0.25,0.607399,0.179583,-0.00130943,0.00501505,
-0.25,0.620789,0.179579,-0.00132101,0.00571851,
-0.25,0.634419,0.17957,-0.00133013,0.00652062,
-0.25,0.648282,0.179555,-0.00133566,0.00743527,
-0.25,0.662361,0.179529,-0.00133683,0.00847826,
-0.25,0.67664,0.17949,-0.00133172,0.00966765,
-0.25,0.691122,0.179433,-0.00131888,0.011024,
-0.25,0.705819,0.179352,-0.0013004,0.0125709,
-0.25,0.720806,0.179238,-0.00127438,0.0143349,
-0.25,0.736258,0.179082,-0.00123902,0.0163469,
-0.25,0.752488,0.178871,-0.00118958,0.0186414,
-0.25,0.770019,0.178587,-0.00111834,0.0212585,
-0.25,0.789625,0.178217,-0.00101832,0.0242434,
-0.25,0.812133,0.177743,-0.000879911,0.0276478,
-0.25,0.837833,0.177156,-0.000697158,0.031531,
-0.25,0.864945,0.176385,-0.000492195,0.0359602,
-0.25,0.889652,0.175435,-0.000264837,0.0410123,
-0.25,0.906778,0.174148,-7.40429e-05,0.0467752,
-0.25,0.912664,0.172512,-9.89573e-06,0.0533488,
-0.25,0.914021,0.170807,-1.10166e-06,0.0608475,
-0.25,0.915027,0.168792,-1.86817e-07,0.0694016,
-0.25,0.916201,0.166441,-3.44931e-08,0.0791597,
-0.25,0.917576,0.163706,-1.10635e-08,0.0902917,
-0.25,0.919169,0.160533,-8.06714e-09,0.102991,
-0.25,0.921012,0.156872,-7.80594e-09,0.117479,
-0.25,0.923133,0.152659,-7.83631e-09,0.134008,
-0.25,0.925569,0.147839,-7.84955e-09,0.152865,
-0.25,0.928339,0.142339,-7.80591e-09,0.17438,
-0.25,0.931469,0.136139,-7.67492e-09,0.198926,
-0.25,0.934945,0.129227,-7.50012e-09,0.226933,
-0.25,0.93884,0.121529,-7.23953e-09,0.258887,
-0.25,0.943081,0.113122,-6.91051e-09,0.295348,
-0.25,0.947736,0.103915,-6.47121e-09,0.33695,
-0.25,0.952584,0.0943367,-5.95857e-09,0.384419,
-0.25,0.9577,0.0842441,-5.40212e-09,0.438586,
-0.25,0.962911,0.0739436,-4.74554e-09,0.500395,
-0.25,0.968057,0.0637242,-4.093e-09,0.570927,
-0.25,0.973165,0.0536726,-3.4837e-09,0.651415,
-0.25,0.97807,0.0441779,-2.89301e-09,0.743264,
-0.25,0.982588,0.0350954,-2.34006e-09,0.848083,
-0.25,0.986744,0.0268334,-1.8249e-09,0.967704,
-0.25,0.990339,0.0196205,-1.37375e-09,1.10422,
-0.25,0.993408,0.0135354,-9.92519e-10,1.26002,
-0.25,0.995853,0.00858428,-6.82278e-10,1.43784,
-0.25,0.99775,0.0048078,-4.39079e-10,1.64079,
-0.25,0.999061,0.00212699,-2.56065e-10,1.86641,
-0.25,0.999895,0.000434235,-1.28751e-10,2.12427,
-0.25,1.0003,-0.000437288,-4.29257e-11,2.41998,
-0.25,1.00032,-0.00047056,-3.69398e-11,2.46413,
-0.25,1.00041,-0.00068923,2.84821e-12,2.75802,
-0.25,1.00027,-0.000490513,2.97674e-11,3.14513,
-0.25,0.999998,6.09351e-06,3.33599e-11,3.58873,

0.688,0,-0.612809,0,1e-16,
0.688,0.0208444,-0.612806,-2.21428e-07,2.33816e-05,
0.688,0.0531021,-0.612864,-1.09015e-05,4.71702e-05,
0.688,0.0958473,-0.612906,-0.000120646,7.17799e-05,
0.688,0.142736,-0.612961,-0.000495028,9.76391e-05,
0.688,0.185643,-0.613013,-0.00104125,0.000125198,
0.688,0.222596,-0.613054,-0.00155762,0.000154937,
0.688,0.25509,-0.613085,-0.00200926,0.000187374,
0.688,0.284795,-0.613111,-0.00241906,0.000223074,
0.688,0.312906,-0.613134,-0.00280595,0.00026266,
0.688,0.340226,-0.613154,-0.00318023,0.000306822,
0.688,0.367281,-0.613171,-0.0035502,0.000356332,
0.688,0.39445,-0.613186,-0.00393221,0.000412053,
0.688,0.422436,-0.613203,-0.00423704,0.000474959,
0.688,0.451929,-0.613228,-0.0045226,0.000546147,
0.688,0.483214,-0.613258,-0.00478595,0.000626864,
0.688,0.516408,-0.6133,-0.00500623,0.000718519,
0.688,0.551497,-0.61336,-0.00518539,0.000822716,
0.688,0.588302,-0.61345,-0.00531204,0.000941278,
0.688,0.626582,-0.61358,-0.00537424,0.00107628,
0.688,0.666131,-0.613776,-0.00536572,0.00123008,
0.688,0.706653,-0.614059,-0.00528534,0.00140539,
0.688,0.747757,-0.614459,-0.00513707,0.00160526,
0.688,0.789022,-0.615014,-0.00492859,0.0018332,
0.688,0.830059,-0.615766,-0.00467022,0.00209321,
0.688,0.870558,-0.616762,-0.0043748,0.00238985,
0.688,0.91035,-0.618062,-0.0040553,0.00272832,
0.688,0.949397,-0.619733,-0.00372176,0.00311456,
0.688,0.987741,-0.621865,-0.00337848,0.00355536,
0.688,1.02545,-0.624579,-0.00302069,0.00405845,
0.688,1.06245,-0.628024,-0.00265303,0.00463268,
0.688,1.09817,-0.632402,-0.00230341,0.00528813,
0.688,1.1313,-0.637948,-0.00200872,0.00603632,
0.688,1.1603,-0.644918,-0.00181141,0.00689042,
0.688,1.18451,-0.653676,-0.00174141,0.00786545,
0.688,1.20508,-0.664452,-0.0017447,0.00897856,
0.688,1.2238,-0.677587,-0.00181097,0.0102494,
0.688,1.24191,-0.693257,-0.00195117,0.0117002,
0.688,1.26028,-0.711228,-0.00207561,0.0133567,
0.688,1.27915,-0.731032,-0.0021097,0.015248,
0.688,1.29865,-0.751192,-0.00198316,0.0174016,
0.688,1.31676,-0.769782,-0.00167938,0.0197947,
0.688,1.33279,-0.784868,-0.00126684,0.0225411,
0.688,1.34621,-0.794641,-0.00084715,0.0256954,
0.688,1.3578,-0.798958,-0.000523165,0.0293134,
0.688,1.36804,-0.799347,-0.000272176,0.0334589,
0.688,1.37602,-0.796611,-0.000116916,0.0382051,
0.688,1.38244,-0.790764,-1.35492e-06,0.0436361,
0.688,1.38347,-0.781381,4.58426e-05,0.0498477,
0.688,1.38045,-0.769137,3.69374e-05,0.0569175,
0.688,1.3743,-0.755333,1.55797e-05,0.0649586,
0.688,1.36667,-0.740161,4.42707e-06,0.074169,
0.688,1.35841,-0.723605,1.07278e-06,0.0847119,
0.688,1.3493,-0.705319,2.62778e-07,0.0967654,
0.688,1.33933,-0.685135,8.71437e-08,0.110475,
0.688,1.32841,-0.662877,5.17796e-08,0.126175,
0.688,1.31631,-0.638592,4.39847e-08,0.144131,
0.688,1.30304,-0.612159,4.05329e-08,0.164669,
0.688,1.28876,-0.583393,3.75694e-08,0.188038,
0.688,1.27343,-0.552522,3.4801e-08,0.214753,
0.688,1.25699,-0.519591,3.20989e-08,0.245311,
0.688,1.23948,-0.484245,2.94623e-08,0.280275,
0.688,1.22086,-0.446403,2.7127e-08,0.320142,
0.688,1.20096,-0.405944,2.53708e-08,0.365789,
0.688,1.17944,-0.362287,2.39953e-08,0.417836,
0.688,1.15603,-0.314863,2.28051e-08,0.477372,
0.688,1.13066,-0.263562,2.09138e-08,0.545486,
0.688,1.10494,-0.211005,1.72215e-08,0.623218,
0.688,1.08222,-0.165311,1.23077e-08,0.712106,
0.688,1.0647,-0.129525,8.2692e-09,0.813782,
0.688,1.05102,-0.102046,5.74214e-09,0.930041,
0.688,1.03994,-0.0797465,4.07864e-09,1.06261,
0.688,1.03091,-0.0615438,2.90426e-09,1.21441,
0.688,1.02356,-0.0468721,2.04849e-09,1.38796,
0.688,1.01768,-0.0350694,1.42955e-09,1.58636,
0.688,1.01299,-0.0257161,9.8691e-10,1.81256,
0.688,1.00931,-0.0183777,6.77721e-10,2.0716,
0.688,1.00641,-0.0126679,4.6932e-10,2.36771,
0.688,1.00411,-0.00807727,3.28737e-10,2.70619,
0.688,1.00224,-0.00437091,2.34911e-10,3.09309,
0.688,1.00074,-0.0014247,1.72874e-10,3.53533,

0.813,0,-0.094923,0,1e-16,
0.813,-0.00169588,-0.0949296,1.80804e-09,2.32716e-05,
0.813,-0.00244722,-0.0949367,1.24905e-08,4.69491e-05,
0.813,-0.00220791,-0.0949452,-3.74236e-07,7.14457e-05,
0.813,-0.000939816,-0.0949532,-4.3171e-06,9.71887e-05,
0.813,0.00109274,-0.0949625,-1.88255e-05,0.000124627,
0.813,0.00332695,-0.094973,-4.52909e-05,0.000154241,
0.813,0.00542626,-0.0949846,-7.70726e-05,0.000186546,
0.813,0.00735181,-0.0949968,-0.000110532,0.000222108,
0.813,0.00915911,-0.0950101,-0.000145782,0.000261547,
0.813,0.0109081,-0.0950247,-0.000183749,0.000305554,
0.813,0.0126465,-0.0950411,-0.00022529,0.000354897,
0.813,0.0144112,-0.0950592,-0.000271275,0.000410441,
0.813,0.0162339,-0.0950795,-0.000322666,0.000473157,
0.813,0.0181427,-0.0951022,-0.000380449,0.000544144,
0.813,0.0201643,-0.0951278,-0.000445701,0.000624646,
0.813,0.0223255,-0.0951563,-0.00051961,0.000716071,
0.813,0.0246539,-0.0951885,-0.000603504,0.000820025,
0.813,0.0271796,-0.0952247,-0.000698895,0.000938328,
0.813,0.0299355,-0.0952652,-0.000807502,0.00107306,
0.813,0.0329585,-0.0953105,-0.000931276,0.00122658,
0.813,0.0362909,-0.0953614,-0.00107245,0.00140158,
0.813,0.0399814,-0.0954181,-0.00123356,0.00160114,
0.813,0.0440868,-0.0954813,-0.00141753,0.00182877,
0.813,0.0486743,-0.0955512,-0.00162764,0.00208846,
0.813,0.0538232,-0.0956285,-0.00186761,0.00238478,
0.813,0.0596285,-0.0957133,-0.00214171,0.00272294,
0.813,0.0662051,-0.0958057,-0.00245477,0.00310889,
0.813,0.0736923,-0.0959056,-0.00281216,0.00354942,
0.813,0.0822605,-0.0960122,-0.0032199,0.00405228,
0.813,0.0921193,-0.0961245,-0.00368451,0.00462634,
0.813,0.103527,-0.0962401,-0.00421295,0.00528169,
0.813,0.116806,-0.096357,-0.00481253,0.0060299,
0.813,0.132352,-0.0964684,-0.00548831,0.00688414,
0.813,0.150648,-0.0966192,-0.00629746,0.00785949,
0.813,0.172627,-0.0967457,-0.00742883,0.00897314,
0.813,0.20164,-0.0967077,-0.00811251,0.0102448,
0.813,0.243436,-0.096552,-0.00888761,0.0116968,
0.813,0.303903,-0.096331,-0.00957656,0.0133548,
0.813,0.389647,-0.0957647,-0.00975936,0.0152482,
0.813,0.506552,-0.0945138,-0.00880988,0.0173973,
0.813,0.647338,-0.0927064,-0.00664491,0.0197681,
0.813,0.775768,-0.0922591,-0.00425764,0.0225011,
0.813,0.859311,-0.0916804,-0.00254472,0.0256452,
0.813,0.905614,-0.0900114,-0.00123836,0.0292561,
0.813,0.933015,-0.0870363,-0.000651753,0.033398,
0.813,0.953465,-0.0839791,-0.000461159,0.0379504,
0.813,0.972715,-0.0800604,-0.000375833,0.0431839,
0.813,0.992737,-0.0753574,-0.000274555,0.0492266,
0.813,1.01197,-0.0693984,-0.000131981,0.0561862,
0.813,1.02451,-0.0624557,-2.05501e-05,0.0641865,
0.813,1.02639,-0.0568749,1.39467e-05,0.0732535,
0.813,1.01755,-0.0485743,7.61179e-06,0.0836093,
0.813,1.00672,-0.0397024,1.3104e-06,0.0955186,
0.813,1.00475,-0.0292406,2.48786e-07,0.10911,
0.813,0.995329,-0.0202991,5.1301e-08,0.124602,
0.813,0.992281,-0.0103176,1.41354e-09,0.142358,
0.813,1.00049,-0.000875832,-7.54594e-11,0.162626,
0.813,0.998682,0.00069116,1.66687e-09,0.185823,
0.813,0.992801,-0.000479699,-5.06087e-10,0.212297,
0.813,0.997916,-0.00471934,-3.61738e-09,0.242651,
0.813,1.00593,-0.0153866,-4.8691e-09,0.277301,
0.813,1.01363,-0.0280582,-5.29908e-09,0.316941,
0.813,1.0194,-0.0428019,-6.66466e-09,0.36227,
0.813,1.02696,-0.0559359,-6.47654e-09,0.41413,
0.813,1.03293,-0.0672839,-4.67568e-09,0.473389,
0.813,1.03692,-0.0749916,-2.28377e-09,0.54123,
0.813,1.03843,-0.0774374,-1.6919e-10,0.618788,
0.813,1.03772,-0.0759285,8.40699e-10,0.707593,
0.813,1.0356,-0.0711666,1.52798e-09,0.809092,
0.813,1.03209,-0.0641479,1.84098e-09,0.925335,
0.813,1.02785,-0.0554768,1.80307e-09,1.05821,
0.813,1.0233,-0.0463586,1.59982e-09,1.21017,
0.813,1.01889,-0.0375412,1.30633e-09,1.38391,
0.813,1.01489,-0.0295028,1.01797e-09,1.58247,
0.813,1.01138,-0.0225117,7.61248e-10,1.81009,
0.813,1.00843,-0.0166379,5.52753e-10,2.07007,
0.813,1.00599,-0.0118259,3.9138e-10,2.36772,
0.813,1.00401,-0.00790523,2.82673e-10,2.70818,
0.813,1.00231,-0.0045452,1.99902e-10,3.09651,
0.813,1.00104,-0.00206032,1.59678e-10,3.54123,

0.938,0,0.042993,0,1e-16,
0.938,-0.00408102,0.0429902,2.45489e-09,2.32316e-05,
0.938,-0.00779069,0.0429849,6.67697e-08,4.68694e-05,
0.938,-0.0111548,0.0429791,6.06834e-07,7.13267e-05,
0.938,-0.0140988,0.042973,2.73827e-06,9.70313e-05,
0.938,-0.0164146,0.042967,7.19045e-06,0.000124433,
0.938,-0.0179126,0.0429607,1.11312e-05,0.000154011,
0.938,-0.0186624,0.0429514,9.9551e-06,0.000186283,
0.938,-0.0189172,0.0429484,3.13176e-06,0.000221814,
0.938,-0.0188739,0.0429493,-7.65841e-06,0.000261227,
0.938,-0.0186412,0.0429279,-2.12655e-05,0.000305212,
0.938,-0.018273,0.04292,-3.73527e-05,0.000354541,
0.938,-0.0177948,0.0429092,-5.59321e-05,0.000410078,
0.938,-0.0172179,0.0428975,-7.71901e-05,0.000472798,
0.938,-0.016545,0.0428844,-0.000101477,0.000543802,
0.938,-0.015774,0.0428699,-0.000129195,0.000624336,
0.938,-0.0148993,0.0428536,-0.000160838,0.000715816,
0.938,-0.0139127,0.0428357,-0.000196982,0.000819848,
0.938,-0.0128036,0.0428156,-0.000238298,0.000938261,
0.938,-0.0115589,0.0427933,-0.000285549,0.00107314,
0.938,-0.0101635,0.0427682,-0.000339608,0.00122685,
0.938,-0.00859963,0.0427405,-0.000401491,0.00140211,
0.938,-0.0068464,0.0427094,-0.000472365,0.00160199,
0.938,-0.00487981,0.042675,-0.000553542,0.00183001,
0.938,-0.00267198,0.0426363,-0.000646568,0.0020902,
0.938,-0.000190568,0.0425936,-0.000753173,0.00238713,
0.938,0.00260219,0.0425459,-0.000875411,0.00272605,
0.938,0.0057503,0.0424932,-0.00101558,0.00311293,
0.938,0.00930544,0.0424344,-0.00117638,0.00355458,
0.938,0.0133291,0.0423697,-0.00136077,0.00405882,
0.938,0.0178951,0.0422982,-0.00157218,0.00463453,
0.938,0.0230918,0.0422198,-0.00181447,0.00529188,
0.938,0.0290257,0.0421336,-0.00209209,0.00604249,
0.938,0.0358264,0.0420401,-0.00241011,0.00689961,
0.938,0.0436525,0.0419386,-0.00277426,0.0078784,
0.938,0.0526993,0.0418295,-0.00319124,0.00899617,
0.938,0.0632104,0.0417146,-0.00366796,0.0102727,
0.938,0.0754849,0.0415965,-0.00421154,0.0117305,
0.938,0.089896,0.0414774,-0.00482979,0.0133955,
0.938,0.106908,0.0413658,-0.00552859,0.0152971,
0.938,0.127086,0.0412086,-0.00634409,0.017469,
0.938,0.15135,0.0409799,-0.00747708,0.0199391,
0.938,0.182952,0.0409399,-0.00835125,0.0225116,
0.938,0.228547,0.0411759,-0.00914166,0.0255164,
0.938,0.297215,0.0415907,-0.00977132,0.0290096,
0.938,0.399277,0.0426968,-0.00960817,0.0330545,
0.938,0.538548,0.0446226,-0.00801608,0.0377237,
0.938,0.68921,0.0441431,-0.00561356,0.0426984,
0.938,0.803342,0.0414985,-0.00355271,0.0484919,
0.938,0.871069,0.0400317,-0.00174973,0.0552419,
0.938,0.914689,0.038988,-0.000793174,0.0630705,
0.938,0.950419,0.0406328,-0.000334796,0.0721179,
0.938,0.97073,0.0399311,-7.69653e-05,0.0822909,
0.938,0.974404,0.0355409,-7.00809e-06,0.0938338,
0.938,0.973671,0.033821,-6.09856e-09,0.107215,
0.938,0.971635,0.0318333,2.50628e-08,0.122488,
0.938,0.970491,0.0305325,-1.86879e-07,0.139919,
0.938,0.975082,0.0288373,-1.09137e-07,0.160003,
0.938,0.983344,0.0273649,-1.89376e-08,0.18281,
0.938,0.984203,0.0224777,-2.38993e-09,0.208986,
0.938,0.985345,0.0198358,-1.68483e-09,0.239003,
0.938,0.98871,0.016072,-2.17791e-09,0.273269,
0.938,0.99403,0.0118607,-2.21218e-09,0.312507,
0.938,0.99655,0.00584394,-2.2892e-09,0.357468,
0.938,0.999422,-0.000149443,-2.97268e-09,0.408929,
0.938,1.00309,-0.00676128,-3.19374e-09,0.467901,
0.938,1.00664,-0.0135813,-2.80756e-09,0.535368,
0.938,1.00982,-0.019986,-2.15849e-09,0.612662,
0.938,1.01253,-0.0251233,-1.47016e-09,0.701152,
0.938,1.01448,-0.0289827,-8.04652e-10,0.802634,
0.938,1.01541,-0.0305325,-1.33941e-10,0.91874,
0.938,1.01527,-0.0302311,1.78247e-10,1.05163,
0.938,1.01439,-0.0284798,4.28477e-10,1.20403,
0.938,1.01286,-0.0254768,5.2807e-10,1.37848,
0.938,1.01099,-0.0217341,5.26924e-10,1.57802,
0.938,1.00897,-0.017707,4.65964e-10,1.80652,
0.938,1.00702,-0.0138074,3.8263e-10,2.06844,
0.938,1.00522,-0.0102717,2.951e-10,2.3677,
0.938,1.0037,-0.00726855,2.2258e-10,2.7102,
0.938,1.00231,-0.00456261,1.61551e-10,3.1022,
0.938,1.00125,-0.00248979,1.2637e-10,3.55094,

1,0,0.0889723,0,1e-16,
1,-0.00960956,0.0889668,7.23239e-09,2.32217e-05,
1,-0.0185731,0.0889621,2.32721e-07,4.685e-05,
1,-0.0269708,0.0889565,2.16821e-06,7.12984e-05,
1,-0.0346259,0.0889511,9.93252e-06,9.6995e-05,
1,-0.0409725,0.0889459,2.66367e-05,0.00012439,
1,-0.0454823,0.0889408,4.51868e-05,0.000153963,
1,-0.0483107,0.0889348,5.44356e-05,0.000186233,
1,-0.0499953,0.0889285,5.27423e-05,0.000221764,
1,-0.050975,0.0889201,4.36823e-05,0.000261182,
1,-0.0515102,0.0889149,3.01041e-05,0.000305176,
1,-0.0517467,0.0888919,1.33643e-05,0.000354519,
1,-0.051764,0.0889122,-6.04999e-06,0.000410078,
1,-0.0516084,0.0888818,-2.77553e-05,0.000472828,
1,-0.0513079,0.0888741,-5.19014e-05,0.000543873,
1,-0.0508759,0.0888618,-7.88887e-05,0.000624461,
1,-0.0503187,0.0888487,-0.000109105,0.000716009,
1,-0.0496365,0.0888338,-0.000143117,0.000820128,
1,-0.0488253,0.0888172,-0.000181484,0.000938651,
1,-0.0478781,0.0887985,-0.000224861,0.00107366,
1,-0.0467849,0.0887776,-0.000274,0.00122754,
1,-0.0455331,0.0887542,-0.000329742,0.001403,
1,-0.0441072,0.0887279,-0.000393035,0.00160314,
1,-0.0424889,0.0886985,-0.000464961,0.00183147,
1,-0.0406567,0.0886658,-0.000546765,0.00209203,
1,-0.0385852,0.0886292,-0.000639836,0.00238941,
1,-0.036245,0.0885887,-0.000745737,0.00272886,
1,-0.0336019,0.0885439,-0.000866252,0.00311639,
1,-0.0306157,0.0884951,-0.00100342,0.00355882,
1,-0.0272393,0.0884415,-0.00115952,0.00406398,
1,-0.0234173,0.0883838,-0.00133709,0.00464079,
1,-0.0190838,0.0883219,-0.00153904,0.00529946,
1,-0.0141608,0.0882572,-0.00176868,0.00605162,
1,-0.00855399,0.0881897,-0.00202976,0.0069106,
1,-0.00215036,0.0881219,-0.00232564,0.00789159,
1,0.00518023,0.0880552,-0.00266343,0.00901195,
1,0.0135886,0.0879935,-0.00304721,0.0102915,
1,0.0232672,0.087938,-0.00348185,0.011753,
1,0.0344589,0.087894,-0.00397539,0.0134223,
1,0.0474715,0.0878626,-0.00453746,0.0153289,
1,0.0626945,0.0878631,-0.00518876,0.0175068,
1,0.08067,0.0878834,-0.00598508,0.0199945,
1,0.102567,0.0877192,-0.0068004,0.0228361,
1,0.130748,0.0870875,-0.00742924,0.0260822,
1,0.168712,0.0861923,-0.00817935,0.0297904,
1,0.221706,0.0858505,-0.00902938,0.0340265,
1,0.298974,0.085942,-0.00969362,0.0388658,
1,0.410412,0.0869479,-0.0094816,0.0443714,
1,0.553917,0.0891151,-0.0076819,0.050306,
1,0.698705,0.0893438,-0.00518728,0.0567779,
1,0.806891,0.0878808,-0.00323377,0.0643629,
1,0.879518,0.0850285,-0.00147934,0.073201,
1,0.926641,0.0870665,-0.000485333,0.0834523,
1,0.947919,0.0818418,-9.7268e-05,0.0952491,
1,0.952655,0.0783603,-1.18065e-05,0.108351,
1,0.952659,0.074312,-1.72649e-06,0.123411,
1,0.951699,0.0705065,-8.62348e-07,0.140887,
1,0.954337,0.0664277,-5.53143e-07,0.160913,
1,0.963608,0.0612441,-1.51159e-07,0.183368,
1,0.968319,0.0551145,-2.31213e-08,0.209311,
1,0.970983,0.0492543,-5.82475e-09,0.239097,
1,0.974853,0.0430249,-3.45831e-09,0.273067,
1,0.981388,0.0362515,-2.96858e-09,0.312052,
1,0.985372,0.0287627,-2.73436e-09,0.356741,
1,0.988886,0.0215178,-3.19618e-09,0.407906,
1,0.992947,0.0137627,-3.46364e-09,0.466542,
1,0.996948,0.00601642,-3.14732e-09,0.53384,
1,1.00066,-0.00141531,-2.57734e-09,0.610826,
1,1.00403,-0.00797491,-1.95006e-09,0.699112,
1,1.00684,-0.013586,-1.33332e-09,0.800294,
1,1.00891,-0.0175836,-7.72868e-10,0.916281,
1,1.0101,-0.0199005,-3.05346e-10,1.04923,
1,1.01037,-0.0204164,3.09594e-11,1.2016,
1,1.00989,-0.0195244,2.1558e-10,1.37615,
1,1.00894,-0.017616,3.02966e-10,1.57647,
1,1.00764,-0.0150258,3.1827e-10,1.80575,
1,1.00722,-0.0141951,3.1032e-10,1.88256,
1,1.00621,-0.0121849,2.90826e-10,2.0677,
1,1.00477,-0.00935256,2.41086e-10,2.36835,
1,1.00348,-0.00682965,1.89142e-10,2.71278,
1,1.00227,-0.00448386,1.41591e-10,3.10614,
1,1.00133,-0.00267316,1.10125e-10,3.55725,

1.125,0,0.18926,0,1e-16,
1.125,0.0182708,0.189256,-7.3282e-08,2.2977e-05,
1.125,0.0370415,0.189257,-2.71826e-06,4.63572e-05,
1.125,0.0559605,0.189257,-2.50548e-05,7.05508e-05,
1.125,0.072909,0.189256,-9.55812e-05,9.59823e-05,
1.125,0.0855186,0.189255,-0.000191332,0.000123098,
1.125,0.0940926,0.189252,-0.00026351,0.000152375,
1.125,0.100079,0.189247,-0.000308514,0.000184326,
1.125,0.104542,0.18924,-0.000339045,0.000219514,
1.125,0.108087,0.189231,-0.000363326,0.000258557,
1.125,0.111054,0.189219,-0.000385407,0.000302141,
1.125,0.113641,0.189205,-0.000407384,0.000351033,
1.125,0.115972,0.189188,-0.000430513,0.000406094,
1.125,0.118128,0.189167,-0.000455689,0.000468293,
1.125,0.120166,0.189141,-0.000483655,0.000538726,
1.125,0.122128,0.189111,-0.000515114,0.000618634,
1.125,0.124047,0.189075,-0.000550783,0.000709426,
1.125,0.125951,0.189032,-0.000591431,0.000812702,
1.125,0.127862,0.18898,-0.000637898,0.000930284,
1.125,0.129802,0.188919,-0.000691129,0.00106425,
1.125,0.131792,0.188847,-0.000752192,0.00121696,
1.125,0.133852,0.188761,-0.000822298,0.00139111,
1.125,0.136003,0.188661,-0.000902828,0.00158979,
1.125,0.138266,0.188542,-0.000995358,0.00181649,
1.125,0.140666,0.188403,-0.00110169,0.00207523,
1.125,0.143228,0.18824,-0.00122389,0.00237059,
1.125,0.145982,0.188049,-0.00136431,0.00270779,
1.125,0.148961,0.187827,-0.00152564,0.0030928,
1.125,0.152203,0.18757,-0.00171097,0.00353243,
1.125,0.155753,0.187274,-0.00192379,0.00403447,
1.125,0.159662,0.186933,-0.00216809,0.00460781,
1.125,0.163994,0.186544,-0.00244836,0.00526262,
1.125,0.16882,0.186103,-0.0027697,0.00601049,
1.125,0.174233,0.185605,-0.00313777,0.00686471,
1.125,0.180339,0.185049,-0.00355882,0.00784041,
1.125,0.187275,0.184433,-0.00403965,0.00895492,
1.125,0.195206,0.183757,-0.00458754,0.010228,
1.125,0.204341,0.183024,-0.00520986,0.0116823,
1.125,0.214943,0.182237,-0.00591364,0.0133436,
1.125,0.227343,0.181409,-0.00670519,0.0152415,
1.125,0.241963,0.18056,-0.00762353,0.0174097,
1.125,0.259489,0.179964,-0.0089109,0.0198867,
1.125,0.282304,0.180122,-0.00978256,0.0227167,
1.125,0.315015,0.180671,-0.0101964,0.0259499,
1.125,0.361669,0.180877,-0.0104875,0.029644,
1.125,0.423044,0.18054,-0.0103707,0.0338647,
1.125,0.498365,0.179799,-0.0095976,0.0386871,
1.125,0.585008,0.178625,-0.00809176,0.0441974,
1.125,0.675977,0.176719,-0.00604872,0.0504935,
1.125,0.75976,0.174037,-0.00405444,0.0576879,
1.125,0.82725,0.169972,-0.00228945,0.0659089,
1.125,0.876115,0.165604,-0.000873587,0.0753032,
1.125,0.905342,0.159963,-0.00024384,0.0860384,
1.125,0.916622,0.153062,-4.90946e-05,0.0983063,
1.125,0.919484,0.145626,-1.07883e-05,0.112326,
1.125,0.920929,0.137879,-3.66085e-06,0.128348,
1.125,0.92335,0.129678,-1.67136e-06,0.146659,
1.125,0.930668,0.120812,-6.43273e-07,0.167586,
1.125,0.94024,0.111976,-1.52121e-07,0.191503,
1.125,0.945681,0.102403,-2.95243e-08,0.218838,
1.125,0.950203,0.0926962,-8.54459e-09,0.250082,
1.125,0.956349,0.0825123,-4.73512e-09,0.285792,
1.125,0.964135,0.0724894,-3.82408e-09,0.32661,
1.125,0.969184,0.0622415,-3.66435e-09,0.373265,
1.125,0.97398,0.052114,-4.10726e-09,0.426595,
1.125,0.979073,0.0421942,-4.20486e-09,0.487555,
1.125,0.983919,0.0326622,-3.75024e-09,0.55724,
1.125,0.988388,0.0236182,-3.09222e-09,0.636898,
1.125,0.992557,0.0151889,-2.43982e-09,0.72796,
1.125,0.996256,0.00783968,-1.84725e-09,0.82855,
1.125,0.999443,0.00141647,-1.31798e-09,0.94298,
1.125,1.00058,-0.00082104,-1.10721e-09,1.00315,
1.125,1.00193,-0.00347378,-8.57056e-10,1.07453,
1.125,1.00369,-0.00705501,-4.90374e-10,1.22528,
1.125,1.00472,-0.00915861,-2.12421e-10,1.39832,
1.125,1.00511,-0.00989135,-1.6973e-11,1.59646,
1.125,1.00492,-0.00959639,7.20856e-11,1.82431,
1.125,1.00443,-0.00864307,1.26294e-10,2.08526,
1.125,1.00371,-0.00724454,1.35511e-10,2.38489,
1.125,1.00293,-0.00572487,1.21326e-10,2.72763,
1.125,1.00212,-0.00418836,9.56217e-11,3.12069,
1.125,1.00147,-0.00295884,7.50374e-11,3.57128,

1.25,0,0.1881,0,1e-16,
1.25,0.0451458,0.188097,-2.30078e-07,2.27149e-05,
1.25,0.0906879,0.188098,-8.14737e-06,4.58292e-05,
1.25,0.135593,0.188098,-6.69162e-05,6.97496e-05,
1.25,0.175578,0.188098,-0.000218053,9.48968e-05,
1.25,0.20695,0.188097,-0.000394789,0.000121713,
1.25,0.230171,0.188096,-0.000529296,0.000150671,
1.25,0.247398,0.188094,-0.0006185,0.00018228,
1.25,0.260527,0.188091,-0.000677096,0.000217097,
1.25,0.27087,0.188086,-0.000717,0.000255735,
1.25,0.279284,0.188081,-0.000746006,0.000298876,
1.25,0.286333,0.188073,-0.000768953,0.00034728,
1.25,0.292392,0.188064,-0.000788849,0.000401801,
1.25,0.297718,0.188052,-0.000807653,0.000463402,
1.25,0.302489,0.188038,-0.000826722,0.00053317,
1.25,0.306836,0.18802,-0.000847091,0.000612337,
1.25,0.310855,0.187998,-0.000869629,0.000702303,
1.25,0.314622,0.187972,-0.000895129,0.000804657,
1.25,0.318195,0.18794,-0.000924373,0.00092121,
1.25,0.321624,0.187902,-0.000958178,0.00105402,
1.25,0.324949,0.187856,-0.000997424,0.00120545,
1.25,0.328207,0.187801,-0.00104309,0.00137816,
1.25,0.331432,0.187737,-0.00109625,0.00157523,
1.25,0.334654,0.18766,-0.00115815,0.00180013,
1.25,0.337904,0.187569,-0.00123019,0.00205686,
1.25,0.341214,0.187462,-0.00131397,0.00234997,
1.25,0.344617,0.187336,-0.00141132,0.00268466,
1.25,0.348147,0.187189,-0.00152433,0.00306685,
1.25,0.351841,0.187018,-0.0016554,0.00350335,
1.25,0.355744,0.186818,-0.00180725,0.00400188,
1.25,0.359902,0.186588,-0.00198297,0.00457132,
1.25,0.364373,0.186323,-0.00218606,0.00522176,
1.25,0.369221,0.186019,-0.00242047,0.00596478,
1.25,0.374524,0.185674,-0.00269059,0.00681358,
1.25,0.380376,0.185285,-0.00300127,0.00778325,
1.25,0.386889,0.184847,-0.00335773,0.00889105,
1.25,0.394203,0.184358,-0.00376552,0.0101567,
1.25,0.402487,0.183817,-0.00423016,0.0116027,
1.25,0.411956,0.183222,-0.00475678,0.0132548,
1.25,0.422877,0.182575,-0.0053495,0.0151425,
1.25,0.435585,0.181872,-0.00601089,0.0172993,
1.25,0.450511,0.181137,-0.00677772,0.0197638,
1.25,0.468382,0.180486,-0.00772623,0.0225799,
1.25,0.491189,0.180251,-0.0085003,0.0257978,
1.25,0.52282,0.180399,-0.00854606,0.0294749,
1.25,0.566556,0.180301,-0.00833729,0.0336769,
1.25,0.621125,0.179595,-0.00766736,0.0384787,
1.25,0.682764,0.178477,-0.00647006,0.0439663,
1.25,0.746379,0.176801,-0.00488149,0.0502376,
1.25,0.805144,0.174491,-0.00334185,0.0574048,
1.25,0.854742,0.171307,-0.00163419,0.0655959,
1.25,0.891064,0.167302,-0.00056143,0.0749575,
1.25,0.909885,0.16257,-0.000127872,0.0856571,
1.25,0.915972,0.157197,-2.31259e-05,0.0978863,
1.25,0.917365,0.151158,-5.78061e-06,0.111864,
1.25,0.918433,0.144812,-2.50185e-06,0.127841,
1.25,0.921589,0.137735,-1.26328e-06,0.146102,
1.25,0.928958,0.130143,-4.65149e-07,0.166976,
1.25,0.93693,0.122259,-1.07597e-07,0.190837,
1.25,0.941265,0.113626,-2.23644e-08,0.218113,
1.25,0.945232,0.104498,-7.35085e-09,0.249292,
1.25,0.9512,0.0950321,-4.39943e-09,0.284935,
1.25,0.958391,0.0853622,-3.6321e-09,0.325682,
1.25,0.963097,0.0753731,-3.5327e-09,0.372264,
1.25,0.967689,0.0655312,-3.99636e-09,0.425519,
1.25,0.97266,0.0556765,-4.13596e-09,0.486402,
1.25,0.977457,0.0460214,-3.72964e-09,0.55601,
1.25,0.98193,0.0368267,-3.12402e-09,0.635594,
1.25,0.986197,0.0281867,-2.53385e-09,0.726585,
1.25,0.990118,0.0201953,-1.99246e-09,0.83062,
1.25,0.993642,0.0132186,-1.51211e-09,0.949574,
1.25,0.996639,0.00715006,-1.09105e-09,1.08559,
1.25,0.999043,0.00231657,-7.36201e-10,1.24111,
1.25,1.00082,-0.00133914,-4.56311e-10,1.41894,
1.25,1.00203,-0.00376167,-2.42001e-10,1.62229,
1.25,1.00266,-0.00505787,-9.1459e-11,1.84947,
1.25,1.00284,-0.0054524,6.56145e-13,2.10883,
1.25,1.00268,-0.00518579,4.13284e-11,2.40658,
1.25,1.00235,-0.00457743,5.78342e-11,2.74752,
1.25,1.0023,-0.00448618,5.72942e-11,2.79119,
1.25,1.00191,-0.00375376,5.28246e-11,3.13954,
1.25,1.00159,-0.00318138,3.21426e-11,3.5883,

1.375,0,0.144515,0,1e-16,
1.375,0.0592494,0.144514,-4.61389e-07,2.24527e-05,
1.375,0.118898,0.144514,-1.59088e-05,4.53013e-05,
1.375,0.176779,0.144514,-0.000120147,6.89485e-05,
1.375,0.226417,0.144514,-0.000354821,9.38113e-05,
1.375,0.264774,0.144514,-0.000576854,0.000120328,
1.375,0.294402,0.144514,-0.000714666,0.000148967,
1.375,0.318161,0.144513,-0.000804234,0.000180234,
1.375,0.337792,0.144512,-0.000865734,0.00021468,
1.375,0.354346,0.144511,-0.000910578,0.000252914,
1.375,0.368515,0.144509,-0.000943624,0.000295611,
1.375,0.38079,0.144507,-0.000968575,0.000343527,
1.375,0.391536,0.144504,-0.000988016,0.000397509,
1.375,0.401033,0.1445,-0.00100384,0.000458511,
1.375,0.409503,0.144494,-0.0010175,0.000527614,
1.375,0.417123,0.144488,-0.00103014,0.00060604,
1.375,0.424036,0.144479,-0.00104274,0.00069518,
1.375,0.430363,0.144468,-0.00105615,0.000796613,
1.375,0.436202,0.144454,-0.00107114,0.000912136,
1.375,0.441637,0.144437,-0.00108847,0.0010438,
1.375,0.44674,0.144417,-0.00110889,0.00119393,
1.375,0.451573,0.144392,-0.00113317,0.00136521,
1.375,0.45619,0.144361,-0.00116216,0.00156067,
1.375,0.46064,0.144325,-0.00119676,0.00178377,
1.375,0.464968,0.144281,-0.001238,0.00203849,
1.375,0.469218,0.144228,-0.00128702,0.00232935,
1.375,0.473429,0.144165,-0.0013451,0.00266152,
1.375,0.477644,0.144091,-0.00141371,0.00304091,
1.375,0.481904,0.144004,-0.0014945,0.00347427,
1.375,0.486253,0.143902,-0.00158935,0.0039693,
1.375,0.490739,0.143782,-0.00170037,0.00453483,
1.375,0.495412,0.143644,-0.00182994,0.00518091,
1.375,0.500334,0.143483,-0.00198073,0.00591907,
1.375,0.505569,0.143299,-0.00215569,0.00676245,
1.375,0.511197,0.143089,-0.00235804,0.0077261,
1.375,0.51731,0.14285,-0.00259124,0.00882719,
1.375,0.524019,0.142581,-0.00285887,0.0100854,
1.375,0.531457,0.14228,-0.0031645,0.0115231,
1.375,0.539788,0.141945,-0.00351137,0.013166,
1.375,0.549212,0.141574,-0.0039019,0.0150434,
1.375,0.559977,0.141167,-0.00433698,0.017189,
1.375,0.572387,0.14072,-0.00481483,0.0196409,
1.375,0.586815,0.140238,-0.0053537,0.0224431,
1.375,0.60386,0.139755,-0.00590831,0.0256456,
1.375,0.624526,0.139358,-0.00660864,0.0293058,
1.375,0.651629,0.13922,-0.00658432,0.0334891,
1.375,0.688473,0.139045,-0.006223,0.0382704,
1.375,0.733998,0.138556,-0.00548578,0.0437353,
1.375,0.783625,0.137547,-0.00437998,0.0499817,
1.375,0.832029,0.136829,-0.00310156,0.0571216,
1.375,0.876067,0.134981,-0.00158498,0.0652828,
1.375,0.909749,0.132837,-0.00052669,0.0746118,
1.375,0.926544,0.130093,-0.000101068,0.0852759,
1.375,0.931423,0.127121,-1.28959e-05,0.0974663,
1.375,0.931672,0.123695,-2.13131e-06,0.111402,
1.375,0.931566,0.119943,-1.22829e-06,0.127333,
1.375,0.93392,0.115729,-8.11546e-07,0.145546,
1.375,0.940221,0.111043,-2.99279e-07,0.166367,
1.375,0.945798,0.1059,-6.48804e-08,0.190171,
1.375,0.948598,0.100205,-1.35388e-08,0.217387,
1.375,0.951148,0.0939857,-4.96134e-09,0.248502,
1.375,0.955754,0.0873153,-3.26745e-09,0.284078,
1.375,0.961339,0.0802741,-2.73855e-09,0.324754,
1.375,0.96481,0.0727301,-2.66729e-09,0.371263,
1.375,0.968197,0.0649794,-3.13622e-09,0.424442,
1.375,0.972224,0.0570455,-3.3555e-09,0.485249,
1.375,0.976122,0.049057,-3.12067e-09,0.554781,
1.375,0.979965,0.0410664,-2.70489e-09,0.634289,
1.375,0.983687,0.0334055,-2.25547e-09,0.725209,
1.375,0.987247,0.0261223,-1.84381e-09,0.82918,
1.375,0.990592,0.0193984,-1.4617e-09,0.948077,
1.375,0.993561,0.0133826,-1.11377e-09,1.08405,
1.375,0.996109,0.00822193,-8.11461e-10,1.23955,
1.375,0.998172,0.00400406,-5.596e-10,1.41738,
1.375,0.99977,0.000787612,-3.56333e-10,1.62076,
1.375,1.00085,-0.00144665,-2.01561e-10,1.85337,
1.375,1.00151,-0.00279188,-9.3105e-11,2.1194,
1.375,1.00178,-0.00338464,-2.35682e-11,2.42367,
1.375,1.00181,-0.00348739,4.15225e-12,2.77091,
1.375,1.00168,-0.00330058,1.43031e-11,3.16112,
1.375,1.0016,-0.0032044,4.20899e-12,3.6087,

-3.19886,0,0.0224975,0,0,
-2.99627,0,0.00617146,0,0,
-2.80402,0,0.00444172,0,0,
-2.62157,0,0.0037739,0,0,
-2.44842,0,0.00374383,0,0,
-2.2841,0,0.00420294,0,0,
-2.12815,0,0.00471605,0,0,
-1.98016,0,0.0055709,0,0,
-1.83971,0,0.00652737,0,0,
-1.70643,0,0.00786778,0,0,
-1.57994,0,0.00925266,0,0,
-1.4599,0,0.0112652,0,0,
-1.34598,0,0.0134863,0,0,
-1.23786,0,0.0160307,0,0,
-1.13526,0,0.0193018,0,0,
-1.03789,0,0.0229572,0,0,
-0.945488,0,0.027662,0,0,
-0.857795,0,0.0329226,0,0,
-0.774572,0,0.0397502,0,0,
-0.695593,0,0.0474269,0,0,
-0.620641,0,0.0574986,0,0,
-0.54951,0,0.0687819,0,0,
-0.482006,0,0.0837153,0,0,
-0.417943,0,0.100451,0,0,
-0.357147,0,0.122978,0,0,
-0.29945,0,0.148338,0,0,
-0.244696,0,0.182845,0,0,
-0.192732,0,0.217063,0,0,
-0.143419,0,0.267066,0,0,
-0.0966231,0,0.31903,0,0,
-0.0522148,0,0.340375,0,0,
-0.0100698,0,0.345573,0,0,
0.0299268,0,0.335328,0,0,
0.0678843,0,0.291824,0,0,
0.103908,0,0.238187,0,0,
0.138096,0,0.111061,0,0,
0.17054,0,-0.000931981,0,0,
0.20133,0,-0.088001,0,0,
0.230551,0,-0.164563,0,0,
0.258281,0,-0.227921,0,0,
0.284598,0,-0.286843,0,0,
0.309574,0,-0.33706,0,0,
0.333275,0,-0.382313,0,0,
0.355769,0,-0.423983,0,0,
0.377115,0,-0.460414,0,0,
0.397374,0,-0.49536,0,0,
0.416599,0,-0.525698,0,0,
0.434844,0,-0.55473,0,0,
0.452159,0,-0.580221,0,0,
0.468591,0,-0.604547,0,0,
0.484186,0,-0.626215,0,0,
0.498985,0,-0.646813,0,0,
0.51303,0,-0.665577,0,0,
0.526358,0,-0.683144,0,0,
0.539007,0,-0.699156,0,0,
0.551012,0,-0.713969,0,0,
0.562404,0,-0.728042,0,0,
0.573215,0,-0.740807,0,0,
0.583475,0,-0.752976,0,0,
0.593212,0,-0.764137,0,0,
0.602453,0,-0.774758,0,0,
0.611222,0,-0.784268,0,0,
0.619544,0,-0.793314,0,0,
0.627442,0,-0.801898,0,0,
0.634938,0,-0.809735,0,0,
0.642051,0,-0.817281,0,0,
0.648801,0,-0.824161,0,0,
0.655207,0,-0.830759,0,0,
0.661287,0,-0.833586,0,0,
0.667057,0,-0.830061,0,0,
0.672532,0,-0.817488,0,0,
0.677729,0,-0.762087,0,0,
0.68266,0,-0.701647,0,0,
0.68734,0,-0.622746,0,0,
0.691781,0,-0.555865,0,0,
0.695996,0,-0.50318,0,0,
0.699996,0,-0.459667,0,0,
0.703996,0,-0.424616,0,0,
0.707996,0,-0.392786,0,0,
0.712135,0,-0.365681,0,0,
0.716416,0,-0.339648,0,0,
0.720846,0,-0.31762,0,0,
0.725429,0,-0.295788,0,0,
0.730171,0,-0.277647,0,0,
0.735076,0,-0.259026,0,0,
0.740151,0,-0.24339,0,0,
0.745402,0,-0.2274,0,0,
0.750835,0,-0.213331,0,0,
0.756455,0,-0.199139,0,0,
0.76227,0,-0.185495,0,0,
0.768286,0,-0.173906,0,0,
0.77451,0,-0.16063,0,0,
0.78095,0,-0.148558,0,0,
0.787612,0,-0.136446,0,0,
0.794505,0,-0.124508,0,0,
0.801636,0,-0.112749,0,0,
0.809014,0,-0.100937,0,0,
0.816647,0,-0.0894206,0,0,
0.824544,0,-0.0777382,0,0,
0.832715,0,-0.0664689,0,0,
0.841168,0,-0.054977,0,0,
0.849914,0,-0.0439805,0,0,
0.858962,0,-0.0327569,0,0,
0.868323,0,-0.0220986,0,0,
0.878008,0,-0.0112461,0,0,
0.888028,0,-0.00101638,0,0,
0.898395,0,0.00935318,0,0,
0.90912,0,0.0190685,0,0,
0.920216,0,0.0288767,0,0,
0.931697,0,0.0379268,0,0,
0.943574,0,0.0474729,0,0,
0.955862,0,0.0545328,0,0,
0.968576,0,0.0638926,0,0,
0.981729,0,0.0696592,0,0,
0.995332,0,0.0826612,0,0,
1.00941,0,0.101687,0,0,
1.02397,0,0.120632,0,0,
1.03904,0,0.133268,0,0,
1.05463,0,0.146996,0,0,
1.07076,0,0.159784,0,0,
1.08745,0,0.171073,0,0,
1.10471,0,0.181112,0,0,
1.12258,0,0.188456,0,0,
1.14106,0,0.194588,0,0,
1.16018,0,0.197326,0,0,
1.17996,0,0.198885,0,0,
1.20043,0,0.19758,0,0,
1.22161,0,0.194476,0,0,
1.24351,0,0.190198,0,0,
1.26618,0,0.182871,0,0,
1.28963,0,0.175654,0,0,
1.31389,0,0.166684,0,0,
1.33899,0,0.157836,0,0,
1.36496,0,0.148002,0,0,
1.39183,0,0.138671,0,0,
1.41962,0,0.128807,0,0,
1.44838,0,0.119668,0,0,
1.47813,0,0.110377,0,0,
1.50892,0,0.101849,0,0,
1.54076,0,0.0934338,0,0,
1.57371,0,0.0857884,0,0,
1.6078,0,0.0783676,0,0,
1.64307,0,0.0716708,0,0,
1.67956,0,0.0652109,0,0,
1.71731,0,0.059402,0,0,
1.75637,0,0.0538891,0,0,
1.79677,0,0.0489245,0,0,
1.83858,0,0.0442557,0,0,
1.88183,0,0.0400791,0,0,
1.92658,0,0.0361672,0,0,
1.97288,0,0.0326376,0,0,
2.02078,0,0.0295075,0,0,
2.07033,0,0.0265084,0,0,
2.1216,0,0.0238741,0,0,
2.17465,0,0.0214201,0,0,
2.22953,0,0.0192384,0,0,
2.2863,0,0.0172084,0,0,
2.34505,0,0.0153924,0,0,
2.40582,0,0.0137742,0,0,
2.4687,0,0.0122743,0,0,
2.53375,0,0.0109518,0,0,
2.60105,0,0.0097301,0,0,
2.67068,0,0.00865881,0,0,
2.74272,0,0.00766521,0,0,
2.81725,0,0.00678647,0,0,
2.89436,0,0.00596655,0,0,
2.97414,0,0.0052547,0,0,
3.05668,0,0.00458711,0,0,
3.14207,0,0.00400815,0,0,
3.23042,0,0.00344978,0,0,
3.32182,0,0.00299553,0,0,
3.41639,0,0.00256718,0,0,
3.51423,0,0.00216333,0,0,
3.61545,0,0.00182238,0,0,
3.72017,0,0.00149799,0,0,
3.82852,0,0.00120586,0,0,
3.94062,0,0.000929421,0,0,
4.05659,0,0.000688478,0,0,
4.17658,0,0.000441658,0,0,
4.30072,0,0.000225596,0,0,
4.42915,0,0.00161298,0,0,

