7c2923aae9a19be5d89dae7a2c7d475c79813a58 
X,x_velocity,cp,uw_b,wall_distance,
-0.25,0,0.180568,0,1e-16,
-0.25,0.0533073,0.18057,-3.9848e-07,2.59026e-05,
-0.25,0.10766,0.18057,-1.37572e-05,5.22493e-05,
-0.25,0.160908,0.18057,-0.000101131,7.94916e-05,
-0.25,0.207529,0.18057,-0.000280183,0.000108097,
-0.25,0.244946,0.18057,-0.000452809,0.000138555,
-0.25,0.274884,0.18057,-0.000574023,0.000171389,
-0.25,0.299616,0.180571,-0.000659674,0.000207163,
-0.25,0.32075,0.180572,-0.000722291,0.000246489,
-0.25,0.339356,0.180573,-0.000770337,0.000290044,
-0.25,0.356141,0.180574,-0.000809214,0.000338574,
-0.25,0.371584,0.180575,-0.000841991,0.000392915,
-0.25,0.386019,0.180577,-0.000870665,0.000454,
-0.25,0.399691,0.180579,-0.000896556,0.000522878,
-0.25,0.412781,0.180581,-0.000920557,0.000600734,
-0.25,0.425428,0.180584,-0.000943282,0.000688907,
-0.25,0.437742,0.180587,-0.000965149,0.000788915,
-0.25,0.449811,0.18059,-0.000986439,0.000902478,
-0.25,0.461706,0.180594,-0.00100733,0.00103155,
-0.25,0.47349,0.180598,-0.00102791,0.00117836,
-0.25,0.485214,0.180603,-0.00104822,0.00134543,
-0.25,0.496923,0.180608,-0.00106821,0.00153564,
-0.25,0.508656,0.180613,-0.00108784,0.00175227,
-0.25,0.52045,0.180618,-0.00110705,0.00199906,
-0.25,0.532339,0.180624,-0.00112569,0.00228026,
-0.25,0.544352,0.180629,-0.00114356,0.00260072,
-0.25,0.556518,0.180634,-0.00116044,0.00296597,
-0.25,0.568863,0.180638,-0.00117604,0.00338233,
-0.25,0.581412,0.180641,-0.00119007,0.00385697,
-0.25,0.594191,0.180641,-0.00120219,0.00439809,
-0.25,0.607222,0.180637,-0.00121202,0.00501505,
-0.25,0.620531,0.18063,-0.00121916,0.00571851,
-0.25,0.634142,0.180615,-0.00122314,0.00652062,
-0.25,0.648082,0.180592,-0.00122338,0.00743527,
-0.25,0.662377,0.180557,-0.00121915,0.00847826,
-0.25,0.677056,0.180507,-0.00120954,0.00966765,
-0.25,0.692142,0.180437,-0.00119567,0.011024,
-0.25,0.70771,0.180339,-0.00117289,0.0125709,
-0.25,0.723918,0.180206,-0.00114182,0.0143349,
-0.25,0.741012,0.180027,-0.00109984,0.0163469,
-0.25,0.759389,0.179789,-0.00104112,0.0186414,
-0.25,0.779661,0.17948,-0.000958282,0.0212585,
-0.25,0.802508,0.179082,-0.000843359,0.0242434,
-0.25,0.828236,0.178585,-0.000689751,0.0276478,
-0.25,0.855731,0.177935,-0.000507434,0.031531,
-0.25,0.881721,0.177131,-0.000322483,0.0359602,
-0.25,0.901789,0.17609,-0.000111307,0.0410123,
-0.25,0.910767,0.174656,-1.95252e-05,0.0467752,
-0.25,0.912701,0.173149,-2.04468e-06,0.0533488,
-0.25,0.91362,0.171424,-3.27663e-07,0.0608475,
-0.25,0.914627,0.169392,-5.98248e-08,0.0694016,
-0.25,0.915817,0.167027,-1.49243e-08,0.0791597,
-0.25,0.917199,0.164283,-8.57766e-09,0.0902917,
-0.25,0.9188,0.1611,-7.89289e-09,0.102991,
-0.25,0.920652,0.157425,-7.90664e-09,0.117479,
-0.25,0.922787,0.153209,-7.96322e-09,0.134008,
-0.25,0.925236,0.148366,-7.97313e-09,0.152865,
-0.25,0.928021,0.14287,-7.9227e-09,0.17438,
-0.25,0.931165,0.136633,-7.78475e-09,0.198926,
-0.25,0.934657,0.129704,-7.60288e-09,0.226933,
-0.25,0.938571,0.12198,-7.32834e-09,0.258887,
-0.25,0.94282,0.1136,-6.99504e-09,0.295348,
-0.25,0.947508,0.104321,-6.54736e-09,0.33695,
-0.25,0.952374,0.0947118,-6.01906e-09,0.384419,
-0.25,0.957508,0.0845818,-5.4535e-09,0.438586,
-0.25,0.962742,0.0742301,-4.78783e-09,0.500395,
-0.25,0.967906,0.063981,-4.12638e-09,0.570927,
-0.25,0.973037,0.0538793,-3.50966e-09,0.651415,
-0.25,0.977962,0.0443658,-2.9107e-09,0.743264,
-0.25,0.98249,0.0352439,-2.35296e-09,0.848083,
-0.25,0.986661,0.0269651,-1.83558e-09,0.967704,
-0.25,0.990276,0.0197252,-1.38182e-09,1.10422,
-0.25,0.99336,0.0136092,-9.9783e-10,1.26002,
-0.25,0.995816,0.00864794,-6.85948e-10,1.43784,
-0.25,0.997724,0.00485084,-4.41633e-10,1.64079,
-0.25,0.999043,0.00215506,-2.57662e-10,1.86641,
-0.25,0.999882,0.000454474,-1.29746e-10,2.12427,
-0.25,1.0003,-0.000430528,-4.3325e-11,2.41998,
-0.25,1.00031,-0.000463956,-3.73391e-11,2.46413,
-0.25,1.00041,-0.000683686,2.4454e-12,2.75802,
-0.25,1.00027,-0.000486434,2.96261e-11,3.14513,
-0.25,1,4.92876e-06,3.22544e-11,3.58873,

0.688,0,-0.534533,0,1e-16,
0.688,0.0013757,-0.534533,-2.2619e-08,2.33816e-05,
0.688,0.0106652,-0.534581,-1.98087e-06,4.71702e-05,
0.688,0.0281025,-0.534609,-2.99738e-05,7.17799e-05,
0.688,0.0519147,-0.534646,-0.000167671,9.76391e-05,
0.688,0.0771339,-0.534686,-0.000458623,0.000125198,
0.688,0.100318,-0.534721,-0.000806456,0.000154937,
0.688,0.121264,-0.534748,-0.00114468,0.000187374,
0.688,0.140814,-0.53477,-0.00147157,0.000223074,
0.688,0.159784,-0.534787,-0.00179778,0.00026266,
0.688,0.178812,-0.534801,-0.00213119,0.000306822,
0.688,0.198402,-0.534812,-0.00247659,0.000356332,
0.688,0.21898,-0.53482,-0.00283706,0.000412053,
0.688,0.240941,-0.534826,-0.00321409,0.000474959,
0.688,0.264662,-0.534828,-0.00360503,0.000546147,
0.688,0.290485,-0.534824,-0.00402733,0.000626864,
0.688,0.319062,-0.534823,-0.00439595,0.000718519,
0.688,0.351278,-0.534825,-0.00472756,0.000822716,
0.688,0.387751,-0.534829,-0.00503016,0.000941278,
0.688,0.428792,-0.534838,-0.0052849,0.00107628,
0.688,0.474463,-0.534859,-0.0054733,0.00123008,
0.688,0.524479,-0.534901,-0.00556763,0.00140539,
0.688,0.578069,-0.534986,-0.00554493,0.00160526,
0.688,0.634007,-0.535128,-0.00539078,0.0018332,
0.688,0.691031,-0.535373,-0.0051142,0.00209321,
0.688,0.747816,-0.535772,-0.00474122,0.00238985,
0.688,0.803075,-0.536367,-0.00430811,0.00272832,
0.688,0.85566,-0.537205,-0.00385264,0.00311456,
0.688,0.904953,-0.53834,-0.00340351,0.00355536,
0.688,0.950936,-0.539814,-0.00297603,0.00405845,
0.688,0.993907,-0.541684,-0.00257522,0.00463268,
0.688,1.03387,-0.544053,-0.0022122,0.00528813,
0.688,1.07003,-0.547076,-0.00190412,0.00603632,
0.688,1.10102,-0.550959,-0.00167106,0.00689042,
0.688,1.12638,-0.55599,-0.0015012,0.00786545,
0.688,1.14747,-0.562408,-0.00138133,0.00897856,
0.688,1.16586,-0.570784,-0.00140142,0.0102494,
0.688,1.18327,-0.58163,-0.00153729,0.0117002,
0.688,1.20106,-0.59598,-0.00173599,0.0133567,
0.688,1.22033,-0.614826,-0.00194663,0.015248,
0.688,1.24211,-0.639128,-0.0020697,0.0174016,
0.688,1.26651,-0.669026,-0.00209435,0.0197947,
0.688,1.2936,-0.70288,-0.00195424,0.0225411,
0.688,1.3215,-0.736225,-0.00158438,0.0256954,
0.688,1.34616,-0.763795,-0.0010427,0.0293134,
0.688,1.36468,-0.780301,-0.000501884,0.0334589,
0.688,1.37689,-0.785537,-0.000168652,0.0382051,
0.688,1.38315,-0.78409,-2.64038e-05,0.0436361,
0.688,1.38469,-0.780253,1.90664e-05,0.0498477,
0.688,1.38134,-0.770113,2.00665e-05,0.0569175,
0.688,1.37458,-0.756479,8.01998e-06,0.0649586,
0.688,1.36688,-0.740872,1.98182e-06,0.074169,
0.688,1.35861,-0.724079,4.52895e-07,0.0847119,
0.688,1.34949,-0.705784,1.28604e-07,0.0967654,
0.688,1.33954,-0.685603,6.20602e-08,0.110475,
0.688,1.32862,-0.663354,4.78361e-08,0.126175,
0.688,1.31652,-0.639075,4.35888e-08,0.144131,
0.688,1.30324,-0.612572,4.05309e-08,0.164669,
0.688,1.28896,-0.583815,3.7532e-08,0.188038,
0.688,1.27361,-0.553109,3.47424e-08,0.214753,
0.688,1.25717,-0.519981,3.20284e-08,0.245311,
0.688,1.23964,-0.484469,2.94461e-08,0.280275,
0.688,1.22099,-0.446685,2.71195e-08,0.320142,
0.688,1.20107,-0.40632,2.5306e-08,0.365789,
0.688,1.17953,-0.362483,2.3904e-08,0.417836,
0.688,1.15602,-0.314796,2.27049e-08,0.477372,
0.688,1.13061,-0.263422,2.08501e-08,0.545486,
0.688,1.10475,-0.21074,1.71631e-08,0.623218,
0.688,1.08208,-0.16495,1.22101e-08,0.712106,
0.688,1.06466,-0.129497,8.18777e-09,0.813782,
0.688,1.05106,-0.102204,5.6962e-09,0.930041,
0.688,1.04001,-0.0799301,4.05599e-09,1.06261,
0.688,1.03101,-0.0617374,2.89328e-09,1.21441,
0.688,1.02364,-0.0470676,2.0493e-09,1.38796,
0.688,1.01777,-0.035241,1.43209e-09,1.58636,
0.688,1.01306,-0.0258833,9.89202e-10,1.81256,
0.688,1.00937,-0.0185012,6.7721e-10,2.0716,
0.688,1.00646,-0.0127447,4.62658e-10,2.36771,
0.688,1.00414,-0.0081835,3.17136e-10,2.70619,
0.688,1.00226,-0.00445106,2.32114e-10,3.09309,
0.688,1.00075,-0.00147183,2.05521e-10,3.53533,

0.813,0,-0.101327,0,1e-16,
0.813,-0.00436598,-0.101331,5.78778e-09,2.32716e-05,
0.813,-0.00785089,-0.101339,1.4778e-07,4.69491e-05,
0.813,-0.0104259,-0.101347,1.01101e-06,7.14457e-05,
0.813,-0.0119399,-0.101355,2.46416e-06,9.71887e-05,
0.813,-0.0123168,-0.101364,-3.32439e-07,0.000124627,
0.813,-0.0118665,-0.101374,-1.36548e-05,0.000154241,
0.813,-0.0110152,-0.101385,-3.61138e-05,0.000186546,
0.813,-0.00999128,-0.101398,-6.38365e-05,0.000222108,
0.813,-0.008875,-0.101411,-9.53257e-05,0.000261547,
0.813,-0.00768541,-0.101426,-0.000130569,0.000305554,
0.813,-0.00641988,-0.101443,-0.000170053,0.000354897,
0.813,-0.00506743,-0.101461,-0.000214455,0.000410441,
0.813,-0.0036135,-0.101482,-0.000264483,0.000473157,
0.813,-0.00204213,-0.101505,-0.000320958,0.000544144,
0.813,-0.000335087,-0.101532,-0.000384916,0.000624646,
0.813,0.00152821,-0.101562,-0.000457511,0.000716071,
0.813,0.00357078,-0.101595,-0.000540063,0.000820025,
0.813,0.00581886,-0.101633,-0.000634077,0.000938328,
0.813,0.00830229,-0.101675,-0.000741247,0.00107306,
0.813,0.0110555,-0.101723,-0.000863507,0.00122658,
0.813,0.0141181,-0.101776,-0.0010031,0.00140158,
0.813,0.0175369,-0.101836,-0.00116259,0.00160114,
0.813,0.0213665,-0.101902,-0.00134487,0.00182877,
0.813,0.0256723,-0.101977,-0.0015533,0.00208846,
0.813,0.030532,-0.102058,-0.00179175,0.00238478,
0.813,0.03604,-0.102148,-0.00206456,0.00272294,
0.813,0.0423103,-0.102246,-0.00237668,0.00310889,
0.813,0.0494831,-0.102353,-0.00273374,0.00354942,
0.813,0.0577312,-0.102467,-0.0031421,0.00405228,
0.813,0.0672697,-0.102588,-0.00360878,0.00462634,
0.813,0.0783678,-0.102714,-0.00414134,0.00528169,
0.813,0.0913642,-0.102841,-0.0047478,0.0060299,
0.813,0.106686,-0.102967,-0.00543588,0.00688414,
0.813,0.124873,-0.103089,-0.00620927,0.00785949,
0.813,0.146584,-0.103259,-0.00721732,0.00897314,
0.813,0.17364,-0.103355,-0.00831346,0.0102448,
0.813,0.210653,-0.103231,-0.00912499,0.0116968,
0.813,0.26453,-0.103005,-0.00995373,0.0133548,
0.813,0.343002,-0.102563,-0.0104469,0.0152482,
0.813,0.454517,-0.101428,-0.00991545,0.0173973,
0.813,0.599047,-0.0994671,-0.00791646,0.0197681,
0.813,0.744859,-0.0986557,-0.00534052,0.0225011,
0.813,0.848805,-0.0982062,-0.00325396,0.0256452,
0.813,0.907702,-0.0968414,-0.00145585,0.0292561,
0.813,0.94046,-0.0942485,-0.000687401,0.033398,
0.813,0.963126,-0.0910608,-0.000453119,0.0379504,
0.813,0.984147,-0.0870404,-0.000363377,0.0431839,
0.813,1.00546,-0.081915,-0.00024246,0.0492266,
0.813,1.02261,-0.0759658,-8.42988e-05,0.0561862,
0.813,1.02919,-0.0701233,3.56612e-07,0.0641865,
0.813,1.02864,-0.0636367,9.65124e-06,0.0732535,
0.813,1.02559,-0.0556781,5.73366e-06,0.0836093,
0.813,1.01317,-0.0470726,1.5565e-06,0.0955186,
0.813,1.00576,-0.0368499,1.8618e-07,0.10911,
0.813,1.00467,-0.0267974,3.70089e-08,0.124602,
0.813,0.99612,-0.0178193,1.02259e-08,0.142358,
0.813,0.993647,-0.00815733,4.53089e-10,0.162626,
0.813,1.00164,-0.000399951,-8.64736e-10,0.185823,
0.813,1.00092,-0.00118664,6.16952e-10,0.212297,
0.813,0.997721,-0.00477071,-2.01654e-09,0.242651,
0.813,1.00489,-0.0123064,-5.09827e-09,0.277301,
0.813,1.01358,-0.0259469,-6.25845e-09,0.316941,
0.813,1.01888,-0.0415019,-6.97891e-09,0.36227,
0.813,1.02685,-0.0552558,-6.69074e-09,0.41413,
0.813,1.03296,-0.0670557,-4.84459e-09,0.473389,
0.813,1.03693,-0.0750431,-2.35262e-09,0.54123,
0.813,1.03848,-0.077556,-2.03292e-10,0.618788,
0.813,1.03787,-0.0762789,8.02353e-10,0.707593,
0.813,1.03575,-0.0715264,1.53372e-09,0.809092,
0.813,1.03226,-0.0645258,1.83926e-09,0.925335,
0.813,1.028,-0.0558226,1.80412e-09,1.05821,
0.813,1.02347,-0.0466896,1.59999e-09,1.21017,
0.813,1.01903,-0.0377998,1.31548e-09,1.38391,
0.813,1.015,-0.0297159,1.02306e-09,1.58247,
0.813,1.01147,-0.0226938,7.66494e-10,1.81009,
0.813,1.0085,-0.0167524,5.57021e-10,2.07007,
0.813,1.00604,-0.0119036,3.95212e-10,2.36772,
0.813,1.00405,-0.00796057,2.86718e-10,2.70818,
0.813,1.00234,-0.00462654,1.98635e-10,3.09651,
0.813,1.00104,-0.00215616,1.57775e-10,3.54123,

0.938,0,0.0302046,0,1e-16,
0.938,-0.00570319,0.0302029,3.05349e-09,2.32316e-05,
0.938,-0.0110937,0.0301978,8.67256e-08,4.68694e-05,
0.938,-0.0162185,0.0301925,8.32669e-07,7.13267e-05,
0.938,-0.0210015,0.0301867,4.06026e-06,9.70313e-05,
0.938,-0.0251418,0.0301811,1.19862e-05,0.000124433,
0.938,-0.0282349,0.030176,2.24711e-05,0.000154011,
0.938,-0.0302237,0.0301703,2.86752e-05,0.000186283,
0.938,-0.0313844,0.0301626,2.74954e-05,0.000221814,
0.938,-0.0320119,0.0301566,2.05244e-05,0.000261227,
0.938,-0.0322985,0.0301394,9.52872e-06,0.000305212,
0.938,-0.0323485,0.0301652,-4.61878e-06,0.000354541,
0.938,-0.0322216,0.0301226,-2.14298e-05,0.000410078,
0.938,-0.0319497,0.0301195,-4.11167e-05,0.000472798,
0.938,-0.0315476,0.0301077,-6.38322e-05,0.000543802,
0.938,-0.0310234,0.0300957,-8.98511e-05,0.000624336,
0.938,-0.0303771,0.0300814,-0.000119738,0.000715816,
0.938,-0.0296053,0.0300656,-0.000153962,0.000819848,
0.938,-0.0287008,0.0300479,-0.000193164,0.000938261,
0.938,-0.0276536,0.0300282,-0.000238067,0.00107314,
0.938,-0.0264505,0.0300062,-0.000289491,0.00122685,
0.938,-0.0250761,0.0299818,-0.000348403,0.00140211,
0.938,-0.0235113,0.0299545,-0.000415924,0.00160199,
0.938,-0.0217337,0.0299242,-0.000493329,0.00183001,
0.938,-0.0197169,0.0298901,-0.00058205,0.0020902,
0.938,-0.0174301,0.0298525,-0.00068378,0.00238713,
0.938,-0.0148366,0.0298105,-0.000800476,0.00272605,
0.938,-0.0118933,0.0297639,-0.00093436,0.00311293,
0.938,-0.00854864,0.0297116,-0.00108792,0.00355458,
0.938,-0.0047421,0.029654,-0.00126406,0.00405882,
0.938,-0.000400551,0.0295897,-0.00146624,0.00463453,
0.938,0.0045625,0.0295185,-0.00169857,0.00529188,
0.938,0.0102534,0.0294388,-0.00196496,0.00604249,
0.938,0.0168017,0.0293517,-0.00227073,0.00689961,
0.938,0.0243679,0.0292552,-0.00262134,0.0078784,
0.938,0.0331514,0.0291506,-0.00302332,0.00899617,
0.938,0.043404,0.0290369,-0.00348319,0.0102727,
0.938,0.0554373,0.0289185,-0.00400848,0.0117305,
0.938,0.0696513,0.0287953,-0.00460743,0.0133955,
0.938,0.0865516,0.0286742,-0.00528873,0.0152971,
0.938,0.106788,0.0285562,-0.00605795,0.017469,
0.938,0.131165,0.0283414,-0.00702522,0.0199391,
0.938,0.161543,0.0281647,-0.00820832,0.0225116,
0.938,0.203322,0.0282859,-0.0090073,0.0255164,
0.938,0.266066,0.0286968,-0.00974979,0.0290096,
0.938,0.3618,0.0297279,-0.00989987,0.0330545,
0.938,0.499293,0.0319491,-0.00869172,0.0377237,
0.938,0.660256,0.0322472,-0.00640283,0.0426984,
0.938,0.7932,0.0300389,-0.00423819,0.0484919,
0.938,0.87667,0.0287153,-0.00208271,0.0552419,
0.938,0.929091,0.02757,-0.000843182,0.0630705,
0.938,0.961218,0.0288996,-0.000303182,0.0721179,
0.938,0.97818,0.0277861,-7.21063e-05,0.0822909,
0.938,0.982184,0.0249652,-5.54081e-06,0.0938338,
0.938,0.980093,0.0232608,8.61862e-07,0.107215,
0.938,0.978066,0.0222484,5.64987e-08,0.122488,
0.938,0.977361,0.0209787,-6.72436e-08,0.139919,
0.938,0.977829,0.0199678,-5.62053e-08,0.160003,
0.938,0.982973,0.0185383,-2.37779e-08,0.18281,
0.938,0.990489,0.0171776,-4.62982e-09,0.208986,
0.938,0.991182,0.0129204,-1.23538e-09,0.239003,
0.938,0.992748,0.0104852,-1.76071e-09,0.273269,
0.938,0.997129,0.00711204,-2.03353e-09,0.312507,
0.938,0.998991,0.00174056,-2.01482e-09,0.357468,
0.938,1.0013,-0.00338583,-2.63676e-09,0.408929,
0.938,1.00451,-0.00935738,-2.93916e-09,0.467901,
0.938,1.00771,-0.0157621,-2.63377e-09,0.535368,
0.938,1.01064,-0.021568,-2.03073e-09,0.612662,
0.938,1.01316,-0.0264929,-1.38904e-09,0.701152,
0.938,1.01499,-0.0299457,-7.35135e-10,0.802634,
0.938,1.01578,-0.0314003,-9.88756e-11,0.91874,
0.938,1.01558,-0.0309231,2.11114e-10,1.05163,
0.938,1.01464,-0.0289904,4.49342e-10,1.20403,
0.938,1.01305,-0.0258371,5.44069e-10,1.37848,
0.938,1.01114,-0.021983,5.36808e-10,1.57802,
0.938,1.00908,-0.0179238,4.72305e-10,1.80652,
0.938,1.00711,-0.0140044,3.87143e-10,2.06844,
0.938,1.00529,-0.010397,2.98645e-10,2.3677,
0.938,1.00375,-0.00737374,2.25529e-10,2.7102,
0.938,1.00235,-0.00461484,1.64806e-10,3.1022,
0.938,1.00126,-0.00257869,1.28862e-10,3.55094,

1,0,0.0708691,0,1e-16,
1,-0.011486,0.0708649,7.55717e-09,2.32217e-05,
1,-0.022451,0.0708607,2.49159e-07,4.685e-05,
1,-0.0329887,0.0708556,2.3838e-06,7.12984e-05,
1,-0.0429158,0.0708505,1.13217e-05,9.6995e-05,
1,-0.0515687,0.0708455,3.21136e-05,0.00012439,
1,-0.0581652,0.0708406,5.88959e-05,0.000153963,
1,-0.0626294,0.0708351,7.76593e-05,0.000186233,
1,-0.0655094,0.0708284,8.34184e-05,0.000221764,
1,-0.0673667,0.0708206,7.93899e-05,0.000261182,
1,-0.0685704,0.0708123,6.91918e-05,0.000305176,
1,-0.0693357,0.0708022,5.4815e-05,0.000354519,
1,-0.069786,0.070794,3.73106e-05,0.000410078,
1,-0.0699966,0.0707697,1.70189e-05,0.000472828,
1,-0.0700096,0.0707986,-6.09727e-06,0.000543873,
1,-0.0698515,0.0707531,-3.19364e-05,0.000624461,
1,-0.0695381,0.0707442,-6.08674e-05,0.000716009,
1,-0.069076,0.0707286,-9.3307e-05,0.000820128,
1,-0.0684668,0.0707121,-0.000129748,0.000938651,
1,-0.0677069,0.0706931,-0.000170873,0.00107366,
1,-0.0667891,0.0706721,-0.000217365,0.00122754,
1,-0.0657029,0.0706485,-0.000270026,0.001403,
1,-0.0644345,0.0706224,-0.000329749,0.00160314,
1,-0.0629668,0.0705933,-0.000397558,0.00183147,
1,-0.0612793,0.0705611,-0.000474627,0.00209203,
1,-0.0593477,0.0705253,-0.000562273,0.00238941,
1,-0.0571431,0.0704859,-0.000661976,0.00272886,
1,-0.0546319,0.0704424,-0.000775432,0.00311639,
1,-0.0517745,0.070395,-0.000904562,0.00355882,
1,-0.0485243,0.0703432,-0.00105154,0.00406398,
1,-0.0448261,0.0702875,-0.00121879,0.00464079,
1,-0.0406146,0.0702278,-0.00140913,0.00529946,
1,-0.0358114,0.0701652,-0.00162566,0.00605162,
1,-0.0303227,0.0701,-0.00187195,0.0069106,
1,-0.0240344,0.0700344,-0.00215199,0.00789159,
1,-0.0168073,0.0699698,-0.00247036,0.00901195,
1,-0.00846988,0.0699103,-0.00283214,0.0102915,
1,0.00118873,0.0698588,-0.00324424,0.011753,
1,0.0124304,0.0698209,-0.00371111,0.0134223,
1,0.0255757,0.0697908,-0.00424347,0.0153289,
1,0.0410573,0.0697904,-0.00486611,0.0175068,
1,0.0595171,0.0697958,-0.00559019,0.0199945,
1,0.0821006,0.069652,-0.00637397,0.0228361,
1,0.110775,0.0691298,-0.00705564,0.0260822,
1,0.148442,0.0682892,-0.00784293,0.0297904,
1,0.199656,0.0675603,-0.00875172,0.0340265,
1,0.272676,0.0674736,-0.00958775,0.0388658,
1,0.380122,0.0680635,-0.00970647,0.0443714,
1,0.524834,0.0705459,-0.0083293,0.050306,
1,0.680985,0.0718744,-0.00599977,0.0567779,
1,0.807091,0.0712479,-0.00390459,0.0643629,
1,0.891892,0.0682174,-0.00162103,0.073201,
1,0.938321,0.0711901,-0.000487945,0.0834523,
1,0.957974,0.0674825,-9.42917e-05,0.0952491,
1,0.961121,0.0643544,-9.51616e-06,0.108351,
1,0.960668,0.0614068,-1.25401e-06,0.123411,
1,0.959547,0.0583618,-5.78801e-07,0.140887,
1,0.960268,0.0551572,-3.37834e-07,0.160913,
1,0.964169,0.051278,-1.5066e-07,0.183368,
1,0.973525,0.0467976,-3.39739e-08,0.209311,
1,0.977439,0.041115,-5.66058e-09,0.239097,
1,0.980111,0.0360466,-2.95613e-09,0.273067,
1,0.985206,0.0302815,-2.716e-09,0.312052,
1,0.988321,0.0237851,-2.50254e-09,0.356741,
1,0.99125,0.0172727,-2.88344e-09,0.407906,
1,0.994746,0.01041,-3.15977e-09,0.466542,
1,0.99831,0.0032557,-2.92379e-09,0.53384,
1,1.00169,-0.00343001,-2.4225e-09,0.610826,
1,1.00484,-0.00974662,-1.83823e-09,0.699112,
1,1.00745,-0.0147615,-1.24486e-09,0.800294,
1,1.00937,-0.0185812,-7.17296e-10,0.916281,
1,1.01045,-0.0206054,-2.6177e-10,1.04923,
1,1.01064,-0.0209566,4.85648e-11,1.2016,
1,1.01011,-0.0199541,2.31627e-10,1.37615,
1,1.00911,-0.0179251,3.15661e-10,1.57647,
1,1.00776,-0.0152693,3.28369e-10,1.80575,
1,1.00733,-0.0144203,3.19601e-10,1.88256,
1,1.00629,-0.0123661,2.98139e-10,2.0677,
1,1.00483,-0.0094868,2.47746e-10,2.36835,
1,1.00353,-0.00692956,1.95e-10,2.71278,
1,1.00231,-0.00453766,1.43323e-10,3.10614,
1,1.00136,-0.00274898,1.09865e-10,3.55725,

1.125,0,0.176903,0,1e-16,
1.125,0.0131985,0.176899,-4.95153e-08,2.2977e-05,
1.125,0.0269138,0.1769,-1.86466e-06,4.63572e-05,
1.125,0.0409235,0.1769,-1.76518e-05,7.05508e-05,
1.125,0.0536844,0.176899,-6.99729e-05,9.59823e-05,
1.125,0.0632956,0.176897,-0.000144823,0.000123098,
1.125,0.0698669,0.176894,-0.000203426,0.000152375,
1.125,0.0744803,0.176889,-0.000241337,0.000184326,
1.125,0.0779482,0.176882,-0.000268381,0.000219514,
1.125,0.0807325,0.176873,-0.000291038,0.000258557,
1.125,0.0830904,0.176862,-0.000312507,0.000302141,
1.125,0.085173,0.176848,-0.000334464,0.000351033,
1.125,0.0870742,0.176831,-0.000357954,0.000406094,
1.125,0.0888569,0.17681,-0.000383757,0.000468293,
1.125,0.0905653,0.176785,-0.000412554,0.000538726,
1.125,0.0922329,0.176755,-0.000445011,0.000618634,
1.125,0.0938862,0.176719,-0.000481823,0.000709426,
1.125,0.095548,0.176676,-0.000523744,0.000812702,
1.125,0.0972381,0.176625,-0.000571608,0.000930284,
1.125,0.0989756,0.176565,-0.000626355,0.00106425,
1.125,0.100779,0.176494,-0.000689052,0.00121696,
1.125,0.102666,0.17641,-0.000760908,0.00139111,
1.125,0.104658,0.176311,-0.000843301,0.00158979,
1.125,0.106775,0.176195,-0.000937809,0.00181649,
1.125,0.109041,0.176059,-0.00104624,0.00207523,
1.125,0.111481,0.175899,-0.00117064,0.00237059,
1.125,0.114124,0.175714,-0.00131337,0.00270779,
1.125,0.117004,0.175498,-0.00147712,0.0030928,
1.125,0.120159,0.175249,-0.00166495,0.00353243,
1.125,0.123636,0.174962,-0.00188034,0.00403447,
1.125,0.127487,0.174634,-0.00212727,0.00460781,
1.125,0.131778,0.174261,-0.0024102,0.00526262,
1.125,0.136585,0.173839,-0.00273417,0.00601049,
1.125,0.142003,0.173367,-0.0031048,0.00686471,
1.125,0.148148,0.172843,-0.00352831,0.00784041,
1.125,0.155165,0.172266,-0.00401145,0.00895492,
1.125,0.163234,0.17164,-0.00456131,0.010228,
1.125,0.172586,0.170966,-0.00518521,0.0116823,
1.125,0.183511,0.170252,-0.0058901,0.0133436,
1.125,0.196385,0.169506,-0.00668205,0.0152415,
1.125,0.211691,0.168743,-0.00756733,0.0174097,
1.125,0.230069,0.168038,-0.00874358,0.0198867,
1.125,0.253283,0.167986,-0.00994844,0.0227167,
1.125,0.285816,0.168509,-0.0103417,0.0259499,
1.125,0.333329,0.16887,-0.0106007,0.029644,
1.125,0.397719,0.168632,-0.0104448,0.0338647,
1.125,0.47828,0.167907,-0.00962411,0.0386871,
1.125,0.571719,0.166744,-0.00811265,0.0441974,
1.125,0.669635,0.164887,-0.00620791,0.0504935,
1.125,0.759567,0.162409,-0.00436193,0.0576879,
1.125,0.83276,0.158371,-0.00238863,0.0659089,
1.125,0.884587,0.154916,-0.000918018,0.0753032,
1.125,0.913328,0.149271,-0.000253137,0.0860384,
1.125,0.923322,0.142773,-5.12331e-05,0.0983063,
1.125,0.925724,0.13573,-1.1788e-05,0.112326,
1.125,0.927012,0.128506,-3.8113e-06,0.128348,
1.125,0.928544,0.120873,-1.48875e-06,0.146659,
1.125,0.93287,0.11286,-5.84899e-07,0.167586,
1.125,0.940832,0.104101,-1.82495e-07,0.191503,
1.125,0.950765,0.0955968,-3.79088e-08,0.218838,
1.125,0.955642,0.0864916,-8.49496e-09,0.250082,
1.125,0.960761,0.0769642,-4.52465e-09,0.285792,
1.125,0.967332,0.0675417,-3.77712e-09,0.32661,
1.125,0.971694,0.0579006,-3.60595e-09,0.373265,
1.125,0.976046,0.0484925,-3.91996e-09,0.426595,
1.125,0.980691,0.0391375,-4.00509e-09,0.487555,
1.125,0.985188,0.0300299,-3.59752e-09,0.55724,
1.125,0.989381,0.0214799,-2.97415e-09,0.636898,
1.125,0.99335,0.0135841,-2.34986e-09,0.72796,
1.125,0.996884,0.00648613,-1.775e-09,0.82855,
1.125,0.999925,0.000425345,-1.26299e-09,0.94298,
1.125,1.00101,-0.00171761,-1.05919e-09,1.00315,
1.125,1.0023,-0.00425808,-8.17333e-10,1.07453,
1.125,1.00397,-0.00759882,-4.64074e-10,1.22528,
1.125,1.00493,-0.00956855,-1.91115e-10,1.39832,
1.125,1.00526,-0.0102345,-8.95984e-12,1.59646,
1.125,1.00504,-0.00983649,8.21101e-11,1.82431,
1.125,1.00453,-0.00882834,1.3003e-10,2.08526,
1.125,1.00378,-0.00738827,1.37066e-10,2.38489,
1.125,1.00298,-0.00583679,1.21579e-10,2.72763,
1.125,1.00216,-0.00426657,9.60115e-11,3.12069,
1.125,1.00151,-0.00300466,7.56708e-11,3.57128,

1.25,0,0.187803,0,1e-16,
1.25,0.0411187,0.1878,-1.87016e-07,2.27149e-05,
1.25,0.0826467,0.187801,-6.67607e-06,4.58292e-05,
1.25,0.123776,0.187801,-5.62779e-05,6.97496e-05,
1.25,0.160694,0.1878,-0.000190824,9.48968e-05,
1.25,0.189715,0.1878,-0.00035645,0.000121713,
1.25,0.211033,0.187798,-0.000485184,0.000150671,
1.25,0.226682,0.187796,-0.000570234,0.00018228,
1.25,0.238513,0.187793,-0.000625643,0.000217097,
1.25,0.247788,0.187788,-0.000663348,0.000255735,
1.25,0.255324,0.187782,-0.000691083,0.000298876,
1.25,0.261642,0.187773,-0.000713502,0.00034728,
1.25,0.267086,0.187763,-0.000733439,0.000401801,
1.25,0.271889,0.187751,-0.000752712,0.000463402,
1.25,0.27621,0.187735,-0.000772585,0.00053317,
1.25,0.280166,0.187716,-0.000794032,0.000612337,
1.25,0.283843,0.187693,-0.000817883,0.000702303,
1.25,0.287308,0.187665,-0.000844913,0.000804657,
1.25,0.290614,0.187631,-0.000875898,0.00092121,
1.25,0.293805,0.187591,-0.000911656,0.00105402,
1.25,0.296918,0.187543,-0.000953085,0.00120545,
1.25,0.299987,0.187485,-0.00100117,0.00137816,
1.25,0.303044,0.187417,-0.00105704,0.00157523,
1.25,0.306118,0.187337,-0.00112194,0.00180013,
1.25,0.309239,0.187242,-0.00119734,0.00205686,
1.25,0.312438,0.18713,-0.00128488,0.00234997,
1.25,0.315747,0.187,-0.00138645,0.00268466,
1.25,0.319201,0.186847,-0.0015042,0.00306685,
1.25,0.322841,0.18667,-0.00164062,0.00350335,
1.25,0.326709,0.186465,-0.00179853,0.00400188,
1.25,0.330858,0.186229,-0.00198113,0.00457132,
1.25,0.335347,0.185959,-0.00219206,0.00522176,
1.25,0.340246,0.185652,-0.00243541,0.00596478,
1.25,0.345642,0.185304,-0.00271574,0.00681358,
1.25,0.351637,0.184915,-0.00303806,0.00778325,
1.25,0.358357,0.184483,-0.0034078,0.00889105,
1.25,0.36596,0.184006,-0.00383051,0.0101567,
1.25,0.374642,0.183481,-0.00431176,0.0116027,
1.25,0.38465,0.182913,-0.00485649,0.0132548,
1.25,0.396294,0.182301,-0.00546813,0.0151425,
1.25,0.409968,0.181644,-0.0061474,0.0172993,
1.25,0.426172,0.180954,-0.00691866,0.0197638,
1.25,0.445681,0.180332,-0.00787598,0.0225799,
1.25,0.470525,0.180086,-0.00870888,0.0257978,
1.25,0.504988,0.180207,-0.00874293,0.0294749,
1.25,0.553014,0.180091,-0.00846698,0.0336769,
1.25,0.613085,0.179412,-0.00768711,0.0384787,
1.25,0.679965,0.178245,-0.00640697,0.0439663,
1.25,0.747072,0.176468,-0.00483824,0.0502376,
1.25,0.808088,0.173958,-0.00320468,0.0574048,
1.25,0.859016,0.170511,-0.00156038,0.0655959,
1.25,0.895031,0.166472,-0.000549004,0.0749575,
1.25,0.9127,0.161442,-0.000132528,0.0856571,
1.25,0.918436,0.155928,-2.63464e-05,0.0978863,
1.25,0.919787,0.149717,-6.83947e-06,0.111864,
1.25,0.920702,0.143134,-2.64602e-06,0.127841,
1.25,0.92275,0.136024,-1.17373e-06,0.146102,
1.25,0.927661,0.128384,-4.70183e-07,0.166976,
1.25,0.935674,0.12008,-1.41629e-07,0.190837,
1.25,0.944133,0.111499,-3.00523e-08,0.218113,
1.25,0.948589,0.102376,-7.70129e-09,0.249292,
1.25,0.953842,0.0928463,-4.45141e-09,0.284935,
1.25,0.960176,0.0831027,-3.75854e-09,0.325682,
1.25,0.964414,0.0733948,-3.64489e-09,0.372264,
1.25,0.968842,0.0635437,-4.01597e-09,0.425519,
1.25,0.973601,0.053889,-4.098e-09,0.486402,
1.25,0.978197,0.0445105,-3.70013e-09,0.55601,
1.25,0.982552,0.0354837,-3.10321e-09,0.635594,
1.25,0.98674,0.0270303,-2.50282e-09,0.726585,
1.25,0.990572,0.0192747,-1.96062e-09,0.83062,
1.25,0.994024,0.012376,-1.48131e-09,0.949574,
1.25,0.996934,0.00651745,-1.06587e-09,1.08559,
1.25,0.999289,0.00179941,-7.17714e-10,1.24111,
1.25,1.001,-0.00169073,-4.41083e-10,1.41894,
1.25,1.00217,-0.00404156,-2.32001e-10,1.62229,
1.25,1.00277,-0.0052739,-8.52209e-11,1.84947,
1.25,1.00293,-0.00562221,4.06524e-12,2.10883,
1.25,1.00274,-0.00531779,4.39864e-11,2.40658,
1.25,1.0024,-0.00468948,5.9127e-11,2.74752,
1.25,1.00235,-0.00459474,5.84895e-11,2.79119,
1.25,1.00195,-0.00383466,5.32786e-11,3.13954,
1.25,1.00163,-0.00322816,3.40037e-11,3.5883,

1.375,0,0.148282,0,1e-16,
1.375,0.0542025,0.148281,-2.99496e-07,2.24527e-05,
1.375,0.108866,0.148281,-1.04873e-05,4.53013e-05,
1.375,0.16276,0.148281,-8.30949e-05,6.89485e-05,
1.375,0.211251,0.148281,-0.000257756,9.38113e-05,
1.375,0.250751,0.148281,-0.000451832,0.000120328,
1.375,0.281802,0.148281,-0.0005995,0.000148967,
1.375,0.306411,0.14828,-0.00070158,0.000180234,
1.375,0.326292,0.148279,-0.000772282,0.00021468,
1.375,0.342661,0.148277,-0.000822298,0.000252914,
1.375,0.356369,0.148275,-0.000858585,0.000295611,
1.375,0.368025,0.148272,-0.000885749,0.000343527,
1.375,0.378075,0.148268,-0.000906945,0.000397509,
1.375,0.386854,0.148263,-0.000924421,0.000458511,
1.375,0.394619,0.148257,-0.000939838,0.000527614,
1.375,0.401568,0.148249,-0.000954481,0.00060604,
1.375,0.407856,0.148238,-0.000969391,0.00069518,
1.375,0.413608,0.148226,-0.00098545,0.000796613,
1.375,0.418924,0.14821,-0.00100346,0.000912136,
1.375,0.423888,0.148191,-0.00102417,0.0010438,
1.375,0.428567,0.148167,-0.00104837,0.00119393,
1.375,0.433022,0.148139,-0.00107683,0.00136521,
1.375,0.437304,0.148104,-0.00111043,0.00156067,
1.375,0.441459,0.148063,-0.0011501,0.00178377,
1.375,0.445531,0.148014,-0.00119692,0.00203849,
1.375,0.449559,0.147956,-0.00125207,0.00232935,
1.375,0.453584,0.147888,-0.0013169,0.00266152,
1.375,0.457645,0.147807,-0.00139293,0.00304091,
1.375,0.461784,0.147712,-0.00148191,0.00347427,
1.375,0.466046,0.147601,-0.00158581,0.0039693,
1.375,0.470479,0.147472,-0.00170684,0.00453483,
1.375,0.475137,0.147323,-0.00184749,0.00518091,
1.375,0.480083,0.147153,-0.00201056,0.00591907,
1.375,0.485387,0.146958,-0.00219912,0.00676245,
1.375,0.491136,0.146736,-0.0024165,0.0077261,
1.375,0.49743,0.146487,-0.00266622,0.00882719,
1.375,0.504393,0.146208,-0.00295192,0.0100854,
1.375,0.512173,0.145899,-0.00327708,0.0115231,
1.375,0.520956,0.145557,-0.00364466,0.013166,
1.375,0.530969,0.145183,-0.00405661,0.0150434,
1.375,0.542498,0.144775,-0.00451303,0.017189,
1.375,0.555895,0.144329,-0.00501129,0.0196409,
1.375,0.571604,0.143853,-0.00557021,0.0224431,
1.375,0.590337,0.143383,-0.00614948,0.0256456,
1.375,0.613393,0.14301,-0.00678778,0.0293058,
1.375,0.64385,0.142858,-0.00670385,0.0334891,
1.375,0.684698,0.142614,-0.00626019,0.0382704,
1.375,0.733918,0.142035,-0.00542659,0.0437353,
1.375,0.78618,0.140911,-0.00425794,0.0499817,
1.375,0.836491,0.139987,-0.00284844,0.0571216,
1.375,0.881045,0.137974,-0.00140578,0.0652828,
1.375,0.912846,0.135584,-0.000463824,0.0746118,
1.375,0.92775,0.132617,-9.58443e-05,0.0852759,
1.375,0.932025,0.129424,-1.41355e-05,0.0974663,
1.375,0.932281,0.125749,-2.57579e-06,0.111402,
1.375,0.932027,0.121729,-1.1502e-06,0.127333,
1.375,0.933066,0.117256,-6.9747e-07,0.145546,
1.375,0.937251,0.112262,-3.15544e-07,0.166367,
1.375,0.943879,0.106884,-9.36311e-08,0.190171,
1.375,0.950033,0.100962,-1.94821e-08,0.217387,
1.375,0.953151,0.0944354,-5.31635e-09,0.248502,
1.375,0.957146,0.08753,-3.33607e-09,0.284078,
1.375,0.962102,0.0802163,-2.85861e-09,0.324754,
1.375,0.965119,0.0725276,-2.82132e-09,0.371263,
1.375,0.968605,0.0646704,-3.24779e-09,0.424442,
1.375,0.972512,0.0566071,-3.41906e-09,0.485249,
1.375,0.976397,0.0485051,-3.17542e-09,0.554781,
1.375,0.980165,0.0405265,-2.7449e-09,0.634289,
1.375,0.98394,0.0328244,-2.28378e-09,0.725209,
1.375,0.987495,0.0256187,-1.84765e-09,0.82918,
1.375,0.990813,0.0188761,-1.4543e-09,0.948077,
1.375,0.993749,0.0129892,-1.10529e-09,1.08405,
1.375,0.996277,0.00785401,-8.03242e-10,1.23955,
1.375,0.998309,0.00371751,-5.51566e-10,1.41738,
1.375,0.999882,0.000551159,-3.50351e-10,1.62076,
1.375,1.00095,-0.00163236,-1.96032e-10,1.85337,
1.375,1.00158,-0.00293792,-8.93771e-11,2.1194,
1.375,1.00184,-0.00350407,-2.10163e-11,2.42367,
1.375,1.00185,-0.00358986,5.27009e-12,2.77091,
1.375,1.00172,-0.00338789,1.56429e-11,3.16112,
1.375,1.00165,-0.00325598,4.21648e-12,3.6087,

-3.19886,0,0.020925,0,0,
-2.99627,0,0.00593614,0,0,
-2.80402,0,0.00433098,0,0,
-2.62157,0,0.00368704,0,0,
-2.44842,0,0.00367697,0,0,
-2.2841,0,0.00417672,0,0,
-2.12815,0,0.00471336,0,0,
-1.98016,0,0.00557123,0,0,
-1.83971,0,0.00653989,0,0,
-1.70643,0,0.00788396,0,0,
-1.57994,0,0.0092728,0,0,
-1.4599,0,0.0112899,0,0,
-1.34598,0,0.0135147,0,0,
-1.23786,0,0.016059,0,0,
-1.13526,0,0.0193355,0,0,
-1.03789,0,0.0229916,0,0,
-0.945488,0,0.0277033,0,0,
-0.857795,0,0.0329735,0,0,
-0.774572,0,0.0398207,0,0,
-0.695593,0,0.0474904,0,0,
-0.620641,0,0.0575574,0,0,
-0.54951,0,0.0688467,0,0,
-0.482006,0,0.083833,0,0,
-0.417943,0,0.10065,0,0,
-0.357147,0,0.123357,0,0,
-0.29945,0,0.149008,0,0,
-0.244696,0,0.183953,0,0,
-0.192732,0,0.218434,0,0,
-0.143419,0,0.268901,0,0,
-0.0966231,0,0.320947,0,0,
-0.0522148,0,0.342743,0,0,
-0.0100698,0,0.34755,0,0,
0.0299268,0,0.337282,0,0,
0.0678843,0,0.293451,0,0,
0.103908,0,0.239966,0,0,
0.138096,0,0.111868,0,0,
0.17054,0,-0.000890812,0,0,
0.20133,0,-0.0887907,0,0,
0.230551,0,-0.165537,0,0,
0.258281,0,-0.229079,0,0,
0.284598,0,-0.288117,0,0,
0.309574,0,-0.338408,0,0,
0.333275,0,-0.383703,0,0,
0.355769,0,-0.425338,0,0,
0.377115,0,-0.461815,0,0,
0.397374,0,-0.49668,0,0,
0.416599,0,-0.527038,0,0,
0.434844,0,-0.555973,0,0,
0.452159,0,-0.581543,0,0,
0.468591,0,-0.605844,0,0,
0.484186,0,-0.627572,0,0,
0.498985,0,-0.648146,0,0,
0.51303,0,-0.666921,0,0,
0.526358,0,-0.684551,0,0,
0.539007,0,-0.700572,0,0,
0.551012,0,-0.715425,0,0,
0.562404,0,-0.729517,0,0,
0.573215,0,-0.742293,0,0,
0.583475,0,-0.754443,0,0,
0.593212,0,-0.765595,0,0,
0.602453,0,-0.776225,0,0,
0.611222,0,-0.785723,0,0,
0.619544,0,-0.794771,0,0,
0.627442,0,-0.803353,0,0,
0.634938,0,-0.811185,0,0,
0.642051,0,-0.818578,0,0,
0.648801,0,-0.825246,0,0,
0.655207,0,-0.830186,0,0,
0.661287,0,-0.824232,0,0,
0.667057,0,-0.794843,0,0,
0.672532,0,-0.753582,0,0,
0.677729,0,-0.673134,0,0,
0.68266,0,-0.601443,0,0,
0.68734,0,-0.541812,0,0,
0.691781,0,-0.492818,0,0,
0.695996,0,-0.455759,0,0,
0.699996,0,-0.423174,0,0,
0.703996,0,-0.396366,0,0,
0.707996,0,-0.371063,0,0,
0.712135,0,-0.349526,0,0,
0.716416,0,-0.327782,0,0,
0.720846,0,-0.309664,0,0,
0.725429,0,-0.290826,0,0,
0.730171,0,-0.27514,0,0,
0.735076,0,-0.258734,0,0,
0.740151,0,-0.244648,0,0,
0.745402,0,-0.230093,0,0,
0.750835,0,-0.216987,0,0,
0.756455,0,-0.203555,0,0,
0.76227,0,-0.190414,0,0,
0.768286,0,-0.179192,0,0,
0.77451,0,-0.166216,0,0,
0.78095,0,-0.154349,0,0,
0.787612,0,-0.142361,0,0,
0.794505,0,-0.13056,0,0,
0.801636,0,-0.118892,0,0,
0.809014,0,-0.107259,0,0,
0.816647,0,-0.0958989,0,0,
0.824544,0,-0.0844793,0,0,
0.832715,0,-0.0734853,0,0,
0.841168,0,-0.0623349,0,0,
0.849914,0,-0.0517274,0,0,
0.858962,0,-0.0409511,0,0,
0.868323,0,-0.0307728,0,0,
0.878008,0,-0.0204762,0,0,
0.888028,0,-0.0107853,0,0,
0.898395,0,-0.00106075,0,0,
0.90912,0,0.00806739,0,0,
0.920216,0,0.0171723,0,0,
0.931697,0,0.0255585,0,0,
0.943574,0,0.034313,0,0,
0.955862,0,0.0404952,0,0,
0.968576,0,0.048898,0,0,
0.981729,0,0.0538064,0,0,
0.995332,0,0.0658581,0,0,
1.00941,0,0.080965,0,0,
1.02397,0,0.100524,0,0,
1.03904,0,0.112117,0,0,
1.05463,0,0.126945,0,0,
1.07076,0,0.141063,0,0,
1.08745,0,0.154236,0,0,
1.10471,0,0.16624,0,0,
1.12258,0,0.175806,0,0,
1.14106,0,0.18417,0,0,
1.16018,0,0.189122,0,0,
1.17996,0,0.193087,0,0,
1.20043,0,0.193464,0,0,
1.22161,0,0.192102,0,0,
1.24351,0,0.18949,0,0,
1.26618,0,0.183596,0,0,
1.28963,0,0.177545,0,0,
1.31389,0,0.16941,0,0,
1.33899,0,0.16119,0,0,
1.36496,0,0.151696,0,0,
1.39183,0,0.142562,0,0,
1.41962,0,0.13272,0,0,
1.44838,0,0.123527,0,0,
1.47813,0,0.114061,0,0,
1.50892,0,0.105373,0,0,
1.54076,0,0.096708,0,0,
1.57371,0,0.0888328,0,0,
1.6078,0,0.081119,0,0,
1.64307,0,0.0741502,0,0,
1.67956,0,0.0674286,0,0,
1.71731,0,0.0613797,0,0,
1.75637,0,0.055631,0,0,
1.79677,0,0.0504913,0,0,
1.83858,0,0.0456287,0,0,
1.88183,0,0.041286,0,0,
1.92658,0,0.0372214,0,0,
1.97288,0,0.0335624,0,0,
2.02078,0,0.0303121,0,0,
2.07033,0,0.0272074,0,0,
2.1216,0,0.0244838,0,0,
2.17465,0,0.0219567,0,0,
2.22953,0,0.019719,0,0,
2.2863,0,0.0176347,0,0,
2.34505,0,0.0157756,0,0,
2.40582,0,0.0141163,0,0,
2.4687,0,0.0125669,0,0,
2.53375,0,0.0112023,0,0,
2.60105,0,0.0099416,0,0,
2.67068,0,0.00882836,0,0,
2.74272,0,0.00780034,0,0,
2.81725,0,0.00690344,0,0,
2.89436,0,0.00608208,0,0,
2.97414,0,0.00535723,0,0,
3.05668,0,0.00468253,0,0,
3.14207,0,0.00409089,0,0,
3.23042,0,0.00352716,0,0,
3.32182,0,0.00306493,0,0,
3.41639,0,0.00262795,0,0,
3.51423,0,0.00222193,0,0,
3.61545,0,0.0018606,0,0,
3.72017,0,0.00153736,0,0,
3.82852,0,0.00124564,0,0,
3.94062,0,0.000965349,0,0,
4.05659,0,0.000727636,0,0,
4.17658,0,0.000480634,0,0,
4.30072,0,0.000250426,0,0,
4.42915,0,0.00148746,0,0,

