X,x_velocity,cp,uw_b,wall_distance,
M=.875
0.5,0,-0.6078,0,0,
0.5313,0,-0.652,0,0,
0.5625,0,-0.7235,0,0,
0.5938,0,-0.7404,0,0,
0.625,0,-0.7824,0,0,
0.6563,0,-0.5235,0,0,
0.6875,0,-0.3256,0,0,
0.7188,0,-0.2521,0,0,
0.75,0,-0.2071,0,0,
0.7813,0,-0.1715,0,0,
0.8125,0,-0.1421,0,0,
0.8438,0,-0.1177,0,0,
0.875,0,-0.101,0,0,
0.9063,0,-0.0858,0,0,
0.9375,0,-0.0765,0,0,
0.9688,0,-0.0591,0,0,
1.025,0,-0.0378,0,0,
1.0563,0,0.0017,0,0,
1.0875,0,0.0376,0,0,
1.1188,0,0.079,0,0,
1.15,0,0.1128,0,0,
1.1813,0,0.1286,0,0,
1.2125,0,0.1413,0,0,
1.2438,0,0.1509,0,0,
1.275,0,0.1454,0,0,
1.3063,0,0.1414,0,0,
1.3375,0,0.1343,0,0,
1.3688,0,0.1245,0,0,
1.4,0,0.1233,0,0,
1.4313,0,0.11,0,0,
1.4938,0,0.0929,0,0,
1.5563,0,0.0778,0,0,
1.6188,0,0.0687,0,0,

x/c = -0.250
0,0.916,0,0,0.125,
0,0.921,0,0,0.075,
0,0.926,0,0,0.0625,
0,0.921,0,0,0.05,
0,0.881,0,0,0.0375,
0,0.786,0,0,0.025,
0,0.733,0,0,0.01875,
0,0.671,0,0,0.0125,
0,0.596,0,0,0.00625,
0,0.521,0,0,0.00250984,
0,0.475,0,0,0.00123031,

x/c = 0.688
0,1.272,0,0,0.0625,
0,1.252,0,0,0.05,
0,1.206,0,0,0.0375,
0,1.144,0,0,0.025,
0,1.096,0,0,0.0125,
0,1.069,0,0,0.00999016,
0,0.997,0,0,0.00625,
0,0.728,0,0,0.00374016,
0,0.738,0,0,0.00250984,
0,0.58,0,0,0.00123031,

x/c = 0.813
0,1.042,0,0,0.125,
0,1.048,0,0,0.1125,
0,1.052,0,0,0.1,
0,1.059,0,0,0.0875,
0,1.063,0,0,0.075,
0,1.053,0,0,0.0625,
0,1.014,0,0,0.05,
0,0.961,0,0,0.0375,
0,0.871,0,0,0.025,
0,0.682,0,0,0.01875,
0,0.332,0,0,0.0125,
0,0.104,0,0,0.00625,
0,0.003,0,0,0.00250984,
0,-0.033,0,0,0.00123031,

x/c = 0.938
0,1.016,0,0,0.125,
0,1.021,0,0,0.1125,
0,1.013,0,0,0.1,
0,1.015,0,0,0.0875,
0,0.975,0,0,0.075,
0,0.925,0,0,0.0625,
0,0.804,0,0,0.05,
0,0.506,0,0,0.0375,
0,0.204,0,0,0.025,
0,0.078,0,0,0.01875,
0,-0.027,0,0,0.0125,
0,-0.077,0,0,0.00625,
0,-0.096,0,0,0.00250984,
0,-0.081,0,0,0.00123031,

x/c = 1.000
0,1.021,0,0,0.12623,
0,1.024,0,0,0.11373,
0,1.013,0,0,0.10123,
0,0.966,0,0,0.0887303,
0,0.892,0,0,0.0762303,
0,0.73,0,0,0.0637303,
0,0.485,0,0,0.0512303,
0,0.194,0,0,0.0387303,
0,0.065,0,0,0.0262303,
0,-0.068,0,0,0.0137303,
0,-0.113,0,0,0.00748031,
0,-0.128,0,0,0.00501968,
0,-0.117,0,0,0.00250984,
0,-0.098,0,0,0.00123031,

x/c = 1.125
0,0.97,0,0,0.125,
0,0.948,0,0,0.0875,
0,0.896,0,0,0.075,
0,0.822,0,0,0.0625,
0,0.611,0,0,0.05,
0,0.555,0,0,0.04375,
0,0.419,0,0,0.0375,
0,0.26,0,0,0.025,
0,0.204,0,0,0.01875,
0,0.123,0,0,0.0125,
0,0.1,0,0,0.00625,
0,0.069,0,0,0.00314961,

x/c = 1.250
0,0.938,0,0,0.12623,
0,0.943,0,0,0.11373,
0,0.941,0,0,0.10123,
0,0.941,0,0,0.0887303,
0,0.91,0,0,0.0762303,
0,0.858,0,0,0.0637303,
0,0.761,0,0,0.0512303,
0,0.628,0,0,0.0387303,
0,0.516,0,0,0.0262303,
0,0.45,0,0,0.0199803,
0,0.403,0,0,0.0137303,
0,0.344,0,0,0.00748031,
0,0.339,0,0,0.00437992,
0,0.303,0,0,0.00250984,
0,0.264,0,0,0.00123031,

x/c = 1.375
0,0.939,0,0,0.12623,
0,0.945,0,0,0.11373,
0,0.948,0,0,0.10123,
0,0.946,0,0,0.0887303,
0,0.93,0,0,0.0762303,
0,0.886,0,0,0.0637303,
0,0.802,0,0,0.0512303,
0,0.707,0,0,0.0387303,
0,0.61,0,0,0.0262303,
0,0.579,0,0,0.0199803,
0,0.543,0,0,0.0137303,
0,0.514,0,0,0.00748031,
0,0.503,0,0,0.00437992,
0,0.477,0,0,0.00250984,
0,0.442,0,0,0.00123031,

x/c = -0.250
0,0,0,8e-05,0.125,
0,0,0,-1e-05,0.075,
0,0,0,-5.4e-05,0.0625,
0,0,0,-0.00016,0.05,
0,0,0,-0.00059,0.0375,
0,0,0,-0.001166,0.025,
0,0,0,-0.001284,0.01875,
0,0,0,-0.001368,0.0125,
0,0,0,-0.001571,0.00625,
0,0,0,-0.001326,0.00250984,
0,0,0,-0.001025,0.00123031,

x/c = 0.688
0,0,0,-0.000825,0.0625,
0,0,0,-0.000926,0.05,
0,0,0,-0.001247,0.0375,
0,0,0,-0.001131,0.025,
0,0,0,-0.001199,0.0125,
0,0,0,-0.001716,0.00999016,
0,0,0,-0.002772,0.00625,
0,0,0,-0.005803,0.00374016,
0,0,0,-0.005847,0.00250984,
0,0,0,-0.005639,0.00123031,

x/c = 0.813
0,0,0,1.4e-05,0.125,
0,0,0,9.5e-05,0.1125,
0,0,0,9.9e-05,0.1,
0,0,0,0.000114,0.0875,
0,0,0,-2.5e-05,0.075,
0,0,0,-0.000238,0.0625,
0,0,0,-0.000629,0.05,
0,0,0,-0.000715,0.0375,
0,0,0,-0.003653,0.025,
0,0,0,-0.008221,0.01875,
0,0,0,-0.012831,0.0125,
0,0,0,-0.008706,0.00625,
0,0,0,-0.005013,0.00250984,
0,0,0,-0.003925,0.00123031,

x/c = 0.938
0,0,0,0.000104,0.125,
0,0,0,6.4e-05,0.1125,
0,0,0,-6.5e-05,0.1,
0,0,0,-0.000346,0.0875,
0,0,0,-0.000667,0.075,
0,0,0,-0.001202,0.0625,
0,0,0,-0.006633,0.05,
0,0,0,-0.018261,0.0375,
0,0,0,-0.014216,0.025,
0,0,0,-0.010624,0.01875,
0,0,0,-0.007067,0.0125,
0,0,0,-0.004291,0.00625,
0,0,0,-0.003234,0.00250984,
0,0,0,-0.002856,0.00123031,

x/c = 1.000
0,0,0,2.3e-05,0.12623,
0,0,0,-0.000104,0.11373,
0,0,0,-0.000361,0.10123,
0,0,0,-0.001011,0.0887303,
0,0,0,-0.002986,0.0762303,
0,0,0,-0.010959,0.0637303,
0,0,0,-0.018722,0.0512303,
0,0,0,-0.014369,0.0387303,
0,0,0,-0.009655,0.0262303,
0,0,0,-0.003822,0.0137303,
0,0,0,-0.001892,0.00748031,
0,0,0,-0.001517,0.00501968,
0,0,0,-0.000917,0.00250984,
0,0,0,-0.000513,0.00123031,

x/c = 1.125
0,0,0,-9e-06,0.125,
0,0,0,-0.000459,0.0875,
0,0,0,-0.001741,0.075,
0,0,0,-0.003914,0.0625,
0,0,0,-0.015251,0.05,
0,0,0,-0.01671,0.04375,
0,0,0,-0.019321,0.0375,
0,0,0,-0.014893,0.025,
0,0,0,-0.013445,0.01875,
0,0,0,-0.007713,0.0125,
0,0,0,-0.004944,0.00625,
0,0,0,-0.00315,0.00314961,

x/c = 1.250
0,0,0,8.6e-05,0.12623,
0,0,0,-3.7e-05,0.11373,
0,0,0,-0.000102,0.10123,
0,0,0,-0.000155,0.0887303,
0,0,0,-0.00233,0.0762303,
0,0,0,-0.003559,0.0637303,
0,0,0,-0.006614,0.0512303,
0,0,0,-0.009619,0.0387303,
0,0,0,-0.011194,0.0262303,
0,0,0,-0.010442,0.0199803,
0,0,0,-0.008247,0.0137303,
0,0,0,-0.005936,0.00748031,
0,0,0,-0.004224,0.00437992,
0,0,0,-0.002298,0.00250984,
0,0,0,-0.002321,0.00123031,

x/c = 1.375
0,0,0,3.5e-05,0.12623,
0,0,0,1.3e-05,0.11373,
0,0,0,-2e-05,0.10123,
0,0,0,-0.000413,0.0887303,
0,0,0,-0.001166,0.0762303,
0,0,0,-0.00299,0.0637303,
0,0,0,-0.005076,0.0512303,
0,0,0,-0.007998,0.0387303,
0,0,0,-0.008702,0.0262303,
0,0,0,-0.007573,0.0199803,
0,0,0,-0.005598,0.0137303,
0,0,0,-0.003855,0.00748031,
0,0,0,-0.003049,0.00437992,
0,0,0,-0.002316,0.00250984,
0,0,0,-0.002152,0.00123031,

