9cbcecc0ba77c13ee15d7d4f9d8e887cfc61b8bc 
X,x_velocity,cp,uw_b,wall_distance,
-0.25,0,0.18067,0,1e-16,
-0.25,0.0540121,0.180672,-4.14607e-07,2.59026e-05,
-0.25,0.109067,0.180672,-1.42824e-05,5.22493e-05,
-0.25,0.162928,0.180672,-0.000104321,7.94916e-05,
-0.25,0.209983,0.180672,-0.00028657,0.000108097,
-0.25,0.247741,0.180672,-0.000459575,0.000138555,
-0.25,0.27794,0.180673,-0.000582787,0.000171389,
-0.25,0.302854,0.180673,-0.000669301,0.000207163,
-0.25,0.32412,0.180674,-0.000732542,0.000246489,
-0.25,0.342825,0.180675,-0.000781096,0.000290044,
-0.25,0.359683,0.180676,-0.000820396,0.000338574,
-0.25,0.375179,0.180678,-0.000853573,0.000392915,
-0.25,0.389651,0.180679,-0.000882652,0.000454,
-0.25,0.403346,0.180681,-0.000908976,0.000522878,
-0.25,0.416446,0.180683,-0.000933456,0.000600734,
-0.25,0.42909,0.180686,-0.00095672,0.000688907,
-0.25,0.44139,0.180689,-0.000979202,0.000788915,
-0.25,0.453432,0.180692,-0.0010012,0.000902478,
-0.25,0.46529,0.180696,-0.0010229,0.00103155,
-0.25,0.477024,0.1807,-0.00104441,0.00117836,
-0.25,0.488685,0.180705,-0.00106578,0.00134543,
-0.25,0.50032,0.18071,-0.00108699,0.00153564,
-0.25,0.511966,0.180716,-0.00110803,0.00175227,
-0.25,0.523662,0.180722,-0.00112886,0.00199906,
-0.25,0.53544,0.180728,-0.00114933,0.00228026,
-0.25,0.547332,0.180733,-0.00116927,0.00260072,
-0.25,0.559367,0.180739,-0.00118847,0.00296597,
-0.25,0.571573,0.180744,-0.00120667,0.00338233,
-0.25,0.583977,0.180747,-0.00122358,0.00385697,
-0.25,0.596607,0.180749,-0.00123886,0.00439809,
-0.25,0.609492,0.180747,-0.00125215,0.00501505,
-0.25,0.62266,0.180741,-0.00126299,0.00571851,
-0.25,0.636145,0.180729,-0.0012709,0.00652062,
-0.25,0.649981,0.180708,-0.00127528,0.00743527,
-0.25,0.66421,0.180677,-0.00127546,0.00847826,
-0.25,0.678878,0.180631,-0.00127059,0.00966765,
-0.25,0.69404,0.180565,-0.00125962,0.011024,
-0.25,0.709752,0.180473,-0.00124129,0.0125709,
-0.25,0.726067,0.180349,-0.00121529,0.0143349,
-0.25,0.743061,0.180178,-0.00118707,0.0163469,
-0.25,0.761124,0.179948,-0.00113866,0.0186414,
-0.25,0.781112,0.179651,-0.0010529,0.0212585,
-0.25,0.803848,0.179265,-0.000928302,0.0242434,
-0.25,0.829494,0.17878,-0.000758302,0.0276478,
-0.25,0.856697,0.178137,-0.000554437,0.031531,
-0.25,0.882523,0.177346,-0.000329901,0.0359602,
-0.25,0.902406,0.176304,-0.000109842,0.0410123,
-0.25,0.910831,0.174873,-1.81719e-05,0.0467752,
-0.25,0.912586,0.173389,-1.86876e-06,0.0533488,
-0.25,0.913485,0.171674,-3.01436e-07,0.0608475,
-0.25,0.914489,0.169652,-5.44739e-08,0.0694016,
-0.25,0.915672,0.167303,-1.40442e-08,0.0791597,
-0.25,0.917049,0.164568,-8.47676e-09,0.0902917,
-0.25,0.918644,0.161389,-7.9109e-09,0.102991,
-0.25,0.920493,0.157728,-7.9478e-09,0.117479,
-0.25,0.922626,0.15353,-8.00938e-09,0.134008,
-0.25,0.925073,0.14869,-8.02072e-09,0.152865,
-0.25,0.927857,0.143175,-7.97121e-09,0.17438,
-0.25,0.931002,0.13695,-7.83339e-09,0.198926,
-0.25,0.934496,0.130024,-7.64865e-09,0.226933,
-0.25,0.938413,0.122281,-7.36725e-09,0.258887,
-0.25,0.942659,0.113915,-7.03365e-09,0.295348,
-0.25,0.947361,0.104637,-6.58255e-09,0.33695,
-0.25,0.952232,0.0949591,-6.04583e-09,0.384419,
-0.25,0.957369,0.0848362,-5.47669e-09,0.438586,
-0.25,0.962611,0.0744801,-4.80619e-09,0.500395,
-0.25,0.967778,0.0642346,-4.13986e-09,0.570927,
-0.25,0.972915,0.0541413,-3.52031e-09,0.651415,
-0.25,0.977845,0.0445893,-2.91719e-09,0.743264,
-0.25,0.982373,0.0354771,-2.35714e-09,0.848083,
-0.25,0.986547,0.0271929,-1.83929e-09,0.967704,
-0.25,0.990167,0.0199406,-1.38408e-09,1.10422,
-0.25,0.993253,0.013818,-9.99708e-10,1.26002,
-0.25,0.995715,0.00884938,-6.88234e-10,1.43784,
-0.25,0.997631,0.00504117,-4.44154e-10,1.64079,
-0.25,0.99896,0.00232794,-2.60454e-10,1.86641,
-0.25,0.999812,0.00059427,-1.32681e-10,2.12427,
-0.25,1.00024,-0.00031333,-4.58298e-11,2.41998,
-0.25,1.00026,-0.00035091,-3.98514e-11,2.46413,
-0.25,1.00036,-0.000598287,-1.311e-13,2.75802,
-0.25,1.00025,-0.000444227,2.6558e-11,3.14513,
-0.25,1,9.01841e-06,2.95174e-11,3.58873,

0.688,0,-0.379188,0,1e-16,
0.688,-0.00519113,-0.379208,8.01633e-09,2.33816e-05,
0.688,-0.00663491,-0.379209,-4.61295e-08,4.71702e-05,
0.688,-0.00411502,-0.379241,-3.84161e-06,7.17799e-05,
0.688,0.00230207,-0.379254,-3.32648e-05,9.76391e-05,
0.688,0.0110574,-0.379275,-0.000122632,0.000125198,
0.688,0.0199799,-0.379296,-0.000261566,0.000154937,
0.688,0.0282175,-0.379316,-0.000415166,0.000187374,
0.688,0.0358569,-0.379334,-0.000573033,0.000223074,
0.688,0.0431759,-0.379351,-0.000738137,0.00026266,
0.688,0.0504291,-0.379367,-0.000915221,0.000306822,
0.688,0.057827,-0.379382,-0.00110849,0.000356332,
0.688,0.0655517,-0.379396,-0.00132171,0.000412053,
0.688,0.0737741,-0.379408,-0.00155843,0.000474959,
0.688,0.0826661,-0.379417,-0.00182213,0.000546147,
0.688,0.0924113,-0.379423,-0.00211629,0.000626864,
0.688,0.103213,-0.379424,-0.00244413,0.000718519,
0.688,0.1153,-0.379418,-0.00280854,0.000822716,
0.688,0.128931,-0.379402,-0.00321172,0.000941278,
0.688,0.144399,-0.379373,-0.00365433,0.00107628,
0.688,0.162017,-0.379328,-0.00413608,0.00123008,
0.688,0.182122,-0.379265,-0.00466374,0.00140539,
0.688,0.205117,-0.37918,-0.00530226,0.00160526,
0.688,0.2323,-0.379075,-0.0057802,0.0018332,
0.688,0.265585,-0.378954,-0.00623635,0.00209321,
0.688,0.306333,-0.378812,-0.00665472,0.00238985,
0.688,0.355503,-0.378678,-0.00697401,0.00272832,
0.688,0.413801,-0.37852,-0.00711519,0.00311456,
0.688,0.481568,-0.378533,-0.00701187,0.00355536,
0.688,0.558166,-0.377871,-0.00661687,0.00405845,
0.688,0.642159,-0.378011,-0.00592606,0.00463268,
0.688,0.730353,-0.378195,-0.00497891,0.00528813,
0.688,0.817959,-0.378665,-0.00391245,0.00603632,
0.688,0.898099,-0.379439,-0.00289831,0.00689042,
0.688,0.963564,-0.380491,-0.00205358,0.00786545,
0.688,1.01067,-0.382099,-0.00144211,0.00897856,
0.688,1.0423,-0.384016,-0.000987945,0.0102494,
0.688,1.06387,-0.38634,-0.000743806,0.0117002,
0.688,1.07972,-0.389175,-0.000685073,0.0133567,
0.688,1.09315,-0.392569,-0.00072598,0.015248,
0.688,1.10618,-0.397005,-0.000804495,0.0174016,
0.688,1.12002,-0.40237,-0.000882739,0.0197947,
0.688,1.13559,-0.409483,-0.000926654,0.0225411,
0.688,1.15289,-0.419101,-0.000920841,0.0256954,
0.688,1.17238,-0.433078,-0.000923411,0.0293134,
0.688,1.19728,-0.455294,-0.000922315,0.0334589,
0.688,1.23162,-0.49593,-0.000866644,0.0382051,
0.688,1.2764,-0.568029,-0.000687752,0.0436361,
0.688,1.32643,-0.660433,-0.000363716,0.0498477,
0.688,1.35856,-0.722861,-7.50243e-05,0.0569175,
0.688,1.36557,-0.737936,-3.07252e-06,0.0649586,
0.688,1.36343,-0.733817,6.27714e-07,0.074169,
0.688,1.35887,-0.724699,3.2939e-07,0.0847119,
0.688,1.3497,-0.706307,1.29736e-07,0.0967654,
0.688,1.33911,-0.684893,6.45637e-08,0.110475,
0.688,1.32793,-0.662053,4.82573e-08,0.126175,
0.688,1.31581,-0.637692,4.33924e-08,0.144131,
0.688,1.30254,-0.611191,4.0482e-08,0.164669,
0.688,1.28817,-0.582466,3.75793e-08,0.188038,
0.688,1.27272,-0.551376,3.46796e-08,0.214753,
0.688,1.25617,-0.517976,3.19266e-08,0.245311,
0.688,1.23844,-0.482112,2.94186e-08,0.280275,
0.688,1.21942,-0.443637,2.72212e-08,0.320142,
0.688,1.19884,-0.401811,2.59786e-08,0.365789,
0.688,1.17605,-0.355508,2.54783e-08,0.417836,
0.688,1.15036,-0.303385,2.4969e-08,0.477372,
0.688,1.12208,-0.246206,2.23953e-08,0.545486,
0.688,1.09532,-0.191745,1.61783e-08,0.623218,
0.688,1.07554,-0.151597,1.035e-08,0.712106,
0.688,1.06075,-0.121754,7.04967e-09,0.813782,
0.688,1.04874,-0.0973223,5.13101e-09,0.930041,
0.688,1.03856,-0.0770209,3.76852e-09,1.06261,
0.688,1.03014,-0.0599559,2.73329e-09,1.21441,
0.688,1.02312,-0.0460155,1.96322e-09,1.38796,
0.688,1.01746,-0.0346237,1.38492e-09,1.58636,
0.688,1.01287,-0.025507,9.65683e-10,1.81256,
0.688,1.00925,-0.0182829,6.65443e-10,2.0716,
0.688,1.00639,-0.0126327,4.58065e-10,2.36771,
0.688,1.00409,-0.00805458,3.22835e-10,2.70619,
0.688,1.00222,-0.00437292,2.32379e-10,3.09309,
0.688,1.00068,-0.00131848,1.96134e-10,3.53533,

0.813,0,-0.115133,0,1e-16,
0.813,-0.00657575,-0.115137,5.39889e-09,2.32716e-05,
0.813,-0.0125418,-0.115143,1.61559e-07,4.69491e-05,
0.813,-0.0179257,-0.115149,1.44965e-06,7.14457e-05,
0.813,-0.022577,-0.115156,6.32587e-06,9.71887e-05,
0.813,-0.0261235,-0.115162,1.56474e-05,0.000124627,
0.813,-0.0283153,-0.115168,2.27115e-05,0.000154241,
0.813,-0.0293952,-0.115176,1.96763e-05,0.000186546,
0.813,-0.0297623,-0.115182,6.63516e-06,0.000222108,
0.813,-0.0297015,-0.115192,-1.31387e-05,0.000261547,
0.813,-0.0293644,-0.115205,-3.77641e-05,0.000305554,
0.813,-0.0288262,-0.115215,-6.66832e-05,0.000354897,
0.813,-0.0281218,-0.115228,-9.99863e-05,0.000410441,
0.813,-0.0272664,-0.115242,-0.000138027,0.000473157,
0.813,-0.0262628,-0.115258,-0.00018139,0.000544144,
0.813,-0.0251068,-0.115275,-0.000230789,0.000624646,
0.813,-0.0237885,-0.115295,-0.000287076,0.000716071,
0.813,-0.0222941,-0.115317,-0.000351246,0.000820025,
0.813,-0.0206055,-0.115342,-0.000424452,0.000938328,
0.813,-0.0187007,-0.115369,-0.000508016,0.00107306,
0.813,-0.016553,-0.1154,-0.000603449,0.00122658,
0.813,-0.0141311,-0.115435,-0.000712488,0.00140158,
0.813,-0.0113974,-0.115473,-0.000837174,0.00160114,
0.813,-0.00830722,-0.115516,-0.000979806,0.00182877,
0.813,-0.00480728,-0.115564,-0.00114292,0.00208846,
0.813,-0.000834226,-0.115617,-0.00132948,0.00238478,
0.813,0.00368872,-0.115676,-0.00154306,0.00272294,
0.813,0.00885486,-0.11574,-0.00178759,0.00310889,
0.813,0.0147788,-0.115809,-0.0020676,0.00354942,
0.813,0.0216023,-0.115885,-0.00238827,0.00405228,
0.813,0.0295022,-0.115966,-0.00275551,0.00462634,
0.813,0.0387007,-0.116051,-0.00317591,0.00528169,
0.813,0.0494796,-0.116141,-0.00365688,0.0060299,
0.813,0.0621993,-0.11623,-0.00420646,0.00688414,
0.813,0.077323,-0.116317,-0.00483271,0.00785949,
0.813,0.0954474,-0.116409,-0.00554169,0.00897314,
0.813,0.117329,-0.116553,-0.00654923,0.0102448,
0.813,0.145564,-0.116612,-0.00740043,0.0116968,
0.813,0.185794,-0.11648,-0.00824019,0.0133548,
0.813,0.245831,-0.116302,-0.00912465,0.0152482,
0.813,0.336216,-0.115706,-0.00964897,0.0173973,
0.813,0.470418,-0.113989,-0.00892269,0.0197681,
0.813,0.644712,-0.111364,-0.00662862,0.0225011,
0.813,0.802602,-0.1118,-0.00417021,0.0256452,
0.813,0.896159,-0.111599,-0.00226523,0.0292561,
0.813,0.941621,-0.110314,-0.00084536,0.033398,
0.813,0.967528,-0.108117,-0.000453709,0.0379504,
0.813,0.9894,-0.105168,-0.000359479,0.0431839,
0.813,1.01206,-0.101329,-0.000267027,0.0492266,
0.813,1.03091,-0.0972761,-0.000120852,0.0561862,
0.813,1.04036,-0.0933128,-2.09754e-05,0.0641865,
0.813,1.04241,-0.0887938,3.86356e-06,0.0732535,
0.813,1.04202,-0.0840535,6.9141e-06,0.0836093,
0.813,1.03079,-0.0788212,1.61843e-06,0.0955186,
0.813,1.02998,-0.0693821,1.84021e-07,0.10911,
0.813,1.02624,-0.0631392,6.33072e-08,0.124602,
0.813,1.01773,-0.0563126,7.5081e-09,0.142358,
0.813,1.02184,-0.0472264,1.46149e-09,0.162626,
0.813,1.01883,-0.0433858,3.98635e-09,0.185823,
0.813,1.01352,-0.0397084,1.24345e-09,0.212297,
0.813,1.01515,-0.0387873,-2.01791e-09,0.242651,
0.813,1.01883,-0.0420113,-3.13541e-09,0.277301,
0.813,1.02356,-0.0467075,-3.45787e-09,0.316941,
0.813,1.02628,-0.0542594,-4.19247e-09,0.36227,
0.813,1.0301,-0.0616913,-4.24789e-09,0.41413,
0.813,1.03397,-0.0685229,-3.15676e-09,0.473389,
0.813,1.0366,-0.073964,-1.53299e-09,0.54123,
0.813,1.0375,-0.0754836,1.58373e-13,0.618788,
0.813,1.0368,-0.0737026,8.26457e-10,0.707593,
0.813,1.03472,-0.0692835,1.44294e-09,0.809092,
0.813,1.03148,-0.062867,1.71779e-09,0.925335,
0.813,1.02746,-0.0546185,1.71461e-09,1.05821,
0.813,1.02312,-0.0459874,1.53987e-09,1.21017,
0.813,1.01883,-0.0374077,1.27996e-09,1.38391,
0.813,1.01489,-0.0295066,1.00575e-09,1.58247,
0.813,1.01141,-0.0225846,7.57708e-10,1.81009,
0.813,1.00846,-0.0166674,5.53782e-10,2.07007,
0.813,1.00601,-0.011848,3.94337e-10,2.36772,
0.813,1.00402,-0.00791589,2.87592e-10,2.70818,
0.813,1.00229,-0.0045557,2.02203e-10,3.09651,
0.813,1.00101,-0.00198317,1.61096e-10,3.54123,

0.938,0,-0.00972287,0,1e-16,
0.938,-0.0083153,-0.00972454,3.63238e-09,2.32316e-05,
0.938,-0.0164229,-0.00972886,1.06634e-07,4.68694e-05,
0.938,-0.0244077,-0.00973359,1.06437e-06,7.13267e-05,
0.938,-0.0322126,-0.00973883,5.47684e-06,9.70313e-05,
0.938,-0.03946,-0.00974384,1.7568e-05,0.000124433,
0.938,-0.0454563,-0.00974785,3.71159e-05,0.000154011,
0.938,-0.0498035,-0.00975174,5.51477e-05,0.000186283,
0.938,-0.0527342,-0.00975619,6.44784e-05,0.000221814,
0.938,-0.0546904,-0.00976205,6.52628e-05,0.000261227,
0.938,-0.0560008,-0.0097686,5.97987e-05,0.000305212,
0.938,-0.0568735,-0.00977623,4.99647e-05,0.000354541,
0.938,-0.0574325,-0.00978384,3.67412e-05,0.000410078,
0.938,-0.0577519,-0.0097962,2.04426e-05,0.000472798,
0.938,-0.0578744,-0.00979204,9.7719e-07,0.000543802,
0.938,-0.0578255,-0.00979988,-2.17494e-05,0.000624336,
0.938,-0.0576191,-0.00982606,-4.80122e-05,0.000715816,
0.938,-0.0572615,-0.00983479,-7.82988e-05,0.000819848,
0.938,-0.0567531,-0.00984805,-0.000113095,0.000938261,
0.938,-0.0560904,-0.00986291,-0.000153018,0.00107314,
0.938,-0.0552654,-0.00988001,-0.000198831,0.00122685,
0.938,-0.0542673,-0.00989895,-0.000251353,0.00140211,
0.938,-0.0530816,-0.0099202,-0.000311566,0.00160199,
0.938,-0.0516906,-0.00994372,-0.000380583,0.00183001,
0.938,-0.0500726,-0.00997026,-0.000459671,0.0020902,
0.938,-0.0482018,-0.00999949,-0.000550313,0.00238713,
0.938,-0.0460474,-0.0100323,-0.000654219,0.00272605,
0.938,-0.0435727,-0.0100685,-0.000773328,0.00311293,
0.938,-0.0407343,-0.0101096,-0.000909858,0.00355458,
0.938,-0.0374799,-0.0101547,-0.00106641,0.00405882,
0.938,-0.033747,-0.0102053,-0.00124596,0.00463453,
0.938,-0.0294599,-0.0102613,-0.00145193,0.00529188,
0.938,-0.0245262,-0.0103247,-0.00168827,0.00604249,
0.938,-0.0188325,-0.0103937,-0.00195942,0.00689961,
0.938,-0.0122392,-0.0104711,-0.00227065,0.0078784,
0.938,-0.00457066,-0.0105548,-0.00262768,0.00899617,
0.938,0.0043912,-0.0106474,-0.00303632,0.0102727,
0.938,0.0149195,-0.0107437,-0.00350373,0.0117305,
0.938,0.0273683,-0.0108436,-0.00403905,0.0133955,
0.938,0.0421968,-0.0109415,-0.00465105,0.0152971,
0.938,0.0600038,-0.011027,-0.00534902,0.017469,
0.938,0.081575,-0.0111374,-0.00616817,0.0199391,
0.938,0.108151,-0.0113124,-0.00728501,0.0225116,
0.938,0.143374,-0.0112246,-0.00829424,0.0255164,
0.938,0.195132,-0.010779,-0.00924012,0.0290096,
0.938,0.2761,-0.00995089,-0.0100125,0.0330545,
0.938,0.402632,-0.00769816,-0.00966741,0.0377237,
0.938,0.577769,-0.00482958,-0.00769309,0.0426984,
0.938,0.752775,-0.00629913,-0.00520828,0.0484919,
0.938,0.87039,-0.00865772,-0.00301144,0.0552419,
0.938,0.936711,-0.00949133,-0.0011583,0.0630705,
0.938,0.974281,-0.0082105,-0.000413389,0.0721179,
0.938,0.995373,-0.00702718,-0.000110747,0.0822909,
0.938,1.0009,-0.0095665,-1.19593e-05,0.0938338,
0.938,1.00042,-0.0103156,7.51634e-08,0.107215,
0.938,0.999874,-0.0104949,4.00405e-07,0.122488,
0.938,0.997423,-0.0111391,4.80943e-08,0.139919,
0.938,0.998126,-0.0101909,-5.00335e-08,0.160003,
0.938,1.00087,-0.0102156,-9.90835e-09,0.18281,
0.938,1.00072,-0.0116747,-1.1122e-09,0.208986,
0.938,1.00118,-0.0119773,-1.13048e-09,0.239003,
0.938,1.00282,-0.0128994,-1.76846e-09,0.273269,
0.938,1.00647,-0.0140834,-1.74089e-09,0.312507,
0.938,1.00808,-0.0167082,-1.36623e-09,0.357468,
0.938,1.00916,-0.0191401,-1.59479e-09,0.408929,
0.938,1.01095,-0.0222182,-1.7213e-09,0.467901,
0.938,1.01272,-0.0255618,-1.4871e-09,0.535368,
0.938,1.01434,-0.0288505,-1.17046e-09,0.612662,
0.938,1.01579,-0.0315379,-7.89427e-10,0.701152,
0.938,1.0167,-0.0333329,-2.43685e-10,0.802634,
0.938,1.01681,-0.0333367,7.55264e-11,0.91874,
0.938,1.01623,-0.0321959,3.60433e-10,1.05163,
0.938,1.01502,-0.0297471,5.22285e-10,1.20403,
0.938,1.01329,-0.0263148,5.80432e-10,1.37848,
0.938,1.01128,-0.0223148,5.56632e-10,1.57802,
0.938,1.00917,-0.0180957,4.8305e-10,1.80652,
0.938,1.00716,-0.0140876,3.93265e-10,2.06844,
0.938,1.0053,-0.0104344,3.02514e-10,2.3677,
0.938,1.00373,-0.0073227,2.26736e-10,2.7102,
0.938,1.00232,-0.00460851,1.64906e-10,3.1022,
0.938,1.00122,-0.00241987,1.32816e-10,3.55094,

1,0,0.0218874,0,1e-16,
1,-0.0142104,0.0218843,8.57007e-09,2.32217e-05,
1,-0.0281236,0.0218811,2.89812e-07,4.685e-05,
1,-0.0418494,0.0218771,2.83834e-06,7.12984e-05,
1,-0.0551905,0.0218725,1.38217e-05,9.6995e-05,
1,-0.0673446,0.0218678,4.06011e-05,0.00012439,
1,-0.0771935,0.021863,7.84642e-05,0.000153963,
1,-0.0843214,0.0218574,0.000110568,0.000186233,
1,-0.0892247,0.0218504,0.000127826,0.000221764,
1,-0.0925998,0.0218421,0.000132146,0.000261182,
1,-0.09497,0.0218327,0.000127867,0.000305176,
1,-0.0966644,0.0218223,0.000117953,0.000354519,
1,-0.0978818,0.0218107,0.000103972,0.000410078,
1,-0.0987428,0.0217976,8.66689e-05,0.000472828,
1,-0.0993224,0.0217836,6.63905e-05,0.000543873,
1,-0.0996684,0.0217667,4.32575e-05,0.000624461,
1,-0.0998111,0.0217532,1.6906e-05,0.000716009,
1,-0.0997662,0.0217549,-1.30762e-05,0.000820128,
1,-0.099543,0.0217144,-4.65449e-05,0.000938651,
1,-0.0991471,0.0216935,-8.41763e-05,0.00107366,
1,-0.0985747,0.0216702,-0.000126936,0.00122754,
1,-0.0978196,0.0216437,-0.000175286,0.001403,
1,-0.0968714,0.0216145,-0.000230125,0.00160314,
1,-0.0957157,0.0215818,-0.000292407,0.00183147,
1,-0.0943343,0.021546,-0.000363218,0.00209203,
1,-0.092705,0.0215059,-0.00044376,0.00238941,
1,-0.0908013,0.0214623,-0.000535392,0.00272886,
1,-0.0885919,0.0214142,-0.000639672,0.00311639,
1,-0.0860396,0.0213622,-0.00075836,0.00355882,
1,-0.0831009,0.0213051,-0.000893432,0.00406398,
1,-0.0797244,0.0212441,-0.00104712,0.00464079,
1,-0.0758492,0.0211782,-0.00122198,0.00529946,
1,-0.0714034,0.021109,-0.00142089,0.00605162,
1,-0.0663006,0.0210353,-0.00164711,0.0069106,
1,-0.0604371,0.0209598,-0.00190434,0.00789159,
1,-0.0536872,0.0208819,-0.00219682,0.00901195,
1,-0.0458967,0.0208047,-0.00252932,0.0102915,
1,-0.0368749,0.0207288,-0.00290722,0.011753,
1,-0.0263842,0.02066,-0.00333627,0.0134223,
1,-0.0141257,0.0205951,-0.00382542,0.0153289,
1,0.000297305,0.0205473,-0.00440223,0.0175068,
1,0.0175052,0.0204986,-0.00507326,0.0199945,
1,0.0386441,0.0203259,-0.00573884,0.0228361,
1,0.0653087,0.0198974,-0.00641547,0.0260822,
1,0.0991472,0.0191431,-0.00719845,0.0297904,
1,0.143426,0.0181563,-0.00814081,0.0340265,
1,0.204864,0.0177461,-0.00919347,0.0388658,
1,0.297183,0.0183208,-0.0099028,0.0443714,
1,0.437864,0.021248,-0.00922071,0.050306,
1,0.618412,0.0244786,-0.00691348,0.0567779,
1,0.783406,0.0254131,-0.00458329,0.0643629,
1,0.893234,0.0238514,-0.00232625,0.073201,
1,0.952995,0.0275962,-0.000710872,0.0834523,
1,0.977521,0.026044,-0.00014799,0.0952491,
1,0.982873,0.0246322,-1.70088e-05,0.108351,
1,0.983379,0.0235349,-9.86448e-07,0.123411,
1,0.981841,0.0225723,-2.21821e-07,0.140887,
1,0.981874,0.0216853,-3.25897e-07,0.160913,
1,0.984576,0.0196728,-1.07758e-07,0.183368,
1,0.986354,0.0172779,-2.05109e-08,0.209311,
1,0.98776,0.014798,-5.75659e-09,0.239097,
1,0.98987,0.0119795,-3.39852e-09,0.273067,
1,0.994403,0.00864091,-2.76976e-09,0.312052,
1,0.997378,0.00476974,-2.18003e-09,0.356741,
1,0.999322,0.000867391,-2.18174e-09,0.407906,
1,1.00161,-0.00347392,-2.21927e-09,0.466542,
1,1.00394,-0.00786052,-1.94308e-09,0.53384,
1,1.00611,-0.0122649,-1.58838e-09,0.610826,
1,1.00816,-0.016191,-1.19607e-09,0.699112,
1,1.00982,-0.0194863,-8.01652e-10,0.800294,
1,1.01101,-0.0217765,-4.24901e-10,0.916281,
1,1.01148,-0.0227192,-4.61364e-11,1.04923,
1,1.01129,-0.0222663,1.42169e-10,1.2016,
1,1.01054,-0.020801,2.94662e-10,1.37615,
1,1.00937,-0.0184549,3.52622e-10,1.57647,
1,1.00791,-0.0155691,3.47246e-10,1.80575,
1,1.00747,-0.0146829,3.35757e-10,1.88256,
1,1.00638,-0.0125394,3.07755e-10,2.0677,
1,1.00487,-0.009568,2.51263e-10,2.36835,
1,1.00353,-0.0069393,1.97184e-10,2.71278,
1,1.00228,-0.00451489,1.46992e-10,3.10614,
1,1.00131,-0.00261939,1.14509e-10,3.55725,

1.125,0,0.134381,0,1e-16,
1.125,0.00245587,0.134376,-7.78529e-09,2.2977e-05,
1.125,0.0054386,0.134378,-3.40056e-07,4.63572e-05,
1.125,0.00893962,0.134377,-3.75219e-06,7.05508e-05,
1.125,0.0126164,0.134377,-1.77301e-05,9.59823e-05,
1.125,0.015785,0.134375,-4.36284e-05,0.000123098,
1.125,0.0181842,0.134373,-7.01281e-05,0.000152375,
1.125,0.0200077,0.134368,-9.21873e-05,0.000184326,
1.125,0.0214795,0.134362,-0.000111723,0.000219514,
1.125,0.0227442,0.134354,-0.000130846,0.000258557,
1.125,0.0238878,0.134344,-0.000150814,0.000302141,
1.125,0.0249635,0.134332,-0.000172425,0.000351033,
1.125,0.0260066,0.134317,-0.000196287,0.000406094,
1.125,0.0270423,0.134299,-0.000222948,0.000468293,
1.125,0.0280902,0.134277,-0.00025296,0.000538726,
1.125,0.0291665,0.13425,-0.000286908,0.000618634,
1.125,0.0302857,0.134219,-0.000325435,0.000709426,
1.125,0.0314614,0.134182,-0.000369258,0.000812702,
1.125,0.0327072,0.134137,-0.000419187,0.000930284,
1.125,0.0340366,0.134085,-0.000476139,0.00106425,
1.125,0.0354644,0.134022,-0.000541159,0.00121696,
1.125,0.0370062,0.133949,-0.000615434,0.00139111,
1.125,0.0386791,0.133862,-0.000700321,0.00158979,
1.125,0.0405023,0.13376,-0.000797365,0.00181649,
1.125,0.0424971,0.133641,-0.000908338,0.00207523,
1.125,0.044688,0.133501,-0.00103526,0.00237059,
1.125,0.0471028,0.133338,-0.00118041,0.00270779,
1.125,0.0497738,0.133149,-0.00134643,0.0030928,
1.125,0.0527384,0.13293,-0.00153631,0.00353243,
1.125,0.0560408,0.132677,-0.00175343,0.00403447,
1.125,0.0597331,0.132388,-0.00200163,0.00460781,
1.125,0.0638776,0.132058,-0.00228524,0.00526262,
1.125,0.0685494,0.131685,-0.00260918,0.00601049,
1.125,0.0738396,0.131265,-0.00297888,0.00686471,
1.125,0.0798599,0.130798,-0.00340038,0.00784041,
1.125,0.0867486,0.130281,-0.00388025,0.00895492,
1.125,0.0946777,0.129718,-0.00442561,0.010228,
1.125,0.103864,0.129108,-0.00504379,0.0116823,
1.125,0.114582,0.128458,-0.0057421,0.0133436,
1.125,0.127183,0.127774,-0.00652718,0.0152415,
1.125,0.142117,0.127063,-0.0074105,0.0174097,
1.125,0.159997,0.126635,-0.00886418,0.0198867,
1.125,0.183779,0.126844,-0.00942374,0.0227167,
1.125,0.218437,0.127099,-0.0101238,0.0259499,
1.125,0.266694,0.127014,-0.0107977,0.029644,
1.125,0.330201,0.126656,-0.0111351,0.0338647,
1.125,0.41129,0.126141,-0.0108361,0.0386871,
1.125,0.510887,0.125361,-0.00967643,0.0441974,
1.125,0.623143,0.124205,-0.00775249,0.0504935,
1.125,0.733027,0.12257,-0.00552782,0.0576879,
1.125,0.824152,0.119809,-0.00343146,0.0659089,
1.125,0.889358,0.117392,-0.00134114,0.0753032,
1.125,0.926855,0.113614,-0.00039146,0.0860384,
1.125,0.940814,0.108504,-8.38739e-05,0.0983063,
1.125,0.944409,0.10302,-1.8416e-05,0.112326,
1.125,0.946203,0.0974642,-5.54531e-06,0.128348,
1.125,0.947634,0.0914662,-2.03246e-06,0.146659,
1.125,0.951148,0.0851005,-7.096e-07,0.167586,
1.125,0.955773,0.0786334,-1.86917e-07,0.191503,
1.125,0.9596,0.0717544,-4.30716e-08,0.218838,
1.125,0.963327,0.0645846,-1.24169e-08,0.250082,
1.125,0.968134,0.0572138,-6.07907e-09,0.285792,
1.125,0.97454,0.0497276,-4.44286e-09,0.32661,
1.125,0.97911,0.0422006,-3.79037e-09,0.373265,
1.125,0.98272,0.0346402,-3.71133e-09,0.426595,
1.125,0.986536,0.0271813,-3.4785e-09,0.487555,
1.125,0.990175,0.020035,-2.94146e-09,0.55724,
1.125,0.993531,0.0132031,-2.38357e-09,0.636898,
1.125,0.996704,0.00689943,-1.86708e-09,0.72796,
1.125,0.999499,0.00130878,-1.39431e-09,0.82855,
1.125,1.00185,-0.00333297,-9.80633e-10,0.94298,
1.125,1.00269,-0.00502437,-8.17778e-10,1.00315,
1.125,1.00367,-0.00702888,-6.2462e-10,1.07453,
1.125,1.00493,-0.00950243,-3.40809e-10,1.22528,
1.125,1.00558,-0.01088,-9.70825e-11,1.39832,
1.125,1.00567,-0.0110208,2.79997e-11,1.59646,
1.125,1.00531,-0.0103739,1.16156e-10,1.82431,
1.125,1.00469,-0.00913814,1.47934e-10,2.08526,
1.125,1.00386,-0.00754656,1.46729e-10,2.38489,
1.125,1.00301,-0.00590282,1.28311e-10,2.72763,
1.125,1.00214,-0.00424093,1.01993e-10,3.12069,
1.125,1.00146,-0.00292426,7.99408e-11,3.57128,

1.25,0,0.176575,0,1e-16,
1.25,0.0318383,0.176573,-1.16139e-07,2.27149e-05,
1.25,0.0641176,0.176574,-4.21882e-06,4.58292e-05,
1.25,0.0963969,0.176573,-3.75525e-05,6.97496e-05,
1.25,0.125837,0.176573,-0.00013874,9.48968e-05,
1.25,0.149011,0.176572,-0.000277722,0.000121713,
1.25,0.165685,0.17657,-0.000390317,0.000150671,
1.25,0.177644,0.176567,-0.000463905,0.00018228,
1.25,0.186548,0.176563,-0.00051116,0.000217097,
1.25,0.19349,0.176557,-0.000543877,0.000255735,
1.25,0.199139,0.17655,-0.000569178,0.000298876,
1.25,0.203908,0.17654,-0.000591042,0.00034728,
1.25,0.208059,0.176528,-0.000611789,0.000401801,
1.25,0.211764,0.176513,-0.00063289,0.000463402,
1.25,0.215142,0.176495,-0.000655406,0.00053317,
1.25,0.218279,0.176473,-0.000680187,0.000612337,
1.25,0.221239,0.176447,-0.000707999,0.000702303,
1.25,0.22407,0.176415,-0.000739594,0.000804657,
1.25,0.226814,0.176378,-0.000775764,0.00092121,
1.25,0.229505,0.176332,-0.000817361,0.00105402,
1.25,0.232172,0.176278,-0.000865318,0.00120545,
1.25,0.234843,0.176215,-0.000920695,0.00137816,
1.25,0.237546,0.176139,-0.000984698,0.00157523,
1.25,0.240306,0.17605,-0.0010587,0.00180013,
1.25,0.243151,0.175945,-0.00114423,0.00205686,
1.25,0.24611,0.175822,-0.0012431,0.00234997,
1.25,0.249213,0.175679,-0.00135736,0.00268466,
1.25,0.252495,0.175511,-0.00148934,0.00306685,
1.25,0.255995,0.175317,-0.00164171,0.00350335,
1.25,0.259758,0.175093,-0.00181751,0.00400188,
1.25,0.263836,0.174835,-0.00202025,0.00457132,
1.25,0.26829,0.174541,-0.00225388,0.00522176,
1.25,0.273192,0.174206,-0.0025228,0.00596478,
1.25,0.27863,0.173828,-0.00283201,0.00681358,
1.25,0.284711,0.173405,-0.00318703,0.00778325,
1.25,0.291567,0.172936,-0.00359389,0.00889105,
1.25,0.29936,0.172419,-0.00405889,0.0101567,
1.25,0.308295,0.171856,-0.00458855,0.0116027,
1.25,0.318628,0.171247,-0.00518912,0.0132548,
1.25,0.330687,0.170599,-0.00586593,0.0151425,
1.25,0.34489,0.169902,-0.00662905,0.0172993,
1.25,0.361807,0.169325,-0.0077414,0.0197638,
1.25,0.383518,0.169246,-0.00847086,0.0225799,
1.25,0.4139,0.169469,-0.00883075,0.0257978,
1.25,0.455765,0.169347,-0.00913699,0.0294749,
1.25,0.50907,0.16882,-0.00911511,0.0336769,
1.25,0.572993,0.167972,-0.00853833,0.0384787,
1.25,0.645319,0.166949,-0.00736802,0.0439663,
1.25,0.720716,0.165224,-0.00573992,0.0502376,
1.25,0.791038,0.162877,-0.00404645,0.0574048,
1.25,0.85054,0.159427,-0.00208397,0.0655959,
1.25,0.894021,0.155298,-0.000776643,0.0749575,
1.25,0.916945,0.150045,-0.000211367,0.0856571,
1.25,0.925414,0.144231,-4.90349e-05,0.0978863,
1.25,0.928107,0.137785,-1.39266e-05,0.111864,
1.25,0.930226,0.130959,-5.14188e-06,0.127841,
1.25,0.932871,0.123646,-1.9609e-06,0.146102,
1.25,0.937272,0.115981,-6.54226e-07,0.166976,
1.25,0.942224,0.107972,-1.74349e-07,0.190837,
1.25,0.946474,0.0996027,-4.33348e-08,0.218113,
1.25,0.950966,0.0910018,-1.34743e-08,0.249292,
1.25,0.956697,0.082057,-6.81732e-09,0.284935,
1.25,0.963627,0.0729746,-5.05487e-09,0.325682,
1.25,0.968699,0.0639124,-4.41494e-09,0.372264,
1.25,0.972927,0.0548311,-4.34973e-09,0.425519,
1.25,0.977389,0.0460093,-4.0539e-09,0.486402,
1.25,0.981632,0.037521,-3.43216e-09,0.55601,
1.25,0.98558,0.0293866,-2.79792e-09,0.635594,
1.25,0.989329,0.0218878,-2.22232e-09,0.726585,
1.25,0.992712,0.0150209,-1.72338e-09,0.83062,
1.25,0.995719,0.0089542,-1.28984e-09,0.949574,
1.25,0.998227,0.00393298,-9.20105e-10,1.08559,
1.25,1.00025,-0.000149181,-6.11928e-10,1.24111,
1.25,1.0017,-0.00310076,-3.67448e-10,1.41894,
1.25,1.00266,-0.00502103,-1.82359e-10,1.62229,
1.25,1.00308,-0.00589903,-4.81899e-11,1.84947,
1.25,1.00311,-0.00598986,2.11954e-11,2.10883,
1.25,1.00285,-0.00552045,5.70011e-11,2.40658,
1.25,1.00246,-0.00478407,6.7615e-11,2.74752,
1.25,1.0024,-0.00468002,6.66729e-11,2.79119,
1.25,1.00195,-0.00384559,5.90328e-11,3.13954,
1.25,1.00158,-0.00317221,3.94686e-11,3.5883,

1.375,0,0.152024,0,1e-16,
1.375,0.0488591,0.152023,-2.28808e-07,2.24527e-05,
1.375,0.0981806,0.152023,-8.09976e-06,4.53013e-05,
1.375,0.147078,0.152023,-6.65108e-05,6.89485e-05,
1.375,0.191539,0.152023,-0.000217712,9.38113e-05,
1.375,0.227856,0.152023,-0.000398412,0.000120328,
1.375,0.256088,0.152022,-0.000541286,0.000148967,
1.375,0.278036,0.152022,-0.000640884,0.000180234,
1.375,0.295395,0.15202,-0.000709468,0.00021468,
1.375,0.309412,0.152018,-0.000757582,0.000252914,
1.375,0.32097,0.152015,-0.000792436,0.000295611,
1.375,0.330692,0.152011,-0.000818862,0.000343527,
1.375,0.339024,0.152005,-0.000840128,0.000397509,
1.375,0.34629,0.151999,-0.000858518,0.000458511,
1.375,0.352725,0.15199,-0.000875676,0.000527614,
1.375,0.35851,0.151979,-0.000892842,0.00060604,
1.375,0.363778,0.151966,-0.000911012,0.00069518,
1.375,0.368637,0.151949,-0.000931042,0.000796613,
1.375,0.37317,0.15193,-0.000953721,0.000912136,
1.375,0.377446,0.151905,-0.000979826,0.0010438,
1.375,0.381522,0.151876,-0.00101016,0.00119393,
1.375,0.385447,0.151841,-0.00104557,0.00136521,
1.375,0.389265,0.151799,-0.00108701,0.00156067,
1.375,0.393016,0.151748,-0.00113554,0.00178377,
1.375,0.396736,0.151689,-0.00119231,0.00203849,
1.375,0.400462,0.151618,-0.00125869,0.00232935,
1.375,0.404231,0.151535,-0.0013362,0.00266152,
1.375,0.40808,0.151438,-0.00142657,0.00304091,
1.375,0.412051,0.151323,-0.00153179,0.00347427,
1.375,0.416186,0.15119,-0.00165408,0.0039693,
1.375,0.420536,0.151036,-0.00179601,0.00453483,
1.375,0.425155,0.150858,-0.00196046,0.00518091,
1.375,0.43011,0.150655,-0.00215062,0.00591907,
1.375,0.435476,0.150424,-0.00237008,0.00676245,
1.375,0.441344,0.150162,-0.00262277,0.0077261,
1.375,0.447825,0.149868,-0.00291292,0.00882719,
1.375,0.455053,0.149541,-0.00324484,0.0100854,
1.375,0.463194,0.149179,-0.00362287,0.0115231,
1.375,0.472454,0.148782,-0.00405097,0.013166,
1.375,0.483092,0.14835,-0.00453209,0.0150434,
1.375,0.495434,0.147882,-0.00506713,0.017189,
1.375,0.50989,0.147378,-0.00565763,0.0196409,
1.375,0.527007,0.146859,-0.0063796,0.0224431,
1.375,0.548023,0.146559,-0.00713345,0.0256456,
1.375,0.575965,0.146539,-0.00722612,0.0293058,
1.375,0.613723,0.146388,-0.00717481,0.0334891,
1.375,0.660318,0.145857,-0.00681431,0.0382704,
1.375,0.713,0.145009,-0.00602783,0.0437353,
1.375,0.768389,0.143849,-0.0048566,0.0499817,
1.375,0.822515,0.142324,-0.00337967,0.0571216,
1.375,0.871465,0.140443,-0.00176277,0.0652828,
1.375,0.908065,0.137543,-0.000629967,0.0746118,
1.375,0.926752,0.134155,-0.000150293,0.0852759,
1.375,0.932934,0.130382,-2.92771e-05,0.0974663,
1.375,0.93471,0.12615,-7.44481e-06,0.111402,
1.375,0.935861,0.121519,-2.8409e-06,0.127333,
1.375,0.93774,0.116362,-1.21445e-06,0.145546,
1.375,0.941258,0.110815,-4.19387e-07,0.166367,
1.375,0.944804,0.104817,-1.1273e-07,0.190171,
1.375,0.947808,0.0983069,-3.01272e-08,0.217387,
1.375,0.951382,0.0914643,-1.04369e-08,0.248502,
1.375,0.956426,0.0841691,-5.68563e-09,0.284078,
1.375,0.962458,0.0765644,-4.27379e-09,0.324754,
1.375,0.966618,0.0687386,-3.79083e-09,0.371263,
1.375,0.970336,0.0606747,-3.86675e-09,0.424442,
1.375,0.974358,0.0525359,-3.68494e-09,0.485249,
1.375,0.978239,0.0446425,-3.18975e-09,0.554781,
1.375,0.981965,0.0368548,-2.66568e-09,0.634289,
1.375,0.985593,0.0295973,-2.17764e-09,0.725209,
1.375,0.988966,0.022695,-1.74047e-09,0.82918,
1.375,0.992054,0.0163956,-1.35415e-09,0.948077,
1.375,0.994765,0.0109091,-1.01905e-09,1.08405,
1.375,0.997083,0.0062322,-7.33436e-10,1.23955,
1.375,0.998929,0.0024762,-4.97321e-10,1.41738,
1.375,1.00033,-0.000351173,-3.09649e-10,1.62076,
1.375,1.00125,-0.00225327,-1.67508e-10,1.85337,
1.375,1.00178,-0.00333756,-7.02022e-11,2.1194,
1.375,1.00196,-0.00374233,-8.469e-12,2.42367,
1.375,1.00192,-0.00370177,1.43617e-11,2.77091,
1.375,1.00173,-0.00341791,2.1201e-11,3.16112,
1.375,1.0016,-0.00322421,1.08307e-11,3.6087,

-3.19886,0,0.0206562,0,0,
-2.99627,0,0.00600296,0,0,
-2.80402,0,0.00437367,0,0,
-2.62157,0,0.00369752,0,0,
-2.44842,0,0.00368674,0,0,
-2.2841,0,0.00417801,0,0,
-2.12815,0,0.00472082,0,0,
-1.98016,0,0.00558683,0,0,
-1.83971,0,0.00656212,0,0,
-1.70643,0,0.00791236,0,0,
-1.57994,0,0.00930728,0,0,
-1.4599,0,0.0113334,0,0,
-1.34598,0,0.0135664,0,0,
-1.23786,0,0.0161192,0,0,
-1.13526,0,0.0194016,0,0,
-1.03789,0,0.0230633,0,0,
-0.945488,0,0.0277784,0,0,
-0.857795,0,0.033053,0,0,
-0.774572,0,0.0398956,0,0,
-0.695593,0,0.047566,0,0,
-0.620641,0,0.0576215,0,0,
-0.54951,0,0.0689081,0,0,
-0.482006,0,0.083879,0,0,
-0.417943,0,0.100693,0,0,
-0.357147,0,0.123382,0,0,
-0.29945,0,0.149041,0,0,
-0.244696,0,0.184063,0,0,
-0.192732,0,0.218854,0,0,
-0.143419,0,0.269881,0,0,
-0.0966231,0,0.322318,0,0,
-0.0522148,0,0.344092,0,0,
-0.0100698,0,0.348916,0,0,
0.0299268,0,0.338336,0,0,
0.0678843,0,0.294238,0,0,
0.103908,0,0.240141,0,0,
0.138096,0,0.111562,0,0,
0.17054,0,-0.00138896,0,0,
0.20133,0,-0.0892382,0,0,
0.230551,0,-0.165872,0,0,
0.258281,0,-0.229404,0,0,
0.284598,0,-0.288345,0,0,
0.309574,0,-0.338651,0,0,
0.333275,0,-0.383939,0,0,
0.355769,0,-0.425496,0,0,
0.377115,0,-0.461976,0,0,
0.397374,0,-0.496742,0,0,
0.416599,0,-0.527153,0,0,
0.434844,0,-0.556071,0,0,
0.452159,0,-0.581646,0,0,
0.468591,0,-0.605867,0,0,
0.484186,0,-0.627602,0,0,
0.498985,0,-0.648107,0,0,
0.51303,0,-0.666855,0,0,
0.526358,0,-0.684464,0,0,
0.539007,0,-0.700376,0,0,
0.551012,0,-0.715209,0,0,
0.562404,0,-0.729201,0,0,
0.573215,0,-0.741991,0,0,
0.583475,0,-0.754106,0,0,
0.593212,0,-0.765221,0,0,
0.602453,0,-0.775824,0,0,
0.611222,0,-0.785229,0,0,
0.619544,0,-0.794056,0,0,
0.627442,0,-0.801936,0,0,
0.634938,0,-0.806317,0,0,
0.642051,0,-0.803458,0,0,
0.648801,0,-0.765667,0,0,
0.655207,0,-0.709883,0,0,
0.661287,0,-0.625644,0,0,
0.667057,0,-0.552038,0,0,
0.672532,0,-0.491237,0,0,
0.677729,0,-0.447758,0,0,
0.68266,0,-0.410883,0,0,
0.68734,0,-0.38288,0,0,
0.691781,0,-0.358029,0,0,
0.695996,0,-0.338495,0,0,
0.699996,0,-0.320656,0,0,
0.703996,0,-0.305957,0,0,
0.707996,0,-0.291453,0,0,
0.712135,0,-0.27921,0,0,
0.716416,0,-0.266529,0,0,
0.720846,0,-0.255748,0,0,
0.725429,0,-0.244646,0,0,
0.730171,0,-0.234891,0,0,
0.735076,0,-0.224895,0,0,
0.740151,0,-0.215781,0,0,
0.745402,0,-0.20649,0,0,
0.750835,0,-0.197708,0,0,
0.756455,0,-0.188817,0,0,
0.76227,0,-0.179682,0,0,
0.768286,0,-0.171998,0,0,
0.77451,0,-0.162717,0,0,
0.78095,0,-0.154282,0,0,
0.787612,0,-0.145624,0,0,
0.794505,0,-0.137013,0,0,
0.801636,0,-0.128365,0,0,
0.809014,0,-0.119649,0,0,
0.816647,0,-0.111001,0,0,
0.824544,0,-0.102254,0,0,
0.832715,0,-0.093682,0,0,
0.841168,0,-0.0850048,0,0,
0.849914,0,-0.076552,0,0,
0.858962,0,-0.06804,0,0,
0.868323,0,-0.0597637,0,0,
0.878008,0,-0.0515078,0,0,
0.888028,0,-0.043527,0,0,
0.898395,0,-0.0356306,0,0,
0.90912,0,-0.028047,0,0,
0.920216,0,-0.0206042,0,0,
0.931697,0,-0.0135855,0,0,
0.943574,0,-0.00630721,0,0,
0.955862,0,-0.00163828,0,0,
0.968576,0,0.0057659,0,0,
0.981729,0,0.00932574,0,0,
0.995332,0,0.0191733,0,0,
1.00941,0,0.0273556,0,0,
1.02397,0,0.0475951,0,0,
1.03904,0,0.0568313,0,0,
1.05463,0,0.0726301,0,0,
1.07076,0,0.0881296,0,0,
1.08745,0,0.103956,0,0,
1.10471,0,0.119016,0,0,
1.12258,0,0.132713,0,0,
1.14106,0,0.145441,0,0,
1.16018,0,0.155683,0,0,
1.17996,0,0.164772,0,0,
1.20043,0,0.170587,0,0,
1.22161,0,0.174632,0,0,
1.24351,0,0.176967,0,0,
1.26618,0,0.175597,0,0,
1.28963,0,0.173277,0,0,
1.31389,0,0.168262,0,0,
1.33899,0,0.16262,0,0,
1.36496,0,0.154913,0,0,
1.39183,0,0.147183,0,0,
1.41962,0,0.138144,0,0,
1.44838,0,0.129501,0,0,
1.47813,0,0.120179,0,0,
1.50892,0,0.111519,0,0,
1.54076,0,0.102611,0,0,
1.57371,0,0.0945102,0,0,
1.6078,0,0.0864278,0,0,
1.64307,0,0.079099,0,0,
1.67956,0,0.0719348,0,0,
1.71731,0,0.0654814,0,0,
1.75637,0,0.0592925,0,0,
1.79677,0,0.0537674,0,0,
1.83858,0,0.0485186,0,0,
1.88183,0,0.0438533,0,0,
1.92658,0,0.0394752,0,0,
1.97288,0,0.0355378,0,0,
2.02078,0,0.0320701,0,0,
2.07033,0,0.028736,0,0,
2.1216,0,0.0258236,0,0,
2.17465,0,0.0231251,0,0,
2.22953,0,0.0207328,0,0,
2.2863,0,0.01851,0,0,
2.34505,0,0.0165399,0,0,
2.40582,0,0.0147908,0,0,
2.4687,0,0.0131672,0,0,
2.53375,0,0.0117369,0,0,
2.60105,0,0.0104143,0,0,
2.67068,0,0.0092522,0,0,
2.74272,0,0.00817265,0,0,
2.81725,0,0.00723253,0,0,
2.89436,0,0.00635278,0,0,
2.97414,0,0.00559072,0,0,
3.05668,0,0.00488173,0,0,
3.14207,0,0.00426394,0,0,
3.23042,0,0.0036806,0,0,
3.32182,0,0.00318799,0,0,
3.41639,0,0.00273265,0,0,
3.51423,0,0.00230883,0,0,
3.61545,0,0.00194627,0,0,
3.72017,0,0.00158895,0,0,
3.82852,0,0.00127976,0,0,
3.94062,0,0.000983914,0,0,
4.05659,0,0.000741757,0,0,
4.17658,0,0.000497223,0,0,
4.30072,0,0.000264572,0,0,
4.42915,0,0.00153405,0,0,

