f5979e891993793c6ce6451dc7a05cdb4844b1b9 
X,x_velocity,cp,uw_b,wall_distance,
-0.25,0,0.180514,0,1e-16,
-0.25,0.0537575,0.180517,-4.09974e-07,2.59026e-05,
-0.25,0.108557,0.180516,-1.41327e-05,5.22493e-05,
-0.25,0.162184,0.180516,-0.000103441,7.94916e-05,
-0.25,0.209041,0.180516,-0.000284953,0.000108097,
-0.25,0.246595,0.180516,-0.000458636,0.000138555,
-0.25,0.276622,0.180517,-0.000580414,0.000171389,
-0.25,0.301416,0.180517,-0.000666346,0.000207163,
-0.25,0.322598,0.180518,-0.000729149,0.000246489,
-0.25,0.341241,0.180519,-0.000777371,0.000290044,
-0.25,0.358055,0.18052,-0.000816414,0.000338574,
-0.25,0.37352,0.180522,-0.000849365,0.000392915,
-0.25,0.387972,0.180523,-0.00087823,0.000454,
-0.25,0.401655,0.180525,-0.000904338,0.000522878,
-0.25,0.414751,0.180527,-0.000928593,0.000600734,
-0.25,0.427399,0.18053,-0.000951616,0.000688907,
-0.25,0.439708,0.180533,-0.000973835,0.000788915,
-0.25,0.451768,0.180536,-0.000995539,0.000902478,
-0.25,0.46365,0.18054,-0.00101692,0.00103155,
-0.25,0.475415,0.180544,-0.00103807,0.00117836,
-0.25,0.487116,0.180549,-0.00105904,0.00134543,
-0.25,0.498797,0.180554,-0.0010798,0.00153564,
-0.25,0.510499,0.180559,-0.00110032,0.00175227,
-0.25,0.522258,0.180565,-0.00112055,0.00199906,
-0.25,0.534109,0.180571,-0.00114036,0.00228026,
-0.25,0.546082,0.180576,-0.00115956,0.00260072,
-0.25,0.558206,0.180581,-0.00117794,0.00296597,
-0.25,0.570509,0.180585,-0.00119524,0.00338233,
-0.25,0.583018,0.180589,-0.00121118,0.00385697,
-0.25,0.595759,0.180589,-0.00122544,0.00439809,
-0.25,0.608758,0.180587,-0.00123767,0.00501505,
-0.25,0.622042,0.18058,-0.00124746,0.00571851,
-0.25,0.635638,0.180567,-0.00125439,0.00652062,
-0.25,0.649575,0.180545,-0.00125795,0.00743527,
-0.25,0.663885,0.180513,-0.00125755,0.00847826,
-0.25,0.6786,0.180465,-0.00125249,0.00966765,
-0.25,0.693752,0.180399,-0.00124182,0.011024,
-0.25,0.709366,0.180308,-0.00122505,0.0125709,
-0.25,0.725461,0.180184,-0.00120326,0.0143349,
-0.25,0.74215,0.180016,-0.0011797,0.0163469,
-0.25,0.759974,0.179789,-0.00112181,0.0186414,
-0.25,0.779796,0.179489,-0.0010364,0.0212585,
-0.25,0.802329,0.179102,-0.000916059,0.0242434,
-0.25,0.82778,0.178616,-0.000752605,0.0276478,
-0.25,0.854976,0.177976,-0.000555531,0.031531,
-0.25,0.881028,0.177187,-0.000341519,0.0359602,
-0.25,0.901494,0.176156,-0.000118153,0.0410123,
-0.25,0.910696,0.174724,-2.0614e-05,0.0467752,
-0.25,0.912658,0.173226,-2.11626e-06,0.0533488,
-0.25,0.913573,0.171513,-3.33419e-07,0.0608475,
-0.25,0.914577,0.16949,-6.0201e-08,0.0694016,
-0.25,0.915764,0.167133,-1.48117e-08,0.0791597,
-0.25,0.917142,0.164395,-8.45043e-09,0.0902917,
-0.25,0.918739,0.161224,-7.77514e-09,0.102991,
-0.25,0.920587,0.157562,-7.79641e-09,0.117479,
-0.25,0.92272,0.153343,-7.85919e-09,0.134008,
-0.25,0.925166,0.148506,-7.87541e-09,0.152865,
-0.25,0.927949,0.143013,-7.83351e-09,0.17438,
-0.25,0.931092,0.136789,-7.70439e-09,0.198926,
-0.25,0.934584,0.129874,-7.52932e-09,0.226933,
-0.25,0.938498,0.122132,-7.26163e-09,0.258887,
-0.25,0.942743,0.113765,-6.93971e-09,0.295348,
-0.25,0.947438,0.104468,-6.50199e-09,0.33695,
-0.25,0.952305,0.0948283,-5.98036e-09,0.384419,
-0.25,0.95744,0.0847067,-5.42384e-09,0.438586,
-0.25,0.962677,0.0743545,-4.76552e-09,0.500395,
-0.25,0.967843,0.0641007,-4.1099e-09,0.570927,
-0.25,0.972976,0.0540104,-3.49807e-09,0.651415,
-0.25,0.977903,0.044485,-2.9026e-09,0.743264,
-0.25,0.982431,0.0353535,-2.34784e-09,0.848083,
-0.25,0.986602,0.0270823,-1.83312e-09,0.967704,
-0.25,0.990221,0.0198318,-1.38054e-09,1.10422,
-0.25,0.993305,0.0137217,-9.97513e-10,1.26002,
-0.25,0.995764,0.00875303,-6.8641e-10,1.43784,
-0.25,0.997674,0.00494831,-4.42678e-10,1.64079,
-0.25,0.998999,0.00224605,-2.59136e-10,1.86641,
-0.25,0.999846,0.000531741,-1.31409e-10,2.12427,
-0.25,1.00027,-0.000365466,-4.48879e-11,2.41998,
-0.25,1.00028,-0.000401571,-3.89473e-11,2.46413,
-0.25,1.00038,-0.000639122,5.28968e-13,2.75802,
-0.25,1.00026,-0.000466538,2.69586e-11,3.14513,
-0.25,1,9.40442e-06,3.38095e-11,3.58873,

0.688,0,-0.439142,0,1e-16,
0.688,-0.0033228,-0.439143,2.05619e-09,2.33816e-05,
0.688,-0.00143185,-0.439183,-4.7678e-07,4.71702e-05,
0.688,0.00593583,-0.439198,-1.01402e-05,7.17799e-05,
0.688,0.0182804,-0.439224,-6.90497e-05,9.76391e-05,
0.688,0.0328511,-0.439251,-0.000221839,0.000125198,
0.688,0.0467855,-0.439278,-0.000433561,0.000154937,
0.688,0.0593708,-0.439302,-0.00065391,0.000187374,
0.688,0.0709841,-0.439322,-0.000874269,0.000223074,
0.688,0.0821216,-0.439339,-0.00110087,0.00026266,
0.688,0.0931959,-0.439355,-0.00134047,0.000306822,
0.688,0.104541,-0.439368,-0.0015983,0.000356332,
0.688,0.116446,-0.439378,-0.00187847,0.000412053,
0.688,0.129181,-0.439386,-0.00218431,0.000474959,
0.688,0.143016,-0.439388,-0.00251839,0.000546147,
0.688,0.158234,-0.439385,-0.00288228,0.000626864,
0.688,0.175133,-0.439374,-0.00327643,0.000718519,
0.688,0.194032,-0.439354,-0.00370042,0.000822716,
0.688,0.215263,-0.439324,-0.00415242,0.000941278,
0.688,0.239156,-0.439279,-0.00467171,0.00107628,
0.688,0.266484,-0.439222,-0.00513584,0.00123008,
0.688,0.298486,-0.439153,-0.00554884,0.00140539,
0.688,0.336208,-0.439071,-0.00592096,0.00160526,
0.688,0.380259,-0.438985,-0.00623241,0.0018332,
0.688,0.430859,-0.438904,-0.00643941,0.00209321,
0.688,0.48786,-0.438837,-0.00649564,0.00238985,
0.688,0.550715,-0.438818,-0.0063594,0.00272832,
0.688,0.618243,-0.438992,-0.00601218,0.00311456,
0.688,0.68854,-0.438752,-0.00546598,0.00355536,
0.688,0.759557,-0.439329,-0.00476137,0.00405845,
0.688,0.828864,-0.439962,-0.00398416,0.00463268,
0.688,0.894136,-0.440904,-0.0032198,0.00528813,
0.688,0.953047,-0.442139,-0.0025223,0.00603632,
0.688,1.00316,-0.443782,-0.00193543,0.00689042,
0.688,1.04272,-0.445938,-0.00149985,0.00786545,
0.688,1.07207,-0.448633,-0.0011761,0.00897856,
0.688,1.09374,-0.45203,-0.000945859,0.0102494,
0.688,1.11056,-0.456334,-0.000886092,0.0117002,
0.688,1.12495,-0.461564,-0.000933273,0.0133567,
0.688,1.13879,-0.468366,-0.00103767,0.015248,
0.688,1.15333,-0.477366,-0.00116576,0.0174016,
0.688,1.16975,-0.489945,-0.00130804,0.0197947,
0.688,1.18966,-0.508283,-0.00148823,0.0225411,
0.688,1.21611,-0.536242,-0.00155322,0.0256954,
0.688,1.24955,-0.57957,-0.00151673,0.0293134,
0.688,1.29138,-0.63891,-0.00138713,0.0334589,
0.688,1.33472,-0.701596,-0.000915911,0.0382051,
0.688,1.36433,-0.74564,-0.000331308,0.0436361,
0.688,1.37537,-0.760801,-4.86361e-05,0.0498477,
0.688,1.3763,-0.759779,3.23861e-06,0.0569175,
0.688,1.37351,-0.754482,4.60256e-06,0.0649586,
0.688,1.36704,-0.741222,1.7232e-06,0.074169,
0.688,1.35868,-0.724299,4.49815e-07,0.0847119,
0.688,1.34925,-0.705363,1.28952e-07,0.0967654,
0.688,1.33921,-0.685014,6.12397e-08,0.110475,
0.688,1.32829,-0.662812,4.70639e-08,0.126175,
0.688,1.3162,-0.638408,4.30216e-08,0.144131,
0.688,1.3029,-0.611808,4.03012e-08,0.164669,
0.688,1.28855,-0.583206,3.74379e-08,0.188038,
0.688,1.27317,-0.552243,3.46561e-08,0.214753,
0.688,1.25667,-0.518943,3.20192e-08,0.245311,
0.688,1.23905,-0.483184,2.94922e-08,0.280275,
0.688,1.22019,-0.44522,2.72174e-08,0.320142,
0.688,1.19998,-0.404172,2.56915e-08,0.365789,
0.688,1.17786,-0.359198,2.47338e-08,0.417836,
0.688,1.15345,-0.309597,2.38207e-08,0.477372,
0.688,1.1268,-0.255819,2.17878e-08,0.545486,
0.688,1.1003,-0.201724,1.69885e-08,0.623218,
0.688,1.07874,-0.158164,1.14221e-08,0.712106,
0.688,1.06262,-0.125439,7.64399e-09,0.813782,
0.688,1.04981,-0.0996136,5.41988e-09,0.930041,
0.688,1.03925,-0.07835,3.9153e-09,1.06261,
0.688,1.03052,-0.0608418,2.81923e-09,1.21441,
0.688,1.02336,-0.0464776,2.00565e-09,1.38796,
0.688,1.01759,-0.034888,1.41104e-09,1.58636,
0.688,1.01295,-0.0256565,9.80141e-10,1.81256,
0.688,1.0093,-0.0183841,6.74292e-10,2.0716,
0.688,1.00641,-0.0126695,4.6713e-10,2.36771,
0.688,1.00412,-0.00810633,3.29149e-10,2.70619,
0.688,1.00224,-0.00441015,2.32933e-10,3.09309,
0.688,1.00071,-0.0013945,1.69565e-10,3.53533,

0.813,0,-0.108003,0,1e-16,
0.813,-0.00537756,-0.108007,5.33526e-09,2.32716e-05,
0.813,-0.0100343,-0.108013,1.51093e-07,4.69491e-05,
0.813,-0.0139699,-0.10802,1.24854e-06,7.14457e-05,
0.813,-0.0170305,-0.108028,4.74249e-06,9.71887e-05,
0.813,-0.0189625,-0.108035,9.07775e-06,0.000124627,
0.813,-0.0197759,-0.108043,7.03351e-06,0.000154241,
0.813,-0.0198232,-0.108051,-5.34522e-06,0.000186546,
0.813,-0.0194429,-0.108063,-2.54432e-05,0.000222108,
0.813,-0.0188188,-0.108073,-5.05858e-05,0.000261547,
0.813,-0.0180317,-0.108085,-7.98395e-05,0.000305554,
0.813,-0.0171146,-0.108099,-0.000113148,0.000354897,
0.813,-0.0160779,-0.108113,-0.000150888,0.000410441,
0.813,-0.0149204,-0.10813,-0.000193628,0.000473157,
0.813,-0.0136347,-0.108149,-0.000242089,0.000544144,
0.813,-0.0122089,-0.108169,-0.000297115,0.000624646,
0.813,-0.0106276,-0.108193,-0.000359676,0.000716071,
0.813,-0.00887227,-0.108219,-0.000430897,0.000820025,
0.813,-0.00692077,-0.108248,-0.00051209,0.000938328,
0.813,-0.00474721,-0.108281,-0.000604726,0.00107306,
0.813,-0.00232141,-0.108318,-0.000710459,0.00122658,
0.813,0.000391777,-0.108359,-0.000831144,0.00140158,
0.813,0.00343303,-0.108405,-0.000969063,0.00160114,
0.813,0.00685071,-0.108456,-0.00112663,0.00182877,
0.813,0.0107024,-0.108513,-0.00130679,0.00208846,
0.813,0.0150575,-0.108575,-0.00151288,0.00238478,
0.813,0.0199991,-0.108643,-0.00174866,0.00272294,
0.813,0.0256286,-0.108718,-0.00201843,0.00310889,
0.813,0.0320699,-0.108799,-0.00232716,0.00354942,
0.813,0.039476,-0.108887,-0.00268041,0.00405228,
0.813,0.0480369,-0.10898,-0.00308441,0.00462634,
0.813,0.057991,-0.109077,-0.00354605,0.00528169,
0.813,0.0696387,-0.109177,-0.00407281,0.0060299,
0.813,0.0833613,-0.109278,-0.00467267,0.00688414,
0.813,0.0996458,-0.109372,-0.00535178,0.00785949,
0.813,0.119105,-0.109502,-0.00616412,0.00897314,
0.813,0.142862,-0.109624,-0.00726633,0.0102448,
0.813,0.174502,-0.109596,-0.00804647,0.0116968,
0.813,0.220488,-0.109435,-0.00890076,0.0133548,
0.813,0.288724,-0.109167,-0.00966165,0.0152482,
0.813,0.389503,-0.108344,-0.00976756,0.0173973,
0.813,0.53201,-0.106363,-0.0084053,0.0197681,
0.813,0.698265,-0.104603,-0.00587541,0.0225011,
0.813,0.83038,-0.104968,-0.00357758,0.0256452,
0.813,0.904248,-0.104276,-0.00174266,0.0292561,
0.813,0.941768,-0.102427,-0.000710514,0.033398,
0.813,0.965384,-0.099696,-0.000422377,0.0379504,
0.813,0.986645,-0.0963621,-0.000338437,0.0431839,
0.813,1.00875,-0.0919376,-0.000238488,0.0492266,
0.813,1.02721,-0.0870495,-9.41109e-05,0.0561862,
0.813,1.03521,-0.0823009,-7.56916e-06,0.0641865,
0.813,1.03553,-0.077248,6.35364e-06,0.0732535,
0.813,1.03369,-0.0708813,4.51257e-06,0.0836093,
0.813,1.02383,-0.0638496,1.25169e-06,0.0955186,
0.813,1.01728,-0.0552953,1.65653e-07,0.10911,
0.813,1.0149,-0.046866,3.146e-08,0.124602,
0.813,1.00778,-0.0395818,6.69227e-09,0.142358,
0.813,1.00746,-0.0308304,4.38372e-10,0.162626,
0.813,1.0123,-0.0243305,9.25385e-10,0.185823,
0.813,1.00729,-0.0229738,7.77355e-10,0.212297,
0.813,1.00842,-0.0229173,-1.46933e-09,0.242651,
0.813,1.01296,-0.028539,-3.13944e-09,0.277301,
0.813,1.01841,-0.0368011,-3.55989e-09,0.316941,
0.813,1.02219,-0.0473,-4.87234e-09,0.36227,
0.813,1.02802,-0.0576091,-5.14906e-09,0.41413,
0.813,1.03302,-0.0671353,-3.89474e-09,0.473389,
0.813,1.03643,-0.0736628,-1.99424e-09,0.54123,
0.813,1.03774,-0.0760598,-1.45932e-10,0.618788,
0.813,1.03716,-0.074608,7.81909e-10,0.707593,
0.813,1.03511,-0.0701324,1.45374e-09,0.809092,
0.813,1.03178,-0.0635507,1.76189e-09,0.925335,
0.813,1.02768,-0.0551816,1.75001e-09,1.05821,
0.813,1.02327,-0.0462789,1.56613e-09,1.21017,
0.813,1.01891,-0.037557,1.2972e-09,1.38391,
0.813,1.01493,-0.0295507,1.01418e-09,1.58247,
0.813,1.01142,-0.0226254,7.59806e-10,1.81009,
0.813,1.00848,-0.0167379,5.54557e-10,2.07007,
0.813,1.00602,-0.0118555,3.94148e-10,2.36772,
0.813,1.00403,-0.00794359,2.85646e-10,2.70818,
0.813,1.00231,-0.0045444,2.04246e-10,3.09651,
0.813,1.00103,-0.00203584,1.60567e-10,3.54123,

0.938,0,0.00801133,0,1e-16,
0.938,-0.007239,0.00800942,3.37292e-09,2.32316e-05,
0.938,-0.0142283,0.00800505,9.80136e-08,4.68694e-05,
0.938,-0.0210374,0.00800002,9.6721e-07,7.13267e-05,
0.938,-0.0276019,0.00799455,4.90281e-06,9.70313e-05,
0.938,-0.0335726,0.0079894,1.53682e-05,0.000124433,
0.938,-0.038364,0.00798487,3.13871e-05,0.000154011,
0.938,-0.0417163,0.00798068,4.47433e-05,0.000186283,
0.938,-0.0438979,0.007975,4.98045e-05,0.000221814,
0.938,-0.0452856,0.00796863,4.72158e-05,0.000261227,
0.938,-0.0461549,0.00796044,3.9279e-05,0.000305212,
0.938,-0.0466721,0.0079542,2.75858e-05,0.000354541,
0.938,-0.046935,0.00793413,1.26674e-05,0.000410078,
0.938,-0.0469965,0.00796597,-5.37724e-06,0.000472798,
0.938,-0.0468894,0.00792247,-2.63027e-05,0.000543802,
0.938,-0.046632,0.00791558,-5.06159e-05,0.000624336,
0.938,-0.0462309,0.00790401,-7.87371e-05,0.000715816,
0.938,-0.0456886,0.00789122,-0.000110977,0.000819848,
0.938,-0.0450021,0.00787646,-0.000148014,0.000938261,
0.938,-0.0441645,0.00786011,-0.000190496,0.00107314,
0.938,-0.0431659,0.00784159,-0.000239204,0.00122685,
0.938,-0.0419927,0.00782128,-0.000295049,0.00140211,
0.938,-0.0406283,0.00779856,-0.000359082,0.00160199,
0.938,-0.0390524,0.00777345,-0.000432496,0.00183001,
0.938,-0.0372409,0.00774506,-0.000516659,0.0020902,
0.938,-0.0351651,0.00771391,-0.000613168,0.00238713,
0.938,-0.0327909,0.007679,-0.000723852,0.00272605,
0.938,-0.0300779,0.00764027,-0.000850791,0.00311293,
0.938,-0.026978,0.00759643,-0.000996369,0.00355458,
0.938,-0.0234337,0.00754802,-0.00116336,0.00405882,
0.938,-0.0193761,0.00749351,-0.00135493,0.00463453,
0.938,-0.0147219,0.00743261,-0.00157465,0.00529188,
0.938,-0.00937028,0.00736363,-0.00182648,0.00604249,
0.938,-0.00320041,0.00728668,-0.00211573,0.00689961,
0.938,0.003935,0.00719934,-0.00244773,0.0078784,
0.938,0.0122195,0.00710262,-0.002828,0.00899617,
0.938,0.0218755,0.00699519,-0.00326439,0.0102727,
0.938,0.0331785,0.00688113,-0.00376215,0.0117305,
0.938,0.046488,0.00676204,-0.00432966,0.0133955,
0.938,0.0622635,0.00664495,-0.00497616,0.0152971,
0.938,0.0811017,0.00653928,-0.00570762,0.017469,
0.938,0.103744,0.00635953,-0.00660257,0.0199391,
0.938,0.13172,0.00617124,-0.00776126,0.0225116,
0.938,0.169641,0.00627799,-0.00865896,0.0255164,
0.938,0.226363,0.006679,-0.00953615,0.0290096,
0.938,0.314631,0.00756563,-0.0100557,0.0330545,
0.938,0.44861,0.0100904,-0.00925328,0.0377237,
0.938,0.621084,0.0116916,-0.00702528,0.0426984,
0.938,0.776912,0.00955231,-0.00463021,0.0484919,
0.938,0.875795,0.00791317,-0.00256246,0.0552419,
0.938,0.934157,0.00699177,-0.000966438,0.0630705,
0.938,0.96915,0.00875128,-0.000334081,0.0721179,
0.938,0.987493,0.00828576,-7.86876e-05,0.0822909,
0.938,0.992281,0.00614372,-7.25772e-06,0.0938338,
0.938,0.991308,0.00493991,5.84125e-07,0.107215,
0.938,0.989474,0.00442294,3.48225e-07,0.122488,
0.938,0.98684,0.003248,2.14859e-08,0.139919,
0.938,0.987237,0.00378257,-4.76019e-08,0.160003,
0.938,0.992641,0.00318699,-1.54242e-08,0.18281,
0.938,0.995669,0.000885386,-2.58974e-09,0.208986,
0.938,0.997006,-0.000465723,-1.06308e-09,0.239003,
0.938,0.998813,-0.00227562,-1.29837e-09,0.273269,
0.938,1.00217,-0.00446289,-1.35551e-09,0.312507,
0.938,1.00363,-0.00806803,-1.37501e-09,0.357468,
0.938,1.00534,-0.0117843,-1.91485e-09,0.408929,
0.938,1.00785,-0.0161144,-2.17176e-09,0.467901,
0.938,1.0103,-0.0207518,-1.93953e-09,0.535368,
0.938,1.01251,-0.0251742,-1.53569e-09,0.612662,
0.938,1.01447,-0.0290494,-1.07251e-09,0.701152,
0.938,1.01584,-0.0315733,-4.75333e-10,0.802634,
0.938,1.01629,-0.0324085,-1.02863e-11,0.91874,
0.938,1.01589,-0.0315062,2.90912e-10,1.05163,
0.938,1.0148,-0.0292773,4.85473e-10,1.20403,
0.938,1.01316,-0.0260628,5.59119e-10,1.37848,
0.938,1.0112,-0.0220962,5.45914e-10,1.57802,
0.938,1.00912,-0.0180013,4.78651e-10,1.80652,
0.938,1.00713,-0.0140275,3.90489e-10,2.06844,
0.938,1.00529,-0.0104173,3.0178e-10,2.3677,
0.938,1.00374,-0.00736117,2.29351e-10,2.7102,
0.938,1.00233,-0.00458904,1.62817e-10,3.1022,
0.938,1.00126,-0.00248117,1.25766e-10,3.55094,

1,0,0.0433843,0,1e-16,
1,-0.0134666,0.0433811,8.5129e-09,2.32217e-05,
1,-0.0265262,0.0433771,2.85134e-07,4.685e-05,
1,-0.0392776,0.0433724,2.76479e-06,7.12984e-05,
1,-0.0515109,0.0433672,1.33032e-05,9.6995e-05,
1,-0.0624468,0.043362,3.84336e-05,0.00012439,
1,-0.07109,0.0433567,7.2672e-05,0.000153963,
1,-0.0771935,0.0433508,9.99536e-05,0.000186233,
1,-0.0813034,0.0433437,0.000112804,0.000221764,
1,-0.0840804,0.0433355,0.000113824,0.000261182,
1,-0.0859911,0.0433262,0.000107086,0.000305176,
1,-0.0873193,0.043316,9.51816e-05,0.000354519,
1,-0.0882338,0.0433045,7.94418e-05,0.000410078,
1,-0.0888356,0.0432924,6.05078e-05,0.000472828,
1,-0.0891876,0.0432769,3.86576e-05,0.000543873,
1,-0.089329,0.0432664,1.37095e-05,0.000624461,
1,-0.0892817,0.0432736,-1.45605e-05,0.000716009,
1,-0.0890593,0.0432241,-4.62625e-05,0.000820128,
1,-0.0886684,0.0432128,-8.19718e-05,0.000938651,
1,-0.0881086,0.0431917,-0.000122251,0.00107366,
1,-0.0873761,0.043169,-0.000167731,0.00122754,
1,-0.0864617,0.0431429,-0.000219297,0.001403,
1,-0.0853531,0.043114,-0.000277779,0.00160314,
1,-0.0840342,0.0430819,-0.000344187,0.00183147,
1,-0.0824851,0.0430463,-0.000419658,0.00209203,
1,-0.0806816,0.043007,-0.000505472,0.00238941,
1,-0.0785952,0.0429637,-0.000603064,0.00272886,
1,-0.0761921,0.0429161,-0.000714066,0.00311639,
1,-0.0734327,0.0428641,-0.000840331,0.00355882,
1,-0.0702698,0.0428076,-0.000983931,0.00406398,
1,-0.0666483,0.0427467,-0.00114718,0.00464079,
1,-0.0625024,0.0426814,-0.0013327,0.00529946,
1,-0.0577541,0.0426124,-0.00154343,0.00605162,
1,-0.0523094,0.0425402,-0.00178264,0.0069106,
1,-0.0460552,0.0424664,-0.00205393,0.00789159,
1,-0.038854,0.0423925,-0.00236128,0.00901195,
1,-0.0305375,0.042322,-0.00270894,0.0102915,
1,-0.020899,0.0422584,-0.00310147,0.011753,
1,-0.00968443,0.0422089,-0.0035438,0.0134223,
1,0.00341189,0.0421726,-0.0040504,0.0153289,
1,0.0187871,0.0421685,-0.00464959,0.0175068,
1,0.0370552,0.0421701,-0.00533716,0.0199945,
1,0.0592781,0.0420211,-0.00608437,0.0228361,
1,0.0870623,0.0416047,-0.0067719,0.0260822,
1,0.122673,0.0408482,-0.00756865,0.0297904,
1,0.169867,0.0399755,-0.00851926,0.0340265,
1,0.236129,0.0399508,-0.00950031,0.0388658,
1,0.335956,0.0406732,-0.00997707,0.0443714,
1,0.480524,0.0437613,-0.0089259,0.050306,
1,0.651358,0.0462137,-0.00643174,0.0567779,
1,0.797841,0.0460619,-0.00411991,0.0643629,
1,0.895016,0.043559,-0.00193578,0.073201,
1,0.94683,0.0476202,-0.000562304,0.0834523,
1,0.968583,0.0448425,-0.000108161,0.0952491,
1,0.972988,0.0428881,-1.09159e-05,0.108351,
1,0.972964,0.0408604,-4.08744e-07,0.123411,
1,0.970688,0.0389105,-1.21004e-07,0.140887,
1,0.970442,0.0371887,-2.57189e-07,0.160913,
1,0.974543,0.0341079,-1.06147e-07,0.183368,
1,0.979784,0.0307341,-2.28449e-08,0.209311,
1,0.983097,0.0270261,-4.80632e-09,0.239097,
1,0.985881,0.0230976,-2.41632e-09,0.273067,
1,0.990244,0.018725,-2.03349e-09,0.312052,
1,0.99297,0.0137214,-1.88257e-09,0.356741,
1,0.995373,0.00857098,-2.25007e-09,0.407906,
1,0.998312,0.00308276,-2.49957e-09,0.466542,
1,1.00125,-0.0025261,-2.31414e-09,0.53384,
1,1.004,-0.00803024,-1.93152e-09,0.610826,
1,1.00654,-0.0130042,-1.47493e-09,0.699112,
1,1.00867,-0.017185,-1.00725e-09,0.800294,
1,1.01019,-0.0201676,-5.58347e-10,0.916281,
1,1.01097,-0.0216879,-1.43004e-10,1.04923,
1,1.01094,-0.0215229,8.61171e-11,1.2016,
1,1.01032,-0.0203551,2.63827e-10,1.37615,
1,1.00922,-0.0181765,3.34686e-10,1.57647,
1,1.00783,-0.0154044,3.38494e-10,1.80575,
1,1.00739,-0.0145365,3.27915e-10,1.88256,
1,1.00633,-0.0124369,3.02092e-10,2.0677,
1,1.00485,-0.00952615,2.4754e-10,2.36835,
1,1.00353,-0.00693005,1.94285e-10,2.71278,
1,1.00228,-0.00450311,1.44302e-10,3.10614,
1,1.00134,-0.00266457,1.11015e-10,3.55725,

1.125,0,0.155425,0,1e-16,
1.125,0.0075379,0.155421,-2.53182e-08,2.2977e-05,
1.125,0.015603,0.155422,-9.84882e-07,4.63572e-05,
1.125,0.0241054,0.155422,-9.75848e-06,7.05508e-05,
1.125,0.0321662,0.155421,-4.12259e-05,9.59823e-05,
1.125,0.038482,0.15542,-9.09353e-05,0.000123098,
1.125,0.0429181,0.155417,-0.000133693,0.000152375,
1.125,0.0460959,0.155412,-0.000163862,0.000184326,
1.125,0.0485324,0.155406,-0.000187276,0.000219514,
1.125,0.0505295,0.155397,-0.000208291,0.000258557,
1.125,0.0522576,0.155386,-0.000229157,0.000302141,
1.125,0.0538178,0.155373,-0.000251114,0.000351033,
1.125,0.0552741,0.155356,-0.000274989,0.000406094,
1.125,0.0566698,0.155336,-0.000301447,0.000468293,
1.125,0.0580364,0.155312,-0.000331108,0.000538726,
1.125,0.0593986,0.155284,-0.000364599,0.000618634,
1.125,0.0607765,0.15525,-0.00040259,0.000709426,
1.125,0.0621883,0.155209,-0.000445819,0.000812702,
1.125,0.0636504,0.155161,-0.00049512,0.000930284,
1.125,0.0651793,0.155104,-0.000551432,0.00106425,
1.125,0.0667913,0.155036,-0.000615812,0.00121696,
1.125,0.0685037,0.154957,-0.000689471,0.00139111,
1.125,0.0703348,0.154863,-0.000773791,0.00158979,
1.125,0.0723049,0.154752,-0.000870347,0.00181649,
1.125,0.0744363,0.154623,-0.00098093,0.00207523,
1.125,0.0767539,0.154472,-0.0011076,0.00237059,
1.125,0.0792866,0.154295,-0.0012527,0.00270779,
1.125,0.0820671,0.154091,-0.00141891,0.0030928,
1.125,0.0851337,0.153854,-0.00160927,0.00353243,
1.125,0.088531,0.153581,-0.00182726,0.00403447,
1.125,0.092312,0.153269,-0.00207681,0.00460781,
1.125,0.0965399,0.152913,-0.00236238,0.00526262,
1.125,0.101291,0.152511,-0.00268894,0.00601049,
1.125,0.106657,0.152059,-0.00306209,0.00686471,
1.125,0.112751,0.151555,-0.00348798,0.00784041,
1.125,0.119715,0.150999,-0.0039733,0.00895492,
1.125,0.127722,0.150393,-0.00452516,0.010228,
1.125,0.136993,0.149739,-0.00515087,0.0116823,
1.125,0.147808,0.149041,-0.00585758,0.0133436,
1.125,0.160523,0.148309,-0.00665169,0.0152415,
1.125,0.175602,0.147551,-0.00754299,0.0174097,
1.125,0.193663,0.147007,-0.00891347,0.0198867,
1.125,0.217267,0.147136,-0.00969319,0.0227167,
1.125,0.251186,0.147535,-0.0102601,0.0259499,
1.125,0.299107,0.147601,-0.0107741,0.029644,
1.125,0.362578,0.147276,-0.0109263,0.0338647,
1.125,0.442863,0.146664,-0.0104134,0.0386871,
1.125,0.539533,0.145682,-0.00907099,0.0441974,
1.125,0.64566,0.144171,-0.00709092,0.0504935,
1.125,0.746811,0.142158,-0.00497107,0.0576879,
1.125,0.829443,0.138691,-0.00288392,0.0659089,
1.125,0.887821,0.135858,-0.00108527,0.0753032,
1.125,0.920616,0.130973,-0.000295264,0.0860384,
1.125,0.932428,0.125192,-5.78008e-05,0.0983063,
1.125,0.935365,0.118895,-1.17504e-05,0.112326,
1.125,0.936565,0.112499,-3.21014e-06,0.128348,
1.125,0.937284,0.105675,-1.22688e-06,0.146659,
1.125,0.941063,0.0984197,-4.9028e-07,0.167586,
1.125,0.947737,0.0909214,-1.44233e-07,0.191503,
1.125,0.954732,0.083167,-3.24038e-08,0.218838,
1.125,0.959838,0.075063,-8.06141e-09,0.250082,
1.125,0.965019,0.0666285,-3.99729e-09,0.285792,
1.125,0.971176,0.0582683,-3.14319e-09,0.32661,
1.125,0.975368,0.0497499,-3.02698e-09,0.373265,
1.125,0.979385,0.0411711,-3.40896e-09,0.426595,
1.125,0.983708,0.0328461,-3.50014e-09,0.487555,
1.125,0.987788,0.0248391,-3.13101e-09,0.55724,
1.125,0.991548,0.0171906,-2.60023e-09,0.636898,
1.125,0.995084,0.0100877,-2.06443e-09,0.72796,
1.125,0.998241,0.00381872,-1.56071e-09,0.82855,
1.125,1.00091,-0.00148266,-1.10859e-09,0.94298,
1.125,1.00187,-0.00340834,-9.28981e-10,1.00315,
1.125,1.003,-0.00569104,-7.15863e-10,1.07453,
1.125,1.00445,-0.00859265,-3.99681e-10,1.22528,
1.125,1.00526,-0.0102039,-1.43952e-10,1.39832,
1.125,1.00547,-0.0106506,9.96849e-12,1.59646,
1.125,1.00518,-0.0100988,9.96239e-11,1.82431,
1.125,1.00461,-0.00898246,1.3816e-10,2.08526,
1.125,1.00382,-0.0074602,1.41908e-10,2.38489,
1.125,1.003,-0.00585952,1.25034e-10,2.72763,
1.125,1.00215,-0.00425278,1.00155e-10,3.12069,
1.125,1.00148,-0.00296916,7.9222e-11,3.57128,

1.25,0,0.18265,0,1e-16,
1.25,0.0364814,0.182648,-1.48927e-07,2.27149e-05,
1.25,0.0734028,0.182649,-5.3653e-06,4.58292e-05,
1.25,0.11015,0.182648,-4.65069e-05,6.97496e-05,
1.25,0.143387,0.182648,-0.000164606,9.48968e-05,
1.25,0.169505,0.182648,-0.000317997,0.000121713,
1.25,0.18847,0.182646,-0.000439548,0.000150671,
1.25,0.20222,0.182643,-0.000519393,0.00018228,
1.25,0.212526,0.182639,-0.000570924,0.000217097,
1.25,0.220578,0.182634,-0.000606233,0.000255735,
1.25,0.227121,0.182627,-0.00063284,0.000298876,
1.25,0.232625,0.182618,-0.000655106,0.00034728,
1.25,0.237391,0.182607,-0.000675621,0.000401801,
1.25,0.24162,0.182593,-0.000696031,0.000463402,
1.25,0.245451,0.182576,-0.000717496,0.00053317,
1.25,0.248983,0.182555,-0.000740929,0.000612337,
1.25,0.252292,0.18253,-0.000767131,0.000702303,
1.25,0.255434,0.1825,-0.000796873,0.000804657,
1.25,0.258455,0.182464,-0.000830942,0.00092121,
1.25,0.261396,0.182421,-0.000870182,0.00105402,
1.25,0.264288,0.18237,-0.000915518,0.00120545,
1.25,0.267163,0.182309,-0.000967987,0.00137816,
1.25,0.27005,0.182236,-0.00102876,0.00157523,
1.25,0.272977,0.182151,-0.00109917,0.00180013,
1.25,0.275972,0.182051,-0.00118071,0.00205686,
1.25,0.279065,0.181933,-0.00127508,0.00234997,
1.25,0.282288,0.181795,-0.00138426,0.00268466,
1.25,0.285675,0.181634,-0.00151049,0.00306685,
1.25,0.289267,0.181448,-0.00165634,0.00350335,
1.25,0.293106,0.181233,-0.00182474,0.00400188,
1.25,0.297244,0.180985,-0.00201902,0.00457132,
1.25,0.301742,0.180701,-0.00224297,0.00522176,
1.25,0.306671,0.180378,-0.00250084,0.00596478,
1.25,0.312116,0.180013,-0.00279742,0.00681358,
1.25,0.318181,0.179604,-0.00313798,0.00778325,
1.25,0.324994,0.179149,-0.00352823,0.00889105,
1.25,0.332711,0.178647,-0.00397421,0.0101567,
1.25,0.341529,0.178097,-0.00448202,0.0116027,
1.25,0.351694,0.1775,-0.00505737,0.0132548,
1.25,0.363519,0.176857,-0.00570482,0.0151425,
1.25,0.377399,0.176171,-0.0064302,0.0172993,
1.25,0.393855,0.175451,-0.00728369,0.0197638,
1.25,0.413861,0.17502,-0.00847364,0.0225799,
1.25,0.440803,0.175181,-0.00874794,0.0257978,
1.25,0.479471,0.175253,-0.00892833,0.0294749,
1.25,0.530741,0.174833,-0.00882276,0.0336769,
1.25,0.592714,0.174111,-0.00818452,0.0384787,
1.25,0.662185,0.172929,-0.0069752,0.0439663,
1.25,0.733662,0.171214,-0.00535448,0.0502376,
1.25,0.799561,0.168778,-0.00371013,0.0574048,
1.25,0.855075,0.165293,-0.00181922,0.0655959,
1.25,0.89517,0.161119,-0.000639947,0.0749575,
1.25,0.915354,0.15598,-0.000152331,0.0856571,
1.25,0.921816,0.150198,-2.95316e-05,0.0978863,
1.25,0.923547,0.143865,-7.39925e-06,0.111864,
1.25,0.924595,0.137137,-2.58218e-06,0.127841,
1.25,0.926324,0.129846,-1.10927e-06,0.146102,
1.25,0.9312,0.122125,-4.26913e-07,0.166976,
1.25,0.938134,0.11398,-1.22788e-07,0.190837,
1.25,0.944911,0.10541,-2.87391e-08,0.218113,
1.25,0.950092,0.0964705,-7.91539e-09,0.249292,
1.25,0.955689,0.0871908,-4.17506e-09,0.284935,
1.25,0.961973,0.0779255,-3.36271e-09,0.325682,
1.25,0.96641,0.0684808,-3.3149e-09,0.372264,
1.25,0.970803,0.0590516,-3.73858e-09,0.425519,
1.25,0.975518,0.0498244,-3.82486e-09,0.486402,
1.25,0.979982,0.0409079,-3.43311e-09,0.55601,
1.25,0.984133,0.0323021,-2.87328e-09,0.635594,
1.25,0.988075,0.024377,-2.32138e-09,0.726585,
1.25,0.991693,0.0170757,-1.82159e-09,0.83062,
1.25,0.994899,0.0106315,-1.37303e-09,0.949574,
1.25,0.997607,0.00518307,-9.83559e-10,1.08559,
1.25,0.999762,0.00083538,-6.60039e-10,1.24111,
1.25,1.00136,-0.00240593,-4.03489e-10,1.41894,
1.25,1.00241,-0.00452399,-2.05844e-10,1.62229,
1.25,1.00292,-0.005592,-6.68788e-11,1.84947,
1.25,1.00302,-0.00580093,1.34244e-11,2.10883,
1.25,1.00279,-0.00540498,5.16913e-11,2.40658,
1.25,1.00243,-0.0047305,6.4354e-11,2.74752,
1.25,1.00237,-0.00463167,6.36154e-11,2.79119,
1.25,1.00194,-0.00383878,5.75742e-11,3.13954,
1.25,1.0016,-0.0032039,3.50775e-11,3.5883,

1.375,0,0.150265,0,1e-16,
1.375,0.05165,0.150264,-2.63509e-07,2.24527e-05,
1.375,0.103763,0.150264,-9.27742e-06,4.53013e-05,
1.375,0.155284,0.150264,-7.48162e-05,6.89485e-05,
1.375,0.201881,0.150264,-0.000238243,9.38113e-05,
1.375,0.239887,0.150264,-0.000426376,0.000120328,
1.375,0.269601,0.150264,-0.000572235,0.000148967,
1.375,0.292928,0.150263,-0.000673551,0.000180234,
1.375,0.311572,0.150262,-0.000743594,0.00021468,
1.375,0.326768,0.15026,-0.00079297,0.000252914,
1.375,0.339386,0.150257,-0.000828769,0.000295611,
1.375,0.35005,0.150254,-0.000855724,0.000343527,
1.375,0.35921,0.150249,-0.000877073,0.000397509,
1.375,0.367199,0.150243,-0.000895099,0.000458511,
1.375,0.374266,0.150236,-0.000911472,0.000527614,
1.375,0.380601,0.150226,-0.000927469,0.00060604,
1.375,0.386351,0.150214,-0.000944115,0.00069518,
1.375,0.391631,0.1502,-0.000962285,0.000796613,
1.375,0.396534,0.150182,-0.000982774,0.000912136,
1.375,0.401135,0.15016,-0.00100635,0.0010438,
1.375,0.405497,0.150134,-0.00103381,0.00119393,
1.375,0.409673,0.150102,-0.00106597,0.00136521,
1.375,0.413712,0.150063,-0.00110374,0.00156067,
1.375,0.417656,0.150018,-0.00114812,0.00178377,
1.375,0.421544,0.149963,-0.00120024,0.00203849,
1.375,0.425416,0.149899,-0.00126137,0.00232935,
1.375,0.429308,0.149823,-0.00133295,0.00266152,
1.375,0.43326,0.149733,-0.00141663,0.00304091,
1.375,0.437313,0.149628,-0.00151427,0.00347427,
1.375,0.441511,0.149506,-0.00162798,0.0039693,
1.375,0.445902,0.149364,-0.00176017,0.00453483,
1.375,0.450542,0.149201,-0.00191353,0.00518091,
1.375,0.455492,0.149013,-0.00209109,0.00591907,
1.375,0.460829,0.148799,-0.00229619,0.00676245,
1.375,0.466638,0.148557,-0.00253249,0.0077261,
1.375,0.473025,0.148284,-0.00280387,0.00882719,
1.375,0.480118,0.147979,-0.00311439,0.0100854,
1.375,0.488072,0.147641,-0.00346798,0.0115231,
1.375,0.497082,0.147269,-0.00386812,0.013166,
1.375,0.507387,0.146863,-0.00431722,0.0150434,
1.375,0.519288,0.146421,-0.00481576,0.017189,
1.375,0.533161,0.145941,-0.0053614,0.0196409,
1.375,0.54948,0.145431,-0.00597982,0.0224431,
1.375,0.569049,0.144986,-0.00674256,0.0256456,
1.375,0.594188,0.144786,-0.00707552,0.0293058,
1.375,0.628416,0.144725,-0.00696548,0.0334891,
1.375,0.672543,0.14435,-0.00657208,0.0382704,
1.375,0.723537,0.143607,-0.00577871,0.0437353,
1.375,0.777216,0.142456,-0.00461394,0.0499817,
1.375,0.829432,0.141235,-0.0031704,0.0571216,
1.375,0.876505,0.139261,-0.00160677,0.0652828,
1.375,0.911079,0.136628,-0.000535418,0.0746118,
1.375,0.927717,0.133412,-0.000108951,0.0852759,
1.375,0.932449,0.129913,-1.59643e-05,0.0974663,
1.375,0.932972,0.125954,-2.97946e-06,0.111402,
1.375,0.932825,0.121598,-1.16288e-06,0.127333,
1.375,0.933687,0.116818,-6.70511e-07,0.145546,
1.375,0.937831,0.11156,-2.86097e-07,0.166367,
1.375,0.94342,0.105827,-8.31736e-08,0.190171,
1.375,0.948683,0.0996589,-1.98916e-08,0.217387,
1.375,0.952736,0.0929322,-5.80967e-09,0.248502,
1.375,0.957167,0.0857857,-3.2633e-09,0.284078,
1.375,0.962172,0.078358,-2.71731e-09,0.324754,
1.375,0.965749,0.0705605,-2.73148e-09,0.371263,
1.375,0.969332,0.0625968,-3.17225e-09,0.424442,
1.375,0.973413,0.054576,-3.34998e-09,0.485249,
1.375,0.977369,0.046419,-3.07051e-09,0.554781,
1.375,0.981099,0.038698,-2.63632e-09,0.634289,
1.375,0.984793,0.0311138,-2.19766e-09,0.725209,
1.375,0.988265,0.0240609,-1.77463e-09,0.82918,
1.375,0.991449,0.0176449,-1.39407e-09,0.948077,
1.375,0.994279,0.0119087,-1.05751e-09,1.08405,
1.375,0.996697,0.00702607,-7.64285e-10,1.23955,
1.375,0.99863,0.00307308,-5.21672e-10,1.41738,
1.375,1.00011,8.70763e-05,-3.2837e-10,1.62076,
1.375,1.0011,-0.0019445,-1.80615e-10,1.85337,
1.375,1.00168,-0.00313867,-7.90657e-11,2.1194,
1.375,1.0019,-0.00362361,-1.35922e-11,2.42367,
1.375,1.00188,-0.00364116,1.03475e-11,2.77091,
1.375,1.00173,-0.0033982,1.86209e-11,3.16112,
1.375,1.00162,-0.00324056,7.30735e-12,3.6087,

-3.19886,0,0.0209066,0,0,
-2.99627,0,0.00595531,0,0,
-2.80402,0,0.00433886,0,0,
-2.62157,0,0.00369373,0,0,
-2.44842,0,0.00368612,0,0,
-2.2841,0,0.00418652,0,0,
-2.12815,0,0.00472594,0,0,
-1.98016,0,0.00558434,0,0,
-1.83971,0,0.00655757,0,0,
-1.70643,0,0.00790377,0,0,
-1.57994,0,0.00929703,0,0,
-1.4599,0,0.0113173,0,0,
-1.34598,0,0.0135451,0,0,
-1.23786,0,0.0160925,0,0,
-1.13526,0,0.0193719,0,0,
-1.03789,0,0.0230297,0,0,
-0.945488,0,0.027742,0,0,
-0.857795,0,0.0330125,0,0,
-0.774572,0,0.0398555,0,0,
-0.695593,0,0.0475231,0,0,
-0.620641,0,0.0575792,0,0,
-0.54951,0,0.0688615,0,0,
-0.482006,0,0.083825,0,0,
-0.417943,0,0.100625,0,0,
-0.357147,0,0.1233,0,0,
-0.29945,0,0.148942,0,0,
-0.244696,0,0.183901,0,0,
-0.192732,0,0.218559,0,0,
-0.143419,0,0.269381,0,0,
-0.0966231,0,0.321779,0,0,
-0.0522148,0,0.343531,0,0,
-0.0100698,0,0.348387,0,0,
0.0299268,0,0.337914,0,0,
0.0678843,0,0.293917,0,0,
0.103908,0,0.239977,0,0,
0.138096,0,0.111592,0,0,
0.17054,0,-0.00127763,0,0,
0.20133,0,-0.0890685,0,0,
0.230551,0,-0.165737,0,0,
0.258281,0,-0.229254,0,0,
0.284598,0,-0.288231,0,0,
0.309574,0,-0.338516,0,0,
0.333275,0,-0.383795,0,0,
0.355769,0,-0.425391,0,0,
0.377115,0,-0.461862,0,0,
0.397374,0,-0.496684,0,0,
0.416599,0,-0.527038,0,0,
0.434844,0,-0.555936,0,0,
0.452159,0,-0.581506,0,0,
0.468591,0,-0.605769,0,0,
0.484186,0,-0.627499,0,0,
0.498985,0,-0.648053,0,0,
0.51303,0,-0.666846,0,0,
0.526358,0,-0.684497,0,0,
0.539007,0,-0.700471,0,0,
0.551012,0,-0.715285,0,0,
0.562404,0,-0.729304,0,0,
0.573215,0,-0.742083,0,0,
0.583475,0,-0.754212,0,0,
0.593212,0,-0.765353,0,0,
0.602453,0,-0.775984,0,0,
0.611222,0,-0.785462,0,0,
0.619544,0,-0.794473,0,0,
0.627442,0,-0.802801,0,0,
0.634938,0,-0.809942,0,0,
0.642051,0,-0.81563,0,0,
0.648801,0,-0.812779,0,0,
0.655207,0,-0.801935,0,0,
0.661287,0,-0.75778,0,0,
0.667057,0,-0.678233,0,0,
0.672532,0,-0.60138,0,0,
0.677729,0,-0.535853,0,0,
0.68266,0,-0.483079,0,0,
0.68734,0,-0.444175,0,0,
0.691781,0,-0.410299,0,0,
0.695996,0,-0.383953,0,0,
0.699996,0,-0.360507,0,0,
0.703996,0,-0.341041,0,0,
0.707996,0,-0.32219,0,0,
0.712135,0,-0.306255,0,0,
0.716416,0,-0.289733,0,0,
0.720846,0,-0.275872,0,0,
0.725429,0,-0.261449,0,0,
0.730171,0,-0.24913,0,0,
0.735076,0,-0.236485,0,0,
0.740151,0,-0.225253,0,0,
0.745402,0,-0.21383,0,0,
0.750835,0,-0.203265,0,0,
0.756455,0,-0.192573,0,0,
0.76227,0,-0.181834,0,0,
0.768286,0,-0.172799,0,0,
0.77451,0,-0.162089,0,0,
0.78095,0,-0.152337,0,0,
0.787612,0,-0.142444,0,0,
0.794505,0,-0.132602,0,0,
0.801636,0,-0.122882,0,0,
0.809014,0,-0.11303,0,0,
0.816647,0,-0.103404,0,0,
0.824544,0,-0.0936224,0,0,
0.832715,0,-0.0841051,0,0,
0.841168,0,-0.0744551,0,0,
0.849914,0,-0.0651325,0,0,
0.858962,0,-0.0557105,0,0,
0.868323,0,-0.0466779,0,0,
0.878008,0,-0.037569,0,0,
0.888028,0,-0.0288802,0,0,
0.898395,0,-0.0201885,0,0,
0.90912,0,-0.0119432,0,0,
0.920216,0,-0.00378039,0,0,
0.931697,0,0.00384268,0,0,
0.943574,0,0.0116976,0,0,
0.955862,0,0.0169995,0,0,
0.968576,0,0.0246736,0,0,
0.981729,0,0.0286213,0,0,
0.995332,0,0.0395888,0,0,
1.00941,0,0.0510309,0,0,
1.02397,0,0.0714457,0,0,
1.03904,0,0.0817409,0,0,
1.05463,0,0.0976876,0,0,
1.07076,0,0.11312,0,0,
1.08745,0,0.128172,0,0,
1.10471,0,0.142147,0,0,
1.12258,0,0.15402,0,0,
1.14106,0,0.164736,0,0,
1.16018,0,0.172515,0,0,
1.17996,0,0.179084,0,0,
1.20043,0,0.182158,0,0,
1.22161,0,0.183816,0,0,
1.24351,0,0.183691,0,0,
1.26618,0,0.180055,0,0,
1.28963,0,0.17584,0,0,
1.31389,0,0.169116,0,0,
1.33899,0,0.162114,0,0,
1.36496,0,0.153452,0,0,
1.39183,0,0.144926,0,0,
1.41962,0,0.135438,0,0,
1.44838,0,0.126495,0,0,
1.47813,0,0.117059,0,0,
1.50892,0,0.108374,0,0,
1.54076,0,0.0995776,0,0,
1.57371,0,0.0915736,0,0,
1.6078,0,0.0836895,0,0,
1.64307,0,0.0765612,0,0,
1.67956,0,0.069642,0,0,
1.71731,0,0.0634059,0,0,
1.75637,0,0.05745,0,0,
1.79677,0,0.0521339,0,0,
1.83858,0,0.0470819,0,0,
1.88183,0,0.0425866,0,0,
1.92658,0,0.0383631,0,0,
1.97288,0,0.0345699,0,0,
2.02078,0,0.0312057,0,0,
2.07033,0,0.0279869,0,0,
2.1216,0,0.0251725,0,0,
2.17465,0,0.0225611,0,0,
2.22953,0,0.0202492,0,0,
2.2863,0,0.0180952,0,0,
2.34505,0,0.0161817,0,0,
2.40582,0,0.0144622,0,0,
2.4687,0,0.0128664,0,0,
2.53375,0,0.0114627,0,0,
2.60105,0,0.010168,0,0,
2.67068,0,0.00902663,0,0,
2.74272,0,0.00797208,0,0,
2.81725,0,0.00705624,0,0,
2.89436,0,0.00621096,0,0,
2.97414,0,0.0054733,0,0,
3.05668,0,0.00478092,0,0,
3.14207,0,0.00418062,0,0,
3.23042,0,0.00360431,0,0,
3.32182,0,0.00312957,0,0,
3.41639,0,0.00268862,0,0,
3.51423,0,0.00227136,0,0,
3.61545,0,0.00190633,0,0,
3.72017,0,0.00156535,0,0,
3.82852,0,0.00127308,0,0,
3.94062,0,0.000984674,0,0,
4.05659,0,0.000743202,0,0,
4.17658,0,0.000489195,0,0,
4.30072,0,0.000253018,0,0,
4.42915,0,0.00150563,0,0,

