63c0cdf41ba99d1fa91214f882036557ecc5ee1a 
X,x_velocity,cp,uw_b,wall_distance,
-0.25,0,0.179389,0,1e-16,
-0.25,0.0582591,0.179391,-6.19003e-07,2.59026e-05,
-0.25,0.117406,0.179391,-2.08906e-05,5.22493e-05,
-0.25,0.173944,0.179391,-0.000144496,7.94916e-05,
-0.25,0.220512,0.179391,-0.000379927,0.000108097,
-0.25,0.255972,0.179391,-0.000562982,0.000138555,
-0.25,0.283723,0.179391,-0.000678271,0.000171389,
-0.25,0.306446,0.179392,-0.000760103,0.000207163,
-0.25,0.325866,0.179393,-0.000817597,0.000246489,
-0.25,0.343165,0.179394,-0.000856909,0.000290044,
-0.25,0.359014,0.179395,-0.000892126,0.000338574,
-0.25,0.373784,0.179396,-0.00092268,0.000392915,
-0.25,0.387736,0.179398,-0.00095005,0.000454,
-0.25,0.401064,0.1794,-0.000975275,0.000522878,
-0.25,0.413915,0.179402,-0.000999083,0.000600734,
-0.25,0.426402,0.179404,-0.00102199,0.000688907,
-0.25,0.438617,0.179407,-0.00104437,0.000788915,
-0.25,0.450634,0.179411,-0.00106647,0.000902478,
-0.25,0.462516,0.179414,-0.00108846,0.00103155,
-0.25,0.474314,0.179419,-0.00111042,0.00117836,
-0.25,0.486075,0.179423,-0.00113241,0.00134543,
-0.25,0.49784,0.179429,-0.00115439,0.00153564,
-0.25,0.509644,0.179434,-0.0011763,0.00175227,
-0.25,0.52152,0.17944,-0.00119809,0.00199906,
-0.25,0.533498,0.179446,-0.00121968,0.00228026,
-0.25,0.545607,0.179453,-0.00124088,0.00260072,
-0.25,0.557871,0.179459,-0.00126149,0.00296597,
-0.25,0.570315,0.179464,-0.00128127,0.00338233,
-0.25,0.582959,0.179469,-0.00129996,0.00385697,
-0.25,0.595821,0.179472,-0.00131726,0.00439809,
-0.25,0.608917,0.179473,-0.00133285,0.00501505,
-0.25,0.622256,0.17947,-0.00134635,0.00571851,
-0.25,0.63584,0.179463,-0.00135767,0.00652062,
-0.25,0.649663,0.17945,-0.00136587,0.00743527,
-0.25,0.663717,0.179429,-0.00137004,0.00847826,
-0.25,0.677988,0.179395,-0.00136905,0.00966765,
-0.25,0.692462,0.179346,-0.00136169,0.011024,
-0.25,0.707124,0.179274,-0.00134682,0.0125709,
-0.25,0.721972,0.179172,-0.00132642,0.0143349,
-0.25,0.73711,0.179027,-0.00130006,0.0163469,
-0.25,0.752958,0.178823,-0.00124777,0.0186414,
-0.25,0.770189,0.178544,-0.0011737,0.0212585,
-0.25,0.789585,0.17818,-0.001071,0.0242434,
-0.25,0.811919,0.177712,-0.000928281,0.0276478,
-0.25,0.837436,0.177132,-0.000737271,0.031531,
-0.25,0.864437,0.17637,-0.000519965,0.0359602,
-0.25,0.889285,0.17543,-0.00027631,0.0410123,
-0.25,0.906661,0.17415,-7.74624e-05,0.0467752,
-0.25,0.912645,0.172518,-1.03206e-05,0.0533488,
-0.25,0.91401,0.170821,-1.13185e-06,0.0608475,
-0.25,0.915012,0.168812,-1.8996e-07,0.0694016,
-0.25,0.916182,0.166471,-3.47722e-08,0.0791597,
-0.25,0.917553,0.163743,-1.10677e-08,0.0902917,
-0.25,0.919143,0.160574,-8.05613e-09,0.102991,
-0.25,0.920983,0.156922,-7.80038e-09,0.117479,
-0.25,0.923105,0.152723,-7.83307e-09,0.134008,
-0.25,0.92554,0.147899,-7.84606e-09,0.152865,
-0.25,0.928309,0.142415,-7.80396e-09,0.17438,
-0.25,0.931438,0.136215,-7.67514e-09,0.198926,
-0.25,0.934913,0.129304,-7.50111e-09,0.226933,
-0.25,0.938809,0.121607,-7.24016e-09,0.258887,
-0.25,0.943049,0.11321,-6.91453e-09,0.295348,
-0.25,0.947711,0.103973,-6.47513e-09,0.33695,
-0.25,0.952559,0.0943968,-5.95954e-09,0.384419,
-0.25,0.957676,0.0842986,-5.40407e-09,0.438586,
-0.25,0.96289,0.0739676,-4.74794e-09,0.500395,
-0.25,0.968037,0.0637346,-4.09502e-09,0.570927,
-0.25,0.97315,0.0536642,-3.48597e-09,0.651415,
-0.25,0.978057,0.0441986,-2.89432e-09,0.743264,
-0.25,0.982577,0.035105,-2.34117e-09,0.848083,
-0.25,0.986735,0.0268501,-1.82608e-09,0.967704,
-0.25,0.990333,0.0196344,-1.37439e-09,1.10422,
-0.25,0.993402,0.0135364,-9.93037e-10,1.26002,
-0.25,0.995849,0.00859532,-6.82867e-10,1.43784,
-0.25,0.997748,0.00481175,-4.3951e-10,1.64079,
-0.25,0.99906,0.00212662,-2.56271e-10,1.86641,
-0.25,0.999894,0.000434018,-1.28755e-10,2.12427,
-0.25,1.0003,-0.000441657,-4.27441e-11,2.41998,
-0.25,1.00032,-0.000474903,-3.67867e-11,2.46413,
-0.25,1.00041,-0.00069342,2.8082e-12,2.75802,
-0.25,1.00028,-0.000493677,2.91227e-11,3.14513,
-0.25,1,1.60341e-05,3.42634e-11,3.58873,

0.688,0,-0.513993,0,1e-16,
0.688,0.0101656,-0.513999,-8.87245e-08,2.33816e-05,
0.688,0.0289597,-0.514041,-4.94882e-06,4.71702e-05,
0.688,0.056206,-0.514074,-6.10809e-05,7.17799e-05,
0.688,0.0881699,-0.514116,-0.000284237,9.76391e-05,
0.688,0.118426,-0.514159,-0.000662434,0.000125198,
0.688,0.144517,-0.514196,-0.00105243,0.000154937,
0.688,0.167297,-0.514223,-0.00140925,0.000187374,
0.688,0.188045,-0.514246,-0.00174587,0.000223074,
0.688,0.207728,-0.514265,-0.00207729,0.00026266,
0.688,0.227021,-0.514279,-0.00241278,0.000306822,
0.688,0.246408,-0.514289,-0.00275739,0.000356332,
0.688,0.266246,-0.514295,-0.0031136,0.000412053,
0.688,0.286811,-0.514294,-0.00348252,0.000474959,
0.688,0.308317,-0.514288,-0.00386492,0.000546147,
0.688,0.33093,-0.514276,-0.00426617,0.000626864,
0.688,0.354835,-0.514257,-0.00469713,0.000718519,
0.688,0.380574,-0.514239,-0.00506988,0.000822716,
0.688,0.40897,-0.514233,-0.0053857,0.000941278,
0.688,0.44063,-0.514239,-0.00566613,0.00107628,
0.688,0.4758,-0.514258,-0.00590578,0.00123008,
0.688,0.514483,-0.5143,-0.00608779,0.00140539,
0.688,0.556516,-0.514375,-0.00618563,0.00160526,
0.688,0.601547,-0.514503,-0.00617732,0.0018332,
0.688,0.649008,-0.514713,-0.00605022,0.00209321,
0.688,0.698213,-0.515024,-0.00580234,0.00238985,
0.688,0.74843,-0.515544,-0.00544592,0.00272832,
0.688,0.798834,-0.51606,-0.00500122,0.00311456,
0.688,0.848725,-0.517077,-0.00449144,0.00355536,
0.688,0.897587,-0.518355,-0.00394688,0.00405845,
0.688,0.945256,-0.519958,-0.00338589,0.00463268,
0.688,0.991506,-0.522228,-0.00284272,0.00528813,
0.688,1.0352,-0.524867,-0.00234592,0.00603632,
0.688,1.07424,-0.528391,-0.00192367,0.00689042,
0.688,1.10621,-0.532991,-0.00163958,0.00786545,
0.688,1.13049,-0.538996,-0.00153069,0.00897856,
0.688,1.14961,-0.546822,-0.00142993,0.0102494,
0.688,1.16657,-0.557101,-0.00154421,0.0117002,
0.688,1.18366,-0.570782,-0.00179075,0.0133567,
0.688,1.20228,-0.58913,-0.00205816,0.015248,
0.688,1.22354,-0.613391,-0.00226936,0.0174016,
0.688,1.24811,-0.644278,-0.00235544,0.0197947,
0.688,1.2758,-0.680604,-0.00237017,0.0225411,
0.688,1.3055,-0.718306,-0.00212547,0.0256954,
0.688,1.33274,-0.750902,-0.00153757,0.0293134,
0.688,1.35405,-0.772545,-0.000841303,0.0334589,
0.688,1.36864,-0.781693,-0.000338013,0.0382051,
0.688,1.37855,-0.781687,-8.10941e-05,0.0436361,
0.688,1.38166,-0.778065,1.36747e-05,0.0498477,
0.688,1.38049,-0.769132,2.91371e-05,0.0569175,
0.688,1.37468,-0.756013,1.54782e-05,0.0649586,
0.688,1.36683,-0.740513,4.61822e-06,0.074169,
0.688,1.35839,-0.723599,1.10954e-06,0.0847119,
0.688,1.34925,-0.705303,2.68734e-07,0.0967654,
0.688,1.3393,-0.685016,8.81415e-08,0.110475,
0.688,1.32838,-0.662822,5.18833e-08,0.126175,
0.688,1.31628,-0.638535,4.39537e-08,0.144131,
0.688,1.30301,-0.611976,4.04869e-08,0.164669,
0.688,1.28872,-0.583438,3.75583e-08,0.188038,
0.688,1.27336,-0.552609,3.47631e-08,0.214753,
0.688,1.25693,-0.519425,3.2031e-08,0.245311,
0.688,1.23938,-0.483974,2.93849e-08,0.280275,
0.688,1.22073,-0.446106,2.70164e-08,0.320142,
0.688,1.20077,-0.405481,2.53499e-08,0.365789,
0.688,1.17911,-0.361691,2.41312e-08,0.417836,
0.688,1.15544,-0.313858,2.29816e-08,0.477372,
0.688,1.12986,-0.261674,2.11051e-08,0.545486,
0.688,1.10384,-0.209266,1.72072e-08,0.623218,
0.688,1.08141,-0.163381,1.20952e-08,0.712106,
0.688,1.0642,-0.12868,8.12005e-09,0.813782,
0.688,1.05075,-0.101543,5.64896e-09,0.930041,
0.688,1.03984,-0.0794289,4.03423e-09,1.06261,
0.688,1.03087,-0.0615459,2.88604e-09,1.21441,
0.688,1.02357,-0.0468702,2.03818e-09,1.38796,
0.688,1.01771,-0.035164,1.42759e-09,1.58636,
0.688,1.01303,-0.0258103,9.87283e-10,1.81256,
0.688,1.00935,-0.018455,6.76987e-10,2.0716,
0.688,1.00644,-0.0127372,4.64436e-10,2.36771,
0.688,1.00414,-0.00813807,3.23455e-10,2.70619,
0.688,1.00225,-0.00444426,2.36425e-10,3.09309,
0.688,1.00074,-0.00148098,1.85507e-10,3.53533,

0.813,0,-0.0988439,0,1e-16,
0.813,-0.0031362,-0.0988502,3.04116e-09,2.32716e-05,
0.813,-0.00548981,-0.0988563,7.15459e-08,4.69491e-05,
0.813,-0.00704211,-0.0988646,4.10635e-07,7.14457e-05,
0.813,-0.00770046,-0.0988675,3.81285e-07,9.71887e-05,
0.813,-0.00743334,-0.0988803,-4.10331e-06,0.000124627,
0.813,-0.00651461,-0.0988871,-1.79963e-05,0.000154241,
0.813,-0.00531917,-0.0988972,-3.9939e-05,0.000186546,
0.813,-0.00404336,-0.0989075,-6.61755e-05,0.000222108,
0.813,-0.00274102,-0.0989187,-9.52943e-05,0.000261547,
0.813,-0.00141272,-0.0989308,-0.000127362,0.000305554,
0.813,-4.37317e-05,-0.0989442,-0.000162907,0.000354897,
0.813,0.00138439,-0.098959,-0.000202591,0.000410441,
0.813,0.00289081,-0.0989754,-0.000247156,0.000473157,
0.813,0.00449509,-0.0989938,-0.000297416,0.000544144,
0.813,0.00621747,-0.0990144,-0.000354287,0.000624646,
0.813,0.00807944,-0.0990372,-0.000418792,0.000716071,
0.813,0.0101042,-0.0990629,-0.000492088,0.000820025,
0.813,0.0123174,-0.0990916,-0.000575491,0.000938328,
0.813,0.0147479,-0.0991238,-0.000670507,0.00107306,
0.813,0.0174282,-0.0991594,-0.00077885,0.00122658,
0.813,0.0203959,-0.0991994,-0.000902506,0.00140158,
0.813,0.0236947,-0.099244,-0.00104372,0.00160114,
0.813,0.0273755,-0.0992934,-0.00120497,0.00182877,
0.813,0.0314978,-0.0993476,-0.00138913,0.00208846,
0.813,0.0361325,-0.0994076,-0.00159951,0.00238478,
0.813,0.0413642,-0.0994732,-0.0018399,0.00272294,
0.813,0.0472952,-0.0995445,-0.00211456,0.00310889,
0.813,0.0540494,-0.0996213,-0.00242832,0.00354942,
0.813,0.0617782,-0.0997034,-0.00278657,0.00405228,
0.813,0.0706675,-0.0997898,-0.00319526,0.00462634,
0.813,0.0809471,-0.099879,-0.00366081,0.00528169,
0.813,0.0929018,-0.0999691,-0.00419016,0.0060299,
0.813,0.106886,-0.100056,-0.00478973,0.00688414,
0.813,0.123338,-0.100151,-0.00546793,0.00785949,
0.813,0.142814,-0.100296,-0.0064463,0.00897314,
0.813,0.167575,-0.100356,-0.00723504,0.0102448,
0.813,0.20251,-0.100233,-0.0079708,0.0116968,
0.813,0.253758,-0.100086,-0.00875308,0.0133548,
0.813,0.328419,-0.0997562,-0.00929981,0.0152482,
0.813,0.435415,-0.0987574,-0.0090283,0.0173973,
0.813,0.57883,-0.0968243,-0.00735778,0.0197681,
0.813,0.731385,-0.0954345,-0.0049348,0.0225011,
0.813,0.841967,-0.0955007,-0.00291517,0.0256452,
0.813,0.900971,-0.0944154,-0.00154828,0.0292561,
0.813,0.932206,-0.0917221,-0.000704426,0.033398,
0.813,0.95371,-0.0889282,-0.000460639,0.0379504,
0.813,0.97339,-0.0852837,-0.000377963,0.0431839,
0.813,0.994206,-0.0808981,-0.00028837,0.0492266,
0.813,1.01444,-0.0751507,-0.000142353,0.0561862,
0.813,1.02666,-0.0690328,-2.07948e-05,0.0641865,
0.813,1.02785,-0.0640206,1.18597e-05,0.0732535,
0.813,1.02187,-0.0564297,6.21568e-06,0.0836093,
0.813,1.01598,-0.0474915,1.93307e-06,0.0955186,
0.813,1.00673,-0.0392397,3.38119e-07,0.10911,
0.813,1.0043,-0.0287241,4.26566e-08,0.124602,
0.813,1.00171,-0.0200852,1.16166e-08,0.142358,
0.813,0.994657,-0.0126744,3.89987e-09,0.162626,
0.813,0.994001,-0.00378527,-3.11676e-10,0.185823,
0.813,1.00168,-0.000127263,-2.0308e-09,0.212297,
0.813,1.00531,-0.00311544,-1.4129e-09,0.242651,
0.813,1.00543,-0.00977686,-2.72305e-09,0.277301,
0.813,1.01189,-0.0212496,-5.04783e-09,0.316941,
0.813,1.01739,-0.0380237,-7.22456e-09,0.36227,
0.813,1.02543,-0.0525337,-6.61521e-09,0.41413,
0.813,1.03189,-0.0650364,-4.95818e-09,0.473389,
0.813,1.03624,-0.0735876,-2.53236e-09,0.54123,
0.813,1.038,-0.0767438,-2.81205e-10,0.618788,
0.813,1.03752,-0.0753924,7.20393e-10,0.707593,
0.813,1.03547,-0.0710872,1.49196e-09,0.809092,
0.813,1.03206,-0.0641007,1.80201e-09,0.925335,
0.813,1.02789,-0.0554939,1.78173e-09,1.05821,
0.813,1.02339,-0.0465738,1.5889e-09,1.21017,
0.813,1.01899,-0.0377385,1.30794e-09,1.38391,
0.813,1.01498,-0.0296777,1.0205e-09,1.58247,
0.813,1.01145,-0.0226506,7.63968e-10,1.81009,
0.813,1.00849,-0.0167656,5.55379e-10,2.07007,
0.813,1.00603,-0.0119002,3.94534e-10,2.36772,
0.813,1.00405,-0.00797793,2.86447e-10,2.70818,
0.813,1.00233,-0.00458382,2.03206e-10,3.09651,
0.813,1.00106,-0.00209137,1.58147e-10,3.54123,

0.938,0,0.0220161,0,1e-16,
0.938,-0.00585822,0.0220127,3.03273e-09,2.32316e-05,
0.938,-0.0114206,0.0220081,8.65723e-08,4.68694e-05,
0.938,-0.0167379,0.0220028,8.3665e-07,7.13267e-05,
0.938,-0.0217391,0.0219972,4.12017e-06,9.70313e-05,
0.938,-0.026121,0.0219918,1.23542e-05,0.000124433,
0.938,-0.0294526,0.021987,2.36783e-05,0.000154011,
0.938,-0.0316407,0.0219816,3.10891e-05,0.000186283,
0.938,-0.0329548,0.0219747,3.10353e-05,0.000221814,
0.938,-0.0336995,0.0219677,2.49133e-05,0.000261227,
0.938,-0.0340784,0.021956,1.46504e-05,0.000305212,
0.938,-0.0342063,0.02196,1.18768e-06,0.000354541,
0.938,-0.0341467,0.0219521,-1.50863e-05,0.000410078,
0.938,-0.0339348,0.0219311,-3.40983e-05,0.000472798,
0.938,-0.0335892,0.0219223,-5.60958e-05,0.000543802,
0.938,-0.0331182,0.0219103,-8.14031e-05,0.000624336,
0.938,-0.032524,0.0218969,-0.000110424,0.000715816,
0.938,-0.0318037,0.0218818,-0.000143696,0.000819848,
0.938,-0.0309513,0.021865,-0.000181808,0.000938261,
0.938,-0.0299572,0.0218463,-0.000225461,0.00107314,
0.938,-0.0288095,0.0218255,-0.000275466,0.00122685,
0.938,-0.0274931,0.0218023,-0.000332756,0.00140211,
0.938,-0.0259899,0.0217765,-0.000398403,0.00160199,
0.938,-0.0242784,0.0217478,-0.000473636,0.00183001,
0.938,-0.0223335,0.0217157,-0.000559872,0.0020902,
0.938,-0.0201252,0.0216802,-0.000658743,0.00238713,
0.938,-0.0176187,0.0216406,-0.000772109,0.00272605,
0.938,-0.0147725,0.0215967,-0.000902108,0.00311293,
0.938,-0.0115379,0.0215476,-0.0010512,0.00355458,
0.938,-0.00785659,0.0214933,-0.00122213,0.00405882,
0.938,-0.00365994,0.0214328,-0.00141825,0.00463453,
0.938,0.0011341,0.0213655,-0.00164291,0.00529188,
0.938,0.00662202,0.021291,-0.00190108,0.00604249,
0.938,0.012918,0.0212089,-0.00219752,0.00689961,
0.938,0.0201638,0.0211189,-0.00253702,0.0078784,
0.938,0.0285363,0.0210202,-0.00292595,0.00899617,
0.938,0.0382582,0.0209151,-0.00337068,0.0102727,
0.938,0.0496025,0.0208057,-0.00387825,0.0117305,
0.938,0.0629144,0.0206941,-0.00445676,0.0133955,
0.938,0.078627,0.0205878,-0.0051149,0.0152971,
0.938,0.097289,0.0204779,-0.00585992,0.017469,
0.938,0.119575,0.0202539,-0.00690518,0.0199391,
0.938,0.147833,0.0201544,-0.00789264,0.0225116,
0.938,0.18788,0.0203993,-0.00870756,0.0255164,
0.938,0.248889,0.0208116,-0.00953124,0.0290096,
0.938,0.34288,0.0218152,-0.00983329,0.0330545,
0.938,0.480799,0.0242857,-0.00869318,0.0377237,
0.938,0.647118,0.0250908,-0.00636965,0.0426984,
0.938,0.785934,0.0226592,-0.00405433,0.0484919,
0.938,0.869266,0.0207646,-0.00224799,0.0552419,
0.938,0.919122,0.0201288,-0.000937088,0.0630705,
0.938,0.95626,0.0220963,-0.000375395,0.0721179,
0.938,0.977105,0.0214998,-9.28002e-05,0.0822909,
0.938,0.983,0.0193391,-1.03784e-05,0.0938338,
0.938,0.982576,0.0176504,5.13991e-07,0.107215,
0.938,0.980147,0.0163606,2.66392e-08,0.122488,
0.938,0.980679,0.0162989,-1.02869e-07,0.139919,
0.938,0.980978,0.0149735,-3.52578e-08,0.160003,
0.938,0.982604,0.0140265,-1.74787e-08,0.18281,
0.938,0.98801,0.0128263,-7.88229e-09,0.208986,
0.938,0.996632,0.0117999,-2.86745e-09,0.239003,
0.938,0.99841,0.00739854,-1.07309e-09,0.273269,
0.938,0.999592,0.00462419,-9.9138e-10,0.312507,
0.938,1.00011,0.000324577,-1.43476e-09,0.357468,
0.938,1.00185,-0.00450314,-2.23876e-09,0.408929,
0.938,1.00479,-0.0102554,-2.67249e-09,0.467901,
0.938,1.00794,-0.0161416,-2.47815e-09,0.535368,
0.938,1.0108,-0.0218106,-1.95182e-09,0.612662,
0.938,1.01328,-0.0266622,-1.3483e-09,0.701152,
0.938,1.01505,-0.0300118,-7.03201e-10,0.802634,
0.938,1.01582,-0.0315275,-9.48186e-11,0.91874,
0.938,1.01561,-0.0309454,2.1965e-10,1.05163,
0.938,1.01463,-0.0289585,4.56268e-10,1.20403,
0.938,1.01305,-0.0258239,5.44026e-10,1.37848,
0.938,1.01113,-0.0219312,5.35989e-10,1.57802,
0.938,1.00908,-0.0179094,4.72972e-10,1.80652,
0.938,1.00711,-0.0139854,3.8817e-10,2.06844,
0.938,1.00528,-0.0103905,2.99869e-10,2.3677,
0.938,1.00374,-0.00736143,2.2608e-10,2.7102,
0.938,1.00234,-0.00463398,1.61351e-10,3.1022,
0.938,1.00127,-0.00251118,1.25583e-10,3.55094,

1,0,0.0608485,0,1e-16,
1,-0.0117724,0.0608462,7.99505e-09,2.32217e-05,
1,-0.0230704,0.0608419,2.65016e-07,4.685e-05,
1,-0.0339801,0.0608372,2.54424e-06,7.12984e-05,
1,-0.0442972,0.0608321,1.20927e-05,9.6995e-05,
1,-0.0533134,0.0608271,3.42317e-05,0.00012439,
1,-0.0602035,0.0608221,6.2726e-05,0.000153963,
1,-0.0648976,0.0608165,8.30755e-05,0.000186233,
1,-0.0679572,0.0608098,9.00697e-05,0.000221764,
1,-0.0699573,0.0608022,8.69345e-05,0.000261182,
1,-0.0712779,0.0607939,7.73965e-05,0.000305176,
1,-0.0721424,0.0607844,6.35543e-05,0.000354519,
1,-0.0726798,0.0607754,4.6481e-05,0.000410078,
1,-0.0729682,0.0607601,2.658e-05,0.000472828,
1,-0.0730529,0.0607639,3.77477e-06,0.000543873,
1,-0.0729612,0.0607462,-2.1807e-05,0.000624461,
1,-0.0727106,0.0607276,-5.04407e-05,0.000716009,
1,-0.0723082,0.0607141,-8.27603e-05,0.000820128,
1,-0.0717558,0.0606979,-0.000119178,0.000938651,
1,-0.0710504,0.0606801,-0.000160326,0.00107366,
1,-0.070185,0.0606602,-0.000206933,0.00122754,
1,-0.0691493,0.0606382,-0.000259804,0.001403,
1,-0.0679296,0.0606137,-0.000319857,0.00160314,
1,-0.066509,0.0605866,-0.00038813,0.00183147,
1,-0.0648671,0.0605565,-0.000465791,0.00209203,
1,-0.0629797,0.0605235,-0.000554173,0.00238941,
1,-0.0608182,0.0604871,-0.000654787,0.00272886,
1,-0.0583493,0.0604473,-0.000769336,0.00311639,
1,-0.0555337,0.0604037,-0.000899734,0.00355882,
1,-0.0523256,0.0603567,-0.00104816,0.00406398,
1,-0.0486707,0.0603062,-0.00121706,0.00464079,
1,-0.0445052,0.0602526,-0.0014092,0.00529946,
1,-0.0397531,0.0601962,-0.00162765,0.00605162,
1,-0.0343235,0.0601386,-0.00187587,0.0069106,
1,-0.0281074,0.0600808,-0.00215771,0.00789159,
1,-0.0209728,0.0600258,-0.0024775,0.00901195,
1,-0.0127594,0.0599758,-0.00283995,0.0102915,
1,-0.00327358,0.0599358,-0.0032518,0.011753,
1,0.00771821,0.0599114,-0.00371688,0.0134223,
1,0.0204858,0.0598974,-0.00425018,0.0153289,
1,0.0353836,0.0599182,-0.00488733,0.0175068,
1,0.0530389,0.0599113,-0.00560653,0.0199945,
1,0.0746097,0.0596941,-0.00633393,0.0228361,
1,0.101863,0.0590937,-0.006972,0.0260822,
1,0.137361,0.0581659,-0.00772592,0.0297904,
1,0.185551,0.0575536,-0.00862782,0.0340265,
1,0.255487,0.0575869,-0.00949973,0.0388658,
1,0.360917,0.0583771,-0.00973895,0.0443714,
1,0.507071,0.0615042,-0.00837845,0.050306,
1,0.668488,0.0635513,-0.00582648,0.0567779,
1,0.797757,0.0625013,-0.003563,0.0643629,
1,0.882472,0.0601766,-0.00180863,0.073201,
1,0.933061,0.062948,-0.000577797,0.0834523,
1,0.957172,0.0599288,-0.00012325,0.0952491,
1,0.963165,0.0574359,-1.36613e-05,0.108351,
1,0.962719,0.0546849,-1.80129e-06,0.123411,
1,0.96292,0.0522193,-7.92699e-07,0.140887,
1,0.963834,0.049187,-2.919e-07,0.160913,
1,0.965881,0.0458662,-1.11615e-07,0.183368,
1,0.970973,0.0421818,-4.39766e-08,0.209311,
1,0.981489,0.0378307,-1.1312e-08,0.239097,
1,0.986189,0.0322639,-2.78173e-09,0.273067,
1,0.988839,0.0271493,-1.67551e-09,0.312052,
1,0.990199,0.0214371,-1.77633e-09,0.356741,
1,0.992246,0.0153455,-2.38787e-09,0.407906,
1,0.995335,0.00888037,-2.83025e-09,0.466542,
1,0.998835,0.00218103,-2.72706e-09,0.53384,
1,1.0021,-0.00427788,-2.2764e-09,0.610826,
1,1.00511,-0.0101742,-1.74871e-09,0.699112,
1,1.00764,-0.0151704,-1.19854e-09,0.800294,
1,1.0095,-0.0187706,-6.89663e-10,0.916281,
1,1.01053,-0.0207738,-2.3848e-10,1.04923,
1,1.01067,-0.0210061,5.45328e-11,1.2016,
1,1.01013,-0.0199794,2.36113e-10,1.37615,
1,1.00911,-0.0179387,3.17902e-10,1.57647,
1,1.00776,-0.0152644,3.30264e-10,1.80575,
1,1.00733,-0.0144154,3.20691e-10,1.88256,
1,1.0063,-0.0123611,2.97294e-10,2.0677,
1,1.00483,-0.00947816,2.44646e-10,2.36835,
1,1.00352,-0.00692219,1.91136e-10,2.71278,
1,1.00231,-0.00456662,1.4223e-10,3.10614,
1,1.00136,-0.00269681,1.1096e-10,3.55725,

1.125,0,0.168618,0,1e-16,
1.125,0.0115975,0.168613,-4.23049e-08,2.2977e-05,
1.125,0.0237206,0.168615,-1.60429e-06,4.63572e-05,
1.125,0.0361869,0.168614,-1.53531e-05,7.05508e-05,
1.125,0.0476422,0.168613,-6.18228e-05,9.59823e-05,
1.125,0.0563417,0.168612,-0.000129908,0.000123098,
1.125,0.0623207,0.168609,-0.000184359,0.000152375,
1.125,0.0665352,0.168604,-0.000220293,0.000184326,
1.125,0.0697169,0.168597,-0.000246483,0.000219514,
1.125,0.0722836,0.168588,-0.000268849,0.000258557,
1.125,0.0744684,0.168577,-0.000290332,0.000302141,
1.125,0.0764084,0.168563,-0.000312494,0.000351033,
1.125,0.0781893,0.168546,-0.00033632,0.000406094,
1.125,0.0798682,0.168525,-0.000362564,0.000468293,
1.125,0.081486,0.1685,-0.000391894,0.000538726,
1.125,0.0830737,0.16847,-0.000424971,0.000618634,
1.125,0.0846561,0.168435,-0.000462488,0.000709426,
1.125,0.0862544,0.168392,-0.000505201,0.000812702,
1.125,0.0878879,0.168342,-0.000553952,0.000930284,
1.125,0.0895746,0.168282,-0.000609687,0.00106425,
1.125,0.0913324,0.168212,-0.000673479,0.00121696,
1.125,0.0931796,0.168128,-0.000746547,0.00139111,
1.125,0.0951354,0.16803,-0.000830284,0.00158979,
1.125,0.0972206,0.167914,-0.000926278,0.00181649,
1.125,0.0994578,0.167778,-0.00103635,0.00207523,
1.125,0.101872,0.167619,-0.00116257,0.00237059,
1.125,0.104493,0.167434,-0.0013073,0.00270779,
1.125,0.107352,0.167218,-0.00147326,0.0030928,
1.125,0.110488,0.166968,-0.00166352,0.00353243,
1.125,0.113943,0.16668,-0.00188161,0.00403447,
1.125,0.117771,0.166349,-0.0021315,0.00460781,
1.125,0.122032,0.165971,-0.0024177,0.00526262,
1.125,0.126799,0.165541,-0.0027453,0.00601049,
1.125,0.132161,0.165057,-0.00311998,0.00686471,
1.125,0.138227,0.164516,-0.00354803,0.00784041,
1.125,0.145129,0.163916,-0.00403631,0.00895492,
1.125,0.153031,0.163257,-0.00459213,0.010228,
1.125,0.162141,0.162542,-0.00522303,0.0116823,
1.125,0.172715,0.161774,-0.00593643,0.0133436,
1.125,0.185083,0.160966,-0.0067394,0.0152415,
1.125,0.199664,0.160134,-0.00767431,0.0174097,
1.125,0.21715,0.159688,-0.0091279,0.0198867,
1.125,0.240565,0.160026,-0.00967823,0.0227167,
1.125,0.274882,0.160534,-0.0102437,0.0259499,
1.125,0.322719,0.160563,-0.0107274,0.029644,
1.125,0.384827,0.160175,-0.0108256,0.0338647,
1.125,0.461965,0.159543,-0.0102667,0.0386871,
1.125,0.553254,0.158581,-0.00890874,0.0441974,
1.125,0.652334,0.157066,-0.00686153,0.0504935,
1.125,0.746458,0.154779,-0.00463095,0.0576879,
1.125,0.822741,0.151255,-0.00279686,0.0659089,
1.125,0.877421,0.147786,-0.00106741,0.0753032,
1.125,0.910391,0.142681,-0.000306742,0.0860384,
1.125,0.923633,0.136592,-6.36581e-05,0.0983063,
1.125,0.927107,0.129898,-1.37546e-05,0.112326,
1.125,0.929004,0.122935,-4.61033e-06,0.128348,
1.125,0.931696,0.115637,-1.61868e-06,0.146659,
1.125,0.935096,0.107963,-5.35285e-07,0.167586,
1.125,0.940292,0.100002,-1.79447e-07,0.191503,
1.125,0.949125,0.0913687,-5.54437e-08,0.218838,
1.125,0.960573,0.0829317,-1.3414e-08,0.250082,
1.125,0.966406,0.0738785,-4.15354e-09,0.285792,
1.125,0.970615,0.0647072,-2.77009e-09,0.32661,
1.125,0.973532,0.0555087,-2.88144e-09,0.373265,
1.125,0.977112,0.0463951,-3.39677e-09,0.426595,
1.125,0.981352,0.0374068,-3.66556e-09,0.487555,
1.125,0.98584,0.0286995,-3.3914e-09,0.55724,
1.125,0.98992,0.0205093,-2.82359e-09,0.636898,
1.125,0.99377,0.0127202,-2.24863e-09,0.72796,
1.125,0.997189,0.00589759,-1.70683e-09,0.82855,
1.125,1.00014,6.38647e-05,-1.22049e-09,0.94298,
1.125,1.0012,-0.00205093,-1.02451e-09,1.00315,
1.125,1.00245,-0.00455814,-7.91906e-10,1.07453,
1.125,1.00406,-0.00777486,-4.48922e-10,1.22528,
1.125,1.00499,-0.00967335,-1.80935e-10,1.39832,
1.125,1.00529,-0.0102958,-5.9262e-12,1.59646,
1.125,1.00506,-0.00986595,8.40851e-11,1.82431,
1.125,1.00454,-0.0088425,1.31178e-10,2.08526,
1.125,1.00378,-0.00738797,1.38348e-10,2.38489,
1.125,1.00298,-0.0058343,1.2367e-10,2.72763,
1.125,1.00215,-0.00425147,9.83395e-11,3.12069,
1.125,1.0015,-0.00300984,7.6677e-11,3.57128,

1.25,0,0.185145,0,1e-16,
1.25,0.0403905,0.185143,-1.87486e-07,2.27149e-05,
1.25,0.0811994,0.185144,-6.69885e-06,4.58292e-05,
1.25,0.121599,0.185143,-5.65492e-05,6.97496e-05,
1.25,0.157736,0.185143,-0.000191828,9.48968e-05,
1.25,0.185931,0.185142,-0.000357663,0.000121713,
1.25,0.206463,0.185141,-0.000485372,0.000150671,
1.25,0.221441,0.185138,-0.000568943,0.00018228,
1.25,0.232723,0.185134,-0.000623051,0.000217097,
1.25,0.24156,0.185129,-0.000659957,0.000255735,
1.25,0.248743,0.185123,-0.000687396,0.000298876,
1.25,0.254776,0.185114,-0.00070993,0.00034728,
1.25,0.259988,0.185103,-0.000730304,0.000401801,
1.25,0.264596,0.18509,-0.00075027,0.000463402,
1.25,0.268755,0.185073,-0.000771058,0.00053317,
1.25,0.272574,0.185053,-0.000793621,0.000612337,
1.25,0.276134,0.185029,-0.000818784,0.000702303,
1.25,0.279498,0.185,-0.000847327,0.000804657,
1.25,0.282718,0.184965,-0.000880042,0.00092121,
1.25,0.285834,0.184922,-0.000917768,0.00105402,
1.25,0.288882,0.184872,-0.000961418,0.00120545,
1.25,0.291896,0.184812,-0.00101201,0.00137816,
1.25,0.294904,0.184741,-0.00107071,0.00157523,
1.25,0.297937,0.184657,-0.00113881,0.00180013,
1.25,0.301022,0.184558,-0.0012178,0.00205686,
1.25,0.304191,0.184441,-0.00130939,0.00234997,
1.25,0.307473,0.184304,-0.00141551,0.00268466,
1.25,0.310905,0.184144,-0.00153838,0.00306685,
1.25,0.314522,0.183958,-0.00168055,0.00350335,
1.25,0.318369,0.183743,-0.00184491,0.00400188,
1.25,0.322494,0.183493,-0.00203488,0.00457132,
1.25,0.326955,0.183207,-0.00225439,0.00522176,
1.25,0.331819,0.18288,-0.00250771,0.00596478,
1.25,0.337166,0.182508,-0.00279969,0.00681358,
1.25,0.343094,0.182088,-0.00313566,0.00778325,
1.25,0.349721,0.181617,-0.00352147,0.00889105,
1.25,0.357191,0.181093,-0.00396335,0.0101567,
1.25,0.365684,0.180515,-0.00446774,0.0116027,
1.25,0.375423,0.179882,-0.00504091,0.0132548,
1.25,0.38669,0.179194,-0.00568834,0.0151425,
1.25,0.399842,0.178451,-0.00641514,0.0172993,
1.25,0.415337,0.17766,-0.00728046,0.0197638,
1.25,0.434044,0.177204,-0.00848187,0.0225799,
1.25,0.459044,0.177331,-0.00876151,0.0257978,
1.25,0.494664,0.177492,-0.00893057,0.0294749,
1.25,0.541685,0.177151,-0.00884378,0.0336769,
1.25,0.598624,0.176423,-0.00825172,0.0384787,
1.25,0.663148,0.175301,-0.00706563,0.0439663,
1.25,0.730913,0.173644,-0.00540789,0.0502376,
1.25,0.794547,0.171359,-0.00372496,0.0574048,
1.25,0.848258,0.168132,-0.00191456,0.0655959,
1.25,0.887987,0.164064,-0.000681696,0.0749575,
1.25,0.909634,0.159143,-0.000168688,0.0856571,
1.25,0.917637,0.153661,-3.33797e-05,0.0978863,
1.25,0.919755,0.147509,-8.22163e-06,0.111864,
1.25,0.92125,0.140888,-3.12494e-06,0.127841,
1.25,0.923744,0.13377,-1.21973e-06,0.146102,
1.25,0.927418,0.126154,-4.46729e-07,0.166976,
1.25,0.933325,0.118071,-1.57327e-07,0.190837,
1.25,0.942684,0.109435,-4.77184e-08,0.218113,
1.25,0.953169,0.10054,-1.1792e-08,0.249292,
1.25,0.958616,0.0910333,-4.01377e-09,0.284935,
1.25,0.962699,0.0814842,-2.83972e-09,0.325682,
1.25,0.965723,0.0718548,-3.02685e-09,0.372264,
1.25,0.969531,0.0621854,-3.57849e-09,0.425519,
1.25,0.973995,0.0526771,-3.83306e-09,0.486402,
1.25,0.978674,0.0434948,-3.55368e-09,0.55601,
1.25,0.982982,0.0346165,-2.98811e-09,0.635594,
1.25,0.987088,0.0263479,-2.42611e-09,0.726585,
1.25,0.990859,0.0187342,-1.90907e-09,0.83062,
1.25,0.994242,0.0119993,-1.44437e-09,0.949574,
1.25,0.997095,0.00624464,-1.04115e-09,1.08559,
1.25,0.999396,0.00160216,-7.00955e-10,1.24111,
1.25,1.00107,-0.00181668,-4.31271e-10,1.41894,
1.25,1.00222,-0.00411794,-2.26369e-10,1.62229,
1.25,1.00279,-0.0053192,-8.06559e-11,1.84947,
1.25,1.00294,-0.00563939,6.30269e-12,2.10883,
1.25,1.00275,-0.00530989,4.61352e-11,2.40658,
1.25,1.0024,-0.00467479,6.06539e-11,2.74752,
1.25,1.00235,-0.00458039,6.00753e-11,2.79119,
1.25,1.00194,-0.00382284,5.53026e-11,3.13954,
1.25,1.00161,-0.00324566,3.3299e-11,3.5883,

1.375,0,0.148417,0,1e-16,
1.375,0.0561044,0.148416,-3.87655e-07,2.24527e-05,
1.375,0.112633,0.148416,-1.34692e-05,4.53013e-05,
1.375,0.167799,0.148416,-0.000104148,6.89485e-05,
1.375,0.215744,0.148416,-0.000316589,9.38113e-05,
1.375,0.253084,0.148416,-0.000531529,0.000120328,
1.375,0.281889,0.148415,-0.000666718,0.000148967,
1.375,0.304799,0.148414,-0.000757753,0.000180234,
1.375,0.323457,0.148413,-0.000821757,0.00021468,
1.375,0.338947,0.148412,-0.000867483,0.000252914,
1.375,0.352019,0.148409,-0.000900999,0.000295611,
1.375,0.363213,0.148407,-0.000926363,0.000343527,
1.375,0.372927,0.148403,-0.000946384,0.000397509,
1.375,0.381462,0.148397,-0.000963091,0.000458511,
1.375,0.389047,0.148391,-0.000978019,0.000527614,
1.375,0.395865,0.148382,-0.000992373,0.00060604,
1.375,0.402056,0.148372,-0.00100715,0.00069518,
1.375,0.407737,0.148358,-0.0010232,0.000796613,
1.375,0.413001,0.148342,-0.00104133,0.000912136,
1.375,0.417926,0.148322,-0.00106228,0.0010438,
1.375,0.422577,0.148297,-0.00108685,0.00119393,
1.375,0.42701,0.148268,-0.00111585,0.00136521,
1.375,0.431275,0.148232,-0.00115016,0.00156067,
1.375,0.435416,0.148189,-0.00119076,0.00178377,
1.375,0.439476,0.148138,-0.00123875,0.00203849,
1.375,0.443492,0.148077,-0.00129535,0.00232935,
1.375,0.447505,0.148005,-0.00136196,0.00266152,
1.375,0.451554,0.14792,-0.00144017,0.00304091,
1.375,0.455678,0.14782,-0.00153178,0.00347427,
1.375,0.459921,0.147703,-0.00163882,0.0039693,
1.375,0.46433,0.147567,-0.00176361,0.00453483,
1.375,0.468957,0.147409,-0.00190875,0.00518091,
1.375,0.473862,0.147228,-0.00207714,0.00591907,
1.375,0.479114,0.14702,-0.00227202,0.00676245,
1.375,0.484793,0.146782,-0.00249692,0.0077261,
1.375,0.490996,0.146514,-0.00275564,0.00882719,
1.375,0.497837,0.146213,-0.00305214,0.0100854,
1.375,0.505457,0.145875,-0.00339035,0.0115231,
1.375,0.514026,0.145501,-0.00377389,0.013166,
1.375,0.523755,0.145089,-0.00420547,0.0150434,
1.375,0.534903,0.144638,-0.00468603,0.017189,
1.375,0.547792,0.144144,-0.00521349,0.0196409,
1.375,0.562813,0.143617,-0.00581228,0.0224431,
1.375,0.580622,0.143126,-0.00652462,0.0256456,
1.375,0.602962,0.142868,-0.00704884,0.0293058,
1.375,0.633139,0.142852,-0.00695852,0.0334891,
1.375,0.673131,0.142584,-0.00662728,0.0382704,
1.375,0.720774,0.141957,-0.00589807,0.0437353,
1.375,0.772175,0.14087,-0.00476507,0.0499817,
1.375,0.822711,0.139945,-0.00342126,0.0571216,
1.375,0.869127,0.138064,-0.00180676,0.0652828,
1.375,0.905153,0.135671,-0.000628463,0.0746118,
1.375,0.924165,0.132661,-0.000131322,0.0852759,
1.375,0.930226,0.129375,-1.95609e-05,0.0974663,
1.375,0.931339,0.125686,-3.73285e-06,0.111402,
1.375,0.931688,0.12157,-1.46337e-06,0.127333,
1.375,0.933031,0.116986,-6.67178e-07,0.145546,
1.375,0.935569,0.111992,-2.84697e-07,0.166367,
1.375,0.9405,0.106548,-1.12279e-07,0.190171,
1.375,0.948638,0.100491,-3.48765e-08,0.217387,
1.375,0.957059,0.0941088,-8.55218e-09,0.248502,
1.375,0.96116,0.0870728,-2.918e-09,0.284078,
1.375,0.963981,0.0795842,-2.08711e-09,0.324754,
1.375,0.965927,0.0718867,-2.34087e-09,0.371263,
1.375,0.968922,0.0640272,-2.91823e-09,0.424442,
1.375,0.972554,0.05597,-3.24988e-09,0.485249,
1.375,0.976648,0.0479457,-3.10297e-09,0.554781,
1.375,0.980417,0.0400064,-2.67314e-09,0.634289,
1.375,0.984159,0.0324122,-2.23589e-09,0.725209,
1.375,0.987686,0.0252531,-1.81707e-09,0.82918,
1.375,0.99098,0.0185926,-1.43344e-09,0.948077,
1.375,0.993883,0.0127278,-1.08747e-09,1.08405,
1.375,0.996369,0.00769928,-7.90114e-10,1.23955,
1.375,0.998372,0.00360252,-5.43572e-10,1.41738,
1.375,0.999924,0.000482646,-3.45008e-10,1.62076,
1.375,1.00097,-0.00167315,-1.92957e-10,1.85337,
1.375,1.0016,-0.00295612,-8.78245e-11,2.1194,
1.375,1.00185,-0.00350852,-1.97564e-11,2.42367,
1.375,1.00185,-0.00358258,5.3495e-12,2.77091,
1.375,1.00172,-0.00338442,1.62199e-11,3.16112,
1.375,1.00163,-0.00327234,5.40033e-12,3.6087,

-3.19886,0,0.0224471,0,0,
-2.99627,0,0.00618978,0,0,
-2.80402,0,0.00444132,0,0,
-2.62157,0,0.00377257,0,0,
-2.44842,0,0.00374322,0,0,
-2.2841,0,0.0042021,0,0,
-2.12815,0,0.00471709,0,0,
-1.98016,0,0.00556987,0,0,
-1.83971,0,0.00652788,0,0,
-1.70643,0,0.00786658,0,0,
-1.57994,0,0.00925178,0,0,
-1.4599,0,0.0112635,0,0,
-1.34598,0,0.0134834,0,0,
-1.23786,0,0.0160263,0,0,
-1.13526,0,0.0192962,0,0,
-1.03789,0,0.0229482,0,0,
-0.945488,0,0.0276493,0,0,
-0.857795,0,0.0329056,0,0,
-0.774572,0,0.0397262,0,0,
-0.695593,0,0.047397,0,0,
-0.620641,0,0.0574575,0,0,
-0.54951,0,0.0687319,0,0,
-0.482006,0,0.0836455,0,0,
-0.417943,0,0.100365,0,0,
-0.357147,0,0.12287,0,0,
-0.29945,0,0.148215,0,0,
-0.244696,0,0.182733,0,0,
-0.192732,0,0.21713,0,0,
-0.143419,0,0.267494,0,0,
-0.0966231,0,0.319649,0,0,
-0.0522148,0,0.341065,0,0,
-0.0100698,0,0.346173,0,0,
0.0299268,0,0.335747,0,0,
0.0678843,0,0.292121,0,0,
0.103908,0,0.238192,0,0,
0.138096,0,0.110843,0,0,
0.17054,0,-0.00127564,0,0,
0.20133,0,-0.0882706,0,0,
0.230551,0,-0.164791,0,0,
0.258281,0,-0.228135,0,0,
0.284598,0,-0.287016,0,0,
0.309574,0,-0.337231,0,0,
0.333275,0,-0.382471,0,0,
0.355769,0,-0.424123,0,0,
0.377115,0,-0.460562,0,0,
0.397374,0,-0.495529,0,0,
0.416599,0,-0.525837,0,0,
0.434844,0,-0.554829,0,0,
0.452159,0,-0.580313,0,0,
0.468591,0,-0.604629,0,0,
0.484186,0,-0.626297,0,0,
0.498985,0,-0.646886,0,0,
0.51303,0,-0.66565,0,0,
0.526358,0,-0.683223,0,0,
0.539007,0,-0.699224,0,0,
0.551012,0,-0.714036,0,0,
0.562404,0,-0.728101,0,0,
0.573215,0,-0.740869,0,0,
0.583475,0,-0.753032,0,0,
0.593212,0,-0.764192,0,0,
0.602453,0,-0.774815,0,0,
0.611222,0,-0.784319,0,0,
0.619544,0,-0.793365,0,0,
0.627442,0,-0.801945,0,0,
0.634938,0,-0.809774,0,0,
0.642051,0,-0.817163,0,0,
0.648801,0,-0.823871,0,0,
0.655207,0,-0.828551,0,0,
0.661287,0,-0.821791,0,0,
0.667057,0,-0.790063,0,0,
0.672532,0,-0.744692,0,0,
0.677729,0,-0.660688,0,0,
0.68266,0,-0.585104,0,0,
0.68734,0,-0.521686,0,0,
0.691781,0,-0.469904,0,0,
0.695996,0,-0.430958,0,0,
0.699996,0,-0.398089,0,0,
0.703996,0,-0.370903,0,0,
0.707996,0,-0.345914,0,0,
0.712135,0,-0.324566,0,0,
0.716416,0,-0.303494,0,0,
0.720846,0,-0.285894,0,0,
0.725429,0,-0.268042,0,0,
0.730171,0,-0.253082,0,0,
0.735076,0,-0.237892,0,0,
0.740151,0,-0.224828,0,0,
0.745402,0,-0.211672,0,0,
0.750835,0,-0.199844,0,0,
0.756455,0,-0.188013,0,0,
0.76227,0,-0.176392,0,0,
0.768286,0,-0.166657,0,0,
0.77451,0,-0.155288,0,0,
0.78095,0,-0.145013,0,0,
0.787612,0,-0.134613,0,0,
0.794505,0,-0.124379,0,0,
0.801636,0,-0.11423,0,0,
0.809014,0,-0.104069,0,0,
0.816647,0,-0.0940635,0,0,
0.824544,0,-0.0839933,0,0,
0.832715,0,-0.0741698,0,0,
0.841168,0,-0.0642379,0,0,
0.849914,0,-0.0546184,0,0,
0.858962,0,-0.0448841,0,0,
0.868323,0,-0.0355035,0,0,
0.878008,0,-0.0260383,0,0,
0.888028,0,-0.0169715,0,0,
0.898395,0,-0.00788666,0,0,
0.90912,0,0.000787728,0,0,
0.920216,0,0.00939312,0,0,
0.931697,0,0.0175309,0,0,
0.943574,0,0.0259822,0,0,
0.955862,0,0.0319503,0,0,
0.968576,0,0.0402914,0,0,
0.981729,0,0.0448328,0,0,
0.995332,0,0.056501,0,0,
1.00941,0,0.0696073,0,0,
1.02397,0,0.0896339,0,0,
1.03904,0,0.100561,0,0,
1.05463,0,0.115876,0,0,
1.07076,0,0.130527,0,0,
1.08745,0,0.144383,0,0,
1.10471,0,0.157064,0,0,
1.12258,0,0.167413,0,0,
1.14106,0,0.176605,0,0,
1.16018,0,0.182574,0,0,
1.17996,0,0.187366,0,0,
1.20043,0,0.188866,0,0,
1.22161,0,0.188512,0,0,
1.24351,0,0.186603,0,0,
1.26618,0,0.181511,0,0,
1.28963,0,0.176129,0,0,
1.31389,0,0.168542,0,0,
1.33899,0,0.160844,0,0,
1.36496,0,0.151715,0,0,
1.39183,0,0.142891,0,0,
1.41962,0,0.13327,0,0,
1.44838,0,0.124252,0,0,
1.47813,0,0.114885,0,0,
1.50892,0,0.106273,0,0,
1.54076,0,0.0976064,0,0,
1.57371,0,0.0897465,0,0,
1.6078,0,0.0820315,0,0,
1.64307,0,0.0750807,0,0,
1.67956,0,0.0683414,0,0,
1.71731,0,0.0622673,0,0,
1.75637,0,0.0564741,0,0,
1.79677,0,0.0512651,0,0,
1.83858,0,0.0463544,0,0,
1.88183,0,0.0419649,0,0,
1.92658,0,0.0378486,0,0,
1.97288,0,0.0341354,0,0,
2.02078,0,0.0308521,0,0,
2.07033,0,0.0276908,0,0,
2.1216,0,0.0249247,0,0,
2.17465,0,0.0223462,0,0,
2.22953,0,0.0200554,0,0,
2.2863,0,0.0179309,0,0,
2.34505,0,0.0160239,0,0,
2.40582,0,0.0143332,0,0,
2.4687,0,0.0127659,0,0,
2.53375,0,0.0113845,0,0,
2.60105,0,0.0101107,0,0,
2.67068,0,0.00899253,0,0,
2.74272,0,0.00795926,0,0,
2.81725,0,0.00704092,0,0,
2.89436,0,0.00619706,0,0,
2.97414,0,0.00545807,0,0,
3.05668,0,0.00476717,0,0,
3.14207,0,0.00416613,0,0,
3.23042,0,0.0035964,0,0,
3.32182,0,0.00311473,0,0,
3.41639,0,0.00267202,0,0,
3.51423,0,0.00225997,0,0,
3.61545,0,0.00188967,0,0,
3.72017,0,0.00155568,0,0,
3.82852,0,0.00125794,0,0,
3.94062,0,0.000969604,0,0,
4.05659,0,0.000719787,0,0,
4.17658,0,0.000465112,0,0,
4.30072,0,0.000244632,0,0,
4.42915,0,0.00164144,0,0,

