57f1ca9e1e25f48a64380036af859fc8e8ff6836 
X,x_velocity,cp,uw_b,wall_distance,
-0.25,0,0.180915,0,1e-16,
-0.25,0.0523585,0.180918,-3.7264e-07,2.59026e-05,
-0.25,0.105771,0.180917,-1.29088e-05,5.22493e-05,
-0.25,0.15824,0.180917,-9.58235e-05,7.94916e-05,
-0.25,0.204434,0.180917,-0.000268861,0.000108097,
-0.25,0.241721,0.180917,-0.000437533,0.000138555,
-0.25,0.271617,0.180918,-0.000559151,0.000171389,
-0.25,0.296306,0.180918,-0.000644859,0.000207163,
-0.25,0.317391,0.180919,-0.000707617,0.000246489,
-0.25,0.335943,0.18092,-0.000755749,0.000290044,
-0.25,0.352669,0.180921,-0.000794674,0.000338574,
-0.25,0.36805,0.180923,-0.000827482,0.000392915,
-0.25,0.382424,0.180924,-0.000856179,0.000454,
-0.25,0.396035,0.180926,-0.000882086,0.000522878,
-0.25,0.409065,0.180928,-0.000906097,0.000600734,
-0.25,0.421653,0.180931,-0.000928821,0.000688907,
-0.25,0.433911,0.180934,-0.000950675,0.000788915,
-0.25,0.445926,0.180937,-0.000971935,0.000902478,
-0.25,0.457771,0.180941,-0.000992774,0.00103155,
-0.25,0.469507,0.180945,-0.00101328,0.00117836,
-0.25,0.481186,0.18095,-0.00103347,0.00134543,
-0.25,0.492853,0.180955,-0.00105332,0.00153564,
-0.25,0.504549,0.18096,-0.00107278,0.00175227,
-0.25,0.51631,0.180966,-0.00109178,0.00199906,
-0.25,0.52817,0.180971,-0.00111016,0.00228026,
-0.25,0.54016,0.180977,-0.00112775,0.00260072,
-0.25,0.55231,0.180982,-0.00114429,0.00296597,
-0.25,0.564647,0.180986,-0.00115952,0.00338233,
-0.25,0.5772,0.180988,-0.00117315,0.00385697,
-0.25,0.589997,0.180988,-0.00118484,0.00439809,
-0.25,0.603066,0.180984,-0.00119421,0.00501505,
-0.25,0.616438,0.180975,-0.00120085,0.00571851,
-0.25,0.630149,0.18096,-0.00120429,0.00652062,
-0.25,0.644239,0.180936,-0.001204,0.00743527,
-0.25,0.658756,0.1809,-0.00119936,0.00847826,
-0.25,0.673762,0.180847,-0.00118962,0.00966765,
-0.25,0.689332,0.180774,-0.00117383,0.011024,
-0.25,0.705567,0.180673,-0.0011507,0.0125709,
-0.25,0.722592,0.180536,-0.00112052,0.0143349,
-0.25,0.740635,0.180353,-0.00108039,0.0163469,
-0.25,0.760132,0.180112,-0.00101845,0.0186414,
-0.25,0.781664,0.179799,-0.000932846,0.0212585,
-0.25,0.805712,0.179396,-0.000814582,0.0242434,
-0.25,0.832244,0.178891,-0.000658956,0.0276478,
-0.25,0.859625,0.178226,-0.000481021,0.031531,
-0.25,0.884918,0.177414,-0.000277101,0.0359602,
-0.25,0.90367,0.176334,-8.80949e-05,0.0410123,
-0.25,0.911036,0.174893,-1.37863e-05,0.0467752,
-0.25,0.912576,0.173402,-1.47569e-06,0.0533488,
-0.25,0.91347,0.171663,-2.51696e-07,0.0608475,
-0.25,0.914486,0.169623,-4.70136e-08,0.0694016,
-0.25,0.915688,0.167251,-1.29912e-08,0.0791597,
-0.25,0.917075,0.1645,-8.25908e-09,0.0902917,
-0.25,0.918681,0.161316,-7.78058e-09,0.102991,
-0.25,0.920537,0.157641,-7.81482e-09,0.117479,
-0.25,0.922674,0.153419,-7.87421e-09,0.134008,
-0.25,0.925126,0.148572,-7.88519e-09,0.152865,
-0.25,0.927911,0.143066,-7.83567e-09,0.17438,
-0.25,0.931054,0.136843,-7.70312e-09,0.198926,
-0.25,0.934546,0.129898,-7.53036e-09,0.226933,
-0.25,0.938463,0.122182,-7.26344e-09,0.258887,
-0.25,0.942714,0.113813,-6.93465e-09,0.295348,
-0.25,0.947398,0.104536,-6.49447e-09,0.33695,
-0.25,0.952263,0.0949162,-5.97435e-09,0.384419,
-0.25,0.957393,0.0847991,-5.41786e-09,0.438586,
-0.25,0.962625,0.0744358,-4.76008e-09,0.500395,
-0.25,0.967785,0.0642174,-4.10515e-09,0.570927,
-0.25,0.972913,0.0541251,-3.49415e-09,0.651415,
-0.25,0.977835,0.0446063,-2.89874e-09,0.743264,
-0.25,0.982355,0.0355013,-2.34467e-09,0.848083,
-0.25,0.986523,0.0272297,-1.83137e-09,0.967704,
-0.25,0.990139,0.0199992,-1.37945e-09,1.10422,
-0.25,0.993221,0.0138817,-9.97379e-10,1.26002,
-0.25,0.995681,0.00891939,-6.87399e-10,1.43784,
-0.25,0.997599,0.00511062,-4.4412e-10,1.64079,
-0.25,0.998927,0.00238752,-2.61015e-10,1.86641,
-0.25,0.999783,0.000653284,-1.33578e-10,2.12427,
-0.25,1.00022,-0.000270778,-4.71591e-11,2.41998,
-0.25,1.00023,-0.000309859,-4.12047e-11,2.46413,
-0.25,1.00035,-0.000567261,-1.64422e-12,2.75802,
-0.25,1.00024,-0.000429088,2.43751e-11,3.14513,
-0.25,1,1.89073e-05,3.13712e-11,3.58873,

0.688,0,-0.333958,0,1e-16,
0.688,-0.00999164,-0.333968,9.69494e-09,2.33816e-05,
0.688,-0.0178859,-0.333979,2.6122e-07,4.71702e-05,
0.688,-0.0236317,-0.333988,1.75004e-06,7.17799e-05,
0.688,-0.0269298,-0.334019,3.97486e-06,9.76391e-05,
0.688,-0.0275283,-0.333974,-3.55227e-06,0.000125198,
0.688,-0.025956,-0.334023,-3.84082e-05,0.000154937,
0.688,-0.0232202,-0.334031,-0.000101772,0.000187374,
0.688,-0.0199771,-0.334044,-0.00018255,0.000223074,
0.688,-0.0164675,-0.334055,-0.000274633,0.00026266,
0.688,-0.0127345,-0.334066,-0.000377297,0.000306822,
0.688,-0.00874819,-0.334077,-0.000491769,0.000356332,
0.688,-0.00444914,-0.334087,-0.000619927,0.000412053,
0.688,0.000237897,-0.334096,-0.000763943,0.000474959,
0.688,0.0054,-0.334105,-0.00092684,0.000546147,
0.688,0.0111411,-0.334112,-0.00111076,0.000626864,
0.688,0.0175874,-0.334118,-0.00131907,0.000718519,
0.688,0.0248923,-0.334122,-0.00155489,0.000822716,
0.688,0.0332462,-0.334123,-0.0018218,0.000941278,
0.688,0.042885,-0.334119,-0.0021235,0.00107628,
0.688,0.0541048,-0.33411,-0.00246365,0.00123008,
0.688,0.0672768,-0.334092,-0.00284543,0.00140539,
0.688,0.0828661,-0.334064,-0.00327095,0.00160526,
0.688,0.101449,-0.334023,-0.00374159,0.0018332,
0.688,0.12374,-0.33397,-0.00427333,0.00209321,
0.688,0.150792,-0.333892,-0.00486175,0.00238985,
0.688,0.184566,-0.333783,-0.0053523,0.00272832,
0.688,0.227558,-0.333646,-0.00582944,0.00311456,
0.688,0.281913,-0.333508,-0.00623899,0.00355536,
0.688,0.349596,-0.333283,-0.00646083,0.00405845,
0.688,0.431963,-0.333219,-0.00638035,0.00463268,
0.688,0.527937,-0.332196,-0.00595648,0.00528813,
0.688,0.63302,-0.332075,-0.00522738,0.00603632,
0.688,0.738449,-0.332051,-0.00431241,0.00689042,
0.688,0.833378,-0.332326,-0.00335904,0.00786545,
0.688,0.909019,-0.332952,-0.00250147,0.00897856,
0.688,0.964173,-0.333429,-0.00174443,0.0102494,
0.688,1.00301,-0.334088,-0.00114966,0.0117002,
0.688,1.03009,-0.334852,-0.000829859,0.0133567,
0.688,1.04973,-0.33578,-0.000685464,0.015248,
0.688,1.06548,-0.337011,-0.000647795,0.0174016,
0.688,1.07966,-0.338715,-0.000650565,0.0197947,
0.688,1.09362,-0.34103,-0.000649719,0.0225411,
0.688,1.10793,-0.344135,-0.000640082,0.0256954,
0.688,1.12375,-0.348598,-0.000620694,0.0293134,
0.688,1.1424,-0.354404,-0.000550423,0.0334589,
0.688,1.16267,-0.362894,-0.000395171,0.0382051,
0.688,1.18048,-0.376448,-0.000255267,0.0436361,
0.688,1.1987,-0.401612,-0.000195854,0.0498477,
0.688,1.23061,-0.462319,-0.000143004,0.0569175,
0.688,1.28918,-0.581757,-5.57481e-05,0.0649586,
0.688,1.33772,-0.681088,-6.79515e-06,0.074169,
0.688,1.3491,-0.704828,-1.87122e-07,0.0847119,
0.688,1.34644,-0.699673,4.40964e-08,0.0967654,
0.688,1.33984,-0.686458,5.08067e-08,0.110475,
0.688,1.32841,-0.663204,5.06536e-08,0.126175,
0.688,1.31548,-0.637017,4.49563e-08,0.144131,
0.688,1.30192,-0.609979,4.03881e-08,0.164669,
0.688,1.28754,-0.581247,3.73818e-08,0.188038,
0.688,1.27208,-0.550228,3.48069e-08,0.214753,
0.688,1.25547,-0.516389,3.23112e-08,0.245311,
0.688,1.2376,-0.480312,3.00703e-08,0.280275,
0.688,1.21829,-0.441462,2.82469e-08,0.320142,
0.688,1.19717,-0.398598,2.74523e-08,0.365789,
0.688,1.1732,-0.349798,2.76773e-08,0.417836,
0.688,1.14545,-0.293605,2.76819e-08,0.477372,
0.688,1.11469,-0.231434,2.29709e-08,0.545486,
0.688,1.08917,-0.179424,1.461e-08,0.623218,
0.688,1.07219,-0.144792,9.07973e-09,0.712106,
0.688,1.05892,-0.117944,6.533e-09,0.813782,
0.688,1.04757,-0.0951103,4.88969e-09,0.930041,
0.688,1.03791,-0.0755618,3.62662e-09,1.06261,
0.688,1.02975,-0.0592693,2.6664e-09,1.21441,
0.688,1.02291,-0.0455844,1.92439e-09,1.38796,
0.688,1.01734,-0.0343997,1.36634e-09,1.58636,
0.688,1.01282,-0.0254,9.56655e-10,1.81256,
0.688,1.00923,-0.0182603,6.64071e-10,2.0716,
0.688,1.00638,-0.0125963,4.61432e-10,2.36771,
0.688,1.00409,-0.00805322,3.33633e-10,2.70619,
0.688,1.00221,-0.00438555,2.34858e-10,3.09309,
0.688,1.00063,-0.00130044,1.94677e-10,3.53533,

0.813,0,-0.121242,0,1e-16,
0.813,-0.00933568,-0.121246,6.74749e-09,2.32716e-05,
0.813,-0.0181482,-0.121251,2.10918e-07,4.69491e-05,
0.813,-0.026498,-0.121257,1.99948e-06,7.14457e-05,
0.813,-0.0342077,-0.121264,9.43187e-06,9.71887e-05,
0.813,-0.0407106,-0.121269,2.63091e-05,0.000124627,
0.813,-0.0453929,-0.121275,4.61253e-05,0.000154241,
0.813,-0.0483144,-0.121282,5.59048e-05,0.000186546,
0.813,-0.0500046,-0.12129,5.2477e-05,0.000222108,
0.813,-0.0509262,-0.121297,3.94233e-05,0.000261547,
0.813,-0.0513528,-0.121313,1.9615e-05,0.000305554,
0.813,-0.0514343,-0.12131,-5.54732e-06,0.000354897,
0.813,-0.051253,-0.121335,-3.53642e-05,0.000410441,
0.813,-0.0508548,-0.121345,-7.00028e-05,0.000473157,
0.813,-0.0502601,-0.121361,-0.000109994,0.000544144,
0.813,-0.0494781,-0.121377,-0.000155801,0.000624646,
0.813,-0.0485081,-0.121397,-0.000208249,0.000716071,
0.813,-0.0473425,-0.121418,-0.000268229,0.000820025,
0.813,-0.0459684,-0.121443,-0.000336823,0.000938328,
0.813,-0.0443674,-0.12147,-0.000415283,0.00107306,
0.813,-0.042516,-0.1215,-0.000505083,0.00122658,
0.813,-0.0403844,-0.121535,-0.000607871,0.00140158,
0.813,-0.037937,-0.121573,-0.000725501,0.00160114,
0.813,-0.0351305,-0.121616,-0.000860194,0.00182877,
0.813,-0.0319116,-0.121663,-0.00101451,0.00208846,
0.813,-0.028216,-0.121716,-0.00119142,0.00238478,
0.813,-0.0239638,-0.121775,-0.00139433,0.00272294,
0.813,-0.0190571,-0.121839,-0.00162718,0.00310889,
0.813,-0.0133728,-0.121911,-0.00189448,0.00354942,
0.813,-0.00675694,-0.121988,-0.00220127,0.00405228,
0.813,0.000985404,-0.122071,-0.00255229,0.00462634,
0.813,0.0100919,-0.122161,-0.00295901,0.00528169,
0.813,0.0208706,-0.122255,-0.00342506,0.0060299,
0.813,0.0337374,-0.122351,-0.00396008,0.00688414,
0.813,0.0492474,-0.122447,-0.00457365,0.00785949,
0.813,0.0681454,-0.122537,-0.00527493,0.00897314,
0.813,0.0914384,-0.122628,-0.00607196,0.0102448,
0.813,0.120494,-0.122754,-0.00714171,0.0116968,
0.813,0.158811,-0.122774,-0.00807561,0.0133548,
0.813,0.21334,-0.122587,-0.00899068,0.0152482,
0.813,0.293793,-0.122172,-0.00972915,0.0173973,
0.813,0.41183,-0.120964,-0.0095834,0.0197681,
0.813,0.569556,-0.119121,-0.00822431,0.0225011,
0.813,0.733887,-0.118442,-0.00607192,0.0256452,
0.813,0.85834,-0.118126,-0.00347405,0.0292561,
0.813,0.929167,-0.117688,-0.00133859,0.033398,
0.813,0.965086,-0.116309,-0.000580765,0.0379504,
0.813,0.990038,-0.113907,-0.000385953,0.0431839,
0.813,1.01431,-0.11081,-0.000283415,0.0492266,
0.813,1.03494,-0.106951,-0.000139163,0.0561862,
0.813,1.04603,-0.103649,-2.80318e-05,0.0641865,
0.813,1.04803,-0.100264,3.17099e-06,0.0732535,
0.813,1.04748,-0.0957986,3.19711e-06,0.0836093,
0.813,1.04468,-0.0909381,1.66767e-06,0.0955186,
0.813,1.03503,-0.086041,3.0918e-07,0.10911,
0.813,1.03327,-0.078255,4.09502e-08,0.124602,
0.813,1.02739,-0.072882,8.15031e-09,0.142358,
0.813,1.02581,-0.0655667,1.4717e-09,0.162626,
0.813,1.02696,-0.0599564,1.30104e-09,0.185823,
0.813,1.02338,-0.0560082,1.23945e-09,0.212297,
0.813,1.02269,-0.0526209,-1.73966e-10,0.242651,
0.813,1.02446,-0.0531487,-1.0123e-09,0.277301,
0.813,1.02773,-0.0557069,-1.70912e-09,0.316941,
0.813,1.03054,-0.0597493,-1.93587e-09,0.36227,
0.813,1.03201,-0.0650229,-2.32025e-09,0.41413,
0.813,1.03469,-0.0697297,-2.19983e-09,0.473389,
0.813,1.03667,-0.074048,-1.13327e-09,0.54123,
0.813,1.03729,-0.0750393,1.04725e-10,0.618788,
0.813,1.03648,-0.0730471,8.71969e-10,0.707593,
0.813,1.03444,-0.068864,1.41655e-09,0.809092,
0.813,1.03124,-0.0623258,1.68593e-09,0.925335,
0.813,1.0273,-0.0544077,1.68606e-09,1.05821,
0.813,1.02305,-0.0458224,1.5196e-09,1.21017,
0.813,1.01881,-0.0373648,1.26998e-09,1.38391,
0.813,1.01489,-0.0294942,1.00132e-09,1.58247,
0.813,1.01143,-0.0225912,7.56746e-10,1.81009,
0.813,1.00848,-0.0167502,5.54475e-10,2.07007,
0.813,1.00602,-0.0118539,3.93522e-10,2.36772,
0.813,1.00403,-0.00792093,2.85142e-10,2.70818,
0.813,1.0023,-0.00455841,2.05973e-10,3.09651,
0.813,1.00099,-0.001956,1.66058e-10,3.54123,

0.938,0,-0.0291319,0,1e-16,
0.938,-0.00993169,-0.0291345,2.52335e-09,2.32316e-05,
0.938,-0.0197649,-0.0291375,7.52886e-08,4.68694e-05,
0.938,-0.0296182,-0.0291413,7.66776e-07,7.13267e-05,
0.938,-0.0395093,-0.0291453,4.09215e-06,9.70313e-05,
0.938,-0.0491973,-0.0291496,1.41497e-05,0.000124433,
0.938,-0.0580318,-0.0291531,3.38751e-05,0.000154011,
0.938,-0.0652551,-0.0291555,5.85163e-05,0.000186283,
0.938,-0.0706335,-0.0291579,7.85158e-05,0.000221814,
0.938,-0.0744772,-0.0291605,8.94182e-05,0.000261227,
0.938,-0.077223,-0.0291643,9.19722e-05,0.000305212,
0.938,-0.0791979,-0.0291684,8.80648e-05,0.000354541,
0.938,-0.0806263,-0.0291731,7.94634e-05,0.000410078,
0.938,-0.0816513,-0.029178,6.70942e-05,0.000472798,
0.938,-0.0823631,-0.0291844,5.12962e-05,0.000543802,
0.938,-0.0828172,-0.0291894,3.2266e-05,0.000624336,
0.938,-0.0830508,-0.029216,9.56577e-06,0.000715816,
0.938,-0.083081,-0.0291409,-1.70889e-05,0.000819848,
0.938,-0.0829215,-0.0292032,-4.75952e-05,0.000938261,
0.938,-0.0825762,-0.0292128,-8.31216e-05,0.00107314,
0.938,-0.0820406,-0.0292178,-0.000124251,0.00122685,
0.938,-0.0813094,-0.0292239,-0.000171345,0.00140211,
0.938,-0.080371,-0.0292312,-0.000225505,0.00160199,
0.938,-0.0792097,-0.0292395,-0.000287696,0.00183001,
0.938,-0.0778055,-0.0292486,-0.000359068,0.0020902,
0.938,-0.0761332,-0.0292589,-0.000440924,0.00238713,
0.938,-0.0741625,-0.0292701,-0.00053476,0.00272605,
0.938,-0.0718563,-0.0292829,-0.000642301,0.00311293,
0.938,-0.06917,-0.0292973,-0.000765517,0.00355458,
0.938,-0.0660493,-0.0293141,-0.000906648,0.00405882,
0.938,-0.0624288,-0.0293337,-0.00106827,0.00463453,
0.938,-0.0582279,-0.029357,-0.00125337,0.00529188,
0.938,-0.0533477,-0.0293851,-0.0014654,0.00604249,
0.938,-0.0476648,-0.0294194,-0.00170839,0.00689961,
0.938,-0.0410236,-0.0294612,-0.00198703,0.0078784,
0.938,-0.0332266,-0.0295129,-0.00230695,0.00899617,
0.938,-0.0240188,-0.0295759,-0.0026744,0.0102727,
0.938,-0.0130737,-0.0296515,-0.00309405,0.0117305,
0.938,1.90576e-06,-0.0297396,-0.00357765,0.0133955,
0.938,0.0157,-0.0298393,-0.00413537,0.0152971,
0.938,0.0346546,-0.0299506,-0.00478713,0.017469,
0.938,0.0577341,-0.0300594,-0.00552942,0.0199391,
0.938,0.0861594,-0.0302127,-0.00641675,0.0225116,
0.938,0.122167,-0.0303648,-0.00754672,0.0255164,
0.938,0.171256,-0.030203,-0.00855339,0.0290096,
0.938,0.244185,-0.0294844,-0.00942456,0.0330545,
0.938,0.35641,-0.0277986,-0.0096289,0.0377237,
0.938,0.516781,-0.0250329,-0.00862712,0.0426984,
0.938,0.697538,-0.0250592,-0.00671651,0.0484919,
0.938,0.841733,-0.0260582,-0.00415587,0.0552419,
0.938,0.931192,-0.027101,-0.00163384,0.0630705,
0.938,0.980235,-0.0254885,-0.00054423,0.0721179,
0.938,1.00307,-0.0257883,-0.00013738,0.0822909,
0.938,1.01079,-0.0259748,-1.84771e-05,0.0938338,
0.938,1.01112,-0.0271659,5.31385e-07,0.107215,
0.938,1.00959,-0.0268844,9.9891e-07,0.122488,
0.938,1.00628,-0.0266597,2.5919e-07,0.139919,
0.938,1.00443,-0.0260557,1.12761e-10,0.160003,
0.938,1.006,-0.0253115,-8.19176e-09,0.18281,
0.938,1.00756,-0.0252664,-1.41204e-09,0.208986,
0.938,1.00827,-0.025172,-4.89077e-10,0.239003,
0.938,1.00937,-0.0251492,-5.93938e-10,0.273269,
0.938,1.01148,-0.0254309,-8.14135e-10,0.312507,
0.938,1.01377,-0.0259599,-6.81023e-10,0.357468,
0.938,1.01399,-0.0277682,-5.4315e-10,0.408929,
0.938,1.01452,-0.0293146,-7.79179e-10,0.467901,
0.938,1.01543,-0.031014,-8.33671e-10,0.535368,
0.938,1.01642,-0.0330767,-7.37193e-10,0.612662,
0.938,1.01734,-0.0346903,-4.23466e-10,0.701152,
0.938,1.01774,-0.035312,-4.89142e-11,0.802634,
0.938,1.01753,-0.0348402,2.11718e-10,0.91874,
0.938,1.01673,-0.0331803,4.36848e-10,1.05163,
0.938,1.01535,-0.0304866,5.68491e-10,1.20403,
0.938,1.01352,-0.0267457,6.07578e-10,1.37848,
0.938,1.01143,-0.0225488,5.73338e-10,1.57802,
0.938,1.00927,-0.018287,4.93512e-10,1.80652,
0.938,1.00722,-0.0142171,3.9996e-10,2.06844,
0.938,1.00535,-0.0105102,3.06629e-10,2.3677,
0.938,1.00376,-0.00741824,2.32849e-10,2.7102,
0.938,1.00231,-0.00457569,1.67307e-10,3.1022,
0.938,1.00122,-0.00238537,1.31889e-10,3.55094,

1,0,-0.00702945,0,1e-16,
1,-0.0166396,-0.00703259,7.97501e-09,2.32217e-05,
1,-0.0331246,-0.00703561,2.72872e-07,4.685e-05,
1,-0.049613,-0.00703938,2.70569e-06,7.12984e-05,
1,-0.0659775,-0.00704405,1.34154e-05,9.6995e-05,
1,-0.0814863,-0.00704928,4.07981e-05,0.00012439,
1,-0.0949101,-0.00705474,8.3551e-05,0.000153963,
1,-0.105438,-0.00706149,0.000126449,0.000186233,
1,-0.113183,-0.00706982,0.000156398,0.000221764,
1,-0.118766,-0.00708009,0.000171458,0.000261182,
1,-0.12283,-0.00709206,0.000175287,0.000305176,
1,-0.125842,-0.00710583,0.000171425,0.000354519,
1,-0.128112,-0.00712144,0.000162188,0.000410078,
1,-0.129834,-0.00713914,0.000148857,0.000472828,
1,-0.131137,-0.00715921,0.00013208,0.000543873,
1,-0.132102,-0.00718172,0.000112167,0.000624461,
1,-0.132783,-0.00720804,8.91593e-05,0.000716009,
1,-0.133215,-0.00723395,6.32168e-05,0.000820128,
1,-0.133424,-0.00727508,3.37563e-05,0.000938651,
1,-0.133418,-0.00727522,-2.88166e-08,0.00107366,
1,-0.133202,-0.00732004,-3.76336e-05,0.00122754,
1,-0.132779,-0.0073884,-7.98435e-05,0.001403,
1,-0.132141,-0.00742921,-0.00012797,0.00160314,
1,-0.131277,-0.00748302,-0.000182331,0.00183147,
1,-0.130172,-0.00754229,-0.000243898,0.00209203,
1,-0.128804,-0.00760922,-0.000313851,0.00238941,
1,-0.127149,-0.00768368,-0.000393351,0.00272886,
1,-0.125173,-0.0077664,-0.000483771,0.00311639,
1,-0.122839,-0.00785753,-0.00058668,0.00355882,
1,-0.120101,-0.00795803,-0.000703819,0.00406398,
1,-0.116902,-0.00806799,-0.000837135,0.00464079,
1,-0.113177,-0.00818786,-0.000988838,0.00529946,
1,-0.108845,-0.00831715,-0.00116144,0.00605162,
1,-0.103808,-0.00845621,-0.00135767,0.0069106,
1,-0.0979491,-0.00860382,-0.00158053,0.00789159,
1,-0.0911219,-0.0087589,-0.00183326,0.00901195,
1,-0.0831473,-0.00891865,-0.00211928,0.0102915,
1,-0.0738012,-0.00908026,-0.00244184,0.011753,
1,-0.0628041,-0.00923811,-0.00280361,0.0134223,
1,-0.0498032,-0.00938279,-0.00320991,0.0153289,
1,-0.0343256,-0.0095193,-0.00368669,0.0175068,
1,-0.0154239,-0.00964924,-0.00414259,0.0199945,
1,0.00828842,-0.00980182,-0.00466927,0.0228361,
1,0.0382618,-0.00999831,-0.00532748,0.0260822,
1,0.0758944,-0.0103882,-0.00611639,0.0297904,
1,0.123265,-0.010984,-0.00704337,0.0340265,
1,0.185241,-0.0116247,-0.00812726,0.0388658,
1,0.27154,-0.0114743,-0.00915002,0.0443714,
1,0.398704,-0.0094248,-0.00928834,0.050306,
1,0.568858,-0.00660745,-0.00814575,0.0567779,
1,0.742715,-0.00336977,-0.00616851,0.0643629,
1,0.878944,-0.00305806,-0.00313839,0.073201,
1,0.95778,-0.000909538,-0.00100032,0.0834523,
1,0.989827,0.000423533,-0.000202328,0.0952491,
1,0.996693,5.21728e-05,-1.79203e-05,0.108351,
1,0.996862,0.000139181,1.39301e-06,0.123411,
1,0.99474,0.000706631,1.20747e-06,0.140887,
1,0.991469,0.000811609,1.08999e-07,0.160913,
1,0.991858,0.00115495,-5.26276e-08,0.183368,
1,0.993729,0.000468287,-1.6553e-08,0.209311,
1,0.995549,-0.00059054,-3.73305e-09,0.239097,
1,0.997296,-0.00188057,-1.5133e-09,0.273067,
1,0.999942,-0.00366655,-1.36049e-09,0.312052,
1,1.0034,-0.00594723,-1.24519e-09,0.356741,
1,1.00467,-0.00854984,-1.0128e-09,0.407906,
1,1.00574,-0.0113512,-1.18723e-09,0.466542,
1,1.00711,-0.0143395,-1.24467e-09,0.53384,
1,1.00861,-0.0173153,-1.0967e-09,0.610826,
1,1.01007,-0.0201248,-8.58234e-10,0.699112,
1,1.01129,-0.0223332,-5.62042e-10,0.800294,
1,1.01203,-0.0238488,-2.23815e-10,0.916281,
1,1.01217,-0.024058,3.56851e-11,1.04923,
1,1.01178,-0.0232726,2.22336e-10,1.2016,
1,1.01087,-0.0214523,3.33069e-10,1.37615,
1,1.00959,-0.0188734,3.75053e-10,1.57647,
1,1.00806,-0.0158427,3.621e-10,1.80575,
1,1.0076,-0.0149258,3.4901e-10,1.88256,
1,1.00647,-0.0127088,3.1714e-10,2.0677,
1,1.00493,-0.00969331,2.58083e-10,2.36835,
1,1.00356,-0.00701705,2.01155e-10,2.71278,
1,1.00229,-0.00454285,1.48161e-10,3.10614,
1,1.00132,-0.00257094,1.16205e-10,3.55725,

1.125,0,0.107046,0,1e-16,
1.125,-0.00462382,0.107043,1.08116e-08,2.2977e-05,
1.125,-0.00872743,0.107044,3.46734e-07,4.63572e-05,
1.125,-0.0122603,0.107043,2.82701e-06,7.05508e-05,
1.125,-0.0149593,0.107043,9.83379e-06,9.59823e-05,
1.125,-0.0165843,0.107042,1.68023e-05,0.000123098,
1.125,-0.0173488,0.107039,1.57158e-05,0.000152375,
1.125,-0.0176192,0.107035,6.96428e-06,0.000184326,
1.125,-0.0176215,0.10703,-6.25813e-06,0.000219514,
1.125,-0.0174637,0.107022,-2.24117e-05,0.000258557,
1.125,-0.0171955,0.107012,-4.10916e-05,0.000302141,
1.125,-0.0168398,0.107,-6.23473e-05,0.000351033,
1.125,-0.0164066,0.106986,-8.64338e-05,0.000406094,
1.125,-0.015899,0.106968,-0.000113717,0.000468293,
1.125,-0.0153159,0.106947,-0.000144649,0.000538726,
1.125,-0.0146538,0.106921,-0.000179756,0.000618634,
1.125,-0.0139069,0.106891,-0.000219648,0.000709426,
1.125,-0.0130679,0.106855,-0.000265024,0.000812702,
1.125,-0.0121278,0.106812,-0.000316684,0.000930284,
1.125,-0.0110762,0.106761,-0.000375542,0.00106425,
1.125,-0.0099006,0.106701,-0.00044264,0.00121696,
1.125,-0.00858702,0.10663,-0.000519169,0.00139111,
1.125,-0.00711907,0.106547,-0.00060649,0.00158979,
1.125,-0.00547794,0.10645,-0.00070616,0.00181649,
1.125,-0.00364185,0.106336,-0.000819945,0.00207523,
1.125,-0.00158565,0.106204,-0.000949873,0.00237059,
1.125,0.000719944,0.10605,-0.00109831,0.00270779,
1.125,0.00330932,0.105872,-0.0012679,0.0030928,
1.125,0.00622364,0.105668,-0.00146132,0.00353243,
1.125,0.00951145,0.105435,-0.00168225,0.00403447,
1.125,0.0132302,0.105169,-0.00193454,0.00460781,
1.125,0.0174492,0.104869,-0.00222234,0.00526262,
1.125,0.0222535,0.104534,-0.00255035,0.00601049,
1.125,0.0277479,0.104163,-0.00292376,0.00686471,
1.125,0.034063,0.103757,-0.00334816,0.00784041,
1.125,0.0413621,0.103319,-0.00382937,0.00895492,
1.125,0.049851,0.102854,-0.00437328,0.010228,
1.125,0.0597908,0.102365,-0.00498583,0.0116823,
1.125,0.0715158,0.10186,-0.00567245,0.0133436,
1.125,0.085456,0.101345,-0.00643725,0.0152415,
1.125,0.102167,0.100831,-0.00728187,0.0174097,
1.125,0.122369,0.100315,-0.00821026,0.0198867,
1.125,0.147027,0.100002,-0.00959993,0.0227167,
1.125,0.179633,0.100115,-0.0102197,0.0259499,
1.125,0.226009,0.10033,-0.0107329,0.029644,
1.125,0.289536,0.100227,-0.010992,0.0338647,
1.125,0.37155,0.0998388,-0.0107114,0.0386871,
1.125,0.471977,0.099202,-0.00970836,0.0441974,
1.125,0.586185,0.0983292,-0.00808529,0.0504935,
1.125,0.702249,0.0969119,-0.00613942,0.0576879,
1.125,0.804731,0.0952539,-0.00428552,0.0659089,
1.125,0.884153,0.0921801,-0.00186186,0.0753032,
1.125,0.933078,0.0910395,-0.000565777,0.0860384,
1.125,0.952173,0.0862234,-0.000114487,0.0983063,
1.125,0.956271,0.0818247,-1.96835e-05,0.112326,
1.125,0.957706,0.0773472,-4.57052e-06,0.128348,
1.125,0.957816,0.0725847,-1.17584e-06,0.146659,
1.125,0.958123,0.0675118,-4.93738e-07,0.167586,
1.125,0.961844,0.0621484,-1.63045e-07,0.191503,
1.125,0.966077,0.0566104,-3.7681e-08,0.218838,
1.125,0.970204,0.0508442,-8.94417e-09,0.250082,
1.125,0.974375,0.0448621,-3.41556e-09,0.285792,
1.125,0.979361,0.0385689,-2.61736e-09,0.32661,
1.125,0.984666,0.0324387,-2.36846e-09,0.373265,
1.125,0.987502,0.0261189,-2.25868e-09,0.426595,
1.125,0.990276,0.0199146,-2.40851e-09,0.487555,
1.125,0.993124,0.013926,-2.28828e-09,0.55724,
1.125,0.995955,0.00819658,-1.96184e-09,0.636898,
1.125,0.998666,0.0028545,-1.56632e-09,0.72796,
1.125,1.00108,-0.0017665,-1.17312e-09,0.82855,
1.125,1.00305,-0.0058117,-8.12403e-10,0.94298,
1.125,1.00374,-0.007156,-6.73458e-10,1.00315,
1.125,1.00455,-0.00874832,-5.0872e-10,1.07453,
1.125,1.00555,-0.0108081,-2.61352e-10,1.22528,
1.125,1.00601,-0.0117308,-4.7732e-11,1.39832,
1.125,1.00596,-0.0116024,5.50073e-11,1.59646,
1.125,1.00552,-0.0107792,1.35938e-10,1.82431,
1.125,1.00482,-0.00939775,1.60418e-10,2.08526,
1.125,1.00394,-0.0077135,1.54247e-10,2.38489,
1.125,1.00306,-0.0060059,1.32455e-10,2.72763,
1.125,1.00217,-0.00429027,1.03998e-10,3.12069,
1.125,1.00147,-0.00288588,8.21e-11,3.57128,

1.25,0,0.167406,0,1e-16,
1.25,0.0254522,0.167403,-7.811e-08,2.27149e-05,
1.25,0.0513514,0.167404,-2.87086e-06,4.58292e-05,
1.25,0.0774544,0.167404,-2.64869e-05,6.97496e-05,
1.25,0.101626,0.167404,-0.000103985,9.48968e-05,
1.25,0.120825,0.167403,-0.000219909,0.000121713,
1.25,0.134573,0.167401,-0.000318119,0.000150671,
1.25,0.14434,0.167398,-0.000382508,0.00018228,
1.25,0.151569,0.167394,-0.000423979,0.000217097,
1.25,0.157202,0.167388,-0.00045333,0.000255735,
1.25,0.161802,0.16738,-0.000476862,0.000298876,
1.25,0.165708,0.16737,-0.000498001,0.00034728,
1.25,0.169132,0.167357,-0.000518713,0.000401801,
1.25,0.172215,0.167342,-0.00054026,0.000463402,
1.25,0.175053,0.167324,-0.000563565,0.00053317,
1.25,0.177714,0.167302,-0.000589402,0.000612337,
1.25,0.18025,0.167275,-0.000618491,0.000702303,
1.25,0.182703,0.167243,-0.000651557,0.000804657,
1.25,0.185106,0.167205,-0.000689369,0.00092121,
1.25,0.187488,0.167159,-0.000732766,0.00105402,
1.25,0.189876,0.167106,-0.000782683,0.00120545,
1.25,0.192295,0.167042,-0.000840177,0.00137816,
1.25,0.194769,0.166967,-0.000906444,0.00157523,
1.25,0.197324,0.166878,-0.000982848,0.00180013,
1.25,0.199986,0.166774,-0.00107094,0.00205686,
1.25,0.202783,0.166652,-0.00117251,0.00234997,
1.25,0.205747,0.166511,-0.00128959,0.00268466,
1.25,0.208913,0.166346,-0.0014245,0.00306685,
1.25,0.212322,0.166157,-0.00157992,0.00350335,
1.25,0.216022,0.165938,-0.0017589,0.00400188,
1.25,0.220068,0.165689,-0.00196491,0.00457132,
1.25,0.224527,0.165407,-0.00220186,0.00522176,
1.25,0.22948,0.165089,-0.00247413,0.00596478,
1.25,0.235025,0.164733,-0.00278659,0.00681358,
1.25,0.241284,0.16434,-0.00314458,0.00778325,
1.25,0.248408,0.16391,-0.00355381,0.00889105,
1.25,0.256589,0.163444,-0.00402018,0.0101567,
1.25,0.266068,0.162945,-0.00454939,0.0116027,
1.25,0.277154,0.162418,-0.00514628,0.0132548,
1.25,0.290246,0.161867,-0.00581391,0.0151425,
1.25,0.305853,0.161296,-0.00655179,0.0172993,
1.25,0.324635,0.160695,-0.00735782,0.0197638,
1.25,0.34746,0.160168,-0.00842754,0.0225799,
1.25,0.376714,0.159966,-0.00920715,0.0257978,
1.25,0.41694,0.16003,-0.00941322,0.0294749,
1.25,0.471476,0.159786,-0.00934092,0.0336769,
1.25,0.539279,0.159078,-0.00877122,0.0384787,
1.25,0.616433,0.157954,-0.0076419,0.0439663,
1.25,0.697021,0.156459,-0.00609079,0.0502376,
1.25,0.773272,0.154157,-0.00445169,0.0574048,
1.25,0.839388,0.150751,-0.00256796,0.0655959,
1.25,0.890122,0.146792,-0.00105904,0.0749575,
1.25,0.919606,0.141543,-0.000302742,0.0856571,
1.25,0.930519,0.13566,-6.50854e-05,0.0978863,
1.25,0.93357,0.129222,-1.58906e-05,0.111864,
1.25,0.935343,0.122541,-4.8974e-06,0.127841,
1.25,0.936543,0.115416,-1.6234e-06,0.146102,
1.25,0.938976,0.10785,-5.9896e-07,0.166976,
1.25,0.944074,0.100124,-1.77281e-07,0.190837,
1.25,0.949402,0.0919206,-4.19738e-08,0.218113,
1.25,0.954603,0.0836619,-1.06101e-08,0.249292,
1.25,0.959994,0.0751097,-4.31759e-09,0.284935,
1.25,0.966203,0.0664441,-3.33529e-09,0.325682,
1.25,0.97247,0.0578708,-3.05228e-09,0.372264,
1.25,0.976167,0.049344,-2.99557e-09,0.425519,
1.25,0.979911,0.0410622,-3.1639e-09,0.486402,
1.25,0.983666,0.0331416,-2.96117e-09,0.55601,
1.25,0.987348,0.0256746,-2.52599e-09,0.635594,
1.25,0.99086,0.0186705,-2.03635e-09,0.726585,
1.25,0.99404,0.012392,-1.56719e-09,0.83062,
1.25,0.996758,0.00690542,-1.16316e-09,0.949574,
1.25,0.99904,0.00227699,-8.28183e-10,1.08559,
1.25,1.00085,-0.00137066,-5.47403e-10,1.24111,
1.25,1.00216,-0.00400369,-3.21115e-10,1.41894,
1.25,1.00296,-0.00559775,-1.52423e-10,1.62229,
1.25,1.0033,-0.00632796,-3.00258e-11,1.84947,
1.25,1.00325,-0.00627239,3.13236e-11,2.10883,
1.25,1.00295,-0.00571562,6.58475e-11,2.40658,
1.25,1.00251,-0.00490119,7.36135e-11,2.74752,
1.25,1.00245,-0.00478941,7.24171e-11,2.79119,
1.25,1.00197,-0.00389332,6.27294e-11,3.13954,
1.25,1.00159,-0.00314818,3.94854e-11,3.5883,

1.375,0,0.153264,0,1e-16,
1.375,0.0438338,0.153262,-1.68172e-07,2.24527e-05,
1.375,0.0881248,0.153262,-6.01401e-06,4.53013e-05,
1.375,0.132306,0.153262,-5.11466e-05,6.89485e-05,
1.375,0.173075,0.153262,-0.000177187,9.38113e-05,
1.375,0.206775,0.153262,-0.000340599,0.000120328,
1.375,0.232965,0.153261,-0.000476134,0.000148967,
1.375,0.253162,0.15326,-0.000571947,0.000180234,
1.375,0.268972,0.153259,-0.000637816,0.00021468,
1.375,0.281622,0.153256,-0.000683818,0.000252914,
1.375,0.291982,0.153253,-0.000717117,0.000295611,
1.375,0.30066,0.153248,-0.000742541,0.000343527,
1.375,0.308084,0.153242,-0.000763338,0.000397509,
1.375,0.314558,0.153235,-0.000781729,0.000458511,
1.375,0.320304,0.153226,-0.000799284,0.000527614,
1.375,0.325484,0.153214,-0.000817183,0.00060604,
1.375,0.330221,0.153199,-0.00083637,0.00069518,
1.375,0.334611,0.153182,-0.000857667,0.000796613,
1.375,0.338728,0.15316,-0.000881841,0.000912136,
1.375,0.342634,0.153134,-0.00090966,0.0010438,
1.375,0.346382,0.153103,-0.000941923,0.00119393,
1.375,0.350014,0.153066,-0.000979496,0.00136521,
1.375,0.353573,0.153021,-0.00102333,0.00156067,
1.375,0.357093,0.152968,-0.00107451,0.00178377,
1.375,0.360612,0.152906,-0.00113422,0.00203849,
1.375,0.364163,0.152831,-0.00120386,0.00232935,
1.375,0.367784,0.152744,-0.00128498,0.00266152,
1.375,0.371512,0.152642,-0.00137937,0.00304091,
1.375,0.375388,0.152524,-0.00148905,0.00347427,
1.375,0.37946,0.152386,-0.00161633,0.0039693,
1.375,0.383778,0.152228,-0.00176383,0.00453483,
1.375,0.388403,0.152047,-0.00193447,0.00518091,
1.375,0.393406,0.151841,-0.00213153,0.00591907,
1.375,0.398873,0.151608,-0.00235862,0.00676245,
1.375,0.404904,0.151347,-0.00261963,0.0077261,
1.375,0.411626,0.151059,-0.00291868,0.00882719,
1.375,0.419193,0.150741,-0.00325993,0.0100854,
1.375,0.427797,0.150396,-0.00364726,0.0115231,
1.375,0.43768,0.150022,-0.00408375,0.013166,
1.375,0.449145,0.149621,-0.00457084,0.0150434,
1.375,0.462575,0.149192,-0.00510705,0.017189,
1.375,0.478452,0.148734,-0.00568606,0.0196409,
1.375,0.497373,0.148242,-0.00630343,0.0224431,
1.375,0.52014,0.147743,-0.00704054,0.0256456,
1.375,0.548654,0.147398,-0.00756863,0.0293058,
1.375,0.586454,0.147233,-0.00747789,0.0334891,
1.375,0.63533,0.14682,-0.00706962,0.0382704,
1.375,0.692352,0.145999,-0.00624647,0.0437353,
1.375,0.752492,0.14477,-0.00505162,0.0499817,
1.375,0.810432,0.142968,-0.00369195,0.0571216,
1.375,0.86263,0.141035,-0.00203826,0.0652828,
1.375,0.903709,0.138022,-0.000808194,0.0746118,
1.375,0.926436,0.134382,-0.000208714,0.0852759,
1.375,0.93436,0.130275,-3.89959e-05,0.0974663,
1.375,0.93616,0.125703,-7.97666e-06,0.111402,
1.375,0.936604,0.120713,-2.45083e-06,0.127333,
1.375,0.937113,0.115311,-1.002e-06,0.145546,
1.375,0.939255,0.109445,-4.16962e-07,0.166367,
1.375,0.943654,0.1032,-1.28268e-07,0.190171,
1.375,0.948174,0.0964825,-3.15879e-08,0.217387,
1.375,0.95262,0.0893869,-8.45979e-09,0.248502,
1.375,0.95726,0.0818926,-3.75629e-09,0.284078,
1.375,0.963012,0.0741673,-3.06216e-09,0.324754,
1.375,0.968765,0.0661592,-2.82164e-09,0.371263,
1.375,0.97207,0.0580319,-2.81443e-09,0.424442,
1.375,0.975628,0.0500423,-3.0555e-09,0.485249,
1.375,0.97931,0.0421938,-2.91317e-09,0.554781,
1.375,0.982965,0.034629,-2.53393e-09,0.634289,
1.375,0.986537,0.0275289,-2.09599e-09,0.725209,
1.375,0.989865,0.0208827,-1.66542e-09,0.82918,
1.375,0.992816,0.0148965,-1.28335e-09,0.948077,
1.375,0.995396,0.00963186,-9.62914e-10,1.08405,
1.375,0.997593,0.00520869,-6.8882e-10,1.23955,
1.375,0.999325,0.00167864,-4.64331e-10,1.41738,
1.375,1.00063,-0.000944116,-2.84573e-10,1.62076,
1.375,1.00147,-0.00267301,-1.49949e-10,1.85337,
1.375,1.00193,-0.00361879,-5.70984e-11,2.1194,
1.375,1.00206,-0.00392813,-9.90703e-13,2.42367,
1.375,1.00197,-0.00382802,2.02822e-11,2.77091,
1.375,1.00176,-0.00348356,2.39384e-11,3.16112,
1.375,1.00161,-0.00321602,1.33661e-11,3.6087,

-3.19886,0,0.0204737,0,0,
-2.99627,0,0.0061031,0,0,
-2.80402,0,0.00440626,0,0,
-2.62157,0,0.00371993,0,0,
-2.44842,0,0.00370063,0,0,
-2.2841,0,0.00418958,0,0,
-2.12815,0,0.00472917,0,0,
-1.98016,0,0.00559361,0,0,
-1.83971,0,0.00657169,0,0,
-1.70643,0,0.00792244,0,0,
-1.57994,0,0.00932272,0,0,
-1.4599,0,0.0113547,0,0,
-1.34598,0,0.0135923,0,0,
-1.23786,0,0.0161527,0,0,
-1.13526,0,0.0194453,0,0,
-1.03789,0,0.023116,0,0,
-0.945488,0,0.0278454,0,0,
-0.857795,0,0.033133,0,0,
-0.774572,0,0.0399961,0,0,
-0.695593,0,0.0476887,0,0,
-0.620641,0,0.0577798,0,0,
-0.54951,0,0.0690942,0,0,
-0.482006,0,0.0841084,0,0,
-0.417943,0,0.10096,0,0,
-0.357147,0,0.123694,0,0,
-0.29945,0,0.149349,0,0,
-0.244696,0,0.184301,0,0,
-0.192732,0,0.21868,0,0,
-0.143419,0,0.269056,0,0,
-0.0966231,0,0.320749,0,0,
-0.0522148,0,0.342673,0,0,
-0.0100698,0,0.347311,0,0,
0.0299268,0,0.337026,0,0,
0.0678843,0,0.293241,0,0,
0.103908,0,0.240225,0,0,
0.138096,0,0.112393,0,0,
0.17054,0,-0.000181031,0,0,
0.20133,0,-0.0883125,0,0,
0.230551,0,-0.165085,0,0,
0.258281,0,-0.228656,0,0,
0.284598,0,-0.287752,0,0,
0.309574,0,-0.338048,0,0,
0.333275,0,-0.383336,0,0,
0.355769,0,-0.42497,0,0,
0.377115,0,-0.461437,0,0,
0.397374,0,-0.496286,0,0,
0.416599,0,-0.526616,0,0,
0.434844,0,-0.555537,0,0,
0.452159,0,-0.581078,0,0,
0.468591,0,-0.605354,0,0,
0.484186,0,-0.627052,0,0,
0.498985,0,-0.647597,0,0,
0.51303,0,-0.666342,0,0,
0.526358,0,-0.683914,0,0,
0.539007,0,-0.699852,0,0,
0.551012,0,-0.714653,0,0,
0.562404,0,-0.728679,0,0,
0.573215,0,-0.741437,0,0,
0.583475,0,-0.753574,0,0,
0.593212,0,-0.764747,0,0,
0.602453,0,-0.775375,0,0,
0.611222,0,-0.783937,0,0,
0.619544,0,-0.790976,0,0,
0.627442,0,-0.791076,0,0,
0.634938,0,-0.760362,0,0,
0.642051,0,-0.711614,0,0,
0.648801,0,-0.617799,0,0,
0.655207,0,-0.53973,0,0,
0.661287,0,-0.473512,0,0,
0.667057,0,-0.431982,0,0,
0.672532,0,-0.397971,0,0,
0.677729,0,-0.373485,0,0,
0.68266,0,-0.352293,0,0,
0.68734,0,-0.336214,0,0,
0.691781,0,-0.321026,0,0,
0.695996,0,-0.309215,0,0,
0.699996,0,-0.297699,0,0,
0.703996,0,-0.288099,0,0,
0.707996,0,-0.278138,0,0,
0.712135,0,-0.269379,0,0,
0.716416,0,-0.25999,0,0,
0.720846,0,-0.251481,0,0,
0.725429,0,-0.242536,0,0,
0.730171,0,-0.234174,0,0,
0.735076,0,-0.225492,0,0,
0.740151,0,-0.217221,0,0,
0.745402,0,-0.208703,0,0,
0.750835,0,-0.200427,0,0,
0.756455,0,-0.192004,0,0,
0.76227,0,-0.183298,0,0,
0.768286,0,-0.175824,0,0,
0.77451,0,-0.166922,0,0,
0.78095,0,-0.158659,0,0,
0.787612,0,-0.150321,0,0,
0.794505,0,-0.141968,0,0,
0.801636,0,-0.133754,0,0,
0.809014,0,-0.125451,0,0,
0.816647,0,-0.117391,0,0,
0.824544,0,-0.109235,0,0,
0.832715,0,-0.101355,0,0,
0.841168,0,-0.0934265,0,0,
0.849914,0,-0.0857878,0,0,
0.858962,0,-0.0781318,0,0,
0.868323,0,-0.0708152,0,0,
0.878008,0,-0.0635735,0,0,
0.888028,0,-0.0566539,0,0,
0.898395,0,-0.049895,0,0,
0.90912,0,-0.0435773,0,0,
0.920216,0,-0.0374568,0,0,
0.931697,0,-0.031991,0,0,
0.943574,0,-0.0266036,0,0,
0.955862,0,-0.0240342,0,0,
0.968576,0,-0.0186998,0,0,
0.981729,0,-0.0169944,0,0,
0.995332,0,-0.00870509,0,0,
1.00941,0,-0.00365352,0,0,
1.02397,0,0.015805,0,0,
1.03904,0,0.0230403,0,0,
1.05463,0,0.0385465,0,0,
1.07076,0,0.0544497,0,0,
1.08745,0,0.0717568,0,0,
1.10471,0,0.0887447,0,0,
1.12258,0,0.105023,0,0,
1.14106,0,0.120457,0,0,
1.16018,0,0.133687,0,0,
1.17996,0,0.145701,0,0,
1.20043,0,0.154603,0,0,
1.22161,0,0.161597,0,0,
1.24351,0,0.166969,0,0,
1.26618,0,0.168497,0,0,
1.28963,0,0.168413,0,0,
1.31389,0,0.165534,0,0,
1.33899,0,0.16186,0,0,
1.36496,0,0.155695,0,0,
1.39183,0,0.14919,0,0,
1.41962,0,0.141028,0,0,
1.44838,0,0.133011,0,0,
1.47813,0,0.124018,0,0,
1.50892,0,0.115563,0,0,
1.54076,0,0.106635,0,0,
1.57371,0,0.0984526,0,0,
1.6078,0,0.0901557,0,0,
1.64307,0,0.0826243,0,0,
1.67956,0,0.0751952,0,0,
1.71731,0,0.0685207,0,0,
1.75637,0,0.0620639,0,0,
1.79677,0,0.0563015,0,0,
1.83858,0,0.0508199,0,0,
1.88183,0,0.0459302,0,0,
1.92658,0,0.0413383,0,0,
1.97288,0,0.0372097,0,0,
2.02078,0,0.0335751,0,0,
2.07033,0,0.0300739,0,0,
2.1216,0,0.0270247,0,0,
2.17465,0,0.0241898,0,0,
2.22953,0,0.0216885,0,0,
2.2863,0,0.0193627,0,0,
2.34505,0,0.0173003,0,0,
2.40582,0,0.0154587,0,0,
2.4687,0,0.0137415,0,0,
2.53375,0,0.0122412,0,0,
2.60105,0,0.0108578,0,0,
2.67068,0,0.00964309,0,0,
2.74272,0,0.00851424,0,0,
2.81725,0,0.0075315,0,0,
2.89436,0,0.00661224,0,0,
2.97414,0,0.0058163,0,0,
3.05668,0,0.00507642,0,0,
3.14207,0,0.00443275,0,0,
3.23042,0,0.00383896,0,0,
3.32182,0,0.00332146,0,0,
3.41639,0,0.00285479,0,0,
3.51423,0,0.00241392,0,0,
3.61545,0,0.00203969,0,0,
3.72017,0,0.00167451,0,0,
3.82852,0,0.00135747,0,0,
3.94062,0,0.00104873,0,0,
4.05659,0,0.000800335,0,0,
4.17658,0,0.000536987,0,0,
4.30072,0,0.000285175,0,0,
4.42915,0,0.00154787,0,0,

