0507970b1b09507a5a5de9ea74c15c2193484264 
X,Z,x_velocity,cp,uw_b,cf,
1,0,0,-0.239966,0,0,
1,9,0,-0.125384,0,0,
1,8.99969,0.0153351,-0.125384,2.8257e-10,0,
1,8.99934,0.032734,-0.125384,1.3209e-08,0,
1,8.99894,0.0524925,-0.125384,1.82225e-07,0,
1,8.99848,0.0749238,-0.125384,1.33607e-06,0,
1,8.99797,0.10034,-0.125384,6.67993e-06,0,
1,8.99739,0.12894,-0.125384,2.52992e-05,0,
1,8.99672,0.160534,-0.125384,7.50269e-05,0,
1,8.99597,0.194194,-0.125384,0.000174673,0,
1,8.99512,0.228279,-0.125384,0.000322461,0,
1,8.99416,0.261132,-0.125383,0.00049012,0,
1,8.99306,0.291773,-0.125383,0.000648197,0,
1,8.99182,0.320017,-0.125383,0.000775982,0,
1,8.99041,0.346004,-0.125383,0.000881595,0,
1,8.98881,0.369897,-0.125382,0.000968926,0,
1,8.98699,0.391913,-0.125381,0.0010403,0,
1,8.98494,0.412347,-0.125381,0.00109611,0,
1,8.98261,0.431506,-0.12538,0.00113935,0,
1,8.97996,0.449626,-0.125379,0.00117558,0,
1,8.97696,0.466879,-0.125378,0.00120572,0,
1,8.97356,0.483406,-0.125376,0.00123103,0,
1,8.9697,0.499327,-0.125374,0.00125248,0,
1,8.96533,0.51474,-0.125372,0.00127079,0,
1,8.96038,0.529728,-0.12537,0.00128646,0,
1,8.95476,0.54436,-0.125368,0.00129987,0,
1,8.9484,0.558696,-0.125365,0.00131128,0,
1,8.9412,0.572788,-0.125362,0.00132084,0,
1,8.93303,0.586676,-0.125359,0.00132868,0,
1,8.92379,0.6004,-0.125355,0.00133482,0,
1,8.91333,0.61399,-0.125352,0.00133928,0,
1,8.90149,0.627475,-0.125348,0.00134203,0,
1,8.8881,0.640878,-0.125345,0.00134301,0,
1,8.87295,0.654221,-0.125341,0.00134214,0,
1,8.85584,0.667523,-0.125338,0.00133933,0,
1,8.83651,0.680804,-0.125336,0.00133447,0,
1,8.81469,0.694081,-0.125335,0.00132742,0,
1,8.79007,0.707372,-0.125335,0.00131804,0,
1,8.76232,0.7207,-0.125338,0.00130617,0,
1,8.73107,0.734087,-0.125344,0.00129161,0,
1,8.69591,0.747562,-0.125354,0.0012741,0,
1,8.6564,0.76116,-0.12537,0.00125335,0,
1,8.61206,0.774924,-0.125393,0.00122896,0,
1,8.56236,0.788905,-0.125427,0.0012005,0,
1,8.50675,0.803173,-0.125472,0.00116764,0,
1,8.44464,0.817818,-0.125534,0.00113132,0,
1,8.3754,0.83299,-0.125615,0.00109312,0,
1,8.29839,0.848996,-0.125721,0.00103176,0,
1,8.21296,0.866191,-0.125863,0.000953162,0,
1,8.11843,0.88481,-0.126041,0.000851732,0,
1,8.01417,0.90486,-0.126274,0.000723869,0,
1,7.89956,0.925903,-0.126555,0.000572948,0,
1,7.77403,0.946845,-0.126922,0.000416627,0,
1,7.63711,0.966112,-0.127364,0.000222127,0,
1,7.48842,0.981353,-0.127888,8.3979e-05,0,
1,7.32773,0.990511,-0.128517,2.08655e-05,0,
1,7.15495,0.99394,-0.12925,2.21702e-06,0,
1,6.97022,0.994089,-0.130101,3.58365e-08,0,
1,6.77388,0.993465,-0.131084,3.26406e-09,0,
1,6.56652,0.993317,-0.132218,9.84821e-09,0,
1,6.34896,0.993751,-0.133516,1.24395e-08,0,
1,6.12229,0.994473,-0.134994,1.40779e-08,0,
1,5.88784,0.995276,-0.136668,1.49894e-08,0,
1,5.64716,0.996117,-0.138553,1.60205e-08,0,
1,5.40194,0.997029,-0.140663,1.74551e-08,0,
1,5.15407,0.99804,-0.143009,1.92739e-08,0,
1,4.90545,0.999161,-0.145597,2.12654e-08,0,
1,4.65805,1.0004,-0.14843,2.34294e-08,0,
1,4.41376,1.00175,-0.151506,2.57303e-08,0,
1,4.17441,1.00319,-0.154819,2.79285e-08,0,
1,3.94163,1.00468,-0.158352,2.9899e-08,0,
1,3.7169,1.00617,-0.162086,3.22569e-08,0,
1,3.50146,1.00773,-0.165992,3.69906e-08,0,
1,3.29629,1.00968,-0.17004,4.61141e-08,0,
1,3.10217,1.01237,-0.174201,5.78908e-08,0,
1,2.91959,1.01563,-0.178447,1.08764e-07,0,
1,2.74885,1.01805,-0.182732,1.19508e-06,0,
1,2.59002,1.01725,-0.186985,-4.08555e-06,0,
1,2.44299,1.01153,-0.191135,-4.51452e-05,0,
1,2.30752,1.00101,-0.195096,-0.000135321,0,
1,2.18321,0.987057,-0.198806,-0.000262917,0,
1,2.06959,0.971233,-0.202278,-0.000365706,0,
1,1.9661,0.954837,-0.205472,-0.000459195,0,
1,1.87215,0.938829,-0.208358,-0.00054508,0,
1,1.78711,0.923727,-0.210961,-0.000619606,0,
1,1.71033,0.909682,-0.213293,-0.000682947,0,
1,1.64119,0.896652,-0.215375,-0.000736962,0,
1,1.57905,0.884517,-0.217224,-0.000784137,0,
1,1.52332,0.87314,-0.21886,-0.000826669,0,
1,1.47342,0.862404,-0.220304,-0.000866468,0,
1,1.42882,0.852212,-0.221574,-0.00090489,0,
1,1.389,0.842497,-0.222697,-0.000944106,0,
1,1.35351,0.833228,-0.223676,-0.00098054,0,
1,1.3219,0.824382,-0.224507,-0.000997765,0,
1,1.29378,0.81593,-0.225227,-0.00101328,0,
1,1.26878,0.807855,-0.225855,-0.0010268,0,
1,1.24659,0.800152,-0.226398,-0.00103834,0,
1,1.22689,0.792813,-0.22687,-0.00104786,0,
1,1.2092,0.78575,-0.227283,-0.00105444,0,
1,1.1932,0.778912,-0.227647,-0.00105911,0,
1,1.1787,0.772272,-0.227968,-0.00106367,0,
1,1.16554,0.765793,-0.228251,-0.00107106,0,
1,1.15357,0.759414,-0.2285,-0.00108613,0,
1,1.14266,0.753038,-0.22872,-0.00111674,0,
1,1.13268,0.746518,-0.228916,-0.00117353,0,
1,1.12354,0.739657,-0.229095,-0.00126992,0,
1,1.11514,0.732217,-0.229263,-0.00142034,0,
1,1.10739,0.723944,-0.229427,-0.00163777,0,
1,1.10022,0.714634,-0.229591,-0.00192996,0,
1,1.09357,0.704196,-0.229759,-0.00229648,0,
1,1.08738,0.692694,-0.229933,-0.00272722,0,
1,1.0816,0.680337,-0.230111,-0.00320358,0,
1,1.07618,0.667413,-0.230294,-0.00370313,0,
1,1.07107,0.654215,-0.230478,-0.00420485,0,
1,1.06626,0.64099,-0.230664,-0.00469239,0,
1,1.06169,0.627926,-0.23085,-0.00515493,0,
1,1.05735,0.61515,-0.231034,-0.00558637,0,
1,1.05321,0.60274,-0.231217,-0.00598407,0,
1,1.04925,0.590737,-0.231397,-0.00634769,0,
1,1.04544,0.579156,-0.231574,-0.0066783,0,
1,1.04177,0.567996,-0.231748,-0.00697765,0,
1,1.03822,0.557247,-0.231919,-0.00724786,0,
1,1.03478,0.54689,-0.232088,-0.00749118,0,
1,1.03144,0.536905,-0.232254,-0.00770977,0,
1,1.02818,0.527268,-0.232416,-0.0079057,0,
1,1.025,0.517958,-0.232577,-0.00808087,0,
1,1.02188,0.508953,-0.232735,-0.008237,0,
1,1.01882,0.500231,-0.232891,-0.00837582,0,
1,1.01581,0.491773,-0.233046,-0.00849928,0,
1,1.01284,0.483559,-0.233198,-0.00860703,0,
1,1.00988,0.475481,-0.233349,-0.0087017,0,
1,1.00688,0.467434,-0.233502,-0.00878588,0,
1,1.00384,0.459404,-0.233656,-0.00885925,0,
1,1.00076,0.45137,-0.233811,-0.00892171,0,
1,0.997615,0.443314,-0.233968,-0.00897366,0,
1,0.99441,0.435215,-0.234126,-0.0090152,0,
1,0.991131,0.42705,-0.234287,-0.00904629,0,
1,0.987768,0.418796,-0.23445,-0.00906681,0,
1,0.984308,0.410428,-0.234615,-0.00907651,0,
1,0.980739,0.401917,-0.234784,-0.00907502,0,
1,0.977045,0.393236,-0.234956,-0.00906183,0,
1,0.973211,0.384351,-0.235133,-0.00903628,0,
1,0.969219,0.375227,-0.235314,-0.00899755,0,
1,0.965047,0.365826,-0.235499,-0.0089446,0,
1,0.960675,0.356106,-0.235691,-0.00887619,0,
1,0.956077,0.346021,-0.235888,-0.00879081,0,
1,0.951224,0.33552,-0.236092,-0.00868668,0,
1,0.946088,0.324546,-0.236303,-0.00856137,0,
1,0.940633,0.313039,-0.236522,-0.00841221,0,
1,0.934823,0.300932,-0.23675,-0.00823647,0,
1,0.928616,0.288161,-0.236987,-0.00803087,0,
1,0.921967,0.27466,-0.237235,-0.00779175,0,
1,0.914826,0.260375,-0.237493,-0.00751522,0,
1,0.907141,0.245263,-0.237762,-0.00719905,0,
1,0.898852,0.229309,-0.238043,-0.00684082,0,
1,0.889898,0.212522,-0.238335,-0.00643744,0,
1,0.880212,0.194944,-0.238638,-0.00598806,0,
1,0.869723,0.176656,-0.238952,-0.00549392,0,
1,0.858358,0.157799,-0.239276,-0.00495924,0,
1,0.846039,0.138588,-0.239611,-0.00439247,0,
1,0.83269,0.119331,-0.239953,-0.00380724,0,
1,0.818232,0.10044,-0.240304,-0.00322737,0,
1,0.802744,0.0825718,-0.240648,-0.00268382,0,
1,0.78635,0.0663427,-0.240984,-0.00220248,0,
1,0.768969,0.0520162,-0.241298,-0.00180307,0,
1,0.75053,0.0396678,-0.241582,-0.00149393,0,
1,0.730977,0.0291454,-0.241824,-0.00127027,0,
1,0.710271,0.0201187,-0.242017,-0.001119,0,
1,0.688397,0.0121915,-0.242154,-0.00102356,0,
1,0.66536,0.00500441,-0.242243,-0.000966418,0,
1,0.641194,-0.00169716,-0.242276,-0.000938465,0,
1,0.615961,-0.00807424,-0.242266,-0.000929308,0,
1,0.589754,-0.0142669,-0.242229,-0.000921789,0,
1,0.562692,-0.0203804,-0.242163,-0.000912059,0,
1,0.534925,-0.0264561,-0.242079,-0.000896553,0,
1,0.506624,-0.0324882,-0.241973,-0.000873521,0,
1,0.477982,-0.0384427,-0.24185,-0.000842571,0,
1,0.449206,-0.0442719,-0.241709,-0.000804137,0,
1,0.420509,-0.049923,-0.241552,-0.000759095,0,
1,0.392107,-0.0553442,-0.241384,-0.000708529,0,
1,0.364206,-0.0604883,-0.241207,-0.000653615,0,
1,0.337003,-0.0653145,-0.241026,-0.000595547,0,
1,0.310673,-0.0697894,-0.240844,-0.000535498,0,
1,0.28537,-0.0738874,-0.240667,-0.000474578,0,
1,0.26122,-0.0775905,-0.240499,-0.000413804,0,
1,0.238324,-0.0808878,-0.240342,-0.000354076,0,
1,0.21675,-0.0837745,-0.2402,-0.000296151,0,
1,0.196544,-0.0862513,-0.240074,-0.000240644,0,
1,0.177724,-0.088323,-0.239966,-0.000188036,0,
1,0.160284,-0.0899972,-0.239876,-0.000138684,0,
1,0.144202,-0.0912835,-0.239804,-9.28288e-05,0,
1,0.129436,-0.0921927,-0.239748,-5.06153e-05,0,
1,0.115935,-0.0927351,-0.239709,-1.21082e-05,0,
1,0.103636,-0.0929206,-0.239683,2.26834e-05,0,
1,0.0924701,-0.0927574,-0.23967,5.37868e-05,0,
1,0.0823633,-0.0922518,-0.239667,8.12475e-05,0,
1,0.0732406,-0.0914072,-0.239673,0.00010511,0,
1,0.0650269,-0.0902241,-0.239687,0.000125405,0,
1,0.057648,-0.0886996,-0.239705,0.00014214,0,
1,0.0510323,-0.0868273,-0.239727,0.000155294,0,
1,0.0451115,-0.0845968,-0.239752,0.000164812,0,
1,0.0398209,-0.0819943,-0.239778,0.000170604,0,
1,0.0351001,-0.0790016,-0.239803,0.000172548,0,
1,0.0308929,-0.0755974,-0.239829,0.000170506,0,
1,0.0271475,-0.0717577,-0.239852,0.00016434,0,
1,0.0238164,-0.0674586,-0.239874,0.000153931,0,
1,0.0208562,-0.0626803,-0.239893,0.000139242,0,
1,0.0182274,-0.0574164,-0.23991,0.000120427,0,
1,0.0158944,-0.0516904,-0.239923,9.80864e-05,0,
1,0.0138249,-0.0455838,-0.239934,7.36742e-05,0,
1,0.0119898,-0.0392687,-0.239941,4.97981e-05,0,
1,0.0103632,-0.0330192,-0.239948,2.96781e-05,0,
1,0.00892169,-0.0271589,-0.23995,1.54944e-05,0,
1,0.00764438,-0.0219516,-0.239954,7.16299e-06,0,
1,0.00651264,-0.0175207,-0.239954,2.99284e-06,0,
1,0.00550983,-0.0138553,-0.239957,1.15139e-06,0,
1,0.00462115,-0.0108685,-0.239957,4.11683e-07,0,
1,0.00383341,-0.00845041,-0.239959,1.36546e-07,0,
1,0.0031349,-0.00649608,-0.239958,4.14675e-08,0,
1,0.00251518,-0.00491522,-0.239961,1.12415e-08,0,
1,0.00196502,-0.00363369,-0.239959,2.60671e-09,0,
1,0.00147619,-0.0025918,-0.239963,4.81002e-10,0,
1,0.00104139,-0.00174184,-0.23996,6.19718e-11,0,
1,0.000654158,-0.00104579,-0.239964,4.28387e-12,0,
1,0.000308731,-0.000473385,-0.23996,8.71247e-14,0,

4,0,0,-0.117918,0,0,
4,9,0,-0.0939191,0,0,
4,8.99969,0.014216,-0.0939188,2.21748e-10,0,
4,8.99934,0.0302883,-0.093919,1.02882e-08,0,
4,8.99894,0.0484778,-0.0939188,1.40488e-07,0,
4,8.9985,0.0690604,-0.093919,1.01978e-06,0,
4,8.99799,0.0923171,-0.0939187,5.0624e-06,0,
4,8.99742,0.118451,-0.0939189,1.91746e-05,0,
4,8.99677,0.14738,-0.0939187,5.75789e-05,0,
4,8.99605,0.178432,-0.0939187,0.000137708,0,
4,8.99522,0.210259,-0.0939185,0.000263561,0,
4,8.99429,0.24132,-0.0939184,0.00041515,0,
4,8.99324,0.270549,-0.0939181,0.000564582,0,
4,8.99205,0.297557,-0.0939179,0.000694195,0,
4,8.9907,0.322419,-0.0939174,0.000798218,0,
4,8.98919,0.34531,-0.093917,0.000885941,0,
4,8.98747,0.366418,-0.0939162,0.000958997,0,
4,8.98553,0.386015,-0.0939155,0.00101619,0,
4,8.98334,0.40438,-0.0939145,0.00106273,0,
4,8.98087,0.421728,-0.0939134,0.00110201,0,
4,8.97807,0.438227,-0.093912,0.00113544,0,
4,8.97491,0.454018,-0.0939104,0.0011643,0,
4,8.97134,0.46922,-0.0939084,0.0011896,0,
4,8.96731,0.483934,-0.0939062,0.00121204,0,
4,8.96276,0.498244,-0.0939036,0.00123217,0,
4,8.95762,0.512224,-0.0939005,0.00125036,0,
4,8.95182,0.525936,-0.093897,0.00126686,0,
4,8.94526,0.539433,-0.093893,0.00128182,0,
4,8.93787,0.552762,-0.0938883,0.00129533,0,
4,8.92952,0.565964,-0.0938834,0.00130739,0,
4,8.92011,0.579072,-0.0938778,0.00131795,0,
4,8.90949,0.592117,-0.0938717,0.00132692,0,
4,8.89751,0.605123,-0.093865,0.00133416,0,
4,8.88402,0.618113,-0.0938576,0.00133953,0,
4,8.86881,0.631104,-0.0938497,0.00134283,0,
4,8.85169,0.644112,-0.0938412,0.00134389,0,
4,8.83242,0.657149,-0.0938324,0.0013425,0,
4,8.81074,0.670227,-0.0938233,0.00133848,0,
4,8.78637,0.683358,-0.0938142,0.00133163,0,
4,8.75901,0.696554,-0.0938054,0.00132179,0,
4,8.7283,0.709827,-0.0937973,0.00130877,0,
4,8.69387,0.723196,-0.0937904,0.00129238,0,
4,8.65533,0.736683,-0.0937852,0.00127241,0,
4,8.61222,0.750317,-0.093783,0.0012486,0,
4,8.56407,0.764136,-0.0937843,0.00122058,0,
4,8.5104,0.778188,-0.0937912,0.00118782,0,
4,8.45065,0.792533,-0.093804,0.00114991,0,
4,8.38429,0.807248,-0.0938267,0.0011089,0,
4,8.31073,0.822491,-0.093861,0.00106381,0,
4,8.22941,0.838609,-0.0939118,0.000995206,0,
4,8.13974,0.856003,-0.0939826,0.000908026,0,
4,8.04115,0.874904,-0.0940721,0.000798136,0,
4,7.93313,0.895215,-0.0941857,0.000665511,0,
4,7.81519,0.916259,-0.0943137,0.000518714,0,
4,7.68693,0.936621,-0.0944786,0.000375764,0,
4,7.54803,0.954415,-0.0946609,0.000222653,0,
4,7.39831,0.967648,-0.0948771,9.95422e-05,0,
4,7.23771,0.975289,-0.0951428,3.13952e-05,0,
4,7.06634,0.978181,-0.0954463,5.27428e-06,0,
4,6.88453,0.978376,-0.0957885,-8.49309e-08,0,
4,6.69275,0.977778,-0.0961685,-1.78917e-07,0,
4,6.49173,0.977378,-0.0965918,-5.23159e-09,0,
4,6.28238,0.977366,-0.0970649,1.73032e-08,0,
4,6.06579,0.977584,-0.0975925,1.08838e-08,0,
4,5.84328,0.977869,-0.0981783,7.00926e-09,0,
4,5.61626,0.978153,-0.0988243,5.78749e-09,0,
4,5.3863,0.978431,-0.0995318,5.62244e-09,0,
4,5.15502,0.97872,-0.100301,5.88778e-09,0,
4,4.92406,0.97903,-0.101131,6.36995e-09,0,
4,4.69507,0.979374,-0.102019,6.96819e-09,0,
4,4.46961,0.979753,-0.10296,7.53352e-09,0,
4,4.24915,0.980149,-0.10395,7.75569e-09,0,
4,4.03501,0.980509,-0.104982,7.34797e-09,0,
4,3.82836,0.980764,-0.106046,6.53424e-09,0,
4,3.63018,0.980913,-0.107132,6.62725e-09,0,
4,3.44125,0.981125,-0.108231,1.02055e-08,0,
4,3.26217,0.981747,-0.109331,4.03452e-08,0,
4,3.09333,0.983078,-0.110423,3.77546e-07,0,
4,2.93497,0.984979,-0.111492,1.80554e-06,0,
4,2.78715,0.986677,-0.112529,3.2099e-06,0,
4,2.64979,0.987052,-0.113524,-2.04121e-06,0,
4,2.52268,0.985183,-0.114466,-2.31155e-05,0,
4,2.40551,0.980698,-0.115347,-6.54394e-05,0,
4,2.29789,0.973781,-0.116159,-0.000128443,0,
4,2.19939,0.964968,-0.116898,-0.000206973,0,
4,2.10949,0.954921,-0.117562,-0.000293406,0,
4,2.02768,0.944279,-0.118155,-0.000379524,0,
4,1.95343,0.933585,-0.118679,-0.000458756,0,
4,1.88618,0.923216,-0.119146,-0.000528836,0,
4,1.82542,0.913332,-0.119563,-0.000573641,0,
4,1.77062,0.903986,-0.119925,-0.00061421,0,
4,1.72128,0.895247,-0.120243,-0.000650875,0,
4,1.67693,0.887155,-0.120518,-0.000683816,0,
4,1.63713,0.879717,-0.120759,-0.000713248,0,
4,1.60144,0.872921,-0.120968,-0.000739536,0,
4,1.56949,0.866739,-0.121151,-0.000763083,0,
4,1.54091,0.861134,-0.121311,-0.000784325,0,
4,1.51537,0.856046,-0.12145,-0.000803754,0,
4,1.49167,0.851272,-0.121575,-0.000822059,0,
4,1.46926,0.846728,-0.12169,-0.00083951,0,
4,1.44801,0.842409,-0.121795,-0.000856237,0,
4,1.42781,0.838312,-0.121889,-0.000872246,0,
4,1.40855,0.834404,-0.121987,-0.000883977,0,
4,1.39015,0.830634,-0.122089,-0.00088822,0,
4,1.37252,0.826965,-0.122181,-0.000894114,0,
4,1.3556,0.823378,-0.122271,-0.000899644,0,
4,1.3393,0.819857,-0.122356,-0.000905494,0,
4,1.32357,0.816383,-0.122438,-0.000912561,0,
4,1.30836,0.812935,-0.122517,-0.000921724,0,
4,1.29362,0.80949,-0.122592,-0.000934148,0,
4,1.2793,0.80602,-0.122665,-0.00095125,0,
4,1.26537,0.802494,-0.122736,-0.000974738,0,
4,1.25179,0.798873,-0.122804,-0.00100662,0,
4,1.23852,0.795114,-0.12287,-0.00104919,0,
4,1.22554,0.791166,-0.122934,-0.00110502,0,
4,1.21282,0.786974,-0.122996,-0.00117686,0,
4,1.20034,0.782477,-0.123055,-0.0012675,0,
4,1.18806,0.777612,-0.123113,-0.00137953,0,
4,1.17599,0.77232,-0.123167,-0.0015151,0,
4,1.16408,0.766551,-0.123219,-0.00167555,0,
4,1.15233,0.760269,-0.123269,-0.00186118,0,
4,1.14073,0.753454,-0.123316,-0.00207107,0,
4,1.12925,0.746111,-0.12336,-0.00230303,0,
4,1.11788,0.73826,-0.123402,-0.00255379,0,
4,1.10661,0.72994,-0.123442,-0.00281929,0,
4,1.09543,0.7212,-0.12348,-0.00309503,0,
4,1.08432,0.712096,-0.123517,-0.00337643,0,
4,1.07328,0.702684,-0.123553,-0.00365908,0,
4,1.0623,0.693021,-0.123587,-0.003939,0,
4,1.05136,0.683159,-0.12362,-0.00421268,0,
4,1.04044,0.673128,-0.123653,-0.00447726,0,
4,1.0295,0.662953,-0.123685,-0.00473056,0,
4,1.01855,0.652669,-0.123716,-0.00497041,0,
4,1.00757,0.64231,-0.123746,-0.00519477,0,
4,0.996544,0.631901,-0.123775,-0.00540212,0,
4,0.98547,0.621468,-0.123806,-0.00560572,0,
4,0.974334,0.610977,-0.123822,-0.00578421,0,
4,0.963124,0.600321,-0.123819,-0.00594154,0,
4,0.951826,0.589404,-0.123809,-0.00610432,0,
4,0.940428,0.578167,-0.123798,-0.00627321,0,
4,0.928915,0.566567,-0.123786,-0.00644916,0,
4,0.917272,0.55457,-0.123776,-0.0066329,0,
4,0.905481,0.542146,-0.123768,-0.00682495,0,
4,0.893524,0.529267,-0.123762,-0.00702563,0,
4,0.881383,0.515904,-0.123758,-0.00723511,0,
4,0.869035,0.502031,-0.123757,-0.00745334,0,
4,0.856459,0.487621,-0.123759,-0.00768006,0,
4,0.843629,0.472649,-0.123764,-0.00791477,0,
4,0.830518,0.457092,-0.123773,-0.00815663,0,
4,0.817097,0.440931,-0.123785,-0.00840445,0,
4,0.803334,0.424153,-0.123802,-0.0086566,0,
4,0.789195,0.406757,-0.123823,-0.00891092,0,
4,0.774643,0.388756,-0.123848,-0.00916465,0,
4,0.759639,0.370182,-0.123878,-0.00941437,0,
4,0.744138,0.351092,-0.123914,-0.00965598,0,
4,0.728096,0.331559,-0.123956,-0.0098847,0,
4,0.711463,0.311671,-0.124003,-0.0100945,0,
4,0.694189,0.291515,-0.124056,-0.0102789,0,
4,0.676218,0.271167,-0.124112,-0.0104321,0,
4,0.657495,0.250684,-0.124171,-0.01055,0,
4,0.637962,0.230102,-0.124232,-0.0106292,0,
4,0.617561,0.209424,-0.124286,-0.0106676,0,
4,0.596848,0.189194,-0.124326,-0.0106624,0,
4,0.576557,0.170043,-0.12435,-0.0106151,0,
4,0.556564,0.151799,-0.124359,-0.0105287,0,
4,0.536763,0.134349,-0.124367,-0.0104048,0,
4,0.517057,0.117686,-0.124408,-0.0102457,0,
4,0.497368,0.101929,-0.124531,-0.0100566,0,
4,0.477632,0.0872975,-0.12479,-0.00984667,0,
4,0.457804,0.0739838,-0.125203,-0.00962938,0,
4,0.437857,0.0619644,-0.125649,-0.0094158,0,
4,0.417786,0.0508191,-0.125667,-0.00899375,0,
4,0.397605,0.0400745,-0.125373,-0.00852581,0,
4,0.377348,0.0295647,-0.125139,-0.00812627,0,
4,0.357066,0.019324,-0.124889,-0.00771803,0,
4,0.336828,0.00939456,-0.124627,-0.00730367,0,
4,0.316717,-0.000182888,-0.124354,-0.0068851,0,
4,0.296825,-0.00937752,-0.124071,-0.00646145,0,
4,0.27725,-0.0181673,-0.123779,-0.00603658,0,
4,0.258095,-0.0265301,-0.123476,-0.00561612,0,
4,0.239458,-0.0344434,-0.123165,-0.00520277,0,
4,0.221432,-0.0418894,-0.122846,-0.00479861,0,
4,0.2041,-0.0488582,-0.122523,-0.00440591,0,
4,0.187537,-0.0553486,-0.122197,-0.00402694,0,
4,0.171798,-0.0613661,-0.121872,-0.00366371,0,
4,0.156928,-0.0669226,-0.12155,-0.00331785,0,
4,0.142956,-0.0720343,-0.121234,-0.0029906,0,
4,0.129894,-0.0767206,-0.120927,-0.00268279,0,
4,0.117744,-0.0810031,-0.120632,-0.00239488,0,
4,0.106492,-0.0849043,-0.12035,-0.00212695,0,
4,0.0961173,-0.0884469,-0.120085,-0.00187878,0,
4,0.0865883,-0.0916536,-0.119837,-0.00164989,0,
4,0.0778675,-0.0945459,-0.119607,-0.0014396,0,
4,0.0699123,-0.0971442,-0.119396,-0.00124706,0,
4,0.062677,-0.0994675,-0.119203,-0.00107133,0,
4,0.056114,-0.101533,-0.119029,-0.000911367,0,
4,0.0501747,-0.103356,-0.118873,-0.000766119,0,
4,0.0448114,-0.104951,-0.118734,-0.000634515,0,
4,0.039977,-0.106328,-0.11861,-0.000515504,0,
4,0.0356266,-0.107497,-0.118502,-0.000408072,0,
4,0.0317171,-0.108465,-0.118406,-0.000311257,0,
4,0.0282081,-0.109236,-0.118323,-0.000224161,0,
4,0.0250617,-0.109809,-0.118251,-0.000145964,0,
4,0.0222427,-0.110183,-0.118189,-7.59337e-05,0,
4,0.0197189,-0.110348,-0.118137,-1.34447e-05,0,
4,0.0174603,-0.11029,-0.118092,4.19994e-05,0,
4,0.0154398,-0.109983,-0.118054,9.07248e-05,0,
4,0.0136326,-0.109389,-0.118022,0.000132818,0,
4,0.0120162,-0.108453,-0.117996,0.000168008,0,
4,0.0105703,-0.107089,-0.117975,0.000195461,0,
4,0.00927657,-0.105173,-0.117959,0.00021348,0,
4,0.00811839,-0.102525,-0.117946,0.000219198,0,
4,0.0070809,-0.0988986,-0.117937,0.000208809,0,
4,0.0061507,-0.0940122,-0.11793,0.000179687,0,
4,0.00531578,-0.0876541,-0.117927,0.000135026,0,
4,0.00456537,-0.0798745,-0.117924,8.62937e-05,0,
4,0.00388979,-0.0710806,-0.117924,4.66384e-05,0,
4,0.00328037,-0.0618568,-0.117922,2.15791e-05,0,
4,0.00272934,-0.0526885,-0.117922,8.66284e-06,0,
4,0.0022297,-0.0438538,-0.11792,3.01146e-06,0,
4,0.00177519,-0.0354667,-0.117922,8.81968e-07,0,
4,0.00136016,-0.0275506,-0.11792,2.04103e-07,0,
4,0.000979511,-0.0200864,-0.117922,3.28464e-08,0,
4,0.00062865,-0.013037,-0.117919,2.81542e-09,0,
4,0.000303409,-0.00635794,-0.117922,6.88929e-11,0,

6,0,0,-0.00527095,0,0,
6,9,0,-0.0701546,0,0,
6,8.99969,0.0135071,-0.0701543,1.85865e-10,0,
6,8.99934,0.0287384,-0.0701545,8.57777e-09,0,
6,8.99895,0.0459313,-0.0701543,1.16291e-07,0,
6,8.9985,0.0653363,-0.0701545,8.38062e-07,0,
6,8.99801,0.0872115,-0.0701543,4.13723e-06,0,
6,8.99744,0.111757,-0.0701544,1.56518e-05,0,
6,8.99681,0.138944,-0.0701542,4.73184e-05,0,
6,8.99609,0.168251,-0.0701542,0.000115078,0,
6,8.99529,0.198529,-0.0701541,0.000225653,0,
6,8.99438,0.228347,-0.070154,0.000364607,0,
6,8.99336,0.256607,-0.0701538,0.000506465,0,
6,8.9922,0.282808,-0.0701536,0.000633856,0,
6,8.9909,0.306948,-0.0701532,0.00073709,0,
6,8.98944,0.329187,-0.0701529,0.000823855,0,
6,8.98779,0.349695,-0.0701523,0.00089685,0,
6,8.98593,0.368723,-0.0701517,0.000954511,0,
6,8.98383,0.386529,-0.0701509,0.00100197,0,
6,8.98147,0.403317,-0.07015,0.00104216,0,
6,8.97881,0.419255,-0.0701489,0.0010766,0,
6,8.97581,0.43448,-0.0701475,0.00110663,0,
6,8.97244,0.449113,-0.0701459,0.00113326,0,
6,8.96863,0.463253,-0.070144,0.00115726,0,
6,8.96435,0.476986,-0.0701417,0.00117918,0,
6,8.95953,0.490387,-0.070139,0.00119943,0,
6,8.95409,0.503521,-0.0701358,0.0012183,0,
6,8.94798,0.516444,-0.0701321,0.00123599,0,
6,8.94109,0.529205,-0.0701278,0.00125258,0,
6,8.93334,0.541849,-0.0701229,0.00126809,0,
6,8.92463,0.554413,-0.0701174,0.0012825,0,
6,8.91482,0.566931,-0.0701112,0.00129569,0,
6,8.90379,0.579434,-0.070104,0.00130752,0,
6,8.89139,0.591946,-0.0700959,0.00131779,0,
6,8.87746,0.604489,-0.0700868,0.00132626,0,
6,8.86181,0.617081,-0.0700765,0.00133268,0,
6,8.84423,0.629737,-0.0700651,0.00133676,0,
6,8.82452,0.642468,-0.0700524,0.00133822,0,
6,8.80241,0.655285,-0.0700383,0.00133677,0,
6,8.77763,0.668196,-0.0700229,0.00133214,0,
6,8.74989,0.681207,-0.070006,0.00132407,0,
6,8.71885,0.694328,-0.0699876,0.00131233,0,
6,8.68417,0.707568,-0.0699677,0.00129669,0,
6,8.64545,0.720942,-0.0699463,0.00127692,0,
6,8.60229,0.73447,-0.0699234,0.00125276,0,
6,8.55423,0.748177,-0.0698988,0.00122383,0,
6,8.50082,0.762097,-0.069873,0.00118963,0,
6,8.44155,0.776271,-0.069845,0.00114977,0,
6,8.37592,0.790753,-0.069816,0.00110663,0,
6,8.30339,0.805682,-0.0697882,0.00105769,0,
6,8.22344,0.82137,-0.0697614,0.0009921,0,
6,8.13555,0.838226,-0.0697358,0.000910892,0,
6,8.0392,0.856576,-0.0697044,0.000810071,0,
6,7.93391,0.87646,-0.0696671,0.000688931,0,
6,7.81927,0.897331,-0.0696103,0.000553174,0,
6,7.6949,0.917851,-0.0695401,0.000418433,0,
6,7.56054,0.936187,-0.0694423,0.000295031,0,
6,7.41603,0.950658,-0.0693213,0.000154526,0,
6,7.26132,0.960153,-0.0691848,6.26134e-05,0,
6,7.09653,0.964807,-0.0690179,1.64423e-05,0,
6,6.92195,0.966033,-0.0688221,9.57348e-07,0,
6,6.73802,0.965616,-0.068589,-1.24301e-06,0,
6,6.5454,0.964854,-0.0683142,-6.21737e-07,0,
6,6.34489,0.964294,-0.0679928,-1.90868e-07,0,
6,6.1375,0.963976,-0.0676203,-5.69554e-08,0,
6,5.92439,0.963765,-0.0671913,-2.22545e-08,0,
6,5.70687,0.963546,-0.0667001,-1.21232e-08,0,
6,5.48633,0.963274,-0.0661409,-8.89359e-09,0,
6,5.26426,0.962942,-0.0655081,-8.1631e-09,0,
6,5.04218,0.96256,-0.0647964,-8.41714e-09,0,
6,4.82159,0.962142,-0.0640013,-9.04159e-09,0,
6,4.60398,0.961699,-0.0631196,-9.84399e-09,0,
6,4.39071,0.961231,-0.0621493,-1.09406e-08,0,
6,4.18307,0.96071,-0.0610905,-1.2634e-08,0,
6,3.98218,0.960077,-0.0599451,-1.51591e-08,0,
6,3.78902,0.959276,-0.0587177,-1.82265e-08,0,
6,3.60438,0.958328,-0.0574152,-2.29928e-08,0,
6,3.42888,0.957394,-0.0560466,-4.74183e-08,0,
6,3.26296,0.956755,-0.0546223,-1.33085e-07,0,
6,3.10691,0.956655,-0.0531525,-2.43442e-07,0,
6,2.96084,0.957097,-0.0516482,-2.55649e-07,0,
6,2.82473,0.957743,-0.0501218,-7.676e-07,0,
6,2.69844,0.95801,-0.0485884,-4.27384e-06,0,
6,2.58172,0.957303,-0.0470649,-1.47746e-05,0,
6,2.47424,0.955214,-0.0455689,-3.58177e-05,0,
6,2.37559,0.951612,-0.0441166,-6.88948e-05,0,
6,2.28535,0.946604,-0.0427221,-0.000113234,0,
6,2.20301,0.940457,-0.041396,-0.0001664,0,
6,2.1281,0.933509,-0.0401465,-0.000224975,0,
6,2.06009,0.926108,-0.0389767,-0.000284953,0,
6,1.99849,0.918583,-0.0378915,-0.000342179,0,
6,1.9428,0.911212,-0.0368852,-0.000394188,0,
6,1.89255,0.904167,-0.0359641,-0.0004391,0,
6,1.84728,0.897482,-0.035125,-0.000468847,0,
6,1.80655,0.891163,-0.0343551,-0.000496302,0,
6,1.76996,0.885249,-0.0336556,-0.000521706,0,
6,1.73712,0.879764,-0.0330203,-0.000545133,0,
6,1.70768,0.874683,-0.0324438,-0.000566806,0,
6,1.67998,0.869779,-0.0318988,-0.000587843,0,
6,1.65329,0.864957,-0.0313687,-0.000608444,0,
6,1.62754,0.860214,-0.0308533,-0.000628535,0,
6,1.60265,0.855548,-0.0303511,-0.000648205,0,
6,1.57854,0.850959,-0.0298615,-0.000667462,0,
6,1.55515,0.846446,-0.0293833,-0.000686286,0,
6,1.53242,0.842006,-0.0289157,-0.000704722,0,
6,1.5103,0.837638,-0.028458,-0.000722797,0,
6,1.48874,0.833336,-0.0280096,-0.000740503,0,
6,1.46769,0.829088,-0.02757,-0.00075783,0,
6,1.44712,0.824875,-0.0271386,-0.000774887,0,
6,1.42698,0.820678,-0.0267148,-0.00079214,0,
6,1.40725,0.816488,-0.0262967,-0.000810219,0,
6,1.38788,0.81232,-0.0258833,-0.000829571,0,
6,1.36886,0.80822,-0.0254717,-0.000850763,0,
6,1.35015,0.804244,-0.0250632,-0.000873922,0,
6,1.33173,0.800417,-0.0246547,-0.000897989,0,
6,1.31357,0.796685,-0.0242623,-0.000916278,0,
6,1.29566,0.79295,-0.0238813,-0.000928373,0,
6,1.27797,0.789145,-0.0234976,-0.000949529,0,
6,1.26048,0.785238,-0.0231199,-0.000976314,0,
6,1.24318,0.781195,-0.0227444,-0.00101033,0,
6,1.22605,0.776973,-0.0223724,-0.00105357,0,
6,1.20907,0.772522,-0.0220033,-0.00110825,0,
6,1.19223,0.767788,-0.0216372,-0.0011767,0,
6,1.17551,0.762713,-0.0212741,-0.00126118,0,
6,1.1589,0.757241,-0.0209138,-0.00136365,0,
6,1.14238,0.751318,-0.0205572,-0.00148556,0,
6,1.12595,0.744903,-0.0202042,-0.00162754,0,
6,1.10959,0.73797,-0.0198551,-0.00178923,0,
6,1.09329,0.730512,-0.01951,-0.00196922,0,
6,1.07704,0.72254,-0.0191692,-0.00216511,0,
6,1.06081,0.714077,-0.0188328,-0.00237369,0,
6,1.04459,0.70516,-0.0185011,-0.00259132,0,
6,1.02836,0.695837,-0.0181735,-0.00281421,0,
6,1.01211,0.686163,-0.0178518,-0.00304358,0,
6,0.99583,0.676158,-0.0175313,-0.00327119,0,
6,0.97951,0.665788,-0.0172101,-0.00349616,0,
6,0.963136,0.655002,-0.0168924,-0.00372779,0,
6,0.946694,0.64376,-0.0165787,-0.00396764,0,
6,0.930172,0.632022,-0.0162701,-0.00421693,0,
6,0.913555,0.619743,-0.0159668,-0.00447672,0,
6,0.896829,0.606878,-0.0156694,-0.00474781,0,
6,0.879979,0.593381,-0.0153783,-0.00503082,0,
6,0.862989,0.579225,-0.0150943,-0.00532621,0,
6,0.845842,0.564414,-0.0148193,-0.00563452,0,
6,0.828521,0.548988,-0.0145552,-0.00595676,0,
6,0.811008,0.533008,-0.0143029,-0.00628495,0,
6,0.793282,0.516522,-0.0140624,-0.00661411,0,
6,0.775322,0.499575,-0.0138346,-0.00694056,0,
6,0.757107,0.482213,-0.013621,-0.00726035,0,
6,0.738612,0.464494,-0.0134238,-0.00756923,0,
6,0.719813,0.446491,-0.0132454,-0.00786258,0,
6,0.700681,0.428297,-0.0130875,-0.00813546,0,
6,0.681188,0.410007,-0.0129495,-0.00838262,0,
6,0.661304,0.3917,-0.0128265,-0.00859847,0,
6,0.640996,0.373422,-0.01271,-0.00877746,0,
6,0.620228,0.355183,-0.0125911,-0.0089149,0,
6,0.598964,0.336982,-0.0124691,-0.0090069,0,
6,0.577166,0.318867,-0.0123617,-0.00905086,0,
6,0.554791,0.301019,-0.0123147,-0.00904744,0,
6,0.531799,0.283789,-0.0124005,-0.0090028,0,
6,0.508144,0.267615,-0.0126736,-0.00892894,0,
6,0.48378,0.25274,-0.013114,-0.00883345,0,
6,0.459585,0.239371,-0.0131805,-0.00854611,0,
6,0.436695,0.227483,-0.0129284,-0.00814318,0,
6,0.414961,0.216627,-0.0127384,-0.00781324,0,
6,0.394252,0.206633,-0.0125276,-0.00748416,0,
6,0.374445,0.197371,-0.0123094,-0.00715703,0,
6,0.355433,0.188741,-0.0120903,-0.00683474,0,
6,0.337122,0.180663,-0.0118692,-0.00651617,0,
6,0.319433,0.173072,-0.0116445,-0.00620121,0,
6,0.3023,0.165912,-0.0114153,-0.00589004,0,
6,0.28567,0.159136,-0.0111807,-0.00558288,0,
6,0.269507,0.152708,-0.0109401,-0.00528001,0,
6,0.253785,0.146598,-0.0106933,-0.00498179,0,
6,0.238493,0.140782,-0.0104402,-0.00468875,0,
6,0.223631,0.135242,-0.0101812,-0.00440153,0,
6,0.209207,0.129964,-0.009917,-0.00412087,0,
6,0.195237,0.124938,-0.00964849,-0.00384761,0,
6,0.181744,0.120153,-0.00937706,-0.00358263,0,
6,0.168754,0.115603,-0.00910434,-0.00332683,0,
6,0.156292,0.111282,-0.00883217,-0.00308106,0,
6,0.144384,0.107183,-0.00856258,-0.00284608,0,
6,0.133052,0.1033,-0.00829764,-0.00262257,0,
6,0.122315,0.0996259,-0.00803942,-0.00241103,0,
6,0.112183,0.0961535,-0.00778986,-0.00221184,0,
6,0.102665,0.0928745,-0.00755069,-0.00202519,0,
6,0.0937597,0.0897802,-0.0073234,-0.0018511,0,
6,0.0854609,0.0868613,-0.00710918,-0.00168945,0,
6,0.077757,0.0841077,-0.00690887,-0.00153998,0,
6,0.0706309,0.0815093,-0.006723,-0.0014023,0,
6,0.0640611,0.0790556,-0.00655178,-0.00127593,0,
6,0.0580229,0.0767358,-0.00639515,-0.00116031,0,
6,0.0524888,0.074539,-0.00625278,-0.00105484,0,
6,0.0474296,0.0724546,-0.00612417,-0.00095885,0,
6,0.042815,0.0704715,-0.00600867,-0.000871689,0,
6,0.0386145,0.0685789,-0.00590547,-0.000792686,0,
6,0.0347975,0.0667659,-0.00581377,-0.000721177,0,
6,0.0313344,0.0650215,-0.00573264,-0.000656518,0,
6,0.0281964,0.0633345,-0.00566125,-0.000598084,0,
6,0.0253561,0.0616933,-0.00559866,-0.000545273,0,
6,0.0227875,0.0600858,-0.00554413,-0.000497511,0,
6,0.0204662,0.058499,-0.00549672,-0.000454242,0,
6,0.0183694,0.0569185,-0.00545592,-0.000414929,0,
6,0.016476,0.0553282,-0.0054207,-0.000379038,0,
6,0.0147664,0.0537095,-0.00539095,-0.000346031,0,
6,0.0132228,0.0520398,-0.00536542,-0.000315338,0,
6,0.0118288,0.050292,-0.00534453,-0.000286327,0,
6,0.0105693,0.0484318,-0.00532665,-0.000258265,0,
6,0.00943073,0.0464166,-0.00531288,-0.000230275,0,
6,0.00840063,0.0441938,-0.00530106,-0.00020133,0,
6,0.00746774,0.0417023,-0.00529302,-0.0001704,0,
6,0.00662185,0.0388824,-0.00528591,-0.000136957,0,
6,0.00585371,0.0356999,-0.0052823,-0.000101955,0,
6,0.00515491,0.032186,-0.00527847,-6.85418e-05,0,
6,0.00451788,0.0284641,-0.00527771,-4.09502e-05,0,
6,0.00393573,0.0247213,-0.0052755,-2.17207e-05,0,
6,0.00340221,0.0211328,-0.00527609,-1.03277e-05,0,
6,0.00291168,0.0178052,-0.00527425,-4.44267e-06,0,
6,0.00245897,0.0147757,-0.00527545,-1.72748e-06,0,
6,0.00203939,0.0120367,-0.00527342,-5.97142e-07,0,
6,0.00164864,0.00956049,-0.00527511,-1.76715e-07,0,
6,0.00128281,0.00731334,-0.00527265,-4.1736e-08,0,
6,0.000938257,0.0052621,-0.00527493,-6.89473e-09,0,
6,0.000611645,0.00337667,-0.00527185,-6.06791e-10,0,
6,0.000299862,0.00163055,-0.00527489,-1.49868e-11,0,

10,0.000296632,0.00887378,0.0266092,-5.51775e-11,0,
10,0.000596102,0.0178292,0.0266098,-2.04485e-09,0,
10,0.000900397,0.0269257,0.0266092,-2.07889e-08,0,
10,0.00121153,0.0362227,0.0266096,-1.11693e-07,0,
10,0.00153158,0.04578,0.0266091,-4.17625e-07,0,
10,0.00186264,0.0556558,0.0266095,-1.2407e-06,0,
10,0.00220692,0.0659042,0.0266091,-3.14482e-06,0,
10,0.00256668,0.0765695,0.0266094,-7.08443e-06,0,
10,0.00294431,0.0876781,0.026609,-1.45254e-05,0,
10,0.00334229,0.0992255,0.0266092,-2.74703e-05,0,
10,0.00376326,0.111162,0.0266089,-4.82437e-05,0,
10,0.00421,0.123381,0.026609,-7.8915e-05,0,
10,0.00468544,0.135716,0.0266086,-0.000120444,0,
10,0.00519274,0.14796,0.0266086,-0.000171977,0,
10,0.00573524,0.159896,0.0266081,-0.00023082,0,
10,0.00631651,0.171328,0.0266079,-0.000293214,0,
10,0.00694041,0.182114,0.0266071,-0.000355425,0,
10,0.00761104,0.192166,0.0266065,-0.000414546,0,
10,0.00833284,0.20145,0.0266053,-0.000468773,0,
10,0.00911058,0.209973,0.0266042,-0.000517289,0,
10,0.0099494,0.217768,0.0266024,-0.000560007,0,
10,0.0108548,0.224887,0.0266004,-0.000597299,0,
10,0.0118329,0.23139,0.0265977,-0.000629791,0,
10,0.0128901,0.237342,0.0265947,-0.000658219,0,
10,0.0140333,0.242804,0.0265908,-0.000683337,0,
10,0.0152702,0.247836,0.0265863,-0.000705865,0,
10,0.0166089,0.252491,0.0265809,-0.000726461,0,
10,0.0180584,0.256819,0.0265746,-0.000745711,0,
10,0.0196282,0.260862,0.0265672,-0.000764134,0,
10,0.0213288,0.264659,0.0265587,-0.000782185,0,
10,0.0231714,0.268244,0.0265489,-0.000800269,0,
10,0.0251682,0.271647,0.0265377,-0.000818746,0,
10,0.0273326,0.274894,0.0265248,-0.000837946,0,
10,0.0296789,0.278009,0.0265103,-0.000858175,0,
10,0.0322227,0.281013,0.0264937,-0.000879726,0,
10,0.0349809,0.283924,0.0264751,-0.000902879,0,
10,0.0379719,0.28676,0.0264542,-0.000927917,0,
10,0.0412155,0.289537,0.0264308,-0.000955121,0,
10,0.0447333,0.292269,0.0264046,-0.000984781,0,
10,0.0485489,0.294971,0.0263754,-0.0010172,0,
10,0.0526875,0.297655,0.026343,-0.00105269,0,
10,0.0571768,0.300335,0.026307,-0.00109159,0,
10,0.0620466,0.303024,0.0262673,-0.00113424,0,
10,0.0673295,0.305734,0.0262235,-0.00118104,0,
10,0.0730607,0.308479,0.0261753,-0.00123238,0,
10,0.0792784,0.311272,0.0261224,-0.0012887,0,
10,0.0860241,0.314128,0.0260646,-0.00135045,0,
10,0.0933428,0.317062,0.0260015,-0.00141815,0,
10,0.101283,0.320089,0.0259329,-0.00149232,0,
10,0.109899,0.323228,0.0258586,-0.00157353,0,
10,0.119247,0.326498,0.0257783,-0.00166239,0,
10,0.12939,0.329919,0.0256918,-0.00175952,0,
10,0.140395,0.333517,0.0255991,-0.0018656,0,
10,0.152337,0.337317,0.0254999,-0.00198132,0,
10,0.165296,0.341349,0.0253943,-0.00210741,0,
10,0.179357,0.345647,0.0252823,-0.00224457,0,
10,0.194615,0.35025,0.025164,-0.00239351,0,
10,0.211171,0.355203,0.0250397,-0.00255491,0,
10,0.229138,0.360556,0.0249093,-0.00272937,0,
10,0.248635,0.366368,0.0247735,-0.00291737,0,
10,0.269793,0.372706,0.0246317,-0.00311921,0,
10,0.292753,0.379648,0.024486,-0.00333491,0,
10,0.317669,0.387285,0.0243329,-0.00356297,0,
10,0.344708,0.395715,0.0241777,-0.00380138,0,
10,0.372405,0.404532,0.0240264,-0.00403872,0,
10,0.399623,0.413394,0.0238821,-0.00426382,0,
10,0.426397,0.422309,0.0237456,-0.00447491,0,
10,0.452757,0.431288,0.0236167,-0.0046719,0,
10,0.478735,0.44035,0.0234979,-0.00485316,0,
10,0.504358,0.449521,0.0233898,-0.00501774,0,
10,0.529657,0.458831,0.0232944,-0.00516349,0,
10,0.554656,0.468313,0.0232074,-0.00528945,0,
10,0.579382,0.477994,0.0231329,-0.00539596,0,
10,0.603859,0.487895,0.0230473,-0.00552722,0,
10,0.628112,0.498195,0.0230352,-0.00558837,0,
10,0.652163,0.509273,0.0231075,-0.00554598,0,
10,0.676035,0.521371,0.0231459,-0.00548187,0,
10,0.699751,0.534397,0.0231388,-0.00539269,0,
10,0.72333,0.548085,0.0230855,-0.00527529,0,
10,0.746795,0.562154,0.0230029,-0.00512907,0,
10,0.770165,0.576395,0.0229022,-0.00495603,0,
10,0.79346,0.590684,0.0227914,-0.00475944,0,
10,0.816699,0.604951,0.0226727,-0.00454292,0,
10,0.839903,0.619134,0.0225463,-0.00431026,0,
10,0.863088,0.633161,0.0224105,-0.00406545,0,
10,0.886275,0.646931,0.0222646,-0.003813,0,
10,0.909481,0.660313,0.022106,-0.00356248,0,
10,0.932723,0.673171,0.0219347,-0.00332015,0,
10,0.956021,0.685421,0.0217549,-0.00308594,0,
10,0.97939,0.697047,0.0215688,-0.00286023,0,
10,1.00285,0.708079,0.0213775,-0.00264369,0,
10,1.02641,0.718555,0.0211811,-0.00243689,0,
10,1.0501,0.728513,0.0209789,-0.00224032,0,
10,1.07392,0.737977,0.0207713,-0.00205432,0,
10,1.0979,0.746972,0.020557,-0.00187915,0,
10,1.12205,0.755527,0.0203391,-0.00171174,0,
10,1.14639,0.763656,0.0201155,-0.00155467,0,
10,1.17093,0.771349,0.0198825,-0.0014122,0,
10,1.19568,0.778591,0.0196424,-0.00128454,0,
10,1.22066,0.785389,0.0193936,-0.00117305,0,
10,1.24589,0.791771,0.0191383,-0.00107965,0,
10,1.27137,0.797803,0.0188756,-0.00100376,0,
10,1.29713,0.803623,0.0186084,-0.000929576,0,
10,1.32317,0.809357,0.0183376,-0.000863807,0,
10,1.34951,0.815028,0.01806,-0.000805988,0,
10,1.37616,0.820596,0.0177753,-0.00075555,0,
10,1.40313,0.826024,0.0174828,-0.000711466,0,
10,1.43043,0.831313,0.0171834,-0.000672415,0,
10,1.45807,0.836494,0.0168773,-0.000637162,0,
10,1.48607,0.841601,0.0165649,-0.000604794,0,
10,1.51444,0.846651,0.016246,-0.000574704,0,
10,1.54318,0.851644,0.0159201,-0.000546461,0,
10,1.57231,0.856569,0.0155872,-0.000519707,0,
10,1.60184,0.861414,0.0152471,-0.000494132,0,
10,1.63178,0.866172,0.0148999,-0.000469494,0,
10,1.66213,0.870836,0.0145456,-0.00044565,0,
10,1.69292,0.875395,0.0141841,-0.000422555,0,
10,1.72416,0.879831,0.0138155,-0.000400254,0,
10,1.75585,0.884119,0.0134398,-0.000378823,0,
10,1.78802,0.888237,0.0130571,-0.000358263,0,
10,1.82067,0.892188,0.0126673,-0.000338276,0,
10,1.85383,0.89602,0.0122691,-0.000312834,0,
10,1.88751,0.899781,0.0118631,-0.000288558,0,
10,1.92173,0.903464,0.0114504,-0.000263992,0,
10,1.95652,0.907041,0.011029,-0.000238668,0,
10,1.9919,0.910481,0.0106005,-0.000212983,0,
10,2.02791,0.913754,0.0101629,-0.000187532,0,
10,2.06456,0.916835,0.0097184,-0.000162691,0,
10,2.10268,0.919754,0.0092539,-0.000138198,0,
10,2.1443,0.922595,0.00874886,-0.000114551,0,
10,2.18977,0.925305,0.00819692,-9.19607e-05,0,
10,2.23946,0.9278,0.00759643,-7.07085e-05,0,
10,2.29376,0.929998,0.00694231,-5.15486e-05,0,
10,2.35309,0.931818,0.00623238,-3.50841e-05,0,
10,2.4179,0.933196,0.00546284,-2.17773e-05,0,
10,2.48863,0.93409,0.00463189,-1.189e-05,0,
10,2.56575,0.934499,0.00373724,-5.3797e-06,0,
10,2.64971,0.934478,0.00277823,-1.82458e-06,0,
10,2.74098,0.934147,0.0017543,-4.44067e-07,0,
10,2.83997,0.93368,0.000666197,-2.75726e-07,0,
10,2.94709,0.933278,-0.00048499,-4.72868e-07,0,
10,3.06269,0.933122,-0.00169711,-5.57401e-07,0,
10,3.18706,0.933319,-0.00296733,-4.47453e-07,0,
10,3.3204,0.933871,-0.00429144,-2.65799e-07,0,
10,3.46281,0.934689,-0.00566373,-1.25868e-07,0,
10,3.61427,0.935631,-0.00707654,-5.48255e-08,0,
10,3.77463,0.936564,-0.00852037,-2.85455e-08,0,
10,3.94358,0.937408,-0.00998408,-2.04846e-08,0,
10,4.12067,0.938149,-0.0114555,-1.77488e-08,0,
10,4.30525,0.93882,-0.0129218,-1.65678e-08,0,
10,4.49655,0.939463,-0.0143702,-1.62204e-08,0,
10,4.6936,0.940106,-0.0157882,-1.67183e-08,0,
10,4.89531,0.940752,-0.0171642,-1.85967e-08,0,
10,5.10047,0.941388,-0.0184873,-2.33914e-08,0,
10,5.30776,0.941992,-0.0197485,-3.4513e-08,0,
10,5.51581,0.942548,-0.0209401,-5.89848e-08,0,
10,5.72323,0.943054,-0.0220563,-1.12127e-07,0,
10,5.92863,0.943535,-0.0230933,-2.32171e-07,0,
10,6.13069,0.94406,-0.0240491,-5.20671e-07,0,
10,6.32816,0.944724,-0.0249235,-1.18497e-06,0,
10,6.51991,0.945549,-0.025718,-2.27202e-06,0,
10,6.70495,0.946281,-0.0264359,-2.22683e-06,0,
10,6.88244,0.946166,-0.0270794,4.88651e-06,0,
10,7.0517,0.943946,-0.027653,3.05688e-05,0,
10,7.21224,0.938234,-0.0281551,8.80965e-05,0,
10,7.3637,0.9282,-0.0285926,0.000186014,0,
10,7.5059,0.913951,-0.0289686,0.000309802,0,
10,7.63878,0.896141,-0.0292834,0.000421239,0,
10,7.76243,0.875971,-0.0295515,0.000543319,0,
10,7.87701,0.855236,-0.029765,0.000666252,0,
10,7.9828,0.835351,-0.029942,0.000775794,0,
10,8.08014,0.816955,-0.0300831,0.000867971,0,
10,8.16941,0.800063,-0.0302,0.000944288,0,
10,8.25106,0.784373,-0.0302962,0.00100844,0,
10,8.32554,0.769519,-0.0303784,0.00106356,0,
10,8.39331,0.755202,-0.0304481,0.00111183,0,
10,8.45484,0.74123,-0.0305082,0.0011544,0,
10,8.5106,0.727501,-0.0305593,0.00119168,0,
10,8.56104,0.71398,-0.030603,0.00122378,0,
10,8.60659,0.70067,-0.0306403,0.00125078,0,
10,8.64767,0.68759,-0.0306723,0.00127281,0,
10,8.68467,0.674758,-0.0307003,0.00129014,0,
10,8.71795,0.662155,-0.0307247,0.00129958,0,
10,8.74786,0.649748,-0.0307455,0.00130423,0,
10,8.77471,0.637526,-0.0307637,0.00130512,0,
10,8.79881,0.625482,-0.030779,0.00130225,0,
10,8.8204,0.613609,-0.0307923,0.00129616,0,
10,8.83975,0.601896,-0.0308035,0.0012874,0,
10,8.85708,0.590327,-0.0308131,0.00127647,0,
10,8.87259,0.578883,-0.0308213,0.00126381,0,
10,8.88646,0.567543,-0.0308281,0.00124984,0,
10,8.89886,0.55628,-0.0308339,0.00123488,0,
10,8.90995,0.545068,-0.0308388,0.0012192,0,
10,8.91986,0.533874,-0.0308429,0.00120301,0,
10,8.92872,0.522666,-0.0308463,0.00118645,0,
10,8.93663,0.511408,-0.0308493,0.0011696,0,
10,8.94369,0.50006,-0.0308517,0.00115245,0,
10,8.95,0.488582,-0.0308537,0.00113498,0,
10,8.95564,0.476928,-0.0308554,0.00111709,0,
10,8.96067,0.465048,-0.0308567,0.00109859,0,
10,8.96517,0.452889,-0.0308579,0.00107922,0,
10,8.96918,0.440389,-0.0308587,0.00105864,0,
10,8.97276,0.427479,-0.0308595,0.00103642,0,
10,8.97596,0.41408,-0.03086,0.00101199,0,
10,8.97882,0.400099,-0.0308607,0.000984627,0,
10,8.98137,0.385429,-0.0308609,0.00095338,0,
10,8.98365,0.369942,-0.0308614,0.000917039,0,
10,8.98569,0.35349,-0.0308614,0.000874302,0,
10,8.9875,0.335886,-0.0308619,0.000822381,0,
10,8.98913,0.316893,-0.0308618,0.000757062,0,
10,8.99058,0.296287,-0.0308623,0.000679786,0,
10,8.99188,0.27391,-0.030862,0.000588536,0,
10,8.99304,0.249601,-0.0308625,0.000475706,0,
10,8.99408,0.223312,-0.0308621,0.000349291,0,
10,8.99501,0.195409,-0.0308627,0.000222857,0,
10,8.99583,0.16679,-0.0308622,0.000118325,0,
10,8.99658,0.138725,-0.0308628,5.08875e-05,0,
10,8.99724,0.112338,-0.0308622,1.75803e-05,0,
10,8.99784,0.0882224,-0.0308628,4.83248e-06,0,
10,8.99837,0.0664939,-0.0308621,1.01378e-06,0,
10,8.99885,0.0470191,-0.0308629,1.45254e-07,0,
10,8.99927,0.0295869,-0.0308621,1.1029e-08,0,
10,8.99966,0.013982,-0.0308631,2.44041e-10,0,
10,0,0,0.0266099,0,0,
10,9,0,-0.030862,0,0,

0.004,0,0,-0.233585,0,-4.92627e-08,
0.00868226,0,0,-0.233583,0,-2.44146e-07,
0.014062,0,0,-0.233584,0,-4.73271e-07,
0.0201548,0,0,-0.233584,0,-9.36495e-07,
0.0269766,0,0,-0.233582,0,-1.31437e-06,
0.0345437,0,0,-0.233582,0,-1.50607e-06,
0.0428729,0,0,-0.233579,0,-1.244e-06,
0.051981,0,0,-0.233577,0,-3.18193e-07,
0.0618853,0,0,-0.233573,0,1.48086e-06,
0.0726036,0,0,-0.233571,0,4.30602e-06,
0.0841536,0,0,-0.233569,0,8.18317e-06,
0.0965535,0,0,-0.233571,0,1.303e-05,
0.109822,0,0,-0.233577,0,1.85908e-05,
0.123977,0,0,-0.233588,0,2.45285e-05,
0.139037,0,0,-0.233604,0,3.04159e-05,
0.155022,0,0,-0.233626,0,3.58546e-05,
0.171949,0,0,-0.233653,0,4.04831e-05,
0.189839,0,0,-0.233685,0,4.40585e-05,
0.208709,0,0,-0.233718,0,4.64475e-05,
0.228579,0,0,-0.233754,0,4.76598e-05,
0.249467,0,0,-0.233789,0,4.78237e-05,
0.271391,0,0,-0.233823,0,4.71874e-05,
0.29437,0,0,-0.233855,0,4.60856e-05,
0.31842,0,0,-0.233886,0,4.49107e-05,
0.343559,0,0,-0.233917,0,4.40581e-05,
0.369804,0,0,-0.233949,0,4.38713e-05,
0.39717,0,0,-0.233985,0,4.45881e-05,
0.425672,0,0,-0.234027,0,4.63086e-05,
0.455324,0,0,-0.23408,0,4.89915e-05,
0.48614,0,0,-0.234147,0,5.24859e-05,
0.518132,0,0,-0.234231,0,5.658e-05,
0.551309,0,0,-0.234338,0,6.10279e-05,
0.585683,0,0,-0.234472,0,6.55497e-05,
0.621259,0,0,-0.234642,0,6.97619e-05,
0.658046,0,0,-0.234857,0,7.30356e-05,
0.696047,0,0,-0.23513,0,7.44329e-05,
0.735265,0,0,-0.235477,0,7.2684e-05,
0.7757,0,0,-0.235917,0,6.61871e-05,
0.817352,0,0,-0.236465,0,5.31877e-05,
0.860215,0,0,-0.237136,0,3.20948e-05,
0.904285,0,0,-0.237933,0,1.83922e-06,
0.949552,0,0,-0.238851,0,-3.78193e-05,
0.996004,0,0,-0.239873,0,-8.61992e-05,
1.04363,0,0,-0.240977,0,-0.000141894,
1.09241,0,0,-0.242134,0,-0.000203169,
1.14232,0,0,-0.243316,0,-0.00026837,
1.19335,0,0,-0.244495,0,-0.000336193,
1.24546,0,0,-0.245645,0,-0.000405752,
1.29863,0,0,-0.246743,0,-0.000476503,
1.35283,0,0,-0.247766,0,-0.000548105,
1.40802,0,0,-0.248692,0,-0.000620305,
1.46416,0,0,-0.249497,0,-0.000692859,
1.52121,0,0,-0.250159,0,-0.000765496,
1.57913,0,0,-0.250658,0,-0.000837902,
1.63787,0,0,-0.25097,0,-0.000909725,
1.69739,0,0,-0.251075,0,-0.000980578,
1.75761,0,0,-0.250954,0,-0.00105005,
1.81851,0,0,-0.250589,0,-0.0011177,
1.88,0,0,-0.249965,0,-0.0011831,
1.94204,0,0,-0.249068,0,-0.0012458,
2.00457,0,0,-0.24789,0,-0.0013054,
2.06751,0,0,-0.246424,0,-0.0013615,
2.13081,0,0,-0.244669,0,-0.00141375,
2.19439,0,0,-0.242625,0,-0.00146187,
2.25819,0,0,-0.240299,0,-0.00150564,
2.32214,0,0,-0.2377,0,-0.0015449,
2.38617,0,0,-0.234838,0,-0.00157956,
2.4502,0,0,-0.231728,0,-0.00160958,
2.51418,0,0,-0.228387,0,-0.00163496,
2.57803,0,0,-0.224832,0,-0.00165578,
2.64167,0,0,-0.221084,0,-0.00167212,
2.70505,0,0,-0.217162,0,-0.00168415,
2.76808,0,0,-0.213089,0,-0.00169204,
2.83072,0,0,-0.208885,0,-0.001696,
2.89288,0,0,-0.204573,0,-0.00169623,
2.95451,0,0,-0.200173,0,-0.00169294,
3.01555,0,0,-0.195706,0,-0.00168638,
3.07594,0,0,-0.191192,0,-0.00167679,
3.13561,0,0,-0.186652,0,-0.00166442,
3.19453,0,0,-0.182101,0,-0.00164953,
3.25262,0,0,-0.177558,0,-0.00163235,
3.30985,0,0,-0.173038,0,-0.00161311,
3.36617,0,0,-0.168555,0,-0.00159207,
3.42154,0,0,-0.164123,0,-0.00156945,
3.47591,0,0,-0.159753,0,-0.00154548,
3.52925,0,0,-0.155456,0,-0.00152037,
3.58152,0,0,-0.151239,0,-0.0014943,
3.6327,0,0,-0.147112,0,-0.00146744,
3.68276,0,0,-0.143082,0,-0.00143996,
3.73167,0,0,-0.139152,0,-0.00141202,
3.77941,0,0,-0.13533,0,-0.00138376,
3.82596,0,0,-0.131618,0,-0.00135533,
3.8713,0,0,-0.128018,0,-0.00132684,
3.91543,0,0,-0.124531,0,-0.00129827,
3.95833,0,0,-0.121177,0,-0.00127004,
4,0,0,-0.117918,0,-0.0012419,
4.04167,0,0,-0.11469,0,-0.00121319,
4.08333,0,0,-0.111487,0,-0.00118405,
4.125,0,0,-0.108308,0,-0.00115445,
4.16667,0,0,-0.105157,0,-0.00112438,
4.20833,0,0,-0.102034,0,-0.00109387,
4.25,0,0,-0.0989401,0,-0.00106294,
4.29167,0,0,-0.0958772,0,-0.00103162,
4.33333,0,0,-0.0928464,0,-0.000999941,
4.375,0,0,-0.0898489,0,-0.000967919,
4.41667,0,0,-0.0868857,0,-0.000935582,
4.45833,0,0,-0.0839579,0,-0.000902954,
4.5,0,0,-0.0810664,0,-0.000870058,
4.54167,0,0,-0.0782121,0,-0.000836916,
4.58333,0,0,-0.0753958,0,-0.00080355,
4.625,0,0,-0.0726183,0,-0.00076998,
4.66667,0,0,-0.0698802,0,-0.000736226,
4.70833,0,0,-0.0671823,0,-0.000702309,
4.75,0,0,-0.064525,0,-0.000668244,
4.79167,0,0,-0.0619089,0,-0.00063405,
4.83333,0,0,-0.0593346,0,-0.000599743,
4.875,0,0,-0.0568025,0,-0.00056534,
4.91667,0,0,-0.0543131,0,-0.00053086,
4.95833,0,0,-0.0518668,0,-0.00049632,
5,0,0,-0.049464,0,-0.000461736,
5.04167,0,0,-0.047105,0,-0.000427125,
5.08333,0,0,-0.0447903,0,-0.000392499,
5.125,0,0,-0.04252,0,-0.000357874,
5.16667,0,0,-0.0402948,0,-0.000323264,
5.20833,0,0,-0.0381149,0,-0.000288687,
5.25,0,0,-0.035981,0,-0.000254166,
5.29167,0,0,-0.0338935,0,-0.000219738,
5.33333,0,0,-0.031853,0,-0.000185457,
5.375,0,0,-0.0298599,0,-0.000151389,
5.41667,0,0,-0.0279141,0,-0.000117597,
5.45833,0,0,-0.0260149,0,-8.4121e-05,
5.5,0,0,-0.0241617,0,-5.09731e-05,
5.54167,0,0,-0.0223536,0,-1.81496e-05,
5.58333,0,0,-0.0205902,0,1.43569e-05,
5.625,0,0,-0.0188706,0,4.65518e-05,
5.66667,0,0,-0.0171942,0,7.84377e-05,
5.70833,0,0,-0.0155605,0,0.000110016,
5.75,0,0,-0.0139689,0,0.000141285,
5.79167,0,0,-0.0124188,0,0.000172243,
5.83333,0,0,-0.0109096,0,0.000202889,
5.875,0,0,-0.00944086,0,0.000233217,
5.91667,0,0,-0.00801189,0,0.000263225,
5.95833,0,0,-0.00662216,0,0.00029291,
6,0,0,-0.00527108,0,0.000322269,
6.04167,0,0,-0.00395807,0,0.000351299,
6.08333,0,0,-0.00268253,0,0.000379996,
6.125,0,0,-0.00144388,0,0.000408356,
6.16667,0,0,-0.000241507,0,0.000436376,
6.20833,0,0,0.000925212,0,0.000464052,
6.25,0,0,0.0020569,0,0.000491382,
6.29167,0,0,0.00315417,0,0.000518364,
6.33333,0,0,0.00421767,0,0.000544994,
6.375,0,0,0.00524803,0,0.000571272,
6.41667,0,0,0.00624589,0,0.000597196,
6.45833,0,0,0.00721188,0,0.000622764,
6.5,0,0,0.00814667,0,0.000647976,
6.54167,0,0,0.00905088,0,0.000672831,
6.58333,0,0,0.00992515,0,0.00069733,
6.625,0,0,0.0107701,0,0.000721471,
6.66667,0,0,0.0115865,0,0.000745256,
6.70833,0,0,0.0123748,0,0.000768686,
6.75,0,0,0.0131357,0,0.000791762,
6.79167,0,0,0.0138699,0,0.000814486,
6.83333,0,0,0.0145779,0,0.000836859,
6.875,0,0,0.0152604,0,0.000858885,
6.91667,0,0,0.0159179,0,0.000880566,
6.95833,0,0,0.0165512,0,0.000901905,
7,0,0,0.0171606,0,0.000922905,
7.04167,0,0,0.0177468,0,0.000943569,
7.08333,0,0,0.0183104,0,0.000963902,
7.125,0,0,0.018852,0,0.000983912,
7.16667,0,0,0.0193722,0,0.00100361,
7.20833,0,0,0.0198715,0,0.001023,
7.25,0,0,0.0203505,0,0.00104209,
7.29167,0,0,0.0208096,0,0.00106089,
7.33333,0,0,0.0212493,0,0.00107939,
7.375,0,0,0.0216701,0,0.00109759,
7.41667,0,0,0.0220725,0,0.00111549,
7.45833,0,0,0.022457,0,0.00113309,
7.5,0,0,0.0228239,0,0.00115039,
7.54167,0,0,0.0231738,0,0.0011674,
7.58333,0,0,0.023507,0,0.00118411,
7.625,0,0,0.023824,0,0.00120054,
7.66667,0,0,0.0241252,0,0.00121669,
7.70833,0,0,0.0244108,0,0.00123257,
7.75,0,0,0.0246814,0,0.00124819,
7.79167,0,0,0.024937,0,0.00126355,
7.83333,0,0,0.0251776,0,0.00127865,
7.875,0,0,0.0254028,0,0.00129354,
7.91667,0,0,0.0256242,0,0.00130887,
7.95833,0,0,0.0257667,0,0.00132303,
8,0,0,0.0260085,0,0.00133734,
8.04171,0,0,0.0262769,0,0.00135275,
8.08368,0,0,0.0264067,0,0.00136794,
8.12617,0,0,0.0265829,0,0.00138126,
8.16946,0,0,0.0267469,0,0.00139461,
8.21382,0,0,0.0268953,0,0.00140795,
8.25952,0,0,0.0270367,0,0.00142128,
8.30685,0,0,0.0271701,0,0.00143476,
8.35611,0,0,0.0272955,0,0.00144849,
8.40762,0,0,0.0274128,0,0.00146255,
8.46168,0,0,0.0275214,0,0.00147699,
8.51865,0,0,0.0276204,0,0.00149185,
8.57889,0,0,0.0277089,0,0.00150717,
8.64276,0,0,0.0277853,0,0.00152299,
8.71067,0,0,0.0278481,0,0.00153934,
8.78306,0,0,0.0278953,0,0.00155623,
8.86037,0,0,0.0279246,0,0.00157367,
8.94309,0,0,0.0279334,0,0.00159169,
9.03174,0,0,0.0279189,0,0.00161028,
9.12689,0,0,0.0278779,0,0.00162944,
9.22912,0,0,0.027807,0,0.00164916,
9.33908,0,0,0.0277025,0,0.00166941,
9.45746,0,0,0.0275609,0,0.00169016,
9.58501,0,0,0.0273781,0,0.00171138,
9.72253,0,0,0.0271507,0,0.00173301,
9.87088,0,0,0.0268746,0,0.00175499,
10.031,0,0,0.0265464,0,0.00177727,
10.2039,0,0,0.0261627,0,0.00179976,
10.3906,0,0,0.0257215,0,0.00182238,
10.5924,0,0,0.0252208,0,0.00184506,
10.8105,0,0,0.0246584,0,0.00186768,
11.0463,0,0,0.024035,0,0.00189016,
11.3012,0,0,0.0233526,0,0.00191239,
11.5769,0,0,0.0226127,0,0.00193428,
11.8751,0,0,0.02182,0,0.00195574,
12.1977,0,0,0.0209798,0,0.00197669,
12.5466,0,0,0.0200988,0,0.00199705,
12.9242,0,0,0.0191861,0,0.00201677,
13.3327,0,0,0.0182511,0,0.00203579,
13.7748,0,0,0.017305,0,0.00205409,
14.2532,0,0,0.016359,0,0.00207165,
14.7709,0,0,0.0154244,0,0.00208846,
15.3312,0,0,0.0145134,0,0.00210454,
15.9377,0,0,0.0136364,0,0.00211992,
16.594,0,0,0.0128027,0,0.00213464,
17.3044,0,0,0.0120204,0,0.00214877,
18.0733,0,0,0.0112942,0,0.00216235,
18.9056,0,0,0.0106273,0,0.00217532,
19.8064,0,0,0.0100194,0,0.00218754,
20.7816,0,0,0.00946701,0,0.00219912,
21.8371,0,0,0.00896551,0,0.00221042,
22.9796,0,0,0.00850561,0,0.00222159,
24.2163,0,0,0.00807546,0,0.0022327,
25.5551,0,0,0.00766148,0,0.00224393,
27.0042,0,0,0.00724789,0,0.00225534,
28.5729,0,0,0.00681902,0,0.00226692,
30.271,0,0,0.00635785,0,0.0022787,
32.1091,0,0,0.00584834,0,0.00229062,
34.0989,0,0,0.00527626,0,0.00230264,
36.2529,0,0,0.00462491,0,0.00231489,
38.5845,0,0,0.00388688,0,0.00232729,
41.1085,0,0,0.00310441,0,0.00233974,
43.8407,0,0,0.00211443,0,0.00234989,
46.7983,0,0,0.0010909,0,0.00235544,
50,0,0,0.00221213,0,0.00237204,

