1cd98f834987d21f577bbf17558529d3230698e1 
X,Z,x_velocity,cp,uw_b,cf,
1,0,0,-0.221226,0,0,
1,9,0,-0.132438,0,0,
1,8.99969,0.0154663,-0.132437,2.894e-10,0,
1,8.99934,0.0330122,-0.132438,1.35267e-08,0,
1,8.99894,0.0529353,-0.132437,1.86578e-07,0,
1,8.99848,0.0755502,-0.132437,1.3676e-06,0,
1,8.99797,0.10117,-0.132437,6.83366e-06,0,
1,8.99739,0.129989,-0.132437,2.58516e-05,0,
1,8.99672,0.161809,-0.132437,7.65125e-05,0,
1,8.99597,0.195683,-0.132437,0.00017764,0,
1,8.99512,0.22995,-0.132437,0.000326956,0,
1,8.99416,0.262954,-0.132437,0.000495659,0,
1,8.99306,0.293722,-0.132437,0.000654314,0,
1,8.99182,0.322089,-0.132437,0.000781736,0,
1,8.99041,0.348196,-0.132436,0.000887381,0,
1,8.98881,0.372201,-0.132436,0.000974566,0,
1,8.98699,0.394321,-0.132435,0.00104564,0,
1,8.98494,0.414843,-0.132434,0.00110164,0,
1,8.98261,0.434079,-0.132434,0.00114424,0,
1,8.97996,0.452272,-0.132433,0.00117994,0,
1,8.97696,0.469592,-0.132432,0.00120947,0,
1,8.97356,0.486182,-0.13243,0.00123412,0,
1,8.9697,0.50216,-0.132429,0.00125483,0,
1,8.96533,0.517625,-0.132427,0.00127234,0,
1,8.96038,0.532659,-0.132425,0.00128714,0,
1,8.95476,0.547332,-0.132423,0.00129963,0,
1,8.9484,0.561704,-0.132421,0.00131006,0,
1,8.9412,0.575823,-0.132418,0.0013186,0,
1,8.93303,0.589735,-0.132415,0.00132537,0,
1,8.92379,0.603474,-0.132412,0.00133042,0,
1,8.91333,0.617074,-0.132409,0.00133376,0,
1,8.90149,0.630562,-0.132406,0.00133537,0,
1,8.8881,0.643963,-0.132403,0.00133521,0,
1,8.87295,0.657299,-0.132401,0.00133319,0,
1,8.85584,0.670589,-0.132399,0.00132923,0,
1,8.83651,0.683853,-0.132397,0.00132321,0,
1,8.81469,0.697111,-0.132397,0.00131501,0,
1,8.79007,0.710382,-0.132399,0.00130445,0,
1,8.76232,0.723689,-0.132403,0.00129136,0,
1,8.73107,0.737057,-0.132411,0.00127551,0,
1,8.69591,0.750516,-0.132423,0.0012566,0,
1,8.6564,0.764102,-0.132441,0.00123431,0,
1,8.61206,0.777862,-0.132467,0.0012082,0,
1,8.56236,0.791853,-0.132502,0.00117796,0,
1,8.50675,0.806152,-0.132552,0.00114495,0,
1,8.44464,0.820906,-0.132618,0.00110358,0,
1,8.3754,0.836332,-0.132704,0.00105188,0,
1,8.29839,0.852673,-0.132817,0.00098852,0,
1,8.21296,0.870171,-0.132964,0.000908999,0,
1,8.11843,0.889016,-0.133149,0.000808105,0,
1,8.01417,0.909206,-0.133388,0.000682408,0,
1,7.89956,0.930291,-0.133676,0.000535428,0,
1,7.77403,0.951139,-0.134051,0.000385801,0,
1,7.63711,0.970135,-0.1345,0.000202413,0,
1,7.48842,0.984952,-0.13503,7.45363e-05,0,
1,7.32773,0.993673,-0.135666,1.76592e-05,0,
1,7.15495,0.996807,-0.136405,1.70739e-06,0,
1,6.97022,0.996841,-0.137261,1.97593e-08,0,
1,6.77388,0.996221,-0.138248,3.45038e-09,0,
1,6.56652,0.996106,-0.139383,9.51862e-09,0,
1,6.34896,0.99656,-0.140676,1.23591e-08,0,
1,6.12229,0.997283,-0.142142,1.3933e-08,0,
1,5.88784,0.998074,-0.143791,1.4727e-08,0,
1,5.64716,0.998898,-0.145636,1.56321e-08,0,
1,5.40194,0.999784,-0.147685,1.69016e-08,0,
1,5.15407,1.00076,-0.149941,1.85351e-08,0,
1,4.90545,1.00183,-0.152404,2.02102e-08,0,
1,4.65805,1.003,-0.155069,2.19666e-08,0,
1,4.41376,1.00425,-0.157926,2.3776e-08,0,
1,4.17441,1.00558,-0.160957,2.54032e-08,0,
1,3.94163,1.00692,-0.164141,2.669e-08,0,
1,3.7169,1.00823,-0.167447,2.82692e-08,0,
1,3.50146,1.00958,-0.170843,3.2097e-08,0,
1,3.29629,1.01129,-0.174294,4.01488e-08,0,
1,3.10217,1.01373,-0.177768,5.04159e-08,0,
1,2.91959,1.01666,-0.181239,9.29001e-08,0,
1,2.74885,1.0186,-0.184667,8.03567e-07,0,
1,2.59002,1.01712,-0.187992,-7.78826e-06,0,
1,2.44299,1.01054,-0.19116,-5.72418e-05,0,
1,2.30752,0.999123,-0.194111,-0.000159455,0,
1,2.18321,0.984358,-0.196796,-0.000299488,0,
1,2.06959,0.967838,-0.199253,-0.000419817,0,
1,1.9661,0.950828,-0.201467,-0.000524175,0,
1,1.87215,0.934245,-0.203408,-0.000621463,0,
1,1.78711,0.918587,-0.205115,-0.000707083,0,
1,1.71033,0.904002,-0.206604,-0.000780957,0,
1,1.64119,0.890453,-0.207899,-0.000844611,0,
1,1.57905,0.877825,-0.209021,-0.000900175,0,
1,1.52332,0.865988,-0.20999,-0.000950121,0,
1,1.47342,0.854835,-0.210825,-0.000996126,0,
1,1.42882,0.844269,-0.211525,-0.00102455,0,
1,1.389,0.834202,-0.212113,-0.00104966,0,
1,1.35351,0.824575,-0.212616,-0.0010727,0,
1,1.3219,0.815354,-0.21304,-0.00109305,0,
1,1.29378,0.806522,-0.213401,-0.00111062,0,
1,1.26878,0.79807,-0.213705,-0.00112551,0,
1,1.24659,0.789993,-0.213962,-0.00113823,0,
1,1.22689,0.782285,-0.21418,-0.00114895,0,
1,1.2092,0.774857,-0.214366,-0.00115671,0,
1,1.1932,0.767658,-0.214525,-0.00116219,0,
1,1.1787,0.760674,-0.214662,-0.00116597,0,
1,1.16554,0.753886,-0.214779,-0.00116872,0,
1,1.15357,0.747267,-0.214878,-0.00117192,0,
1,1.14266,0.740776,-0.214963,-0.0011781,0,
1,1.13268,0.734359,-0.215035,-0.00119077,0,
1,1.12354,0.727936,-0.215097,-0.00121448,0,
1,1.11514,0.721405,-0.21515,-0.00125493,0,
1,1.10739,0.714639,-0.215198,-0.0013186,0,
1,1.10022,0.707491,-0.215243,-0.00141217,0,
1,1.09357,0.699803,-0.215289,-0.00154172,0,
1,1.08738,0.691431,-0.215338,-0.00171167,0,
1,1.0816,0.682272,-0.215392,-0.00192354,0,
1,1.07618,0.67229,-0.215453,-0.00217514,0,
1,1.07107,0.661528,-0.21552,-0.00246032,0,
1,1.06626,0.650098,-0.215593,-0.00276989,0,
1,1.06169,0.638156,-0.215672,-0.00309327,0,
1,1.05735,0.62587,-0.215756,-0.00342022,0,
1,1.05321,0.613395,-0.215843,-0.00374209,0,
1,1.04925,0.600864,-0.215934,-0.00405236,0,
1,1.04544,0.588379,-0.216025,-0.0043466,0,
1,1.04177,0.576013,-0.216119,-0.00462211,0,
1,1.03822,0.563817,-0.216213,-0.00487752,0,
1,1.03478,0.551823,-0.216307,-0.00511239,0,
1,1.03144,0.54005,-0.216402,-0.00532692,0,
1,1.02818,0.528506,-0.216496,-0.00552167,0,
1,1.025,0.517191,-0.21659,-0.00569744,0,
1,1.02188,0.506102,-0.216684,-0.00585515,0,
1,1.01882,0.495233,-0.216776,-0.00599574,0,
1,1.01581,0.484573,-0.216869,-0.0061203,0,
1,1.01284,0.474114,-0.216961,-0.0062294,0,
1,1.00988,0.463731,-0.217053,-0.00632466,0,
1,1.00688,0.453305,-0.217146,-0.00640789,0,
1,1.00384,0.442824,-0.217241,-0.006479,0,
1,1.00076,0.43228,-0.217337,-0.00653801,0,
1,0.997615,0.421658,-0.217435,-0.00658483,0,
1,0.99441,0.41094,-0.217535,-0.00661894,0,
1,0.991131,0.400105,-0.217635,-0.00663981,0,
1,0.987768,0.389125,-0.217737,-0.00664753,0,
1,0.984308,0.377974,-0.217841,-0.00664174,0,
1,0.980739,0.366619,-0.217946,-0.00662196,0,
1,0.977045,0.355029,-0.218053,-0.00658753,0,
1,0.973211,0.343168,-0.218162,-0.00653766,0,
1,0.969219,0.330996,-0.218273,-0.0064714,0,
1,0.965047,0.318474,-0.218386,-0.00638761,0,
1,0.960675,0.305555,-0.218502,-0.00628481,0,
1,0.956077,0.292193,-0.218619,-0.00616083,0,
1,0.951224,0.27834,-0.218739,-0.00601472,0,
1,0.946088,0.263957,-0.218861,-0.00584529,0,
1,0.940633,0.249005,-0.218986,-0.00564995,0,
1,0.934823,0.23345,-0.219113,-0.0054267,0,
1,0.928616,0.217264,-0.219241,-0.00517359,0,
1,0.921967,0.200425,-0.21937,-0.00488882,0,
1,0.914826,0.182922,-0.219499,-0.00457092,0,
1,0.907141,0.164763,-0.219627,-0.00421893,0,
1,0.898852,0.145978,-0.219753,-0.00383276,0,
1,0.889898,0.126635,-0.219876,-0.00341358,0,
1,0.880212,0.106858,-0.219994,-0.0029645,0,
1,0.869723,0.0868647,-0.220108,-0.00249178,0,
1,0.858358,0.0670302,-0.220219,-0.00200747,0,
1,0.846039,0.0479877,-0.22033,-0.00153461,0,
1,0.83269,0.0307003,-0.220445,-0.00111168,0,
1,0.818232,0.0162545,-0.220564,-0.000776595,0,
1,0.802744,0.00531589,-0.220692,-0.000533189,0,
1,0.78635,-0.00237333,-0.220833,-0.000371012,0,
1,0.768969,-0.0077092,-0.220975,-0.000272789,0,
1,0.75053,-0.0115956,-0.221117,-0.000218116,0,
1,0.730977,-0.0147012,-0.221248,-0.000191313,0,
1,0.710271,-0.0174416,-0.221366,-0.000181029,0,
1,0.688397,-0.020053,-0.221471,-0.000180074,0,
1,0.66536,-0.0226669,-0.221562,-0.000182696,0,
1,0.641194,-0.0253528,-0.22164,-0.00018574,0,
1,0.615961,-0.028134,-0.221703,-0.000187115,0,
1,0.589754,-0.0309993,-0.221752,-0.000185675,0,
1,0.562692,-0.0339117,-0.221785,-0.000180956,0,
1,0.534925,-0.0368145,-0.221799,-0.000172927,0,
1,0.506624,-0.0396374,-0.221793,-0.000161801,0,
1,0.477982,-0.0422998,-0.221766,-0.000147889,0,
1,0.449206,-0.0447142,-0.221719,-0.000131515,0,
1,0.420509,-0.0467881,-0.221654,-0.000112983,0,
1,0.392107,-0.0484257,-0.221573,-9.25797e-05,0,
1,0.364206,-0.0495313,-0.221481,-7.05891e-05,0,
1,0.337003,-0.0500138,-0.221384,-4.73471e-05,0,
1,0.310673,-0.0497936,-0.221288,-2.33002e-05,0,
1,0.28537,-0.0488123,-0.221199,9.40806e-07,0,
1,0.26122,-0.0470435,-0.221122,2.45827e-05,0,
1,0.238324,-0.0445028,-0.221062,4.66857e-05,0,
1,0.21675,-0.0412541,-0.22102,6.62606e-05,0,
1,0.196544,-0.0374089,-0.220996,8.24011e-05,0,
1,0.177724,-0.0331186,-0.220988,9.44356e-05,0,
1,0.160284,-0.028559,-0.220994,0.000102047,0,
1,0.144202,-0.0239113,-0.221011,0.000105289,0,
1,0.129436,-0.0193422,-0.221033,0.000104529,0,
1,0.115935,-0.0149887,-0.221059,0.00010035,0,
1,0.103636,-0.0109495,-0.221086,9.34572e-05,0,
1,0.0924701,-0.0072834,-0.221112,8.45938e-05,0,
1,0.0823633,-0.00401538,-0.221136,7.45414e-05,0,
1,0.0732406,-0.00114441,-0.221157,6.42496e-05,0,
1,0.0650269,0.00134959,-0.221174,5.41593e-05,0,
1,0.057648,0.00349871,-0.221189,4.43471e-05,0,
1,0.0510323,0.00534283,-0.221201,3.5086e-05,0,
1,0.0451115,0.00691948,-0.22121,2.65116e-05,0,
1,0.0398209,0.00825757,-0.221216,1.87869e-05,0,
1,0.0351001,0.00937132,-0.221221,1.21196e-05,0,
1,0.0308929,0.0102544,-0.221224,6.75813e-06,0,
1,0.0271475,0.0108806,-0.221226,2.94685e-06,0,
1,0.0238164,0.0112151,-0.221226,7.03852e-07,0,
1,0.0208562,0.0112395,-0.221227,-2.82927e-07,0,
1,0.0182274,0.010972,-0.221227,-5.18875e-07,0,
1,0.0158944,0.0104661,-0.221227,-4.40479e-07,0,
1,0.0138249,0.00979173,-0.221227,-2.94026e-07,0,
1,0.0119898,0.00901475,-0.221227,-1.72686e-07,0,
1,0.0103632,0.00818762,-0.221227,-9.33052e-08,0,
1,0.00892169,0.00734817,-0.221227,-4.73402e-08,0,
1,0.00764438,0.00652218,-0.221227,-2.27542e-08,0,
1,0.00651264,0.00572658,-0.221227,-1.03824e-08,0,
1,0.00550983,0.00497193,-0.221227,-4.48511e-09,0,
1,0.00462115,0.00426433,-0.221227,-1.82183e-09,0,
1,0.00383341,0.00360667,-0.221227,-6.87813e-10,0,
1,0.0031349,0.00299963,-0.221227,-2.37079e-10,0,
1,0.00251518,0.00244231,-0.221227,-7.25857e-11,0,
1,0.00196502,0.00193279,-0.221227,-1.89024e-11,0,
1,0.00147619,0.00146847,-0.221227,-3.89493e-12,0,
1,0.00104139,0.0010463,-0.221227,-5.57303e-13,0,
1,0.000654158,0.000663068,-0.221226,-4.2562e-14,0,
1,0.000308731,0.00031546,-0.221227,-9.51544e-16,0,

4,0,0,-0.187863,0,0,
4,9,0,-0.102763,0,0,
4,8.99969,0.0143505,-0.102763,2.28435e-10,0,
4,8.99934,0.0305743,-0.102763,1.0598e-08,0,
4,8.99894,0.0489345,-0.102763,1.44707e-07,0,
4,8.9985,0.0697091,-0.102763,1.05021e-06,0,
4,8.99799,0.0931804,-0.102763,5.21095e-06,0,
4,8.99742,0.11955,-0.102763,1.97159e-05,0,
4,8.99677,0.148727,-0.102763,5.90837e-05,0,
4,8.99605,0.180018,-0.102763,0.000140877,0,
4,8.99522,0.212054,-0.102762,0.00026867,0,
4,8.99429,0.24329,-0.102762,0.000421808,0,
4,8.99324,0.272664,-0.102762,0.000572241,0,
4,8.99205,0.299809,-0.102762,0.000701847,0,
4,8.9907,0.324804,-0.102761,0.000806188,0,
4,8.98919,0.347823,-0.102761,0.000894026,0,
4,8.98747,0.369054,-0.10276,0.000967019,0,
4,8.98553,0.388762,-0.102759,0.0010246,0,
4,8.98334,0.407232,-0.102758,0.00107073,0,
4,8.98087,0.424682,-0.102757,0.0011097,0,
4,8.97807,0.441282,-0.102756,0.00114271,0,
4,8.97491,0.457174,-0.102754,0.00117107,0,
4,8.97134,0.472476,-0.102752,0.00119576,0,
4,8.96731,0.487287,-0.10275,0.00121749,0,
4,8.96276,0.501693,-0.102747,0.0012368,0,
4,8.95762,0.515765,-0.102745,0.00125405,0,
4,8.95182,0.529565,-0.102741,0.00126949,0,
4,8.94526,0.543147,-0.102737,0.00128328,0,
4,8.93787,0.556556,-0.102733,0.00129549,0,
4,8.92952,0.56983,-0.102728,0.00130614,0,
4,8.92011,0.583005,-0.102723,0.00131519,0,
4,8.90949,0.596109,-0.102717,0.00132254,0,
4,8.89751,0.609165,-0.102711,0.00132809,0,
4,8.88402,0.622197,-0.102705,0.00133168,0,
4,8.86881,0.635219,-0.102698,0.00133316,0,
4,8.85169,0.648249,-0.102691,0.00133236,0,
4,8.83242,0.661299,-0.102683,0.0013291,0,
4,8.81074,0.674382,-0.102676,0.0013232,0,
4,8.78637,0.687508,-0.10267,0.00131449,0,
4,8.75901,0.700692,-0.102665,0.00130278,0,
4,8.7283,0.713949,-0.102661,0.00128788,0,
4,8.69387,0.727297,-0.102659,0.00126958,0,
4,8.65533,0.740762,-0.102661,0.00124762,0,
4,8.61222,0.754375,-0.102667,0.00122167,0,
4,8.56407,0.768178,-0.102679,0.00119137,0,
4,8.5104,0.782225,-0.102699,0.00115676,0,
4,8.45065,0.796601,-0.102729,0.00111878,0,
4,8.38429,0.811465,-0.102773,0.0010708,0,
4,8.31073,0.827048,-0.102834,0.00101328,0,
4,8.22941,0.843608,-0.102916,0.000942774,0,
4,8.13974,0.861404,-0.103022,0.000854926,0,
4,8.04115,0.88061,-0.103157,0.000746145,0,
4,7.93313,0.901109,-0.103325,0.000616754,0,
4,7.81519,0.922188,-0.103521,0.000476068,0,
4,7.68693,0.942374,-0.10377,0.000341488,0,
4,7.54803,0.959769,-0.104055,0.00020041,0,
4,7.39831,0.97249,-0.104395,8.77416e-05,0,
4,7.23771,0.979683,-0.104808,2.69802e-05,0,
4,7.06634,0.982321,-0.105283,4.48426e-06,0,
4,6.88453,0.982469,-0.105824,7.02943e-08,0,
4,6.69275,0.98196,-0.106433,-4.89687e-08,0,
4,6.49173,0.981707,-0.107121,3.66192e-08,0,
4,6.28238,0.981856,-0.107898,2.97839e-08,0,
4,6.06579,0.98224,-0.108774,1.66521e-08,0,
4,5.84328,0.982705,-0.109757,1.14487e-08,0,
4,5.61626,0.983191,-0.110855,1.02111e-08,0,
4,5.3863,0.9837,-0.112074,1.04467e-08,0,
4,5.15502,0.984249,-0.113419,1.12786e-08,0,
4,4.92406,0.984853,-0.114895,1.24222e-08,0,
4,4.69507,0.985524,-0.116504,1.3776e-08,0,
4,4.46961,0.986266,-0.118246,1.5193e-08,0,
4,4.24915,0.987061,-0.120119,1.63717e-08,0,
4,4.03501,0.987853,-0.122119,1.70382e-08,0,
4,3.82836,0.988574,-0.124238,1.7504e-08,0,
4,3.63018,0.989237,-0.126465,1.92619e-08,0,
4,3.44125,0.990035,-0.128789,2.55844e-08,0,
4,3.26217,0.991338,-0.131194,8.75174e-08,0,
4,3.09333,0.993422,-0.133667,7.56318e-07,0,
4,2.93497,0.996043,-0.136187,3.41863e-06,0,
4,2.78715,0.998272,-0.138736,6.63545e-06,0,
4,2.64979,0.998889,-0.141288,2.08113e-06,0,
4,2.52268,0.996986,-0.143815,-2.03151e-05,0,
4,2.40551,0.992291,-0.146283,-6.52284e-05,0,
4,2.29789,0.985113,-0.148663,-0.000130463,0,
4,2.19939,0.976091,-0.150932,-0.000209266,0,
4,2.10949,0.96594,-0.153076,-0.000293453,0,
4,2.02768,0.955298,-0.155086,-0.000375569,0,
4,1.95343,0.944666,-0.156958,-0.000449871,0,
4,1.88618,0.934405,-0.158692,-0.000514262,0,
4,1.82542,0.924691,-0.160294,-0.000558919,0,
4,1.77062,0.91558,-0.161769,-0.000595778,0,
4,1.72128,0.907117,-0.163115,-0.000628695,0,
4,1.67693,0.899323,-0.164343,-0.000657815,0,
4,1.63713,0.89219,-0.16546,-0.00068359,0,
4,1.60144,0.885692,-0.166473,-0.000706419,0,
4,1.56949,0.879794,-0.167391,-0.000726718,0,
4,1.54091,0.874457,-0.168219,-0.000744976,0,
4,1.51537,0.869629,-0.168968,-0.000761554,0,
4,1.49167,0.865112,-0.169664,-0.000776905,0,
4,1.46926,0.8608,-0.170336,-0.000788107,0,
4,1.44801,0.856655,-0.170984,-0.00079536,0,
4,1.42781,0.852652,-0.171602,-0.000801868,0,
4,1.40855,0.848774,-0.172196,-0.00080694,0,
4,1.39015,0.845008,-0.172768,-0.000810964,0,
4,1.37252,0.841336,-0.17332,-0.000814396,0,
4,1.3556,0.837741,-0.173854,-0.000817708,0,
4,1.3393,0.834206,-0.174371,-0.000821526,0,
4,1.32357,0.830711,-0.174873,-0.000826657,0,
4,1.30836,0.827234,-0.175362,-0.000833865,0,
4,1.29362,0.823752,-0.175838,-0.000844186,0,
4,1.2793,0.820237,-0.176303,-0.00085893,0,
4,1.26537,0.816655,-0.176758,-0.00087972,0,
4,1.25179,0.812966,-0.177203,-0.000908529,0,
4,1.23852,0.809122,-0.177639,-0.000947717,0,
4,1.22554,0.805065,-0.178068,-0.00100003,0,
4,1.21282,0.800731,-0.178488,-0.00106855,0,
4,1.20034,0.796045,-0.178901,-0.00115661,0,
4,1.18806,0.790924,-0.179307,-0.00126756,0,
4,1.17599,0.785288,-0.179706,-0.00140442,0,
4,1.16408,0.77906,-0.180099,-0.00156957,0,
4,1.15233,0.772178,-0.180484,-0.00176425,0,
4,1.14073,0.764603,-0.180862,-0.00198826,0,
4,1.12925,0.756324,-0.181234,-0.00223977,0,
4,1.11788,0.747357,-0.181599,-0.00251545,0,
4,1.10661,0.737744,-0.181957,-0.00281071,0,
4,1.09543,0.727547,-0.182309,-0.0031202,0,
4,1.08432,0.716836,-0.182654,-0.00343832,0,
4,1.07328,0.705689,-0.182993,-0.00375956,0,
4,1.0623,0.694181,-0.183326,-0.00407892,0,
4,1.05136,0.682382,-0.183653,-0.004392,0,
4,1.04044,0.670335,-0.183975,-0.0046952,0,
4,1.0295,0.658076,-0.184292,-0.00498578,0,
4,1.01855,0.64565,-0.184605,-0.00526104,0,
4,1.00757,0.633099,-0.184912,-0.00551879,0,
4,0.996544,0.620459,-0.185215,-0.00575692,0,
4,0.98547,0.607761,-0.185513,-0.0059737,0,
4,0.974334,0.59503,-0.185807,-0.00616767,0,
4,0.963124,0.582289,-0.186096,-0.00633747,0,
4,0.951826,0.56956,-0.186381,-0.00648182,0,
4,0.940428,0.55686,-0.186659,-0.0065994,0,
4,0.928915,0.544207,-0.186944,-0.00669801,0,
4,0.917272,0.531584,-0.187197,-0.00678653,0,
4,0.905481,0.518853,-0.187392,-0.0068138,0,
4,0.893524,0.50584,-0.187573,-0.00684775,0,
4,0.881383,0.492457,-0.187748,-0.00688841,0,
4,0.869035,0.478651,-0.187922,-0.00693533,0,
4,0.856459,0.464382,-0.1881,-0.00698808,0,
4,0.843629,0.449618,-0.188281,-0.00704599,0,
4,0.830518,0.434331,-0.188466,-0.00710828,0,
4,0.817097,0.418498,-0.188656,-0.00717401,0,
4,0.803334,0.402098,-0.188849,-0.00724215,0,
4,0.789195,0.385117,-0.189044,-0.00731158,0,
4,0.774643,0.36754,-0.18924,-0.00738109,0,
4,0.759639,0.349356,-0.189436,-0.00744934,0,
4,0.744138,0.330558,-0.189632,-0.00751477,0,
4,0.728096,0.311142,-0.189828,-0.0075755,0,
4,0.711463,0.291115,-0.190023,-0.00762977,0,
4,0.694189,0.2705,-0.190218,-0.00767488,0,
4,0.676218,0.249329,-0.190412,-0.00770736,0,
4,0.657495,0.227647,-0.190603,-0.00772368,0,
4,0.637962,0.205502,-0.19079,-0.00772056,0,
4,0.617561,0.18294,-0.190967,-0.0076956,0,
4,0.596848,0.160604,-0.191122,-0.00764792,0,
4,0.576557,0.139248,-0.191254,-0.00757895,0,
4,0.556564,0.118738,-0.191361,-0.00749005,0,
4,0.536763,0.0989545,-0.191447,-0.00738251,0,
4,0.517057,0.079819,-0.191519,-0.00725719,0,
4,0.497368,0.0613108,-0.191588,-0.00711506,0,
4,0.477632,0.0434749,-0.191672,-0.00695803,0,
4,0.457804,0.0263978,-0.19177,-0.00678948,0,
4,0.437857,0.0101443,-0.191894,-0.00661626,0,
4,0.417786,-0.00535641,-0.191919,-0.00642804,0,
4,0.397605,-0.0203664,-0.191817,-0.00613264,0,
4,0.377348,-0.0350307,-0.191698,-0.00587974,0,
4,0.357066,-0.0492594,-0.191565,-0.00562468,0,
4,0.336828,-0.0629532,-0.191412,-0.00535991,0,
4,0.316717,-0.0760357,-0.191248,-0.00508596,0,
4,0.296825,-0.0884478,-0.191074,-0.0048039,0,
4,0.27725,-0.100147,-0.190894,-0.00451564,0,
4,0.258095,-0.111104,-0.19071,-0.0042233,0,
4,0.239458,-0.121304,-0.190525,-0.00392929,0,
4,0.221432,-0.130744,-0.19034,-0.00363608,0,
4,0.2041,-0.139433,-0.190157,-0.00334613,0,
4,0.187537,-0.147389,-0.189978,-0.00306179,0,
4,0.171798,-0.15464,-0.189803,-0.00278518,0,
4,0.156928,-0.161219,-0.189633,-0.00251814,0,
4,0.142956,-0.167161,-0.189469,-0.0022622,0,
4,0.129894,-0.172506,-0.189312,-0.00201856,0,
4,0.117744,-0.177294,-0.189164,-0.00178808,0,
4,0.106492,-0.181565,-0.189023,-0.00157131,0,
4,0.0961173,-0.185354,-0.188891,-0.00136851,0,
4,0.0865883,-0.188698,-0.188769,-0.0011797,0,
4,0.0778675,-0.191628,-0.188656,-0.00100469,0,
4,0.0699123,-0.194173,-0.188552,-0.00084311,0,
4,0.062677,-0.196357,-0.188458,-0.000694465,0,
4,0.056114,-0.198203,-0.188373,-0.000558162,0,
4,0.0501747,-0.199726,-0.188297,-0.000433549,0,
4,0.0448114,-0.20094,-0.188229,-0.000319936,0,
4,0.039977,-0.201854,-0.188169,-0.000216626,0,
4,0.0356266,-0.20247,-0.188117,-0.000122939,0,
4,0.0317171,-0.202785,-0.188072,-3.82331e-05,0,
4,0.0282081,-0.202791,-0.188032,3.80704e-05,0,
4,0.0250617,-0.202468,-0.187999,0.000106458,0,
4,0.0222427,-0.201786,-0.18797,0.000167287,0,
4,0.0197189,-0.200701,-0.187946,0.00022073,0,
4,0.0174603,-0.199147,-0.187926,0.000266691,0,
4,0.0154398,-0.197032,-0.18791,0.000304679,0,
4,0.0136326,-0.194226,-0.187897,0.000333631,0,
4,0.0120162,-0.190548,-0.187887,0.000351694,0,
4,0.0105703,-0.185758,-0.187879,0.000356106,0,
4,0.00927657,-0.179557,-0.187874,0.000343487,0,
4,0.00811839,-0.171618,-0.18787,0.000311121,0,
4,0.0070809,-0.161677,-0.187867,0.000259476,0,
4,0.0061507,-0.149686,-0.187866,0.000194869,0,
4,0.00531578,-0.135946,-0.187865,0.000129239,0,
4,0.00456537,-0.1211,-0.187864,7.49072e-05,0,
4,0.00388979,-0.10592,-0.187864,3.79706e-05,0,
4,0.00328037,-0.0910461,-0.187864,1.69402e-05,0,
4,0.00272934,-0.0768649,-0.187864,6.66612e-06,0,
4,0.0022297,-0.0635416,-0.187864,2.28832e-06,0,
4,0.00177519,-0.0511028,-0.187864,6.63523e-07,0,
4,0.00136016,-0.0395062,-0.187864,1.52162e-07,0,
4,0.000979511,-0.0286803,-0.187864,2.42795e-08,0,
4,0.00062865,-0.0185433,-0.187863,2.06472e-09,0,
4,0.000303409,-0.00901177,-0.187864,5.01611e-11,0,

6,0,0,-0.0348992,0,0,
6,9,0,-0.0786835,0,0,
6,8.99969,0.0135858,-0.0786831,1.9003e-10,0,
6,8.99934,0.0289067,-0.0786834,8.7705e-09,0,
6,8.99895,0.0462016,-0.0786831,1.18909e-07,0,
6,8.9985,0.0657231,-0.0786833,8.56917e-07,0,
6,8.99801,0.0877306,-0.0786831,4.22953e-06,0,
6,8.99744,0.112423,-0.0786832,1.59919e-05,0,
6,8.99681,0.139769,-0.078683,4.82881e-05,0,
6,8.99609,0.169233,-0.0786831,0.000117205,0,
6,8.99529,0.19965,-0.0786829,0.000229256,0,
6,8.99438,0.229582,-0.0786828,0.000369533,0,
6,8.99336,0.257933,-0.0786825,0.00051231,0,
6,8.9922,0.284214,-0.0786823,0.000640311,0,
6,8.9909,0.308432,-0.0786819,0.000743737,0,
6,8.98944,0.330749,-0.0786815,0.000830798,0,
6,8.98779,0.351336,-0.0786809,0.000903979,0,
6,8.98593,0.370441,-0.0786803,0.000961983,0,
6,8.98383,0.388326,-0.0786794,0.00100947,0,
6,8.98147,0.405198,-0.0786784,0.00104969,0,
6,8.97881,0.421222,-0.0786771,0.00108411,0,
6,8.97581,0.436539,-0.0786757,0.00111404,0,
6,8.97244,0.451266,-0.0786739,0.0011405,0,
6,8.96863,0.465505,-0.0786719,0.00116424,0,
6,8.96435,0.479341,-0.0786694,0.00118579,0,
6,8.95953,0.492848,-0.0786666,0.00120557,0,
6,8.95409,0.506089,-0.0786634,0.00122384,0,
6,8.94798,0.519122,-0.0786596,0.00124078,0,
6,8.94109,0.531993,-0.0786552,0.00125648,0,
6,8.93334,0.544747,-0.0786503,0.00127094,0,
6,8.92463,0.557419,-0.0786446,0.00128413,0,
6,8.91482,0.570043,-0.0786382,0.00129595,0,
6,8.90379,0.582647,-0.078631,0.00130623,0,
6,8.89139,0.595254,-0.0786229,0.00131479,0,
6,8.87746,0.607885,-0.0786139,0.00132141,0,
6,8.86181,0.620556,-0.078604,0.00132585,0,
6,8.84423,0.633282,-0.0785931,0.00132784,0,
6,8.82452,0.646073,-0.0785813,0.00132712,0,
6,8.80241,0.658937,-0.0785685,0.00132344,0,
6,8.77763,0.671883,-0.0785549,0.00131654,0,
6,8.74989,0.684919,-0.0785404,0.00130619,0,
6,8.71885,0.698053,-0.0785253,0.00129215,0,
6,8.68417,0.711297,-0.0785096,0.0012742,0,
6,8.64545,0.724667,-0.0784936,0.00125208,0,
6,8.60229,0.738185,-0.0784777,0.00122551,0,
6,8.55423,0.751882,-0.0784623,0.00119418,0,
6,8.50082,0.7658,-0.0784477,0.00115841,0,
6,8.44155,0.780011,-0.0784356,0.00111758,0,
6,8.37592,0.794647,-0.0784268,0.00106989,0,
6,8.30339,0.809905,-0.078422,0.0010138,0,
6,8.22344,0.826047,-0.0784217,0.000946413,0,
6,8.13555,0.843367,-0.0784273,0.000863992,0,
6,8.0392,0.862113,-0.0784349,0.00076314,0,
6,7.93391,0.88227,-0.0784455,0.00064367,0,
6,7.81927,0.903245,-0.0784483,0.000512306,0,
6,7.6949,0.92365,-0.0784514,0.000384129,0,
6,7.56054,0.941645,-0.0784436,0.000268786,0,
6,7.41603,0.955627,-0.0784327,0.00013802,0,
6,7.26132,0.964634,-0.0784263,5.46427e-05,0,
6,7.09653,0.96894,-0.078411,1.39872e-05,0,
6,6.92195,0.970014,-0.0783892,8.9493e-07,0,
6,6.73802,0.96961,-0.0783542,-8.55483e-07,0,
6,6.5454,0.968952,-0.0783045,-3.84828e-07,0,
6,6.34489,0.968531,-0.0782377,-9.39463e-08,0,
6,6.1375,0.968358,-0.0781522,-1.97404e-08,0,
6,5.92439,0.968297,-0.0780453,-6.39177e-09,0,
6,5.70687,0.968239,-0.0779137,-3.88724e-09,0,
6,5.48633,0.968142,-0.0777533,-3.33711e-09,0,
6,5.26426,0.968005,-0.0775601,-3.3913e-09,0,
6,5.04218,0.967837,-0.0773295,-3.67173e-09,0,
6,4.82159,0.967651,-0.0770569,-4.01591e-09,0,
6,4.60398,0.967459,-0.076738,-4.42788e-09,0,
6,4.39071,0.967258,-0.0763688,-5.11274e-09,0,
6,4.18307,0.967014,-0.0759459,-6.42352e-09,0,
6,3.98218,0.966663,-0.0754669,-8.56518e-09,0,
6,3.78902,0.966148,-0.0749305,-1.11317e-08,0,
6,3.60438,0.9655,-0.0743369,-1.44256e-08,0,
6,3.42888,0.964902,-0.0736879,-2.90029e-08,0,
6,3.26296,0.964653,-0.0729861,-5.48912e-08,0,
6,3.10691,0.964987,-0.0722346,6.76125e-08,0,
6,2.96084,0.965846,-0.071437,5.58545e-07,0,
6,2.82473,0.966802,-0.0705997,5.05755e-07,0,
6,2.69844,0.967197,-0.0697316,-3.39094e-06,0,
6,2.58172,0.96641,-0.068844,-1.58653e-05,0,
6,2.47424,0.964059,-0.0679493,-4.06402e-05,0,
6,2.37559,0.960071,-0.0670595,-7.88547e-05,0,
6,2.28535,0.95462,-0.0661857,-0.000129097,0,
6,2.20301,0.94803,-0.0653373,-0.00018827,0,
6,2.1281,0.940675,-0.0645222,-0.0002525,0,
6,2.06009,0.932914,-0.0637464,-0.000317791,0,
6,1.99849,0.92506,-0.0630131,-0.000380324,0,
6,1.9428,0.917372,-0.062327,-0.00043711,0,
6,1.89255,0.910036,-0.061684,-0.000487876,0,
6,1.84728,0.903129,-0.0610932,-0.000527956,0,
6,1.80655,0.896647,-0.0605545,-0.000558173,0,
6,1.76996,0.890596,-0.0600541,-0.000585893,0,
6,1.73712,0.884998,-0.0595974,-0.000611263,0,
6,1.70768,0.879822,-0.0591777,-0.000634746,0,
6,1.67998,0.874838,-0.0587778,-0.000657471,0,
6,1.65329,0.869947,-0.0583854,-0.000679649,0,
6,1.62754,0.865147,-0.0580008,-0.000701255,0,
6,1.60265,0.860436,-0.0576232,-0.000722285,0,
6,1.57854,0.855811,-0.0572524,-0.000742741,0,
6,1.55515,0.85127,-0.0568878,-0.000762659,0,
6,1.53242,0.846807,-0.056529,-0.000782061,0,
6,1.5103,0.842414,-0.0561758,-0.000800958,0,
6,1.48874,0.838078,-0.0558278,-0.000819407,0,
6,1.46769,0.833787,-0.055484,-0.000837574,0,
6,1.44712,0.829542,-0.0551432,-0.00085582,0,
6,1.42698,0.82536,-0.0548026,-0.000874615,0,
6,1.40725,0.82128,-0.054463,-0.000894217,0,
6,1.38788,0.817334,-0.0541209,-0.000914083,0,
6,1.36886,0.813499,-0.053793,-0.000926752,0,
6,1.35015,0.809706,-0.0534761,-0.000931944,0,
6,1.33173,0.805913,-0.0531562,-0.00094093,0,
6,1.31357,0.802106,-0.0528405,-0.000951028,0,
6,1.29566,0.798268,-0.0525258,-0.000962799,0,
6,1.27797,0.794378,-0.052213,-0.000977183,0,
6,1.26048,0.790414,-0.0519015,-0.000995399,0,
6,1.24318,0.786344,-0.0515913,-0.00101897,0,
6,1.22605,0.782131,-0.0512823,-0.00104976,0,
6,1.20907,0.77773,-0.0509742,-0.00108993,0,
6,1.19223,0.773088,-0.050667,-0.00114195,0,
6,1.17551,0.768144,-0.0503606,-0.00120849,0,
6,1.1589,0.762831,-0.0500548,-0.00129222,0,
6,1.14238,0.757078,-0.0497496,-0.00139565,0,
6,1.12595,0.750817,-0.0494452,-0.00152073,0,
6,1.10959,0.743991,-0.0491414,-0.00166856,0,
6,1.09329,0.736554,-0.0488385,-0.00183909,0,
6,1.07704,0.728486,-0.0485369,-0.00203092,0,
6,1.06081,0.719782,-0.0482367,-0.00224126,0,
6,1.04459,0.710461,-0.0479381,-0.00246619,0,
6,1.02836,0.700567,-0.0476416,-0.00270083,0,
6,1.01211,0.690157,-0.0473472,-0.00293967,0,
6,0.99583,0.679299,-0.0470558,-0.00317706,0,
6,0.97951,0.668066,-0.0467662,-0.00340763,0,
6,0.963136,0.65653,-0.0464817,-0.0036339,0,
6,0.946694,0.644714,-0.046193,-0.00384789,0,
6,0.930172,0.632538,-0.0458956,-0.00404228,0,
6,0.913555,0.619897,-0.0455996,-0.00424055,0,
6,0.896829,0.60673,-0.0453054,-0.0044453,0,
6,0.879979,0.593001,-0.0450148,-0.00465832,0,
6,0.862989,0.578694,-0.0447276,-0.00488094,0,
6,0.845842,0.563807,-0.0444458,-0.00511358,0,
6,0.828521,0.548336,-0.0441717,-0.0053536,0,
6,0.811008,0.532275,-0.043906,-0.0056004,0,
6,0.793282,0.515619,-0.0436495,-0.00585301,0,
6,0.775322,0.498373,-0.0434025,-0.00610992,0,
6,0.757107,0.480549,-0.0431657,-0.00636914,0,
6,0.738612,0.462167,-0.0429395,-0.00662816,0,
6,0.719813,0.443257,-0.0427248,-0.00688401,0,
6,0.700681,0.423857,-0.0425225,-0.00713334,0,
6,0.681188,0.404012,-0.042333,-0.00737249,0,
6,0.661304,0.383764,-0.0421554,-0.00759754,0,
6,0.640996,0.363151,-0.0419873,-0.00780433,0,
6,0.620228,0.342196,-0.0418256,-0.00798834,0,
6,0.598964,0.320927,-0.0416695,-0.00814446,0,
6,0.577166,0.299408,-0.0415272,-0.00826686,0,
6,0.554791,0.277802,-0.0414178,-0.00834959,0,
6,0.531799,0.25642,-0.0413832,-0.00838857,0,
6,0.508144,0.235687,-0.0414381,-0.00838333,0,
6,0.48378,0.21594,-0.0416127,-0.00833749,0,
6,0.459585,0.197748,-0.0415826,-0.00817811,0,
6,0.436695,0.181369,-0.0413704,-0.00787355,0,
6,0.414961,0.166321,-0.0412182,-0.00762077,0,
6,0.394252,0.152426,-0.0410626,-0.00735916,0,
6,0.374445,0.139546,-0.040914,-0.00709021,0,
6,0.355433,0.127561,-0.0407694,-0.00681522,0,
6,0.337122,0.116369,-0.0406265,-0.00653536,0,
6,0.319433,0.105884,-0.0404838,-0.00625169,0,
6,0.3023,0.0960338,-0.0403397,-0.00596508,0,
6,0.28567,0.086759,-0.0401924,-0.00567633,0,
6,0.269507,0.0780109,-0.0400405,-0.00538626,0,
6,0.253785,0.0697508,-0.0398827,-0.00509577,0,
6,0.238493,0.0619476,-0.0397178,-0.00480585,0,
6,0.223631,0.0545768,-0.0395448,-0.00451759,0,
6,0.209207,0.0476191,-0.039363,-0.00423224,0,
6,0.195237,0.0410585,-0.039172,-0.00395109,0,
6,0.181744,0.0348817,-0.038972,-0.00367551,0,
6,0.168754,0.0290767,-0.0387632,-0.00340688,0,
6,0.156292,0.0236323,-0.0385466,-0.00314654,0,
6,0.144384,0.0185375,-0.0383235,-0.00289571,0,
6,0.133052,0.013781,-0.0380956,-0.00265551,0,
6,0.122315,0.00935155,-0.0378649,-0.00242686,0,
6,0.112183,0.00523738,-0.0376339,-0.00221049,0,
6,0.102665,0.00142571,-0.0374055,-0.00200685,0,
6,0.0937597,-0.00209848,-0.0371824,-0.0018157,0,
6,0.0854609,-0.00535267,-0.0369667,-0.00163676,0,
6,0.077757,-0.00835451,-0.0367602,-0.00147042,0,
6,0.0706309,-0.0111201,-0.0365646,-0.00131655,0,
6,0.0640611,-0.0136645,-0.036381,-0.00117465,0,
6,0.0580229,-0.0160021,-0.0362101,-0.00104416,0,
6,0.0524888,-0.0181471,-0.0360524,-0.000924524,0,
6,0.0474296,-0.0201132,-0.0359079,-0.000815124,0,
6,0.042815,-0.0219132,-0.0357763,-0.000715324,0,
6,0.0386145,-0.0235591,-0.0356574,-0.000624468,0,
6,0.0347975,-0.0250619,-0.0355506,-0.0005419,0,
6,0.0313344,-0.0264316,-0.0354553,-0.000466975,0,
6,0.0281964,-0.027677,-0.0353707,-0.000399072,0,
6,0.0253561,-0.0288059,-0.0352959,-0.0003376,0,
6,0.0227875,-0.0298246,-0.0352304,-0.000282005,0,
6,0.0204662,-0.0307381,-0.0351731,-0.000231775,0,
6,0.0183694,-0.0315498,-0.0351237,-0.000186445,0,
6,0.016476,-0.032261,-0.0350808,-0.000145604,0,
6,0.0147664,-0.0328706,-0.0350445,-0.000108904,0,
6,0.0132228,-0.033374,-0.0350132,-7.60781e-05,0,
6,0.0118288,-0.0337618,-0.0349877,-4.69629e-05,0,
6,0.0105693,-0.034018,-0.0349659,-2.15495e-05,0,
6,0.00943073,-0.0341169,-0.0349492,-5.32237e-08,0,
6,0.00840063,-0.0340191,-0.0349348,1.69995e-05,0,
6,0.00746774,-0.033668,-0.0349253,2.87433e-05,0,
6,0.00662185,-0.0329905,-0.0349169,3.4223e-05,0,
6,0.00585371,-0.0319097,-0.0349128,3.31826e-05,0,
6,0.00515491,-0.0303778,-0.0349083,2.70536e-05,0,
6,0.00451788,-0.0284136,-0.0349076,1.88281e-05,0,
6,0.00393573,-0.0261063,-0.034905,1.13898e-05,0,
6,0.00340221,-0.0235758,-0.0349058,6.10554e-06,0,
6,0.00291168,-0.0209287,-0.0349035,2.9363e-06,0,
6,0.00245897,-0.018239,-0.034905,1.26631e-06,0,
6,0.00203939,-0.0155505,-0.0349024,4.81666e-07,0,
6,0.00164864,-0.0128862,-0.0349046,1.55687e-07,0,
6,0.00128281,-0.010255,-0.0349014,3.98949e-08,0,
6,0.000938257,-0.00765749,-0.0349043,7.11028e-09,0,
6,0.000611645,-0.00508879,-0.0349004,6.71934e-10,0,
6,0.000299862,-0.00254015,-0.0349043,1.77489e-11,0,

10,0.000296632,0.00782956,0.0317334,-4.04865e-11,0,
10,0.000596102,0.0157311,0.0317342,-1.50042e-09,0,
10,0.000900397,0.023757,0.0317334,-1.52551e-08,0,
10,0.00121153,0.03196,0.031734,-8.19837e-08,0,
10,0.00153158,0.040393,0.0317333,-3.0674e-07,0,
10,0.00186264,0.0491081,0.0317338,-9.12507e-07,0,
10,0.00220692,0.0581546,0.0317333,-2.31871e-06,0,
10,0.00256668,0.0675751,0.0317336,-5.24541e-06,0,
10,0.00294431,0.0773987,0.0317332,-1.0826e-05,0,
10,0.00334229,0.0876308,0.0317334,-2.06732e-05,0,
10,0.00376326,0.0982404,0.031733,-3.67898e-05,0,
10,0.00421,0.109147,0.0317332,-6.11936e-05,0,
10,0.00468544,0.120215,0.0317327,-9.52307e-05,0,
10,0.00519274,0.13126,0.0317327,-0.000138823,0,
10,0.00573524,0.142076,0.031732,-0.000190137,0,
10,0.00631651,0.152469,0.0317317,-0.000245996,0,
10,0.00694041,0.162285,0.0317308,-0.000302833,0,
10,0.00761104,0.171425,0.03173,-0.000357598,0,
10,0.00833284,0.179846,0.0317285,-0.00040824,0,
10,0.00911058,0.187548,0.0317269,-0.000453728,0,
10,0.0099494,0.194566,0.0317247,-0.000493842,0,
10,0.0108548,0.200951,0.0317221,-0.000528894,0,
10,0.0118329,0.206766,0.0317187,-0.000559495,0,
10,0.0128901,0.212073,0.0317147,-0.000586385,0,
10,0.0140333,0.216937,0.0317098,-0.000610325,0,
10,0.0152702,0.221415,0.0317041,-0.000632035,0,
10,0.0166089,0.225559,0.0316972,-0.000652166,0,
10,0.0180584,0.229417,0.0316893,-0.000671295,0,
10,0.0196282,0.233029,0.03168,-0.000689926,0,
10,0.0213288,0.236432,0.0316694,-0.000708499,0,
10,0.0231714,0.239656,0.0316571,-0.000727406,0,
10,0.0251682,0.24273,0.0316432,-0.000746999,0,
10,0.0273326,0.245678,0.0316274,-0.000767601,0,
10,0.0296789,0.248521,0.0316095,-0.000789515,0,
10,0.0322227,0.251279,0.0315894,-0.000813033,0,
10,0.0349809,0.25397,0.0315668,-0.000838444,0,
10,0.0379719,0.256609,0.0315414,-0.000866036,0,
10,0.0412155,0.259211,0.0315132,-0.000896103,0,
10,0.0447333,0.261792,0.0314818,-0.00092895,0,
10,0.0485489,0.264364,0.0314469,-0.000964897,0,
10,0.0526875,0.266941,0.0314084,-0.00100428,0,
10,0.0571768,0.269537,0.0313659,-0.00104745,0,
10,0.0620466,0.272164,0.0313192,-0.0010948,0,
10,0.0673295,0.274837,0.0312681,-0.00114672,0,
10,0.0730607,0.27757,0.0312121,-0.00120366,0,
10,0.0792784,0.280378,0.0311512,-0.00126607,0,
10,0.0860241,0.283278,0.0310851,-0.00133446,0,
10,0.0933428,0.286288,0.0310135,-0.00140935,0,
10,0.101283,0.289427,0.0309364,-0.00149129,0,
10,0.109899,0.292717,0.0308536,-0.00158089,0,
10,0.119247,0.296181,0.030765,-0.00167876,0,
10,0.12939,0.299848,0.0306706,-0.00178553,0,
10,0.140395,0.303747,0.0305705,-0.00190188,0,
10,0.152337,0.307914,0.0304649,-0.00202846,0,
10,0.165296,0.312388,0.0303538,-0.0021659,0,
10,0.179357,0.317217,0.0302377,-0.00231483,0,
10,0.194615,0.322452,0.0301167,-0.00247577,0,
10,0.211171,0.328156,0.0299913,-0.00264914,0,
10,0.229138,0.3344,0.0298615,-0.00283516,0,
10,0.248635,0.341267,0.0297283,-0.00303382,0,
10,0.269793,0.348853,0.0295905,-0.00324471,0,
10,0.292753,0.357272,0.0294506,-0.0034669,0,
10,0.317669,0.366652,0.0293038,-0.00369735,0,
10,0.344708,0.377135,0.0291557,-0.00393135,0,
10,0.372405,0.38823,0.0290106,-0.00415858,0,
10,0.399623,0.3995,0.0288699,-0.00436776,0,
10,0.426397,0.410941,0.0287349,-0.00455464,0,
10,0.452757,0.422549,0.0286025,-0.00472098,0,
10,0.478735,0.434321,0.0284743,-0.00486462,0,
10,0.504358,0.446264,0.0283489,-0.0049841,0,
10,0.529657,0.458383,0.0282265,-0.00508026,0,
10,0.554656,0.470678,0.0281014,-0.00515263,0,
10,0.579382,0.483147,0.0279818,-0.00520088,0,
10,0.603859,0.495788,0.0278467,-0.00523871,0,
10,0.628112,0.508666,0.0277427,-0.00526498,0,
10,0.652163,0.522056,0.0277011,-0.00517077,0,
10,0.676035,0.536194,0.0276483,-0.00504744,0,
10,0.699751,0.550978,0.0275598,-0.0048955,0,
10,0.72333,0.566129,0.027436,-0.00471667,0,
10,0.746795,0.581356,0.0272852,-0.0045148,0,
10,0.770165,0.59644,0.0271168,-0.0042946,0,
10,0.79346,0.611244,0.026936,-0.00406102,0,
10,0.816699,0.625673,0.0267453,-0.00381894,0,
10,0.839903,0.63963,0.0265427,-0.0035783,0,
10,0.863088,0.653015,0.0263276,-0.0033445,0,
10,0.886275,0.665756,0.0261024,-0.00311854,0,
10,0.909481,0.677838,0.0258687,-0.00290116,0,
10,0.932723,0.689279,0.0256279,-0.00269313,0,
10,0.956021,0.700114,0.0253799,-0.00249519,0,
10,0.97939,0.710374,0.0251249,-0.00230795,0,
10,1.00285,0.720085,0.0248623,-0.00213196,0,
10,1.02641,0.729268,0.0245925,-0.00196762,0,
10,1.0501,0.737948,0.024315,-0.00181513,0,
10,1.07392,0.746156,0.0240326,-0.00167248,0,
10,1.0979,0.753926,0.0237441,-0.00153861,0,
10,1.12205,0.761271,0.0234463,-0.00141854,0,
10,1.14639,0.768194,0.0231409,-0.00131115,0,
10,1.17093,0.774715,0.0228271,-0.00121704,0,
10,1.19568,0.780866,0.022506,-0.00113612,0,
10,1.22066,0.78669,0.022177,-0.0010677,0,
10,1.24589,0.792237,0.0218417,-0.00101056,0,
10,1.27137,0.797556,0.0214984,-0.000963354,0,
10,1.29713,0.802699,0.0211508,-0.000929656,0,
10,1.32317,0.80777,0.0207975,-0.000891503,0,
10,1.34951,0.812899,0.0204371,-0.000852497,0,
10,1.37616,0.818127,0.020072,-0.000815858,0,
10,1.40313,0.823402,0.0196984,-0.000781822,0,
10,1.43043,0.828645,0.0193168,-0.000750178,0,
10,1.45807,0.833808,0.0189266,-0.000720311,0,
10,1.48607,0.838891,0.0185287,-0.000691563,0,
10,1.51444,0.843918,0.0181233,-0.000663515,0,
10,1.54318,0.848904,0.0177106,-0.000636055,0,
10,1.57231,0.853844,0.0172899,-0.000609234,0,
10,1.60184,0.858714,0.0168613,-0.000583134,0,
10,1.63178,0.863484,0.0164246,-0.00055781,0,
10,1.66213,0.868127,0.0159802,-0.000533274,0,
10,1.69292,0.872625,0.0155274,-0.000509437,0,
10,1.72416,0.876981,0.0150678,-0.000485953,0,
10,1.75585,0.881235,0.0145983,-0.000458521,0,
10,1.78802,0.885434,0.0141199,-0.000430329,0,
10,1.82067,0.889587,0.0136343,-0.00040211,0,
10,1.85383,0.893675,0.0131395,-0.0003727,0,
10,1.88751,0.897675,0.0126362,-0.000342319,0,
10,1.92173,0.901563,0.0121242,-0.000311346,0,
10,1.95652,0.905315,0.0116028,-0.00028022,0,
10,1.9919,0.908907,0.0110729,-0.000249417,0,
10,2.02791,0.912315,0.010533,-0.000219486,0,
10,2.06456,0.915521,0.00998513,-0.000190651,0,
10,2.10268,0.918565,0.00941381,-0.00016248,0,
10,2.1443,0.921538,0.0087936,-0.000135333,0,
10,2.18977,0.924389,0.00811705,-0.00010933,0,
10,2.23946,0.927037,0.0073824,-8.47755e-05,0,
10,2.29376,0.929398,0.00658393,-6.25107e-05,0,
10,2.35309,0.931387,0.00571939,-4.32598e-05,0,
10,2.4179,0.932934,0.00478474,-2.75888e-05,0,
10,2.48863,0.933988,0.00377843,-1.58164e-05,0,
10,2.56575,0.934542,0.00269847,-7.9003e-06,0,
10,2.64971,0.934647,0.00154492,-3.37107e-06,0,
10,2.74098,0.934419,0.000318097,-1.36945e-06,0,
10,2.83997,0.934036,-0.000980025,-8.3717e-07,0,
10,2.94709,0.933704,-0.002347,-8.28301e-07,0,
10,3.06269,0.933615,-0.00377909,-7.84736e-07,0,
10,3.18706,0.933885,-0.0052718,-5.82508e-07,0,
10,3.3204,0.934526,-0.00681906,-3.34902e-07,0,
10,3.46281,0.935447,-0.0084132,-1.5553e-07,0,
10,3.61427,0.936502,-0.0100444,-6.61119e-08,0,
10,3.77463,0.937548,-0.0117009,-3.33287e-08,0,
10,3.94358,0.938501,-0.0133693,-2.3439e-08,0,
10,4.12067,0.939343,-0.0150354,-2.01416e-08,0,
10,4.30525,0.940104,-0.0166846,-1.86442e-08,0,
10,4.49655,0.94083,-0.0183027,-1.80465e-08,0,
10,4.6936,0.941549,-0.0198762,-1.83184e-08,0,
10,4.89531,0.942265,-0.0213929,-1.99494e-08,0,
10,5.10047,0.942963,-0.0228421,-2.43903e-08,0,
10,5.30776,0.943624,-0.0242149,-3.48818e-08,0,
10,5.51581,0.94423,-0.0255043,-5.81251e-08,0,
10,5.72323,0.944779,-0.0267055,-1.08471e-07,0,
10,5.92863,0.945295,-0.0278156,-2.20808e-07,0,
10,6.13069,0.945843,-0.0288338,-4.86666e-07,0,
10,6.32816,0.94652,-0.0297613,-1.0988e-06,0,
10,6.51991,0.94736,-0.0306006,-2.146e-06,0,
10,6.70495,0.948138,-0.0313558,-2.3624e-06,0,
10,6.88244,0.948145,-0.032031,3.52211e-06,0,
10,7.0517,0.946161,-0.0326306,2.63384e-05,0,
10,7.21224,0.940796,-0.0331555,7.94211e-05,0,
10,7.3637,0.931157,-0.0336115,0.000172074,0,
10,7.5059,0.917276,-0.0340031,0.000295686,0,
10,7.63878,0.89974,-0.0343351,0.000403043,0,
10,7.76243,0.879646,-0.0346165,0.000521862,0,
10,7.87701,0.858762,-0.0348423,0.000643414,0,
10,7.9828,0.838551,-0.0350288,0.000753899,0,
10,8.08014,0.81973,-0.0351784,0.000848169,0,
10,8.16941,0.802386,-0.0353024,0.000926635,0,
10,8.25106,0.786273,-0.0354048,0.000992418,0,
10,8.32554,0.771067,-0.0354919,0.00104874,0,
10,8.39331,0.756489,-0.0355658,0.00109789,0,
10,8.45484,0.742338,-0.0356294,0.00114116,0,
10,8.5106,0.728493,-0.0356838,0.0011792,0,
10,8.56104,0.714892,-0.0357306,0.00121227,0,
10,8.60659,0.701513,-0.0357707,0.00124047,0,
10,8.64767,0.688362,-0.0358055,0.00126393,0,
10,8.68467,0.675442,-0.0358356,0.00128252,0,
10,8.71795,0.66273,-0.0358619,0.00129304,0,
10,8.74786,0.650198,-0.0358848,0.00130001,0,
10,8.77471,0.637845,-0.0359045,0.00130269,0,
10,8.79881,0.625665,-0.0359215,0.0013015,0,
10,8.8204,0.613654,-0.0359361,0.00129696,0,
10,8.83975,0.601801,-0.0359488,0.00128954,0,
10,8.85708,0.590093,-0.0359596,0.00127973,0,
10,8.87259,0.578514,-0.0359688,0.00126797,0,
10,8.88646,0.567043,-0.0359767,0.00125465,0,
10,8.89886,0.555657,-0.0359834,0.00124014,0,
10,8.90995,0.54433,-0.0359891,0.00122471,0,
10,8.91986,0.53303,-0.0359939,0.00120859,0,
10,8.92872,0.521726,-0.035998,0.00119195,0,
10,8.93663,0.510383,-0.0360013,0.00117489,0,
10,8.94369,0.498961,-0.0360042,0.00115744,0,
10,8.95,0.48742,-0.0360065,0.00113958,0,
10,8.95564,0.475714,-0.0360085,0.00112122,0,
10,8.96067,0.463793,-0.0360101,0.00110222,0,
10,8.96517,0.451602,-0.0360115,0.00108233,0,
10,8.96918,0.43908,-0.0360125,0.00106123,0,
10,8.97276,0.426158,-0.0360135,0.00103849,0,
10,8.97596,0.412755,-0.0360141,0.00101355,0,
10,8.97882,0.398779,-0.0360149,0.000985692,0,
10,8.98137,0.384122,-0.0360152,0.00095398,0,
10,8.98365,0.368656,-0.0360159,0.000917205,0,
10,8.98569,0.352232,-0.036016,0.000873922,0,
10,8.9875,0.334669,-0.0360165,0.00082214,0,
10,8.98913,0.315731,-0.0360164,0.000756521,0,
10,8.99058,0.295188,-0.0360169,0.000679016,0,
10,8.99188,0.272873,-0.0360167,0.000587159,0,
10,8.99304,0.248626,-0.0360172,0.000474293,0,
10,8.99408,0.222404,-0.0360169,0.000347912,0,
10,8.99501,0.194578,-0.0360174,0.000221704,0,
10,8.99583,0.166049,-0.0360169,0.000117553,0,
10,8.99658,0.138084,-0.0360175,5.04914e-05,0,
10,8.99724,0.111801,-0.0360169,1.74265e-05,0,
10,8.99784,0.0877895,-0.0360176,4.78713e-06,0,
10,8.99837,0.0661602,-0.0360169,1.00387e-06,0,
10,8.99885,0.0467785,-0.0360177,1.43795e-07,0,
10,8.99927,0.0294329,-0.0360169,1.0916e-08,0,
10,8.99966,0.0139081,-0.0360179,2.41503e-10,0,
10,0,0,0.0317344,0,0,
10,9,0,-0.0360168,0,0,

0.004,0,0,-0.220569,0,-1.00213e-07,
0.00868226,0,0,-0.220565,0,-1.73862e-07,
0.014062,0,0,-0.220568,0,-2.64509e-07,
0.0201548,0,0,-0.220566,0,-6.85808e-07,
0.0269766,0,0,-0.220568,0,-1.25583e-06,
0.0345437,0,0,-0.220567,0,-2.0832e-06,
0.0428729,0,0,-0.220567,0,-3.02372e-06,
0.051981,0,0,-0.220566,0,-4.05437e-06,
0.0618853,0,0,-0.220564,0,-5.00783e-06,
0.0726036,0,0,-0.220561,0,-5.7387e-06,
0.0841536,0,0,-0.220556,0,-6.00523e-06,
0.0965535,0,0,-0.220551,0,-5.56095e-06,
0.109822,0,0,-0.220544,0,-4.14085e-06,
0.123977,0,0,-0.220537,0,-1.54526e-06,
0.139037,0,0,-0.220532,0,2.318e-06,
0.155022,0,0,-0.220529,0,7.38079e-06,
0.171949,0,0,-0.220531,0,1.34037e-05,
0.189839,0,0,-0.220539,0,2.00038e-05,
0.208709,0,0,-0.220554,0,2.67074e-05,
0.228579,0,0,-0.220576,0,3.30258e-05,
0.249467,0,0,-0.220604,0,3.85145e-05,
0.271391,0,0,-0.220638,0,4.28261e-05,
0.29437,0,0,-0.220674,0,4.57297e-05,
0.31842,0,0,-0.22071,0,4.7123e-05,
0.343559,0,0,-0.220745,0,4.70223e-05,
0.369804,0,0,-0.220777,0,4.55521e-05,
0.39717,0,0,-0.220804,0,4.29242e-05,
0.425672,0,0,-0.220825,0,3.94173e-05,
0.455324,0,0,-0.22084,0,3.53516e-05,
0.48614,0,0,-0.22085,0,3.10628e-05,
0.518132,0,0,-0.220854,0,2.68892e-05,
0.551309,0,0,-0.220855,0,2.31767e-05,
0.585683,0,0,-0.220853,0,2.03e-05,
0.621259,0,0,-0.220849,0,1.86758e-05,
0.658046,0,0,-0.220844,0,1.86889e-05,
0.696047,0,0,-0.220843,0,2.05464e-05,
0.735265,0,0,-0.22085,0,2.41535e-05,
0.7757,0,0,-0.220868,0,2.91278e-05,
0.817352,0,0,-0.220902,0,3.49468e-05,
0.860215,0,0,-0.220952,0,4.11306e-05,
0.904285,0,0,-0.221019,0,4.7388e-05,
0.949552,0,0,-0.221106,0,5.36513e-05,
0.996004,0,0,-0.221215,0,6.00116e-05,
1.04363,0,0,-0.221353,0,6.65171e-05,
1.09241,0,0,-0.22153,0,7.29402e-05,
1.14232,0,0,-0.221757,0,7.87117e-05,
1.19335,0,0,-0.222054,0,8.28118e-05,
1.24546,0,0,-0.222443,0,8.36161e-05,
1.29863,0,0,-0.222949,0,7.89818e-05,
1.35283,0,0,-0.223597,0,6.65628e-05,
1.40802,0,0,-0.224402,0,4.43112e-05,
1.46416,0,0,-0.225362,0,1.11355e-05,
1.52121,0,0,-0.226459,0,-3.26128e-05,
1.57913,0,0,-0.227661,0,-8.51576e-05,
1.63787,0,0,-0.228929,0,-0.000143849,
1.69739,0,0,-0.230224,0,-0.000205965,
1.75761,0,0,-0.231517,0,-0.00026936,
1.81851,0,0,-0.232779,0,-0.000332715,
1.88,0,0,-0.233991,0,-0.000395429,
1.94204,0,0,-0.235136,0,-0.000457338,
2.00457,0,0,-0.236201,0,-0.000518455,
2.06751,0,0,-0.237174,0,-0.000578821,
2.13081,0,0,-0.238044,0,-0.000638442,
2.19439,0,0,-0.238802,0,-0.00069729,
2.25819,0,0,-0.239438,0,-0.000755318,
2.32214,0,0,-0.239944,0,-0.000812476,
2.38617,0,0,-0.240314,0,-0.000868712,
2.4502,0,0,-0.24054,0,-0.00092398,
2.51418,0,0,-0.240617,0,-0.000978229,
2.57803,0,0,-0.240538,0,-0.0010314,
2.64167,0,0,-0.2403,0,-0.00108343,
2.70505,0,0,-0.239897,0,-0.00113423,
2.76808,0,0,-0.239327,0,-0.00118372,
2.83072,0,0,-0.238586,0,-0.00123178,
2.89288,0,0,-0.237674,0,-0.00127833,
2.95451,0,0,-0.23659,0,-0.00132327,
3.01555,0,0,-0.235334,0,-0.00136649,
3.07594,0,0,-0.233909,0,-0.0014079,
3.13561,0,0,-0.232317,0,-0.00144739,
3.19453,0,0,-0.230563,0,-0.00148484,
3.25262,0,0,-0.22865,0,-0.00152013,
3.30985,0,0,-0.226586,0,-0.00155316,
3.36617,0,0,-0.224379,0,-0.00158382,
3.42154,0,0,-0.222037,0,-0.00161203,
3.47591,0,0,-0.219571,0,-0.00163773,
3.52925,0,0,-0.216993,0,-0.00166087,
3.58152,0,0,-0.214314,0,-0.00168144,
3.6327,0,0,-0.211547,0,-0.00169946,
3.68276,0,0,-0.208706,0,-0.00171494,
3.73167,0,0,-0.205804,0,-0.00172797,
3.77941,0,0,-0.202855,0,-0.00173861,
3.82596,0,0,-0.199873,0,-0.00174698,
3.8713,0,0,-0.19687,0,-0.00175319,
3.91543,0,0,-0.193857,0,-0.00175726,
3.95833,0,0,-0.190861,0,-0.00175962,
4,0,0,-0.187864,0,-0.00176025,
4.04167,0,0,-0.184809,0,-0.00175904,
4.08333,0,0,-0.181691,0,-0.00175625,
4.125,0,0,-0.178516,0,-0.00175186,
4.16667,0,0,-0.175287,0,-0.00174588,
4.20833,0,0,-0.17201,0,-0.00173832,
4.25,0,0,-0.168688,0,-0.00172923,
4.29167,0,0,-0.165326,0,-0.00171864,
4.33333,0,0,-0.161929,0,-0.00170658,
4.375,0,0,-0.1585,0,-0.0016931,
4.41667,0,0,-0.155045,0,-0.00167823,
4.45833,0,0,-0.151567,0,-0.00166202,
4.5,0,0,-0.148071,0,-0.00164452,
4.54167,0,0,-0.14456,0,-0.00162577,
4.58333,0,0,-0.141038,0,-0.00160581,
4.625,0,0,-0.13751,0,-0.00158469,
4.66667,0,0,-0.13398,0,-0.00156246,
4.70833,0,0,-0.13045,0,-0.00153915,
4.75,0,0,-0.126924,0,-0.00151483,
4.79167,0,0,-0.123405,0,-0.00148953,
4.83333,0,0,-0.119898,0,-0.00146329,
4.875,0,0,-0.116404,0,-0.00143617,
4.91667,0,0,-0.112927,0,-0.00140821,
4.95833,0,0,-0.109469,0,-0.00137945,
5,0,0,-0.106033,0,-0.00134992,
5.04167,0,0,-0.102622,0,-0.00131967,
5.08333,0,0,-0.0992372,0,-0.00128873,
5.125,0,0,-0.095882,0,-0.00125715,
5.16667,0,0,-0.0925581,0,-0.00122497,
5.20833,0,0,-0.0892673,0,-0.00119221,
5.25,0,0,-0.0860117,0,-0.00115893,
5.29167,0,0,-0.0827928,0,-0.00112513,
5.33333,0,0,-0.0796124,0,-0.00109087,
5.375,0,0,-0.0764719,0,-0.00105617,
5.41667,0,0,-0.0733727,0,-0.00102105,
5.45833,0,0,-0.0703162,0,-0.000985557,
5.5,0,0,-0.0673036,0,-0.000949706,
5.54167,0,0,-0.064336,0,-0.000913529,
5.58333,0,0,-0.0614145,0,-0.000877056,
5.625,0,0,-0.05854,0,-0.000840314,
5.66667,0,0,-0.0557135,0,-0.000803332,
5.70833,0,0,-0.0529356,0,-0.000766138,
5.75,0,0,-0.050207,0,-0.000728758,
5.79167,0,0,-0.0475284,0,-0.000691221,
5.83333,0,0,-0.0449003,0,-0.000653553,
5.875,0,0,-0.042323,0,-0.00061578,
5.91667,0,0,-0.0397969,0,-0.000577926,
5.95833,0,0,-0.0373223,0,-0.000540011,
6,0,0,-0.0348995,0,-0.000502056,
6.04167,0,0,-0.0325286,0,-0.000464077,
6.08333,0,0,-0.0302099,0,-0.00042609,
6.125,0,0,-0.0279437,0,-0.000388104,
6.16667,0,0,-0.0257303,0,-0.000350127,
6.20833,0,0,-0.0235702,0,-0.000312168,
6.25,0,0,-0.0214641,0,-0.000274246,
6.29167,0,0,-0.0194133,0,-0.000236403,
6.33333,0,0,-0.0174188,0,-0.00019873,
6.375,0,0,-0.0154819,0,-0.000161364,
6.41667,0,0,-0.0136028,0,-0.000124459,
6.45833,0,0,-0.0117804,0,-8.81228e-05,
6.5,0,0,-0.010013,0,-5.2386e-05,
6.54167,0,0,-0.0082989,0,-1.72296e-05,
6.58333,0,0,-0.0066367,0,1.73803e-05,
6.625,0,0,-0.00502497,0,5.14726e-05,
6.66667,0,0,-0.00346246,0,8.50672e-05,
6.70833,0,0,-0.00194799,0,0.000118178,
6.75,0,0,-0.000480436,0,0.000150816,
6.79167,0,0,0.000941258,0,0.000182991,
6.83333,0,0,0.00231811,0,0.000214709,
6.875,0,0,0.00365112,0,0.000245977,
6.91667,0,0,0.00494122,0,0.000276801,
6.95833,0,0,0.00618937,0,0.000307185,
7,0,0,0.00739646,0,0.000337132,
7.04167,0,0,0.00856339,0,0.000366645,
7.08333,0,0,0.00969106,0,0.000395727,
7.125,0,0,0.0107803,0,0.000424382,
7.16667,0,0,0.011832,0,0.000452612,
7.20833,0,0,0.0128471,0,0.00048042,
7.25,0,0,0.0138262,0,0.000507809,
7.29167,0,0,0.0147703,0,0.000534781,
7.33333,0,0,0.0156801,0,0.000561338,
7.375,0,0,0.0165564,0,0.000587483,
7.41667,0,0,0.0174001,0,0.000613217,
7.45833,0,0,0.0182119,0,0.000638544,
7.5,0,0,0.0189926,0,0.000663467,
7.54167,0,0,0.0197428,0,0.000687991,
7.58333,0,0,0.0204634,0,0.000712121,
7.625,0,0,0.021155,0,0.000735865,
7.66667,0,0,0.0218183,0,0.000759231,
7.70833,0,0,0.0224539,0,0.000782234,
7.75,0,0,0.0230625,0,0.000804888,
7.79167,0,0,0.0236447,0,0.00082721,
7.83333,0,0,0.0242005,0,0.000849205,
7.875,0,0,0.0247303,0,0.000870923,
7.91667,0,0,0.0252443,0,0.000892852,
7.95833,0,0,0.0256798,0,0.000913598,
8,0,0,0.026184,0,0.000934134,
8.04171,0,0,0.0266988,0,0.000955696,
8.08368,0,0,0.0270855,0,0.000977006,
8.12617,0,0,0.027506,0,0.00099669,
8.16946,0,0,0.0279062,0,0.00101646,
8.21382,0,0,0.0282884,0,0.00103625,
8.25952,0,0,0.0286598,0,0.0010561,
8.30685,0,0,0.0290204,0,0.00107618,
8.35611,0,0,0.0293708,0,0.0010966,
8.40762,0,0,0.0297111,0,0.00111744,
8.46168,0,0,0.0300411,0,0.00113878,
8.51865,0,0,0.0303599,0,0.00116068,
8.57889,0,0,0.0306661,0,0.00118321,
8.64276,0,0,0.030958,0,0.0012064,
8.71067,0,0,0.0312331,0,0.0012303,
8.78306,0,0,0.0314885,0,0.00125494,
8.86037,0,0,0.0317209,0,0.00128033,
8.94309,0,0,0.0319262,0,0.00130648,
9.03174,0,0,0.0321,0,0.00133338,
9.12689,0,0,0.0322373,0,0.00136103,
9.22912,0,0,0.0323325,0,0.00138937,
9.33908,0,0,0.0323798,0,0.00141836,
9.45746,0,0,0.032373,0,0.00144795,
9.58501,0,0,0.0323059,0,0.00147804,
9.72253,0,0,0.0321721,0,0.00150855,
9.87088,0,0,0.031965,0,0.00153935,
10.031,0,0,0.031679,0,0.00157033,
10.2039,0,0,0.0313094,0,0.00160134,
10.3906,0,0,0.0308517,0,0.00163225,
10.5924,0,0,0.0303023,0,0.00166292,
10.8105,0,0,0.0296601,0,0.00169319,
11.0463,0,0,0.0289247,0,0.00172295,
11.3012,0,0,0.0280976,0,0.00175203,
11.5769,0,0,0.0271836,0,0.00178032,
11.8751,0,0,0.0261882,0,0.00180772,
12.1977,0,0,0.0251204,0,0.00183412,
12.5466,0,0,0.0239904,0,0.00185948,
12.9242,0,0,0.0228109,0,0.00188372,
13.3327,0,0,0.0215965,0,0.00190684,
13.7748,0,0,0.0203624,0,0.00192883,
14.2532,0,0,0.0191254,0,0.0019497,
14.7709,0,0,0.0179019,0,0.00196949,
15.3312,0,0,0.0167086,0,0.00198826,
15.9377,0,0,0.0155604,0,0.00200607,
16.594,0,0,0.0144704,0,0.00202301,
17.3044,0,0,0.0134496,0,0.00203917,
18.0733,0,0,0.0125055,0,0.00205459,
18.9056,0,0,0.0116429,0,0.00206919,
19.8064,0,0,0.0108626,0,0.00208298,
20.7816,0,0,0.0101617,0,0.00209616,
21.8371,0,0,0.00953337,0,0.00210907,
22.9796,0,0,0.00896697,0,0.00212197,
24.2163,0,0,0.00844888,0,0.00213496,
25.5551,0,0,0.00796318,0,0.00214803,
27.0042,0,0,0.00749248,0,0.00216133,
28.5729,0,0,0.00701813,0,0.00217494,
30.271,0,0,0.00652087,0,0.00218887,
32.1091,0,0,0.00598257,0,0.00220309,
34.0989,0,0,0.00538736,0,0.00221756,
36.2529,0,0,0.00471724,0,0.00223213,
38.5845,0,0,0.00396323,0,0.00224676,
41.1085,0,0,0.00315947,0,0.00226126,
43.8407,0,0,0.00215446,0,0.00227349,
46.7983,0,0,0.00110856,0,0.00228142,
50,0,0,0.00200272,0,0.00229811,

