3fa92ec82d142559d45a8346c77352707a58060f 
X,Z,x_velocity,cp,uw_b,cf,
1,0,0,-0.22794,0,0,
1,9,0,-0.129365,0,0,
1,8.99969,0.0153776,-0.129365,2.84408e-10,0,
1,8.99934,0.0328238,-0.129365,1.32942e-08,0,
1,8.99894,0.0526349,-0.129365,1.83387e-07,0,
1,8.99848,0.0751244,-0.129365,1.34444e-06,0,
1,8.99797,0.100605,-0.129365,6.72046e-06,0,
1,8.99739,0.129273,-0.129365,2.54434e-05,0,
1,8.99672,0.160937,-0.129365,7.54095e-05,0,
1,8.99597,0.194665,-0.129365,0.000175423,0,
1,8.99512,0.228809,-0.129365,0.00032357,0,
1,8.99416,0.261715,-0.129365,0.000491444,0,
1,8.99306,0.292403,-0.129365,0.000649618,0,
1,8.99182,0.320696,-0.129364,0.000777124,0,
1,8.99041,0.346734,-0.129364,0.000882655,0,
1,8.98881,0.370676,-0.129363,0.000969835,0,
1,8.98699,0.39274,-0.129363,0.00104099,0,
1,8.98494,0.413213,-0.129362,0.00109692,0,
1,8.98261,0.432406,-0.129361,0.00113977,0,
1,8.97996,0.450559,-0.12936,0.00117568,0,
1,8.97696,0.467842,-0.129359,0.00120545,0,
1,8.97356,0.484399,-0.129358,0.00123035,0,
1,8.9697,0.500347,-0.129356,0.00125135,0,
1,8.96533,0.515785,-0.129354,0.00126916,0,
1,8.96038,0.530796,-0.129352,0.00128429,0,
1,8.95476,0.54545,-0.12935,0.00129711,0,
1,8.9484,0.559805,-0.129347,0.00130789,0,
1,8.9412,0.573913,-0.129345,0.00131678,0,
1,8.93303,0.587816,-0.129342,0.00132389,0,
1,8.92379,0.601551,-0.129339,0.00132928,0,
1,8.91333,0.61515,-0.129335,0.00133295,0,
1,8.90149,0.628642,-0.129332,0.00133487,0,
1,8.8881,0.642049,-0.129329,0.001335,0,
1,8.87295,0.655394,-0.129326,0.00133324,0,
1,8.85584,0.668698,-0.129323,0.00132951,0,
1,8.83651,0.681978,-0.129322,0.0013237,0,
1,8.81469,0.695253,-0.129321,0.00131567,0,
1,8.79007,0.708544,-0.129322,0.00130525,0,
1,8.76232,0.721872,-0.129326,0.00129228,0,
1,8.73107,0.735262,-0.129333,0.00127652,0,
1,8.69591,0.748743,-0.129345,0.00125769,0,
1,8.6564,0.762353,-0.129362,0.00123546,0,
1,8.61206,0.776135,-0.129388,0.00120941,0,
1,8.56236,0.790147,-0.129423,0.0011792,0,
1,8.50675,0.804465,-0.129472,0.00114609,0,
1,8.44464,0.819233,-0.129537,0.00110528,0,
1,8.3754,0.834667,-0.129623,0.00105377,0,
1,8.29839,0.851012,-0.129736,0.000990623,0,
1,8.21296,0.868512,-0.129883,0.000911359,0,
1,8.11843,0.887362,-0.130069,0.000810753,0,
1,8.01417,0.90756,-0.130309,0.000685342,0,
1,7.89956,0.928667,-0.130597,0.000538531,0,
1,7.77403,0.949555,-0.130974,0.00038878,0,
1,7.63711,0.968615,-0.131424,0.000205603,0,
1,7.48842,0.983523,-0.131957,7.63824e-05,0,
1,7.32773,0.992342,-0.132596,1.83718e-05,0,
1,7.15495,0.995548,-0.13334,1.83284e-06,0,
1,6.97022,0.995614,-0.134202,2.49407e-08,0,
1,6.77388,0.994998,-0.135197,3.80263e-09,0,
1,6.56652,0.99488,-0.136343,9.79151e-09,0,
1,6.34896,0.995335,-0.137652,1.25274e-08,0,
1,6.12229,0.996065,-0.139138,1.4134e-08,0,
1,5.88784,0.996868,-0.140816,1.4992e-08,0,
1,5.64716,0.997708,-0.142698,1.59734e-08,0,
1,5.40194,0.998615,-0.144797,1.73392e-08,0,
1,5.15407,0.999617,-0.147118,1.90682e-08,0,
1,4.90545,1.00072,-0.149664,2.09032e-08,0,
1,4.65805,1.00193,-0.152434,2.28662e-08,0,
1,4.41376,1.00325,-0.155421,2.49206e-08,0,
1,4.17441,1.00464,-0.158613,2.68378e-08,0,
1,3.94163,1.00606,-0.161988,2.84562e-08,0,
1,3.7169,1.00747,-0.165521,3.03857e-08,0,
1,3.50146,1.00893,-0.16918,3.45677e-08,0,
1,3.29629,1.01075,-0.172929,4.30391e-08,0,
1,3.10217,1.01331,-0.17674,5.39793e-08,0,
1,2.91959,1.0164,-0.18058,9.87352e-08,0,
1,2.74885,1.01859,-0.184407,9.87092e-07,0,
1,2.59002,1.01746,-0.188156,-5.94843e-06,0,
1,2.44299,1.0113,-0.191762,-5.16779e-05,0,
1,2.30752,1.00029,-0.195156,-0.000148982,0,
1,2.18321,0.985896,-0.198278,-0.000284102,0,
1,2.06959,0.96969,-0.201158,-0.000401014,0,
1,1.9661,0.952944,-0.203775,-0.000502528,0,
1,1.87215,0.936586,-0.206095,-0.000597237,0,
1,1.78711,0.921127,-0.208155,-0.000680638,0,
1,1.71033,0.906722,-0.209972,-0.000752661,0,
1,1.64119,0.893343,-0.211567,-0.000814836,0,
1,1.57905,0.880878,-0.212962,-0.000869347,0,
1,1.52332,0.869198,-0.214178,-0.000918336,0,
1,1.47342,0.858192,-0.215241,-0.000964038,0,
1,1.42882,0.847774,-0.216149,-0.000997957,0,
1,1.389,0.837862,-0.216917,-0.0010228,0,
1,1.35351,0.828391,-0.217582,-0.00104598,0,
1,1.3219,0.819325,-0.218151,-0.00106678,0,
1,1.29378,0.810646,-0.21864,-0.00108495,0,
1,1.26878,0.802343,-0.219059,-0.00110051,0,
1,1.24659,0.794411,-0.219417,-0.00111382,0,
1,1.22689,0.786846,-0.219724,-0.00112497,0,
1,1.2092,0.779559,-0.21999,-0.00113293,0,
1,1.1932,0.772501,-0.220221,-0.0011384,0,
1,1.1787,0.765656,-0.220423,-0.00114212,0,
1,1.16554,0.759004,-0.220598,-0.00114518,0,
1,1.15357,0.752509,-0.22075,-0.00114981,0,
1,1.14266,0.746122,-0.220881,-0.00115979,0,
1,1.13268,0.739766,-0.220996,-0.00118006,0,
1,1.12354,0.733336,-0.221096,-0.00121741,0,
1,1.11514,0.726694,-0.221186,-0.00128002,0,
1,1.10739,0.719671,-0.221269,-0.00137687,0,
1,1.10022,0.712078,-0.22135,-0.00151665,0,
1,1.09357,0.703736,-0.221432,-0.00170622,0,
1,1.08738,0.694509,-0.221519,-0.00194873,0,
1,1.0816,0.684353,-0.221613,-0.00224202,0,
1,1.07618,0.673327,-0.221713,-0.00257816,0,
1,1.07107,0.661581,-0.22182,-0.00294469,0,
1,1.06626,0.649318,-0.221932,-0.00332725,0,
1,1.06169,0.636749,-0.222048,-0.00371232,0,
1,1.05735,0.624059,-0.222167,-0.00408898,0,
1,1.05321,0.611398,-0.222288,-0.00444945,0,
1,1.04925,0.598875,-0.22241,-0.00478885,0,
1,1.04544,0.586565,-0.222532,-0.00510455,0,
1,1.04177,0.574514,-0.222654,-0.00539554,0,
1,1.03822,0.562749,-0.222776,-0.00566187,0,
1,1.03478,0.551281,-0.222896,-0.00590426,0,
1,1.03144,0.54011,-0.223015,-0.00612378,0,
1,1.02818,0.529232,-0.223134,-0.00632169,0,
1,1.025,0.518637,-0.223251,-0.00649932,0,
1,1.02188,0.508313,-0.223366,-0.00665798,0,
1,1.01882,0.498246,-0.223481,-0.00679893,0,
1,1.01581,0.488422,-0.223594,-0.00692347,0,
1,1.01284,0.478828,-0.223707,-0.00703215,0,
1,1.00988,0.469348,-0.223819,-0.00712711,0,
1,1.00688,0.45987,-0.223933,-0.00721087,0,
1,1.00384,0.450383,-0.224048,-0.00728259,0,
1,1.00076,0.440873,-0.224164,-0.0073422,0,
1,0.997615,0.431319,-0.224282,-0.00738964,0,
1,0.99441,0.421701,-0.2244,-0.00742485,0,
1,0.991131,0.411992,-0.22452,-0.007448,0,
1,0.987768,0.402168,-0.224642,-0.00745888,0,
1,0.984308,0.392199,-0.224765,-0.00745719,0,
1,0.980739,0.382055,-0.22489,-0.00744248,0,
1,0.977045,0.371702,-0.225016,-0.00741415,0,
1,0.973211,0.361104,-0.225146,-0.00737146,0,
1,0.969219,0.35022,-0.225277,-0.00731349,0,
1,0.965047,0.339008,-0.225411,-0.00723909,0,
1,0.960675,0.327419,-0.225547,-0.00714693,0,
1,0.956077,0.315399,-0.225687,-0.00703476,0,
1,0.951224,0.30289,-0.225829,-0.00690087,0,
1,0.946088,0.289835,-0.225975,-0.00674308,0,
1,0.940633,0.276177,-0.226124,-0.00655891,0,
1,0.934823,0.261869,-0.226278,-0.00634716,0,
1,0.928616,0.246872,-0.226435,-0.0061048,0,
1,0.921967,0.231158,-0.226597,-0.00582897,0,
1,0.914826,0.214706,-0.226762,-0.00551739,0,
1,0.907141,0.197514,-0.22693,-0.00516822,0,
1,0.898852,0.179599,-0.2271,-0.00478039,0,
1,0.889898,0.161015,-0.227271,-0.00435404,0,
1,0.880212,0.141862,-0.227443,-0.00389125,0,
1,0.869723,0.122313,-0.227616,-0.00339695,0,
1,0.858358,0.102644,-0.22779,-0.00288054,0,
1,0.846039,0.0832846,-0.227966,-0.00235822,0,
1,0.83269,0.064855,-0.228147,-0.00185532,0,
1,0.818232,0.0481542,-0.228334,-0.00140845,0,
1,0.802744,0.034066,-0.228518,-0.00104987,0,
1,0.78635,0.0229926,-0.228706,-0.000785995,0,
1,0.768969,0.0145767,-0.228887,-0.000605449,0,
1,0.75053,0.0081282,-0.229059,-0.000490518,0,
1,0.730977,0.00295129,-0.229213,-0.000423407,0,
1,0.710271,-0.00149055,-0.229346,-0.000388506,0,
1,0.688397,-0.00555446,-0.229456,-0.00037357,0,
1,0.66536,-0.00945497,-0.229548,-0.000371654,0,
1,0.641194,-0.0133262,-0.229621,-0.000374093,0,
1,0.615961,-0.0172529,-0.229674,-0.000376986,0,
1,0.589754,-0.0212731,-0.229708,-0.000377276,0,
1,0.562692,-0.0253881,-0.229723,-0.000373213,0,
1,0.534925,-0.0295712,-0.229716,-0.000364061,0,
1,0.506624,-0.0337755,-0.229687,-0.00034973,0,
1,0.477982,-0.0379427,-0.229634,-0.000330555,0,
1,0.449206,-0.0420084,-0.229557,-0.00030711,0,
1,0.420509,-0.0459072,-0.229457,-0.000280099,0,
1,0.392107,-0.049576,-0.229335,-0.000250283,0,
1,0.364206,-0.0529553,-0.229195,-0.000218432,0,
1,0.337003,-0.0559904,-0.229041,-0.000185283,0,
1,0.310673,-0.0586319,-0.228878,-0.000151507,0,
1,0.28537,-0.0608354,-0.228711,-0.000117684,0,
1,0.26122,-0.0625608,-0.228546,-8.43013e-05,0,
1,0.238324,-0.0637718,-0.228387,-5.17659e-05,0,
1,0.21675,-0.0644357,-0.228239,-2.0424e-05,0,
1,0.196544,-0.0645236,-0.228106,9.39592e-06,0,
1,0.177724,-0.0640125,-0.227992,3.73322e-05,0,
1,0.160284,-0.0628876,-0.227898,6.29523e-05,0,
1,0.144202,-0.0611469,-0.227825,8.57483e-05,0,
1,0.129436,-0.0588056,-0.227772,0.000105176,0,
1,0.115935,-0.0558995,-0.227738,0.00012073,0,
1,0.103636,-0.0524868,-0.227722,0.000132032,0,
1,0.0924701,-0.0486464,-0.227719,0.0001389,0,
1,0.0823633,-0.0444735,-0.227727,0.000141361,0,
1,0.0732406,-0.0400719,-0.227744,0.000139685,0,
1,0.0650269,-0.035547,-0.227765,0.000134336,0,
1,0.057648,-0.0309977,-0.227789,0.0001259,0,
1,0.0510323,-0.0265098,-0.227813,0.000115019,0,
1,0.0451115,-0.0221522,-0.227837,0.000102329,0,
1,0.0398209,-0.017975,-0.227858,8.84229e-05,0,
1,0.0351001,-0.0140115,-0.227878,7.38335e-05,0,
1,0.0308929,-0.0102826,-0.227894,5.9054e-05,0,
1,0.0271475,-0.00680628,-0.227907,4.46058e-05,0,
1,0.0238164,-0.00360992,-0.227918,3.1153e-05,0,
1,0.0208562,-0.000744841,-0.227925,1.95869e-05,0,
1,0.0182274,0.0017092,-0.22793,1.07626e-05,0,
1,0.0158944,0.00366407,-0.227933,5.04047e-06,0,
1,0.0138249,0.00506671,-0.227935,1.96593e-06,0,
1,0.0119898,0.00593212,-0.227936,6.07496e-07,0,
1,0.0103632,0.00633652,-0.227937,1.17417e-07,0,
1,0.00892169,0.00638301,-0.227938,-1.79666e-08,0,
1,0.00764438,0.00617174,-0.227938,-3.60029e-08,0,
1,0.00651264,0.00578562,-0.227938,-2.57737e-08,0,
1,0.00550983,0.00528834,-0.227939,-1.42256e-08,0,
1,0.00462115,0.00472672,-0.227939,-6.76194e-09,0,
1,0.00383341,0.00413458,-0.227939,-2.84966e-09,0,
1,0.0031349,0.0035357,-0.227939,-1.06539e-09,0,
1,0.00251518,0.00294657,-0.227939,-3.47178e-10,0,
1,0.00196502,0.00237811,-0.227939,-9.49713e-11,0,
1,0.00147619,0.00183726,-0.22794,-2.03612e-11,0,
1,0.00104139,0.00132794,-0.227939,-3.00969e-12,0,
1,0.000654158,0.00085201,-0.22794,-2.36154e-13,0,
1,0.000308731,0.000409704,-0.227939,-5.40101e-15,0,

4,0,0,-0.156509,0,0,
4,9,0,-0.0987041,0,0,
4,8.99969,0.0142468,-0.0987038,2.23119e-10,0,
4,8.99934,0.0303538,-0.098704,1.03517e-08,0,
4,8.99894,0.0485824,-0.0987038,1.41353e-07,0,
4,8.9985,0.069209,-0.098704,1.02602e-06,0,
4,8.99799,0.0925149,-0.0987037,5.09281e-06,0,
4,8.99742,0.118703,-0.0987039,1.92853e-05,0,
4,8.99677,0.14769,-0.0987036,5.78855e-05,0,
4,8.99605,0.178798,-0.0987037,0.00013835,0,
4,8.99522,0.210676,-0.0987035,0.000264589,0,
4,8.99429,0.241784,-0.0987034,0.000416476,0,
4,8.99324,0.271055,-0.0987031,0.0005661,0,
4,8.99205,0.298107,-0.0987029,0.000695597,0,
4,8.9907,0.323015,-0.0987024,0.00079964,0,
4,8.98919,0.345955,-0.0987019,0.000887324,0,
4,8.98747,0.367111,-0.0987012,0.000960276,0,
4,8.98553,0.386752,-0.0987004,0.00101768,0,
4,8.98334,0.405159,-0.0986994,0.00106397,0,
4,8.98087,0.42255,-0.0986983,0.00110306,0,
4,8.97807,0.439092,-0.0986969,0.00113624,0,
4,8.97491,0.454928,-0.0986952,0.0011648,0,
4,8.97134,0.470175,-0.0986933,0.00118974,0,
4,8.96731,0.484935,-0.0986911,0.00121176,0,
4,8.96276,0.499292,-0.0986885,0.0012314,0,
4,8.95762,0.513319,-0.0986855,0.00124902,0,
4,8.95182,0.527077,-0.0986821,0.00126488,0,
4,8.94526,0.54062,-0.0986782,0.00127912,0,
4,8.93787,0.553994,-0.0986739,0.00129181,0,
4,8.92952,0.567239,-0.098669,0.00130296,0,
4,8.92011,0.580389,-0.0986636,0.00131253,0,
4,8.90949,0.593473,-0.0986576,0.00132042,0,
4,8.89751,0.606516,-0.098651,0.00132651,0,
4,8.88402,0.619539,-0.098644,0.00133064,0,
4,8.86881,0.63256,-0.0986365,0.00133263,0,
4,8.85169,0.645593,-0.0986287,0.00133231,0,
4,8.83242,0.658652,-0.0986206,0.00132949,0,
4,8.81074,0.671748,-0.0986126,0.00132398,0,
4,8.78637,0.684893,-0.098605,0.0013156,0,
4,8.75901,0.6981,-0.0985981,0.00130416,0,
4,8.7283,0.711382,-0.0985924,0.00128946,0,
4,8.69387,0.724758,-0.0985885,0.00127131,0,
4,8.65533,0.738253,-0.0985873,0.00124943,0,
4,8.61222,0.751896,-0.0985898,0.00122352,0,
4,8.56407,0.765729,-0.0985973,0.00119322,0,
4,8.5104,0.779805,-0.0986116,0.00115848,0,
4,8.45065,0.794204,-0.0986348,0.00112048,0,
4,8.38429,0.809083,-0.0986705,0.00107258,0,
4,8.31073,0.824673,-0.0987213,0.00101524,0,
4,8.22941,0.841233,-0.0987902,0.000944982,0,
4,8.13974,0.859027,-0.0988812,0.00085749,0,
4,8.04115,0.87823,-0.0989958,0.00074913,0,
4,7.93313,0.898736,-0.0991398,0.000620136,0,
4,7.81519,0.919842,-0.0993055,0.000479549,0,
4,7.68693,0.940086,-0.099517,0.000344778,0,
4,7.54803,0.95757,-0.0997561,0.000203771,0,
4,7.39831,0.970404,-0.100041,8.97254e-05,0,
4,7.23771,0.9777,-0.100389,2.77582e-05,0,
4,7.06634,0.980393,-0.100788,4.57972e-06,0,
4,6.88453,0.980541,-0.101241,-8.30441e-09,0,
4,6.69275,0.97999,-0.101748,-9.81791e-08,0,
4,6.49173,0.979676,-0.102319,1.99352e-08,0,
4,6.28238,0.979756,-0.102961,2.43458e-08,0,
4,6.06579,0.980067,-0.103683,1.40615e-08,0,
4,5.84328,0.980453,-0.10449,9.47176e-09,0,
4,5.61626,0.980848,-0.105388,8.25216e-09,0,
4,5.3863,0.981255,-0.106382,8.31676e-09,0,
4,5.15502,0.981688,-0.107473,8.90163e-09,0,
4,4.92406,0.982163,-0.108665,9.75341e-09,0,
4,4.69507,0.982689,-0.109958,1.07777e-08,0,
4,4.46961,0.983271,-0.111349,1.18313e-08,0,
4,4.24915,0.983891,-0.112837,1.26135e-08,0,
4,4.03501,0.984495,-0.114414,1.28319e-08,0,
4,3.82836,0.985014,-0.116073,1.27365e-08,0,
4,3.63018,0.985451,-0.117804,1.3721e-08,0,
4,3.44125,0.985986,-0.119595,1.87091e-08,0,
4,3.26217,0.986977,-0.121434,6.44096e-08,0,
4,3.09333,0.988718,-0.123306,5.69217e-07,0,
4,2.93497,0.991026,-0.125195,2.65721e-06,0,
4,2.78715,0.993051,-0.127085,5.11886e-06,0,
4,2.64979,0.993612,-0.128959,4.2792e-07,0,
4,2.52268,0.991786,-0.130794,-2.11355e-05,0,
4,2.40551,0.987246,-0.132568,-6.46366e-05,0,
4,2.29789,0.980239,-0.134262,-0.000128599,0,
4,2.19939,0.971356,-0.13586,-0.000206922,0,
4,2.10949,0.961288,-0.137353,-0.000291797,0,
4,2.02768,0.950666,-0.138738,-0.000375644,0,
4,1.95343,0.940005,-0.140015,-0.000452354,0,
4,1.88618,0.929682,-0.141184,-0.000519797,0,
4,1.82542,0.919878,-0.142257,-0.000566021,0,
4,1.77062,0.910651,-0.143237,-0.000604738,0,
4,1.72128,0.902053,-0.144121,-0.0006396,0,
4,1.67693,0.894115,-0.144921,-0.000670691,0,
4,1.63713,0.886837,-0.145642,-0.000698371,0,
4,1.60144,0.880199,-0.146291,-0.000722998,0,
4,1.56949,0.874168,-0.146875,-0.000744968,0,
4,1.54091,0.868706,-0.147398,-0.000764756,0,
4,1.51537,0.863757,-0.147868,-0.000782716,0,
4,1.49167,0.859125,-0.148303,-0.000799241,0,
4,1.46926,0.854723,-0.148715,-0.000814892,0,
4,1.44801,0.850528,-0.149109,-0.000830018,0,
4,1.42781,0.846501,-0.149493,-0.00083642,0,
4,1.40855,0.842605,-0.149862,-0.00084294,0,
4,1.39015,0.838823,-0.150215,-0.000848368,0,
4,1.37252,0.835141,-0.150555,-0.000852755,0,
4,1.3556,0.831543,-0.150882,-0.00085663,0,
4,1.3393,0.828012,-0.151199,-0.000860575,0,
4,1.32357,0.824529,-0.151506,-0.000865472,0,
4,1.30836,0.821076,-0.151803,-0.000872078,0,
4,1.29362,0.817629,-0.152092,-0.00088144,0,
4,1.2793,0.814163,-0.152374,-0.000894875,0,
4,1.26537,0.810646,-0.152649,-0.000914016,0,
4,1.25179,0.807042,-0.152918,-0.00094084,0,
4,1.23852,0.803304,-0.153181,-0.0009777,0,
4,1.22554,0.799382,-0.153438,-0.00102732,0,
4,1.21282,0.795213,-0.15369,-0.00109275,0,
4,1.20034,0.790731,-0.153937,-0.00117724,0,
4,1.18806,0.785861,-0.154179,-0.00128403,0,
4,1.17599,0.780528,-0.154416,-0.00141606,0,
4,1.16408,0.774663,-0.154648,-0.00157553,0,
4,1.15233,0.768212,-0.154875,-0.00176356,0,
4,1.14073,0.761138,-0.155096,-0.00197986,0,
4,1.12925,0.753431,-0.155313,-0.00222259,0,
4,1.11788,0.745106,-0.155524,-0.00248841,0,
4,1.10661,0.7362,-0.155731,-0.00277287,0,
4,1.09543,0.726769,-0.155934,-0.00307076,0,
4,1.08432,0.716877,-0.156132,-0.00337664,0,
4,1.07328,0.706594,-0.156326,-0.00368523,0,
4,1.0623,0.695987,-0.156516,-0.0039917,0,
4,1.05136,0.685121,-0.156703,-0.00429181,0,
4,1.04044,0.674035,-0.156886,-0.00458215,0,
4,1.0295,0.662761,-0.157066,-0.00486014,0,
4,1.01855,0.651344,-0.157243,-0.00512325,0,
4,1.00757,0.639819,-0.157417,-0.00536921,0,
4,0.996544,0.62822,-0.157588,-0.00559652,0,
4,0.98547,0.616576,-0.157756,-0.00580326,0,
4,0.974334,0.604912,-0.157921,-0.00598817,0,
4,0.963124,0.593248,-0.158082,-0.00615007,0,
4,0.951826,0.581603,-0.158246,-0.0062946,0,
4,0.940428,0.56997,-0.158391,-0.00643486,0,
4,0.928915,0.558227,-0.158497,-0.00651994,0,
4,0.917272,0.546214,-0.158591,-0.00661175,0,
4,0.905481,0.533844,-0.158681,-0.00671113,0,
4,0.893524,0.521062,-0.158771,-0.00681845,0,
4,0.881383,0.507828,-0.158862,-0.00693382,0,
4,0.869035,0.494103,-0.158956,-0.00705713,0,
4,0.856459,0.479857,-0.159054,-0.00718804,0,
4,0.843629,0.465059,-0.159156,-0.00732602,0,
4,0.830518,0.449684,-0.159261,-0.00747042,0,
4,0.817097,0.433711,-0.15937,-0.00762042,0,
4,0.803334,0.417124,-0.15948,-0.0077751,0,
4,0.789195,0.399909,-0.159592,-0.0079334,0,
4,0.774643,0.382058,-0.159704,-0.00809407,0,
4,0.759639,0.363565,-0.159816,-0.00825562,0,
4,0.744138,0.344433,-0.159929,-0.00841617,0,
4,0.728096,0.324674,-0.160043,-0.00857335,0,
4,0.711463,0.304319,-0.16016,-0.00872424,0,
4,0.694189,0.283415,-0.160279,-0.00886523,0,
4,0.676218,0.26202,-0.160402,-0.00899136,0,
4,0.657495,0.2402,-0.160528,-0.00909732,0,
4,0.637962,0.218013,-0.160657,-0.00917824,0,
4,0.617561,0.195501,-0.160783,-0.00923019,0,
4,0.596848,0.173306,-0.160897,-0.00924893,0,
4,0.576557,0.152172,-0.160996,-0.00923339,0,
4,0.556564,0.131966,-0.161081,-0.00918516,0,
4,0.536763,0.112592,-0.161158,-0.00910511,0,
4,0.517057,0.0940206,-0.161244,-0.00899373,0,
4,0.497368,0.0763129,-0.161367,-0.00885231,0,
4,0.477632,0.0596091,-0.16156,-0.00868441,0,
4,0.457804,0.0440663,-0.161831,-0.00849715,0,
4,0.437857,0.029741,-0.162171,-0.00830314,0,
4,0.417786,0.0164379,-0.162265,-0.00806133,0,
4,0.397605,0.00372542,-0.162093,-0.00764356,0,
4,0.377348,-0.00865884,-0.161925,-0.00730482,0,
4,0.357066,-0.0207035,-0.161762,-0.00695298,0,
4,0.336828,-0.0323722,-0.16158,-0.00659466,0,
4,0.316717,-0.0436103,-0.161389,-0.00623187,0,
4,0.296825,-0.0543598,-0.161186,-0.00586433,0,
4,0.27725,-0.0645726,-0.160973,-0.00549375,0,
4,0.258095,-0.0742127,-0.160752,-0.00512258,0,
4,0.239458,-0.0832567,-0.160523,-0.00475359,0,
4,0.221432,-0.0916929,-0.160288,-0.00438959,0,
4,0.2041,-0.0995205,-0.160048,-0.00403325,0,
4,0.187537,-0.106747,-0.159806,-0.00368706,0,
4,0.171798,-0.11339,-0.159563,-0.00335316,0,
4,0.156928,-0.119469,-0.159321,-0.00303338,0,
4,0.142956,-0.12501,-0.159082,-0.00272915,0,
4,0.129894,-0.130043,-0.158849,-0.00244149,0,
4,0.117744,-0.134597,-0.158624,-0.00217108,0,
4,0.106492,-0.138703,-0.158408,-0.00191824,0,
4,0.0961173,-0.14239,-0.158203,-0.00168299,0,
4,0.0865883,-0.145685,-0.158011,-0.00146508,0,
4,0.0778675,-0.148617,-0.157832,-0.00126405,0,
4,0.0699123,-0.151209,-0.157667,-0.00107927,0,
4,0.062677,-0.153482,-0.157516,-0.000909974,0,
4,0.056114,-0.155457,-0.157379,-0.000755326,0,
4,0.0501747,-0.15715,-0.157256,-0.000614428,0,
4,0.0448114,-0.158575,-0.157145,-0.000486364,0,
4,0.039977,-0.159742,-0.157048,-0.000370218,0,
4,0.0356266,-0.160658,-0.156961,-0.000265102,0,
4,0.0317171,-0.161327,-0.156886,-0.000170173,0,
4,0.0282081,-0.161748,-0.15682,-8.46466e-05,0,
4,0.0250617,-0.161914,-0.156763,-7.82282e-06,0,
4,0.0222427,-0.161812,-0.156714,6.08985e-05,0,
4,0.0197189,-0.16142,-0.156672,0.000121984,0,
4,0.0174603,-0.160705,-0.156637,0.00017572,0,
4,0.0154398,-0.159616,-0.156608,0.000222138,0,
4,0.0136326,-0.158081,-0.156583,0.000260889,0,
4,0.0120162,-0.155994,-0.156564,0.000291047,0,
4,0.0105703,-0.153203,-0.156548,0.000310822,0,
4,0.00927657,-0.149496,-0.156537,0.000317265,0,
4,0.00811839,-0.144588,-0.156527,0.000306356,0,
4,0.0070809,-0.138143,-0.156521,0.000274428,0,
4,0.0061507,-0.129861,-0.156517,0.000221905,0,
4,0.00531578,-0.119669,-0.156515,0.000157442,0,
4,0.00456537,-0.107889,-0.156513,9.62023e-05,0,
4,0.00388979,-0.0951979,-0.156513,5.05115e-05,0,
4,0.00328037,-0.0823258,-0.156511,2.30035e-05,0,
4,0.00272934,-0.069797,-0.156512,9.15663e-06,0,
4,0.0022297,-0.0578813,-0.156511,3.16539e-06,0,
4,0.00177519,-0.0466694,-0.156512,9.2257e-07,0,
4,0.00136016,-0.0361577,-0.15651,2.12494e-07,0,
4,0.000979511,-0.0263003,-0.156512,3.40406e-08,0,
4,0.00062865,-0.0170343,-0.15651,2.90526e-09,0,
4,0.000303409,-0.00829158,-0.156512,7.0813e-11,0,

6,0,0,-0.0178811,0,0,
6,9,0,-0.0746494,0,0,
6,8.99969,0.0135015,-0.0746491,1.85859e-10,0,
6,8.99934,0.028727,-0.0746494,8.57788e-09,0,
6,8.99895,0.0459141,-0.0746491,1.16298e-07,0,
6,8.9985,0.0653136,-0.0746493,8.38161e-07,0,
6,8.99801,0.087184,-0.0746491,4.13798e-06,0,
6,8.99744,0.111725,-0.0746492,1.56557e-05,0,
6,8.99681,0.13891,-0.074649,4.73333e-05,0,
6,8.99609,0.168216,-0.0746491,0.000115121,0,
6,8.99529,0.198494,-0.0746488,0.000225743,0,
6,8.99438,0.228314,-0.0746488,0.000364757,0,
6,8.99336,0.256577,-0.0746485,0.000506679,0,
6,8.9922,0.282785,-0.0746484,0.000634137,0,
6,8.9909,0.306935,-0.074648,0.000737403,0,
6,8.98944,0.329188,-0.0746476,0.000824204,0,
6,8.98779,0.349714,-0.074647,0.000897217,0,
6,8.98593,0.368762,-0.0746464,0.000955031,0,
6,8.98383,0.38659,-0.0746455,0.00100248,0,
6,8.98147,0.403405,-0.0746446,0.00104268,0,
6,8.97881,0.419372,-0.0746434,0.0010771,0,
6,8.97581,0.434631,-0.0746419,0.00110707,0,
6,8.97244,0.4493,-0.0746402,0.00113361,0,
6,8.96863,0.463481,-0.0746383,0.00115746,0,
6,8.96435,0.477259,-0.0746359,0.00117917,0,
6,8.95953,0.490709,-0.0746332,0.00119916,0,
6,8.95409,0.503894,-0.0746299,0.00121769,0,
6,8.94798,0.516871,-0.0746262,0.00123494,0,
6,8.94109,0.529689,-0.0746219,0.001251,0,
6,8.93334,0.542391,-0.074617,0.00126589,0,
6,8.92463,0.555016,-0.0746113,0.00127956,0,
6,8.91482,0.567596,-0.0746049,0.00129189,0,
6,8.90379,0.580159,-0.0745976,0.00130274,0,
6,8.89139,0.592732,-0.0745894,0.0013119,0,
6,8.87746,0.605334,-0.0745802,0.00131915,0,
6,8.86181,0.617982,-0.0745699,0.00132422,0,
6,8.84423,0.630691,-0.0745586,0.00132684,0,
6,8.82452,0.643472,-0.0745462,0.00132673,0,
6,8.80241,0.656333,-0.0745327,0.00132362,0,
6,8.77763,0.669283,-0.0745181,0.00131724,0,
6,8.74989,0.682327,-0.0745024,0.00130733,0,
6,8.71885,0.695476,-0.0744855,0.00129366,0,
6,8.68417,0.70874,-0.0744678,0.00127599,0,
6,8.64545,0.722133,-0.0744491,0.00125406,0,
6,8.60229,0.735676,-0.0744299,0.00122757,0,
6,8.55423,0.749399,-0.0744103,0.00119624,0,
6,8.50082,0.763342,-0.0743906,0.00116033,0,
6,8.44155,0.777578,-0.0743719,0.00111908,0,
6,8.37592,0.792233,-0.0743544,0.0010714,0,
6,8.30339,0.807504,-0.074339,0.0010154,0,
6,8.22344,0.823649,-0.0743253,0.000948211,0,
6,8.13555,0.840966,-0.0743144,0.000866111,0,
6,8.0392,0.859706,-0.0743016,0.000765674,0,
6,7.93391,0.879864,-0.074287,0.000646623,0,
6,7.81927,0.900859,-0.0742592,0.00051543,0,
6,7.6949,0.921314,-0.0742235,0.000387124,0,
6,7.56054,0.93939,-0.0741712,0.000271453,0,
6,7.41603,0.953476,-0.074106,0.000140461,0,
6,7.26132,0.962587,-0.0740337,5.58623e-05,0,
6,7.09653,0.966966,-0.0739428,1.43e-05,0,
6,6.92195,0.968064,-0.073834,7.8796e-07,0,
6,6.73802,0.967638,-0.0736998,-1.01332e-06,0,
6,6.5454,0.966928,-0.0735372,-4.75607e-07,0,
6,6.34489,0.966441,-0.0733426,-1.33014e-07,0,
6,6.1375,0.966198,-0.0731126,-3.56405e-08,0,
6,5.92439,0.966061,-0.0728431,-1.34591e-08,0,
6,5.70687,0.965922,-0.0725293,-7.71069e-09,0,
6,5.48633,0.965735,-0.0721662,-6.04097e-09,0,
6,5.26426,0.965497,-0.0717485,-5.80399e-09,0,
6,5.04218,0.965219,-0.0712709,-6.12242e-09,0,
6,4.82159,0.964912,-0.0707288,-6.63883e-09,0,
6,4.60398,0.964588,-0.0701177,-7.2772e-09,0,
6,4.39071,0.964247,-0.0694344,-8.20388e-09,0,
6,4.18307,0.963856,-0.0686768,-9.75648e-09,0,
6,3.98218,0.963356,-0.0678442,-1.21572e-08,0,
6,3.78902,0.962688,-0.0669381,-1.50718e-08,0,
6,3.60438,0.961874,-0.0659618,-1.92685e-08,0,
6,3.42888,0.961087,-0.0649205,-3.9945e-08,0,
6,3.26296,0.960614,-0.0638207,-1.03507e-07,0,
6,3.10691,0.9607,-0.0626694,-1.23309e-07,0,
6,2.96084,0.961327,-0.061474,7.03828e-08,0,
6,2.82473,0.962116,-0.0602442,-2.58401e-07,0,
6,2.69844,0.962445,-0.0589926,-4.00275e-06,0,
6,2.58172,0.961704,-0.0577343,-1.55782e-05,0,
6,2.47424,0.959494,-0.0564849,-3.86945e-05,0,
6,2.37559,0.955708,-0.0552597,-7.47734e-05,0,
6,2.28535,0.950487,-0.0540719,-0.000122832,0,
6,2.20301,0.944125,-0.0529324,-0.000180111,0,
6,2.1281,0.936979,-0.0518497,-0.000242932,0,
6,2.06009,0.929398,-0.0508297,-0.000307368,0,
6,1.99849,0.921693,-0.0498746,-0.000369615,0,
6,1.9428,0.914123,-0.0489882,-0.000426534,0,
6,1.89255,0.906883,-0.048165,-0.000477312,0,
6,1.84728,0.900062,-0.0474117,-0.000520155,0,
6,1.80655,0.893661,-0.0467273,-0.000550424,0,
6,1.76996,0.887678,-0.0460971,-0.000578162,0,
6,1.73712,0.882131,-0.0455248,-0.000603576,0,
6,1.70768,0.876993,-0.0450017,-0.000627115,0,
6,1.67998,0.872038,-0.044506,-0.000649975,0,
6,1.65329,0.867168,-0.0440216,-0.000672329,0,
6,1.62754,0.862382,-0.0435492,-0.000694126,0,
6,1.60265,0.85768,-0.0430872,-0.000715455,0,
6,1.57854,0.85306,-0.0426352,-0.000736268,0,
6,1.55515,0.84852,-0.0421924,-0.000756595,0,
6,1.53242,0.844059,-0.0417583,-0.000776456,0,
6,1.5103,0.83967,-0.0413323,-0.000795836,0,
6,1.48874,0.835341,-0.040914,-0.000814709,0,
6,1.46769,0.831055,-0.040503,-0.000833173,0,
6,1.44712,0.826797,-0.040098,-0.000851563,0,
6,1.42698,0.822574,-0.0396969,-0.000870507,0,
6,1.40725,0.818423,-0.0392975,-0.000890601,0,
6,1.38788,0.814397,-0.0388999,-0.000912129,0,
6,1.36886,0.810524,-0.0385049,-0.000933808,0,
6,1.35015,0.806744,-0.0381237,-0.000939583,0,
6,1.33173,0.802981,-0.0377514,-0.000947764,0,
6,1.31357,0.799205,-0.0373784,-0.000958931,0,
6,1.29566,0.7954,-0.0370099,-0.000972115,0,
6,1.27797,0.791544,-0.0366434,-0.000988407,0,
6,1.26048,0.787612,-0.0362797,-0.00100906,0,
6,1.24318,0.783571,-0.0359182,-0.00103566,0,
6,1.22605,0.779385,-0.0355589,-0.00107008,0,
6,1.20907,0.775006,-0.0352017,-0.00111444,0,
6,1.19223,0.770384,-0.0348464,-0.00117111,0,
6,1.17551,0.765461,-0.0344931,-0.00124253,0,
6,1.1589,0.760174,-0.0341417,-0.00133107,0,
6,1.14238,0.754461,-0.0337923,-0.00143877,0,
6,1.12595,0.748266,-0.033445,-0.00156709,0,
6,1.10959,0.741542,-0.0331001,-0.0017166,0,
6,1.09329,0.734258,-0.0327577,-0.00188681,0,
6,1.07704,0.726403,-0.0324181,-0.00207604,0,
6,1.06081,0.717982,-0.0320815,-0.00228153,0,
6,1.04459,0.709018,-0.0317482,-0.00249965,0,
6,1.02836,0.699552,-0.031418,-0.00272613,0,
6,1.01211,0.689636,-0.0310919,-0.00295633,0,
6,0.99583,0.67933,-0.0307687,-0.00318568,0,
6,0.97951,0.668694,-0.0304516,-0.00341309,0,
6,0.963136,0.657767,-0.0301337,-0.00364113,0,
6,0.946694,0.646498,-0.0298106,-0.00385041,0,
6,0.930172,0.634787,-0.0294897,-0.00406523,0,
6,0.913555,0.622565,-0.0291721,-0.00428816,0,
6,0.896829,0.609781,-0.0288591,-0.004521,0,
6,0.879979,0.596391,-0.0285512,-0.00476507,0,
6,0.862989,0.582368,-0.0282491,-0.0050213,0,
6,0.845842,0.567704,-0.0279534,-0.00529042,0,
6,0.828521,0.55241,-0.0276648,-0.00557303,0,
6,0.811008,0.53651,-0.0273854,-0.00586662,0,
6,0.793282,0.520023,-0.0271173,-0.00616685,0,
6,0.775322,0.502962,-0.0268614,-0.00647151,0,
6,0.757107,0.485344,-0.0266192,-0.00677791,0,
6,0.738612,0.467199,-0.0263919,-0.00708281,0,
6,0.719813,0.448566,-0.0261806,-0.00738241,0,
6,0.700681,0.429499,-0.025986,-0.00767238,0,
6,0.681188,0.410058,-0.0258073,-0.00794801,0,
6,0.661304,0.390297,-0.0256413,-0.00820419,0,
6,0.640996,0.370259,-0.0254839,-0.00843545,0,
6,0.620228,0.349983,-0.0253334,-0.00863577,0,
6,0.598964,0.329537,-0.0251979,-0.00879848,0,
6,0.577166,0.309079,-0.0251015,-0.00891727,0,
6,0.554791,0.288918,-0.0250914,-0.00898837,0,
6,0.531799,0.269493,-0.0252055,-0.00901208,0,
6,0.508144,0.251214,-0.025474,-0.0089963,0,
6,0.48378,0.234145,-0.0256518,-0.00893572,0,
6,0.459585,0.218353,-0.0255225,-0.00855088,0,
6,0.436695,0.204034,-0.0253136,-0.00825628,0,
6,0.414961,0.190952,-0.0251503,-0.00795992,0,
6,0.394252,0.178927,-0.024965,-0.00765494,0,
6,0.374445,0.167809,-0.0247833,-0.00734822,0,
6,0.355433,0.157483,-0.024601,-0.00704083,0,
6,0.337122,0.147854,-0.024417,-0.00673229,0,
6,0.319433,0.138841,-0.0242293,-0.00642334,0,
6,0.3023,0.130378,-0.0240367,-0.00611464,0,
6,0.28567,0.122409,-0.023838,-0.0058068,0,
6,0.269507,0.114888,-0.023632,-0.00550043,0,
6,0.253785,0.10778,-0.023418,-0.00519626,0,
6,0.238493,0.101054,-0.0231955,-0.00489508,0,
6,0.223631,0.0946884,-0.0229643,-0.00459782,0,
6,0.209207,0.088664,-0.0227246,-0.0043055,0,
6,0.195237,0.0829661,-0.022477,-0.00401922,0,
6,0.181744,0.0775822,-0.0222225,-0.00374013,0,
6,0.168754,0.0725016,-0.0219624,-0.00346937,0,
6,0.156292,0.0677142,-0.0216987,-0.00320805,0,
6,0.144384,0.0632101,-0.0214333,-0.00295718,0,
6,0.133052,0.0589793,-0.0211685,-0.00271764,0,
6,0.122315,0.0550114,-0.0209066,-0.00249016,0,
6,0.112183,0.0512953,-0.0206501,-0.00227528,0,
6,0.102665,0.0478196,-0.0204011,-0.00207335,0,
6,0.0937597,0.0445722,-0.0201617,-0.00188451,0,
6,0.0854609,0.0415407,-0.0199336,-0.00170874,0,
6,0.077757,0.0387127,-0.0197182,-0.00154585,0,
6,0.0706309,0.0360753,-0.0195166,-0.00139549,0,
6,0.0640611,0.0336161,-0.0193293,-0.00125721,0,
6,0.0580229,0.0313226,-0.0191567,-0.00113045,0,
6,0.0524888,0.0291826,-0.0189988,-0.00101459,0,
6,0.0474296,0.0271843,-0.0188553,-0.000908981,0,
6,0.042815,0.0253165,-0.0187258,-0.000812919,0,
6,0.0386145,0.023568,-0.0186095,-0.00072571,0,
6,0.0347975,0.0219283,-0.0185057,-0.000646664,0,
6,0.0313344,0.0203874,-0.0184135,-0.000575107,0,
6,0.0281964,0.0189355,-0.0183321,-0.000510387,0,
6,0.0253561,0.0175631,-0.0182605,-0.000451887,0,
6,0.0227875,0.0162612,-0.018198,-0.000399019,0,
6,0.0204662,0.0150208,-0.0181434,-0.00035123,0,
6,0.0183694,0.0138329,-0.0180964,-0.000308,0,
6,0.016476,0.0126887,-0.0180557,-0.00026884,0,
6,0.0147664,0.0115788,-0.0180212,-0.000233287,0,
6,0.0132228,0.0104939,-0.0179915,-0.000200903,0,
6,0.0118288,0.00942365,-0.0179672,-0.000171264,0,
6,0.0105693,0.00835739,-0.0179464,-0.000143962,0,
6,0.00943073,0.00728397,-0.0179303,-0.000118611,0,
6,0.00840063,0.00619286,-0.0179164,-9.48849e-05,0,
6,0.00746774,0.00507679,-0.017907,-7.26237e-05,0,
6,0.00662185,0.00393743,-0.0178987,-5.20404e-05,0,
6,0.00585371,0.00279461,-0.0178944,-3.39395e-05,0,
6,0.00515491,0.00169425,-0.0178899,-1.95589e-05,0,
6,0.00451788,0.000703105,-0.0178891,-9.74246e-06,0,
6,0.00393573,-0.000116375,-0.0178865,-4.14756e-06,0,
6,0.00340221,-0.000731966,-0.0178872,-1.49346e-06,0,
6,0.00291168,-0.00114564,-0.017885,-4.38937e-07,0,
6,0.00245897,-0.00137998,-0.0178864,-9.22117e-08,0,
6,0.00203939,-0.0014638,-0.017884,-4.89873e-09,0,
6,0.00164864,-0.00142421,-0.017886,6.51341e-09,0,
6,0.00128281,-0.0012837,-0.0178831,3.42006e-09,0,
6,0.000938257,-0.00105978,-0.0178858,8.77176e-10,0,
6,0.000611645,-0.00076548,-0.0178821,1.04916e-10,0,
6,0.000299862,-0.000410072,-0.0178857,3.28347e-12,0,

10,0.000296632,0.00846529,0.0297496,-4.9624e-11,0,
10,0.000596102,0.0170083,0.0297502,-1.839e-09,0,
10,0.000900397,0.0256855,0.0297495,-1.86962e-08,0,
10,0.00121153,0.0345539,0.0297501,-1.00458e-07,0,
10,0.00153158,0.0436704,0.0297495,-3.75703e-07,0,
10,0.00186264,0.0530909,0.0297499,-1.11672e-06,0,
10,0.00220692,0.0628674,0.0297494,-2.83326e-06,0,
10,0.00256668,0.0730437,0.0297498,-6.39282e-06,0,
10,0.00294431,0.0836467,0.0297493,-1.31403e-05,0,
10,0.00334229,0.0946754,0.0297496,-2.49417e-05,0,
10,0.00376326,0.106087,0.0297492,-4.40185e-05,0,
10,0.00421,0.117782,0.0297493,-7.24443e-05,0,
10,0.00468544,0.129606,0.0297489,-0.00011134,0,
10,0.00519274,0.141357,0.0297489,-0.000160132,0,
10,0.00573524,0.152822,0.0297483,-0.000216409,0,
10,0.00631651,0.163804,0.029748,-0.000276576,0,
10,0.00694041,0.174157,0.0297471,-0.000336921,0,
10,0.00761104,0.18379,0.0297464,-0.000394466,0,
10,0.00833284,0.19267,0.0297451,-0.000447319,0,
10,0.00911058,0.200801,0.0297437,-0.000494606,0,
10,0.0099494,0.20822,0.0297416,-0.000536214,0,
10,0.0108548,0.214981,0.0297393,-0.000572519,0,
10,0.0118329,0.221147,0.0297362,-0.000604163,0,
10,0.0128901,0.226782,0.0297326,-0.000631901,0,
10,0.0140333,0.231949,0.0297282,-0.000656502,0,
10,0.0152702,0.236707,0.029723,-0.000678695,0,
10,0.0166089,0.241111,0.0297167,-0.00069914,0,
10,0.0180584,0.245207,0.0297095,-0.000718423,0,
10,0.0196282,0.249039,0.0297011,-0.000737057,0,
10,0.0213288,0.252643,0.0296914,-0.000755495,0,
10,0.0231714,0.256052,0.0296801,-0.000774135,0,
10,0.0251682,0.259296,0.0296674,-0.000793335,0,
10,0.0273326,0.262399,0.0296528,-0.000813425,0,
10,0.0296789,0.265384,0.0296363,-0.00083471,0,
10,0.0322227,0.26827,0.0296177,-0.000857486,0,
10,0.0349809,0.271078,0.0295968,-0.000882039,0,
10,0.0379719,0.273822,0.0295733,-0.000908657,0,
10,0.0412155,0.276518,0.0295471,-0.000937631,0,
10,0.0447333,0.279182,0.0295178,-0.000969262,0,
10,0.0485489,0.281826,0.0294853,-0.00100386,0,
10,0.0526875,0.284464,0.0294493,-0.00104176,0,
10,0.0571768,0.28711,0.0294094,-0.00108331,0,
10,0.0620466,0.289776,0.0293655,-0.00112889,0,
10,0.0673295,0.292476,0.0293172,-0.00117887,0,
10,0.0730607,0.295223,0.0292642,-0.00123371,0,
10,0.0792784,0.298033,0.0292063,-0.00129384,0,
10,0.0860241,0.300919,0.0291432,-0.00135975,0,
10,0.0933428,0.3039,0.0290747,-0.00143197,0,
10,0.101283,0.306992,0.0290004,-0.00151105,0,
10,0.109899,0.310215,0.0289204,-0.00159757,0,
10,0.119247,0.313591,0.0288343,-0.00169216,0,
10,0.12939,0.317143,0.0287421,-0.00179547,0,
10,0.140395,0.320899,0.0286437,-0.00190816,0,
10,0.152337,0.32489,0.0285392,-0.00203093,0,
10,0.165296,0.329149,0.0284286,-0.00216447,0,
10,0.179357,0.333717,0.0283121,-0.00230946,0,
10,0.194615,0.33864,0.0281899,-0.00246653,0,
10,0.211171,0.343968,0.0280624,-0.00263623,0,
10,0.229138,0.349764,0.0279296,-0.00281902,0,
10,0.248635,0.356097,0.0277924,-0.00301512,0,
10,0.269793,0.363047,0.0276499,-0.00322451,0,
10,0.292753,0.370708,0.0275043,-0.00344677,0,
10,0.317669,0.379188,0.0273517,-0.00367964,0,
10,0.344708,0.388604,0.0271977,-0.00391979,0,
10,0.372405,0.398509,0.0270473,-0.00415615,0,
10,0.399623,0.408515,0.0269029,-0.00437737,0,
10,0.426397,0.418624,0.0267655,-0.00458036,0,
10,0.452757,0.42884,0.0266332,-0.00476643,0,
10,0.478735,0.439171,0.0265085,-0.00493327,0,
10,0.504358,0.449636,0.0263913,-0.00507983,0,
10,0.529657,0.460258,0.026283,-0.00520433,0,
10,0.554656,0.471056,0.0261769,-0.00530747,0,
10,0.579382,0.482044,0.02608,-0.00538853,0,
10,0.603859,0.493232,0.0259702,-0.00545893,0,
10,0.628112,0.504674,0.0258943,-0.00554419,0,
10,0.652163,0.51669,0.0258996,-0.00547578,0,
10,0.676035,0.529635,0.0259082,-0.00537829,0,
10,0.699751,0.543496,0.0258753,-0.00525037,0,
10,0.72333,0.558029,0.0258016,-0.00509145,0,
10,0.746795,0.572914,0.0256937,-0.00490399,0,
10,0.770165,0.587873,0.0255635,-0.00469239,0,
10,0.79346,0.602717,0.0254185,-0.00446177,0,
10,0.816699,0.617326,0.0252627,-0.00421721,0,
10,0.839903,0.631611,0.0250976,-0.00396374,0,
10,0.863088,0.645472,0.0249204,-0.0037097,0,
10,0.886275,0.658798,0.0247299,-0.0034639,0,
10,0.909481,0.671498,0.0245294,-0.00322687,0,
10,0.932723,0.683547,0.0243208,-0.00299902,0,
10,0.956021,0.694962,0.0241059,-0.00278096,0,
10,0.97939,0.705781,0.0238848,-0.0025733,0,
10,1.00285,0.71604,0.0236573,-0.00237656,0,
10,1.02641,0.725766,0.0234229,-0.00219122,0,
10,1.0501,0.734983,0.023182,-0.00201762,0,
10,1.07392,0.743711,0.0229336,-0.001856,0,
10,1.0979,0.751979,0.0226809,-0.00170459,0,
10,1.12205,0.759815,0.0224223,-0.00156206,0,
10,1.14639,0.767227,0.0221549,-0.001434,0,
10,1.17093,0.774213,0.0218795,-0.00131941,0,
10,1.19568,0.780789,0.0215963,-0.00121902,0,
10,1.22066,0.786987,0.0213052,-0.00113281,0,
10,1.24589,0.792848,0.0210075,-0.00106004,0,
10,1.27137,0.798423,0.0207018,-0.000999495,0,
10,1.29713,0.803765,0.0203915,-0.000952671,0,
10,1.32317,0.808961,0.0200748,-0.000910955,0,
10,1.34951,0.814144,0.0197522,-0.000866371,0,
10,1.37616,0.819395,0.019426,-0.000824981,0,
10,1.40313,0.824689,0.0190918,-0.000786885,0,
10,1.43043,0.829956,0.01875,-0.000751883,0,
10,1.45807,0.835142,0.0183998,-0.000719382,0,
10,1.48607,0.840237,0.0180423,-0.000688651,0,
10,1.51444,0.845259,0.0176776,-0.000659123,0,
10,1.54318,0.850227,0.017306,-0.000630517,0,
10,1.57231,0.855138,0.016927,-0.000602768,0,
10,1.60184,0.859974,0.0165405,-0.0005759,0,
10,1.63178,0.864707,0.0161463,-0.00054995,0,
10,1.66213,0.869307,0.0157449,-0.000524915,0,
10,1.69292,0.873757,0.0153355,-0.000500699,0,
10,1.72416,0.878062,0.0149196,-0.000476944,0,
10,1.75585,0.882264,0.0144944,-0.000449033,0,
10,1.78802,0.886409,0.0140609,-0.000420897,0,
10,1.82067,0.890506,0.0136206,-0.000392717,0,
10,1.85383,0.894535,0.0131715,-0.000363445,0,
10,1.88751,0.898475,0.0127145,-0.000333296,0,
10,1.92173,0.902302,0.012249,-0.000302624,0,
10,1.95652,0.905992,0.0117747,-0.000271849,0,
10,1.9919,0.90952,0.0112923,-0.000241434,0,
10,2.02791,0.912864,0.0108003,-0.000211917,0,
10,2.06456,0.916004,0.0103007,-0.000183521,0,
10,2.10268,0.91898,0.00977924,-0.00015583,0,
10,2.1443,0.921879,0.00921269,-0.000129215,0,
10,2.18977,0.924649,0.00859409,-0.00010381,0,
10,2.23946,0.927211,0.00792169,-7.99256e-05,0,
10,2.29376,0.929479,0.00719004,-5.83903e-05,0,
10,2.35309,0.931372,0.00639691,-3.99032e-05,0,
10,2.4179,0.932821,0.00553832,-2.49926e-05,0,
10,2.48863,0.933781,0.00461256,-1.39306e-05,0,
10,2.56575,0.93425,0.00361745,-6.62802e-06,0,
10,2.64971,0.934282,0.00255266,-2.57912e-06,0,
10,2.74098,0.933997,0.00141804,-9.10686e-07,0,
10,2.83997,0.933574,0.000214893,-5.78779e-07,0,
10,2.94709,0.933216,-0.00105505,-6.75949e-07,0,
10,3.06269,0.933107,-0.00238887,-6.88727e-07,0,
10,3.18706,0.933358,-0.00378293,-5.23345e-07,0,
10,3.3204,0.933971,-0.00523206,-3.03067e-07,0,
10,3.46281,0.934854,-0.00672953,-1.41416e-07,0,
10,3.61427,0.935862,-0.00826651,-6.07926e-08,0,
10,3.77463,0.936858,-0.00983227,-3.12281e-08,0,
10,3.94358,0.937761,-0.0114144,-2.22381e-08,0,
10,4.12067,0.938557,-0.0129995,-1.91982e-08,0,
10,4.30525,0.93928,-0.0145738,-1.78363e-08,0,
10,4.49655,0.939972,-0.0161236,-1.73423e-08,0,
10,4.6936,0.940661,-0.0176357,-1.76938e-08,0,
10,4.89531,0.94135,-0.019098,-1.93827e-08,0,
10,5.10047,0.942025,-0.0204996,-2.38601e-08,0,
10,5.30776,0.942665,-0.0218314,-3.43633e-08,0,
10,5.51581,0.943253,-0.023086,-5.7594e-08,0,
10,5.72323,0.943787,-0.0242581,-1.07968e-07,0,
10,5.92863,0.94429,-0.025344,-2.20769e-07,0,
10,6.13069,0.94483,-0.0263426,-4.88863e-07,0,
10,6.32816,0.945503,-0.0272541,-1.10644e-06,0,
10,6.51991,0.946338,-0.0280808,-2.15334e-06,0,
10,6.70495,0.947105,-0.0288262,-2.31788e-06,0,
10,6.88244,0.947088,-0.0294938,3.75953e-06,0,
10,7.0517,0.945059,-0.0300875,2.6977e-05,0,
10,7.21224,0.939632,-0.0306079,8.06314e-05,0,
10,7.3637,0.929926,-0.0310606,0.000173909,0,
10,7.5059,0.915985,-0.0314497,0.000297185,0,
10,7.63878,0.898398,-0.0317793,0.00040473,0,
10,7.76243,0.878271,-0.032059,0.000523651,0,
10,7.87701,0.857371,-0.0322835,0.000645157,0,
10,7.9828,0.837156,-0.0324693,0.000755449,0,
10,8.08014,0.818333,-0.0326183,0.000849514,0,
10,8.16941,0.800984,-0.0327418,0.000927825,0,
10,8.25106,0.784864,-0.0328437,0.000993514,0,
10,8.32554,0.769648,-0.0329303,0.00104979,0,
10,8.39331,0.755058,-0.0330036,0.0010989,0,
10,8.45484,0.740896,-0.0330666,0.00114212,0,
10,8.5106,0.727041,-0.0331202,0.00118006,0,
10,8.56104,0.713434,-0.0331664,0.00121295,0,
10,8.60659,0.700057,-0.0332058,0.00124089,0,
10,8.64767,0.686918,-0.0332401,0.00126399,0,
10,8.68467,0.67402,-0.0332696,0.00128195,0,
10,8.71795,0.661337,-0.0332952,0.00129179,0,
10,8.74786,0.648841,-0.0333174,0.0012981,0,
10,8.77471,0.63653,-0.0333365,0.00130011,0,
10,8.79881,0.624399,-0.0333531,0.00129828,0,
10,8.8204,0.61244,-0.0333672,0.00129313,0,
10,8.83975,0.600644,-0.0333795,0.00128518,0,
10,8.85708,0.588996,-0.0333899,0.0012749,0,
10,8.87259,0.577477,-0.0333987,0.00126275,0,
10,8.88646,0.566068,-0.0334063,0.00124914,0,
10,8.89886,0.554743,-0.0334126,0.00123441,0,
10,8.90995,0.543474,-0.033418,0.00121884,0,
10,8.91986,0.532232,-0.0334225,0.00120266,0,
10,8.92872,0.520983,-0.0334263,0.00118602,0,
10,8.93663,0.509692,-0.0334294,0.00116901,0,
10,8.94369,0.498319,-0.033432,0.00115167,0,
10,8.95,0.486822,-0.0334341,0.00113394,0,
10,8.95564,0.475157,-0.033436,0.00111577,0,
10,8.96067,0.463273,-0.0334374,0.00109697,0,
10,8.96517,0.451115,-0.0334387,0.00107729,0,
10,8.96918,0.438624,-0.0334396,0.00105641,0,
10,8.97276,0.425728,-0.0334405,0.0010339,0,
10,8.97596,0.412348,-0.0334411,0.00100919,0,
10,8.97882,0.398392,-0.0334418,0.000981565,0,
10,8.98137,0.383751,-0.0334421,0.000950078,0,
10,8.98365,0.3683,-0.0334426,0.000913522,0,
10,8.98569,0.351887,-0.0334427,0.000870512,0,
10,8.9875,0.33433,-0.0334432,0.000818725,0,
10,8.98913,0.315395,-0.0334431,0.000753329,0,
10,8.99058,0.294853,-0.0334436,0.000676056,0,
10,8.99188,0.272542,-0.0334433,0.000584552,0,
10,8.99304,0.248304,-0.0334439,0.000471962,0,
10,8.99408,0.222097,-0.0334435,0.00034598,0,
10,8.99501,0.194295,-0.033444,0.000220295,0,
10,8.99583,0.165798,-0.0334435,0.000116709,0,
10,8.99658,0.137874,-0.0334441,5.00965e-05,0,
10,8.99724,0.111633,-0.0334435,1.72838e-05,0,
10,8.99784,0.087661,-0.0334442,4.74726e-06,0,
10,8.99837,0.0660662,-0.0334435,9.95502e-07,0,
10,8.99885,0.046714,-0.0334443,1.42604e-07,0,
10,8.99927,0.0293934,-0.0334435,1.08264e-08,0,
10,8.99966,0.0138899,-0.0334444,2.39537e-10,0,
10,0,0,0.0297504,0,0,
10,9,0,-0.0334434,0,0,

0.004,0,0,-0.226189,0,-8.51006e-08,
0.00868226,0,0,-0.226186,0,-1.90237e-07,
0.014062,0,0,-0.226188,0,-3.20213e-07,
0.0201548,0,0,-0.226187,0,-7.54668e-07,
0.0269766,0,0,-0.226188,0,-1.28044e-06,
0.0345437,0,0,-0.226187,0,-1.9477e-06,
0.0428729,0,0,-0.226186,0,-2.57678e-06,
0.051981,0,0,-0.226184,0,-3.08143e-06,
0.0618853,0,0,-0.226182,0,-3.2612e-06,
0.0726036,0,0,-0.226178,0,-2.94006e-06,
0.0841536,0,0,-0.226174,0,-1.90706e-06,
0.0965535,0,0,-0.22617,0,4.32136e-09,
0.109822,0,0,-0.226167,0,2.89637e-06,
0.123977,0,0,-0.226165,0,6.76187e-06,
0.139037,0,0,-0.226166,0,1.14619e-05,
0.155022,0,0,-0.226172,0,1.67416e-05,
0.171949,0,0,-0.226182,0,2.2253e-05,
0.189839,0,0,-0.226198,0,2.7619e-05,
0.208709,0,0,-0.226219,0,3.24743e-05,
0.228579,0,0,-0.226245,0,3.65225e-05,
0.249467,0,0,-0.226273,0,3.95544e-05,
0.271391,0,0,-0.226303,0,4.14706e-05,
0.29437,0,0,-0.226334,0,4.2274e-05,
0.31842,0,0,-0.226363,0,4.20665e-05,
0.343559,0,0,-0.22639,0,4.10267e-05,
0.369804,0,0,-0.226414,0,3.93944e-05,
0.39717,0,0,-0.226436,0,3.74442e-05,
0.425672,0,0,-0.226454,0,3.54726e-05,
0.455324,0,0,-0.226471,0,3.3774e-05,
0.48614,0,0,-0.226486,0,3.26391e-05,
0.518132,0,0,-0.226501,0,3.23346e-05,
0.551309,0,0,-0.226518,0,3.30453e-05,
0.585683,0,0,-0.226541,0,3.48506e-05,
0.621259,0,0,-0.226571,0,3.77261e-05,
0.658046,0,0,-0.226612,0,4.15602e-05,
0.696047,0,0,-0.226668,0,4.61838e-05,
0.735265,0,0,-0.226742,0,5.14045e-05,
0.7757,0,0,-0.226838,0,5.70331e-05,
0.817352,0,0,-0.226961,0,6.28649e-05,
0.860215,0,0,-0.227116,0,6.86332e-05,
0.904285,0,0,-0.227315,0,7.38774e-05,
0.949552,0,0,-0.227572,0,7.77448e-05,
0.996004,0,0,-0.227904,0,7.89207e-05,
1.04363,0,0,-0.228332,0,7.56713e-05,
1.09241,0,0,-0.228878,0,6.59694e-05,
1.14232,0,0,-0.22956,0,4.78364e-05,
1.19335,0,0,-0.230383,0,1.98744e-05,
1.24546,0,0,-0.23134,0,-1.82473e-05,
1.29863,0,0,-0.232409,0,-6.56081e-05,
1.35283,0,0,-0.233559,0,-0.000120287,
1.40802,0,0,-0.234758,0,-0.000179944,
1.46416,0,0,-0.235973,0,-0.000242441,
1.52121,0,0,-0.237178,0,-0.000306222,
1.57913,0,0,-0.238348,0,-0.000370385,
1.63787,0,0,-0.239464,0,-0.000434523,
1.69739,0,0,-0.240509,0,-0.000498509,
1.75761,0,0,-0.241468,0,-0.000562314,
1.81851,0,0,-0.242326,0,-0.000625917,
1.88,0,0,-0.243069,0,-0.000689268,
1.94204,0,0,-0.243683,0,-0.000752285,
2.00457,0,0,-0.244156,0,-0.00081486,
2.06751,0,0,-0.244475,0,-0.000876868,
2.13081,0,0,-0.244626,0,-0.000938168,
2.19439,0,0,-0.2446,0,-0.000998609,
2.25819,0,0,-0.244386,0,-0.00105803,
2.32214,0,0,-0.243973,0,-0.00111624,
2.38617,0,0,-0.243353,0,-0.00117306,
2.4502,0,0,-0.242519,0,-0.00122829,
2.51418,0,0,-0.241464,0,-0.00128171,
2.57803,0,0,-0.240185,0,-0.0013331,
2.64167,0,0,-0.238678,0,-0.00138223,
2.70505,0,0,-0.236942,0,-0.00142885,
2.76808,0,0,-0.234978,0,-0.00147271,
2.83072,0,0,-0.232791,0,-0.00151357,
2.89288,0,0,-0.230386,0,-0.0015512,
2.95451,0,0,-0.227773,0,-0.00158539,
3.01555,0,0,-0.224962,0,-0.001616,
3.07594,0,0,-0.221968,0,-0.00164292,
3.13561,0,0,-0.218806,0,-0.00166611,
3.19453,0,0,-0.215494,0,-0.00168559,
3.25262,0,0,-0.21205,0,-0.00170143,
3.30985,0,0,-0.208493,0,-0.00171374,
3.36617,0,0,-0.204843,0,-0.00172266,
3.42154,0,0,-0.201117,0,-0.00172835,
3.47591,0,0,-0.197336,0,-0.00173101,
3.52925,0,0,-0.193518,0,-0.00173082,
3.58152,0,0,-0.189678,0,-0.00172799,
3.6327,0,0,-0.185835,0,-0.00172275,
3.68276,0,0,-0.182003,0,-0.00171532,
3.73167,0,0,-0.178196,0,-0.00170591,
3.77941,0,0,-0.174427,0,-0.00169474,
3.82596,0,0,-0.170708,0,-0.00168204,
3.8713,0,0,-0.167048,0,-0.00166798,
3.91543,0,0,-0.163453,0,-0.00165264,
3.95833,0,0,-0.15995,0,-0.00163655,
4,0,0,-0.156509,0,-0.00161958,
4.04167,0,0,-0.153063,0,-0.00160132,
4.08333,0,0,-0.149606,0,-0.00158199,
4.125,0,0,-0.146143,0,-0.00156158,
4.16667,0,0,-0.142675,0,-0.00154011,
4.20833,0,0,-0.139207,0,-0.00151763,
4.25,0,0,-0.135741,0,-0.00149417,
4.29167,0,0,-0.132281,0,-0.00146978,
4.33333,0,0,-0.128829,0,-0.00144452,
4.375,0,0,-0.125388,0,-0.00141841,
4.41667,0,0,-0.12196,0,-0.00139149,
4.45833,0,0,-0.118549,0,-0.00136381,
4.5,0,0,-0.115157,0,-0.00133541,
4.54167,0,0,-0.111786,0,-0.00130632,
4.58333,0,0,-0.108438,0,-0.00127658,
4.625,0,0,-0.105115,0,-0.00124623,
4.66667,0,0,-0.101819,0,-0.00121529,
4.70833,0,0,-0.0985515,0,-0.00118381,
4.75,0,0,-0.095315,0,-0.00115181,
4.79167,0,0,-0.0921107,0,-0.00111931,
4.83333,0,0,-0.0889403,0,-0.00108635,
4.875,0,0,-0.0858053,0,-0.00105295,
4.91667,0,0,-0.082707,0,-0.00101915,
4.95833,0,0,-0.0796468,0,-0.000984974,
5,0,0,-0.0766259,0,-0.000950451,
5.04167,0,0,-0.0736454,0,-0.00091561,
5.08333,0,0,-0.0707064,0,-0.000880481,
5.125,0,0,-0.0678099,0,-0.000845088,
5.16667,0,0,-0.0649566,0,-0.000809457,
5.20833,0,0,-0.0621474,0,-0.000773611,
5.25,0,0,-0.0593831,0,-0.000737571,
5.29167,0,0,-0.0566643,0,-0.00070136,
5.33333,0,0,-0.0539916,0,-0.000664998,
5.375,0,0,-0.0513656,0,-0.000628507,
5.41667,0,0,-0.0487869,0,-0.000591908,
5.45833,0,0,-0.0462559,0,-0.000555225,
5.5,0,0,-0.0437731,0,-0.000518481,
5.54167,0,0,-0.0413388,0,-0.000481696,
5.58333,0,0,-0.0389534,0,-0.000444891,
5.625,0,0,-0.0366172,0,-0.000408083,
5.66667,0,0,-0.0343305,0,-0.000371286,
5.70833,0,0,-0.0320938,0,-0.000334515,
5.75,0,0,-0.0299074,0,-0.000297785,
5.79167,0,0,-0.0277721,0,-0.000261121,
5.83333,0,0,-0.0256884,0,-0.000224565,
5.875,0,0,-0.0236573,0,-0.000188188,
5.91667,0,0,-0.0216794,0,-0.000152088,
5.95833,0,0,-0.0197543,0,-0.000116357,
6,0,0,-0.0178812,0,-8.10527e-05,
6.04167,0,0,-0.0160592,0,-4.619e-05,
6.08333,0,0,-0.014287,0,-1.17581e-05,
6.125,0,0,-0.0125637,0,2.22578e-05,
6.16667,0,0,-0.0108883,0,5.58677e-05,
6.20833,0,0,-0.00925992,0,8.90769e-05,
6.25,0,0,-0.00767772,0,0.000121888,
6.29167,0,0,-0.00614083,0,0.000154303,
6.33333,0,0,-0.00464842,0,0.000186323,
6.375,0,0,-0.00319967,0,0.000217948,
6.41667,0,0,-0.00179378,0,0.000249179,
6.45833,0,0,-0.000429937,0,0.000280015,
6.5,0,0,0.000892646,0,0.000310457,
6.54167,0,0,0.00217476,0,0.000340503,
6.58333,0,0,0.0034172,0,0.000370155,
6.625,0,0,0.00462073,0,0.000399413,
6.66667,0,0,0.00578614,0,0.000428277,
6.70833,0,0,0.00691419,0,0.000456748,
6.75,0,0,0.00800564,0,0.000484827,
6.79167,0,0,0.00906124,0,0.000512515,
6.83333,0,0,0.0100817,0,0.000539812,
6.875,0,0,0.0110679,0,0.00056672,
6.91667,0,0,0.0120204,0,0.000593238,
6.95833,0,0,0.0129401,0,0.000619369,
7,0,0,0.0138276,0,0.000645112,
7.04167,0,0,0.0146837,0,0.000670471,
7.08333,0,0,0.015509,0,0.000695446,
7.125,0,0,0.0163043,0,0.000720039,
7.16667,0,0,0.0170703,0,0.000744252,
7.20833,0,0,0.0178077,0,0.000768085,
7.25,0,0,0.0185171,0,0.000791543,
7.29167,0,0,0.0191993,0,0.000814629,
7.33333,0,0,0.0198548,0,0.000837346,
7.375,0,0,0.0204843,0,0.000859698,
7.41667,0,0,0.0210885,0,0.000881693,
7.45833,0,0,0.0216681,0,0.000903338,
7.5,0,0,0.0222236,0,0.000924647,
7.54167,0,0,0.0227556,0,0.00094563,
7.58333,0,0,0.0232648,0,0.000966291,
7.625,0,0,0.0237517,0,0.000986635,
7.66667,0,0,0.0242166,0,0.00100666,
7.70833,0,0,0.0246602,0,0.00102638,
7.75,0,0,0.0250828,0,0.00104579,
7.79167,0,0,0.0254848,0,0.00106488,
7.83333,0,0,0.0258662,0,0.00108366,
7.875,0,0,0.0262271,0,0.00110218,
7.91667,0,0,0.0265782,0,0.001121,
7.95833,0,0,0.026851,0,0.00113863,
8,0,0,0.0272079,0,0.00115623,
8.04171,0,0,0.027584,0,0.00117483,
8.08368,0,0,0.0278268,0,0.00119321,
8.12617,0,0,0.0281096,0,0.00120983,
8.16946,0,0,0.0283762,0,0.00122653,
8.21382,0,0,0.0286259,0,0.00124323,
8.25952,0,0,0.0288664,0,0.00125996,
8.30685,0,0,0.0290973,0,0.00127689,
8.35611,0,0,0.0293185,0,0.00129411,
8.40762,0,0,0.0295303,0,0.0013117,
8.46168,0,0,0.029732,0,0.00132973,
8.51865,0,0,0.0299227,0,0.00134825,
8.57889,0,0,0.0301012,0,0.00136731,
8.64276,0,0,0.0302658,0,0.00138695,
8.71067,0,0,0.0304144,0,0.00140719,
8.78306,0,0,0.0305446,0,0.00142806,
8.86037,0,0,0.0306534,0,0.00144959,
8.94309,0,0,0.0307376,0,0.00147176,
9.03174,0,0,0.0307934,0,0.00149459,
9.12689,0,0,0.0308169,0,0.00151804,
9.22912,0,0,0.0308038,0,0.00154211,
9.33908,0,0,0.0307493,0,0.00156674,
9.45746,0,0,0.0306488,0,0.0015919,
9.58501,0,0,0.0304972,0,0.00161753,
9.72253,0,0,0.0302894,0,0.00164357,
9.87088,0,0,0.0300203,0,0.00166992,
10.031,0,0,0.0296856,0,0.00169649,
10.2039,0,0,0.0292815,0,0.00172318,
10.3906,0,0,0.0288042,0,0.00174989,
10.5924,0,0,0.0282508,0,0.00177648,
10.8105,0,0,0.027621,0,0.00180282,
11.0463,0,0,0.0269151,0,0.00182882,
11.3012,0,0,0.0261335,0,0.00185435,
11.5769,0,0,0.0252806,0,0.0018793,
11.8751,0,0,0.0243613,0,0.00190358,
12.1977,0,0,0.0233827,0,0.0019271,
12.5466,0,0,0.022354,0,0.00194978,
12.9242,0,0,0.0212855,0,0.00197159,
13.3327,0,0,0.0201896,0,0.00199248,
13.7748,0,0,0.0190795,0,0.00201244,
14.2532,0,0,0.0179692,0,0.00203147,
14.7709,0,0,0.0168732,0,0.00204959,
15.3312,0,0,0.015805,0,0.00206683,
15.9377,0,0,0.014778,0,0.00208326,
16.594,0,0,0.0138035,0,0.00209893,
17.3044,0,0,0.01289,0,0.00211393,
18.0733,0,0,0.012045,0,0.00212828,
18.9056,0,0,0.0112714,0,0.00214191,
19.8064,0,0,0.0105695,0,0.00215475,
20.7816,0,0,0.00993676,0,0.00216701,
21.8371,0,0,0.009366,0,0.00217901,
22.9796,0,0,0.00884773,0,0.00219093,
24.2163,0,0,0.00836877,0,0.00220286,
25.5551,0,0,0.00791403,0,0.00221488,
27.0042,0,0,0.00746719,0,0.00222707,
28.5729,0,0,0.00701055,0,0.00223948,
30.271,0,0,0.00652597,0,0.00225212,
32.1091,0,0,0.00599583,0,0.00226492,
34.0989,0,0,0.00540494,0,0.00227775,
36.2529,0,0,0.00473549,0,0.00229068,
38.5845,0,0,0.00397937,0,0.00230361,
41.1085,0,0,0.00317533,0,0.00231636,
43.8407,0,0,0.00216512,0,0.00232671,
46.7983,0,0,0.00111543,0,0.00233255,
50,0,0,0.00211505,0,0.00234842,

