498748353411de1ff7b550d8e032b5db7cf87677 
X,Z,x_velocity,cp,uw_b,cf,
1,0,0,-0.231105,0,0,
1,9,0,-0.12823,0,0,
1,8.99969,0.0153808,-0.12823,2.84895e-10,0,
1,8.99934,0.0328308,-0.12823,1.3317e-08,0,
1,8.99894,0.0526464,-0.12823,1.83704e-07,0,
1,8.99848,0.0751412,-0.12823,1.34678e-06,0,
1,8.99797,0.100628,-0.12823,6.73208e-06,0,
1,8.99739,0.129303,-0.12823,2.54865e-05,0,
1,8.99672,0.160975,-0.12823,7.55303e-05,0,
1,8.99597,0.194708,-0.12823,0.000175678,0,
1,8.99512,0.228855,-0.12823,0.000323984,0,
1,8.99416,0.261759,-0.12823,0.000491996,0,
1,8.99306,0.292442,-0.128229,0.000650267,0,
1,8.99182,0.320727,-0.128229,0.000777931,0,
1,8.99041,0.346752,-0.128229,0.000883557,0,
1,8.98881,0.37068,-0.128228,0.000970843,0,
1,8.98699,0.392727,-0.128228,0.00104213,0,
1,8.98494,0.413187,-0.128227,0.00109798,0,
1,8.98261,0.432367,-0.128226,0.00114102,0,
1,8.97996,0.450506,-0.128225,0.00117709,0,
1,8.97696,0.467775,-0.128224,0.00120705,0,
1,8.97356,0.484317,-0.128222,0.00123216,0,
1,8.9697,0.500249,-0.128221,0.00125342,0,
1,8.96533,0.51567,-0.128219,0.00127151,0,
1,8.96038,0.530663,-0.128217,0.00128697,0,
1,8.95476,0.545298,-0.128214,0.00130016,0,
1,8.9484,0.559633,-0.128212,0.00131135,0,
1,8.9412,0.573721,-0.128209,0.00132071,0,
1,8.93303,0.587603,-0.128206,0.00132835,0,
1,8.92379,0.601317,-0.128202,0.00133432,0,
1,8.91333,0.614896,-0.128199,0.00133863,0,
1,8.90149,0.628366,-0.128196,0.00134126,0,
1,8.8881,0.641753,-0.128192,0.00134216,0,
1,8.87295,0.655079,-0.128189,0.00134125,0,
1,8.85584,0.668364,-0.128187,0.00133844,0,
1,8.83651,0.681628,-0.128185,0.00133361,0,
1,8.81469,0.694891,-0.128184,0.00132665,0,
1,8.79007,0.708172,-0.128185,0.00131741,0,
1,8.76232,0.721495,-0.128188,0.0013057,0,
1,8.73107,0.734887,-0.128194,0.00129132,0,
1,8.69591,0.748378,-0.128205,0.00127402,0,
1,8.6564,0.762007,-0.128221,0.00125347,0,
1,8.61206,0.775823,-0.128246,0.00122928,0,
1,8.56236,0.789886,-0.128279,0.00120103,0,
1,8.50675,0.804274,-0.128326,0.0011682,0,
1,8.44464,0.819089,-0.128387,0.00113053,0,
1,8.3754,0.834474,-0.128472,0.00109059,0,
1,8.29839,0.850705,-0.128581,0.00103219,0,
1,8.21296,0.868134,-0.12872,0.000952128,0,
1,8.11843,0.88698,-0.1289,0.000848726,0,
1,8.01417,0.907204,-0.129131,0.000718614,0,
1,7.89956,0.928322,-0.129415,0.000566074,0,
1,7.77403,0.949226,-0.129782,0.000408573,0,
1,7.63711,0.968328,-0.130226,0.000209832,0,
1,7.48842,0.983232,-0.130753,7.7406e-05,0,
1,7.32773,0.991978,-0.131383,1.8406e-05,0,
1,7.15495,0.995103,-0.132117,1.79209e-06,0,
1,6.97022,0.995127,-0.132968,1.94855e-08,0,
1,6.77388,0.994505,-0.133952,3.61503e-09,0,
1,6.56652,0.994394,-0.135085,9.76413e-09,0,
1,6.34896,0.99485,-0.13638,1.24449e-08,0,
1,6.12229,0.995575,-0.137852,1.40124e-08,0,
1,5.88784,0.996371,-0.139516,1.48652e-08,0,
1,5.64716,0.997204,-0.141385,1.58562e-08,0,
1,5.40194,0.998105,-0.143471,1.72348e-08,0,
1,5.15407,0.999102,-0.145782,1.89686e-08,0,
1,4.90545,1.0002,-0.148323,2.08496e-08,0,
1,4.65805,1.00141,-0.151093,2.28733e-08,0,
1,4.41376,1.00273,-0.154087,2.50046e-08,0,
1,4.17441,1.00413,-0.157294,2.69915e-08,0,
1,3.94163,1.00557,-0.160697,2.87073e-08,0,
1,3.7169,1.00699,-0.164271,3.07214e-08,0,
1,3.50146,1.00847,-0.167985,3.4984e-08,0,
1,3.29629,1.01031,-0.171808,4.35185e-08,0,
1,3.10217,1.01287,-0.175708,5.471e-08,0,
1,2.91959,1.016,-0.179656,9.46642e-08,0,
1,2.74885,1.01832,-0.183611,9.73416e-07,0,
1,2.59002,1.01747,-0.187505,-4.41464e-06,0,
1,2.44299,1.01169,-0.191271,-4.52841e-05,0,
1,2.30752,1.00106,-0.194837,-0.00013584,0,
1,2.18321,0.986926,-0.198141,-0.000264976,0,
1,2.06959,0.970852,-0.201208,-0.000372081,0,
1,1.9661,0.954141,-0.204008,-0.000466586,0,
1,1.87215,0.937768,-0.206507,-0.000554229,0,
1,1.78711,0.922272,-0.208737,-0.000630966,0,
1,1.71033,0.907823,-0.210714,-0.000696584,0,
1,1.64119,0.894393,-0.212458,-0.000752688,0,
1,1.57905,0.88187,-0.213992,-0.000801534,0,
1,1.52332,0.870128,-0.215336,-0.000845295,0,
1,1.47342,0.859051,-0.21651,-0.000886003,0,
1,1.42882,0.848545,-0.217534,-0.000925116,0,
1,1.389,0.838541,-0.218434,-0.000964938,0,
1,1.35351,0.82901,-0.219212,-0.00100288,0,
1,1.3219,0.819927,-0.219861,-0.00101864,0,
1,1.29378,0.811257,-0.220417,-0.00103285,0,
1,1.26878,0.802982,-0.220899,-0.00104527,0,
1,1.24659,0.795092,-0.221312,-0.00105599,0,
1,1.22689,0.787577,-0.221668,-0.00106498,0,
1,1.2092,0.780345,-0.221978,-0.00107127,0,
1,1.1932,0.773343,-0.22225,-0.00107568,0,
1,1.1787,0.766552,-0.222487,-0.00107912,0,
1,1.16554,0.759942,-0.222695,-0.00108353,0,
1,1.15357,0.753473,-0.222877,-0.0010916,0,
1,1.14266,0.747078,-0.223037,-0.00110795,0,
1,1.13268,0.740663,-0.223177,-0.00113917,0,
1,1.12354,0.734097,-0.223302,-0.00119356,0,
1,1.11514,0.727213,-0.223417,-0.00128106,0,
1,1.10739,0.719815,-0.223526,-0.0014118,0,
1,1.10022,0.711705,-0.223633,-0.00159459,0,
1,1.09357,0.702718,-0.223743,-0.00183454,0,
1,1.08738,0.692766,-0.223856,-0.00213151,0,
1,1.0816,0.681869,-0.223975,-0.00247918,0,
1,1.07618,0.67016,-0.224099,-0.00286543,0,
1,1.07107,0.657843,-0.224228,-0.00327483,0,
1,1.06626,0.645148,-0.22436,-0.00369175,0,
1,1.06169,0.632289,-0.224496,-0.00410292,0,
1,1.05735,0.619442,-0.224633,-0.00449855,0,
1,1.05321,0.606739,-0.224771,-0.00487226,0,
1,1.04925,0.594269,-0.224908,-0.00522053,0,
1,1.04544,0.58209,-0.225045,-0.00554186,0,
1,1.04177,0.570233,-0.225181,-0.00583616,0,
1,1.03822,0.558713,-0.225316,-0.00610415,0,
1,1.03478,0.54753,-0.225449,-0.00634709,0,
1,1.03144,0.536679,-0.225581,-0.00656642,0,
1,1.02818,0.526148,-0.225711,-0.00676369,0,
1,1.025,0.515922,-0.22584,-0.00694045,0,
1,1.02188,0.505985,-0.225967,-0.00709815,0,
1,1.01882,0.496323,-0.226093,-0.00723818,0,
1,1.01581,0.486917,-0.226218,-0.00736193,0,
1,1.01284,0.477753,-0.226341,-0.0074699,0,
1,1.00988,0.468719,-0.226464,-0.00756487,0,
1,1.00688,0.459705,-0.226589,-0.00764849,0,
1,1.00384,0.4507,-0.226716,-0.00772045,0,
1,1.00076,0.441687,-0.226843,-0.00778076,0,
1,0.997615,0.432648,-0.226972,-0.00782938,0,
1,0.99441,0.42356,-0.227102,-0.00786639,0,
1,0.991131,0.414401,-0.227234,-0.00789191,0,
1,0.987768,0.405145,-0.227367,-0.0079058,0,
1,0.984308,0.395766,-0.227503,-0.00790778,0,
1,0.980739,0.386235,-0.227641,-0.00789746,0,
1,0.977045,0.376521,-0.227781,-0.0078743,0,
1,0.973211,0.366589,-0.227925,-0.00783762,0,
1,0.969219,0.356405,-0.228071,-0.00778655,0,
1,0.965047,0.345927,-0.228221,-0.00772004,0,
1,0.960675,0.335113,-0.228375,-0.00763685,0,
1,0.956077,0.323915,-0.228532,-0.00753548,0,
1,0.951224,0.312279,-0.228694,-0.00741383,0,
1,0.946088,0.300149,-0.22886,-0.00726948,0,
1,0.940633,0.287466,-0.22903,-0.00710031,0,
1,0.934823,0.274171,-0.229206,-0.00690361,0,
1,0.928616,0.260213,-0.229388,-0.00667644,0,
1,0.921967,0.245554,-0.229576,-0.00641801,0,
1,0.914826,0.230171,-0.229771,-0.00612466,0,
1,0.907141,0.214056,-0.229971,-0.00579401,0,
1,0.898852,0.197222,-0.230177,-0.00542452,0,
1,0.889898,0.179707,-0.230387,-0.00501569,0,
1,0.880212,0.161588,-0.230602,-0.00456868,0,
1,0.869723,0.142995,-0.230822,-0.00408699,0,
1,0.858358,0.124129,-0.231045,-0.00357754,0,
1,0.846039,0.105287,-0.231271,-0.00305197,0,
1,0.83269,0.0868802,-0.231501,-0.00252779,0,
1,0.818232,0.0694468,-0.231736,-0.00203221,0,
1,0.802744,0.053721,-0.231965,-0.00159624,0,
1,0.78635,0.0402826,-0.232191,-0.0012411,0,
1,0.768969,0.0292213,-0.232403,-0.00097381,0,
1,0.75053,0.0202951,-0.232599,-0.00078667,0,
1,0.730977,0.0130343,-0.232771,-0.000664905,0,
1,0.710271,0.00692179,-0.232916,-0.000592504,0,
1,0.688397,0.00151941,-0.233031,-0.000554123,0,
1,0.66536,-0.00348517,-0.233116,-0.000537343,0,
1,0.641194,-0.00828203,-0.233175,-0.000536569,0,
1,0.615961,-0.013002,-0.233211,-0.000539294,0,
1,0.589754,-0.0177377,-0.233225,-0.000541284,0,
1,0.562692,-0.0225298,-0.233218,-0.000539098,0,
1,0.534925,-0.0273757,-0.23319,-0.000530973,0,
1,0.506624,-0.0322429,-0.233141,-0.000516292,0,
1,0.477982,-0.0370804,-0.233069,-0.000495141,0,
1,0.449206,-0.0418284,-0.232976,-0.000468061,0,
1,0.420509,-0.0464253,-0.232861,-0.000435835,0,
1,0.392107,-0.0508118,-0.232728,-0.000399379,0,
1,0.364206,-0.0549336,-0.232578,-0.000359668,0,
1,0.337003,-0.0587433,-0.232417,-0.000317695,0,
1,0.310673,-0.0622007,-0.232249,-0.000274422,0,
1,0.28537,-0.0652737,-0.232077,-0.000230751,0,
1,0.26122,-0.0679372,-0.231907,-0.000187488,0,
1,0.238324,-0.0701732,-0.231743,-0.000145322,0,
1,0.21675,-0.0719689,-0.231589,-0.000104812,0,
1,0.196544,-0.0733165,-0.231447,-6.64064e-05,0,
1,0.177724,-0.0742108,-0.23132,-3.04435e-05,0,
1,0.160284,-0.0746492,-0.23121,2.83512e-06,0,
1,0.144202,-0.0746303,-0.231117,3.32559e-05,0,
1,0.129436,-0.0741538,-0.231042,6.06782e-05,0,
1,0.115935,-0.0732206,-0.230983,8.49587e-05,0,
1,0.103636,-0.0718338,-0.230941,0.000105933,0,
1,0.0924701,-0.0699996,-0.230914,0.000123415,0,
1,0.0823633,-0.0677294,-0.2309,0.000137212,0,
1,0.0732406,-0.065041,-0.230897,0.000147159,0,
1,0.0650269,-0.06196,-0.230903,0.000153161,0,
1,0.057648,-0.0585203,-0.230915,0.000155224,0,
1,0.0510323,-0.0547631,-0.230933,0.000153472,0,
1,0.0451115,-0.0507353,-0.230953,0.000148134,0,
1,0.0398209,-0.0464861,-0.230975,0.000139521,0,
1,0.0351001,-0.0420653,-0.230996,0.000128026,0,
1,0.0308929,-0.0375204,-0.231017,0.000114088,0,
1,0.0271475,-0.032897,-0.231036,9.81833e-05,0,
1,0.0238164,-0.0282408,-0.231052,8.08506e-05,0,
1,0.0208562,-0.0236057,-0.231066,6.2796e-05,0,
1,0.0182274,-0.0190677,-0.231077,4.50682e-05,0,
1,0.0158944,-0.0147426,-0.231085,2.91582e-05,0,
1,0.0138249,-0.0107877,-0.231091,1.66387e-05,0,
1,0.0119898,-0.00736828,-0.231094,8.29689e-06,0,
1,0.0103632,-0.00459404,-0.231097,3.64002e-06,0,
1,0.00892169,-0.00247865,-0.231098,1.42739e-06,0,
1,0.00764438,-0.000953609,-0.2311,5.06773e-07,0,
1,0.00651264,8.75698e-05,-0.2311,1.62966e-07,0,
1,0.00550983,0.000753562,-0.231101,4.64822e-08,0,
1,0.00462115,0.00113813,-0.231101,1.1047e-08,0,
1,0.00383341,0.00131647,-0.231102,1.7725e-09,0,
1,0.0031349,0.00134659,-0.231102,-6.6115e-11,0,
1,0.00251518,0.00127263,-0.231103,-1.91908e-10,0,
1,0.00196502,0.00112761,-0.231102,-8.73801e-11,0,
1,0.00147619,0.00093617,-0.231104,-2.4514e-11,0,
1,0.00104139,0.000716354,-0.231102,-4.30061e-12,0,
1,0.000654158,0.00048132,-0.231105,-3.80399e-13,0,
1,0.000308731,0.000240391,-0.231102,-9.50691e-15,0,

4,0,0,-0.141909,0,0,
4,9,0,-0.0975002,0,0,
4,8.99969,0.0142759,-0.0974999,2.24777e-10,0,
4,8.99934,0.0304156,-0.0975001,1.04285e-08,0,
4,8.99894,0.0486811,-0.0974998,1.424e-07,0,
4,8.9985,0.0693492,-0.0975,1.03357e-06,0,
4,8.99799,0.0927014,-0.0974998,5.12974e-06,0,
4,8.99742,0.11894,-0.0974999,1.94202e-05,0,
4,8.99677,0.147979,-0.0974997,5.8263e-05,0,
4,8.99605,0.179137,-0.0974998,0.000139153,0,
4,8.99522,0.211055,-0.0974995,0.000265899,0,
4,8.99429,0.242191,-0.0974995,0.000418209,0,
4,8.99324,0.271481,-0.0974992,0.000568109,0,
4,8.99205,0.298543,-0.0974989,0.00069778,0,
4,8.9907,0.323457,-0.0974985,0.000801975,0,
4,8.98919,0.346395,-0.097498,0.000889786,0,
4,8.98747,0.367546,-0.0974973,0.000962865,0,
4,8.98553,0.387183,-0.0974965,0.00102017,0,
4,8.98334,0.405585,-0.0974955,0.00106661,0,
4,8.98087,0.422967,-0.0974944,0.00110582,0,
4,8.97807,0.439499,-0.097493,0.00113914,0,
4,8.97491,0.455322,-0.0974914,0.00116788,0,
4,8.97134,0.470554,-0.0974894,0.00119302,0,
4,8.96731,0.485295,-0.0974872,0.00121529,0,
4,8.96276,0.499631,-0.0974846,0.00123522,0,
4,8.95762,0.513634,-0.0974816,0.00125318,0,
4,8.95182,0.527366,-0.097478,0.00126944,0,
4,8.94526,0.54088,-0.097474,0.00128415,0,
4,8.93787,0.554223,-0.0974696,0.00129739,0,
4,8.92952,0.567434,-0.0974647,0.00130917,0,
4,8.92011,0.580549,-0.0974593,0.00131945,0,
4,8.90949,0.593595,-0.0974534,0.00132815,0,
4,8.89751,0.6066,-0.0974469,0.00133514,0,
4,8.88402,0.619584,-0.0974398,0.00134027,0,
4,8.86881,0.632566,-0.0974323,0.00134338,0,
4,8.85169,0.645561,-0.0974243,0.00134428,0,
4,8.83242,0.658584,-0.0974161,0.00134279,0,
4,8.81074,0.671648,-0.0974078,0.00133871,0,
4,8.78637,0.684765,-0.0973996,0.00133188,0,
4,8.75901,0.697949,-0.097392,0.00132211,0,
4,8.7283,0.711217,-0.0973854,0.0013092,0,
4,8.69387,0.724589,-0.0973804,0.00129298,0,
4,8.65533,0.738092,-0.0973778,0.00127322,0,
4,8.61222,0.75176,-0.0973784,0.00124964,0,
4,8.56407,0.765638,-0.097384,0.00122191,0,
4,8.5104,0.779785,-0.0973952,0.00118953,0,
4,8.45065,0.794274,-0.0974153,0.00115182,0,
4,8.38429,0.809199,-0.097444,0.00110831,0,
4,8.31073,0.824689,-0.0974885,0.00106234,0,
4,8.22941,0.841022,-0.0975512,0.000999419,0,
4,8.13974,0.858603,-0.0976318,0.000910598,0,
4,8.04115,0.877682,-0.0977387,0.000798425,0,
4,7.93313,0.898123,-0.0978707,0.000663223,0,
4,7.81519,0.9192,-0.0980251,0.000514627,0,
4,7.68693,0.939476,-0.0982199,0.000370327,0,
4,7.54803,0.957053,-0.0984415,0.000212707,0,
4,7.39831,0.969941,-0.0987055,9.31201e-05,0,
4,7.23771,0.977216,-0.099025,2.84923e-05,0,
4,7.06634,0.97986,-0.0993928,4.56672e-06,0,
4,6.88453,0.979968,-0.0998085,-7.16813e-08,0,
4,6.69275,0.979395,-0.100274,-1.19799e-07,0,
4,6.49173,0.979066,-0.100795,1.4131e-08,0,
4,6.28238,0.979127,-0.101381,2.22172e-08,0,
4,6.06579,0.979412,-0.102038,1.29079e-08,0,
4,5.84328,0.979764,-0.102771,8.59337e-09,0,
4,5.61626,0.980122,-0.103584,7.39977e-09,0,
4,5.3863,0.980485,-0.10448,7.38578e-09,0,
4,5.15502,0.98087,-0.105461,7.85696e-09,0,
4,4.92406,0.981289,-0.106529,8.58671e-09,0,
4,4.69507,0.981752,-0.107681,9.4625e-09,0,
4,4.46961,0.982264,-0.108916,1.03398e-08,0,
4,4.24915,0.982808,-0.110228,1.09043e-08,0,
4,4.03501,0.983329,-0.111611,1.08857e-08,0,
4,3.82836,0.98376,-0.113058,1.05127e-08,0,
4,3.63018,0.984098,-0.114556,1.11005e-08,0,
4,3.44125,0.984513,-0.116095,1.53448e-08,0,
4,3.26217,0.985349,-0.117663,5.03747e-08,0,
4,3.09333,0.986908,-0.119245,4.43057e-07,0,
4,2.93497,0.989048,-0.120829,2.14288e-06,0,
4,2.78715,0.990977,-0.122398,4.2241e-06,0,
4,2.64979,0.991552,-0.123939,-1.39075e-08,0,
4,2.52268,0.989835,-0.125433,-2.00024e-05,0,
4,2.40551,0.985451,-0.126865,-6.13359e-05,0,
4,2.29789,0.978594,-0.128218,-0.000123474,0,
4,2.19939,0.969815,-0.129482,-0.000201212,0,
4,2.10949,0.959788,-0.130651,-0.000286803,0,
4,2.02768,0.949154,-0.131724,-0.00037215,0,
4,1.95343,0.93845,-0.132705,-0.000450624,0,
4,1.88618,0.928065,-0.133593,-0.000520061,0,
4,1.82542,0.918179,-0.134403,-0.000567982,0,
4,1.77062,0.908845,-0.135137,-0.000607671,0,
4,1.72128,0.900116,-0.135792,-0.000643458,0,
4,1.67693,0.89203,-0.136381,-0.000675429,0,
4,1.63713,0.884595,-0.136907,-0.0007039,0,
4,1.60144,0.877797,-0.137377,-0.000729225,0,
4,1.56949,0.871611,-0.137797,-0.000751873,0,
4,1.54091,0.865997,-0.138171,-0.000772316,0,
4,1.51537,0.860901,-0.138505,-0.000791062,0,
4,1.49167,0.856121,-0.138812,-0.000808649,0,
4,1.46926,0.851573,-0.139101,-0.000825236,0,
4,1.44801,0.847252,-0.139372,-0.000840998,0,
4,1.42781,0.843143,-0.139631,-0.000856116,0,
4,1.40855,0.839203,-0.139887,-0.000861863,0,
4,1.39015,0.835384,-0.140135,-0.000867174,0,
4,1.37252,0.831666,-0.140371,-0.000872222,0,
4,1.3556,0.828033,-0.140599,-0.000876669,0,
4,1.3393,0.824466,-0.140819,-0.000881096,0,
4,1.32357,0.820949,-0.141031,-0.000886434,0,
4,1.30836,0.817461,-0.141236,-0.0008935,0,
4,1.29362,0.81398,-0.141435,-0.000903315,0,
4,1.2793,0.810479,-0.141628,-0.000917186,0,
4,1.26537,0.806928,-0.141816,-0.000936721,0,
4,1.25179,0.803289,-0.142,-0.000963861,0,
4,1.23852,0.799518,-0.142179,-0.0010009,0,
4,1.22554,0.795565,-0.142354,-0.0010505,0,
4,1.21282,0.791369,-0.142525,-0.0011156,0,
4,1.20034,0.786863,-0.142692,-0.00119935,0,
4,1.18806,0.781977,-0.142856,-0.00130487,0,
4,1.17599,0.776638,-0.143015,-0.00143496,0,
4,1.16408,0.770781,-0.14317,-0.00159176,0,
4,1.15233,0.764352,-0.143321,-0.00177637,0,
4,1.14073,0.757318,-0.143468,-0.00198848,0,
4,1.12925,0.74967,-0.14361,-0.00222633,0,
4,1.11788,0.741425,-0.14375,-0.00248669,0,
4,1.10661,0.73262,-0.143885,-0.00276522,0,
4,1.09543,0.723309,-0.144018,-0.00305685,0,
4,1.08432,0.713556,-0.144148,-0.00335625,0,
4,1.07328,0.70343,-0.144274,-0.0036582,0,
4,1.0623,0.692999,-0.144399,-0.00395793,0,
4,1.05136,0.682325,-0.14452,-0.00425118,0,
4,1.04044,0.671449,-0.14464,-0.00453451,0,
4,1.0295,0.660403,-0.144757,-0.00480521,0,
4,1.01855,0.64923,-0.144873,-0.00506067,0,
4,1.00757,0.637971,-0.144987,-0.00529846,0,
4,0.996544,0.626658,-0.1451,-0.00551653,0,
4,0.98547,0.615323,-0.145209,-0.00571328,0,
4,0.974334,0.603993,-0.145321,-0.00589305,0,
4,0.963124,0.59267,-0.145418,-0.00606678,0,
4,0.951826,0.581251,-0.145484,-0.00619014,0,
4,0.940428,0.569595,-0.14554,-0.00631732,0,
4,0.928915,0.557631,-0.145591,-0.00644922,0,
4,0.917272,0.545314,-0.145641,-0.00658644,0,
4,0.905481,0.53261,-0.14569,-0.00672945,0,
4,0.893524,0.519493,-0.14574,-0.00687855,0,
4,0.881383,0.505937,-0.14579,-0.00703388,0,
4,0.869035,0.491915,-0.145843,-0.00719544,0,
4,0.856459,0.477404,-0.145897,-0.00736303,0,
4,0.843629,0.462378,-0.145954,-0.00753627,0,
4,0.830518,0.446815,-0.146013,-0.00771457,0,
4,0.817097,0.430693,-0.146074,-0.00789708,0,
4,0.803334,0.413995,-0.146138,-0.00808268,0,
4,0.789195,0.396707,-0.146204,-0.00826989,0,
4,0.774643,0.378826,-0.146272,-0.00845684,0,
4,0.759639,0.360358,-0.146343,-0.0086412,0,
4,0.744138,0.341327,-0.146416,-0.00882012,0,
4,0.728096,0.321774,-0.146492,-0.00899024,0,
4,0.711463,0.301757,-0.14657,-0.00914779,0,
4,0.694189,0.281344,-0.14665,-0.00928763,0,
4,0.676218,0.260605,-0.14673,-0.00940455,0,
4,0.657495,0.239599,-0.146811,-0.00949407,0,
4,0.637962,0.218376,-0.146891,-0.00955257,0,
4,0.617561,0.196959,-0.146966,-0.00957743,0,
4,0.596848,0.175939,-0.147028,-0.00956635,0,
4,0.576557,0.155995,-0.147077,-0.0095206,0,
4,0.556564,0.136963,-0.14711,-0.00944255,0,
4,0.536763,0.118705,-0.14713,-0.00933325,0,
4,0.517057,0.101149,-0.147149,-0.00919316,0,
4,0.497368,0.0843143,-0.14719,-0.0090237,0,
4,0.477632,0.0683354,-0.147286,-0.00882953,0,
4,0.457804,0.0534143,-0.147459,-0.00861974,0,
4,0.437857,0.0397068,-0.147718,-0.00840906,0,
4,0.417786,0.0271421,-0.147891,-0.00820442,0,
4,0.397605,0.0152642,-0.147787,-0.0077476,0,
4,0.377348,0.00373059,-0.147574,-0.00738526,0,
4,0.357066,-0.0074646,-0.147396,-0.00702494,0,
4,0.336828,-0.0182955,-0.1472,-0.00665224,0,
4,0.316717,-0.0287315,-0.146996,-0.00627545,0,
4,0.296825,-0.0387303,-0.146781,-0.00589657,0,
4,0.27725,-0.04825,-0.146556,-0.00551669,0,
4,0.258095,-0.0572568,-0.146324,-0.00513789,0,
4,0.239458,-0.0657277,-0.146083,-0.00476275,0,
4,0.221432,-0.0736502,-0.145837,-0.00439397,0,
4,0.2041,-0.0810213,-0.145585,-0.00403416,0,
4,0.187537,-0.0878466,-0.145331,-0.00368566,0,
4,0.171798,-0.0941386,-0.145076,-0.00335054,0,
4,0.156928,-0.0999152,-0.144822,-0.00303048,0,
4,0.142956,-0.105198,-0.144572,-0.00272678,0,
4,0.129894,-0.110013,-0.144329,-0.00244036,0,
4,0.117744,-0.114386,-0.144093,-0.00217176,0,
4,0.106492,-0.118342,-0.143869,-0.00192119,0,
4,0.0961173,-0.12191,-0.143656,-0.00168856,0,
4,0.0865883,-0.125114,-0.143456,-0.00147353,0,
4,0.0778675,-0.127978,-0.143271,-0.00127555,0,
4,0.0699123,-0.130525,-0.1431,-0.00109391,0,
4,0.062677,-0.132774,-0.142944,-0.000927797,0,
4,0.056114,-0.134744,-0.142803,-0.000776311,0,
4,0.0501747,-0.136451,-0.142676,-0.000638514,0,
4,0.0448114,-0.137907,-0.142563,-0.000513455,0,
4,0.039977,-0.139124,-0.142463,-0.000400192,0,
4,0.0356266,-0.140108,-0.142374,-0.000297816,0,
4,0.0317171,-0.140864,-0.142297,-0.000205463,0,
4,0.0282081,-0.141393,-0.142229,-0.000122335,0,
4,0.0250617,-0.14169,-0.142171,-4.77107e-05,0,
4,0.0222427,-0.141745,-0.142121,1.90327e-05,0,
4,0.0197189,-0.14154,-0.142078,7.83958e-05,0,
4,0.0174603,-0.141049,-0.142042,0.000130717,0,
4,0.0154398,-0.14023,-0.142012,0.000176109,0,
4,0.0136326,-0.139021,-0.141987,0.000214351,0,
4,0.0120162,-0.137334,-0.141967,0.000244712,0,
4,0.0105703,-0.135037,-0.14195,0.000265689,0,
4,0.00927657,-0.131947,-0.141938,0.000274698,0,
4,0.00811839,-0.127811,-0.141928,0.000268045,0,
4,0.0070809,-0.122321,-0.141922,0.000242094,0,
4,0.0061507,-0.115189,-0.141917,0.00019675,0,
4,0.00531578,-0.106318,-0.141915,0.000139711,0,
4,0.00456537,-0.0959779,-0.141913,8.51115e-05,0,
4,0.00388979,-0.0847769,-0.141913,4.44723e-05,0,
4,0.00328037,-0.0733794,-0.141911,2.01635e-05,0,
4,0.00272934,-0.0622625,-0.141912,8.00331e-06,0,
4,0.0022297,-0.0516714,-0.141911,2.76337e-06,0,
4,0.00177519,-0.0416907,-0.141912,8.05384e-07,0,
4,0.00136016,-0.0323203,-0.14191,1.85622e-07,0,
4,0.000979511,-0.0235222,-0.141912,2.97634e-08,0,
4,0.00062865,-0.0152427,-0.141909,2.54273e-09,0,
4,0.000303409,-0.00742292,-0.141912,6.2035e-11,0,

6,0,0,-0.0167121,0,0,
6,9,0,-0.07365,0,0,
6,8.99969,0.0135517,-0.0736497,1.88154e-10,0,
6,8.99934,0.0288336,-0.0736499,8.68355e-09,0,
6,8.99895,0.0460838,-0.0736496,1.17726e-07,0,
6,8.9985,0.0655539,-0.0736498,8.48383e-07,0,
6,8.99801,0.0875026,-0.0736496,4.18768e-06,0,
6,8.99744,0.112129,-0.0736497,1.58374e-05,0,
6,8.99681,0.139404,-0.0736495,4.78468e-05,0,
6,8.99609,0.168797,-0.0736496,0.000116236,0,
6,8.99529,0.199149,-0.0736494,0.000227612,0,
6,8.99438,0.229028,-0.0736494,0.000367282,0,
6,8.99336,0.257335,-0.0736491,0.000509634,0,
6,8.9922,0.283575,-0.0736489,0.000637344,0,
6,8.9909,0.307751,-0.0736485,0.000740705,0,
6,8.98944,0.330024,-0.0736482,0.000827636,0,
6,8.98779,0.350564,-0.0736476,0.000900746,0,
6,8.98593,0.369624,-0.073647,0.000958516,0,
6,8.98383,0.387461,-0.0736461,0.00100602,0,
6,8.98147,0.404281,-0.0736452,0.00104625,0,
6,8.97881,0.42025,-0.073644,0.00108072,0,
6,8.97581,0.435508,-0.0736426,0.00111075,0,
6,8.97244,0.450173,-0.0736409,0.00113736,0,
6,8.96863,0.464346,-0.0736389,0.00116131,0,
6,8.96435,0.478111,-0.0736366,0.00118316,0,
6,8.95953,0.491544,-0.0736339,0.00120331,0,
6,8.95409,0.504709,-0.0736306,0.00122206,0,
6,8.94798,0.517661,-0.0736268,0.00123958,0,
6,8.94109,0.530451,-0.0736224,0.00125598,0,
6,8.93334,0.54312,-0.0736176,0.00127127,0,
6,8.92463,0.555708,-0.0736121,0.00128543,0,
6,8.91482,0.568246,-0.0736058,0.00129834,0,
6,8.90379,0.580766,-0.0735987,0.00130988,0,
6,8.89139,0.593291,-0.0735906,0.00131984,0,
6,8.87746,0.605844,-0.0735816,0.00132801,0,
6,8.86181,0.618442,-0.0735715,0.00133413,0,
6,8.84423,0.6311,-0.0735603,0.00133793,0,
6,8.82452,0.64383,-0.073548,0.00133914,0,
6,8.80241,0.656644,-0.0735345,0.00133748,0,
6,8.77763,0.669551,-0.0735198,0.00133269,0,
6,8.74989,0.68256,-0.0735039,0.00132453,0,
6,8.71885,0.695681,-0.0734868,0.00131275,0,
6,8.68417,0.708929,-0.0734686,0.00129714,0,
6,8.64545,0.722322,-0.0734495,0.00127749,0,
6,8.60229,0.735884,-0.0734293,0.00125353,0,
6,8.55423,0.749651,-0.0734087,0.00122497,0,
6,8.50082,0.763667,-0.0733871,0.00119134,0,
6,8.44155,0.777989,-0.073366,0.00115198,0,
6,8.37592,0.792688,-0.0733433,0.00110651,0,
6,8.30339,0.807862,-0.0733232,0.00105874,0,
6,8.22344,0.823755,-0.0733065,0.000996897,0,
6,8.13555,0.84078,-0.0732924,0.000914346,0,
6,8.0392,0.859291,-0.0732769,0.000811583,0,
6,7.93391,0.879308,-0.073259,0.00068827,0,
6,7.81927,0.900235,-0.0732248,0.000550804,0,
6,7.6949,0.920689,-0.073187,0.000414947,0,
6,7.56054,0.938849,-0.0731199,0.000285327,0,
6,7.41603,0.95304,-0.0730395,0.000147249,0,
6,7.26132,0.962201,-0.0729554,5.83523e-05,0,
6,7.09653,0.966571,-0.0728463,1.47766e-05,0,
6,6.92195,0.967642,-0.0727171,7.1543e-07,0,
6,6.73802,0.967194,-0.0725594,-1.10028e-06,0,
6,6.5454,0.966473,-0.07237,-5.09683e-07,0,
6,6.34489,0.965979,-0.0721451,-1.43944e-07,0,
6,6.1375,0.965726,-0.0718811,-3.9641e-08,0,
6,5.92439,0.965575,-0.0715735,-1.52151e-08,0,
6,5.70687,0.965417,-0.0712175,-8.62497e-09,0,
6,5.48633,0.96521,-0.0708079,-6.64023e-09,0,
6,5.26426,0.964951,-0.0703394,-6.29353e-09,0,
6,5.04218,0.964649,-0.0698069,-6.60016e-09,0,
6,4.82159,0.964318,-0.0692058,-7.14975e-09,0,
6,4.60398,0.963968,-0.0685323,-7.82018e-09,0,
6,4.39071,0.963598,-0.0677836,-8.75208e-09,0,
6,4.18307,0.963182,-0.0669582,-1.02528e-08,0,
6,3.98218,0.962658,-0.0660564,-1.25737e-08,0,
6,3.78902,0.96197,-0.0650807,-1.54196e-08,0,
6,3.60438,0.961136,-0.0640355,-1.94178e-08,0,
6,3.42888,0.960316,-0.0629271,-3.86619e-08,0,
6,3.26296,0.959793,-0.0617632,-1.01882e-07,0,
6,3.10691,0.959811,-0.0605518,-1.45033e-07,0,
6,2.96084,0.960374,-0.0593012,-5.93531e-09,0,
6,2.82473,0.961134,-0.0580218,-2.63991e-07,0,
6,2.69844,0.961499,-0.0567265,-3.45904e-06,0,
6,2.58172,0.960861,-0.0554302,-1.36833e-05,0,
6,2.47424,0.958808,-0.0541487,-3.4564e-05,0,
6,2.37559,0.95521,-0.0528969,-6.75703e-05,0,
6,2.28535,0.95018,-0.0516879,-0.000111815,0,
6,2.20301,0.943991,-0.0505316,-0.000164778,0,
6,2.1281,0.936987,-0.0494366,-0.000223142,0,
6,2.06009,0.929516,-0.0484062,-0.000283111,0,
6,1.99849,0.921907,-0.0474463,-0.000340521,0,
6,1.9428,0.914446,-0.046552,-0.000392727,0,
6,1.89255,0.907308,-0.0457309,-0.000436915,0,
6,1.84728,0.900537,-0.0449808,-0.000466608,0,
6,1.80655,0.894141,-0.0442898,-0.000493973,0,
6,1.76996,0.888159,-0.0436604,-0.000519196,0,
6,1.73712,0.882617,-0.0430871,-0.000542397,0,
6,1.70768,0.877484,-0.0425657,-0.000563821,0,
6,1.67998,0.872532,-0.0420717,-0.000584547,0,
6,1.65329,0.867662,-0.0415902,-0.000604794,0,
6,1.62754,0.862872,-0.041121,-0.000624506,0,
6,1.60265,0.85816,-0.0406631,-0.00064377,0,
6,1.57854,0.853525,-0.0402156,-0.000662555,0,
6,1.55515,0.848964,-0.0397779,-0.000680864,0,
6,1.53242,0.844475,-0.0393492,-0.000698736,0,
6,1.5103,0.840054,-0.0389288,-0.000716206,0,
6,1.48874,0.835696,-0.0385162,-0.000733297,0,
6,1.46769,0.831391,-0.038111,-0.000750037,0,
6,1.44712,0.827126,-0.0377127,-0.000766506,0,
6,1.42698,0.822886,-0.0373207,-0.000782897,0,
6,1.40725,0.818665,-0.0369336,-0.000799582,0,
6,1.38788,0.814467,-0.0365501,-0.000817078,0,
6,1.36886,0.810322,-0.0361682,-0.00083594,0,
6,1.35015,0.806273,-0.0357869,-0.000856386,0,
6,1.33173,0.802353,-0.0354079,-0.000878162,0,
6,1.31357,0.798549,-0.0350331,-0.000900196,0,
6,1.29566,0.794784,-0.0346724,-0.00091204,0,
6,1.27797,0.79097,-0.0343198,-0.000928357,0,
6,1.26048,0.787068,-0.0339661,-0.000950703,0,
6,1.24318,0.783045,-0.0336164,-0.00097886,0,
6,1.22605,0.778862,-0.0332684,-0.00101484,0,
6,1.20907,0.774471,-0.032923,-0.00106082,0,
6,1.19223,0.769819,-0.0325796,-0.00111928,0,
6,1.17551,0.764843,-0.0322386,-0.00119273,0,
6,1.1589,0.759481,-0.0318997,-0.00128358,0,
6,1.14238,0.753668,-0.0315629,-0.00139386,0,
6,1.12595,0.747349,-0.0312282,-0.00152486,0,
6,1.10959,0.740482,-0.0308967,-0.00167689,0,
6,1.09329,0.733045,-0.0305682,-0.00184904,0,
6,1.07704,0.725037,-0.0302431,-0.00203915,0,
6,1.06081,0.716475,-0.0299211,-0.00224392,0,
6,1.04459,0.707395,-0.0296031,-0.00245927,0,
6,1.02836,0.697849,-0.0292881,-0.00268054,0,
6,1.01211,0.687902,-0.0289788,-0.00290482,0,
6,0.99583,0.677605,-0.0286703,-0.00313221,0,
6,0.97951,0.66695,-0.0283594,-0.00334904,0,
6,0.963136,0.655886,-0.0280514,-0.0035696,0,
6,0.946694,0.644375,-0.0277465,-0.00379548,0,
6,0.930172,0.63238,-0.0274459,-0.00402805,0,
6,0.913555,0.619859,-0.02715,-0.00426855,0,
6,0.896829,0.606769,-0.0268594,-0.00451802,0,
6,0.879979,0.593071,-0.0265747,-0.00477724,0,
6,0.862989,0.578739,-0.0262965,-0.00504678,0,
6,0.845842,0.563777,-0.0260258,-0.0053272,0,
6,0.828521,0.548217,-0.0257637,-0.00561932,0,
6,0.811008,0.532102,-0.0255113,-0.00591676,0,
6,0.793282,0.515465,-0.0252698,-0.00621592,0,
6,0.775322,0.498334,-0.0250398,-0.00651402,0,
6,0.757107,0.480736,-0.0248221,-0.00680794,0,
6,0.738612,0.462706,-0.0246176,-0.00709422,0,
6,0.719813,0.444288,-0.0244272,-0.00736897,0,
6,0.700681,0.42554,-0.0242524,-0.00762802,0,
6,0.681188,0.40654,-0.0240946,-0.00786692,0,
6,0.661304,0.387373,-0.0239541,-0.00808102,0,
6,0.640996,0.368124,-0.0238285,-0.00826537,0,
6,0.620228,0.348854,-0.0237119,-0.00841488,0,
6,0.598964,0.329597,-0.0235965,-0.0085248,0,
6,0.577166,0.310363,-0.0234777,-0.00859093,0,
6,0.554791,0.291184,-0.0233628,-0.00860968,0,
6,0.531799,0.272182,-0.0232818,-0.00857967,0,
6,0.508144,0.253621,-0.0232898,-0.00850439,0,
6,0.48378,0.235882,-0.0234434,-0.00839436,0,
6,0.459585,0.219855,-0.0237602,-0.0082697,0,
6,0.436695,0.206034,-0.0238123,-0.00806052,0,
6,0.414961,0.193703,-0.0236052,-0.00766151,0,
6,0.394252,0.182371,-0.0234247,-0.00735329,0,
6,0.374445,0.171891,-0.0232485,-0.00704758,0,
6,0.355433,0.162154,-0.0230659,-0.00674264,0,
6,0.337122,0.153068,-0.0228823,-0.00643856,0,
6,0.319433,0.144558,-0.0226943,-0.00613567,0,
6,0.3023,0.136559,-0.0225014,-0.00583448,0,
6,0.28567,0.129019,-0.0223026,-0.00553538,0,
6,0.269507,0.121894,-0.022097,-0.00523887,0,
6,0.253785,0.11515,-0.0218842,-0.00494548,0,
6,0.238493,0.108758,-0.021664,-0.00465589,0,
6,0.223631,0.102698,-0.0214363,-0.00437088,0,
6,0.209207,0.0969525,-0.0212015,-0.00409134,0,
6,0.195237,0.0915071,-0.0209605,-0.00381821,0,
6,0.181744,0.0863509,-0.0207142,-0.00355251,0,
6,0.168754,0.0814742,-0.0204642,-0.00329525,0,
6,0.156292,0.0768681,-0.0202122,-0.0030474,0,
6,0.144384,0.0725242,-0.0199602,-0.00280983,0,
6,0.133052,0.0684335,-0.0197102,-0.00258333,0,
6,0.122315,0.0645871,-0.0194644,-0.00236849,0,
6,0.112183,0.0609751,-0.0192249,-0.00216578,0,
6,0.102665,0.0575874,-0.0189936,-0.00197547,0,
6,0.0937597,0.0544132,-0.0187722,-0.00179765,0,
6,0.0854609,0.0514412,-0.0185622,-0.00163226,0,
6,0.077757,0.04866,-0.0183647,-0.00147908,0,
6,0.0706309,0.0460578,-0.0181805,-0.00133777,0,
6,0.0640611,0.0436229,-0.0180099,-0.00120787,0,
6,0.0580229,0.0413436,-0.0178532,-0.00108884,0,
6,0.0524888,0.0392083,-0.0177103,-0.000980092,0,
6,0.0474296,0.0372058,-0.0175807,-0.000880989,0,
6,0.042815,0.035325,-0.0174639,-0.000790873,0,
6,0.0386145,0.033555,-0.0173593,-0.000709081,0,
6,0.0347975,0.0318855,-0.0172662,-0.000634959,0,
6,0.0313344,0.0303063,-0.0171836,-0.000567865,0,
6,0.0281964,0.0288073,-0.0171108,-0.000507183,0,
6,0.0253561,0.0273787,-0.0170469,-0.000452323,0,
6,0.0227875,0.0260108,-0.0169911,-0.000402725,0,
6,0.0204662,0.0246935,-0.0169426,-0.000357856,0,
6,0.0183694,0.0234168,-0.0169008,-0.000317213,0,
6,0.016476,0.0221699,-0.0168647,-0.000280313,0,
6,0.0147664,0.0209412,-0.0168342,-0.000246692,0,
6,0.0132228,0.0197181,-0.016808,-0.000215893,0,
6,0.0118288,0.0184861,-0.0167867,-0.000187456,0,
6,0.0105693,0.0172288,-0.0167684,-0.000160907,0,
6,0.00943073,0.0159277,-0.0167544,-0.000135759,0,
6,0.00840063,0.0145626,-0.0167423,-0.000111552,0,
6,0.00746774,0.013115,-0.0167343,-8.79911e-05,0,
6,0.00662185,0.0115758,-0.0167271,-6.52474e-05,0,
6,0.00585371,0.00995849,-0.0167236,-4.43216e-05,0,
6,0.00515491,0.00831369,-0.0167198,-2.69248e-05,0,
6,0.00451788,0.00672542,-0.0167192,-1.44419e-05,0,
6,0.00393573,0.0052809,-0.0167169,-6.853e-06,0,
6,0.00340221,0.00403578,-0.0167176,-2.90574e-06,0,
6,0.00291168,0.00300477,-0.0167156,-1.10823e-06,0,
6,0.00245897,0.00217452,-0.0167169,-3.78188e-07,0,
6,0.00203939,0.0015198,-0.0167148,-1.1294e-07,0,
6,0.00164864,0.00101363,-0.0167166,-2.82186e-08,0,
6,0.00128281,0.00063174,-0.016714,-5.4396e-09,0,
6,0.000938257,0.000353904,-0.0167164,-6.95695e-10,0,
6,0.000611645,0.000163941,-0.0167131,-4.32201e-11,0,
6,0.000299862,4.92727e-05,-0.0167163,-6.17831e-13,0,

10,0.000296632,0.00828865,0.0276233,-4.61421e-11,0,
10,0.000596102,0.0166539,0.027624,-1.71009e-09,0,
10,0.000900397,0.0251512,0.0276232,-1.7387e-08,0,
10,0.00121153,0.0338362,0.0276238,-9.34342e-08,0,
10,0.00153158,0.042765,0.0276232,-3.49501e-07,0,
10,0.00186264,0.0519925,0.0276236,-1.03917e-06,0,
10,0.00220692,0.0615703,0.0276231,-2.63794e-06,0,
10,0.00256668,0.071542,0.0276235,-5.95737e-06,0,
10,0.00294431,0.0819363,0.027623,-1.22621e-05,0,
10,0.00334229,0.0927552,0.0276233,-2.3322e-05,0,
10,0.00376326,0.103961,0.0276229,-4.1276e-05,0,
10,0.00421,0.115462,0.0276231,-6.81783e-05,0,
10,0.00468544,0.127112,0.0276226,-0.00010524,0,
10,0.00519274,0.138716,0.0276226,-0.000152085,0,
10,0.00573524,0.150064,0.0276221,-0.000206537,0,
10,0.00631651,0.16096,0.0276218,-0.00026518,0,
10,0.00694041,0.171254,0.027621,-0.000324371,0,
10,0.00761104,0.18085,0.0276203,-0.000381114,0,
10,0.00833284,0.189707,0.027619,-0.000433451,0,
10,0.00911058,0.197827,0.0276177,-0.000480428,0,
10,0.0099494,0.205243,0.0276158,-0.000521864,0,
10,0.0108548,0.212005,0.0276136,-0.000558078,0,
10,0.0118329,0.218173,0.0276106,-0.000589673,0,
10,0.0128901,0.223811,0.0276072,-0.000617377,0,
10,0.0140333,0.228982,0.027603,-0.00064194,0,
10,0.0152702,0.233743,0.027598,-0.000664078,0,
10,0.0166089,0.238148,0.0275921,-0.000684445,0,
10,0.0180584,0.242244,0.0275852,-0.000703621,0,
10,0.0196282,0.246075,0.0275771,-0.000722115,0,
10,0.0213288,0.249677,0.0275679,-0.000740377,0,
10,0.0231714,0.253083,0.0275572,-0.000758804,0,
10,0.0251682,0.256322,0.027545,-0.00077775,0,
10,0.0273326,0.25942,0.027531,-0.000797542,0,
10,0.0296789,0.262398,0.0275152,-0.000818483,0,
10,0.0322227,0.265278,0.0274974,-0.000840863,0,
10,0.0349809,0.268077,0.0274773,-0.000864966,0,
10,0.0379719,0.270811,0.0274548,-0.000891074,0,
10,0.0412155,0.273498,0.0274296,-0.000919474,0,
10,0.0447333,0.27615,0.0274016,-0.00095046,0,
10,0.0485489,0.278781,0.0273703,-0.000984339,0,
10,0.0526875,0.281406,0.0273357,-0.00102144,0,
10,0.0571768,0.284036,0.0272974,-0.00106209,0,
10,0.0620466,0.286686,0.0272552,-0.00110667,0,
10,0.0673295,0.289367,0.0272087,-0.00115556,0,
10,0.0730607,0.292095,0.0271577,-0.00120917,0,
10,0.0792784,0.294883,0.027102,-0.00126796,0,
10,0.0860241,0.297746,0.0270412,-0.0013324,0,
10,0.0933428,0.3007,0.0269752,-0.001403,0,
10,0.101283,0.303763,0.0269036,-0.0014803,0,
10,0.109899,0.306954,0.0268264,-0.00156488,0,
10,0.119247,0.310294,0.0267433,-0.00165735,0,
10,0.12939,0.313807,0.0266542,-0.00175836,0,
10,0.140395,0.317519,0.0265592,-0.00186857,0,
10,0.152337,0.32146,0.0264581,-0.00198867,0,
10,0.165296,0.325664,0.0263512,-0.00211934,0,
10,0.179357,0.33017,0.0262384,-0.00226128,0,
10,0.194615,0.335022,0.0261201,-0.00241514,0,
10,0.211171,0.340272,0.0259966,-0.00258149,0,
10,0.229138,0.345978,0.0258679,-0.00276082,0,
10,0.248635,0.352209,0.0257349,-0.00295343,0,
10,0.269793,0.359044,0.0255968,-0.00315937,0,
10,0.292753,0.366574,0.0254559,-0.00337832,0,
10,0.317669,0.374906,0.0253085,-0.00360821,0,
10,0.344708,0.384155,0.0251598,-0.00384592,0,
10,0.372405,0.393882,0.0250153,-0.00408051,0,
10,0.399623,0.403707,0.0248771,-0.00430077,0,
10,0.426397,0.413634,0.0247461,-0.00450442,0,
10,0.452757,0.423669,0.0246221,-0.00469099,0,
10,0.478735,0.43383,0.0245064,-0.00485884,0,
10,0.504358,0.444142,0.0244016,-0.00500627,0,
10,0.529657,0.45463,0.0243024,-0.00513205,0,
10,0.554656,0.465319,0.0242155,-0.00523675,0,
10,0.579382,0.476223,0.024115,-0.00534944,0,
10,0.603859,0.487478,0.0240734,-0.00542097,0,
10,0.628112,0.499417,0.0241104,-0.0053791,0,
10,0.652163,0.512273,0.0241187,-0.0053153,0,
10,0.676035,0.525943,0.0240848,-0.00522686,0,
10,0.699751,0.540162,0.0240095,-0.00511099,0,
10,0.72333,0.554668,0.023908,-0.00496756,0,
10,0.746795,0.569278,0.0237907,-0.00479853,0,
10,0.770165,0.58389,0.0236644,-0.00460697,0,
10,0.79346,0.598444,0.0235304,-0.00439627,0,
10,0.816699,0.612884,0.0233885,-0.00417003,0,
10,0.839903,0.627136,0.0232365,-0.00393209,0,
10,0.863088,0.641099,0.0230737,-0.00368683,0,
10,0.886275,0.654643,0.0228981,-0.00344452,0,
10,0.909481,0.667638,0.0227103,-0.0032093,0,
10,0.932723,0.680011,0.0225141,-0.00298137,0,
10,0.956021,0.691753,0.0223114,-0.00276135,0,
10,0.97939,0.702889,0.022103,-0.00255008,0,
10,1.00285,0.713453,0.0218888,-0.00234838,0,
10,1.02641,0.723474,0.0216682,-0.00215688,0,
10,1.0501,0.732975,0.0214414,-0.00197612,0,
10,1.07392,0.741977,0.0212074,-0.00180646,0,
10,1.0979,0.75051,0.020969,-0.00164569,0,
10,1.12205,0.758594,0.0207242,-0.00149591,0,
10,1.14639,0.766223,0.0204704,-0.00136121,0,
10,1.17093,0.773392,0.0202086,-0.00124154,0,
10,1.19568,0.780118,0.0199395,-0.00113918,0,
10,1.22066,0.786452,0.0196626,-0.00105501,0,
10,1.24589,0.79252,0.01938,-0.000975022,0,
10,1.27137,0.798453,0.0190935,-0.000904258,0,
10,1.29713,0.804297,0.0188005,-0.000842101,0,
10,1.32317,0.810031,0.0185008,-0.000787986,0,
10,1.34951,0.815621,0.0181934,-0.000741001,0,
10,1.37616,0.821058,0.0178787,-0.000699866,0,
10,1.40313,0.826365,0.017557,-0.000663239,0,
10,1.43043,0.831582,0.0172287,-0.000629999,0,
10,1.45807,0.836739,0.0168936,-0.000599358,0,
10,1.48607,0.841851,0.0165517,-0.000570778,0,
10,1.51444,0.846913,0.0162026,-0.000543853,0,
10,1.54318,0.851916,0.0158462,-0.000518241,0,
10,1.57231,0.856848,0.0154825,-0.000493658,0,
10,1.60184,0.861705,0.0151114,-0.000469881,0,
10,1.63178,0.866481,0.0147328,-0.000446765,0,
10,1.66213,0.87117,0.0143468,-0.000424234,0,
10,1.69292,0.87576,0.0139533,-0.000402288,0,
10,1.72416,0.880233,0.0135521,-0.000380983,0,
10,1.75585,0.884566,0.0131438,-0.000360438,0,
10,1.78802,0.888736,0.0127274,-0.000340721,0,
10,1.82067,0.892731,0.012305,-0.000321767,0,
10,1.85383,0.896576,0.0118733,-0.000300165,0,
10,1.88751,0.900329,0.0114325,-0.000276227,0,
10,1.92173,0.904006,0.0109857,-0.000252936,0,
10,1.95652,0.90758,0.0105296,-0.000228801,0,
10,1.9919,0.911016,0.0100663,-0.000204152,0,
10,2.02791,0.914281,0.0095935,-0.000179656,0,
10,2.06456,0.917348,0.0091137,-0.000155748,0,
10,2.10268,0.920248,0.00861274,-0.000132232,0,
10,2.1443,0.923063,0.00806864,-0.000109604,0,
10,2.18977,0.925741,0.00747461,-8.80348e-05,0,
10,2.23946,0.9282,0.00682899,-6.77683e-05,0,
10,2.29376,0.93036,0.00612658,-4.95092e-05,0,
10,2.35309,0.932144,0.00536522,-3.38091e-05,0,
10,2.4179,0.933491,0.00454103,-2.11015e-05,0,
10,2.48863,0.934361,0.00365237,-1.16441e-05,0,
10,2.56575,0.934756,0.00269704,-5.40765e-06,0,
10,2.64971,0.934734,0.00167464,-1.99244e-06,0,
10,2.74098,0.934415,0.000584904,-6.47516e-07,0,
10,2.83997,0.933976,-0.000571027,-4.46481e-07,0,
10,2.94709,0.933614,-0.00179164,-5.82478e-07,0,
10,3.06269,0.933507,-0.00307427,-6.10882e-07,0,
10,3.18706,0.933755,-0.00441554,-4.66049e-07,0,
10,3.3204,0.934357,-0.00581058,-2.69438e-07,0,
10,3.46281,0.935218,-0.007253,-1.25647e-07,0,
10,3.61427,0.936195,-0.00873439,-5.46412e-08,0,
10,3.77463,0.937157,-0.0102445,-2.88492e-08,0,
10,3.94358,0.938028,-0.0117714,-2.09998e-08,0,
10,4.12067,0.938795,-0.0133023,-1.83079e-08,0,
10,4.30525,0.939491,-0.0148239,-1.7112e-08,0,
10,4.49655,0.94016,-0.016323,-1.6703e-08,0,
10,4.6936,0.940826,-0.0177867,-1.7088e-08,0,
10,4.89531,0.941494,-0.0192034,-1.87752e-08,0,
10,5.10047,0.942148,-0.0205624,-2.32376e-08,0,
10,5.30776,0.942769,-0.0218546,-3.37595e-08,0,
10,5.51581,0.94334,-0.0230727,-5.70171e-08,0,
10,5.72323,0.943857,-0.0242113,-1.07524e-07,0,
10,5.92863,0.944345,-0.025267,-2.21147e-07,0,
10,6.13069,0.944868,-0.0262381,-4.93675e-07,0,
10,6.32816,0.945524,-0.027125,-1.1284e-06,0,
10,6.51991,0.946346,-0.0279295,-2.21316e-06,0,
10,6.70495,0.947106,-0.0286551,-2.37627e-06,0,
10,6.88244,0.947087,-0.029305,3.98178e-06,0,
10,7.0517,0.945049,-0.0298832,2.81152e-05,0,
10,7.21224,0.939586,-0.0303898,8.34253e-05,0,
10,7.3637,0.929799,-0.0308303,0.000178811,0,
10,7.5059,0.915753,-0.0312076,0.000304768,0,
10,7.63878,0.898098,-0.0315247,0.000416056,0,
10,7.76243,0.877994,-0.0317939,0.000538237,0,
10,7.87701,0.857224,-0.0320088,0.00066181,0,
10,7.9828,0.837231,-0.032186,0.000772298,0,
10,8.08014,0.818687,-0.0323275,0.000865355,0,
10,8.16941,0.801623,-0.0324442,0.000942416,0,
10,8.25106,0.78574,-0.0325405,0.00100724,0,
10,8.32554,0.770683,-0.0326225,0.00106314,0,
10,8.39331,0.756172,-0.0326922,0.00111212,0,
10,8.45484,0.74203,-0.0327522,0.00115509,0,
10,8.5106,0.728169,-0.0328032,0.00119246,0,
10,8.56104,0.714552,-0.0328468,0.00122447,0,
10,8.60659,0.701175,-0.0328841,0.00125132,0,
10,8.64767,0.688047,-0.0329162,0.00127327,0,
10,8.68467,0.675172,-0.0329442,0.00129061,0,
10,8.71795,0.662528,-0.032969,0.00130042,0,
10,8.74786,0.650083,-0.0329903,0.00130546,0,
10,8.77471,0.637823,-0.0330088,0.00130664,0,
10,8.79881,0.625742,-0.0330246,0.00130405,0,
10,8.8204,0.613833,-0.0330382,0.00129822,0,
10,8.83975,0.602083,-0.0330499,0.00128969,0,
10,8.85708,0.590477,-0.0330598,0.00127895,0,
10,8.87259,0.578997,-0.0330683,0.00126647,0,
10,8.88646,0.567621,-0.0330755,0.00125261,0,
10,8.89886,0.556323,-0.0330816,0.00123774,0,
10,8.90995,0.545076,-0.0330867,0.0012221,0,
10,8.91986,0.53385,-0.033091,0.00120591,0,
10,8.92872,0.522612,-0.0330947,0.00118931,0,
10,8.93663,0.511325,-0.0330978,0.00117238,0,
10,8.94369,0.499952,-0.0331004,0.00115514,0,
10,8.95,0.488451,-0.0331026,0.00113753,0,
10,8.95564,0.476776,-0.0331044,0.00111949,0,
10,8.96067,0.464879,-0.0331058,0.00110082,0,
10,8.96517,0.452705,-0.0331071,0.00108128,0,
10,8.96918,0.440194,-0.033108,0.00106053,0,
10,8.97276,0.427275,-0.033109,0.00103813,0,
10,8.97596,0.413869,-0.0331095,0.00101352,0,
10,8.97882,0.399884,-0.0331102,0.000985982,0,
10,8.98137,0.385212,-0.0331105,0.000954568,0,
10,8.98365,0.369727,-0.0331111,0.000918067,0,
10,8.98569,0.353278,-0.0331111,0.000875129,0,
10,8.9875,0.335682,-0.0331116,0.000823238,0,
10,8.98913,0.316702,-0.0331115,0.000757788,0,
10,8.99058,0.296109,-0.033112,0.000680395,0,
10,8.99188,0.273746,-0.0331118,0.000588906,0,
10,8.99304,0.249449,-0.0331123,0.000475992,0,
10,8.99408,0.223173,-0.0331119,0.000349477,0,
10,8.99501,0.195282,-0.0331124,0.000222957,0,
10,8.99583,0.166676,-0.0331119,0.000118365,0,
10,8.99658,0.138625,-0.0331125,5.08977e-05,0,
10,8.99724,0.112251,-0.0331119,1.75813e-05,0,
10,8.99784,0.0881505,-0.0331126,4.83219e-06,0,
10,8.99837,0.0664371,-0.0331119,1.01362e-06,0,
10,8.99885,0.0469772,-0.0331127,1.45219e-07,0,
10,8.99927,0.0295595,-0.0331119,1.10256e-08,0,
10,8.99966,0.0139687,-0.0331129,2.43951e-10,0,
10,0,0,0.0276241,0,0,
10,9,0,-0.0331118,0,0,

0.004,0,0,-0.227914,0,-7.05208e-08,
0.00868226,0,0,-0.227911,0,-2.03337e-07,
0.014062,0,0,-0.227913,0,-3.6492e-07,
0.0201548,0,0,-0.227912,0,-8.0143e-07,
0.0269766,0,0,-0.227913,0,-1.27046e-06,
0.0345437,0,0,-0.227912,0,-1.76998e-06,
0.0428729,0,0,-0.22791,0,-2.09369e-06,
0.051981,0,0,-0.227908,0,-2.1113e-06,
0.0618853,0,0,-0.227905,0,-1.61642e-06,
0.0726036,0,0,-0.227902,0,-4.35845e-07,
0.0841536,0,0,-0.227899,0,1.58145e-06,
0.0965535,0,0,-0.227897,0,4.51428e-06,
0.109822,0,0,-0.227896,0,8.33197e-06,
0.123977,0,0,-0.227899,0,1.2897e-05,
0.139037,0,0,-0.227905,0,1.79541e-05,
0.155022,0,0,-0.227916,0,2.31894e-05,
0.171949,0,0,-0.227932,0,2.8254e-05,
0.189839,0,0,-0.227953,0,3.28359e-05,
0.208709,0,0,-0.227977,0,3.66766e-05,
0.228579,0,0,-0.228005,0,3.96124e-05,
0.249467,0,0,-0.228035,0,4.15663e-05,
0.271391,0,0,-0.228065,0,4.25575e-05,
0.29437,0,0,-0.228095,0,4.268e-05,
0.31842,0,0,-0.228124,0,4.20983e-05,
0.343559,0,0,-0.228152,0,4.10278e-05,
0.369804,0,0,-0.228178,0,3.97349e-05,
0.39717,0,0,-0.228202,0,3.85268e-05,
0.425672,0,0,-0.228225,0,3.7717e-05,
0.455324,0,0,-0.22825,0,3.7586e-05,
0.48614,0,0,-0.228277,0,3.83407e-05,
0.518132,0,0,-0.228311,0,4.00811e-05,
0.551309,0,0,-0.228353,0,4.27914e-05,
0.585683,0,0,-0.228408,0,4.63562e-05,
0.621259,0,0,-0.228479,0,5.06016e-05,
0.658046,0,0,-0.22857,0,5.53294e-05,
0.696047,0,0,-0.228684,0,6.03351e-05,
0.735265,0,0,-0.228829,0,6.53479e-05,
0.7757,0,0,-0.229014,0,6.9907e-05,
0.817352,0,0,-0.22925,0,7.329e-05,
0.860215,0,0,-0.229552,0,7.44229e-05,
0.904285,0,0,-0.229939,0,7.18127e-05,
0.949552,0,0,-0.230431,0,6.36695e-05,
0.996004,0,0,-0.231043,0,4.8183e-05,
1.04363,0,0,-0.231786,0,2.38988e-05,
1.09241,0,0,-0.232659,0,-9.8726e-06,
1.14232,0,0,-0.233647,0,-5.28057e-05,
1.19335,0,0,-0.23473,0,-0.00010363,
1.24546,0,0,-0.235877,0,-0.00016051,
1.29863,0,0,-0.237061,0,-0.000221543,
1.35283,0,0,-0.238254,0,-0.000285159,
1.40802,0,0,-0.23943,0,-0.000350288,
1.46416,0,0,-0.240566,0,-0.000416316,
1.52121,0,0,-0.241644,0,-0.000482928,
1.57913,0,0,-0.242643,0,-0.000549955,
1.63787,0,0,-0.243544,0,-0.000617262,
1.69739,0,0,-0.24433,0,-0.000684692,
1.75761,0,0,-0.24498,0,-0.00075205,
1.81851,0,0,-0.245478,0,-0.000819095,
1.88,0,0,-0.245804,0,-0.000885553,
1.94204,0,0,-0.245943,0,-0.000951116,
2.00457,0,0,-0.245877,0,-0.00101546,
2.06751,0,0,-0.245595,0,-0.00107823,
2.13081,0,0,-0.245082,0,-0.0011391,
2.19439,0,0,-0.244329,0,-0.00119773,
2.25819,0,0,-0.24333,0,-0.00125378,
2.32214,0,0,-0.242079,0,-0.00130698,
2.38617,0,0,-0.240577,0,-0.00135706,
2.4502,0,0,-0.238822,0,-0.0014038,
2.51418,0,0,-0.236821,0,-0.00144701,
2.57803,0,0,-0.234579,0,-0.0014865,
2.64167,0,0,-0.232104,0,-0.00152214,
2.70505,0,0,-0.22941,0,-0.00155384,
2.76808,0,0,-0.22651,0,-0.00158154,
2.83072,0,0,-0.223419,0,-0.00160525,
2.89288,0,0,-0.220156,0,-0.00162504,
2.95451,0,0,-0.216738,0,-0.00164102,
3.01555,0,0,-0.213185,0,-0.00165333,
3.07594,0,0,-0.209516,0,-0.00166215,
3.13561,0,0,-0.20575,0,-0.00166767,
3.19453,0,0,-0.201906,0,-0.00167009,
3.25262,0,0,-0.198003,0,-0.0016696,
3.30985,0,0,-0.194057,0,-0.00166642,
3.36617,0,0,-0.190085,0,-0.00166073,
3.42154,0,0,-0.186104,0,-0.00165274,
3.47591,0,0,-0.182129,0,-0.00164268,
3.52925,0,0,-0.178174,0,-0.00163075,
3.58152,0,0,-0.17425,0,-0.00161716,
3.6327,0,0,-0.17037,0,-0.00160212,
3.68276,0,0,-0.166544,0,-0.00158582,
3.73167,0,0,-0.162781,0,-0.00156843,
3.77941,0,0,-0.15909,0,-0.00155012,
3.82596,0,0,-0.155476,0,-0.00153105,
3.8713,0,0,-0.151947,0,-0.00151138,
3.91543,0,0,-0.148503,0,-0.00149111,
3.95833,0,0,-0.145168,0,-0.00147068,
4,0,0,-0.141909,0,-0.00144992,
4.04167,0,0,-0.138661,0,-0.00142831,
4.08333,0,0,-0.135419,0,-0.00140602,
4.125,0,0,-0.132184,0,-0.00138303,
4.16667,0,0,-0.128958,0,-0.00135936,
4.20833,0,0,-0.125743,0,-0.00133501,
4.25,0,0,-0.122542,0,-0.00131004,
4.29167,0,0,-0.119357,0,-0.00128445,
4.33333,0,0,-0.116188,0,-0.00125828,
4.375,0,0,-0.113038,0,-0.00123156,
4.41667,0,0,-0.109909,0,-0.00120431,
4.45833,0,0,-0.106802,0,-0.00117656,
4.5,0,0,-0.103719,0,-0.00114833,
4.54167,0,0,-0.100661,0,-0.00111964,
4.58333,0,0,-0.0976296,0,-0.00109052,
4.625,0,0,-0.0946262,0,-0.00106097,
4.66667,0,0,-0.0916521,0,-0.00103103,
4.70833,0,0,-0.0887085,0,-0.00100073,
4.75,0,0,-0.0857967,0,-0.000970088,
4.79167,0,0,-0.0829177,0,-0.000939126,
4.83333,0,0,-0.0800725,0,-0.000907867,
4.875,0,0,-0.0772621,0,-0.000876333,
4.91667,0,0,-0.0744874,0,-0.000844543,
4.95833,0,0,-0.0717492,0,-0.000812516,
5,0,0,-0.0690483,0,-0.000780272,
5.04167,0,0,-0.0663853,0,-0.000747828,
5.08333,0,0,-0.0637611,0,-0.000715203,
5.125,0,0,-0.0611762,0,-0.000682418,
5.16667,0,0,-0.0586312,0,-0.000649492,
5.20833,0,0,-0.0561267,0,-0.000616444,
5.25,0,0,-0.0536631,0,-0.000583292,
5.29167,0,0,-0.0512407,0,-0.000550053,
5.33333,0,0,-0.0488601,0,-0.000516743,
5.375,0,0,-0.0465216,0,-0.00048338,
5.41667,0,0,-0.0442254,0,-0.000449978,
5.45833,0,0,-0.041972,0,-0.000416551,
5.5,0,0,-0.0397615,0,-0.000383111,
5.54167,0,0,-0.0375945,0,-0.000349671,
5.58333,0,0,-0.0354711,0,-0.000316244,
5.625,0,0,-0.0333919,0,-0.000282849,
5.66667,0,0,-0.0313573,0,-0.000249508,
5.70833,0,0,-0.0293679,0,-0.000216259,
5.75,0,0,-0.027424,0,-0.000183154,
5.79167,0,0,-0.0255263,0,-0.000150258,
5.83333,0,0,-0.0236744,0,-0.000117632,
5.875,0,0,-0.0218677,0,-8.53149e-05,
5.91667,0,0,-0.0201056,0,-5.3318e-05,
5.95833,0,0,-0.0183874,0,-2.16374e-05,
6,0,0,-0.0167123,0,9.73551e-06,
6.04167,0,0,-0.0150797,0,4.08068e-05,
6.08333,0,0,-0.013489,0,7.15793e-05,
6.125,0,0,-0.0119395,0,0.000102053,
6.16667,0,0,-0.0104308,0,0.000132228,
6.20833,0,0,-0.00896216,0,0.000162103,
6.25,0,0,-0.00753307,0,0.000191676,
6.29167,0,0,-0.00614296,0,0.000220945,
6.33333,0,0,-0.00479127,0,0.000249906,
6.375,0,0,-0.00347741,0,0.000278556,
6.41667,0,0,-0.0022008,0,0.000306893,
6.45833,0,0,-0.000960871,0,0.000334912,
6.5,0,0,0.000242982,0,0.000362613,
6.54167,0,0,0.00141134,0,0.00038999,
6.58333,0,0,0.00254481,0,0.000417043,
6.625,0,0,0.00364398,0,0.000443766,
6.66667,0,0,0.00470947,0,0.000470158,
6.70833,0,0,0.0057419,0,0.000496216,
6.75,0,0,0.00674189,0,0.000521937,
6.79167,0,0,0.00771007,0,0.000547321,
6.83333,0,0,0.00864705,0,0.000572365,
6.875,0,0,0.00955348,0,0.00059707,
6.91667,0,0,0.01043,0,0.000621433,
6.95833,0,0,0.0112771,0,0.000645455,
7,0,0,0.0120956,0,0.000669136,
7.04167,0,0,0.0128861,0,0.000692477,
7.08333,0,0,0.0136491,0,0.000715479,
7.125,0,0,0.0143853,0,0.000738144,
7.16667,0,0,0.0150952,0,0.000760472,
7.20833,0,0,0.0157796,0,0.000782466,
7.25,0,0,0.0164388,0,0.000804128,
7.29167,0,0,0.0170736,0,0.000825462,
7.33333,0,0,0.0176845,0,0.000846471,
7.375,0,0,0.0182722,0,0.000867162,
7.41667,0,0,0.0188371,0,0.000887545,
7.45833,0,0,0.0193799,0,0.00090763,
7.5,0,0,0.0199011,0,0.000927423,
7.54167,0,0,0.0204011,0,0.000946927,
7.58333,0,0,0.0208805,0,0.000966142,
7.625,0,0,0.0213396,0,0.000985068,
7.66667,0,0,0.021779,0,0.00100371,
7.70833,0,0,0.022199,0,0.00102206,
7.75,0,0,0.0226,0,0.00104014,
7.79167,0,0,0.0229823,0,0.00105793,
7.83333,0,0,0.023346,0,0.00107545,
7.875,0,0,0.0236907,0,0.00109274,
7.91667,0,0,0.0240279,0,0.00111037,
7.95833,0,0,0.0242874,0,0.00112683,
8,0,0,0.0246337,0,0.00114328,
8.04171,0,0,0.0250002,0,0.0011608,
8.08368,0,0,0.0252343,0,0.00117812,
8.12617,0,0,0.0255106,0,0.0011937,
8.16946,0,0,0.0257719,0,0.00120938,
8.21382,0,0,0.0260176,0,0.00122508,
8.25952,0,0,0.0262555,0,0.00124082,
8.30685,0,0,0.0264853,0,0.00125676,
8.35611,0,0,0.0267069,0,0.00127301,
8.40762,0,0,0.0269206,0,0.00128962,
8.46168,0,0,0.0271261,0,0.00130668,
8.51865,0,0,0.0273224,0,0.00132423,
8.57889,0,0,0.0275086,0,0.00134232,
8.64276,0,0,0.0276833,0,0.00136099,
8.71067,0,0,0.0278445,0,0.00138028,
8.78306,0,0,0.0279902,0,0.00140021,
8.86037,0,0,0.0281177,0,0.00142081,
8.94309,0,0,0.0282241,0,0.00144208,
9.03174,0,0,0.028306,0,0.00146402,
9.12689,0,0,0.0283595,0,0.00148665,
9.22912,0,0,0.0283807,0,0.00150993,
9.33908,0,0,0.0283652,0,0.00153385,
9.45746,0,0,0.0283082,0,0.00155835,
9.58501,0,0,0.0282052,0,0.00158341,
9.72253,0,0,0.0280514,0,0.00160894,
9.87088,0,0,0.0278418,0,0.00163488,
10.031,0,0,0.0275719,0,0.00166114,
10.2039,0,0,0.0272378,0,0.00168762,
10.3906,0,0,0.0268364,0,0.00171423,
10.5924,0,0,0.0263645,0,0.00174086,
10.8105,0,0,0.0258199,0,0.00176739,
11.0463,0,0,0.0252032,0,0.0017937,
11.3012,0,0,0.0245148,0,0.00181967,
11.5769,0,0,0.0237573,0,0.00184518,
11.8751,0,0,0.0229357,0,0.00187013,
12.1977,0,0,0.0220553,0,0.00189442,
12.5466,0,0,0.0211245,0,0.00191798,
12.9242,0,0,0.0201531,0,0.00194072,
13.3327,0,0,0.0191521,0,0.00196261,
13.7748,0,0,0.0181337,0,0.00198361,
14.2532,0,0,0.0171111,0,0.0020037,
14.7709,0,0,0.0160979,0,0.00202289,
15.3312,0,0,0.015107,0,0.00204119,
15.9377,0,0,0.0141517,0,0.00205865,
16.594,0,0,0.0132424,0,0.00207533,
17.3044,0,0,0.0123886,0,0.00209129,
18.0733,0,0,0.0115968,0,0.0021066,
18.9056,0,0,0.0108696,0,0.00212124,
19.8064,0,0,0.0102087,0,0.00213505,
20.7816,0,0,0.00961125,0,0.00214813,
21.8371,0,0,0.00907046,0,0.00216084,
22.9796,0,0,0.00857809,0,0.00217338,
24.2163,0,0,0.00812198,0,0.00218589,
25.5551,0,0,0.0076877,0,0.00219844,
27.0042,0,0,0.00725977,0,0.00221112,
28.5729,0,0,0.00682105,0,0.002224,
30.271,0,0,0.00635406,0,0.00223713,
32.1091,0,0,0.00584152,0,0.00225044,
34.0989,0,0,0.00526854,0,0.00226388,
36.2529,0,0,0.00461771,0,0.00227744,
38.5845,0,0,0.00388105,0,0.0022911,
41.1085,0,0,0.00309873,0,0.00230471,
43.8407,0,0,0.00211173,0,0.00231603,
46.7983,0,0,0.00108788,0,0.00232278,
50,0,0,0.00212443,0,0.00233968,

