6dd037d6a9bb907f992cff43c3d537b03eef574e 
X,Z,x_velocity,cp,uw_b,cf,
1,0,0,-0.224321,0,0,
1,9,0,-0.130909,0,0,
1,8.99969,0.0154244,-0.130909,2.87052e-10,0,
1,8.99934,0.0329232,-0.130909,1.34173e-08,0,
1,8.99894,0.0527934,-0.130909,1.85077e-07,0,
1,8.99848,0.0753491,-0.130909,1.35671e-06,0,
1,8.99797,0.100903,-0.130909,6.78046e-06,0,
1,8.99739,0.129651,-0.130909,2.56599e-05,0,
1,8.99672,0.161398,-0.130909,7.5995e-05,0,
1,8.99597,0.195202,-0.130909,0.000176601,0,
1,8.99512,0.229412,-0.130908,0.000325372,0,
1,8.99416,0.262369,-0.130908,0.00049369,0,
1,8.99306,0.293099,-0.130908,0.000652123,0,
1,8.99182,0.321431,-0.130908,0.000779593,0,
1,8.99041,0.347504,-0.130907,0.000885189,0,
1,8.98881,0.371478,-0.130907,0.000972378,0,
1,8.98699,0.393571,-0.130906,0.0010435,0,
1,8.98494,0.414069,-0.130906,0.00109946,0,
1,8.98261,0.433284,-0.130905,0.00114219,0,
1,8.97996,0.451457,-0.130904,0.001178,0,
1,8.97696,0.468759,-0.130903,0.00120765,0,
1,8.97356,0.485333,-0.130901,0.00123243,0,
1,8.9697,0.501296,-0.1309,0.0012533,0,
1,8.96533,0.516748,-0.130898,0.00127096,0,
1,8.96038,0.53177,-0.130896,0.00128594,0,
1,8.95476,0.546433,-0.130894,0.0012986,0,
1,8.9484,0.560796,-0.130891,0.00130922,0,
1,8.9412,0.574909,-0.130889,0.00131795,0,
1,8.93303,0.588815,-0.130886,0.00132491,0,
1,8.92379,0.602552,-0.130883,0.00133015,0,
1,8.91333,0.616151,-0.13088,0.00133368,0,
1,8.90149,0.629639,-0.130876,0.00133547,0,
1,8.8881,0.643043,-0.130873,0.00133548,0,
1,8.87295,0.656382,-0.13087,0.00133363,0,
1,8.85584,0.669678,-0.130868,0.00132983,0,
1,8.83651,0.682949,-0.130866,0.00132396,0,
1,8.81469,0.696215,-0.130866,0.00131589,0,
1,8.79007,0.709495,-0.130868,0.00130547,0,
1,8.76232,0.722813,-0.130872,0.0012925,0,
1,8.73107,0.736192,-0.130879,0.00127677,0,
1,8.69591,0.749663,-0.130891,0.00125799,0,
1,8.6564,0.763262,-0.130909,0.00123581,0,
1,8.61206,0.777036,-0.130935,0.00120981,0,
1,8.56236,0.79104,-0.13097,0.00117965,0,
1,8.50675,0.805353,-0.131019,0.00114641,0,
1,8.44464,0.820112,-0.131084,0.00110629,0,
1,8.3754,0.835537,-0.13117,0.00105473,0,
1,8.29839,0.851878,-0.131283,0.000991456,0,
1,8.21296,0.869379,-0.13143,0.000911954,0,
1,8.11843,0.888231,-0.131614,0.000810991,0,
1,8.01417,0.908431,-0.131854,0.000685147,0,
1,7.89956,0.929529,-0.132142,0.00053795,0,
1,7.77403,0.950397,-0.132517,0.000387974,0,
1,7.63711,0.969421,-0.132966,0.000203898,0,
1,7.48842,0.984272,-0.133497,7.53422e-05,0,
1,7.32773,0.993025,-0.134135,1.79581e-05,0,
1,7.15495,0.996181,-0.134875,1.75769e-06,0,
1,6.97022,0.996225,-0.135734,2.16056e-08,0,
1,6.77388,0.995607,-0.136725,3.6273e-09,0,
1,6.56652,0.995492,-0.137864,9.65424e-09,0,
1,6.34896,0.995948,-0.139164,1.244e-08,0,
1,6.12229,0.996674,-0.140639,1.40255e-08,0,
1,5.88784,0.99747,-0.142301,1.48496e-08,0,
1,5.64716,0.998301,-0.144164,1.57929e-08,0,
1,5.40194,0.999198,-0.146236,1.71103e-08,0,
1,5.15407,1.00019,-0.148523,1.87821e-08,0,
1,4.90545,1.00127,-0.151027,2.05367e-08,0,
1,4.65805,1.00246,-0.153743,2.23994e-08,0,
1,4.41376,1.00375,-0.156663,2.43332e-08,0,
1,4.17441,1.00511,-0.159772,2.61062e-08,0,
1,3.94163,1.00649,-0.16305,2.75579e-08,0,
1,3.7169,1.00784,-0.166467,2.93057e-08,0,
1,3.50146,1.00925,-0.169992,3.32989e-08,0,
1,3.29629,1.01101,-0.173589,4.1544e-08,0,
1,3.10217,1.0135,-0.177229,5.21442e-08,0,
1,2.91959,1.01651,-0.180882,9.51933e-08,0,
1,2.74885,1.01859,-0.184506,8.9264e-07,0,
1,2.59002,1.01729,-0.18804,-6.78147e-06,0,
1,2.44299,1.01094,-0.191424,-5.41461e-05,0,
1,2.30752,0.999743,-0.194593,-0.000153657,0,
1,2.18321,0.985169,-0.197494,-0.000291064,0,
1,2.06959,0.968804,-0.200159,-0.000409524,0,
1,1.9661,0.95192,-0.202572,-0.000512256,0,
1,1.87215,0.93544,-0.204701,-0.000608097,0,
1,1.78711,0.919871,-0.206582,-0.000692501,0,
1,1.71033,0.905366,-0.208233,-0.00076537,0,
1,1.64119,0.891891,-0.209676,-0.000828223,0,
1,1.57905,0.879332,-0.210933,-0.00088323,0,
1,1.52332,0.867561,-0.212024,-0.0009326,0,
1,1.47342,0.856468,-0.212973,-0.000978497,0,
1,1.42882,0.845967,-0.213778,-0.00101066,0,
1,1.389,0.835972,-0.214454,-0.00103528,0,
1,1.35351,0.826421,-0.215038,-0.00105816,0,
1,1.3219,0.817277,-0.215534,-0.0010786,0,
1,1.29378,0.808521,-0.215958,-0.00109638,0,
1,1.26878,0.800143,-0.21632,-0.00111157,0,
1,1.24659,0.792139,-0.216627,-0.0011246,0,
1,1.22689,0.784502,-0.216889,-0.0011356,0,
1,1.2092,0.777144,-0.217115,-0.00114354,0,
1,1.1932,0.770014,-0.217311,-0.00114914,0,
1,1.1787,0.763098,-0.21748,-0.001153,0,
1,1.16554,0.756377,-0.217627,-0.00115595,0,
1,1.15357,0.749821,-0.217753,-0.00115968,0,
1,1.14266,0.743387,-0.217861,-0.00116721,0,
1,1.13268,0.737012,-0.217955,-0.00118242,0,
1,1.12354,0.73061,-0.218036,-0.00121064,0,
1,1.11514,0.724066,-0.218108,-0.00125839,0,
1,1.10739,0.71724,-0.218173,-0.00133302,0,
1,1.10022,0.709969,-0.218236,-0.00144195,0,
1,1.09357,0.702088,-0.218299,-0.00159165,0,
1,1.08738,0.693451,-0.218365,-0.00178634,0,
1,1.0816,0.683968,-0.218436,-0.00202659,0,
1,1.07618,0.673634,-0.218514,-0.00230846,0,
1,1.07107,0.662526,-0.218598,-0.00262372,0,
1,1.06626,0.650793,-0.218688,-0.00296121,0,
1,1.06169,0.638612,-0.218783,-0.00330902,0,
1,1.05735,0.626164,-0.218882,-0.00365636,0,
1,1.05321,0.613607,-0.218984,-0.00399463,0,
1,1.04925,0.601066,-0.219088,-0.00431776,0,
1,1.04544,0.588635,-0.219193,-0.00462186,0,
1,1.04177,0.576378,-0.219299,-0.00490483,0,
1,1.03822,0.564338,-0.219404,-0.0051658,0,
1,1.03478,0.55254,-0.21951,-0.00540478,0,
1,1.03144,0.540995,-0.219615,-0.00562229,0,
1,1.02818,0.529705,-0.21972,-0.00581919,0,
1,1.025,0.518668,-0.219823,-0.00599648,0,
1,1.02188,0.507877,-0.219926,-0.00615524,0,
1,1.01882,0.497322,-0.220028,-0.00629655,0,
1,1.01581,0.486993,-0.22013,-0.00642159,0,
1,1.01284,0.476878,-0.22023,-0.00653094,0,
1,1.00988,0.466856,-0.22033,-0.00662635,0,
1,1.00688,0.456811,-0.220433,-0.00670977,0,
1,1.00384,0.446734,-0.220536,-0.00678149,0,
1,1.00076,0.436614,-0.220641,-0.00684108,0,
1,0.997615,0.426436,-0.220747,-0.00688823,0,
1,0.99441,0.416178,-0.220855,-0.00692266,0,
1,0.991131,0.405818,-0.220963,-0.00694431,0,
1,0.987768,0.395329,-0.221073,-0.00695315,0,
1,0.984308,0.384682,-0.221185,-0.00694883,0,
1,0.980739,0.373847,-0.221298,-0.00693087,0,
1,0.977045,0.36279,-0.221413,-0.00689866,0,
1,0.973211,0.351475,-0.221531,-0.00685143,0,
1,0.969219,0.339863,-0.22165,-0.00678824,0,
1,0.965047,0.327911,-0.221771,-0.00670796,0,
1,0.960675,0.315573,-0.221895,-0.00660922,0,
1,0.956077,0.302796,-0.222021,-0.00648963,0,
1,0.951224,0.289529,-0.222149,-0.00634779,0,
1,0.946088,0.275721,-0.222281,-0.00618188,0,
1,0.940633,0.261331,-0.222415,-0.00599099,0,
1,0.934823,0.246323,-0.222553,-0.00577197,0,
1,0.928616,0.230668,-0.222693,-0.00552268,0,
1,0.921967,0.214344,-0.222835,-0.00524107,0,
1,0.914826,0.19734,-0.222979,-0.00492542,0,
1,0.907141,0.179664,-0.223124,-0.00457456,0,
1,0.898852,0.161349,-0.223269,-0.00418817,0,
1,0.889898,0.142464,-0.223413,-0.00376731,0,
1,0.880212,0.123133,-0.223555,-0.00331503,0,
1,0.869723,0.103564,-0.223695,-0.00283752,0,
1,0.858358,0.0840889,-0.223835,-0.00234593,0,
1,0.846039,0.065225,-0.223975,-0.00185937,0,
1,0.83269,0.0477177,-0.22412,-0.00140735,0,
1,0.818232,0.0324647,-0.22427,-0.00102734,0,
1,0.802744,0.0202515,-0.22442,-0.000740756,0,
1,0.78635,0.0111549,-0.224579,-0.000540188,0,
1,0.768969,0.00451577,-0.224735,-0.000409975,0,
1,0.75053,-0.000478982,-0.224888,-0.00033219,0,
1,0.730977,-0.0045019,-0.225025,-0.000290245,0,
1,0.710271,-0.00801382,-0.225148,-0.000270889,0,
1,0.688397,-0.0112984,-0.225253,-0.000265249,0,
1,0.66536,-0.0145218,-0.225343,-0.00026656,0,
1,0.641194,-0.0177853,-0.225416,-0.000269974,0,
1,0.615961,-0.0211428,-0.225474,-0.000272556,0,
1,0.589754,-0.0246086,-0.225515,-0.000272327,0,
1,0.562692,-0.0281675,-0.225537,-0.000268278,0,
1,0.534925,-0.0317815,-0.22554,-0.000260066,0,
1,0.506624,-0.0353969,-0.225522,-0.00024779,0,
1,0.477982,-0.0389504,-0.225481,-0.000231807,0,
1,0.449206,-0.0423733,-0.225417,-0.000212609,0,
1,0.420509,-0.0455951,-0.225331,-0.000190738,0,
1,0.392107,-0.0485449,-0.225225,-0.000166741,0,
1,0.364206,-0.0511532,-0.225104,-0.000141131,0,
1,0.337003,-0.053352,-0.22497,-0.000114368,0,
1,0.310673,-0.0550753,-0.224831,-8.6862e-05,0,
1,0.28537,-0.05626,-0.224691,-5.89934e-05,0,
1,0.26122,-0.0568473,-0.224556,-3.11459e-05,0,
1,0.238324,-0.056786,-0.224433,-3.75745e-06,0,
1,0.21675,-0.0560371,-0.224325,2.26304e-05,0,
1,0.196544,-0.0545805,-0.224235,4.73543e-05,0,
1,0.177724,-0.0524223,-0.224167,6.96586e-05,0,
1,0.160284,-0.0496001,-0.224119,8.87791e-05,0,
1,0.144202,-0.0461862,-0.224091,0.000104055,0,
1,0.129436,-0.0422845,-0.224081,0.00011503,0,
1,0.115935,-0.0380229,-0.224084,0.000121511,0,
1,0.103636,-0.0335419,-0.224098,0.000123624,0,
1,0.0924701,-0.0289818,-0.22412,0.000121759,0,
1,0.0823633,-0.0244703,-0.224145,0.000116497,0,
1,0.0732406,-0.0201136,-0.224171,0.000108512,0,
1,0.0650269,-0.0159905,-0.224198,9.8498e-05,0,
1,0.057648,-0.0121512,-0.224222,8.71042e-05,0,
1,0.0510323,-0.00862044,-0.224244,7.49092e-05,0,
1,0.0451115,-0.0054029,-0.224264,6.24259e-05,0,
1,0.0398209,-0.00248993,-0.22428,5.01252e-05,0,
1,0.0351001,0.000129903,-0.224292,3.85978e-05,0,
1,0.0308929,0.00246478,-0.224302,2.78052e-05,0,
1,0.0271475,0.00451019,-0.224309,1.83482e-05,0,
1,0.0238164,0.0062364,-0.224314,1.06595e-05,0,
1,0.0208562,0.00759235,-0.224317,5.20063e-06,0,
1,0.0182274,0.00852667,-0.224319,1.985e-06,0,
1,0.0158944,0.00902315,-0.22432,4.77683e-07,0,
1,0.0138249,0.00912016,-0.224321,-5.16596e-08,0,
1,0.0119898,0.00889638,-0.224321,-1.56787e-07,0,
1,0.0103632,0.0084417,-0.224321,-1.2836e-07,0,
1,0.00892169,0.00783603,-0.224321,-8.00928e-08,0,
1,0.00764438,0.00714192,-0.224322,-4.35784e-08,0,
1,0.00651264,0.00640506,-0.224322,-2.1586e-08,0,
1,0.00550983,0.00565772,-0.224322,-9.8825e-09,0,
1,0.00462115,0.00492196,-0.224322,-4.19066e-09,0,
1,0.00383341,0.0042125,-0.224322,-1.63518e-09,0,
1,0.0031349,0.00353858,-0.224322,-5.78439e-10,0,
1,0.00251518,0.00290559,-0.224322,-1.80828e-10,0,
1,0.00196502,0.00231608,-0.224322,-4.78981e-11,0,
1,0.00147619,0.00177061,-0.224322,-1.00094e-11,0,
1,0.00104139,0.00126835,-0.224322,-1.44915e-12,0,
1,0.000654158,0.000807527,-0.224322,-1.11779e-13,0,
1,0.000308731,0.000385742,-0.224321,-2.52024e-15,0,

4,0,0,-0.17201,0,0,
4,9,0,-0.10076,0,0,
4,8.99969,0.0143029,-0.100759,2.25991e-10,0,
4,8.99934,0.030473,-0.10076,1.04848e-08,0,
4,8.99894,0.0487727,-0.100759,1.43165e-07,0,
4,8.9985,0.0694792,-0.100759,1.03909e-06,0,
4,8.99799,0.0928746,-0.100759,5.15665e-06,0,
4,8.99742,0.119161,-0.100759,1.9518e-05,0,
4,8.99677,0.14825,-0.100759,5.85336e-05,0,
4,8.99605,0.179457,-0.100759,0.000139718,0,
4,8.99522,0.211421,-0.100759,0.000266801,0,
4,8.99429,0.242597,-0.100759,0.000419369,0,
4,8.99324,0.271923,-0.100759,0.000569434,0,
4,8.99205,0.299025,-0.100758,0.000698998,0,
4,8.9907,0.323979,-0.100758,0.000803207,0,
4,8.98919,0.34696,-0.100757,0.000890979,0,
4,8.98747,0.368155,-0.100757,0.000963961,0,
4,8.98553,0.387832,-0.100756,0.00102145,0,
4,8.98334,0.406271,-0.100755,0.00106767,0,
4,8.98087,0.423693,-0.100754,0.0011067,0,
4,8.97807,0.440265,-0.100752,0.0011398,0,
4,8.97491,0.456129,-0.100751,0.00116827,0,
4,8.97134,0.471405,-0.100749,0.00119308,0,
4,8.96731,0.486191,-0.100747,0.00121497,0,
4,8.96276,0.500572,-0.100744,0.00123445,0,
4,8.95762,0.514621,-0.100741,0.0012519,0,
4,8.95182,0.5284,-0.100738,0.00126756,0,
4,8.94526,0.541962,-0.100734,0.00128159,0,
4,8.93787,0.555353,-0.100729,0.00129406,0,
4,8.92952,0.568612,-0.100725,0.00130499,0,
4,8.92011,0.581773,-0.100719,0.00131432,0,
4,8.90949,0.594866,-0.100713,0.00132197,0,
4,8.89751,0.607914,-0.100707,0.00132783,0,
4,8.88402,0.62094,-0.1007,0.00133173,0,
4,8.86881,0.63396,-0.100693,0.00133352,0,
4,8.85169,0.64699,-0.100685,0.00133301,0,
4,8.83242,0.660043,-0.100678,0.00133003,0,
4,8.81074,0.67313,-0.10067,0.0013244,0,
4,8.78637,0.686265,-0.100663,0.00131593,0,
4,8.75901,0.699459,-0.100657,0.00130444,0,
4,8.7283,0.712728,-0.100652,0.00128974,0,
4,8.69387,0.72609,-0.10065,0.00127162,0,
4,8.65533,0.73957,-0.10065,0.00124983,0,
4,8.61222,0.753201,-0.100654,0.00122407,0,
4,8.56407,0.767023,-0.100664,0.00119393,0,
4,8.5104,0.78109,-0.10068,0.00115915,0,
4,8.45065,0.795479,-0.100707,0.00112154,0,
4,8.38429,0.810343,-0.100748,0.00107426,0,
4,8.31073,0.825919,-0.100803,0.00101687,0,
4,8.22941,0.842472,-0.100878,0.000946452,0,
4,8.13974,0.860266,-0.100977,0.000858629,0,
4,8.04115,0.879472,-0.101101,0.000749787,0,
4,7.93313,0.899977,-0.101257,0.000620244,0,
4,7.81519,0.921069,-0.101438,0.000479244,0,
4,7.68693,0.941282,-0.101668,0.000344222,0,
4,7.54803,0.958716,-0.10193,0.000202279,0,
4,7.39831,0.971484,-0.102243,8.8764e-05,0,
4,7.23771,0.978715,-0.102623,2.73445e-05,0,
4,7.06634,0.981371,-0.10306,4.51597e-06,0,
4,6.88453,0.981514,-0.103556,2.83541e-08,0,
4,6.69275,0.980983,-0.104114,-7.29531e-08,0,
4,6.49173,0.980701,-0.104743,2.864e-08,0,
4,6.28238,0.980816,-0.105453,2.7152e-08,0,
4,6.06579,0.981165,-0.106251,1.53716e-08,0,
4,5.84328,0.981589,-0.107146,1.04606e-08,0,
4,5.61626,0.98203,-0.108143,9.22842e-09,0,
4,5.3863,0.982487,-0.109248,9.37579e-09,0,
4,5.15502,0.982978,-0.110466,1.00799e-08,0,
4,4.92406,0.983517,-0.111798,1.10775e-08,0,
4,4.69507,0.984115,-0.113248,1.22662e-08,0,
4,4.46961,0.984776,-0.114813,1.34982e-08,0,
4,4.24915,0.985484,-0.116491,1.44535e-08,0,
4,4.03501,0.986181,-0.118277,1.48704e-08,0,
4,3.82836,0.9868,-0.120163,1.50326e-08,0,
4,3.63018,0.987349,-0.12214,1.63838e-08,0,
4,3.44125,0.988014,-0.124193,2.20323e-08,0,
4,3.26217,0.989157,-0.126312,7.49741e-08,0,
4,3.09333,0.991066,-0.128479,6.53604e-07,0,
4,2.93497,0.993528,-0.13068,3.00651e-06,0,
4,2.78715,0.995658,-0.132894,5.83674e-06,0,
4,2.64979,0.996255,-0.135101,1.26428e-06,0,
4,2.52268,0.9944,-0.137276,-2.06759e-05,0,
4,2.40551,0.989791,-0.139391,-6.49771e-05,0,
4,2.29789,0.982704,-0.141421,-0.000129884,0,
4,2.19939,0.973753,-0.143348,-0.000208946,0,
4,2.10949,0.963642,-0.14516,-0.000294064,0,
4,2.02768,0.953006,-0.146851,-0.000377731,0,
4,1.95343,0.94235,-0.148419,-0.000453975,0,
4,1.88618,0.932045,-0.149864,-0.000520402,0,
4,1.82542,0.922277,-0.151195,-0.000567968,0,
4,1.77062,0.913103,-0.152416,-0.000606087,0,
4,1.72128,0.904568,-0.153525,-0.000640249,0,
4,1.67693,0.896697,-0.154533,-0.000670565,0,
4,1.63713,0.889486,-0.155446,-0.000697447,0,
4,1.60144,0.882912,-0.156272,-0.00072128,0,
4,1.56949,0.876942,-0.157017,-0.000742474,0,
4,1.54091,0.871539,-0.157688,-0.00076153,0,
4,1.51537,0.866647,-0.158292,-0.000778731,0,
4,1.49167,0.862073,-0.158854,-0.000794607,0,
4,1.46926,0.85772,-0.15939,-0.000809731,0,
4,1.44801,0.85355,-0.159909,-0.000817754,0,
4,1.42781,0.849527,-0.160407,-0.000824751,0,
4,1.40855,0.845632,-0.160884,-0.000830573,0,
4,1.39015,0.841851,-0.161342,-0.000835086,0,
4,1.37252,0.838169,-0.161784,-0.00083877,0,
4,1.3556,0.834569,-0.162211,-0.000842104,0,
4,1.3393,0.831033,-0.162624,-0.000845576,0,
4,1.32357,0.827544,-0.163024,-0.000850111,0,
4,1.30836,0.824081,-0.163413,-0.000856416,0,
4,1.29362,0.820623,-0.163792,-0.000865467,0,
4,1.2793,0.817142,-0.164162,-0.000878515,0,
4,1.26537,0.813607,-0.164522,-0.000897118,0,
4,1.25179,0.809981,-0.164876,-0.000923181,0,
4,1.23852,0.80622,-0.165221,-0.000958992,0,
4,1.22554,0.802271,-0.165561,-0.00100723,0,
4,1.21282,0.798071,-0.165893,-0.00107094,0,
4,1.20034,0.79355,-0.16622,-0.00115342,0,
4,1.18806,0.78863,-0.16654,-0.00125807,0,
4,1.17599,0.783232,-0.166855,-0.00138804,0,
4,1.16408,0.777281,-0.167163,-0.00154589,0,
4,1.15233,0.770712,-0.167466,-0.00173313,0,
4,1.14073,0.763482,-0.167762,-0.00194988,0,
4,1.12925,0.755574,-0.168053,-0.00219464,0,
4,1.11788,0.746999,-0.168338,-0.00246433,0,
4,1.10661,0.737792,-0.168618,-0.00275457,0,
4,1.09543,0.728009,-0.168892,-0.00306006,0,
4,1.08432,0.717717,-0.169161,-0.00337517,0,
4,1.07328,0.706991,-0.169426,-0.0036943,0,
4,1.0623,0.695904,-0.169685,-0.0040123,0,
4,1.05136,0.684525,-0.169939,-0.0043246,0,
4,1.04044,0.6729,-0.170189,-0.00462748,0,
4,1.0295,0.661063,-0.170436,-0.00491806,0,
4,1.01855,0.649062,-0.170678,-0.00519358,0,
4,1.00757,0.636938,-0.170917,-0.0054516,0,
4,0.996544,0.624727,-0.171152,-0.00569032,0,
4,0.98547,0.612461,-0.171384,-0.00590778,0,
4,0.974334,0.600166,-0.171611,-0.00610255,0,
4,0.963124,0.587865,-0.171836,-0.00627333,0,
4,0.951826,0.575579,-0.172054,-0.00641881,0,
4,0.940428,0.563327,-0.172277,-0.0065426,0,
4,0.928915,0.551108,-0.172478,-0.0066668,0,
4,0.917272,0.538797,-0.172632,-0.00672362,0,
4,0.905481,0.526217,-0.172767,-0.00678703,0,
4,0.893524,0.513279,-0.172898,-0.00685769,0,
4,0.881383,0.499926,-0.173026,-0.0069355,0,
4,0.869035,0.486118,-0.173157,-0.0070203,0,
4,0.856459,0.471819,-0.173291,-0.0071117,0,
4,0.843629,0.456998,-0.173429,-0.00720913,0,
4,0.830518,0.441628,-0.173571,-0.00731188,0,
4,0.817097,0.425686,-0.173717,-0.00741908,0,
4,0.803334,0.409152,-0.173865,-0.00752977,0,
4,0.789195,0.392012,-0.174015,-0.00764284,0,
4,0.774643,0.374253,-0.174167,-0.00775707,0,
4,0.759639,0.355869,-0.174318,-0.00787104,0,
4,0.744138,0.336856,-0.17447,-0.00798303,0,
4,0.728096,0.31722,-0.174622,-0.00809098,0,
4,0.711463,0.296981,-0.174774,-0.00819258,0,
4,0.694189,0.276172,-0.174927,-0.00828485,0,
4,0.676218,0.25484,-0.175081,-0.00836375,0,
4,0.657495,0.233038,-0.175234,-0.008425,0,
4,0.637962,0.210821,-0.175387,-0.00846464,0,
4,0.617561,0.188232,-0.175533,-0.00847955,0,
4,0.596848,0.165917,-0.175664,-0.00846706,0,
4,0.576557,0.144631,-0.175778,-0.00842711,0,
4,0.556564,0.124243,-0.175872,-0.00836096,0,
4,0.536763,0.104645,-0.175953,-0.00826942,0,
4,0.517057,0.0857813,-0.176029,-0.00815284,0,
4,0.497368,0.0676703,-0.176118,-0.00801202,0,
4,0.477632,0.0504049,-0.176241,-0.00784954,0,
4,0.457804,0.0341153,-0.176404,-0.00767062,0,
4,0.437857,0.0188807,-0.176614,-0.00748548,0,
4,0.417786,0.00459531,-0.176688,-0.0072836,0,
4,0.397605,-0.00909855,-0.176583,-0.00692659,0,
4,0.377348,-0.0224476,-0.176459,-0.00662172,0,
4,0.357066,-0.0354237,-0.176332,-0.00631586,0,
4,0.336828,-0.0479546,-0.176184,-0.00600313,0,
4,0.316717,-0.0599703,-0.176025,-0.00568274,0,
4,0.296825,-0.0714121,-0.175854,-0.00535555,0,
4,0.27725,-0.0822356,-0.175674,-0.0050237,0,
4,0.258095,-0.0924099,-0.175485,-0.00468964,0,
4,0.239458,-0.101917,-0.175291,-0.00435602,0,
4,0.221432,-0.11075,-0.175092,-0.00402551,0,
4,0.2041,-0.118913,-0.17489,-0.00370069,0,
4,0.187537,-0.126421,-0.174687,-0.00338395,0,
4,0.171798,-0.133294,-0.174484,-0.00307741,0,
4,0.156928,-0.13956,-0.174284,-0.00278288,0,
4,0.142956,-0.145248,-0.174087,-0.00250181,0,
4,0.129894,-0.150391,-0.173896,-0.00223531,0,
4,0.117744,-0.155025,-0.173711,-0.00198411,0,
4,0.106492,-0.159182,-0.173535,-0.00174864,0,
4,0.0961173,-0.162896,-0.173369,-0.00152903,0,
4,0.0865883,-0.166197,-0.173212,-0.00132515,0,
4,0.0778675,-0.169114,-0.173067,-0.00113666,0,
4,0.0699123,-0.171672,-0.172933,-0.000963055,0,
4,0.062677,-0.173896,-0.172811,-0.000803709,0,
4,0.056114,-0.175804,-0.1727,-0.000657897,0,
4,0.0501747,-0.177413,-0.1726,-0.000524838,0,
4,0.0448114,-0.178737,-0.172511,-0.000403724,0,
4,0.039977,-0.179786,-0.172433,-0.000293746,0,
4,0.0356266,-0.180564,-0.172363,-0.000194113,0,
4,0.0317171,-0.181073,-0.172302,-0.000104078,0,
4,0.0282081,-0.181308,-0.17225,-2.29514e-05,0,
4,0.0250617,-0.181257,-0.172204,4.98704e-05,0,
4,0.0222427,-0.180901,-0.172166,0.00011488,0,
4,0.0197189,-0.180209,-0.172133,0.000172418,0,
4,0.0174603,-0.179134,-0.172105,0.00022261,0,
4,0.0154398,-0.177608,-0.172082,0.000265267,0,
4,0.0136326,-0.175536,-0.172064,0.000299734,0,
4,0.0120162,-0.17278,-0.172049,0.000324659,0,
4,0.0105703,-0.169147,-0.172037,0.000337732,0,
4,0.00927657,-0.164379,-0.172028,0.000335574,0,
4,0.00811839,-0.158155,-0.172022,0.000314356,0,
4,0.0070809,-0.150144,-0.172018,0.000272,0,
4,0.0061507,-0.140135,-0.172015,0.00021193,0,
4,0.00531578,-0.128223,-0.172014,0.000145188,0,
4,0.00456537,-0.114906,-0.172012,8.62526e-05,0,
4,0.00388979,-0.100938,-0.172012,4.44325e-05,0,
4,0.00328037,-0.0870224,-0.172011,2.00104e-05,0,
4,0.00272934,-0.0736228,-0.172012,7.91651e-06,0,
4,0.0022297,-0.0609586,-0.172011,2.72681e-06,0,
4,0.00177519,-0.0490893,-0.172012,7.9271e-07,0,
4,0.00136016,-0.0379922,-0.172011,1.82194e-07,0,
4,0.000979511,-0.0276087,-0.172011,2.91307e-08,0,
4,0.00062865,-0.0178666,-0.17201,2.48188e-09,0,
4,0.000303409,-0.00869004,-0.172011,6.03978e-11,0,

6,0,0,-0.0264878,0,0,
6,9,0,-0.0767045,0,0,
6,8.99969,0.0135487,-0.0767042,1.88176e-10,0,
6,8.99934,0.0288277,-0.0767044,8.68487e-09,0,
6,8.99895,0.0460751,-0.0767042,1.17748e-07,0,
6,8.9985,0.0655428,-0.0767043,8.48576e-07,0,
6,8.99801,0.0874898,-0.0767041,4.18881e-06,0,
6,8.99744,0.112116,-0.0767042,1.58423e-05,0,
6,8.99681,0.13939,-0.0767041,4.78634e-05,0,
6,8.99609,0.168784,-0.0767041,0.000116278,0,
6,8.99529,0.19914,-0.0767039,0.000227694,0,
6,8.99438,0.229022,-0.0767039,0.00036741,0,
6,8.99336,0.257334,-0.0767036,0.000509807,0,
6,8.9922,0.283582,-0.0767034,0.000637566,0,
6,8.9909,0.30777,-0.076703,0.000740922,0,
6,8.98944,0.330057,-0.0767026,0.000827867,0,
6,8.98779,0.350616,-0.076702,0.000900974,0,
6,8.98593,0.369695,-0.0767014,0.000958885,0,
6,8.98383,0.387553,-0.0767005,0.00100636,0,
6,8.98147,0.404398,-0.0766995,0.00104657,0,
6,8.97881,0.420395,-0.0766983,0.00108099,0,
6,8.97581,0.435685,-0.0766969,0.00111095,0,
6,8.97244,0.450384,-0.0766951,0.00113745,0,
6,8.96863,0.464595,-0.0766931,0.00116125,0,
6,8.96435,0.478403,-0.0766907,0.00118289,0,
6,8.95953,0.491882,-0.0766879,0.00120277,0,
6,8.95409,0.505095,-0.0766847,0.00122118,0,
6,8.94798,0.5181,-0.0766809,0.00123829,0,
6,8.94109,0.530945,-0.0766766,0.00125418,0,
6,8.93334,0.543672,-0.0766716,0.00126887,0,
6,8.92463,0.55632,-0.0766659,0.00128232,0,
6,8.91482,0.568921,-0.0766595,0.00129442,0,
6,8.90379,0.581503,-0.0766521,0.00130501,0,
6,8.89139,0.594092,-0.076644,0.0013139,0,
6,8.87746,0.606706,-0.0766348,0.00132088,0,
6,8.86181,0.619365,-0.0766247,0.00132568,0,
6,8.84423,0.63208,-0.0766137,0.00132804,0,
6,8.82452,0.644863,-0.0766016,0.00132769,0,
6,8.80241,0.657724,-0.0765885,0.00132437,0,
6,8.77763,0.67067,-0.0765744,0.00131781,0,
6,8.74989,0.683709,-0.0765594,0.00130777,0,
6,8.71885,0.69685,-0.0765434,0.00129402,0,
6,8.68417,0.710103,-0.0765267,0.00127632,0,
6,8.64545,0.723485,-0.0765095,0.00125444,0,
6,8.60229,0.737018,-0.0764918,0.00122806,0,
6,8.55423,0.750732,-0.0764743,0.00119688,0,
6,8.50082,0.764668,-0.076457,0.00116096,0,
6,8.44155,0.778891,-0.0764413,0.0011206,0,
6,8.37592,0.793528,-0.0764282,0.001073,0,
6,8.30339,0.808781,-0.0764182,0.00101701,0,
6,8.22344,0.824914,-0.0764114,0.00094972,0,
6,8.13555,0.842226,-0.0764089,0.00086737,0,
6,8.0392,0.860967,-0.0764065,0.00076653,0,
6,7.93391,0.881127,-0.0764048,0.000646997,0,
6,7.81927,0.902111,-0.0763924,0.000515406,0,
6,7.6949,0.922537,-0.076377,0.000386857,0,
6,7.56054,0.940568,-0.0763466,0.00027093,0,
6,7.41603,0.954596,-0.0763084,0.000139379,0,
6,7.26132,0.963646,-0.0762699,5.52723e-05,0,
6,7.09653,0.967978,-0.0762172,1.41288e-05,0,
6,6.92195,0.969058,-0.0761523,8.31847e-07,0,
6,6.73802,0.968641,-0.0760683,-9.35723e-07,0,
6,6.5454,0.967957,-0.0759626,-4.29226e-07,0,
6,6.34489,0.967505,-0.0758325,-1.12786e-07,0,
6,6.1375,0.967298,-0.0756754,-2.74036e-08,0,
6,5.92439,0.9672,-0.0754878,-9.81412e-09,0,
6,5.70687,0.967101,-0.0752658,-5.75104e-09,0,
6,5.48633,0.96696,-0.0750048,-4.66406e-09,0,
6,5.26426,0.966773,-0.0747,-4.57953e-09,0,
6,5.04218,0.96655,-0.0743467,-4.88142e-09,0,
6,4.82159,0.966304,-0.0739401,-5.31427e-09,0,
6,4.60398,0.966047,-0.0734758,-5.8387e-09,0,
6,4.39071,0.965776,-0.0729502,-6.63494e-09,0,
6,4.18307,0.96546,-0.0723605,-8.03574e-09,0,
6,3.98218,0.965035,-0.0717052,-1.02631e-08,0,
6,3.78902,0.964444,-0.0709844,-1.29571e-08,0,
6,3.60438,0.963714,-0.0701998,-1.66856e-08,0,
6,3.42888,0.963021,-0.0693548,-3.44813e-08,0,
6,3.26296,0.962659,-0.0684542,-8.01072e-08,0,
6,3.10691,0.962867,-0.0675028,-3.20602e-08,0,
6,2.96084,0.963609,-0.0665063,3.05737e-07,0,
6,2.82473,0.964484,-0.0654727,1.22347e-07,0,
6,2.69844,0.964852,-0.0644129,-3.65584e-06,0,
6,2.58172,0.964095,-0.06334,-1.55859e-05,0,
6,2.47424,0.961822,-0.062268,-3.93974e-05,0,
6,2.37559,0.95794,-0.0612105,-7.64278e-05,0,
6,2.28535,0.952607,-0.0601796,-0.000125576,0,
6,2.20301,0.946133,-0.0591857,-0.000183915,0,
6,2.1281,0.938883,-0.0582368,-0.000247649,0,
6,2.06009,0.931211,-0.057339,-0.000312813,0,
6,1.99849,0.923429,-0.0564949,-0.000375573,0,
6,1.9428,0.915794,-0.0557089,-0.000432774,0,
6,1.89255,0.908501,-0.0549761,-0.000483799,0,
6,1.84728,0.901632,-0.0543042,-0.00052508,0,
6,1.80655,0.895186,-0.0536925,-0.000555515,0,
6,1.76996,0.889167,-0.0531272,-0.000583402,0,
6,1.73712,0.883593,-0.0526128,-0.000608915,0,
6,1.70768,0.878436,-0.0521415,-0.000632514,0,
6,1.67998,0.873467,-0.0516939,-0.000655361,0,
6,1.65329,0.868587,-0.0512556,-0.000677666,0,
6,1.62754,0.863795,-0.0508273,-0.00069939,0,
6,1.60265,0.859089,-0.0504078,-0.000720572,0,
6,1.57854,0.854468,-0.0499967,-0.000741178,0,
6,1.55515,0.849929,-0.0495933,-0.000761247,0,
6,1.53242,0.845467,-0.0491971,-0.000780797,0,
6,1.5103,0.841076,-0.0488079,-0.000799831,0,
6,1.48874,0.836742,-0.0484251,-0.000818372,0,
6,1.46769,0.832454,-0.048048,-0.00083656,0,
6,1.44712,0.828203,-0.0476756,-0.000854732,0,
6,1.42698,0.824001,-0.0473052,-0.000873413,0,
6,1.40725,0.819886,-0.046936,-0.000892949,0,
6,1.38788,0.815898,-0.0465662,-0.000913403,0,
6,1.36886,0.812046,-0.0462043,-0.000933624,0,
6,1.35015,0.808266,-0.0458553,-0.000936867,0,
6,1.33173,0.804492,-0.0455099,-0.000945555,0,
6,1.31357,0.800705,-0.0451661,-0.000956016,0,
6,1.29566,0.796889,-0.0448251,-0.000968223,0,
6,1.27797,0.793023,-0.044486,-0.00098318,0,
6,1.26048,0.789084,-0.044149,-0.00100207,0,
6,1.24318,0.78504,-0.0438138,-0.00102643,0,
6,1.22605,0.780855,-0.0434802,-0.00105809,0,
6,1.20907,0.776484,-0.0431482,-0.00109923,0,
6,1.19223,0.771875,-0.0428176,-0.00115225,0,
6,1.17551,0.766969,-0.0424884,-0.00121974,0,
6,1.1589,0.761699,-0.0421604,-0.00130428,0,
6,1.14238,0.756,-0.0418337,-0.00140823,0,
6,1.12595,0.749808,-0.0415083,-0.00153338,0,
6,1.10959,0.743067,-0.0411844,-0.00168066,0,
6,1.09329,0.735739,-0.0408623,-0.00184988,0,
6,1.07704,0.727806,-0.0405424,-0.00203958,0,
6,1.06081,0.719266,-0.0402247,-0.002247,0,
6,1.04459,0.71014,-0.0399094,-0.00246834,0,
6,1.02836,0.70047,-0.0395968,-0.00269897,0,
6,1.01211,0.690312,-0.0392871,-0.00293377,0,
6,0.99583,0.679731,-0.0389808,-0.0031675,0,
6,0.97951,0.668793,-0.0386776,-0.00339552,0,
6,0.963136,0.657564,-0.038379,-0.00362772,0,
6,0.946694,0.646018,-0.0380752,-0.0038336,0,
6,0.930172,0.634054,-0.0377655,-0.00403939,0,
6,0.913555,0.621597,-0.037459,-0.0042512,0,
6,0.896829,0.608593,-0.0371556,-0.00447106,0,
6,0.879979,0.595003,-0.036857,-0.00470046,0,
6,0.862989,0.580804,-0.0365634,-0.00494055,0,
6,0.845842,0.565993,-0.0362752,-0.00519222,0,
6,0.828521,0.550579,-0.0359942,-0.00545529,0,
6,0.811008,0.534571,-0.0357227,-0.0057258,0,
6,0.793282,0.517971,-0.0354615,-0.00600236,0,
6,0.775322,0.500788,-0.0352114,-0.00628317,0,
6,0.757107,0.483035,-0.0349731,-0.00656588,0,
6,0.738612,0.464735,-0.0347473,-0.00684761,0,
6,0.719813,0.445925,-0.034535,-0.00712494,0,
6,0.700681,0.42665,-0.0343371,-0.00739403,0,
6,0.681188,0.406964,-0.0341538,-0.00765066,0,
6,0.661304,0.38692,-0.0339837,-0.00789037,0,
6,0.640996,0.366563,-0.0338235,-0.00810836,0,
6,0.620228,0.345929,-0.0336697,-0.00829948,0,
6,0.598964,0.325057,-0.0335228,-0.00845802,0,
6,0.577166,0.304036,-0.0333944,-0.00857778,0,
6,0.554791,0.283067,-0.0333119,-0.00865364,0,
6,0.531799,0.262501,-0.033322,-0.00868312,0,
6,0.508144,0.242772,-0.0334437,-0.00866797,0,
6,0.48378,0.224153,-0.0336784,-0.00861085,0,
6,0.459585,0.207042,-0.0336488,-0.00838374,0,
6,0.436695,0.191644,-0.0334211,-0.00806981,0,
6,0.414961,0.177542,-0.0332666,-0.00779771,0,
6,0.394252,0.164559,-0.0330963,-0.00751493,0,
6,0.374445,0.152551,-0.0329331,-0.00722813,0,
6,0.355433,0.141399,-0.0327714,-0.006937,0,
6,0.337122,0.131004,-0.0326094,-0.00664268,0,
6,0.319433,0.121281,-0.0324454,-0.00634621,0,
6,0.3023,0.112159,-0.0322778,-0.00604839,0,
6,0.28567,0.103578,-0.0321052,-0.00574996,0,
6,0.269507,0.0954904,-0.0319263,-0.00545167,0,
6,0.253785,0.0878576,-0.0317401,-0.00515433,0,
6,0.238493,0.0806485,-0.0315457,-0.00485883,0,
6,0.223631,0.0738382,-0.0313426,-0.00456617,0,
6,0.209207,0.0674071,-0.0311307,-0.00427744,0,
6,0.195237,0.0613388,-0.0309103,-0.00399384,0,
6,0.181744,0.0556198,-0.0306818,-0.00371656,0,
6,0.168754,0.0502379,-0.0304465,-0.00344685,0,
6,0.156292,0.0451816,-0.0302057,-0.00318587,0,
6,0.144384,0.0404396,-0.0299613,-0.00293473,0,
6,0.133052,0.0360002,-0.0297153,-0.0026944,0,
6,0.122315,0.0318515,-0.0294699,-0.00246566,0,
6,0.112183,0.0279808,-0.0292276,-0.00224916,0,
6,0.102665,0.0243749,-0.0289905,-0.0020453,0,
6,0.0937597,0.0210203,-0.0287608,-0.00185431,0,
6,0.0854609,0.0179031,-0.0285404,-0.00167624,0,
6,0.077757,0.0150094,-0.0283308,-0.00151095,0,
6,0.0706309,0.0123253,-0.0281333,-0.00135814,0,
6,0.0640611,0.00983719,-0.0279488,-0.00121741,0,
6,0.0580229,0.00753176,-0.0277777,-0.00108823,0,
6,0.0524888,0.00539631,-0.0276203,-0.000970013,0,
6,0.0474296,0.00341871,-0.0274767,-0.000862118,0,
6,0.042815,0.00158747,-0.0273465,-0.000763892,0,
6,0.0386145,-0.00010828,-0.0272293,-0.000674649,0,
6,0.0347975,-0.00167897,-0.0271243,-0.000593606,0,
6,0.0313344,-0.00313451,-0.0270307,-0.000520145,0,
6,0.0281964,-0.00448397,-0.0269479,-0.000453664,0,
6,0.0253561,-0.00573565,-0.026875,-0.000393533,0,
6,0.0227875,-0.00689718,-0.0268112,-0.000339173,0,
6,0.0204662,-0.00797551,-0.0267555,-0.000290048,0,
6,0.0183694,-0.00897681,-0.0267073,-0.000245666,0,
6,0.016476,-0.00990636,-0.0266657,-0.000205574,0,
6,0.0147664,-0.0107684,-0.0266304,-0.000169364,0,
6,0.0132228,-0.0115657,-0.0266,-0.000136679,0,
6,0.0118288,-0.012299,-0.0265751,-0.000107219,0,
6,0.0105693,-0.0129665,-0.0265538,-8.07662e-05,0,
6,0.00943073,-0.0135614,-0.0265374,-5.72241e-05,0,
6,0.00840063,-0.0140704,-0.0265233,-3.66846e-05,0,
6,0.00746774,-0.0144693,-0.0265139,-1.95143e-05,0,
6,0.00662185,-0.0147201,-0.0265054,-6.36853e-06,0,
6,0.00585371,-0.0147714,-0.0265013,2.08225e-06,0,
6,0.00515491,-0.0145699,-0.0264968,5.82675e-06,0,
6,0.00451788,-0.0140855,-0.026496,6.02125e-06,0,
6,0.00393573,-0.0133304,-0.0264934,4.50523e-06,0,
6,0.00340221,-0.0123523,-0.0264942,2.76116e-06,0,
6,0.00291168,-0.0112104,-0.0264919,1.45543e-06,0,
6,0.00245897,-0.00995652,-0.0264934,6.70846e-07,0,
6,0.00203939,-0.00862892,-0.0264909,2.68394e-07,0,
6,0.00164864,-0.00725315,-0.026493,9.02772e-08,0,
6,0.00128281,-0.00584511,-0.0264899,2.38946e-08,0,
6,0.000938257,-0.00441372,-0.0264927,4.37494e-09,0,
6,0.000611645,-0.00296284,-0.0264889,4.23016e-10,0,
6,0.000299862,-0.00149252,-0.0264927,1.13966e-11,0,

10,0.000296632,0.00809242,0.0306126,-4.39759e-11,0,
10,0.000596102,0.0162592,0.0306133,-1.62973e-09,0,
10,0.000900397,0.0245546,0.0306126,-1.65695e-08,0,
10,0.00121153,0.0330328,0.0306132,-8.90409e-08,0,
10,0.00153158,0.0417487,0.0306125,-3.3309e-07,0,
10,0.00186264,0.0507558,0.030613,-9.90564e-07,0,
10,0.00220692,0.0601046,0.0306125,-2.51552e-06,0,
10,0.00256668,0.0698384,0.0306128,-5.68476e-06,0,
10,0.00294431,0.0799856,0.0306124,-1.17136e-05,0,
10,0.00334229,0.0905492,0.0306126,-2.23143e-05,0,
10,0.00376326,0.101494,0.0306122,-3.95782e-05,0,
10,0.00421,0.112732,0.0306124,-6.55513e-05,0,
10,0.00468544,0.124119,0.0306119,-0.0001015,0,
10,0.00519274,0.135466,0.0306119,-0.000147157,0,
10,0.00573524,0.146563,0.0306113,-0.000200463,0,
10,0.00631651,0.157213,0.030611,-0.000258071,0,
10,0.00694041,0.167266,0.0306101,-0.000316353,0,
10,0.00761104,0.176627,0.0306093,-0.000372284,0,
10,0.00833284,0.185254,0.0306079,-0.000423872,0,
10,0.00911058,0.193151,0.0306065,-0.000470148,0,
10,0.0099494,0.200352,0.0306043,-0.000510928,0,
10,0.0108548,0.206908,0.0306018,-0.000546548,0,
10,0.0118329,0.212883,0.0305986,-0.000577626,0,
10,0.0128901,0.21834,0.0305948,-0.000604906,0,
10,0.0140333,0.223342,0.0305901,-0.000629151,0,
10,0.0152702,0.227948,0.0305847,-0.000651083,0,
10,0.0166089,0.23221,0.0305781,-0.000671358,0,
10,0.0180584,0.236176,0.0305706,-0.000690555,0,
10,0.0196282,0.239888,0.0305617,-0.000709183,0,
10,0.0213288,0.243382,0.0305516,-0.000727688,0,
10,0.0231714,0.24669,0.0305399,-0.000746465,0,
10,0.0251682,0.24984,0.0305266,-0.000765868,0,
10,0.0273326,0.252858,0.0305114,-0.000786223,0,
10,0.0296789,0.255765,0.0304942,-0.000807834,0,
10,0.0322227,0.258581,0.0304749,-0.000830995,0,
10,0.0349809,0.261324,0.0304531,-0.000855993,0,
10,0.0379719,0.26401,0.0304287,-0.000883116,0,
10,0.0412155,0.266655,0.0304015,-0.000912656,0,
10,0.0447333,0.269273,0.0303712,-0.000944917,0,
10,0.0485489,0.271877,0.0303376,-0.000980213,0,
10,0.0526875,0.274481,0.0303003,-0.00101888,0,
10,0.0571768,0.277099,0.0302592,-0.00106127,0,
10,0.0620466,0.279743,0.030214,-0.00110775,0,
10,0.0673295,0.282427,0.0301643,-0.00115873,0,
10,0.0730607,0.285166,0.0301099,-0.00121465,0,
10,0.0792784,0.287974,0.0300506,-0.00127595,0,
10,0.0860241,0.290867,0.0299861,-0.00134313,0,
10,0.0933428,0.293862,0.0299161,-0.00141671,0,
10,0.101283,0.296979,0.0298406,-0.00149726,0,
10,0.109899,0.300237,0.0297593,-0.00158535,0,
10,0.119247,0.30366,0.0296721,-0.00168161,0,
10,0.12939,0.307273,0.0295791,-0.00178669,0,
10,0.140395,0.311105,0.0294801,-0.00190124,0,
10,0.152337,0.31519,0.0293754,-0.00202594,0,
10,0.165296,0.319564,0.0292649,-0.00216147,0,
10,0.179357,0.324271,0.0291491,-0.00230845,0,
10,0.194615,0.329361,0.0290281,-0.00246748,0,
10,0.211171,0.33489,0.0289023,-0.00263903,0,
10,0.229138,0.340926,0.0287718,-0.00282344,0,
10,0.248635,0.347545,0.0286375,-0.0030208,0,
10,0.269793,0.354837,0.0284984,-0.0032309,0,
10,0.292753,0.362905,0.0283569,-0.00345304,0,
10,0.317669,0.371869,0.0282085,-0.00368455,0,
10,0.344708,0.38186,0.028059,-0.00392134,0,
10,0.372405,0.392407,0.0279128,-0.00415277,0,
10,0.399623,0.403096,0.0277719,-0.00436755,0,
10,0.426397,0.413926,0.0276371,-0.00456181,0,
10,0.452757,0.424895,0.027506,-0.00473758,0,
10,0.478735,0.436009,0.0273806,-0.00489218,0,
10,0.504358,0.447279,0.0272604,-0.00502387,0,
10,0.529657,0.458721,0.0271462,-0.00513297,0,
10,0.554656,0.470344,0.0270307,-0.00521928,0,
10,0.579382,0.482154,0.0269232,-0.00528239,0,
10,0.603859,0.494152,0.0267986,-0.00534341,0,
10,0.628112,0.506439,0.0267185,-0.00537859,0,
10,0.652163,0.519324,0.0267081,-0.00529591,0,
10,0.676035,0.533052,0.0266772,-0.00518408,0,
10,0.699751,0.547527,0.0266103,-0.00504269,0,
10,0.72333,0.56247,0.0265049,-0.00487274,0,
10,0.746795,0.577579,0.026372,-0.00467759,0,
10,0.770165,0.592625,0.0262208,-0.00446178,0,
10,0.79346,0.607459,0.0260574,-0.00423018,0,
10,0.816699,0.621985,0.0258842,-0.00398761,0,
10,0.839903,0.636118,0.0257001,-0.00373932,0,
10,0.863088,0.649751,0.025503,-0.00349733,0,
10,0.886275,0.662781,0.0252945,-0.00326306,0,
10,0.909481,0.675159,0.025077,-0.00303713,0,
10,0.932723,0.686887,0.0248522,-0.00282026,0,
10,0.956021,0.697996,0.0246209,-0.00261317,0,
10,0.97939,0.70852,0.0243829,-0.00241654,0,
10,1.00285,0.718489,0.024138,-0.00223096,0,
10,1.02641,0.727926,0.0238858,-0.00205691,0,
10,1.0501,0.73685,0.0236268,-0.00189474,0,
10,1.07392,0.745287,0.0233608,-0.00174458,0,
10,1.0979,0.753272,0.0230899,-0.00160163,0,
10,1.12205,0.760829,0.0228118,-0.0014722,0,
10,1.14639,0.767958,0.0225248,-0.00135593,0,
10,1.17093,0.77467,0.0222302,-0.00125318,0,
10,1.19568,0.780991,0.0219277,-0.00116422,0,
10,1.22066,0.786961,0.0216178,-0.00108861,0,
10,1.24589,0.792627,0.021301,-0.00102528,0,
10,1.27137,0.798041,0.020977,-0.000972967,0,
10,1.29713,0.803256,0.0206476,-0.000936145,0,
10,1.32317,0.808392,0.0203132,-0.000892218,0,
10,1.34951,0.813579,0.019973,-0.000850672,0,
10,1.37616,0.818844,0.019627,-0.000812148,0,
10,1.40313,0.824134,0.0192731,-0.000776652,0,
10,1.43043,0.829377,0.0189113,-0.000743844,0,
10,1.45807,0.834533,0.0185413,-0.000713052,0,
10,1.48607,0.839608,0.0181639,-0.000683591,0,
10,1.51444,0.844624,0.0177792,-0.000655015,0,
10,1.54318,0.849598,0.0173873,-0.000627165,0,
10,1.57231,0.854522,0.0169878,-0.000600032,0,
10,1.60184,0.859378,0.0165805,-0.000573644,0,
10,1.63178,0.864137,0.0161653,-0.000548015,0,
10,1.66213,0.868775,0.0157426,-0.000523162,0,
10,1.69292,0.873273,0.0153117,-0.000499043,0,
10,1.72416,0.877625,0.0148742,-0.000475469,0,
10,1.75585,0.881856,0.0144273,-0.000450077,0,
10,1.78802,0.886017,0.0139716,-0.000421439,0,
10,1.82067,0.89013,0.0135089,-0.000393589,0,
10,1.85383,0.89418,0.0130375,-0.000364688,0,
10,1.88751,0.898145,0.0125576,-0.000334794,0,
10,1.92173,0.902001,0.0120694,-0.000304274,0,
10,1.95652,0.905721,0.011572,-0.00027356,0,
10,1.9919,0.909282,0.0110664,-0.000243146,0,
10,2.02791,0.912659,0.0105509,-0.00021359,0,
10,2.06456,0.915834,0.0100277,-0.000185135,0,
10,2.10268,0.918845,0.00948181,-0.000157372,0,
10,2.1443,0.921783,0.00888908,-0.000130673,0,
10,2.18977,0.924594,0.00824222,-0.000105178,0,
10,2.23946,0.927199,0.0075395,-8.11923e-05,0,
10,2.29376,0.929511,0.00677535,-5.95471e-05,0,
10,2.35309,0.931449,0.00594752,-4.09322e-05,0,
10,2.4179,0.932942,0.00505201,-2.58649e-05,0,
10,2.48863,0.933943,0.0040872,-1.46218e-05,0,
10,2.56575,0.934449,0.00305103,-7.13287e-06,0,
10,2.64971,0.934512,0.00194334,-2.91511e-06,0,
10,2.74098,0.934253,0.000764221,-1.11514e-06,0,
10,2.83997,0.933848,-0.00048468,-6.97194e-07,0,
10,2.94709,0.933503,-0.00180129,-7.46604e-07,0,
10,3.06269,0.933404,-0.00318229,-7.33781e-07,0,
10,3.18706,0.933666,-0.0046236,-5.51588e-07,0,
10,3.3204,0.934293,-0.00611963,-3.18391e-07,0,
10,3.46281,0.935195,-0.00766317,-1.48011e-07,0,
10,3.61427,0.936225,-0.00924492,-6.29966e-08,0,
10,3.77463,0.937244,-0.0108536,-3.19397e-08,0,
10,3.94358,0.938171,-0.0124765,-2.26227e-08,0,
10,4.12067,0.938988,-0.0140996,-1.95371e-08,0,
10,4.30525,0.939729,-0.0157089,-1.81619e-08,0,
10,4.49655,0.940437,-0.0172904,-1.76497e-08,0,
10,4.6936,0.94114,-0.0188308,-1.79773e-08,0,
10,4.89531,0.941841,-0.020318,-1.96422e-08,0,
10,5.10047,0.942527,-0.0217413,-2.41028e-08,0,
10,5.30776,0.943176,-0.0230915,-3.46033e-08,0,
10,5.51581,0.943773,-0.0243615,-5.78471e-08,0,
10,5.72323,0.944313,-0.0255463,-1.08218e-07,0,
10,5.92863,0.944821,-0.0266426,-2.20807e-07,0,
10,6.13069,0.945364,-0.0276494,-4.87882e-07,0,
10,6.32816,0.946038,-0.0285674,-1.10335e-06,0,
10,6.51991,0.946874,-0.0293991,-2.15276e-06,0,
10,6.70495,0.947647,-0.0301482,-2.34809e-06,0,
10,6.88244,0.947644,-0.0308184,3.62901e-06,0,
10,7.0517,0.945643,-0.0314141,2.66501e-05,0,
10,7.21224,0.940254,-0.0319359,8.00316e-05,0,
10,7.3637,0.930587,-0.0323894,0.000173018,0,
10,7.5059,0.91668,-0.032779,0.000296713,0,
10,7.63878,0.899124,-0.033109,0.000404355,0,
10,7.76243,0.879018,-0.0333889,0.00052339,0,
10,7.87701,0.858131,-0.0336135,0.000645057,0,
10,7.9828,0.837921,-0.0337991,0.000755513,0,
10,8.08014,0.819104,-0.0339481,0.000849682,0,
10,8.16941,0.801765,-0.0340714,0.000928032,0,
10,8.25106,0.785658,-0.0341732,0.000993719,0,
10,8.32554,0.770457,-0.0342597,0.00104998,0,
10,8.39331,0.75588,-0.0343331,0.00109909,0,
10,8.45484,0.74173,-0.0343962,0.00114232,0,
10,8.5106,0.727884,-0.03445,0.0011803,0,
10,8.56104,0.714281,-0.0344964,0.00121327,0,
10,8.60659,0.700904,-0.034536,0.00124132,0,
10,8.64767,0.687758,-0.0345704,0.00126457,0,
10,8.68467,0.674849,-0.0346002,0.00128297,0,
10,8.71795,0.662153,-0.0346261,0.00129306,0,
10,8.74786,0.649641,-0.0346486,0.00129966,0,
10,8.77471,0.63731,-0.034668,0.00130196,0,
10,8.79881,0.625156,-0.0346847,0.00130042,0,
10,8.8204,0.613173,-0.034699,0.00129554,0,
10,8.83975,0.601349,-0.0347114,0.00128783,0,
10,8.85708,0.589672,-0.034722,0.00127777,0,
10,8.87259,0.578124,-0.0347311,0.0012658,0,
10,8.88646,0.566684,-0.0347389,0.00125233,0,
10,8.89886,0.555329,-0.0347455,0.00123769,0,
10,8.90995,0.54403,-0.0347511,0.00122219,0,
10,8.91986,0.532759,-0.0347557,0.00120603,0,
10,8.92872,0.521482,-0.0347597,0.00118939,0,
10,8.93663,0.510163,-0.0347629,0.00117236,0,
10,8.94369,0.498765,-0.0347657,0.00115496,0,
10,8.95,0.487245,-0.0347679,0.00113717,0,
10,8.95564,0.475557,-0.0347699,0.0011189,0,
10,8.96067,0.463653,-0.0347714,0.00110001,0,
10,8.96517,0.451477,-0.0347727,0.00108023,0,
10,8.96918,0.438968,-0.0347737,0.00105924,0,
10,8.97276,0.426057,-0.0347747,0.00103661,0,
10,8.97596,0.412664,-0.0347753,0.00101178,0,
10,8.97882,0.398695,-0.034776,0.000984039,0,
10,8.98137,0.384044,-0.0347763,0.000952437,0,
10,8.98365,0.368583,-0.0347769,0.00091577,0,
10,8.98569,0.352162,-0.034777,0.00087262,0,
10,8.9875,0.334599,-0.0347775,0.000820829,0,
10,8.98913,0.31566,-0.0347774,0.000755311,0,
10,8.99058,0.295114,-0.0347779,0.000677908,0,
10,8.99188,0.272797,-0.0347777,0.000586219,0,
10,8.99304,0.24855,-0.0347782,0.000473462,0,
10,8.99408,0.222331,-0.0347778,0.000347233,0,
10,8.99501,0.19451,-0.0347784,0.000221216,0,
10,8.99583,0.16599,-0.0347779,0.000117264,0,
10,8.99658,0.138035,-0.0347785,5.03581e-05,0,
10,8.99724,0.111763,-0.0347779,1.73789e-05,0,
10,8.99784,0.0877617,-0.0347786,4.77394e-06,0,
10,8.99837,0.0661407,-0.0347779,1.00112e-06,0,
10,8.99885,0.0467657,-0.0347787,1.43406e-07,0,
10,8.99927,0.0294254,-0.0347778,1.0887e-08,0,
10,8.99966,0.0139048,-0.0347788,2.40868e-10,0,
10,0,0,0.0306135,0,0,
10,9,0,-0.0347777,0,0,

0.004,0,0,-0.223191,0,-8.63014e-08,
0.00868226,0,0,-0.223188,0,-1.72422e-07,
0.014062,0,0,-0.223191,0,-2.79224e-07,
0.0201548,0,0,-0.223189,0,-6.84028e-07,
0.0269766,0,0,-0.22319,0,-1.19924e-06,
0.0345437,0,0,-0.22319,0,-1.89574e-06,
0.0428729,0,0,-0.223189,0,-2.61809e-06,
0.051981,0,0,-0.223188,0,-3.3092e-06,
0.0618853,0,0,-0.223185,0,-3.79092e-06,
0.0726036,0,0,-0.223182,0,-3.90629e-06,
0.0841536,0,0,-0.223178,0,-3.43971e-06,
0.0965535,0,0,-0.223174,0,-2.19845e-06,
0.109822,0,0,-0.223169,0,-1.89423e-08,
0.123977,0,0,-0.223166,0,3.17345e-06,
0.139037,0,0,-0.223164,0,7.33443e-06,
0.155022,0,0,-0.223166,0,1.22902e-05,
0.171949,0,0,-0.223173,0,1.77473e-05,
0.189839,0,0,-0.223185,0,2.33416e-05,
0.208709,0,0,-0.223202,0,2.86822e-05,
0.228579,0,0,-0.223225,0,3.34135e-05,
0.249467,0,0,-0.223251,0,3.72462e-05,
0.271391,0,0,-0.223281,0,3.99896e-05,
0.29437,0,0,-0.223311,0,4.15547e-05,
0.31842,0,0,-0.223341,0,4.19568e-05,
0.343559,0,0,-0.22337,0,4.13015e-05,
0.369804,0,0,-0.223395,0,3.97712e-05,
0.39717,0,0,-0.223417,0,3.76053e-05,
0.425672,0,0,-0.223436,0,3.50832e-05,
0.455324,0,0,-0.22345,0,3.25092e-05,
0.48614,0,0,-0.223462,0,3.01987e-05,
0.518132,0,0,-0.223472,0,2.8466e-05,
0.551309,0,0,-0.22348,0,2.761e-05,
0.585683,0,0,-0.22349,0,2.78556e-05,
0.621259,0,0,-0.223503,0,2.92987e-05,
0.658046,0,0,-0.223523,0,3.18955e-05,
0.696047,0,0,-0.223552,0,3.55002e-05,
0.735265,0,0,-0.223593,0,3.99188e-05,
0.7757,0,0,-0.22365,0,4.49531e-05,
0.817352,0,0,-0.223724,0,5.04377e-05,
0.860215,0,0,-0.22382,0,5.62525e-05,
0.904285,0,0,-0.223943,0,6.22782e-05,
0.949552,0,0,-0.224099,0,6.8262e-05,
0.996004,0,0,-0.2243,0,7.37055e-05,
1.04363,0,0,-0.224557,0,7.77954e-05,
1.09241,0,0,-0.224891,0,7.92538e-05,
1.14232,0,0,-0.225323,0,7.62893e-05,
1.19335,0,0,-0.225877,0,6.68092e-05,
1.24546,0,0,-0.226568,0,4.88174e-05,
1.29863,0,0,-0.227403,0,2.09367e-05,
1.35283,0,0,-0.228372,0,-1.7091e-05,
1.40802,0,0,-0.229452,0,-6.42198e-05,
1.46416,0,0,-0.230612,0,-0.000118392,
1.52121,0,0,-0.231816,0,-0.000177166,
1.57913,0,0,-0.233033,0,-0.000238367,
1.63787,0,0,-0.234236,0,-0.000300459,
1.69739,0,0,-0.235404,0,-0.000362592,
1.75761,0,0,-0.236518,0,-0.000424416,
1.81851,0,0,-0.237563,0,-0.000485846,
1.88,0,0,-0.238524,0,-0.000546882,
1.94204,0,0,-0.23939,0,-0.000607521,
2.00457,0,0,-0.240148,0,-0.000667728,
2.06751,0,0,-0.240788,0,-0.00072744,
2.13081,0,0,-0.241298,0,-0.000786578,
2.19439,0,0,-0.241669,0,-0.000845052,
2.25819,0,0,-0.24189,0,-0.00090277,
2.32214,0,0,-0.241954,0,-0.000959633,
2.38617,0,0,-0.241852,0,-0.00101553,
2.4502,0,0,-0.241577,0,-0.00107036,
2.51418,0,0,-0.241121,0,-0.00112399,
2.57803,0,0,-0.240481,0,-0.00117628,
2.64167,0,0,-0.23965,0,-0.00122708,
2.70505,0,0,-0.238625,0,-0.00127625,
2.76808,0,0,-0.237405,0,-0.00132361,
2.83072,0,0,-0.235988,0,-0.00136902,
2.89288,0,0,-0.234376,0,-0.0014123,
2.95451,0,0,-0.232571,0,-0.00145327,
3.01555,0,0,-0.230576,0,-0.0014918,
3.07594,0,0,-0.228398,0,-0.0015277,
3.13561,0,0,-0.226044,0,-0.00156084,
3.19453,0,0,-0.223523,0,-0.00159107,
3.25262,0,0,-0.220846,0,-0.00161831,
3.30985,0,0,-0.218025,0,-0.00164247,
3.36617,0,0,-0.215075,0,-0.00166352,
3.42154,0,0,-0.21201,0,-0.00168147,
3.47591,0,0,-0.208847,0,-0.00169636,
3.52925,0,0,-0.205602,0,-0.00170826,
3.58152,0,0,-0.202291,0,-0.00171731,
3.6327,0,0,-0.19893,0,-0.00172364,
3.68276,0,0,-0.195537,0,-0.00172741,
3.73167,0,0,-0.192125,0,-0.00172879,
3.77941,0,0,-0.188709,0,-0.00172797,
3.82596,0,0,-0.185303,0,-0.00172514,
3.8713,0,0,-0.181919,0,-0.00172049,
3.91543,0,0,-0.178566,0,-0.00171407,
3.95833,0,0,-0.175271,0,-0.0017064,
4,0,0,-0.17201,0,-0.00169741,
4.04167,0,0,-0.16872,0,-0.00168684,
4.08333,0,0,-0.165397,0,-0.00167494,
4.125,0,0,-0.162045,0,-0.00166171,
4.16667,0,0,-0.158668,0,-0.00164717,
4.20833,0,0,-0.15527,0,-0.00163137,
4.25,0,0,-0.151854,0,-0.00161435,
4.29167,0,0,-0.148424,0,-0.00159616,
4.33333,0,0,-0.144985,0,-0.00157684,
4.375,0,0,-0.141538,0,-0.00155644,
4.41667,0,0,-0.138089,0,-0.00153499,
4.45833,0,0,-0.134639,0,-0.00151255,
4.5,0,0,-0.131192,0,-0.00148915,
4.54167,0,0,-0.127751,0,-0.00146483,
4.58333,0,0,-0.124319,0,-0.00143964,
4.625,0,0,-0.120899,0,-0.00141361,
4.66667,0,0,-0.117492,0,-0.00138679,
4.70833,0,0,-0.114103,0,-0.0013592,
4.75,0,0,-0.110733,0,-0.00133089,
4.79167,0,0,-0.107384,0,-0.00130189,
4.83333,0,0,-0.104059,0,-0.00127224,
4.875,0,0,-0.10076,0,-0.00124197,
4.91667,0,0,-0.0974883,0,-0.00121111,
4.95833,0,0,-0.0942463,0,-0.0011797,
5,0,0,-0.0910357,0,-0.00114776,
5.04167,0,0,-0.0878581,0,-0.00111533,
5.08333,0,0,-0.0847152,0,-0.00108243,
5.125,0,0,-0.0816085,0,-0.0010491,
5.16667,0,0,-0.0785392,0,-0.00101536,
5.20833,0,0,-0.0755088,0,-0.000981242,
5.25,0,0,-0.0725185,0,-0.000946774,
5.29167,0,0,-0.0695695,0,-0.000911981,
5.33333,0,0,-0.0666627,0,-0.000876891,
5.375,0,0,-0.0637992,0,-0.000841529,
5.41667,0,0,-0.06098,0,-0.000805923,
5.45833,0,0,-0.0582057,0,-0.000770097,
5.5,0,0,-0.0554773,0,-0.000734078,
5.54167,0,0,-0.0527953,0,-0.000697892,
5.58333,0,0,-0.0501603,0,-0.000661564,
5.625,0,0,-0.0475729,0,-0.00062512,
5.66667,0,0,-0.0450335,0,-0.00058858,
5.70833,0,0,-0.0425425,0,-0.000551966,
5.75,0,0,-0.0401002,0,-0.000515297,
5.79167,0,0,-0.037707,0,-0.000478591,
5.83333,0,0,-0.0353631,0,-0.000441863,
5.875,0,0,-0.0330689,0,-0.000405127,
5.91667,0,0,-0.0308246,0,-0.000368394,
5.95833,0,0,-0.0286308,0,-0.000331678,
6,0,0,-0.026488,0,-0.000294995,
6.04167,0,0,-0.0243968,0,-0.000258373,
6.08333,0,0,-0.0223581,0,-0.000221864,
6.125,0,0,-0.0203728,0,-0.000185549,
6.16667,0,0,-0.0184415,0,-0.000149538,
6.20833,0,0,-0.0165638,0,-0.000113936,
6.25,0,0,-0.0147388,0,-7.88019e-05,
6.29167,0,0,-0.0129652,0,-4.41497e-05,
6.33333,0,0,-0.0112417,0,-9.96522e-06,
6.375,0,0,-0.00956731,0,2.37721e-05,
6.41667,0,0,-0.00794087,0,5.7078e-05,
6.45833,0,0,-0.00636141,0,8.99627e-05,
6.5,0,0,-0.00482798,0,0.000122432,
6.54167,0,0,-0.00333969,0,0.000154492,
6.58333,0,0,-0.00189564,0,0.000186144,
6.625,0,0,-0.000494984,0,0.000217392,
6.66667,0,0,0.000863132,0,0.000248237,
6.70833,0,0,0.00217953,0,0.000278683,
6.75,0,0,0.00345502,0,0.000308729,
6.79167,0,0,0.00469042,0,0.000338378,
6.83333,0,0,0.00588652,0,0.000367629,
6.875,0,0,0.00704411,0,0.000396483,
6.91667,0,0,0.00816397,0,0.000424941,
6.95833,0,0,0.00924688,0,0.000453005,
7,0,0,0.0102936,0,0.000480674,
7.04167,0,0,0.0113049,0,0.000507949,
7.08333,0,0,0.0122816,0,0.000534831,
7.125,0,0,0.0132243,0,0.000561321,
7.16667,0,0,0.0141339,0,0.00058742,
7.20833,0,0,0.0150111,0,0.000613129,
7.25,0,0,0.0158566,0,0.00063845,
7.29167,0,0,0.0166712,0,0.000663384,
7.33333,0,0,0.0174555,0,0.000687933,
7.375,0,0,0.0182103,0,0.0007121,
7.41667,0,0,0.0189362,0,0.000735888,
7.45833,0,0,0.019634,0,0.000759299,
7.5,0,0,0.0203043,0,0.000782339,
7.54167,0,0,0.0209477,0,0.000805013,
7.58333,0,0,0.0215649,0,0.000827329,
7.625,0,0,0.0221567,0,0.000849301,
7.66667,0,0,0.0227235,0,0.000870944,
7.70833,0,0,0.023266,0,0.000892269,
7.75,0,0,0.0237845,0,0.000913284,
7.79167,0,0,0.0242797,0,0.000933989,
7.83333,0,0,0.0247514,0,0.000954376,
7.875,0,0,0.0251998,0,0.000974496,
7.91667,0,0,0.0256355,0,0.000994868,
7.95833,0,0,0.0259929,0,0.00101406,
8,0,0,0.0264265,0,0.00103311,
8.04171,0,0,0.0268747,0,0.00105318,
8.08368,0,0,0.0271926,0,0.001073,
8.12617,0,0,0.0275475,0,0.00109115,
8.16946,0,0,0.0278842,0,0.00110939,
8.21382,0,0,0.0282035,0,0.00112763,
8.25952,0,0,0.0285131,0,0.00114594,
8.30685,0,0,0.0288125,0,0.00116446,
8.35611,0,0,0.0291021,0,0.0011833,
8.40762,0,0,0.0293821,0,0.00120254,
8.46168,0,0,0.0296521,0,0.00122224,
8.51865,0,0,0.0299112,0,0.00124248,
8.57889,0,0,0.0301581,0,0.0012633,
8.64276,0,0,0.0303911,0,0.00128475,
8.71067,0,0,0.0306079,0,0.00130685,
8.78306,0,0,0.0308061,0,0.00132964,
8.86037,0,0,0.0309823,0,0.00135313,
8.94309,0,0,0.0311332,0,0.00137733,
9.03174,0,0,0.0312545,0,0.00140224,
9.12689,0,0,0.0313418,0,0.00142784,
9.22912,0,0,0.0313901,0,0.00145411,
9.33908,0,0,0.0313941,0,0.00148101,
9.45746,0,0,0.0313484,0,0.00150847,
9.58501,0,0,0.0312473,0,0.00153644,
9.72253,0,0,0.0310852,0,0.00156482,
9.87088,0,0,0.0308564,0,0.00159353,
10.031,0,0,0.0305552,0,0.00162245,
10.2039,0,0,0.0301775,0,0.00165145,
10.3906,0,0,0.0297195,0,0.00168043,
10.5924,0,0,0.0291775,0,0.00170923,
10.8105,0,0,0.0285507,0,0.00173772,
11.0463,0,0,0.0278394,0,0.00176578,
11.3012,0,0,0.027044,0,0.00179327,
11.5769,0,0,0.0261689,0,0.00182008,
11.8751,0,0,0.0252197,0,0.00184611,
12.1977,0,0,0.0242039,0,0.00187125,
12.5466,0,0,0.0231313,0,0.00189545,
12.9242,0,0,0.0220133,0,0.00191864,
13.3327,0,0,0.0208632,0,0.00194079,
13.7748,0,0,0.0196956,0,0.0019619,
14.2532,0,0,0.0185256,0,0.00198196,
14.7709,0,0,0.0173686,0,0.00200101,
15.3312,0,0,0.01624,0,0.00201909,
15.9377,0,0,0.0151535,0,0.00203627,
16.594,0,0,0.0141221,0,0.00205262,
17.3044,0,0,0.0131555,0,0.00206823,
18.0733,0,0,0.012261,0,0.00208313,
18.9056,0,0,0.0114427,0,0.00209727,
19.8064,0,0,0.0107013,0,0.00211062,
20.7816,0,0,0.0100342,0,0.00212338,
21.8371,0,0,0.00943438,0,0.00213587,
22.9796,0,0,0.00889191,0,0.00214835,
24.2163,0,0,0.0083934,0,0.00216091,
25.5551,0,0,0.00792335,0,0.00217355,
27.0042,0,0,0.007465,0,0.00218641,
28.5729,0,0,0.0070002,0,0.00219957,
30.271,0,0,0.00651029,0,0.00221303,
32.1091,0,0,0.00597765,0,0.00222675,
34.0989,0,0,0.0053866,0,0.00224065,
36.2529,0,0,0.00471889,0,0.00225466,
38.5845,0,0,0.00396578,0,0.00226869,
41.1085,0,0,0.00316315,0,0.00228256,
43.8407,0,0,0.00215704,0,0.00229408,
46.7983,0,0,0.00111035,0,0.0023012,
50,0,0,0.00204772,0,0.00231758,

