7cfa2477a52cf93e9d37c2a1471c1d799fca145c 
X,Z,x_velocity,cp,uw_b,cf,
1,0,0,-0.221981,0,0,
1,9,0,-0.132043,0,0,
1,8.99969,0.0154539,-0.132042,2.88706e-10,0,
1,8.99934,0.0329859,-0.132042,1.34943e-08,0,
1,8.99894,0.0528934,-0.132042,1.86135e-07,0,
1,8.99848,0.0754908,-0.132042,1.36439e-06,0,
1,8.99797,0.101091,-0.132042,6.81795e-06,0,
1,8.99739,0.12989,-0.132042,2.57951e-05,0,
1,8.99672,0.161688,-0.132042,7.63599e-05,0,
1,8.99597,0.195541,-0.132042,0.000177334,0,
1,8.99512,0.229792,-0.132042,0.000326489,0,
1,8.99416,0.262782,-0.132042,0.000495079,0,
1,8.99306,0.293539,-0.132042,0.000653669,0,
1,8.99182,0.321895,-0.132041,0.000781105,0,
1,8.99041,0.347993,-0.132041,0.000886735,0,
1,8.98881,0.371989,-0.132041,0.000973921,0,
1,8.98699,0.394101,-0.13204,0.00104501,0,
1,8.98494,0.414617,-0.132039,0.00110099,0,
1,8.98261,0.433847,-0.132039,0.00114364,0,
1,8.97996,0.452034,-0.132038,0.00117937,0,
1,8.97696,0.46935,-0.132036,0.00120893,0,
1,8.97356,0.485936,-0.132035,0.00123361,0,
1,8.9697,0.50191,-0.132034,0.00125437,0,
1,8.96533,0.517372,-0.132032,0.00127191,0,
1,8.96038,0.532403,-0.13203,0.00128676,0,
1,8.95476,0.547074,-0.132028,0.00129929,0,
1,8.9484,0.561443,-0.132025,0.00130977,0,
1,8.9412,0.575562,-0.132023,0.00131836,0,
1,8.93303,0.589472,-0.13202,0.00132517,0,
1,8.92379,0.603212,-0.132017,0.00133026,0,
1,8.91333,0.616812,-0.132014,0.00133365,0,
1,8.90149,0.630301,-0.132011,0.0013353,0,
1,8.8881,0.643703,-0.132008,0.00133516,0,
1,8.87295,0.65704,-0.132005,0.00133318,0,
1,8.85584,0.670332,-0.132003,0.00132924,0,
1,8.83651,0.683599,-0.132002,0.00132325,0,
1,8.81469,0.69686,-0.132002,0.00131506,0,
1,8.79007,0.710134,-0.132004,0.00130452,0,
1,8.76232,0.723444,-0.132008,0.00129144,0,
1,8.73107,0.736815,-0.132015,0.00127558,0,
1,8.69591,0.750277,-0.132028,0.00125668,0,
1,8.6564,0.763867,-0.132045,0.00123439,0,
1,8.61206,0.77763,-0.132071,0.00120829,0,
1,8.56236,0.791623,-0.132107,0.00117805,0,
1,8.50675,0.805925,-0.132156,0.00114504,0,
1,8.44464,0.82068,-0.132222,0.0011037,0,
1,8.3754,0.836109,-0.132309,0.00105202,0,
1,8.29839,0.85245,-0.132422,0.000988697,0,
1,8.21296,0.869948,-0.132569,0.000909226,0,
1,8.11843,0.888794,-0.132755,0.000808392,0,
1,8.01417,0.908984,-0.132994,0.00068276,0,
1,7.89956,0.930072,-0.133283,0.000535827,0,
1,7.77403,0.950926,-0.133659,0.0003862,0,
1,7.63711,0.969932,-0.134109,0.000202876,0,
1,7.48842,0.984764,-0.134641,7.48073e-05,0,
1,7.32773,0.9935,-0.135279,1.77648e-05,0,
1,7.15495,0.996645,-0.13602,1.72663e-06,0,
1,6.97022,0.996686,-0.136879,2.08317e-08,0,
1,6.77388,0.996067,-0.13787,3.57375e-09,0,
1,6.56652,0.995953,-0.139009,9.588e-09,0,
1,6.34896,0.996408,-0.140308,1.24108e-08,0,
1,6.12229,0.997134,-0.141779,1.39915e-08,0,
1,5.88784,0.997928,-0.143437,1.4797e-08,0,
1,5.64716,0.998756,-0.145291,1.57153e-08,0,
1,5.40194,0.999647,-0.147351,1.70012e-08,0,
1,5.15407,1.00063,-0.149621,1.86615e-08,0,
1,4.90545,1.00171,-0.152102,2.03603e-08,0,
1,4.65805,1.00288,-0.154787,2.21414e-08,0,
1,4.41376,1.00415,-0.157667,2.39815e-08,0,
1,4.17441,1.00549,-0.160726,2.56461e-08,0,
1,3.94163,1.00684,-0.163941,2.69748e-08,0,
1,3.7169,1.00816,-0.167284,2.85968e-08,0,
1,3.50146,1.00953,-0.170719,3.24661e-08,0,
1,3.29629,1.01126,-0.174213,4.05647e-08,0,
1,3.10217,1.01371,-0.177734,5.09037e-08,0,
1,2.91959,1.01667,-0.181254,9.373e-08,0,
1,2.74885,1.01864,-0.184732,8.27363e-07,0,
1,2.59002,1.0172,-0.188109,-7.56864e-06,0,
1,2.44299,1.01067,-0.191328,-5.65946e-05,0,
1,2.30752,0.999298,-0.194329,-0.000158255,0,
1,2.18321,0.984573,-0.19706,-0.000297763,0,
1,2.06959,0.968087,-0.199559,-0.000417676,0,
1,1.9661,0.951104,-0.201812,-0.000521784,0,
1,1.87215,0.934543,-0.203787,-0.000618879,0,
1,1.78711,0.918904,-0.205524,-0.000704369,0,
1,1.71033,0.904335,-0.20704,-0.000778169,0,
1,1.64119,0.890801,-0.208358,-0.000841797,0,
1,1.57905,0.878186,-0.209498,-0.000897383,0,
1,1.52332,0.866362,-0.210483,-0.00094735,0,
1,1.47342,0.85522,-0.211332,-0.000993493,0,
1,1.42882,0.844666,-0.212044,-0.00102268,0,
1,1.389,0.834611,-0.21264,-0.00104782,0,
1,1.35351,0.824996,-0.213151,-0.00107093,0,
1,1.3219,0.815788,-0.213581,-0.00109137,0,
1,1.29378,0.806969,-0.213946,-0.00110902,0,
1,1.26878,0.798529,-0.214254,-0.00112398,0,
1,1.24659,0.790464,-0.214514,-0.00113675,0,
1,1.22689,0.782768,-0.214734,-0.00114749,0,
1,1.2092,0.775353,-0.214921,-0.00115521,0,
1,1.1932,0.768167,-0.215082,-0.00116061,0,
1,1.1787,0.761196,-0.21522,-0.00116429,0,
1,1.16554,0.754421,-0.215337,-0.00116697,0,
1,1.15357,0.747813,-0.215437,-0.00117024,0,
1,1.14266,0.741332,-0.215522,-0.00117685,0,
1,1.13268,0.734917,-0.215594,-0.00119051,0,
1,1.12354,0.728487,-0.215655,-0.00121613,0,
1,1.11514,0.721932,-0.215708,-0.00125986,0,
1,1.10739,0.715118,-0.215756,-0.0013286,0,
1,1.10022,0.70789,-0.215802,-0.00142945,0,
1,1.09357,0.700085,-0.215849,-0.00156878,0,
1,1.08738,0.691556,-0.215899,-0.00175095,0,
1,1.0816,0.682206,-0.215956,-0.00197711,0,
1,1.07618,0.672013,-0.216019,-0.00224424,0,
1,1.07107,0.661039,-0.21609,-0.00254513,0,
1,1.06626,0.649415,-0.216167,-0.00286957,0,
1,1.06169,0.637309,-0.216249,-0.00320621,0,
1,1.05735,0.624897,-0.216337,-0.00354445,0,
1,1.05321,0.612338,-0.216428,-0.00387562,0,
1,1.04925,0.599761,-0.216521,-0.00419336,0,
1,1.04544,0.587264,-0.216617,-0.0044935,0,
1,1.04177,0.574916,-0.216714,-0.00477365,0,
1,1.03822,0.562765,-0.216811,-0.00503269,0,
1,1.03478,0.550837,-0.216909,-0.00527041,0,
1,1.03144,0.539148,-0.217006,-0.00548717,0,
1,1.02818,0.527703,-0.217104,-0.00568369,0,
1,1.025,0.516501,-0.217201,-0.00586088,0,
1,1.02188,0.505536,-0.217297,-0.00601974,0,
1,1.01882,0.494801,-0.217393,-0.00616129,0,
1,1.01581,0.484284,-0.217488,-0.00628667,0,
1,1.01284,0.473974,-0.217583,-0.00639644,0,
1,1.00988,0.463751,-0.217678,-0.00649233,0,
1,1.00688,0.453495,-0.217774,-0.00657619,0,
1,1.00384,0.443195,-0.217872,-0.00664798,0,
1,1.00076,0.432843,-0.217971,-0.00670801,0,
1,0.997615,0.422424,-0.218072,-0.00675553,0,
1,0.99441,0.411918,-0.218175,-0.00679034,0,
1,0.991131,0.401302,-0.218278,-0.00681208,0,
1,0.987768,0.390549,-0.218383,-0.00682084,0,
1,0.984308,0.379632,-0.21849,-0.00681626,0,
1,0.980739,0.368518,-0.218598,-0.00679784,0,
1,0.977045,0.357174,-0.218708,-0.00676496,0,
1,0.973211,0.345563,-0.218821,-0.00671682,0,
1,0.969219,0.333647,-0.218935,-0.00665247,0,
1,0.965047,0.321381,-0.219051,-0.00657078,0,
1,0.960675,0.308719,-0.219169,-0.00647022,0,
1,0.956077,0.29561,-0.21929,-0.00634861,0,
1,0.951224,0.282002,-0.219413,-0.00620445,0,
1,0.946088,0.267847,-0.219539,-0.00603672,0,
1,0.940633,0.253107,-0.219667,-0.00584321,0,
1,0.934823,0.237742,-0.219797,-0.0056214,0,
1,0.928616,0.221721,-0.21993,-0.00536916,0,
1,0.921967,0.205019,-0.220063,-0.00508446,0,
1,0.914826,0.187619,-0.220197,-0.00476558,0,
1,0.907141,0.169523,-0.22033,-0.00441127,0,
1,0.898852,0.150752,-0.220461,-0.00402108,0,
1,0.889898,0.131364,-0.220589,-0.00359574,0,
1,0.880212,0.111469,-0.220713,-0.00313788,0,
1,0.869723,0.0912633,-0.220832,-0.00265308,0,
1,0.858358,0.0710963,-0.220948,-0.00215247,0,
1,0.846039,0.0515687,-0.221063,-0.00165793,0,
1,0.83269,0.0336312,-0.221183,-0.00120823,0,
1,0.818232,0.0184339,-0.221306,-0.000846747,0,
1,0.802744,0.00678551,-0.221438,-0.000581526,0,
1,0.78635,-0.00146239,-0.221584,-0.000402386,0,
1,0.768969,-0.00718597,-0.221733,-0.000292883,0,
1,0.75053,-0.0113239,-0.221883,-0.000231339,0,
1,0.730977,-0.0145946,-0.222021,-0.000200632,0,
1,0.710271,-0.017453,-0.222147,-0.000188332,0,
1,0.688397,-0.0201593,-0.222258,-0.000186449,0,
1,0.66536,-0.0228573,-0.222355,-0.000188726,0,
1,0.641194,-0.0256233,-0.222438,-0.000191681,0,
1,0.615961,-0.0284842,-0.222506,-0.000193046,0,
1,0.589754,-0.0314303,-0.222558,-0.000191562,0,
1,0.562692,-0.0344243,-0.222593,-0.000186724,0,
1,0.534925,-0.0374092,-0.222608,-0.000178489,0,
1,0.506624,-0.0403134,-0.222603,-0.000167079,0,
1,0.477982,-0.0430554,-0.222575,-0.000152816,0,
1,0.449206,-0.0455465,-0.222526,-0.00013604,0,
1,0.420509,-0.0476928,-0.222456,-0.00011706,0,
1,0.392107,-0.0493973,-0.22237,-9.61645e-05,0,
1,0.364206,-0.0505623,-0.222273,-7.36343e-05,0,
1,0.337003,-0.0510948,-0.222169,-4.97966e-05,0,
1,0.310673,-0.0509127,-0.222066,-2.50903e-05,0,
1,0.28537,-0.0499549,-0.221971,-1.24504e-07,0,
1,0.26122,-0.0481923,-0.221888,2.42974e-05,0,
1,0.238324,-0.0456382,-0.221822,4.72112e-05,0,
1,0.21675,-0.0423551,-0.221776,6.75895e-05,0,
1,0.196544,-0.0384548,-0.221749,8.44835e-05,0,
1,0.177724,-0.0340903,-0.221739,9.7164e-05,0,
1,0.160284,-0.0294404,-0.221743,0.000105277,0,
1,0.144202,-0.0246904,-0.221759,0.00010885,0,
1,0.129436,-0.0200119,-0.221782,0.000108246,0,
1,0.115935,-0.0155467,-0.221808,0.000104057,0,
1,0.103636,-0.0113977,-0.221835,9.70098e-05,0,
1,0.0924701,-0.00762713,-0.221862,8.78782e-05,0,
1,0.0823633,-0.00426268,-0.221887,7.74822e-05,0,
1,0.0732406,-0.00130499,-0.221908,6.68174e-05,0,
1,0.0650269,0.00126451,-0.221926,5.64519e-05,0,
1,0.057648,0.00347777,-0.221942,4.62873e-05,0,
1,0.0510323,0.00537552,-0.221954,3.67184e-05,0,
1,0.0451115,0.00699619,-0.221964,2.78431e-05,0,
1,0.0398209,0.00837059,-0.221971,1.98301e-05,0,
1,0.0351001,0.00951515,-0.221976,1.28892e-05,0,
1,0.0308929,0.0104256,-0.221979,7.27212e-06,0,
1,0.0271475,0.0110769,-0.221981,3.2355e-06,0,
1,0.0238164,0.011434,-0.221981,8.22367e-07,0,
1,0.0208562,0.0114761,-0.221982,-2.6472e-07,0,
1,0.0182274,0.0112185,-0.221982,-5.41151e-07,0,
1,0.0158944,0.0107137,-0.221982,-4.68864e-07,0,
1,0.0138249,0.0100325,-0.221982,-3.15852e-07,0,
1,0.0119898,0.00924285,-0.221982,-1.86435e-07,0,
1,0.0103632,0.00839924,-0.221982,-1.01035e-07,0,
1,0.00892169,0.00754118,-0.221982,-5.13592e-08,0,
1,0.00764438,0.00669566,-0.221982,-2.47175e-08,0,
1,0.00651264,0.00588043,-0.221982,-1.12884e-08,0,
1,0.00550983,0.00510661,-0.221982,-4.87978e-09,0,
1,0.00462115,0.00438061,-0.221982,-1.98316e-09,0,
1,0.00383341,0.00370556,-0.221982,-7.49028e-10,0,
1,0.0031349,0.00308225,-0.221982,-2.58262e-10,0,
1,0.00251518,0.00250984,-0.221982,-7.90919e-11,0,
1,0.00196502,0.00198641,-0.221982,-2.06011e-11,0,
1,0.00147619,0.00150931,-0.221982,-4.24568e-12,0,
1,0.00104139,0.00107547,-0.221982,-6.07576e-13,0,
1,0.000654158,0.000681587,-0.221981,-4.64068e-14,0,
1,0.000308731,0.000324285,-0.221982,-1.0376e-15,0,

4,0,0,-0.18439,0,0,
4,9,0,-0.102197,0,0,
4,8.99969,0.0143344,-0.102197,2.27619e-10,0,
4,8.99934,0.03054,-0.102197,1.05602e-08,0,
4,8.99894,0.0488797,-0.102197,1.44193e-07,0,
4,8.9985,0.0696314,-0.102197,1.0465e-06,0,
4,8.99799,0.0930772,-0.102197,5.19286e-06,0,
4,8.99742,0.119419,-0.102197,1.96501e-05,0,
4,8.99677,0.148566,-0.102196,5.8901e-05,0,
4,8.99605,0.179829,-0.102196,0.000140493,0,
4,8.99522,0.211841,-0.102196,0.000268052,0,
4,8.99429,0.243057,-0.102196,0.000421003,0,
4,8.99324,0.272415,-0.102196,0.000571316,0,
4,8.99205,0.299546,-0.102196,0.000700912,0,
4,8.9907,0.324528,-0.102195,0.000805211,0,
4,8.98919,0.347535,-0.102195,0.000893029,0,
4,8.98747,0.368754,-0.102194,0.00096602,0,
4,8.98553,0.388452,-0.102193,0.00102357,0,
4,8.98334,0.406913,-0.102192,0.00106974,0,
4,8.98087,0.424354,-0.102191,0.00110872,0,
4,8.97807,0.440946,-0.10219,0.00114177,0,
4,8.97491,0.45683,-0.102188,0.00117016,0,
4,8.97134,0.472124,-0.102186,0.00119489,0,
4,8.96731,0.486928,-0.102184,0.00121667,0,
4,8.96276,0.501327,-0.102181,0.00123603,0,
4,8.95762,0.515393,-0.102178,0.00125333,0,
4,8.95182,0.529188,-0.102175,0.00126884,0,
4,8.94526,0.542765,-0.102171,0.00128269,0,
4,8.93787,0.55617,-0.102167,0.00129497,0,
4,8.92952,0.569441,-0.102162,0.00130569,0,
4,8.92011,0.582613,-0.102157,0.00131481,0,
4,8.90949,0.595715,-0.102151,0.00132224,0,
4,8.89751,0.608771,-0.102145,0.00132785,0,
4,8.88402,0.621801,-0.102138,0.00133152,0,
4,8.86881,0.634825,-0.102131,0.00133306,0,
4,8.85169,0.647856,-0.102124,0.00133232,0,
4,8.83242,0.660909,-0.102117,0.00132911,0,
4,8.81074,0.673994,-0.10211,0.00132325,0,
4,8.78637,0.687124,-0.102103,0.00131457,0,
4,8.75901,0.700312,-0.102097,0.00130289,0,
4,8.7283,0.713573,-0.102093,0.00128801,0,
4,8.69387,0.726926,-0.102091,0.00126972,0,
4,8.65533,0.740395,-0.102093,0.00124775,0,
4,8.61222,0.754013,-0.102098,0.0012218,0,
4,8.56407,0.76782,-0.10211,0.0011915,0,
4,8.5104,0.781872,-0.102129,0.00115687,0,
4,8.45065,0.796252,-0.102158,0.00111887,0,
4,8.38429,0.811119,-0.102201,0.0010709,0,
4,8.31073,0.826703,-0.102261,0.00101341,0,
4,8.22941,0.843264,-0.102341,0.000942953,0,
4,8.13974,0.86106,-0.102446,0.000855177,0,
4,8.04115,0.880265,-0.102578,0.000746485,0,
4,7.93313,0.900764,-0.102743,0.000617182,0,
4,7.81519,0.921848,-0.102936,0.000476536,0,
4,7.68693,0.942043,-0.10318,0.000341948,0,
4,7.54803,0.959453,-0.103459,0.000200905,0,
4,7.39831,0.972192,-0.103793,8.80413e-05,0,
4,7.23771,0.979403,-0.104198,2.71036e-05,0,
4,7.06634,0.98205,-0.104664,4.50459e-06,0,
4,6.88453,0.9822,-0.105194,6.20546e-08,0,
4,6.69275,0.981686,-0.105792,-5.47803e-08,0,
4,6.49173,0.981425,-0.106466,3.47096e-08,0,
4,6.28238,0.981565,-0.107227,2.91927e-08,0,
4,6.06579,0.981941,-0.108084,1.63671e-08,0,
4,5.84328,0.982397,-0.109047,1.12213e-08,0,
4,5.61626,0.982872,-0.110121,9.9818e-09,0,
4,5.3863,0.983368,-0.111314,1.0198e-08,0,
4,5.15502,0.983904,-0.11263,1.10033e-08,0,
4,4.92406,0.984493,-0.114074,1.21155e-08,0,
4,4.69507,0.985147,-0.115647,1.34337e-08,0,
4,4.46961,0.985871,-0.11735,1.48119e-08,0,
4,4.24915,0.986647,-0.119181,1.59492e-08,0,
4,4.03501,0.987418,-0.121135,1.65698e-08,0,
4,3.82836,0.988117,-0.123204,1.69771e-08,0,
4,3.63018,0.988754,-0.125378,1.86509e-08,0,
4,3.44125,0.989524,-0.127646,2.48204e-08,0,
4,3.26217,0.990792,-0.129993,8.47582e-08,0,
4,3.09333,0.992838,-0.132403,7.33335e-07,0,
4,2.93497,0.995425,-0.134859,3.32774e-06,0,
4,2.78715,0.997637,-0.137341,6.47065e-06,0,
4,2.64979,0.998257,-0.139825,1.95253e-06,0,
4,2.52268,0.996374,-0.142283,-2.02432e-05,0,
4,2.40551,0.99171,-0.144682,-6.48321e-05,0,
4,2.29789,0.984565,-0.146994,-0.000129712,0,
4,2.19939,0.97557,-0.149198,-0.00020823,0,
4,2.10949,0.965439,-0.151277,-0.000292272,0,
4,2.02768,0.954808,-0.153225,-0.000374363,0,
4,1.95343,0.94418,-0.155039,-0.000448716,0,
4,1.88618,0.93392,-0.156717,-0.000513314,0,
4,1.82542,0.924201,-0.158267,-0.000557549,0,
4,1.77062,0.915079,-0.159692,-0.000594504,0,
4,1.72128,0.906603,-0.160993,-0.000627548,0,
4,1.67693,0.898794,-0.162178,-0.000656812,0,
4,1.63713,0.891646,-0.163255,-0.000682741,0,
4,1.60144,0.885133,-0.164232,-0.000705728,0,
4,1.56949,0.87922,-0.165116,-0.000726181,0,
4,1.54091,0.873869,-0.165912,-0.000744601,0,
4,1.51537,0.869027,-0.166633,-0.000761283,0,
4,1.49167,0.864499,-0.167302,-0.00077671,0,
4,1.46926,0.860182,-0.167947,-0.000789951,0,
4,1.44801,0.856037,-0.168568,-0.000796873,0,
4,1.42781,0.852034,-0.169163,-0.000803568,0,
4,1.40855,0.848158,-0.169733,-0.000808865,0,
4,1.39015,0.844392,-0.170283,-0.000813045,0,
4,1.37252,0.840721,-0.170813,-0.000816596,0,
4,1.3556,0.837127,-0.171326,-0.000819985,0,
4,1.3393,0.833593,-0.171822,-0.000823899,0,
4,1.32357,0.8301,-0.172304,-0.000829126,0,
4,1.30836,0.826626,-0.172773,-0.000836468,0,
4,1.29362,0.823146,-0.173229,-0.000847,0,
4,1.2793,0.819633,-0.173675,-0.000862072,0,
4,1.26537,0.816051,-0.174111,-0.000883355,0,
4,1.25179,0.812362,-0.174538,-0.00091288,0,
4,1.23852,0.808515,-0.174956,-0.00095306,0,
4,1.22554,0.804454,-0.175366,-0.0010067,0,
4,1.21282,0.800112,-0.175769,-0.00107693,0,
4,1.20034,0.795414,-0.176164,-0.00116709,0,
4,1.18806,0.790279,-0.176552,-0.00128051,0,
4,1.17599,0.784627,-0.176933,-0.00142015,0,
4,1.16408,0.778385,-0.177308,-0.00158822,0,
4,1.15233,0.771492,-0.177675,-0.00178577,0,
4,1.14073,0.763915,-0.178036,-0.00201233,0,
4,1.12925,0.755646,-0.17839,-0.00226582,0,
4,1.11788,0.746706,-0.178737,-0.00254268,0,
4,1.10661,0.737139,-0.179077,-0.00283814,0,
4,1.09543,0.727007,-0.179411,-0.00314678,0,
4,1.08432,0.716384,-0.179739,-0.00346295,0,
4,1.07328,0.705344,-0.18006,-0.00378119,0,
4,1.0623,0.693962,-0.180376,-0.00409658,0,
4,1.05136,0.682306,-0.180685,-0.00440478,0,
4,1.04044,0.67042,-0.18099,-0.00470234,0,
4,1.0295,0.658337,-0.181289,-0.00498658,0,
4,1.01855,0.646101,-0.181584,-0.0052549,0,
4,1.00757,0.633755,-0.181874,-0.00550527,0,
4,0.996544,0.621332,-0.182159,-0.00573554,0,
4,0.98547,0.608862,-0.18244,-0.00594415,0,
4,0.974334,0.596371,-0.182716,-0.0061297,0,
4,0.963124,0.583881,-0.182988,-0.00629095,0,
4,0.951826,0.571413,-0.183255,-0.00642666,0,
4,0.940428,0.558984,-0.183517,-0.00653614,0,
4,0.928915,0.54661,-0.183781,-0.00664664,0,
4,0.917272,0.534204,-0.184003,-0.00670005,0,
4,0.905481,0.521596,-0.184176,-0.00673936,0,
4,0.893524,0.508665,-0.184344,-0.00678569,0,
4,0.881383,0.495342,-0.184508,-0.00683867,0,
4,0.869035,0.481578,-0.184677,-0.00689795,0,
4,0.856459,0.467337,-0.184848,-0.00696307,0,
4,0.843629,0.452588,-0.185024,-0.0070334,0,
4,0.830518,0.437306,-0.185204,-0.00710815,0,
4,0.817097,0.421471,-0.185388,-0.00718638,0,
4,0.803334,0.405065,-0.185573,-0.00726709,0,
4,0.789195,0.388077,-0.185759,-0.00734922,0,
4,0.774643,0.370496,-0.185946,-0.00743165,0,
4,0.759639,0.35231,-0.186131,-0.00751315,0,
4,0.744138,0.333511,-0.186316,-0.00759227,0,
4,0.728096,0.314095,-0.1865,-0.00766721,0,
4,0.711463,0.294069,-0.186684,-0.00773623,0,
4,0.694189,0.273453,-0.186868,-0.00779658,0,
4,0.676218,0.252279,-0.187051,-0.00784466,0,
4,0.657495,0.23059,-0.187233,-0.00787671,0,
4,0.637962,0.208435,-0.187412,-0.00788921,0,
4,0.617561,0.185855,-0.187582,-0.00787949,0,
4,0.596848,0.163498,-0.187734,-0.00784595,0,
4,0.576557,0.142119,-0.187864,-0.00778936,0,
4,0.556564,0.121584,-0.187972,-0.00771096,0,
4,0.536763,0.10178,-0.188061,-0.00761184,0,
4,0.517057,0.0826342,-0.188141,-0.00749275,0,
4,0.497368,0.0641377,-0.188224,-0.00735464,0,
4,0.477632,0.0463505,-0.188328,-0.0071996,0,
4,0.457804,0.029372,-0.188455,-0.0070315,0,
4,0.437857,0.013267,-0.188616,-0.00685805,0,
4,0.417786,-0.00206019,-0.188654,-0.00666183,0,
4,0.397605,-0.0169046,-0.188552,-0.00635354,0,
4,0.377348,-0.0314397,-0.188443,-0.00608583,0,
4,0.357066,-0.0455862,-0.188316,-0.00581899,0,
4,0.336828,-0.0592359,-0.18817,-0.00554344,0,
4,0.316717,-0.0723011,-0.18801,-0.0052588,0,
4,0.296825,-0.084714,-0.187838,-0.00496603,0,
4,0.27725,-0.0964254,-0.187659,-0.00466707,0,
4,0.258095,-0.107402,-0.187474,-0.00436414,0,
4,0.239458,-0.117625,-0.187286,-0.00405974,0,
4,0.221432,-0.127091,-0.187096,-0.00375644,0,
4,0.2041,-0.135806,-0.186906,-0.00345677,0,
4,0.187537,-0.143788,-0.186719,-0.00316313,0,
4,0.171798,-0.151065,-0.186534,-0.00287771,0,
4,0.156928,-0.157668,-0.186353,-0.00260238,0,
4,0.142956,-0.163635,-0.186177,-0.00233869,0,
4,0.129894,-0.169005,-0.186008,-0.00208785,0,
4,0.117744,-0.173818,-0.185847,-0.00185072,0,
4,0.106492,-0.178113,-0.185693,-0.00162783,0,
4,0.0961173,-0.181928,-0.185548,-0.00141943,0,
4,0.0865883,-0.185298,-0.185413,-0.00122551,0,
4,0.0778675,-0.188255,-0.185287,-0.00104585,0,
4,0.0699123,-0.190828,-0.185172,-0.000880048,0,
4,0.062677,-0.193044,-0.185067,-0.000727581,0,
4,0.056114,-0.194922,-0.184972,-0.000587821,0,
4,0.0501747,-0.196481,-0.184886,-0.000460081,0,
4,0.0448114,-0.197735,-0.18481,-0.000343639,0,
4,0.039977,-0.198692,-0.184743,-0.000237767,0,
4,0.0356266,-0.199356,-0.184683,-0.000141752,0,
4,0.0317171,-0.199726,-0.184632,-5.4922e-05,0,
4,0.0282081,-0.199794,-0.184587,2.33341e-05,0,
4,0.0250617,-0.199544,-0.184549,9.35374e-05,0,
4,0.0222427,-0.198947,-0.184516,0.000156084,0,
4,0.0197189,-0.197962,-0.184488,0.000211195,0,
4,0.0174603,-0.19653,-0.184465,0.000258834,0,
4,0.0154398,-0.194564,-0.184447,0.000298591,0,
4,0.0136326,-0.191942,-0.184431,0.000329505,0,
4,0.0120162,-0.188494,-0.184419,0.000349834,0,
4,0.0105703,-0.183989,-0.18441,0.000356881,0,
4,0.00927657,-0.178134,-0.184404,0.000347168,0,
4,0.00811839,-0.170595,-0.184399,0.000317551,0,
4,0.0070809,-0.16108,-0.184396,0.000267745,0,
4,0.0061507,-0.149487,-0.184394,0.000203361,0,
4,0.00531578,-0.136065,-0.184393,0.000136298,0,
4,0.00456537,-0.121424,-0.184392,7.96879e-05,0,
4,0.00388979,-0.106345,-0.184392,4.06499e-05,0,
4,0.00328037,-0.0914976,-0.184391,1.82112e-05,0,
4,0.00272934,-0.0772995,-0.184391,7.18505e-06,0,
4,0.0022297,-0.063935,-0.184391,2.47064e-06,0,
4,0.00177519,-0.0514419,-0.184391,7.17235e-07,0,
4,0.00136016,-0.0397836,-0.184391,1.64629e-07,0,
4,0.000979511,-0.0288915,-0.184391,2.62886e-08,0,
4,0.00062865,-0.0186857,-0.184391,2.23703e-09,0,
4,0.000303409,-0.00908352,-0.184391,5.4379e-11,0,

6,0,0,-0.0315698,0,0,
6,9,0,-0.0780875,0,0,
6,8.99969,0.0135712,-0.0780872,1.89329e-10,0,
6,8.99934,0.0288756,-0.0780874,8.73815e-09,0,
6,8.99895,0.0461519,-0.0780872,1.18471e-07,0,
6,8.9985,0.0656524,-0.0780873,8.53773e-07,0,
6,8.99801,0.0876364,-0.0780871,4.21421e-06,0,
6,8.99744,0.112303,-0.0780872,1.59357e-05,0,
6,8.99681,0.139622,-0.0780871,4.8129e-05,0,
6,8.99609,0.169059,-0.0780871,0.000116859,0,
6,8.99529,0.199452,-0.0780869,0.000228675,0,
6,8.99438,0.229365,-0.0780869,0.000368747,0,
6,8.99336,0.257701,-0.0780866,0.000511387,0,
6,8.9922,0.28397,-0.0780864,0.000639303,0,
6,8.9909,0.308176,-0.078086,0.000742714,0,
6,8.98944,0.330481,-0.0780856,0.000829737,0,
6,8.98779,0.351058,-0.078085,0.000902897,0,
6,8.98593,0.370154,-0.0780843,0.000960869,0,
6,8.98383,0.388029,-0.0780834,0.00100836,0,
6,8.98147,0.404892,-0.0780824,0.00104858,0,
6,8.97881,0.420907,-0.0780812,0.00108301,0,
6,8.97581,0.436214,-0.0780797,0.00111296,0,
6,8.97244,0.450933,-0.078078,0.00113944,0,
6,8.96863,0.465163,-0.0780759,0.0011632,0,
6,8.96435,0.47899,-0.0780735,0.00118478,0,
6,8.95953,0.492489,-0.0780707,0.0012046,0,
6,8.95409,0.505723,-0.0780675,0.00122292,0,
6,8.94798,0.518747,-0.0780637,0.00123991,0,
6,8.94109,0.531611,-0.0780593,0.00125567,0,
6,8.93334,0.544358,-0.0780544,0.0012702,0,
6,8.92463,0.557024,-0.0780487,0.00128347,0,
6,8.91482,0.569643,-0.0780423,0.00129536,0,
6,8.90379,0.582242,-0.078035,0.00130572,0,
6,8.89139,0.594845,-0.0780269,0.00131437,0,
6,8.87746,0.607473,-0.0780179,0.00132107,0,
6,8.86181,0.620143,-0.078008,0.00132559,0,
6,8.84423,0.632868,-0.077997,0.00132767,0,
6,8.82452,0.645658,-0.0779851,0.00132703,0,
6,8.80241,0.658524,-0.0779722,0.00132341,0,
6,8.77763,0.671472,-0.0779584,0.00131657,0,
6,8.74989,0.68451,-0.0779437,0.00130627,0,
6,8.71885,0.697648,-0.0779283,0.00129227,0,
6,8.68417,0.710896,-0.0779123,0.00127434,0,
6,8.64545,0.72427,-0.0778959,0.00125223,0,
6,8.60229,0.737793,-0.0778795,0.00122566,0,
6,8.55423,0.751495,-0.0778634,0.00119432,0,
6,8.50082,0.765417,-0.077848,0.00115855,0,
6,8.44155,0.779633,-0.0778348,0.00111766,0,
6,8.37592,0.794271,-0.0778247,0.00106997,0,
6,8.30339,0.809533,-0.0778183,0.0010139,0,
6,8.22344,0.825676,-0.077816,0.000946551,0,
6,8.13555,0.842996,-0.077819,0.000864195,0,
6,8.0392,0.86174,-0.0778235,0.00076343,0,
6,7.93391,0.881897,-0.0778303,0.000644051,0,
6,7.81927,0.902875,-0.0778285,0.000512739,0,
6,7.6949,0.923288,-0.0778257,0.000384564,0,
6,7.56054,0.941297,-0.0778112,0.000269244,0,
6,7.41603,0.955297,-0.077792,0.000138391,0,
6,7.26132,0.964322,-0.0777756,5.48307e-05,0,
6,7.09653,0.96864,-0.0777487,1.4037e-05,0,
6,6.92195,0.969719,-0.0777137,8.79831e-07,0,
6,6.73802,0.969312,-0.0776635,-8.79008e-07,0,
6,6.5454,0.968646,-0.0775964,-3.98472e-07,0,
6,6.34489,0.968214,-0.0775098,-9.98365e-08,0,
6,6.1375,0.96803,-0.0774019,-2.21446e-08,0,
6,5.92439,0.967957,-0.0772697,-7.46788e-09,0,
6,5.70687,0.967886,-0.0771094,-4.47762e-09,0,
6,5.48633,0.967775,-0.0769171,-3.76229e-09,0,
6,5.26426,0.967621,-0.0766882,-3.77694e-09,0,
6,5.04218,0.967435,-0.076418,-4.06846e-09,0,
6,4.82159,0.96723,-0.0761019,-4.44508e-09,0,
6,4.60398,0.967016,-0.0757354,-4.89895e-09,0,
6,4.39071,0.966791,-0.0753144,-5.62953e-09,0,
6,4.18307,0.966523,-0.0748357,-6.98765e-09,0,
6,3.98218,0.966146,-0.0742969,-9.18101e-09,0,
6,3.78902,0.965604,-0.0736972,-1.18155e-08,0,
6,3.60438,0.964926,-0.0730371,-1.52888e-08,0,
6,3.42888,0.964294,-0.0723189,-3.11035e-08,0,
6,3.26296,0.964005,-0.0715458,-6.44126e-08,0,
6,3.10691,0.964296,-0.0707214,3.04929e-08,0,
6,2.96084,0.965113,-0.0698501,4.62361e-07,0,
6,2.82473,0.966038,-0.0689387,3.4601e-07,0,
6,2.69844,0.966417,-0.0679969,-3.55021e-06,0,
6,2.58172,0.965631,-0.0670369,-1.59032e-05,0,
6,2.47424,0.963296,-0.0660717,-4.0432e-05,0,
6,2.37559,0.959333,-0.0651141,-7.83201e-05,0,
6,2.28535,0.953913,-0.0641758,-0.000128206,0,
6,2.20301,0.947353,-0.0632667,-0.000187047,0,
6,2.1281,0.940024,-0.0623949,-0.000251006,0,
6,2.06009,0.932286,-0.0615666,-0.000316108,0,
6,1.99849,0.924449,-0.0607849,-0.000378556,0,
6,1.9428,0.916774,-0.0600545,-0.000435349,0,
6,1.89255,0.909447,-0.059371,-0.000486075,0,
6,1.84728,0.902548,-0.0587434,-0.000527025,0,
6,1.80655,0.896075,-0.0581714,-0.000557209,0,
6,1.76996,0.890031,-0.057641,-0.000584887,0,
6,1.73712,0.884436,-0.0571574,-0.000610228,0,
6,1.70768,0.879262,-0.0567133,-0.000633692,0,
6,1.67998,0.874278,-0.0562906,-0.000656421,0,
6,1.65329,0.869386,-0.055876,-0.000678617,0,
6,1.62754,0.864584,-0.05547,-0.00070025,0,
6,1.60265,0.85987,-0.0550718,-0.000721331,0,
6,1.57854,0.855243,-0.0546809,-0.000741851,0,
6,1.55515,0.850698,-0.0542967,-0.000761846,0,
6,1.53242,0.846231,-0.0539189,-0.000781334,0,
6,1.5103,0.841835,-0.0535472,-0.00080032,0,
6,1.48874,0.837495,-0.0531812,-0.000818845,0,
6,1.46769,0.8332,-0.0528199,-0.000837078,0,
6,1.44712,0.828946,-0.0524622,-0.000855399,0,
6,1.42698,0.824752,-0.0521051,-0.000874328,0,
6,1.40725,0.820659,-0.0517492,-0.000894156,0,
6,1.38788,0.816703,-0.0513906,-0.000914378,0,
6,1.36886,0.812862,-0.0510465,-0.000928079,0,
6,1.35015,0.809069,-0.0507137,-0.000932813,0,
6,1.33173,0.805277,-0.0503782,-0.000941856,0,
6,1.31357,0.801471,-0.050047,-0.000952109,0,
6,1.29566,0.797634,-0.0497169,-0.000964111,0,
6,1.27797,0.793747,-0.0493891,-0.000978816,0,
6,1.26048,0.789783,-0.0490627,-0.000997451,0,
6,1.24318,0.785714,-0.0487378,-0.00102155,0,
6,1.22605,0.781501,-0.0484142,-0.00105296,0,
6,1.20907,0.777099,-0.0480917,-0.00109385,0,
6,1.19223,0.772455,-0.0477703,-0.00114664,0,
6,1.17551,0.767509,-0.0474498,-0.00121395,0,
6,1.1589,0.762196,-0.0471301,-0.00129838,0,
6,1.14238,0.756446,-0.0468113,-0.00140232,0,
6,1.12595,0.750193,-0.0464934,-0.0015276,0,
6,1.10959,0.743383,-0.0461764,-0.00167519,0,
6,1.09329,0.735974,-0.0458606,-0.00184494,0,
6,1.07704,0.727946,-0.0455463,-0.00203539,0,
6,1.06081,0.719298,-0.0452337,-0.00224376,0,
6,1.04459,0.710049,-0.0449229,-0.00246619,0,
6,1.02836,0.700241,-0.0446144,-0.00269794,0,
6,1.01211,0.689931,-0.0443082,-0.00293371,0,
6,0.99583,0.679186,-0.0440052,-0.00316809,0,
6,0.97951,0.668074,-0.0437044,-0.00339603,0,
6,0.963136,0.656665,-0.0434085,-0.00362175,0,
6,0.946694,0.64497,-0.0431086,-0.00383254,0,
6,0.930172,0.632903,-0.0428011,-0.00402854,0,
6,0.913555,0.620368,-0.0424954,-0.00422907,0,
6,0.896829,0.607303,-0.042192,-0.0044366,0,
6,0.879979,0.59367,-0.0418925,-0.00465286,0,
6,0.862989,0.579452,-0.0415972,-0.00487914,0,
6,0.845842,0.564647,-0.0413071,-0.00511652,0,
6,0.828521,0.549254,-0.0410242,-0.00536223,0,
6,0.811008,0.533268,-0.0407504,-0.00561517,0,
6,0.793282,0.516687,-0.0404861,-0.00587433,0,
6,0.775322,0.499514,-0.040232,-0.00613824,0,
6,0.757107,0.481759,-0.0399884,-0.00640488,0,
6,0.738612,0.463443,-0.0397561,-0.00667169,0,
6,0.719813,0.444596,-0.039536,-0.00693564,0,
6,0.700681,0.425258,-0.0393291,-0.0071933,0,
6,0.681188,0.405473,-0.0391356,-0.00744086,0,
6,0.661304,0.385287,-0.0389546,-0.00767423,0,
6,0.640996,0.364737,-0.0387835,-0.00788905,0,
6,0.620228,0.343851,-0.0386191,-0.00808053,0,
6,0.598964,0.322658,-0.0384609,-0.00824324,0,
6,0.577166,0.301234,-0.0383189,-0.00837098,0,
6,0.554791,0.279763,-0.038215,-0.00845765,0,
6,0.531799,0.258583,-0.0381944,-0.00849932,0,
6,0.508144,0.238143,-0.038273,-0.00849596,0,
6,0.48378,0.21877,-0.0384749,-0.00845081,0,
6,0.459585,0.200975,-0.0384467,-0.00827373,0,
6,0.436695,0.184972,-0.0382258,-0.00796269,0,
6,0.414961,0.170282,-0.0380713,-0.00770383,0,
6,0.394252,0.156724,-0.0379083,-0.007435,0,
6,0.374445,0.144157,-0.037753,-0.00716069,0,
6,0.355433,0.132464,-0.0376014,-0.00688095,0,
6,0.337122,0.121544,-0.0374514,-0.00659688,0,
6,0.319433,0.111314,-0.0373013,-0.0063095,0,
6,0.3023,0.101702,-0.0371495,-0.0060196,0,
6,0.28567,0.0926495,-0.0369943,-0.00572793,0,
6,0.269507,0.0841098,-0.0368342,-0.00543527,0,
6,0.253785,0.0760444,-0.036668,-0.00514244,0,
6,0.238493,0.0684229,-0.0364946,-0.00485041,0,
6,0.223631,0.0612212,-0.0363129,-0.00456024,0,
6,0.209207,0.0544204,-0.0361226,-0.00427309,0,
6,0.195237,0.0480047,-0.0359234,-0.00399023,0,
6,0.181744,0.0419611,-0.0357154,-0.003713,0,
6,0.168754,0.0362777,-0.0354992,-0.00344273,0,
6,0.156292,0.0309431,-0.0352759,-0.00318073,0,
6,0.144384,0.025946,-0.0350469,-0.0029282,0,
6,0.133052,0.0212748,-0.034814,-0.00268626,0,
6,0.122315,0.016917,-0.0345791,-0.0024558,0,
6,0.112183,0.0128601,-0.0343445,-0.00223755,0,
6,0.102665,0.00909098,-0.0341126,-0.002032,0,
6,0.0937597,0.00559628,-0.0338857,-0.00183947,0,
6,0.0854609,0.00236254,-0.0336662,-0.00166004,0,
6,0.077757,-0.000624588,-0.0334563,-0.00149343,0,
6,0.0706309,-0.00338085,-0.0332574,-0.00133895,0,
6,0.0640611,-0.00592237,-0.0330707,-0.00119641,0,
6,0.0580229,-0.00826408,-0.032897,-0.00106552,0,
6,0.0524888,-0.0104196,-0.0327369,-0.000945637,0,
6,0.0474296,-0.0124019,-0.0325903,-0.000836077,0,
6,0.042815,-0.0142232,-0.0324571,-0.000736169,0,
6,0.0386145,-0.0158953,-0.0323368,-0.000645248,0,
6,0.0347975,-0.017429,-0.0322288,-0.000562648,0,
6,0.0313344,-0.0188343,-0.0321324,-0.000487719,0,
6,0.0281964,-0.0201204,-0.0320469,-0.000419833,0,
6,0.0253561,-0.0212952,-0.0319714,-0.00035839,0,
6,0.0227875,-0.0223658,-0.0319053,-0.000302827,0,
6,0.0204662,-0.023338,-0.0318474,-0.000252622,0,
6,0.0183694,-0.0242161,-0.0317974,-0.000207297,0,
6,0.016476,-0.0250028,-0.0317541,-0.000166424,0,
6,0.0147664,-0.025699,-0.0317174,-0.000129632,0,
6,0.0132228,-0.0263027,-0.0316858,-9.66184e-05,0,
6,0.0118288,-0.026808,-0.0316599,-6.71724e-05,0,
6,0.0105693,-0.0272038,-0.0316378,-4.12106e-05,0,
6,0.00943073,-0.0274709,-0.0316208,-1.88392e-05,0,
6,0.00840063,-0.0275789,-0.0316062,-4.37178e-07,0,
6,0.00746774,-0.0274821,-0.0315965,1.32906e-05,0,
6,0.00662185,-0.0271186,-0.0315878,2.14615e-05,0,
6,0.00585371,-0.0264187,-0.0315836,2.36293e-05,0,
6,0.00515491,-0.0253304,-0.031579,2.07056e-05,0,
6,0.00451788,-0.0238538,-0.0315783,1.5101e-05,0,
6,0.00393573,-0.0220519,-0.0315756,9.43437e-06,0,
6,0.00340221,-0.020022,-0.0315764,5.17431e-06,0,
6,0.00291168,-0.0178568,-0.031574,2.53037e-06,0,
6,0.00245897,-0.0156246,-0.0315756,1.10514e-06,0,
6,0.00203939,-0.0133683,-0.031573,4.24563e-07,0,
6,0.00164864,-0.011112,-0.0315751,1.38342e-07,0,
6,0.00128281,-0.00886732,-0.031572,3.569e-08,0,
6,0.000938257,-0.00663765,-0.0315749,6.39749e-09,0,
6,0.000611645,-0.00442093,-0.0315709,6.0759e-10,0,
6,0.000299862,-0.00221129,-0.0315749,1.61195e-11,0,

10,0.000296632,0.00796218,0.0315699,-4.23507e-11,0,
10,0.000596102,0.0159975,0.0315706,-1.56949e-09,0,
10,0.000900397,0.0241591,0.0315699,-1.5957e-08,0,
10,0.00121153,0.0325007,0.0315704,-8.57514e-08,0,
10,0.00153158,0.041076,0.0315698,-3.20806e-07,0,
10,0.00186264,0.0499379,0.0315703,-9.54178e-07,0,
10,0.00220692,0.0591363,0.0315697,-2.42381e-06,0,
10,0.00256668,0.0687139,0.0315701,-5.48019e-06,0,
10,0.00294431,0.0786995,0.0315696,-1.13009e-05,0,
10,0.00334229,0.0890971,0.0315699,-2.15527e-05,0,
10,0.00376326,0.0998731,0.0315695,-3.82875e-05,0,
10,0.00421,0.110943,0.0315696,-6.35404e-05,0,
10,0.00468544,0.122167,0.0315691,-9.86162e-05,0,
10,0.00519274,0.133357,0.0315691,-0.000143334,0,
10,0.00573524,0.144305,0.0315685,-0.000195734,0,
10,0.00631651,0.154815,0.0315682,-0.00025254,0,
10,0.00694041,0.164736,0.0315672,-0.000310145,0,
10,0.00761104,0.173971,0.0315665,-0.00036551,0,
10,0.00833284,0.182478,0.031565,-0.000416617,0,
10,0.00911058,0.190261,0.0315635,-0.000462472,0,
10,0.0099494,0.197353,0.0315612,-0.000502881,0,
10,0.0108548,0.203807,0.0315587,-0.000538174,0,
10,0.0118329,0.209685,0.0315553,-0.000568971,0,
10,0.0128901,0.215052,0.0315514,-0.000596019,0,
10,0.0140333,0.219971,0.0315465,-0.000620082,0,
10,0.0152702,0.224499,0.0315409,-0.000641883,0,
10,0.0166089,0.22869,0.0315341,-0.000662076,0,
10,0.0180584,0.232591,0.0315263,-0.00068124,0,
10,0.0196282,0.236243,0.0315172,-0.000699879,0,
10,0.0213288,0.239682,0.0315067,-0.000718439,0,
10,0.0231714,0.24294,0.0314946,-0.000737311,0,
10,0.0251682,0.246045,0.0314808,-0.00075685,0,
10,0.0273326,0.249021,0.0314652,-0.000777378,0,
10,0.0296789,0.25189,0.0314475,-0.000799201,0,
10,0.0322227,0.254672,0.0314276,-0.000822612,0,
10,0.0349809,0.257384,0.0314052,-0.000847898,0,
10,0.0379719,0.260043,0.0313801,-0.000875349,0,
10,0.0412155,0.262663,0.0313522,-0.000905258,0,
10,0.0447333,0.265259,0.031321,-0.00093793,0,
10,0.0485489,0.267844,0.0312865,-0.000973684,0,
10,0.0526875,0.270433,0.0312483,-0.00101286,0,
10,0.0571768,0.273038,0.0312062,-0.0010558,0,
10,0.0620466,0.275673,0.0311598,-0.0011029,0,
10,0.0673295,0.278351,0.031109,-0.00115455,0,
10,0.0730607,0.281088,0.0310534,-0.0012112,0,
10,0.0792784,0.283897,0.0309929,-0.0012733,0,
10,0.0860241,0.286795,0.0309271,-0.00134135,0,
10,0.0933428,0.2898,0.0308558,-0.00141587,0,
10,0.101283,0.292931,0.0307789,-0.00149744,0,
10,0.109899,0.296209,0.0306963,-0.00158663,0,
10,0.119247,0.299658,0.0306078,-0.00168407,0,
10,0.12939,0.303304,0.0305135,-0.00179041,0,
10,0.140395,0.307178,0.0304133,-0.0019063,0,
10,0.152337,0.311312,0.0303075,-0.00203242,0,
10,0.165296,0.315747,0.030196,-0.00216942,0,
10,0.179357,0.320527,0.0300793,-0.00231792,0,
10,0.194615,0.325703,0.0299575,-0.00247848,0,
10,0.211171,0.331336,0.0298311,-0.00265154,0,
10,0.229138,0.337495,0.0297001,-0.00283737,0,
10,0.248635,0.344259,0.0295654,-0.00303602,0,
10,0.269793,0.351723,0.029426,-0.00324714,0,
10,0.292753,0.359994,0.0292843,-0.00346991,0,
10,0.317669,0.369198,0.0291356,-0.00370145,0,
10,0.344708,0.37947,0.0289856,-0.00393731,0,
10,0.372405,0.390328,0.0288386,-0.00416699,0,
10,0.399623,0.401346,0.0286964,-0.00437917,0,
10,0.426397,0.412519,0.0285602,-0.00456977,0,
10,0.452757,0.423845,0.028427,-0.00474081,0,
10,0.478735,0.435326,0.0282991,-0.0048896,0,
10,0.504358,0.446973,0.0281753,-0.00501431,0,
10,0.529657,0.458796,0.028056,-0.00511595,0,
10,0.554656,0.4708,0.0279344,-0.00519402,0,
10,0.579382,0.482988,0.02782,-0.00524815,0,
10,0.603859,0.495358,0.0276879,-0.00529732,0,
10,0.628112,0.508003,0.027597,-0.0053224,0,
10,0.652163,0.521218,0.0275729,-0.00523091,0,
10,0.676035,0.535233,0.0275284,-0.00510983,0,
10,0.699751,0.549935,0.0274482,-0.0049594,0,
10,0.72333,0.565038,0.0273304,-0.00478129,0,
10,0.746795,0.580243,0.0271856,-0.00457936,0,
10,0.770165,0.595325,0.0270228,-0.00435843,0,
10,0.79346,0.610144,0.0268476,-0.00412352,0,
10,0.816699,0.624605,0.0266627,-0.00387955,0,
10,0.839903,0.638614,0.0264661,-0.00363529,0,
10,0.863088,0.652067,0.0262565,-0.00339804,0,
10,0.886275,0.664886,0.0260366,-0.00316878,0,
10,0.909481,0.677045,0.0258081,-0.00294821,0,
10,0.932723,0.688561,0.0255724,-0.00273707,0,
10,0.956021,0.699467,0.0253297,-0.00253604,0,
10,0.97939,0.709799,0.0250802,-0.00234573,0,
10,1.00285,0.719581,0.0248231,-0.00216668,0,
10,1.02641,0.728837,0.0245589,-0.00199926,0,
10,1.0501,0.73759,0.0242872,-0.00184371,0,
10,1.07392,0.745869,0.0240102,-0.00169875,0,
10,1.0979,0.75371,0.0237275,-0.00156146,0,
10,1.12205,0.761127,0.0234358,-0.00143834,0,
10,1.14639,0.768119,0.0231362,-0.00132791,0,
10,1.17093,0.774705,0.0228283,-0.00123087,0,
10,1.19568,0.780915,0.022513,-0.00114723,0,
10,1.22066,0.786791,0.0221897,-0.00107636,0,
10,1.24589,0.79238,0.0218603,-0.0010171,0,
10,1.27137,0.797734,0.0215226,-0.000968063,0,
10,1.29713,0.802904,0.0211808,-0.000931949,0,
10,1.32317,0.807985,0.0208329,-0.000894833,0,
10,1.34951,0.813106,0.020478,-0.000855226,0,
10,1.37616,0.818326,0.0201189,-0.000817975,0,
10,1.40313,0.823599,0.0197514,-0.000783366,0,
10,1.43043,0.828845,0.0193759,-0.000751236,0,
10,1.45807,0.834013,0.0189916,-0.000720995,0,
10,1.48607,0.839099,0.0185998,-0.000691974,0,
10,1.51444,0.844124,0.0182004,-0.000663724,0,
10,1.54318,0.849106,0.0177937,-0.000636104,0,
10,1.57231,0.854038,0.0173792,-0.000609154,0,
10,1.60184,0.858899,0.0169569,-0.00058296,0,
10,1.63178,0.863656,0.0165264,-0.000557586,0,
10,1.66213,0.868283,0.0160883,-0.00053303,0,
10,1.69292,0.872762,0.0156421,-0.000509182,0,
10,1.72416,0.877101,0.0151885,-0.000485632,0,
10,1.75585,0.881347,0.0147253,-0.000457323,0,
10,1.78802,0.885543,0.0142537,-0.000429318,0,
10,1.82067,0.889692,0.0137745,-0.000400934,0,
10,1.85383,0.893773,0.0132864,-0.000371378,0,
10,1.88751,0.897765,0.0127897,-0.000340903,0,
10,1.92173,0.901644,0.0122843,-0.00030988,0,
10,1.95652,0.905385,0.0117696,-0.000278745,0,
10,1.9919,0.908966,0.0112464,-0.000247966,0,
10,2.02791,0.912361,0.0107132,-0.000218084,0,
10,2.06456,0.915555,0.0101722,-0.000189316,0,
10,2.10268,0.918585,0.0096078,-0.000161229,0,
10,2.1443,0.921543,0.00899504,-0.000134182,0,
10,2.18977,0.924379,0.00832651,-0.000108293,0,
10,2.23946,0.92701,0.00760043,-8.38646e-05,0,
10,2.29376,0.929353,0.00681111,-6.17356e-05,0,
10,2.35309,0.931325,0.00595628,-4.26311e-05,0,
10,2.4179,0.932854,0.0050319,-2.71087e-05,0,
10,2.48863,0.933892,0.00403639,-1.54758e-05,0,
10,2.56575,0.934431,0.00296771,-7.67946e-06,0,
10,2.64971,0.934524,0.00182583,-3.24162e-06,0,
10,2.74098,0.934288,0.000611004,-1.30018e-06,0,
10,2.83997,0.933898,-0.000674925,-8.00935e-07,0,
10,2.94709,0.933564,-0.00202963,-8.07237e-07,0,
10,3.06269,0.933474,-0.00344952,-7.70763e-07,0,
10,3.18706,0.933743,-0.00493021,-5.73422e-07,0,
10,3.3204,0.934382,-0.00646578,-3.29894e-07,0,
10,3.46281,0.9353,-0.00804869,-1.53318e-07,0,
10,3.61427,0.936349,-0.00966924,-6.53012e-08,0,
10,3.77463,0.93739,-0.0113158,-3.30267e-08,0,
10,3.94358,0.938337,-0.0129752,-2.32791e-08,0,
10,4.12067,0.939173,-0.0146331,-2.00244e-08,0,
10,4.30525,0.939931,-0.0162751,-1.85507e-08,0,
10,4.49655,0.940653,-0.0178871,-1.79717e-08,0,
10,4.6936,0.94137,-0.0194554,-1.82594e-08,0,
10,4.89531,0.942084,-0.020968,-1.99064e-08,0,
10,5.10047,0.94278,-0.022414,-2.43684e-08,0,
10,5.30776,0.94344,-0.0237844,-3.48953e-08,0,
10,5.51581,0.944045,-0.0250721,-5.82087e-08,0,
10,5.72323,0.944593,-0.0262723,-1.08709e-07,0,
10,5.92863,0.945108,-0.0273819,-2.21427e-07,0,
10,6.13069,0.945657,-0.0284001,-4.88228e-07,0,
10,6.32816,0.946335,-0.0293277,-1.10222e-06,0,
10,6.51991,0.947175,-0.0301676,-2.15066e-06,0,
10,6.70495,0.947952,-0.0309235,-2.35967e-06,0,
10,6.88244,0.947956,-0.0315996,3.55658e-06,0,
10,7.0517,0.945963,-0.0322,2.64419e-05,0,
10,7.21224,0.940587,-0.0327258,7.9627e-05,0,
10,7.3637,0.930934,-0.0331826,0.000172394,0,
10,7.5059,0.91704,-0.033575,0.000296005,0,
10,7.63878,0.899493,-0.0339076,0.000403375,0,
10,7.76243,0.879393,-0.0341896,0.00052219,0,
10,7.87701,0.858506,-0.0344159,0.000643713,0,
10,7.9828,0.838295,-0.0346028,0.000754146,0,
10,8.08014,0.819474,-0.0347528,0.000848369,0,
10,8.16941,0.802128,-0.0348771,0.000926803,0,
10,8.25106,0.786014,-0.0349797,0.000992567,0,
10,8.32554,0.770806,-0.035067,0.00104888,0,
10,8.39331,0.756224,-0.0351411,0.00109802,0,
10,8.45484,0.74207,-0.0352048,0.00114129,0,
10,8.5106,0.728223,-0.0352592,0.00117931,0,
10,8.56104,0.714619,-0.035306,0.00121236,0,
10,8.60659,0.701239,-0.0353461,0.00124053,0,
10,8.64767,0.688088,-0.0353809,0.00126394,0,
10,8.68467,0.675169,-0.035411,0.00128243,0,
10,8.71795,0.662458,-0.0354372,0.00129287,0,
10,8.74786,0.64993,-0.0354601,0.00129975,0,
10,8.77471,0.637581,-0.0354797,0.00130233,0,
10,8.79881,0.625407,-0.0354967,0.00130105,0,
10,8.8204,0.613401,-0.0355112,0.0012964,0,
10,8.83975,0.601555,-0.0355238,0.0012889,0,
10,8.85708,0.589855,-0.0355346,0.00127901,0,
10,8.87259,0.578285,-0.0355438,0.00126718,0,
10,8.88646,0.566822,-0.0355516,0.00125381,0,
10,8.89886,0.555445,-0.0355583,0.00123925,0,
10,8.90995,0.544126,-0.0355639,0.00122379,0,
10,8.91986,0.532835,-0.0355686,0.00120764,0,
10,8.92872,0.521539,-0.0355726,0.00119099,0,
10,8.93663,0.510204,-0.035576,0.00117392,0,
10,8.94369,0.498791,-0.0355788,0.00115648,0,
10,8.95,0.487257,-0.0355811,0.00113862,0,
10,8.95564,0.475558,-0.0355831,0.00112028,0,
10,8.96067,0.463643,-0.0355846,0.0011013,0,
10,8.96517,0.451459,-0.035586,0.00108143,0,
10,8.96918,0.438943,-0.035587,0.00106035,0,
10,8.97276,0.426026,-0.035588,0.00103764,0,
10,8.97596,0.412628,-0.0355886,0.00101273,0,
10,8.97882,0.398657,-0.0355894,0.000984897,0,
10,8.98137,0.384004,-0.0355897,0.000953214,0,
10,8.98365,0.368542,-0.0355903,0.000916469,0,
10,8.98569,0.352121,-0.0355904,0.000873223,0,
10,8.9875,0.334561,-0.035591,0.000821446,0,
10,8.98913,0.315626,-0.0355909,0.000755862,0,
10,8.99058,0.295085,-0.0355914,0.000678396,0,
10,8.99188,0.272773,-0.0355911,0.00058659,0,
10,8.99304,0.24853,-0.0355917,0.000473779,0,
10,8.99408,0.222314,-0.0355913,0.000347479,0,
10,8.99501,0.194495,-0.0355919,0.000221384,0,
10,8.99583,0.165975,-0.0355914,0.000117358,0,
10,8.99658,0.138022,-0.035592,5.03993e-05,0,
10,8.99724,0.111751,-0.0355914,1.73929e-05,0,
10,8.99784,0.0877501,-0.0355921,4.77767e-06,0,
10,8.99837,0.0661308,-0.0355913,1.00187e-06,0,
10,8.99885,0.046758,-0.0355922,1.43509e-07,0,
10,8.99927,0.0294201,-0.0355913,1.08945e-08,0,
10,8.99966,0.0139021,-0.0355923,2.41028e-10,0,
10,0,0,0.0315708,0,0,
10,9,0,-0.0355912,0,0,

0.004,0,0,-0.221316,0,-1.06532e-07,
0.00868226,0,0,-0.221312,0,-1.82658e-07,
0.014062,0,0,-0.221315,0,-2.76078e-07,
0.0201548,0,0,-0.221313,0,-7.19692e-07,
0.0269766,0,0,-0.221315,0,-1.32306e-06,
0.0345437,0,0,-0.221314,0,-2.20429e-06,
0.0428729,0,0,-0.221314,0,-3.21391e-06,
0.051981,0,0,-0.221313,0,-4.33197e-06,
0.0618853,0,0,-0.221311,0,-5.38481e-06,
0.0726036,0,0,-0.221308,0,-6.22107e-06,
0.0841536,0,0,-0.221303,0,-6.58387e-06,
0.0965535,0,0,-0.221297,0,-6.20774e-06,
0.109822,0,0,-0.22129,0,-4.80302e-06,
0.123977,0,0,-0.221282,0,-2.14707e-06,
0.139037,0,0,-0.221276,0,1.86893e-06,
0.155022,0,0,-0.221273,0,7.17999e-06,
0.171949,0,0,-0.221274,0,1.35341e-05,
0.189839,0,0,-0.221283,0,2.05207e-05,
0.208709,0,0,-0.221298,0,2.76287e-05,
0.228579,0,0,-0.221321,0,3.43294e-05,
0.249467,0,0,-0.221351,0,4.01416e-05,
0.271391,0,0,-0.221386,0,4.46895e-05,
0.29437,0,0,-0.221425,0,4.7724e-05,
0.31842,0,0,-0.221463,0,4.91352e-05,
0.343559,0,0,-0.2215,0,4.89417e-05,
0.369804,0,0,-0.221533,0,4.72789e-05,
0.39717,0,0,-0.221561,0,4.43767e-05,
0.425672,0,0,-0.221583,0,4.05375e-05,
0.455324,0,0,-0.221597,0,3.61071e-05,
0.48614,0,0,-0.221606,0,3.14453e-05,
0.518132,0,0,-0.22161,0,2.6909e-05,
0.551309,0,0,-0.221609,0,2.28583e-05,
0.585683,0,0,-0.221606,0,1.96848e-05,
0.621259,0,0,-0.2216,0,1.78377e-05,
0.658046,0,0,-0.221593,0,1.77551e-05,
0.696047,0,0,-0.221589,0,1.96981e-05,
0.735265,0,0,-0.221594,0,2.35874e-05,
0.7757,0,0,-0.221611,0,2.89938e-05,
0.817352,0,0,-0.221645,0,3.53041e-05,
0.860215,0,0,-0.221697,0,4.19428e-05,
0.904285,0,0,-0.221767,0,4.85638e-05,
0.949552,0,0,-0.221857,0,5.51006e-05,
0.996004,0,0,-0.221969,0,6.16857e-05,
1.04363,0,0,-0.222112,0,6.84286e-05,
1.09241,0,0,-0.222295,0,7.51261e-05,
1.14232,0,0,-0.222534,0,8.1149e-05,
1.19335,0,0,-0.222845,0,8.537e-05,
1.24546,0,0,-0.223254,0,8.60626e-05,
1.29863,0,0,-0.223788,0,8.09706e-05,
1.35283,0,0,-0.224471,0,6.76144e-05,
1.40802,0,0,-0.225319,0,4.38705e-05,
1.46416,0,0,-0.226329,0,8.68426e-06,
1.52121,0,0,-0.22748,0,-3.74587e-05,
1.57913,0,0,-0.228736,0,-9.25931e-05,
1.63787,0,0,-0.230058,0,-0.000153888,
1.69739,0,0,-0.231405,0,-0.000218502,
1.75761,0,0,-0.232744,0,-0.000284245,
1.81851,0,0,-0.234048,0,-0.000349812,
1.88,0,0,-0.235296,0,-0.000414632,
1.94204,0,0,-0.236471,0,-0.000478571,
2.00457,0,0,-0.23756,0,-0.000541662,
2.06751,0,0,-0.23855,0,-0.000603958,
2.13081,0,0,-0.23943,0,-0.000665475,
2.19439,0,0,-0.24019,0,-0.000726197,
2.25819,0,0,-0.24082,0,-0.000786088,
2.32214,0,0,-0.241313,0,-0.000845106,
2.38617,0,0,-0.24166,0,-0.000903207,
2.4502,0,0,-0.241853,0,-0.00096034,
2.51418,0,0,-0.241886,0,-0.00101645,
2.57803,0,0,-0.241752,0,-0.00107145,
2.64167,0,0,-0.241445,0,-0.00112528,
2.70505,0,0,-0.240961,0,-0.00117781,
2.76808,0,0,-0.240295,0,-0.00122894,
2.83072,0,0,-0.239444,0,-0.00127854,
2.89288,0,0,-0.238406,0,-0.00132647,
2.95451,0,0,-0.23718,0,-0.00137258,
3.01555,0,0,-0.235768,0,-0.00141674,
3.07594,0,0,-0.234172,0,-0.0014588,
3.13561,0,0,-0.232394,0,-0.0014986,
3.19453,0,0,-0.230442,0,-0.00153603,
3.25262,0,0,-0.22832,0,-0.00157095,
3.30985,0,0,-0.226039,0,-0.00160327,
3.36617,0,0,-0.223607,0,-0.00163287,
3.42154,0,0,-0.221035,0,-0.00165969,
3.47591,0,0,-0.218336,0,-0.00168367,
3.52925,0,0,-0.215524,0,-0.00170478,
3.58152,0,0,-0.212612,0,-0.00172304,
3.6327,0,0,-0.209616,0,-0.00173848,
3.68276,0,0,-0.20655,0,-0.00175117,
3.73167,0,0,-0.203431,0,-0.00176124,
3.77941,0,0,-0.200272,0,-0.00176878,
3.82596,0,0,-0.19709,0,-0.00177397,
3.8713,0,0,-0.193898,0,-0.00177693,
3.91543,0,0,-0.190707,0,-0.00177774,
3.95833,0,0,-0.187544,0,-0.00177685,
4,0,0,-0.184391,0,-0.00177427,
4.04167,0,0,-0.181187,0,-0.00176982,
4.08333,0,0,-0.177929,0,-0.00176378,
4.125,0,0,-0.174621,0,-0.00175614,
4.16667,0,0,-0.171269,0,-0.00174693,
4.20833,0,0,-0.167876,0,-0.00173619,
4.25,0,0,-0.164448,0,-0.00172397,
4.29167,0,0,-0.160989,0,-0.0017103,
4.33333,0,0,-0.157503,0,-0.00169523,
4.375,0,0,-0.153995,0,-0.00167882,
4.41667,0,0,-0.150468,0,-0.00166111,
4.45833,0,0,-0.146928,0,-0.00164214,
4.5,0,0,-0.143377,0,-0.00162197,
4.54167,0,0,-0.139821,0,-0.00160064,
4.58333,0,0,-0.136262,0,-0.00157821,
4.625,0,0,-0.132704,0,-0.0015547,
4.66667,0,0,-0.12915,0,-0.00153019,
4.70833,0,0,-0.125604,0,-0.0015047,
4.75,0,0,-0.12207,0,-0.00147829,
4.79167,0,0,-0.118549,0,-0.001451,
4.83333,0,0,-0.115046,0,-0.00142288,
4.875,0,0,-0.111562,0,-0.00139396,
4.91667,0,0,-0.1081,0,-0.00136428,
4.95833,0,0,-0.104663,0,-0.0013339,
5,0,0,-0.101253,0,-0.00130285,
5.04167,0,0,-0.0978722,0,-0.00127116,
5.08333,0,0,-0.0945225,0,-0.00123886,
5.125,0,0,-0.0912061,0,-0.001206,
5.16667,0,0,-0.0879247,0,-0.00117261,
5.20833,0,0,-0.0846799,0,-0.00113871,
5.25,0,0,-0.0814736,0,-0.00110434,
5.29167,0,0,-0.078307,0,-0.00106952,
5.33333,0,0,-0.0751817,0,-0.0010343,
5.375,0,0,-0.072099,0,-0.000998703,
5.41667,0,0,-0.06906,0,-0.000962752,
5.45833,0,0,-0.0660658,0,-0.000926477,
5.5,0,0,-0.0631175,0,-0.000889905,
5.54167,0,0,-0.0602159,0,-0.000853064,
5.58333,0,0,-0.0573619,0,-0.000815978,
5.625,0,0,-0.0545563,0,-0.000778674,
5.66667,0,0,-0.0517997,0,-0.000741175,
5.70833,0,0,-0.0490928,0,-0.000703505,
5.75,0,0,-0.046436,0,-0.000665691,
5.79167,0,0,-0.0438298,0,-0.000627755,
5.83333,0,0,-0.0412746,0,-0.000589723,
5.875,0,0,-0.0387708,0,-0.000551617,
5.91667,0,0,-0.0363186,0,-0.00051346,
5.95833,0,0,-0.0339183,0,-0.000475269,
6,0,0,-0.03157,0,-0.000437057,
6.04167,0,0,-0.029274,0,-0.000398837,
6.08333,0,0,-0.0270308,0,-0.000360614,
6.125,0,0,-0.0248408,0,-0.000322395,
6.16667,0,0,-0.0227047,0,-0.000284192,
6.20833,0,0,-0.0206236,0,-0.000246039,
6.25,0,0,-0.018599,0,-0.000208016,
6.29167,0,0,-0.0166322,0,-0.000170258,
6.33333,0,0,-0.0147238,0,-0.000132933,
6.375,0,0,-0.012873,0,-9.6172e-05,
6.41667,0,0,-0.0110782,0,-6.00282e-05,
6.45833,0,0,-0.00933745,0,-2.44885e-05,
6.5,0,0,-0.00764929,0,1.04839e-05,
6.54167,0,0,-0.00601224,0,4.49222e-05,
6.58333,0,0,-0.00442498,0,7.88503e-05,
6.625,0,0,-0.0028863,0,0.000112285,
6.66667,0,0,-0.00139505,0,0.000145237,
6.70833,0,0,4.98657e-05,0,0.000177717,
6.75,0,0,0.00144949,0,0.000209733,
6.79167,0,0,0.00280484,0,0.000241293,
6.83333,0,0,0.00411689,0,0.000272401,
6.875,0,0,0.00538659,0,0.000303064,
6.91667,0,0,0.00661487,0,0.000333285,
6.95833,0,0,0.00780263,0,0.000363071,
7,0,0,0.00895077,0,0.000392422,
7.04167,0,0,0.0100601,0,0.000421344,
7.08333,0,0,0.0111316,0,0.000449838,
7.125,0,0,0.0121661,0,0.000477907,
7.16667,0,0,0.0131643,0,0.000505553,
7.20833,0,0,0.0141272,0,0.00053278,
7.25,0,0,0.0150555,0,0.00055959,
7.29167,0,0,0.01595,0,0.000585986,
7.33333,0,0,0.0168115,0,0.00061197,
7.375,0,0,0.0176409,0,0.000637546,
7.41667,0,0,0.0184388,0,0.000662715,
7.45833,0,0,0.019206,0,0.000687482,
7.5,0,0,0.0199433,0,0.000711851,
7.54167,0,0,0.0206514,0,0.000735825,
7.58333,0,0,0.021331,0,0.000759412,
7.625,0,0,0.0219827,0,0.00078262,
7.66667,0,0,0.0226072,0,0.000805461,
7.70833,0,0,0.0232051,0,0.00082795,
7.75,0,0,0.0237772,0,0.000850106,
7.79167,0,0,0.0243239,0,0.000871938,
7.83333,0,0,0.0248452,0,0.000893445,
7.875,0,0,0.0253414,0,0.000914674,
7.91667,0,0,0.0258229,0,0.000936125,
7.95833,0,0,0.0262259,0,0.00095639,
8,0,0,0.0267004,0,0.000976473,
8.04171,0,0,0.027187,0,0.000997566,
8.08368,0,0,0.0275446,0,0.00101841,
8.12617,0,0,0.0279371,0,0.0010376,
8.16946,0,0,0.0283099,0,0.00105687,
8.21382,0,0,0.0286648,0,0.00107616,
8.25952,0,0,0.0290092,0,0.00109551,
8.30685,0,0,0.0293428,0,0.00111508,
8.35611,0,0,0.0296662,0,0.00113499,
8.40762,0,0,0.0299794,0,0.00115531,
8.46168,0,0,0.0302822,0,0.00117611,
8.51865,0,0,0.0305735,0,0.00119747,
8.57889,0,0,0.0308521,0,0.00121944,
8.64276,0,0,0.031116,0,0.00124206,
8.71067,0,0,0.031363,0,0.00126537,
8.78306,0,0,0.0315902,0,0.00128939,
8.86037,0,0,0.0317944,0,0.00131414,
8.94309,0,0,0.0319716,0,0.00133962,
9.03174,0,0,0.0321177,0,0.00136583,
9.12689,0,0,0.0322276,0,0.00139275,
9.22912,0,0,0.0322962,0,0.00142036,
9.33908,0,0,0.0323179,0,0.00144859,
9.45746,0,0,0.0322866,0,0.0014774,
9.58501,0,0,0.0321965,0,0.00150671,
9.72253,0,0,0.0320414,0,0.00153643,
9.87088,0,0,0.0318152,0,0.00156646,
10.031,0,0,0.0315122,0,0.00159668,
10.2039,0,0,0.0311276,0,0.00162694,
10.3906,0,0,0.0306577,0,0.00165713,
10.5924,0,0,0.0300985,0,0.00168709,
10.8105,0,0,0.0294493,0,0.00171668,
11.0463,0,0,0.0287102,0,0.00174577,
11.3012,0,0,0.0278822,0,0.00177422,
11.5769,0,0,0.0269698,0,0.00180192,
11.8751,0,0,0.0259789,0,0.00182874,
12.1977,0,0,0.0249182,0,0.00185461,
12.5466,0,0,0.0237977,0,0.00187945,
12.9242,0,0,0.0226295,0,0.00190322,
13.3327,0,0,0.021428,0,0.00192589,
13.7748,0,0,0.0202082,0,0.00194745,
14.2532,0,0,0.0189863,0,0.00196791,
14.7709,0,0,0.0177784,0,0.00198731,
15.3312,0,0,0.0166008,0,0.0020057,
15.9377,0,0,0.0154679,0,0.00202315,
16.594,0,0,0.014393,0,0.00203974,
17.3044,0,0,0.0133866,0,0.00205557,
18.0733,0,0,0.0124556,0,0.00207067,
18.9056,0,0,0.0116049,0,0.00208497,
19.8064,0,0,0.0108351,0,0.00209846,
20.7816,0,0,0.0101435,0,0.00211137,
21.8371,0,0,0.00952315,0,0.00212402,
22.9796,0,0,0.00896321,0,0.00213666,
24.2163,0,0,0.00845024,0,0.0021494,
25.5551,0,0,0.00796849,0,0.00216221,
27.0042,0,0,0.00750068,0,0.00217524,
28.5729,0,0,0.00702824,0,0.0021886,
30.271,0,0,0.00653211,0,0.00220226,
32.1091,0,0,0.0059943,0,0.0022162,
34.0989,0,0,0.00539903,0,0.00223036,
36.2529,0,0,0.00472814,0,0.00224462,
38.5845,0,0,0.00397256,0,0.00225892,
41.1085,0,0,0.0031671,0,0.00227306,
43.8407,0,0,0.00215949,0,0.0022849,
46.7983,0,0,0.00111132,0,0.00229243,
50,0,0,0.00202354,0,0.00230886,

