80b2bab7032c3b71e569679abdcb655d930cf7a6 
X,Z,x_velocity,cp,uw_b,cf,
1,0,0,-0.226889,0,0,
1,9,0,-0.129845,0,0,
1,8.99969,0.0153942,-0.129844,2.85359e-10,0,
1,8.99934,0.032859,-0.129845,1.33385e-08,0,
1,8.99894,0.052691,-0.129844,1.83995e-07,0,
1,8.99848,0.075204,-0.129845,1.34886e-06,0,
1,8.99797,0.10071,-0.129844,6.74207e-06,0,
1,8.99739,0.129407,-0.129844,2.55215e-05,0,
1,8.99672,0.161101,-0.129844,7.56209e-05,0,
1,8.99597,0.194855,-0.129844,0.000175849,0,
1,8.99512,0.229023,-0.129844,0.000324223,0,
1,8.99416,0.261946,-0.129844,0.000492261,0,
1,8.99306,0.292649,-0.129844,0.000650531,0,
1,8.99182,0.320955,-0.129844,0.000778033,0,
1,8.99041,0.347005,-0.129843,0.000883592,0,
1,8.98881,0.370957,-0.129843,0.000970782,0,
1,8.98699,0.39303,-0.129842,0.00104193,0,
1,8.98494,0.413512,-0.129841,0.00109787,0,
1,8.98261,0.432712,-0.129841,0.00114069,0,
1,8.97996,0.45087,-0.12984,0.00117657,0,
1,8.97696,0.46816,-0.129838,0.00120631,0,
1,8.97356,0.484722,-0.129837,0.00123118,0,
1,8.9697,0.500674,-0.129835,0.00125215,0,
1,8.96533,0.516116,-0.129834,0.00126992,0,
1,8.96038,0.53113,-0.129832,0.00128502,0,
1,8.95476,0.545786,-0.129829,0.00129781,0,
1,8.9484,0.560143,-0.129827,0.00130855,0,
1,8.9412,0.574251,-0.129824,0.00131741,0,
1,8.93303,0.588154,-0.129821,0.0013245,0,
1,8.92379,0.601889,-0.129818,0.00132987,0,
1,8.91333,0.615487,-0.129815,0.00133352,0,
1,8.90149,0.628977,-0.129811,0.00133544,0,
1,8.8881,0.642382,-0.129808,0.00133556,0,
1,8.87295,0.655724,-0.129805,0.00133382,0,
1,8.85584,0.669024,-0.129803,0.00133012,0,
1,8.83651,0.6823,-0.129801,0.00132434,0,
1,8.81469,0.695572,-0.129801,0.00131636,0,
1,8.79007,0.708859,-0.129802,0.00130601,0,
1,8.76232,0.722184,-0.129806,0.00129311,0,
1,8.73107,0.73557,-0.129813,0.00127744,0,
1,8.69591,0.749049,-0.129825,0.00125872,0,
1,8.6564,0.762657,-0.129842,0.0012366,0,
1,8.61206,0.776439,-0.129868,0.00121066,0,
1,8.56236,0.790452,-0.129903,0.00118055,0,
1,8.50675,0.804772,-0.129952,0.00114724,0,
1,8.44464,0.819536,-0.130017,0.00110766,0,
1,8.3754,0.83496,-0.130102,0.00105621,0,
1,8.29839,0.8513,-0.130215,0.000993025,0,
1,8.21296,0.8688,-0.130362,0.000913608,0,
1,8.11843,0.887653,-0.130547,0.000812706,0,
1,8.01417,0.907855,-0.130786,0.00068689,0,
1,7.89956,0.92896,-0.131074,0.000539656,0,
1,7.77403,0.949842,-0.131449,0.000389507,0,
1,7.63711,0.968889,-0.131899,0.000205199,0,
1,7.48842,0.983774,-0.132431,7.6059e-05,0,
1,7.32773,0.992562,-0.133069,1.8225e-05,0,
1,7.15495,0.995744,-0.13381,1.8034e-06,0,
1,6.97022,0.995799,-0.13467,2.33535e-08,0,
1,6.77388,0.995181,-0.135664,3.73181e-09,0,
1,6.56652,0.995065,-0.136806,9.74381e-09,0,
1,6.34896,0.995521,-0.138111,1.2492e-08,0,
1,6.12229,0.996249,-0.139592,1.40878e-08,0,
1,5.88784,0.997049,-0.141263,1.49332e-08,0,
1,5.64716,0.997885,-0.143138,1.59022e-08,0,
1,5.40194,0.998788,-0.145226,1.72519e-08,0,
1,5.15407,0.999785,-0.147534,1.89475e-08,0,
1,4.90545,1.00088,-0.150065,2.07571e-08,0,
1,4.65805,1.00209,-0.152816,2.2695e-08,0,
1,4.41376,1.00339,-0.15578,2.47165e-08,0,
1,4.17441,1.00477,-0.158943,2.65917e-08,0,
1,3.94163,1.00618,-0.162285,2.81604e-08,0,
1,3.7169,1.00757,-0.165781,3.00335e-08,0,
1,3.50146,1.00901,-0.169396,3.41515e-08,0,
1,3.29629,1.01081,-0.173097,4.25465e-08,0,
1,3.10217,1.01335,-0.176853,5.33873e-08,0,
1,2.91959,1.01642,-0.180635,9.71739e-08,0,
1,2.74885,1.01857,-0.1844,9.54326e-07,0,
1,2.59002,1.01741,-0.188084,-6.12637e-06,0,
1,2.44299,1.0112,-0.191624,-5.21013e-05,0,
1,2.30752,1.00015,-0.194952,-0.000149732,0,
1,2.18321,0.985715,-0.19801,-0.000285232,0,
1,2.06959,0.969463,-0.200829,-0.000401973,0,
1,1.9661,0.952672,-0.203389,-0.000503432,0,
1,1.87215,0.936272,-0.205656,-0.000598101,0,
1,1.78711,0.920774,-0.207668,-0.000681473,0,
1,1.71033,0.906333,-0.20944,-0.000753457,0,
1,1.64119,0.892919,-0.210996,-0.000815569,0,
1,1.57905,0.880418,-0.212356,-0.000870014,0,
1,1.52332,0.868703,-0.21354,-0.000918838,0,
1,1.47342,0.857661,-0.214576,-0.000964393,0,
1,1.42882,0.847209,-0.215462,-0.000999939,0,
1,1.389,0.837269,-0.216209,-0.0010242,0,
1,1.35351,0.827775,-0.216856,-0.00104685,0,
1,1.3219,0.818688,-0.217409,-0.00106729,0,
1,1.29378,0.80999,-0.217884,-0.0010852,0,
1,1.26878,0.801669,-0.218291,-0.00110059,0,
1,1.24659,0.793719,-0.218639,-0.00111382,0,
1,1.22689,0.786136,-0.218937,-0.00112495,0,
1,1.2092,0.77883,-0.219195,-0.00113296,0,
1,1.1932,0.771752,-0.21942,-0.00113856,0,
1,1.1787,0.764888,-0.219616,-0.00114243,0,
1,1.16554,0.758216,-0.219786,-0.00114554,0,
1,1.15357,0.751704,-0.219933,-0.00114992,0,
1,1.14266,0.745305,-0.220061,-0.00115907,0,
1,1.13268,0.738947,-0.220172,-0.00117746,0,
1,1.12354,0.732534,-0.22027,-0.00121131,0,
1,1.11514,0.725937,-0.220357,-0.00126813,0,
1,1.10739,0.718998,-0.220437,-0.00135622,0,
1,1.10022,0.711539,-0.220514,-0.00148374,0,
1,1.09357,0.703386,-0.220592,-0.00165744,0,
1,1.08738,0.694398,-0.220674,-0.00188092,0,
1,1.0816,0.68451,-0.220762,-0.00215322,0,
1,1.07618,0.673755,-0.220855,-0.00246806,0,
1,1.07107,0.662255,-0.220956,-0.00281468,0,
1,1.06626,0.650193,-0.221061,-0.00317992,0,
1,1.06169,0.637767,-0.221171,-0.00355082,0,
1,1.05735,0.625163,-0.221284,-0.0039164,0,
1,1.05321,0.612535,-0.221399,-0.00426853,0,
1,1.04925,0.6,-0.221515,-0.00460181,0,
1,1.04544,0.587639,-0.221632,-0.00491315,0,
1,1.04177,0.575507,-0.221749,-0.0052011,0,
1,1.03822,0.563635,-0.221866,-0.00546538,0,
1,1.03478,0.552039,-0.221981,-0.00570643,0,
1,1.03144,0.540726,-0.222096,-0.00592513,0,
1,1.02818,0.529692,-0.22221,-0.00612261,0,
1,1.025,0.51893,-0.222322,-0.00630005,0,
1,1.02188,0.508429,-0.222434,-0.00645869,0,
1,1.01882,0.498179,-0.222545,-0.00659972,0,
1,1.01581,0.488166,-0.222654,-0.0067244,0,
1,1.01284,0.478377,-0.222762,-0.0068333,0,
1,1.00988,0.468695,-0.222871,-0.00692831,0,
1,1.00688,0.459007,-0.222981,-0.00701188,0,
1,1.00384,0.449302,-0.223092,-0.00708367,0,
1,1.00076,0.439567,-0.223205,-0.00714324,0,
1,0.997615,0.429786,-0.223319,-0.0071906,0,
1,0.99441,0.419935,-0.223434,-0.00722541,0,
1,0.991131,0.409992,-0.22355,-0.00724798,0,
1,0.987768,0.399928,-0.223668,-0.00725809,0,
1,0.984308,0.389717,-0.223787,-0.00725544,0,
1,0.980739,0.379328,-0.223908,-0.00723956,0,
1,0.977045,0.368727,-0.224032,-0.00720986,0,
1,0.973211,0.357878,-0.224157,-0.0071656,0,
1,0.969219,0.346744,-0.224285,-0.00710584,0,
1,0.965047,0.33528,-0.224415,-0.00702948,0,
1,0.960675,0.323439,-0.224547,-0.00693519,0,
1,0.956077,0.311171,-0.224683,-0.00682077,0,
1,0.951224,0.29842,-0.224821,-0.00668446,0,
1,0.946088,0.28513,-0.224962,-0.00652423,0,
1,0.940633,0.271252,-0.225107,-0.00633809,0,
1,0.934823,0.256745,-0.225256,-0.00612487,0,
1,0.928616,0.241576,-0.225409,-0.00588122,0,
1,0.921967,0.225723,-0.225565,-0.00560487,0,
1,0.914826,0.209171,-0.225725,-0.00529386,0,
1,0.907141,0.191926,-0.225887,-0.0049467,0,
1,0.898852,0.174018,-0.226051,-0.00456278,0,
1,0.889898,0.155509,-0.226216,-0.00414278,0,
1,0.880212,0.136516,-0.226381,-0.00368939,0,
1,0.869723,0.117228,-0.226547,-0.00320824,0,
1,0.858358,0.0979375,-0.226714,-0.00270941,0,
1,0.846039,0.0790842,-0.226882,-0.00220952,0,
1,0.83269,0.0612827,-0.227055,-0.00173334,0,
1,0.818232,0.0452875,-0.227233,-0.00131473,0,
1,0.802744,0.031888,-0.227408,-0.000981358,0,
1,0.78635,0.0213895,-0.227587,-0.000736949,0,
1,0.768969,0.0133993,-0.227759,-0.000570213,0,
1,0.75053,0.00724893,-0.227922,-0.000464407,0,
1,0.730977,0.00228394,-0.228068,-0.000402819,0,
1,0.710271,-0.00199661,-0.228194,-0.000370951,0,
1,0.688397,-0.00592638,-0.228299,-0.000357507,0,
1,0.66536,-0.00970618,-0.228386,-0.00035618,0,
1,0.641194,-0.0134628,-0.228455,-0.000358797,0,
1,0.615961,-0.0172772,-0.228505,-0.000361725,0,
1,0.589754,-0.0211863,-0.228538,-0.000362081,0,
1,0.562692,-0.0251909,-0.228551,-0.000358217,0,
1,0.534925,-0.0292646,-0.228545,-0.00034944,0,
1,0.506624,-0.0333616,-0.228517,-0.000335669,0,
1,0.477982,-0.0374239,-0.228467,-0.000317225,0,
1,0.449206,-0.0413881,-0.228393,-0.000294659,0,
1,0.420509,-0.0451893,-0.228297,-0.000268644,0,
1,0.392107,-0.0487644,-0.228181,-0.000239905,0,
1,0.364206,-0.0520538,-0.228048,-0.000209178,0,
1,0.337003,-0.0550026,-0.227902,-0.000177166,0,
1,0.310673,-0.0575607,-0.227747,-0.000144511,0,
1,0.28537,-0.0596828,-0.227588,-0.000111766,0,
1,0.26122,-0.0613278,-0.227431,-7.94052e-05,0,
1,0.238324,-0.0624585,-0.227281,-4.78312e-05,0,
1,0.21675,-0.0630412,-0.227142,-1.73955e-05,0,
1,0.196544,-0.0630468,-0.227018,1.15568e-05,0,
1,0.177724,-0.0624522,-0.226912,3.86396e-05,0,
1,0.160284,-0.0612443,-0.226825,6.33956e-05,0,
1,0.144202,-0.0594234,-0.226759,8.53002e-05,0,
1,0.129436,-0.0570083,-0.226712,0.000103808,0,
1,0.115935,-0.0540396,-0.226683,0.000118434,0,
1,0.103636,-0.0505807,-0.226671,0.000128835,0,
1,0.0924701,-0.0467152,-0.226671,0.000134876,0,
1,0.0823633,-0.0425421,-0.226682,0.000136632,0,
1,0.0732406,-0.0381674,-0.226699,0.000134409,0,
1,0.0650269,-0.0336966,-0.226721,0.000128695,0,
1,0.057648,-0.0292267,-0.226745,0.000120082,0,
1,0.0510323,-0.0248403,-0.226769,0.000109208,0,
1,0.0451115,-0.0206019,-0.226792,9.66926e-05,0,
1,0.0398209,-0.0165567,-0.226813,8.31075e-05,0,
1,0.0351001,-0.0127336,-0.226831,6.89647e-05,0,
1,0.0308929,-0.00914973,-0.226847,5.47398e-05,0,
1,0.0271475,-0.00582061,-0.226859,4.09435e-05,0,
1,0.0238164,-0.00277257,-0.226869,2.82299e-05,0,
1,0.0208562,-5.72015e-05,-0.226876,1.74689e-05,0,
1,0.0182274,0.00224638,-0.22688,9.40151e-06,0,
1,0.0158944,0.00405519,-0.226883,4.29298e-06,0,
1,0.0138249,0.0053255,-0.226885,1.62084e-06,0,
1,0.0119898,0.00608098,-0.226886,4.73887e-07,0,
1,0.0103632,0.00640139,-0.226887,7.46051e-08,0,
1,0.00892169,0.0063882,-0.226887,-2.82469e-08,0,
1,0.00764438,0.0061373,-0.226888,-3.67892e-08,0,
1,0.00651264,0.00572696,-0.226888,-2.46959e-08,0,
1,0.00550983,0.00521681,-0.226888,-1.32827e-08,0,
1,0.00462115,0.00465052,-0.226888,-6.22688e-09,0,
1,0.00383341,0.00405948,-0.226889,-2.60176e-09,0,
1,0.0031349,0.00346569,-0.226888,-9.67073e-10,0,
1,0.00251518,0.00288428,-0.226889,-3.13828e-10,0,
1,0.00196502,0.0023252,-0.226888,-8.558e-11,0,
1,0.00147619,0.00179468,-0.226889,-1.83033e-11,0,
1,0.00104139,0.00129613,-0.226888,-2.70029e-12,0,
1,0.000654158,0.000831025,-0.226889,-2.11546e-13,0,
1,0.000308731,0.000399378,-0.226888,-4.83199e-15,0,

4,0,0,-0.160982,0,0,
4,9,0,-0.0993595,0,0,
4,8.99969,0.0142682,-0.0993591,2.24221e-10,0,
4,8.99934,0.0303992,-0.0993594,1.04028e-08,0,
4,8.99894,0.048655,-0.0993591,1.42048e-07,0,
4,8.9985,0.0693121,-0.0993593,1.03103e-06,0,
4,8.99799,0.0926521,-0.0993591,5.11731e-06,0,
4,8.99742,0.118878,-0.0993592,1.93746e-05,0,
4,8.99677,0.147903,-0.099359,5.81345e-05,0,
4,8.99605,0.179049,-0.0993591,0.000138876,0,
4,8.99522,0.21096,-0.0993588,0.000265441,0,
4,8.99429,0.242093,-0.0993588,0.000417592,0,
4,8.99324,0.271385,-0.0993585,0.000567387,0,
4,8.99205,0.298455,-0.0993582,0.000696918,0,
4,8.9907,0.32338,-0.0993577,0.000801028,0,
4,8.98919,0.346334,-0.0993573,0.00088875,0,
4,8.98747,0.367503,-0.0993565,0.00096172,0,
4,8.98553,0.387157,-0.0993558,0.00101915,0,
4,8.98334,0.405575,-0.0993548,0.00106542,0,
4,8.98087,0.422975,-0.0993536,0.0011045,0,
4,8.97807,0.439528,-0.0993522,0.00113766,0,
4,8.97491,0.455373,-0.0993506,0.0011662,0,
4,8.97134,0.470629,-0.0993487,0.00119111,0,
4,8.96731,0.485397,-0.0993465,0.0012131,0,
4,8.96276,0.499761,-0.0993439,0.0012327,0,
4,8.95762,0.513795,-0.0993409,0.00125028,0,
4,8.95182,0.527559,-0.0993375,0.00126609,0,
4,8.94526,0.541107,-0.0993336,0.00128028,0,
4,8.93787,0.554485,-0.0993292,0.00129293,0,
4,8.92952,0.567733,-0.0993244,0.00130404,0,
4,8.92011,0.580885,-0.0993189,0.00131357,0,
4,8.90949,0.59397,-0.0993129,0.00132143,0,
4,8.89751,0.607013,-0.0993063,0.00132749,0,
4,8.88402,0.620035,-0.0992993,0.0013316,0,
4,8.86881,0.633053,-0.0992919,0.00133358,0,
4,8.85169,0.646084,-0.0992843,0.00133327,0,
4,8.83242,0.659139,-0.0992765,0.00133048,0,
4,8.81074,0.67223,-0.0992687,0.00132501,0,
4,8.78637,0.685371,-0.0992613,0.00131669,0,
4,8.75901,0.698572,-0.0992545,0.00130533,0,
4,8.7283,0.711849,-0.0992491,0.00129075,0,
4,8.69387,0.725221,-0.0992455,0.00127273,0,
4,8.65533,0.738712,-0.0992447,0.00125103,0,
4,8.61222,0.752354,-0.0992476,0.00122534,0,
4,8.56407,0.766187,-0.099256,0.00119524,0,
4,8.5104,0.780266,-0.0992706,0.00116044,0,
4,8.45065,0.794663,-0.0992951,0.00112262,0,
4,8.38429,0.809531,-0.0993323,0.00107595,0,
4,8.31073,0.825104,-0.0993839,0.00101866,0,
4,8.22941,0.841652,-0.0994549,0.000948349,0,
4,8.13974,0.859441,-0.099548,0.000860634,0,
4,8.04115,0.878645,-0.0996655,0.000751877,0,
4,7.93313,0.899149,-0.099813,0.00062237,0,
4,7.81519,0.92025,-0.0999831,0.00048126,0,
4,7.68693,0.940482,-0.1002,0.000345999,0,
4,7.54803,0.95795,-0.100446,0.000203733,0,
4,7.39831,0.97076,-0.10074,8.95941e-05,0,
4,7.23771,0.978029,-0.101097,2.76616e-05,0,
4,7.06634,0.980704,-0.101507,4.55716e-06,0,
4,6.88453,0.980848,-0.101973,5.92785e-10,0,
4,6.69275,0.980302,-0.102495,-9.05437e-08,0,
4,6.49173,0.979999,-0.103083,2.27397e-08,0,
4,6.28238,0.98009,-0.103745,2.52468e-08,0,
4,6.06579,0.980413,-0.10449,1.44662e-08,0,
4,5.84328,0.98081,-0.105323,9.76996e-09,0,
4,5.61626,0.981219,-0.106251,8.54381e-09,0,
4,5.3863,0.98164,-0.107277,8.63122e-09,0,
4,5.15502,0.982091,-0.108406,9.25018e-09,0,
4,4.92406,0.982584,-0.109639,1.01432e-08,0,
4,4.69507,0.983131,-0.110977,1.12151e-08,0,
4,4.46961,0.983737,-0.112419,1.23221e-08,0,
4,4.24915,0.984383,-0.113961,1.31632e-08,0,
4,4.03501,0.985014,-0.115599,1.34473e-08,0,
4,3.82836,0.985562,-0.117323,1.34302e-08,0,
4,3.63018,0.986031,-0.119124,1.45186e-08,0,
4,3.44125,0.986604,-0.12099,1.96725e-08,0,
4,3.26217,0.987637,-0.122907,6.70239e-08,0,
4,3.09333,0.989424,-0.124863,5.89056e-07,0,
4,2.93497,0.991776,-0.12684,2.74238e-06,0,
4,2.78715,0.993831,-0.128821,5.30818e-06,0,
4,2.64979,0.994407,-0.130787,6.81728e-07,0,
4,2.52268,0.992577,-0.132717,-2.09384e-05,0,
4,2.40551,0.988022,-0.134586,-6.46729e-05,0,
4,2.29789,0.980995,-0.136373,-0.000129036,0,
4,2.19939,0.972093,-0.138062,-0.000207823,0,
4,2.10949,0.962011,-0.139644,-0.000293089,0,
4,2.02768,0.951382,-0.141113,-0.000377252,0,
4,1.95343,0.940716,-0.14247,-0.000454183,0,
4,1.88618,0.930392,-0.143715,-0.00052157,0,
4,1.82542,0.920594,-0.144859,-0.000568863,0,
4,1.77062,0.911378,-0.145905,-0.00060753,0,
4,1.72128,0.902793,-0.146851,-0.000642276,0,
4,1.67693,0.894869,-0.147708,-0.000673193,0,
4,1.63713,0.887605,-0.148481,-0.000700662,0,
4,1.60144,0.880978,-0.149178,-0.000725055,0,
4,1.56949,0.87496,-0.149806,-0.000746777,0,
4,1.54091,0.869509,-0.15037,-0.000766316,0,
4,1.51537,0.864571,-0.150876,-0.000784014,0,
4,1.49167,0.859952,-0.151346,-0.000800282,0,
4,1.46926,0.85556,-0.151791,-0.000815659,0,
4,1.44801,0.85137,-0.15222,-0.00082913,0,
4,1.42781,0.847341,-0.152636,-0.000835346,0,
4,1.40855,0.843442,-0.153033,-0.000841748,0,
4,1.39015,0.839657,-0.153415,-0.000846866,0,
4,1.37252,0.835971,-0.153783,-0.00085097,0,
4,1.3556,0.83237,-0.154137,-0.00085459,0,
4,1.3393,0.828835,-0.15448,-0.000858202,0,
4,1.32357,0.825349,-0.154812,-0.000862761,0,
4,1.30836,0.821892,-0.155134,-0.000868986,0,
4,1.29362,0.818443,-0.155448,-0.000877872,0,
4,1.2793,0.814975,-0.155754,-0.000890687,0,
4,1.26537,0.811458,-0.156052,-0.000909007,0,
4,1.25179,0.807855,-0.156343,-0.000934757,0,
4,1.23852,0.804122,-0.156629,-0.000970237,0,
4,1.22554,0.800207,-0.156908,-0.00101813,0,
4,1.21282,0.796049,-0.157182,-0.00108147,0,
4,1.20034,0.79158,-0.157451,-0.00116354,0,
4,1.18806,0.786725,-0.157714,-0.00126767,0,
4,1.17599,0.781407,-0.157972,-0.00139691,0,
4,1.16408,0.775554,-0.158225,-0.00155372,0,
4,1.15233,0.769105,-0.158473,-0.00173946,0,
4,1.14073,0.762019,-0.158715,-0.00195413,0,
4,1.12925,0.754283,-0.158952,-0.00219613,0,
4,1.11788,0.745907,-0.159184,-0.00246231,0,
4,1.10661,0.736927,-0.159411,-0.00274829,0,
4,1.09543,0.727397,-0.159633,-0.00304885,0,
4,1.08432,0.717382,-0.159851,-0.00335843,0,
4,1.07328,0.706954,-0.160065,-0.00367156,0,
4,1.0623,0.696184,-0.160274,-0.00398322,0,
4,1.05136,0.685138,-0.16048,-0.00428898,0,
4,1.04044,0.673858,-0.160682,-0.00458522,0,
4,1.0295,0.662379,-0.16088,-0.00486918,0,
4,1.01855,0.650746,-0.161076,-0.00513819,0,
4,1.00757,0.638998,-0.161268,-0.00538983,0,
4,0.996544,0.627171,-0.161457,-0.00562248,0,
4,0.98547,0.615294,-0.161643,-0.00583416,0,
4,0.974334,0.603393,-0.161826,-0.00602356,0,
4,0.963124,0.591491,-0.162005,-0.0061894,0,
4,0.951826,0.579608,-0.162182,-0.00633105,0,
4,0.940428,0.567759,-0.162358,-0.00647902,0,
4,0.928915,0.555847,-0.162498,-0.00656242,0,
4,0.917272,0.543707,-0.162601,-0.00664387,0,
4,0.905481,0.531235,-0.162701,-0.00673246,0,
4,0.893524,0.518372,-0.162798,-0.00682844,0,
4,0.881383,0.505071,-0.162898,-0.00693191,0,
4,0.869035,0.491294,-0.163,-0.00704274,0,
4,0.856459,0.477007,-0.163107,-0.00716065,0,
4,0.843629,0.462182,-0.163217,-0.00728518,0,
4,0.830518,0.446792,-0.163332,-0.00741571,0,
4,0.817097,0.430814,-0.163449,-0.00755144,0,
4,0.803334,0.414232,-0.163568,-0.00769145,0,
4,0.789195,0.397029,-0.16369,-0.00783466,0,
4,0.774643,0.379195,-0.163812,-0.00797984,0,
4,0.759639,0.360724,-0.163935,-0.00812549,0,
4,0.744138,0.341618,-0.164058,-0.00826979,0,
4,0.728096,0.321886,-0.164182,-0.00841047,0,
4,0.711463,0.301556,-0.164308,-0.00854481,0,
4,0.694189,0.28067,-0.164436,-0.00866947,0,
4,0.676218,0.259283,-0.164567,-0.00877986,0,
4,0.657495,0.237458,-0.164699,-0.00887108,0,
4,0.637962,0.21525,-0.164833,-0.00893863,0,
4,0.617561,0.192704,-0.164963,-0.00897888,0,
4,0.596848,0.170463,-0.165081,-0.00898812,0,
4,0.576557,0.149275,-0.165185,-0.00896561,0,
4,0.556564,0.129005,-0.165271,-0.00891285,0,
4,0.536763,0.109546,-0.165346,-0.00883061,0,
4,0.517057,0.0908517,-0.165423,-0.00871919,0,
4,0.497368,0.0729578,-0.165521,-0.00857935,0,
4,0.477632,0.0559869,-0.165671,-0.00841404,0,
4,0.457804,0.040102,-0.165883,-0.00822937,0,
4,0.437857,0.0254106,-0.166159,-0.00803722,0,
4,0.417786,0.0118232,-0.166327,-0.00784397,0,
4,0.397605,-0.00107243,-0.166239,-0.00743861,0,
4,0.377348,-0.0135924,-0.166066,-0.00710044,0,
4,0.357066,-0.0257508,-0.165922,-0.0067619,0,
4,0.336828,-0.0375036,-0.165753,-0.00641727,0,
4,0.316717,-0.0487955,-0.165575,-0.00606664,0,
4,0.296825,-0.0595742,-0.165386,-0.00571041,0,
4,0.27725,-0.0697974,-0.165186,-0.00535066,0,
4,0.258095,-0.0794345,-0.164978,-0.00498994,0,
4,0.239458,-0.0884658,-0.164762,-0.00463102,0,
4,0.221432,-0.0968829,-0.164539,-0.00427669,0,
4,0.2041,-0.104687,-0.164313,-0.00392957,0,
4,0.187537,-0.111888,-0.164083,-0.00359212,0,
4,0.171798,-0.118503,-0.163853,-0.00326646,0,
4,0.156928,-0.124553,-0.163624,-0.00295438,0,
4,0.142956,-0.130067,-0.163398,-0.00265729,0,
4,0.129894,-0.135071,-0.163178,-0.00237623,0,
4,0.117744,-0.139597,-0.162965,-0.00211187,0,
4,0.106492,-0.143674,-0.162761,-0.00186456,0,
4,0.0961173,-0.147333,-0.162569,-0.00163433,0,
4,0.0865883,-0.1506,-0.162387,-0.00142095,0,
4,0.0778675,-0.153502,-0.162219,-0.00122401,0,
4,0.0699123,-0.156064,-0.162064,-0.00104289,0,
4,0.062677,-0.158307,-0.161922,-0.000876887,0,
4,0.056114,-0.16025,-0.161793,-0.000725182,0,
4,0.0501747,-0.161908,-0.161678,-0.000586913,0,
4,0.0448114,-0.163296,-0.161574,-0.000461196,0,
4,0.039977,-0.164424,-0.161483,-0.000347147,0,
4,0.0356266,-0.165297,-0.161402,-0.000243907,0,
4,0.0317171,-0.165919,-0.161331,-0.00015066,0,
4,0.0282081,-0.166288,-0.16127,-6.66516e-05,0,
4,0.0250617,-0.166396,-0.161217,8.79209e-06,0,
4,0.0222427,-0.166227,-0.161171,7.62413e-05,0,
4,0.0197189,-0.165759,-0.161133,0.000136129,0,
4,0.0174603,-0.164953,-0.1611,0.000188701,0,
4,0.0154398,-0.163758,-0.161073,0.000233935,0,
4,0.0136326,-0.162093,-0.16105,0.000271408,0,
4,0.0120162,-0.159846,-0.161032,0.00030009,0,
4,0.0105703,-0.156857,-0.161018,0.000318059,0,
4,0.00927657,-0.1529,-0.161007,0.000322241,0,
4,0.00811839,-0.147681,-0.160999,0.000308612,0,
4,0.0070809,-0.140863,-0.160993,0.000273848,0,
4,0.0061507,-0.132164,-0.160989,0.000219149,0,
4,0.00531578,-0.121552,-0.160988,0.000153915,0,
4,0.00456537,-0.109399,-0.160986,9.32513e-05,0,
4,0.00388979,-0.0964034,-0.160986,4.86687e-05,0,
4,0.00328037,-0.0832915,-0.160985,2.20827e-05,0,
4,0.00272934,-0.0705701,-0.160985,8.77156e-06,0,
4,0.0022297,-0.0584942,-0.160984,3.02843e-06,0,
4,0.00177519,-0.0471453,-0.160985,8.81876e-07,0,
4,0.00136016,-0.0365144,-0.160983,2.02978e-07,0,
4,0.000979511,-0.0265519,-0.160985,3.24962e-08,0,
4,0.00062865,-0.0171927,-0.160983,2.77192e-09,0,
4,0.000303409,-0.00836672,-0.160985,6.75297e-11,0,

6,0,0,-0.0209954,0,0,
6,9,0,-0.0753179,0,0,
6,8.99969,0.0135212,-0.0753176,1.86813e-10,0,
6,8.99934,0.028769,-0.0753178,8.6219e-09,0,
6,8.99895,0.0459811,-0.0753176,1.16894e-07,0,
6,8.9985,0.065409,-0.0753177,8.42442e-07,0,
6,8.99801,0.0873111,-0.0753175,4.15886e-06,0,
6,8.99744,0.111887,-0.0753177,1.57323e-05,0,
6,8.99681,0.139109,-0.0753175,4.75509e-05,0,
6,8.99609,0.168451,-0.0753175,0.000115596,0,
6,8.99529,0.198761,-0.0753173,0.000226543,0,
6,8.99438,0.228607,-0.0753173,0.000365845,0,
6,8.99336,0.25689,-0.075317,0.000507961,0,
6,8.9922,0.283114,-0.0753168,0.000635541,0,
6,8.9909,0.307279,-0.0753164,0.000738845,0,
6,8.98944,0.329545,-0.0753161,0.000825705,0,
6,8.98779,0.350084,-0.0753155,0.000898757,0,
6,8.98593,0.369143,-0.0753148,0.000956603,0,
6,8.98383,0.386982,-0.075314,0.00100407,0,
6,8.98147,0.403808,-0.075313,0.00104427,0,
6,8.97881,0.419785,-0.0753118,0.00107869,0,
6,8.97581,0.435055,-0.0753104,0.00110867,0,
6,8.97244,0.449735,-0.0753087,0.0011352,0,
6,8.96863,0.463926,-0.0753067,0.00115903,0,
6,8.96435,0.477714,-0.0753043,0.00118073,0,
6,8.95953,0.491173,-0.0753015,0.0012007,0,
6,8.95409,0.504367,-0.0752983,0.0012192,0,
6,8.94798,0.517352,-0.0752946,0.00123642,0,
6,8.94109,0.530178,-0.0752902,0.00125244,0,
6,8.93334,0.542887,-0.0752853,0.00126729,0,
6,8.92463,0.555518,-0.0752796,0.00128091,0,
6,8.91482,0.568103,-0.0752731,0.0012932,0,
6,8.90379,0.58067,-0.0752658,0.001304,0,
6,8.89139,0.593246,-0.0752575,0.00131313,0,
6,8.87746,0.60585,-0.0752483,0.00132034,0,
6,8.86181,0.618499,-0.0752382,0.00132538,0,
6,8.84423,0.631207,-0.0752271,0.00132799,0,
6,8.82452,0.643986,-0.0752148,0.00132788,0,
6,8.80241,0.656845,-0.0752015,0.00132479,0,
6,8.77763,0.669791,-0.0751871,0.00131845,0,
6,8.74989,0.682833,-0.0751716,0.00130861,0,
6,8.71885,0.695977,-0.0751551,0.00129504,0,
6,8.68417,0.709237,-0.0751376,0.00127749,0,
6,8.64545,0.722627,-0.0751195,0.00125573,0,
6,8.60229,0.73617,-0.0751007,0.00122946,0,
6,8.55423,0.749894,-0.0750817,0.00119834,0,
6,8.50082,0.76384,-0.0750624,0.00116238,0,
6,8.44155,0.778071,-0.0750443,0.00112208,0,
6,8.37592,0.792712,-0.0750283,0.00107452,0,
6,8.30339,0.807964,-0.0750147,0.0010186,0,
6,8.22344,0.824092,-0.0750034,0.000951409,0,
6,8.13555,0.841398,-0.0749953,0.000869169,0,
6,8.0392,0.860134,-0.074986,0.000768437,0,
6,7.93391,0.88029,-0.0749758,0.000648974,0,
6,7.81927,0.901279,-0.074953,0.000517321,0,
6,7.6949,0.921722,-0.0749246,0.000388581,0,
6,7.56054,0.939783,-0.0748789,0.000272482,0,
6,7.41603,0.95385,-0.0748221,0.000140457,0,
6,7.26132,0.962939,-0.0747614,5.58017e-05,0,
6,7.09653,0.9673,-0.0746829,1.42703e-05,0,
6,6.92195,0.968389,-0.0745885,7.99015e-07,0,
6,6.73802,0.967964,-0.0744707,-9.91768e-07,0,
6,6.5454,0.967263,-0.0743268,-4.61468e-07,0,
6,6.34489,0.966788,-0.0741533,-1.26514e-07,0,
6,6.1375,0.966558,-0.0739472,-3.2942e-08,0,
6,5.92439,0.966434,-0.0737045,-1.22617e-08,0,
6,5.70687,0.966307,-0.0734209,-7.06671e-09,0,
6,5.48633,0.966136,-0.0730914,-5.58774e-09,0,
6,5.26426,0.965915,-0.0727109,-5.40058e-09,0,
6,5.04218,0.965655,-0.0722743,-5.71303e-09,0,
6,4.82159,0.965369,-0.071777,-6.20079e-09,0,
6,4.60398,0.965067,-0.0712146,-6.80098e-09,0,
6,4.39071,0.964749,-0.0705838,-7.68588e-09,0,
6,4.18307,0.964384,-0.0698822,-9.19557e-09,0,
6,3.98218,0.963909,-0.069109,-1.15503e-08,0,
6,3.78902,0.963268,-0.0682651,-1.44051e-08,0,
6,3.60438,0.962483,-0.0673535,-1.84337e-08,0,
6,3.42888,0.961727,-0.0663789,-3.79745e-08,0,
6,3.26296,0.961291,-0.0653471,-9.53085e-08,0,
6,3.10691,0.961417,-0.0642643,-9.29682e-08,0,
6,2.96084,0.962082,-0.0631376,1.49146e-07,0,
6,2.82473,0.9629,-0.061976,-1.20116e-07,0,
6,2.69844,0.963248,-0.0607916,-3.83979e-06,0,
6,2.58172,0.96251,-0.0595986,-1.54565e-05,0,
6,2.47424,0.960289,-0.0584122,-3.86737e-05,0,
6,2.37559,0.956482,-0.0572469,-7.49002e-05,0,
6,2.28535,0.951233,-0.0561156,-0.000123148,0,
6,2.20301,0.944842,-0.0550288,-0.000180652,0,
6,2.1281,0.937667,-0.0539948,-0.000243713,0,
6,2.06009,0.93006,-0.0530195,-0.000308373,0,
6,1.99849,0.922334,-0.0521054,-0.000370753,0,
6,1.9428,0.914748,-0.0512563,-0.000427661,0,
6,1.89255,0.907497,-0.0504668,-0.000478513,0,
6,1.84728,0.900664,-0.0497441,-0.000519503,0,
6,1.80655,0.894247,-0.049087,-0.000549809,0,
6,1.76996,0.88825,-0.0484812,-0.000577605,0,
6,1.73712,0.882694,-0.0479308,-0.000603049,0,
6,1.70768,0.877551,-0.0474275,-0.000626592,0,
6,1.67998,0.872592,-0.0469501,-0.000649408,0,
6,1.65329,0.86772,-0.0464835,-0.000671693,0,
6,1.62754,0.862933,-0.0460282,-0.000693402,0,
6,1.60265,0.85823,-0.0455827,-0.000714613,0,
6,1.57854,0.853611,-0.0451468,-0.000735268,0,
6,1.55515,0.849072,-0.0447195,-0.000755409,0,
6,1.53242,0.84461,-0.0443004,-0.000775059,0,
6,1.5103,0.840221,-0.0438889,-0.000794217,0,
6,1.48874,0.835892,-0.0434848,-0.000812874,0,
6,1.46769,0.831607,-0.0430874,-0.000831125,0,
6,1.44712,0.827354,-0.0426956,-0.000849259,0,
6,1.42698,0.823138,-0.0423077,-0.000867827,0,
6,1.40725,0.818988,-0.041921,-0.000887405,0,
6,1.38788,0.814956,-0.0415365,-0.000908265,0,
6,1.36886,0.811071,-0.0411521,-0.000929381,0,
6,1.35015,0.807287,-0.0407824,-0.000938154,0,
6,1.33173,0.803526,-0.040423,-0.0009453,0,
6,1.31357,0.799753,-0.0400614,-0.000956269,0,
6,1.29566,0.79595,-0.0397048,-0.000969132,0,
6,1.27797,0.792097,-0.0393498,-0.000984914,0,
6,1.26048,0.788168,-0.0389976,-0.00100485,0,
6,1.24318,0.784133,-0.0386473,-0.00103052,0,
6,1.22605,0.779954,-0.0382991,-0.00106377,0,
6,1.20907,0.775587,-0.0379528,-0.00110675,0,
6,1.19223,0.770978,-0.0376083,-0.00116184,0,
6,1.17551,0.76607,-0.0372655,-0.00123154,0,
6,1.1589,0.760799,-0.0369245,-0.00131832,0,
6,1.14238,0.755101,-0.0365853,-0.00142434,0,
6,1.12595,0.748917,-0.0362478,-0.00155117,0,
6,1.10959,0.742197,-0.0359124,-0.00169953,0,
6,1.09329,0.734907,-0.0355794,-0.00186903,0,
6,1.07704,0.727034,-0.0352492,-0.00205805,0,
6,1.06081,0.718581,-0.0349215,-0.00226379,0,
6,1.04459,0.709569,-0.0345969,-0.00248253,0,
6,1.02836,0.700042,-0.0342753,-0.00270985,0,
6,1.01211,0.690053,-0.0339576,-0.00294085,0,
6,0.99583,0.679664,-0.0336424,-0.00317073,0,
6,0.97951,0.668939,-0.0333334,-0.00339836,0,
6,0.963136,0.657919,-0.0330231,-0.00362542,0,
6,0.946694,0.646553,-0.0327071,-0.00383351,0,
6,0.930172,0.634743,-0.0323933,-0.00404656,0,
6,0.913555,0.622422,-0.0320825,-0.00426709,0,
6,0.896829,0.609538,-0.0317762,-0.00449691,0,
6,0.879979,0.596053,-0.0314748,-0.00473735,0,
6,0.862989,0.58194,-0.0311789,-0.00498936,0,
6,0.845842,0.567192,-0.0308893,-0.00525373,0,
6,0.828521,0.551825,-0.0306066,-0.00553111,0,
6,0.811008,0.535856,-0.0303329,-0.00581802,0,
6,0.793282,0.519302,-0.0300704,-0.00611113,0,
6,0.775322,0.502172,-0.0298198,-0.00640834,0,
6,0.757107,0.484484,-0.0295823,-0.0067071,0,
6,0.738612,0.466263,-0.0293588,-0.00700426,0,
6,0.719813,0.44755,-0.0291504,-0.00729614,0,
6,0.700681,0.428394,-0.0289579,-0.00757858,0,
6,0.681188,0.408857,-0.0287812,-0.00784701,0,
6,0.661304,0.388994,-0.0286179,-0.00809655,0,
6,0.640996,0.368855,-0.0284641,-0.00832197,0,
6,0.620228,0.348476,-0.0283164,-0.00851757,0,
6,0.598964,0.32791,-0.0281784,-0.00867712,0,
6,0.577166,0.307275,-0.0280674,-0.00879444,0,
6,0.554791,0.286821,-0.0280215,-0.0088655,0,
6,0.531799,0.266948,-0.0280844,-0.00888952,0,
6,0.508144,0.248089,-0.0282799,-0.00887159,0,
6,0.48378,0.230422,-0.0285307,-0.00881004,0,
6,0.459585,0.214154,-0.0284763,-0.00849755,0,
6,0.436695,0.199469,-0.0282443,-0.00818878,0,
6,0.414961,0.186044,-0.0280862,-0.00790059,0,
6,0.394252,0.173701,-0.027905,-0.00760223,0,
6,0.374445,0.162292,-0.0277298,-0.00730123,0,
6,0.355433,0.151702,-0.0275548,-0.00699812,0,
6,0.337122,0.141833,-0.0273784,-0.00669325,0,
6,0.319433,0.132601,-0.0271987,-0.00638752,0,
6,0.3023,0.123939,-0.0270144,-0.00608165,0,
6,0.28567,0.115788,-0.0268241,-0.00577633,0,
6,0.269507,0.108102,-0.0266268,-0.00547221,0,
6,0.253785,0.100844,-0.0264215,-0.00517005,0,
6,0.238493,0.0939821,-0.0262078,-0.00487066,0,
6,0.223631,0.0874934,-0.0259853,-0.00457499,0,
6,0.209207,0.0813584,-0.0257543,-0.00428406,0,
6,0.195237,0.0755617,-0.0255152,-0.003999,0,
6,0.181744,0.07009,-0.0252689,-0.00372095,0,
6,0.168754,0.064932,-0.0250167,-0.00345107,0,
6,0.156292,0.0600769,-0.0247604,-0.00319047,0,
6,0.144384,0.0555144,-0.024502,-0.00294017,0,
6,0.133052,0.0512339,-0.0242436,-0.00270105,0,
6,0.122315,0.0472242,-0.0239876,-0.00247386,0,
6,0.112183,0.0434739,-0.0237363,-0.00225914,0,
6,0.102665,0.0399709,-0.0234919,-0.00205726,0,
6,0.0937597,0.0367028,-0.0232566,-0.00186836,0,
6,0.0854609,0.0336566,-0.023032,-0.00169245,0,
6,0.077757,0.0308196,-0.0228195,-0.00152933,0,
6,0.0706309,0.0281786,-0.0226204,-0.00137869,0,
6,0.0640611,0.0257207,-0.0224351,-0.00124007,0,
6,0.0580229,0.0234333,-0.0222642,-0.00111294,0,
6,0.0524888,0.0213042,-0.0221077,-0.000996681,0,
6,0.0474296,0.0193213,-0.0219653,-0.000890649,0,
6,0.042815,0.0174733,-0.0218366,-0.000794158,0,
6,0.0386145,0.0157491,-0.021721,-0.000706519,0,
6,0.0347975,0.0141384,-0.0216177,-0.000627048,0,
6,0.0313344,0.0126311,-0.021526,-0.000555078,0,
6,0.0281964,0.0112179,-0.0214449,-0.000489963,0,
6,0.0253561,0.00988966,-0.0213735,-0.000431091,0,
6,0.0227875,0.00863776,-0.0213112,-0.000377881,0,
6,0.0204662,0.00745395,-0.0212568,-0.000329788,0,
6,0.0183694,0.00633025,-0.0212099,-0.0002863,0,
6,0.016476,0.00525892,-0.0211692,-0.000246942,0,
6,0.0147664,0.00423241,-0.0211349,-0.000211269,0,
6,0.0132228,0.00324336,-0.0211053,-0.00017887,0,
6,0.0118288,0.00228461,-0.021081,-0.000149361,0,
6,0.0105693,0.00134954,-0.0210602,-0.000122398,0,
6,0.00943073,0.000432657,-0.0210442,-9.76869e-05,0,
6,0.00840063,-0.000468817,-0.0210304,-7.50425e-05,0,
6,0.00746774,-0.001352,-0.0210211,-5.44771e-05,0,
6,0.00662185,-0.0022032,-0.0210128,-3.63587e-05,0,
6,0.00585371,-0.00299166,-0.0210087,-2.14779e-05,0,
6,0.00515491,-0.00366784,-0.0210042,-1.06982e-05,0,
6,0.00451788,-0.00417567,-0.0210034,-4.19516e-06,0,
6,0.00393573,-0.00447676,-0.0210008,-1.08539e-06,0,
6,0.00340221,-0.00456592,-0.0210015,1.63092e-08,0,
6,0.00291168,-0.00446505,-0.0209993,2.33551e-07,0,
6,0.00245897,-0.00420711,-0.0210008,1.78406e-07,0,
6,0.00203939,-0.00382437,-0.0209984,9.187e-08,0,
6,0.00164864,-0.00334351,-0.0210004,3.61198e-08,0,
6,0.00128281,-0.00278485,-0.0209974,1.06439e-08,0,
6,0.000938257,-0.002163,-0.0210001,2.10913e-09,0,
6,0.000611645,-0.00148792,-0.0209965,2.16771e-10,0,
6,0.000299862,-0.000765799,-0.0210001,6.13191e-12,0,

10,0.000296632,0.0083241,0.0299377,-4.74893e-11,0,
10,0.000596102,0.0167247,0.0299384,-1.75992e-09,0,
10,0.000900397,0.0252574,0.0299376,-1.78927e-08,0,
10,0.00121153,0.0339782,0.0299382,-9.61452e-08,0,
10,0.00153158,0.0429432,0.0299376,-3.59612e-07,0,
10,0.00186264,0.0522075,0.029938,-1.0691e-06,0,
10,0.00220692,0.0618225,0.0299375,-2.71342e-06,0,
10,0.00256668,0.0718316,0.0299379,-6.12608e-06,0,
10,0.00294431,0.0822625,0.0299374,-1.26038e-05,0,
10,0.00334229,0.0931157,0.0299377,-2.39559e-05,0,
10,0.00376326,0.104351,0.0299373,-4.23576e-05,0,
10,0.00421,0.115873,0.0299374,-6.98754e-05,0,
10,0.00468544,0.127532,0.029937,-0.000107687,0,
10,0.00519274,0.13913,0.029937,-0.000155335,0,
10,0.00573524,0.150454,0.0299364,-0.000210534,0,
10,0.00631651,0.161308,0.0299361,-0.000269776,0,
10,0.00694041,0.171544,0.0299352,-0.000329374,0,
10,0.00761104,0.181071,0.0299345,-0.000386332,0,
10,0.00833284,0.18985,0.0299331,-0.00043872,0,
10,0.00911058,0.197888,0.0299317,-0.000485631,0,
10,0.0099494,0.20522,0.0299296,-0.000526927,0,
10,0.0108548,0.211899,0.0299272,-0.000562971,0,
10,0.0118329,0.217988,0.029924,-0.000594398,0,
10,0.0128901,0.223551,0.0299204,-0.000621961,0,
10,0.0140333,0.228652,0.0299159,-0.000646427,0,
10,0.0152702,0.233349,0.0299106,-0.000668522,0,
10,0.0166089,0.237696,0.0299042,-0.000688905,0,
10,0.0180584,0.24174,0.0298969,-0.00070816,0,
10,0.0196282,0.245523,0.0298883,-0.000726798,0,
10,0.0213288,0.249083,0.0298784,-0.000745268,0,
10,0.0231714,0.252452,0.029867,-0.000763968,0,
10,0.0251682,0.255658,0.029854,-0.000783255,0,
10,0.0273326,0.258727,0.0298392,-0.000803455,0,
10,0.0296789,0.26168,0.0298225,-0.000824875,0,
10,0.0322227,0.264539,0.0298036,-0.000847809,0,
10,0.0349809,0.26732,0.0297824,-0.000872542,0,
10,0.0379719,0.270041,0.0297586,-0.000899364,0,
10,0.0412155,0.272716,0.029732,-0.000928566,0,
10,0.0447333,0.275361,0.0297024,-0.000960448,0,
10,0.0485489,0.277988,0.0296694,-0.000995326,0,
10,0.0526875,0.280612,0.029633,-0.00103353,0,
10,0.0571768,0.283246,0.0295926,-0.00107541,0,
10,0.0620466,0.285902,0.0295482,-0.00112134,0,
10,0.0673295,0.288594,0.0294994,-0.00117173,0,
10,0.0730607,0.291337,0.0294459,-0.00122698,0,
10,0.0792784,0.294144,0.0293875,-0.00128757,0,
10,0.0860241,0.297031,0.0293239,-0.00135399,0,
10,0.0933428,0.300015,0.0292548,-0.00142674,0,
10,0.101283,0.303115,0.0291801,-0.00150639,0,
10,0.109899,0.306349,0.0290996,-0.00159353,0,
10,0.119247,0.30974,0.0290131,-0.00168878,0,
10,0.12939,0.313312,0.0289206,-0.00179279,0,
10,0.140395,0.317094,0.0288221,-0.00190622,0,
10,0.152337,0.321117,0.0287175,-0.00202976,0,
10,0.165296,0.325416,0.028607,-0.0021641,0,
10,0.179357,0.330033,0.0284908,-0.0023099,0,
10,0.194615,0.335014,0.0283692,-0.00246777,0,
10,0.211171,0.340414,0.0282424,-0.00263826,0,
10,0.229138,0.346295,0.0281106,-0.00282175,0,
10,0.248635,0.35273,0.0279747,-0.00301846,0,
10,0.269793,0.359803,0.0278337,-0.00322827,0,
10,0.292753,0.36761,0.0276899,-0.00345066,0,
10,0.317669,0.376266,0.0275393,-0.00368323,0,
10,0.344708,0.385891,0.0273875,-0.00392237,0,
10,0.372405,0.39603,0.0272392,-0.00415714,0,
10,0.399623,0.406286,0.0270967,-0.00437623,0,
10,0.426397,0.41666,0.0269608,-0.00457625,0,
10,0.452757,0.427154,0.0268296,-0.00475875,0,
10,0.478735,0.437775,0.0267053,-0.0049213,0,
10,0.504358,0.44854,0.0265878,-0.00506254,0,
10,0.529657,0.459468,0.026478,-0.00518152,0,
10,0.554656,0.470575,0.026369,-0.00527861,0,
10,0.579382,0.481873,0.0262686,-0.0053532,0,
10,0.603859,0.493368,0.0261536,-0.00542002,0,
10,0.628112,0.505129,0.0260765,-0.00548729,0,
10,0.652163,0.517472,0.0260764,-0.00541379,0,
10,0.676035,0.530712,0.0260704,-0.00531133,0,
10,0.699751,0.544805,0.0260247,-0.00517889,0,
10,0.72333,0.559492,0.0259392,-0.00501647,0,
10,0.746795,0.574457,0.0258222,-0.00482681,0,
10,0.770165,0.589444,0.0256846,-0.00461427,0,
10,0.79346,0.60428,0.0255333,-0.0043838,0,
10,0.816699,0.618858,0.0253716,-0.00414026,0,
10,0.839903,0.633093,0.0252003,-0.00388856,0,
10,0.863088,0.646883,0.025017,-0.00363881,0,
10,0.886275,0.660115,0.0248208,-0.00339696,0,
10,0.909481,0.672713,0.0246148,-0.00316358,0,
10,0.932723,0.684659,0.0244011,-0.00293919,0,
10,0.956021,0.695976,0.024181,-0.00272449,0,
10,0.97939,0.706701,0.0239545,-0.00252012,0,
10,1.00285,0.716868,0.0237217,-0.00232666,0,
10,1.02641,0.726502,0.0234816,-0.0021446,0,
10,1.0501,0.735624,0.0232351,-0.00197432,0,
10,1.07392,0.744257,0.0229811,-0.00181602,0,
10,1.0979,0.752433,0.0227228,-0.00166652,0,
10,1.12205,0.760177,0.0224581,-0.0015282,0,
10,1.14639,0.767492,0.0221841,-0.00140385,0,
10,1.17093,0.774382,0.0219026,-0.00129316,0,
10,1.19568,0.780867,0.0216131,-0.00119671,0,
10,1.22066,0.78698,0.021316,-0.0011143,0,
10,1.24589,0.792769,0.021012,-0.00104504,0,
10,1.27137,0.798283,0.0207006,-0.000987716,0,
10,1.29713,0.803579,0.020384,-0.000946369,0,
10,1.32317,0.808772,0.0200625,-0.000900157,0,
10,1.34951,0.813996,0.019735,-0.000856223,0,
10,1.37616,0.819284,0.0194023,-0.000815708,0,
10,1.40313,0.824589,0.0190617,-0.000778562,0,
10,1.43043,0.829842,0.0187133,-0.000744415,0,
10,1.45807,0.835007,0.0183567,-0.000712567,0,
10,1.48607,0.840087,0.017993,-0.00068229,0,
10,1.51444,0.845104,0.0176221,-0.000653088,0,
10,1.54318,0.850075,0.0172442,-0.00062475,0,
10,1.57231,0.854994,0.0168587,-0.000597225,0,
10,1.60184,0.859842,0.0164657,-0.000570514,0,
10,1.63178,0.864593,0.0160647,-0.000544615,0,
10,1.66213,0.869221,0.0156565,-0.000519542,0,
10,1.69292,0.873707,0.0152404,-0.000495258,0,
10,1.72416,0.878045,0.0148177,-0.000471586,0,
10,1.75585,0.882256,0.0143858,-0.000446221,0,
10,1.78802,0.886394,0.0139452,-0.000417513,0,
10,1.82067,0.890483,0.0134978,-0.000389728,0,
10,1.85383,0.894508,0.0130418,-0.000360976,0,
10,1.88751,0.898448,0.0125776,-0.000331275,0,
10,1.92173,0.902279,0.0121051,-0.000300968,0,
10,1.95652,0.905975,0.0116236,-0.000270473,0,
10,1.9919,0.909512,0.0111341,-0.000240273,0,
10,2.02791,0.912865,0.0106348,-0.000210923,0,
10,2.06456,0.916016,0.010128,-0.000182665,0,
10,2.10268,0.919002,0.00959899,-0.0001551,0,
10,2.1443,0.921912,0.00902444,-0.000128609,0,
10,2.18977,0.924694,0.00839722,-0.000103336,0,
10,2.23946,0.927267,0.0077156,-7.95943e-05,0,
10,2.29376,0.929545,0.00697412,-5.8205e-05,0,
10,2.35309,0.931448,0.00617053,-3.98497e-05,0,
10,2.4179,0.932906,0.00530085,-2.50327e-05,0,
10,2.48863,0.933874,0.00436343,-1.40186e-05,0,
10,2.56575,0.934351,0.00335612,-6.72472e-06,0,
10,2.64971,0.93439,0.00227865,-2.65935e-06,0,
10,2.74098,0.934112,0.00113095,-9.66024e-07,0,
10,2.83997,0.933694,-8.55455e-05,-6.1278e-07,0,
10,2.94709,0.93334,-0.00136901,-6.96032e-07,0,
10,3.06269,0.933236,-0.0027164,-7.00564e-07,0,
10,3.18706,0.93349,-0.00412392,-5.29992e-07,0,
10,3.3204,0.934108,-0.00558627,-3.06354e-07,0,
10,3.46281,0.934997,-0.00709658,-1.42803e-07,0,
10,3.61427,0.93601,-0.00864587,-6.13376e-08,0,
10,3.77463,0.937012,-0.0102233,-3.14878e-08,0,
10,3.94358,0.937922,-0.0118162,-2.24158e-08,0,
10,4.12067,0.938724,-0.0134113,-1.93444e-08,0,
10,4.30525,0.939451,-0.0149945,-1.79605e-08,0,
10,4.49655,0.940147,-0.0165521,-1.74489e-08,0,
10,4.6936,0.94084,-0.018071,-1.77872e-08,0,
10,4.89531,0.941532,-0.0195391,-1.94686e-08,0,
10,5.10047,0.942209,-0.0209455,-2.39476e-08,0,
10,5.30776,0.942851,-0.0222811,-3.44697e-08,0,
10,5.51581,0.943441,-0.0235387,-5.7753e-08,0,
10,5.72323,0.943976,-0.0247129,-1.08237e-07,0,
10,5.92863,0.94448,-0.0258005,-2.21228e-07,0,
10,6.13069,0.94502,-0.0268,-4.8966e-07,0,
10,6.32816,0.945691,-0.0277121,-1.10831e-06,0,
10,6.51991,0.946526,-0.0285391,-2.15933e-06,0,
10,6.70495,0.947294,-0.0292844,-2.33461e-06,0,
10,6.88244,0.947283,-0.0299517,3.72638e-06,0,
10,7.0517,0.945264,-0.030545,2.69309e-05,0,
10,7.21224,0.93985,-0.0310649,8.05826e-05,0,
10,7.3637,0.930157,-0.0315171,0.000173874,0,
10,7.5059,0.916226,-0.0319056,0.000297524,0,
10,7.63878,0.898649,-0.0322345,0.000405324,0,
10,7.76243,0.878533,-0.0325136,0.000524473,0,
10,7.87701,0.857643,-0.0327376,0.000646176,0,
10,7.9828,0.837436,-0.0329228,0.000756577,0,
10,8.08014,0.818624,-0.0330713,0.00085066,0,
10,8.16941,0.80129,-0.0331944,0.000928932,0,
10,8.25106,0.785186,-0.0332959,0.000994563,0,
10,8.32554,0.769986,-0.0333821,0.00105079,0,
10,8.39331,0.755409,-0.0334553,0.00109987,0,
10,8.45484,0.741257,-0.0335181,0.00114307,0,
10,8.5106,0.727409,-0.0335716,0.00118101,0,
10,8.56104,0.713805,-0.0336177,0.0012139,0,
10,8.60659,0.700429,-0.0336571,0.00124184,0,
10,8.64767,0.687288,-0.0336913,0.00126494,0,
10,8.68467,0.674387,-0.0337208,0.00128315,0,
10,8.71795,0.661702,-0.0337465,0.00129297,0,
10,8.74786,0.649203,-0.0337688,0.0012993,0,
10,8.77471,0.636888,-0.0337879,0.00130135,0,
10,8.79881,0.624752,-0.0338045,0.00129957,0,
10,8.8204,0.612788,-0.0338186,0.00129446,0,
10,8.83975,0.600984,-0.0338308,0.00128655,0,
10,8.85708,0.589329,-0.0338411,0.00127631,0,
10,8.87259,0.577802,-0.0338501,0.00126419,0,
10,8.88646,0.566384,-0.0338578,0.00125061,0,
10,8.89886,0.55505,-0.0338643,0.00123589,0,
10,8.90995,0.543772,-0.0338697,0.00122033,0,
10,8.91986,0.532521,-0.0338743,0.00120415,0,
10,8.92872,0.521263,-0.0338781,0.0011875,0,
10,8.93663,0.509962,-0.0338813,0.00117048,0,
10,8.94369,0.49858,-0.033884,0.00115312,0,
10,8.95,0.487075,-0.0338861,0.00113537,0,
10,8.95564,0.475401,-0.033888,0.00111717,0,
10,8.96067,0.463509,-0.0338895,0.00109834,0,
10,8.96517,0.451345,-0.0338908,0.00107863,0,
10,8.96918,0.438846,-0.0338917,0.00105772,0,
10,8.97276,0.425943,-0.0338927,0.00103517,0,
10,8.97596,0.412557,-0.0338932,0.00101042,0,
10,8.97882,0.398595,-0.0338939,0.000982753,0,
10,8.98137,0.383949,-0.0338942,0.000951227,0,
10,8.98365,0.368492,-0.0338948,0.000914633,0,
10,8.98569,0.352074,-0.0338949,0.000871575,0,
10,8.9875,0.334513,-0.0338954,0.000819782,0,
10,8.98913,0.315573,-0.0338953,0.000754337,0,
10,8.99058,0.295027,-0.0338958,0.000677008,0,
10,8.99188,0.272711,-0.0338955,0.000585436,0,
10,8.99304,0.248466,-0.0338961,0.000472765,0,
10,8.99408,0.222251,-0.0338957,0.000346658,0,
10,8.99501,0.194436,-0.0338962,0.000220799,0,
10,8.99583,0.165924,-0.0338957,0.000117016,0,
10,8.99658,0.13798,-0.0338963,5.02424e-05,0,
10,8.99724,0.11172,-0.0338957,1.73372e-05,0,
10,8.99784,0.0877287,-0.0338964,4.76234e-06,0,
10,8.99837,0.0661168,-0.0338957,9.98692e-07,0,
10,8.99885,0.0467495,-0.0338965,1.43062e-07,0,
10,8.99927,0.0294155,-0.0338957,1.08611e-08,0,
10,8.99966,0.0139003,-0.0338967,2.403e-10,0,
10,0,0,0.0299385,0,0,
10,9,0,-0.0338956,0,0,

0.004,0,0,-0.225203,0,-7.90892e-08,
0.00868226,0,0,-0.2252,0,-1.78709e-07,
0.014062,0,0,-0.225202,0,-3.01731e-07,
0.0201548,0,0,-0.225201,0,-7.08721e-07,
0.0269766,0,0,-0.225202,0,-1.19845e-06,
0.0345437,0,0,-0.225201,0,-1.81554e-06,
0.0428729,0,0,-0.2252,0,-2.39011e-06,
0.051981,0,0,-0.225199,0,-2.83954e-06,
0.0618853,0,0,-0.225196,0,-2.97609e-06,
0.0726036,0,0,-0.225193,0,-2.63581e-06,
0.0841536,0,0,-0.225189,0,-1.6242e-06,
0.0965535,0,0,-0.225186,0,2.11257e-07,
0.109822,0,0,-0.225182,0,2.96283e-06,
0.123977,0,0,-0.225181,0,6.62242e-06,
0.139037,0,0,-0.225182,0,1.10609e-05,
0.155022,0,0,-0.225188,0,1.60435e-05,
0.171949,0,0,-0.225197,0,2.12496e-05,
0.189839,0,0,-0.225212,0,2.63318e-05,
0.208709,0,0,-0.225232,0,3.09526e-05,
0.228579,0,0,-0.225256,0,3.48374e-05,
0.249467,0,0,-0.225282,0,3.77913e-05,
0.271391,0,0,-0.225311,0,3.97206e-05,
0.29437,0,0,-0.22534,0,4.06259e-05,
0.31842,0,0,-0.225368,0,4.05989e-05,
0.343559,0,0,-0.225395,0,3.98017e-05,
0.369804,0,0,-0.225419,0,3.84512e-05,
0.39717,0,0,-0.22544,0,3.67949e-05,
0.425672,0,0,-0.225459,0,3.50971e-05,
0.455324,0,0,-0.225477,0,3.36196e-05,
0.48614,0,0,-0.225493,0,3.26229e-05,
0.518132,0,0,-0.225509,0,3.23494e-05,
0.551309,0,0,-0.225528,0,3.29752e-05,
0.585683,0,0,-0.225551,0,3.45904e-05,
0.621259,0,0,-0.225581,0,3.71965e-05,
0.658046,0,0,-0.225622,0,4.07134e-05,
0.696047,0,0,-0.225676,0,4.50032e-05,
0.735265,0,0,-0.225748,0,4.98986e-05,
0.7757,0,0,-0.22584,0,5.52248e-05,
0.817352,0,0,-0.225958,0,6.0798e-05,
0.860215,0,0,-0.226107,0,6.63769e-05,
0.904285,0,0,-0.226297,0,7.15118e-05,
0.949552,0,0,-0.226541,0,7.54072e-05,
0.996004,0,0,-0.226855,0,7.68798e-05,
1.04363,0,0,-0.227259,0,7.43315e-05,
1.09241,0,0,-0.227773,0,6.58398e-05,
1.14232,0,0,-0.228415,0,4.94904e-05,
1.19335,0,0,-0.229192,0,2.38602e-05,
1.24546,0,0,-0.230098,0,-1.15169e-05,
1.29863,0,0,-0.231115,0,-5.59247e-05,
1.35283,0,0,-0.232216,0,-0.000107643,
1.40802,0,0,-0.233368,0,-0.000164464,
1.46416,0,0,-0.234541,0,-0.000224284,
1.52121,0,0,-0.235709,0,-0.000285516,
1.57913,0,0,-0.236848,0,-0.000347197,
1.63787,0,0,-0.237941,0,-0.000408871,
1.69739,0,0,-0.23897,0,-0.000470381,
1.75761,0,0,-0.239922,0,-0.000531697,
1.81851,0,0,-0.240783,0,-0.00059281,
1.88,0,0,-0.24154,0,-0.000653689,
1.94204,0,0,-0.24218,0,-0.000714275,
2.00457,0,0,-0.242692,0,-0.000774486,
2.06751,0,0,-0.243064,0,-0.000834222,
2.13081,0,0,-0.243285,0,-0.000893373,
2.19439,0,0,-0.243344,0,-0.000951819,
2.25819,0,0,-0.243231,0,-0.00100943,
2.32214,0,0,-0.242938,0,-0.00106605,
2.38617,0,0,-0.242454,0,-0.00112154,
2.4502,0,0,-0.241774,0,-0.00117571,
2.51418,0,0,-0.240891,0,-0.0012284,
2.57803,0,0,-0.2398,0,-0.0012794,
2.64167,0,0,-0.238496,0,-0.00132852,
2.70505,0,0,-0.236979,0,-0.00137555,
2.76808,0,0,-0.235246,0,-0.00142024,
2.83072,0,0,-0.233301,0,-0.00146237,
2.89288,0,0,-0.231145,0,-0.00150171,
2.95451,0,0,-0.228786,0,-0.00153804,
3.01555,0,0,-0.226232,0,-0.00157115,
3.07594,0,0,-0.223493,0,-0.00160089,
3.13561,0,0,-0.220583,0,-0.00162715,
3.19453,0,0,-0.217517,0,-0.00164989,
3.25262,0,0,-0.21431,0,-0.00166912,
3.30985,0,0,-0.210982,0,-0.0016849,
3.36617,0,0,-0.20755,0,-0.00169732,
3.42154,0,0,-0.204032,0,-0.00170654,
3.47591,0,0,-0.200445,0,-0.00171269,
3.52925,0,0,-0.196809,0,-0.00171597,
3.58152,0,0,-0.193141,0,-0.00171655,
3.6327,0,0,-0.189455,0,-0.00171465,
3.68276,0,0,-0.185769,0,-0.00171046,
3.73167,0,0,-0.182095,0,-0.0017042,
3.77941,0,0,-0.178448,0,-0.00169607,
3.82596,0,0,-0.174839,0,-0.00168628,
3.8713,0,0,-0.171279,0,-0.00167502,
3.91543,0,0,-0.167774,0,-0.00166235,
3.95833,0,0,-0.164352,0,-0.0016488,
4,0,0,-0.160983,0,-0.00163426,
4.04167,0,0,-0.157602,0,-0.00161836,
4.08333,0,0,-0.154205,0,-0.00160133,
4.125,0,0,-0.150794,0,-0.00158316,
4.16667,0,0,-0.147373,0,-0.00156389,
4.20833,0,0,-0.143946,0,-0.00154353,
4.25,0,0,-0.140516,0,-0.00152215,
4.29167,0,0,-0.137086,0,-0.00149979,
4.33333,0,0,-0.133658,0,-0.00147648,
4.375,0,0,-0.130237,0,-0.00145227,
4.41667,0,0,-0.126824,0,-0.0014272,
4.45833,0,0,-0.123422,0,-0.0014013,
4.5,0,0,-0.120034,0,-0.00137462,
4.54167,0,0,-0.116663,0,-0.0013472,
4.58333,0,0,-0.11331,0,-0.00131907,
4.625,0,0,-0.109978,0,-0.00129026,
4.66667,0,0,-0.106669,0,-0.00126082,
4.70833,0,0,-0.103385,0,-0.00123078,
4.75,0,0,-0.100128,0,-0.00120017,
4.79167,0,0,-0.0969002,0,-0.00116902,
4.83333,0,0,-0.0937025,0,-0.00113735,
4.875,0,0,-0.0905369,0,-0.00110521,
4.91667,0,0,-0.0874049,0,-0.00107262,
4.95833,0,0,-0.084308,0,-0.00103962,
5,0,0,-0.0812476,0,-0.00100622,
5.04167,0,0,-0.0782248,0,-0.000972453,
5.08333,0,0,-0.075241,0,-0.000938354,
5.125,0,0,-0.0722972,0,-0.000903945,
5.16667,0,0,-0.0693944,0,-0.000869252,
5.20833,0,0,-0.0665336,0,-0.0008343,
5.25,0,0,-0.0637158,0,-0.000799112,
5.29167,0,0,-0.0609416,0,-0.000763714,
5.33333,0,0,-0.058212,0,-0.000728129,
5.375,0,0,-0.0555275,0,-0.000692382,
5.41667,0,0,-0.0528888,0,-0.000656495,
5.45833,0,0,-0.0502964,0,-0.000620492,
5.5,0,0,-0.0477508,0,-0.000584395,
5.54167,0,0,-0.0452526,0,-0.000548226,
5.58333,0,0,-0.042802,0,-0.000512006,
5.625,0,0,-0.0403994,0,-0.000475754,
5.66667,0,0,-0.0380452,0,-0.000439489,
5.70833,0,0,-0.0357396,0,-0.000403227,
5.75,0,0,-0.0334831,0,-0.000366986,
5.79167,0,0,-0.0312758,0,-0.000330783,
5.83333,0,0,-0.0291183,0,-0.000294636,
5.875,0,0,-0.0270109,0,-0.00025857,
5.91667,0,0,-0.0249543,0,-0.000222624,
5.95833,0,0,-0.022949,0,-0.00018686,
6,0,0,-0.0209956,0,-0.000151361,
6.04167,0,0,-0.0190936,0,-0.000116203,
6.08333,0,0,-0.0172425,0,-8.14351e-05,
6.125,0,0,-0.0154411,0,-4.70723e-05,
6.16667,0,0,-0.0136886,0,-1.31095e-05,
6.20833,0,0,-0.011984,0,2.04633e-05,
6.25,0,0,-0.0103265,0,5.36536e-05,
6.29167,0,0,-0.00871524,0,8.64656e-05,
6.33333,0,0,-0.00714936,0,0.000118901,
6.375,0,0,-0.00562811,0,0.000150961,
6.41667,0,0,-0.00415073,0,0.000182645,
6.45833,0,0,-0.00271643,0,0.000213952,
6.5,0,0,-0.00132447,0,0.000244878,
6.54167,0,0,2.59374e-05,0,0.000275424,
6.58333,0,0,0.00133555,0,0.000305588,
6.625,0,0,0.00260512,0,0.00033537,
6.66667,0,0,0.00383542,0,0.000364769,
6.70833,0,0,0.00502719,0,0.000393784,
6.75,0,0,0.00618118,0,0.000422416,
6.79167,0,0,0.00729813,0,0.000450664,
6.83333,0,0,0.00837879,0,0.000478528,
6.875,0,0,0.0094239,0,0.000506007,
6.91667,0,0,0.0104342,0,0.000533102,
6.95833,0,0,0.0114104,0,0.000559813,
7,0,0,0.0123533,0,0.000586141,
7.04167,0,0,0.0132635,0,0.000612087,
7.08333,0,0,0.0141418,0,0.000637652,
7.125,0,0,0.0149889,0,0.000662836,
7.16667,0,0,0.0158055,0,0.000687641,
7.20833,0,0,0.0165923,0,0.000712067,
7.25,0,0,0.0173499,0,0.000736117,
7.29167,0,0,0.0180792,0,0.000759792,
7.33333,0,0,0.0187807,0,0.000783097,
7.375,0,0,0.019455,0,0.000806034,
7.41667,0,0,0.0201029,0,0.000828609,
7.45833,0,0,0.020725,0,0.000850825,
7.5,0,0,0.0213219,0,0.000872691,
7.54167,0,0,0.0218943,0,0.00089422,
7.58333,0,0,0.0224428,0,0.000915423,
7.625,0,0,0.0229679,0,0.000936306,
7.66667,0,0,0.0234702,0,0.000956877,
7.70833,0,0,0.0239501,0,0.000977136,
7.75,0,0,0.024408,0,0.000997088,
7.79167,0,0,0.0248445,0,0.00101673,
7.83333,0,0,0.0252593,0,0.00103606,
7.875,0,0,0.0256527,0,0.00105512,
7.91667,0,0,0.0260353,0,0.00107447,
7.95833,0,0,0.0263398,0,0.00109264,
8,0,0,0.0267255,0,0.00111073,
8.04171,0,0,0.0271287,0,0.00112984,
8.08368,0,0,0.0274,0,0.0011487,
8.12617,0,0,0.0277101,0,0.00116585,
8.16946,0,0,0.0280034,0,0.00118308,
8.21382,0,0,0.0282797,0,0.00120032,
8.25952,0,0,0.0285467,0,0.00121759,
8.30685,0,0,0.0288039,0,0.00123508,
8.35611,0,0,0.0290517,0,0.00125287,
8.40762,0,0,0.02929,0,0.00127104,
8.46168,0,0,0.0295183,0,0.00128967,
8.51865,0,0,0.0297359,0,0.0013088,
8.57889,0,0,0.0299414,0,0.00132848,
8.64276,0,0,0.0301331,0,0.00134876,
8.71067,0,0,0.0303091,0,0.00136967,
8.78306,0,0,0.0304666,0,0.00139122,
8.86037,0,0,0.0306029,0,0.00141345,
8.94309,0,0,0.0307145,0,0.00143635,
9.03174,0,0,0.0307976,0,0.00145991,
9.12689,0,0,0.030848,0,0.00148414,
9.22912,0,0,0.0308612,0,0.00150899,
9.33908,0,0,0.0308323,0,0.00153444,
9.45746,0,0,0.0307564,0,0.00156043,
9.58501,0,0,0.0306282,0,0.0015869,
9.72253,0,0,0.0304424,0,0.00161379,
9.87088,0,0,0.0301937,0,0.00164101,
10.031,0,0,0.0298773,0,0.00166845,
10.2039,0,0,0.029489,0,0.001696,
10.3906,0,0,0.0290252,0,0.00172356,
10.5924,0,0,0.0284827,0,0.00175097,
10.8105,0,0,0.027861,0,0.00177813,
11.0463,0,0,0.0271601,0,0.0018049,
11.3012,0,0,0.0263806,0,0.00183118,
11.5769,0,0,0.0255269,0,0.00185684,
11.8751,0,0,0.0246036,0,0.00188178,
12.1977,0,0,0.0236184,0,0.00190592,
12.5466,0,0,0.0225804,0,0.00192918,
12.9242,0,0,0.0215003,0,0.00195151,
13.3327,0,0,0.0203905,0,0.00197287,
13.7748,0,0,0.0192652,0,0.00199326,
14.2532,0,0,0.0181382,0,0.00201266,
14.7709,0,0,0.0170247,0,0.0020311,
15.3312,0,0,0.0159388,0,0.00204863,
15.9377,0,0,0.0148935,0,0.0020653,
16.594,0,0,0.0139011,0,0.00208118,
17.3044,0,0,0.0129709,0,0.00209634,
18.0733,0,0,0.0121101,0,0.00211084,
18.9056,0,0,0.011322,0,0.00212461,
19.8064,0,0,0.0106071,0,0.00213758,
20.7816,0,0,0.00996287,0,0.00214997,
21.8371,0,0,0.00938259,0,0.00216211,
22.9796,0,0,0.00885641,0,0.0021742,
24.2163,0,0,0.00837115,0,0.00218635,
25.5551,0,0,0.00791172,0,0.0021986,
27.0042,0,0,0.00746149,0,0.00221105,
28.5729,0,0,0.00700266,0,0.00222376,
30.271,0,0,0.00651703,0,0.00223675,
32.1091,0,0,0.00598678,0,0.00224994,
34.0989,0,0,0.00539657,0,0.00226324,
36.2529,0,0,0.00472863,0,0.00227663,
38.5845,0,0,0.00397429,0,0.00229003,
41.1085,0,0,0.00317098,0,0.00230325,
43.8407,0,0,0.00216235,0,0.00231406,
46.7983,0,0,0.00111364,0,0.00232037,
50,0,0,0.00208961,0,0.00233646,

