851b4681f3fd9d3f56e9ac39451ac4ef9e5a6932 
X,Z,x_velocity,cp,uw_b,cf,
1,0,0,-0.233054,0,0,
1,9,0,-0.127493,0,0,
1,8.99969,0.0153322,-0.127492,2.81916e-10,0,
1,8.99934,0.0327273,-0.127493,1.31781e-08,0,
1,8.99894,0.0524811,-0.127492,1.81795e-07,0,
1,8.99848,0.0749064,-0.127493,1.33289e-06,0,
1,8.99797,0.100315,-0.127492,6.664e-06,0,
1,8.99739,0.128906,-0.127492,2.52398e-05,0,
1,8.99672,0.160491,-0.127492,7.4859e-05,0,
1,8.99597,0.194144,-0.127492,0.000174316,0,
1,8.99512,0.228225,-0.127492,0.000321879,0,
1,8.99416,0.26108,-0.127492,0.00048934,0,
1,8.99306,0.291726,-0.127492,0.000647277,0,
1,8.99182,0.31998,-0.127492,0.000774845,0,
1,8.99041,0.345981,-0.127491,0.000880327,0,
1,8.98881,0.369889,-0.127491,0.000967517,0,
1,8.98699,0.391922,-0.12749,0.00103873,0,
1,8.98494,0.412368,-0.127489,0.00109462,0,
1,8.98261,0.431538,-0.127488,0.00113762,0,
1,8.97996,0.449668,-0.127487,0.00117365,0,
1,8.97696,0.466931,-0.127486,0.00120356,0,
1,8.97356,0.48347,-0.127485,0.00122862,0,
1,8.9697,0.499401,-0.127483,0.0012498,0,
1,8.96533,0.514824,-0.127481,0.0012678,0,
1,8.96038,0.529821,-0.127479,0.00128313,0,
1,8.95476,0.544463,-0.127477,0.00129616,0,
1,8.9484,0.558809,-0.127474,0.00130715,0,
1,8.9412,0.57291,-0.127471,0.00131626,0,
1,8.93303,0.586807,-0.127468,0.00132361,0,
1,8.92379,0.600539,-0.127465,0.00132922,0,
1,8.91333,0.614137,-0.127462,0.00133312,0,
1,8.90149,0.627629,-0.127458,0.00133526,0,
1,8.8881,0.641039,-0.127455,0.0013356,0,
1,8.87295,0.654388,-0.127451,0.00133405,0,
1,8.85584,0.667697,-0.127449,0.00133052,0,
1,8.83651,0.680984,-0.127447,0.00132489,0,
1,8.81469,0.694268,-0.127446,0.00131703,0,
1,8.79007,0.707568,-0.127447,0.00130678,0,
1,8.76232,0.720905,-0.127451,0.00129398,0,
1,8.73107,0.734305,-0.127457,0.00127839,0,
1,8.69591,0.747796,-0.127469,0.00125973,0,
1,8.6564,0.761414,-0.127486,0.00123768,0,
1,8.61206,0.775204,-0.127511,0.00121181,0,
1,8.56236,0.789221,-0.127545,0.00118178,0,
1,8.50675,0.80354,-0.127593,0.0011485,0,
1,8.44464,0.818292,-0.127658,0.00110945,0,
1,8.3754,0.833694,-0.127743,0.00105829,0,
1,8.29839,0.850003,-0.127855,0.000995411,0,
1,8.21296,0.867471,-0.128001,0.000916335,0,
1,8.11843,0.886294,-0.128186,0.000815829,0,
1,8.01417,0.906477,-0.128425,0.0006904,0,
1,7.89956,0.927583,-0.128712,0.000543362,0,
1,7.77403,0.948495,-0.129087,0.000393007,0,
1,7.63711,0.967609,-0.129537,0.000209081,0,
1,7.48842,0.982602,-0.130068,7.81975e-05,0,
1,7.32773,0.991514,-0.130707,1.90322e-05,0,
1,7.15495,0.994785,-0.131449,1.94352e-06,0,
1,6.97022,0.994877,-0.132311,2.87048e-08,0,
1,6.77388,0.994261,-0.133306,3.82169e-09,0,
1,6.56652,0.994136,-0.134452,9.89117e-09,0,
1,6.34896,0.994587,-0.135763,1.25614e-08,0,
1,6.12229,0.995317,-0.137254,1.41842e-08,0,
1,5.88784,0.996124,-0.13894,1.50739e-08,0,
1,5.64716,0.996969,-0.140835,1.60912e-08,0,
1,5.40194,0.997884,-0.142952,1.75042e-08,0,
1,5.15407,0.998896,-0.145299,1.92852e-08,0,
1,4.90545,1.00002,-0.147881,2.12042e-08,0,
1,4.65805,1.00125,-0.150699,2.32771e-08,0,
1,4.41376,1.00258,-0.153747,2.54654e-08,0,
1,4.17441,1.00401,-0.157016,2.75448e-08,0,
1,3.94163,1.00548,-0.160489,2.93542e-08,0,
1,3.7169,1.00693,-0.16414,3.14961e-08,0,
1,3.50146,1.00845,-0.167938,3.59114e-08,0,
1,3.29629,1.01033,-0.171852,4.46637e-08,0,
1,3.10217,1.01296,-0.17585,5.60202e-08,0,
1,2.91959,1.01615,-0.179902,1.02735e-07,0,
1,2.74885,1.01847,-0.183964,1.09248e-06,0,
1,2.59002,1.01753,-0.187967,-4.96015e-06,0,
1,2.44299,1.0116,-0.19184,-4.86056e-05,0,
1,2.30752,1.00083,-0.19551,-0.000143017,0,
1,2.18321,0.98666,-0.198911,-0.00027507,0,
1,2.06959,0.970649,-0.202066,-0.000388896,0,
1,1.9661,0.954076,-0.20495,-0.00048809,0,
1,1.87215,0.937876,-0.207526,-0.000580532,0,
1,1.78711,0.922563,-0.209829,-0.000661852,0,
1,1.71033,0.908297,-0.211873,-0.000732024,0,
1,1.64119,0.895048,-0.213681,-0.000792629,0,
1,1.57905,0.882707,-0.215273,-0.000845895,0,
1,1.52332,0.871143,-0.216669,-0.000893798,0,
1,1.47342,0.860245,-0.217897,-0.000938617,0,
1,1.42882,0.849929,-0.21896,-0.000977947,0,
1,1.389,0.840125,-0.219868,-0.00100212,0,
1,1.35351,0.830765,-0.220654,-0.00102484,0,
1,1.3219,0.821812,-0.221335,-0.0010456,0,
1,1.29378,0.813243,-0.221922,-0.00106395,0,
1,1.26878,0.805048,-0.222429,-0.00107979,0,
1,1.24659,0.797221,-0.222866,-0.00109337,0,
1,1.22689,0.789756,-0.223243,-0.00110468,0,
1,1.2092,0.782569,-0.223572,-0.00111266,0,
1,1.1932,0.775608,-0.22386,-0.00111811,0,
1,1.1787,0.768858,-0.224112,-0.00112204,0,
1,1.16554,0.76229,-0.224333,-0.00112603,0,
1,1.15357,0.755864,-0.224526,-0.00113359,0,
1,1.14266,0.749512,-0.224695,-0.00114948,0,
1,1.13268,0.743136,-0.224843,-0.00118074,0,
1,1.12354,0.7366,-0.224976,-0.00123648,0,
1,1.11514,0.729727,-0.225096,-0.0013273,0,
1,1.10739,0.72231,-0.225211,-0.00146422,0,
1,1.10022,0.714135,-0.225324,-0.00165679,0,
1,1.09357,0.705029,-0.22544,-0.00191074,0,
1,1.08738,0.694913,-0.225562,-0.00222551,0,
1,1.0816,0.683836,-0.225691,-0.00259304,0,
1,1.07618,0.671962,-0.225825,-0.00299894,0,
1,1.07107,0.659523,-0.225965,-0.00342573,0,
1,1.06626,0.646766,-0.226109,-0.00385665,0,
1,1.06169,0.633906,-0.226254,-0.00427822,0,
1,1.05735,0.621114,-0.226401,-0.00468102,0,
1,1.05321,0.608511,-0.226548,-0.00505932,0,
1,1.04925,0.596178,-0.226695,-0.00541023,0,
1,1.04544,0.584162,-0.22684,-0.00573283,0,
1,1.04177,0.572486,-0.226984,-0.00602744,0,
1,1.03822,0.561158,-0.227126,-0.00629513,0,
1,1.03478,0.550176,-0.227266,-0.00653737,0,
1,1.03144,0.53953,-0.227404,-0.00675577,0,
1,1.02818,0.529205,-0.227541,-0.00695201,0,
1,1.025,0.519186,-0.227675,-0.00712768,0,
1,1.02188,0.509456,-0.227808,-0.0072843,0,
1,1.01882,0.499997,-0.22794,-0.00742328,0,
1,1.01581,0.490793,-0.228069,-0.00754602,0,
1,1.01284,0.481829,-0.228198,-0.00765357,0,
1,1.00988,0.472991,-0.228326,-0.0077477,0,
1,1.00688,0.464173,-0.228455,-0.00783048,0,
1,1.00384,0.455359,-0.228586,-0.00790173,0,
1,1.00076,0.446531,-0.228717,-0.00796143,0,
1,0.997615,0.437669,-0.22885,-0.00800955,0,
1,0.99441,0.428749,-0.228983,-0.00804641,0,
1,0.991131,0.41975,-0.229119,-0.00807194,0,
1,0.987768,0.410644,-0.229255,-0.00808599,0,
1,0.984308,0.401405,-0.229394,-0.00808825,0,
1,0.980739,0.392001,-0.229535,-0.00807831,0,
1,0.977045,0.382402,-0.229679,-0.00805561,0,
1,0.973211,0.372572,-0.229825,-0.00801941,0,
1,0.969219,0.362472,-0.229974,-0.00796883,0,
1,0.965047,0.352059,-0.230127,-0.00790276,0,
1,0.960675,0.341286,-0.230282,-0.00781985,0,
1,0.956077,0.330101,-0.230442,-0.00771836,0,
1,0.951224,0.318447,-0.230606,-0.00759587,0,
1,0.946088,0.306262,-0.230774,-0.00745049,0,
1,0.940633,0.293484,-0.230948,-0.00727956,0,
1,0.934823,0.28005,-0.231126,-0.00708018,0,
1,0.928616,0.265907,-0.231311,-0.00684963,0,
1,0.921967,0.251013,-0.231502,-0.00658637,0,
1,0.914826,0.23534,-0.2317,-0.00628637,0,
1,0.907141,0.218873,-0.231903,-0.00594707,0,
1,0.898852,0.201618,-0.232113,-0.00556658,0,
1,0.889898,0.18361,-0.232328,-0.00514409,0,
1,0.880212,0.164925,-0.232548,-0.0046805,0,
1,0.869723,0.145701,-0.232773,-0.00417928,0,
1,0.858358,0.126158,-0.233002,-0.00364782,0,
1,0.846039,0.106632,-0.233237,-0.00309913,0,
1,0.83269,0.0876034,-0.233478,-0.00255349,0,
1,0.818232,0.0697021,-0.233727,-0.00204255,0,
1,0.802744,0.0537492,-0.23397,-0.00160097,0,
1,0.78635,0.0403334,-0.23421,-0.00124851,0,
1,0.768969,0.0294545,-0.234435,-0.000988335,0,
1,0.75053,0.020745,-0.234642,-0.000809123,0,
1,0.730977,0.0136472,-0.234821,-0.000694088,0,
1,0.710271,0.00761463,-0.234967,-0.000626401,0,
1,0.688397,0.00221905,-0.235083,-0.000590536,0,
1,0.66536,-0.00282573,-0.235168,-0.000576101,0,
1,0.641194,-0.00769367,-0.235225,-0.00057465,0,
1,0.615961,-0.0125076,-0.23526,-0.000576215,0,
1,0.589754,-0.0173489,-0.235272,-0.000576418,0,
1,0.562692,-0.0222504,-0.235264,-0.000571987,0,
1,0.534925,-0.0272054,-0.235234,-0.000561324,0,
1,0.506624,-0.0321793,-0.235184,-0.000543914,0,
1,0.477982,-0.0371203,-0.23511,-0.000519952,0,
1,0.449206,-0.0419687,-0.235014,-0.000490071,0,
1,0.420509,-0.0466629,-0.234896,-0.000455137,0,
1,0.392107,-0.051144,-0.23476,-0.000416133,0,
1,0.364206,-0.055358,-0.234607,-0.000374089,0,
1,0.337003,-0.0592579,-0.234443,-0.000330027,0,
1,0.310673,-0.062804,-0.23427,-0.000284924,0,
1,0.28537,-0.0659643,-0.234095,-0.000239678,0,
1,0.26122,-0.0687142,-0.23392,-0.00019508,0,
1,0.238324,-0.0710357,-0.233751,-0.000151796,0,
1,0.21675,-0.0729162,-0.233592,-0.000110359,0,
1,0.196544,-0.0743478,-0.233445,-7.11883e-05,0,
1,0.177724,-0.0753254,-0.233312,-3.45854e-05,0,
1,0.160284,-0.0758462,-0.233197,-7.54481e-07,0,
1,0.144202,-0.0759084,-0.233098,3.01668e-05,0,
1,0.129436,-0.0755112,-0.233018,5.80709e-05,0,
1,0.115935,-0.0746543,-0.232955,8.28447e-05,0,
1,0.103636,-0.0733392,-0.232908,0.000104347,0,
1,0.0924701,-0.07157,-0.232877,0.000122402,0,
1,0.0823633,-0.0693553,-0.232859,0.000136814,0,
1,0.0732406,-0.0667098,-0.232853,0.000147404,0,
1,0.0650269,-0.0636556,-0.232856,0.000154043,0,
1,0.057648,-0.0602227,-0.232867,0.000156688,0,
1,0.0510323,-0.0564485,-0.232883,0.000155399,0,
1,0.0451115,-0.0523766,-0.232902,0.000150371,0,
1,0.0398209,-0.0480556,-0.232923,0.000141909,0,
1,0.0351001,-0.0435363,-0.232944,0.000130411,0,
1,0.0308929,-0.0388698,-0.232965,0.000116333,0,
1,0.0271475,-0.0341071,-0.232984,0.00010018,0,
1,0.0238164,-0.0293005,-0.233,8.25275e-05,0,
1,0.0208562,-0.0245111,-0.233014,6.41213e-05,0,
1,0.0182274,-0.0198224,-0.233025,4.6047e-05,0,
1,0.0158944,-0.0153563,-0.233033,2.98252e-05,0,
1,0.0138249,-0.0112749,-0.233039,1.705e-05,0,
1,0.0119898,-0.00774628,-0.233042,8.52252e-06,0,
1,0.0103632,-0.00488108,-0.233045,3.74973e-06,0,
1,0.00892169,-0.0026924,-0.233046,1.47533e-06,0,
1,0.00764438,-0.00110997,-0.233048,5.25967e-07,0,
1,0.00651264,-2.48238e-05,-0.233048,1.70119e-07,0,
1,0.00550983,0.000674318,-0.23305,4.89829e-08,0,
1,0.00462115,0.00108354,-0.233049,1.18641e-08,0,
1,0.00383341,0.00127995,-0.233051,2.01923e-09,0,
1,0.0031349,0.00132312,-0.23305,1.33565e-12,0,
1,0.00251518,0.00125836,-0.233052,-1.75745e-10,0,
1,0.00196502,0.00111964,-0.233051,-8.41543e-11,0,
1,0.00147619,0.000932316,-0.233053,-2.40212e-11,0,
1,0.00104139,0.000714977,-0.233051,-4.25112e-12,0,
1,0.000654158,0.000481208,-0.233053,-3.78004e-13,0,
1,0.000308731,0.000240656,-0.233051,-9.48018e-15,0,

4,0,0,-0.137914,0,0,
4,9,0,-0.0963318,0,0,
4,8.99969,0.014197,-0.0963315,2.20596e-10,0,
4,8.99934,0.0302478,-0.0963317,1.02348e-08,0,
4,8.99894,0.0484132,-0.0963314,1.39761e-07,0,
4,8.9985,0.0689686,-0.0963316,1.01453e-06,0,
4,8.99799,0.0921949,-0.0963314,5.03668e-06,0,
4,8.99742,0.118296,-0.0963315,1.90804e-05,0,
4,8.99677,0.14719,-0.0963313,5.73144e-05,0,
4,8.99605,0.17821,-0.0963314,0.000137143,0,
4,8.99522,0.210012,-0.0963311,0.000262634,0,
4,8.99429,0.241057,-0.0963311,0.000413915,0,
4,8.99324,0.270277,-0.0963308,0.000563146,0,
4,8.99205,0.297282,-0.0963305,0.000692596,0,
4,8.9907,0.322147,-0.0963301,0.000796496,0,
4,8.98919,0.345045,-0.0963296,0.000884108,0,
4,8.98747,0.366163,-0.0963289,0.000957045,0,
4,8.98553,0.38577,-0.0963281,0.00101435,0,
4,8.98334,0.404145,-0.0963271,0.00106072,0,
4,8.98087,0.421503,-0.096326,0.00109988,0,
4,8.97807,0.438015,-0.0963246,0.00113315,0,
4,8.97491,0.45382,-0.096323,0.00116184,0,
4,8.97134,0.469038,-0.096321,0.00118692,0,
4,8.96731,0.48377,-0.0963188,0.00120911,0,
4,8.96276,0.4981,-0.0963162,0.00122894,0,
4,8.95762,0.5121,-0.0963132,0.00124678,0,
4,8.95182,0.525834,-0.0963097,0.00126288,0,
4,8.94526,0.539355,-0.0963058,0.00127739,0,
4,8.93787,0.552708,-0.0963014,0.00129038,0,
4,8.92952,0.565935,-0.0962964,0.00130185,0,
4,8.92011,0.579069,-0.0962908,0.00131175,0,
4,8.90949,0.592139,-0.0962846,0.00131999,0,
4,8.89751,0.605172,-0.0962778,0.00132644,0,
4,8.88402,0.618187,-0.0962705,0.00133093,0,
4,8.86881,0.631203,-0.0962628,0.00133329,0,
4,8.85169,0.644235,-0.0962547,0.00133333,0,
4,8.83242,0.657295,-0.0962464,0.00133086,0,
4,8.81074,0.670396,-0.0962379,0.00132568,0,
4,8.78637,0.683548,-0.0962296,0.00131761,0,
4,8.75901,0.696764,-0.0962218,0.00130646,0,
4,8.7283,0.710057,-0.096215,0.00129204,0,
4,8.69387,0.723445,-0.0962096,0.00127413,0,
4,8.65533,0.736952,-0.0962067,0.00125251,0,
4,8.61222,0.750608,-0.0962069,0.00122685,0,
4,8.56407,0.764452,-0.096212,0.00119676,0,
4,8.5104,0.778536,-0.0962225,0.00116192,0,
4,8.45065,0.792933,-0.0962418,0.00112396,0,
4,8.38429,0.807787,-0.0962726,0.00107765,0,
4,8.31073,0.823334,-0.0963166,0.00102061,0,
4,8.22941,0.839849,-0.0963779,0.000950639,0,
4,8.13974,0.857601,-0.0964592,0.000863355,0,
4,8.04115,0.876771,-0.096562,0.000755078,0,
4,7.93313,0.897257,-0.0966914,0.000625996,0,
4,7.81519,0.918368,-0.0968389,0.000484952,0,
4,7.68693,0.938651,-0.097028,0.000349449,0,
4,7.54803,0.956211,-0.0972397,0.000207413,0,
4,7.39831,0.969145,-0.097492,9.17969e-05,0,
4,7.23771,0.976532,-0.0978008,2.85692e-05,0,
4,7.06634,0.979278,-0.0981538,4.71595e-06,0,
4,6.88453,0.979434,-0.0985537,-5.29006e-08,0,
4,6.69275,0.978859,-0.0990002,-1.31218e-07,0,
4,6.49173,0.978506,-0.0995003,8.90366e-09,0,
4,6.28238,0.978544,-0.100062,2.09049e-08,0,
4,6.06579,0.978812,-0.100691,1.247e-08,0,
4,5.84328,0.979149,-0.101393,8.27184e-09,0,
4,5.61626,0.979491,-0.102171,7.06956e-09,0,
4,5.3863,0.979836,-0.103028,7.03326e-09,0,
4,5.15502,0.9802,-0.103967,7.46923e-09,0,
4,4.92406,0.980596,-0.104987,8.14331e-09,0,
4,4.69507,0.981035,-0.106088,8.96515e-09,0,
4,4.46961,0.98152,-0.107267,9.79215e-09,0,
4,4.24915,0.982034,-0.10852,1.03209e-08,0,
4,4.03501,0.982523,-0.109839,1.02523e-08,0,
4,3.82836,0.982918,-0.111218,9.8108e-09,0,
4,3.63018,0.983218,-0.112646,1.0342e-08,0,
4,3.44125,0.983597,-0.114111,1.45961e-08,0,
4,3.26217,0.984404,-0.115603,5.21536e-08,0,
4,3.09333,0.985942,-0.117108,4.72637e-07,0,
4,2.93497,0.988059,-0.118611,2.24687e-06,0,
4,2.78715,0.989943,-0.120099,4.24233e-06,0,
4,2.64979,0.990442,-0.121558,-6.54614e-07,0,
4,2.52268,0.988626,-0.122972,-2.19798e-05,0,
4,2.40551,0.984142,-0.124325,-6.50493e-05,0,
4,2.29789,0.977207,-0.125601,-0.000128815,0,
4,2.19939,0.968385,-0.126792,-0.000207516,0,
4,2.10949,0.958353,-0.127892,-0.00029344,0,
4,2.02768,0.947736,-0.128901,-0.000378959,0,
4,1.95343,0.937055,-0.129821,-0.000457732,0,
4,1.88618,0.926693,-0.130654,-0.000527273,0,
4,1.82542,0.916843,-0.131411,-0.00057682,0,
4,1.77062,0.907561,-0.132098,-0.000616862,0,
4,1.72128,0.898899,-0.132711,-0.000653005,0,
4,1.67693,0.890892,-0.13326,-0.000685337,0,
4,1.63713,0.883543,-0.13375,-0.000714176,0,
4,1.60144,0.876834,-0.134187,-0.000739865,0,
4,1.56949,0.870737,-0.134578,-0.000762805,0,
4,1.54091,0.865214,-0.134925,-0.000783438,0,
4,1.51537,0.860207,-0.135236,-0.000802182,0,
4,1.49167,0.855518,-0.13552,-0.000819547,0,
4,1.46926,0.851062,-0.135789,-0.00083596,0,
4,1.44801,0.846826,-0.136041,-0.000851629,0,
4,1.42781,0.842776,-0.136288,-0.000861806,0,
4,1.40855,0.83887,-0.13653,-0.000867867,0,
4,1.39015,0.83508,-0.136759,-0.000873843,0,
4,1.37252,0.831392,-0.136979,-0.000878774,0,
4,1.3556,0.82779,-0.13719,-0.000883141,0,
4,1.3393,0.824256,-0.137394,-0.00088764,0,
4,1.32357,0.820773,-0.137591,-0.000893144,0,
4,1.30836,0.817321,-0.137782,-0.000900476,0,
4,1.29362,0.813876,-0.137967,-0.000910745,0,
4,1.2793,0.810413,-0.138146,-0.000925333,0,
4,1.26537,0.806899,-0.138321,-0.00094593,0,
4,1.25179,0.803297,-0.138492,-0.000974552,0,
4,1.23852,0.799564,-0.138658,-0.00101356,0,
4,1.22554,0.795648,-0.138821,-0.00106563,0,
4,1.21282,0.791491,-0.13898,-0.0011337,0,
4,1.20034,0.787028,-0.139135,-0.00122083,0,
4,1.18806,0.782192,-0.139286,-0.00132994,0,
4,1.17599,0.776915,-0.139433,-0.00146356,0,
4,1.16408,0.771139,-0.139577,-0.00162347,0,
4,1.15233,0.764816,-0.139716,-0.00181033,0,
4,1.14073,0.757921,-0.139852,-0.0020235,0,
4,1.12925,0.750449,-0.139983,-0.00226092,0,
4,1.11788,0.742418,-0.140111,-0.00251928,0,
4,1.10661,0.733865,-0.140235,-0.00279432,0,
4,1.09543,0.724841,-0.140356,-0.0030812,0,
4,1.08432,0.715405,-0.140474,-0.00337495,0,
4,1.07328,0.705619,-0.14059,-0.00367077,0,
4,1.0623,0.695543,-0.140702,-0.0039643,0,
4,1.05136,0.685235,-0.140812,-0.00425173,0,
4,1.04044,0.674729,-0.14092,-0.00452998,0,
4,1.0295,0.664052,-0.141026,-0.00479672,0,
4,1.01855,0.653244,-0.14113,-0.00504967,0,
4,1.00757,0.642336,-0.141232,-0.00528672,0,
4,0.996544,0.631361,-0.141332,-0.00550619,0,
4,0.98547,0.620342,-0.141431,-0.00570683,0,
4,0.974334,0.609303,-0.141526,-0.00588719,0,
4,0.963124,0.598262,-0.141624,-0.00605846,0,
4,0.951826,0.587194,-0.141703,-0.0062123,0,
4,0.940428,0.575977,-0.141754,-0.00633093,0,
4,0.928915,0.564484,-0.141797,-0.00645617,0,
4,0.917272,0.552637,-0.141836,-0.0065892,0,
4,0.905481,0.540385,-0.141877,-0.0067307,0,
4,0.893524,0.527689,-0.141919,-0.00688109,0,
4,0.881383,0.514513,-0.141964,-0.00704056,0,
4,0.869035,0.500824,-0.142012,-0.00720907,0,
4,0.856459,0.48659,-0.142064,-0.00738643,0,
4,0.843629,0.471783,-0.142119,-0.0075722,0,
4,0.830518,0.456378,-0.142179,-0.00776577,0,
4,0.817097,0.440353,-0.142241,-0.00796631,0,
4,0.803334,0.423691,-0.142306,-0.00817277,0,
4,0.789195,0.40638,-0.142373,-0.00838381,0,
4,0.774643,0.388416,-0.142442,-0.00859777,0,
4,0.759639,0.369801,-0.142513,-0.00881254,0,
4,0.744138,0.350557,-0.142587,-0.00902545,0,
4,0.728096,0.330719,-0.142664,-0.00923317,0,
4,0.711463,0.310346,-0.142745,-0.0094317,0,
4,0.694189,0.28951,-0.142832,-0.00961587,0,
4,0.676218,0.268292,-0.142926,-0.00977943,0,
4,0.657495,0.246763,-0.143024,-0.00991647,0,
4,0.637962,0.22498,-0.143125,-0.0100219,0,
4,0.617561,0.202968,-0.143224,-0.0100919,0,
4,0.596848,0.181335,-0.14331,-0.0101219,0,
4,0.576557,0.160792,-0.143383,-0.010111,0,
4,0.556564,0.141196,-0.143444,-0.0100616,0,
4,0.536763,0.122465,-0.14351,-0.00997498,0,
4,0.517057,0.104607,-0.143609,-0.00985267,0,
4,0.497368,0.0877373,-0.143783,-0.00969802,0,
4,0.477632,0.0720423,-0.144069,-0.00951712,0,
4,0.457804,0.0576726,-0.144473,-0.00932005,0,
4,0.437857,0.0445845,-0.144901,-0.00911705,0,
4,0.417786,0.0323808,-0.144928,-0.00873324,0,
4,0.397605,0.0206154,-0.144665,-0.00829805,0,
4,0.377348,0.0091367,-0.144463,-0.00792406,0,
4,0.357066,-0.00201468,-0.144243,-0.00753982,0,
4,0.336828,-0.0128069,-0.144015,-0.00714174,0,
4,0.316717,-0.0232133,-0.143779,-0.00673594,0,
4,0.296825,-0.0331985,-0.143531,-0.0063282,0,
4,0.27725,-0.0427221,-0.143273,-0.00592039,0,
4,0.258095,-0.0517485,-0.143005,-0.00551437,0,
4,0.239458,-0.060252,-0.142729,-0.00511268,0,
4,0.221432,-0.0682173,-0.142446,-0.0047181,0,
4,0.2041,-0.0756391,-0.142157,-0.00433332,0,
4,0.187537,-0.0825208,-0.141865,-0.00396082,0,
4,0.171798,-0.0888733,-0.141572,-0.00360274,0,
4,0.156928,-0.0947133,-0.141281,-0.00326086,0,
4,0.142956,-0.100062,-0.140994,-0.00293655,0,
4,0.129894,-0.104943,-0.140714,-0.00263075,0,
4,0.117744,-0.109381,-0.140443,-0.00234404,0,
4,0.106492,-0.113404,-0.140185,-0.00207662,0,
4,0.0961173,-0.117037,-0.13994,-0.00182839,0,
4,0.0865883,-0.120306,-0.13971,-0.00159897,0,
4,0.0778675,-0.123235,-0.139496,-0.00138777,0,
4,0.0699123,-0.125845,-0.1393,-0.00119403,0,
4,0.062677,-0.128158,-0.13912,-0.00101688,0,
4,0.056114,-0.130192,-0.138957,-0.000855336,0,
4,0.0501747,-0.131963,-0.13881,-0.000708409,0,
4,0.0448114,-0.133484,-0.138679,-0.000575073,0,
4,0.039977,-0.134767,-0.138563,-0.000454318,0,
4,0.0356266,-0.135821,-0.138461,-0.000345165,0,
4,0.0317171,-0.136651,-0.138371,-0.000246683,0,
4,0.0282081,-0.137258,-0.138292,-0.000158006,0,
4,0.0250617,-0.137641,-0.138225,-7.83478e-05,0,
4,0.0222427,-0.137792,-0.138166,-7.01547e-06,0,
4,0.0197189,-0.137696,-0.138116,5.65649e-05,0,
4,0.0174603,-0.137331,-0.138074,0.000112817,0,
4,0.0154398,-0.136662,-0.138039,0.000161956,0,
4,0.0136326,-0.135636,-0.138009,0.000203901,0,
4,0.0120162,-0.134176,-0.137985,0.000238116,0,
4,0.0105703,-0.132168,-0.137965,0.000263359,0,
4,0.00927657,-0.12945,-0.137951,0.000277344,0,
4,0.00811839,-0.12579,-0.137939,0.000276504,0,
4,0.0070809,-0.120889,-0.137931,0.0002566,0,
4,0.0061507,-0.114428,-0.137925,0.000215622,0,
4,0.00531578,-0.106212,-0.137922,0.000158831,0,
4,0.00456537,-0.0963818,-0.137919,0.000100101,0,
4,0.00388979,-0.0854725,-0.137919,5.36808e-05,0,
4,0.00328037,-0.074177,-0.137917,2.47469e-05,0,
4,0.00272934,-0.063044,-0.137918,9.91482e-06,0,
4,0.0022297,-0.052377,-0.137916,3.44042e-06,0,
4,0.00177519,-0.0422934,-0.137917,1.00547e-06,0,
4,0.00136016,-0.0328082,-0.137915,2.32139e-07,0,
4,0.000979511,-0.0238902,-0.137917,3.72695e-08,0,
4,0.00062865,-0.0154886,-0.137915,3.18731e-09,0,
4,0.000303409,-0.00754597,-0.137917,7.78313e-11,0,

6,0,0,-0.00994408,0,0,
6,9,0,-0.0723487,0,0,
6,8.99969,0.0134652,-0.0723483,1.84033e-10,0,
6,8.99934,0.0286495,-0.0723486,8.49352e-09,0,
6,8.99895,0.04579,-0.0723483,1.15154e-07,0,
6,8.9985,0.0651366,-0.0723485,8.29932e-07,0,
6,8.99801,0.0869472,-0.0723483,4.09776e-06,0,
6,8.99744,0.111422,-0.0723484,1.55077e-05,0,
6,8.99681,0.138536,-0.0723482,4.69119e-05,0,
6,8.99609,0.167772,-0.0723483,0.000114197,0,
6,8.99529,0.197989,-0.0723481,0.000224179,0,
6,8.99438,0.22776,-0.072348,0.000362622,0,
6,8.99336,0.255984,-0.0723478,0.000504151,0,
6,8.9922,0.282159,-0.0723476,0.000631358,0,
6,8.9909,0.30628,-0.0723472,0.000734538,0,
6,8.98944,0.328503,-0.0723469,0.000821213,0,
6,8.98779,0.349001,-0.0723463,0.000894143,0,
6,8.98593,0.368021,-0.0723457,0.000951859,0,
6,8.98383,0.385822,-0.0723448,0.00099929,0,
6,8.98147,0.402609,-0.0723439,0.00103946,0,
6,8.97881,0.418547,-0.0723427,0.00107388,0,
6,8.97581,0.433778,-0.0723414,0.00110387,0,
6,8.97244,0.448418,-0.0723397,0.00113044,0,
6,8.96863,0.462568,-0.0723377,0.00115434,0,
6,8.96435,0.476316,-0.0723354,0.00117614,0,
6,8.95953,0.489734,-0.0723327,0.00119624,0,
6,8.95409,0.502889,-0.0723295,0.00121491,0,
6,8.94798,0.515835,-0.0723258,0.00123234,0,
6,8.94109,0.528623,-0.0723216,0.00124861,0,
6,8.93334,0.541296,-0.0723166,0.00126374,0,
6,8.92463,0.553892,-0.072311,0.00127768,0,
6,8.91482,0.566445,-0.0723045,0.00129033,0,
6,8.90379,0.578984,-0.0722971,0.00130153,0,
6,8.89139,0.591534,-0.0722888,0.00131107,0,
6,8.87746,0.604116,-0.0722795,0.00131872,0,
6,8.86181,0.616748,-0.0722693,0.00132421,0,
6,8.84423,0.629443,-0.0722579,0.00132727,0,
6,8.82452,0.642214,-0.0722453,0.0013276,0,
6,8.80241,0.655069,-0.0722315,0.00132492,0,
6,8.77763,0.668015,-0.0722164,0.00131895,0,
6,8.74989,0.68106,-0.0722001,0.00130944,0,
6,8.71885,0.694212,-0.0721824,0.00129613,0,
6,8.68417,0.707481,-0.0721635,0.00127879,0,
6,8.64545,0.720882,-0.0721435,0.00125717,0,
6,8.60229,0.734434,-0.0721223,0.00123097,0,
6,8.55423,0.748166,-0.0721004,0.00119985,0,
6,8.50082,0.762117,-0.0720773,0.00116385,0,
6,8.44155,0.776347,-0.0720544,0.00112325,0,
6,8.37592,0.790979,-0.0720324,0.00107578,0,
6,8.30339,0.80621,-0.0720112,0.00102004,0,
6,8.22344,0.822307,-0.0719905,0.000953125,0,
6,8.13555,0.839577,-0.0719707,0.000871286,0,
6,8.0392,0.858276,-0.0719471,0.000771036,0,
6,7.93391,0.878407,-0.071919,0.000652028,0,
6,7.81927,0.899396,-0.0718748,0.000520543,0,
6,7.6949,0.919881,-0.0718184,0.000391649,0,
6,7.56054,0.938022,-0.071742,0.000275161,0,
6,7.41603,0.952199,-0.0716473,0.000143137,0,
6,7.26132,0.961405,-0.0715395,5.72058e-05,0,
6,7.09653,0.965854,-0.0714078,1.47111e-05,0,
6,6.92195,0.966981,-0.071252,7.69682e-07,0,
6,6.73802,0.966547,-0.0710644,-1.10902e-06,0,
6,6.5454,0.965809,-0.0708413,-5.3348e-07,0,
6,6.34489,0.965286,-0.0705781,-1.57417e-07,0,
6,6.1375,0.965004,-0.070271,-4.52788e-08,0,
6,5.92439,0.964828,-0.0699149,-1.76315e-08,0,
6,5.70687,0.964645,-0.0695046,-9.89665e-09,0,
6,5.48633,0.96441,-0.0690344,-7.52824e-09,0,
6,5.26426,0.96412,-0.0684988,-7.09089e-09,0,
6,5.04218,0.963784,-0.0678923,-7.40545e-09,0,
6,4.82159,0.963415,-0.0672103,-7.99613e-09,0,
6,4.60398,0.963024,-0.0664486,-8.7385e-09,0,
6,4.39071,0.962611,-0.0656046,-9.77499e-09,0,
6,4.18307,0.962146,-0.064677,-1.14299e-08,0,
6,3.98218,0.961571,-0.0636666,-1.39299e-08,0,
6,3.78902,0.960826,-0.0625762,-1.69751e-08,0,
6,3.60438,0.959933,-0.0614111,-2.15526e-08,0,
6,3.42888,0.959054,-0.0601783,-4.47532e-08,0,
6,3.26296,0.958476,-0.0588866,-1.23626e-07,0,
6,3.10691,0.958445,-0.0575446,-2.02826e-07,0,
6,2.96084,0.958959,-0.0561618,-1.3717e-07,0,
6,2.82473,0.959665,-0.0547494,-5.84176e-07,0,
6,2.69844,0.959962,-0.0533218,-4.23736e-06,0,
6,2.58172,0.959243,-0.0518953,-1.53303e-05,0,
6,2.47424,0.957104,-0.0504871,-3.75427e-05,0,
6,2.37559,0.95342,-0.0491132,-7.2425e-05,0,
6,2.28535,0.948317,-0.0477878,-0.000119211,0,
6,2.20301,0.942075,-0.0465221,-0.000175361,0,
6,2.1281,0.93504,-0.0453244,-0.000237338,0,
6,2.06009,0.927558,-0.0442006,-0.000301273,0,
6,1.99849,0.919937,-0.0431522,-0.000363353,0,
6,1.9428,0.912437,-0.0421823,-0.000420323,0,
6,1.89255,0.905254,-0.0412849,-0.000471131,0,
6,1.84728,0.898485,-0.0404651,-0.000514421,0,
6,1.80655,0.892133,-0.039721,-0.000544803,0,
6,1.76996,0.886194,-0.0390382,-0.000572636,0,
6,1.73712,0.880685,-0.0384193,-0.000598132,0,
6,1.70768,0.875579,-0.0378551,-0.000621731,0,
6,1.67998,0.870651,-0.0373215,-0.000644652,0,
6,1.65329,0.865806,-0.0368011,-0.000667074,0,
6,1.62754,0.861041,-0.0362944,-0.000688935,0,
6,1.60265,0.856356,-0.0357998,-0.00071034,0,
6,1.57854,0.85175,-0.0353168,-0.000731279,0,
6,1.55515,0.847224,-0.0348444,-0.000751747,0,
6,1.53242,0.842776,-0.0343819,-0.000771765,0,
6,1.5103,0.838399,-0.0339287,-0.00079131,0,
6,1.48874,0.834082,-0.0334844,-0.000810343,0,
6,1.46769,0.829806,-0.0330484,-0.000828947,0,
6,1.44712,0.825554,-0.0326195,-0.000847464,0,
6,1.42698,0.821327,-0.0321961,-0.000866578,0,
6,1.40725,0.817162,-0.0317753,-0.000887027,0,
6,1.38788,0.813117,-0.031358,-0.00090914,0,
6,1.36886,0.809231,-0.030941,-0.000931883,0,
6,1.35015,0.805455,-0.0305393,-0.000942069,0,
6,1.33173,0.801706,-0.0301483,-0.000949907,0,
6,1.31357,0.797941,-0.0297556,-0.000962509,0,
6,1.29566,0.794141,-0.0293688,-0.000977576,0,
6,1.27797,0.790285,-0.0289842,-0.00099624,0,
6,1.26048,0.786344,-0.0286031,-0.00101985,0,
6,1.24318,0.782285,-0.0282247,-0.00105009,0,
6,1.22605,0.778068,-0.0278491,-0.00108884,0,
6,1.20907,0.773648,-0.0274762,-0.00113826,0,
6,1.19223,0.768972,-0.0271058,-0.00120063,0,
6,1.17551,0.763984,-0.0267379,-0.00127823,0,
6,1.1589,0.758626,-0.0263727,-0.0013732,0,
6,1.14238,0.752841,-0.0260101,-0.00148722,0,
6,1.12595,0.74658,-0.0256505,-0.00162134,0,
6,1.10959,0.739807,-0.0252941,-0.00177569,0,
6,1.09329,0.732501,-0.0249412,-0.00194941,0,
6,1.07704,0.72466,-0.0245919,-0.00214056,0,
6,1.06081,0.716295,-0.0242463,-0.0023463,0,
6,1.04459,0.707433,-0.0239046,-0.00256315,0,
6,1.02836,0.698116,-0.023567,-0.00278722,0,
6,1.01211,0.688394,-0.0232335,-0.00301436,0,
6,0.99583,0.67832,-0.0229049,-0.00324095,0,
6,0.97951,0.667947,-0.02258,-0.00347618,0,
6,0.963136,0.657247,-0.0222526,-0.00369144,0,
6,0.946694,0.646135,-0.0219243,-0.00391257,0,
6,0.930172,0.634552,-0.0215995,-0.00414207,0,
6,0.913555,0.622444,-0.0212791,-0.00438165,0,
6,0.896829,0.609763,-0.0209644,-0.00463266,0,
6,0.879979,0.596462,-0.0206558,-0.00489611,0,
6,0.862989,0.582505,-0.0203539,-0.00517279,0,
6,0.845842,0.56788,-0.0200594,-0.00546323,0,
6,0.828521,0.552602,-0.0197733,-0.00576795,0,
6,0.811008,0.536712,-0.0194974,-0.00608595,0,
6,0.793282,0.520252,-0.0192331,-0.00640975,0,
6,0.775322,0.503251,-0.0189818,-0.0067363,0,
6,0.757107,0.485743,-0.0187454,-0.00706227,0,
6,0.738612,0.467766,-0.0185256,-0.0073838,0,
6,0.719813,0.449376,-0.0183242,-0.00769655,0,
6,0.700681,0.430636,-0.018141,-0.00799567,0,
6,0.681188,0.411611,-0.0179738,-0.00827592,0,
6,0.661304,0.392356,-0.0178176,-0.00853172,0,
6,0.640996,0.372911,-0.0176675,-0.00875707,0,
6,0.620228,0.35332,-0.0175248,-0.00894557,0,
6,0.598964,0.333679,-0.0174067,-0.00909115,0,
6,0.577166,0.314213,-0.0173527,-0.00918973,0,
6,0.554791,0.295308,-0.0174228,-0.0092405,0,
6,0.531799,0.277423,-0.0176556,-0.00924694,0,
6,0.508144,0.260837,-0.0180343,-0.00921278,0,
6,0.48378,0.245307,-0.0180917,-0.00898799,0,
6,0.459585,0.230826,-0.0178549,-0.00862195,0,
6,0.436695,0.217688,-0.0176862,-0.00831816,0,
6,0.414961,0.205695,-0.0174984,-0.00800107,0,
6,0.394252,0.194668,-0.0172973,-0.00767868,0,
6,0.374445,0.184469,-0.0170938,-0.00735617,0,
6,0.355433,0.174987,-0.0168887,-0.00703608,0,
6,0.337122,0.166134,-0.0166812,-0.00671713,0,
6,0.319433,0.157836,-0.0164696,-0.0063998,0,
6,0.3023,0.150032,-0.016253,-0.00608454,0,
6,0.28567,0.142668,-0.0160301,-0.00577179,0,
6,0.269507,0.135705,-0.0158003,-0.00546203,0,
6,0.253785,0.129108,-0.015563,-0.00515583,0,
6,0.238493,0.122851,-0.015318,-0.00485388,0,
6,0.223631,0.116911,-0.0150655,-0.00455697,0,
6,0.209207,0.111274,-0.0148058,-0.00426602,0,
6,0.195237,0.105925,-0.0145399,-0.00398203,0,
6,0.181744,0.100854,-0.014269,-0.00370601,0,
6,0.168754,0.0960517,-0.0139948,-0.00343901,0,
6,0.156292,0.0915095,-0.013719,-0.003182,0,
6,0.144384,0.0872193,-0.0134439,-0.0029359,0,
6,0.133052,0.0831728,-0.0131717,-0.00270146,0,
6,0.122315,0.0793613,-0.0129047,-0.00247931,0,
6,0.112183,0.0757754,-0.012645,-0.00226989,0,
6,0.102665,0.0724054,-0.0123948,-0.00207345,0,
6,0.0937597,0.0692409,-0.0121557,-0.00189006,0,
6,0.0854609,0.0662709,-0.0119293,-0.00171964,0,
6,0.077757,0.0634844,-0.0117167,-0.00156193,0,
6,0.0706309,0.0608698,-0.0115187,-0.00141656,0,
6,0.0640611,0.0584156,-0.0113355,-0.00128304,0,
6,0.0580229,0.0561103,-0.0111675,-0.00116079,0,
6,0.0524888,0.0539424,-0.0110143,-0.00104919,0,
6,0.0474296,0.0519006,-0.0108756,-0.000947563,0,
6,0.042815,0.0499738,-0.0107506,-0.000855223,0,
6,0.0386145,0.0481511,-0.0106388,-0.000771476,0,
6,0.0347975,0.0464218,-0.0105392,-0.000695634,0,
6,0.0313344,0.0447752,-0.0104509,-0.000627029,0,
6,0.0281964,0.043201,-0.0103732,-0.000565016,0,
6,0.0253561,0.0416884,-0.0103048,-0.000508977,0,
6,0.0227875,0.040227,-0.0102452,-0.000458324,0,
6,0.0204662,0.0388055,-0.0101933,-0.000412498,0,
6,0.0183694,0.0374122,-0.0101486,-0.000370963,0,
6,0.016476,0.0360344,-0.0101099,-0.000333203,0,
6,0.0147664,0.034658,-0.0100772,-0.000298709,0,
6,0.0132228,0.0332665,-0.0100491,-0.000266971,0,
6,0.0118288,0.0318407,-0.010026,-0.000237449,0,
6,0.0105693,0.0303575,-0.0100062,-0.000209559,0,
6,0.00943073,0.0287887,-0.00999097,-0.000182644,0,
6,0.00840063,0.0271007,-0.00997781,-0.000155982,0,
6,0.00746774,0.0252563,-0.00996883,-0.0001289,0,
6,0.00662185,0.0232215,-0.00996087,-0.00010113,0,
6,0.00585371,0.0209829,-0.00995679,-7.34589e-05,0,
6,0.00515491,0.018573,-0.00995248,-4.81357e-05,0,
6,0.00451788,0.0160862,-0.00995161,-2.79757e-05,0,
6,0.00393573,0.0136543,-0.00994914,-1.43986e-05,0,
6,0.00340221,0.0113921,-0.00994978,-6.62713e-06,0,
6,0.00291168,0.00936182,-0.00994773,-2.75433e-06,0,
6,0.00245897,0.00757598,-0.00994906,-1.03321e-06,0,
6,0.00203939,0.0060186,-0.00994682,-3.44115e-07,0,
6,0.00164864,0.00466251,-0.00994868,-9.79886e-08,0,
6,0.00128281,0.00347899,-0.00994597,-2.2235e-08,0,
6,0.000938257,0.00244181,-0.00994848,-3.5228e-09,0,
6,0.000611645,0.00152836,-0.00994508,-2.96692e-10,0,
6,0.000299862,0.000719788,-0.00994844,-6.99465e-12,0,

10,0.000296632,0.00878381,0.0285575,-5.44736e-11,0,
10,0.000596102,0.0176482,0.0285581,-2.01871e-09,0,
10,0.000900397,0.0266518,0.0285575,-2.05226e-08,0,
10,0.00121153,0.0358538,0.028558,-1.10262e-07,0,
10,0.00153158,0.045313,0.0285574,-4.12282e-07,0,
10,0.00186264,0.0550872,0.0285578,-1.22492e-06,0,
10,0.00220692,0.0652299,0.0285574,-3.10532e-06,0,
10,0.00256668,0.0757849,0.0285577,-6.9974e-06,0,
10,0.00294431,0.0867785,0.0285573,-1.43532e-05,0,
10,0.00334229,0.098206,0.0285575,-2.71615e-05,0,
10,0.00376326,0.110018,0.0285571,-4.77394e-05,0,
10,0.00421,0.122108,0.0285573,-7.81634e-05,0,
10,0.00468544,0.134311,0.0285569,-0.000119416,0,
10,0.00519274,0.14642,0.0285568,-0.000170671,0,
10,0.00573524,0.158215,0.0285563,-0.000229249,0,
10,0.00631651,0.169504,0.028556,-0.000291388,0,
10,0.00694041,0.180141,0.0285552,-0.000353337,0,
10,0.00761104,0.190043,0.0285545,-0.000412171,0,
10,0.00833284,0.199175,0.0285533,-0.000466079,0,
10,0.00911058,0.207546,0.028552,-0.000514254,0,
10,0.0099494,0.215193,0.0285501,-0.000556624,0,
10,0.0108548,0.22217,0.0285479,-0.000593584,0,
10,0.0118329,0.228537,0.028545,-0.000625783,0,
10,0.0128901,0.234361,0.0285417,-0.000653976,0,
10,0.0140333,0.239704,0.0285375,-0.000678931,0,
10,0.0152702,0.244626,0.0285326,-0.000701376,0,
10,0.0166089,0.24918,0.0285268,-0.000721973,0,
10,0.0180584,0.253415,0.02852,-0.000741313,0,
10,0.0196282,0.257374,0.028512,-0.000759912,0,
10,0.0213288,0.261096,0.0285029,-0.000778227,0,
10,0.0231714,0.264612,0.0284923,-0.000796662,0,
10,0.0251682,0.267954,0.0284802,-0.000815577,0,
10,0.0273326,0.271147,0.0284665,-0.000835304,0,
10,0.0296789,0.274213,0.0284509,-0.00085615,0,
10,0.0322227,0.277174,0.0284332,-0.00087841,0,
10,0.0349809,0.280048,0.0284134,-0.000902371,0,
10,0.0379719,0.282853,0.028391,-0.000928318,0,
10,0.0412155,0.285603,0.0283661,-0.000956539,0,
10,0.0447333,0.288314,0.0283382,-0.000987332,0,
10,0.0485489,0.290999,0.0283072,-0.00102101,0,
10,0.0526875,0.293672,0.0282727,-0.00105788,0,
10,0.0571768,0.296346,0.0282346,-0.00109831,0,
10,0.0620466,0.299034,0.0281924,-0.00114265,0,
10,0.0673295,0.30175,0.0281461,-0.0011913,0,
10,0.0730607,0.304506,0.0280951,-0.00124466,0,
10,0.0792784,0.307316,0.0280393,-0.0013032,0,
10,0.0860241,0.310196,0.0279784,-0.00136738,0,
10,0.0933428,0.313161,0.0279121,-0.00143771,0,
10,0.101283,0.316228,0.0278401,-0.00151475,0,
10,0.109899,0.319415,0.0277622,-0.00159908,0,
10,0.119247,0.322744,0.0276783,-0.0016913,0,
10,0.12939,0.326235,0.0275881,-0.00179207,0,
10,0.140395,0.329916,0.0274916,-0.00190207,0,
10,0.152337,0.333813,0.0273887,-0.00202198,0,
10,0.165296,0.337959,0.0272795,-0.00215251,0,
10,0.179357,0.34239,0.027164,-0.00229438,0,
10,0.194615,0.347148,0.0270424,-0.00244825,0,
10,0.211171,0.352282,0.026915,-0.00261474,0,
10,0.229138,0.357844,0.0267817,-0.00279438,0,
10,0.248635,0.363901,0.0266435,-0.00298755,0,
10,0.269793,0.370523,0.0264995,-0.00319438,0,
10,0.292753,0.377795,0.0263519,-0.0034147,0,
10,0.317669,0.385816,0.026197,-0.00364664,0,
10,0.344708,0.39469,0.0260403,-0.00388762,0,
10,0.372405,0.403991,0.0258874,-0.00412625,0,
10,0.399623,0.413357,0.0257412,-0.00435121,0,
10,0.426397,0.422794,0.0256023,-0.00455994,0,
10,0.452757,0.432308,0.0254696,-0.00475352,0,
10,0.478735,0.441911,0.0253455,-0.00492989,0,
10,0.504358,0.451624,0.0252302,-0.00508823,0,
10,0.529657,0.461473,0.0251256,-0.00522663,0,
10,0.554656,0.471486,0.0250272,-0.00534468,0,
10,0.579382,0.481683,0.0249391,-0.00544209,0,
10,0.603859,0.492082,0.0248428,-0.00552234,0,
10,0.628112,0.502708,0.0247694,-0.00564905,0,
10,0.652163,0.513875,0.0247866,-0.00560014,0,
10,0.676035,0.526002,0.0248306,-0.00552058,0,
10,0.699751,0.539149,0.0248289,-0.0054122,0,
10,0.72333,0.553116,0.0247845,-0.00527263,0,
10,0.746795,0.567591,0.0247012,-0.00510238,0,
10,0.770165,0.582284,0.0245932,-0.00490477,0,
10,0.79346,0.596983,0.0244682,-0.00468457,0,
10,0.816699,0.611552,0.0243322,-0.00444675,0,
10,0.839903,0.625899,0.0241862,-0.00419615,0,
10,0.863088,0.639939,0.0240309,-0.0039377,0,
10,0.886275,0.65356,0.023863,-0.00368119,0,
10,0.909481,0.666643,0.0236819,-0.00343368,0,
10,0.932723,0.679101,0.0234914,-0.00319531,0,
10,0.956021,0.690918,0.0232936,-0.00296639,0,
10,0.97939,0.702117,0.0230901,-0.00274747,0,
10,1.00285,0.712739,0.0228808,-0.00253908,0,
10,1.02641,0.722821,0.0226657,-0.00234168,0,
10,1.0501,0.732388,0.0224439,-0.00215568,0,
10,1.07392,0.741462,0.0222159,-0.0019814,0,
10,1.0979,0.750063,0.0219811,-0.001819,0,
10,1.12205,0.758223,0.021742,-0.00166477,0,
10,1.14639,0.76596,0.0214968,-0.00152258,0,
10,1.17093,0.773271,0.0212422,-0.00139446,0,
10,1.19568,0.780157,0.0209805,-0.00128051,0,
10,1.22066,0.786637,0.0207103,-0.00118135,0,
10,1.24589,0.792744,0.0204335,-0.00109678,0,
10,1.27137,0.798524,0.0201485,-0.00102589,0,
10,1.29713,0.80403,0.0198585,-0.000969722,0,
10,1.32317,0.809345,0.019562,-0.000922412,0,
10,1.34951,0.814604,0.0192602,-0.000872825,0,
10,1.37616,0.819902,0.018955,-0.000827371,0,
10,1.40313,0.825228,0.0186422,-0.000785961,0,
10,1.43043,0.830518,0.018322,-0.00074831,0,
10,1.45807,0.83572,0.0179937,-0.000713769,0,
10,1.48607,0.840823,0.0176582,-0.000681528,0,
10,1.51444,0.845844,0.0173157,-0.000650905,0,
10,1.54318,0.850802,0.0169666,-0.000621496,0,
10,1.57231,0.855702,0.0166103,-0.000593131,0,
10,1.60184,0.860529,0.0162468,-0.000565755,0,
10,1.63178,0.865256,0.0158758,-0.000539347,0,
10,1.66213,0.86986,0.0154977,-0.000513896,0,
10,1.69292,0.874318,0.015112,-0.000489342,0,
10,1.72416,0.878626,0.0147201,-0.000465493,0,
10,1.75585,0.882806,0.0143193,-0.000440007,0,
10,1.78802,0.886913,0.0139102,-0.00041137,0,
10,1.82067,0.89097,0.0134946,-0.000383689,0,
10,1.85383,0.894962,0.0130708,-0.000355083,0,
10,1.88751,0.898868,0.012639,-0.00032558,0,
10,1.92173,0.902664,0.0121993,-0.000295511,0,
10,1.95652,0.906325,0.0117509,-0.000265285,0,
10,1.9919,0.909827,0.0112948,-0.000235376,0,
10,2.02791,0.913145,0.0108292,-0.00020633,0,
10,2.06456,0.91626,0.0103564,-0.000178389,0,
10,2.10268,0.919209,0.00986254,-0.000151158,0,
10,2.1443,0.922078,0.00932571,-0.000125023,0,
10,2.18977,0.924817,0.00873926,-0.000100138,0,
10,2.23946,0.927342,0.00810146,-7.68134e-05,0,
10,2.29376,0.929571,0.00740702,-5.58594e-05,0,
10,2.35309,0.931422,0.0066537,-3.79449e-05,0,
10,2.4179,0.932827,0.00583759,-2.35569e-05,0,
10,2.48863,0.933745,0.00495692,-1.29359e-05,0,
10,2.56575,0.934173,0.00400943,-5.97871e-06,0,
10,2.64971,0.93417,0.00299459,-2.17821e-06,0,
10,2.74098,0.933858,0.00191201,-6.72502e-07,0,
10,2.83997,0.933412,0.000762687,-4.37647e-07,0,
10,2.94709,0.933037,-0.000452013,-5.89555e-07,0,
10,3.06269,0.932913,-0.00172959,-6.34901e-07,0,
10,3.18706,0.933147,-0.00306685,-4.91665e-07,0,
10,3.3204,0.93374,-0.00445909,-2.86789e-07,0,
10,3.46281,0.934598,-0.00590011,-1.34358e-07,0,
10,3.61427,0.935577,-0.00738163,-5.80564e-08,0,
10,3.77463,0.936544,-0.00889349,-3.00371e-08,0,
10,3.94358,0.937419,-0.0104239,-2.14952e-08,0,
10,4.12067,0.93819,-0.0119599,-1.85999e-08,0,
10,4.30525,0.938889,-0.0134883,-1.732e-08,0,
10,4.49655,0.93956,-0.0149955,-1.68906e-08,0,
10,4.6936,0.940231,-0.0164689,-1.72963e-08,0,
10,4.89531,0.940903,-0.0178962,-1.90354e-08,0,
10,5.10047,0.941562,-0.0192668,-2.35691e-08,0,
10,5.30776,0.942188,-0.0205713,-3.41526e-08,0,
10,5.51581,0.942764,-0.0218021,-5.75286e-08,0,
10,5.72323,0.943287,-0.0229536,-1.08248e-07,0,
10,5.92863,0.943783,-0.024022,-2.22117e-07,0,
10,6.13069,0.944317,-0.0250058,-4.93581e-07,0,
10,6.32816,0.944986,-0.0259049,-1.1188e-06,0,
10,6.51991,0.945817,-0.0267213,-2.16906e-06,0,
10,6.70495,0.946575,-0.0274582,-2.28312e-06,0,
10,6.88244,0.946534,-0.0281187,4.00328e-06,0,
10,7.0517,0.94446,-0.0287068,2.76794e-05,0,
10,7.21224,0.938971,-0.0292223,8.20116e-05,0,
10,7.3637,0.929197,-0.0296711,0.000176059,0,
10,7.5059,0.915194,-0.0300572,0.000299256,0,
10,7.63878,0.89756,-0.0303835,0.000407265,0,
10,7.76243,0.877414,-0.0306608,0.000526517,0,
10,7.87701,0.856525,-0.0308833,0.000648119,0,
10,7.9828,0.836341,-0.0310675,0.000758214,0,
10,8.08014,0.81756,-0.0312152,0.000851961,0,
10,8.16941,0.800258,-0.0313377,0.000929955,0,
10,8.25106,0.784182,-0.0314386,0.000995392,0,
10,8.32554,0.769004,-0.0315243,0.00105147,0,
10,8.39331,0.754444,-0.0315969,0.00110044,0,
10,8.45484,0.740304,-0.0316592,0.00114355,0,
10,8.5106,0.726464,-0.0317121,0.00118138,0,
10,8.56104,0.712869,-0.0317577,0.00121414,0,
10,8.60659,0.699503,-0.0317966,0.00124189,0,
10,8.64767,0.686376,-0.0318303,0.00126476,0,
10,8.68467,0.673496,-0.0318593,0.00128254,0,
10,8.71795,0.660836,-0.0318845,0.00129187,0,
10,8.74786,0.648367,-0.0319063,0.00129776,0,
10,8.77471,0.636084,-0.031925,0.00129935,0,
10,8.79881,0.623984,-0.0319411,0.00129713,0,
10,8.8204,0.612059,-0.0319549,0.00129163,0,
10,8.83975,0.600297,-0.0319666,0.00128336,0,
10,8.85708,0.588683,-0.0319767,0.00127282,0,
10,8.87259,0.5772,-0.0319853,0.00126047,0,
10,8.88646,0.565825,-0.0319926,0.0012467,0,
10,8.89886,0.554534,-0.0319989,0.00123186,0,
10,8.90995,0.543298,-0.032004,0.00121623,0,
10,8.91986,0.532086,-0.0320084,0.00120003,0,
10,8.92872,0.520865,-0.032012,0.00118341,0,
10,8.93663,0.5096,-0.032015,0.00116646,0,
10,8.94369,0.498251,-0.0320175,0.00114919,0,
10,8.95,0.486775,-0.0320196,0.00113156,0,
10,8.95564,0.475128,-0.0320213,0.00111351,0,
10,8.96067,0.463261,-0.0320227,0.00109484,0,
10,8.96517,0.451118,-0.0320239,0.0010753,0,
10,8.96918,0.438638,-0.0320247,0.00105456,0,
10,8.97276,0.425751,-0.0320256,0.00103218,0,
10,8.97596,0.412379,-0.0320261,0.00100761,0,
10,8.97882,0.398428,-0.0320268,0.000980115,0,
10,8.98137,0.383791,-0.0320271,0.000948755,0,
10,8.98365,0.368341,-0.0320276,0.000912322,0,
10,8.98569,0.351928,-0.0320276,0.000869466,0,
10,8.9875,0.334368,-0.0320281,0.000817659,0,
10,8.98913,0.315427,-0.032028,0.00075237,0,
10,8.99058,0.294877,-0.0320285,0.0006752,0,
10,8.99188,0.272561,-0.0320282,0.000583882,0,
10,8.99304,0.248318,-0.0320287,0.000471385,0,
10,8.99408,0.222108,-0.0320284,0.000345526,0,
10,8.99501,0.194303,-0.0320289,0.000219981,0,
10,8.99583,0.165807,-0.0320284,0.000116531,0,
10,8.99658,0.137883,-0.032029,5.00172e-05,0,
10,8.99724,0.111644,-0.0320284,1.72564e-05,0,
10,8.99784,0.0876716,-0.0320291,4.73988e-06,0,
10,8.99837,0.0660759,-0.0320284,9.94002e-07,0,
10,8.99885,0.046722,-0.0320292,1.42397e-07,0,
10,8.99927,0.0293991,-0.0320283,1.08111e-08,0,
10,8.99966,0.0138929,-0.0320293,2.39208e-10,0,
10,0,0,0.0285583,0,0,
10,9,0,-0.0320282,0,0,

0.004,0,0,-0.229789,0,-7.53028e-08,
0.00868226,0,0,-0.229786,0,-2.14197e-07,
0.014062,0,0,-0.229788,0,-3.83337e-07,
0.0201548,0,0,-0.229787,0,-8.43589e-07,
0.0269766,0,0,-0.229788,0,-1.34027e-06,
0.0345437,0,0,-0.229787,0,-1.87292e-06,
0.0428729,0,0,-0.229785,0,-2.22398e-06,
0.051981,0,0,-0.229783,0,-2.25625e-06,
0.0618853,0,0,-0.22978,0,-1.75007e-06,
0.0726036,0,0,-0.229777,0,-5.21275e-07,
0.0841536,0,0,-0.229773,0,1.59162e-06,
0.0965535,0,0,-0.229771,0,4.67138e-06,
0.109822,0,0,-0.22977,0,8.68335e-06,
0.123977,0,0,-0.229773,0,1.34764e-05,
0.139037,0,0,-0.22978,0,1.87735e-05,
0.155022,0,0,-0.229792,0,2.42346e-05,
0.171949,0,0,-0.229808,0,2.94851e-05,
0.189839,0,0,-0.229831,0,3.41919e-05,
0.208709,0,0,-0.229857,0,3.80843e-05,
0.228579,0,0,-0.229886,0,4.09968e-05,
0.249467,0,0,-0.229916,0,4.28622e-05,
0.271391,0,0,-0.229948,0,4.37175e-05,
0.29437,0,0,-0.229978,0,4.36817e-05,
0.31842,0,0,-0.230008,0,4.29413e-05,
0.343559,0,0,-0.230035,0,4.17321e-05,
0.369804,0,0,-0.230061,0,4.0327e-05,
0.39717,0,0,-0.230085,0,3.9032e-05,
0.425672,0,0,-0.230108,0,3.81751e-05,
0.455324,0,0,-0.230132,0,3.80495e-05,
0.48614,0,0,-0.230158,0,3.88708e-05,
0.518132,0,0,-0.230192,0,4.07406e-05,
0.551309,0,0,-0.230234,0,4.36354e-05,
0.585683,0,0,-0.230289,0,4.74284e-05,
0.621259,0,0,-0.230361,0,5.19312e-05,
0.658046,0,0,-0.230453,0,5.69292e-05,
0.696047,0,0,-0.230571,0,6.22007e-05,
0.735265,0,0,-0.23072,0,6.74505e-05,
0.7757,0,0,-0.230909,0,7.21827e-05,
0.817352,0,0,-0.231151,0,7.56323e-05,
0.860215,0,0,-0.231461,0,7.6664e-05,
0.904285,0,0,-0.231858,0,7.37041e-05,
0.949552,0,0,-0.232362,0,6.48861e-05,
0.996004,0,0,-0.23299,0,4.83521e-05,
1.04363,0,0,-0.233751,0,2.2659e-05,
1.09241,0,0,-0.234641,0,-1.27892e-05,
1.14232,0,0,-0.235645,0,-5.74985e-05,
1.19335,0,0,-0.236739,0,-0.000109999,
1.24546,0,0,-0.237892,0,-0.000168284,
1.29863,0,0,-0.239073,0,-0.000230347,
1.35283,0,0,-0.240255,0,-0.000294592,
1.40802,0,0,-0.241413,0,-0.000359976,
1.46416,0,0,-0.242526,0,-0.000425934,
1.52121,0,0,-0.243574,0,-0.000492208,
1.57913,0,0,-0.244539,0,-0.000558679,
1.63787,0,0,-0.245404,0,-0.000625265,
1.69739,0,0,-0.246152,0,-0.000691864,
1.75761,0,0,-0.246767,0,-0.000758344,
1.81851,0,0,-0.247231,0,-0.00082454,
1.88,0,0,-0.247529,0,-0.000890264,
1.94204,0,0,-0.247645,0,-0.0009553,
2.00457,0,0,-0.247565,0,-0.00101942,
2.06751,0,0,-0.247275,0,-0.00108237,
2.13081,0,0,-0.246762,0,-0.00114388,
2.19439,0,0,-0.246016,0,-0.00120368,
2.25819,0,0,-0.245027,0,-0.00126148,
2.32214,0,0,-0.243787,0,-0.00131697,
2.38617,0,0,-0.242291,0,-0.00136987,
2.4502,0,0,-0.240538,0,-0.00141988,
2.51418,0,0,-0.238527,0,-0.00146671,
2.57803,0,0,-0.236261,0,-0.00151008,
2.64167,0,0,-0.233746,0,-0.00154975,
2.70505,0,0,-0.230991,0,-0.00158554,
2.76808,0,0,-0.228009,0,-0.00161728,
2.83072,0,0,-0.224813,0,-0.00164489,
2.89288,0,0,-0.22142,0,-0.00166835,
2.95451,0,0,-0.217849,0,-0.00168766,
3.01555,0,0,-0.214119,0,-0.0017029,
3.07594,0,0,-0.210249,0,-0.00171416,
3.13561,0,0,-0.206262,0,-0.00172159,
3.19453,0,0,-0.202179,0,-0.00172535,
3.25262,0,0,-0.198021,0,-0.00172567,
3.30985,0,0,-0.193807,0,-0.00172275,
3.36617,0,0,-0.189559,0,-0.00171683,
3.42154,0,0,-0.185294,0,-0.00170815,
3.47591,0,0,-0.181031,0,-0.00169696,
3.52925,0,0,-0.176785,0,-0.00168349,
3.58152,0,0,-0.172572,0,-0.00166799,
3.6327,0,0,-0.168405,0,-0.00165071,
3.68276,0,0,-0.164297,0,-0.00163188,
3.73167,0,0,-0.160257,0,-0.00161173,
3.77941,0,0,-0.156297,0,-0.00159046,
3.82596,0,0,-0.152423,0,-0.0015683,
3.8713,0,0,-0.148643,0,-0.00154541,
3.91543,0,0,-0.144958,0,-0.00152184,
3.95833,0,0,-0.141394,0,-0.00149809,
4,0,0,-0.137914,0,-0.00147395,
4.04167,0,0,-0.13445,0,-0.00144886,
4.08333,0,0,-0.130998,0,-0.001423,
4.125,0,0,-0.127557,0,-0.00139635,
4.16667,0,0,-0.124132,0,-0.00136893,
4.20833,0,0,-0.120723,0,-0.00134076,
4.25,0,0,-0.117335,0,-0.0013119,
4.29167,0,0,-0.113968,0,-0.00128238,
4.33333,0,0,-0.110625,0,-0.00125225,
4.375,0,0,-0.107308,0,-0.00122153,
4.41667,0,0,-0.104018,0,-0.00119026,
4.45833,0,0,-0.100758,0,-0.00115846,
4.5,0,0,-0.0975283,0,-0.00112618,
4.54167,0,0,-0.0943314,0,-0.00109344,
4.58333,0,0,-0.0911686,0,-0.00106026,
4.625,0,0,-0.0880413,0,-0.00102667,
4.66667,0,0,-0.0849507,0,-0.000992695,
4.70833,0,0,-0.0818981,0,-0.00095837,
4.75,0,0,-0.0788849,0,-0.00092372,
4.79167,0,0,-0.075912,0,-0.000888774,
4.83333,0,0,-0.0729804,0,-0.00085356,
4.875,0,0,-0.0700912,0,-0.000818105,
4.91667,0,0,-0.0672451,0,-0.000782437,
4.95833,0,0,-0.0644429,0,-0.000746581,
5,0,0,-0.0616854,0,-0.000710563,
5.04167,0,0,-0.0589732,0,-0.000674406,
5.08333,0,0,-0.0563067,0,-0.000638133,
5.125,0,0,-0.0536865,0,-0.000601767,
5.16667,0,0,-0.0511131,0,-0.000565327,
5.20833,0,0,-0.0485869,0,-0.000528835,
5.25,0,0,-0.0461082,0,-0.000492309,
5.29167,0,0,-0.0436773,0,-0.000455766,
5.33333,0,0,-0.0412946,0,-0.000419221,
5.375,0,0,-0.0389604,0,-0.000382687,
5.41667,0,0,-0.0366751,0,-0.000346178,
5.45833,0,0,-0.0344392,0,-0.000309707,
5.5,0,0,-0.032253,0,-0.000273295,
5.54167,0,0,-0.0301173,0,-0.000236974,
5.58333,0,0,-0.0280328,0,-0.000200797,
5.625,0,0,-0.0259999,0,-0.000164841,
5.66667,0,0,-0.024019,0,-0.00012919,
5.70833,0,0,-0.0220893,0,-9.39054e-05,
5.75,0,0,-0.02021,0,-5.90136e-05,
5.79167,0,0,-0.0183802,0,-2.45164e-05,
5.83333,0,0,-0.0165991,0,9.59404e-06,
5.875,0,0,-0.0148657,0,4.33247e-05,
5.91667,0,0,-0.0131793,0,7.66792e-05,
5.95833,0,0,-0.011539,0,0.000109658,
6,0,0,-0.00994424,0,0.00014226,
6.04167,0,0,-0.00839409,0,0.000174484,
6.08333,0,0,-0.00688785,0,0.000206328,
6.125,0,0,-0.00542474,0,0.00023779,
6.16667,0,0,-0.00400401,0,0.00026887,
6.20833,0,0,-0.00262491,0,0.000299566,
6.25,0,0,-0.0012867,0,0.000329877,
6.29167,0,0,1.13932e-05,0,0.0003598,
6.33333,0,0,0.00127011,0,0.000389335,
6.375,0,0,0.00249022,0,0.00041848,
6.41667,0,0,0.00367247,0,0.000447234,
6.45833,0,0,0.00481763,0,0.000475598,
6.5,0,0,0.00592644,0,0.000503571,
6.54167,0,0,0.00699965,0,0.000531155,
6.58333,0,0,0.00803801,0,0.00055835,
6.625,0,0,0.00904225,0,0.000585157,
6.66667,0,0,0.0100131,0,0.000611576,
6.70833,0,0,0.0109513,0,0.000637609,
6.75,0,0,0.0118576,0,0.000663258,
6.79167,0,0,0.0127327,0,0.000688524,
6.83333,0,0,0.0135772,0,0.000713411,
6.875,0,0,0.014392,0,0.000737919,
6.91667,0,0,0.0151776,0,0.000762052,
6.95833,0,0,0.0159348,0,0.000785811,
7,0,0,0.0166642,0,0.000809198,
7.04167,0,0,0.0173666,0,0.000832217,
7.08333,0,0,0.0180425,0,0.00085487,
7.125,0,0,0.0186926,0,0.000877162,
7.16667,0,0,0.0193175,0,0.000899097,
7.20833,0,0,0.0199178,0,0.000920677,
7.25,0,0,0.0204942,0,0.00094191,
7.29167,0,0,0.0210474,0,0.000962804,
7.33333,0,0,0.0215779,0,0.000983371,
7.375,0,0,0.0220863,0,0.00100362,
7.41667,0,0,0.0225732,0,0.00102356,
7.45833,0,0,0.023039,0,0.00104318,
7.5,0,0,0.0234844,0,0.0010625,
7.54167,0,0,0.0239097,0,0.0010815,
7.58333,0,0,0.0243155,0,0.0011002,
7.625,0,0,0.0247023,0,0.00111858,
7.66667,0,0,0.0250704,0,0.00113666,
7.70833,0,0,0.0254202,0,0.00115444,
7.75,0,0,0.0257523,0,0.00117193,
7.79167,0,0,0.0260669,0,0.00118914,
7.83333,0,0,0.0263639,0,0.00120605,
7.875,0,0,0.0266431,0,0.00122272,
7.91667,0,0,0.0269158,0,0.00123976,
7.95833,0,0,0.0271097,0,0.00125563,
8,0,0,0.0273964,0,0.00127157,
8.04171,0,0,0.0277066,0,0.00128855,
8.08368,0,0,0.0278803,0,0.00130531,
8.12617,0,0,0.0280972,0,0.00132024,
8.16946,0,0,0.0283001,0,0.00133523,
8.21382,0,0,0.0284867,0,0.00135022,
8.25952,0,0,0.028665,0,0.00136521,
8.30685,0,0,0.0288343,0,0.00138038,
8.35611,0,0,0.0289945,0,0.00139582,
8.40762,0,0,0.0291456,0,0.0014116,
8.46168,0,0,0.0292871,0,0.00142779,
8.51865,0,0,0.0294178,0,0.00144444,
8.57889,0,0,0.0295368,0,0.00146159,
8.64276,0,0,0.0296422,0,0.00147926,
8.71067,0,0,0.0297323,0,0.0014975,
8.78306,0,0,0.0298048,0,0.00151633,
8.86037,0,0,0.0298571,0,0.00153574,
8.94309,0,0,0.0298863,0,0.00155576,
9.03174,0,0,0.029889,0,0.00157638,
9.12689,0,0,0.0298619,0,0.00159759,
9.22912,0,0,0.0298009,0,0.00161937,
9.33908,0,0,0.0297021,0,0.00164169,
9.45746,0,0,0.0295613,0,0.00166451,
9.58501,0,0,0.0293738,0,0.00168778,
9.72253,0,0,0.0291356,0,0.00171145,
9.87088,0,0,0.0288422,0,0.00173544,
10.031,0,0,0.0284901,0,0.00175967,
10.2039,0,0,0.0280756,0,0.00178407,
10.3906,0,0,0.0275952,0,0.00180853,
10.5924,0,0,0.0270469,0,0.00183293,
10.8105,0,0,0.0264306,0,0.00185717,
11.0463,0,0,0.0257461,0,0.00188115,
11.3012,0,0,0.0249943,0,0.00190476,
11.5769,0,0,0.0241793,0,0.0019279,
11.8751,0,0,0.0233051,0,0.00195047,
12.1977,0,0,0.0223786,0,0.0019724,
12.5466,0,0,0.0214082,0,0.00199362,
12.9242,0,0,0.0204028,0,0.00201407,
13.3327,0,0,0.0193738,0,0.00203372,
13.7748,0,0,0.0183333,0,0.00205255,
14.2532,0,0,0.0172939,0,0.00207054,
14.7709,0,0,0.0162689,0,0.00208772,
15.3312,0,0,0.0152707,0,0.0021041,
15.9377,0,0,0.0143114,0,0.00211974,
16.594,0,0,0.0134011,0,0.00213469,
17.3044,0,0,0.0125475,0,0.00214902,
18.0733,0,0,0.0117572,0,0.00216274,
18.9056,0,0,0.0110326,0,0.0021758,
19.8064,0,0,0.010374,0,0.00218806,
20.7816,0,0,0.00977862,0,0.00219973,
21.8371,0,0,0.00923922,0,0.00221114,
22.9796,0,0,0.00874699,0,0.0022224,
24.2163,0,0,0.00828957,0,0.00223361,
25.5551,0,0,0.00785199,0,0.00224493,
27.0042,0,0,0.00741841,0,0.00225641,
28.5729,0,0,0.00697146,0,0.00226806,
30.271,0,0,0.00649385,0,0.00227986,
32.1091,0,0,0.00596869,0,0.00229176,
34.0989,0,0,0.00538144,0,0.0023037,
36.2529,0,0,0.0047149,0,0.00231576,
38.5845,0,0,0.00396129,0,0.00232789,
41.1085,0,0,0.00316136,0,0.00233991,
43.8407,0,0,0.00215337,0,0.00234954,
46.7983,0,0,0.00110952,0,0.0023546,
50,0,0,0.00217511,0,0.00237041,

