8a6ac53dab5b14282400509c197ee1ff96d39814 
X,Z,x_velocity,cp,uw_b,cf,
1,0,0,-0.22734,0,0,
1,9,0,-0.129613,0,0,
1,8.99969,0.0153881,-0.129613,2.85031e-10,0,
1,8.99934,0.0328462,-0.129613,1.33232e-08,0,
1,8.99894,0.0526706,-0.129613,1.83786e-07,0,
1,8.99848,0.075175,-0.129613,1.34734e-06,0,
1,8.99797,0.100672,-0.129613,6.73466e-06,0,
1,8.99739,0.129358,-0.129613,2.54948e-05,0,
1,8.99672,0.161041,-0.129613,7.55489e-05,0,
1,8.99597,0.194786,-0.129613,0.000175705,0,
1,8.99512,0.228945,-0.129613,0.000324003,0,
1,8.99416,0.261862,-0.129613,0.000491988,0,
1,8.99306,0.292559,-0.129612,0.000650228,0,
1,8.99182,0.32086,-0.129612,0.000777741,0,
1,8.99041,0.346904,-0.129612,0.000883296,0,
1,8.98881,0.370852,-0.129611,0.000970488,0,
1,8.98699,0.392921,-0.129611,0.00104165,0,
1,8.98494,0.413399,-0.12961,0.00109758,0,
1,8.98261,0.432595,-0.129609,0.00114042,0,
1,8.97996,0.450751,-0.129608,0.00117632,0,
1,8.97696,0.468038,-0.129607,0.00120608,0,
1,8.97356,0.484597,-0.129606,0.00123098,0,
1,8.9697,0.500547,-0.129604,0.00125197,0,
1,8.96533,0.515987,-0.129602,0.00126978,0,
1,8.96038,0.530999,-0.1296,0.0012849,0,
1,8.95476,0.545653,-0.129598,0.00129772,0,
1,8.9484,0.560008,-0.129595,0.00130849,0,
1,8.9412,0.574116,-0.129593,0.00131739,0,
1,8.93303,0.588018,-0.12959,0.00132452,0,
1,8.92379,0.601752,-0.129587,0.00132993,0,
1,8.91333,0.615349,-0.129583,0.00133362,0,
1,8.90149,0.628839,-0.12958,0.00133558,0,
1,8.8881,0.642244,-0.129576,0.00133574,0,
1,8.87295,0.655587,-0.129573,0.00133404,0,
1,8.85584,0.668887,-0.129571,0.00133038,0,
1,8.83651,0.682164,-0.129569,0.00132464,0,
1,8.81469,0.695437,-0.129569,0.0013167,0,
1,8.79007,0.708725,-0.129571,0.0013064,0,
1,8.76232,0.722051,-0.129574,0.00129355,0,
1,8.73107,0.73544,-0.129581,0.00127792,0,
1,8.69591,0.748921,-0.129593,0.00125925,0,
1,8.6564,0.762531,-0.129611,0.00123718,0,
1,8.61206,0.776316,-0.129636,0.0012113,0,
1,8.56236,0.790332,-0.129671,0.00118125,0,
1,8.50675,0.804656,-0.12972,0.00114784,0,
1,8.44464,0.81942,-0.129785,0.00110887,0,
1,8.3754,0.834842,-0.12987,0.00105746,0,
1,8.29839,0.851179,-0.129983,0.000994302,0,
1,8.21296,0.868679,-0.130129,0.000914859,0,
1,8.11843,0.887534,-0.130314,0.00081388,0,
1,8.01417,0.907738,-0.130553,0.000687941,0,
1,7.89956,0.928846,-0.130842,0.000540566,0,
1,7.77403,0.949731,-0.131217,0.000390247,0,
1,7.63711,0.968784,-0.131667,0.000205517,0,
1,7.48842,0.983674,-0.132199,7.62083e-05,0,
1,7.32773,0.992465,-0.132838,1.82734e-05,0,
1,7.15495,0.995649,-0.13358,1.811e-06,0,
1,6.97022,0.995705,-0.134441,2.36476e-08,0,
1,6.77388,0.995088,-0.135435,3.78031e-09,0,
1,6.56652,0.994972,-0.136578,9.77425e-09,0,
1,6.34896,0.995428,-0.137885,1.25101e-08,0,
1,6.12229,0.996157,-0.139368,1.41066e-08,0,
1,5.88784,0.996958,-0.141042,1.49569e-08,0,
1,5.64716,0.997796,-0.14292,1.59324e-08,0,
1,5.40194,0.998701,-0.145013,1.72906e-08,0,
1,5.15407,0.9997,-0.147327,1.90095e-08,0,
1,4.90545,1.0008,-0.149865,2.08308e-08,0,
1,4.65805,1.00201,-0.152625,2.27773e-08,0,
1,4.41376,1.00332,-0.155599,2.48127e-08,0,
1,4.17441,1.0047,-0.158775,2.67083e-08,0,
1,3.94163,1.00612,-0.162133,2.83014e-08,0,
1,3.7169,1.00752,-0.165647,3.0199e-08,0,
1,3.50146,1.00897,-0.169282,3.4339e-08,0,
1,3.29629,1.01078,-0.173006,4.27587e-08,0,
1,3.10217,1.01332,-0.176788,5.36449e-08,0,
1,2.91959,1.0164,-0.180597,9.73813e-08,0,
1,2.74885,1.01858,-0.184391,9.65276e-07,0,
1,2.59002,1.01744,-0.188106,-5.96629e-06,0,
1,2.44299,1.01127,-0.191677,-5.15883e-05,0,
1,2.30752,1.00026,-0.195036,-0.000148776,0,
1,2.18321,0.985853,-0.198124,-0.000283871,0,
1,2.06959,0.969623,-0.200971,-0.000400319,0,
1,1.9661,0.952848,-0.203557,-0.000501508,0,
1,1.87215,0.936459,-0.205848,-0.000595952,0,
1,1.78711,0.920969,-0.207881,-0.000679159,0,
1,1.71033,0.906535,-0.209672,-0.000751022,0,
1,1.64119,0.893125,-0.211244,-0.000813052,0,
1,1.57905,0.880629,-0.212618,-0.000867457,0,
1,1.52332,0.868916,-0.213815,-0.000916243,0,
1,1.47342,0.857877,-0.214861,-0.000961757,0,
1,1.42882,0.847427,-0.215756,-0.000998417,0,
1,1.389,0.837491,-0.21651,-0.00102251,0,
1,1.35351,0.828004,-0.217162,-0.00104504,0,
1,1.3219,0.818926,-0.217721,-0.00106542,0,
1,1.29378,0.810236,-0.218199,-0.00108331,0,
1,1.26878,0.801923,-0.218609,-0.0010987,0,
1,1.24659,0.793982,-0.218959,-0.00111193,0,
1,1.22689,0.786407,-0.219259,-0.00112305,0,
1,1.2092,0.77911,-0.219519,-0.00113102,0,
1,1.1932,0.772042,-0.219745,-0.00113657,0,
1,1.1787,0.765186,-0.219941,-0.00114041,0,
1,1.16554,0.758522,-0.220112,-0.00114359,0,
1,1.15357,0.752015,-0.22026,-0.00114832,0,
1,1.14266,0.745617,-0.220388,-0.0011582,0,
1,1.13268,0.739254,-0.2205,-0.00117801,0,
1,1.12354,0.732823,-0.220597,-0.00121429,0,
1,1.11514,0.726191,-0.220684,-0.00127492,0,
1,1.10739,0.719194,-0.220765,-0.00136853,0,
1,1.10022,0.71165,-0.220843,-0.00150355,0,
1,1.09357,0.703379,-0.220923,-0.00168669,0,
1,1.08738,0.694249,-0.221007,-0.00192128,0,
1,1.0816,0.684203,-0.221097,-0.00220564,0,
1,1.07618,0.673291,-0.221193,-0.0025326,0,
1,1.07107,0.661649,-0.221296,-0.00289049,0,
1,1.06626,0.64947,-0.221405,-0.00326553,0,
1,1.06169,0.63696,-0.221518,-0.00364447,0,
1,1.05735,0.624304,-0.221633,-0.00401638,0,
1,1.05321,0.611654,-0.221751,-0.00437333,0,
1,1.04925,0.599121,-0.22187,-0.00471021,0,
1,1.04544,0.586785,-0.221989,-0.00502416,0,
1,1.04177,0.574695,-0.222109,-0.005314,0,
1,1.03822,0.562879,-0.222227,-0.0055796,0,
1,1.03478,0.551352,-0.222345,-0.00582156,0,
1,1.03144,0.540116,-0.222462,-0.00604088,0,
1,1.02818,0.529167,-0.222578,-0.00623875,0,
1,1.025,0.518497,-0.222693,-0.00641644,0,
1,1.02188,0.508094,-0.222807,-0.00657522,0,
1,1.01882,0.497946,-0.222919,-0.00671632,0,
1,1.01581,0.488039,-0.223031,-0.00684104,0,
1,1.01284,0.478359,-0.223141,-0.00694993,0,
1,1.00988,0.46879,-0.223251,-0.00704494,0,
1,1.00688,0.459221,-0.223364,-0.00712881,0,
1,1.00384,0.44964,-0.223477,-0.00720065,0,
1,1.00076,0.440034,-0.223592,-0.00726033,0,
1,0.997615,0.430384,-0.223707,-0.00730784,0,
1,0.99441,0.420667,-0.223824,-0.00734295,0,
1,0.991131,0.41086,-0.223943,-0.00736591,0,
1,0.987768,0.400937,-0.224062,-0.00737652,0,
1,0.984308,0.390868,-0.224184,-0.00737447,0,
1,0.980739,0.380623,-0.224307,-0.0073593,0,
1,0.977045,0.370168,-0.224432,-0.00733043,0,
1,0.973211,0.359469,-0.224559,-0.0072871,0,
1,0.969219,0.348483,-0.224689,-0.00722838,0,
1,0.965047,0.337169,-0.224821,-0.00715316,0,
1,0.960675,0.325479,-0.224955,-0.00706009,0,
1,0.956077,0.313359,-0.225093,-0.00694695,0,
1,0.951224,0.300752,-0.225233,-0.006812,0,
1,0.946088,0.287601,-0.225376,-0.00665313,0,
1,0.940633,0.273852,-0.225523,-0.0064679,0,
1,0.934823,0.259459,-0.225675,-0.0062555,0,
1,0.928616,0.244388,-0.22583,-0.00601243,0,
1,0.921967,0.228609,-0.225989,-0.00573613,0,
1,0.914826,0.212105,-0.226151,-0.00542443,0,
1,0.907141,0.194876,-0.226316,-0.00507559,0,
1,0.898852,0.176942,-0.226482,-0.00468867,0,
1,0.889898,0.158359,-0.22665,-0.004264,0,
1,0.880212,0.139232,-0.226819,-0.0038038,0,
1,0.869723,0.119737,-0.226987,-0.00331323,0,
1,0.858358,0.100157,-0.227156,-0.00280189,0,
1,0.846039,0.0809269,-0.227327,-0.00228619,0,
1,0.83269,0.062673,-0.227502,-0.00179162,0,
1,0.818232,0.0461948,-0.227683,-0.00135446,0,
1,0.802744,0.0323595,-0.227861,-0.00100572,0,
1,0.78635,0.0215367,-0.228043,-0.000750364,0,
1,0.768969,0.0133423,-0.228219,-0.00057648,0,
1,0.75053,0.00707712,-0.228388,-0.000466477,0,
1,0.730977,0.00204976,-0.228538,-0.000402754,0,
1,0.710271,-0.0022675,-0.228669,-0.000370015,0,
1,0.688397,-0.00622398,-0.228778,-0.000356385,0,
1,0.66536,-0.0100291,-0.228869,-0.000355047,0,
1,0.641194,-0.0138135,-0.228942,-0.00035778,0,
1,0.615961,-0.0176586,-0.228995,-0.000360818,0,
1,0.589754,-0.0216001,-0.22903,-0.000361241,0,
1,0.562692,-0.0256375,-0.229046,-0.000357398,0,
1,0.534925,-0.0297426,-0.229041,-0.000348601,0,
1,0.506624,-0.0338683,-0.229013,-0.00033478,0,
1,0.477982,-0.0379556,-0.228962,-0.000316266,0,
1,0.449206,-0.0419401,-0.228887,-0.000293614,0,
1,0.420509,-0.0457562,-0.228788,-0.0002675,0,
1,0.392107,-0.0493402,-0.228669,-0.000238654,0,
1,0.364206,-0.052632,-0.228532,-0.000207812,0,
1,0.337003,-0.055576,-0.228381,-0.000175679,0,
1,0.310673,-0.0581214,-0.228221,-0.000142893,0,
1,0.28537,-0.0602223,-0.228058,-0.000110006,0,
1,0.26122,-0.0618367,-0.227896,-7.74854e-05,0,
1,0.238324,-0.0629263,-0.227742,-4.57308e-05,0,
1,0.21675,-0.0634566,-0.227598,-1.50946e-05,0,
1,0.196544,-0.0633979,-0.227471,1.40696e-05,0,
1,0.177724,-0.0627272,-0.227362,4.13583e-05,0,
1,0.160284,-0.0614318,-0.227273,6.62895e-05,0,
1,0.144202,-0.0595144,-0.227205,8.83119e-05,0,
1,0.129436,-0.0569967,-0.227158,0.000106858,0,
1,0.115935,-0.0539234,-0.227129,0.000121429,0,
1,0.103636,-0.0503625,-0.227117,0.000131683,0,
1,0.0924701,-0.0464023,-0.227118,0.000137493,0,
1,0.0823633,-0.0421457,-0.227129,0.000138952,0,
1,0.0732406,-0.0377015,-0.227147,0.000136393,0,
1,0.0650269,-0.0331768,-0.227169,0.000130327,0,
1,0.057648,-0.0286689,-0.227194,0.000121366,0,
1,0.0510323,-0.0242592,-0.227218,0.000110159,0,
1,0.0451115,-0.0200104,-0.227242,9.73366e-05,0,
1,0.0398209,-0.0159653,-0.227263,8.34733e-05,0,
1,0.0351001,-0.0121502,-0.227282,6.90837e-05,0,
1,0.0308929,-0.0085802,-0.227298,5.46465e-05,0,
1,0.0271475,-0.00526966,-0.22731,4.06828e-05,0,
1,0.0238164,-0.00224513,-0.22732,2.78741e-05,0,
1,0.0208562,0.000440563,-0.227326,1.71466e-05,0,
1,0.0182274,0.00270744,-0.227331,9.19096e-06,0,
1,0.0158944,0.00447424,-0.227334,4.16269e-06,0,
1,0.0138249,0.00570046,-0.227336,1.54855e-06,0,
1,0.0119898,0.00641241,-0.227337,4.36805e-07,0,
1,0.0103632,0.00669159,-0.227337,5.67384e-08,0,
1,0.00892169,0.00664034,-0.227338,-3.6452e-08,0,
1,0.00764438,0.00635482,-0.227338,-4.04076e-08,0,
1,0.00651264,0.00591326,-0.227338,-2.62295e-08,0,
1,0.00550983,0.00537509,-0.227339,-1.39048e-08,0,
1,0.00462115,0.00478374,-0.227339,-6.46637e-09,0,
1,0.00383341,0.00417031,-0.227339,-2.68811e-09,0,
1,0.0031349,0.00355654,-0.227339,-9.95685e-10,0,
1,0.00251518,0.00295731,-0.227339,-3.22293e-10,0,
1,0.00196502,0.00238235,-0.227339,-8.772e-11,0,
1,0.00147619,0.00183767,-0.227339,-1.8733e-11,0,
1,0.00104139,0.00132649,-0.227339,-2.76038e-12,0,
1,0.000654158,0.000850121,-0.22734,-2.16044e-13,0,
1,0.000308731,0.000408401,-0.227339,-4.93076e-15,0,

4,0,0,-0.158636,0,0,
4,9,0,-0.0990474,0,0,
4,8.99969,0.0142613,-0.0990471,2.23878e-10,0,
4,8.99934,0.0303845,-0.0990473,1.03869e-08,0,
4,8.99894,0.0486315,-0.0990471,1.41832e-07,0,
4,8.9985,0.0692787,-0.0990473,1.02947e-06,0,
4,8.99799,0.0926077,-0.099047,5.10969e-06,0,
4,8.99742,0.118821,-0.0990472,1.93469e-05,0,
4,8.99677,0.147834,-0.0990469,5.80574e-05,0,
4,8.99605,0.178968,-0.099047,0.000138714,0,
4,8.99522,0.210868,-0.0990468,0.000265179,0,
4,8.99429,0.241993,-0.0990467,0.00041725,0,
4,8.99324,0.271277,-0.0990464,0.000566994,0,
4,8.99205,0.29834,-0.0990462,0.000696523,0,
4,8.9907,0.323259,-0.0990457,0.000800617,0,
4,8.98919,0.346207,-0.0990452,0.000888332,0,
4,8.98747,0.367371,-0.0990445,0.000961303,0,
4,8.98553,0.387019,-0.0990437,0.00101872,0,
4,8.98334,0.405433,-0.0990427,0.00106501,0,
4,8.98087,0.422829,-0.0990416,0.0011041,0,
4,8.97807,0.439377,-0.0990402,0.00113727,0,
4,8.97491,0.455218,-0.0990385,0.00116584,0,
4,8.97134,0.47047,-0.0990366,0.00119077,0,
4,8.96731,0.485234,-0.0990344,0.00121279,0,
4,8.96276,0.499595,-0.0990318,0.00123242,0,
4,8.95762,0.513624,-0.0990288,0.00125004,0,
4,8.95182,0.527385,-0.0990254,0.00126589,0,
4,8.94526,0.54093,-0.0990215,0.00128012,0,
4,8.93787,0.554305,-0.0990171,0.00129282,0,
4,8.92952,0.56755,-0.0990122,0.00130398,0,
4,8.92011,0.5807,-0.0990067,0.00131357,0,
4,8.90949,0.593783,-0.0990007,0.00132148,0,
4,8.89751,0.606824,-0.0989941,0.0013276,0,
4,8.88402,0.619845,-0.098987,0.00133177,0,
4,8.86881,0.632862,-0.0989797,0.00133382,0,
4,8.85169,0.645892,-0.098972,0.00133357,0,
4,8.83242,0.658947,-0.0989641,0.00133084,0,
4,8.81074,0.67204,-0.0989562,0.00132544,0,
4,8.78637,0.685181,-0.0989488,0.00131718,0,
4,8.75901,0.698384,-0.0989419,0.00130589,0,
4,8.7283,0.711663,-0.0989363,0.00129137,0,
4,8.69387,0.725038,-0.0989326,0.00127342,0,
4,8.65533,0.738532,-0.0989316,0.00125179,0,
4,8.61222,0.752177,-0.0989342,0.00122617,0,
4,8.56407,0.766015,-0.0989422,0.00119614,0,
4,8.5104,0.780098,-0.0989564,0.00116137,0,
4,8.45065,0.7945,-0.0989803,0.00112333,0,
4,8.38429,0.809366,-0.0990167,0.00107748,0,
4,8.31073,0.824932,-0.0990675,0.00102026,0,
4,8.22941,0.841475,-0.0991375,0.000949964,0,
4,8.13974,0.859261,-0.0992294,0.000862214,0,
4,8.04115,0.878464,-0.0993454,0.000753366,0,
4,7.93313,0.89897,-0.0994911,0.000623721,0,
4,7.81519,0.920072,-0.0996589,0.000482434,0,
4,7.68693,0.940309,-0.0998731,0.000346972,0,
4,7.54803,0.957785,-0.100116,0.000204195,0,
4,7.39831,0.970603,-0.100405,8.98282e-05,0,
4,7.23771,0.977878,-0.100758,2.77376e-05,0,
4,7.06634,0.980556,-0.101162,4.56433e-06,0,
4,6.88453,0.980698,-0.101621,-6.17224e-09,0,
4,6.69275,0.980149,-0.102136,-9.43575e-08,0,
4,6.49173,0.979842,-0.102716,2.15028e-08,0,
4,6.28238,0.979928,-0.103368,2.48432e-08,0,
4,6.06579,0.980246,-0.104101,1.42702e-08,0,
4,5.84328,0.980637,-0.104921,9.61971e-09,0,
4,5.61626,0.981039,-0.105834,8.39656e-09,0,
4,5.3863,0.981453,-0.106844,8.47355e-09,0,
4,5.15502,0.981895,-0.107954,9.07612e-09,0,
4,4.92406,0.982379,-0.109167,9.9483e-09,0,
4,4.69507,0.982915,-0.110482,1.09956e-08,0,
4,4.46961,0.983509,-0.111899,1.20751e-08,0,
4,4.24915,0.984142,-0.113413,1.28838e-08,0,
4,4.03501,0.98476,-0.11502,1.31302e-08,0,
4,3.82836,0.985293,-0.116712,1.30681e-08,0,
4,3.63018,0.985747,-0.118478,1.40962e-08,0,
4,3.44125,0.9863,-0.120306,1.91487e-08,0,
4,3.26217,0.98731,-0.122183,6.51928e-08,0,
4,3.09333,0.989072,-0.124096,5.73992e-07,0,
4,2.93497,0.9914,-0.126029,2.68229e-06,0,
4,2.78715,0.993442,-0.127964,5.19825e-06,0,
4,2.64979,0.994017,-0.129883,5.92639e-07,0,
4,2.52268,0.992198,-0.131764,-2.09274e-05,0,
4,2.40551,0.987661,-0.133585,-6.45561e-05,0,
4,2.29789,0.980652,-0.135324,-0.000128906,0,
4,2.19939,0.971765,-0.136966,-0.000207821,0,
4,2.10949,0.961693,-0.138502,-0.000293353,0,
4,2.02768,0.951067,-0.139928,-0.000377936,0,
4,1.95343,0.940399,-0.141244,-0.000455408,0,
4,1.88618,0.930066,-0.142449,-0.000523243,0,
4,1.82542,0.920259,-0.143556,-0.000572193,0,
4,1.77062,0.911038,-0.144568,-0.000611157,0,
4,1.72128,0.902446,-0.145482,-0.000646174,0,
4,1.67693,0.894513,-0.146309,-0.000677338,0,
4,1.63713,0.887239,-0.147055,-0.000705026,0,
4,1.60144,0.880603,-0.147728,-0.000729609,0,
4,1.56949,0.874574,-0.148333,-0.000751497,0,
4,1.54091,0.869115,-0.148875,-0.000771175,0,
4,1.51537,0.864171,-0.149362,-0.000788985,0,
4,1.49167,0.859545,-0.149814,-0.000805369,0,
4,1.46926,0.85515,-0.150241,-0.000820839,0,
4,1.44801,0.850955,-0.150654,-0.000833596,0,
4,1.42781,0.84692,-0.151055,-0.000839974,0,
4,1.40855,0.843016,-0.151436,-0.00084634,0,
4,1.39015,0.839227,-0.151803,-0.0008514,0,
4,1.37252,0.835539,-0.152156,-0.000855477,0,
4,1.3556,0.831934,-0.152496,-0.000859099,0,
4,1.3393,0.828397,-0.152826,-0.000862759,0,
4,1.32357,0.824908,-0.153144,-0.000867441,0,
4,1.30836,0.821448,-0.153454,-0.000873871,0,
4,1.29362,0.817995,-0.153754,-0.00088307,0,
4,1.2793,0.814522,-0.154048,-0.000896339,0,
4,1.26537,0.810998,-0.154334,-0.000915285,0,
4,1.25179,0.807386,-0.154613,-0.000941866,0,
4,1.23852,0.803641,-0.154887,-0.00097841,0,
4,1.22554,0.799711,-0.155155,-0.00102762,0,
4,1.21282,0.795536,-0.155417,-0.00109254,0,
4,1.20034,0.791046,-0.155674,-0.00117641,0,
4,1.18806,0.786168,-0.155926,-0.00128251,0,
4,1.17599,0.780825,-0.156173,-0.0014138,0,
4,1.16408,0.774948,-0.156415,-0.00157257,0,
4,1.15233,0.76848,-0.156651,-0.00176004,0,
4,1.14073,0.761382,-0.156882,-0.00197599,0,
4,1.12925,0.753644,-0.157108,-0.00221869,0,
4,1.11788,0.745279,-0.157329,-0.00248487,0,
4,1.10661,0.736324,-0.157545,-0.0027701,0,
4,1.09543,0.726833,-0.157757,-0.00306917,0,
4,1.08432,0.716872,-0.157964,-0.00337661,0,
4,1.07328,0.706511,-0.158167,-0.00368705,0,
4,1.0623,0.69582,-0.158366,-0.0039956,0,
4,1.05136,0.684863,-0.158562,-0.00429794,0,
4,1.04044,0.673681,-0.158753,-0.00459059,0,
4,1.0295,0.662307,-0.158942,-0.00487089,0,
4,1.01855,0.650785,-0.159128,-0.00513626,0,
4,1.00757,0.639154,-0.15931,-0.00538436,0,
4,0.996544,0.627447,-0.15949,-0.00561363,0,
4,0.98547,0.615694,-0.159666,-0.00582212,0,
4,0.974334,0.603921,-0.15984,-0.00600854,0,
4,0.963124,0.592148,-0.160009,-0.00617161,0,
4,0.951826,0.580395,-0.160181,-0.00631495,0,
4,0.940428,0.568664,-0.160335,-0.00645831,0,
4,0.928915,0.556834,-0.16045,-0.00654065,0,
4,0.917272,0.544744,-0.160551,-0.0066293,0,
4,0.905481,0.532305,-0.160646,-0.00672519,0,
4,0.893524,0.519464,-0.16074,-0.0068286,0,
4,0.881383,0.506179,-0.160836,-0.00693965,0,
4,0.869035,0.492414,-0.160934,-0.00705822,0,
4,0.856459,0.478137,-0.161036,-0.00718399,0,
4,0.843629,0.463319,-0.161142,-0.00731646,0,
4,0.830518,0.447933,-0.161251,-0.007455,0,
4,0.817097,0.431958,-0.161363,-0.00759882,0,
4,0.803334,0.415376,-0.161477,-0.00774698,0,
4,0.789195,0.398174,-0.161593,-0.00789841,0,
4,0.774643,0.380341,-0.16171,-0.00805184,0,
4,0.759639,0.361871,-0.161827,-0.00820575,0,
4,0.744138,0.342768,-0.161944,-0.00835824,0,
4,0.728096,0.323044,-0.162063,-0.00850693,0,
4,0.711463,0.302728,-0.162183,-0.008649,0,
4,0.694189,0.281867,-0.162305,-0.00878088,0,
4,0.676218,0.260519,-0.162431,-0.00889772,0,
4,0.657495,0.238746,-0.162559,-0.00899447,0,
4,0.637962,0.216605,-0.162689,-0.00906645,0,
4,0.617561,0.19414,-0.162814,-0.00910996,0,
4,0.596848,0.171988,-0.162928,-0.00912111,0,
4,0.576557,0.150894,-0.163027,-0.00909918,0,
4,0.556564,0.130722,-0.163109,-0.00904576,0,
4,0.536763,0.111369,-0.163182,-0.00896169,0,
4,0.517057,0.0927963,-0.16326,-0.00884745,0,
4,0.497368,0.0750532,-0.163368,-0.00870417,0,
4,0.477632,0.0582701,-0.163536,-0.0085353,0,
4,0.457804,0.042604,-0.163773,-0.00834776,0,
4,0.437857,0.0281269,-0.164078,-0.00815398,0,
4,0.417786,0.0146749,-0.164174,-0.00792551,0,
4,0.397605,0.00182741,-0.164021,-0.0075151,0,
4,0.377348,-0.0106856,-0.163859,-0.00718111,0,
4,0.357066,-0.0228551,-0.163704,-0.00683619,0,
4,0.336828,-0.0346404,-0.163529,-0.00648577,0,
4,0.316717,-0.0459831,-0.163345,-0.00613046,0,
4,0.296825,-0.0568248,-0.163149,-0.00577002,0,
4,0.27725,-0.0671177,-0.162944,-0.00540626,0,
4,0.258095,-0.0768266,-0.16273,-0.00504166,0,
4,0.239458,-0.0859291,-0.162508,-0.00467897,0,
4,0.221432,-0.0944145,-0.162281,-0.00432096,0,
4,0.2041,-0.102282,-0.162049,-0.00397031,0,
4,0.187537,-0.109542,-0.161815,-0.00362948,0,
4,0.171798,-0.11621,-0.16158,-0.00330061,0,
4,0.156928,-0.122309,-0.161346,-0.00298552,0,
4,0.142956,-0.127865,-0.161116,-0.00268563,0,
4,0.129894,-0.132908,-0.160891,-0.00240199,0,
4,0.117744,-0.137468,-0.160674,-0.00213526,0,
4,0.106492,-0.141576,-0.160465,-0.0018858,0,
4,0.0961173,-0.145262,-0.160268,-0.00165362,0,
4,0.0865883,-0.148554,-0.160082,-0.0014385,0,
4,0.0778675,-0.15148,-0.15991,-0.00123999,0,
4,0.0699123,-0.154063,-0.159751,-0.00105748,0,
4,0.062677,-0.156326,-0.159605,-0.000890238,0,
4,0.056114,-0.158289,-0.159473,-0.000737431,0,
4,0.0501747,-0.159967,-0.159354,-0.000598184,0,
4,0.0448114,-0.161375,-0.159247,-0.000471599,0,
4,0.039977,-0.162523,-0.159153,-0.000356779,0,
4,0.0356266,-0.163418,-0.15907,-0.000252851,0,
4,0.0317171,-0.164062,-0.158997,-0.000158989,0,
4,0.0282081,-0.164455,-0.158933,-7.44261e-05,0,
4,0.0250617,-0.164589,-0.158879,1.52261e-06,0,
4,0.0222427,-0.16445,-0.158832,6.94388e-05,0,
4,0.0197189,-0.164014,-0.158792,0.000129768,0,
4,0.0174603,-0.163246,-0.158758,0.000182772,0,
4,0.0154398,-0.162094,-0.15873,0.000228447,0,
4,0.0136326,-0.160481,-0.158706,0.000266397,0,
4,0.0120162,-0.158297,-0.158688,0.000295627,0,
4,0.0105703,-0.155383,-0.158673,0.00031426,0,
4,0.00927657,-0.15152,-0.158662,0.000319264,0,
4,0.00811839,-0.146416,-0.158653,0.000306616,0,
4,0.0070809,-0.139734,-0.158647,0.000272886,0,
4,0.0061507,-0.131187,-0.158643,0.000219043,0,
4,0.00531578,-0.120729,-0.158641,0.000154271,0,
4,0.00456537,-0.108719,-0.158639,9.36737e-05,0,
4,0.00388979,-0.0958467,-0.158639,4.89634e-05,0,
4,0.00328037,-0.0828383,-0.158638,2.22374e-05,0,
4,0.00272934,-0.0702043,-0.158639,8.83827e-06,0,
4,0.0022297,-0.0582031,-0.158637,3.05276e-06,0,
4,0.00177519,-0.046919,-0.158638,8.89272e-07,0,
4,0.00136016,-0.0363448,-0.158637,2.04745e-07,0,
4,0.000979511,-0.0264322,-0.158638,3.27884e-08,0,
4,0.00062865,-0.0171174,-0.158636,2.79758e-09,0,
4,0.000303409,-0.00833101,-0.158638,6.81709e-11,0,

6,0,0,-0.0194501,0,0,
6,9,0,-0.0750025,0,0,
6,8.99969,0.0135157,-0.0750022,1.86548e-10,0,
6,8.99934,0.0287573,-0.0750025,8.60967e-09,0,
6,8.99895,0.0459626,-0.0750022,1.16729e-07,0,
6,8.9985,0.0653826,-0.0750024,8.41251e-07,0,
6,8.99801,0.0872758,-0.0750022,4.15305e-06,0,
6,8.99744,0.111842,-0.0750023,1.5711e-05,0,
6,8.99681,0.139054,-0.0750021,4.74903e-05,0,
6,8.99609,0.168386,-0.0750022,0.000115463,0,
6,8.99529,0.198686,-0.075002,0.00022632,0,
6,8.99438,0.228525,-0.0750019,0.000365542,0,
6,8.99336,0.256802,-0.0750016,0.000507603,0,
6,8.9922,0.283021,-0.0750015,0.000635149,0,
6,8.9909,0.307181,-0.0750011,0.000738446,0,
6,8.98944,0.329443,-0.0750007,0.00082529,0,
6,8.98779,0.349977,-0.0750001,0.000898334,0,
6,8.98593,0.369032,-0.0749995,0.000956164,0,
6,8.98383,0.386867,-0.0749986,0.00100363,0,
6,8.98147,0.403689,-0.0749977,0.00104383,0,
6,8.97881,0.419662,-0.0749964,0.00107826,0,
6,8.97581,0.434927,-0.074995,0.00110824,0,
6,8.97244,0.449603,-0.0749933,0.00113478,0,
6,8.96863,0.463789,-0.0749913,0.00115863,0,
6,8.96435,0.477573,-0.074989,0.00118035,0,
6,8.95953,0.491027,-0.0749862,0.00120033,0,
6,8.95409,0.504217,-0.074983,0.00121886,0,
6,8.94798,0.517198,-0.0749792,0.00123611,0,
6,8.94109,0.530019,-0.0749749,0.00125217,0,
6,8.93334,0.542724,-0.0749699,0.00126706,0,
6,8.92463,0.555351,-0.0749642,0.00128072,0,
6,8.91482,0.567932,-0.0749577,0.00129307,0,
6,8.90379,0.580496,-0.0749503,0.00130393,0,
6,8.89139,0.593068,-0.0749421,0.00131311,0,
6,8.87746,0.605669,-0.0749329,0.00132039,0,
6,8.86181,0.618316,-0.0749228,0.0013255,0,
6,8.84423,0.631023,-0.0749117,0.00132818,0,
6,8.82452,0.6438,-0.0748994,0.00132815,0,
6,8.80241,0.656658,-0.074886,0.00132513,0,
6,8.77763,0.669605,-0.0748715,0.00131886,0,
6,8.74989,0.682646,-0.0748559,0.0013091,0,
6,8.71885,0.695793,-0.0748393,0.0012956,0,
6,8.68417,0.709054,-0.0748217,0.00127814,0,
6,8.64545,0.722447,-0.0748033,0.00125647,0,
6,8.60229,0.735993,-0.0747842,0.0012303,0,
6,8.55423,0.749722,-0.0747649,0.00119928,0,
6,8.50082,0.763674,-0.0747452,0.00116323,0,
6,8.44155,0.777909,-0.0747263,0.00112335,0,
6,8.37592,0.792546,-0.0747096,0.00107585,0,
6,8.30339,0.807791,-0.0746952,0.00101998,0,
6,8.22344,0.823913,-0.0746829,0.000952816,0,
6,8.13555,0.841214,-0.0746735,0.00087058,0,
6,8.0392,0.859947,-0.0746627,0.000769806,0,
6,7.93391,0.880102,-0.0746506,0.00065026,0,
6,7.81927,0.901092,-0.0746254,0.000518478,0,
6,7.6949,0.921538,-0.0745943,0.000389576,0,
6,7.56054,0.939606,-0.0745447,0.000273101,0,
6,7.41603,0.953683,-0.0744835,0.000140782,0,
6,7.26132,0.96278,-0.0744178,5.59441e-05,0,
6,7.09653,0.967145,-0.0743333,1.43016e-05,0,
6,6.92195,0.968235,-0.074232,7.88191e-07,0,
6,6.73802,0.967807,-0.0741063,-1.00593e-06,0,
6,6.5454,0.967102,-0.0739533,-4.69169e-07,0,
6,6.34489,0.966622,-0.0737696,-1.29757e-07,0,
6,6.1375,0.966386,-0.073552,-3.42619e-08,0,
6,5.92439,0.966257,-0.0732963,-1.28491e-08,0,
6,5.70687,0.966124,-0.072998,-7.38182e-09,0,
6,5.48633,0.965945,-0.0726522,-5.80777e-09,0,
6,5.26426,0.965716,-0.0722535,-5.5955e-09,0,
6,5.04218,0.965447,-0.071797,-5.91075e-09,0,
6,4.82159,0.96515,-0.0712778,-6.41255e-09,0,
6,4.60398,0.964838,-0.0706916,-7.03083e-09,0,
6,4.39071,0.964508,-0.0700351,-7.93323e-09,0,
6,4.18307,0.964131,-0.069306,-9.45544e-09,0,
6,3.98218,0.963644,-0.0685036,-1.18182e-08,0,
6,3.78902,0.96299,-0.0676291,-1.46862e-08,0,
6,3.60438,0.962192,-0.0666856,-1.87706e-08,0,
6,3.42888,0.96142,-0.0656781,-3.87362e-08,0,
6,3.26296,0.960964,-0.0646127,-9.89084e-08,0,
6,3.10691,0.961068,-0.0634961,-1.08253e-07,0,
6,2.96084,0.961712,-0.0623354,1.08315e-07,0,
6,2.82473,0.962516,-0.06114,-1.83527e-07,0,
6,2.69844,0.962857,-0.0599223,-3.88191e-06,0,
6,2.58172,0.962124,-0.0586969,-1.54007e-05,0,
6,2.47424,0.959915,-0.0574792,-3.8445e-05,0,
6,2.37559,0.956125,-0.0562841,-7.4439e-05,0,
6,2.28535,0.950896,-0.0551245,-0.000122422,0,
6,2.20301,0.944524,-0.0540113,-0.000179677,0,
6,2.1281,0.937366,-0.0529526,-0.000242561,0,
6,2.06009,0.929773,-0.0519546,-0.000307163,0,
6,1.99849,0.922056,-0.0510196,-0.000369653,0,
6,1.9428,0.914473,-0.0501515,-0.000426792,0,
6,1.89255,0.90722,-0.0493448,-0.000477752,0,
6,1.84728,0.900388,-0.0486063,-0.000519709,0,
6,1.80655,0.893975,-0.0479348,-0.000550115,0,
6,1.76996,0.887985,-0.0473161,-0.000577971,0,
6,1.73712,0.882433,-0.0467542,-0.000603462,0,
6,1.70768,0.877294,-0.0462405,-0.000627039,0,
6,1.67998,0.872338,-0.0457535,-0.000649884,0,
6,1.65329,0.867469,-0.0452776,-0.000672199,0,
6,1.62754,0.862684,-0.0448133,-0.000693933,0,
6,1.60265,0.857983,-0.0443592,-0.000715172,0,
6,1.57854,0.853364,-0.0439148,-0.000735855,0,
6,1.55515,0.848826,-0.0434794,-0.000756021,0,
6,1.53242,0.844365,-0.0430525,-0.000775687,0,
6,1.5103,0.839975,-0.0426334,-0.00079485,0,
6,1.48874,0.835643,-0.0422219,-0.000813505,0,
6,1.46769,0.831356,-0.0418173,-0.000831766,0,
6,1.44712,0.827099,-0.0414184,-0.000849953,0,
6,1.42698,0.822881,-0.0410233,-0.000868635,0,
6,1.40725,0.818734,-0.0406296,-0.00088835,0,
6,1.38788,0.81471,-0.0402381,-0.000909332,0,
6,1.36886,0.810832,-0.039848,-0.000930462,0,
6,1.35015,0.80705,-0.0394723,-0.000938154,0,
6,1.33173,0.803287,-0.0391063,-0.00094597,0,
6,1.31357,0.79951,-0.0387388,-0.000957209,0,
6,1.29566,0.795702,-0.038376,-0.000970385,0,
6,1.27797,0.791843,-0.0380151,-0.000986559,0,
6,1.26048,0.787908,-0.0376569,-0.00100698,0,
6,1.24318,0.783864,-0.0373008,-0.00103322,0,
6,1.22605,0.779674,-0.0369468,-0.00106715,0,
6,1.20907,0.775293,-0.0365948,-0.00111091,0,
6,1.19223,0.77067,-0.0362448,-0.00116686,0,
6,1.17551,0.765745,-0.0358965,-0.00123748,0,
6,1.1589,0.760456,-0.0355501,-0.00132518,0,
6,1.14238,0.75474,-0.0352056,-0.00143206,0,
6,1.12595,0.748539,-0.0348629,-0.00155962,0,
6,1.10959,0.741805,-0.0345223,-0.0017085,0,
6,1.09329,0.734506,-0.0341845,-0.00187824,0,
6,1.07704,0.72663,-0.0338493,-0.00206717,0,
6,1.06081,0.718182,-0.033517,-0.00227248,0,
6,1.04459,0.709183,-0.0331878,-0.00249049,0,
6,1.02836,0.699678,-0.0328616,-0.00271681,0,
6,1.01211,0.689719,-0.0325394,-0.00294667,0,
6,0.99583,0.679368,-0.0322201,-0.0031754,0,
6,0.97951,0.668686,-0.0319067,-0.00340321,0,
6,0.963136,0.657705,-0.0315918,-0.00362783,0,
6,0.946694,0.646371,-0.0312715,-0.00383701,0,
6,0.930172,0.634591,-0.0309537,-0.00405148,0,
6,0.913555,0.622301,-0.0306392,-0.00427368,0,
6,0.896829,0.609448,-0.0303295,-0.00450533,0,
6,0.879979,0.595992,-0.0300248,-0.00474772,0,
6,0.862989,0.581907,-0.0297258,-0.00500178,0,
6,0.845842,0.567187,-0.0294331,-0.00526826,0,
6,0.828521,0.551846,-0.0291475,-0.0055478,0,
6,0.811008,0.535908,-0.0288709,-0.00583708,0,
6,0.793282,0.519388,-0.0286054,-0.00613242,0,
6,0.775322,0.5023,-0.028352,-0.00643167,0,
6,0.757107,0.484659,-0.0281118,-0.00673221,0,
6,0.738612,0.466492,-0.0278858,-0.00703086,0,
6,0.719813,0.447838,-0.0276751,-0.00732391,0,
6,0.700681,0.428751,-0.0274807,-0.00760715,0,
6,0.681188,0.409292,-0.0273023,-0.00787597,0,
6,0.661304,0.38952,-0.0271377,-0.00812542,0,
6,0.640996,0.369484,-0.0269826,-0.0083502,0,
6,0.620228,0.349222,-0.0268335,-0.00854452,0,
6,0.598964,0.328786,-0.0266936,-0.0087021,0,
6,0.577166,0.308291,-0.0265805,-0.00881688,0,
6,0.554791,0.287986,-0.0265321,-0.00888509,0,
6,0.531799,0.268271,-0.0265945,-0.00890635,0,
6,0.508144,0.249586,-0.0267919,-0.00888594,0,
6,0.48378,0.232114,-0.0270537,-0.00882301,0,
6,0.459585,0.216057,-0.0270051,-0.00851276,0,
6,0.436695,0.201581,-0.0267692,-0.00819806,0,
6,0.414961,0.188348,-0.0266084,-0.00790754,0,
6,0.394252,0.17618,-0.0264238,-0.00760748,0,
6,0.374445,0.16493,-0.0262449,-0.00730486,0,
6,0.355433,0.154481,-0.0260662,-0.00700081,0,
6,0.337122,0.144739,-0.0258862,-0.00669527,0,
6,0.319433,0.135622,-0.0257031,-0.00638908,0,
6,0.3023,0.127063,-0.0255154,-0.00608294,0,
6,0.28567,0.119005,-0.0253217,-0.00577747,0,
6,0.269507,0.111403,-0.0251211,-0.00547331,0,
6,0.253785,0.10422,-0.0249126,-0.00517119,0,
6,0.238493,0.0974251,-0.0246957,-0.0048719,0,
6,0.223631,0.0909963,-0.0244702,-0.00457637,0,
6,0.209207,0.0849146,-0.0242361,-0.00428562,0,
6,0.195237,0.0791648,-0.023994,-0.00400077,0,
6,0.181744,0.0737344,-0.0237448,-0.00372294,0,
6,0.168754,0.0686122,-0.02349,-0.00345331,0,
6,0.156292,0.0637879,-0.0232312,-0.00319297,0,
6,0.144384,0.0592516,-0.0229703,-0.00294295,0,
6,0.133052,0.054993,-0.0227098,-0.00270413,0,
6,0.122315,0.0510013,-0.0224518,-0.00247725,0,
6,0.112183,0.0472654,-0.0221988,-0.00226285,0,
6,0.102665,0.0437735,-0.0219529,-0.0020613,0,
6,0.0937597,0.0405133,-0.0217162,-0.00187276,0,
6,0.0854609,0.0374723,-0.0214905,-0.00169722,0,
6,0.077757,0.0346377,-0.0212772,-0.00153447,0,
6,0.0706309,0.0319967,-0.0210772,-0.00138421,0,
6,0.0640611,0.0295365,-0.0208914,-0.00124597,0,
6,0.0580229,0.0272446,-0.02072,-0.00111922,0,
6,0.0524888,0.0251087,-0.0205631,-0.00100334,0,
6,0.0474296,0.023117,-0.0204204,-0.000897684,0,
6,0.042815,0.021258,-0.0202916,-0.000801555,0,
6,0.0386145,0.0195208,-0.0201758,-0.000714267,0,
6,0.0347975,0.0178949,-0.0200724,-0.000635132,0,
6,0.0313344,0.0163702,-0.0199806,-0.000563482,0,
6,0.0281964,0.0149371,-0.0198995,-0.000498668,0,
6,0.0253561,0.0135865,-0.0198281,-0.000440077,0,
6,0.0227875,0.0123093,-0.0197658,-0.000387124,0,
6,0.0204662,0.011097,-0.0197114,-0.000339262,0,
6,0.0183694,0.00994116,-0.0196645,-0.000295976,0,
6,0.016476,0.00883343,-0.0196239,-0.000256783,0,
6,0.0147664,0.00776545,-0.0195895,-0.000221232,0,
6,0.0132228,0.00672876,-0.01956,-0.000188897,0,
6,0.0118288,0.00571474,-0.0195358,-0.000159376,0,
6,0.0105693,0.00471476,-0.019515,-0.000132293,0,
6,0.00943073,0.00372058,-0.019499,-0.000107309,0,
6,0.00840063,0.00272569,-0.0194852,-8.41731e-05,0,
6,0.00746774,0.00172816,-0.0194758,-6.28188e-05,0,
6,0.00662185,0.000736138,-0.0194675,-4.35516e-05,0,
6,0.00585371,-0.000224431,-0.0194634,-2.71797e-05,0,
6,0.00515491,-0.00110517,-0.0194589,-1.47477e-05,0,
6,0.00451788,-0.00184461,-0.0194581,-6.7331e-06,0,
6,0.00393573,-0.00239309,-0.0194555,-2.49175e-06,0,
6,0.00340221,-0.00273303,-0.0194562,-6.8128e-07,0,
6,0.00291168,-0.00287725,-0.019454,-7.94237e-08,0,
6,0.00245897,-0.00285397,-0.0194555,5.15108e-08,0,
6,0.00203939,-0.00269388,-0.0194531,4.61616e-08,0,
6,0.00164864,-0.00242384,-0.019455,2.20385e-08,0,
6,0.00128281,-0.00206517,-0.0194521,7.18584e-09,0,
6,0.000938257,-0.00163384,-0.0194548,1.51581e-09,0,
6,0.000611645,-0.00114125,-0.0194512,1.62593e-10,0,
6,0.000299862,-0.000595025,-0.0194548,4.74478e-12,0,

10,0.000296632,0.0083722,0.0297706,-4.81028e-11,0,
10,0.000596102,0.0168213,0.0297713,-1.78265e-09,0,
10,0.000900397,0.0254032,0.0297706,-1.81236e-08,0,
10,0.00121153,0.0341743,0.0297711,-9.73844e-08,0,
10,0.00153158,0.043191,0.0297706,-3.64234e-07,0,
10,0.00186264,0.0525085,0.029771,-1.08278e-06,0,
10,0.00220692,0.0621786,0.0297705,-2.74781e-06,0,
10,0.00256668,0.0722449,0.0297708,-6.20253e-06,0,
10,0.00294431,0.0827348,0.0297704,-1.27573e-05,0,
10,0.00334229,0.0936485,0.0297706,-2.42374e-05,0,
10,0.00376326,0.104945,0.0297702,-4.28308e-05,0,
10,0.00421,0.116528,0.0297704,-7.06054e-05,0,
10,0.00468544,0.128247,0.0297699,-0.000108723,0,
10,0.00519274,0.139902,0.0297699,-0.000156693,0,
10,0.00573524,0.15128,0.0297693,-0.000212197,0,
10,0.00631651,0.162186,0.029769,-0.000271707,0,
10,0.00694041,0.172472,0.0297682,-0.000331531,0,
10,0.00761104,0.182046,0.0297675,-0.000388678,0,
10,0.00833284,0.190871,0.0297661,-0.00044123,0,
10,0.00911058,0.198952,0.0297647,-0.000488286,0,
10,0.0099494,0.206326,0.0297626,-0.000529713,0,
10,0.0108548,0.213045,0.0297603,-0.000565873,0,
10,0.0118329,0.219171,0.0297572,-0.000597401,0,
10,0.0128901,0.224769,0.0297536,-0.000625047,0,
10,0.0140333,0.229902,0.0297491,-0.000649578,0,
10,0.0152702,0.234629,0.0297439,-0.00067172,0,
10,0.0166089,0.239003,0.0297376,-0.000692132,0,
10,0.0180584,0.243073,0.0297303,-0.000711398,0,
10,0.0196282,0.246879,0.0297218,-0.000730031,0,
10,0.0213288,0.25046,0.029712,-0.000748481,0,
10,0.0231714,0.253849,0.0297007,-0.000767146,0,
10,0.0251682,0.257073,0.0296879,-0.000786383,0,
10,0.0273326,0.260158,0.0296733,-0.00080652,0,
10,0.0296789,0.263126,0.0296567,-0.000827864,0,
10,0.0322227,0.265998,0.029638,-0.000850709,0,
10,0.0349809,0.268792,0.0296169,-0.000875341,0,
10,0.0379719,0.271524,0.0295933,-0.000902048,0,
10,0.0412155,0.274209,0.029567,-0.00093112,0,
10,0.0447333,0.276863,0.0295376,-0.00096286,0,
10,0.0485489,0.279498,0.0295049,-0.000997581,0,
10,0.0526875,0.282129,0.0294687,-0.00103561,0,
10,0.0571768,0.284768,0.0294287,-0.0010773,0,
10,0.0620466,0.287429,0.0293846,-0.00112303,0,
10,0.0673295,0.290125,0.0293361,-0.00117319,0,
10,0.0730607,0.29287,0.0292829,-0.0012282,0,
10,0.0792784,0.295679,0.0292249,-0.00128852,0,
10,0.0860241,0.298566,0.0291616,-0.00135464,0,
10,0.0933428,0.301549,0.029093,-0.00142709,0,
10,0.101283,0.304645,0.0290186,-0.0015064,0,
10,0.109899,0.307875,0.0289385,-0.00159318,0,
10,0.119247,0.311259,0.0288523,-0.00168804,0,
10,0.12939,0.314823,0.0287601,-0.00179162,0,
10,0.140395,0.318593,0.0286619,-0.00190461,0,
10,0.152337,0.322601,0.0285575,-0.00202769,0,
10,0.165296,0.326882,0.0284472,-0.00216154,0,
10,0.179357,0.331477,0.0283311,-0.00230684,0,
10,0.194615,0.336431,0.0282094,-0.00246421,0,
10,0.211171,0.341798,0.0280825,-0.00263419,0,
10,0.229138,0.347639,0.0279504,-0.00281721,0,
10,0.248635,0.354026,0.0278141,-0.00301349,0,
10,0.269793,0.361041,0.0276726,-0.00322295,0,
10,0.292753,0.368779,0.0275282,-0.00344513,0,
10,0.317669,0.377351,0.0273769,-0.0036777,0,
10,0.344708,0.386876,0.0272242,-0.00391719,0,
10,0.372405,0.396902,0.0270752,-0.00415259,0,
10,0.399623,0.407037,0.026932,-0.00437258,0,
10,0.426397,0.417281,0.0267956,-0.00457398,0,
10,0.452757,0.427638,0.0266643,-0.00475804,0,
10,0.478735,0.438116,0.0265403,-0.00492246,0,
10,0.504358,0.448734,0.0264236,-0.00506596,0,
10,0.529657,0.459512,0.0263153,-0.00518723,0,
10,0.554656,0.470469,0.0262082,-0.00528673,0,
10,0.579382,0.481617,0.0261109,-0.00536395,0,
10,0.603859,0.492964,0.0259977,-0.0054438,0,
10,0.628112,0.504623,0.0259353,-0.00549561,0,
10,0.652163,0.516931,0.0259498,-0.00542385,0,
10,0.676035,0.530163,0.0259441,-0.00532335,0,
10,0.699751,0.544245,0.0258998,-0.00519275,0,
10,0.72333,0.558905,0.0258142,-0.00503206,0,
10,0.746795,0.573835,0.0256988,-0.00484402,0,
10,0.770165,0.588785,0.0255633,-0.00463298,0,
10,0.79346,0.603596,0.0254149,-0.00440379,0,
10,0.816699,0.618165,0.0252564,-0.00416119,0,
10,0.839903,0.632409,0.0250886,-0.00391001,0,
10,0.863088,0.646229,0.0249086,-0.00365928,0,
10,0.886275,0.659508,0.0247155,-0.00341647,0,
10,0.909481,0.67216,0.0245123,-0.00318213,0,
10,0.932723,0.684162,0.0243012,-0.00295676,0,
10,0.956021,0.695532,0.0240838,-0.00274101,0,
10,0.97939,0.706307,0.0238601,-0.00253553,0,
10,1.00285,0.716523,0.0236302,-0.00234088,0,
10,1.02641,0.726204,0.0233931,-0.00215756,0,
10,1.0501,0.735373,0.0231495,-0.00198595,0,
10,1.07392,0.744051,0.0228985,-0.00182627,0,
10,1.0979,0.752269,0.0226432,-0.00167614,0,
10,1.12205,0.760054,0.0223817,-0.00153607,0,
10,1.14639,0.76741,0.022111,-0.00141026,0,
10,1.17093,0.77434,0.0218327,-0.00129804,0,
10,1.19568,0.780861,0.0215464,-0.00120006,0,
10,1.22066,0.787007,0.0212525,-0.00111621,0,
10,1.24589,0.792823,0.0209517,-0.00104564,0,
10,1.27137,0.798359,0.0206434,-0.000987198,0,
10,1.29713,0.803671,0.02033,-0.000944932,0,
10,1.32317,0.808876,0.0200116,-0.000897933,0,
10,1.34951,0.814108,0.0196873,-0.000853504,0,
10,1.37616,0.819401,0.0193578,-0.000812612,0,
10,1.40313,0.824709,0.0190204,-0.000775182,0,
10,1.43043,0.829964,0.0186753,-0.000740833,0,
10,1.45807,0.835128,0.0183221,-0.000708855,0,
10,1.48607,0.840205,0.0179616,-0.000678508,0,
10,1.51444,0.845219,0.0175941,-0.00064928,0,
10,1.54318,0.850185,0.0172196,-0.000620945,0,
10,1.57231,0.855099,0.0168376,-0.00059344,0,
10,1.60184,0.859942,0.016448,-0.000566756,0,
10,1.63178,0.864689,0.0160506,-0.000540884,0,
10,1.66213,0.869316,0.0156459,-0.000515828,0,
10,1.69292,0.873803,0.0152333,-0.000491557,0,
10,1.72416,0.878142,0.014814,-0.00046792,0,
10,1.75585,0.882353,0.0143859,-0.000443108,0,
10,1.78802,0.886487,0.0139491,-0.000414443,0,
10,1.82067,0.890572,0.0135052,-0.000386765,0,
10,1.85383,0.894594,0.0130531,-0.000358179,0,
10,1.88751,0.89853,0.0125926,-0.000328628,0,
10,1.92173,0.902358,0.0121239,-0.00029846,0,
10,1.95652,0.90605,0.0116462,-0.000268102,0,
10,1.9919,0.909582,0.0111605,-0.000238045,0,
10,2.02791,0.912931,0.0106651,-0.000208849,0,
10,2.06456,0.916076,0.0101623,-0.00018076,0,
10,2.10268,0.919055,0.00963726,-0.000153383,0,
10,2.1443,0.921957,0.00906704,-0.000127098,0,
10,2.18977,0.92473,0.00844449,-0.00010205,0,
10,2.23946,0.927293,0.00776789,-7.85435e-05,0,
10,2.29376,0.92956,0.00703178,-5.73895e-05,0,
10,2.35309,0.931451,0.00623393,-3.92533e-05,0,
10,2.4179,0.932897,0.00537036,-2.46258e-05,0,
10,2.48863,0.933855,0.00443939,-1.376e-05,0,
10,2.56575,0.934321,0.00343886,-6.57265e-06,0,
10,2.64971,0.934353,0.00236847,-2.57708e-06,0,
10,2.74098,0.93407,0.0012281,-9.24266e-07,0,
10,2.83997,0.933648,1.91126e-05,-5.91097e-07,0,
10,2.94709,0.933293,-0.00125671,-6.82859e-07,0,
10,3.06269,0.933188,-0.0025964,-6.91375e-07,0,
10,3.18706,0.933442,-0.00399624,-5.23857e-07,0,
10,3.3204,0.934058,-0.005451,-3.02904e-07,0,
10,3.46281,0.934944,-0.00695388,-1.41204e-07,0,
10,3.61427,0.935954,-0.00849597,-6.06753e-08,0,
10,3.77463,0.936952,-0.0100665,-3.11907e-08,0,
10,3.94358,0.937857,-0.011653,-2.22438e-08,0,
10,4.12067,0.938656,-0.013242,-1.92205e-08,0,
10,4.30525,0.93938,-0.0148196,-1.78634e-08,0,
10,4.49655,0.940074,-0.0163723,-1.73696e-08,0,
10,4.6936,0.940764,-0.0178867,-1.77198e-08,0,
10,4.89531,0.941455,-0.0193509,-1.94091e-08,0,
10,5.10047,0.94213,-0.020754,-2.3894e-08,0,
10,5.30776,0.942771,-0.0220868,-3.44225e-08,0,
10,5.51581,0.943359,-0.023342,-5.7718e-08,0,
10,5.72323,0.943893,-0.0245143,-1.08236e-07,0,
10,5.92863,0.944397,-0.0256002,-2.21335e-07,0,
10,6.13069,0.944936,-0.0265986,-4.90115e-07,0,
10,6.32816,0.945607,-0.0275097,-1.10967e-06,0,
10,6.51991,0.946441,-0.0283358,-2.16174e-06,0,
10,6.70495,0.947209,-0.0290806,-2.33405e-06,0,
10,6.88244,0.947196,-0.0297475,3.74438e-06,0,
10,7.0517,0.945174,-0.0303405,2.69912e-05,0,
10,7.21224,0.939755,-0.0308603,8.07067e-05,0,
10,7.3637,0.930054,-0.0313122,0.000174066,0,
10,7.5059,0.916116,-0.0317005,0.00029787,0,
10,7.63878,0.898535,-0.0320293,0.000405765,0,
10,7.76243,0.878418,-0.0323082,0.000524981,0,
10,7.87701,0.857529,-0.0325321,0.000646714,0,
10,7.9828,0.837325,-0.0327171,0.000757089,0,
10,8.08014,0.818517,-0.0328656,0.000851115,0,
10,8.16941,0.801188,-0.0329885,0.00092932,0,
10,8.25106,0.78509,-0.0330899,0.000994895,0,
10,8.32554,0.769895,-0.0331761,0.00105108,0,
10,8.39331,0.755322,-0.0332491,0.00110014,0,
10,8.45484,0.741172,-0.0333118,0.00114334,0,
10,8.5106,0.727324,-0.0333653,0.00118126,0,
10,8.56104,0.713719,-0.0334113,0.00121413,0,
10,8.60659,0.700343,-0.0334506,0.00124204,0,
10,8.64767,0.687201,-0.0334847,0.00126511,0,
10,8.68467,0.674301,-0.0335142,0.00128332,0,
10,8.71795,0.661617,-0.0335398,0.00129306,0,
10,8.74786,0.649121,-0.033562,0.00129932,0,
10,8.77471,0.636809,-0.0335811,0.00130131,0,
10,8.79881,0.624676,-0.0335976,0.00129946,0,
10,8.8204,0.612716,-0.0336117,0.00129429,0,
10,8.83975,0.600917,-0.0336238,0.00128632,0,
10,8.85708,0.589265,-0.0336342,0.00127604,0,
10,8.87259,0.577744,-0.033643,0.00126389,0,
10,8.88646,0.56633,-0.0336506,0.00125027,0,
10,8.89886,0.555001,-0.0336571,0.00123553,0,
10,8.90995,0.543728,-0.0336626,0.00121996,0,
10,8.91986,0.532481,-0.0336671,0.00120377,0,
10,8.92872,0.521227,-0.0336709,0.00118712,0,
10,8.93663,0.50993,-0.0336741,0.0011701,0,
10,8.94369,0.498551,-0.0336768,0.00115275,0,
10,8.95,0.48705,-0.0336789,0.00113501,0,
10,8.95564,0.475379,-0.0336808,0.00111682,0,
10,8.96067,0.463489,-0.0336822,0.001098,0,
10,8.96517,0.451327,-0.0336835,0.00107831,0,
10,8.96918,0.43883,-0.0336845,0.00105741,0,
10,8.97276,0.42593,-0.0336854,0.00103488,0,
10,8.97596,0.412545,-0.033686,0.00101015,0,
10,8.97882,0.398584,-0.0336867,0.000982503,0,
10,8.98137,0.383939,-0.033687,0.000950994,0,
10,8.98365,0.368482,-0.0336875,0.000914417,0,
10,8.98569,0.352065,-0.0336876,0.00087138,0,
10,8.9875,0.334504,-0.0336881,0.000819585,0,
10,8.98913,0.315564,-0.033688,0.000754155,0,
10,8.99058,0.295017,-0.0336885,0.000676843,0,
10,8.99188,0.272701,-0.0336883,0.000585296,0,
10,8.99304,0.248456,-0.0336888,0.000472641,0,
10,8.99408,0.222241,-0.0336884,0.000346558,0,
10,8.99501,0.194426,-0.0336889,0.000220727,0,
10,8.99583,0.165916,-0.0336885,0.000116974,0,
10,8.99658,0.137974,-0.0336891,5.0223e-05,0,
10,8.99724,0.111715,-0.0336885,1.73303e-05,0,
10,8.99784,0.087725,-0.0336891,4.76042e-06,0,
10,8.99837,0.0661143,-0.0336884,9.98293e-07,0,
10,8.99885,0.0467479,-0.0336892,1.43005e-07,0,
10,8.99927,0.0294146,-0.0336884,1.08568e-08,0,
10,8.99966,0.0138999,-0.0336894,2.40208e-10,0,
10,0,0,0.0297715,0,0,
10,9,0,-0.0336883,0,0,

0.004,0,0,-0.22567,0,-8.38443e-08,
0.00868226,0,0,-0.225667,0,-1.85796e-07,
0.014062,0,0,-0.225669,0,-3.11867e-07,
0.0201548,0,0,-0.225668,0,-7.37147e-07,
0.0269766,0,0,-0.225669,0,-1.25385e-06,
0.0345437,0,0,-0.225668,0,-1.91301e-06,
0.0428729,0,0,-0.225667,0,-2.53972e-06,
0.051981,0,0,-0.225666,0,-3.0515e-06,
0.0618853,0,0,-0.225663,0,-3.253e-06,
0.0726036,0,0,-0.22566,0,-2.97274e-06,
0.0841536,0,0,-0.225656,0,-2.00285e-06,
0.0965535,0,0,-0.225652,0,-1.77186e-07,
0.109822,0,0,-0.225648,0,2.61052e-06,
0.123977,0,0,-0.225647,0,6.3609e-06,
0.139037,0,0,-0.225647,0,1.09465e-05,
0.155022,0,0,-0.225653,0,1.61247e-05,
0.171949,0,0,-0.225662,0,2.15591e-05,
0.189839,0,0,-0.225678,0,2.68806e-05,
0.208709,0,0,-0.225698,0,3.17284e-05,
0.228579,0,0,-0.225723,0,3.58058e-05,
0.249467,0,0,-0.225751,0,3.88999e-05,
0.271391,0,0,-0.22578,0,4.09041e-05,
0.29437,0,0,-0.22581,0,4.18121e-05,
0.31842,0,0,-0.225839,0,4.17146e-05,
0.343559,0,0,-0.225867,0,4.07783e-05,
0.369804,0,0,-0.225891,0,3.92306e-05,
0.39717,0,0,-0.225913,0,3.73349e-05,
0.425672,0,0,-0.225931,0,3.5377e-05,
0.455324,0,0,-0.225948,0,3.36443e-05,
0.48614,0,0,-0.225963,0,3.24237e-05,
0.518132,0,0,-0.225978,0,3.19844e-05,
0.551309,0,0,-0.225994,0,3.25216e-05,
0.585683,0,0,-0.226016,0,3.41301e-05,
0.621259,0,0,-0.226044,0,3.68019e-05,
0.658046,0,0,-0.226083,0,4.04394e-05,
0.696047,0,0,-0.226136,0,4.48842e-05,
0.735265,0,0,-0.226206,0,4.99554e-05,
0.7757,0,0,-0.226296,0,5.54735e-05,
0.817352,0,0,-0.226412,0,6.1268e-05,
0.860215,0,0,-0.22656,0,6.70933e-05,
0.904285,0,0,-0.22675,0,7.24857e-05,
0.949552,0,0,-0.226993,0,7.6695e-05,
0.996004,0,0,-0.227306,0,7.85737e-05,
1.04363,0,0,-0.227711,0,7.64793e-05,
1.09241,0,0,-0.228229,0,6.84115e-05,
1.14232,0,0,-0.228878,0,5.23588e-05,
1.19335,0,0,-0.229669,0,2.67732e-05,
1.24546,0,0,-0.230596,0,-8.93571e-06,
1.29863,0,0,-0.23164,0,-5.41243e-05,
1.35283,0,0,-0.232773,0,-0.000107063,
1.40802,0,0,-0.233962,0,-0.000165467,
1.46416,0,0,-0.235175,0,-0.000227127,
1.52121,0,0,-0.236383,0,-0.000290359,
1.57913,0,0,-0.237562,0,-0.000354131,
1.63787,0,0,-0.238692,0,-0.000417952,
1.69739,0,0,-0.239756,0,-0.000481645,
1.75761,0,0,-0.240738,0,-0.000545169,
1.81851,0,0,-0.241623,0,-0.000608501,
1.88,0,0,-0.242398,0,-0.000671591,
1.94204,0,0,-0.243048,0,-0.000734358,
2.00457,0,0,-0.243561,0,-0.000796694,
2.06751,0,0,-0.243924,0,-0.000858474,
2.13081,0,0,-0.244125,0,-0.000919556,
2.19439,0,0,-0.244152,0,-0.000979789,
2.25819,0,0,-0.243994,0,-0.00103901,
2.32214,0,0,-0.243644,0,-0.00109704,
2.38617,0,0,-0.243091,0,-0.00115369,
2.4502,0,0,-0.242328,0,-0.00120879,
2.51418,0,0,-0.24135,0,-0.00126211,
2.57803,0,0,-0.240153,0,-0.00131346,
2.64167,0,0,-0.238732,0,-0.00136263,
2.70505,0,0,-0.237089,0,-0.00140939,
2.76808,0,0,-0.235222,0,-0.00145352,
2.83072,0,0,-0.233136,0,-0.00149478,
2.89288,0,0,-0.230836,0,-0.00153296,
2.95451,0,0,-0.22833,0,-0.00156786,
3.01555,0,0,-0.225627,0,-0.00159931,
3.07594,0,0,-0.222742,0,-0.00162721,
3.13561,0,0,-0.219688,0,-0.00165149,
3.19453,0,0,-0.216483,0,-0.00167216,
3.25262,0,0,-0.213143,0,-0.00168926,
3.30985,0,0,-0.209687,0,-0.00170288,
3.36617,0,0,-0.206133,0,-0.00171316,
3.42154,0,0,-0.202501,0,-0.00172025,
3.47591,0,0,-0.198809,0,-0.00172431,
3.52925,0,0,-0.195074,0,-0.00172553,
3.58152,0,0,-0.191314,0,-0.00172412,
3.6327,0,0,-0.187544,0,-0.00172028,
3.68276,0,0,-0.183781,0,-0.00171424,
3.73167,0,0,-0.180038,0,-0.00170619,
3.77941,0,0,-0.176328,0,-0.00169636,
3.82596,0,0,-0.172663,0,-0.00168494,
3.8713,0,0,-0.169052,0,-0.00167215,
3.91543,0,0,-0.165502,0,-0.00165803,
3.95833,0,0,-0.16204,0,-0.00164311,
4,0,0,-0.158636,0,-0.00162728,
4.04167,0,0,-0.155224,0,-0.00161015,
4.08333,0,0,-0.151799,0,-0.00159192,
4.125,0,0,-0.148363,0,-0.0015726,
4.16667,0,0,-0.144922,0,-0.0015522,
4.20833,0,0,-0.141476,0,-0.00153076,
4.25,0,0,-0.138031,0,-0.00150833,
4.29167,0,0,-0.134588,0,-0.00148496,
4.33333,0,0,-0.131152,0,-0.00146068,
4.375,0,0,-0.127723,0,-0.00143554,
4.41667,0,0,-0.124307,0,-0.00140957,
4.45833,0,0,-0.120904,0,-0.00138281,
4.5,0,0,-0.117517,0,-0.00135531,
4.54167,0,0,-0.114149,0,-0.0013271,
4.58333,0,0,-0.110802,0,-0.00129821,
4.625,0,0,-0.107479,0,-0.00126869,
4.66667,0,0,-0.10418,0,-0.00123856,
4.70833,0,0,-0.100908,0,-0.00120785,
4.75,0,0,-0.0976646,0,-0.0011766,
4.79167,0,0,-0.094452,0,-0.00114482,
4.83333,0,0,-0.0912715,0,-0.00111257,
4.875,0,0,-0.0881247,0,-0.00107986,
4.91667,0,0,-0.0850132,0,-0.00104672,
4.95833,0,0,-0.0819382,0,-0.00101319,
5,0,0,-0.078901,0,-0.000979301,
5.04167,0,0,-0.0759028,0,-0.000945071,
5.08333,0,0,-0.0729446,0,-0.00091053,
5.125,0,0,-0.0700276,0,-0.000875702,
5.16667,0,0,-0.0671526,0,-0.000840609,
5.20833,0,0,-0.0643204,0,-0.000805274,
5.25,0,0,-0.061532,0,-0.000769718,
5.29167,0,0,-0.058788,0,-0.000733964,
5.33333,0,0,-0.0560893,0,-0.000698036,
5.375,0,0,-0.0534363,0,-0.000661955,
5.41667,0,0,-0.0508298,0,-0.000625747,
5.45833,0,0,-0.0482703,0,-0.000589435,
5.5,0,0,-0.0457581,0,-0.000553043,
5.54167,0,0,-0.0432938,0,-0.000516593,
5.58333,0,0,-0.0408776,0,-0.000480106,
5.625,0,0,-0.0385098,0,-0.0004436,
5.66667,0,0,-0.0361908,0,-0.000407089,
5.70833,0,0,-0.0339209,0,-0.000370586,
5.75,0,0,-0.0317005,0,-0.000334105,
5.79167,0,0,-0.02953,0,-0.000297661,
5.83333,0,0,-0.0274102,0,-0.00026128,
5.875,0,0,-0.0253416,0,-0.000225004,
5.91667,0,0,-0.0233252,0,-0.000188903,
5.95833,0,0,-0.0213615,0,-0.000153074,
6,0,0,-0.0194503,0,-0.000117608,
6.04167,0,0,-0.0175908,0,-8.25636e-05,
6.08333,0,0,-0.0157819,0,-4.79571e-05,
6.125,0,0,-0.0140226,0,-1.37796e-05,
6.16667,0,0,-0.0123118,0,1.99835e-05,
6.20833,0,0,-0.0106487,0,5.33427e-05,
6.25,0,0,-0.00903222,0,8.6304e-05,
6.29167,0,0,-0.00746162,0,0.00011887,
6.33333,0,0,-0.00593601,0,0.000151044,
6.375,0,0,-0.00445458,0,0.000182826,
6.41667,0,0,-0.00301651,0,0.000214216,
6.45833,0,0,-0.001621,0,0.000245216,
6.5,0,0,-0.000267256,0,0.000275823,
6.54167,0,0,0.00104552,0,0.000306038,
6.58333,0,0,0.00231811,0,0.000335862,
6.625,0,0,0.00355131,0,0.000365294,
6.66667,0,0,0.0047459,0,0.000394335,
6.70833,0,0,0.00590263,0,0.000422986,
6.75,0,0,0.00702228,0,0.000451248,
6.79167,0,0,0.0081056,0,0.000479122,
6.83333,0,0,0.00915333,0,0.000506607,
6.875,0,0,0.0101662,0,0.000533705,
6.91667,0,0,0.011145,0,0.000560417,
6.95833,0,0,0.0120905,0,0.000586743,
7,0,0,0.0130033,0,0.000612685,
7.04167,0,0,0.0138842,0,0.000638244,
7.08333,0,0,0.0147339,0,0.000663422,
7.125,0,0,0.0155531,0,0.00068822,
7.16667,0,0,0.0163425,0,0.00071264,
7.20833,0,0,0.0171028,0,0.000736682,
7.25,0,0,0.0178347,0,0.00076035,
7.29167,0,0,0.0185389,0,0.000783646,
7.33333,0,0,0.019216,0,0.000806575,
7.375,0,0,0.0198667,0,0.00082914,
7.41667,0,0,0.0204916,0,0.000851346,
7.45833,0,0,0.0210913,0,0.000873201,
7.5,0,0,0.0216666,0,0.000894714,
7.54167,0,0,0.022218,0,0.000915899,
7.58333,0,0,0.0227461,0,0.000936764,
7.625,0,0,0.0232515,0,0.000957313,
7.66667,0,0,0.0237346,0,0.000977551,
7.70833,0,0,0.0241958,0,0.00099748,
7.75,0,0,0.0246358,0,0.0010171,
7.79167,0,0,0.0250548,0,0.00103642,
7.83333,0,0,0.0254527,0,0.00105542,
7.875,0,0,0.0258297,0,0.00107416,
7.91667,0,0,0.0261966,0,0.0010932,
7.95833,0,0,0.0264852,0,0.00111105,
8,0,0,0.0268567,0,0.00112885,
8.04171,0,0,0.0272464,0,0.00114767,
8.08368,0,0,0.0275036,0,0.00116625,
8.12617,0,0,0.0278003,0,0.0011831,
8.16946,0,0,0.0280806,0,0.00120003,
8.21382,0,0,0.028344,0,0.00121697,
8.25952,0,0,0.0285983,0,0.00123395,
8.30685,0,0,0.028843,0,0.00125113,
8.35611,0,0,0.0290781,0,0.00126861,
8.40762,0,0,0.0293039,0,0.00128648,
8.46168,0,0,0.0295198,0,0.00130479,
8.51865,0,0,0.0297249,0,0.00132359,
8.57889,0,0,0.029918,0,0.00134295,
8.64276,0,0,0.0300973,0,0.0013629,
8.71067,0,0,0.0302609,0,0.00138347,
8.78306,0,0,0.0304062,0,0.00140469,
8.86037,0,0,0.0305304,0,0.00142657,
8.94309,0,0,0.0306301,0,0.00144911,
9.03174,0,0,0.0307015,0,0.00147233,
9.12689,0,0,0.0307406,0,0.0014962,
9.22912,0,0,0.0307428,0,0.00152069,
9.33908,0,0,0.0307036,0,0.00154577,
9.45746,0,0,0.0306178,0,0.0015714,
9.58501,0,0,0.0304807,0,0.00159751,
9.72253,0,0,0.030287,0,0.00162403,
9.87088,0,0,0.0300314,0,0.00165089,
10.031,0,0,0.0297091,0,0.00167799,
10.2039,0,0,0.0293162,0,0.00170521,
10.3906,0,0,0.0288494,0,0.00173246,
10.5924,0,0,0.0283055,0,0.00175959,
10.8105,0,0,0.0276832,0,0.00178648,
11.0463,0,0,0.0269835,0,0.00181301,
11.3012,0,0,0.0262072,0,0.00183907,
11.5769,0,0,0.0253577,0,0.00186455,
11.8751,0,0,0.0244405,0,0.00188933,
12.1977,0,0,0.0234623,0,0.00191334,
12.5466,0,0,0.0224327,0,0.00193651,
12.9242,0,0,0.021362,0,0.00195877,
13.3327,0,0,0.0202626,0,0.0019801,
13.7748,0,0,0.0191481,0,0.00200047,
14.2532,0,0,0.0180325,0,0.00201988,
14.7709,0,0,0.0169304,0,0.00203836,
15.3312,0,0,0.0158556,0,0.00205593,
15.9377,0,0,0.0148218,0,0.00207266,
16.594,0,0,0.0138403,0,0.00208861,
17.3044,0,0,0.0129203,0,0.00210385,
18.0733,0,0,0.012069,0,0.00211844,
18.9056,0,0,0.011289,0,0.0021323,
19.8064,0,0,0.0105819,0,0.00214535,
20.7816,0,0,0.00994449,0,0.0021578,
21.8371,0,0,0.00936966,0,0.00216998,
22.9796,0,0,0.00884782,0,0.00218208,
24.2163,0,0,0.00836588,0,0.00219419,
25.5551,0,0,0.0079092,0,0.00220639,
27.0042,0,0,0.00746088,0,0.00221876,
28.5729,0,0,0.00700334,0,0.00223136,
30.271,0,0,0.00651837,0,0.00224419,
32.1091,0,0,0.00598816,0,0.0022572,
34.0989,0,0,0.00539769,0,0.00227027,
36.2529,0,0,0.00472926,0,0.00228343,
38.5845,0,0,0.00397431,0,0.00229659,
41.1085,0,0,0.00317085,0,0.00230958,
43.8407,0,0,0.00216199,0,0.00232018,
46.7983,0,0,0.00111371,0,0.00232628,
50,0,0,0.00210243,0,0.00234227,

