8b980b21d2e6e63173fe45c4a89f95896a47e1d3 
X,Z,x_velocity,cp,uw_b,cf,
1,0,0,-0.222801,0,0,
1,9,0,-0.131631,0,0,
1,8.99969,0.0154451,-0.131631,2.88229e-10,0,
1,8.99934,0.0329672,-0.131631,1.34721e-08,0,
1,8.99894,0.0528636,-0.131631,1.8583e-07,0,
1,8.99848,0.0754486,-0.131631,1.36218e-06,0,
1,8.99797,0.101035,-0.131631,6.80717e-06,0,
1,8.99739,0.129819,-0.131631,2.57562e-05,0,
1,8.99672,0.161602,-0.13163,7.62553e-05,0,
1,8.99597,0.19544,-0.13163,0.000177125,0,
1,8.99512,0.229679,-0.13163,0.000326172,0,
1,8.99416,0.262658,-0.13163,0.000494687,0,
1,8.99306,0.293407,-0.13163,0.000653234,0,
1,8.99182,0.321755,-0.13163,0.000780689,0,
1,8.99041,0.347845,-0.131629,0.000886314,0,
1,8.98881,0.371833,-0.131629,0.000973507,0,
1,8.98699,0.393939,-0.131628,0.00104461,0,
1,8.98494,0.414448,-0.131628,0.00110059,0,
1,8.98261,0.433673,-0.131627,0.00114327,0,
1,8.97996,0.451855,-0.131626,0.00117903,0,
1,8.97696,0.469166,-0.131625,0.00120863,0,
1,8.97356,0.485747,-0.131623,0.00123335,0,
1,8.9697,0.501717,-0.131622,0.00125416,0,
1,8.96533,0.517174,-0.13162,0.00127176,0,
1,8.96038,0.532202,-0.131618,0.00128667,0,
1,8.95476,0.546869,-0.131616,0.00129926,0,
1,8.9484,0.561235,-0.131614,0.0013098,0,
1,8.9412,0.575351,-0.131611,0.00131846,0,
1,8.93303,0.589259,-0.131608,0.00132535,0,
1,8.92379,0.602996,-0.131605,0.00133052,0,
1,8.91333,0.616595,-0.131602,0.00133399,0,
1,8.90149,0.630083,-0.131599,0.00133573,0,
1,8.8881,0.643484,-0.131596,0.00133568,0,
1,8.87295,0.656821,-0.131593,0.00133379,0,
1,8.85584,0.670113,-0.131591,0.00132995,0,
1,8.83651,0.683381,-0.131589,0.00132406,0,
1,8.81469,0.696642,-0.131589,0.00131597,0,
1,8.79007,0.709918,-0.131591,0.00130554,0,
1,8.76232,0.72323,-0.131595,0.00129258,0,
1,8.73107,0.736604,-0.131602,0.00127686,0,
1,8.69591,0.75007,-0.131614,0.0012581,0,
1,8.6564,0.763665,-0.131632,0.00123594,0,
1,8.61206,0.777433,-0.131658,0.00120998,0,
1,8.56236,0.791434,-0.131693,0.00117985,0,
1,8.50675,0.805743,-0.131743,0.00114658,0,
1,8.44464,0.820497,-0.131808,0.00110677,0,
1,8.3754,0.835917,-0.131894,0.00105522,0,
1,8.29839,0.852253,-0.132007,0.000991918,0,
1,8.21296,0.869751,-0.132153,0.000912362,0,
1,8.11843,0.8886,-0.132338,0.000811306,0,
1,8.01417,0.908796,-0.132577,0.000685335,0,
1,7.89956,0.929889,-0.132865,0.000538008,0,
1,7.77403,0.950747,-0.133241,0.000387922,0,
1,7.63711,0.96976,-0.13369,0.000203485,0,
1,7.48842,0.984597,-0.134221,7.50597e-05,0,
1,7.32773,0.993333,-0.134858,1.78396e-05,0,
1,7.15495,0.996477,-0.135598,1.7358e-06,0,
1,6.97022,0.996516,-0.136456,2.07427e-08,0,
1,6.77388,0.995897,-0.137446,3.57253e-09,0,
1,6.56652,0.995783,-0.138584,9.60538e-09,0,
1,6.34896,0.996238,-0.139882,1.24116e-08,0,
1,6.12229,0.996963,-0.141353,1.39908e-08,0,
1,5.88784,0.997758,-0.14301,1.48014e-08,0,
1,5.64716,0.998586,-0.144866,1.5728e-08,0,
1,5.40194,0.999478,-0.146929,1.70244e-08,0,
1,5.15407,1.00046,-0.149203,1.86826e-08,0,
1,4.90545,1.00154,-0.151689,2.04011e-08,0,
1,4.65805,1.00272,-0.154383,2.22137e-08,0,
1,4.41376,1.00399,-0.157275,2.40893e-08,0,
1,4.17441,1.00534,-0.16035,2.57946e-08,0,
1,3.94163,1.0067,-0.163586,2.71694e-08,0,
1,3.7169,1.00803,-0.166953,2.88378e-08,0,
1,3.50146,1.00941,-0.170419,3.27492e-08,0,
1,3.29629,1.01115,-0.173949,4.08978e-08,0,
1,3.10217,1.01362,-0.177513,5.13361e-08,0,
1,2.91959,1.01659,-0.18108,9.3961e-08,0,
1,2.74885,1.01861,-0.184612,8.49365e-07,0,
1,2.59002,1.01723,-0.188047,-7.21614e-06,0,
1,2.44299,1.01078,-0.191328,-5.54202e-05,0,
1,2.30752,0.999481,-0.194392,-0.000155993,0,
1,2.18321,0.984819,-0.197188,-0.000294451,0,
1,2.06959,0.968379,-0.199751,-0.000413192,0,
1,1.9661,0.951428,-0.202066,-0.000516418,0,
1,1.87215,0.934892,-0.204101,-0.000612725,0,
1,1.78711,0.919273,-0.205894,-0.00069755,0,
1,1.71033,0.904722,-0.207463,-0.000770788,0,
1,1.64119,0.891202,-0.20883,-0.000833949,0,
1,1.57905,0.8786,-0.210016,-0.000889189,0,
1,1.52332,0.866786,-0.211043,-0.000938735,0,
1,1.47342,0.855651,-0.211933,-0.000984763,0,
1,1.42882,0.845108,-0.212685,-0.00101681,0,
1,1.389,0.835072,-0.213312,-0.00104131,0,
1,1.35351,0.825481,-0.213852,-0.00106402,0,
1,1.3219,0.816298,-0.214309,-0.00108427,0,
1,1.29378,0.807505,-0.214698,-0.00110186,0,
1,1.26878,0.799091,-0.215028,-0.00111688,0,
1,1.24659,0.791051,-0.215307,-0.00112975,0,
1,1.22689,0.783379,-0.215544,-0.00114062,0,
1,1.2092,0.775986,-0.215747,-0.00114847,0,
1,1.1932,0.768822,-0.215922,-0.001154,0,
1,1.1787,0.761872,-0.216073,-0.00115782,0,
1,1.16554,0.755116,-0.216202,-0.0011607,0,
1,1.15357,0.748528,-0.216313,-0.00116424,0,
1,1.14266,0.742063,-0.216408,-0.0011713,0,
1,1.13268,0.735662,-0.216489,-0.0011856,0,
1,1.12354,0.729242,-0.216559,-0.00121217,0,
1,1.11514,0.722693,-0.21662,-0.00125723,0,
1,1.10739,0.715879,-0.216675,-0.00132778,0,
1,1.10022,0.708643,-0.216728,-0.00143097,0,
1,1.09357,0.700823,-0.216781,-0.00157311,0,
1,1.08738,0.692273,-0.216838,-0.00175852,0,
1,1.0816,0.682899,-0.216901,-0.00198815,0,
1,1.07618,0.672681,-0.21697,-0.00225876,0,
1,1.07107,0.661686,-0.217045,-0.00256291,0,
1,1.06626,0.650048,-0.217127,-0.00289022,0,
1,1.06169,0.637936,-0.217214,-0.00322924,0,
1,1.05735,0.625528,-0.217306,-0.00356934,0,
1,1.05321,0.612981,-0.217401,-0.0039019,0,
1,1.04925,0.600424,-0.217498,-0.00422063,0,
1,1.04544,0.587953,-0.217597,-0.00452144,0,
1,1.04177,0.575637,-0.217697,-0.00480198,0,
1,1.03822,0.563521,-0.217797,-0.0050612,0,
1,1.03478,0.551634,-0.217897,-0.00529894,0,
1,1.03144,0.539988,-0.217998,-0.0055156,0,
1,1.02818,0.52859,-0.218097,-0.00571193,0,
1,1.025,0.517436,-0.218197,-0.00588886,0,
1,1.02188,0.506522,-0.218295,-0.0060474,0,
1,1.01882,0.495838,-0.218393,-0.0061886,0,
1,1.01581,0.485375,-0.21849,-0.0063136,0,
1,1.01284,0.475122,-0.218587,-0.00642297,0,
1,1.00988,0.464956,-0.218683,-0.00651843,0,
1,1.00688,0.45476,-0.218782,-0.00660188,0,
1,1.00384,0.444525,-0.218881,-0.00667333,0,
1,1.00076,0.434239,-0.218982,-0.00673293,0,
1,0.997615,0.423889,-0.219085,-0.00678003,0,
1,0.99441,0.413455,-0.219189,-0.00681443,0,
1,0.991131,0.402914,-0.219294,-0.00683582,0,
1,0.987768,0.392238,-0.2194,-0.00684428,0,
1,0.984308,0.381401,-0.219508,-0.00683944,0,
1,0.980739,0.37037,-0.219618,-0.00682081,0,
1,0.977045,0.359113,-0.21973,-0.00678779,0,
1,0.973211,0.347594,-0.219843,-0.00673957,0,
1,0.969219,0.335773,-0.219959,-0.00667523,0,
1,0.965047,0.323608,-0.220077,-0.00659363,0,
1,0.960675,0.311052,-0.220197,-0.00649335,0,
1,0.956077,0.298055,-0.220319,-0.00637207,0,
1,0.951224,0.284566,-0.220444,-0.00622838,0,
1,0.946088,0.270538,-0.220571,-0.00606108,0,
1,0.940633,0.255932,-0.220701,-0.00586829,0,
1,0.934823,0.240711,-0.220834,-0.00564739,0,
1,0.928616,0.224847,-0.220969,-0.00539628,0,
1,0.921967,0.208315,-0.221105,-0.00511301,0,
1,0.914826,0.191106,-0.221243,-0.0047959,0,
1,0.907141,0.173225,-0.22138,-0.00444384,0,
1,0.898852,0.154702,-0.221516,-0.00405655,0,
1,0.889898,0.135603,-0.22165,-0.00363502,0,
1,0.880212,0.116048,-0.22178,-0.00318224,0,
1,0.869723,0.0962435,-0.221908,-0.00270426,0,
1,0.858358,0.076532,-0.222033,-0.00221232,0,
1,0.846039,0.0574703,-0.222159,-0.00172679,0,
1,0.83269,0.0398924,-0.222289,-0.0012808,0,
1,0.818232,0.0248047,-0.222423,-0.000914542,0,
1,0.802744,0.0130004,-0.22256,-0.000643656,0,
1,0.78635,0.00443685,-0.222711,-0.000457141,0,
1,0.768969,-0.00166041,-0.222861,-0.00033948,0,
1,0.75053,-0.00616193,-0.22301,-0.000271509,0,
1,0.730977,-0.00975572,-0.223146,-0.000236217,0,
1,0.710271,-0.0128957,-0.22327,-0.000220944,0,
1,0.688397,-0.0158517,-0.223377,-0.000217465,0,
1,0.66536,-0.0187779,-0.22347,-0.000219258,0,
1,0.641194,-0.0217626,-0.223548,-0.000222366,0,
1,0.615961,-0.0248458,-0.22361,-0.000224235,0,
1,0.589754,-0.0280299,-0.223656,-0.000223305,0,
1,0.562692,-0.0312889,-0.223685,-0.00021886,0,
1,0.534925,-0.034576,-0.223694,-0.000210732,0,
1,0.506624,-0.03783,-0.223681,-0.000199101,0,
1,0.477982,-0.04098,-0.223646,-0.000184319,0,
1,0.449206,-0.0439492,-0.223589,-0.000166809,0,
1,0.420509,-0.0466571,-0.22351,-0.000146994,0,
1,0.392107,-0.049021,-0.223414,-0.000125261,0,
1,0.364206,-0.0509573,-0.223303,-0.000101958,0,
1,0.337003,-0.0523824,-0.223183,-7.74151e-05,0,
1,0.310673,-0.053216,-0.22306,-5.19758e-05,0,
1,0.28537,-0.0533849,-0.222941,-2.60517e-05,0,
1,0.26122,-0.0528296,-0.222831,-1.80266e-07,0,
1,0.238324,-0.0515135,-0.222737,2.49397e-05,0,
1,0.21675,-0.0494316,-0.22266,4.84636e-05,0,
1,0.196544,-0.046619,-0.222605,6.9476e-05,0,
1,0.177724,-0.0431543,-0.222569,8.71133e-05,0,
1,0.160284,-0.0391566,-0.222553,0.000100696,0,
1,0.144202,-0.0347759,-0.222552,0.000109823,0,
1,0.129436,-0.0301778,-0.222564,0.000114446,0,
1,0.115935,-0.0255265,-0.222585,0.000114848,0,
1,0.103636,-0.0209694,-0.22261,0.000111557,0,
1,0.0924701,-0.0166249,-0.222638,0.000105246,0,
1,0.0823633,-0.0125768,-0.222666,9.66375e-05,0,
1,0.0732406,-0.00887448,-0.222692,8.64346e-05,0,
1,0.0650269,-0.00553711,-0.222716,7.52995e-05,0,
1,0.057648,-0.00256146,-0.222736,6.38708e-05,0,
1,0.0510323,6.78674e-05,-0.222753,5.29812e-05,0,
1,0.0451115,0.00237815,-0.222767,4.21362e-05,0,
1,0.0398209,0.00439954,-0.222778,3.21676e-05,0,
1,0.0351001,0.00615277,-0.222787,2.30403e-05,0,
1,0.0308929,0.00764691,-0.222793,1.50626e-05,0,
1,0.0271475,0.00886908,-0.222796,8.60453e-06,0,
1,0.0238164,0.00978416,-0.222799,4.00361e-06,0,
1,0.0208562,0.0103504,-0.2228,1.29143e-06,0,
1,0.0182274,0.0105498,-0.222801,6.13387e-08,0,
1,0.0158944,0.0104094,-0.222801,-3.06209e-07,0,
1,0.0138249,0.00999509,-0.222801,-3.08968e-07,0,
1,0.0119898,0.00938679,-0.222801,-2.15504e-07,0,
1,0.0103632,0.00865723,-0.222801,-1.27797e-07,0,
1,0.00892169,0.00786339,-0.222801,-6.86491e-08,0,
1,0.00764438,0.00704648,-0.222801,-3.42727e-08,0,
1,0.00651264,0.00623494,-0.222801,-1.6062e-08,0,
1,0.00550983,0.00544779,-0.222801,-7.07681e-09,0,
1,0.00462115,0.00469717,-0.222801,-2.9181e-09,0,
1,0.00383341,0.00399038,-0.222801,-1.11474e-09,0,
1,0.0031349,0.0033312,-0.222801,-3.87866e-10,0,
1,0.00251518,0.00272095,-0.222801,-1.19663e-10,0,
1,0.00196502,0.0021592,-0.222801,-3.13592e-11,0,
1,0.00147619,0.00164436,-0.222801,-6.49576e-12,0,
1,0.00104139,0.00117402,-0.222801,-9.33565e-13,0,
1,0.000654158,0.000745331,-0.222801,-7.15664e-14,0,
1,0.000308731,0.000355148,-0.222801,-1.60515e-15,0,

4,0,0,-0.17944,0,0,
4,9,0,-0.101694,0,0,
4,8.99969,0.0143269,-0.101693,2.27239e-10,0,
4,8.99934,0.030524,-0.101694,1.05426e-08,0,
4,8.99894,0.0488542,-0.101693,1.43953e-07,0,
4,8.9985,0.0695951,-0.101694,1.04477e-06,0,
4,8.99799,0.0930288,-0.101693,5.1844e-06,0,
4,8.99742,0.119357,-0.101694,1.96192e-05,0,
4,8.99677,0.148491,-0.101693,5.88152e-05,0,
4,8.99605,0.17974,-0.101693,0.000140312,0,
4,8.99522,0.21174,-0.101693,0.000267761,0,
4,8.99429,0.242946,-0.101693,0.000420624,0,
4,8.99324,0.272296,-0.101693,0.00057088,0,
4,8.99205,0.299418,-0.101693,0.000700477,0,
4,8.9907,0.324393,-0.101692,0.000804759,0,
4,8.98919,0.347392,-0.101692,0.000892571,0,
4,8.98747,0.368603,-0.101691,0.000965567,0,
4,8.98553,0.388295,-0.10169,0.00102309,0,
4,8.98334,0.406749,-0.101689,0.00106928,0,
4,8.98087,0.424184,-0.101688,0.00110829,0,
4,8.97807,0.440769,-0.101687,0.00114136,0,
4,8.97491,0.456646,-0.101685,0.00116979,0,
4,8.97134,0.471934,-0.101683,0.00119455,0,
4,8.96731,0.486731,-0.101681,0.00121638,0,
4,8.96276,0.501124,-0.101678,0.0012358,0,
4,8.95762,0.515183,-0.101675,0.00125317,0,
4,8.95182,0.528972,-0.101672,0.00126874,0,
4,8.94526,0.542542,-0.101668,0.00128268,0,
4,8.93787,0.555941,-0.101664,0.00129506,0,
4,8.92952,0.569206,-0.101659,0.00130588,0,
4,8.92011,0.582373,-0.101654,0.00131511,0,
4,8.90949,0.595469,-0.101648,0.00132266,0,
4,8.89751,0.608521,-0.101641,0.0013284,0,
4,8.88402,0.621548,-0.101635,0.00133221,0,
4,8.86881,0.634568,-0.101627,0.0013339,0,
4,8.85169,0.647596,-0.10162,0.00133331,0,
4,8.83242,0.660647,-0.101613,0.00133026,0,
4,8.81074,0.673731,-0.101605,0.00132456,0,
4,8.78637,0.686861,-0.101599,0.00131605,0,
4,8.75901,0.70005,-0.101593,0.00130454,0,
4,8.7283,0.713313,-0.101589,0.00128984,0,
4,8.69387,0.726669,-0.101586,0.00127174,0,
4,8.65533,0.740143,-0.101587,0.00125,0,
4,8.61222,0.753768,-0.101592,0.0012243,0,
4,8.56407,0.767584,-0.101603,0.00119423,0,
4,8.5104,0.781647,-0.101621,0.00115949,0,
4,8.45065,0.796031,-0.101649,0.00112177,0,
4,8.38429,0.810888,-0.101692,0.00107513,0,
4,8.31073,0.826455,-0.101749,0.00101776,0,
4,8.22941,0.843002,-0.101828,0.000947315,0,
4,8.13974,0.860792,-0.10193,0.000859401,0,
4,8.04115,0.879995,-0.102059,0.000750406,0,
4,7.93313,0.900495,-0.102221,0.000620669,0,
4,7.81519,0.92158,-0.102409,0.000479488,0,
4,7.68693,0.941781,-0.102648,0.000344312,0,
4,7.54803,0.959201,-0.10292,0.000201929,0,
4,7.39831,0.971951,-0.103246,8.85287e-05,0,
4,7.23771,0.979166,-0.103642,2.72487e-05,0,
4,7.06634,0.981813,-0.104097,4.51335e-06,0,
4,6.88453,0.981958,-0.104614,4.82173e-08,0,
4,6.69275,0.981438,-0.105196,-6.16679e-08,0,
4,6.49173,0.98117,-0.105853,3.25695e-08,0,
4,6.28238,0.981301,-0.106594,2.84797e-08,0,
4,6.06579,0.981666,-0.107429,1.60037e-08,0,
4,5.84328,0.98211,-0.108366,1.09345e-08,0,
4,5.61626,0.982572,-0.109411,9.69434e-09,0,
4,5.3863,0.983053,-0.11057,9.88276e-09,0,
4,5.15502,0.983572,-0.111848,1.06486e-08,0,
4,4.92406,0.984141,-0.113248,1.17146e-08,0,
4,4.69507,0.984774,-0.114773,1.29812e-08,0,
4,4.46961,0.985474,-0.116422,1.43027e-08,0,
4,4.24915,0.986223,-0.118193,1.53781e-08,0,
4,4.03501,0.986965,-0.120081,1.59276e-08,0,
4,3.82836,0.987633,-0.122078,1.62444e-08,0,
4,3.63018,0.988236,-0.124173,1.77913e-08,0,
4,3.44125,0.988964,-0.126356,2.373e-08,0,
4,3.26217,0.990182,-0.128611,8.05259e-08,0,
4,3.09333,0.992172,-0.130924,6.98037e-07,0,
4,2.93497,0.994709,-0.133276,3.18751e-06,0,
4,2.78715,0.996888,-0.13565,6.20229e-06,0,
4,2.64979,0.9975,-0.138022,1.67516e-06,0,
4,2.52268,0.995629,-0.140364,-2.03837e-05,0,
4,2.40551,0.990988,-0.142647,-6.48383e-05,0,
4,2.29789,0.983866,-0.144843,-0.000129779,0,
4,2.19939,0.974886,-0.146933,-0.000208646,0,
4,2.10949,0.96476,-0.148903,-0.000293312,0,
4,2.02768,0.954122,-0.150744,-0.000376259,0,
4,1.95343,0.943477,-0.152457,-0.000451587,0,
4,1.88618,0.933193,-0.154038,-0.000517085,0,
4,1.82542,0.923449,-0.155498,-0.000563143,0,
4,1.77062,0.914301,-0.156838,-0.000600681,0,
4,1.72128,0.905795,-0.158059,-0.000634269,0,
4,1.67693,0.897955,-0.159171,-0.000664026,0,
4,1.63713,0.890775,-0.16018,-0.000690388,0,
4,1.60144,0.884231,-0.161093,-0.000713745,0,
4,1.56949,0.87829,-0.16192,-0.000734511,0,
4,1.54091,0.872913,-0.162664,-0.000753186,0,
4,1.51537,0.868046,-0.163336,-0.000770058,0,
4,1.49167,0.863496,-0.16396,-0.000785634,0,
4,1.46926,0.859162,-0.164559,-0.000799937,0,
4,1.44801,0.855003,-0.165138,-0.000806757,0,
4,1.42781,0.850988,-0.165692,-0.000813606,0,
4,1.40855,0.847101,-0.166223,-0.00081906,0,
4,1.39015,0.843325,-0.166734,-0.000823322,0,
4,1.37252,0.839646,-0.167227,-0.00082687,0,
4,1.3556,0.836047,-0.167704,-0.000830179,0,
4,1.3393,0.83251,-0.168165,-0.000833805,0,
4,1.32357,0.829016,-0.168613,-0.000838638,0,
4,1.30836,0.825544,-0.169048,-0.000845412,0,
4,1.29362,0.822072,-0.169472,-0.000855147,0,
4,1.2793,0.818571,-0.169885,-0.000869136,0,
4,1.26537,0.815009,-0.170289,-0.000888984,0,
4,1.25179,0.811348,-0.170685,-0.000916649,0,
4,1.23852,0.80754,-0.171072,-0.000954469,0,
4,1.22554,0.80353,-0.171453,-0.00100517,0,
4,1.21282,0.799255,-0.171826,-0.00107185,0,
4,1.20034,0.794641,-0.172192,-0.00115781,0,
4,1.18806,0.789608,-0.172551,-0.00126641,0,
4,1.17599,0.784077,-0.172904,-0.00140076,0,
4,1.16408,0.777971,-0.173251,-0.00156324,0,
4,1.15233,0.771229,-0.173591,-0.00175519,0,
4,1.14073,0.76381,-0.173925,-0.00197648,0,
4,1.12925,0.755702,-0.174252,-0.00222536,0,
4,1.11788,0.746919,-0.174573,-0.00249854,0,
4,1.10661,0.737502,-0.174888,-0.00279145,0,
4,1.09543,0.727509,-0.175197,-0.00309874,0,
4,1.08432,0.71701,-0.175501,-0.00341474,0,
4,1.07328,0.706082,-0.175798,-0.00373391,0,
4,1.0623,0.694798,-0.17609,-0.00405119,0,
4,1.05136,0.683229,-0.176377,-0.0043621,0,
4,1.04044,0.671418,-0.176658,-0.004663,0,
4,1.0295,0.659401,-0.176936,-0.00495112,0,
4,1.01855,0.647223,-0.177209,-0.00522375,0,
4,1.00757,0.634927,-0.177478,-0.00547858,0,
4,0.996544,0.622548,-0.177742,-0.00571369,0,
4,0.98547,0.610117,-0.178002,-0.00592726,0,
4,0.974334,0.597661,-0.178258,-0.00611788,0,
4,0.963124,0.585202,-0.17851,-0.0062843,0,
4,0.951826,0.572761,-0.178757,-0.00642523,0,
4,0.940428,0.560356,-0.179002,-0.0065402,0,
4,0.928915,0.548004,-0.179243,-0.00666134,0,
4,0.917272,0.535598,-0.179441,-0.00671232,0,
4,0.905481,0.522963,-0.179596,-0.00676104,0,
4,0.893524,0.509994,-0.179746,-0.00681669,0,
4,0.881383,0.496628,-0.179894,-0.00687896,0,
4,0.869035,0.48282,-0.180045,-0.00694759,0,
4,0.856459,0.468533,-0.180199,-0.00702213,0,
4,0.843629,0.453737,-0.180358,-0.00710203,0,
4,0.830518,0.438406,-0.180521,-0.00718656,0,
4,0.817097,0.422516,-0.180686,-0.00727486,0,
4,0.803334,0.406051,-0.180855,-0.00736596,0,
4,0.789195,0.388996,-0.181024,-0.00745881,0,
4,0.774643,0.371338,-0.181195,-0.00755225,0,
4,0.759639,0.353067,-0.181365,-0.00764496,0,
4,0.744138,0.334177,-0.181535,-0.00773541,0,
4,0.728096,0.314668,-0.181704,-0.00782172,0,
4,0.711463,0.294551,-0.181874,-0.00790196,0,
4,0.694189,0.273853,-0.182043,-0.00797333,0,
4,0.676218,0.252611,-0.182212,-0.00803212,0,
4,0.657495,0.230873,-0.18238,-0.00807444,0,
4,0.637962,0.208689,-0.182546,-0.00809665,0,
4,0.617561,0.186103,-0.182705,-0.00809596,0,
4,0.596848,0.163762,-0.182846,-0.00807036,0,
4,0.576557,0.142422,-0.182969,-0.00802028,0,
4,0.556564,0.121951,-0.18307,-0.00794689,0,
4,0.536763,0.102234,-0.183154,-0.00785107,0,
4,0.517057,0.0832031,-0.183229,-0.00773334,0,
4,0.497368,0.0648555,-0.183309,-0.00759443,0,
4,0.477632,0.0472631,-0.183413,-0.00743654,0,
4,0.457804,0.0305415,-0.183545,-0.00726391,0,
4,0.437857,0.014777,-0.183716,-0.00708548,0,
4,0.417786,-9.73376e-05,-0.183787,-0.00690301,0,
4,0.397605,-0.0144065,-0.183701,-0.00656839,0,
4,0.377348,-0.0283783,-0.183583,-0.00628464,0,
4,0.357066,-0.0419605,-0.183462,-0.00600232,0,
4,0.336828,-0.0550627,-0.183318,-0.00571193,0,
4,0.316717,-0.0676078,-0.183163,-0.0054131,0,
4,0.296825,-0.0795341,-0.182995,-0.00510677,0,
4,0.27725,-0.0907965,-0.18282,-0.00479498,0,
4,0.258095,-0.101364,-0.182637,-0.00448004,0,
4,0.239458,-0.111219,-0.18245,-0.0041645,0,
4,0.221432,-0.120357,-0.18226,-0.00385096,0,
4,0.2041,-0.128785,-0.182069,-0.00354195,0,
4,0.187537,-0.136518,-0.181878,-0.00323985,0,
4,0.171798,-0.143581,-0.181688,-0.0029468,0,
4,0.156928,-0.150003,-0.181502,-0.00266462,0,
4,0.142956,-0.155819,-0.181321,-0.00239481,0,
4,0.129894,-0.161065,-0.181145,-0.00213852,0,
4,0.117744,-0.165777,-0.180976,-0.00189654,0,
4,0.106492,-0.169992,-0.180815,-0.00166938,0,
4,0.0961173,-0.173746,-0.180664,-0.0014572,0,
4,0.0865883,-0.17707,-0.180521,-0.00125997,0,
4,0.0778675,-0.179997,-0.18039,-0.0010774,0,
4,0.0699123,-0.182552,-0.180268,-0.000909056,0,
4,0.062677,-0.18476,-0.180158,-0.000754375,0,
4,0.056114,-0.186642,-0.180057,-0.000612691,0,
4,0.0501747,-0.188215,-0.179967,-0.000483281,0,
4,0.0448114,-0.189491,-0.179887,-0.000365392,0,
4,0.039977,-0.190481,-0.179816,-0.000258265,0,
4,0.0356266,-0.191188,-0.179753,-0.000161159,0,
4,0.0317171,-0.191612,-0.179699,-7.33732e-05,0,
4,0.0282081,-0.191747,-0.179651,5.73197e-06,0,
4,0.0250617,-0.191577,-0.179611,7.67098e-05,0,
4,0.0222427,-0.191079,-0.179576,0.000139995,0,
4,0.0197189,-0.190217,-0.179547,0.000195856,0,
4,0.0174603,-0.188935,-0.179522,0.000244325,0,
4,0.0154398,-0.187155,-0.179502,0.000285084,0,
4,0.0136326,-0.184768,-0.179486,0.000317299,0,
4,0.0120162,-0.181616,-0.179473,0.000339389,0,
4,0.0105703,-0.177484,-0.179463,0.000348801,0,
4,0.00927657,-0.172093,-0.179455,0.000342064,0,
4,0.00811839,-0.165113,-0.17945,0.000315711,0,
4,0.0070809,-0.156231,-0.179446,0.00026873,0,
4,0.0061507,-0.1453,-0.179444,0.000205944,0,
4,0.00531578,-0.13251,-0.179443,0.000139038,0,
4,0.00456537,-0.11843,-0.179442,8.16924e-05,0,
4,0.00388979,-0.103833,-0.179442,4.17874e-05,0,
4,0.00328037,-0.0894008,-0.179441,1.87449e-05,0,
4,0.00272934,-0.0755659,-0.179442,7.40002e-06,0,
4,0.0022297,-0.0625247,-0.179441,2.54556e-06,0,
4,0.00177519,-0.0503227,-0.179441,7.39273e-07,0,
4,0.00136016,-0.0389284,-0.179441,1.6976e-07,0,
4,0.000979511,-0.0282771,-0.179441,2.71199e-08,0,
4,0.00062865,-0.0182922,-0.17944,2.30876e-09,0,
4,0.000303409,-0.00889398,-0.179441,5.6145e-11,0,

6,0,0,-0.0301528,0,0,
6,9,0,-0.0776186,0,0,
6,8.99969,0.0135681,-0.0776182,1.89148e-10,0,
6,8.99934,0.0288689,-0.0776185,8.72975e-09,0,
6,8.99895,0.0461411,-0.0776182,1.18356e-07,0,
6,8.9985,0.0656368,-0.0776184,8.52947e-07,0,
6,8.99801,0.0876154,-0.0776182,4.21015e-06,0,
6,8.99744,0.112276,-0.0776183,1.59207e-05,0,
6,8.99681,0.139588,-0.0776181,4.80861e-05,0,
6,8.99609,0.169018,-0.0776182,0.000116764,0,
6,8.99529,0.199405,-0.077618,0.000228514,0,
6,8.99438,0.229313,-0.0776179,0.000368526,0,
6,8.99336,0.257646,-0.0776176,0.000511123,0,
6,8.9922,0.28391,-0.0776175,0.00063901,0,
6,8.9909,0.308113,-0.077617,0.00074241,0,
6,8.98944,0.330414,-0.0776167,0.000829419,0,
6,8.98779,0.350987,-0.077616,0.00090257,0,
6,8.98593,0.370078,-0.0776154,0.000960521,0,
6,8.98383,0.387949,-0.0776145,0.00100801,0,
6,8.98147,0.404807,-0.0776135,0.00104823,0,
6,8.97881,0.420817,-0.0776123,0.00108266,0,
6,8.97581,0.436119,-0.0776108,0.00111262,0,
6,8.97244,0.450832,-0.0776091,0.00113911,0,
6,8.96863,0.465055,-0.0776071,0.00116288,0,
6,8.96435,0.478876,-0.0776046,0.0011845,0,
6,8.95953,0.492368,-0.0776018,0.00120435,0,
6,8.95409,0.505594,-0.0775986,0.00122271,0,
6,8.94798,0.518611,-0.0775948,0.00123975,0,
6,8.94109,0.531468,-0.0775904,0.00125557,0,
6,8.93334,0.544206,-0.0775855,0.00127019,0,
6,8.92463,0.556865,-0.0775798,0.00128354,0,
6,8.91482,0.569475,-0.0775733,0.00129553,0,
6,8.90379,0.582066,-0.077566,0.00130602,0,
6,8.89139,0.594662,-0.0775579,0.0013148,0,
6,8.87746,0.607283,-0.0775488,0.00132165,0,
6,8.86181,0.619946,-0.0775387,0.00132633,0,
6,8.84423,0.632665,-0.0775277,0.00132857,0,
6,8.82452,0.645451,-0.0775158,0.00132812,0,
6,8.80241,0.658312,-0.0775028,0.00132469,0,
6,8.77763,0.671257,-0.0774889,0.00131805,0,
6,8.74989,0.684294,-0.0774741,0.00130796,0,
6,8.71885,0.697431,-0.0774586,0.00129417,0,
6,8.68417,0.710681,-0.0774423,0.00127647,0,
6,8.64545,0.724058,-0.0774257,0.00125461,0,
6,8.60229,0.737587,-0.0774088,0.00122831,0,
6,8.55423,0.751297,-0.0773923,0.00119723,0,
6,8.50082,0.765231,-0.0773761,0.00116126,0,
6,8.44155,0.779448,-0.0773617,0.00112145,0,
6,8.37592,0.794076,-0.0773504,0.0010739,0,
6,8.30339,0.809318,-0.0773429,0.00101795,0,
6,8.22344,0.825443,-0.0773391,0.000950659,0,
6,8.13555,0.842749,-0.0773403,0.000868247,0,
6,8.0392,0.861486,-0.0773425,0.000767283,0,
6,7.93391,0.881641,-0.0773466,0.00064758,0,
6,7.81927,0.902618,-0.0773412,0.000515818,0,
6,7.6949,0.923033,-0.0773348,0.000387125,0,
6,7.56054,0.94105,-0.0773142,0.000270665,0,
6,7.41603,0.955063,-0.0772883,0.000139163,0,
6,7.26132,0.964098,-0.0772649,5.51566e-05,0,
6,7.09653,0.96842,-0.0772292,1.41103e-05,0,
6,6.92195,0.969498,-0.0771841,8.63902e-07,0,
6,6.73802,0.969087,-0.0771224,-9.01841e-07,0,
6,6.5454,0.968415,-0.0770422,-4.10086e-07,0,
6,6.34489,0.967976,-0.0769409,-1.04408e-07,0,
6,6.1375,0.967785,-0.0768164,-2.39389e-08,0,
6,5.92439,0.967704,-0.0766654,-8.26209e-09,0,
6,5.70687,0.967624,-0.0764843,-4.90726e-09,0,
6,5.48633,0.967502,-0.0762688,-4.06479e-09,0,
6,5.26426,0.967338,-0.0760144,-4.04509e-09,0,
6,5.04218,0.96714,-0.0757164,-4.33903e-09,0,
6,4.82159,0.966921,-0.07537,-4.73271e-09,0,
6,4.60398,0.966693,-0.0749709,-5.20878e-09,0,
6,4.39071,0.966453,-0.0745152,-5.96166e-09,0,
6,4.18307,0.966169,-0.0739999,-7.34017e-09,0,
6,3.98218,0.965777,-0.0734229,-9.55476e-09,0,
6,3.78902,0.96522,-0.0727837,-1.22209e-08,0,
6,3.60438,0.964525,-0.0720834,-1.57651e-08,0,
6,3.42888,0.963874,-0.0713245,-3.20658e-08,0,
6,3.26296,0.963561,-0.0705109,-6.9188e-08,0,
6,3.10691,0.963824,-0.0696467,9.93308e-09,0,
6,2.96084,0.964617,-0.0687365,4.1154e-07,0,
6,2.82473,0.965526,-0.0677878,2.8358e-07,0,
6,2.69844,0.965906,-0.0668104,-3.54532e-06,0,
6,2.58172,0.965136,-0.0658169,-1.57159e-05,0,
6,2.47424,0.96283,-0.0648206,-3.99463e-05,0,
6,2.37559,0.958903,-0.0638344,-7.74595e-05,0,
6,2.28535,0.95352,-0.0628702,-0.000126979,0,
6,2.20301,0.946996,-0.0619378,-0.000185525,0,
6,2.1281,0.939699,-0.0610452,-0.000249306,0,
6,2.06009,0.931986,-0.0601984,-0.000314368,0,
6,1.99849,0.92417,-0.0594006,-0.000376878,0,
6,1.9428,0.916511,-0.0586561,-0.000433748,0,
6,1.89255,0.909198,-0.0579604,-0.000484556,0,
6,1.84728,0.902311,-0.0573219,-0.000524867,0,
6,1.80655,0.895846,-0.0567401,-0.000555108,0,
6,1.76996,0.889811,-0.0562013,-0.000582842,0,
6,1.73712,0.884224,-0.0557105,-0.000608219,0,
6,1.70768,0.879057,-0.0552602,-0.000631699,0,
6,1.67998,0.874079,-0.0548319,-0.000654424,0,
6,1.65329,0.869192,-0.0544122,-0.000676605,0,
6,1.62754,0.864394,-0.0540016,-0.00069821,0,
6,1.60265,0.859683,-0.0535989,-0.000719258,0,
6,1.57854,0.855058,-0.053204,-0.000739729,0,
6,1.55515,0.850515,-0.0528162,-0.000759662,0,
6,1.53242,0.846049,-0.052435,-0.000779077,0,
6,1.5103,0.841654,-0.0520601,-0.000797981,0,
6,1.48874,0.837316,-0.0516911,-0.00081641,0,
6,1.46769,0.833024,-0.0513273,-0.000834517,0,
6,1.44712,0.828771,-0.0509674,-0.000852638,0,
6,1.42698,0.824573,-0.0506089,-0.000871272,0,
6,1.40725,0.820466,-0.0502512,-0.000890707,0,
6,1.38788,0.816488,-0.0498918,-0.000910876,0,
6,1.36886,0.812638,-0.049543,-0.000929934,0,
6,1.35015,0.808853,-0.0492065,-0.000932797,0,
6,1.33173,0.80507,-0.0488712,-0.000941634,0,
6,1.31357,0.801273,-0.0485383,-0.000951932,0,
6,1.29566,0.797446,-0.0482075,-0.000963955,0,
6,1.27797,0.793569,-0.0478787,-0.000978677,0,
6,1.26048,0.789617,-0.0475516,-0.000997278,0,
6,1.24318,0.78556,-0.0472261,-0.00102128,0,
6,1.22605,0.781361,-0.046902,-0.00105254,0,
6,1.20907,0.776974,-0.0465792,-0.00109319,0,
6,1.19223,0.772348,-0.0462575,-0.00114569,0,
6,1.17551,0.767422,-0.045937,-0.00121263,0,
6,1.1589,0.762131,-0.0456175,-0.00129664,0,
6,1.14238,0.756406,-0.045299,-0.0014001,0,
6,1.12595,0.750181,-0.0449816,-0.00152487,0,
6,1.10959,0.743401,-0.0446652,-0.00167194,0,
6,1.09329,0.736024,-0.0443502,-0.00184116,0,
6,1.07704,0.728032,-0.0440369,-0.00203107,0,
6,1.06081,0.719422,-0.0437256,-0.00223889,0,
6,1.04459,0.710215,-0.0434163,-0.00246077,0,
6,1.02836,0.700452,-0.0431094,-0.00269197,0,
6,1.01211,0.690192,-0.0428052,-0.0029272,0,
6,0.99583,0.679499,-0.0425041,-0.00316107,0,
6,0.97951,0.668445,-0.0422056,-0.00338865,0,
6,0.963136,0.657096,-0.0419119,-0.00361758,0,
6,0.946694,0.645443,-0.0416132,-0.0038242,0,
6,0.930172,0.63339,-0.0413077,-0.00402473,0,
6,0.913555,0.620855,-0.0410048,-0.00423036,0,
6,0.896829,0.607782,-0.0407046,-0.0044433,0,
6,0.879979,0.594132,-0.0404087,-0.00466516,0,
6,0.862989,0.579888,-0.0401176,-0.00489715,0,
6,0.845842,0.565047,-0.0398315,-0.0051403,0,
6,0.828521,0.549613,-0.0395524,-0.00539291,0,
6,0.811008,0.533587,-0.0392826,-0.00565263,0,
6,0.793282,0.516969,-0.0390228,-0.00591831,0,
6,0.775322,0.499763,-0.0387735,-0.00618832,0,
6,0.757107,0.481981,-0.0385352,-0.00646053,0,
6,0.738612,0.463646,-0.0383085,-0.00673226,0,
6,0.719813,0.444788,-0.0380943,-0.00700033,0,
6,0.700681,0.42545,-0.0378937,-0.00726113,0,
6,0.681188,0.405682,-0.0377069,-0.00751072,0,
6,0.661304,0.385532,-0.0375332,-0.00774487,0,
6,0.640996,0.365045,-0.0373698,-0.00795904,0,
6,0.620228,0.344254,-0.0372133,-0.00814835,0,
6,0.598964,0.323192,-0.0370625,-0.00830727,0,
6,0.577166,0.301931,-0.0369261,-0.00842965,0,
6,0.554791,0.280639,-0.0368259,-0.00850974,0,
6,0.531799,0.259637,-0.0368076,-0.00854421,0,
6,0.508144,0.239355,-0.0368907,-0.00853373,0,
6,0.48378,0.220127,-0.0371064,-0.00848317,0,
6,0.459585,0.202499,-0.0370986,-0.0083178,0,
6,0.436695,0.186685,-0.0368841,-0.00799369,0,
6,0.414961,0.172188,-0.0367272,-0.00772863,0,
6,0.394252,0.158826,-0.0365662,-0.00745457,0,
6,0.374445,0.146457,-0.0364092,-0.00717537,0,
6,0.355433,0.134961,-0.0362553,-0.0068913,0,
6,0.337122,0.124238,-0.0361015,-0.00660339,0,
6,0.319433,0.114202,-0.0359469,-0.00631266,0,
6,0.3023,0.104781,-0.0357895,-0.00601988,0,
6,0.28567,0.0959163,-0.0356279,-0.00572583,0,
6,0.269507,0.0875594,-0.0354608,-0.00543125,0,
6,0.253785,0.0796715,-0.035287,-0.00513698,0,
6,0.238493,0.0722214,-0.0351055,-0.00484394,0,
6,0.223631,0.0651845,-0.0349157,-0.00455317,0,
6,0.209207,0.0585412,-0.0347171,-0.00426581,0,
6,0.195237,0.0522753,-0.0345098,-0.00398308,0,
6,0.181744,0.0463732,-0.0342941,-0.00370625,0,
6,0.168754,0.0408226,-0.034071,-0.00343662,0,
6,0.156292,0.0356118,-0.0338415,-0.00317541,0,
6,0.144384,0.0307294,-0.0336073,-0.0029238,0,
6,0.133052,0.0261634,-0.0333703,-0.00268281,0,
6,0.122315,0.0219012,-0.0331326,-0.0024533,0,
6,0.112183,0.01793,-0.0328964,-0.00223596,0,
6,0.102665,0.0142361,-0.0326641,-0.00203126,0,
6,0.0937597,0.0108056,-0.0324377,-0.00183945,0,
6,0.0854609,0.00762466,-0.0322192,-0.00166061,0,
6,0.077757,0.00467935,-0.0320106,-0.00149462,0,
6,0.0706309,0.00195599,-0.0318133,-0.00134123,0,
6,0.0640611,-0.000559209,-0.0316285,-0.00119994,0,
6,0.0580229,-0.00288049,-0.0314568,-0.00106998,0,
6,0.0524888,-0.00502189,-0.0312985,-0.000950916,0,
6,0.0474296,-0.0069964,-0.0311538,-0.000842217,0,
6,0.042815,-0.00881592,-0.0310225,-0.000743172,0,
6,0.0386145,-0.0104917,-0.0309041,-0.000653075,0,
6,0.0347975,-0.0120341,-0.030798,-0.000571251,0,
6,0.0313344,-0.0134532,-0.0307034,-0.000497047,0,
6,0.0281964,-0.0147577,-0.0306196,-0.000429833,0,
6,0.0253561,-0.0159559,-0.0305456,-0.000369011,0,
6,0.0227875,-0.017055,-0.0304809,-0.000314016,0,
6,0.0204662,-0.0180611,-0.0304243,-0.000264323,0,
6,0.0183694,-0.0189791,-0.0303754,-0.000219449,0,
6,0.016476,-0.0198128,-0.030333,-0.000178961,0,
6,0.0147664,-0.020564,-0.0302972,-0.000142476,0,
6,0.0132228,-0.0212324,-0.0302663,-0.000109672,0,
6,0.0118288,-0.0218144,-0.0302411,-8.03104e-05,0,
6,0.0105693,-0.0223021,-0.0302194,-5.4261e-05,0,
6,0.00943073,-0.0226805,-0.0302028,-3.15617e-05,0,
6,0.00840063,-0.0229252,-0.0301886,-1.24938e-05,0,
6,0.00746774,-0.0229978,-0.030179,2.35161e-06,0,
6,0.00662185,-0.0228446,-0.0301706,1.21658e-05,0,
6,0.00585371,-0.0224019,-0.0301664,1.64218e-05,0,
6,0.00515491,-0.0216172,-0.0301619,1.57181e-05,0,
6,0.00451788,-0.0204802,-0.0301612,1.20466e-05,0,
6,0.00393573,-0.0190368,-0.0301585,7.76797e-06,0,
6,0.00340221,-0.0173677,-0.0301593,4.35377e-06,0,
6,0.00291168,-0.0155543,-0.030157,2.16271e-06,0,
6,0.00245897,-0.013659,-0.0301585,9.55768e-07,0,
6,0.00203939,-0.0117232,-0.030156,3.70576e-07,0,
6,0.00164864,-0.00977144,-0.0301581,1.2165e-07,0,
6,0.00128281,-0.00781657,-0.030155,3.15764e-08,0,
6,0.000938257,-0.00586387,-0.0301579,5.68942e-09,0,
6,0.000611645,-0.00391326,-0.030154,5.42741e-10,0,
6,0.000299862,-0.00196087,-0.0301578,1.44546e-11,0,

10,0.000296632,0.00798265,0.0311284,-4.25972e-11,0,
10,0.000596102,0.0160387,0.0311292,-1.57864e-09,0,
10,0.000900397,0.0242215,0.0311284,-1.60502e-08,0,
10,0.00121153,0.0325849,0.031129,-8.62532e-08,0,
10,0.00153158,0.0411826,0.0311284,-3.22684e-07,0,
10,0.00186264,0.0500678,0.0311288,-9.59752e-07,0,
10,0.00220692,0.0592905,0.0311283,-2.43789e-06,0,
10,0.00256668,0.0688935,0.0311286,-5.51166e-06,0,
10,0.00294431,0.0789054,0.0311282,-1.13645e-05,0,
10,0.00334229,0.0893302,0.0311284,-2.16704e-05,0,
10,0.00376326,0.100134,0.031128,-3.84874e-05,0,
10,0.00421,0.111232,0.0311282,-6.38529e-05,0,
10,0.00468544,0.122484,0.0311277,-9.90658e-05,0,
10,0.00519274,0.133701,0.0311277,-0.000143933,0,
10,0.00573524,0.144675,0.0311271,-0.000196478,0,
10,0.00631651,0.15521,0.0311267,-0.000253417,0,
10,0.00694041,0.165155,0.0311258,-0.000311137,0,
10,0.00761104,0.174414,0.031125,-0.000366604,0,
10,0.00833284,0.182944,0.0311236,-0.000417802,0,
10,0.00911058,0.190748,0.0311221,-0.000463741,0,
10,0.0099494,0.197861,0.0311199,-0.000504227,0,
10,0.0108548,0.204335,0.0311174,-0.000539591,0,
10,0.0118329,0.210232,0.031114,-0.000570451,0,
10,0.0128901,0.215616,0.0311102,-0.000597553,0,
10,0.0140333,0.220552,0.0311053,-0.00062166,0,
10,0.0152702,0.225095,0.0310998,-0.000643494,0,
10,0.0166089,0.229301,0.031093,-0.00066371,0,
10,0.0180584,0.233214,0.0310853,-0.000682887,0,
10,0.0196282,0.236878,0.0310762,-0.000701529,0,
10,0.0213288,0.240328,0.0310659,-0.000720082,0,
10,0.0231714,0.243596,0.0310539,-0.000738938,0,
10,0.0251682,0.24671,0.0310403,-0.00075845,0,
10,0.0273326,0.249694,0.0310247,-0.000778944,0,
10,0.0296789,0.252571,0.0310072,-0.000800722,0,
10,0.0322227,0.255359,0.0309875,-0.000824079,0,
10,0.0349809,0.258077,0.0309653,-0.000849301,0,
10,0.0379719,0.260741,0.0309404,-0.000876677,0,
10,0.0412155,0.263365,0.0309127,-0.000906501,0,
10,0.0447333,0.265965,0.0308818,-0.000939076,0,
10,0.0485489,0.268554,0.0308476,-0.000974721,0,
10,0.0526875,0.271145,0.0308097,-0.00101377,0,
10,0.0571768,0.273752,0.0307679,-0.00105658,0,
10,0.0620466,0.276388,0.0307218,-0.00110352,0,
10,0.0673295,0.279066,0.0306714,-0.00115501,0,
10,0.0730607,0.281802,0.0306162,-0.00121147,0,
10,0.0792784,0.284609,0.030556,-0.00127337,0,
10,0.0860241,0.287505,0.0304906,-0.00134119,0,
10,0.0933428,0.290506,0.0304198,-0.00141547,0,
10,0.101283,0.293632,0.0303434,-0.00149677,0,
10,0.109899,0.296904,0.0302612,-0.00158568,0,
10,0.119247,0.300345,0.0301732,-0.00168281,0,
10,0.12939,0.303981,0.0300793,-0.00178881,0,
10,0.140395,0.307842,0.0299796,-0.00190435,0,
10,0.152337,0.311962,0.0298742,-0.00203009,0,
10,0.165296,0.31638,0.0297632,-0.00216669,0,
10,0.179357,0.321139,0.0296469,-0.00231479,0,
10,0.194615,0.326292,0.0295256,-0.00247494,0,
10,0.211171,0.331896,0.0293996,-0.0026476,0,
10,0.229138,0.338021,0.0292691,-0.00283305,0,
10,0.248635,0.344747,0.0291349,-0.00303136,0,
10,0.269793,0.352165,0.028996,-0.00324222,0,
10,0.292753,0.360382,0.0288548,-0.00346484,0,
10,0.317669,0.369522,0.0287067,-0.00369638,0,
10,0.344708,0.379721,0.0285575,-0.00393251,0,
10,0.372405,0.390498,0.0284114,-0.00416268,0,
10,0.399623,0.401431,0.0282702,-0.00437558,0,
10,0.426397,0.412517,0.028135,-0.00456719,0,
10,0.452757,0.423753,0.0280031,-0.00473952,0,
10,0.478735,0.435141,0.0278765,-0.00488991,0,
10,0.504358,0.446694,0.0277543,-0.00501651,0,
10,0.529657,0.458422,0.0276369,-0.00512021,0,
10,0.554656,0.470332,0.0275176,-0.00520054,0,
10,0.579382,0.482426,0.0274055,-0.00525718,0,
10,0.603859,0.494705,0.0272761,-0.0053118,0,
10,0.628112,0.507273,0.0271907,-0.00533487,0,
10,0.652163,0.520431,0.0271716,-0.00524597,0,
10,0.676035,0.534397,0.0271298,-0.0051279,0,
10,0.699751,0.549053,0.0270522,-0.0049807,0,
10,0.72333,0.564114,0.026937,-0.00480579,0,
10,0.746795,0.579285,0.0267953,-0.00460678,0,
10,0.770165,0.594348,0.0266361,-0.00438828,0,
10,0.79346,0.609167,0.026465,-0.00415515,0,
10,0.816699,0.623649,0.0262845,-0.00391218,0,
10,0.839903,0.637705,0.0260924,-0.00366679,0,
10,0.863088,0.651228,0.025887,-0.00342809,0,
10,0.886275,0.664129,0.0256711,-0.00319714,0,
10,0.909481,0.676373,0.0254463,-0.00297462,0,
10,0.932723,0.687973,0.0252145,-0.00276129,0,
10,0.956021,0.698958,0.0249759,-0.00255788,0,
10,0.97939,0.709365,0.0247304,-0.00236504,0,
10,1.00285,0.719219,0.0244776,-0.00218335,0,
10,1.02641,0.728543,0.0242177,-0.00201325,0,
10,1.0501,0.737358,0.0239504,-0.00185505,0,
10,1.07392,0.745692,0.0236775,-0.00170841,0,
10,1.0979,0.753581,0.023399,-0.00156844,0,
10,1.12205,0.761043,0.0231119,-0.00144321,0,
10,1.14639,0.768076,0.0228166,-0.00133083,0,
10,1.17093,0.774697,0.0225133,-0.00123202,0,
10,1.19568,0.780936,0.0222024,-0.00114687,0,
10,1.22066,0.786834,0.021884,-0.00107474,0,
10,1.24589,0.79244,0.0215586,-0.00101448,0,
10,1.27137,0.797807,0.0212264,-0.000965074,0,
10,1.29713,0.802989,0.0208883,-0.000929992,0,
10,1.32317,0.808111,0.0205451,-0.000887109,0,
10,1.34951,0.813298,0.0201966,-0.000846591,0,
10,1.37616,0.818568,0.0198417,-0.000808992,0,
10,1.40313,0.823859,0.019479,-0.000774324,0,
10,1.43043,0.829098,0.019108,-0.000742207,0,
10,1.45807,0.834251,0.0187288,-0.000711952,0,
10,1.48607,0.839325,0.0183421,-0.000682897,0,
10,1.51444,0.844346,0.0179482,-0.000654639,0,
10,1.54318,0.849327,0.0175469,-0.000627058,0,
10,1.57231,0.854261,0.0171377,-0.00060017,0,
10,1.60184,0.859125,0.0167208,-0.000574011,0,
10,1.63178,0.863892,0.0162957,-0.0005486,0,
10,1.66213,0.868538,0.0158631,-0.000523957,0,
10,1.69292,0.873043,0.0154222,-0.000500044,0,
10,1.72416,0.877403,0.0149747,-0.000476658,0,
10,1.75585,0.881642,0.0145175,-0.000451175,0,
10,1.78802,0.885814,0.0140512,-0.000422686,0,
10,1.82067,0.889939,0.0135781,-0.000394931,0,
10,1.85383,0.894002,0.013096,-0.000366077,0,
10,1.88751,0.897979,0.0126055,-0.000336223,0,
10,1.92173,0.901846,0.0121064,-0.000305735,0,
10,1.95652,0.905578,0.0115981,-0.00027505,0,
10,1.9919,0.909149,0.0110814,-0.000244657,0,
10,2.02791,0.912538,0.0105547,-0.000215114,0,
10,2.06456,0.915723,0.0100202,-0.000186662,0,
10,2.10268,0.918745,0.00946277,-0.000158883,0,
10,2.1443,0.921694,0.00885749,-0.00013215,0,
10,2.18977,0.924518,0.00819706,-0.000106589,0,
10,2.23946,0.927137,0.00747976,-8.24973e-05,0,
10,2.29376,0.929465,0.00669992,-6.06996e-05,0,
10,2.35309,0.931421,0.00585533,-4.18908e-05,0,
10,2.4179,0.932934,0.00494194,-2.66048e-05,0,
10,2.48863,0.933956,0.00395817,-1.51481e-05,0,
10,2.56575,0.934482,0.00290198,-7.47542e-06,0,
10,2.64971,0.934564,0.00177332,-3.12006e-06,0,
10,2.74098,0.934319,0.000572367,-1.23058e-06,0,
10,2.83997,0.933924,-0.000699083,-7.61387e-07,0,
10,2.94709,0.933586,-0.00203879,-7.83379e-07,0,
10,3.06269,0.933493,-0.00344325,-7.55115e-07,0,
10,3.18706,0.933759,-0.0049082,-5.63284e-07,0,
10,3.3204,0.934393,-0.00642782,-3.24173e-07,0,
10,3.46281,0.935304,-0.00799471,-1.50694e-07,0,
10,3.61427,0.936345,-0.00959932,-6.43125e-08,0,
10,3.77463,0.937377,-0.0112302,-3.26615e-08,0,
10,3.94358,0.938316,-0.0128742,-2.30873e-08,0,
10,4.12067,0.939144,-0.0145174,-1.98745e-08,0,
10,4.30525,0.939895,-0.0161453,-1.84176e-08,0,
10,4.49655,0.940611,-0.0177439,-1.78506e-08,0,
10,4.6936,0.941321,-0.0192999,-1.81476e-08,0,
10,4.89531,0.94203,-0.020801,-1.9802e-08,0,
10,5.10047,0.942721,-0.0222365,-2.4271e-08,0,
10,5.30776,0.943376,-0.0235975,-3.48079e-08,0,
10,5.51581,0.943977,-0.0248768,-5.81433e-08,0,
10,5.72323,0.944522,-0.0260695,-1.08707e-07,0,
10,5.92863,0.945033,-0.0271724,-2.21639e-07,0,
10,6.13069,0.945579,-0.0281848,-4.89231e-07,0,
10,6.32816,0.946254,-0.0291074,-1.10557e-06,0,
10,6.51991,0.947092,-0.0299428,-2.15755e-06,0,
10,6.70495,0.947867,-0.0306949,-2.36105e-06,0,
10,6.88244,0.947868,-0.0313677,3.59873e-06,0,
10,7.0517,0.945872,-0.0319653,2.6598e-05,0,
10,7.21224,0.940489,-0.0324887,7.99666e-05,0,
10,7.3637,0.930828,-0.0329434,0.000172954,0,
10,7.5059,0.916925,-0.0333338,0.000296917,0,
10,7.63878,0.899374,-0.0336646,0.000404623,0,
10,7.76243,0.879276,-0.0339451,0.000523717,0,
10,7.87701,0.858396,-0.0341701,0.000645437,0,
10,7.9828,0.838193,-0.034356,0.000755923,0,
10,8.08014,0.819385,-0.0345051,0.000850095,0,
10,8.16941,0.802055,-0.0346285,0.000928425,0,
10,8.25106,0.785957,-0.0347305,0.000994084,0,
10,8.32554,0.770765,-0.0348171,0.00105032,0,
10,8.39331,0.756196,-0.0348907,0.0010994,0,
10,8.45484,0.742051,-0.034954,0.00114263,0,
10,8.5106,0.728209,-0.035008,0.00118061,0,
10,8.56104,0.714607,-0.0350545,0.0012136,0,
10,8.60659,0.701229,-0.0350943,0.00124168,0,
10,8.64767,0.68808,-0.0351288,0.00126498,0,
10,8.68467,0.675166,-0.0351587,0.00128351,0,
10,8.71795,0.662462,-0.0351849,0.00129374,0,
10,8.74786,0.649941,-0.0352075,0.00130045,0,
10,8.77471,0.6376,-0.035227,0.00130287,0,
10,8.79881,0.625435,-0.0352439,0.00130144,0,
10,8.8204,0.613439,-0.0352584,0.00129667,0,
10,8.83975,0.601603,-0.0352709,0.00128906,0,
10,8.85708,0.589912,-0.0352816,0.00127907,0,
10,8.87259,0.578351,-0.0352908,0.00126717,0,
10,8.88646,0.566897,-0.0352987,0.00125374,0,
10,8.89886,0.555528,-0.0353053,0.00123914,0,
10,8.90995,0.544217,-0.035311,0.00122365,0,
10,8.91986,0.532933,-0.0353157,0.00120749,0,
10,8.92872,0.521643,-0.0353197,0.00119084,0,
10,8.93663,0.510313,-0.035323,0.00117378,0,
10,8.94369,0.498904,-0.0353258,0.00115635,0,
10,8.95,0.487374,-0.0353281,0.00113852,0,
10,8.95564,0.475678,-0.0353301,0.0011202,0,
10,8.96067,0.463765,-0.0353316,0.00110125,0,
10,8.96517,0.451582,-0.035333,0.00108141,0,
10,8.96918,0.439067,-0.035334,0.00106037,0,
10,8.97276,0.426151,-0.035335,0.00103768,0,
10,8.97596,0.412752,-0.0353356,0.0010128,0,
10,8.97882,0.39878,-0.0353364,0.000985001,0,
10,8.98137,0.384125,-0.0353367,0.000953345,0,
10,8.98365,0.368661,-0.0353373,0.000916625,0,
10,8.98569,0.352238,-0.0353374,0.000873409,0,
10,8.9875,0.334673,-0.0353379,0.000821622,0,
10,8.98913,0.315734,-0.0353378,0.000756051,0,
10,8.99058,0.295188,-0.0353383,0.000678593,0,
10,8.99188,0.272871,-0.0353381,0.000586819,0,
10,8.99304,0.248622,-0.0353386,0.000473999,0,
10,8.99408,0.2224,-0.0353382,0.000347678,0,
10,8.99501,0.194574,-0.0353388,0.00022154,0,
10,8.99583,0.166046,-0.0353383,0.000117458,0,
10,8.99658,0.138083,-0.0353389,5.04489e-05,0,
10,8.99724,0.111801,-0.0353383,1.74117e-05,0,
10,8.99784,0.0877905,-0.035339,4.7831e-06,0,
10,8.99837,0.0661618,-0.0353383,1.00304e-06,0,
10,8.99885,0.0467802,-0.0353391,1.4368e-07,0,
10,8.99927,0.0294342,-0.0353382,1.09075e-08,0,
10,8.99966,0.0139089,-0.0353392,2.41319e-10,0,
10,0,0,0.0311294,0,0,
10,9,0,-0.0353381,0,0,

0.004,0,0,-0.221949,0,-9.51749e-08,
0.00868226,0,0,-0.221945,0,-1.7505e-07,
0.014062,0,0,-0.221948,0,-2.73917e-07,
0.0201548,0,0,-0.221947,0,-6.92898e-07,
0.0269766,0,0,-0.221948,0,-1.24603e-06,
0.0345437,0,0,-0.221947,0,-2.02664e-06,
0.0428729,0,0,-0.221947,0,-2.88421e-06,
0.051981,0,0,-0.221946,0,-3.78003e-06,
0.0618853,0,0,-0.221944,0,-4.53911e-06,
0.0726036,0,0,-0.22194,0,-5.00745e-06,
0.0841536,0,0,-0.221936,0,-4.94972e-06,
0.0965535,0,0,-0.221931,0,-4.13836e-06,
0.109822,0,0,-0.221925,0,-2.34951e-06,
0.123977,0,0,-0.22192,0,5.61042e-07,
0.139037,0,0,-0.221916,0,4.62112e-06,
0.155022,0,0,-0.221915,0,9.70747e-06,
0.171949,0,0,-0.22192,0,1.55464e-05,
0.189839,0,0,-0.22193,0,2.17529e-05,
0.208709,0,0,-0.221946,0,2.78822e-05,
0.228579,0,0,-0.221969,0,3.34997e-05,
0.249467,0,0,-0.221996,0,3.82287e-05,
0.271391,0,0,-0.222028,0,4.1792e-05,
0.29437,0,0,-0.222062,0,4.40244e-05,
0.31842,0,0,-0.222095,0,4.48792e-05,
0.343559,0,0,-0.222127,0,4.44167e-05,
0.369804,0,0,-0.222156,0,4.27924e-05,
0.39717,0,0,-0.22218,0,4.02347e-05,
0.425672,0,0,-0.222199,0,3.70277e-05,
0.455324,0,0,-0.222213,0,3.34876e-05,
0.48614,0,0,-0.222223,0,2.99521e-05,
0.518132,0,0,-0.222229,0,2.6774e-05,
0.551309,0,0,-0.222232,0,2.43268e-05,
0.585683,0,0,-0.222234,0,2.29931e-05,
0.621259,0,0,-0.222235,0,2.30856e-05,
0.658046,0,0,-0.22224,0,2.474e-05,
0.696047,0,0,-0.222252,0,2.78591e-05,
0.735265,0,0,-0.222276,0,3.21574e-05,
0.7757,0,0,-0.222312,0,3.72788e-05,
0.817352,0,0,-0.222364,0,4.29047e-05,
0.860215,0,0,-0.222434,0,4.88255e-05,
0.904285,0,0,-0.222524,0,5.49619e-05,
0.949552,0,0,-0.222639,0,6.1286e-05,
0.996004,0,0,-0.222785,0,6.76642e-05,
1.04363,0,0,-0.222972,0,7.37641e-05,
1.09241,0,0,-0.223212,0,7.89487e-05,
1.14232,0,0,-0.223524,0,8.20742e-05,
1.19335,0,0,-0.223932,0,8.14208e-05,
1.24546,0,0,-0.22446,0,7.48403e-05,
1.29863,0,0,-0.22513,0,6.00896e-05,
1.35283,0,0,-0.225954,0,3.53617e-05,
1.40802,0,0,-0.226926,0,-1.11953e-07,
1.46416,0,0,-0.228026,0,-4.56751e-05,
1.52121,0,0,-0.22922,0,-9.93938e-05,
1.57913,0,0,-0.230471,0,-0.000158653,
1.63787,0,0,-0.231744,0,-0.000220922,
1.69739,0,0,-0.233008,0,-0.000284295,
1.75761,0,0,-0.23424,0,-0.000347651,
1.81851,0,0,-0.235419,0,-0.000410498,
1.88,0,0,-0.236529,0,-0.000472711,
1.94204,0,0,-0.237557,0,-0.000534303,
2.00457,0,0,-0.238491,0,-0.0005953,
2.06751,0,0,-0.239318,0,-0.000655695,
2.13081,0,0,-0.240028,0,-0.000715454,
2.19439,0,0,-0.240613,0,-0.00077452,
2.25819,0,0,-0.241061,0,-0.000832832,
2.32214,0,0,-0.241366,0,-0.000890324,
2.38617,0,0,-0.241518,0,-0.000946926,
2.4502,0,0,-0.241511,0,-0.00100256,
2.51418,0,0,-0.241337,0,-0.00105714,
2.57803,0,0,-0.240991,0,-0.00111057,
2.64167,0,0,-0.240467,0,-0.00116273,
2.70505,0,0,-0.239761,0,-0.00121349,
2.76808,0,0,-0.238869,0,-0.00126271,
2.83072,0,0,-0.237789,0,-0.00131025,
2.89288,0,0,-0.23652,0,-0.00135596,
2.95451,0,0,-0.235064,0,-0.00139968,
3.01555,0,0,-0.233421,0,-0.00144126,
3.07594,0,0,-0.231597,0,-0.00148057,
3.13561,0,0,-0.229596,0,-0.00151746,
3.19453,0,0,-0.227425,0,-0.00155181,
3.25262,0,0,-0.225092,0,-0.00158351,
3.30985,0,0,-0.222606,0,-0.00161246,
3.36617,0,0,-0.21998,0,-0.00163857,
3.42154,0,0,-0.217225,0,-0.00166179,
3.47591,0,0,-0.214355,0,-0.00168211,
3.52925,0,0,-0.211385,0,-0.00169953,
3.58152,0,0,-0.208329,0,-0.0017141,
3.6327,0,0,-0.205203,0,-0.00172591,
3.68276,0,0,-0.202023,0,-0.00173505,
3.73167,0,0,-0.198803,0,-0.00174167,
3.77941,0,0,-0.195559,0,-0.0017459,
3.82596,0,0,-0.192305,0,-0.00174791,
3.8713,0,0,-0.189054,0,-0.00174787,
3.91543,0,0,-0.185816,0,-0.00174585,
3.95833,0,0,-0.182619,0,-0.00174231,
4,0,0,-0.17944,0,-0.00173725,
4.04167,0,0,-0.176221,0,-0.00173044,
4.08333,0,0,-0.172956,0,-0.00172217,
4.125,0,0,-0.16965,0,-0.00171242,
4.16667,0,0,-0.166308,0,-0.00170122,
4.20833,0,0,-0.162934,0,-0.00168861,
4.25,0,0,-0.159531,0,-0.00167464,
4.29167,0,0,-0.156105,0,-0.00165934,
4.33333,0,0,-0.152658,0,-0.00164278,
4.375,0,0,-0.149196,0,-0.00162498,
4.41667,0,0,-0.145721,0,-0.001606,
4.45833,0,0,-0.142238,0,-0.00158589,
4.5,0,0,-0.13875,0,-0.00156468,
4.54167,0,0,-0.13526,0,-0.00154242,
4.58333,0,0,-0.131772,0,-0.00151916,
4.625,0,0,-0.12829,0,-0.00149494,
4.66667,0,0,-0.124815,0,-0.0014698,
4.70833,0,0,-0.121351,0,-0.00144378,
4.75,0,0,-0.117901,0,-0.00141693,
4.79167,0,0,-0.114468,0,-0.00138928,
4.83333,0,0,-0.111054,0,-0.00136087,
4.875,0,0,-0.107661,0,-0.00133174,
4.91667,0,0,-0.104292,0,-0.00130193,
4.95833,0,0,-0.100949,0,-0.00127148,
5,0,0,-0.0976342,0,-0.00124042,
5.04167,0,0,-0.0943493,0,-0.00120878,
5.08333,0,0,-0.0910964,0,-0.0011766,
5.125,0,0,-0.087877,0,-0.0011439,
5.16667,0,0,-0.0846928,0,-0.00111072,
5.20833,0,0,-0.0815455,0,-0.00107709,
5.25,0,0,-0.0784363,0,-0.00104304,
5.29167,0,0,-0.0753668,0,-0.00100858,
5.33333,0,0,-0.0723381,0,-0.00097376,
5.375,0,0,-0.0693515,0,-0.000938597,
5.41667,0,0,-0.0664081,0,-0.000903122,
5.45833,0,0,-0.0635088,0,-0.00086736,
5.5,0,0,-0.0606546,0,-0.000831339,
5.54167,0,0,-0.0578463,0,-0.000795083,
5.58333,0,0,-0.0550847,0,-0.000758619,
5.625,0,0,-0.0523704,0,-0.000721971,
5.66667,0,0,-0.0497041,0,-0.000685162,
5.70833,0,0,-0.0470862,0,-0.000648216,
5.75,0,0,-0.0445173,0,-0.000611156,
5.79167,0,0,-0.0419979,0,-0.000574002,
5.83333,0,0,-0.0395282,0,-0.000536778,
5.875,0,0,-0.0371085,0,-0.000499505,
5.91667,0,0,-0.0347393,0,-0.000462202,
5.95833,0,0,-0.0324207,0,-0.000424883,
6,0,0,-0.0301531,0,-0.000387562,
6.04167,0,0,-0.0279367,0,-0.00035025,
6.08333,0,0,-0.0257723,0,-0.000312958,
6.125,0,0,-0.0236602,0,-0.000275705,
6.16667,0,0,-0.0216016,0,-0.00023853,
6.20833,0,0,-0.0195975,0,-0.00020151,
6.25,0,0,-0.017649,0,-0.000164761,
6.29167,0,0,-0.0157562,0,-0.00012842,
6.33333,0,0,-0.0139182,0,-9.25834e-05,
6.375,0,0,-0.0121337,0,-5.72887e-05,
6.41667,0,0,-0.0104012,0,-2.25249e-05,
6.45833,0,0,-0.00871934,0,1.17358e-05,
6.5,0,0,-0.00708681,0,4.55189e-05,
6.54167,0,0,-0.0055025,0,7.88421e-05,
6.58333,0,0,-0.00396536,0,0.000111717,
6.625,0,0,-0.00247437,0,0.000144151,
6.66667,0,0,-0.00102856,0,0.000176151,
6.70833,0,0,0.000373027,0,0.000207722,
6.75,0,0,0.0017313,0,0.000238867,
6.79167,0,0,0.00304714,0,0.000269591,
6.83333,0,0,0.00432145,0,0.000299897,
6.875,0,0,0.00555507,0,0.000329788,
6.91667,0,0,0.00674885,0,0.000359266,
6.95833,0,0,0.00790362,0,0.000388333,
7,0,0,0.00902019,0,0.000416991,
7.04167,0,0,0.0100994,0,0.000445241,
7.08333,0,0,0.011142,0,0.000473085,
7.125,0,0,0.0121488,0,0.000500524,
7.16667,0,0,0.0131207,0,0.00052756,
7.20833,0,0,0.0140583,0,0.000554194,
7.25,0,0,0.0149625,0,0.000580429,
7.29167,0,0,0.0158339,0,0.000606266,
7.33333,0,0,0.0166735,0,0.000631707,
7.375,0,0,0.0174818,0,0.000656755,
7.41667,0,0,0.0182597,0,0.000681411,
7.45833,0,0,0.0190078,0,0.000705679,
7.5,0,0,0.0197269,0,0.000729562,
7.54167,0,0,0.0204177,0,0.000753066,
7.58333,0,0,0.0210807,0,0.000776195,
7.625,0,0,0.0217166,0,0.000798959,
7.66667,0,0,0.0223262,0,0.000821373,
7.70833,0,0,0.0229101,0,0.000843451,
7.75,0,0,0.0234687,0,0.000865209,
7.79167,0,0,0.0240027,0,0.000886654,
7.83333,0,0,0.0245119,0,0.00090778,
7.875,0,0,0.0249966,0,0.000928635,
7.91667,0,0,0.0254673,0,0.000949724,
7.95833,0,0,0.0258597,0,0.000969631,
8,0,0,0.0263249,0,0.000989369,
8.04171,0,0,0.0268029,0,0.00101012,
8.08368,0,0,0.0271518,0,0.00103063,
8.12617,0,0,0.0275361,0,0.00104949,
8.16946,0,0,0.0279013,0,0.00106843,
8.21382,0,0,0.028249,0,0.00108739,
8.25952,0,0,0.0285864,0,0.00110641,
8.30685,0,0,0.0289134,0,0.00112566,
8.35611,0,0,0.0292304,0,0.00114524,
8.40762,0,0,0.0295376,0,0.00116523,
8.46168,0,0,0.0298347,0,0.00118571,
8.51865,0,0,0.0301207,0,0.00120673,
8.57889,0,0,0.0303943,0,0.00122836,
8.64276,0,0,0.0306538,0,0.00125063,
8.71067,0,0,0.0308968,0,0.00127359,
8.78306,0,0,0.0311207,0,0.00129725,
8.86037,0,0,0.0313222,0,0.00132164,
8.94309,0,0,0.0314975,0,0.00134676,
9.03174,0,0,0.0316425,0,0.0013726,
9.12689,0,0,0.0317524,0,0.00139915,
9.22912,0,0,0.0318221,0,0.00142639,
9.33908,0,0,0.031846,0,0.00145427,
9.45746,0,0,0.0318183,0,0.00148272,
9.58501,0,0,0.031733,0,0.00151169,
9.72253,0,0,0.0315843,0,0.00154108,
9.87088,0,0,0.0313661,0,0.00157079,
10.031,0,0,0.0310725,0,0.00160071,
10.2039,0,0,0.0306991,0,0.00163069,
10.3906,0,0,0.030242,0,0.00166061,
10.5924,0,0,0.0296973,0,0.00169033,
10.8105,0,0,0.029064,0,0.0017197,
11.0463,0,0,0.0283425,0,0.00174859,
11.3012,0,0,0.0275332,0,0.00177686,
11.5769,0,0,0.0266408,0,0.0018044,
11.8751,0,0,0.0256709,0,0.00183109,
12.1977,0,0,0.0246317,0,0.00185684,
12.5466,0,0,0.0235332,0,0.00188158,
12.9242,0,0,0.0223873,0,0.00190526,
13.3327,0,0,0.0212078,0,0.00192785,
13.7748,0,0,0.0200098,0,0.00194934,
14.2532,0,0,0.018809,0,0.00196975,
14.7709,0,0,0.0176214,0,0.0019891,
15.3312,0,0,0.0164629,0,0.00200744,
15.9377,0,0,0.0153476,0,0.00202484,
16.594,0,0,0.0142891,0,0.00204139,
17.3044,0,0,0.0132975,0,0.00205718,
18.0733,0,0,0.0123798,0,0.00207224,
18.9056,0,0,0.0115407,0,0.00208652,
19.8064,0,0,0.010781,0,0.00209998,
20.7816,0,0,0.010098,0,0.00211286,
21.8371,0,0,0.00948483,0,0.00212546,
22.9796,0,0,0.00893099,0,0.00213806,
24.2163,0,0,0.00842309,0,0.00215076,
25.5551,0,0,0.00794551,0,0.00216352,
27.0042,0,0,0.00748118,0,0.00217651,
28.5729,0,0,0.00701165,0,0.00218983,
30.271,0,0,0.00651801,0,0.00220345,
32.1091,0,0,0.00598242,0,0.00221736,
34.0989,0,0,0.0053892,0,0.00223148,
36.2529,0,0,0.0047201,0,0.00224571,
38.5845,0,0,0.00396615,0,0.00225998,
41.1085,0,0,0.00316251,0,0.0022741,
43.8407,0,0,0.0021565,0,0.00228592,
46.7983,0,0,0.00110995,0,0.00229338,
50,0,0,0.00202917,0,0.00230986,

