97cf4698d104b74bcee7ff8fb4559535b46237f0 
X,Z,x_velocity,cp,uw_b,cf,
1,0,0,-0.22098,0,0,
1,9,0,-0.132573,0,0,
1,8.99969,0.0154716,-0.132573,2.89705e-10,0,
1,8.99934,0.0330234,-0.132573,1.35409e-08,0,
1,8.99894,0.0529532,-0.132573,1.86773e-07,0,
1,8.99848,0.0755756,-0.132573,1.36902e-06,0,
1,8.99797,0.101204,-0.132573,6.84059e-06,0,
1,8.99739,0.130032,-0.132573,2.58766e-05,0,
1,8.99672,0.161862,-0.132573,7.658e-05,0,
1,8.99597,0.195743,-0.132573,0.000177776,0,
1,8.99512,0.230018,-0.132573,0.000327163,0,
1,8.99416,0.263028,-0.132573,0.000495917,0,
1,8.99306,0.293801,-0.132573,0.000654602,0,
1,8.99182,0.322171,-0.132572,0.000782022,0,
1,8.99041,0.348281,-0.132572,0.000887676,0,
1,8.98881,0.37229,-0.132571,0.000974863,0,
1,8.98699,0.394413,-0.132571,0.00104594,0,
1,8.98494,0.414937,-0.13257,0.00110193,0,
1,8.98261,0.434176,-0.132569,0.00114453,0,
1,8.97996,0.45237,-0.132568,0.00118022,0,
1,8.97696,0.469692,-0.132567,0.00120974,0,
1,8.97356,0.486283,-0.132566,0.00123438,0,
1,8.9697,0.502263,-0.132565,0.00125508,0,
1,8.96533,0.517728,-0.132563,0.00127258,0,
1,8.96038,0.532763,-0.132561,0.00128738,0,
1,8.95476,0.547437,-0.132559,0.00129985,0,
1,8.9484,0.561808,-0.132556,0.00131027,0,
1,8.9412,0.575928,-0.132554,0.00131881,0,
1,8.93303,0.589839,-0.132551,0.00132558,0,
1,8.92379,0.603578,-0.132548,0.00133062,0,
1,8.91333,0.617178,-0.132545,0.00133397,0,
1,8.90149,0.630665,-0.132542,0.00133558,0,
1,8.8881,0.644065,-0.132539,0.00133542,0,
1,8.87295,0.657399,-0.132536,0.00133342,0,
1,8.85584,0.670688,-0.132534,0.00132947,0,
1,8.83651,0.683951,-0.132533,0.00132347,0,
1,8.81469,0.697207,-0.132533,0.00131529,0,
1,8.79007,0.710477,-0.132535,0.00130476,0,
1,8.76232,0.723782,-0.132539,0.00129171,0,
1,8.73107,0.737149,-0.132547,0.00127589,0,
1,8.69591,0.750608,-0.132559,0.00125703,0,
1,8.6564,0.764194,-0.132577,0.00123479,0,
1,8.61206,0.777954,-0.132603,0.00120872,0,
1,8.56236,0.791945,-0.132638,0.00117852,0,
1,8.50675,0.806245,-0.132687,0.00114541,0,
1,8.44464,0.820997,-0.132753,0.00110457,0,
1,8.3754,0.83642,-0.132839,0.0010529,0,
1,8.29839,0.852758,-0.132952,0.000989521,0,
1,8.21296,0.870256,-0.133098,0.00090994,0,
1,8.11843,0.889102,-0.133283,0.00080893,0,
1,8.01417,0.909293,-0.133521,0.000683075,0,
1,7.89956,0.930378,-0.133809,0.000535929,0,
1,7.77403,0.951223,-0.134183,0.000386142,0,
1,7.63711,0.970216,-0.134631,0.000202317,0,
1,7.48842,0.985026,-0.13516,7.44446e-05,0,
1,7.32773,0.993736,-0.135795,1.76161e-05,0,
1,7.15495,0.996861,-0.136532,1.6982e-06,0,
1,6.97022,0.996892,-0.137387,1.91095e-08,0,
1,6.77388,0.99627,-0.138372,3.38838e-09,0,
1,6.56652,0.996156,-0.139504,9.48699e-09,0,
1,6.34896,0.996609,-0.140795,1.23322e-08,0,
1,6.12229,0.997331,-0.142257,1.39015e-08,0,
1,5.88784,0.99812,-0.143902,1.46901e-08,0,
1,5.64716,0.998942,-0.145742,1.55899e-08,0,
1,5.40194,0.999825,-0.147785,1.68529e-08,0,
1,5.15407,1.0008,-0.150034,1.84725e-08,0,
1,4.90545,1.00186,-0.15249,2.01388e-08,0,
1,4.65805,1.00303,-0.155146,2.18878e-08,0,
1,4.41376,1.00428,-0.157992,2.36877e-08,0,
1,4.17441,1.0056,-0.161012,2.5303e-08,0,
1,3.94163,1.00694,-0.164183,2.65765e-08,0,
1,3.7169,1.00824,-0.167475,2.81415e-08,0,
1,3.50146,1.00958,-0.170855,3.19539e-08,0,
1,3.29629,1.01129,-0.17429,3.99884e-08,0,
1,3.10217,1.01372,-0.177748,5.0236e-08,0,
1,2.91959,1.01664,-0.181202,9.24151e-08,0,
1,2.74885,1.01858,-0.184613,7.94699e-07,0,
1,2.59002,1.01709,-0.187922,-7.82082e-06,0,
1,2.44299,1.0105,-0.191074,-5.72924e-05,0,
1,2.30752,0.999075,-0.194011,-0.000159521,0,
1,2.18321,0.984301,-0.196683,-0.000299574,0,
1,2.06959,0.967772,-0.199129,-0.000419753,0,
1,1.9661,0.950752,-0.201334,-0.000524001,0,
1,1.87215,0.93416,-0.203268,-0.000621184,0,
1,1.78711,0.918494,-0.204968,-0.000706708,0,
1,1.71033,0.903902,-0.206453,-0.000780488,0,
1,1.64119,0.890345,-0.207745,-0.000844053,0,
1,1.57905,0.877709,-0.208864,-0.000899536,0,
1,1.52332,0.865864,-0.209832,-0.000949368,0,
1,1.47342,0.854703,-0.210667,-0.000995353,0,
1,1.42882,0.84413,-0.211368,-0.00102424,0,
1,1.389,0.83406,-0.211956,-0.00104911,0,
1,1.35351,0.82443,-0.21246,-0.001072,0,
1,1.3219,0.815207,-0.212885,-0.00109225,0,
1,1.29378,0.806374,-0.213247,-0.00110975,0,
1,1.26878,0.797919,-0.213553,-0.0011246,0,
1,1.24659,0.78984,-0.213812,-0.00113731,0,
1,1.22689,0.78213,-0.214031,-0.00114806,0,
1,1.2092,0.7747,-0.214218,-0.00115585,0,
1,1.1932,0.767498,-0.214379,-0.0011614,0,
1,1.1787,0.76051,-0.214517,-0.00116526,0,
1,1.16554,0.753719,-0.214636,-0.00116809,0,
1,1.15357,0.747096,-0.214737,-0.00117133,0,
1,1.14266,0.740603,-0.214823,-0.00117745,0,
1,1.13268,0.734185,-0.214897,-0.00118984,0,
1,1.12354,0.727765,-0.21496,-0.0012129,0,
1,1.11514,0.721244,-0.215014,-0.00125219,0,
1,1.10739,0.714498,-0.215063,-0.00131397,0,
1,1.10022,0.707381,-0.215109,-0.00140474,0,
1,1.09357,0.699741,-0.215156,-0.00153043,0,
1,1.08738,0.691435,-0.215205,-0.00169542,0,
1,1.0816,0.682358,-0.215259,-0.00190138,0,
1,1.07618,0.672468,-0.215319,-0.00214641,0,
1,1.07107,0.661801,-0.215386,-0.00242479,0,
1,1.06626,0.650461,-0.215458,-0.0027278,0,
1,1.06169,0.638598,-0.215537,-0.0030452,0,
1,1.05735,0.626374,-0.215619,-0.00336696,0,
1,1.05321,0.613944,-0.215705,-0.00368448,0,
1,1.04925,0.601442,-0.215794,-0.00399119,0,
1,1.04544,0.588969,-0.215885,-0.00428254,0,
1,1.04177,0.576601,-0.215977,-0.00455573,0,
1,1.03822,0.564393,-0.21607,-0.00480927,0,
1,1.03478,0.552377,-0.216164,-0.00504263,0,
1,1.03144,0.540572,-0.216257,-0.00525591,0,
1,1.02818,0.52899,-0.21635,-0.00544963,0,
1,1.025,0.517631,-0.216443,-0.00562452,0,
1,1.02188,0.506493,-0.216535,-0.00578148,0,
1,1.01882,0.49557,-0.216627,-0.0059214,0,
1,1.01581,0.484852,-0.216719,-0.00604537,0,
1,1.01284,0.474331,-0.216809,-0.00615394,0,
1,1.00988,0.463882,-0.2169,-0.0062487,0,
1,1.00688,0.453385,-0.216992,-0.00633144,0,
1,1.00384,0.442829,-0.217086,-0.00640206,0,
1,1.00076,0.432203,-0.217181,-0.00646041,0,
1,0.997615,0.421494,-0.217277,-0.00650675,0,
1,0.99441,0.410686,-0.217375,-0.00654036,0,
1,0.991131,0.399756,-0.217474,-0.00656073,0,
1,0.987768,0.388679,-0.217575,-0.00656786,0,
1,0.984308,0.377427,-0.217677,-0.00656142,0,
1,0.980739,0.365969,-0.217781,-0.00654092,0,
1,0.977045,0.354273,-0.217887,-0.0065057,0,
1,0.973211,0.342303,-0.217995,-0.00645498,0,
1,0.969219,0.330023,-0.218105,-0.00638778,0,
1,0.965047,0.317392,-0.218216,-0.00630299,0,
1,0.960675,0.304367,-0.21833,-0.00619918,0,
1,0.956077,0.290902,-0.218447,-0.00607413,0,
1,0.951224,0.276954,-0.218566,-0.0059274,0,
1,0.946088,0.262484,-0.218687,-0.0057571,0,
1,0.940633,0.247457,-0.21881,-0.00556105,0,
1,0.934823,0.23184,-0.218935,-0.00533734,0,
1,0.928616,0.215607,-0.219062,-0.00508412,0,
1,0.921967,0.198738,-0.21919,-0.0047997,0,
1,0.914826,0.181227,-0.219317,-0.00448274,0,
1,0.907141,0.163085,-0.219444,-0.00413247,0,
1,0.898852,0.144347,-0.219568,-0.00374899,0,
1,0.889898,0.125089,-0.219689,-0.00333371,0,
1,0.880212,0.105443,-0.219806,-0.00289006,0,
1,0.869723,0.0856374,-0.219919,-0.00242468,0,
1,0.858358,0.0660585,-0.220029,-0.00195005,0,
1,0.846039,0.0473423,-0.220139,-0.00148926,0,
1,0.83269,0.0304299,-0.220254,-0.00107927,0,
1,0.818232,0.0163502,-0.220372,-0.000755414,0,
1,0.802744,0.00570642,-0.220498,-0.000521071,0,
1,0.78635,-0.00178629,-0.220637,-0.000365141,0,
1,0.768969,-0.00701217,-0.220776,-0.000270596,0,
1,0.75053,-0.0108457,-0.220914,-0.000217949,0,
1,0.730977,-0.0139285,-0.221041,-0.000192146,0,
1,0.710271,-0.0166595,-0.221155,-0.00018228,0,
1,0.688397,-0.0192663,-0.221256,-0.000181492,0,
1,0.66536,-0.021877,-0.221344,-0.000184182,0,
1,0.641194,-0.0245602,-0.221418,-0.000187292,0,
1,0.615961,-0.0273402,-0.221479,-0.000188762,0,
1,0.589754,-0.0302073,-0.221525,-0.000187449,0,
1,0.562692,-0.0331266,-0.221555,-0.000182876,0,
1,0.534925,-0.0360439,-0.221568,-0.000175001,0,
1,0.506624,-0.0388912,-0.22156,-0.000164024,0,
1,0.477982,-0.0415908,-0.221533,-0.000150258,0,
1,0.449206,-0.0440582,-0.221485,-0.000134036,0,
1,0.420509,-0.0462039,-0.22142,-0.000115668,0,
1,0.392107,-0.0479353,-0.221339,-9.54532e-05,0,
1,0.364206,-0.0491596,-0.221247,-7.36802e-05,0,
1,0.337003,-0.0497872,-0.22115,-5.0677e-05,0,
1,0.310673,-0.0497382,-0.221053,-2.68662e-05,0,
1,0.28537,-0.048951,-0.220963,-2.81773e-06,0,
1,0.26122,-0.0473925,-0.220885,2.07253e-05,0,
1,0.238324,-0.0450683,-0.220823,4.28724e-05,0,
1,0.21675,-0.0420295,-0.220778,6.26688e-05,0,
1,0.196544,-0.0383746,-0.220751,7.92224e-05,0,
1,0.177724,-0.0342426,-0.220741,9.18319e-05,0,
1,0.160284,-0.0298006,-0.220745,0.000100132,0,
1,0.144202,-0.0252252,-0.22076,0.000104118,0,
1,0.129436,-0.0206839,-0.220782,0.0001041,0,
1,0.115935,-0.0163188,-0.220807,0.000100625,0,
1,0.103636,-0.0122361,-0.220834,9.4364e-05,0,
1,0.0924701,-0.00850346,-0.22086,8.60406e-05,0,
1,0.0823633,-0.00515313,-0.220884,7.63889e-05,0,
1,0.0732406,-0.00218966,-0.220906,6.61771e-05,0,
1,0.0650269,0.000399578,-0.220924,5.63402e-05,0,
1,0.057648,0.00264452,-0.220939,4.62527e-05,0,
1,0.0510323,0.00458298,-0.220952,3.68488e-05,0,
1,0.0451115,0.00624835,-0.220962,2.80712e-05,0,
1,0.0398209,0.00766946,-0.220969,2.01144e-05,0,
1,0.0351001,0.00886172,-0.220974,1.31895e-05,0,
1,0.0308929,0.00982079,-0.220977,7.55541e-06,0,
1,0.0271475,0.0105215,-0.220979,3.47136e-06,0,
1,0.0238164,0.0109282,-0.22098,1.00068e-06,0,
1,0.0208562,0.0110194,-0.22098,-1.42248e-07,0,
1,0.0182274,0.0108093,-0.220981,-4.63958e-07,0,
1,0.0158944,0.0103497,-0.220981,-4.23733e-07,0,
1,0.0138249,0.00971077,-0.220981,-2.9108e-07,0,
1,0.0119898,0.00896005,-0.220981,-1.73529e-07,0,
1,0.0103632,0.00815197,-0.220981,-9.46001e-08,0,
1,0.00892169,0.00732612,-0.220981,-4.82759e-08,0,
1,0.00764438,0.00650969,-0.220981,-2.32969e-08,0,
1,0.00651264,0.00572068,-0.220981,-1.06607e-08,0,
1,0.00550983,0.00497045,-0.22098,-4.61535e-09,0,
1,0.00462115,0.00426565,-0.220981,-1.87786e-09,0,
1,0.00383341,0.00360964,-0.22098,-7.09904e-10,0,
1,0.0031349,0.00300341,-0.22098,-2.44953e-10,0,
1,0.00251518,0.0024463,-0.22098,-7.50614e-11,0,
1,0.00196502,0.00193658,-0.22098,-1.95612e-11,0,
1,0.00147619,0.00147175,-0.22098,-4.03309e-12,0,
1,0.00104139,0.0010489,-0.22098,-5.77368e-13,0,
1,0.000654158,0.000664857,-0.22098,-4.41138e-14,0,
1,0.000308731,0.000316372,-0.22098,-9.86615e-16,0,

4,0,0,-0.188665,0,0,
4,9,0,-0.102973,0,0,
4,8.99969,0.0143584,-0.102973,2.28837e-10,0,
4,8.99934,0.030591,-0.102973,1.06166e-08,0,
4,8.99894,0.0489611,-0.102972,1.4496e-07,0,
4,8.9985,0.0697468,-0.102973,1.05203e-06,0,
4,8.99799,0.0932305,-0.102972,5.21984e-06,0,
4,8.99742,0.119614,-0.102973,1.97483e-05,0,
4,8.99677,0.148805,-0.102972,5.91736e-05,0,
4,8.99605,0.180109,-0.102972,0.000141066,0,
4,8.99522,0.212157,-0.102972,0.000268974,0,
4,8.99429,0.243402,-0.102972,0.000422205,0,
4,8.99324,0.272784,-0.102972,0.000572697,0,
4,8.99205,0.299935,-0.102972,0.000702312,0,
4,8.9907,0.324936,-0.102971,0.000806675,0,
4,8.98919,0.347961,-0.102971,0.000894525,0,
4,8.98747,0.369196,-0.10297,0.000967523,0,
4,8.98553,0.388909,-0.102969,0.00102511,0,
4,8.98334,0.407382,-0.102968,0.00107124,0,
4,8.98087,0.424836,-0.102967,0.00111019,0,
4,8.97807,0.441439,-0.102966,0.0011432,0,
4,8.97491,0.457334,-0.102964,0.00117155,0,
4,8.97134,0.472639,-0.102962,0.00119622,0,
4,8.96731,0.487452,-0.10296,0.00121794,0,
4,8.96276,0.50186,-0.102957,0.00123724,0,
4,8.95762,0.515934,-0.102954,0.00125447,0,
4,8.95182,0.529736,-0.102951,0.0012699,0,
4,8.94526,0.543319,-0.102947,0.00128368,0,
4,8.93787,0.556729,-0.102943,0.00129588,0,
4,8.92952,0.570004,-0.102938,0.00130652,0,
4,8.92011,0.583179,-0.102933,0.00131555,0,
4,8.90949,0.596282,-0.102927,0.0013229,0,
4,8.89751,0.609338,-0.102921,0.00132844,0,
4,8.88402,0.622368,-0.102914,0.00133204,0,
4,8.86881,0.63539,-0.102908,0.00133353,0,
4,8.85169,0.648418,-0.1029,0.00133274,0,
4,8.83242,0.661466,-0.102893,0.0013295,0,
4,8.81074,0.674546,-0.102886,0.00132363,0,
4,8.78637,0.687671,-0.10288,0.00131495,0,
4,8.75901,0.700853,-0.102875,0.00130328,0,
4,8.7283,0.714107,-0.102871,0.00128843,0,
4,8.69387,0.727454,-0.102869,0.00127019,0,
4,8.65533,0.740917,-0.102871,0.00124831,0,
4,8.61222,0.75453,-0.102877,0.00122246,0,
4,8.56407,0.768333,-0.102889,0.00119226,0,
4,8.5104,0.782383,-0.102909,0.00115758,0,
4,8.45065,0.796757,-0.10294,0.00112017,0,
4,8.38429,0.811615,-0.102984,0.00107223,0,
4,8.31073,0.827191,-0.103045,0.00101474,0,
4,8.22941,0.843746,-0.103128,0.000944203,0,
4,8.13974,0.861541,-0.103235,0.000856261,0,
4,8.04115,0.880746,-0.10337,0.000747318,0,
4,7.93313,0.901244,-0.103539,0.000617719,0,
4,7.81519,0.922321,-0.103736,0.000476818,0,
4,7.68693,0.942503,-0.103986,0.000342036,0,
4,7.54803,0.959892,-0.104273,0.000200448,0,
4,7.39831,0.972605,-0.104616,8.77193e-05,0,
4,7.23771,0.97979,-0.105031,2.6953e-05,0,
4,7.06634,0.982421,-0.105508,4.4758e-06,0,
4,6.88453,0.982567,-0.106052,7.17471e-08,0,
4,6.69275,0.982059,-0.106666,-4.72014e-08,0,
4,6.49173,0.981809,-0.107357,3.72593e-08,0,
4,6.28238,0.981961,-0.108139,2.99743e-08,0,
4,6.06579,0.982348,-0.10902,1.67365e-08,0,
4,5.84328,0.982816,-0.11001,1.15144e-08,0,
4,5.61626,0.983305,-0.111114,1.02771e-08,0,
4,5.3863,0.983817,-0.11234,1.05176e-08,0,
4,5.15502,0.984369,-0.113693,1.13558e-08,0,
4,4.92406,0.984978,-0.115178,1.25069e-08,0,
4,4.69507,0.985653,-0.116796,1.38692e-08,0,
4,4.46961,0.986401,-0.118549,1.52954e-08,0,
4,4.24915,0.987201,-0.120433,1.64837e-08,0,
4,4.03501,0.987998,-0.122444,1.71604e-08,0,
4,3.82836,0.988725,-0.124575,1.76389e-08,0,
4,3.63018,0.989394,-0.126815,1.94147e-08,0,
4,3.44125,0.9902,-0.129151,2.57673e-08,0,
4,3.26217,0.991511,-0.131569,8.801e-08,0,
4,3.09333,0.993604,-0.134055,7.60213e-07,0,
4,2.93497,0.996231,-0.136589,3.43443e-06,0,
4,2.78715,0.998464,-0.139151,6.66383e-06,0,
4,2.64979,0.999079,-0.141717,2.09702e-06,0,
4,2.52268,0.997169,-0.144256,-2.03612e-05,0,
4,2.40551,0.992463,-0.146737,-6.54082e-05,0,
4,2.29789,0.985274,-0.149129,-0.00013085,0,
4,2.19939,0.97624,-0.151411,-0.000209904,0,
4,2.10949,0.966079,-0.153565,-0.000294333,0,
4,2.02768,0.95543,-0.155585,-0.000376678,0,
4,1.95343,0.944791,-0.157468,-0.000451191,0,
4,1.88618,0.934524,-0.159211,-0.000515686,0,
4,1.82542,0.924806,-0.160822,-0.000561062,0,
4,1.77062,0.915695,-0.162304,-0.000597997,0,
4,1.72128,0.907231,-0.163658,-0.000630963,0,
4,1.67693,0.899437,-0.164893,-0.000660105,0,
4,1.63713,0.892304,-0.166017,-0.00068588,0,
4,1.60144,0.885806,-0.167036,-0.000708692,0,
4,1.56949,0.879909,-0.167959,-0.000728959,0,
4,1.54091,0.874573,-0.168792,-0.000747167,0,
4,1.51537,0.869745,-0.169546,-0.000763714,0,
4,1.49167,0.865229,-0.170247,-0.000779042,0,
4,1.46926,0.860915,-0.170924,-0.000789371,0,
4,1.44801,0.856767,-0.171575,-0.000796723,0,
4,1.42781,0.852759,-0.172197,-0.000803136,0,
4,1.40855,0.848879,-0.172795,-0.000808105,0,
4,1.39015,0.845109,-0.173371,-0.000812052,0,
4,1.37252,0.841435,-0.173926,-0.000815414,0,
4,1.3556,0.837837,-0.174464,-0.000818669,0,
4,1.3393,0.834299,-0.174984,-0.000822381,0,
4,1.32357,0.830802,-0.17549,-0.000827395,0,
4,1.30836,0.827323,-0.175982,-0.000834443,0,
4,1.29362,0.823841,-0.176461,-0.000844537,0,
4,1.2793,0.820325,-0.176929,-0.000858955,0,
4,1.26537,0.816744,-0.177386,-0.000879286,0,
4,1.25179,0.813058,-0.177834,-0.000907467,0,
4,1.23852,0.809219,-0.178274,-0.000945814,0,
4,1.22554,0.805172,-0.178705,-0.000997031,0,
4,1.21282,0.800851,-0.179128,-0.00106417,0,
4,1.20034,0.796181,-0.179544,-0.00115055,0,
4,1.18806,0.791082,-0.179953,-0.0012595,0,
4,1.17599,0.785471,-0.180355,-0.00139413,0,
4,1.16408,0.779271,-0.180751,-0.00155688,0,
4,1.15233,0.772417,-0.181139,-0.00174914,0,
4,1.14073,0.764868,-0.18152,-0.00197087,0,
4,1.12925,0.756609,-0.181895,-0.00222045,0,
4,1.11788,0.747655,-0.182264,-0.00249467,0,
4,1.10661,0.738045,-0.182625,-0.0027891,0,
4,1.09543,0.727838,-0.182981,-0.00309846,0,
4,1.08432,0.717106,-0.18333,-0.00341714,0,
4,1.07328,0.705926,-0.183673,-0.00373964,0,
4,1.0623,0.694373,-0.18401,-0.00406091,0,
4,1.05136,0.682517,-0.184341,-0.00437645,0,
4,1.04044,0.670405,-0.184666,-0.00468264,0,
4,1.0295,0.65807,-0.184987,-0.00497664,0,
4,1.01855,0.64556,-0.185304,-0.0052557,0,
4,1.00757,0.632918,-0.185615,-0.00551753,0,
4,0.996544,0.620179,-0.185922,-0.00576003,0,
4,0.98547,0.607375,-0.186224,-0.00598139,0,
4,0.974334,0.594532,-0.186522,-0.00618012,0,
4,0.963124,0.581674,-0.186815,-0.00635485,0,
4,0.951826,0.56882,-0.187104,-0.00650436,0,
4,0.940428,0.55599,-0.187387,-0.00662727,0,
4,0.928915,0.543201,-0.187672,-0.00672456,0,
4,0.917272,0.530462,-0.187942,-0.00682885,0,
4,0.905481,0.517648,-0.188156,-0.00685212,0,
4,0.893524,0.504573,-0.188335,-0.00688185,0,
4,0.881383,0.491142,-0.18851,-0.00691834,0,
4,0.869035,0.477298,-0.188683,-0.00696097,0,
4,0.856459,0.463,-0.188859,-0.00700927,0,
4,0.843629,0.448213,-0.189039,-0.00706259,0,
4,0.830518,0.43291,-0.189223,-0.00712017,0,
4,0.817097,0.417064,-0.189412,-0.00718115,0,
4,0.803334,0.400656,-0.189604,-0.00724452,0,
4,0.789195,0.383667,-0.189799,-0.00730915,0,
4,0.774643,0.366083,-0.189996,-0.00737379,0,
4,0.759639,0.347891,-0.190193,-0.00743705,0,
4,0.744138,0.329082,-0.190391,-0.00749732,0,
4,0.728096,0.309654,-0.190589,-0.00755268,0,
4,0.711463,0.289616,-0.190786,-0.00760134,0,
4,0.694189,0.268989,-0.190983,-0.00764063,0,
4,0.676218,0.247808,-0.191179,-0.00766717,0,
4,0.657495,0.226119,-0.191372,-0.00767753,0,
4,0.637962,0.203972,-0.19156,-0.00766855,0,
4,0.617561,0.181411,-0.191736,-0.00763795,0,
4,0.596848,0.159083,-0.191891,-0.0075851,0,
4,0.576557,0.137741,-0.192022,-0.00751166,0,
4,0.556564,0.11725,-0.192127,-0.007419,0,
4,0.536763,0.0974895,-0.192209,-0.00730842,0,
4,0.517057,0.0783775,-0.192276,-0.00718078,0,
4,0.497368,0.0598889,-0.192338,-0.00703699,0,
4,0.477632,0.0420638,-0.19241,-0.00687885,0,
4,0.457804,0.0249864,-0.192494,-0.00670951,0,
4,0.437857,0.00872796,-0.1926,-0.00653567,0,
4,0.417786,-0.00675765,-0.192626,-0.00635716,0,
4,0.397605,-0.0217237,-0.192529,-0.00606206,0,
4,0.377348,-0.0363198,-0.192401,-0.00581271,0,
4,0.357066,-0.0504605,-0.192265,-0.0055603,0,
4,0.336828,-0.0640547,-0.192109,-0.00529801,0,
4,0.316717,-0.0770331,-0.191943,-0.00502667,0,
4,0.296825,-0.0893418,-0.191768,-0.00474738,0,
4,0.27725,-0.100941,-0.191589,-0.00446202,0,
4,0.258095,-0.111804,-0.191406,-0.00417269,0,
4,0.239458,-0.121918,-0.191223,-0.00388176,0,
4,0.221432,-0.131279,-0.191041,-0.00359167,0,
4,0.2041,-0.139898,-0.190862,-0.00330485,0,
4,0.187537,-0.147791,-0.190687,-0.0030236,0,
4,0.171798,-0.154987,-0.190516,-0.00275001,0,
4,0.156928,-0.161516,-0.190351,-0.00248589,0,
4,0.142956,-0.167416,-0.190193,-0.00223276,0,
4,0.129894,-0.172724,-0.190042,-0.00199178,0,
4,0.117744,-0.17748,-0.189899,-0.00176382,0,
4,0.106492,-0.181721,-0.189764,-0.00154941,0,
4,0.0961173,-0.185486,-0.189637,-0.00134881,0,
4,0.0865883,-0.188807,-0.18952,-0.00116205,0,
4,0.0778675,-0.191716,-0.189413,-0.000988923,0,
4,0.0699123,-0.194242,-0.189314,-0.000829082,0,
4,0.062677,-0.196408,-0.189225,-0.000682036,0,
4,0.056114,-0.198236,-0.189144,-0.000547203,0,
4,0.0501747,-0.199743,-0.189072,-0.000423937,0,
4,0.0448114,-0.200941,-0.189008,-0.00031156,0,
4,0.039977,-0.201837,-0.188952,-0.000209385,0,
4,0.0356266,-0.202436,-0.188902,-0.000116742,0,
4,0.0317171,-0.202733,-0.188859,-3.29987e-05,0,
4,0.0282081,-0.202718,-0.188822,4.24117e-05,0,
4,0.0250617,-0.202373,-0.188791,0.000109965,0,
4,0.0222427,-0.201666,-0.188764,0.000170004,0,
4,0.0197189,-0.200551,-0.188742,0.000222688,0,
4,0.0174603,-0.198963,-0.188723,0.000267901,0,
4,0.0154398,-0.196807,-0.188708,0.00030513,0,
4,0.0136326,-0.19395,-0.188696,0.000333283,0,
4,0.0120162,-0.19021,-0.188686,0.00035048,0,
4,0.0105703,-0.185345,-0.188679,0.000353953,0,
4,0.00927657,-0.179054,-0.188674,0.000340378,0,
4,0.00811839,-0.171016,-0.18867,0.000307201,0,
4,0.0070809,-0.160979,-0.188668,0.000255149,0,
4,0.0061507,-0.148911,-0.188667,0.000190765,0,
4,0.00531578,-0.135133,-0.188666,0.000125962,0,
4,0.00456537,-0.120295,-0.188665,7.27282e-05,0,
4,0.00388979,-0.105163,-0.188665,3.67576e-05,0,
4,0.00328037,-0.0903617,-0.188665,1.63657e-05,0,
4,0.00272934,-0.0762667,-0.188665,6.43159e-06,0,
4,0.0022297,-0.063034,-0.188665,2.20596e-06,0,
4,0.00177519,-0.0506858,-0.188665,6.39283e-07,0,
4,0.00136016,-0.039178,-0.188665,1.46545e-07,0,
4,0.000979511,-0.0284382,-0.188665,2.33759e-08,0,
4,0.00062865,-0.0183846,-0.188665,1.98736e-09,0,
4,0.000303409,-0.00893364,-0.188665,4.82708e-11,0,

6,0,0,-0.0364343,0,0,
6,9,0,-0.0789158,0,0,
6,8.99969,0.0135939,-0.0789155,1.90411e-10,0,
6,8.99934,0.0289238,-0.0789157,8.78807e-09,0,
6,8.99895,0.0462289,-0.0789154,1.19147e-07,0,
6,8.9985,0.0657617,-0.0789156,8.58622e-07,0,
6,8.99801,0.087782,-0.0789154,4.23783e-06,0,
6,8.99744,0.112489,-0.0789155,1.60223e-05,0,
6,8.99681,0.13985,-0.0789153,4.83741e-05,0,
6,8.99609,0.169328,-0.0789154,0.000117392,0,
6,8.99529,0.199758,-0.0789152,0.000229569,0,
6,8.99438,0.2297,-0.0789151,0.000369956,0,
6,8.99336,0.258059,-0.0789148,0.000512806,0,
6,8.9922,0.284347,-0.0789147,0.000640852,0,
6,8.9909,0.30857,-0.0789142,0.000744288,0,
6,8.98944,0.330892,-0.0789139,0.000831369,0,
6,8.98779,0.351485,-0.0789132,0.000904562,0,
6,8.98593,0.370595,-0.0789126,0.000962578,0,
6,8.98383,0.388484,-0.0789117,0.00101006,0,
6,8.98147,0.40536,-0.0789107,0.00105028,0,
6,8.97881,0.421388,-0.0789094,0.0010847,0,
6,8.97581,0.436708,-0.078908,0.00111463,0,
6,8.97244,0.45144,-0.0789062,0.00114108,0,
6,8.96863,0.465682,-0.0789042,0.00116481,0,
6,8.96435,0.479521,-0.0789017,0.00118635,0,
6,8.95953,0.493031,-0.0788989,0.00120612,0,
6,8.95409,0.506276,-0.0788956,0.00122438,0,
6,8.94798,0.519311,-0.0788919,0.0012413,0,
6,8.94109,0.532184,-0.0788875,0.00125699,0,
6,8.93334,0.54494,-0.0788825,0.00127144,0,
6,8.92463,0.557614,-0.0788769,0.00128461,0,
6,8.91482,0.570239,-0.0788704,0.00129641,0,
6,8.90379,0.582843,-0.0788632,0.00130668,0,
6,8.89139,0.59545,-0.0788551,0.00131523,0,
6,8.87746,0.608081,-0.0788461,0.00132185,0,
6,8.86181,0.620752,-0.0788362,0.00132628,0,
6,8.84423,0.633477,-0.0788254,0.00132828,0,
6,8.82452,0.646266,-0.0788136,0.00132758,0,
6,8.80241,0.659129,-0.0788009,0.00132391,0,
6,8.77763,0.672073,-0.0787873,0.00131704,0,
6,8.74989,0.685106,-0.0787729,0.00130673,0,
6,8.71885,0.698238,-0.0787578,0.00129274,0,
6,8.68417,0.711481,-0.0787423,0.00127485,0,
6,8.64545,0.724849,-0.0787265,0.00125281,0,
6,8.60229,0.738367,-0.0787108,0.00122633,0,
6,8.55423,0.752065,-0.0786957,0.0011951,0,
6,8.50082,0.765984,-0.0786814,0.00115926,0,
6,8.44155,0.780193,-0.0786695,0.00111889,0,
6,8.37592,0.794821,-0.0786611,0.00107125,0,
6,8.30339,0.810072,-0.078657,0.0010152,0,
6,8.22344,0.826207,-0.0786575,0.000947806,0,
6,8.13555,0.843523,-0.0786641,0.000865325,0,
6,8.0392,0.862266,-0.0786729,0.000764347,0,
6,7.93391,0.882422,-0.0786851,0.000644704,0,
6,7.81927,0.903395,-0.0786897,0.000513148,0,
6,7.6949,0.923795,-0.0786955,0.000384784,0,
6,7.56054,0.941784,-0.07869,0.000268923,0,
6,7.41603,0.95576,-0.0786821,0.000138058,0,
6,7.26132,0.96476,-0.0786799,5.46384e-05,0,
6,7.09653,0.969059,-0.0786691,1.39821e-05,0,
6,6.92195,0.970131,-0.0786525,8.99747e-07,0,
6,6.73802,0.969728,-0.0786236,-8.47995e-07,0,
6,6.5454,0.969073,-0.0785806,-3.7997e-07,0,
6,6.34489,0.968656,-0.0785216,-9.17028e-08,0,
6,6.1375,0.968488,-0.078445,-1.88021e-08,0,
6,5.92439,0.968431,-0.0783481,-5.96999e-09,0,
6,5.70687,0.968378,-0.0782277,-3.65455e-09,0,
6,5.48633,0.968287,-0.0780801,-3.16776e-09,0,
6,5.26426,0.968157,-0.0779011,-3.23615e-09,0,
6,5.04218,0.967996,-0.0776863,-3.51097e-09,0,
6,4.82159,0.967818,-0.0774312,-3.84101e-09,0,
6,4.60398,0.967635,-0.0771316,-4.23471e-09,0,
6,4.39071,0.967444,-0.0767835,-4.8991e-09,0,
6,4.18307,0.96721,-0.0763834,-6.1879e-09,0,
6,3.98218,0.96687,-0.075929,-8.30523e-09,0,
6,3.78902,0.966367,-0.0754189,-1.08408e-08,0,
6,3.60438,0.965731,-0.0748532,-1.40487e-08,0,
6,3.42888,0.965148,-0.0742334,-2.80307e-08,0,
6,3.26296,0.964915,-0.0735621,-5.06555e-08,0,
6,3.10691,0.965266,-0.0728419,8.33627e-08,0,
6,2.96084,0.966143,-0.0720766,5.99782e-07,0,
6,2.82473,0.967113,-0.0712718,5.80719e-07,0,
6,2.69844,0.967518,-0.0704365,-3.29516e-06,0,
6,2.58172,0.966734,-0.0695814,-1.57825e-05,0,
6,2.47424,0.964382,-0.0687187,-4.06037e-05,0,
6,2.37559,0.960388,-0.0678599,-7.88856e-05,0,
6,2.28535,0.95493,-0.0670159,-0.000129217,0,
6,2.20301,0.948333,-0.0661958,-0.000188488,0,
6,2.1281,0.94097,-0.0654073,-0.000252819,0,
6,2.06009,0.933203,-0.0646562,-0.000318211,0,
6,1.99849,0.925344,-0.063946,-0.000380823,0,
6,1.9428,0.917652,-0.0632811,-0.000437649,0,
6,1.89255,0.910315,-0.0626577,-0.000488463,0,
6,1.84728,0.903405,-0.0620847,-0.000528,0,
6,1.80655,0.896919,-0.061562,-0.000558253,0,
6,1.76996,0.890868,-0.0610762,-0.000586005,0,
6,1.73712,0.885269,-0.0606328,-0.000611395,0,
6,1.70768,0.880094,-0.0602251,-0.000634887,0,
6,1.67998,0.875111,-0.0598366,-0.0006576,0,
6,1.65329,0.870222,-0.0594552,-0.000679757,0,
6,1.62754,0.865423,-0.0590814,-0.000701332,0,
6,1.60265,0.860714,-0.0587142,-0.000722315,0,
6,1.57854,0.856092,-0.0583536,-0.000742712,0,
6,1.55515,0.851553,-0.0579989,-0.00076256,0,
6,1.53242,0.847092,-0.0576498,-0.000781883,0,
6,1.5103,0.8427,-0.0573061,-0.000800699,0,
6,1.48874,0.838365,-0.0569674,-0.000819068,0,
6,1.46769,0.834078,-0.0566326,-0.000837157,0,
6,1.44712,0.829837,-0.0563006,-0.000855306,0,
6,1.42698,0.82566,-0.0559688,-0.000873954,0,
6,1.40725,0.821584,-0.0556377,-0.000893332,0,
6,1.38788,0.81764,-0.0553041,-0.000912959,0,
6,1.36886,0.813804,-0.0549845,-0.00092621,0,
6,1.35015,0.810013,-0.054676,-0.000931275,0,
6,1.33173,0.806222,-0.0543646,-0.000940205,0,
6,1.31357,0.802415,-0.0540571,-0.000950248,0,
6,1.29566,0.798577,-0.0537506,-0.000961923,0,
6,1.27797,0.794688,-0.0534459,-0.000976163,0,
6,1.26048,0.790724,-0.0531425,-0.000994177,0,
6,1.24318,0.786655,-0.0528403,-0.00101749,0,
6,1.22605,0.782444,-0.0525392,-0.00104794,0,
6,1.20907,0.778045,-0.0522391,-0.00108773,0,
6,1.19223,0.773405,-0.0519397,-0.00113932,0,
6,1.17551,0.768463,-0.051641,-0.00120541,0,
6,1.1589,0.763152,-0.051343,-0.00128874,0,
6,1.14238,0.7574,-0.0510455,-0.00139183,0,
6,1.12595,0.751137,-0.0507485,-0.00151671,0,
6,1.10959,0.744305,-0.0504522,-0.00166454,0,
6,1.09329,0.736858,-0.0501567,-0.00183532,0,
6,1.07704,0.728773,-0.0498623,-0.00202768,0,
6,1.06081,0.720045,-0.0495693,-0.00223883,0,
6,1.04459,0.710694,-0.0492778,-0.00246479,0,
6,1.02836,0.700762,-0.0489883,-0.00270062,0,
6,1.01211,0.690308,-0.0487008,-0.00294071,0,
6,0.99583,0.679402,-0.0484163,-0.00317927,0,
6,0.97951,0.668118,-0.0481334,-0.00341081,0,
6,0.963136,0.656529,-0.0478558,-0.00363793,0,
6,0.946694,0.644657,-0.0475735,-0.00385198,0,
6,0.930172,0.632425,-0.0472821,-0.00404643,0,
6,0.913555,0.619727,-0.0469921,-0.00424455,0,
6,0.896829,0.606502,-0.0467037,-0.00444892,0,
6,0.879979,0.592716,-0.046419,-0.00466133,0,
6,0.862989,0.578355,-0.0461375,-0.00488313,0,
6,0.845842,0.563416,-0.0458613,-0.00511441,0,
6,0.828521,0.547894,-0.0455929,-0.00535278,0,
6,0.811008,0.531782,-0.0453327,-0.00559764,0,
6,0.793282,0.515079,-0.0450815,-0.00584799,0,
6,0.775322,0.497787,-0.0448398,-0.00610233,0,
6,0.757107,0.47992,-0.0446079,-0.00635865,0,
6,0.738612,0.461499,-0.0443864,-0.00661442,0,
6,0.719813,0.442553,-0.0441762,-0.00686671,0,
6,0.700681,0.42312,-0.043978,-0.00711219,0,
6,0.681188,0.403245,-0.0437922,-0.00734724,0,
6,0.661304,0.38297,-0.0436183,-0.00756799,0,
6,0.640996,0.362333,-0.0434538,-0.00777036,0,
6,0.620228,0.341361,-0.0432957,-0.00794995,0,
6,0.598964,0.320077,-0.0431427,-0.00810179,0,
6,0.577166,0.298539,-0.0430017,-0.00822025,0,
6,0.554791,0.276895,-0.0428901,-0.00829953,0,
6,0.531799,0.255434,-0.042848,-0.00833563,0,
6,0.508144,0.234563,-0.0428908,-0.00832798,0,
6,0.48378,0.214627,-0.0430544,-0.00828094,0,
6,0.459585,0.196246,-0.043031,-0.00813773,0,
6,0.436695,0.179704,-0.042826,-0.00783203,0,
6,0.414961,0.164504,-0.042674,-0.0075809,0,
6,0.394252,0.150472,-0.0425232,-0.00732202,0,
6,0.374445,0.137468,-0.0423774,-0.007055,0,
6,0.355433,0.125371,-0.042236,-0.00678182,0,
6,0.337122,0.114077,-0.0420959,-0.00650358,0,
6,0.319433,0.103499,-0.0419561,-0.00622139,0,
6,0.3023,0.0935639,-0.0418147,-0.00593612,0,
6,0.28567,0.0842117,-0.0416702,-0.0056486,0,
6,0.269507,0.0753929,-0.041521,-0.00535968,0,
6,0.253785,0.0670681,-0.0413659,-0.00507027,0,
6,0.238493,0.059206,-0.0412037,-0.00478138,0,
6,0.223631,0.0517816,-0.0410333,-0.00449416,0,
6,0.209207,0.0447751,-0.0408541,-0.00420982,0,
6,0.195237,0.0381707,-0.0406656,-0.0039297,0,
6,0.181744,0.0319547,-0.0404679,-0.00365518,0,
6,0.168754,0.0261151,-0.0402614,-0.00338763,0,
6,0.156292,0.020641,-0.0400468,-0.00312838,0,
6,0.144384,0.0155213,-0.0398255,-0.00287868,0,
6,0.133052,0.0107455,-0.0395993,-0.00263962,0,
6,0.122315,0.00630257,-0.0393703,-0.00241216,0,
6,0.112183,0.00218046,-0.0391413,-0.00219695,0,
6,0.102665,-0.00163509,-0.0389152,-0.001994,0,
6,0.0937597,-0.00516144,-0.0386944,-0.00180307,0,
6,0.0854609,-0.00841678,-0.0384809,-0.00162467,0,
6,0.077757,-0.0114179,-0.0382766,-0.00145898,0,
6,0.0706309,-0.0141804,-0.0380831,-0.00130561,0,
6,0.0640611,-0.0167192,-0.0379014,-0.00116409,0,
6,0.0580229,-0.0190494,-0.0377323,-0.00103393,0,
6,0.0524888,-0.0211853,-0.0375762,-0.000914574,0,
6,0.0474296,-0.0231408,-0.037433,-0.00080542,0,
6,0.042815,-0.0249287,-0.0373027,-0.000705833,0,
6,0.0386145,-0.0265611,-0.0371849,-0.00061516,0,
6,0.0347975,-0.0280491,-0.0370791,-0.000532747,0,
6,0.0313344,-0.0294023,-0.0369847,-0.000457955,0,
6,0.0281964,-0.0306297,-0.0369008,-0.000390166,0,
6,0.0253561,-0.0317385,-0.0368268,-0.000328791,0,
6,0.0227875,-0.032735,-0.0367619,-0.000273283,0,
6,0.0204662,-0.0336239,-0.0367052,-0.000223134,0,
6,0.0183694,-0.0344079,-0.0366562,-0.000177885,0,
6,0.016476,-0.035088,-0.0366137,-0.000137133,0,
6,0.0147664,-0.035662,-0.0365778,-0.000100541,0,
6,0.0132228,-0.0361243,-0.0365469,-6.78543e-05,0,
6,0.0118288,-0.0364642,-0.0365216,-3.89323e-05,0,
6,0.0105693,-0.0366636,-0.0365,-1.37964e-05,0,
6,0.00943073,-0.036694,-0.0364835,7.29343e-06,0,
6,0.00840063,-0.0365126,-0.0364694,2.37516e-05,0,
6,0.00746774,-0.0360584,-0.03646,3.46522e-05,0,
6,0.00662185,-0.0352539,-0.0364517,3.90227e-05,0,
6,0.00585371,-0.0340199,-0.0364477,3.67012e-05,0,
6,0.00515491,-0.0323113,-0.0364433,2.93362e-05,0,
6,0.00451788,-0.0301551,-0.0364427,2.01361e-05,0,
6,0.00393573,-0.0276509,-0.03644,1.20613e-05,0,
6,0.00340221,-0.0249271,-0.0364408,6.41965e-06,0,
6,0.00291168,-0.0220949,-0.0364386,3.07128e-06,0,
6,0.00245897,-0.0192302,-0.0364401,1.31927e-06,0,
6,0.00203939,-0.016377,-0.0364375,5.00237e-07,0,
6,0.00164864,-0.0135574,-0.0364396,1.61274e-07,0,
6,0.00128281,-0.0107795,-0.0364365,4.12376e-08,0,
6,0.000938257,-0.00804268,-0.0364394,7.33594e-09,0,
6,0.000611645,-0.00534085,-0.0364355,6.92135e-10,0,
6,0.000299862,-0.00266418,-0.0364394,1.82564e-11,0,

10,0.000296632,0.00776373,0.0317254,-3.96019e-11,0,
10,0.000596102,0.015599,0.0317262,-1.46766e-09,0,
10,0.000900397,0.0235576,0.0317254,-1.49223e-08,0,
10,0.00121153,0.0316919,0.031726,-8.0197e-08,0,
10,0.00153158,0.0400544,0.0317253,-3.0007e-07,0,
10,0.00186264,0.0486968,0.0317258,-8.92749e-07,0,
10,0.00220692,0.0576682,0.0317252,-2.26887e-06,0,
10,0.00256668,0.067011,0.0317256,-5.13406e-06,0,
10,0.00294431,0.0767545,0.0317251,-1.06007e-05,0,
10,0.00334229,0.0869047,0.0317254,-2.02555e-05,0,
10,0.00376326,0.0974318,0.031725,-3.60774e-05,0,
10,0.00421,0.108257,0.0317251,-6.00753e-05,0,
10,0.00468544,0.119247,0.0317246,-9.3614e-05,0,
10,0.00519274,0.13022,0.0317246,-0.000136664,0,
10,0.00573524,0.14097,0.031724,-0.000187452,0,
10,0.00631651,0.151304,0.0317237,-0.000242851,0,
10,0.00694041,0.161067,0.0317227,-0.000299313,0,
10,0.00761104,0.170159,0.0317219,-0.000353785,0,
10,0.00833284,0.178535,0.0317204,-0.000404199,0,
10,0.00911058,0.186197,0.0317189,-0.000449507,0,
10,0.0099494,0.193177,0.0317166,-0.000489476,0,
10,0.0108548,0.199527,0.031714,-0.00052441,0,
10,0.0118329,0.205309,0.0317106,-0.000554915,0,
10,0.0128901,0.210587,0.0317066,-0.000581729,0,
10,0.0140333,0.215423,0.0317016,-0.00060561,0,
10,0.0152702,0.219875,0.0316959,-0.000627278,0,
10,0.0166089,0.223995,0.031689,-0.000647383,0,
10,0.0180584,0.227831,0.031681,-0.000666499,0,
10,0.0196282,0.231423,0.0316717,-0.000685129,0,
10,0.0213288,0.234808,0.031661,-0.000703713,0,
10,0.0231714,0.238015,0.0316487,-0.000722642,0,
10,0.0251682,0.241073,0.0316347,-0.000742266,0,
10,0.0273326,0.244007,0.0316188,-0.000762908,0,
10,0.0296789,0.246837,0.0316008,-0.000784871,0,
10,0.0322227,0.249583,0.0315806,-0.000808447,0,
10,0.0349809,0.252263,0.0315579,-0.000833924,0,
10,0.0379719,0.254892,0.0315324,-0.000861589,0,
10,0.0412155,0.257486,0.0315041,-0.000891737,0,
10,0.0447333,0.260059,0.0314725,-0.000924674,0,
10,0.0485489,0.262624,0.0314376,-0.000960719,0,
10,0.0526875,0.265195,0.0313989,-0.00100021,0,
10,0.0571768,0.267785,0.0313563,-0.0010435,0,
10,0.0620466,0.270408,0.0313095,-0.00109097,0,
10,0.0673295,0.273078,0.0312581,-0.00114303,0,
10,0.0730607,0.275809,0.0312021,-0.00120011,0,
10,0.0792784,0.278616,0.031141,-0.00126268,0,
10,0.0860241,0.281517,0.0310747,-0.00133123,0,
10,0.0933428,0.284529,0.0310031,-0.0014063,0,
10,0.101283,0.287671,0.0309259,-0.00148844,0,
10,0.109899,0.290966,0.030843,-0.00157823,0,
10,0.119247,0.294437,0.0307544,-0.00167631,0,
10,0.12939,0.298113,0.0306601,-0.00178332,0,
10,0.140395,0.302023,0.0305601,-0.00189989,0,
10,0.152337,0.306205,0.0304546,-0.0020267,0,
10,0.165296,0.310698,0.0303438,-0.00216439,0,
10,0.179357,0.315548,0.030228,-0.00231355,0,
10,0.194615,0.32081,0.0301074,-0.0024747,0,
10,0.211171,0.326547,0.0299826,-0.00264825,0,
10,0.229138,0.332831,0.0298535,-0.00283442,0,
10,0.248635,0.339746,0.0297212,-0.00303314,0,
10,0.269793,0.34739,0.0295843,-0.00324398,0,
10,0.292753,0.355877,0.0294454,-0.00346597,0,
10,0.317669,0.36534,0.0292997,-0.00369597,0,
10,0.344708,0.375922,0.0291528,-0.00392917,0,
10,0.372405,0.387127,0.0290087,-0.00415532,0,
10,0.399623,0.398516,0.0288689,-0.00436315,0,
10,0.426397,0.410082,0.0287347,-0.00454833,0,
10,0.452757,0.421821,0.0286027,-0.00471244,0,
10,0.478735,0.433729,0.0284744,-0.00485367,0,
10,0.504358,0.445809,0.0283483,-0.00497075,0,
10,0.529657,0.458064,0.0282246,-0.00506435,0,
10,0.554656,0.470492,0.0280979,-0.0051341,0,
10,0.579382,0.48309,0.0279763,-0.0051797,0,
10,0.603859,0.495853,0.0278397,-0.00521306,0,
10,0.628112,0.508839,0.027731,-0.00523882,0,
10,0.652163,0.522312,0.027683,-0.00514359,0,
10,0.676035,0.53651,0.027626,-0.00501959,0,
10,0.699751,0.551331,0.0275338,-0.00486742,0,
10,0.72333,0.566499,0.0274069,-0.00468879,0,
10,0.746795,0.581731,0.0272535,-0.00448746,0,
10,0.770165,0.596811,0.0270828,-0.00426807,0,
10,0.79346,0.611606,0.0268999,-0.00403547,0,
10,0.816699,0.626022,0.026707,-0.0037945,0,
10,0.839903,0.639963,0.0265022,-0.00355539,0,
10,0.863088,0.653327,0.026285,-0.00332298,0,
10,0.886275,0.666047,0.0260577,-0.00309827,0,
10,0.909481,0.678107,0.0258221,-0.00288203,0,
10,0.932723,0.689527,0.0255793,-0.00267507,0,
10,0.956021,0.700343,0.0253293,-0.00247812,0,
10,0.97939,0.710583,0.0250722,-0.00229185,0,
10,1.00285,0.720272,0.0248074,-0.00211681,0,
10,1.02641,0.729432,0.0245356,-0.00195342,0,
10,1.0501,0.738086,0.0242559,-0.00180188,0,
10,1.07392,0.746268,0.0239714,-0.00165998,0,
10,1.0979,0.754012,0.0236806,-0.00152732,0,
10,1.12205,0.761328,0.0233805,-0.00140838,0,
10,1.14639,0.768222,0.0230727,-0.00130218,0,
10,1.17093,0.774715,0.0227567,-0.00120926,0,
10,1.19568,0.780841,0.0224332,-0.00112948,0,
10,1.22066,0.786642,0.0221022,-0.00106211,0,
10,1.24589,0.792169,0.0217645,-0.00100592,0,
10,1.27137,0.797473,0.0214195,-0.000959633,0,
10,1.29713,0.802604,0.0210692,-0.000927751,0,
10,1.32317,0.807682,0.0207136,-0.000887182,0,
10,1.34951,0.812835,0.020352,-0.000848257,0,
10,1.37616,0.818083,0.0199843,-0.000811884,0,
10,1.40313,0.823364,0.0196084,-0.000778174,0,
10,1.43043,0.828602,0.0192244,-0.000746818,0,
10,1.45807,0.833757,0.018832,-0.000717159,0,
10,1.48607,0.838835,0.0184319,-0.000688553,0,
10,1.51444,0.843861,0.0180244,-0.000660617,0,
10,1.54318,0.84885,0.0176094,-0.000633261,0,
10,1.57231,0.853794,0.0171865,-0.000606534,0,
10,1.60184,0.85867,0.0167557,-0.000580498,0,
10,1.63178,0.863449,0.0163165,-0.000555192,0,
10,1.66213,0.868106,0.0158698,-0.00053064,0,
10,1.69292,0.872621,0.0154146,-0.000506786,0,
10,1.72416,0.876992,0.0149528,-0.000483381,0,
10,1.75585,0.88125,0.014481,-0.000457264,0,
10,1.78802,0.885445,0.0140001,-0.000428808,0,
10,1.82067,0.889594,0.0135122,-0.000400844,0,
10,1.85383,0.893681,0.0130151,-0.000371707,0,
10,1.88751,0.897681,0.0125095,-0.000341553,0,
10,1.92173,0.901572,0.0119951,-0.000310759,0,
10,1.95652,0.905328,0.0114714,-0.000279768,0,
10,1.9919,0.908924,0.0109392,-0.000249068,0,
10,2.02791,0.912337,0.0103969,-0.000219217,0,
10,2.06456,0.915548,0.00984674,-0.000190446,0,
10,2.10268,0.918597,0.00927306,-0.000162332,0,
10,2.1443,0.921575,0.00865033,-0.000135238,0,
10,2.18977,0.924432,0.00797109,-0.000109289,0,
10,2.23946,0.927086,0.0072336,-8.47853e-05,0,
10,2.29376,0.929451,0.00643213,-6.25662e-05,0,
10,2.35309,0.931446,0.00556443,-4.33461e-05,0,
10,2.4179,0.932997,0.00462648,-2.7682e-05,0,
10,2.48863,0.934056,0.00361675,-1.58981e-05,0,
10,2.56575,0.934615,0.00253327,-7.96074e-06,0,
10,2.64971,0.934723,0.00137613,-3.40919e-06,0,
10,2.74098,0.934498,0.000145702,-1.39044e-06,0,
10,2.83997,0.934116,-0.00115601,-8.48034e-07,0,
10,2.94709,0.933785,-0.0025265,-8.34323e-07,0,
10,3.06269,0.933696,-0.00396198,-7.88443e-07,0,
10,3.18706,0.933966,-0.0054579,-5.84729e-07,0,
10,3.3204,0.934608,-0.00700814,-3.3603e-07,0,
10,3.46281,0.93553,-0.00860499,-1.55994e-07,0,
10,3.61427,0.936585,-0.0102386,-6.62784e-08,0,
10,3.77463,0.937633,-0.0118971,-3.33968e-08,0,
10,3.94358,0.938587,-0.0135672,-2.34794e-08,0,
10,4.12067,0.93943,-0.0152346,-2.01705e-08,0,
10,4.30525,0.940192,-0.0168847,-1.86647e-08,0,
10,4.49655,0.940918,-0.0185032,-1.806e-08,0,
10,4.6936,0.941637,-0.0200768,-1.83259e-08,0,
10,4.89531,0.942353,-0.0215933,-1.99512e-08,0,
10,5.10047,0.943051,-0.0230421,-2.43852e-08,0,
10,5.30776,0.943712,-0.0244141,-3.48665e-08,0,
10,5.51581,0.944318,-0.0257026,-5.80921e-08,0,
10,5.72323,0.944866,-0.0269027,-1.08401e-07,0,
10,5.92863,0.945381,-0.0280116,-2.20653e-07,0,
10,6.13069,0.945928,-0.0290286,-4.86346e-07,0,
10,6.32816,0.946605,-0.0299547,-1.0984e-06,0,
10,6.51991,0.947444,-0.0307928,-2.14642e-06,0,
10,6.70495,0.948221,-0.0315468,-2.3658e-06,0,
10,6.88244,0.948231,-0.0322208,3.51437e-06,0,
10,7.0517,0.94625,-0.0328192,2.63293e-05,0,
10,7.21224,0.94089,-0.0333432,7.9417e-05,0,
10,7.3637,0.931255,-0.0337982,0.000172082,0,
10,7.5059,0.917378,-0.0341889,0.000295859,0,
10,7.63878,0.899847,-0.03452,0.00040333,0,
10,7.76243,0.879758,-0.0348007,0.000522249,0,
10,7.87701,0.858878,-0.0350259,0.000643891,0,
10,7.9828,0.838671,-0.0352118,0.000754426,0,
10,8.08014,0.819855,-0.035361,0.000848706,0,
10,8.16941,0.802516,-0.0354846,0.000927155,0,
10,8.25106,0.786411,-0.0355866,0.00099291,0,
10,8.32554,0.771212,-0.0356734,0.00104921,0,
10,8.39331,0.756639,-0.0357472,0.00109834,0,
10,8.45484,0.742494,-0.0358106,0.0011416,0,
10,8.5106,0.728652,-0.0358649,0.00117963,0,
10,8.56104,0.715053,-0.0359115,0.00121269,0,
10,8.60659,0.701676,-0.0359516,0.00124089,0,
10,8.64767,0.688525,-0.0359863,0.00126433,0,
10,8.68467,0.675605,-0.0360164,0.001283,0,
10,8.71795,0.662893,-0.0360427,0.0012935,0,
10,8.74786,0.650361,-0.0360656,0.00130047,0,
10,8.77471,0.638007,-0.0360853,0.00130316,0,
10,8.79881,0.625827,-0.0361023,0.00130198,0,
10,8.8204,0.613814,-0.036117,0.00129744,0,
10,8.83975,0.601959,-0.0361296,0.00129004,0,
10,8.85708,0.59025,-0.0361405,0.00128024,0,
10,8.87259,0.578668,-0.0361498,0.00126849,0,
10,8.88646,0.567195,-0.0361577,0.00125519,0,
10,8.89886,0.555806,-0.0361645,0.00124069,0,
10,8.90995,0.544475,-0.0361702,0.00122527,0,
10,8.91986,0.533172,-0.036175,0.00120916,0,
10,8.92872,0.521865,-0.0361791,0.00119252,0,
10,8.93663,0.510518,-0.0361825,0.00117546,0,
10,8.94369,0.499093,-0.0361854,0.00115802,0,
10,8.95,0.487548,-0.0361877,0.00114015,0,
10,8.95564,0.475839,-0.0361897,0.00112179,0,
10,8.96067,0.463914,-0.0361913,0.00110278,0,
10,8.96517,0.45172,-0.0361927,0.00108289,0,
10,8.96918,0.439195,-0.0361937,0.00106178,0,
10,8.97276,0.42627,-0.0361948,0.00103903,0,
10,8.97596,0.412864,-0.0361954,0.00101408,0,
10,8.97882,0.398885,-0.0361962,0.000986207,0,
10,8.98137,0.384225,-0.0361965,0.000954484,0,
10,8.98365,0.368757,-0.0361971,0.000917697,0,
10,8.98569,0.35233,-0.0361972,0.0008744,0,
10,8.9875,0.334763,-0.0361978,0.000822612,0,
10,8.98913,0.315824,-0.0361977,0.000756974,0,
10,8.99058,0.295277,-0.0361982,0.000679447,0,
10,8.99188,0.272959,-0.036198,0.000587567,0,
10,8.99304,0.248708,-0.0361985,0.000474666,0,
10,8.99408,0.222482,-0.0361981,0.000348229,0,
10,8.99501,0.19465,-0.0361987,0.000221941,0,
10,8.99583,0.166113,-0.0361982,0.000117698,0,
10,8.99658,0.138138,-0.0361988,5.05608e-05,0,
10,8.99724,0.111845,-0.0361982,1.7452e-05,0,
10,8.99784,0.0878242,-0.0361989,4.79435e-06,0,
10,8.99837,0.0661862,-0.0361982,1.0054e-06,0,
10,8.99885,0.0467968,-0.036199,1.44014e-07,0,
10,8.99927,0.0294443,-0.0361981,1.09327e-08,0,
10,8.99966,0.0139135,-0.0361991,2.41871e-10,0,
10,0,0,0.0317264,0,0,
10,9,0,-0.036198,0,0,

0.004,0,0,-0.220297,0,-9.51606e-08,
0.00868226,0,0,-0.220294,0,-1.6805e-07,
0.014062,0,0,-0.220296,0,-2.58011e-07,
0.0201548,0,0,-0.220295,0,-6.63751e-07,
0.0269766,0,0,-0.220297,0,-1.20852e-06,
0.0345437,0,0,-0.220296,0,-1.99223e-06,
0.0428729,0,0,-0.220296,0,-2.87341e-06,
0.051981,0,0,-0.220294,0,-3.82468e-06,
0.0618853,0,0,-0.220292,0,-4.68198e-06,
0.0726036,0,0,-0.220289,0,-5.30262e-06,
0.0841536,0,0,-0.220285,0,-5.45597e-06,
0.0965535,0,0,-0.22028,0,-4.911e-06,
0.109822,0,0,-0.220274,0,-3.42519e-06,
0.123977,0,0,-0.220268,0,-8.22501e-07,
0.139037,0,0,-0.220263,0,2.96836e-06,
0.155022,0,0,-0.220261,0,7.86847e-06,
0.171949,0,0,-0.220263,0,1.36411e-05,
0.189839,0,0,-0.220272,0,1.99206e-05,
0.208709,0,0,-0.220286,0,2.62619e-05,
0.228579,0,0,-0.220308,0,3.22112e-05,
0.249467,0,0,-0.220335,0,3.73586e-05,
0.271391,0,0,-0.220366,0,4.13869e-05,
0.29437,0,0,-0.220401,0,4.4088e-05,
0.31842,0,0,-0.220435,0,4.53742e-05,
0.343559,0,0,-0.220469,0,4.52681e-05,
0.369804,0,0,-0.220499,0,4.38928e-05,
0.39717,0,0,-0.220525,0,4.14516e-05,
0.425672,0,0,-0.220545,0,3.82093e-05,
0.455324,0,0,-0.22056,0,3.44688e-05,
0.48614,0,0,-0.22057,0,3.05491e-05,
0.518132,0,0,-0.220576,0,2.67778e-05,
0.551309,0,0,-0.220578,0,2.34951e-05,
0.585683,0,0,-0.220578,0,2.10679e-05,
0.621259,0,0,-0.220575,0,1.98841e-05,
0.658046,0,0,-0.220573,0,2.02593e-05,
0.696047,0,0,-0.220576,0,2.23127e-05,
0.735265,0,0,-0.220586,0,2.58969e-05,
0.7757,0,0,-0.220609,0,3.06492e-05,
0.817352,0,0,-0.220645,0,3.61324e-05,
0.860215,0,0,-0.220697,0,4.19736e-05,
0.904285,0,0,-0.220767,0,4.79534e-05,
0.949552,0,0,-0.220856,0,5.40213e-05,
0.996004,0,0,-0.220968,0,6.02052e-05,
1.04363,0,0,-0.221109,0,6.64882e-05,
1.09241,0,0,-0.22129,0,7.26399e-05,
1.14232,0,0,-0.221523,0,7.80015e-05,
1.19335,0,0,-0.221827,0,8.14208e-05,
1.24546,0,0,-0.222223,0,8.12573e-05,
1.29863,0,0,-0.222738,0,7.54177e-05,
1.35283,0,0,-0.223393,0,6.16489e-05,
1.40802,0,0,-0.224199,0,3.81042e-05,
1.46416,0,0,-0.225155,0,3.95908e-06,
1.52121,0,0,-0.226238,0,-4.02083e-05,
1.57913,0,0,-0.227416,0,-9.25173e-05,
1.63787,0,0,-0.228653,0,-0.000150372,
1.69739,0,0,-0.229913,0,-0.000211224,
1.75761,0,0,-0.231166,0,-0.000273133,
1.81851,0,0,-0.232388,0,-0.000334948,
1.88,0,0,-0.23356,0,-0.000396164,
1.94204,0,0,-0.234667,0,-0.000456651,
2.00457,0,0,-0.235695,0,-0.000516425,
2.06751,0,0,-0.236632,0,-0.000575511,
2.13081,0,0,-0.237469,0,-0.000633898,
2.19439,0,0,-0.238195,0,-0.000691548,
2.25819,0,0,-0.238803,0,-0.000748403,
2.32214,0,0,-0.239285,0,-0.000804404,
2.38617,0,0,-0.239633,0,-0.000859495,
2.4502,0,0,-0.239841,0,-0.000913622,
2.51418,0,0,-0.239903,0,-0.000966734,
2.57803,0,0,-0.239815,0,-0.00101877,
2.64167,0,0,-0.239572,0,-0.00106967,
2.70505,0,0,-0.239169,0,-0.00111935,
2.76808,0,0,-0.238604,0,-0.00116773,
2.83072,0,0,-0.237875,0,-0.0012147,
2.89288,0,0,-0.23698,0,-0.00126019,
2.95451,0,0,-0.235921,0,-0.0013041,
3.01555,0,0,-0.234698,0,-0.00134636,
3.07594,0,0,-0.233312,0,-0.0013869,
3.13561,0,0,-0.231768,0,-0.00142562,
3.19453,0,0,-0.230067,0,-0.00146244,
3.25262,0,0,-0.228216,0,-0.00149724,
3.30985,0,0,-0.226219,0,-0.00152992,
3.36617,0,0,-0.224084,0,-0.00156037,
3.42154,0,0,-0.22182,0,-0.00158852,
3.47591,0,0,-0.219435,0,-0.0016143,
3.52925,0,0,-0.216942,0,-0.00163766,
3.58152,0,0,-0.21435,0,-0.00165859,
3.6327,0,0,-0.211671,0,-0.00167709,
3.68276,0,0,-0.20892,0,-0.00169318,
3.73167,0,0,-0.206107,0,-0.00170692,
3.77941,0,0,-0.203247,0,-0.00171837,
3.82596,0,0,-0.200352,0,-0.00172763,
3.8713,0,0,-0.197434,0,-0.00173479,
3.91543,0,0,-0.194503,0,-0.00173988,
3.95833,0,0,-0.191586,0,-0.00174328,
4,0,0,-0.188665,0,-0.00174499,
4.04167,0,0,-0.185685,0,-0.00174491,
4.08333,0,0,-0.18264,0,-0.00174328,
4.125,0,0,-0.179536,0,-0.00174008,
4.16667,0,0,-0.176376,0,-0.00173532,
4.20833,0,0,-0.173165,0,-0.00172901,
4.25,0,0,-0.169907,0,-0.00172118,
4.29167,0,0,-0.166606,0,-0.00171185,
4.33333,0,0,-0.163266,0,-0.00170106,
4.375,0,0,-0.159892,0,-0.00168885,
4.41667,0,0,-0.156488,0,-0.00167524,
4.45833,0,0,-0.153058,0,-0.00166028,
4.5,0,0,-0.149607,0,-0.001644,
4.54167,0,0,-0.146137,0,-0.00162645,
4.58333,0,0,-0.142654,0,-0.00160767,
4.625,0,0,-0.139161,0,-0.0015877,
4.66667,0,0,-0.135662,0,-0.00156658,
4.70833,0,0,-0.13216,0,-0.00154436,
4.75,0,0,-0.128659,0,-0.00152109,
4.79167,0,0,-0.125163,0,-0.00149681,
4.83333,0,0,-0.121675,0,-0.00147157,
4.875,0,0,-0.118197,0,-0.0014454,
4.91667,0,0,-0.114734,0,-0.00141836,
4.95833,0,0,-0.111287,0,-0.00139047,
5,0,0,-0.107859,0,-0.00136179,
5.04167,0,0,-0.104454,0,-0.00133236,
5.08333,0,0,-0.101074,0,-0.00130221,
5.125,0,0,-0.0977199,0,-0.00127138,
5.16667,0,0,-0.0943954,0,-0.00123992,
5.20833,0,0,-0.0911021,0,-0.00120786,
5.25,0,0,-0.0878419,0,-0.00117524,
5.29167,0,0,-0.0846168,0,-0.00114208,
5.33333,0,0,-0.0814285,0,-0.00110842,
5.375,0,0,-0.0782785,0,-0.0010743,
5.41667,0,0,-0.0751685,0,-0.00103974,
5.45833,0,0,-0.0720997,0,-0.00100477,
5.5,0,0,-0.0690736,0,-0.000969433,
5.54167,0,0,-0.0660914,0,-0.00093375,
5.58333,0,0,-0.0631542,0,-0.000897753,
5.625,0,0,-0.0602629,0,-0.000861473,
5.66667,0,0,-0.0574186,0,-0.000824937,
5.70833,0,0,-0.0546219,0,-0.000788172,
5.75,0,0,-0.0518738,0,-0.000751203,
5.79167,0,0,-0.0491748,0,-0.000714057,
5.83333,0,0,-0.0465255,0,-0.00067676,
5.875,0,0,-0.0439264,0,-0.000639338,
5.91667,0,0,-0.041378,0,-0.000601817,
5.95833,0,0,-0.0388806,0,-0.00056422,
6,0,0,-0.0364346,0,-0.000526569,
6.04167,0,0,-0.0340401,0,-0.000488887,
6.08333,0,0,-0.0316974,0,-0.000451193,
6.125,0,0,-0.0294067,0,-0.000413501,
6.16667,0,0,-0.0271683,0,-0.000375823,
6.20833,0,0,-0.0249825,0,-0.000338168,
6.25,0,0,-0.0228499,0,-0.000300545,
6.29167,0,0,-0.0207711,0,-0.000262978,
6.33333,0,0,-0.0187472,0,-0.000225519,
6.375,0,0,-0.0167794,0,-0.000188263,
6.41667,0,0,-0.0148686,0,-0.000151349,
6.45833,0,0,-0.0130145,0,-0.000114917,
6.5,0,0,-0.0112161,0,-7.90465e-05,
6.54167,0,0,-0.00947147,0,-4.37531e-05,
6.58333,0,0,-0.00777923,0,-9.01244e-06,
6.625,0,0,-0.00613793,0,2.52066e-05,
6.66667,0,0,-0.00454629,0,5.89289e-05,
6.70833,0,0,-0.00300309,0,9.21716e-05,
6.75,0,0,-0.00150723,0,0.000124947,
6.79167,0,0,-5.76374e-05,0,0.000157264,
6.83333,0,0,0.0013467,0,0.000189131,
6.875,0,0,0.00270676,0,0.000220553,
6.91667,0,0,0.00402349,0,0.000251535,
6.95833,0,0,0.00529784,0,0.000282081,
7,0,0,0.0065307,0,0.000312195,
7.04167,0,0,0.00772297,0,0.00034188,
7.08333,0,0,0.00887553,0,0.000371139,
7.125,0,0,0.00998924,0,0.000399974,
7.16667,0,0,0.0110649,0,0.000428389,
7.20833,0,0,0.0121035,0,0.000456385,
7.25,0,0,0.0131057,0,0.000483965,
7.29167,0,0,0.0140724,0,0.00051113,
7.33333,0,0,0.0150044,0,0.000537882,
7.375,0,0,0.0159024,0,0.000564224,
7.41667,0,0,0.0167673,0,0.000590157,
7.45833,0,0,0.0175999,0,0.000615684,
7.5,0,0,0.0184009,0,0.000640808,
7.54167,0,0,0.0191711,0,0.000665534,
7.58333,0,0,0.0199111,0,0.000689866,
7.625,0,0,0.0206217,0,0.000713812,
7.66667,0,0,0.0213035,0,0.00073738,
7.70833,0,0,0.0219572,0,0.00076058,
7.75,0,0,0.0225835,0,0.00078343,
7.79167,0,0,0.0231829,0,0.000805943,
7.83333,0,0,0.0237556,0,0.000828129,
7.875,0,0,0.0243018,0,0.000850039,
7.91667,0,0,0.0248318,0,0.000872157,
7.95833,0,0,0.0252834,0,0.000893096,
8,0,0,0.0258024,0,0.000913812,
8.04171,0,0,0.0263313,0,0.000935564,
8.08368,0,0,0.0267327,0,0.000957067,
8.12617,0,0,0.0271674,0,0.000976956,
8.16946,0,0,0.0275814,0,0.000996939,
8.21382,0,0,0.0279776,0,0.00101693,
8.25952,0,0,0.0283629,0,0.001037,
8.30685,0,0,0.0287375,0,0.0010573,
8.35611,0,0,0.0291018,0,0.00107794,
8.40762,0,0,0.0294564,0,0.00109901,
8.46168,0,0,0.0298007,0,0.00112058,
8.51865,0,0,0.030134,0,0.00114273,
8.57889,0,0,0.030455,0,0.00116551,
8.64276,0,0,0.0307617,0,0.00118896,
8.71067,0,0,0.0310519,0,0.00121313,
8.78306,0,0,0.0313227,0,0.00123806,
8.86037,0,0,0.0315705,0,0.00126375,
8.94309,0,0,0.0317913,0,0.00129021,
9.03174,0,0,0.0319806,0,0.00131744,
9.12689,0,0,0.0321333,0,0.00134541,
9.22912,0,0,0.0322438,0,0.0013741,
9.33908,0,0,0.0323061,0,0.00140345,
9.45746,0,0,0.0323141,0,0.00143339,
9.58501,0,0,0.0322612,0,0.00146385,
9.72253,0,0,0.0321411,0,0.00149472,
9.87088,0,0,0.0319471,0,0.0015259,
10.031,0,0,0.0316734,0,0.00155725,
10.2039,0,0,0.0313151,0,0.00158864,
10.3906,0,0,0.0308676,0,0.00161992,
10.5924,0,0,0.0303273,0,0.00165096,
10.8105,0,0,0.0296929,0,0.00168161,
11.0463,0,0,0.0289639,0,0.00171172,
11.3012,0,0,0.028142,0,0.00174114,
11.5769,0,0,0.0272318,0,0.00176977,
11.8751,0,0,0.0262389,0,0.00179749,
12.1977,0,0,0.0251722,0,0.0018242,
12.5466,0,0,0.0240421,0,0.00184985,
12.9242,0,0,0.0228614,0,0.00187437,
13.3327,0,0,0.0216448,0,0.00189776,
13.7748,0,0,0.0204077,0,0.00192,
14.2532,0,0,0.0191672,0,0.00194111,
14.7709,0,0,0.0179397,0,0.00196113,
15.3312,0,0,0.016742,0,0.00198011,
15.9377,0,0,0.0155893,0,0.00199813,
16.594,0,0,0.0144946,0,0.00201527,
17.3044,0,0,0.0134693,0,0.00203163,
18.0733,0,0,0.0125208,0,0.00204723,
18.9056,0,0,0.0116542,0,0.002062,
19.8064,0,0,0.0108702,0,0.00207595,
20.7816,0,0,0.0101659,0,0.00208929,
21.8371,0,0,0.00953478,0,0.00210233,
22.9796,0,0,0.00896599,0,0.00211536,
24.2163,0,0,0.00844595,0,0.00212847,
25.5551,0,0,0.00795875,0,0.00214166,
27.0042,0,0,0.00748695,0,0.00215506,
28.5729,0,0,0.00701187,0,0.00216878,
30.271,0,0,0.0065142,0,0.00218281,
32.1091,0,0,0.0059757,0,0.00219714,
34.0989,0,0,0.00538057,0,0.00221174,
36.2529,0,0,0.00471091,0,0.00222644,
38.5845,0,0,0.00395767,0,0.0022412,
41.1085,0,0,0.00315484,0,0.00225585,
43.8407,0,0,0.0021514,0,0.00226826,
46.7983,0,0,0.001107,0,0.00227638,
50,0,0,0.00199395,0,0.0022932,

