ad853d99f7a2dca253418943e1290715359c8bfe 
X,Z,x_velocity,cp,uw_b,cf,
1,0,0,-0.226592,0,0,
1,9,0,-0.129992,0,0,
1,8.99969,0.0154006,-0.129992,2.85733e-10,0,
1,8.99934,0.0328727,-0.129992,1.33559e-08,0,
1,8.99894,0.0527129,-0.129992,1.84235e-07,0,
1,8.99848,0.075235,-0.129992,1.3506e-06,0,
1,8.99797,0.100751,-0.129992,6.75058e-06,0,
1,8.99739,0.129459,-0.129992,2.55522e-05,0,
1,8.99672,0.161164,-0.129991,7.57042e-05,0,
1,8.99597,0.19493,-0.129991,0.000176017,0,
1,8.99512,0.229106,-0.129991,0.000324481,0,
1,8.99416,0.262036,-0.129991,0.000492583,0,
1,8.99306,0.292744,-0.129991,0.000650892,0,
1,8.99182,0.321055,-0.129991,0.000778395,0,
1,8.99041,0.347109,-0.12999,0.000883966,0,
1,8.98881,0.371066,-0.12999,0.00097116,0,
1,8.98699,0.393142,-0.129989,0.00104231,0,
1,8.98494,0.413626,-0.129989,0.00109825,0,
1,8.98261,0.432828,-0.129988,0.00114106,0,
1,8.97996,0.450989,-0.129987,0.00117693,0,
1,8.97696,0.46828,-0.129986,0.00120667,0,
1,8.97356,0.484844,-0.129984,0.00123153,0,
1,8.9697,0.500798,-0.129983,0.00125249,0,
1,8.96533,0.51624,-0.129981,0.00127025,0,
1,8.96038,0.531255,-0.129979,0.00128534,0,
1,8.95476,0.545911,-0.129977,0.00129812,0,
1,8.9484,0.560269,-0.129974,0.00130886,0,
1,8.9412,0.574377,-0.129971,0.00131772,0,
1,8.93303,0.58828,-0.129968,0.00132481,0,
1,8.92379,0.602014,-0.129965,0.00133018,0,
1,8.91333,0.615611,-0.129962,0.00133385,0,
1,8.90149,0.629099,-0.129959,0.00133578,0,
1,8.8881,0.642503,-0.129955,0.00133592,0,
1,8.87295,0.655844,-0.129952,0.0013342,0,
1,8.85584,0.669142,-0.12995,0.00133053,0,
1,8.83651,0.682416,-0.129948,0.00132479,0,
1,8.81469,0.695687,-0.129948,0.00131684,0,
1,8.79007,0.708972,-0.12995,0.00130654,0,
1,8.76232,0.722295,-0.129953,0.0012937,0,
1,8.73107,0.735681,-0.129961,0.0012781,0,
1,8.69591,0.749159,-0.129972,0.00125944,0,
1,8.6564,0.762767,-0.12999,0.0012374,0,
1,8.61206,0.776549,-0.130015,0.00121154,0,
1,8.56236,0.790563,-0.13005,0.00118151,0,
1,8.50675,0.804886,-0.130099,0.00114807,0,
1,8.44464,0.819648,-0.130164,0.00110932,0,
1,8.3754,0.835067,-0.130249,0.00105791,0,
1,8.29839,0.851403,-0.130361,0.000994713,0,
1,8.21296,0.868903,-0.130507,0.0009152,0,
1,8.11843,0.887759,-0.130692,0.000814109,0,
1,8.01417,0.907963,-0.130931,0.000688031,0,
1,7.89956,0.929069,-0.131218,0.000540523,0,
1,7.77403,0.949948,-0.131593,0.000390106,0,
1,7.63711,0.96899,-0.132042,0.000205072,0,
1,7.48842,0.983864,-0.132572,7.59295e-05,0,
1,7.32773,0.992636,-0.133209,1.81582e-05,0,
1,7.15495,0.995805,-0.13395,1.78919e-06,0,
1,6.97022,0.995854,-0.134808,2.2475e-08,0,
1,6.77388,0.995236,-0.135799,3.68135e-09,0,
1,6.56652,0.99512,-0.13694,9.71639e-09,0,
1,6.34896,0.995575,-0.138242,1.2469e-08,0,
1,6.12229,0.996302,-0.139719,1.40588e-08,0,
1,5.88784,0.997101,-0.141387,1.48984e-08,0,
1,5.64716,0.997935,-0.143257,1.58621e-08,0,
1,5.40194,0.998835,-0.14534,1.7205e-08,0,
1,5.15407,0.999829,-0.147641,1.88817e-08,0,
1,4.90545,1.00092,-0.150164,2.06817e-08,0,
1,4.65805,1.00212,-0.152906,2.2613e-08,0,
1,4.41376,1.00342,-0.155859,2.46246e-08,0,
1,4.17441,1.0048,-0.15901,2.64855e-08,0,
1,3.94163,1.0062,-0.162339,2.80355e-08,0,
1,3.7169,1.00758,-0.165819,2.98863e-08,0,
1,3.50146,1.00902,-0.169417,3.39851e-08,0,
1,3.29629,1.01081,-0.1731,4.23536e-08,0,
1,3.10217,1.01334,-0.176837,5.31665e-08,0,
1,2.91959,1.0164,-0.180598,9.64186e-08,0,
1,2.74885,1.01855,-0.184342,9.42128e-07,0,
1,2.59002,1.01737,-0.188005,-6.14956e-06,0,
1,2.44299,1.01117,-0.191524,-5.21023e-05,0,
1,2.30752,1.00011,-0.194833,-0.000149716,0,
1,2.18321,0.985663,-0.197873,-0.000285233,0,
1,2.06959,0.969399,-0.200676,-0.000401839,0,
1,1.9661,0.952594,-0.203222,-0.000503149,0,
1,1.87215,0.93618,-0.205478,-0.000597678,0,
1,1.78711,0.920668,-0.207479,-0.000680929,0,
1,1.71033,0.906214,-0.209243,-0.000752792,0,
1,1.64119,0.892787,-0.210792,-0.00081478,0,
1,1.57905,0.880275,-0.212147,-0.000869108,0,
1,1.52332,0.868546,-0.213327,-0.000917789,0,
1,1.47342,0.857491,-0.21436,-0.000963185,0,
1,1.42882,0.847026,-0.215245,-0.000999791,0,
1,1.389,0.837077,-0.215992,-0.00102368,0,
1,1.35351,0.827577,-0.216637,-0.00104601,0,
1,1.3219,0.818486,-0.217191,-0.00106623,0,
1,1.29378,0.809785,-0.217666,-0.00108398,0,
1,1.26878,0.80146,-0.218074,-0.00109929,0,
1,1.24659,0.793508,-0.218422,-0.00111247,0,
1,1.22689,0.785921,-0.218721,-0.00112362,0,
1,1.2092,0.778612,-0.218981,-0.00113168,0,
1,1.1932,0.77153,-0.219206,-0.00113737,0,
1,1.1787,0.764661,-0.219403,-0.00114135,0,
1,1.16554,0.757985,-0.219574,-0.00114455,0,
1,1.15357,0.751469,-0.219723,-0.0011489,0,
1,1.14266,0.745068,-0.219853,-0.00115775,0,
1,1.13268,0.738714,-0.219965,-0.00117538,0,
1,1.12354,0.732312,-0.220064,-0.00120771,0,
1,1.11514,0.72574,-0.220152,-0.00126192,0,
1,1.10739,0.718845,-0.220233,-0.00134596,0,
1,1.10022,0.711455,-0.22031,-0.00146773,0,
1,1.09357,0.703399,-0.220388,-0.00163382,0,
1,1.08738,0.694535,-0.220469,-0.00184801,0,
1,1.0816,0.684791,-0.220556,-0.00210983,0,
1,1.07618,0.674185,-0.220648,-0.00241381,0,
1,1.07107,0.662826,-0.220746,-0.00275002,0,
1,1.06626,0.650883,-0.22085,-0.00310602,0,
1,1.06169,0.638549,-0.220958,-0.00346918,0,
1,1.05735,0.626008,-0.221068,-0.00382861,0,
1,1.05321,0.613415,-0.221182,-0.00417601,0,
1,1.04925,0.60089,-0.221296,-0.00450578,0,
1,1.04544,0.588518,-0.221411,-0.00481456,0,
1,1.04177,0.576357,-0.221526,-0.00510069,0,
1,1.03822,0.564441,-0.22164,-0.0053637,0,
1,1.03478,0.552791,-0.221754,-0.0056039,0,
1,1.03144,0.541414,-0.221867,-0.00582204,0,
1,1.02818,0.530307,-0.221979,-0.00601916,0,
1,1.025,0.519467,-0.22209,-0.0061964,0,
1,1.02188,0.508883,-0.2222,-0.00635494,0,
1,1.01882,0.498545,-0.222309,-0.00649593,0,
1,1.01581,0.488441,-0.222417,-0.00662062,0,
1,1.01284,0.478556,-0.222523,-0.00672957,0,
1,1.00988,0.468775,-0.22263,-0.00682464,0,
1,1.00688,0.458982,-0.222739,-0.006908,0,
1,1.00384,0.449168,-0.222848,-0.00697984,0,
1,1.00076,0.439321,-0.222959,-0.00703942,0,
1,0.997615,0.429424,-0.223071,-0.00708674,0,
1,0.99441,0.419455,-0.223185,-0.00712148,0,
1,0.991131,0.409391,-0.223299,-0.00714383,0,
1,0.987768,0.399206,-0.223416,-0.00715365,0,
1,0.984308,0.38887,-0.223533,-0.0071506,0,
1,0.980739,0.378355,-0.223653,-0.00713424,0,
1,0.977045,0.367627,-0.223775,-0.00710396,0,
1,0.973211,0.35665,-0.223898,-0.00705902,0,
1,0.969219,0.345387,-0.224025,-0.0069985,0,
1,0.965047,0.333794,-0.224153,-0.0069213,0,
1,0.960675,0.321827,-0.224284,-0.0068261,0,
1,0.956077,0.309433,-0.224418,-0.00671078,0,
1,0.951224,0.296561,-0.224555,-0.00657349,0,
1,0.946088,0.283158,-0.224696,-0.00641232,0,
1,0.940633,0.269176,-0.22484,-0.00622575,0,
1,0.934823,0.25458,-0.224987,-0.00601201,0,
1,0.928616,0.23934,-0.225139,-0.00576819,0,
1,0.921967,0.223436,-0.225294,-0.00549218,0,
1,0.914826,0.20686,-0.225452,-0.0051822,0,
1,0.907141,0.189621,-0.225613,-0.004837,0,
1,0.898852,0.171756,-0.225775,-0.00445624,0,
1,0.889898,0.153337,-0.225939,-0.00404093,0,
1,0.880212,0.13449,-0.226103,-0.00359413,0,
1,0.869723,0.115413,-0.226267,-0.00312189,0,
1,0.858358,0.0964079,-0.226433,-0.00263467,0,
1,0.846039,0.0779153,-0.226601,-0.00214913,0,
1,0.83269,0.0605329,-0.226772,-0.00168925,0,
1,0.818232,0.0449692,-0.226949,-0.00128656,0,
1,0.802744,0.0319422,-0.227122,-0.000965968,0,
1,0.78635,0.0217055,-0.227298,-0.000730394,0,
1,0.768969,0.0138673,-0.227466,-0.00056927,0,
1,0.75053,0.00779151,-0.227625,-0.000466674,0,
1,0.730977,0.00285831,-0.227766,-0.000406691,0,
1,0.710271,-0.00140976,-0.227888,-0.000375501,0,
1,0.688397,-0.00533331,-0.227988,-0.000362267,0,
1,0.66536,-0.00910613,-0.228071,-0.000361163,0,
1,0.641194,-0.0128521,-0.228136,-0.000363956,0,
1,0.615961,-0.0166527,-0.228183,-0.000367103,0,
1,0.589754,-0.0205464,-0.228213,-0.000367721,0,
1,0.562692,-0.024536,-0.228224,-0.00036414,0,
1,0.534925,-0.0285971,-0.228217,-0.000355639,0,
1,0.506624,-0.0326854,-0.228188,-0.000342112,0,
1,0.477982,-0.0367444,-0.228138,-0.000323858,0,
1,0.449206,-0.0407118,-0.228066,-0.000301413,0,
1,0.420509,-0.0445238,-0.227973,-0.000275443,0,
1,0.392107,-0.0481182,-0.22786,-0.000246673,0,
1,0.364206,-0.0514364,-0.227731,-0.000215844,0,
1,0.337003,-0.0544246,-0.227589,-0.000183676,0,
1,0.310673,-0.0570341,-0.227439,-0.00015083,0,
1,0.28537,-0.0592212,-0.227285,-0.000117886,0,
1,0.26122,-0.0609468,-0.227133,-8.53378e-05,0,
1,0.238324,-0.0621761,-0.226987,-5.36051e-05,0,
1,0.21675,-0.0628776,-0.226851,-2.3048e-05,0,
1,0.196544,-0.063024,-0.22673,5.99749e-06,0,
1,0.177724,-0.0625932,-0.226626,3.31753e-05,0,
1,0.160284,-0.0615709,-0.22654,5.80731e-05,0,
1,0.144202,-0.0599545,-0.226473,8.02167e-05,0,
1,0.129436,-0.0577567,-0.226426,9.91016e-05,0,
1,0.115935,-0.0550094,-0.226396,0.00011426,0,
1,0.103636,-0.0517656,-0.226381,0.000125338,0,
1,0.0924701,-0.0480982,-0.22638,0.000132166,0,
1,0.0823633,-0.044096,-0.226388,0.000134772,0,
1,0.0732406,-0.0398573,-0.226404,0.000133399,0,
1,0.0650269,-0.0354828,-0.226424,0.000128477,0,
1,0.057648,-0.0310676,-0.226447,0.000120558,0,
1,0.0510323,-0.0266955,-0.226471,0.00011025,0,
1,0.0451115,-0.0224348,-0.226493,9.8161e-05,0,
1,0.0398209,-0.0183359,-0.226514,8.48613e-05,0,
1,0.0351001,-0.0144332,-0.226532,7.08671e-05,0,
1,0.0308929,-0.0107495,-0.226548,5.66589e-05,0,
1,0.0271475,-0.00730458,-0.226561,4.27472e-05,0,
1,0.0238164,-0.00412862,-0.22657,2.9787e-05,0,
1,0.0208562,-0.00127562,-0.226577,1.8648e-05,0,
1,0.0182274,0.00117219,-0.226582,1.02333e-05,0,
1,0.0158944,0.00312649,-0.226585,4.79635e-06,0,
1,0.0138249,0.00453696,-0.226587,1.88364e-06,0,
1,0.0119898,0.00542059,-0.226588,5.95237e-07,0,
1,0.0103632,0.00585315,-0.226589,1.25796e-07,0,
1,0.00892169,0.00593544,-0.226589,-8.02261e-09,0,
1,0.00764438,0.00576473,-0.22659,-2.92053e-08,0,
1,0.00651264,0.00542143,-0.22659,-2.19883e-08,0,
1,0.00550983,0.00496734,-0.226591,-1.23667e-08,0,
1,0.00462115,0.00444804,-0.22659,-5.93643e-09,0,
1,0.00383341,0.00389651,-0.226591,-2.51691e-09,0,
1,0.0031349,0.00333605,-0.226591,-9.4482e-10,0,
1,0.00251518,0.00278288,-0.226591,-3.08788e-10,0,
1,0.00196502,0.0022478,-0.226591,-8.46544e-11,0,
1,0.00147619,0.00173776,-0.226591,-1.81801e-11,0,
1,0.00104139,0.00125675,-0.226591,-2.69089e-12,0,
1,0.000654158,0.000806723,-0.226591,-2.1137e-13,0,
1,0.000308731,0.00038809,-0.226591,-4.83852e-15,0,

4,0,0,-0.162266,0,0,
4,9,0,-0.0995835,0,0,
4,8.99969,0.0142775,-0.0995831,2.247e-10,0,
4,8.99934,0.0304191,-0.0995834,1.04249e-08,0,
4,8.99894,0.0486866,-0.0995831,1.4235e-07,0,
4,8.9985,0.069357,-0.0995833,1.03321e-06,0,
4,8.99799,0.0927118,-0.0995831,5.12794e-06,0,
4,8.99742,0.118954,-0.0995832,1.94134e-05,0,
4,8.99677,0.147996,-0.099583,5.82424e-05,0,
4,8.99605,0.179158,-0.099583,0.000139104,0,
4,8.99522,0.211083,-0.0995828,0.00026581,0,
4,8.99429,0.242227,-0.0995828,0.000418074,0,
4,8.99324,0.271528,-0.0995824,0.000567942,0,
4,8.99205,0.298605,-0.0995822,0.000697488,0,
4,8.9907,0.323537,-0.0995817,0.000801627,0,
4,8.98919,0.346497,-0.0995813,0.000889367,0,
4,8.98747,0.367671,-0.0995805,0.000962345,0,
4,8.98553,0.38733,-0.0995798,0.00101978,0,
4,8.98334,0.405752,-0.0995788,0.00106605,0,
4,8.98087,0.423157,-0.0995776,0.00110512,0,
4,8.97807,0.439713,-0.0995762,0.00113827,0,
4,8.97491,0.455561,-0.0995746,0.00116681,0,
4,8.97134,0.470821,-0.0995727,0.00119171,0,
4,8.96731,0.485592,-0.0995704,0.00121369,0,
4,8.96276,0.499958,-0.0995678,0.00123328,0,
4,8.95762,0.513994,-0.0995649,0.00125085,0,
4,8.95182,0.527759,-0.0995615,0.00126665,0,
4,8.94526,0.541309,-0.0995576,0.00128083,0,
4,8.93787,0.554688,-0.0995532,0.00129348,0,
4,8.92952,0.567936,-0.0995483,0.00130458,0,
4,8.92011,0.581088,-0.0995429,0.00131411,0,
4,8.90949,0.594173,-0.0995368,0.00132197,0,
4,8.89751,0.607215,-0.0995303,0.00132804,0,
4,8.88402,0.620235,-0.0995233,0.00133216,0,
4,8.86881,0.633252,-0.099516,0.00133417,0,
4,8.85169,0.64628,-0.0995084,0.00133389,0,
4,8.83242,0.659332,-0.0995007,0.00133113,0,
4,8.81074,0.672421,-0.0994929,0.00132571,0,
4,8.78637,0.685559,-0.0994856,0.00131745,0,
4,8.75901,0.698758,-0.0994789,0.00130616,0,
4,8.7283,0.712033,-0.0994736,0.00129166,0,
4,8.69387,0.725403,-0.0994701,0.00127374,0,
4,8.65533,0.738893,-0.0994694,0.00125215,0,
4,8.61222,0.752534,-0.0994725,0.00122657,0,
4,8.56407,0.766368,-0.099481,0.00119658,0,
4,8.5104,0.780449,-0.0994959,0.00116185,0,
4,8.45065,0.794849,-0.0995206,0.00112376,0,
4,8.38429,0.809711,-0.0995578,0.00107823,0,
4,8.31073,0.825273,-0.0996098,0.001021,0,
4,8.22941,0.841813,-0.0996813,0.000950657,0,
4,8.13974,0.859598,-0.099775,0.000862803,0,
4,8.04115,0.878801,-0.0998934,0.000753796,0,
4,7.93313,0.899306,-0.100042,0.000623962,0,
4,7.81519,0.920404,-0.100213,0.000482511,0,
4,7.68693,0.940632,-0.100432,0.000346921,0,
4,7.54803,0.958093,-0.10068,0.00020385,0,
4,7.39831,0.970892,-0.100976,8.95883e-05,0,
4,7.23771,0.978148,-0.101336,2.7626e-05,0,
4,7.06634,0.980813,-0.10175,4.54369e-06,0,
4,6.88453,0.980953,-0.102219,1.86146e-09,0,
4,6.69275,0.980409,-0.102746,-8.81973e-08,0,
4,6.49173,0.980109,-0.103339,2.36296e-08,0,
4,6.28238,0.980204,-0.104007,2.55127e-08,0,
4,6.06579,0.980531,-0.104758,1.458e-08,0,
4,5.84328,0.980931,-0.105599,9.85527e-09,0,
4,5.61626,0.981344,-0.106535,8.6284e-09,0,
4,5.3863,0.98177,-0.10757,8.71998e-09,0,
4,5.15502,0.982225,-0.108709,9.34559e-09,0,
4,4.92406,0.982724,-0.109954,1.02521e-08,0,
4,4.69507,0.983277,-0.111305,1.13382e-08,0,
4,4.46961,0.983889,-0.112761,1.24574e-08,0,
4,4.24915,0.984542,-0.114318,1.32964e-08,0,
4,4.03501,0.985181,-0.115972,1.35793e-08,0,
4,3.82836,0.985737,-0.117713,1.35715e-08,0,
4,3.63018,0.986216,-0.119533,1.46818e-08,0,
4,3.44125,0.986798,-0.121418,1.98936e-08,0,
4,3.26217,0.987843,-0.123356,6.7554e-08,0,
4,3.09333,0.989642,-0.125333,5.92803e-07,0,
4,2.93497,0.992004,-0.127332,2.7593e-06,0,
4,2.78715,0.994068,-0.129337,5.35115e-06,0,
4,2.64979,0.994648,-0.131327,7.51032e-07,0,
4,2.52268,0.992817,-0.13328,-2.09023e-05,0,
4,2.40551,0.988257,-0.135173,-6.47923e-05,0,
4,2.29789,0.981223,-0.136984,-0.000129463,0,
4,2.19939,0.972314,-0.138696,-0.000208661,0,
4,2.10949,0.962226,-0.140299,-0.000294356,0,
4,2.02768,0.951592,-0.14179,-0.000378973,0,
4,1.95343,0.94092,-0.143167,-0.00045637,0,
4,1.88618,0.930589,-0.144432,-0.000524019,0,
4,1.82542,0.920787,-0.145594,-0.000572802,0,
4,1.77062,0.911574,-0.146656,-0.000611641,0,
4,1.72128,0.902992,-0.147618,-0.000646506,0,
4,1.67693,0.895072,-0.14849,-0.000677494,0,
4,1.63713,0.88781,-0.149277,-0.000704993,0,
4,1.60144,0.881187,-0.149987,-0.000729384,0,
4,1.56949,0.87517,-0.150627,-0.000751079,0,
4,1.54091,0.869722,-0.151201,-0.000770571,0,
4,1.51537,0.864788,-0.151717,-0.000788192,0,
4,1.49167,0.860173,-0.152196,-0.000804395,0,
4,1.46926,0.855786,-0.152649,-0.000819687,0,
4,1.44801,0.851595,-0.153088,-0.000831535,0,
4,1.42781,0.847561,-0.153514,-0.000838133,0,
4,1.40855,0.843656,-0.153918,-0.000844427,0,
4,1.39015,0.839867,-0.154308,-0.00084936,0,
4,1.37252,0.836178,-0.154683,-0.000853294,0,
4,1.3556,0.832573,-0.155045,-0.000856735,0,
4,1.3393,0.829036,-0.155394,-0.000860163,0,
4,1.32357,0.825548,-0.155733,-0.000864469,0,
4,1.30836,0.82209,-0.156062,-0.000870415,0,
4,1.29362,0.81864,-0.156383,-0.000878942,0,
4,1.2793,0.815174,-0.156695,-0.000891279,0,
4,1.26537,0.811659,-0.156999,-0.000908961,0,
4,1.25179,0.808062,-0.157297,-0.000933866,0,
4,1.23852,0.804338,-0.157588,-0.000968247,0,
4,1.22554,0.800436,-0.157874,-0.00101475,0,
4,1.21282,0.796296,-0.158154,-0.00107638,0,
4,1.20034,0.79185,-0.158428,-0.00115641,0,
4,1.18806,0.787023,-0.158698,-0.00125821,0,
4,1.17599,0.781737,-0.158962,-0.00138493,0,
4,1.16408,0.775918,-0.159221,-0.00153916,0,
4,1.15233,0.769502,-0.159474,-0.00172247,0,
4,1.14073,0.762447,-0.159722,-0.00193508,0,
4,1.12925,0.754732,-0.159965,-0.0021756,0,
4,1.11788,0.746366,-0.160203,-0.00244109,0,
4,1.10661,0.737382,-0.160436,-0.00272727,0,
4,1.09543,0.727833,-0.160665,-0.00302894,0,
4,1.08432,0.717783,-0.160889,-0.00334053,0,
4,1.07328,0.707306,-0.161109,-0.00365647,0,
4,1.0623,0.696472,-0.161325,-0.00397163,0,
4,1.05136,0.685349,-0.161536,-0.00428143,0,
4,1.04044,0.673983,-0.161744,-0.00458212,0,
4,1.0295,0.662407,-0.161949,-0.00487081,0,
4,1.01855,0.650668,-0.162151,-0.00514473,0,
4,1.00757,0.638808,-0.16235,-0.00540131,0,
4,0.996544,0.626863,-0.162545,-0.00563884,0,
4,0.98547,0.614863,-0.162737,-0.00585523,0,
4,0.974334,0.602836,-0.162926,-0.00604907,0,
4,0.963124,0.590805,-0.163113,-0.00621897,0,
4,0.951826,0.578791,-0.163295,-0.00636399,0,
4,0.940428,0.566812,-0.163479,-0.00650851,0,
4,0.928915,0.554792,-0.16363,-0.00660325,0,
4,0.917272,0.542575,-0.163738,-0.0066815,0,
4,0.905481,0.530042,-0.163841,-0.00676655,0,
4,0.893524,0.517125,-0.163941,-0.00685867,0,
4,0.881383,0.503777,-0.164042,-0.00695799,0,
4,0.869035,0.48996,-0.164147,-0.00706444,0,
4,0.856459,0.47564,-0.164255,-0.0071778,0,
4,0.843629,0.460789,-0.164367,-0.00729763,0,
4,0.830518,0.445379,-0.164482,-0.00742333,0,
4,0.817097,0.429387,-0.164601,-0.0075541,0,
4,0.803334,0.412794,-0.164723,-0.00768901,0,
4,0.789195,0.395583,-0.164846,-0.00782693,0,
4,0.774643,0.377743,-0.164972,-0.00796656,0,
4,0.759639,0.359267,-0.165098,-0.00810636,0,
4,0.744138,0.340157,-0.165225,-0.00824444,0,
4,0.728096,0.320425,-0.165353,-0.00837848,0,
4,0.711463,0.300099,-0.165483,-0.00850578,0,
4,0.694189,0.279222,-0.165614,-0.00862305,0,
4,0.676218,0.257849,-0.165747,-0.00872581,0,
4,0.657495,0.236041,-0.165881,-0.00880937,0,
4,0.637962,0.213854,-0.166016,-0.00886943,0,
4,0.617561,0.191332,-0.166147,-0.00890256,0,
4,0.596848,0.169116,-0.166265,-0.00890544,0,
4,0.576557,0.147952,-0.166367,-0.00887762,0,
4,0.556564,0.127704,-0.166453,-0.00882061,0,
4,0.536763,0.108261,-0.166525,-0.00873523,0,
4,0.517057,0.0895673,-0.166596,-0.00862174,0,
4,0.497368,0.0716524,-0.166685,-0.00848081,0,
4,0.477632,0.0546311,-0.166816,-0.00831513,0,
4,0.457804,0.0386684,-0.167002,-0.00813032,0,
4,0.437857,0.0238868,-0.167247,-0.0079373,0,
4,0.417786,0.0102228,-0.16743,-0.00774273,0,
4,0.397605,-0.00271298,-0.167372,-0.00735756,0,
4,0.377348,-0.0152408,-0.167204,-0.00701978,0,
4,0.357066,-0.02739,-0.167068,-0.00668733,0,
4,0.336828,-0.0391159,-0.166906,-0.00634774,0,
4,0.316717,-0.0503667,-0.166735,-0.00600135,0,
4,0.296825,-0.0610946,-0.166552,-0.00564907,0,
4,0.27725,-0.0712617,-0.166359,-0.00529316,0,
4,0.258095,-0.0808404,-0.166156,-0.00493625,0,
4,0.239458,-0.0898137,-0.165946,-0.00458108,0,
4,0.221432,-0.0981746,-0.165729,-0.00423043,0,
4,0.2041,-0.105926,-0.165508,-0.00388691,0,
4,0.187537,-0.113077,-0.165284,-0.00355294,0,
4,0.171798,-0.119647,-0.165058,-0.00323061,0,
4,0.156928,-0.125657,-0.164835,-0.0029217,0,
4,0.142956,-0.131133,-0.164614,-0.0026276,0,
4,0.129894,-0.136105,-0.164399,-0.00234933,0,
4,0.117744,-0.140601,-0.164191,-0.00208757,0,
4,0.106492,-0.144652,-0.163993,-0.00184266,0,
4,0.0961173,-0.148287,-0.163805,-0.00161462,0,
4,0.0865883,-0.151532,-0.163628,-0.00140325,0,
4,0.0778675,-0.154416,-0.163465,-0.00120814,0,
4,0.0699123,-0.156959,-0.163314,-0.00102868,0,
4,0.062677,-0.159185,-0.163176,-0.00086418,0,
4,0.056114,-0.161112,-0.163051,-0.00071383,0,
4,0.0501747,-0.162756,-0.162938,-0.000576784,0,
4,0.0448114,-0.164129,-0.162838,-0.000452169,0,
4,0.039977,-0.165241,-0.162749,-0.000339114,0,
4,0.0356266,-0.1661,-0.162671,-0.000236771,0,
4,0.0317171,-0.166706,-0.162602,-0.000144335,0,
4,0.0282081,-0.167057,-0.162543,-6.10633e-05,0,
4,0.0250617,-0.167147,-0.162492,1.37081e-05,0,
4,0.0222427,-0.166958,-0.162447,8.05377e-05,0,
4,0.0197189,-0.166467,-0.16241,0.000139847,0,
4,0.0174603,-0.165635,-0.162379,0.000191867,0,
4,0.0154398,-0.164409,-0.162352,0.000236557,0,
4,0.0136326,-0.162707,-0.162331,0.000273473,0,
4,0.0120162,-0.160415,-0.162313,0.000301551,0,
4,0.0105703,-0.157369,-0.162299,0.000318834,0,
4,0.00927657,-0.153341,-0.162289,0.000322216,0,
4,0.00811839,-0.148036,-0.162281,0.000307698,0,
4,0.0070809,-0.141116,-0.162276,0.000272099,0,
4,0.0061507,-0.13231,-0.162272,0.000216899,0,
4,0.00531578,-0.121598,-0.162271,0.000151729,0,
4,0.00456537,-0.109371,-0.162269,9.16062e-05,0,
4,0.00388979,-0.096332,-0.162269,4.76854e-05,0,
4,0.00328037,-0.0832012,-0.162268,2.15997e-05,0,
4,0.00272934,-0.0704766,-0.162268,8.57092e-06,0,
4,0.0022297,-0.0584062,-0.162267,2.95733e-06,0,
4,0.00177519,-0.0470676,-0.162268,8.60823e-07,0,
4,0.00136016,-0.0364497,-0.162267,1.98073e-07,0,
4,0.000979511,-0.026502,-0.162268,3.17033e-08,0,
4,0.00062865,-0.0171588,-0.162266,2.70373e-09,0,
4,0.000303409,-0.00834943,-0.162268,6.58563e-11,0,

6,0,0,-0.0223777,0,0,
6,9,0,-0.0755608,0,0,
6,8.99969,0.0135306,-0.0755604,1.87261e-10,0,
6,8.99934,0.028789,-0.0755607,8.64258e-09,0,
6,8.99895,0.0460132,-0.0755604,1.17174e-07,0,
6,8.9985,0.0654546,-0.0755606,8.44451e-07,0,
6,8.99801,0.0873718,-0.0755604,4.16865e-06,0,
6,8.99744,0.111965,-0.0755605,1.57682e-05,0,
6,8.99681,0.139204,-0.0755603,4.76527e-05,0,
6,8.99609,0.168563,-0.0755604,0.000115817,0,
6,8.99529,0.198888,-0.0755602,0.000226916,0,
6,8.99438,0.228746,-0.0755601,0.000366351,0,
6,8.99336,0.257039,-0.0755598,0.000508555,0,
6,8.9922,0.28327,-0.0755597,0.000636189,0,
6,8.9909,0.307442,-0.0755593,0.000739508,0,
6,8.98944,0.329714,-0.0755589,0.000826394,0,
6,8.98779,0.350258,-0.0755583,0.000899463,0,
6,8.98593,0.369323,-0.0755577,0.000957321,0,
6,8.98383,0.387167,-0.0755568,0.00100479,0,
6,8.98147,0.403997,-0.0755558,0.00104499,0,
6,8.97881,0.419979,-0.0755546,0.00107942,0,
6,8.97581,0.435253,-0.0755532,0.00110939,0,
6,8.97244,0.449938,-0.0755515,0.00113592,0,
6,8.96863,0.464132,-0.0755495,0.00115975,0,
6,8.96435,0.477924,-0.0755471,0.00118144,0,
6,8.95953,0.491386,-0.0755443,0.00120139,0,
6,8.95409,0.504583,-0.0755411,0.00121989,0,
6,8.94798,0.517571,-0.0755374,0.0012371,0,
6,8.94109,0.530399,-0.075533,0.00125311,0,
6,8.93334,0.543111,-0.0755281,0.00126795,0,
6,8.92463,0.555743,-0.0755223,0.00128156,0,
6,8.91482,0.568329,-0.0755159,0.00129384,0,
6,8.90379,0.580897,-0.0755085,0.00130464,0,
6,8.89139,0.593472,-0.0755002,0.00131377,0,
6,8.87746,0.606075,-0.0754912,0.00132098,0,
6,8.86181,0.618724,-0.0754811,0.00132604,0,
6,8.84423,0.631431,-0.07547,0.00132866,0,
6,8.82452,0.644208,-0.0754578,0.00132859,0,
6,8.80241,0.657064,-0.0754445,0.00132553,0,
6,8.77763,0.670008,-0.0754302,0.00131925,0,
6,8.74989,0.683047,-0.0754148,0.00130947,0,
6,8.71885,0.696189,-0.0753984,0.00129598,0,
6,8.68417,0.709447,-0.0753811,0.00127854,0,
6,8.64545,0.722836,-0.0753631,0.0012569,0,
6,8.60229,0.736378,-0.0753445,0.00123078,0,
6,8.55423,0.750104,-0.0753258,0.00119983,0,
6,8.50082,0.764053,-0.0753068,0.00116377,0,
6,8.44155,0.778284,-0.0752888,0.00112406,0,
6,8.37592,0.792916,-0.0752732,0.00107663,0,
6,8.30339,0.808156,-0.0752603,0.00102076,0,
6,8.22344,0.824273,-0.0752499,0.000953562,0,
6,8.13555,0.841573,-0.0752429,0.000871239,0,
6,8.0392,0.860305,-0.0752349,0.000770326,0,
6,7.93391,0.88046,-0.0752264,0.000650606,0,
6,7.81927,0.901446,-0.0752054,0.00051866,0,
6,7.6949,0.921884,-0.07518,0.000389627,0,
6,7.56054,0.939938,-0.0751365,0.000272823,0,
6,7.41603,0.953997,-0.0750829,0.000140548,0,
6,7.26132,0.963076,-0.0750266,5.58074e-05,0,
6,7.09653,0.967426,-0.0749528,1.42608e-05,0,
6,6.92195,0.968511,-0.0748638,8.00548e-07,0,
6,6.73802,0.968086,-0.0747523,-9.84684e-07,0,
6,6.5454,0.967388,-0.0746154,-4.56235e-07,0,
6,6.34489,0.966918,-0.0744499,-1.24024e-07,0,
6,6.1375,0.966693,-0.0742529,-3.19046e-08,0,
6,5.92439,0.966574,-0.0740205,-1.18023e-08,0,
6,5.70687,0.966453,-0.0737484,-6.8188e-09,0,
6,5.48633,0.966287,-0.0734318,-5.41098e-09,0,
6,5.26426,0.966073,-0.0730657,-5.23898e-09,0,
6,5.04218,0.96582,-0.0726451,-5.54718e-09,0,
6,4.82159,0.965542,-0.0721653,-6.02444e-09,0,
6,4.60398,0.965249,-0.0716221,-6.60778e-09,0,
6,4.39071,0.964941,-0.0710121,-7.46702e-09,0,
6,4.18307,0.964586,-0.0703329,-8.93346e-09,0,
6,3.98218,0.964122,-0.0695836,-1.12343e-08,0,
6,3.78902,0.963492,-0.0687651,-1.40284e-08,0,
6,3.60438,0.962719,-0.0678801,-1.79685e-08,0,
6,3.42888,0.961977,-0.0669331,-3.70763e-08,0,
6,3.26296,0.961555,-0.0659298,-9.17937e-08,0,
6,3.10691,0.961697,-0.0648762,-8.00331e-08,0,
6,2.96084,0.962377,-0.063779,1.83243e-07,0,
6,2.82473,0.963209,-0.062647,-5.55845e-08,0,
6,2.69844,0.963566,-0.0614921,-3.74751e-06,0,
6,2.58172,0.962833,-0.0603281,-1.5354e-05,0,
6,2.47424,0.960611,-0.05917,-3.85949e-05,0,
6,2.37559,0.956799,-0.0580318,-7.48716e-05,0,
6,2.28535,0.951542,-0.0569263,-0.000123203,0,
6,2.20301,0.945142,-0.0558638,-0.000180832,0,
6,2.1281,0.937959,-0.0548525,-0.000244058,0,
6,2.06009,0.930344,-0.0538981,-0.000308916,0,
6,1.99849,0.922609,-0.0530035,-0.000371489,0,
6,1.9428,0.915017,-0.0521721,-0.000428536,0,
6,1.89255,0.907761,-0.0513989,-0.000479545,0,
6,1.84728,0.900922,-0.0506909,-0.000519706,0,
6,1.80655,0.894498,-0.0500469,-0.000550122,0,
6,1.76996,0.888497,-0.0494529,-0.000578024,0,
6,1.73712,0.882938,-0.0489132,-0.000603551,0,
6,1.70768,0.877794,-0.0484196,-0.000627151,0,
6,1.67998,0.872835,-0.0479514,-0.000649991,0,
6,1.65329,0.867964,-0.0474937,-0.000672285,0,
6,1.62754,0.863179,-0.0470469,-0.000693988,0,
6,1.60265,0.858478,-0.0466097,-0.00071517,0,
6,1.57854,0.85386,-0.0461819,-0.000735775,0,
6,1.55515,0.849323,-0.0457625,-0.000755847,0,
6,1.53242,0.844863,-0.0453511,-0.000775408,0,
6,1.5103,0.840474,-0.0449471,-0.000794463,0,
6,1.48874,0.836146,-0.0445503,-0.000813016,0,
6,1.46769,0.831863,-0.04416,-0.000831166,0,
6,1.44712,0.827614,-0.0437751,-0.000849189,0,
6,1.42698,0.823402,-0.0433939,-0.000867596,0,
6,1.40725,0.819257,-0.0430138,-0.00088693,0,
6,1.38788,0.815226,-0.042636,-0.000907436,0,
6,1.36886,0.811339,-0.0422577,-0.000928199,0,
6,1.35015,0.807554,-0.0418944,-0.000938504,0,
6,1.33173,0.803796,-0.0415416,-0.000945186,0,
6,1.31357,0.800024,-0.0411863,-0.000956115,0,
6,1.29566,0.796223,-0.0408361,-0.000968896,0,
6,1.27797,0.792371,-0.0404874,-0.000984503,0,
6,1.26048,0.788445,-0.0401413,-0.00100417,0,
6,1.24318,0.784412,-0.0397972,-0.00102945,0,
6,1.22605,0.780237,-0.0394552,-0.0010622,0,
6,1.20907,0.775875,-0.0391149,-0.00110459,0,
6,1.19223,0.771273,-0.0387764,-0.001159,0,
6,1.17551,0.766372,-0.0384397,-0.00122797,0,
6,1.1589,0.761109,-0.0381046,-0.00131402,0,
6,1.14238,0.755418,-0.0377711,-0.00141936,0,
6,1.12595,0.749239,-0.0374393,-0.00154565,0,
6,1.10959,0.742521,-0.0371094,-0.00169367,0,
6,1.09329,0.735227,-0.036782,-0.00186306,0,
6,1.07704,0.727345,-0.0364572,-0.00205225,0,
6,1.06081,0.718874,-0.0361349,-0.00225841,0,
6,1.04459,0.709839,-0.0358156,-0.00247776,0,
6,1.02836,0.700282,-0.0354992,-0.00270575,0,
6,1.01211,0.690257,-0.0351866,-0.00293738,0,
6,0.99583,0.67983,-0.0348765,-0.0031677,0,
6,0.97951,0.669064,-0.0345725,-0.00339632,0,
6,0.963136,0.657996,-0.0342667,-0.003622,0,
6,0.946694,0.646575,-0.0339548,-0.00383054,0,
6,0.930172,0.634707,-0.0336453,-0.00404384,0,
6,0.913555,0.622326,-0.0333388,-0.00426438,0,
6,0.896829,0.609381,-0.0330369,-0.0044939,0,
6,0.879979,0.595835,-0.0327397,-0.00473373,0,
6,0.862989,0.581662,-0.0324479,-0.00498482,0,
6,0.845842,0.566858,-0.0321623,-0.00524798,0,
6,0.828521,0.551437,-0.0318837,-0.00552389,0,
6,0.811008,0.535421,-0.031614,-0.00580846,0,
6,0.793282,0.518821,-0.0313554,-0.00609881,0,
6,0.775322,0.501649,-0.0311087,-0.00639288,0,
6,0.757107,0.483921,-0.0308747,-0.0066881,0,
6,0.738612,0.465665,-0.0306543,-0.00698133,0,
6,0.719813,0.446918,-0.0304485,-0.00726893,0,
6,0.700681,0.427732,-0.0302583,-0.00754676,0,
6,0.681188,0.408167,-0.0300837,-0.00781035,0,
6,0.661304,0.388281,-0.0299227,-0.0080549,0,
6,0.640996,0.368127,-0.0297717,-0.00827533,0,
6,0.620228,0.347741,-0.0296266,-0.0084661,0,
6,0.598964,0.32717,-0.0294889,-0.00862123,0,
6,0.577166,0.306513,-0.0293729,-0.00873474,0,
6,0.554791,0.285989,-0.0293118,-0.00880255,0,
6,0.531799,0.265965,-0.0293534,-0.00882359,0,
6,0.508144,0.246873,-0.0295206,-0.00880161,0,
6,0.48378,0.22894,-0.0297826,-0.00873789,0,
6,0.459585,0.212459,-0.0297493,-0.00846287,0,
6,0.436695,0.197618,-0.0295172,-0.0081455,0,
6,0.414961,0.184046,-0.0293621,-0.00786046,0,
6,0.394252,0.171567,-0.0291849,-0.00756499,0,
6,0.374445,0.160035,-0.0290138,-0.00726667,0,
6,0.355433,0.149335,-0.0288429,-0.00696549,0,
6,0.337122,0.139367,-0.0286703,-0.00666231,0,
6,0.319433,0.130047,-0.0284946,-0.00635811,0,
6,0.3023,0.121306,-0.0283141,-0.00605365,0,
6,0.28567,0.113084,-0.0281277,-0.00574964,0,
6,0.269507,0.105334,-0.0279342,-0.00544676,0,
6,0.253785,0.098019,-0.0277328,-0.00514577,0,
6,0.238493,0.0911068,-0.027523,-0.00484752,0,
6,0.223631,0.0845732,-0.0273045,-0.00455294,0,
6,0.209207,0.0783986,-0.0270774,-0.00426307,0,
6,0.195237,0.0725671,-0.0268422,-0.00397904,0,
6,0.181744,0.0670652,-0.0265998,-0.00370198,0,
6,0.168754,0.0618811,-0.0263516,-0.00343306,0,
6,0.156292,0.0570037,-0.0260991,-0.00317337,0,
6,0.144384,0.0524224,-0.0258443,-0.00292393,0,
6,0.133052,0.0481262,-0.0255895,-0.00268564,0,
6,0.122315,0.0441039,-0.0253369,-0.00245921,0,
6,0.112183,0.0403437,-0.0250888,-0.00224519,0,
6,0.102665,0.0368332,-0.0248475,-0.00204394,0,
6,0.0937597,0.0335598,-0.024615,-0.00185562,0,
6,0.0854609,0.0305106,-0.0243931,-0.00168022,0,
6,0.077757,0.0276724,-0.0241831,-0.00151756,0,
6,0.0706309,0.025032,-0.0239861,-0.00136731,0,
6,0.0640611,0.0225765,-0.0238029,-0.00122903,0,
6,0.0580229,0.0202932,-0.0236338,-0.00110219,0,
6,0.0524888,0.0181697,-0.0234789,-0.000986175,0,
6,0.0474296,0.016194,-0.0233379,-0.000880342,0,
6,0.042815,0.0143548,-0.0232105,-0.000784015,0,
6,0.0386145,0.0126411,-0.023096,-0.000696508,0,
6,0.0347975,0.0110425,-0.0229938,-0.000617142,0,
6,0.0313344,0.00954907,-0.0229029,-0.000545253,0,
6,0.0281964,0.00815155,-0.0228226,-0.000480203,0,
6,0.0253561,0.00684104,-0.0227519,-0.000421381,0,
6,0.0227875,0.00560914,-0.0226901,-0.000368211,0,
6,0.0204662,0.00444787,-0.0226362,-0.000320153,0,
6,0.0183694,0.00334965,-0.0225898,-0.000276703,0,
6,0.016476,0.00230724,-0.0225495,-0.000237393,0,
6,0.0147664,0.00131377,-0.0225155,-0.000201788,0,
6,0.0132228,0.000362781,-0.0224862,-0.00016949,0,
6,0.0118288,-0.0005516,-0.0224622,-0.000140135,0,
6,0.0105693,-0.0014343,-0.0224416,-0.0001134,0,
6,0.00943073,-0.00228847,-0.0224258,-8.90327e-05,0,
6,0.00840063,-0.00311373,-0.0224122,-6.68984e-05,0,
6,0.00746774,-0.00390305,-0.022403,-4.70854e-05,0,
6,0.00662185,-0.00463781,-0.0223948,-3.00299e-05,0,
6,0.00585371,-0.00528278,-0.0223908,-1.65091e-05,0,
6,0.00515491,-0.00578726,-0.0223864,-7.21884e-06,0,
6,0.00451788,-0.00610009,-0.0223856,-2.05475e-06,0,
6,0.00393573,-0.00619317,-0.022383,7.52223e-08,0,
6,0.00340221,-0.00607234,-0.0223838,5.79081e-07,0,
6,0.00291168,-0.00576724,-0.0223816,4.80548e-07,0,
6,0.00245897,-0.0053147,-0.022383,2.76516e-07,0,
6,0.00203939,-0.00474809,-0.0223806,1.26547e-07,0,
6,0.00164864,-0.00409379,-0.0223826,4.6617e-08,0,
6,0.00128281,-0.00337111,-0.0223797,1.31799e-08,0,
6,0.000938257,-0.00259348,-0.0223824,2.5376e-09,0,
6,0.000611645,-0.0017696,-0.0223787,2.5533e-10,0,
6,0.000299862,-0.000904387,-0.0223823,7.10548e-12,0,

10,0.000296632,0.0082454,0.0299321,-4.62314e-11,0,
10,0.000596102,0.0165666,0.0299328,-1.71332e-09,0,
10,0.000900397,0.0250188,0.0299321,-1.74192e-08,0,
10,0.00121153,0.0336575,0.0299327,-9.36037e-08,0,
10,0.00153158,0.0425381,0.0299321,-3.50127e-07,0,
10,0.00186264,0.0517153,0.0299325,-1.04102e-06,0,
10,0.00220692,0.0612404,0.029932,-2.6427e-06,0,
10,0.00256668,0.0711566,0.0299323,-5.96845e-06,0,
10,0.00294431,0.081492,0.0299319,-1.2286e-05,0,
10,0.00334229,0.0922479,0.0299322,-2.33704e-05,0,
10,0.00376326,0.103386,0.0299317,-4.13675e-05,0,
10,0.00421,0.114814,0.0299319,-6.83372e-05,0,
10,0.00468544,0.126383,0.0299314,-0.00010549,0,
10,0.00519274,0.1379,0.0299314,-0.000152437,0,
10,0.00573524,0.149151,0.0299308,-0.000206973,0,
10,0.00631651,0.159941,0.0299305,-0.000265649,0,
10,0.00694041,0.170121,0.0299297,-0.000324797,0,
10,0.00761104,0.179598,0.0299289,-0.000381411,0,
10,0.00833284,0.188333,0.0299275,-0.000433541,0,
10,0.00911058,0.19633,0.0299261,-0.000480254,0,
10,0.0099494,0.203624,0.029924,-0.000521396,0,
10,0.0108548,0.210268,0.0299216,-0.000557317,0,
10,0.0118329,0.216325,0.0299185,-0.000588646,0,
10,0.0128901,0.221858,0.0299148,-0.000616131,0,
10,0.0140333,0.226931,0.0299102,-0.000640536,0,
10,0.0152702,0.231602,0.0299049,-0.000662586,0,
10,0.0166089,0.235925,0.0298985,-0.000682938,0,
10,0.0180584,0.239947,0.0298912,-0.000702175,0,
10,0.0196282,0.24371,0.0298825,-0.000720807,0,
10,0.0213288,0.247251,0.0298726,-0.000739281,0,
10,0.0231714,0.250603,0.0298611,-0.000757995,0,
10,0.0251682,0.253793,0.0298481,-0.000777304,0,
10,0.0273326,0.256847,0.0298333,-0.000797536,0,
10,0.0296789,0.259787,0.0298165,-0.000818994,0,
10,0.0322227,0.262633,0.0297975,-0.000841973,0,
10,0.0349809,0.265403,0.0297762,-0.00086676,0,
10,0.0379719,0.268113,0.0297524,-0.000893642,0,
10,0.0412155,0.270779,0.0297257,-0.00092291,0,
10,0.0447333,0.273416,0.0296959,-0.000954866,0,
10,0.0485489,0.276036,0.0296629,-0.000989825,0,
10,0.0526875,0.278654,0.0296263,-0.00102812,0,
10,0.0571768,0.281282,0.0295859,-0.00107009,0,
10,0.0620466,0.283933,0.0295413,-0.00111613,0,
10,0.0673295,0.286622,0.0294924,-0.00116662,0,
10,0.0730607,0.289363,0.0294388,-0.00122199,0,
10,0.0792784,0.292169,0.0293803,-0.00128271,0,
10,0.0860241,0.295056,0.0293166,-0.00134926,0,
10,0.0933428,0.298042,0.0292475,-0.00142216,0,
10,0.101283,0.301144,0.0291728,-0.00150196,0,
10,0.109899,0.304383,0.0290923,-0.00158926,0,
10,0.119247,0.307781,0.0290059,-0.00168467,0,
10,0.12939,0.311363,0.0289135,-0.00178885,0,
10,0.140395,0.315156,0.0288151,-0.00190245,0,
10,0.152337,0.319193,0.0287108,-0.00202617,0,
10,0.165296,0.323511,0.0286007,-0.00216068,0,
10,0.179357,0.32815,0.028485,-0.00230664,0,
10,0.194615,0.333158,0.0283639,-0.00246465,0,
10,0.211171,0.338591,0.0282379,-0.00263524,0,
10,0.229138,0.344511,0.0281069,-0.00281878,0,
10,0.248635,0.350994,0.027972,-0.00301545,0,
10,0.269793,0.358125,0.0278322,-0.00322512,0,
10,0.292753,0.366002,0.0276898,-0.00344721,0,
10,0.317669,0.37474,0.0275406,-0.00367926,0,
10,0.344708,0.384466,0.0273903,-0.00391749,0,
10,0.372405,0.394717,0.0272435,-0.00415109,0,
10,0.399623,0.405095,0.0271024,-0.00436878,0,
10,0.426397,0.415598,0.0269678,-0.00456697,0,
10,0.452757,0.426227,0.0268375,-0.00474746,0,
10,0.478735,0.43699,0.0267137,-0.00490769,0,
10,0.504358,0.4479,0.0265961,-0.00504621,0,
10,0.529657,0.458977,0.0264857,-0.00516243,0,
10,0.554656,0.470234,0.0263754,-0.00525655,0,
10,0.579382,0.481679,0.0262737,-0.00532806,0,
10,0.603859,0.493319,0.026156,-0.00539482,0,
10,0.628112,0.505237,0.0260803,-0.0054501,0,
10,0.652163,0.517747,0.0260792,-0.00537482,0,
10,0.676035,0.531135,0.0260645,-0.00527086,0,
10,0.699751,0.545336,0.0260118,-0.00513733,0,
10,0.72333,0.560084,0.0259199,-0.00497445,0,
10,0.746795,0.575072,0.0257985,-0.00478501,0,
10,0.770165,0.590058,0.0256576,-0.00457329,0,
10,0.79346,0.60488,0.0255039,-0.00434404,0,
10,0.816699,0.61944,0.02534,-0.004102,0,
10,0.839903,0.633654,0.0251665,-0.00385199,0,
10,0.863088,0.647417,0.0249808,-0.0036046,0,
10,0.886275,0.660618,0.0247824,-0.00336485,0,
10,0.909481,0.673183,0.0245745,-0.00313335,0,
10,0.932723,0.685096,0.0243589,-0.00291068,0,
10,0.956021,0.696382,0.0241369,-0.00269757,0,
10,0.97939,0.707077,0.0239084,-0.00249472,0,
10,1.00285,0.717212,0.0236735,-0.00230272,0,
10,1.02641,0.726812,0.0234314,-0.00212211,0,
10,1.0501,0.735897,0.0231828,-0.00195329,0,
10,1.07392,0.744491,0.0229267,-0.00179646,0,
10,1.0979,0.752627,0.0226661,-0.00164826,0,
10,1.12205,0.760329,0.022399,-0.00151178,0,
10,1.14639,0.767601,0.0221227,-0.0013892,0,
10,1.17093,0.774448,0.021839,-0.00128032,0,
10,1.19568,0.780892,0.021547,-0.00118562,0,
10,1.22066,0.786968,0.0212481,-0.00110483,0,
10,1.24589,0.792723,0.0209414,-0.00103701,0,
10,1.27137,0.798209,0.0206289,-0.000981716,0,
10,1.29713,0.80349,0.0203094,-0.00094032,0,
10,1.32317,0.808695,0.019985,-0.000893071,0,
10,1.34951,0.813948,0.0196568,-0.00084936,0,
10,1.37616,0.819259,0.0193215,-0.000809241,0,
10,1.40313,0.824567,0.0189788,-0.000772569,0,
10,1.43043,0.829811,0.0186278,-0.000738844,0,
10,1.45807,0.834962,0.0182692,-0.000707304,0,
10,1.48607,0.840034,0.0179033,-0.000677241,0,
10,1.51444,0.845049,0.0175304,-0.000648208,0,
10,1.54318,0.850021,0.0171503,-0.000620025,0,
10,1.57231,0.854943,0.0167627,-0.000592639,0,
10,1.60184,0.859796,0.0163673,-0.000566026,0,
10,1.63178,0.864556,0.0159642,-0.000540158,0,
10,1.66213,0.869202,0.0155535,-0.000515043,0,
10,1.69292,0.873713,0.0151352,-0.000490683,0,
10,1.72416,0.878076,0.0147095,-0.000467011,0,
10,1.75585,0.8823,0.014276,-0.000443634,0,
10,1.78802,0.886432,0.0138336,-0.000414678,0,
10,1.82067,0.890512,0.0133832,-0.000386987,0,
10,1.85383,0.894531,0.0129253,-0.00035866,0,
10,1.88751,0.898469,0.0124585,-0.000329344,0,
10,1.92173,0.902299,0.0119838,-0.000299347,0,
10,1.95652,0.905997,0.0114999,-0.000269092,0,
10,1.9919,0.909538,0.011008,-0.000239078,0,
10,2.02791,0.912896,0.0105064,-0.000209873,0,
10,2.06456,0.916051,0.00999728,-0.00018174,0,
10,2.10268,0.919043,0.00946584,-0.00015429,0,
10,2.1443,0.921958,0.00888875,-0.000127913,0,
10,2.18977,0.924745,0.00825881,-0.000102762,0,
10,2.23946,0.927322,0.00757431,-7.91491e-05,0,
10,2.29376,0.929605,0.00682977,-5.78936e-05,0,
10,2.35309,0.931511,0.00602297,-3.96616e-05,0,
10,2.4179,0.932972,0.00514993,-2.49444e-05,0,
10,2.48863,0.933942,0.00420901,-1.39947e-05,0,
10,2.56575,0.934421,0.00319809,-6.73222e-06,0,
10,2.64971,0.934462,0.00211693,-2.67558e-06,0,
10,2.74098,0.934185,0.000965492,-9.79775e-07,0,
10,2.83997,0.933769,-0.00025476,-6.21692e-07,0,
10,2.94709,0.933416,-0.00154194,-7.01684e-07,0,
10,3.06269,0.933313,-0.00289296,-7.04592e-07,0,
10,3.18706,0.933568,-0.00430397,-5.32854e-07,0,
10,3.3204,0.934187,-0.00576963,-3.07968e-07,0,
10,3.46281,0.935077,-0.00728302,-1.43343e-07,0,
10,3.61427,0.936092,-0.0088351,-6.131e-08,0,
10,3.77463,0.937096,-0.010415,-3.1358e-08,0,
10,3.94358,0.938006,-0.0120101,-2.23238e-08,0,
10,4.12067,0.938809,-0.0136069,-1.92968e-08,0,
10,4.30525,0.939537,-0.0151914,-1.79432e-08,0,
10,4.49655,0.940234,-0.01675,-1.74486e-08,0,
10,4.6936,0.940927,-0.0182696,-1.77924e-08,0,
10,4.89531,0.941619,-0.0197379,-1.94732e-08,0,
10,5.10047,0.942296,-0.0211443,-2.39517e-08,0,
10,5.30776,0.942938,-0.0224796,-3.44776e-08,0,
10,5.51581,0.943528,-0.0237367,-5.77686e-08,0,
10,5.72323,0.944063,-0.0249102,-1.08259e-07,0,
10,5.92863,0.944566,-0.0259969,-2.21249e-07,0,
10,6.13069,0.945105,-0.0269956,-4.89706e-07,0,
10,6.32816,0.945776,-0.0279067,-1.10877e-06,0,
10,6.51991,0.946609,-0.0287326,-2.16185e-06,0,
10,6.70495,0.947378,-0.0294769,-2.34202e-06,0,
10,6.88244,0.947369,-0.0301432,3.71398e-06,0,
10,7.0517,0.945355,-0.0307356,2.69207e-05,0,
10,7.21224,0.939949,-0.0312546,8.05838e-05,0,
10,7.3637,0.930261,-0.0317059,0.000173895,0,
10,7.5059,0.916335,-0.0320936,0.00029774,0,
10,7.63878,0.898764,-0.0324218,0.000405718,0,
10,7.76243,0.878654,-0.0327003,0.000525021,0,
10,7.87701,0.85777,-0.0329236,0.00064685,0,
10,7.9828,0.837568,-0.0331083,0.000757313,0,
10,8.08014,0.818763,-0.0332564,0.000851398,0,
10,8.16941,0.801438,-0.033379,0.000929635,0,
10,8.25106,0.785344,-0.0334802,0.000995223,0,
10,8.32554,0.770155,-0.0335661,0.00105141,0,
10,8.39331,0.755586,-0.033639,0.00110048,0,
10,8.45484,0.74144,-0.0337017,0.00114367,0,
10,8.5106,0.727596,-0.0337551,0.0011816,0,
10,8.56104,0.713994,-0.0338011,0.00121448,0,
10,8.60659,0.700619,-0.0338404,0.00124241,0,
10,8.64767,0.687477,-0.0338744,0.0012655,0,
10,8.68467,0.674576,-0.033904,0.00128384,0,
10,8.71795,0.661891,-0.0339297,0.00129362,0,
10,8.74786,0.649393,-0.0339519,0.00129993,0,
10,8.77471,0.637078,-0.0339711,0.00130198,0,
10,8.79881,0.624941,-0.0339876,0.0013002,0,
10,8.8204,0.612976,-0.0340018,0.0012951,0,
10,8.83975,0.601171,-0.034014,0.00128719,0,
10,8.85708,0.589513,-0.0340244,0.00127696,0,
10,8.87259,0.577984,-0.0340333,0.00126486,0,
10,8.88646,0.566564,-0.0340409,0.00125128,0,
10,8.89886,0.555227,-0.0340474,0.00123657,0,
10,8.90995,0.543946,-0.0340529,0.00122102,0,
10,8.91986,0.532691,-0.0340575,0.00120484,0,
10,8.92872,0.521429,-0.0340614,0.00118819,0,
10,8.93663,0.510125,-0.0340646,0.00117117,0,
10,8.94369,0.498739,-0.0340673,0.00115381,0,
10,8.95,0.48723,-0.0340695,0.00113606,0,
10,8.95564,0.475553,-0.0340713,0.00111785,0,
10,8.96067,0.463657,-0.0340728,0.00109901,0,
10,8.96517,0.451489,-0.0340741,0.00107929,0,
10,8.96918,0.438986,-0.0340751,0.00105837,0,
10,8.97276,0.42608,-0.034076,0.00103581,0,
10,8.97596,0.412691,-0.0340766,0.00101105,0,
10,8.97882,0.398725,-0.0340773,0.000983371,0,
10,8.98137,0.384076,-0.0340776,0.000951832,0,
10,8.98365,0.368615,-0.0340782,0.000915224,0,
10,8.98569,0.352194,-0.0340783,0.00087215,0,
10,8.9875,0.33463,-0.0340788,0.00082035,0,
10,8.98913,0.315687,-0.0340787,0.000754884,0,
10,8.99058,0.295137,-0.0340792,0.000677529,0,
10,8.99188,0.272818,-0.0340789,0.000585931,0,
10,8.99304,0.248568,-0.0340795,0.000473216,0,
10,8.99408,0.222347,-0.0340791,0.000347043,0,
10,8.99501,0.194524,-0.0340796,0.000221087,0,
10,8.99583,0.166002,-0.0340791,0.000117193,0,
10,8.99658,0.138047,-0.0340797,5.03267e-05,0,
10,8.99724,0.111774,-0.0340791,1.73682e-05,0,
10,8.99784,0.0877716,-0.0340798,4.77112e-06,0,
10,8.99837,0.066149,-0.0340791,1.00055e-06,0,
10,8.99885,0.0467722,-0.0340799,1.43329e-07,0,
10,8.99927,0.0294298,-0.0340791,1.08813e-08,0,
10,8.99966,0.013907,-0.0340801,2.40748e-10,0,
10,0,0,0.029933,0,0,
10,9,0,-0.034079,0,0,

0.004,0,0,-0.224845,0,-7.38766e-08,
0.00868226,0,0,-0.224842,0,-1.72147e-07,
0.014062,0,0,-0.224845,0,-2.93251e-07,
0.0201548,0,0,-0.224844,0,-6.82305e-07,
0.0269766,0,0,-0.224844,0,-1.14361e-06,
0.0345437,0,0,-0.224843,0,-1.71374e-06,
0.0428729,0,0,-0.224843,0,-2.22705e-06,
0.051981,0,0,-0.224841,0,-2.59943e-06,
0.0618853,0,0,-0.224839,0,-2.6506e-06,
0.0726036,0,0,-0.224836,0,-2.22408e-06,
0.0841536,0,0,-0.224832,0,-1.14049e-06,
0.0965535,0,0,-0.224829,0,7.36653e-07,
0.109822,0,0,-0.224826,0,3.48162e-06,
0.123977,0,0,-0.224825,0,7.07359e-06,
0.139037,0,0,-0.224827,0,1.13779e-05,
0.155022,0,0,-0.224832,0,1.61653e-05,
0.171949,0,0,-0.224842,0,2.1131e-05,
0.189839,0,0,-0.224857,0,2.59512e-05,
0.208709,0,0,-0.224876,0,3.03161e-05,
0.228579,0,0,-0.224899,0,3.39782e-05,
0.249467,0,0,-0.224925,0,3.67661e-05,
0.271391,0,0,-0.224952,0,3.86031e-05,
0.29437,0,0,-0.22498,0,3.94995e-05,
0.31842,0,0,-0.225007,0,3.95477e-05,
0.343559,0,0,-0.225033,0,3.89022e-05,
0.369804,0,0,-0.225057,0,3.77637e-05,
0.39717,0,0,-0.225079,0,3.63582e-05,
0.425672,0,0,-0.225098,0,3.49244e-05,
0.455324,0,0,-0.225117,0,3.37035e-05,
0.48614,0,0,-0.225134,0,3.29405e-05,
0.518132,0,0,-0.225153,0,3.28582e-05,
0.551309,0,0,-0.225174,0,3.36203e-05,
0.585683,0,0,-0.225199,0,3.5314e-05,
0.621259,0,0,-0.225233,0,3.79426e-05,
0.658046,0,0,-0.225277,0,4.14319e-05,
0.696047,0,0,-0.225335,0,4.56508e-05,
0.735265,0,0,-0.225411,0,5.044e-05,
0.7757,0,0,-0.225507,0,5.56345e-05,
0.817352,0,0,-0.22563,0,6.10343e-05,
0.860215,0,0,-0.225785,0,6.63222e-05,
0.904285,0,0,-0.225982,0,7.09921e-05,
0.949552,0,0,-0.226234,0,7.42351e-05,
0.996004,0,0,-0.226557,0,7.4812e-05,
1.04363,0,0,-0.226971,0,7.10816e-05,
1.09241,0,0,-0.227495,0,6.11862e-05,
1.14232,0,0,-0.228143,0,4.33762e-05,
1.19335,0,0,-0.228922,0,1.64623e-05,
1.24546,0,0,-0.229822,0,-1.97725e-05,
1.29863,0,0,-0.230824,0,-6.44297e-05,
1.35283,0,0,-0.2319,0,-0.00011574,
1.40802,0,0,-0.233022,0,-0.000171582,
1.46416,0,0,-0.234159,0,-0.000230027,
1.52121,0,0,-0.235288,0,-0.00028967,
1.57913,0,0,-0.236388,0,-0.000349687,
1.63787,0,0,-0.237441,0,-0.000409698,
1.69739,0,0,-0.238432,0,-0.000469578,
1.75761,0,0,-0.239348,0,-0.000529303,
1.81851,0,0,-0.240175,0,-0.000588857,
1.88,0,0,-0.240901,0,-0.000648204,
1.94204,0,0,-0.241514,0,-0.000707282,
2.00457,0,0,-0.242003,0,-0.000766009,
2.06751,0,0,-0.242357,0,-0.000824289,
2.13081,0,0,-0.242565,0,-0.000882013,
2.19439,0,0,-0.242617,0,-0.000939068,
2.25819,0,0,-0.242504,0,-0.000995329,
2.32214,0,0,-0.242216,0,-0.00105066,
2.38617,0,0,-0.241746,0,-0.00110492,
2.4502,0,0,-0.241087,0,-0.00115795,
2.51418,0,0,-0.240232,0,-0.00120958,
2.57803,0,0,-0.239177,0,-0.00125963,
2.64167,0,0,-0.237918,0,-0.00130791,
2.70505,0,0,-0.236453,0,-0.00135423,
2.76808,0,0,-0.234782,0,-0.00139839,
2.83072,0,0,-0.232904,0,-0.00144015,
2.89288,0,0,-0.230824,0,-0.00147931,
2.95451,0,0,-0.228546,0,-0.00151566,
3.01555,0,0,-0.226078,0,-0.00154899,
3.07594,0,0,-0.223429,0,-0.00157914,
3.13561,0,0,-0.220611,0,-0.00160598,
3.19453,0,0,-0.217639,0,-0.00162945,
3.25262,0,0,-0.214526,0,-0.00164953,
3.30985,0,0,-0.211291,0,-0.00166625,
3.36617,0,0,-0.20795,0,-0.00167969,
3.42154,0,0,-0.204521,0,-0.00168997,
3.47591,0,0,-0.201021,0,-0.00169722,
3.52925,0,0,-0.197469,0,-0.00170163,
3.58152,0,0,-0.19388,0,-0.00170335,
3.6327,0,0,-0.190271,0,-0.0017026,
3.68276,0,0,-0.186656,0,-0.00169956,
3.73167,0,0,-0.183051,0,-0.00169444,
3.77941,0,0,-0.179468,0,-0.00168743,
3.82596,0,0,-0.17592,0,-0.00167874,
3.8713,0,0,-0.172416,0,-0.00166856,
3.91543,0,0,-0.168964,0,-0.00165696,
3.95833,0,0,-0.16559,0,-0.00164443,
4,0,0,-0.162266,0,-0.00163088,
4.04167,0,0,-0.158928,0,-0.00161597,
4.08333,0,0,-0.155571,0,-0.00159991,
4.125,0,0,-0.152199,0,-0.0015827,
4.16667,0,0,-0.148814,0,-0.00156437,
4.20833,0,0,-0.145421,0,-0.00154495,
4.25,0,0,-0.142022,0,-0.00152449,
4.29167,0,0,-0.138621,0,-0.00150303,
4.33333,0,0,-0.135221,0,-0.00148062,
4.375,0,0,-0.131824,0,-0.00145729,
4.41667,0,0,-0.128433,0,-0.00143308,
4.45833,0,0,-0.125052,0,-0.00140803,
4.5,0,0,-0.121683,0,-0.00138217,
4.54167,0,0,-0.118328,0,-0.00135555,
4.58333,0,0,-0.114989,0,-0.00132821,
4.625,0,0,-0.11167,0,-0.00130017,
4.66667,0,0,-0.108371,0,-0.00127148,
4.70833,0,0,-0.105096,0,-0.00124216,
4.75,0,0,-0.101846,0,-0.00121226,
4.79167,0,0,-0.0986237,0,-0.0011818,
4.83333,0,0,-0.0954298,0,-0.00115081,
4.875,0,0,-0.0922664,0,-0.00111934,
4.91667,0,0,-0.0891351,0,-0.00108739,
4.95833,0,0,-0.0860375,0,-0.00105502,
5,0,0,-0.0829748,0,-0.00102223,
5.04167,0,0,-0.0799486,0,-0.000989063,
5.08333,0,0,-0.0769601,0,-0.000955542,
5.125,0,0,-0.0740103,0,-0.000921695,
5.16667,0,0,-0.0711006,0,-0.000887551,
5.20833,0,0,-0.0682318,0,-0.000853136,
5.25,0,0,-0.065405,0,-0.000818478,
5.29167,0,0,-0.0626209,0,-0.000783602,
5.33333,0,0,-0.0598804,0,-0.000748533,
5.375,0,0,-0.0571842,0,-0.000713295,
5.41667,0,0,-0.0545328,0,-0.000677911,
5.45833,0,0,-0.0519269,0,-0.0006424,
5.5,0,0,-0.049367,0,-0.000606784,
5.54167,0,0,-0.0468536,0,-0.000571084,
5.58333,0,0,-0.0443872,0,-0.000535322,
5.625,0,0,-0.0419681,0,-0.000499518,
5.66667,0,0,-0.0395966,0,-0.000463693,
5.70833,0,0,-0.0372732,0,-0.000427868,
5.75,0,0,-0.034998,0,-0.000392062,
5.79167,0,0,-0.0327714,0,-0.000356293,
5.83333,0,0,-0.0305936,0,-0.000320577,
5.875,0,0,-0.0284649,0,-0.000284933,
5.91667,0,0,-0.0263857,0,-0.000249385,
5.95833,0,0,-0.0243565,0,-0.000213972,
6,0,0,-0.0223779,0,-0.000178752,
6.04167,0,0,-0.0204498,0,-0.000143798,
6.08333,0,0,-0.0185721,0,-0.000109172,
6.125,0,0,-0.016744,0,-7.49122e-05,
6.16667,0,0,-0.0149646,0,-4.1027e-05,
6.20833,0,0,-0.013233,0,-7.51244e-06,
6.25,0,0,-0.0115485,0,2.56381e-05,
6.29167,0,0,-0.00991015,0,5.84286e-05,
6.33333,0,0,-0.00831731,0,9.08603e-05,
6.375,0,0,-0.0067692,0,0.000122933,
6.41667,0,0,-0.00526507,0,0.000154643,
6.45833,0,0,-0.00380421,0,0.00018599,
6.5,0,0,-0.00238586,0,0.00021697,
6.54167,0,0,-0.00100929,0,0.000247582,
6.58333,0,0,0.000326246,0,0.000277822,
6.625,0,0,0.00162148,0,0.000307691,
6.66667,0,0,0.00287715,0,0.000337187,
6.70833,0,0,0.00409398,0,0.000366308,
6.75,0,0,0.00527271,0,0.000395054,
6.79167,0,0,0.00641408,0,0.000423423,
6.83333,0,0,0.00751881,0,0.000451415,
6.875,0,0,0.00858763,0,0.000479028,
6.91667,0,0,0.00962127,0,0.000506262,
6.95833,0,0,0.0106205,0,0.000533119,
7,0,0,0.0115859,0,0.000559597,
7.04167,0,0,0.0125183,0,0.000585698,
7.08333,0,0,0.0134185,0,0.000611422,
7.125,0,0,0.014287,0,0.000636769,
7.16667,0,0,0.0151246,0,0.000661739,
7.20833,0,0,0.015932,0,0.000686334,
7.25,0,0,0.0167099,0,0.000710556,
7.29167,0,0,0.0174589,0,0.000734405,
7.33333,0,0,0.0181799,0,0.000757885,
7.375,0,0,0.0188733,0,0.000780999,
7.41667,0,0,0.0195398,0,0.000803751,
7.45833,0,0,0.0201801,0,0.000826145,
7.5,0,0,0.0207948,0,0.000848187,
7.54167,0,0,0.0213846,0,0.000869888,
7.58333,0,0,0.0219501,0,0.00089126,
7.625,0,0,0.0224919,0,0.000912312,
7.66667,0,0,0.0230104,0,0.000933053,
7.70833,0,0,0.0235062,0,0.000953487,
7.75,0,0,0.0239798,0,0.000973615,
7.79167,0,0,0.0244314,0,0.000993438,
7.83333,0,0,0.0248612,0,0.00101295,
7.875,0,0,0.025269,0,0.00103219,
7.91667,0,0,0.0256659,0,0.00105172,
7.95833,0,0,0.0259845,0,0.00107006,
8,0,0,0.0263832,0,0.00108832,
8.04171,0,0,0.0267988,0,0.0011076,
8.08368,0,0,0.0270829,0,0.00112663,
8.12617,0,0,0.0274056,0,0.00114397,
8.16946,0,0,0.0277111,0,0.00116138,
8.21382,0,0,0.0279997,0,0.00117881,
8.25952,0,0,0.0282791,0,0.00119629,
8.30685,0,0,0.0285487,0,0.00121397,
8.35611,0,0,0.0288089,0,0.00123197,
8.40762,0,0,0.0290598,0,0.00125035,
8.46168,0,0,0.0293009,0,0.00126919,
8.51865,0,0,0.0295314,0,0.00128854,
8.57889,0,0,0.02975,0,0.00130846,
8.64276,0,0,0.0299551,0,0.00132898,
8.71067,0,0,0.0301445,0,0.00135014,
8.78306,0,0,0.0303157,0,0.00137195,
8.86037,0,0,0.0304658,0,0.00139445,
8.94309,0,0,0.0305913,0,0.00141763,
9.03174,0,0,0.0306885,0,0.00144149,
9.12689,0,0,0.0307531,0,0.00146602,
9.22912,0,0,0.0307803,0,0.0014912,
9.33908,0,0,0.0307654,0,0.00151698,
9.45746,0,0,0.0307032,0,0.00154331,
9.58501,0,0,0.0305883,0,0.00157014,
9.72253,0,0,0.0304153,0,0.0015974,
9.87088,0,0,0.0301789,0,0.00162498,
10.031,0,0,0.029874,0,0.0016528,
10.2039,0,0,0.0294964,0,0.00168073,
10.3906,0,0,0.0290425,0,0.00170865,
10.5924,0,0,0.0285088,0,0.00173644,
10.8105,0,0,0.0278947,0,0.00176396,
11.0463,0,0,0.0272002,0,0.0017911,
11.3012,0,0,0.0264259,0,0.00181772,
11.5769,0,0,0.025576,0,0.00184372,
11.8751,0,0,0.0246555,0,0.00186898,
12.1977,0,0,0.0236715,0,0.00189343,
12.5466,0,0,0.0226337,0,0.00191698,
12.9242,0,0,0.0215525,0,0.00193959,
13.3327,0,0,0.0204406,0,0.0019612,
13.7748,0,0,0.0193122,0,0.00198182,
14.2532,0,0,0.0181814,0,0.00200143,
14.7709,0,0,0.0170634,0,0.00202007,
15.3312,0,0,0.0159727,0,0.00203778,
15.9377,0,0,0.0149223,0,0.0020546,
16.594,0,0,0.0139248,0,0.00207063,
17.3044,0,0,0.0129895,0,0.00208593,
18.0733,0,0,0.0121237,0,0.00210055,
18.9056,0,0,0.0113311,0,0.00211444,
19.8064,0,0,0.010612,0,0.00212753,
20.7816,0,0,0.00996409,0,0.00214002,
21.8371,0,0,0.0093806,0,0.00215226,
22.9796,0,0,0.00885168,0,0.00216446,
24.2163,0,0,0.00836417,0,0.00217673,
25.5551,0,0,0.007903,0,0.00218909,
27.0042,0,0,0.00745156,0,0.00220166,
28.5729,0,0,0.00699207,0,0.00221452,
30.271,0,0,0.00650631,0,0.00222766,
32.1091,0,0,0.00597648,0,0.00224103,
34.0989,0,0,0.005387,0,0.00225454,
36.2529,0,0,0.00472024,0,0.00226816,
38.5845,0,0,0.00396745,0,0.00228179,
41.1085,0,0,0.00316542,0,0.00229526,
43.8407,0,0,0.0021586,0,0.00230634,
46.7983,0,0,0.00111144,0,0.00231291,
50,0,0,0.0020756,0,0.00232915,

