b4358e2132791739fffaa2372429acab680500fe 
X,Z,x_velocity,cp,uw_b,cf,
1,0,0,-0.23882,0,0,
1,9,0,-0.125742,0,0,
1,8.99969,0.0153465,-0.125742,2.8322e-10,0,
1,8.99934,0.0327582,-0.125742,1.32392e-08,0,
1,8.99894,0.052531,-0.125742,1.8264e-07,0,
1,8.99848,0.0749782,-0.125742,1.33908e-06,0,
1,8.99797,0.100412,-0.125742,6.69466e-06,0,
1,8.99739,0.129031,-0.125742,2.53524e-05,0,
1,8.99672,0.160645,-0.125742,7.51712e-05,0,
1,8.99597,0.194323,-0.125742,0.000174965,0,
1,8.99512,0.228423,-0.125742,0.000322909,0,
1,8.99416,0.261288,-0.125742,0.000490681,0,
1,8.99306,0.291938,-0.125741,0.000648825,0,
1,8.99182,0.32019,-0.125741,0.000776616,0,
1,8.99041,0.346183,-0.125741,0.000882254,0,
1,8.98881,0.370081,-0.12574,0.000969597,0,
1,8.98699,0.392101,-0.12574,0.00104098,0,
1,8.98494,0.412538,-0.125739,0.00109678,0,
1,8.98261,0.431699,-0.125738,0.00114002,0,
1,8.97996,0.449821,-0.125737,0.00117625,0,
1,8.97696,0.467075,-0.125736,0.00120638,0,
1,8.97356,0.483603,-0.125734,0.00123169,0,
1,8.9697,0.499523,-0.125733,0.00125315,0,
1,8.96533,0.514934,-0.125731,0.00127146,0,
1,8.96038,0.529919,-0.125728,0.00128716,0,
1,8.95476,0.544548,-0.125726,0.00130059,0,
1,8.9484,0.55888,-0.125723,0.00131203,0,
1,8.9412,0.572966,-0.12572,0.00132165,0,
1,8.93303,0.58685,-0.125717,0.00132954,0,
1,8.92379,0.600567,-0.125714,0.00133577,0,
1,8.91333,0.61415,-0.12571,0.00134032,0,
1,8.90149,0.627627,-0.125706,0.00134319,0,
1,8.8881,0.641021,-0.125703,0.0013443,0,
1,8.87295,0.654356,-0.1257,0.00134359,0,
1,8.85584,0.667651,-0.125697,0.00134096,0,
1,8.83651,0.680923,-0.125694,0.0013363,0,
1,8.81469,0.694193,-0.125693,0.00132948,0,
1,8.79007,0.70748,-0.125694,0.00132035,0,
1,8.76232,0.720804,-0.125696,0.00130876,0,
1,8.73107,0.73419,-0.125702,0.00129449,0,
1,8.69591,0.747669,-0.125712,0.00127731,0,
1,8.6564,0.761275,-0.125728,0.00125693,0,
1,8.61206,0.775053,-0.125751,0.00123297,0,
1,8.56236,0.789059,-0.125784,0.00120504,0,
1,8.50675,0.803365,-0.125829,0.0011727,0,
1,8.44464,0.818062,-0.125889,0.00113592,0,
1,8.3754,0.833279,-0.125972,0.00109894,0,
1,8.29839,0.849306,-0.12608,0.00104085,0,
1,8.21296,0.866524,-0.126217,0.000961928,0,
1,8.11843,0.885177,-0.126396,0.000859652,0,
1,8.01417,0.905258,-0.126626,0.000730377,0,
1,7.89956,0.926314,-0.126905,0.000577675,0,
1,7.77403,0.947254,-0.127271,0.000418665,0,
1,7.63711,0.966503,-0.127712,0.000220335,0,
1,7.48842,0.981682,-0.128236,8.2759e-05,0,
1,7.32773,0.990745,-0.128862,2.03342e-05,0,
1,7.15495,0.994098,-0.129593,2.1129e-06,0,
1,6.97022,0.994211,-0.130441,3.06625e-08,0,
1,6.77388,0.993586,-0.131422,3.25554e-09,0,
1,6.56652,0.993446,-0.132552,9.80434e-09,0,
1,6.34896,0.993885,-0.133846,1.24126e-08,0,
1,6.12229,0.994606,-0.135319,1.40317e-08,0,
1,5.88784,0.995405,-0.136987,1.49292e-08,0,
1,5.64716,0.996243,-0.138866,1.59483e-08,0,
1,5.40194,0.997151,-0.140967,1.7366e-08,0,
1,5.15407,0.998157,-0.143302,1.917e-08,0,
1,4.90545,0.999273,-0.145877,2.11536e-08,0,
1,4.65805,1.0005,-0.148695,2.32992e-08,0,
1,4.41376,1.00184,-0.151753,2.55771e-08,0,
1,4.17441,1.00328,-0.155044,2.77246e-08,0,
1,3.94163,1.00476,-0.158554,2.96473e-08,0,
1,3.7169,1.00624,-0.162259,3.19398e-08,0,
1,3.50146,1.00778,-0.166133,3.66064e-08,0,
1,3.29629,1.00971,-0.170146,4.56325e-08,0,
1,3.10217,1.01238,-0.174268,5.73381e-08,0,
1,2.91959,1.01562,-0.17847,1.04678e-07,0,
1,2.74885,1.01804,-0.182708,1.13812e-06,0,
1,2.59002,1.01728,-0.186913,-3.88434e-06,0,
1,2.44299,1.01161,-0.191013,-4.39053e-05,0,
1,2.30752,1.00114,-0.194924,-0.000132652,0,
1,2.18321,0.987206,-0.198586,-0.000259132,0,
1,2.06959,0.971354,-0.202011,-0.000360118,0,
1,1.9661,0.954899,-0.205157,-0.000452666,0,
1,1.87215,0.938814,-0.207999,-0.000537527,0,
1,1.78711,0.923626,-0.210559,-0.000610853,0,
1,1.71033,0.90949,-0.212851,-0.000672923,0,
1,1.64119,0.896371,-0.214894,-0.000725612,0,
1,1.57905,0.884148,-0.216707,-0.000771378,0,
1,1.52332,0.872688,-0.218309,-0.000812495,0,
1,1.47342,0.861873,-0.219722,-0.000850925,0,
1,1.42882,0.851609,-0.220964,-0.000888331,0,
1,1.389,0.841823,-0.222055,-0.000926121,0,
1,1.35351,0.832479,-0.223022,-0.000966478,0,
1,1.3219,0.823564,-0.223849,-0.000990894,0,
1,1.29378,0.81506,-0.224544,-0.00100484,0,
1,1.26878,0.806941,-0.225156,-0.00101741,0,
1,1.24659,0.799198,-0.225683,-0.00102824,0,
1,1.22689,0.791823,-0.226141,-0.00103708,0,
1,1.2092,0.784727,-0.226541,-0.00104315,0,
1,1.1932,0.777857,-0.226894,-0.00104738,0,
1,1.1787,0.771189,-0.227205,-0.00105161,0,
1,1.16554,0.764686,-0.227479,-0.00105842,0,
1,1.15357,0.758289,-0.227721,-0.00107248,0,
1,1.14266,0.751902,-0.227934,-0.00110126,0,
1,1.13268,0.745384,-0.228123,-0.00115513,0,
1,1.12354,0.73854,-0.228296,-0.00124719,0,
1,1.11514,0.731135,-0.228457,-0.00139158,0,
1,1.10739,0.722919,-0.228615,-0.00160115,0,
1,1.10022,0.713683,-0.228774,-0.0018841,0,
1,1.09357,0.70333,-0.228936,-0.00224003,0,
1,1.08738,0.691909,-0.229103,-0.00265994,0,
1,1.0816,0.679613,-0.229275,-0.00312634,0,
1,1.07618,0.666722,-0.229451,-0.00361756,0,
1,1.07107,0.653525,-0.22963,-0.00411283,0,
1,1.06626,0.640276,-0.229809,-0.00459566,0,
1,1.06169,0.627165,-0.229989,-0.00505486,0,
1,1.05735,0.614326,-0.230168,-0.00548398,0,
1,1.05321,0.601842,-0.230346,-0.00588008,0,
1,1.04925,0.589758,-0.230521,-0.00624257,0,
1,1.04544,0.578092,-0.230693,-0.00657234,0,
1,1.04177,0.566847,-0.230863,-0.00687104,0,
1,1.03822,0.55601,-0.23103,-0.00714072,0,
1,1.03478,0.545567,-0.231195,-0.00738356,0,
1,1.03144,0.535497,-0.231357,-0.00760171,0,
1,1.02818,0.525777,-0.231516,-0.0077972,0,
1,1.025,0.516385,-0.231673,-0.00797192,0,
1,1.02188,0.5073,-0.231828,-0.0081276,0,
1,1.01882,0.498501,-0.23198,-0.00826579,0,
1,1.01581,0.489968,-0.232131,-0.00838871,0,
1,1.01284,0.481681,-0.23228,-0.00849596,0,
1,1.00988,0.473533,-0.232429,-0.00859008,0,
1,1.00688,0.465419,-0.232579,-0.00867362,0,
1,1.00384,0.457323,-0.23273,-0.0087463,0,
1,1.00076,0.449227,-0.232882,-0.00880806,0,
1,0.997615,0.441112,-0.233035,-0.00885917,0,
1,0.99441,0.432955,-0.233191,-0.0088998,0,
1,0.991131,0.424737,-0.233348,-0.00892992,0,
1,0.987768,0.416432,-0.233508,-0.00894942,0,
1,0.984308,0.408015,-0.23367,-0.00895804,0,
1,0.980739,0.399459,-0.233836,-0.00895542,0,
1,0.977045,0.390735,-0.234005,-0.00894107,0,
1,0.973211,0.38181,-0.234177,-0.00891433,0,
1,0.969219,0.37265,-0.234355,-0.00887437,0,
1,0.965047,0.363216,-0.234536,-0.0088202,0,
1,0.960675,0.353468,-0.234723,-0.00875057,0,
1,0.956077,0.343358,-0.234916,-0.008664,0,
1,0.951224,0.332838,-0.235116,-0.00855874,0,
1,0.946088,0.321851,-0.235322,-0.00843245,0,
1,0.940633,0.310336,-0.235536,-0.00828239,0,
1,0.934823,0.298229,-0.235757,-0.00810595,0,
1,0.928616,0.285465,-0.235988,-0.00789991,0,
1,0.921967,0.271981,-0.236228,-0.00766066,0,
1,0.914826,0.257721,-0.236479,-0.0073844,0,
1,0.907141,0.242646,-0.236741,-0.00706917,0,
1,0.898852,0.22674,-0.237012,-0.00671238,0,
1,0.889898,0.210014,-0.237295,-0.00631113,0,
1,0.880212,0.192508,-0.237588,-0.00586465,0,
1,0.869723,0.174302,-0.237891,-0.00537415,0,
1,0.858358,0.155535,-0.238204,-0.00484381,0,
1,0.846039,0.136417,-0.238526,-0.00428188,0,
1,0.83269,0.117253,-0.238856,-0.00370169,0,
1,0.818232,0.0984519,-0.239194,-0.00312666,0,
1,0.802744,0.080671,-0.239525,-0.00258756,0,
1,0.78635,0.0645368,-0.239851,-0.0021105,0,
1,0.768969,0.0503295,-0.240154,-0.00171622,0,
1,0.75053,0.0381351,-0.24043,-0.00141271,0,
1,0.730977,0.0277982,-0.240665,-0.00119512,0,
1,0.710271,0.018975,-0.240856,-0.00105001,0,
1,0.688397,0.0112535,-0.240994,-0.000960524,0,
1,0.66536,0.00426248,-0.241086,-0.000908873,0,
1,0.641194,-0.0022596,-0.241126,-0.000886256,0,
1,0.615961,-0.00847909,-0.241124,-0.000880608,0,
1,0.589754,-0.0145377,-0.241095,-0.000876512,0,
1,0.562692,-0.0205367,-0.241039,-0.000869762,0,
1,0.534925,-0.0265134,-0.240963,-0.000856844,0,
1,0.506624,-0.0324583,-0.240865,-0.00083612,0,
1,0.477982,-0.0383343,-0.240748,-0.000807261,0,
1,0.449206,-0.0440906,-0.240613,-0.000770754,0,
1,0.420509,-0.0496722,-0.240461,-0.00072751,0,
1,0.392107,-0.0550256,-0.240295,-0.000678639,0,
1,0.364206,-0.0601021,-0.24012,-0.000625335,0,
1,0.337003,-0.0648598,-0.239939,-0.000568809,0,
1,0.310673,-0.0692647,-0.239757,-0.000510248,0,
1,0.28537,-0.0732904,-0.239578,-0.000450773,0,
1,0.26122,-0.0769185,-0.239407,-0.000391411,0,
1,0.238324,-0.080138,-0.239247,-0.000333068,0,
1,0.21675,-0.0829438,-0.239101,-0.000276511,0,
1,0.196544,-0.0853364,-0.238971,-0.000222353,0,
1,0.177724,-0.0873205,-0.238859,-0.00017108,0,
1,0.160284,-0.0889035,-0.238764,-0.00012305,0,
1,0.144202,-0.0900947,-0.238688,-7.8501e-05,0,
1,0.129436,-0.0909045,-0.238629,-3.75723e-05,0,
1,0.115935,-0.0913429,-0.238585,-3.24783e-07,0,
1,0.103636,-0.0914193,-0.238556,3.32345e-05,0,
1,0.0924701,-0.0911414,-0.238539,6.31329e-05,0,
1,0.0823633,-0.0905148,-0.238534,8.94125e-05,0,
1,0.0732406,-0.0895426,-0.238538,0.000112109,0,
1,0.0650269,-0.0882252,-0.238549,0.00013124,0,
1,0.057648,-0.0865597,-0.238565,0.0001468,0,
1,0.0510323,-0.0845403,-0.238586,0.000158753,0,
1,0.0451115,-0.0821581,-0.23861,0.000167034,0,
1,0.0398209,-0.0794014,-0.238635,0.000171557,0,
1,0.0351001,-0.0762559,-0.23866,0.00017221,0,
1,0.0308929,-0.0727049,-0.238685,0.000168886,0,
1,0.0271475,-0.0687309,-0.238708,0.000161493,0,
1,0.0238164,-0.0643176,-0.23873,0.000149978,0,
1,0.0208562,-0.0594546,-0.238749,0.000134381,0,
1,0.0182274,-0.0541458,-0.238766,0.000114954,0,
1,0.0158944,-0.0484266,-0.238778,9.2409e-05,0,
1,0.0138249,-0.0423909,-0.23879,6.83175e-05,0,
1,0.0119898,-0.0362213,-0.238796,4.53251e-05,0,
1,0.0103632,-0.0301929,-0.238802,2.64727e-05,0,
1,0.00892169,-0.024614,-0.238805,1.35534e-05,0,
1,0.00764438,-0.0197189,-0.238809,6.15947e-06,0,
1,0.00651264,-0.0156005,-0.238809,2.53733e-06,0,
1,0.00550983,-0.0122283,-0.238812,9.64569e-07,0,
1,0.00462115,-0.00950705,-0.238811,3.41208e-07,0,
1,0.00383341,-0.00732535,-0.238814,1.12004e-07,0,
1,0.0031349,-0.00557988,-0.238813,3.3657e-08,0,
1,0.00251518,-0.00418313,-0.238816,9.0235e-09,0,
1,0.00196502,-0.00306392,-0.238814,2.06787e-09,0,
1,0.00147619,-0.00216525,-0.238817,3.76796e-10,0,
1,0.00104139,-0.00144185,-0.238814,4.78973e-11,0,
1,0.000654158,-0.000857846,-0.238819,3.26378e-12,0,
1,0.000308731,-0.000384868,-0.238814,6.53737e-14,0,

4,0,0,-0.120348,0,0,
4,9,0,-0.0944331,0,0,
4,8.99969,0.0142357,-0.0944328,2.22772e-10,0,
4,8.99934,0.0303302,-0.094433,1.03356e-08,0,
4,8.99894,0.0485446,-0.0944327,1.41134e-07,0,
4,8.9985,0.0691553,-0.0944329,1.02444e-06,0,
4,8.99799,0.0924433,-0.0944327,5.08517e-06,0,
4,8.99742,0.118612,-0.0944328,1.92577e-05,0,
4,8.99677,0.147577,-0.0944326,5.78108e-05,0,
4,8.99605,0.178663,-0.0944327,0.000138199,0,
4,8.99522,0.210519,-0.0944325,0.000264358,0,
4,8.99429,0.241603,-0.0944324,0.000416196,0,
4,8.99324,0.27085,-0.0944321,0.00056579,0,
4,8.99205,0.297873,-0.0944319,0.000695448,0,
4,8.9907,0.322748,-0.0944314,0.00079954,0,
4,8.98919,0.34565,-0.0944309,0.000887308,0,
4,8.98747,0.366766,-0.0944302,0.000960393,0,
4,8.98553,0.386372,-0.0944295,0.00101759,0,
4,8.98334,0.404745,-0.0944285,0.00106413,0,
4,8.98087,0.422099,-0.0944274,0.00110342,0,
4,8.97807,0.438603,-0.094426,0.00113685,0,
4,8.97491,0.454399,-0.0944244,0.00116572,0,
4,8.97134,0.469605,-0.0944224,0.00119101,0,
4,8.96731,0.484322,-0.0944202,0.00121346,0,
4,8.96276,0.498634,-0.0944175,0.0012336,0,
4,8.95762,0.512614,-0.0944145,0.0012518,0,
4,8.95182,0.526325,-0.094411,0.00126832,0,
4,8.94526,0.53982,-0.0944069,0.00128331,0,
4,8.93787,0.553146,-0.0944024,0.00129686,0,
4,8.92952,0.566343,-0.0943975,0.00130898,0,
4,8.92011,0.579446,-0.094392,0.00131961,0,
4,8.90949,0.592483,-0.0943859,0.00132867,0,
4,8.89751,0.605481,-0.0943792,0.00133603,0,
4,8.88402,0.618461,-0.0943719,0.00134154,0,
4,8.86881,0.631442,-0.094364,0.00134502,0,
4,8.85169,0.644439,-0.0943556,0.00134627,0,
4,8.83242,0.657465,-0.0943469,0.00134512,0,
4,8.81074,0.670533,-0.0943379,0.00134137,0,
4,8.78637,0.683654,-0.0943289,0.00133484,0,
4,8.75901,0.696841,-0.0943202,0.00132535,0,
4,8.7283,0.710109,-0.0943122,0.00131272,0,
4,8.69387,0.723477,-0.0943055,0.00129677,0,
4,8.65533,0.736967,-0.0943006,0.0012773,0,
4,8.61222,0.750611,-0.0942986,0.00125404,0,
4,8.56407,0.76445,-0.0943005,0.00122666,0,
4,8.5104,0.778533,-0.0943074,0.00119465,0,
4,8.45065,0.792923,-0.0943214,0.00115741,0,
4,8.38429,0.807698,-0.0943435,0.00111581,0,
4,8.31073,0.822988,-0.0943794,0.00107169,0,
4,8.22941,0.839106,-0.0944318,0.00100749,0,
4,8.13974,0.856477,-0.094502,0.000919776,0,
4,8.04115,0.875368,-0.0945939,0.000808649,0,
4,7.93313,0.895679,-0.0947091,0.000674079,0,
4,7.81519,0.916724,-0.0948406,0.000524952,0,
4,7.68693,0.937084,-0.0950087,0.000379416,0,
4,7.54803,0.954862,-0.0951957,0.000222293,0,
4,7.39831,0.968043,-0.0954177,9.87909e-05,0,
4,7.23771,0.975607,-0.0956892,3.08901e-05,0,
4,7.06634,0.978437,-0.0960001,5.10983e-06,0,
4,6.88453,0.978607,-0.0963506,-9.6408e-08,0,
4,6.69275,0.978008,-0.0967402,-1.70535e-07,0,
4,6.49173,0.97762,-0.0971746,-2.20159e-09,0,
4,6.28238,0.97762,-0.0976603,1.79171e-08,0,
4,6.06579,0.977847,-0.0982025,1.10754e-08,0,
4,5.84328,0.97814,-0.0988047,7.16754e-09,0,
4,5.61626,0.978431,-0.0994692,5.95723e-09,0,
4,5.3863,0.978719,-0.100198,5.80568e-09,0,
4,5.15502,0.979018,-0.10099,6.09169e-09,0,
4,4.92406,0.979341,-0.101846,6.60567e-09,0,
4,4.69507,0.979698,-0.102762,7.23552e-09,0,
4,4.46961,0.980091,-0.103735,7.83163e-09,0,
4,4.24915,0.980504,-0.104759,8.07865e-09,0,
4,4.03501,0.980882,-0.105827,7.70497e-09,0,
4,3.82836,0.981157,-0.10693,6.93485e-09,0,
4,3.63018,0.981327,-0.108059,7.06288e-09,0,
4,3.44125,0.981559,-0.109202,1.06535e-08,0,
4,3.26217,0.982198,-0.110349,4.02073e-08,0,
4,3.09333,0.983543,-0.111488,3.70737e-07,0,
4,2.93497,0.985462,-0.112608,1.78754e-06,0,
4,2.78715,0.987188,-0.113697,3.26472e-06,0,
4,2.64979,0.987606,-0.114743,-1.6616e-06,0,
4,2.52268,0.985789,-0.115739,-2.20983e-05,0,
4,2.40551,0.981356,-0.116672,-6.3541e-05,0,
4,2.29789,0.974483,-0.117535,-0.000125539,0,
4,2.19939,0.965698,-0.118323,-0.000203077,0,
4,2.10949,0.955665,-0.119033,-0.000288676,0,
4,2.02768,0.945028,-0.11967,-0.000374017,0,
4,1.95343,0.934336,-0.120235,-0.000452499,0,
4,1.88618,0.923965,-0.12074,-0.000520844,0,
4,1.82542,0.914069,-0.121193,-0.000564885,0,
4,1.77062,0.904705,-0.121588,-0.000604809,0,
4,1.72128,0.895945,-0.121935,-0.000640781,0,
4,1.67693,0.887828,-0.122238,-0.00067306,0,
4,1.63713,0.880365,-0.122504,-0.000701843,0,
4,1.60144,0.873542,-0.122736,-0.000727514,0,
4,1.56949,0.867333,-0.12294,-0.000750487,0,
4,1.54091,0.861699,-0.123118,-0.000771211,0,
4,1.51537,0.856581,-0.123275,-0.000790215,0,
4,1.49167,0.851772,-0.123417,-0.000808183,0,
4,1.46926,0.847184,-0.123547,-0.000825421,0,
4,1.44801,0.842813,-0.123667,-0.000841926,0,
4,1.42781,0.83866,-0.123776,-0.000857822,0,
4,1.40855,0.834716,-0.12388,-0.000873133,0,
4,1.39015,0.830932,-0.123988,-0.000878529,0,
4,1.37252,0.827256,-0.124096,-0.00088344,0,
4,1.3556,0.823662,-0.124197,-0.000888963,0,
4,1.3393,0.820134,-0.124294,-0.000894514,0,
4,1.32357,0.816652,-0.124387,-0.000901227,0,
4,1.30836,0.813198,-0.124476,-0.000909908,0,
4,1.29362,0.809747,-0.124562,-0.000921697,0,
4,1.2793,0.806272,-0.124645,-0.000937986,0,
4,1.26537,0.802741,-0.124725,-0.000960463,0,
4,1.25179,0.799117,-0.124803,-0.000991125,0,
4,1.23852,0.795355,-0.124879,-0.00103229,0,
4,1.22554,0.791405,-0.124952,-0.00108655,0,
4,1.21282,0.787209,-0.125023,-0.00115674,0,
4,1.20034,0.782704,-0.125092,-0.00124575,0,
4,1.18806,0.777826,-0.125158,-0.00135632,0,
4,1.17599,0.772512,-0.125221,-0.00149074,0,
4,1.16408,0.766709,-0.125282,-0.00165053,0,
4,1.15233,0.760376,-0.12534,-0.00183614,0,
4,1.14073,0.753495,-0.125395,-0.0020467,0,
4,1.12925,0.746068,-0.125447,-0.00228005,0,
4,1.11788,0.738116,-0.125497,-0.00253283,0,
4,1.10661,0.72968,-0.125545,-0.00280083,0,
4,1.09543,0.720812,-0.125592,-0.00307938,0,
4,1.08432,0.71157,-0.125636,-0.00336369,0,
4,1.07328,0.702015,-0.12568,-0.00364915,0,
4,1.0623,0.692206,-0.125722,-0.00393162,0,
4,1.05136,0.682196,-0.125763,-0.00420742,0,
4,1.04044,0.67202,-0.125803,-0.00447359,0,
4,1.0295,0.661704,-0.125842,-0.00472786,0,
4,1.01855,0.651284,-0.125881,-0.00496797,0,
4,1.00757,0.640795,-0.125919,-0.00519184,0,
4,0.996544,0.630265,-0.125956,-0.00539793,0,
4,0.98547,0.619719,-0.125993,-0.0056035,0,
4,0.974334,0.60911,-0.126015,-0.00577413,0,
4,0.963124,0.598323,-0.126016,-0.00593106,0,
4,0.951826,0.58727,-0.126013,-0.00609319,0,
4,0.940428,0.575896,-0.126007,-0.00626085,0,
4,0.928915,0.564163,-0.126002,-0.00643492,0,
4,0.917272,0.552039,-0.125998,-0.00661605,0,
4,0.905481,0.539494,-0.125996,-0.00680472,0,
4,0.893524,0.526502,-0.125995,-0.00700122,0,
4,0.881383,0.513037,-0.125997,-0.00720567,0,
4,0.869035,0.499074,-0.126,-0.00741799,0,
4,0.856459,0.484588,-0.126007,-0.0076379,0,
4,0.843629,0.469555,-0.126016,-0.00786485,0,
4,0.830518,0.453953,-0.126028,-0.008098,0,
4,0.817097,0.437765,-0.126044,-0.00833615,0,
4,0.803334,0.420979,-0.126063,-0.00857766,0,
4,0.789195,0.403594,-0.126087,-0.00882041,0,
4,0.774643,0.385622,-0.126115,-0.00906168,0,
4,0.759639,0.367097,-0.126147,-0.00929812,0,
4,0.744138,0.348072,-0.126184,-0.00952575,0,
4,0.728096,0.328621,-0.126227,-0.00974001,0,
4,0.711463,0.308826,-0.126274,-0.00993501,0,
4,0.694189,0.28877,-0.126324,-0.0101045,0,
4,0.676218,0.268524,-0.126378,-0.0102434,0,
4,0.657495,0.248143,-0.126433,-0.0103476,0,
4,0.637962,0.227663,-0.126488,-0.0104142,0,
4,0.617561,0.207089,-0.126537,-0.0104411,0,
4,0.596848,0.186968,-0.126573,-0.0104263,0,
4,0.576557,0.167926,-0.126593,-0.0103718,0,
4,0.556564,0.149784,-0.126597,-0.0102804,0,
4,0.536763,0.132412,-0.126593,-0.0101533,0,
4,0.517057,0.115767,-0.126606,-0.00999204,0,
4,0.497368,0.0999345,-0.126679,-0.00980023,0,
4,0.477632,0.0851126,-0.126869,-0.00958604,0,
4,0.457804,0.0715225,-0.127203,-0.00936273,0,
4,0.437857,0.059228,-0.12763,-0.00914542,0,
4,0.417786,0.0479398,-0.127703,-0.00882007,0,
4,0.397605,0.037151,-0.127444,-0.00832162,0,
4,0.377348,0.0265968,-0.127214,-0.00793083,0,
4,0.357066,0.0163121,-0.126981,-0.00753301,0,
4,0.336828,0.0063419,-0.12673,-0.00712926,0,
4,0.316717,-0.00327431,-0.126471,-0.00672041,0,
4,0.296825,-0.0125085,-0.126202,-0.00630567,0,
4,0.27725,-0.0213383,-0.125924,-0.0058909,0,
4,0.258095,-0.0297382,-0.125635,-0.00548078,0,
4,0.239458,-0.0376832,-0.125338,-0.00507735,0,
4,0.221432,-0.0451547,-0.125035,-0.00468264,0,
4,0.2041,-0.0521431,-0.124728,-0.00429899,0,
4,0.187537,-0.0586473,-0.124418,-0.00392865,0,
4,0.171798,-0.0646736,-0.124109,-0.00357359,0,
4,0.156928,-0.0702342,-0.123803,-0.00323545,0,
4,0.142956,-0.0753459,-0.123502,-0.00291543,0,
4,0.129894,-0.0800286,-0.12321,-0.00261437,0,
4,0.117744,-0.0843044,-0.122929,-0.00233271,0,
4,0.106492,-0.0881963,-0.122662,-0.00207055,0,
4,0.0961173,-0.0917272,-0.122409,-0.00182769,0,
4,0.0865883,-0.0949202,-0.122173,-0.00160366,0,
4,0.0778675,-0.0977969,-0.121955,-0.0013978,0,
4,0.0699123,-0.100378,-0.121754,-0.00120929,0,
4,0.062677,-0.102683,-0.12157,-0.00103721,0,
4,0.056114,-0.104728,-0.121405,-0.000880549,0,
4,0.0501747,-0.106529,-0.121256,-0.000738276,0,
4,0.0448114,-0.1081,-0.121123,-0.000609352,0,
4,0.039977,-0.109452,-0.121006,-0.000492751,0,
4,0.0356266,-0.110594,-0.120902,-0.000387485,0,
4,0.0317171,-0.111533,-0.120811,-0.000292616,0,
4,0.0282081,-0.112271,-0.120732,-0.000207272,0,
4,0.0250617,-0.112809,-0.120664,-0.000130655,0,
4,0.0222427,-0.113143,-0.120605,-6.20587e-05,0,
4,0.0197189,-0.113262,-0.120555,-8.8275e-07,0,
4,0.0174603,-0.113151,-0.120512,5.33402e-05,0,
4,0.0154398,-0.112783,-0.120476,0.000100901,0,
4,0.0136326,-0.112116,-0.120446,0.000141838,0,
4,0.0120162,-0.11109,-0.120422,0.000175814,0,
4,0.0105703,-0.109614,-0.120401,0.000201896,0,
4,0.00927657,-0.107555,-0.120386,0.000218256,0,
4,0.00811839,-0.104724,-0.120374,0.000221896,0,
4,0.0070809,-0.100865,-0.120366,0.000209034,0,
4,0.0061507,-0.0956967,-0.12036,0.000177517,0,
4,0.00531578,-0.0890289,-0.120357,0.000131465,0,
4,0.00456537,-0.0809552,-0.120354,8.28772e-05,0,
4,0.00388979,-0.0719195,-0.120354,4.43222e-05,0,
4,0.00328037,-0.0625125,-0.120352,2.03692e-05,0,
4,0.00272934,-0.0532052,-0.120353,8.14607e-06,0,
4,0.0022297,-0.0442597,-0.120351,2.82597e-06,0,
4,0.00177519,-0.0357803,-0.120352,8.26642e-07,0,
4,0.00136016,-0.0277849,-0.12035,1.91141e-07,0,
4,0.000979511,-0.0202513,-0.120352,3.07405e-08,0,
4,0.00062865,-0.0131406,-0.120349,2.63346e-09,0,
4,0.000303409,-0.00640698,-0.120352,6.44088e-11,0,

6,0,0,-0.00758256,0,0,
6,9,0,-0.0707005,0,0,
6,8.99969,0.0135277,-0.0707002,1.86849e-10,0,
6,8.99934,0.0287822,-0.0707005,8.62319e-09,0,
6,8.99895,0.0460011,-0.0707002,1.16906e-07,0,
6,8.9985,0.0654355,-0.0707004,8.42473e-07,0,
6,8.99801,0.0873437,-0.0707002,4.15873e-06,0,
6,8.99744,0.111925,-0.0707003,1.57306e-05,0,
6,8.99681,0.139151,-0.0707001,4.75421e-05,0,
6,8.99609,0.168495,-0.0707002,0.000115566,0,
6,8.99529,0.198806,-0.0707,0.000226475,0,
6,8.99438,0.22865,-0.0707,0.000365723,0,
6,8.99336,0.256929,-0.0706997,0.000507779,0,
6,8.9922,0.283146,-0.0706995,0.000635292,0,
6,8.9909,0.307301,-0.0706992,0.000738568,0,
6,8.98944,0.329551,-0.0706988,0.000825394,0,
6,8.98779,0.350071,-0.0706982,0.000898431,0,
6,8.98593,0.369108,-0.0706976,0.000956111,0,
6,8.98383,0.386923,-0.0706968,0.00100359,0,
6,8.98147,0.403721,-0.0706959,0.00104379,0,
6,8.97881,0.419666,-0.0706948,0.00107824,0,
6,8.97581,0.434899,-0.0706934,0.00110828,0,
6,8.97244,0.449539,-0.0706918,0.00113491,0,
6,8.96863,0.463684,-0.0706899,0.00115891,0,
6,8.96435,0.477423,-0.0706876,0.00118083,0,
6,8.95953,0.490829,-0.0706849,0.00120109,0,
6,8.95409,0.503966,-0.0706817,0.00121997,0,
6,8.94798,0.51689,-0.070678,0.00123766,0,
6,8.94109,0.529652,-0.0706736,0.00125426,0,
6,8.93334,0.542295,-0.0706689,0.0012698,0,
6,8.92463,0.554857,-0.0706634,0.00128423,0,
6,8.91482,0.567373,-0.0706572,0.00129747,0,
6,8.90379,0.57987,-0.07065,0.00130936,0,
6,8.89139,0.592376,-0.070642,0.00131971,0,
6,8.87746,0.604911,-0.0706329,0.00132829,0,
6,8.86181,0.617494,-0.0706227,0.00133484,0,
6,8.84423,0.63014,-0.0706113,0.00133909,0,
6,8.82452,0.642861,-0.0705987,0.00134075,0,
6,8.80241,0.655667,-0.0705847,0.00133955,0,
6,8.77763,0.668568,-0.0705695,0.0013352,0,
6,8.74989,0.681571,-0.0705527,0.00132747,0,
6,8.71885,0.694685,-0.0705346,0.00131612,0,
6,8.68417,0.707923,-0.070515,0.00130092,0,
6,8.64545,0.7213,-0.070494,0.00128165,0,
6,8.60229,0.734837,-0.0704715,0.00125807,0,
6,8.55423,0.748562,-0.0704476,0.00122985,0,
6,8.50082,0.762513,-0.0704222,0.0011965,0,
6,8.44155,0.776735,-0.0703956,0.00115746,0,
6,8.37592,0.79128,-0.0703668,0.00111348,0,
6,8.30339,0.806247,-0.0703391,0.0010681,0,
6,8.22344,0.821924,-0.0703141,0.00100298,0,
6,8.13555,0.838745,-0.0702905,0.000921325,0,
6,8.0392,0.857064,-0.0702621,0.000819594,0,
6,7.93391,0.87693,-0.0702286,0.000697068,0,
6,7.81927,0.897795,-0.0701756,0.000559545,0,
6,7.6949,0.91831,-0.0701123,0.00042287,0,
6,7.56054,0.936637,-0.0700178,0.000295595,0,
6,7.41603,0.95108,-0.0699026,0.000154284,0,
6,7.26132,0.96052,-0.0697752,6.21603e-05,0,
6,7.09653,0.965114,-0.0696172,1.61627e-05,0,
6,6.92195,0.966302,-0.0694318,8.87814e-07,0,
6,6.73802,0.965874,-0.0692102,-1.22843e-06,0,
6,6.5454,0.965118,-0.0689486,-6.03154e-07,0,
6,6.34489,0.964571,-0.0686421,-1.82301e-07,0,
6,6.1375,0.964265,-0.0682863,-5.37474e-08,0,
6,5.92439,0.964064,-0.0678761,-2.09748e-08,0,
6,5.70687,0.963855,-0.0674059,-1.1501e-08,0,
6,5.48633,0.963593,-0.0668701,-8.49724e-09,0,
6,5.26426,0.963272,-0.066263,-7.82815e-09,0,
6,5.04218,0.962903,-0.0655794,-8.0921e-09,0,
6,4.82159,0.962499,-0.064815,-8.71138e-09,0,
6,4.60398,0.962071,-0.0639664,-9.49135e-09,0,
6,4.39071,0.96162,-0.0630317,-1.05457e-08,0,
6,4.18307,0.961117,-0.0620107,-1.21659e-08,0,
6,3.98218,0.960503,-0.0609051,-1.46075e-08,0,
6,3.78902,0.959722,-0.0597194,-1.75885e-08,0,
6,3.60438,0.958795,-0.05846,-2.21161e-08,0,
6,3.42888,0.957881,-0.0571357,-4.49823e-08,0,
6,3.26296,0.957259,-0.0557564,-1.24771e-07,0,
6,3.10691,0.957173,-0.0543321,-2.22218e-07,0,
6,2.96084,0.95763,-0.0528733,-2.08564e-07,0,
6,2.82473,0.958294,-0.0513922,-6.48708e-07,0,
6,2.69844,0.958588,-0.0499033,-3.96704e-06,0,
6,2.58172,0.957914,-0.0484231,-1.40977e-05,0,
6,2.47424,0.955864,-0.0469688,-3.45672e-05,0,
6,2.37559,0.952301,-0.0455562,-6.68393e-05,0,
6,2.28535,0.947329,-0.0441991,-0.000110088,0,
6,2.20301,0.941211,-0.042908,-0.000161828,0,
6,2.1281,0.934283,-0.0416909,-0.000218639,0,
6,2.06009,0.926894,-0.0405508,-0.000276522,0,
6,1.99849,0.919383,-0.0394928,-0.000331516,0,
6,1.9428,0.912035,-0.0385107,-0.000381799,0,
6,1.89255,0.904999,-0.0376116,-0.000420665,0,
6,1.84728,0.898302,-0.0367922,-0.000448997,0,
6,1.80655,0.891966,-0.0360396,-0.000475324,0,
6,1.76996,0.886036,-0.0353559,-0.000499724,0,
6,1.73712,0.880539,-0.0347345,-0.000522281,0,
6,1.70768,0.875446,-0.0341708,-0.000543129,0,
6,1.67998,0.870531,-0.0336377,-0.00056333,0,
6,1.65329,0.865699,-0.033119,-0.000583105,0,
6,1.62754,0.860944,-0.0326148,-0.000602375,0,
6,1.60265,0.856267,-0.0321234,-0.000621224,0,
6,1.57854,0.851666,-0.0316441,-0.000639652,0,
6,1.55515,0.847139,-0.0311761,-0.000657637,0,
6,1.53242,0.842685,-0.0307184,-0.000675223,0,
6,1.5103,0.8383,-0.0302703,-0.000692449,0,
6,1.48874,0.833981,-0.0298311,-0.000709334,0,
6,1.46769,0.82972,-0.0294004,-0.000725886,0,
6,1.44712,0.825501,-0.0289776,-0.000742154,0,
6,1.42698,0.821307,-0.0285623,-0.000758439,0,
6,1.40725,0.81712,-0.0281535,-0.000775237,0,
6,1.38788,0.812938,-0.0277497,-0.000792996,0,
6,1.36886,0.808779,-0.0273497,-0.000812111,0,
6,1.35015,0.804685,-0.0269511,-0.000833144,0,
6,1.33173,0.800702,-0.0265546,-0.000856173,0,
6,1.31357,0.796849,-0.026159,-0.000880657,0,
6,1.29566,0.793084,-0.0257758,-0.000905106,0,
6,1.27797,0.789305,-0.0254044,-0.000918774,0,
6,1.26048,0.785427,-0.0250338,-0.000944036,0,
6,1.24318,0.781413,-0.0246667,-0.000976567,0,
6,1.22605,0.777219,-0.0243024,-0.00101805,0,
6,1.20907,0.772796,-0.023941,-0.00107077,0,
6,1.19223,0.768088,-0.0235824,-0.00113711,0,
6,1.17551,0.763034,-0.0232266,-0.00121947,0,
6,1.1589,0.757575,-0.0228733,-0.00131998,0,
6,1.14238,0.751654,-0.0225235,-0.00144023,0,
6,1.12595,0.745227,-0.0221773,-0.00158099,0,
6,1.10959,0.738266,-0.0218347,-0.00174196,0,
6,1.09329,0.730763,-0.021496,-0.00192174,0,
6,1.07704,0.72273,-0.0211615,-0.00211783,0,
6,1.06081,0.714193,-0.0208312,-0.00232687,0,
6,1.04459,0.70519,-0.0205055,-0.00254502,0,
6,1.02836,0.695776,-0.020184,-0.0027683,0,
6,1.01211,0.686007,-0.0198681,-0.00299875,0,
6,0.99583,0.675901,-0.0195533,-0.00322454,0,
6,0.97951,0.665421,-0.019238,-0.00344989,0,
6,0.963136,0.654523,-0.0189264,-0.00368134,0,
6,0.946694,0.643171,-0.0186188,-0.00392035,0,
6,0.930172,0.631325,-0.0183163,-0.00416812,0,
6,0.913555,0.61894,-0.0180191,-0.00442567,0,
6,0.896829,0.605971,-0.0177276,-0.00469382,0,
6,0.879979,0.592375,-0.0174424,-0.00497315,0,
6,0.862989,0.578126,-0.0171643,-0.00526408,0,
6,0.845842,0.563233,-0.016895,-0.00556722,0,
6,0.828521,0.547744,-0.0166366,-0.00588369,0,
6,0.811008,0.531714,-0.0163896,-0.00620381,0,
6,0.793282,0.51519,-0.016154,-0.00652415,0,
6,0.775322,0.498211,-0.0159309,-0.00684119,0,
6,0.757107,0.480821,-0.0157212,-0.00715116,0,
6,0.738612,0.463072,-0.0155266,-0.00744998,0,
6,0.719813,0.445032,-0.0153492,-0.00773322,0,
6,0.700681,0.426787,-0.0151909,-0.00799618,0,
6,0.681188,0.408434,-0.0150525,-0.00823388,0,
6,0.661304,0.390064,-0.0149314,-0.00844102,0,
6,0.640996,0.371739,-0.0148212,-0.00861241,0,
6,0.620228,0.353488,-0.0147128,-0.00874366,0,
6,0.598964,0.335306,-0.0145989,-0.00883095,0,
6,0.577166,0.317196,-0.0144836,-0.00887091,0,
6,0.554791,0.299232,-0.0143913,-0.00886191,0,
6,0.531799,0.281637,-0.0143787,-0.00880736,0,
6,0.508144,0.264792,-0.0145018,-0.00871778,0,
6,0.48378,0.249092,-0.0148236,-0.00861135,0,
6,0.459585,0.235153,-0.0151567,-0.00849075,0,
6,0.436695,0.223012,-0.015106,-0.00807497,0,
6,0.414961,0.212013,-0.0148508,-0.00771697,0,
6,0.394252,0.20189,-0.0146564,-0.00739211,0,
6,0.374445,0.192514,-0.0144428,-0.00706954,0,
6,0.355433,0.183781,-0.0142304,-0.00675192,0,
6,0.337122,0.17561,-0.0140165,-0.00643792,0,
6,0.319433,0.167934,-0.0137993,-0.00612732,0,
6,0.3023,0.160696,-0.0135777,-0.00582029,0,
6,0.28567,0.15385,-0.0133508,-0.00551705,0,
6,0.269507,0.147359,-0.013118,-0.00521788,0,
6,0.253785,0.141191,-0.0128789,-0.00492318,0,
6,0.238493,0.135323,-0.0126336,-0.00463346,0,
6,0.223631,0.129736,-0.0123824,-0.00434938,0,
6,0.209207,0.124416,-0.0121258,-0.00407169,0,
6,0.195237,0.119352,-0.0118648,-0.00380122,0,
6,0.181744,0.114534,-0.0116007,-0.00353886,0,
6,0.168754,0.109956,-0.0113351,-0.00328551,0,
6,0.156292,0.105611,-0.0110699,-0.00304201,0,
6,0.144384,0.101492,-0.0108069,-0.00280915,0,
6,0.133052,0.0975922,-0.0105483,-0.00258758,0,
6,0.122315,0.0939055,-0.010296,-0.00237783,0,
6,0.112183,0.0904238,-0.010052,-0.00218026,0,
6,0.102665,0.0871389,-0.00981807,-0.00199508,0,
6,0.0937597,0.0840417,-0.0095956,-0.00182232,0,
6,0.0854609,0.0811229,-0.0093858,-0.00166186,0,
6,0.077757,0.0783724,-0.00918954,-0.00151345,0,
6,0.0706309,0.0757798,-0.00900734,-0.00137672,0,
6,0.0640611,0.0733346,-0.00883943,-0.00125118,0,
6,0.0580229,0.0710259,-0.00868578,-0.00113629,0,
6,0.0524888,0.0688429,-0.00854607,-0.00103146,0,
6,0.0474296,0.0667747,-0.00841984,-0.000936025,0,
6,0.042815,0.0648105,-0.00830644,-0.000849348,0,
6,0.0386145,0.0629395,-0.0082051,-0.000770762,0,
6,0.0347975,0.0611508,-0.00811504,-0.000699614,0,
6,0.0313344,0.0594336,-0.00803536,-0.000635266,0,
6,0.0281964,0.0577769,-0.00796524,-0.000577103,0,
6,0.0253561,0.0561694,-0.00790375,-0.00052453,0,
6,0.0227875,0.0545992,-0.0078502,-0.00047698,0,
6,0.0204662,0.0530538,-0.00780363,-0.000433906,0,
6,0.0183694,0.0515194,-0.00776357,-0.000394781,0,
6,0.016476,0.0499806,-0.00772899,-0.000359083,0,
6,0.0147664,0.0484197,-0.0076998,-0.000326287,0,
6,0.0132228,0.0468156,-0.00767475,-0.000295841,0,
6,0.0118288,0.0451425,-0.00765428,-0.00026714,0,
6,0.0105693,0.0433689,-0.00763677,-0.000239488,0,
6,0.00943073,0.0414553,-0.00762332,-0.000212068,0,
6,0.00840063,0.0393538,-0.00761177,-0.000183942,0,
6,0.00746774,0.0370098,-0.00760397,-0.000154215,0,
6,0.00662185,0.0343725,-0.00759706,-0.000122538,0,
6,0.00585371,0.0314186,-0.0075936,-8.99902e-05,0,
6,0.00515491,0.0281877,-0.00758989,-5.95966e-05,0,
6,0.00451788,0.0248026,-0.0075892,-3.50779e-05,0,
6,0.00393573,0.0214359,-0.00758705,-1.83595e-05,0,
6,0.00340221,0.0182399,-0.00758765,-8.63348e-06,0,
6,0.00291168,0.0153018,-0.00758583,-3.68046e-06,0,
6,0.00245897,0.0126467,-0.00758702,-1.42017e-06,0,
6,0.00203939,0.0102624,-0.00758501,-4.87542e-07,0,
6,0.00164864,0.00812084,-0.00758668,-1.43343e-07,0,
6,0.00128281,0.00618961,-0.00758425,-3.36392e-08,0,
6,0.000938257,0.00443784,-0.00758651,-5.52189e-09,0,
6,0.000611645,0.00283789,-0.00758345,-4.82853e-10,0,
6,0.000299862,0.00136571,-0.00758647,-1.18479e-11,0,

10,0.000296632,0.00871891,0.026383,-5.2521e-11,0,
10,0.000596102,0.0175182,0.0263836,-1.94644e-09,0,
10,0.000900397,0.0264562,0.026383,-1.9789e-08,0,
10,0.00121153,0.0355914,0.0263835,-1.06328e-07,0,
10,0.00153158,0.0449827,0.026383,-3.97611e-07,0,
10,0.00186264,0.0546873,0.0263834,-1.18151e-06,0,
10,0.00220692,0.0647587,0.0263829,-2.99606e-06,0,
10,0.00256668,0.0752414,0.0263832,-6.75398e-06,0,
10,0.00294431,0.0861622,0.0263828,-1.38628e-05,0,
10,0.00334229,0.097519,0.0263831,-2.62585e-05,0,
10,0.00376326,0.109265,0.0263827,-4.62143e-05,0,
10,0.00421,0.121299,0.0263829,-7.57992e-05,0,
10,0.00468544,0.13346,0.0263825,-0.00011605,0,
10,0.00519274,0.145545,0.0263825,-0.000166254,0,
10,0.00573524,0.157336,0.0263819,-0.000223864,0,
10,0.00631651,0.168641,0.0263817,-0.000285218,0,
10,0.00694041,0.179312,0.0263809,-0.000346607,0,
10,0.00761104,0.18926,0.0263803,-0.000405098,0,
10,0.00833284,0.198449,0.0263792,-0.000458839,0,
10,0.00911058,0.206883,0.026378,-0.000506975,0,
10,0.0099494,0.214595,0.0263762,-0.000549384,0,
10,0.0108548,0.221637,0.0263742,-0.000586421,0,
10,0.0118329,0.228068,0.0263715,-0.000618701,0,
10,0.0128901,0.233952,0.0263684,-0.000646952,0,
10,0.0140333,0.23935,0.0263645,-0.000671927,0,
10,0.0152702,0.244323,0.02636,-0.000694341,0,
10,0.0166089,0.248923,0.0263545,-0.000714851,0,
10,0.0180584,0.253199,0.0263481,-0.00073404,0,
10,0.0196282,0.257195,0.0263407,-0.000752425,0,
10,0.0213288,0.260948,0.0263321,-0.000770459,0,
10,0.0231714,0.264492,0.0263222,-0.000788543,0,
10,0.0251682,0.267857,0.0263109,-0.000807038,0,
10,0.0273326,0.27107,0.0262979,-0.00082627,0,
10,0.0296789,0.274152,0.0262832,-0.000846545,0,
10,0.0322227,0.277126,0.0262666,-0.000868152,0,
10,0.0349809,0.280009,0.0262479,-0.000891374,0,
10,0.0379719,0.28282,0.0262268,-0.000916489,0,
10,0.0412155,0.285573,0.0262032,-0.000943779,0,
10,0.0447333,0.288283,0.0261769,-0.000973535,0,
10,0.0485489,0.290965,0.0261476,-0.00100606,0,
10,0.0526875,0.293631,0.026115,-0.00104166,0,
10,0.0571768,0.296294,0.0260788,-0.00108067,0,
10,0.0620466,0.298968,0.0260389,-0.00112346,0,
10,0.0673295,0.301665,0.0259949,-0.00117039,0,
10,0.0730607,0.304399,0.0259465,-0.00122187,0,
10,0.0792784,0.307182,0.0258935,-0.00127833,0,
10,0.0860241,0.31003,0.0258355,-0.00134024,0,
10,0.0933428,0.312958,0.0257723,-0.0014081,0,
10,0.101283,0.315982,0.0257036,-0.00148244,0,
10,0.109899,0.31912,0.0256292,-0.00156382,0,
10,0.119247,0.322391,0.0255489,-0.00165285,0,
10,0.12939,0.325817,0.0254624,-0.00175017,0,
10,0.140395,0.329422,0.0253698,-0.00185643,0,
10,0.152337,0.333232,0.0252708,-0.00197234,0,
10,0.165296,0.33728,0.0251655,-0.00209859,0,
10,0.179357,0.341598,0.025054,-0.00223592,0,
10,0.194615,0.346227,0.0249362,-0.00238501,0,
10,0.211171,0.351212,0.0248126,-0.00254654,0,
10,0.229138,0.356605,0.0246831,-0.00272108,0,
10,0.248635,0.362466,0.0245484,-0.00290911,0,
10,0.269793,0.368864,0.0244079,-0.00311091,0,
10,0.292753,0.37588,0.0242637,-0.00332647,0,
10,0.317669,0.383606,0.0241123,-0.00355423,0,
10,0.344708,0.392144,0.023959,-0.00379203,0,
10,0.372405,0.401084,0.0238098,-0.00402859,0,
10,0.399623,0.41008,0.0236676,-0.00425282,0,
10,0.426397,0.41914,0.0235332,-0.00446309,0,
10,0.452757,0.428275,0.0234069,-0.00465872,0,
10,0.478735,0.437507,0.0232907,-0.0048383,0,
10,0.504358,0.446862,0.0231865,-0.00500077,0,
10,0.529657,0.456375,0.0230925,-0.00514341,0,
10,0.554656,0.466079,0.023012,-0.00526638,0,
10,0.579382,0.475998,0.0229287,-0.00537222,0,
10,0.603859,0.486162,0.0228639,-0.00552384,0,
10,0.628112,0.496862,0.0228921,-0.00551138,0,
10,0.652163,0.508493,0.0229558,-0.00546502,0,
10,0.676035,0.521114,0.0229679,-0.00539784,0,
10,0.699751,0.534518,0.0229346,-0.00530537,0,
10,0.72333,0.548421,0.0228627,-0.00518487,0,
10,0.746795,0.562584,0.0227694,-0.00503637,0,
10,0.770165,0.576859,0.0226635,-0.00486215,0,
10,0.79346,0.591167,0.0225501,-0.00466539,0,
10,0.816699,0.605455,0.0224295,-0.00444953,0,
10,0.839903,0.619663,0.0223008,-0.00421816,0,
10,0.863088,0.633708,0.0221619,-0.00397526,0,
10,0.886275,0.64748,0.0220123,-0.00372529,0,
10,0.909481,0.660843,0.0218501,-0.00347861,0,
10,0.932723,0.673665,0.0216759,-0.0032397,0,
10,0.956021,0.685873,0.0214937,-0.00300853,0,
10,0.97939,0.697461,0.0213054,-0.00278562,0,
10,1.00285,0.70846,0.0211119,-0.00257167,0,
10,1.02641,0.718911,0.0209132,-0.00236731,0,
10,1.0501,0.728847,0.0207087,-0.00217299,0,
10,1.07392,0.738292,0.0204986,-0.00198907,0,
10,1.0979,0.747271,0.0202822,-0.00181576,0,
10,1.12205,0.755811,0.0200618,-0.00164863,0,
10,1.14639,0.763922,0.0198346,-0.00149482,0,
10,1.17093,0.771582,0.0195987,-0.00135539,0,
10,1.19568,0.778781,0.0193548,-0.00123159,0,
10,1.22066,0.785533,0.0191035,-0.00112678,0,
10,1.24589,0.791902,0.0188452,-0.00103801,0,
10,1.27137,0.798017,0.0185817,-0.000954089,0,
10,1.29713,0.803994,0.0183143,-0.000879998,0,
10,1.32317,0.809854,0.0180402,-0.00081533,0,
10,1.34951,0.815568,0.0177588,-0.000759477,0,
10,1.37616,0.82111,0.0174697,-0.00071128,0,
10,1.40313,0.826493,0.0171737,-0.000669226,0,
10,1.43043,0.831755,0.016871,-0.000631896,0,
10,1.45807,0.836935,0.0165621,-0.000598198,0,
10,1.48607,0.842058,0.0162466,-0.000567363,0,
10,1.51444,0.847124,0.0159242,-0.000538811,0,
10,1.54318,0.852125,0.0155948,-0.000512061,0,
10,1.57231,0.857052,0.0152583,-0.000486711,0,
10,1.60184,0.861901,0.0149148,-0.000462442,0,
10,1.63178,0.866667,0.0145641,-0.000439032,0,
10,1.66213,0.871345,0.0142063,-0.000416345,0,
10,1.69292,0.875926,0.0138412,-0.000394328,0,
10,1.72416,0.880393,0.0134688,-0.000373,0,
10,1.75585,0.884724,0.0130894,-0.000352453,0,
10,1.78802,0.888893,0.0127025,-0.000332781,0,
10,1.82067,0.892879,0.0123092,-0.000313977,0,
10,1.85383,0.896696,0.0119079,-0.000294363,0,
10,1.88751,0.9004,0.0114976,-0.000270487,0,
10,1.92173,0.904029,0.0110811,-0.000247875,0,
10,1.95652,0.907563,0.0106561,-0.000224704,0,
10,1.9919,0.910969,0.0102238,-0.000200953,0,
10,2.02791,0.914213,0.00978262,-0.0001772,0,
10,2.06456,0.917268,0.00933447,-0.000153869,0,
10,2.10268,0.920161,0.00886638,-0.000130773,0,
10,2.1443,0.922974,0.00835742,-0.000108448,0,
10,2.18977,0.925653,0.00780142,-8.71229e-05,0,
10,2.23946,0.928114,0.00719661,-6.70566e-05,0,
10,2.29376,0.930276,0.006538,-4.89604e-05,0,
10,2.35309,0.932064,0.00582341,-3.33786e-05,0,
10,2.4179,0.933412,0.00504906,-2.07473e-05,0,
10,2.48863,0.934282,0.00421317,-1.13357e-05,0,
10,2.56575,0.934673,0.00331349,-5.13048e-06,0,
10,2.64971,0.934642,0.00234939,-1.74598e-06,0,
10,2.74098,0.934308,0.00132034,-4.40324e-07,0,
10,2.83997,0.933843,0.000227158,-2.88587e-07,0,
10,2.94709,0.933449,-0.000929028,-4.77511e-07,0,
10,3.06269,0.933303,-0.002146,-5.52131e-07,0,
10,3.18706,0.933509,-0.00342086,-4.39188e-07,0,
10,3.3204,0.934069,-0.00474931,-2.59554e-07,0,
10,3.46281,0.934891,-0.00612557,-1.22516e-07,0,
10,3.61427,0.935834,-0.00754189,-5.34351e-08,0,
10,3.77463,0.936767,-0.0089887,-2.80228e-08,0,
10,3.94358,0.93761,-0.0104548,-2.02522e-08,0,
10,4.12067,0.938351,-0.011928,-1.76161e-08,0,
10,4.30525,0.939022,-0.0133955,-1.64869e-08,0,
10,4.49655,0.939666,-0.0148445,-1.61512e-08,0,
10,4.6936,0.940309,-0.0162625,-1.66292e-08,0,
10,4.89531,0.940955,-0.0176378,-1.84532e-08,0,
10,5.10047,0.941591,-0.01896,-2.31481e-08,0,
10,5.30776,0.942195,-0.0202196,-3.41057e-08,0,
10,5.51581,0.942751,-0.0214094,-5.82054e-08,0,
10,5.72323,0.943256,-0.0225236,-1.10529e-07,0,
10,5.92863,0.943735,-0.0235584,-2.28773e-07,0,
10,6.13069,0.944256,-0.0245117,-5.13706e-07,0,
10,6.32816,0.944914,-0.0253837,-1.17346e-06,0,
10,6.51991,0.945737,-0.0261758,-2.26586e-06,0,
10,6.70495,0.946474,-0.0268912,-2.26611e-06,0,
10,6.88244,0.94638,-0.0275324,4.72969e-06,0,
10,7.0517,0.944197,-0.0281038,3.02252e-05,0,
10,7.21224,0.938529,-0.0286039,8.75236e-05,0,
10,7.3637,0.928528,-0.0290395,0.000185214,0,
10,7.5059,0.914294,-0.0294134,0.000309433,0,
10,7.63878,0.896491,-0.0297261,0.00042159,0,
10,7.76243,0.87633,-0.0299922,0.000544376,0,
10,7.87701,0.855613,-0.030204,0.000667908,0,
10,7.9828,0.835758,-0.0303792,0.000777772,0,
10,8.08014,0.817399,-0.0305187,0.000870038,0,
10,8.16941,0.800539,-0.0306343,0.000946391,0,
10,8.25106,0.784864,-0.0307293,0.00101064,0,
10,8.32554,0.770005,-0.0308105,0.00106594,0,
10,8.39331,0.755668,-0.0308795,0.00111438,0,
10,8.45484,0.741667,-0.030939,0.00115701,0,
10,8.5106,0.727909,-0.0309896,0.0011942,0,
10,8.56104,0.714366,-0.0310328,0.0012261,0,
10,8.60659,0.701041,-0.0310697,0.00125283,0,
10,8.64767,0.687952,-0.0311013,0.00127459,0,
10,8.68467,0.675113,-0.0311289,0.00129169,0,
10,8.71795,0.662509,-0.0311532,0.0013014,0,
10,8.74786,0.650105,-0.031174,0.00130582,0,
10,8.77471,0.637886,-0.031192,0.00130662,0,
10,8.79881,0.625844,-0.0312074,0.00130368,0,
10,8.8204,0.613974,-0.0312206,0.00129753,0,
10,8.83975,0.602261,-0.0312319,0.00128872,0,
10,8.85708,0.590692,-0.0312415,0.00127775,0,
10,8.87259,0.579248,-0.0312496,0.00126508,0,
10,8.88646,0.567905,-0.0312565,0.0012511,0,
10,8.89886,0.55664,-0.0312623,0.00123614,0,
10,8.90995,0.545423,-0.0312672,0.00122046,0,
10,8.91986,0.534225,-0.0312713,0.00120428,0,
10,8.92872,0.523012,-0.0312747,0.00118773,0,
10,8.93663,0.511748,-0.0312776,0.00117089,0,
10,8.94369,0.500394,-0.0312801,0.00115375,0,
10,8.95,0.488909,-0.0312822,0.00113628,0,
10,8.95564,0.477248,-0.0312839,0.00111839,0,
10,8.96067,0.465361,-0.0312852,0.00109988,0,
10,8.96517,0.453194,-0.0312864,0.0010805,0,
10,8.96918,0.440687,-0.0312872,0.00105992,0,
10,8.97276,0.42777,-0.0312881,0.00103768,0,
10,8.97596,0.414363,-0.0312886,0.00101324,0,
10,8.97882,0.400375,-0.0312892,0.000985859,0,
10,8.98137,0.385697,-0.0312894,0.000954592,0,
10,8.98365,0.370204,-0.03129,0.00091823,0,
10,8.98569,0.353745,-0.03129,0.000875466,0,
10,8.9875,0.336133,-0.0312905,0.000823527,0,
10,8.98913,0.317133,-0.0312904,0.00075817,0,
10,8.99058,0.296519,-0.0312909,0.000680844,0,
10,8.99188,0.274133,-0.0312906,0.000589547,0,
10,8.99304,0.249815,-0.0312911,0.00047663,0,
10,8.99408,0.223513,-0.0312907,0.000350081,0,
10,8.99501,0.195593,-0.0312913,0.00022345,0,
10,8.99583,0.166954,-0.0312908,0.00011869,0,
10,8.99658,0.138865,-0.0312914,5.10623e-05,0,
10,8.99724,0.112452,-0.0312908,1.76447e-05,0,
10,8.99784,0.0883122,-0.0312914,4.85076e-06,0,
10,8.99837,0.0665614,-0.0312907,1.01766e-06,0,
10,8.99885,0.0470667,-0.0312915,1.45811e-07,0,
10,8.99927,0.0296167,-0.0312907,1.10713e-08,0,
10,8.99966,0.0139961,-0.0312917,2.44976e-10,0,
10,0,0,0.0263838,0,0,
10,9,0,-0.0312906,0,0,

0.004,0,0,-0.232735,0,-5.39024e-08,
0.00868226,0,0,-0.232733,0,-2.43951e-07,
0.014062,0,0,-0.232734,0,-4.68551e-07,
0.0201548,0,0,-0.232734,0,-9.40185e-07,
0.0269766,0,0,-0.232733,0,-1.34383e-06,
0.0345437,0,0,-0.232732,0,-1.59181e-06,
0.0428729,0,0,-0.232729,0,-1.41909e-06,
0.051981,0,0,-0.232727,0,-6.21996e-07,
0.0618853,0,0,-0.232723,0,1.01526e-06,
0.0726036,0,0,-0.232721,0,3.65381e-06,
0.0841536,0,0,-0.232719,0,7.33998e-06,
0.0965535,0,0,-0.232721,0,1.20126e-05,
0.109822,0,0,-0.232725,0,1.74408e-05,
0.123977,0,0,-0.232735,0,2.33052e-05,
0.139037,0,0,-0.232751,0,2.91905e-05,
0.155022,0,0,-0.232772,0,3.46992e-05,
0.171949,0,0,-0.232798,0,3.94626e-05,
0.189839,0,0,-0.232828,0,4.32227e-05,
0.208709,0,0,-0.232861,0,4.58246e-05,
0.228579,0,0,-0.232896,0,4.72514e-05,
0.249467,0,0,-0.232931,0,4.76017e-05,
0.271391,0,0,-0.232965,0,4.70926e-05,
0.29437,0,0,-0.232998,0,4.60322e-05,
0.31842,0,0,-0.233029,0,4.47967e-05,
0.343559,0,0,-0.233059,0,4.37815e-05,
0.369804,0,0,-0.233089,0,4.33493e-05,
0.39717,0,0,-0.233123,0,4.3774e-05,
0.425672,0,0,-0.233162,0,4.52011e-05,
0.455324,0,0,-0.23321,0,4.76322e-05,
0.48614,0,0,-0.233272,0,5.09436e-05,
0.518132,0,0,-0.233349,0,5.49307e-05,
0.551309,0,0,-0.233448,0,5.93615e-05,
0.585683,0,0,-0.233572,0,6.39691e-05,
0.621259,0,0,-0.233729,0,6.84145e-05,
0.658046,0,0,-0.233927,0,7.21941e-05,
0.696047,0,0,-0.234181,0,7.44763e-05,
0.735265,0,0,-0.234504,0,7.40675e-05,
0.7757,0,0,-0.234914,0,6.94556e-05,
0.817352,0,0,-0.23543,0,5.88888e-05,
0.860215,0,0,-0.236066,0,4.06412e-05,
0.904285,0,0,-0.236831,0,1.33974e-05,
0.949552,0,0,-0.237723,0,-2.33975e-05,
0.996004,0,0,-0.238728,0,-6.9358e-05,
1.04363,0,0,-0.239825,0,-0.000123263,
1.09241,0,0,-0.240985,0,-0.000183411,
1.14232,0,0,-0.24218,0,-0.000248061,
1.19335,0,0,-0.243382,0,-0.000315762,
1.24546,0,0,-0.244564,0,-0.000385486,
1.29863,0,0,-0.2457,0,-0.000456585,
1.35283,0,0,-0.246767,0,-0.000528659,
1.40802,0,0,-0.247741,0,-0.000601425,
1.46416,0,0,-0.2486,0,-0.000674623,
1.52121,0,0,-0.249319,0,-0.000747964,
1.57913,0,0,-0.249877,0,-0.000821117,
1.63787,0,0,-0.25025,0,-0.000893705,
1.69739,0,0,-0.250417,0,-0.000965311,
1.75761,0,0,-0.250358,0,-0.00103549,
1.81851,0,0,-0.250054,0,-0.00110379,
1.88,0,0,-0.24949,0,-0.00116974,
1.94204,0,0,-0.248653,0,-0.00123289,
2.00457,0,0,-0.247533,0,-0.00129281,
2.06751,0,0,-0.246126,0,-0.00134909,
2.13081,0,0,-0.244428,0,-0.00140142,
2.19439,0,0,-0.242443,0,-0.00144949,
2.25819,0,0,-0.240177,0,-0.0014931,
2.32214,0,0,-0.23764,0,-0.00153213,
2.38617,0,0,-0.234843,0,-0.00156651,
2.4502,0,0,-0.231801,0,-0.00159622,
2.51418,0,0,-0.228533,0,-0.00162133,
2.57803,0,0,-0.225055,0,-0.0016419,
2.64167,0,0,-0.221387,0,-0.00165809,
2.70505,0,0,-0.217551,0,-0.00167004,
2.76808,0,0,-0.213567,0,-0.00167796,
2.83072,0,0,-0.209456,0,-0.00168204,
2.89288,0,0,-0.205238,0,-0.0016825,
2.95451,0,0,-0.200936,0,-0.00167957,
3.01555,0,0,-0.196569,0,-0.00167347,
3.07594,0,0,-0.192157,0,-0.00166447,
3.13561,0,0,-0.187718,0,-0.00165282,
3.19453,0,0,-0.183269,0,-0.00163875,
3.25262,0,0,-0.178827,0,-0.00162251,
3.30985,0,0,-0.174407,0,-0.0016043,
3.36617,0,0,-0.170021,0,-0.00158436,
3.42154,0,0,-0.165684,0,-0.00156291,
3.47591,0,0,-0.161407,0,-0.00154016,
3.52925,0,0,-0.157199,0,-0.0015163,
3.58152,0,0,-0.153068,0,-0.00149153,
3.6327,0,0,-0.149024,0,-0.00146601,
3.68276,0,0,-0.145072,0,-0.00143989,
3.73167,0,0,-0.141218,0,-0.00141332,
3.77941,0,0,-0.137466,0,-0.00138646,
3.82596,0,0,-0.133821,0,-0.00135943,
3.8713,0,0,-0.130285,0,-0.00133234,
3.91543,0,0,-0.126856,0,-0.00130515,
3.95833,0,0,-0.123556,0,-0.00127828,
4,0,0,-0.120348,0,-0.00125148,
4.04167,0,0,-0.117168,0,-0.00122411,
4.08333,0,0,-0.114011,0,-0.00119631,
4.125,0,0,-0.110877,0,-0.00116806,
4.16667,0,0,-0.107766,0,-0.00113934,
4.20833,0,0,-0.104682,0,-0.00111017,
4.25,0,0,-0.101624,0,-0.00108059,
4.29167,0,0,-0.0985948,0,-0.00105061,
4.33333,0,0,-0.095595,0,-0.00102026,
4.375,0,0,-0.0926259,0,-0.000989559,
4.41667,0,0,-0.0896887,0,-0.000958529,
4.45833,0,0,-0.0867843,0,-0.000927191,
4.5,0,0,-0.0839138,0,-0.000895569,
4.54167,0,0,-0.0810781,0,-0.000863682,
4.58333,0,0,-0.078278,0,-0.000831551,
4.625,0,0,-0.0755143,0,-0.000799194,
4.66667,0,0,-0.0727877,0,-0.000766632,
4.70833,0,0,-0.070099,0,-0.000733881,
4.75,0,0,-0.0674489,0,-0.000700962,
4.79167,0,0,-0.0648378,0,-0.000667892,
4.83333,0,0,-0.0622663,0,-0.000634688,
4.875,0,0,-0.059735,0,-0.000601368,
4.91667,0,0,-0.0572444,0,-0.000567946,
4.95833,0,0,-0.0547948,0,-0.00053444,
5,0,0,-0.0523866,0,-0.000500867,
5.04167,0,0,-0.0500203,0,-0.000467245,
5.08333,0,0,-0.0476962,0,-0.000433591,
5.125,0,0,-0.0454145,0,-0.000399916,
5.16667,0,0,-0.0431757,0,-0.000366235,
5.20833,0,0,-0.0409801,0,-0.000332557,
5.25,0,0,-0.038828,0,-0.000298898,
5.29167,0,0,-0.0367201,0,-0.000265278,
5.33333,0,0,-0.0346567,0,-0.000231727,
5.375,0,0,-0.0326385,0,-0.000198289,
5.41667,0,0,-0.030666,0,-0.000165028,
5.45833,0,0,-0.0287393,0,-0.00013201,
5.5,0,0,-0.0268579,0,-9.92867e-05,
5.54167,0,0,-0.0250213,0,-6.68785e-05,
5.58333,0,0,-0.0232285,0,-3.47847e-05,
5.625,0,0,-0.021479,0,-2.99526e-06,
5.66667,0,0,-0.0197721,0,2.8499e-05,
5.70833,0,0,-0.0181072,0,5.97027e-05,
5.75,0,0,-0.0164838,0,9.06171e-05,
5.79167,0,0,-0.0149012,0,0.000121241,
5.83333,0,0,-0.013359,0,0.000151572,
5.875,0,0,-0.0118566,0,0.000181609,
5.91667,0,0,-0.0103934,0,0.000211349,
5.95833,0,0,-0.00896897,0,0.000240789,
6,0,0,-0.00758269,0,0.000269926,
6.04167,0,0,-0.00623403,0,0.000298758,
6.08333,0,0,-0.00492243,0,0.000327281,
6.125,0,0,-0.00364735,0,0.000355494,
6.16667,0,0,-0.00240821,0,0.000383394,
6.20833,0,0,-0.00120447,0,0.000410977,
6.25,0,0,-3.55589e-05,0,0.000438241,
6.29167,0,0,0.0010991,0,0.000465183,
6.33333,0,0,0.00220008,0,0.000491801,
6.375,0,0,0.00326797,0,0.000518093,
6.41667,0,0,0.00430335,0,0.000544055,
6.45833,0,0,0.00530679,0,0.000569687,
6.5,0,0,0.00627891,0,0.000594984,
6.54167,0,0,0.0072203,0,0.000619947,
6.58333,0,0,0.00813156,0,0.000644573,
6.625,0,0,0.00901329,0,0.000668861,
6.66667,0,0,0.0098661,0,0.000692811,
6.70833,0,0,0.0106906,0,0.000716422,
6.75,0,0,0.0114874,0,0.000739694,
6.79167,0,0,0.012257,0,0.000762626,
6.83333,0,0,0.0130002,0,0.000785221,
6.875,0,0,0.0137174,0,0.00080748,
6.91667,0,0,0.0144093,0,0.000829404,
6.95833,0,0,0.0150765,0,0.000850996,
7,0,0,0.0157195,0,0.000872258,
7.04167,0,0,0.0163388,0,0.000893193,
7.08333,0,0,0.016935,0,0.000913804,
7.125,0,0,0.0175088,0,0.000934094,
7.16667,0,0,0.0180606,0,0.000954071,
7.20833,0,0,0.018591,0,0.000973746,
7.25,0,0,0.0191006,0,0.000993126,
7.29167,0,0,0.0195899,0,0.00101222,
7.33333,0,0,0.0200593,0,0.00103102,
7.375,0,0,0.0205094,0,0.00104953,
7.41667,0,0,0.0209405,0,0.00106776,
7.45833,0,0,0.0213531,0,0.00108569,
7.5,0,0,0.0217478,0,0.00110333,
7.54167,0,0,0.0221248,0,0.00112068,
7.58333,0,0,0.0224846,0,0.00113774,
7.625,0,0,0.0228277,0,0.00115451,
7.66667,0,0,0.0231545,0,0.00117101,
7.70833,0,0,0.0234651,0,0.00118724,
7.75,0,0,0.0237602,0,0.00120321,
7.79167,0,0,0.0240398,0,0.00121892,
7.83333,0,0,0.0243038,0,0.00123437,
7.875,0,0,0.024552,0,0.00124961,
7.91667,0,0,0.0247959,0,0.00126527,
7.95833,0,0,0.0249612,0,0.00127977,
8,0,0,0.0252237,0,0.00129439,
8.04171,0,0,0.0255115,0,0.0013101,
8.08368,0,0,0.0256621,0,0.00132561,
8.12617,0,0,0.0258584,0,0.00133927,
8.16946,0,0,0.0260421,0,0.00135299,
8.21382,0,0,0.0262104,0,0.0013667,
8.25952,0,0,0.0263717,0,0.00138041,
8.30685,0,0,0.0265251,0,0.00139428,
8.35611,0,0,0.0266706,0,0.00140842,
8.40762,0,0,0.0268082,0,0.00142288,
8.46168,0,0,0.0269375,0,0.00143774,
8.51865,0,0,0.0270576,0,0.00145304,
8.57889,0,0,0.0271674,0,0.00146881,
8.64276,0,0,0.0272655,0,0.00148509,
8.71067,0,0,0.0273504,0,0.00150191,
8.78306,0,0,0.0274199,0,0.00151928,
8.86037,0,0,0.0274718,0,0.00153722,
8.94309,0,0,0.0275035,0,0.00155575,
9.03174,0,0,0.0275121,0,0.00157485,
9.12689,0,0,0.0274945,0,0.00159454,
9.22912,0,0,0.0274473,0,0.00161479,
9.33908,0,0,0.0273667,0,0.0016356,
9.45746,0,0,0.0272487,0,0.00165693,
9.58501,0,0,0.0270894,0,0.00167873,
9.72253,0,0,0.0268847,0,0.00170097,
9.87088,0,0,0.0266308,0,0.00172356,
10.031,0,0,0.0263245,0,0.00174645,
10.2039,0,0,0.0259622,0,0.00176956,
10.3906,0,0,0.0255407,0,0.00179281,
10.5924,0,0,0.0250583,0,0.00181611,
10.8105,0,0,0.0245143,0,0.00183936,
11.0463,0,0,0.0239074,0,0.00186248,
11.3012,0,0,0.023239,0,0.00188534,
11.5769,0,0,0.0225126,0,0.00190787,
11.8751,0,0,0.0217311,0,0.00192996,
12.1977,0,0,0.0209007,0,0.00195154,
12.5466,0,0,0.0200281,0,0.00197253,
12.9242,0,0,0.0191218,0,0.00199288,
13.3327,0,0,0.0181915,0,0.00201253,
13.7748,0,0,0.0172483,0,0.00203144,
14.2532,0,0,0.0163037,0,0.0020496,
14.7709,0,0,0.0153699,0,0.002067,
15.3312,0,0,0.0144585,0,0.00208365,
15.9377,0,0,0.0135801,0,0.00209959,
16.594,0,0,0.0127449,0,0.00211486,
17.3044,0,0,0.0119603,0,0.00212952,
18.0733,0,0,0.0112327,0,0.00214362,
18.9056,0,0,0.010564,0,0.00215712,
19.8064,0,0,0.00995379,0,0.00216987,
20.7816,0,0,0.00940063,0,0.00218194,
21.8371,0,0,0.00889827,0,0.0021937,
22.9796,0,0,0.00843793,0,0.00220533,
24.2163,0,0,0.00800882,0,0.00221692,
25.5551,0,0,0.00759659,0,0.0022286,
27.0042,0,0,0.00718596,0,0.00224046,
28.5729,0,0,0.00676047,0,0.00225251,
30.271,0,0,0.00630358,0,0.00226478,
32.1091,0,0,0.00579916,0,0.00227723,
34.0989,0,0,0.00523274,0,0.00228977,
36.2529,0,0,0.00458766,0,0.00230253,
38.5845,0,0,0.00385617,0,0.00231547,
41.1085,0,0,0.00307999,0,0.00232845,
43.8407,0,0,0.00209703,0,0.00233918,
46.7983,0,0,0.00108138,0,0.00234532,
50,0,0,0.00219502,0,0.00236231,

