ba9138f11ed600e7008771cffe2612a406ce36d3 
X,Z,x_velocity,cp,uw_b,cf,
1,0,0,-0.225599,0,0,
1,9,0,-0.130396,0,0,
1,8.99969,0.0154088,-0.130395,2.86152e-10,0,
1,8.99934,0.03289,-0.130395,1.33754e-08,0,
1,8.99894,0.0527404,-0.130395,1.84501e-07,0,
1,8.99848,0.075274,-0.130395,1.35253e-06,0,
1,8.99797,0.100803,-0.130395,6.76e-06,0,
1,8.99739,0.129524,-0.130395,2.5586e-05,0,
1,8.99672,0.161244,-0.130395,7.5795e-05,0,
1,8.99597,0.195022,-0.130395,0.000176198,0,
1,8.99512,0.22921,-0.130395,0.000324754,0,
1,8.99416,0.26215,-0.130395,0.000492919,0,
1,8.99306,0.292866,-0.130395,0.000651262,0,
1,8.99182,0.321185,-0.130394,0.000778738,0,
1,8.99041,0.347247,-0.130394,0.000884308,0,
1,8.98881,0.371211,-0.130394,0.00097149,0,
1,8.98699,0.393295,-0.130393,0.00104262,0,
1,8.98494,0.413785,-0.130392,0.00109857,0,
1,8.98261,0.432993,-0.130391,0.00114134,0,
1,8.97996,0.451159,-0.13039,0.00117717,0,
1,8.97696,0.468455,-0.130389,0.00120686,0,
1,8.97356,0.485023,-0.130388,0.00123167,0,
1,8.9697,0.500982,-0.130386,0.00125257,0,
1,8.96533,0.516429,-0.130385,0.00127028,0,
1,8.96038,0.531447,-0.130383,0.0012853,0,
1,8.95476,0.546108,-0.13038,0.001298,0,
1,8.9484,0.560468,-0.130378,0.00130866,0,
1,8.9412,0.57458,-0.130375,0.00131743,0,
1,8.93303,0.588485,-0.130372,0.00132443,0,
1,8.92379,0.602222,-0.130369,0.00132971,0,
1,8.91333,0.615821,-0.130366,0.00133327,0,
1,8.90149,0.629311,-0.130363,0.00133509,0,
1,8.8881,0.642715,-0.13036,0.00133512,0,
1,8.87295,0.656057,-0.130357,0.00133328,0,
1,8.85584,0.669355,-0.130354,0.00132948,0,
1,8.83651,0.682629,-0.130353,0.0013236,0,
1,8.81469,0.695898,-0.130352,0.00131552,0,
1,8.79007,0.709182,-0.130354,0.00130507,0,
1,8.76232,0.722503,-0.130358,0.00129206,0,
1,8.73107,0.735885,-0.130365,0.00127628,0,
1,8.69591,0.749358,-0.130377,0.00125743,0,
1,8.6564,0.76296,-0.130394,0.00123519,0,
1,8.61206,0.776734,-0.13042,0.00120912,0,
1,8.56236,0.790739,-0.130455,0.0011789,0,
1,8.50675,0.805051,-0.130504,0.0011458,0,
1,8.44464,0.819814,-0.13057,0.00110486,0,
1,8.3754,0.835246,-0.130656,0.00105328,0,
1,8.29839,0.85159,-0.130768,0.000990044,0,
1,8.21296,0.86909,-0.130915,0.000910666,0,
1,8.11843,0.887939,-0.1311,0.000809922,0,
1,8.01417,0.908136,-0.131339,0.000684366,0,
1,7.89956,0.929235,-0.131627,0.000537453,0,
1,7.77403,0.950109,-0.132002,0.000387715,0,
1,7.63711,0.969144,-0.132451,0.000204396,0,
1,7.48842,0.984017,-0.132982,7.56807e-05,0,
1,7.32773,0.992796,-0.133619,1.80989e-05,0,
1,7.15495,0.995972,-0.13436,1.78367e-06,0,
1,6.97022,0.996025,-0.135218,2.26346e-08,0,
1,6.77388,0.995406,-0.136209,3.62119e-09,0,
1,6.56652,0.995289,-0.137349,9.67141e-09,0,
1,6.34896,0.995743,-0.13865,1.24487e-08,0,
1,6.12229,0.99647,-0.140126,1.40424e-08,0,
1,5.88784,0.997267,-0.141791,1.48763e-08,0,
1,5.64716,0.9981,-0.143658,1.58296e-08,0,
1,5.40194,0.998999,-0.145735,1.71596e-08,0,
1,5.15407,0.999989,-0.14803,1.8824e-08,0,
1,4.90545,1.00108,-0.150543,2.06039e-08,0,
1,4.65805,1.00227,-0.153273,2.25086e-08,0,
1,4.41376,1.00357,-0.156211,2.44874e-08,0,
1,4.17441,1.00494,-0.159342,2.63089e-08,0,
1,3.94163,1.00633,-0.162648,2.78158e-08,0,
1,3.7169,1.0077,-0.166099,2.96267e-08,0,
1,3.50146,1.00912,-0.169664,3.36879e-08,0,
1,3.29629,1.0109,-0.173308,4.20176e-08,0,
1,3.10217,1.01342,-0.177001,5.27397e-08,0,
1,2.91959,1.01645,-0.180714,9.66115e-08,0,
1,2.74885,1.01856,-0.184405,9.26208e-07,0,
1,2.59002,1.01732,-0.188012,-6.53538e-06,0,
1,2.44299,1.01102,-0.191472,-5.34461e-05,0,
1,2.30752,0.999881,-0.19472,-0.000152313,0,
1,2.18321,0.985366,-0.1977,-0.000288993,0,
1,2.06959,0.969058,-0.200444,-0.00040704,0,
1,1.9661,0.952226,-0.202934,-0.000509399,0,
1,1.87215,0.935796,-0.205136,-0.000604846,0,
1,1.78711,0.920273,-0.207089,-0.000688847,0,
1,1.71033,0.905813,-0.208807,-0.000761333,0,
1,1.64119,0.892381,-0.210314,-0.00082384,0,
1,1.57905,0.879866,-0.211631,-0.000878547,0,
1,1.52332,0.868138,-0.212778,-0.000927695,0,
1,1.47342,0.857089,-0.213778,-0.000973423,0,
1,1.42882,0.846627,-0.214631,-0.00100537,0,
1,1.389,0.83667,-0.215351,-0.00103019,0,
1,1.35351,0.827153,-0.215975,-0.00105327,0,
1,1.3219,0.818042,-0.216509,-0.00107388,0,
1,1.29378,0.809318,-0.216966,-0.00109182,0,
1,1.26878,0.800971,-0.217358,-0.00110717,0,
1,1.24659,0.792996,-0.217693,-0.00112033,0,
1,1.22689,0.785387,-0.21798,-0.00113144,0,
1,1.2092,0.778057,-0.218228,-0.00113947,0,
1,1.1932,0.770956,-0.218444,-0.00114514,0,
1,1.1787,0.764068,-0.218632,-0.00114904,0,
1,1.16554,0.757374,-0.218795,-0.00115203,0,
1,1.15357,0.750845,-0.218937,-0.00115584,0,
1,1.14266,0.744437,-0.21906,-0.00116357,0,
1,1.13268,0.738085,-0.219167,-0.00117922,0,
1,1.12354,0.731701,-0.21926,-0.00120828,0,
1,1.11514,0.72517,-0.219342,-0.00125748,0,
1,1.10739,0.718345,-0.219418,-0.00133436,0,
1,1.10022,0.711062,-0.21949,-0.00144655,0,
1,1.09357,0.703152,-0.219562,-0.00160061,0,
1,1.08738,0.694469,-0.219637,-0.0018007,0,
1,1.0816,0.684928,-0.219717,-0.00204713,0,
1,1.07618,0.67453,-0.219803,-0.00233552,0,
1,1.07107,0.663363,-0.219895,-0.00265709,0,
1,1.06626,0.65158,-0.219992,-0.00300024,0,
1,1.06169,0.639367,-0.220094,-0.00335278,0,
1,1.05735,0.626905,-0.2202,-0.00370381,0,
1,1.05321,0.614352,-0.220307,-0.00404483,0,
1,1.04925,0.601831,-0.220417,-0.00436988,0,
1,1.04544,0.589434,-0.220527,-0.00467525,0,
1,1.04177,0.577223,-0.220637,-0.00495898,0,
1,1.03822,0.565237,-0.220748,-0.00522035,0,
1,1.03478,0.553501,-0.220857,-0.00545945,0,
1,1.03144,0.542023,-0.220967,-0.00567689,0,
1,1.02818,0.530805,-0.221075,-0.00587359,0,
1,1.025,0.519844,-0.221182,-0.00605061,0,
1,1.02188,0.509132,-0.221288,-0.00620905,0,
1,1.01882,0.498659,-0.221394,-0.00635002,0,
1,1.01581,0.488413,-0.221498,-0.00647473,0,
1,1.01284,0.478382,-0.221601,-0.00658375,0,
1,1.00988,0.468448,-0.221705,-0.00667887,0,
1,1.00688,0.458494,-0.22181,-0.00676204,0,
1,1.00384,0.448511,-0.221916,-0.00683371,0,
1,1.00076,0.438489,-0.222024,-0.00689315,0,
1,0.997615,0.42841,-0.222133,-0.00694022,0,
1,0.99441,0.418255,-0.222243,-0.00697461,0,
1,0.991131,0.407999,-0.222354,-0.00699639,0,
1,0.987768,0.397616,-0.222467,-0.00700546,0,
1,0.984308,0.387078,-0.222581,-0.00700148,0,
1,0.980739,0.376354,-0.222697,-0.00698399,0,
1,0.977045,0.365412,-0.222815,-0.00695238,0,
1,0.973211,0.354215,-0.222935,-0.00690588,0,
1,0.969219,0.342725,-0.223058,-0.00684357,0,
1,0.965047,0.3309,-0.223182,-0.00676434,0,
1,0.960675,0.318694,-0.223309,-0.00666685,0,
1,0.956077,0.306056,-0.223439,-0.0065488,0,
1,0.951224,0.292934,-0.223571,-0.00640866,0,
1,0.946088,0.279278,-0.223707,-0.00624445,0,
1,0.940633,0.265047,-0.223846,-0.00605564,0,
1,0.934823,0.250207,-0.223988,-0.00583902,0,
1,0.928616,0.23473,-0.224134,-0.0055924,0,
1,0.921967,0.218598,-0.224282,-0.00531381,0,
1,0.914826,0.201804,-0.224433,-0.00500159,0,
1,0.907141,0.184361,-0.224586,-0.00465466,0,
1,0.898852,0.166309,-0.22474,-0.00427286,0,
1,0.889898,0.147725,-0.224894,-0.00385746,0,
1,0.880212,0.128743,-0.225047,-0.00341181,0,
1,0.869723,0.109573,-0.225201,-0.00294239,0,
1,0.858358,0.09054,-0.225355,-0.0024603,0,
1,0.846039,0.0721203,-0.225511,-0.00198337,0,
1,0.83269,0.0549614,-0.225671,-0.00153722,0,
1,0.818232,0.0398157,-0.225837,-0.00115424,0,
1,0.802744,0.0273831,-0.226001,-0.000856739,0,
1,0.78635,0.0178159,-0.226168,-0.000643018,0,
1,0.768969,0.0106081,-0.22633,-0.000499943,0,
1,0.75053,0.00506037,-0.226483,-0.00041103,0,
1,0.730977,0.000546949,-0.226619,-0.000360602,0,
1,0.710271,-0.00338771,-0.226738,-0.000335513,0,
1,0.688397,-0.00703761,-0.226837,-0.000326169,0,
1,0.66536,-0.0105786,-0.22692,-0.000326406,0,
1,0.641194,-0.0141234,-0.226986,-0.000329709,0,
1,0.615961,-0.0177417,-0.227035,-0.000332803,0,
1,0.589754,-0.0214625,-0.227067,-0.000333181,0,
1,0.562692,-0.0252823,-0.227082,-0.000329459,0,
1,0.534925,-0.0291722,-0.227078,-0.000321071,0,
1,0.506624,-0.0330855,-0.227053,-0.000308,0,
1,0.477982,-0.0369643,-0.227007,-0.00029057,0,
1,0.449206,-0.0407451,-0.226939,-0.000269309,0,
1,0.420509,-0.044363,-0.226849,-0.000244844,0,
1,0.392107,-0.0477545,-0.226741,-0.000217849,0,
1,0.364206,-0.0508588,-0.226616,-0.000188997,0,
1,0.337003,-0.0536191,-0.226479,-0.000158928,0,
1,0.310673,-0.055983,-0.226334,-0.000128219,0,
1,0.28537,-0.0579018,-0.226186,-9.73702e-05,0,
1,0.26122,-0.0593311,-0.22604,-6.68169e-05,0,
1,0.238324,-0.0602299,-0.225902,-3.69424e-05,0,
1,0.21675,-0.0605618,-0.225775,-8.1098e-06,0,
1,0.196544,-0.0602961,-0.225663,1.92917e-05,0,
1,0.177724,-0.0594113,-0.225569,4.48067e-05,0,
1,0.160284,-0.0578993,-0.225495,6.79031e-05,0,
1,0.144202,-0.0557701,-0.22544,8.80021e-05,0,
1,0.129436,-0.0530563,-0.225404,0.000104548,0,
1,0.115935,-0.0498151,-0.225385,0.000117096,0,
1,0.103636,-0.0461268,-0.22538,0.000125389,0,
1,0.0924701,-0.0420905,-0.225386,0.000129381,0,
1,0.0823633,-0.0378163,-0.225401,0.000129283,0,
1,0.0732406,-0.0334166,-0.225421,0.000125516,0,
1,0.0650269,-0.0289974,-0.225445,0.00011864,0,
1,0.057648,-0.024651,-0.225469,0.000109284,0,
1,0.0510323,-0.0204509,-0.225492,9.80849e-05,0,
1,0.0451115,-0.0164496,-0.225514,8.56343e-05,0,
1,0.0398209,-0.0126802,-0.225534,7.24606e-05,0,
1,0.0351001,-0.00915984,-0.225551,5.90309e-05,0,
1,0.0308929,-0.00589773,-0.225564,4.5791e-05,0,
1,0.0271475,-0.0029051,-0.225575,3.32443e-05,0,
1,0.0238164,-0.000209141,-0.225583,2.2073e-05,0,
1,0.0208562,0.00213692,-0.225589,1.29483e-05,0,
1,0.0182274,0.00405842,-0.225592,6.52339e-06,0,
1,0.0158944,0.0054883,-0.225594,2.73628e-06,0,
1,0.0138249,0.00640906,-0.225596,9.1018e-07,0,
1,0.0119898,0.0068669,-0.225597,1.97183e-07,0,
1,0.0103632,0.00695025,-0.225597,-1.71341e-08,0,
1,0.00892169,0.00675695,-0.225598,-5.27489e-08,0,
1,0.00764438,0.00637347,-0.225598,-4.06354e-08,0,
1,0.00651264,0.00586789,-0.225598,-2.37171e-08,0,
1,0.00550983,0.00529097,-0.225598,-1.19517e-08,0,
1,0.00462115,0.00467933,-0.225598,-5.39667e-09,0,
1,0.00383341,0.00405888,-0.225599,-2.20086e-09,0,
1,0.0031349,0.00344746,-0.225598,-8.04362e-10,0,
1,0.00251518,0.00285703,-0.225599,-2.57815e-10,0,
1,0.00196502,0.00229516,-0.225598,-6.96464e-11,0,
1,0.00147619,0.00176627,-0.225599,-1.47861e-11,0,
1,0.00104139,0.00127242,-0.225598,-2.16855e-12,0,
1,0.000654158,0.000814077,-0.225599,-1.69073e-13,0,
1,0.000308731,0.000390514,-0.225598,-3.84649e-15,0,

4,0,0,-0.166775,0,0,
4,9,0,-0.100106,0,0,
4,8.99969,0.0142848,-0.100106,2.25043e-10,0,
4,8.99934,0.0304345,-0.100106,1.04408e-08,0,
4,8.99894,0.0487113,-0.100106,1.42567e-07,0,
4,8.9985,0.069392,-0.100106,1.03477e-06,0,
4,8.99799,0.0927584,-0.100106,5.13554e-06,0,
4,8.99742,0.119013,-0.100106,1.9441e-05,0,
4,8.99677,0.148069,-0.100106,5.8319e-05,0,
4,8.99605,0.179244,-0.100106,0.000139265,0,
4,8.99522,0.21118,-0.100105,0.000266067,0,
4,8.99429,0.242334,-0.100105,0.000418408,0,
4,8.99324,0.271643,-0.100105,0.000568324,0,
4,8.99205,0.298729,-0.100105,0.000697857,0,
4,8.9907,0.323669,-0.100104,0.000802007,0,
4,8.98919,0.346637,-0.100104,0.000889745,0,
4,8.98747,0.36782,-0.100103,0.000962711,0,
4,8.98553,0.387486,-0.100102,0.00102017,0,
4,8.98334,0.405915,-0.100101,0.00106641,0,
4,8.98087,0.423327,-0.1001,0.00110545,0,
4,8.97807,0.43989,-0.100099,0.00113857,0,
4,8.97491,0.455745,-0.100097,0.00116706,0,
4,8.97134,0.471012,-0.100095,0.0011919,0,
4,8.96731,0.485789,-0.100093,0.00121383,0,
4,8.96276,0.500163,-0.10009,0.00123335,0,
4,8.95762,0.514205,-0.100087,0.00125084,0,
4,8.95182,0.527978,-0.100084,0.00126655,0,
4,8.94526,0.541534,-0.10008,0.00128063,0,
4,8.93787,0.554919,-0.100076,0.00129316,0,
4,8.92952,0.568174,-0.100071,0.00130414,0,
4,8.92011,0.581332,-0.100066,0.00131353,0,
4,8.90949,0.594422,-0.10006,0.00132125,0,
4,8.89751,0.607469,-0.100053,0.00132715,0,
4,8.88402,0.620493,-0.100047,0.0013311,0,
4,8.86881,0.633514,-0.100039,0.00133293,0,
4,8.85169,0.646545,-0.100032,0.00133246,0,
4,8.83242,0.6596,-0.100024,0.0013295,0,
4,8.81074,0.67269,-0.100016,0.00132387,0,
4,8.78637,0.685828,-0.100009,0.00131539,0,
4,8.75901,0.699025,-0.100003,0.00130388,0,
4,8.7283,0.712298,-0.0999975,0.00128913,0,
4,8.69387,0.725664,-0.0999943,0.00127094,0,
4,8.65533,0.739147,-0.0999941,0.00124905,0,
4,8.61222,0.752779,-0.0999978,0.00122314,0,
4,8.56407,0.766601,-0.100007,0.00119285,0,
4,8.5104,0.780667,-0.100023,0.00115815,0,
4,8.45065,0.795058,-0.100048,0.00112015,0,
4,8.38429,0.809931,-0.100087,0.00107222,0,
4,8.31073,0.825519,-0.100141,0.0010148,0,
4,8.22941,0.842079,-0.100214,0.000944433,0,
4,8.13974,0.859874,-0.10031,0.000856781,0,
4,8.04115,0.879079,-0.100431,0.000748223,0,
4,7.93313,0.899583,-0.100583,0.000619032,0,
4,7.81519,0.920679,-0.100759,0.000478359,0,
4,7.68693,0.940901,-0.100983,0.000343611,0,
4,7.54803,0.95835,-0.101237,0.000202547,0,
4,7.39831,0.971139,-0.101541,8.89869e-05,0,
4,7.23771,0.978394,-0.10191,2.74578e-05,0,
4,7.06634,0.981063,-0.102333,4.53496e-06,0,
4,6.88453,0.981209,-0.102815,1.6625e-08,0,
4,6.69275,0.980671,-0.103356,-8.13065e-08,0,
4,6.49173,0.980378,-0.103965,2.56804e-08,0,
4,6.28238,0.980481,-0.104651,2.61886e-08,0,
4,6.06579,0.980817,-0.105424,1.49264e-08,0,
4,5.84328,0.981228,-0.106288,1.01279e-08,0,
4,5.61626,0.981653,-0.107252,8.89883e-09,0,
4,5.3863,0.982093,-0.108318,9.01527e-09,0,
4,5.15502,0.982565,-0.109492,9.67713e-09,0,
4,4.92406,0.983081,-0.110776,1.06222e-08,0,
4,4.69507,0.983654,-0.112171,1.17539e-08,0,
4,4.46961,0.984289,-0.113676,1.29269e-08,0,
4,4.24915,0.984966,-0.115287,1.38389e-08,0,
4,4.03501,0.98563,-0.116999,1.42023e-08,0,
4,3.82836,0.986214,-0.118805,1.42869e-08,0,
4,3.63018,0.986724,-0.120695,1.55205e-08,0,
4,3.44125,0.987344,-0.122655,2.09361e-08,0,
4,3.26217,0.988435,-0.124673,7.1614e-08,0,
4,3.09333,0.990287,-0.126735,6.27302e-07,0,
4,2.93497,0.992697,-0.128824,2.89585e-06,0,
4,2.78715,0.994787,-0.130922,5.5925e-06,0,
4,2.64979,0.995363,-0.133009,9.17707e-07,0,
4,2.52268,0.993507,-0.135062,-2.09886e-05,0,
4,2.40551,0.988909,-0.137054,-6.50905e-05,0,
4,2.29789,0.981837,-0.138963,-0.000129679,0,
4,2.19939,0.9729,-0.140772,-0.000208418,0,
4,2.10949,0.962795,-0.14247,-0.000293345,0,
4,2.02768,0.952157,-0.14405,-0.00037691,0,
4,1.95343,0.941497,-0.145514,-0.000453087,0,
4,1.88618,0.931186,-0.14686,-0.000519731,0,
4,1.82542,0.921405,-0.148099,-0.000565527,0,
4,1.77062,0.91221,-0.149232,-0.000603785,0,
4,1.72128,0.903651,-0.150261,-0.000638142,0,
4,1.67693,0.895757,-0.151194,-0.000668697,0,
4,1.63713,0.888522,-0.152038,-0.000695841,0,
4,1.60144,0.881926,-0.152801,-0.000719949,0,
4,1.56949,0.875936,-0.153488,-0.000741418,0,
4,1.54091,0.870512,-0.154106,-0.000760751,0,
4,1.51537,0.8656,-0.154662,-0.000778253,0,
4,1.49167,0.861004,-0.155179,-0.000794357,0,
4,1.46926,0.856634,-0.155669,-0.000809607,0,
4,1.44801,0.852458,-0.156143,-0.000821401,0,
4,1.42781,0.848436,-0.156602,-0.000828091,0,
4,1.40855,0.844543,-0.15704,-0.000834443,0,
4,1.39015,0.840763,-0.157461,-0.000839443,0,
4,1.37252,0.837082,-0.157866,-0.000843456,0,
4,1.3556,0.833484,-0.158257,-0.000846979,0,
4,1.3393,0.829953,-0.158636,-0.00085048,0,
4,1.32357,0.82647,-0.159003,-0.000854864,0,
4,1.30836,0.823017,-0.15936,-0.000860831,0,
4,1.29362,0.819572,-0.159707,-0.000869324,0,
4,1.2793,0.81611,-0.160045,-0.000881558,0,
4,1.26537,0.812599,-0.160375,-0.000899047,0,
4,1.25179,0.809005,-0.160698,-0.000923654,0,
4,1.23852,0.805285,-0.161015,-0.000957617,0,
4,1.22554,0.801386,-0.161325,-0.00100357,0,
4,1.21282,0.797249,-0.161629,-0.00106454,0,
4,1.20034,0.792806,-0.161928,-0.00114381,0,
4,1.18806,0.787979,-0.162221,-0.00124481,0,
4,1.17599,0.78269,-0.162508,-0.00137076,0,
4,1.16408,0.776863,-0.16279,-0.00152435,0,
4,1.15233,0.770431,-0.163067,-0.00170729,0,
4,1.14073,0.76335,-0.163338,-0.00191991,0,
4,1.12925,0.755597,-0.163603,-0.00216095,0,
4,1.11788,0.74718,-0.163864,-0.00242753,0,
4,1.10661,0.73813,-0.164119,-0.00271538,0,
4,1.09543,0.7285,-0.16437,-0.00301932,0,
4,1.08432,0.718357,-0.164615,-0.0033337,0,
4,1.07328,0.707773,-0.164857,-0.00365287,0,
4,1.0623,0.696821,-0.165093,-0.0039716,0,
4,1.05136,0.685572,-0.165326,-0.00428523,0,
4,1.04044,0.674069,-0.165554,-0.00458993,0,
4,1.0295,0.662349,-0.165779,-0.00488275,0,
4,1.01855,0.65046,-0.166001,-0.00516087,0,
4,1.00757,0.638444,-0.16622,-0.00542169,0,
4,0.996544,0.626336,-0.166435,-0.00566345,0,
4,0.98547,0.614169,-0.166646,-0.00588407,0,
4,0.974334,0.601971,-0.166854,-0.00608208,0,
4,0.963124,0.589763,-0.16706,-0.0062561,0,
4,0.951826,0.577568,-0.167259,-0.00640487,0,
4,0.940428,0.565404,-0.167465,-0.00653592,0,
4,0.928915,0.553257,-0.167643,-0.00665788,0,
4,0.917272,0.540994,-0.167775,-0.00672299,0,
4,0.905481,0.528448,-0.167894,-0.00679494,0,
4,0.893524,0.515532,-0.168009,-0.00687426,0,
4,0.881383,0.502191,-0.168122,-0.00696105,0,
4,0.869035,0.488385,-0.168238,-0.00705524,0,
4,0.856459,0.474079,-0.168357,-0.0071565,0,
4,0.843629,0.459241,-0.16848,-0.00726433,0,
4,0.830518,0.443845,-0.168608,-0.00737803,0,
4,0.817097,0.427865,-0.168739,-0.00749675,0,
4,0.803334,0.411281,-0.168873,-0.00761951,0,
4,0.789195,0.394079,-0.16901,-0.0077452,0,
4,0.774643,0.376247,-0.169148,-0.00787251,0,
4,0.759639,0.357777,-0.169287,-0.00799994,0,
4,0.744138,0.33867,-0.169427,-0.00812569,0,
4,0.728096,0.318935,-0.169567,-0.00824753,0,
4,0.711463,0.298597,-0.169709,-0.00836294,0,
4,0.694189,0.277694,-0.169852,-0.00846883,0,
4,0.676218,0.256278,-0.169996,-0.00856101,0,
4,0.657495,0.234407,-0.17014,-0.00863497,0,
4,0.637962,0.212137,-0.170285,-0.00868657,0,
4,0.617561,0.189512,-0.170424,-0.00871253,0,
4,0.596848,0.167179,-0.17055,-0.00870978,0,
4,0.576557,0.145891,-0.17066,-0.00867795,0,
4,0.556564,0.125514,-0.170752,-0.00861842,0,
4,0.536763,0.105942,-0.17083,-0.00853193,0,
4,0.517057,0.0871217,-0.170906,-0.00841876,0,
4,0.497368,0.0690774,-0.170996,-0.00827947,0,
4,0.477632,0.0519157,-0.171125,-0.00811649,0,
4,0.457804,0.0357884,-0.171301,-0.00793495,0,
4,0.437857,0.0208065,-0.171528,-0.00774518,0,
4,0.417786,0.00690441,-0.171687,-0.00755363,0,
4,0.397605,-0.00629163,-0.171626,-0.00718179,0,
4,0.377348,-0.0190841,-0.171474,-0.00685581,0,
4,0.357066,-0.0314891,-0.171346,-0.00653467,0,
4,0.336828,-0.043454,-0.171191,-0.00620606,0,
4,0.316717,-0.054924,-0.171028,-0.00587007,0,
4,0.296825,-0.0658507,-0.170852,-0.0055278,0,
4,0.27725,-0.0761963,-0.170666,-0.00518153,0,
4,0.258095,-0.0859339,-0.170471,-0.00483383,0,
4,0.239458,-0.0950473,-0.170269,-0.00448741,0,
4,0.221432,-0.10353,-0.170061,-0.004145,0,
4,0.2041,-0.111387,-0.169849,-0.00380918,0,
4,0.187537,-0.118629,-0.169635,-0.00348235,0,
4,0.171798,-0.125274,-0.16942,-0.00316659,0,
4,0.156928,-0.131347,-0.169207,-0.00286369,0,
4,0.142956,-0.136874,-0.168997,-0.00257505,0,
4,0.129894,-0.141886,-0.168793,-0.00230171,0,
4,0.117744,-0.146414,-0.168595,-0.00204437,0,
4,0.106492,-0.150488,-0.168407,-0.00180341,0,
4,0.0961173,-0.154137,-0.168229,-0.00157888,0,
4,0.0865883,-0.157392,-0.168062,-0.00137062,0,
4,0.0778675,-0.160277,-0.167906,-0.00117825,0,
4,0.0699123,-0.162817,-0.167763,-0.0010012,0,
4,0.062677,-0.165034,-0.167633,-0.000838815,0,
4,0.056114,-0.166947,-0.167514,-0.000690318,0,
4,0.0501747,-0.168571,-0.167408,-0.000554893,0,
4,0.0448114,-0.16992,-0.167313,-0.000431697,0,
4,0.039977,-0.171002,-0.167229,-0.000319885,0,
4,0.0356266,-0.171825,-0.167155,-0.000218634,0,
4,0.0317171,-0.172389,-0.16709,-0.000127165,0,
4,0.0282081,-0.172692,-0.167034,-4.47562e-05,0,
4,0.0250617,-0.172724,-0.166986,2.92309e-05,0,
4,0.0222427,-0.172467,-0.166944,9.53293e-05,0,
4,0.0197189,-0.171896,-0.166909,0.000153928,0,
4,0.0174603,-0.170968,-0.166879,0.000205219,0,
4,0.0154398,-0.169625,-0.166855,0.000249107,0,
4,0.0136326,-0.16778,-0.166835,0.000285068,0,
4,0.0120162,-0.165311,-0.166819,0.000311931,0,
4,0.0105703,-0.162042,-0.166806,0.000327602,0,
4,0.00927657,-0.157735,-0.166796,0.000328857,0,
4,0.00811839,-0.152083,-0.166789,0.000311721,0,
4,0.0070809,-0.144749,-0.166784,0.000273382,0,
4,0.0061507,-0.135479,-0.166781,0.000216043,0,
4,0.00531578,-0.124298,-0.166779,0.000149936,0,
4,0.00456537,-0.111637,-0.166778,8.99682e-05,0,
4,0.00388979,-0.0982215,-0.166778,4.66458e-05,0,
4,0.00328037,-0.084769,-0.166777,2.10813e-05,0,
4,0.00272934,-0.0717661,-0.166777,8.35501e-06,0,
4,0.0022297,-0.0594506,-0.166776,2.88065e-06,0,
4,0.00177519,-0.0478934,-0.166777,8.38008e-07,0,
4,0.00136016,-0.0370787,-0.166776,1.9272e-07,0,
4,0.000979511,-0.0269525,-0.166777,3.0831e-08,0,
4,0.00062865,-0.0174464,-0.166775,2.62811e-09,0,
4,0.000303409,-0.00848765,-0.166777,6.39869e-11,0,

6,0,0,-0.0243562,0,0,
6,9,0,-0.0760726,0,0,
6,8.99969,0.013534,-0.0760722,1.87434e-10,0,
6,8.99934,0.0287962,-0.0760725,8.65058e-09,0,
6,8.99895,0.0460248,-0.0760722,1.17283e-07,0,
6,8.9985,0.0654711,-0.0760724,8.45235e-07,0,
6,8.99801,0.087394,-0.0760722,4.17249e-06,0,
6,8.99744,0.111993,-0.0760723,1.57824e-05,0,
6,8.99681,0.13924,-0.0760721,4.76931e-05,0,
6,8.99609,0.168606,-0.0760722,0.000115906,0,
6,8.99529,0.198937,-0.076072,0.000227066,0,
6,8.99438,0.2288,-0.0760719,0.000366555,0,
6,8.99336,0.257097,-0.0760716,0.000508797,0,
6,8.9922,0.283333,-0.0760715,0.000636457,0,
6,8.9909,0.307509,-0.0760711,0.000739775,0,
6,8.98944,0.329786,-0.0760707,0.00082667,0,
6,8.98779,0.350335,-0.0760701,0.000899742,0,
6,8.98593,0.369405,-0.0760694,0.000957626,0,
6,8.98383,0.387254,-0.0760686,0.00100508,0,
6,8.98147,0.40409,-0.0760676,0.00104528,0,
6,8.97881,0.420078,-0.0760664,0.0010797,0,
6,8.97581,0.435358,-0.076065,0.00110965,0,
6,8.97244,0.450048,-0.0760633,0.00113616,0,
6,8.96863,0.46425,-0.0760613,0.00115996,0,
6,8.96435,0.478049,-0.0760589,0.00118161,0,
6,8.95953,0.491518,-0.0760561,0.00120152,0,
6,8.95409,0.504724,-0.0760529,0.00121996,0,
6,8.94798,0.51772,-0.0760491,0.0012371,0,
6,8.94109,0.530556,-0.0760448,0.00125303,0,
6,8.93334,0.543276,-0.0760399,0.00126777,0,
6,8.92463,0.555916,-0.0760342,0.00128127,0,
6,8.91482,0.568511,-0.0760278,0.00129342,0,
6,8.90379,0.581087,-0.0760205,0.00130408,0,
6,8.89139,0.593671,-0.0760124,0.00131304,0,
6,8.87746,0.606281,-0.0760032,0.00132007,0,
6,8.86181,0.618936,-0.0759931,0.00132494,0,
6,8.84423,0.63165,-0.0759819,0.00132735,0,
6,8.82452,0.644432,-0.0759696,0.00132705,0,
6,8.80241,0.657293,-0.0759564,0.00132376,0,
6,8.77763,0.67024,-0.0759422,0.00131723,0,
6,8.74989,0.68328,-0.0759269,0.00130719,0,
6,8.71885,0.696422,-0.0759107,0.00129342,0,
6,8.68417,0.709677,-0.0758937,0.00127567,0,
6,8.64545,0.72306,-0.075876,0.00125369,0,
6,8.60229,0.736594,-0.075858,0.00122719,0,
6,8.55423,0.750306,-0.0758398,0.00119586,0,
6,8.50082,0.764239,-0.0758219,0.00116008,0,
6,8.44155,0.778465,-0.0758056,0.00111884,0,
6,8.37592,0.793113,-0.0757912,0.00107115,0,
6,8.30339,0.80838,-0.0757796,0.0010151,0,
6,8.22344,0.824524,-0.0757706,0.000947819,0,
6,8.13555,0.841842,-0.0757654,0.000865571,0,
6,8.0392,0.860585,-0.0757598,0.000764939,0,
6,7.93391,0.880744,-0.0757541,0.000645683,0,
6,7.81927,0.901731,-0.0757371,0.000514373,0,
6,7.6949,0.922167,-0.075715,0.000386063,0,
6,7.56054,0.940211,-0.0756785,0.00027049,0,
6,7.41603,0.954255,-0.0756324,0.000139573,0,
6,7.26132,0.963324,-0.0755833,5.54077e-05,0,
6,7.09653,0.967673,-0.0755191,1.41762e-05,0,
6,6.92195,0.96876,-0.075441,8.21694e-07,0,
6,6.73802,0.96834,-0.0753418,-9.57372e-07,0,
6,6.5454,0.967649,-0.0752191,-4.42703e-07,0,
6,6.34489,0.967186,-0.0750697,-1.18725e-07,0,
6,6.1375,0.966968,-0.0748909,-2.98117e-08,0,
6,5.92439,0.966858,-0.074679,-1.08745e-08,0,
6,5.70687,0.966748,-0.0744298,-6.32169e-09,0,
6,5.48633,0.966593,-0.0741386,-5.06673e-09,0,
6,5.26426,0.966391,-0.0738007,-4.9391e-09,0,
6,5.04218,0.966153,-0.073411,-5.24528e-09,0,
6,4.82159,0.965889,-0.072965,-5.69989e-09,0,
6,4.60398,0.965613,-0.0724583,-6.25636e-09,0,
6,4.39071,0.965322,-0.0718874,-7.09518e-09,0,
6,4.18307,0.964985,-0.0712498,-8.56008e-09,0,
6,3.98218,0.964539,-0.0705443,-1.08684e-08,0,
6,3.78902,0.963927,-0.0697715,-1.36609e-08,0,
6,3.60438,0.963174,-0.0689337,-1.75414e-08,0,
6,3.42888,0.962455,-0.0680348,-3.61214e-08,0,
6,3.26296,0.962064,-0.06708,-8.67329e-08,0,
6,3.10691,0.962241,-0.0660749,-5.6631e-08,0,
6,2.96084,0.962953,-0.0650257,2.4499e-07,0,
6,2.82473,0.963805,-0.0639407,2.40513e-08,0,
6,2.69844,0.964164,-0.0628314,-3.7605e-06,0,
6,2.58172,0.963412,-0.0617113,-1.56465e-05,0,
6,2.47424,0.961157,-0.0605949,-3.93512e-05,0,
6,2.37559,0.957303,-0.0594961,-7.62235e-05,0,
6,2.28535,0.952003,-0.0584274,-0.000125158,0,
6,2.20301,0.945563,-0.057399,-0.000183265,0,
6,2.1281,0.938344,-0.056419,-0.000246767,0,
6,2.06009,0.9307,-0.0554932,-0.000311667,0,
6,1.99849,0.922945,-0.0546243,-0.000374076,0,
6,1.9428,0.915339,-0.0538163,-0.00043089,0,
6,1.89255,0.908074,-0.0530638,-0.000481737,0,
6,1.84728,0.901228,-0.0523748,-0.000522127,0,
6,1.80655,0.894796,-0.0517481,-0.000552412,0,
6,1.76996,0.888786,-0.0511694,-0.000580213,0,
6,1.73712,0.88322,-0.0506433,-0.000605669,0,
6,1.70768,0.878068,-0.0501616,-0.000629236,0,
6,1.67998,0.873103,-0.0497045,-0.000652078,0,
6,1.65329,0.868227,-0.0492573,-0.000674389,0,
6,1.62754,0.863437,-0.0488206,-0.000696128,0,
6,1.60265,0.858733,-0.048393,-0.000717357,0,
6,1.57854,0.854113,-0.0479744,-0.000738027,0,
6,1.55515,0.849575,-0.0475637,-0.000758182,0,
6,1.53242,0.845115,-0.0471607,-0.000777844,0,
6,1.5103,0.840728,-0.0467649,-0.000797012,0,
6,1.48874,0.8364,-0.0463758,-0.000815683,0,
6,1.46769,0.832119,-0.0459931,-0.000833957,0,
6,1.44712,0.827871,-0.0456155,-0.000852124,0,
6,1.42698,0.823663,-0.045241,-0.000870721,0,
6,1.40725,0.819527,-0.0448675,-0.000890261,0,
6,1.38788,0.815512,-0.0444954,-0.000911004,0,
6,1.36886,0.811641,-0.044125,-0.000931844,0,
6,1.35015,0.807862,-0.0437685,-0.000938225,0,
6,1.33173,0.8041,-0.0434209,-0.000945817,0,
6,1.31357,0.800327,-0.0430719,-0.000956337,0,
6,1.29566,0.796525,-0.0427272,-0.00096861,0,
6,1.27797,0.792675,-0.042384,-0.000983662,0,
6,1.26048,0.788752,-0.0420432,-0.00100269,0,
6,1.24318,0.784726,-0.0417043,-0.00102725,0,
6,1.22605,0.780559,-0.0413672,-0.00105918,0,
6,1.20907,0.776207,-0.0410318,-0.00110064,0,
6,1.19223,0.771618,-0.040698,-0.00115404,0,
6,1.17551,0.766732,-0.0403658,-0.00122197,0,
6,1.1589,0.761486,-0.040035,-0.00130698,0,
6,1.14238,0.755812,-0.0397058,-0.00141139,0,
6,1.12595,0.749648,-0.0393781,-0.00153697,0,
6,1.10959,0.74294,-0.0390523,-0.00168462,0,
6,1.09329,0.735651,-0.0387284,-0.0018541,0,
6,1.07704,0.727762,-0.0384069,-0.00204393,0,
6,1.06081,0.719275,-0.0380878,-0.00225134,0,
6,1.04459,0.710209,-0.0377714,-0.00247258,0,
6,1.02836,0.700606,-0.0374578,-0.00270309,0,
6,1.01211,0.690522,-0.0371476,-0.00293783,0,
6,0.99583,0.680019,-0.0368405,-0.0031717,0,
6,0.97951,0.669164,-0.0365377,-0.00340026,0,
6,0.963136,0.658021,-0.0362377,-0.00363488,0,
6,0.946694,0.646552,-0.0359322,-0.0038406,0,
6,0.930172,0.634652,-0.0356235,-0.00404993,0,
6,0.913555,0.622251,-0.0353178,-0.00426604,0,
6,0.896829,0.609294,-0.0350155,-0.00449083,0,
6,0.879979,0.595742,-0.0347181,-0.00472573,0,
6,0.862989,0.581569,-0.0344259,-0.00497181,0,
6,0.845842,0.566769,-0.0341397,-0.00522995,0,
6,0.828521,0.551355,-0.0338606,-0.00550092,0,
6,0.811008,0.535341,-0.0335907,-0.00577995,0,
6,0.793282,0.518733,-0.0333317,-0.00606525,0,
6,0.775322,0.50154,-0.0330843,-0.0063549,0,
6,0.757107,0.483779,-0.0328493,-0.00664641,0,
6,0.738612,0.465476,-0.0326276,-0.00693674,0,
6,0.719813,0.446669,-0.0324202,-0.00722229,0,
6,0.700681,0.427407,-0.032228,-0.00749901,0,
6,0.681188,0.407746,-0.0320507,-0.0077625,0,
6,0.661304,0.38774,-0.0318862,-0.00800807,0,
6,0.640996,0.367434,-0.031731,-0.00823072,0,
6,0.620228,0.346862,-0.0315822,-0.00842507,0,
6,0.598964,0.326074,-0.0314428,-0.00858517,0,
6,0.577166,0.305185,-0.0313288,-0.00870478,0,
6,0.554791,0.284433,-0.0312748,-0.00877933,0,
6,0.531799,0.264203,-0.031322,-0.00880706,0,
6,0.508144,0.244922,-0.0314911,-0.00879175,0,
6,0.48378,0.226778,-0.0317182,-0.008732,0,
6,0.459585,0.21002,-0.031658,-0.00843573,0,
6,0.436695,0.194873,-0.0314294,-0.00813641,0,
6,0.414961,0.181014,-0.0312752,-0.00785642,0,
6,0.394252,0.168268,-0.031101,-0.00756532,0,
6,0.374445,0.15649,-0.0309344,-0.00727125,0,
6,0.355433,0.145562,-0.0307677,-0.00697337,0,
6,0.337122,0.135382,-0.0305998,-0.0066729,0,
6,0.319433,0.125867,-0.030429,-0.00637086,0,
6,0.3023,0.116944,-0.0302536,-0.00606804,0,
6,0.28567,0.108554,-0.0300725,-0.0057652,0,
6,0.269507,0.10065,-0.0298845,-0.00546308,0,
6,0.253785,0.0931913,-0.0296886,-0.00516247,0,
6,0.238493,0.0861473,-0.0294842,-0.00486425,0,
6,0.223631,0.079493,-0.029271,-0.0045694,0,
6,0.209207,0.0732082,-0.0290491,-0.004279,0,
6,0.195237,0.0672765,-0.0288187,-0.00399419,0,
6,0.181744,0.0616842,-0.0285808,-0.00371616,0,
6,0.168754,0.056419,-0.0283365,-0.0034461,0,
6,0.156292,0.0514695,-0.0280875,-0.00318512,0,
6,0.144384,0.0468245,-0.0278357,-0.0029343,0,
6,0.133052,0.0424726,-0.0275832,-0.00269453,0,
6,0.122315,0.0384021,-0.0273324,-0.00246658,0,
6,0.112183,0.0346007,-0.0270856,-0.00225101,0,
6,0.102665,0.0310556,-0.0268451,-0.0020482,0,
6,0.0937597,0.0277537,-0.0266128,-0.00185834,0,
6,0.0854609,0.0246817,-0.0263907,-0.00168142,0,
6,0.077757,0.0218259,-0.0261802,-0.00151729,0,
6,0.0706309,0.019173,-0.0259824,-0.00136563,0,
6,0.0640611,0.0167096,-0.0257982,-0.00122599,0,
6,0.0580229,0.0144227,-0.025628,-0.00109786,0,
6,0.0524888,0.0122999,-0.0254718,-0.000980636,0,
6,0.0474296,0.0103289,-0.0253296,-0.000873663,0,
6,0.042815,0.0084983,-0.0252009,-0.000776269,0,
6,0.0386145,0.00679709,-0.0250851,-0.000687768,0,
6,0.0347975,0.00521493,-0.0249815,-0.000607479,0,
6,0.0313344,0.00374207,-0.0248895,-0.000534736,0,
6,0.0281964,0.00236936,-0.024808,-0.000468904,0,
6,0.0253561,0.00108826,-0.0247363,-0.000409376,0,
6,0.0227875,-0.000109167,-0.0246737,-0.000355583,0,
6,0.0204662,-0.00123039,-0.024619,-0.000306951,0,
6,0.0183694,-0.00228233,-0.0245718,-0.000263005,0,
6,0.016476,-0.00327127,-0.0245309,-0.000223279,0,
6,0.0147664,-0.00420281,-0.0244963,-0.000187346,0,
6,0.0132228,-0.00508176,-0.0244665,-0.000154823,0,
6,0.0118288,-0.00591173,-0.0244421,-0.000125375,0,
6,0.0105693,-0.00669452,-0.0244212,-9.87258e-05,0,
6,0.00943073,-0.00742898,-0.0244051,-7.46928e-05,0,
6,0.00840063,-0.0081089,-0.0243913,-5.3242e-05,0,
6,0.00746774,-0.00871971,-0.0243819,-3.45845e-05,0,
6,0.00662185,-0.00923417,-0.0243736,-1.92552e-05,0,
6,0.00585371,-0.00960973,-0.0243695,-7.99073e-06,0,
6,0.00515491,-0.00979435,-0.0243651,-1.19279e-06,0,
6,0.00451788,-0.00974579,-0.0243643,1.71058e-06,0,
6,0.00393573,-0.00945362,-0.0243617,2.15989e-06,0,
6,0.00340221,-0.00894255,-0.0243624,1.6145e-06,0,
6,0.00291168,-0.00825587,-0.0243602,9.46425e-07,0,
6,0.00245897,-0.00743751,-0.0243617,4.66084e-07,0,
6,0.00203939,-0.00652322,-0.0243592,1.95088e-07,0,
6,0.00164864,-0.00553913,-0.0243613,6.78096e-08,0,
6,0.00128281,-0.00450305,-0.0243583,1.84022e-08,0,
6,0.000938257,-0.0034264,-0.024361,3.43649e-09,0,
6,0.000611645,-0.00231567,-0.0243573,3.37657e-10,0,
6,0.000299862,-0.00117357,-0.024361,9.21923e-12,0,

10,0.000296632,0.00818197,0.030291,-4.53158e-11,0,
10,0.000596102,0.0164392,0.0302917,-1.67938e-09,0,
10,0.000900397,0.0248263,0.030291,-1.70741e-08,0,
10,0.00121153,0.0333984,0.0302915,-9.17509e-08,0,
10,0.00153158,0.0422106,0.0302909,-3.43208e-07,0,
10,0.00186264,0.0513172,0.0302914,-1.02053e-06,0,
10,0.00220692,0.060769,0.0302909,-2.59106e-06,0,
10,0.00256668,0.0706094,0.0302912,-5.85332e-06,0,
10,0.00294431,0.0808665,0.0302908,-1.20539e-05,0,
10,0.00334229,0.0915423,0.030291,-2.29425e-05,0,
10,0.00376326,0.102599,0.0302906,-4.06435e-05,0,
10,0.00421,0.113948,0.0302908,-6.72118e-05,0,
10,0.00468544,0.125441,0.0302903,-0.000103881,0,
10,0.00519274,0.136885,0.0302903,-0.00015031,0,
10,0.00573524,0.14807,0.0302897,-0.000204353,0,
10,0.00631651,0.1588,0.0302894,-0.000262599,0,
10,0.00694041,0.168924,0.0302885,-0.000321395,0,
10,0.00761104,0.178349,0.0302877,-0.000377727,0,
10,0.00833284,0.187035,0.0302864,-0.000429626,0,
10,0.00911058,0.194986,0.0302849,-0.000476147,0,
10,0.0099494,0.202237,0.0302828,-0.000517126,0,
10,0.0108548,0.208841,0.0302804,-0.000552907,0,
10,0.0118329,0.214859,0.0302772,-0.000584116,0,
10,0.0128901,0.220357,0.0302735,-0.000611501,0,
10,0.0140333,0.225397,0.0302688,-0.000635826,0,
10,0.0152702,0.230038,0.0302634,-0.000657815,0,
10,0.0166089,0.234332,0.030257,-0.000678124,0,
10,0.0180584,0.238328,0.0302495,-0.000697335,0,
10,0.0196282,0.242067,0.0302408,-0.000715958,0,
10,0.0213288,0.245586,0.0302307,-0.000734439,0,
10,0.0231714,0.248917,0.0302192,-0.000753175,0,
10,0.0251682,0.252089,0.030206,-0.00077252,0,
10,0.0273326,0.255126,0.030191,-0.000792801,0,
10,0.0296789,0.25805,0.030174,-0.000814322,0,
10,0.0322227,0.260882,0.0301549,-0.000837377,0,
10,0.0349809,0.263639,0.0301333,-0.000862253,0,
10,0.0379719,0.266338,0.0301092,-0.000889238,0,
10,0.0412155,0.268994,0.0300823,-0.000918623,0,
10,0.0447333,0.271622,0.0300523,-0.000950711,0,
10,0.0485489,0.274234,0.0300189,-0.000985816,0,
10,0.0526875,0.276845,0.029982,-0.00102427,0,
10,0.0571768,0.279468,0.0299413,-0.00106643,0,
10,0.0620466,0.282116,0.0298964,-0.00111266,0,
10,0.0673295,0.284802,0.0298471,-0.00116337,0,
10,0.0730607,0.287541,0.0297931,-0.00121898,0,
10,0.0792784,0.290348,0.0297342,-0.00127995,0,
10,0.0860241,0.293237,0.0296701,-0.00134678,0,
10,0.0933428,0.296227,0.0296006,-0.00141998,0,
10,0.101283,0.299335,0.0295255,-0.00150011,0,
10,0.109899,0.302582,0.0294446,-0.00158776,0,
10,0.119247,0.305991,0.0293578,-0.00168354,0,
10,0.12939,0.309587,0.0292651,-0.00178811,0,
10,0.140395,0.313398,0.0291665,-0.00190213,0,
10,0.152337,0.317457,0.029062,-0.00202628,0,
10,0.165296,0.321801,0.0289518,-0.00216123,0,
10,0.179357,0.326471,0.0288361,-0.00230763,0,
10,0.194615,0.331518,0.028715,-0.00246607,0,
10,0.211171,0.336997,0.0285892,-0.00263705,0,
10,0.229138,0.342972,0.0284586,-0.00282094,0,
10,0.248635,0.349521,0.0283242,-0.00301785,0,
10,0.269793,0.35673,0.0281848,-0.00322763,0,
10,0.292753,0.364701,0.0280431,-0.00344962,0,
10,0.317669,0.373551,0.0278946,-0.00368127,0,
10,0.344708,0.38341,0.0277449,-0.00391862,0,
10,0.372405,0.393812,0.0275987,-0.00415096,0,
10,0.399623,0.404349,0.027458,-0.00436704,0,
10,0.426397,0.415022,0.0273237,-0.00456304,0,
10,0.452757,0.425831,0.0271932,-0.00474101,0,
10,0.478735,0.436779,0.0270685,-0.00489839,0,
10,0.504358,0.44788,0.0269494,-0.00503357,0,
10,0.529657,0.45915,0.0268364,-0.00514645,0,
10,0.554656,0.470602,0.0267234,-0.00523709,0,
10,0.579382,0.482241,0.0266167,-0.00530482,0,
10,0.603859,0.494072,0.0264985,-0.00535522,0,
10,0.628112,0.506122,0.0264015,-0.00542892,0,
10,0.652163,0.518683,0.0263769,-0.00535124,0,
10,0.676035,0.532089,0.0263626,-0.00524436,0,
10,0.699751,0.546315,0.0263083,-0.0051078,0,
10,0.72333,0.561109,0.0262167,-0.00494188,0,
10,0.746795,0.576158,0.0260928,-0.00474949,0,
10,0.770165,0.591202,0.0259486,-0.0045351,0,
10,0.79346,0.606065,0.0257903,-0.00430372,0,
10,0.816699,0.620636,0.0256215,-0.00406031,0,
10,0.839903,0.634827,0.0254424,-0.00380987,0,
10,0.863088,0.648534,0.0252511,-0.00356442,0,
10,0.886275,0.66165,0.0250477,-0.00332673,0,
10,0.909481,0.674119,0.0248352,-0.0030974,0,
10,0.932723,0.685937,0.0246152,-0.0028771,0,
10,0.956021,0.697131,0.0243887,-0.00266655,0,
10,0.97939,0.707737,0.0241556,-0.00246642,0,
10,1.00285,0.717788,0.0239158,-0.00227731,0,
10,1.02641,0.727306,0.0236688,-0.00209971,0,
10,1.0501,0.736313,0.0234151,-0.00193397,0,
10,1.07392,0.744831,0.0231541,-0.00178026,0,
10,1.0979,0.752897,0.0228886,-0.00163446,0,
10,1.12205,0.760533,0.0226163,-0.00150118,0,
10,1.14639,0.767741,0.022335,-0.00138138,0,
10,1.17093,0.774528,0.022046,-0.00127517,0,
10,1.19568,0.780919,0.0217491,-0.00118293,0,
10,1.22066,0.786951,0.0214446,-0.00110432,0,
10,1.24589,0.79267,0.0211336,-0.00103838,0,
10,1.27137,0.798128,0.0208147,-0.000983823,0,
10,1.29713,0.803378,0.0204912,-0.000944319,0,
10,1.32317,0.808531,0.0201624,-0.000900972,0,
10,1.34951,0.813718,0.0198273,-0.000858541,0,
10,1.37616,0.818981,0.0194873,-0.000819158,0,
10,1.40313,0.824274,0.0191393,-0.000782869,0,
10,1.43043,0.829525,0.0187835,-0.000749378,0,
10,1.45807,0.834692,0.0184193,-0.000718034,0,
10,1.48607,0.839775,0.0180479,-0.000688137,0,
10,1.51444,0.844798,0.0176693,-0.000659208,0,
10,1.54318,0.849775,0.0172836,-0.000631058,0,
10,1.57231,0.854701,0.0168902,-0.000603667,0,
10,1.60184,0.859557,0.0164893,-0.000577064,0,
10,1.63178,0.864313,0.0160804,-0.000551274,0,
10,1.66213,0.868944,0.0156643,-0.000526315,0,
10,1.69292,0.87343,0.0152399,-0.000502137,0,
10,1.72416,0.877767,0.0148093,-0.000478494,0,
10,1.75585,0.881986,0.014369,-0.000452187,0,
10,1.78802,0.886139,0.0139199,-0.000423594,0,
10,1.82067,0.890244,0.0134642,-0.000395632,0,
10,1.85383,0.894285,0.0129997,-0.000366588,0,
10,1.88751,0.89824,0.0125269,-0.000336589,0,
10,1.92173,0.902084,0.0120457,-0.000305988,0,
10,1.95652,0.905794,0.0115555,-0.000275206,0,
10,1.9919,0.909345,0.0110571,-0.000244717,0,
10,2.02791,0.912713,0.010549,-0.00021507,0,
10,2.06456,0.91588,0.0100332,-0.000186501,0,
10,2.10268,0.918883,0.00949501,-0.000158596,0,
10,2.1443,0.921811,0.00891052,-0.000131733,0,
10,2.18977,0.924615,0.00827256,-0.00010605,0,
10,2.23946,0.927211,0.00757942,-8.18634e-05,0,
10,2.29376,0.929516,0.00682556,-6.0012e-05,0,
10,2.35309,0.931447,0.00600876,-4.12055e-05,0,
10,2.4179,0.932933,0.005125,-2.59836e-05,0,
10,2.48863,0.933928,0.00417268,-1.46362e-05,0,
10,2.56575,0.934428,0.00314969,-7.09154e-06,0,
10,2.64971,0.934486,0.00205585,-2.85734e-06,0,
10,2.74098,0.934221,0.000891168,-1.06502e-06,0,
10,2.83997,0.93381,-0.000342786,-6.63107e-07,0,
10,2.94709,0.933459,-0.00164403,-7.26396e-07,0,
10,3.06269,0.933356,-0.00300936,-7.22106e-07,0,
10,3.18706,0.933611,-0.00443483,-5.44719e-07,0,
10,3.3204,0.934232,-0.00591497,-3.14729e-07,0,
10,3.46281,0.935127,-0.00744273,-1.46581e-07,0,
10,3.61427,0.936149,-0.00900895,-6.27365e-08,0,
10,3.77463,0.937161,-0.0106026,-3.20028e-08,0,
10,3.94358,0.938079,-0.0122109,-2.26827e-08,0,
10,4.12067,0.93889,-0.0138203,-1.95419e-08,0,
10,4.30525,0.939624,-0.0154167,-1.81241e-08,0,
10,4.49655,0.940326,-0.0169862,-1.75875e-08,0,
10,4.6936,0.941024,-0.0185158,-1.79056e-08,0,
10,4.89531,0.94172,-0.0199932,-1.95673e-08,0,
10,5.10047,0.942401,-0.0214077,-2.40205e-08,0,
10,5.30776,0.943047,-0.0227502,-3.44973e-08,0,
10,5.51581,0.94364,-0.0240136,-5.76868e-08,0,
10,5.72323,0.944177,-0.0251926,-1.07955e-07,0,
10,5.92863,0.944683,-0.026284,-2.20395e-07,0,
10,6.13069,0.945225,-0.0272867,-4.87327e-07,0,
10,6.32816,0.945897,-0.0282013,-1.10247e-06,0,
10,6.51991,0.946733,-0.0290302,-2.14927e-06,0,
10,6.70495,0.947503,-0.029777,-2.3333e-06,0,
10,6.88244,0.947496,-0.0304454,3.6722e-06,0,
10,7.0517,0.945485,-0.0310395,2.67403e-05,0,
10,7.21224,0.940086,-0.03156,8.01794e-05,0,
10,7.3637,0.93041,-0.0320126,0.000173224,0,
10,7.5059,0.916497,-0.0324016,0.000296513,0,
10,7.63878,0.898932,-0.0327311,0.000404035,0,
10,7.76243,0.878819,-0.0330106,0.00052297,0,
10,7.87701,0.857925,-0.0332349,0.000644549,0,
10,7.9828,0.837711,-0.0334204,0.000754964,0,
10,8.08014,0.818888,-0.0335692,0.000849144,0,
10,8.16941,0.801541,-0.0336925,0.000927539,0,
10,8.25106,0.785423,-0.0337943,0.000993282,0,
10,8.32554,0.770211,-0.0338808,0.00104959,0,
10,8.39331,0.755626,-0.0339542,0.00109872,0,
10,8.45484,0.741469,-0.0340172,0.00114196,0,
10,8.5106,0.72762,-0.0340709,0.00117994,0,
10,8.56104,0.714017,-0.0341172,0.00121289,0,
10,8.60659,0.700641,-0.0341567,0.00124091,0,
10,8.64767,0.6875,-0.0341911,0.00126413,0,
10,8.68467,0.674597,-0.0342208,0.00128237,0,
10,8.71795,0.661907,-0.0342466,0.0012924,0,
10,8.74786,0.649402,-0.034269,0.00129892,0,
10,8.77471,0.637078,-0.0342883,0.00130115,0,
10,8.79881,0.624933,-0.0343049,0.00129955,0,
10,8.8204,0.612958,-0.0343193,0.00129461,0,
10,8.83975,0.601143,-0.0343317,0.00128684,0,
10,8.85708,0.589476,-0.0343423,0.00127673,0,
10,8.87259,0.577937,-0.0343513,0.00126472,0,
10,8.88646,0.566507,-0.0343589,0.00125123,0,
10,8.89886,0.555161,-0.0343654,0.00123658,0,
10,8.90995,0.543872,-0.0343709,0.00122107,0,
10,8.91986,0.53261,-0.0343755,0.00120492,0,
10,8.92872,0.521341,-0.0343794,0.00118829,0,
10,8.93663,0.510031,-0.0343826,0.00117127,0,
10,8.94369,0.49864,-0.0343853,0.0011539,0,
10,8.95,0.487127,-0.0343875,0.00113614,0,
10,8.95564,0.475446,-0.0343894,0.00111791,0,
10,8.96067,0.463548,-0.0343909,0.00109905,0,
10,8.96517,0.451377,-0.0343922,0.00107931,0,
10,8.96918,0.438874,-0.0343932,0.00105836,0,
10,8.97276,0.425967,-0.0343941,0.00103577,0,
10,8.97596,0.412577,-0.0343947,0.00101099,0,
10,8.97882,0.398612,-0.0343954,0.000983279,0,
10,8.98137,0.383964,-0.0343957,0.000951716,0,
10,8.98365,0.368505,-0.0343963,0.000915085,0,
10,8.98569,0.352086,-0.0343964,0.000871982,0,
10,8.9875,0.334525,-0.0343969,0.00082019,0,
10,8.98913,0.315586,-0.0343968,0.000754711,0,
10,8.99058,0.295041,-0.0343973,0.000677349,0,
10,8.99188,0.272726,-0.0343971,0.00058572,0,
10,8.99304,0.248481,-0.0343976,0.000473013,0,
10,8.99408,0.222265,-0.0343972,0.000346859,0,
10,8.99501,0.194449,-0.0343978,0.000220942,0,
10,8.99583,0.165935,-0.0343973,0.000117099,0,
10,8.99658,0.13799,-0.0343979,5.02805e-05,0,
10,8.99724,0.111727,-0.0343973,1.73507e-05,0,
10,8.99784,0.0877333,-0.034398,4.76605e-06,0,
10,8.99837,0.0661198,-0.0343972,9.9946e-07,0,
10,8.99885,0.0467512,-0.0343981,1.4317e-07,0,
10,8.99927,0.0294164,-0.0343972,1.08691e-08,0,
10,8.99966,0.0139007,-0.0343982,2.40476e-10,0,
10,0,0,0.0302919,0,0,
10,9,0,-0.0343971,0,0,

0.004,0,0,-0.224088,0,-7.53146e-08,
0.00868226,0,0,-0.224085,0,-1.67619e-07,
0.014062,0,0,-0.224087,0,-2.81643e-07,
0.0201548,0,0,-0.224086,0,-6.64748e-07,
0.0269766,0,0,-0.224086,0,-1.12862e-06,
0.0345437,0,0,-0.224086,0,-1.71807e-06,
0.0428729,0,0,-0.224085,0,-2.27423e-06,
0.051981,0,0,-0.224083,0,-2.7221e-06,
0.0618853,0,0,-0.224081,0,-2.88599e-06,
0.0726036,0,0,-0.224078,0,-2.61273e-06,
0.0841536,0,0,-0.224075,0,-1.71704e-06,
0.0965535,0,0,-0.224071,0,-5.03071e-08,
0.109822,0,0,-0.224068,0,2.48424e-06,
0.123977,0,0,-0.224066,0,5.89176e-06,
0.139037,0,0,-0.224067,0,1.00649e-05,
0.155022,0,0,-0.224072,0,1.47945e-05,
0.171949,0,0,-0.22408,0,1.97852e-05,
0.189839,0,0,-0.224094,0,2.47099e-05,
0.208709,0,0,-0.224112,0,2.92435e-05,
0.228579,0,0,-0.224134,0,3.31149e-05,
0.249467,0,0,-0.224159,0,3.61245e-05,
0.271391,0,0,-0.224187,0,3.81668e-05,
0.29437,0,0,-0.224215,0,3.92258e-05,
0.31842,0,0,-0.224242,0,3.93735e-05,
0.343559,0,0,-0.224268,0,3.8751e-05,
0.369804,0,0,-0.224291,0,3.75556e-05,
0.39717,0,0,-0.224313,0,3.60169e-05,
0.425672,0,0,-0.224331,0,3.43827e-05,
0.455324,0,0,-0.224348,0,3.29011e-05,
0.48614,0,0,-0.224364,0,3.18157e-05,
0.518132,0,0,-0.22438,0,3.13595e-05,
0.551309,0,0,-0.224397,0,3.17183e-05,
0.585683,0,0,-0.224418,0,3.30021e-05,
0.621259,0,0,-0.224445,0,3.52387e-05,
0.658046,0,0,-0.224481,0,3.83782e-05,
0.696047,0,0,-0.224529,0,4.2308e-05,
0.735265,0,0,-0.224592,0,4.68776e-05,
0.7757,0,0,-0.224674,0,5.19305e-05,
0.817352,0,0,-0.224779,0,5.72969e-05,
0.860215,0,0,-0.224911,0,6.27698e-05,
0.904285,0,0,-0.225079,0,6.80221e-05,
0.949552,0,0,-0.225294,0,7.24366e-05,
0.996004,0,0,-0.225569,0,7.5018e-05,
1.04363,0,0,-0.225923,0,7.43797e-05,
1.09241,0,0,-0.226376,0,6.87712e-05,
1.14232,0,0,-0.226946,0,5.62916e-05,
1.19335,0,0,-0.227644,0,3.53124e-05,
1.24546,0,0,-0.228472,0,4.9616e-06,
1.29863,0,0,-0.229415,0,-3.45362e-05,
1.35283,0,0,-0.230451,0,-8.18652e-05,
1.40802,0,0,-0.231549,0,-0.000135005,
1.46416,0,0,-0.23268,0,-0.000191807,
1.52121,0,0,-0.233816,0,-0.000250493,
1.57913,0,0,-0.234934,0,-0.000309879,
1.63787,0,0,-0.236016,0,-0.00036934,
1.69739,0,0,-0.237045,0,-0.000428631,
1.75761,0,0,-0.238007,0,-0.000487695,
1.81851,0,0,-0.238888,0,-0.000546526,
1.88,0,0,-0.239679,0,-0.000605113,
1.94204,0,0,-0.240365,0,-0.000663415,
2.00457,0,0,-0.240938,0,-0.000721369,
2.06751,0,0,-0.241386,0,-0.000778898,
2.13081,0,0,-0.241698,0,-0.000835915,
2.19439,0,0,-0.241867,0,-0.000892328,
2.25819,0,0,-0.241882,0,-0.000948039,
2.32214,0,0,-0.241735,0,-0.00100294,
2.38617,0,0,-0.241419,0,-0.00105693,
2.4502,0,0,-0.240926,0,-0.00110986,
2.51418,0,0,-0.240249,0,-0.00116161,
2.57803,0,0,-0.239385,0,-0.00121202,
2.64167,0,0,-0.238328,0,-0.00126093,
2.70505,0,0,-0.237075,0,-0.00130816,
2.76808,0,0,-0.235625,0,-0.00135354,
2.83072,0,0,-0.233977,0,-0.00139686,
2.89288,0,0,-0.232133,0,-0.00143794,
2.95451,0,0,-0.230095,0,-0.00147657,
3.01555,0,0,-0.22787,0,-0.00151256,
3.07594,0,0,-0.225462,0,-0.00154571,
3.13561,0,0,-0.222883,0,-0.00157587,
3.19453,0,0,-0.220142,0,-0.00160291,
3.25262,0,0,-0.217253,0,-0.00162675,
3.30985,0,0,-0.214231,0,-0.00164736,
3.36617,0,0,-0.21109,0,-0.00166476,
3.42154,0,0,-0.207847,0,-0.001679,
3.47591,0,0,-0.20452,0,-0.00169016,
3.52925,0,0,-0.201125,0,-0.0016984,
3.58152,0,0,-0.197679,0,-0.00170384,
3.6327,0,0,-0.194199,0,-0.00170667,
3.68276,0,0,-0.190699,0,-0.00170706,
3.73167,0,0,-0.187195,0,-0.00170522,
3.77941,0,0,-0.1837,0,-0.00170133,
3.82596,0,0,-0.180228,0,-0.00169559,
3.8713,0,0,-0.176789,0,-0.00168819,
3.91543,0,0,-0.173392,0,-0.0016792,
3.95833,0,0,-0.170063,0,-0.00166913,
4,0,0,-0.166775,0,-0.00165788,
4.04167,0,0,-0.163467,0,-0.00164516,
4.08333,0,0,-0.160132,0,-0.00163119,
4.125,0,0,-0.156775,0,-0.00161599,
4.16667,0,0,-0.1534,0,-0.00159956,
4.20833,0,0,-0.15001,0,-0.00158196,
4.25,0,0,-0.146608,0,-0.00156323,
4.29167,0,0,-0.143199,0,-0.0015434,
4.33333,0,0,-0.139785,0,-0.00152254,
4.375,0,0,-0.136369,0,-0.00150067,
4.41667,0,0,-0.132955,0,-0.00147784,
4.45833,0,0,-0.129545,0,-0.00145408,
4.5,0,0,-0.126143,0,-0.00142945,
4.54167,0,0,-0.122752,0,-0.00140398,
4.58333,0,0,-0.119372,0,-0.00137771,
4.625,0,0,-0.116009,0,-0.00135067,
4.66667,0,0,-0.112662,0,-0.00132291,
4.70833,0,0,-0.109336,0,-0.00129445,
4.75,0,0,-0.106032,0,-0.00126534,
4.79167,0,0,-0.102752,0,-0.0012356,
4.83333,0,0,-0.0994989,0,-0.00120527,
4.875,0,0,-0.0962734,0,-0.00117438,
4.91667,0,0,-0.0930779,0,-0.00114297,
4.95833,0,0,-0.089914,0,-0.00111105,
5,0,0,-0.0867834,0,-0.00107867,
5.04167,0,0,-0.0836875,0,-0.00104585,
5.08333,0,0,-0.0806279,0,-0.00101263,
5.125,0,0,-0.0776059,0,-0.000979037,
5.16667,0,0,-0.0746226,0,-0.000945098,
5.20833,0,0,-0.0716793,0,-0.000910843,
5.25,0,0,-0.068777,0,-0.0008763,
5.29167,0,0,-0.0659167,0,-0.000841493,
5.33333,0,0,-0.0630992,0,-0.000806447,
5.375,0,0,-0.0603255,0,-0.000771186,
5.41667,0,0,-0.0575963,0,-0.000735733,
5.45833,0,0,-0.0549123,0,-0.000700111,
5.5,0,0,-0.0522742,0,-0.000664344,
5.54167,0,0,-0.0496825,0,-0.000628455,
5.58333,0,0,-0.0471379,0,-0.00059247,
5.625,0,0,-0.0446407,0,-0.000556413,
5.66667,0,0,-0.0421914,0,-0.000520306,
5.70833,0,0,-0.0397902,0,-0.000484172,
5.75,0,0,-0.0374376,0,-0.000448029,
5.79167,0,0,-0.0351337,0,-0.000411897,
5.83333,0,0,-0.0328789,0,-0.000375789,
5.875,0,0,-0.0306734,0,-0.000339722,
5.91667,0,0,-0.0285175,0,-0.00030371,
5.95833,0,0,-0.0264117,0,-0.000267776,
6,0,0,-0.0243564,0,-0.000231954,
6.04167,0,0,-0.0223523,0,-0.000196299,
6.08333,0,0,-0.0203997,0,-0.000160885,
6.125,0,0,-0.0184986,0,-0.000125789,
6.16667,0,0,-0.0166482,0,-9.10665e-05,
6.20833,0,0,-0.0148478,0,-5.67402e-05,
6.25,0,0,-0.0130962,0,-2.28095e-05,
6.29167,0,0,-0.0113927,0,1.0735e-05,
6.33333,0,0,-0.00973636,0,4.3901e-05,
6.375,0,0,-0.00812633,0,7.66924e-05,
6.41667,0,0,-0.00656182,0,0.000109111,
6.45833,0,0,-0.00504205,0,0.000141155,
6.5,0,0,-0.00356624,0,0.000172826,
6.54167,0,0,-0.00213363,0,0.000204122,
6.58333,0,0,-0.000743446,0,0.000235043,
6.625,0,0,0.000605055,0,0.000265587,
6.66667,0,0,0.00191263,0,0.000295754,
6.70833,0,0,0.00318002,0,0.000325543,
6.75,0,0,0.00440797,0,0.000354951,
6.79167,0,0,0.00559723,0,0.000383979,
6.83333,0,0,0.00674854,0,0.000412624,
6.875,0,0,0.00786265,0,0.000440887,
6.91667,0,0,0.00894029,0,0.000468766,
6.95833,0,0,0.0099822,0,0.000496261,
7,0,0,0.0109891,0,0.000523372,
7.04167,0,0,0.0119618,0,0.000550099,
7.08333,0,0,0.0129009,0,0.000576442,
7.125,0,0,0.0138072,0,0.000602401,
7.16667,0,0,0.0146814,0,0.000627976,
7.20833,0,0,0.0155243,0,0.000653168,
7.25,0,0,0.0163365,0,0.000677978,
7.29167,0,0,0.0171187,0,0.000702409,
7.33333,0,0,0.0178717,0,0.000726461,
7.375,0,0,0.0185961,0,0.000750138,
7.41667,0,0,0.0192926,0,0.000773442,
7.45833,0,0,0.0199618,0,0.000796377,
7.5,0,0,0.0206044,0,0.000818949,
7.54167,0,0,0.021221,0,0.000841163,
7.58333,0,0,0.0218124,0,0.000863032,
7.625,0,0,0.022379,0,0.000884569,
7.66667,0,0,0.0229216,0,0.000905786,
7.70833,0,0,0.0234406,0,0.000926689,
7.75,0,0,0.0239364,0,0.000947283,
7.79167,0,0,0.0244095,0,0.000967567,
7.83333,0,0,0.0248599,0,0.000987532,
7.875,0,0,0.0252877,0,0.00100723,
7.91667,0,0,0.0257035,0,0.00102719,
7.95833,0,0,0.0260411,0,0.00104597,
8,0,0,0.0264567,0,0.00106464,
8.04171,0,0,0.0268881,0,0.00108431,
8.08368,0,0,0.0271886,0,0.00110375,
8.12617,0,0,0.0275268,0,0.00112149,
8.16946,0,0,0.0278473,0,0.00113931,
8.21382,0,0,0.0281505,0,0.00115714,
8.25952,0,0,0.0284442,0,0.00117502,
8.30685,0,0,0.0287279,0,0.00119311,
8.35611,0,0,0.029002,0,0.00121151,
8.40762,0,0,0.0292665,0,0.00123031,
8.46168,0,0,0.0295211,0,0.00124956,
8.51865,0,0,0.0297648,0,0.00126933,
8.57889,0,0,0.0299964,0,0.00128966,
8.64276,0,0,0.0302143,0,0.00131061,
8.71067,0,0,0.0304162,0,0.00133219,
8.78306,0,0,0.0305996,0,0.00135445,
8.86037,0,0,0.0307614,0,0.00137739,
8.94309,0,0,0.0308981,0,0.00140102,
9.03174,0,0,0.0310057,0,0.00142534,
9.12689,0,0,0.0310799,0,0.00145033,
9.22912,0,0,0.0311159,0,0.00147597,
9.33908,0,0,0.0311085,0,0.00150222,
9.45746,0,0,0.0310527,0,0.00152901,
9.58501,0,0,0.0309427,0,0.0015563,
9.72253,0,0,0.030773,0,0.00158399,
9.87088,0,0,0.030538,0,0.00161199,
10.031,0,0,0.0302328,0,0.0016402,
10.2039,0,0,0.0298531,0,0.00166851,
10.3906,0,0,0.0293944,0,0.00169677,
10.5924,0,0,0.0288544,0,0.00172487,
10.8105,0,0,0.028232,0,0.00175268,
11.0463,0,0,0.0275266,0,0.00178006,
11.3012,0,0,0.0267398,0,0.0018069,
11.5769,0,0,0.0258753,0,0.00183308,
11.8751,0,0,0.0249382,0,0.00185848,
12.1977,0,0,0.0239367,0,0.00188304,
12.5466,0,0,0.0228797,0,0.00190667,
12.9242,0,0,0.0217786,0,0.00192933,
13.3327,0,0,0.0206465,0,0.00195097,
13.7748,0,0,0.0194973,0,0.0019716,
14.2532,0,0,0.0183461,0,0.00199122,
14.7709,0,0,0.0172078,0,0.00200985,
15.3312,0,0,0.0160976,0,0.00202755,
15.9377,0,0,0.015029,0,0.00204437,
16.594,0,0,0.0140144,0,0.0020604,
17.3044,0,0,0.0130637,0,0.00207571,
18.0733,0,0,0.0121835,0,0.00209035,
18.9056,0,0,0.0113782,0,0.00210425,
19.8064,0,0,0.0106483,0,0.00211737,
20.7816,0,0,0.00999138,0,0.00212993,
21.8371,0,0,0.00940051,0,0.00214225,
22.9796,0,0,0.00886522,0,0.00215456,
24.2163,0,0,0.00837268,0,0.00216697,
25.5551,0,0,0.00790764,0,0.00217947,
27.0042,0,0,0.00745338,0,0.00219219,
28.5729,0,0,0.00699186,0,0.00220522,
30.271,0,0,0.00650461,0,0.00221856,
32.1091,0,0,0.00597406,0,0.00223215,
34.0989,0,0,0.00538453,0,0.00224591,
36.2529,0,0,0.00471796,0,0.00225979,
38.5845,0,0,0.00396558,0,0.00227368,
41.1085,0,0,0.00316377,0,0.00228741,
43.8407,0,0,0.0021576,0,0.00229877,
46.7983,0,0,0.00111066,0,0.00230565,
50,0,0,0.0020594,0,0.00232202,

