c0898130d801e28469e71449da5416c306f84c02 
X,Z,x_velocity,cp,uw_b,cf,
1,0,0,-0.228004,0,0,
1,9,0,-0.129229,0,0,
1,8.99969,0.0153729,-0.129228,2.84148e-10,0,
1,8.99934,0.0328139,-0.129228,1.32821e-08,0,
1,8.99894,0.0526191,-0.129228,1.83221e-07,0,
1,8.99848,0.075102,-0.129228,1.34324e-06,0,
1,8.99797,0.100575,-0.129228,6.71457e-06,0,
1,8.99739,0.129235,-0.129228,2.54222e-05,0,
1,8.99672,0.160892,-0.129228,7.53521e-05,0,
1,8.99597,0.194611,-0.129228,0.000175308,0,
1,8.99512,0.22875,-0.129228,0.000323393,0,
1,8.99416,0.26165,-0.129228,0.000491224,0,
1,8.99306,0.292334,-0.129228,0.000649373,0,
1,8.99182,0.320623,-0.129227,0.000776883,0,
1,8.99041,0.346658,-0.129227,0.000882408,0,
1,8.98881,0.370597,-0.129227,0.000969588,0,
1,8.98699,0.392658,-0.129226,0.00104075,0,
1,8.98494,0.413129,-0.129225,0.00109668,0,
1,8.98261,0.432319,-0.129224,0.00113954,0,
1,8.97996,0.45047,-0.129223,0.00117546,0,
1,8.97696,0.467752,-0.129222,0.00120524,0,
1,8.97356,0.484307,-0.129221,0.00123015,0,
1,8.9697,0.500254,-0.129219,0.00125117,0,
1,8.96533,0.51569,-0.129217,0.00126899,0,
1,8.96038,0.5307,-0.129215,0.00128414,0,
1,8.95476,0.545353,-0.129213,0.00129697,0,
1,8.9484,0.559708,-0.129211,0.00130776,0,
1,8.9412,0.573815,-0.129208,0.00131667,0,
1,8.93303,0.587718,-0.129205,0.00132379,0,
1,8.92379,0.601453,-0.129202,0.0013292,0,
1,8.91333,0.615052,-0.129198,0.00133288,0,
1,8.90149,0.628544,-0.129195,0.00133481,0,
1,8.8881,0.641952,-0.129192,0.00133495,0,
1,8.87295,0.655298,-0.129189,0.0013332,0,
1,8.85584,0.668601,-0.129186,0.00132948,0,
1,8.83651,0.681882,-0.129185,0.00132368,0,
1,8.81469,0.695159,-0.129184,0.00131565,0,
1,8.79007,0.70845,-0.129186,0.00130524,0,
1,8.76232,0.721779,-0.12919,0.00129227,0,
1,8.73107,0.73517,-0.129197,0.00127651,0,
1,8.69591,0.748653,-0.129208,0.00125769,0,
1,8.6564,0.762263,-0.129226,0.00123547,0,
1,8.61206,0.776046,-0.129251,0.00120942,0,
1,8.56236,0.790059,-0.129286,0.00117922,0,
1,8.50675,0.804378,-0.129335,0.00114609,0,
1,8.44464,0.819145,-0.129401,0.00110539,0,
1,8.3754,0.834578,-0.129487,0.00105389,0,
1,8.29839,0.850922,-0.1296,0.000990752,0,
1,8.21296,0.868422,-0.129747,0.000911506,0,
1,8.11843,0.88727,-0.129933,0.000810922,0,
1,8.01417,0.907469,-0.130173,0.000685537,0,
1,7.89956,0.928576,-0.130462,0.000538752,0,
1,7.77403,0.949467,-0.130839,0.000389012,0,
1,7.63711,0.968533,-0.13129,0.000205874,0,
1,7.48842,0.98345,-0.131824,7.65369e-05,0,
1,7.32773,0.99228,-0.132464,1.84314e-05,0,
1,7.15495,0.995494,-0.133209,1.844e-06,0,
1,6.97022,0.995564,-0.134073,2.55978e-08,0,
1,6.77388,0.994948,-0.13507,3.8617e-09,0,
1,6.56652,0.99483,-0.136217,9.82222e-09,0,
1,6.34896,0.995285,-0.137529,1.25499e-08,0,
1,6.12229,0.996016,-0.139018,1.41598e-08,0,
1,5.88784,0.996821,-0.140699,1.50227e-08,0,
1,5.64716,0.997663,-0.142586,1.60093e-08,0,
1,5.40194,0.998573,-0.14469,1.73822e-08,0,
1,5.15407,0.999577,-0.147017,1.91505e-08,0,
1,4.90545,1.00069,-0.149571,2.09931e-08,0,
1,4.65805,1.0019,-0.152349,2.29508e-08,0,
1,4.41376,1.00322,-0.155346,2.50063e-08,0,
1,4.17441,1.00462,-0.158548,2.69318e-08,0,
1,3.94163,1.00605,-0.161936,2.85623e-08,0,
1,3.7169,1.00745,-0.165482,3.05053e-08,0,
1,3.50146,1.00892,-0.169155,3.47015e-08,0,
1,3.29629,1.01075,-0.17292,4.31877e-08,0,
1,3.10217,1.01331,-0.176746,5.41428e-08,0,
1,2.91959,1.01641,-0.180602,9.91373e-08,0,
1,2.74885,1.01861,-0.184444,9.9503e-07,0,
1,2.59002,1.01749,-0.188209,-5.90914e-06,0,
1,2.44299,1.01134,-0.191828,-5.16023e-05,0,
1,2.30752,1.00034,-0.195234,-0.000148894,0,
1,2.18321,0.985952,-0.198366,-0.000284024,0,
1,2.06959,0.969754,-0.201252,-0.000401203,0,
1,1.9661,0.953014,-0.203874,-0.000502848,0,
1,1.87215,0.93666,-0.206197,-0.000597709,0,
1,1.78711,0.921203,-0.208257,-0.000681281,0,
1,1.71033,0.9068,-0.210072,-0.000753491,0,
1,1.64119,0.893421,-0.211663,-0.000815867,0,
1,1.57905,0.880955,-0.213053,-0.000870579,0,
1,1.52332,0.869274,-0.214262,-0.000919779,0,
1,1.47342,0.858267,-0.215317,-0.00096565,0,
1,1.42882,0.847849,-0.216217,-0.000999112,0,
1,1.389,0.837935,-0.216976,-0.00102412,0,
1,1.35351,0.828462,-0.217632,-0.00104744,0,
1,1.3219,0.819395,-0.218192,-0.00106834,0,
1,1.29378,0.810714,-0.218671,-0.00108656,0,
1,1.26878,0.80241,-0.219081,-0.00110214,0,
1,1.24659,0.794477,-0.219431,-0.00111543,0,
1,1.22689,0.786912,-0.21973,-0.00112652,0,
1,1.2092,0.779625,-0.219988,-0.00113437,0,
1,1.1932,0.772568,-0.220212,-0.00113972,0,
1,1.1787,0.765725,-0.220407,-0.00114335,0,
1,1.16554,0.759073,-0.220575,-0.00114641,0,
1,1.15357,0.752578,-0.220721,-0.00115132,0,
1,1.14266,0.746185,-0.220846,-0.00116202,0,
1,1.13268,0.739816,-0.220955,-0.00118376,0,
1,1.12354,0.73336,-0.22105,-0.0012237,0,
1,1.11514,0.726674,-0.221135,-0.00129043,0,
1,1.10739,0.719582,-0.221215,-0.00139331,0,
1,1.10022,0.711889,-0.221292,-0.0015413,0,
1,1.09357,0.703414,-0.221373,-0.00174125,0,
1,1.08738,0.694029,-0.221458,-0.0019959,0,
1,1.0816,0.683701,-0.221551,-0.00230232,0,
1,1.07618,0.672507,-0.221651,-0.00265152,0,
1,1.07107,0.660613,-0.221758,-0.00303009,0,
1,1.06626,0.648233,-0.221871,-0.00342303,0,
1,1.06169,0.63558,-0.221988,-0.00381661,0,
1,1.05735,0.622841,-0.222108,-0.00419998,0,
1,1.05321,0.610161,-0.22223,-0.00456564,0,
1,1.04925,0.597646,-0.222353,-0.00490898,0,
1,1.04544,0.585364,-0.222477,-0.00522766,0,
1,1.04177,0.57336,-0.2226,-0.00552088,0,
1,1.03822,0.561655,-0.222722,-0.0057889,0,
1,1.03478,0.550259,-0.222844,-0.00603254,0,
1,1.03144,0.539171,-0.222965,-0.00625302,0,
1,1.02818,0.528382,-0.223084,-0.00645166,0,
1,1.025,0.517883,-0.223203,-0.00662984,0,
1,1.02188,0.50766,-0.22332,-0.00678892,0,
1,1.01882,0.4977,-0.223436,-0.00693019,0,
1,1.01581,0.487987,-0.223551,-0.00705498,0,
1,1.01284,0.478508,-0.223665,-0.00716383,0,
1,1.00988,0.469147,-0.223779,-0.00725922,0,
1,1.00688,0.459794,-0.223895,-0.00734309,0,
1,1.00384,0.450436,-0.224011,-0.00741491,0,
1,1.00076,0.441058,-0.224129,-0.00747467,0,
1,0.997615,0.431639,-0.224248,-0.00752229,0,
1,0.99441,0.422157,-0.224368,-0.0075578,0,
1,0.991131,0.412586,-0.22449,-0.00758133,0,
1,0.987768,0.402901,-0.224612,-0.00759268,0,
1,0.984308,0.393072,-0.224737,-0.00759154,0,
1,0.980739,0.383068,-0.224863,-0.00757746,0,
1,0.977045,0.372855,-0.224991,-0.00754985,0,
1,0.973211,0.362394,-0.225121,-0.00750794,0,
1,0.969219,0.351646,-0.225253,-0.00745079,0,
1,0.965047,0.340564,-0.225388,-0.00737726,0,
1,0.960675,0.329099,-0.225526,-0.00728591,0,
1,0.956077,0.317193,-0.225666,-0.0071744,0,
1,0.951224,0.304788,-0.225808,-0.00704116,0,
1,0.946088,0.291821,-0.225954,-0.0068838,0,
1,0.940633,0.278231,-0.226104,-0.00669973,0,
1,0.934823,0.263965,-0.226257,-0.00648706,0,
1,0.928616,0.248976,-0.226414,-0.00624337,0,
1,0.921967,0.233228,-0.226575,-0.00596517,0,
1,0.914826,0.216692,-0.22674,-0.00564985,0,
1,0.907141,0.199355,-0.226907,-0.00529513,0,
1,0.898852,0.18122,-0.227075,-0.00489943,0,
1,0.889898,0.162324,-0.227244,-0.00446227,0,
1,0.880212,0.142749,-0.227413,-0.00398494,0,
1,0.869723,0.122648,-0.227582,-0.00347153,0,
1,0.858358,0.102287,-0.227751,-0.00293072,0,
1,0.846039,0.0821063,-0.227921,-0.00237895,0,
1,0.83269,0.0627978,-0.228095,-0.0018447,0,
1,0.818232,0.0453156,-0.228278,-0.00137203,0,
1,0.802744,0.0307373,-0.228457,-0.000999699,0,
1,0.78635,0.019536,-0.228644,-0.000731808,0,
1,0.768969,0.0112528,-0.228827,-0.000552371,0,
1,0.75053,0.00505032,-0.229005,-0.000441293,0,
1,0.730977,0.000135262,-0.229164,-0.000378792,0,
1,0.710271,-0.00406991,-0.229305,-0.000347986,0,
1,0.688397,-0.00793202,-0.229425,-0.000336386,0,
1,0.66536,-0.0116665,-0.229525,-0.000335911,0,
1,0.641194,-0.0154038,-0.229607,-0.000339194,0,
1,0.615961,-0.0192185,-0.229669,-0.000342368,0,
1,0.589754,-0.023138,-0.229712,-0.000342679,0,
1,0.562692,-0.0271546,-0.229734,-0.000338646,0,
1,0.534925,-0.0312346,-0.229734,-0.000329684,0,
1,0.506624,-0.0353264,-0.229709,-0.000315802,0,
1,0.477982,-0.0393682,-0.229658,-0.000297372,0,
1,0.449206,-0.043293,-0.229581,-0.000274964,0,
1,0.420509,-0.0470329,-0.229479,-0.000249257,0,
1,0.392107,-0.0505219,-0.229355,-0.000220962,0,
1,0.364206,-0.0536969,-0.229211,-0.000190788,0,
1,0.337003,-0.056499,-0.229052,-0.000159393,0,
1,0.310673,-0.0588729,-0.228883,-0.000127362,0,
1,0.28537,-0.0607675,-0.228711,-9.51853e-05,0,
1,0.26122,-0.0621349,-0.228541,-6.32837e-05,0,
1,0.238324,-0.0629309,-0.22838,-3.20259e-05,0,
1,0.21675,-0.0631158,-0.228232,-1.77585e-06,0,
1,0.196544,-0.0626571,-0.228101,2.70494e-05,0,
1,0.177724,-0.0615337,-0.227992,5.39356e-05,0,
1,0.160284,-0.0597404,-0.227905,7.82667e-05,0,
1,0.144202,-0.0572944,-0.227841,9.93714e-05,0,
1,0.129436,-0.0542385,-0.227798,0.000116614,0,
1,0.115935,-0.0506431,-0.227775,0.000129497,0,
1,0.103636,-0.0466029,-0.227769,0.000137739,0,
1,0.0924701,-0.0422306,-0.227775,0.000141326,0,
1,0.0823633,-0.0376479,-0.227791,0.000140524,0,
1,0.0732406,-0.0329753,-0.227813,0.000135819,0,
1,0.0650269,-0.0283232,-0.227839,0.00012784,0,
1,0.057648,-0.0237845,-0.227865,0.000117278,0,
1,0.0510323,-0.01943,-0.22789,0.000104815,0,
1,0.0451115,-0.0153079,-0.227914,9.10821e-05,0,
1,0.0398209,-0.0114457,-0.227935,7.66369e-05,0,
1,0.0351001,-0.00785635,-0.227953,6.19822e-05,0,
1,0.0308929,-0.00454595,-0.227968,4.76243e-05,0,
1,0.0271475,-0.00152574,-0.227979,3.41914e-05,0,
1,0.0238164,0.00117397,-0.227988,2.25794e-05,0,
1,0.0208562,0.00349769,-0.227993,1.32332e-05,0,
1,0.0182274,0.00537396,-0.227997,6.61285e-06,0,
1,0.0158944,0.00674046,-0.228,2.71277e-06,0,
1,0.0138249,0.00758302,-0.228001,8.48556e-07,0,
1,0.0119898,0.00795109,-0.228002,1.4056e-07,0,
1,0.0103632,0.0079372,-0.228003,-5.58122e-08,0,
1,0.00892169,0.00764359,-0.228003,-7.52755e-08,0,
1,0.00764438,0.00716041,-0.228003,-5.24423e-08,0,
1,0.00651264,0.00655838,-0.228003,-2.94232e-08,0,
1,0.00550983,0.00588989,-0.228004,-1.45178e-08,0,
1,0.00462115,0.00519244,-0.228004,-6.47011e-09,0,
1,0.00383341,0.00449236,-0.228004,-2.61528e-09,0,
1,0.0031349,0.00380757,-0.228004,-9.4973e-10,0,
1,0.00251518,0.00314993,-0.228004,-3.02952e-10,0,
1,0.00196502,0.00252672,-0.228004,-8.15357e-11,0,
1,0.00147619,0.00194203,-0.228004,-1.72591e-11,0,
1,0.00104139,0.00139754,-0.228004,-2.52519e-12,0,
1,0.000654158,0.000893307,-0.228004,-1.96489e-13,0,
1,0.000308731,0.00042818,-0.228004,-4.46284e-15,0,

4,0,0,-0.155376,0,0,
4,9,0,-0.0984998,0,0,
4,8.99969,0.0142403,-0.0984994,2.22796e-10,0,
4,8.99934,0.03034,-0.0984997,1.03367e-08,0,
4,8.99894,0.0485603,-0.0984994,1.41149e-07,0,
4,8.9985,0.0691777,-0.0984996,1.02455e-06,0,
4,8.99799,0.0924734,-0.0984993,5.08564e-06,0,
4,8.99742,0.11865,-0.0984995,1.92591e-05,0,
4,8.99677,0.147625,-0.0984993,5.78128e-05,0,
4,8.99605,0.178722,-0.0984993,0.000138197,0,
4,8.99522,0.210591,-0.0984991,0.000264342,0,
4,8.99429,0.24169,-0.098499,0.000416153,0,
4,8.99324,0.270955,-0.0984987,0.000565728,0,
4,8.99205,0.298001,-0.0984985,0.00069522,0,
4,8.9907,0.322905,-0.098498,0.000799246,0,
4,8.98919,0.345839,-0.0984975,0.000886922,0,
4,8.98747,0.366991,-0.0984968,0.000959872,0,
4,8.98553,0.386629,-0.098496,0.00101727,0,
4,8.98334,0.405032,-0.098495,0.00106356,0,
4,8.98087,0.422419,-0.0984939,0.00110266,0,
4,8.97807,0.438958,-0.0984925,0.00113585,0,
4,8.97491,0.454791,-0.0984909,0.00116443,0,
4,8.97134,0.470036,-0.0984889,0.00118938,0,
4,8.96731,0.484793,-0.0984867,0.00121142,0,
4,8.96276,0.499148,-0.0984841,0.00123108,0,
4,8.95762,0.513172,-0.0984811,0.00124872,0,
4,8.95182,0.526928,-0.0984777,0.00126459,0,
4,8.94526,0.54047,-0.0984738,0.00127885,0,
4,8.93787,0.553843,-0.0984695,0.00129156,0,
4,8.92952,0.567087,-0.0984646,0.00130274,0,
4,8.92011,0.580236,-0.0984591,0.00131233,0,
4,8.90949,0.593319,-0.0984531,0.00132024,0,
4,8.89751,0.606362,-0.0984466,0.00132634,0,
4,8.88402,0.619385,-0.0984396,0.00133049,0,
4,8.86881,0.632406,-0.0984321,0.0013325,0,
4,8.85169,0.64544,-0.0984243,0.00133219,0,
4,8.83242,0.6585,-0.0984163,0.00132938,0,
4,8.81074,0.671598,-0.0984083,0.00132388,0,
4,8.78637,0.684744,-0.0984006,0.0013155,0,
4,8.75901,0.697953,-0.0983936,0.00130406,0,
4,8.7283,0.711237,-0.0983878,0.00128937,0,
4,8.69387,0.724615,-0.0983838,0.00127121,0,
4,8.65533,0.738111,-0.0983825,0.00124933,0,
4,8.61222,0.751756,-0.0983848,0.00122343,0,
4,8.56407,0.765591,-0.0983922,0.00119313,0,
4,8.5104,0.779669,-0.0984062,0.00115836,0,
4,8.45065,0.794069,-0.0984291,0.00112049,0,
4,8.38429,0.808948,-0.0984645,0.0010726,0,
4,8.31073,0.824537,-0.0985148,0.00101527,0,
4,8.22941,0.841095,-0.0985833,0.000945039,0,
4,8.13974,0.858887,-0.0986736,0.000857577,0,
4,8.04115,0.87809,-0.0987874,0.000749254,0,
4,7.93313,0.898595,-0.0989305,0.000620306,0,
4,7.81519,0.919704,-0.099095,0.000479756,0,
4,7.68693,0.939952,-0.099305,0.000345012,0,
4,7.54803,0.957445,-0.0995423,0.000203995,0,
4,7.39831,0.97029,-0.0998255,8.98684e-05,0,
4,7.23771,0.977596,-0.100171,2.78213e-05,0,
4,7.06634,0.980296,-0.100566,4.59365e-06,0,
4,6.88453,0.980446,-0.101016,-1.02425e-08,0,
4,6.69275,0.979893,-0.101519,-1.00349e-07,0,
4,6.49173,0.979576,-0.102085,1.91908e-08,0,
4,6.28238,0.979653,-0.102722,2.41245e-08,0,
4,6.06579,0.979962,-0.103438,1.39603e-08,0,
4,5.84328,0.980344,-0.104239,9.39278e-09,0,
4,5.61626,0.980737,-0.10513,8.17482e-09,0,
4,5.3863,0.981139,-0.106115,8.23631e-09,0,
4,5.15502,0.981569,-0.107198,8.81557e-09,0,
4,4.92406,0.982038,-0.10838,9.65868e-09,0,
4,4.69507,0.982559,-0.109662,1.06713e-08,0,
4,4.46961,0.983136,-0.111042,1.1711e-08,0,
4,4.24915,0.98375,-0.112517,1.24785e-08,0,
4,4.03501,0.984348,-0.114081,1.2682e-08,0,
4,3.82836,0.98486,-0.115727,1.25697e-08,0,
4,3.63018,0.98529,-0.117443,1.35305e-08,0,
4,3.44125,0.985817,-0.119219,1.84755e-08,0,
4,3.26217,0.986798,-0.121042,6.37394e-08,0,
4,3.09333,0.988529,-0.122898,5.6402e-07,0,
4,2.93497,0.990828,-0.124771,2.63626e-06,0,
4,2.78715,0.992847,-0.126644,5.08061e-06,0,
4,2.64979,0.993409,-0.128501,3.9684e-07,0,
4,2.52268,0.991588,-0.130318,-2.11291e-05,0,
4,2.40551,0.987056,-0.132076,-6.45714e-05,0,
4,2.29789,0.98006,-0.133753,-0.000128482,0,
4,2.19939,0.971186,-0.135335,-0.000206792,0,
4,2.10949,0.961126,-0.136812,-0.000291715,0,
4,2.02768,0.950509,-0.138182,-0.000375729,0,
4,1.95343,0.939848,-0.139445,-0.000452714,0,
4,1.88618,0.929523,-0.140601,-0.000520346,0,
4,1.82542,0.919718,-0.141661,-0.000568124,0,
4,1.77062,0.910492,-0.142629,-0.000607052,0,
4,1.72128,0.901896,-0.143503,-0.000642116,0,
4,1.67693,0.893958,-0.144293,-0.000673407,0,
4,1.63713,0.88668,-0.145005,-0.000701278,0,
4,1.60144,0.880041,-0.145645,-0.000726087,0,
4,1.56949,0.87401,-0.146221,-0.000748225,0,
4,1.54091,0.868548,-0.146737,-0.000768168,0,
4,1.51537,0.8636,-0.1472,-0.000786255,0,
4,1.49167,0.858972,-0.147629,-0.000802919,0,
4,1.46926,0.854575,-0.148034,-0.000818692,0,
4,1.44801,0.850383,-0.148425,-0.000832376,0,
4,1.42781,0.846353,-0.148806,-0.000838636,0,
4,1.40855,0.842454,-0.149168,-0.00084517,0,
4,1.39015,0.838671,-0.149516,-0.00085046,0,
4,1.37252,0.834987,-0.149851,-0.000854798,0,
4,1.3556,0.831387,-0.150174,-0.000858685,0,
4,1.3393,0.827853,-0.150486,-0.000862813,0,
4,1.32357,0.824366,-0.150788,-0.000868005,0,
4,1.30836,0.820908,-0.151081,-0.000875077,0,
4,1.29362,0.817454,-0.151366,-0.000885128,0,
4,1.2793,0.813978,-0.151644,-0.00089953,0,
4,1.26537,0.810446,-0.151914,-0.000919975,0,
4,1.25179,0.806821,-0.152179,-0.0009485,0,
4,1.23852,0.803057,-0.152438,-0.000987511,0,
4,1.22554,0.7991,-0.152691,-0.00103977,0,
4,1.21282,0.794889,-0.152939,-0.00110833,0,
4,1.20034,0.790356,-0.153182,-0.00119642,0,
4,1.18806,0.785426,-0.15342,-0.00130716,0,
4,1.17599,0.780028,-0.153653,-0.00144333,0,
4,1.16408,0.774097,-0.15388,-0.00160687,0,
4,1.15233,0.76758,-0.154102,-0.00179862,0,
4,1.14073,0.760448,-0.154319,-0.00201798,0,
4,1.12925,0.752695,-0.154531,-0.00226283,0,
4,1.11788,0.744341,-0.154738,-0.00252965,0,
4,1.10661,0.735426,-0.154941,-0.00281389,0,
4,1.09543,0.726005,-0.155138,-0.00311039,0,
4,1.08432,0.716144,-0.155332,-0.0034138,0,
4,1.07328,0.70591,-0.155521,-0.00371899,0,
4,1.0623,0.69537,-0.155706,-0.00402135,0,
4,1.05136,0.684585,-0.155887,-0.00431682,0,
4,1.04044,0.673594,-0.156065,-0.00460218,0,
4,1.0295,0.662427,-0.15624,-0.00487499,0,
4,1.01855,0.651124,-0.156412,-0.00513289,0,
4,1.00757,0.639722,-0.156581,-0.00537373,0,
4,0.996544,0.628252,-0.156747,-0.00559609,0,
4,0.98547,0.616743,-0.156909,-0.0057982,0,
4,0.974334,0.605216,-0.15707,-0.0059789,0,
4,0.963124,0.593693,-0.157225,-0.00613723,0,
4,0.951826,0.58219,-0.157383,-0.0062861,0,
4,0.940428,0.570672,-0.157518,-0.00641427,0,
4,0.928915,0.559009,-0.157619,-0.00650517,0,
4,0.917272,0.547058,-0.15771,-0.00660327,0,
4,0.905481,0.534739,-0.157799,-0.00670922,0,
4,0.893524,0.521999,-0.157889,-0.00682332,0,
4,0.881383,0.508796,-0.157981,-0.00694564,0,
4,0.869035,0.495095,-0.158076,-0.00707604,0,
4,0.856459,0.480864,-0.158175,-0.00721414,0,
4,0.843629,0.466075,-0.158277,-0.0073594,0,
4,0.830518,0.450706,-0.158383,-0.0075111,0,
4,0.817097,0.434738,-0.158491,-0.00766841,0,
4,0.803334,0.418155,-0.1586,-0.00783037,0,
4,0.789195,0.400945,-0.15871,-0.00799591,0,
4,0.774643,0.383102,-0.15882,-0.00816376,0,
4,0.759639,0.36462,-0.15893,-0.00833239,0,
4,0.744138,0.345504,-0.15904,-0.00849987,0,
4,0.728096,0.325768,-0.159152,-0.00866372,0,
4,0.711463,0.305444,-0.159266,-0.00882092,0,
4,0.694189,0.284583,-0.159383,-0.00896754,0,
4,0.676218,0.263245,-0.159504,-0.00909832,0,
4,0.657495,0.241497,-0.159628,-0.00920776,0,
4,0.637962,0.219396,-0.159755,-0.00929084,0,
4,0.617561,0.19698,-0.159878,-0.00934352,0,
4,0.596848,0.174886,-0.159988,-0.00936142,0,
4,0.576557,0.153856,-0.160083,-0.00934353,0,
4,0.556564,0.133764,-0.160164,-0.00929148,0,
4,0.536763,0.114525,-0.160243,-0.00920633,0,
4,0.517057,0.096133,-0.160341,-0.00908909,0,
4,0.497368,0.0786685,-0.160487,-0.00894227,0,
4,0.477632,0.0622744,-0.160706,-0.00877065,0,
4,0.457804,0.0470713,-0.160997,-0.00858306,0,
4,0.437857,0.0330149,-0.161296,-0.00838885,0,
4,0.417786,0.0197337,-0.161283,-0.00802879,0,
4,0.397605,0.00684577,-0.161057,-0.00766079,0,
4,0.377348,-0.00575281,-0.160891,-0.00732715,0,
4,0.357066,-0.0180404,-0.160706,-0.00697222,0,
4,0.336828,-0.0299869,-0.160514,-0.00661091,0,
4,0.316717,-0.0415304,-0.160311,-0.0062472,0,
4,0.296825,-0.0525991,-0.1601,-0.00587975,0,
4,0.27725,-0.063131,-0.159881,-0.00550945,0,
4,0.258095,-0.0730797,-0.159655,-0.00513848,0,
4,0.239458,-0.0824146,-0.159422,-0.00476949,0,
4,0.221432,-0.0911192,-0.159185,-0.00440525,0,
4,0.2041,-0.0991902,-0.158944,-0.00404847,0,
4,0.187537,-0.106635,-0.158701,-0.00370164,0,
4,0.171798,-0.113469,-0.158457,-0.00336697,0,
4,0.156928,-0.119715,-0.158215,-0.00304631,0,
4,0.142956,-0.125401,-0.157977,-0.00274114,0,
4,0.129894,-0.130558,-0.157744,-0.00245252,0,
4,0.117744,-0.135218,-0.157518,-0.00218115,0,
4,0.106492,-0.139413,-0.157301,-0.00192738,0,
4,0.0961173,-0.143175,-0.157096,-0.00169123,0,
4,0.0865883,-0.146534,-0.156902,-0.00147248,0,
4,0.0778675,-0.149519,-0.156722,-0.00127067,0,
4,0.0699123,-0.152155,-0.156555,-0.00108516,0,
4,0.062677,-0.154466,-0.156402,-0.000915192,0,
4,0.056114,-0.156472,-0.156263,-0.000759928,0,
4,0.0501747,-0.158191,-0.156138,-0.000618465,0,
4,0.0448114,-0.159638,-0.156026,-0.000489881,0,
4,0.039977,-0.160822,-0.155926,-0.000373258,0,
4,0.0356266,-0.161754,-0.155838,-0.000267702,0,
4,0.0317171,-0.162435,-0.155761,-0.000172367,0,
4,0.0282081,-0.162865,-0.155693,-8.64651e-05,0,
4,0.0250617,-0.163038,-0.155635,-9.29316e-06,0,
4,0.0222427,-0.16294,-0.155585,5.97504e-05,0,
4,0.0197189,-0.16255,-0.155543,0.000121132,0,
4,0.0174603,-0.161834,-0.155507,0.000175138,0,
4,0.0154398,-0.16074,-0.155477,0.000221792,0,
4,0.0136326,-0.159194,-0.155452,0.000260737,0,
4,0.0120162,-0.15709,-0.155432,0.000291027,0,
4,0.0105703,-0.154274,-0.155416,0.000310845,0,
4,0.00927657,-0.150529,-0.155404,0.00031721,0,
4,0.00811839,-0.145569,-0.155394,0.000306084,0,
4,0.0070809,-0.139055,-0.155388,0.000273851,0,
4,0.0061507,-0.13069,-0.155384,0.000221083,0,
4,0.00531578,-0.120406,-0.155382,0.000156597,0,
4,0.00456537,-0.108537,-0.155379,9.55572e-05,0,
4,0.00388979,-0.0957644,-0.155379,5.01335e-05,0,
4,0.00328037,-0.0828174,-0.155378,2.28253e-05,0,
4,0.00272934,-0.0702188,-0.155379,9.08623e-06,0,
4,0.0022297,-0.0582361,-0.155377,3.14167e-06,0,
4,0.00177519,-0.0469598,-0.155378,9.15862e-07,0,
4,0.00136016,-0.0363859,-0.155377,2.10993e-07,0,
4,0.000979511,-0.0264683,-0.155378,3.38062e-08,0,
4,0.00062865,-0.0171444,-0.155376,2.88571e-09,0,
4,0.000303409,-0.00834575,-0.155378,7.03463e-11,0,

6,0,0,-0.0162834,0,0,
6,9,0,-0.0744284,0,0,
6,8.99969,0.0134951,-0.0744281,1.8556e-10,0,
6,8.99934,0.0287135,-0.0744283,8.56411e-09,0,
6,8.99895,0.0458925,-0.0744281,1.16112e-07,0,
6,8.9985,0.0652829,-0.0744283,8.36823e-07,0,
6,8.99801,0.0871431,-0.0744281,4.13146e-06,0,
6,8.99744,0.111673,-0.0744282,1.56318e-05,0,
6,8.99681,0.138846,-0.074428,4.72655e-05,0,
6,8.99609,0.16814,-0.0744281,0.000114973,0,
6,8.99529,0.198408,-0.0744278,0.000225494,0,
6,8.99438,0.22822,-0.0744278,0.000364419,0,
6,8.99336,0.256477,-0.0744275,0.000506282,0,
6,8.9922,0.282679,-0.0744274,0.000633704,0,
6,8.9909,0.306825,-0.074427,0.000736963,0,
6,8.98944,0.329073,-0.0744266,0.000823747,0,
6,8.98779,0.349595,-0.074426,0.00089675,0,
6,8.98593,0.368638,-0.0744254,0.000954552,0,
6,8.98383,0.386463,-0.0744245,0.00100201,0,
6,8.98147,0.403274,-0.0744236,0.0010422,0,
6,8.97881,0.419237,-0.0744224,0.00107662,0,
6,8.97581,0.434493,-0.074421,0.0011066,0,
6,8.97244,0.449159,-0.0744192,0.00113314,0,
6,8.96863,0.463337,-0.0744173,0.001157,0,
6,8.96435,0.477111,-0.0744149,0.00117873,0,
6,8.95953,0.490558,-0.0744122,0.00119872,0,
6,8.95409,0.50374,-0.0744089,0.00121727,0,
6,8.94798,0.516715,-0.0744052,0.00123454,0,
6,8.94109,0.52953,-0.0744009,0.00125062,0,
6,8.93334,0.54223,-0.074396,0.00126552,0,
6,8.92463,0.554853,-0.0743903,0.00127921,0,
6,8.91482,0.567431,-0.0743839,0.00129156,0,
6,8.90379,0.579993,-0.0743766,0.00130243,0,
6,8.89139,0.592565,-0.0743684,0.00131161,0,
6,8.87746,0.605166,-0.0743592,0.00131888,0,
6,8.86181,0.617814,-0.074349,0.00132397,0,
6,8.84423,0.630523,-0.0743377,0.00132661,0,
6,8.82452,0.643304,-0.0743253,0.00132651,0,
6,8.80241,0.656167,-0.0743118,0.00132341,0,
6,8.77763,0.669117,-0.0742971,0.00131704,0,
6,8.74989,0.682164,-0.0742813,0.00130713,0,
6,8.71885,0.695315,-0.0742644,0.00129347,0,
6,8.68417,0.70858,-0.0742465,0.00127579,0,
6,8.64545,0.721975,-0.0742277,0.00125386,0,
6,8.60229,0.735521,-0.0742083,0.00122737,0,
6,8.55423,0.749247,-0.0741884,0.00119604,0,
6,8.50082,0.763192,-0.0741682,0.00116019,0,
6,8.44155,0.777429,-0.074149,0.00111896,0,
6,8.37592,0.792084,-0.0741311,0.00107129,0,
6,8.30339,0.807353,-0.0741151,0.00101531,0,
6,8.22344,0.823497,-0.0741007,0.000948151,0,
6,8.13555,0.840812,-0.0740888,0.000866089,0,
6,8.0392,0.859551,-0.0740748,0.000765703,0,
6,7.93391,0.879709,-0.0740587,0.000646712,0,
6,7.81927,0.900705,-0.0740292,0.000515573,0,
6,7.6949,0.921164,-0.0739912,0.000387306,0,
6,7.56054,0.939248,-0.0739363,0.000271654,0,
6,7.41603,0.953344,-0.0738678,0.000140602,0,
6,7.26132,0.962466,-0.0737916,5.59397e-05,0,
6,7.09653,0.966853,-0.0736963,1.43241e-05,0,
6,6.92195,0.967955,-0.0735822,7.84522e-07,0,
6,6.73802,0.967527,-0.0734421,-1.02201e-06,0,
6,6.5454,0.966814,-0.0732727,-4.81088e-07,0,
6,6.34489,0.966323,-0.0730703,-1.35474e-07,0,
6,6.1375,0.966075,-0.0728315,-3.66574e-08,0,
6,5.92439,0.965934,-0.0725519,-1.39107e-08,0,
6,5.70687,0.965789,-0.0722269,-7.95279e-09,0,
6,5.48633,0.965596,-0.071851,-6.21078e-09,0,
6,5.26426,0.965352,-0.0714191,-5.95565e-09,0,
6,5.04218,0.965067,-0.0709258,-6.27751e-09,0,
6,4.82159,0.964752,-0.0703661,-6.80598e-09,0,
6,4.60398,0.964419,-0.0697359,-7.45994e-09,0,
6,4.39071,0.964068,-0.0690316,-8.40337e-09,0,
6,4.18307,0.963667,-0.0682512,-9.97233e-09,0,
6,3.98218,0.963156,-0.0673942,-1.23887e-08,0,
6,3.78902,0.962476,-0.0664619,-1.53224e-08,0,
6,3.60438,0.96165,-0.065458,-1.95803e-08,0,
6,3.42888,0.960848,-0.0643877,-4.06991e-08,0,
6,3.26296,0.96036,-0.0632579,-1.06872e-07,0,
6,3.10691,0.960429,-0.0620756,-1.36719e-07,0,
6,2.96084,0.961039,-0.0608486,3.35753e-08,0,
6,2.82473,0.961812,-0.0595868,-3.25954e-07,0,
6,2.69844,0.962132,-0.0583031,-4.08772e-06,0,
6,2.58172,0.961386,-0.0570128,-1.56542e-05,0,
6,2.47424,0.959177,-0.055732,-3.87509e-05,0,
6,2.37559,0.955394,-0.0544763,-7.47933e-05,0,
6,2.28535,0.950179,-0.0532593,-0.000122753,0,
6,2.20301,0.943825,-0.0520921,-0.000179881,0,
6,2.1281,0.936685,-0.0509831,-0.000242552,0,
6,2.06009,0.929109,-0.0499385,-0.000306918,0,
6,1.99849,0.921405,-0.0489606,-0.000369296,0,
6,1.9428,0.913829,-0.0480529,-0.000426559,0,
6,1.89255,0.906575,-0.0472106,-0.000477517,0,
6,1.84728,0.899746,-0.0464388,-0.000522529,0,
6,1.80655,0.893347,-0.0457374,-0.000552927,0,
6,1.76996,0.887369,-0.0450928,-0.000580696,0,
6,1.73712,0.881826,-0.0445069,-0.000606154,0,
6,1.70768,0.876691,-0.0439719,-0.000629719,0,
6,1.67998,0.871738,-0.0434646,-0.000652628,0,
6,1.65329,0.866869,-0.0429691,-0.000675036,0,
6,1.62754,0.862083,-0.0424857,-0.000696899,0,
6,1.60265,0.85738,-0.0420131,-0.000718303,0,
6,1.57854,0.85276,-0.0415508,-0.000739202,0,
6,1.55515,0.84822,-0.0410979,-0.000759616,0,
6,1.53242,0.843759,-0.0406539,-0.000779554,0,
6,1.5103,0.839368,-0.0402183,-0.000798987,0,
6,1.48874,0.835034,-0.0397908,-0.000817905,0,
6,1.46769,0.830738,-0.0393703,-0.00083646,0,
6,1.44712,0.826472,-0.0389559,-0.000855084,0,
6,1.42698,0.82225,-0.0385446,-0.000874465,0,
6,1.40725,0.818117,-0.0381357,-0.000895052,0,
6,1.38788,0.814123,-0.0377261,-0.000916784,0,
6,1.36886,0.810274,-0.0373279,-0.00093733,0,
6,1.35015,0.806496,-0.0369423,-0.000939741,0,
6,1.33173,0.802724,-0.0365581,-0.000949356,0,
6,1.31357,0.798938,-0.0361777,-0.000960731,0,
6,1.29566,0.795123,-0.0358002,-0.00097425,0,
6,1.27797,0.791255,-0.0354255,-0.000990978,0,
6,1.26048,0.787308,-0.0350534,-0.00101218,0,
6,1.24318,0.783252,-0.0346837,-0.00103944,0,
6,1.22605,0.779046,-0.0343162,-0.00107463,0,
6,1.20907,0.774646,-0.0339509,-0.00111989,0,
6,1.19223,0.770001,-0.0335876,-0.00117754,0,
6,1.17551,0.765051,-0.0332263,-0.00125001,0,
6,1.1589,0.759737,-0.0328671,-0.00133959,0,
6,1.14238,0.753997,-0.0325099,-0.00144828,0,
6,1.12595,0.747775,-0.032155,-0.00157744,0,
6,1.10959,0.741028,-0.0318023,-0.00172758,0,
6,1.09329,0.733725,-0.0314524,-0.00189814,0,
6,1.07704,0.725858,-0.0311055,-0.00208743,0,
6,1.06081,0.717432,-0.0307615,-0.00229271,0,
6,1.04459,0.708469,-0.0304208,-0.0025104,0,
6,1.02836,0.699012,-0.0300834,-0.00273634,0,
6,1.01211,0.689112,-0.0297502,-0.00296598,0,
6,0.99583,0.678825,-0.0294199,-0.00319486,0,
6,0.97951,0.668213,-0.0290958,-0.00342167,0,
6,0.963136,0.657313,-0.0287712,-0.00365003,0,
6,0.946694,0.646076,-0.0284414,-0.00385917,0,
6,0.930172,0.634401,-0.0281137,-0.00407394,0,
6,0.913555,0.622221,-0.0277893,-0.00429692,0,
6,0.896829,0.609481,-0.0274696,-0.00452991,0,
6,0.879979,0.596139,-0.027155,-0.0047742,0,
6,0.862989,0.582167,-0.0268461,-0.00503073,0,
6,0.845842,0.567557,-0.0265438,-0.00530022,0,
6,0.828521,0.552321,-0.0262489,-0.00558328,0,
6,0.811008,0.536482,-0.0259631,-0.00587727,0,
6,0.793282,0.52006,-0.0256886,-0.00617789,0,
6,0.775322,0.503067,-0.0254264,-0.00648292,0,
6,0.757107,0.48552,-0.0251778,-0.00678967,0,
6,0.738612,0.467449,-0.0249443,-0.0070949,0,
6,0.719813,0.448893,-0.024727,-0.00739481,0,
6,0.700681,0.429907,-0.0245265,-0.00768506,0,
6,0.681188,0.41055,-0.0243422,-0.0079609,0,
6,0.661304,0.390879,-0.0241707,-0.00821721,0,
6,0.640996,0.370935,-0.024008,-0.00844844,0,
6,0.620228,0.350758,-0.0238522,-0.00864849,0,
6,0.598964,0.330415,-0.0237111,-0.00881064,0,
6,0.577166,0.310062,-0.0236089,-0.00892861,0,
6,0.554791,0.290012,-0.0235925,-0.00899881,0,
6,0.531799,0.270711,-0.0237009,-0.00902174,0,
6,0.508144,0.252578,-0.0239625,-0.00900538,0,
6,0.48378,0.235687,-0.024157,-0.00894472,0,
6,0.459585,0.220094,-0.0240386,-0.00856424,0,
6,0.436695,0.205971,-0.0238203,-0.00826571,0,
6,0.414961,0.193068,-0.0236528,-0.007969,0,
6,0.394252,0.181202,-0.0234624,-0.00766409,0,
6,0.374445,0.170224,-0.0232755,-0.00735729,0,
6,0.355433,0.16002,-0.0230883,-0.00705056,0,
6,0.337122,0.150496,-0.0229001,-0.00674281,0,
6,0.319433,0.141575,-0.0227086,-0.00643466,0,
6,0.3023,0.133191,-0.0225126,-0.0061267,0,
6,0.28567,0.125291,-0.0223106,-0.00581949,0,
6,0.269507,0.117829,-0.0221016,-0.00551365,0,
6,0.253785,0.110771,-0.0218846,-0.00520986,0,
6,0.238493,0.104089,-0.0216592,-0.00490892,0,
6,0.223631,0.0977591,-0.0214251,-0.00461176,0,
6,0.209207,0.0917651,-0.0211824,-0.00431941,0,
6,0.195237,0.0860923,-0.0209318,-0.00403297,0,
6,0.181744,0.080729,-0.0206742,-0.00375361,0,
6,0.168754,0.0756647,-0.0204111,-0.00348249,0,
6,0.156292,0.0708899,-0.0201442,-0.00322075,0,
6,0.144384,0.0663952,-0.0198756,-0.00296942,0,
6,0.133052,0.062171,-0.0196076,-0.00272939,0,
6,0.122315,0.058207,-0.0193426,-0.00250143,0,
6,0.112183,0.0544927,-0.0190831,-0.00228608,0,
6,0.102665,0.0510168,-0.0188312,-0.0020837,0,
6,0.0937597,0.0477673,-0.018589,-0.00189446,0,
6,0.0854609,0.0447322,-0.0183583,-0.00171834,0,
6,0.077757,0.041899,-0.0181405,-0.00155515,0,
6,0.0706309,0.0392551,-0.0179366,-0.00140455,0,
6,0.0640611,0.0367879,-0.0177472,-0.00126607,0,
6,0.0580229,0.0344852,-0.0175727,-0.00113916,0,
6,0.0524888,0.0323347,-0.0174131,-0.00102321,0,
6,0.0474296,0.0303247,-0.017268,-0.000917526,0,
6,0.042815,0.0284437,-0.0171371,-0.000821431,0,
6,0.0386145,0.0266808,-0.0170195,-0.000734216,0,
6,0.0347975,0.0250253,-0.0169146,-0.000655185,0,
6,0.0313344,0.0234669,-0.0168215,-0.000583659,0,
6,0.0281964,0.0219959,-0.0167392,-0.000518983,0,
6,0.0253561,0.0206025,-0.0166669,-0.000460532,0,
6,0.0227875,0.0192775,-0.0166037,-0.000407716,0,
6,0.0204662,0.0180116,-0.0165486,-0.000359975,0,
6,0.0183694,0.0167954,-0.0165011,-0.000316785,0,
6,0.016476,0.0156195,-0.0164599,-0.00027765,0,
6,0.0147664,0.0144741,-0.0164251,-0.000242099,0,
6,0.0132228,0.0133487,-0.0163952,-0.00020968,0,
6,0.0118288,0.0122321,-0.0163706,-0.000179955,0,
6,0.0105693,0.0111117,-0.0163495,-0.00015249,0,
6,0.00943073,0.00997443,-0.0163332,-0.000126863,0,
6,0.00840063,0.00880666,-0.0163192,-0.000102696,0,
6,0.00746774,0.00759729,-0.0163097,-7.97624e-05,0,
6,0.00662185,0.00634348,-0.0163012,-5.8215e-05,0,
6,0.00585371,0.00506088,-0.0162969,-3.88612e-05,0,
6,0.00515491,0.00379402,-0.0162924,-2.30775e-05,0,
6,0.00451788,0.00261358,-0.0162915,-1.1961e-05,0,
6,0.00393573,0.00159112,-0.0162889,-5.38137e-06,0,
6,0.00340221,0.000769298,-0.0162896,-2.10587e-06,0,
6,0.00291168,0.000153956,-0.0162874,-7.13292e-07,0,
6,0.00245897,-0.000273336,-0.0162888,-2.0315e-07,0,
6,0.00203939,-0.000540007,-0.0162864,-4.4732e-08,0,
6,0.00164864,-0.000673286,-0.0162884,-5.71753e-09,0,
6,0.00128281,-0.000696514,-0.0162854,4.26044e-10,0,
6,0.000938257,-0.000628339,-0.0162882,3.65032e-10,0,
6,0.000611645,-0.000483015,-0.0162845,5.82842e-11,0,
6,0.000299862,-0.000271017,-0.0162881,2.09279e-12,0,

10,0.000296632,0.00851184,0.0296803,-5.01548e-11,0,
10,0.000596102,0.0171017,0.029681,-1.85866e-09,0,
10,0.000900397,0.0258265,0.0296803,-1.88958e-08,0,
10,0.00121153,0.0347434,0.0296808,-1.01528e-07,0,
10,0.00153158,0.0439097,0.0296803,-3.79691e-07,0,
10,0.00186264,0.0533815,0.0296807,-1.1285e-06,0,
10,0.00220692,0.0632111,0.0296802,-2.86281e-06,0,
10,0.00256668,0.0734423,0.0296805,-6.45834e-06,0,
10,0.00294431,0.0841021,0.0296801,-1.32713e-05,0,
10,0.00334229,0.0951891,0.0296804,-2.51805e-05,0,
10,0.00376326,0.10666,0.02968,-4.44171e-05,0,
10,0.00421,0.118415,0.0296801,-7.30541e-05,0,
10,0.00468544,0.130297,0.0296797,-0.000112197,0,
10,0.00519274,0.142107,0.0296796,-0.000161247,0,
10,0.00573524,0.153627,0.0296791,-0.000217767,0,
10,0.00631651,0.164664,0.0296788,-0.000278149,0,
10,0.00694041,0.17507,0.0296779,-0.000338679,0,
10,0.00761104,0.184756,0.0296772,-0.000396388,0,
10,0.00833284,0.193686,0.0296759,-0.000449392,0,
10,0.00911058,0.201866,0.0296745,-0.00049682,0,
10,0.0099494,0.209333,0.0296725,-0.000538561,0,
10,0.0108548,0.21614,0.0296702,-0.000574987,0,
10,0.0118329,0.222348,0.0296672,-0.000606737,0,
10,0.0128901,0.228023,0.0296636,-0.000634564,0,
10,0.0140333,0.233227,0.0296592,-0.000659235,0,
10,0.0152702,0.23802,0.0296541,-0.000681476,0,
10,0.0166089,0.242456,0.0296479,-0.000701949,0,
10,0.0180584,0.246581,0.0296408,-0.00072124,0,
10,0.0196282,0.250439,0.0296324,-0.000739865,0,
10,0.0213288,0.254068,0.0296228,-0.000758274,0,
10,0.0231714,0.2575,0.0296117,-0.000776869,0,
10,0.0251682,0.260764,0.0295991,-0.000796009,0,
10,0.0273326,0.263886,0.0295847,-0.000816023,0,
10,0.0296789,0.266888,0.0295684,-0.000837218,0,
10,0.0322227,0.26979,0.02955,-0.000859889,0,
10,0.0349809,0.272612,0.0295292,-0.000884323,0,
10,0.0379719,0.275369,0.029506,-0.000910808,0,
10,0.0412155,0.278077,0.0294799,-0.000939634,0,
10,0.0447333,0.280751,0.0294509,-0.000971101,0,
10,0.0485489,0.283405,0.0294187,-0.00100552,0,
10,0.0526875,0.286052,0.0293829,-0.00104323,0,
10,0.0571768,0.288704,0.0293434,-0.00108456,0,
10,0.0620466,0.291377,0.0292998,-0.0011299,0,
10,0.0673295,0.294081,0.0292518,-0.00117964,0,
10,0.0730607,0.296833,0.0291992,-0.00123419,0,
10,0.0792784,0.299645,0.0291417,-0.00129403,0,
10,0.0860241,0.302533,0.029079,-0.00135962,0,
10,0.0933428,0.305514,0.0290108,-0.00143149,0,
10,0.101283,0.308604,0.028937,-0.00151019,0,
10,0.109899,0.311824,0.0288572,-0.0015963,0,
10,0.119247,0.315194,0.0287715,-0.00169046,0,
10,0.12939,0.318739,0.0286796,-0.0017933,0,
10,0.140395,0.322486,0.0285815,-0.00190549,0,
10,0.152337,0.326463,0.0284772,-0.00202774,0,
10,0.165296,0.330706,0.0283667,-0.00216072,0,
10,0.179357,0.335253,0.0282502,-0.00230514,0,
10,0.194615,0.34015,0.0281279,-0.00246162,0,
10,0.211171,0.345447,0.0280002,-0.00263073,0,
10,0.229138,0.351204,0.0278669,-0.00281294,0,
10,0.248635,0.35749,0.0277291,-0.00300851,0,
10,0.269793,0.364382,0.0275857,-0.00321745,0,
10,0.292753,0.371974,0.0274392,-0.00343938,0,
10,0.317669,0.380369,0.0272855,-0.00367213,0,
10,0.344708,0.389683,0.0271301,-0.00391254,0,
10,0.372405,0.399471,0.0269784,-0.00414945,0,
10,0.399623,0.40935,0.0268328,-0.00437149,0,
10,0.426397,0.419323,0.0266942,-0.00457584,0,
10,0.452757,0.429393,0.0265613,-0.00476339,0,
10,0.478735,0.439573,0.0264364,-0.00493203,0,
10,0.504358,0.449881,0.0263195,-0.00508075,0,
10,0.529657,0.460342,0.0262123,-0.00520738,0,
10,0.554656,0.470978,0.0261078,-0.00531268,0,
10,0.579382,0.481804,0.0260139,-0.00539612,0,
10,0.603859,0.492831,0.0259046,-0.00548505,0,
10,0.628112,0.504182,0.0258498,-0.00554392,0,
10,0.652163,0.516208,0.0258763,-0.00547661,0,
10,0.676035,0.529201,0.0258829,-0.00538031,0,
10,0.699751,0.543103,0.0258495,-0.00525327,0,
10,0.72333,0.557647,0.0257731,-0.00509506,0,
10,0.746795,0.572514,0.0256654,-0.00490832,0,
10,0.770165,0.587443,0.0255364,-0.00469753,0,
10,0.79346,0.60226,0.0253937,-0.00446777,0,
10,0.816699,0.616855,0.0252406,-0.004224,0,
10,0.839903,0.631141,0.0250782,-0.00397113,0,
10,0.863088,0.645022,0.0249037,-0.00371654,0,
10,0.886275,0.658381,0.0247156,-0.00347032,0,
10,0.909481,0.671122,0.0245171,-0.003233,0,
10,0.932723,0.683211,0.0243105,-0.00300492,0,
10,0.956021,0.694664,0.0240976,-0.00278666,0,
10,0.97939,0.705517,0.0238785,-0.00257879,0,
10,1.00285,0.71581,0.0236532,-0.00238182,0,
10,1.02641,0.72557,0.023421,-0.00219618,0,
10,1.0501,0.73482,0.0231822,-0.00202224,0,
10,1.07392,0.743579,0.0229363,-0.00186022,0,
10,1.0979,0.751875,0.0226854,-0.00170935,0,
10,1.12205,0.759738,0.0224291,-0.00156591,0,
10,1.14639,0.767179,0.0221643,-0.00143725,0,
10,1.17093,0.774195,0.0218914,-0.00132185,0,
10,1.19568,0.7808,0.0216107,-0.00122052,0,
10,1.22066,0.787024,0.0213221,-0.00113333,0,
10,1.24589,0.792907,0.0210268,-0.00105959,0,
10,1.27137,0.7985,0.0207236,-0.000998097,0,
10,1.29713,0.803854,0.0204156,-0.000949554,0,
10,1.32317,0.809048,0.0201007,-0.000909221,0,
10,1.34951,0.814213,0.0197803,-0.00086461,0,
10,1.37616,0.819446,0.0194564,-0.000823143,0,
10,1.40313,0.824731,0.0191247,-0.000784934,0,
10,1.43043,0.829999,0.0187855,-0.000749827,0,
10,1.45807,0.835191,0.0184379,-0.000717281,0,
10,1.48607,0.840289,0.0180829,-0.000686584,0,
10,1.51444,0.845309,0.0177206,-0.000657143,0,
10,1.54318,0.85027,0.0173514,-0.000628646,0,
10,1.57231,0.855172,0.0169749,-0.000601017,0,
10,1.60184,0.859999,0.016591,-0.000574283,0,
10,1.63178,0.86472,0.0161994,-0.000548489,0,
10,1.66213,0.869308,0.0158005,-0.00052362,0,
10,1.69292,0.873748,0.0153938,-0.000499556,0,
10,1.72416,0.878046,0.0149802,-0.000475903,0,
10,1.75585,0.882251,0.0145576,-0.000447684,0,
10,1.78802,0.886404,0.014127,-0.000419812,0,
10,1.82067,0.890508,0.0136893,-0.000391596,0,
10,1.85383,0.894543,0.013243,-0.00036226,0,
10,1.88751,0.898487,0.0127885,-0.000332055,0,
10,1.92173,0.902316,0.0123257,-0.00030135,0,
10,1.95652,0.906006,0.0118541,-0.000270577,0,
10,1.9919,0.909533,0.0113744,-0.000240202,0,
10,2.02791,0.912874,0.010885,-0.000210762,0,
10,2.06456,0.91601,0.0103882,-0.000182473,0,
10,2.10268,0.918981,0.00986942,-0.000154914,0,
10,2.1443,0.921873,0.0093058,-0.000128447,0,
10,2.18977,0.924637,0.00869032,-0.000103196,0,
10,2.23946,0.927191,0.00802125,-7.94597e-05,0,
10,2.29376,0.929452,0.00729314,-5.80547e-05,0,
10,2.35309,0.931338,0.00650374,-3.96723e-05,0,
10,2.4179,0.932782,0.00564907,-2.48366e-05,0,
10,2.48863,0.933737,0.00472741,-1.38266e-05,0,
10,2.56575,0.934201,0.00373654,-6.5606e-06,0,
10,2.64971,0.93423,0.00267611,-2.53794e-06,0,
10,2.74098,0.933942,0.0015459,-8.87173e-07,0,
10,2.83997,0.933516,0.000347192,-5.65334e-07,0,
10,2.94709,0.933157,-0.000918339,-6.67243e-07,0,
10,3.06269,0.933048,-0.00224784,-6.82494e-07,0,
10,3.18706,0.933298,-0.00363771,-5.192e-07,0,
10,3.3204,0.93391,-0.00508284,-3.00787e-07,0,
10,3.46281,0.934792,-0.00657657,-1.40394e-07,0,
10,3.61427,0.935798,-0.0081101,-6.03809e-08,0,
10,3.77463,0.936792,-0.00967274,-3.10362e-08,0,
10,3.94358,0.937693,-0.0112521,-2.21149e-08,0,
10,4.12067,0.938488,-0.0128349,-1.91027e-08,0,
10,4.30525,0.93921,-0.0144073,-1.77581e-08,0,
10,4.49655,0.939901,-0.0159555,-1.72769e-08,0,
10,4.6936,0.94059,-0.0174665,-1.7638e-08,0,
10,4.89531,0.941278,-0.0189281,-1.9334e-08,0,
10,5.10047,0.941953,-0.0203293,-2.38161e-08,0,
10,5.30776,0.942592,-0.021661,-3.43217e-08,0,
10,5.51581,0.943181,-0.0229158,-5.7553e-08,0,
10,5.72323,0.943714,-0.0240881,-1.07931e-07,0,
10,5.92863,0.944218,-0.0251746,-2.20761e-07,0,
10,6.13069,0.944759,-0.0261738,-4.88948e-07,0,
10,6.32816,0.945432,-0.027086,-1.1066e-06,0,
10,6.51991,0.946268,-0.0279134,-2.15282e-06,0,
10,6.70495,0.947035,-0.0286596,-2.31373e-06,0,
10,6.88244,0.947015,-0.0293279,3.77338e-06,0,
10,7.0517,0.944981,-0.0299224,2.70085e-05,0,
10,7.21224,0.939547,-0.0304434,8.06855e-05,0,
10,7.3637,0.929832,-0.0308967,0.000173976,0,
10,7.5059,0.915883,-0.0312864,0.000297317,0,
10,7.63878,0.898289,-0.0316165,0.000404826,0,
10,7.76243,0.878159,-0.0318966,0.000523696,0,
10,7.87701,0.857258,-0.0321215,0.000645136,0,
10,7.9828,0.837042,-0.0323076,0.00075535,0,
10,8.08014,0.81822,-0.0324569,0.000849344,0,
10,8.16941,0.800873,-0.0325806,0.000927599,0,
10,8.25106,0.784753,-0.0326826,0.000993247,0,
10,8.32554,0.769538,-0.0327693,0.00104949,0,
10,8.39331,0.754948,-0.0328427,0.00109859,0,
10,8.45484,0.740785,-0.0329058,0.00114181,0,
10,8.5106,0.726929,-0.0329595,0.00117974,0,
10,8.56104,0.71332,-0.0330056,0.00121264,0,
10,8.60659,0.699942,-0.0330451,0.00124058,0,
10,8.64767,0.686802,-0.0330794,0.00126368,0,
10,8.68467,0.673902,-0.0331089,0.00128161,0,
10,8.71795,0.661219,-0.0331344,0.00129145,0,
10,8.74786,0.648723,-0.0331567,0.00129774,0,
10,8.77471,0.636412,-0.0331758,0.00129973,0,
10,8.79881,0.624281,-0.0331922,0.00129789,0,
10,8.8204,0.612324,-0.0332063,0.00129272,0,
10,8.83975,0.600529,-0.0332184,0.00128474,0,
10,8.85708,0.588883,-0.0332287,0.00127445,0,
10,8.87259,0.577367,-0.0332376,0.00126229,0,
10,8.88646,0.56596,-0.033245,0.00124867,0,
10,8.89886,0.554637,-0.0332514,0.00123392,0,
10,8.90995,0.543372,-0.0332567,0.00121835,0,
10,8.91986,0.532133,-0.0332612,0.00120216,0,
10,8.92872,0.520887,-0.033265,0.00118552,0,
10,8.93663,0.509598,-0.0332681,0.00116852,0,
10,8.94369,0.498228,-0.0332707,0.00115118,0,
10,8.95,0.486734,-0.0332728,0.00113346,0,
10,8.95564,0.475071,-0.0332746,0.00111529,0,
10,8.96067,0.46319,-0.033276,0.0010965,0,
10,8.96517,0.451035,-0.0332773,0.00107684,0,
10,8.96918,0.438546,-0.0332782,0.00105597,0,
10,8.97276,0.425652,-0.0332792,0.00103347,0,
10,8.97596,0.412275,-0.0332797,0.00100877,0,
10,8.97882,0.398321,-0.0332804,0.000981157,0,
10,8.98137,0.383682,-0.0332807,0.000949682,0,
10,8.98365,0.368232,-0.0332813,0.000913139,0,
10,8.98569,0.351821,-0.0332813,0.000870145,0,
10,8.9875,0.334266,-0.0332818,0.000818361,0,
10,8.98913,0.315332,-0.0332817,0.000752981,0,
10,8.99058,0.294792,-0.0332822,0.000675727,0,
10,8.99188,0.272483,-0.033282,0.000584246,0,
10,8.99304,0.248247,-0.0332825,0.000471684,0,
10,8.99408,0.222044,-0.0332821,0.000345745,0,
10,8.99501,0.194245,-0.0332826,0.00022012,0,
10,8.99583,0.165755,-0.0332822,0.000116602,0,
10,8.99658,0.137837,-0.0332827,5.00459e-05,0,
10,8.99724,0.111603,-0.0332821,1.72652e-05,0,
10,8.99784,0.0876373,-0.0332828,4.74203e-06,0,
10,8.99837,0.0660484,-0.0332821,9.94395e-07,0,
10,8.99885,0.0467015,-0.0332829,1.42446e-07,0,
10,8.99927,0.0293856,-0.0332821,1.08144e-08,0,
10,8.99966,0.0138863,-0.0332831,2.39272e-10,0,
10,0,0,0.0296812,0,0,
10,9,0,-0.033282,0,0,

0.004,0,0,-0.226521,0,-9.88027e-08,
0.00868226,0,0,-0.226517,0,-2.03482e-07,
0.014062,0,0,-0.22652,0,-3.33326e-07,
0.0201548,0,0,-0.226518,0,-8.07807e-07,
0.0269766,0,0,-0.22652,0,-1.40468e-06,
0.0345437,0,0,-0.226519,0,-2.19994e-06,
0.0428729,0,0,-0.226518,0,-3.00924e-06,
0.051981,0,0,-0.226516,0,-3.75811e-06,
0.0618853,0,0,-0.226514,0,-4.2337e-06,
0.0726036,0,0,-0.22651,0,-4.24589e-06,
0.0841536,0,0,-0.226505,0,-3.54341e-06,
0.0965535,0,0,-0.2265,0,-1.90937e-06,
0.109822,0,0,-0.226495,0,8.23887e-07,
0.123977,0,0,-0.226492,0,4.70675e-06,
0.139037,0,0,-0.226491,0,9.6415e-06,
0.155022,0,0,-0.226495,0,1.53798e-05,
0.171949,0,0,-0.226504,0,2.15449e-05,
0.189839,0,0,-0.22652,0,2.76977e-05,
0.208709,0,0,-0.226541,0,3.3391e-05,
0.228579,0,0,-0.226568,0,3.8239e-05,
0.249467,0,0,-0.226599,0,4.19485e-05,
0.271391,0,0,-0.226633,0,4.43489e-05,
0.29437,0,0,-0.226666,0,4.53898e-05,
0.31842,0,0,-0.226699,0,4.51399e-05,
0.343559,0,0,-0.226728,0,4.37659e-05,
0.369804,0,0,-0.226754,0,4.15169e-05,
0.39717,0,0,-0.226775,0,3.87003e-05,
0.425672,0,0,-0.226792,0,3.56652e-05,
0.455324,0,0,-0.226805,0,3.27866e-05,
0.48614,0,0,-0.226815,0,3.04556e-05,
0.518132,0,0,-0.226823,0,2.90637e-05,
0.551309,0,0,-0.226831,0,2.89381e-05,
0.585683,0,0,-0.226843,0,3.02537e-05,
0.621259,0,0,-0.226861,0,3.29928e-05,
0.658046,0,0,-0.226889,0,3.69746e-05,
0.696047,0,0,-0.226931,0,4.19286e-05,
0.735265,0,0,-0.22699,0,4.75686e-05,
0.7757,0,0,-0.227069,0,5.36585e-05,
0.817352,0,0,-0.227172,0,6.00179e-05,
0.860215,0,0,-0.227304,0,6.64607e-05,
0.904285,0,0,-0.227472,0,7.27209e-05,
0.949552,0,0,-0.22769,0,7.82816e-05,
0.996004,0,0,-0.227973,0,8.2144e-05,
1.04363,0,0,-0.228344,0,8.27492e-05,
1.09241,0,0,-0.228827,0,7.80555e-05,
1.14232,0,0,-0.229447,0,6.577e-05,
1.19335,0,0,-0.230219,0,4.38038e-05,
1.24546,0,0,-0.231148,0,1.0876e-05,
1.29863,0,0,-0.232218,0,-3.29858e-05,
1.35283,0,0,-0.233401,0,-8.63615e-05,
1.40802,0,0,-0.234661,0,-0.000146877,
1.46416,0,0,-0.23596,0,-0.000211933,
1.52121,0,0,-0.237265,0,-0.000279357,
1.57913,0,0,-0.238547,0,-0.000347712,
1.63787,0,0,-0.239781,0,-0.000416248,
1.69739,0,0,-0.240946,0,-0.000484675,
1.75761,0,0,-0.242024,0,-0.000552911,
1.81851,0,0,-0.242997,0,-0.000620918,
1.88,0,0,-0.243849,0,-0.000688629,
1.94204,0,0,-0.244563,0,-0.000755935,
2.00457,0,0,-0.245125,0,-0.00082269,
2.06751,0,0,-0.24552,0,-0.000888719,
2.13081,0,0,-0.245734,0,-0.000953833,
2.19439,0,0,-0.245755,0,-0.00101783,
2.25819,0,0,-0.245569,0,-0.00108048,
2.32214,0,0,-0.245168,0,-0.00114158,
2.38617,0,0,-0.244543,0,-0.00120088,
2.4502,0,0,-0.243686,0,-0.00125818,
2.51418,0,0,-0.242592,0,-0.00131324,
2.57803,0,0,-0.241259,0,-0.00136584,
2.64167,0,0,-0.239685,0,-0.00141577,
2.70505,0,0,-0.237872,0,-0.0014628,
2.76808,0,0,-0.235821,0,-0.00150672,
2.83072,0,0,-0.23354,0,-0.00154733,
2.89288,0,0,-0.231036,0,-0.00158444,
2.95451,0,0,-0.228321,0,-0.00161793,
3.01555,0,0,-0.225406,0,-0.00164769,
3.07594,0,0,-0.222307,0,-0.00167365,
3.13561,0,0,-0.219041,0,-0.00169581,
3.19453,0,0,-0.215625,0,-0.00171421,
3.25262,0,0,-0.212079,0,-0.00172893,
3.30985,0,0,-0.208422,0,-0.00174009,
3.36617,0,0,-0.204673,0,-0.00174784,
3.42154,0,0,-0.200852,0,-0.00175236,
3.47591,0,0,-0.196978,0,-0.00175382,
3.52925,0,0,-0.19307,0,-0.00175243,
3.58152,0,0,-0.189145,0,-0.0017484,
3.6327,0,0,-0.18522,0,-0.00174198,
3.68276,0,0,-0.181309,0,-0.00173336,
3.73167,0,0,-0.177428,0,-0.00172279,
3.77941,0,0,-0.173588,0,-0.00171048,
3.82596,0,0,-0.169802,0,-0.00169667,
3.8713,0,0,-0.166079,0,-0.00168154,
3.91543,0,0,-0.162426,0,-0.00166517,
3.95833,0,0,-0.158868,0,-0.00164808,
4,0,0,-0.155376,0,-0.00163016,
4.04167,0,0,-0.15188,0,-0.00161097,
4.08333,0,0,-0.148376,0,-0.00159072,
4.125,0,0,-0.144867,0,-0.0015694,
4.16667,0,0,-0.141356,0,-0.00154703,
4.20833,0,0,-0.137846,0,-0.00152367,
4.25,0,0,-0.134341,0,-0.00149934,
4.29167,0,0,-0.130843,0,-0.0014741,
4.33333,0,0,-0.127355,0,-0.00144798,
4.375,0,0,-0.123881,0,-0.00142104,
4.41667,0,0,-0.120422,0,-0.0013933,
4.45833,0,0,-0.116981,0,-0.00136481,
4.5,0,0,-0.113561,0,-0.00133561,
4.54167,0,0,-0.110163,0,-0.00130573,
4.58333,0,0,-0.10679,0,-0.0012752,
4.625,0,0,-0.103444,0,-0.00124407,
4.66667,0,0,-0.100127,0,-0.00121235,
4.70833,0,0,-0.0968404,0,-0.00118008,
4.75,0,0,-0.0935861,0,-0.0011473,
4.79167,0,0,-0.0903658,0,-0.00111402,
4.83333,0,0,-0.0871811,0,-0.0010803,
4.875,0,0,-0.0840332,0,-0.00104614,
4.91667,0,0,-0.0809237,0,-0.00101158,
4.95833,0,0,-0.0778537,0,-0.000976651,
5,0,0,-0.0748244,0,-0.000941375,
5.04167,0,0,-0.0718369,0,-0.000905779,
5.08333,0,0,-0.0688923,0,-0.000869889,
5.125,0,0,-0.0659914,0,-0.000833728,
5.16667,0,0,-0.0631352,0,-0.000797322,
5.20833,0,0,-0.0603243,0,-0.000760693,
5.25,0,0,-0.0575596,0,-0.000723868,
5.29167,0,0,-0.0548417,0,-0.00068687,
5.33333,0,0,-0.0521712,0,-0.000649721,
5.375,0,0,-0.0495485,0,-0.000612444,
5.41667,0,0,-0.0469742,0,-0.000575061,
5.45833,0,0,-0.0444488,0,-0.000537596,
5.5,0,0,-0.0419725,0,-0.000500066,
5.54167,0,0,-0.0395457,0,-0.000462492,
5.58333,0,0,-0.0371689,0,-0.000424885,
5.625,0,0,-0.0348423,0,-0.000387259,
5.66667,0,0,-0.0325664,0,-0.000349623,
5.70833,0,0,-0.030342,0,-0.000311985,
5.75,0,0,-0.0281697,0,-0.000274367,
5.79167,0,0,-0.0260507,0,-0.000236809,
5.83333,0,0,-0.0239863,0,-0.000199394,
5.875,0,0,-0.0219777,0,-0.000162247,
5.91667,0,0,-0.020025,0,-0.000125506,
5.95833,0,0,-0.0181275,0,-8.92699e-05,
6,0,0,-0.0162836,0,-5.3569e-05,
6.04167,0,0,-0.014492,0,-1.83913e-05,
6.08333,0,0,-0.0127513,0,1.6289e-05,
6.125,0,0,-0.0110604,0,5.04942e-05,
6.16667,0,0,-0.00941814,0,8.4239e-05,
6.20833,0,0,-0.00782344,0,0.000117533,
6.25,0,0,-0.00627531,0,0.000150384,
6.29167,0,0,-0.00477278,0,0.000182796,
6.33333,0,0,-0.00331491,0,0.000214776,
6.375,0,0,-0.00190078,0,0.000246326,
6.41667,0,0,-0.000529487,0,0.000277449,
6.45833,0,0,0.000799849,0,0.000308149,
6.5,0,0,0.0020881,0,0.000338429,
6.54167,0,0,0.00333612,0,0.000368291,
6.58333,0,0,0.00454474,0,0.000397737,
6.625,0,0,0.0057148,0,0.000426771,
6.66667,0,0,0.00684711,0,0.000455394,
6.70833,0,0,0.00794248,0,0.00048361,
6.75,0,0,0.00900171,0,0.00051142,
6.79167,0,0,0.0100256,0,0.000538827,
6.83333,0,0,0.0110148,0,0.000565834,
6.875,0,0,0.0119703,0,0.000592443,
6.91667,0,0,0.0128926,0,0.000618655,
6.95833,0,0,0.0137827,0,0.000644473,
7,0,0,0.0146411,0,0.000669898,
7.04167,0,0,0.0154687,0,0.000694934,
7.08333,0,0,0.0162662,0,0.000719583,
7.125,0,0,0.0170342,0,0.000743847,
7.16667,0,0,0.0177735,0,0.000767728,
7.20833,0,0,0.0184848,0,0.00079123,
7.25,0,0,0.0191687,0,0.000814356,
7.29167,0,0,0.019826,0,0.00083711,
7.33333,0,0,0.0204572,0,0.000859497,
7.375,0,0,0.021063,0,0.000881521,
7.41667,0,0,0.0216441,0,0.000903191,
7.45833,0,0,0.0222011,0,0.000924519,
7.5,0,0,0.0227346,0,0.000945516,
7.54167,0,0,0.0232453,0,0.00096619,
7.58333,0,0,0.0237337,0,0.000986546,
7.625,0,0,0.0242002,0,0.00100658,
7.66667,0,0,0.0246454,0,0.00102631,
7.70833,0,0,0.0250697,0,0.00104572,
7.75,0,0,0.0254736,0,0.00106482,
7.79167,0,0,0.0258575,0,0.00108362,
7.83333,0,0,0.0262212,0,0.0011021,
7.875,0,0,0.0265649,0,0.00112032,
7.91667,0,0,0.0268993,0,0.00113885,
7.95833,0,0,0.0271554,0,0.00115619,
8,0,0,0.0274972,0,0.00117351,
8.04171,0,0,0.0278588,0,0.00119184,
8.08368,0,0,0.0280865,0,0.00120995,
8.12617,0,0,0.0283549,0,0.0012263,
8.16946,0,0,0.0286074,0,0.00124272,
8.21382,0,0,0.0288431,0,0.00125915,
8.25952,0,0,0.0290697,0,0.0012756,
8.30685,0,0,0.0292866,0,0.00129224,
8.35611,0,0,0.0294939,0,0.00130918,
8.40762,0,0,0.0296917,0,0.00132649,
8.46168,0,0,0.0298793,0,0.00134422,
8.51865,0,0,0.0300558,0,0.00136244,
8.57889,0,0,0.03022,0,0.0013812,
8.64276,0,0,0.0303701,0,0.00140053,
8.71067,0,0,0.0305042,0,0.00142046,
8.78306,0,0,0.0306197,0,0.00144101,
8.86037,0,0,0.030714,0,0.0014622,
8.94309,0,0,0.0307836,0,0.00148404,
9.03174,0,0,0.030825,0,0.00150653,
9.12689,0,0,0.0308342,0,0.00152965,
9.22912,0,0,0.0308068,0,0.00155337,
9.33908,0,0,0.0307385,0,0.00157766,
9.45746,0,0,0.0306244,0,0.00160248,
9.58501,0,0,0.0304598,0,0.00162777,
9.72253,0,0,0.0302399,0,0.00165346,
9.87088,0,0,0.0299595,0,0.00167948,
10.031,0,0,0.0296144,0,0.00170573,
10.2039,0,0,0.0292008,0,0.00173211,
10.3906,0,0,0.0287155,0,0.00175852,
10.5924,0,0,0.0281555,0,0.00178485,
10.8105,0,0,0.0275198,0,0.00181095,
11.0463,0,0,0.0268095,0,0.00183673,
11.3012,0,0,0.0260257,0,0.00186207,
11.5769,0,0,0.0251715,0,0.00188686,
11.8751,0,0,0.0242526,0,0.00191101,
12.1977,0,0,0.0232756,0,0.00193442,
12.5466,0,0,0.02225,0,0.00195704,
12.9242,0,0,0.0211859,0,0.0019788,
13.3327,0,0,0.0200953,0,0.00199968,
13.7748,0,0,0.0189915,0,0.00201965,
14.2532,0,0,0.0178882,0,0.00203871,
14.7709,0,0,0.0167996,0,0.00205689,
15.3312,0,0,0.0157388,0,0.00207421,
15.9377,0,0,0.0147193,0,0.00209072,
16.594,0,0,0.0137517,0,0.00210647,
17.3044,0,0,0.0128458,0,0.00212155,
18.0733,0,0,0.0120077,0,0.00213597,
18.9056,0,0,0.0112399,0,0.00214968,
19.8064,0,0,0.0105434,0,0.00216258,
20.7816,0,0,0.00991526,0,0.00217487,
21.8371,0,0,0.00934861,0,0.00218688,
22.9796,0,0,0.00883351,0,0.00219878,
24.2163,0,0,0.0083569,0,0.00221065,
25.5551,0,0,0.00790442,0,0.00222261,
27.0042,0,0,0.00745939,0,0.00223471,
28.5729,0,0,0.00700408,0,0.00224701,
30.271,0,0,0.00652029,0,0.00225952,
32.1091,0,0,0.00599059,0,0.00227215,
34.0989,0,0,0.00539993,0,0.0022848,
36.2529,0,0,0.00473074,0,0.00229755,
38.5845,0,0,0.003975,0,0.00231031,
41.1085,0,0,0.00317157,0,0.0023229,
43.8407,0,0,0.0021618,0,0.00233311,
46.7983,0,0,0.00111373,0,0.00233886,
50,0,0,0.00212879,0,0.00235468,

