c90afa59316c7244e4ad387ea5f6ae000fab6a8b 
X,Z,x_velocity,cp,uw_b,cf,
1,0,0,-0.241215,0,0,
1,9,0,-0.12505,0,0,
1,8.99969,0.0153395,-0.12505,2.82918e-10,0,
1,8.99934,0.0327434,-0.12505,1.32253e-08,0,
1,8.99894,0.0525077,-0.12505,1.8245e-07,0,
1,8.99848,0.0749454,-0.12505,1.33772e-06,0,
1,8.99797,0.100369,-0.12505,6.68806e-06,0,
1,8.99739,0.128977,-0.12505,2.5329e-05,0,
1,8.99672,0.160579,-0.12505,7.5109e-05,0,
1,8.99597,0.194247,-0.12505,0.000174842,0,
1,8.99512,0.228338,-0.12505,0.000322728,0,
1,8.99416,0.261195,-0.12505,0.000490464,0,
1,8.99306,0.291838,-0.12505,0.000648591,0,
1,8.99182,0.320083,-0.125049,0.00077642,0,
1,8.99041,0.34607,-0.125049,0.000882067,0,
1,8.98881,0.369961,-0.125048,0.000969428,0,
1,8.98699,0.391976,-0.125048,0.00104084,0,
1,8.98494,0.412409,-0.125047,0.00109663,0,
1,8.98261,0.431568,-0.125046,0.00113992,0,
1,8.97996,0.449687,-0.125045,0.00117618,0,
1,8.97696,0.466939,-0.125044,0.00120636,0,
1,8.97356,0.483465,-0.125042,0.00123171,0,
1,8.9697,0.499385,-0.125041,0.00125322,0,
1,8.96533,0.514796,-0.125039,0.00127158,0,
1,8.96038,0.529782,-0.125037,0.00128732,0,
1,8.95476,0.544412,-0.125034,0.0013008,0,
1,8.9484,0.558747,-0.125031,0.00131229,0,
1,8.9412,0.572836,-0.125028,0.00132195,0,
1,8.93303,0.586722,-0.125025,0.00132988,0,
1,8.92379,0.600444,-0.125022,0.00133613,0,
1,8.91333,0.614032,-0.125018,0.00134071,0,
1,8.90149,0.627514,-0.125014,0.00134359,0,
1,8.8881,0.640914,-0.125011,0.00134472,0,
1,8.87295,0.654255,-0.125007,0.001344,0,
1,8.85584,0.667554,-0.125004,0.00134135,0,
1,8.83651,0.680832,-0.125002,0.00133666,0,
1,8.81469,0.694106,-0.125001,0.0013298,0,
1,8.79007,0.707394,-0.125001,0.00132063,0,
1,8.76232,0.720718,-0.125004,0.00130897,0,
1,8.73107,0.734102,-0.125009,0.00129464,0,
1,8.69591,0.747572,-0.125019,0.00127738,0,
1,8.6564,0.761165,-0.125035,0.00125691,0,
1,8.61206,0.774921,-0.125058,0.00123284,0,
1,8.56236,0.788894,-0.12509,0.00120481,0,
1,8.50675,0.803153,-0.125135,0.00117243,0,
1,8.44464,0.817785,-0.125195,0.00113601,0,
1,8.3754,0.832923,-0.125278,0.0011005,0,
1,8.29839,0.848867,-0.125385,0.00104051,0,
1,8.21296,0.865999,-0.125523,0.000962047,0,
1,8.11843,0.88457,-0.1257,0.000860446,0,
1,8.01417,0.904587,-0.125931,0.000731952,0,
1,7.89956,0.925613,-0.12621,0.000579916,0,
1,7.77403,0.94656,-0.126575,0.000421401,0,
1,7.63711,0.96586,-0.127016,0.000224577,0,
1,7.48842,0.981151,-0.127538,8.50316e-05,0,
1,7.32773,0.990354,-0.128165,2.11924e-05,0,
1,7.15495,0.993811,-0.128895,2.26521e-06,0,
1,6.97022,0.993968,-0.129743,3.69117e-08,0,
1,6.77388,0.993343,-0.130723,3.10292e-09,0,
1,6.56652,0.993191,-0.131853,9.81834e-09,0,
1,6.34896,0.993621,-0.133147,1.24018e-08,0,
1,6.12229,0.994341,-0.134621,1.40425e-08,0,
1,5.88784,0.995142,-0.136291,1.49555e-08,0,
1,5.64716,0.995982,-0.138172,1.59839e-08,0,
1,5.40194,0.996891,-0.140278,1.74152e-08,0,
1,5.15407,0.9979,-0.14262,1.92312e-08,0,
1,4.90545,0.99902,-0.145205,2.12351e-08,0,
1,4.65805,1.00025,-0.148036,2.34135e-08,0,
1,4.41376,1.0016,-0.151112,2.57295e-08,0,
1,4.17441,1.00305,-0.154425,2.79302e-08,0,
1,3.94163,1.00454,-0.157963,2.99135e-08,0,
1,3.7169,1.00603,-0.161704,3.2295e-08,0,
1,3.50146,1.0076,-0.16562,3.70892e-08,0,
1,3.29629,1.00955,-0.169683,4.62775e-08,0,
1,3.10217,1.01225,-0.173864,5.81188e-08,0,
1,2.91959,1.01552,-0.178134,1.09579e-07,0,
1,2.74885,1.01795,-0.182449,1.20596e-06,0,
1,2.59002,1.01717,-0.186737,-3.94315e-06,0,
1,2.44299,1.01148,-0.190926,-4.44342e-05,0,
1,2.30752,1.001,-0.19493,-0.000133589,0,
1,2.18321,0.987092,-0.198688,-0.000260097,0,
1,2.06959,0.971295,-0.202212,-0.000359806,0,
1,1.9661,0.954922,-0.205454,-0.000452115,0,
1,1.87215,0.938943,-0.20839,-0.000536677,0,
1,1.78711,0.923873,-0.211043,-0.00060958,0,
1,1.71033,0.909864,-0.213425,-0.000671183,0,
1,1.64119,0.89687,-0.215553,-0.000723428,0,
1,1.57905,0.88477,-0.217448,-0.000768864,0,
1,1.52332,0.873426,-0.219126,-0.000809757,0,
1,1.47342,0.862718,-0.220609,-0.00084804,0,
1,1.42882,0.852551,-0.221917,-0.000885309,0,
1,1.389,0.842853,-0.223067,-0.000923042,0,
1,1.35351,0.833588,-0.224087,-0.000963263,0,
1,1.3219,0.824745,-0.224961,-0.000986773,0,
1,1.29378,0.816305,-0.2257,-0.00100123,0,
1,1.26878,0.808243,-0.22635,-0.00101422,0,
1,1.24659,0.800552,-0.226911,-0.00102538,0,
1,1.22689,0.793225,-0.227399,-0.00103447,0,
1,1.2092,0.786175,-0.227827,-0.00104073,0,
1,1.1932,0.779348,-0.228203,-0.00104513,0,
1,1.1787,0.77272,-0.228536,-0.00104976,0,
1,1.16554,0.766251,-0.228829,-0.00105747,0,
1,1.15357,0.759877,-0.229087,-0.00107355,0,
1,1.14266,0.753495,-0.229315,-0.00110634,0,
1,1.13268,0.746948,-0.229519,-0.00116742,0,
1,1.12354,0.740027,-0.229705,-0.00127124,0,
1,1.11514,0.732476,-0.22988,-0.00143313,0,
1,1.10739,0.724035,-0.230053,-0.0016666,0,
1,1.10022,0.714502,-0.230226,-0.00197913,0,
1,1.09357,0.703806,-0.230403,-0.00236859,0,
1,1.08738,0.692041,-0.230585,-0.0028229,0,
1,1.0816,0.679445,-0.230772,-0.00332139,0,
1,1.07618,0.666324,-0.230963,-0.00384021,0,
1,1.07107,0.652979,-0.231156,-0.00435783,0,
1,1.06626,0.639658,-0.23135,-0.00485803,0,
1,1.06169,0.626541,-0.231544,-0.00533045,0,
1,1.05735,0.61375,-0.231735,-0.00576954,0,
1,1.05321,0.601353,-0.231925,-0.00617316,0,
1,1.04925,0.589388,-0.232112,-0.00654139,0,
1,1.04544,0.577863,-0.232295,-0.0068756,0,
1,1.04177,0.566776,-0.232476,-0.0071778,0,
1,1.03822,0.55611,-0.232654,-0.00745031,0,
1,1.03478,0.545846,-0.232828,-0.0076955,0,
1,1.03144,0.535961,-0.233,-0.00791564,0,
1,1.02818,0.526431,-0.233169,-0.0081129,0,
1,1.025,0.517232,-0.233335,-0.00828922,0,
1,1.02188,0.508342,-0.233499,-0.00844638,0,
1,1.01882,0.499739,-0.233661,-0.00858634,0,
1,1.01581,0.491402,-0.233821,-0.00871065,0,
1,1.01284,0.483311,-0.233978,-0.00881918,0,
1,1.00988,0.475357,-0.234135,-0.00891469,0,
1,1.00688,0.467438,-0.234294,-0.0089998,0,
1,1.00384,0.459537,-0.234453,-0.00907417,0,
1,1.00076,0.451636,-0.234614,-0.00913771,0,
1,0.997615,0.443717,-0.234776,-0.00919086,0,
1,0.99441,0.435758,-0.234941,-0.0092337,0,
1,0.991131,0.427737,-0.235107,-0.00926621,0,
1,0.987768,0.419631,-0.235276,-0.00928826,0,
1,0.984308,0.411416,-0.235448,-0.00929962,0,
1,0.980739,0.403065,-0.235624,-0.00929994,0,
1,0.977045,0.394549,-0.235803,-0.00928873,0,
1,0.973211,0.385836,-0.235987,-0.00926533,0,
1,0.969219,0.376892,-0.236175,-0.00922895,0,
1,0.965047,0.367681,-0.236369,-0.00917857,0,
1,0.960675,0.358161,-0.236569,-0.00911297,0,
1,0.956077,0.348287,-0.236775,-0.00903068,0,
1,0.951224,0.338011,-0.236989,-0.00892994,0,
1,0.946088,0.327279,-0.237211,-0.00880864,0,
1,0.940633,0.31603,-0.237441,-0.00866371,0,
1,0.934823,0.3042,-0.237681,-0.00849264,0,
1,0.928616,0.291724,-0.23793,-0.0082922,0,
1,0.921967,0.278537,-0.238191,-0.00805871,0,
1,0.914826,0.264577,-0.238464,-0.00778826,0,
1,0.907141,0.249797,-0.23875,-0.00747699,0,
1,0.898852,0.234172,-0.239048,-0.00712437,0,
1,0.889898,0.217704,-0.239358,-0.00672651,0,
1,0.880212,0.200429,-0.239681,-0.0062821,0,
1,0.869723,0.182419,-0.240017,-0.00579188,0,
1,0.858358,0.163799,-0.240364,-0.00525951,0,
1,0.846039,0.144763,-0.240722,-0.00469261,0,
1,0.83269,0.125587,-0.24109,-0.00410356,0,
1,0.818232,0.106644,-0.241465,-0.00351455,0,
1,0.802744,0.0885487,-0.241834,-0.00295513,0,
1,0.78635,0.0718979,-0.242195,-0.00245083,0,
1,0.768969,0.0569671,-0.242532,-0.00202283,0,
1,0.75053,0.0438887,-0.242837,-0.00168295,0,
1,0.730977,0.0325973,-0.243095,-0.00143055,0,
1,0.710271,0.0228425,-0.243302,-0.00125485,0,
1,0.688397,0.0142746,-0.243446,-0.00114001,0,
1,0.66536,0.00654354,-0.243534,-0.00106818,0,
1,0.641194,-0.000619807,-0.243563,-0.00102689,0,
1,0.615961,-0.00738148,-0.243543,-0.00101276,0,
1,0.589754,-0.0138888,-0.24349,-0.00100068,0,
1,0.562692,-0.0202679,-0.243409,-0.000987633,0,
1,0.534925,-0.0265762,-0.243307,-0.000969725,0,
1,0.506624,-0.0328175,-0.243186,-0.000944706,0,
1,0.477982,-0.0389647,-0.243047,-0.000911935,0,
1,0.449206,-0.0449744,-0.242893,-0.000871661,0,
1,0.420509,-0.0507974,-0.242725,-0.000824664,0,
1,0.392107,-0.0563845,-0.242547,-0.000771967,0,
1,0.364206,-0.0616903,-0.242362,-0.000714721,0,
1,0.337003,-0.0666755,-0.242175,-0.000654116,0,
1,0.310673,-0.071308,-0.24199,-0.000591334,0,
1,0.28537,-0.0755632,-0.241811,-0.000527504,0,
1,0.26122,-0.0794239,-0.241642,-0.000463672,0,
1,0.238324,-0.0828799,-0.241487,-0.000400766,0,
1,0.21675,-0.0859271,-0.241349,-0.000339578,0,
1,0.196544,-0.0885668,-0.241227,-0.000280752,0,
1,0.177724,-0.0908041,-0.241125,-0.000224803,0,
1,0.160284,-0.0926474,-0.241042,-0.000172117,0,
1,0.144202,-0.0941069,-0.240977,-0.000122962,0,
1,0.129436,-0.0951939,-0.240929,-7.75076e-05,0,
1,0.115935,-0.0959195,-0.240896,-3.58384e-05,0,
1,0.103636,-0.0962946,-0.240878,2.02107e-06,0,
1,0.0924701,-0.0963282,-0.240872,3.60883e-05,0,
1,0.0823633,-0.0960277,-0.240876,6.64067e-05,0,
1,0.0732406,-0.0953974,-0.240887,9.30272e-05,0,
1,0.0650269,-0.0944388,-0.240906,0.000115995,0,
1,0.057648,-0.0931496,-0.240929,0.000135339,0,
1,0.0510323,-0.0915234,-0.240955,0.00015106,0,
1,0.0451115,-0.0895491,-0.240983,0.000163126,0,
1,0.0398209,-0.0872108,-0.241012,0.000171464,0,
1,0.0351001,-0.0844871,-0.24104,0.000175952,0,
1,0.0308929,-0.0813507,-0.241067,0.000176426,0,
1,0.0271475,-0.0777694,-0.241093,0.000172684,0,
1,0.0238164,-0.0737069,-0.241116,0.000164512,0,
1,0.0208562,-0.0691271,-0.241136,0.000151719,0,
1,0.0182274,-0.0640015,-0.241154,0.000134253,0,
1,0.0158944,-0.0583258,-0.241168,0.000112435,0,
1,0.0138249,-0.0521475,-0.24118,8.73888e-05,0,
1,0.0119898,-0.0456043,-0.241188,6.15195e-05,0,
1,0.0103632,-0.0389524,-0.241195,3.83318e-05,0,
1,0.00892169,-0.0325362,-0.241198,2.08941e-05,0,
1,0.00764438,-0.0266821,-0.241202,1.00227e-05,0,
1,0.00651264,-0.0215867,-0.241202,4.31109e-06,0,
1,0.00550983,-0.0172915,-0.241205,1.69623e-06,0,
1,0.00462115,-0.0137341,-0.241205,6.17718e-07,0,
1,0.00383341,-0.0108101,-0.241208,2.08253e-07,0,
1,0.0031349,-0.00841098,-0.241206,6.4241e-08,0,
1,0.00251518,-0.00644031,-0.24121,1.76906e-08,0,
1,0.00196502,-0.00481712,-0.241207,4.16871e-09,0,
1,0.00147619,-0.00347538,-0.241211,7.82132e-10,0,
1,0.00104139,-0.00236174,-0.241208,1.02519e-10,0,
1,0.000654158,-0.0014333,-0.241213,7.21385e-12,0,
1,0.000308731,-0.000655529,-0.241208,1.49421e-13,0,

4,0,0,-0.11496,0,0,
4,9,0,-0.0935683,0,0,
4,8.99969,0.0142251,-0.0935679,2.2225e-10,0,
4,8.99934,0.0303076,-0.0935682,1.03114e-08,0,
4,8.99894,0.0485087,-0.0935679,1.40805e-07,0,
4,8.9985,0.0691043,-0.0935681,1.02207e-06,0,
4,8.99799,0.0923755,-0.0935679,5.07358e-06,0,
4,8.99742,0.118525,-0.093568,1.92155e-05,0,
4,8.99677,0.147471,-0.0935678,5.76932e-05,0,
4,8.99605,0.178539,-0.0935679,0.000137951,0,
4,8.99522,0.210378,-0.0935676,0.000263957,0,
4,8.99429,0.241449,-0.0935676,0.000415672,0,
4,8.99324,0.270685,-0.0935673,0.000565187,0,
4,8.99205,0.297698,-0.093567,0.000694841,0,
4,8.9907,0.322563,-0.0935666,0.000798906,0,
4,8.98919,0.345456,-0.0935661,0.000886661,0,
4,8.98747,0.366565,-0.0935654,0.000959746,0,
4,8.98553,0.386163,-0.0935647,0.00101692,0,
4,8.98334,0.404529,-0.0935637,0.00106349,0,
4,8.98087,0.421877,-0.0935626,0.0011028,0,
4,8.97807,0.438375,-0.0935612,0.00113625,0,
4,8.97491,0.454166,-0.0935595,0.00116514,0,
4,8.97134,0.469366,-0.0935576,0.00119047,0,
4,8.96731,0.484078,-0.0935554,0.00121296,0,
4,8.96276,0.498386,-0.0935527,0.00123315,0,
4,8.95762,0.512363,-0.0935497,0.00125139,0,
4,8.95182,0.526071,-0.0935462,0.00126797,0,
4,8.94526,0.539565,-0.0935421,0.00128302,0,
4,8.93787,0.552889,-0.0935375,0.00129662,0,
4,8.92952,0.566086,-0.0935326,0.00130879,0,
4,8.92011,0.579189,-0.0935271,0.00131948,0,
4,8.90949,0.592228,-0.0935209,0.00132859,0,
4,8.89751,0.605228,-0.0935142,0.001336,0,
4,8.88402,0.618212,-0.0935068,0.00134155,0,
4,8.86881,0.631197,-0.0934988,0.00134505,0,
4,8.85169,0.644198,-0.0934903,0.00134632,0,
4,8.83242,0.657228,-0.0934814,0.00134517,0,
4,8.81074,0.6703,-0.0934723,0.00134141,0,
4,8.78637,0.683425,-0.0934631,0.00133485,0,
4,8.75901,0.696614,-0.093454,0.0013253,0,
4,8.7283,0.709881,-0.0934457,0.00131261,0,
4,8.69387,0.723244,-0.0934385,0.00129658,0,
4,8.65533,0.736725,-0.093433,0.00127701,0,
4,8.61222,0.750353,-0.0934302,0.00125364,0,
4,8.56407,0.764166,-0.0934311,0.00122612,0,
4,8.5104,0.778211,-0.0934369,0.00119397,0,
4,8.45065,0.792546,-0.0934493,0.00115669,0,
4,8.38429,0.807244,-0.0934693,0.0011158,0,
4,8.31073,0.822443,-0.0935031,0.0010727,0,
4,8.22941,0.838479,-0.0935537,0.00100597,0,
4,8.13974,0.855783,-0.0936215,0.000918808,0,
4,8.04115,0.874612,-0.0937093,0.00080848,0,
4,7.93313,0.894874,-0.0938202,0.000674806,0,
4,7.81519,0.915902,-0.0939455,0.000526331,0,
4,7.68693,0.936285,-0.0941067,0.000381256,0,
4,7.54803,0.95413,-0.0942845,0.00022571,0,
4,7.39831,0.967424,-0.0944952,0.000101017,0,
4,7.23771,0.975112,-0.0947542,3.19176e-05,0,
4,7.06634,0.978029,-0.0950502,5.37693e-06,0,
4,6.88453,0.978232,-0.0953838,-8.95421e-08,0,
4,6.69275,0.97763,-0.0957536,-1.87014e-07,0,
4,6.49173,0.977223,-0.0961652,-7.63175e-09,0,
4,6.28238,0.977203,-0.0966248,1.66991e-08,0,
4,6.06579,0.977413,-0.097137,1.06279e-08,0,
4,5.84328,0.977691,-0.0977051,6.81325e-09,0,
4,5.61626,0.977966,-0.0983309,5.59043e-09,0,
4,5.3863,0.978234,-0.0990155,5.40301e-09,0,
4,5.15502,0.978511,-0.0997588,5.64086e-09,0,
4,4.92406,0.978809,-0.100559,6.09617e-09,0,
4,4.69507,0.979137,-0.101414,6.66165e-09,0,
4,4.46961,0.9795,-0.10232,7.18543e-09,0,
4,4.24915,0.979879,-0.103269,7.35308e-09,0,
4,4.03501,0.980219,-0.104256,6.88743e-09,0,
4,3.82836,0.980452,-0.105271,6.01719e-09,0,
4,3.63018,0.980578,-0.106305,6.04826e-09,0,
4,3.44125,0.980766,-0.107346,9.53127e-09,0,
4,3.26217,0.98136,-0.108386,3.85292e-08,0,
4,3.09333,0.98266,-0.109413,3.6223e-07,0,
4,2.93497,0.984527,-0.110416,1.73158e-06,0,
4,2.78715,0.986195,-0.111383,3.03856e-06,0,
4,2.64979,0.986549,-0.112306,-2.23581e-06,0,
4,2.52268,0.984671,-0.113176,-2.31597e-05,0,
4,2.40551,0.980187,-0.113985,-6.5148e-05,0,
4,2.29789,0.973274,-0.114725,-0.000127687,0,
4,2.19939,0.96446,-0.115395,-0.000205734,0,
4,2.10949,0.954409,-0.115992,-0.000291709,0,
4,2.02768,0.943767,-0.116522,-0.000377169,0,
4,1.95343,0.933084,-0.116985,-0.000455733,0,
4,1.88618,0.922725,-0.117397,-0.000522233,0,
4,1.82542,0.912835,-0.117763,-0.00056643,0,
4,1.77062,0.903475,-0.118076,-0.000606548,0,
4,1.72128,0.89472,-0.118349,-0.000642728,0,
4,1.67693,0.886612,-0.118583,-0.000675247,0,
4,1.63713,0.879159,-0.118786,-0.000704277,0,
4,1.60144,0.872347,-0.118961,-0.0007302,0,
4,1.56949,0.866151,-0.119113,-0.000753408,0,
4,1.54091,0.86053,-0.119245,-0.000774331,0,
4,1.51537,0.855425,-0.119359,-0.000793499,0,
4,1.49167,0.850628,-0.119461,-0.00081162,0,
4,1.46926,0.846052,-0.119554,-0.000829021,0,
4,1.44801,0.841692,-0.119637,-0.000845721,0,
4,1.42781,0.83755,-0.119712,-0.000861883,0,
4,1.40855,0.833619,-0.119781,-0.000877448,0,
4,1.39015,0.829853,-0.119856,-0.000883991,0,
4,1.37252,0.826196,-0.119934,-0.000888795,0,
4,1.3556,0.822621,-0.120005,-0.000894628,0,
4,1.3393,0.81911,-0.120073,-0.000900662,0,
4,1.32357,0.815645,-0.120138,-0.000907932,0,
4,1.30836,0.812205,-0.1202,-0.000917293,0,
4,1.29362,0.808767,-0.120259,-0.000929913,0,
4,1.2793,0.805303,-0.120316,-0.000947212,0,
4,1.26537,0.801781,-0.120371,-0.000970893,0,
4,1.25179,0.798163,-0.120425,-0.00100296,0,
4,1.23852,0.794406,-0.120476,-0.00104573,0,
4,1.22554,0.790458,-0.120525,-0.00110175,0,
4,1.21282,0.786264,-0.120573,-0.00117379,0,
4,1.20034,0.781763,-0.120618,-0.00126461,0,
4,1.18806,0.776892,-0.120661,-0.00137682,0,
4,1.17599,0.771593,-0.120703,-0.00151253,0,
4,1.16408,0.765816,-0.120741,-0.00167305,0,
4,1.15233,0.759525,-0.120778,-0.00185864,0,
4,1.14073,0.752705,-0.120811,-0.0020683,0,
4,1.12925,0.745358,-0.120842,-0.0022998,0,
4,1.11788,0.73751,-0.120872,-0.00254982,0,
4,1.10661,0.729198,-0.1209,-0.00281426,0,
4,1.09543,0.720474,-0.120926,-0.00308861,0,
4,1.08432,0.711392,-0.120951,-0.00336827,0,
4,1.07328,0.702012,-0.120975,-0.00364887,0,
4,1.0623,0.692388,-0.120998,-0.00392646,0,
4,1.05136,0.682572,-0.12102,-0.00419754,0,
4,1.04044,0.672596,-0.121042,-0.00445933,0,
4,1.0295,0.662484,-0.121063,-0.00470965,0,
4,1.01855,0.65227,-0.121084,-0.0049464,0,
4,1.00757,0.641987,-0.121103,-0.00516757,0,
4,0.996544,0.631663,-0.121124,-0.00537186,0,
4,0.98547,0.621319,-0.121142,-0.00558423,0,
4,0.974334,0.61088,-0.121142,-0.00574484,0,
4,0.963124,0.600217,-0.121128,-0.00590873,0,
4,0.951826,0.589261,-0.121111,-0.00607897,0,
4,0.940428,0.577971,-0.121091,-0.00625601,0,
4,0.928915,0.566312,-0.121072,-0.00644001,0,
4,0.917272,0.554255,-0.121054,-0.00663161,0,
4,0.905481,0.541771,-0.121039,-0.00683132,0,
4,0.893524,0.528832,-0.121026,-0.00703947,0,
4,0.881383,0.51541,-0.121015,-0.0072562,0,
4,0.869035,0.50148,-0.121007,-0.00748146,0,
4,0.856459,0.487015,-0.121002,-0.00771494,0,
4,0.843629,0.471991,-0.121,-0.00795608,0,
4,0.830518,0.456386,-0.121002,-0.00820397,0,
4,0.817097,0.440184,-0.121008,-0.00845731,0,
4,0.803334,0.423375,-0.121018,-0.00871434,0,
4,0.789195,0.405961,-0.121032,-0.00897272,0,
4,0.774643,0.38796,-0.121052,-0.00922952,0,
4,0.759639,0.369411,-0.121077,-0.00948113,0,
4,0.744138,0.350376,-0.121107,-0.00972324,0,
4,0.728096,0.330935,-0.121144,-0.00995088,0,
4,0.711463,0.311176,-0.121186,-0.0101577,0,
4,0.694189,0.291182,-0.121232,-0.0103374,0,
4,0.676218,0.271027,-0.121282,-0.0104847,0,
4,0.657495,0.250763,-0.121335,-0.0105957,0,
4,0.637962,0.230423,-0.121388,-0.0106676,0,
4,0.617561,0.210008,-0.121435,-0.0106984,0,
4,0.596848,0.190052,-0.121469,-0.0106859,0,
4,0.576557,0.171172,-0.121485,-0.0106319,0,
4,0.556564,0.153189,-0.121485,-0.0105393,0,
4,0.536763,0.13598,-0.121481,-0.0104098,0,
4,0.517057,0.119523,-0.121505,-0.0102453,0,
4,0.497368,0.103926,-0.121607,-0.0100508,0,
4,0.477632,0.0894097,-0.121845,-0.00983557,0,
4,0.457804,0.0761881,-0.122247,-0.00961353,0,
4,0.437857,0.0642773,-0.122714,-0.00939768,0,
4,0.417786,0.0533063,-0.122768,-0.00901217,0,
4,0.397605,0.0427793,-0.122482,-0.00852079,0,
4,0.377348,0.0324818,-0.122242,-0.00811912,0,
4,0.357066,0.0224444,-0.121991,-0.00770905,0,
4,0.336828,0.0127071,-0.121725,-0.0072925,0,
4,0.316717,0.00331001,-0.121448,-0.00687261,0,
4,0.296825,-0.00571319,-0.12116,-0.0064494,0,
4,0.27725,-0.0143395,-0.120863,-0.00602449,0,
4,0.258095,-0.0225496,-0.120555,-0.00560352,0,
4,0.239458,-0.0303233,-0.120239,-0.00519007,0,
4,0.221432,-0.037644,-0.119915,-0.00478622,0,
4,0.2041,-0.0445017,-0.119587,-0.00439414,0,
4,0.187537,-0.0508943,-0.119257,-0.004016,0,
4,0.171798,-0.0568268,-0.118928,-0.00365375,0,
4,0.156928,-0.0623099,-0.118602,-0.00330901,0,
4,0.142956,-0.0673589,-0.118283,-0.00298298,0,
4,0.129894,-0.0719922,-0.117974,-0.00267645,0,
4,0.117744,-0.0762304,-0.117676,-0.00238986,0,
4,0.106492,-0.0800952,-0.117393,-0.00212326,0,
4,0.0961173,-0.0836086,-0.117127,-0.00187642,0,
4,0.0865883,-0.0867924,-0.116878,-0.00164884,0,
4,0.0778675,-0.0896676,-0.116648,-0.00143982,0,
4,0.0699123,-0.092254,-0.116436,-0.00124851,0,
4,0.062677,-0.0945701,-0.116244,-0.00107395,0,
4,0.056114,-0.096633,-0.11607,-0.000915107,0,
4,0.0501747,-0.0984579,-0.115913,-0.000770913,0,
4,0.0448114,-0.100058,-0.115774,-0.0006403,0,
4,0.039977,-0.101445,-0.115651,-0.000522215,0,
4,0.0356266,-0.102628,-0.115542,-0.000415644,0,
4,0.0317171,-0.103614,-0.115447,-0.000319625,0,
4,0.0282081,-0.104407,-0.115364,-0.000233261,0,
4,0.0250617,-0.105008,-0.115293,-0.000155731,0,
4,0.0222427,-0.105414,-0.115231,-8.63017e-05,0,
4,0.0197189,-0.105618,-0.115178,-2.43441e-05,0,
4,0.0174603,-0.105605,-0.115133,3.06454e-05,0,
4,0.0154398,-0.105352,-0.115095,7.90051e-05,0,
4,0.0136326,-0.104824,-0.115064,0.000120844,0,
4,0.0120162,-0.103967,-0.115038,0.000155924,0,
4,0.0105703,-0.1027,-0.115017,0.000183471,0,
4,0.00927657,-0.100905,-0.115001,0.000201878,0,
4,0.00811839,-0.0984092,-0.114987,0.000208397,0,
4,0.0070809,-0.094977,-0.114979,0.000199341,0,
4,0.0061507,-0.0903345,-0.114972,0.000172088,0,
4,0.00531578,-0.0842731,-0.114969,0.000129602,0,
4,0.00456537,-0.0768348,-0.114965,8.29253e-05,0,
4,0.00388979,-0.0684075,-0.114965,4.48357e-05,0,
4,0.00328037,-0.0595544,-0.114963,2.07462e-05,0,
4,0.00272934,-0.0507451,-0.114964,8.32909e-06,0,
4,0.0022297,-0.0422491,-0.114962,2.89606e-06,0,
4,0.00177519,-0.0341782,-0.114964,8.4846e-07,0,
4,0.00136016,-0.0265561,-0.114961,1.96429e-07,0,
4,0.000979511,-0.0193656,-0.114963,3.16247e-08,0,
4,0.00062865,-0.0125716,-0.11496,2.71178e-09,0,
4,0.000303409,-0.00613205,-0.114963,6.63809e-11,0,

6,0,0,-0.00506669,0,0,
6,9,0,-0.0698546,0,0,
6,8.99969,0.0135206,-0.0698544,1.86475e-10,0,
6,8.99934,0.028767,-0.0698546,8.60588e-09,0,
6,8.99895,0.0459767,-0.0698543,1.16671e-07,0,
6,8.9985,0.0654007,-0.0698545,8.40781e-07,0,
6,8.99801,0.087297,-0.0698543,4.15045e-06,0,
6,8.99744,0.111865,-0.0698544,1.57001e-05,0,
6,8.99681,0.139077,-0.0698542,4.74551e-05,0,
6,8.99609,0.168407,-0.0698543,0.000115375,0,
6,8.99529,0.198705,-0.0698541,0.000226151,0,
6,8.99438,0.22854,-0.0698541,0.000365279,0,
6,8.99336,0.256811,-0.0698538,0.000507252,0,
6,8.9922,0.283021,-0.0698536,0.00063471,0,
6,8.9909,0.30717,-0.0698533,0.000737963,0,
6,8.98944,0.329415,-0.0698529,0.00082476,0,
6,8.98779,0.349928,-0.0698524,0.000897777,0,
6,8.98593,0.36896,-0.0698518,0.000955435,0,
6,8.98383,0.38677,-0.069851,0.0010029,0,
6,8.98147,0.403562,-0.0698501,0.0010431,0,
6,8.97881,0.419501,-0.0698489,0.00107755,0,
6,8.97581,0.434729,-0.0698476,0.00110758,0,
6,8.97244,0.449362,-0.069846,0.00113422,0,
6,8.96863,0.463502,-0.0698441,0.00115823,0,
6,8.96435,0.477235,-0.0698418,0.00118017,0,
6,8.95953,0.490635,-0.0698391,0.00120045,0,
6,8.95409,0.503766,-0.069836,0.00121936,0,
6,8.94798,0.516686,-0.0698322,0.00123708,0,
6,8.94109,0.529443,-0.0698279,0.00125373,0,
6,8.93334,0.542082,-0.0698231,0.00126931,0,
6,8.92463,0.554641,-0.0698177,0.0012838,0,
6,8.91482,0.567153,-0.0698114,0.0012971,0,
6,8.90379,0.579648,-0.0698043,0.00130905,0,
6,8.89139,0.592152,-0.0697962,0.00131946,0,
6,8.87746,0.604687,-0.0697871,0.0013281,0,
6,8.86181,0.61727,-0.0697769,0.00133471,0,
6,8.84423,0.629917,-0.0697654,0.001339,0,
6,8.82452,0.64264,-0.0697527,0.0013407,0,
6,8.80241,0.655448,-0.0697386,0.00133952,0,
6,8.77763,0.668349,-0.0697232,0.00133519,0,
6,8.74989,0.681352,-0.0697062,0.00132745,0,
6,8.71885,0.694464,-0.0696878,0.00131607,0,
6,8.68417,0.707697,-0.0696678,0.00130082,0,
6,8.64545,0.721063,-0.0696462,0.00128148,0,
6,8.60229,0.734584,-0.0696231,0.00125778,0,
6,8.55423,0.748283,-0.0695982,0.00122938,0,
6,8.50082,0.762196,-0.0695719,0.00119577,0,
6,8.44155,0.776359,-0.0695435,0.00115648,0,
6,8.37592,0.790825,-0.0695134,0.00111335,0,
6,8.30339,0.805707,-0.0694839,0.00106682,0,
6,8.22344,0.821312,-0.0694564,0.00100145,0,
6,8.13555,0.838068,-0.0694303,0.000920301,0,
6,8.0392,0.856326,-0.0693982,0.000819244,0,
6,7.93391,0.876143,-0.0693601,0.000697457,0,
6,7.81927,0.896984,-0.0693022,0.000560507,0,
6,7.6949,0.917515,-0.0692305,0.00042419,0,
6,7.56054,0.935896,-0.0691304,0.000298983,0,
6,7.41603,0.950429,-0.0690065,0.00015685,0,
6,7.26132,0.959981,-0.0688664,6.36768e-05,0,
6,7.09653,0.964673,-0.0686954,1.67772e-05,0,
6,6.92195,0.965917,-0.0684947,9.98424e-07,0,
6,6.73802,0.965504,-0.0682561,-1.26335e-06,0,
6,6.5454,0.964738,-0.0679752,-6.35576e-07,0,
6,6.34489,0.964174,-0.0676469,-1.95903e-07,0,
6,6.1375,0.963852,-0.0672666,-5.86122e-08,0,
6,5.92439,0.963636,-0.0668291,-2.28805e-08,0,
6,5.70687,0.963414,-0.0663285,-1.24105e-08,0,
6,5.48633,0.963137,-0.0657591,-9.05547e-09,0,
6,5.26426,0.9628,-0.0651152,-8.27411e-09,0,
6,5.04218,0.962414,-0.0643917,-8.51424e-09,0,
6,4.82159,0.96199,-0.0635841,-9.14234e-09,0,
6,4.60398,0.961542,-0.0626894,-9.94846e-09,0,
6,4.39071,0.961069,-0.0617058,-1.10413e-08,0,
6,4.18307,0.960542,-0.0606334,-1.2714e-08,0,
6,3.98218,0.959904,-0.0594745,-1.52115e-08,0,
6,3.78902,0.959097,-0.0582339,-1.82475e-08,0,
6,3.60438,0.958145,-0.0569187,-2.30023e-08,0,
6,3.42888,0.957207,-0.0555382,-4.74147e-08,0,
6,3.26296,0.956565,-0.0541029,-1.32869e-07,0,
6,3.10691,0.95646,-0.0526233,-2.44182e-07,0,
6,2.96084,0.956896,-0.0511105,-2.61413e-07,0,
6,2.82473,0.957536,-0.049577,-7.70294e-07,0,
6,2.69844,0.957802,-0.0480378,-4.21851e-06,0,
6,2.58172,0.957099,-0.04651,-1.45414e-05,0,
6,2.47424,0.955022,-0.0450109,-3.52446e-05,0,
6,2.37559,0.951436,-0.0435569,-6.77796e-05,0,
6,2.28535,0.946446,-0.0421616,-0.000111328,0,
6,2.20301,0.940316,-0.0408357,-0.000163429,0,
6,2.1281,0.933382,-0.039587,-0.000220725,0,
6,2.06009,0.925998,-0.0384187,-0.000279137,0,
6,1.99849,0.918502,-0.0373355,-0.000334488,0,
6,1.9428,0.911175,-0.036331,-0.000385066,0,
6,1.89255,0.904162,-0.0354121,-0.000424351,0,
6,1.84728,0.897487,-0.0345753,-0.000452969,0,
6,1.80655,0.89117,-0.0338073,-0.000479535,0,
6,1.76996,0.885257,-0.03311,-0.00050416,0,
6,1.73712,0.879775,-0.0324767,-0.00052692,0,
6,1.70768,0.874696,-0.0319023,-0.000547963,0,
6,1.67998,0.869795,-0.0313594,-0.000568373,0,
6,1.65329,0.864976,-0.0308315,-0.000588362,0,
6,1.62754,0.860235,-0.0303184,-0.000607851,0,
6,1.60265,0.855571,-0.0298186,-0.000626925,0,
6,1.57854,0.850984,-0.0293314,-0.000645584,0,
6,1.55515,0.846472,-0.0288557,-0.00066381,0,
6,1.53242,0.842034,-0.0283906,-0.000681647,0,
6,1.5103,0.837666,-0.0279355,-0.000699136,0,
6,1.48874,0.833366,-0.0274896,-0.000716288,0,
6,1.46769,0.829123,-0.0270524,-0.000733104,0,
6,1.44712,0.824922,-0.0266236,-0.000749657,0,
6,1.42698,0.820742,-0.0262024,-0.000766318,0,
6,1.40725,0.816567,-0.0257879,-0.000783639,0,
6,1.38788,0.812396,-0.0253785,-0.000801976,0,
6,1.36886,0.808251,-0.0249728,-0.000821865,0,
6,1.35015,0.804182,-0.0245684,-0.000843835,0,
6,1.33173,0.800237,-0.0241672,-0.000867948,0,
6,1.31357,0.796427,-0.0237667,-0.000893149,0,
6,1.29566,0.792686,-0.0233818,-0.000912585,0,
6,1.27797,0.788909,-0.0230075,-0.000929478,0,
6,1.26048,0.785028,-0.0226307,-0.000956317,0,
6,1.24318,0.781006,-0.0222596,-0.000990527,0,
6,1.22605,0.776799,-0.0218905,-0.00103407,0,
6,1.20907,0.772359,-0.021525,-0.00108919,0,
6,1.19223,0.767628,-0.0211623,-0.00115826,0,
6,1.17551,0.762549,-0.0208027,-0.00124359,0,
6,1.1589,0.757063,-0.0204457,-0.00134718,0,
6,1.14238,0.751118,-0.0200926,-0.00147045,0,
6,1.12595,0.744673,-0.0197432,-0.00161399,0,
6,1.10959,0.737703,-0.0193977,-0.00177738,0,
6,1.09329,0.730205,-0.0190563,-0.0019591,0,
6,1.07704,0.722191,-0.0187193,-0.00215663,0,
6,1.06081,0.713689,-0.0183868,-0.00236669,0,
6,1.04459,0.704737,-0.018059,-0.00258559,0,
6,1.02836,0.695386,-0.0177357,-0.00280959,0,
6,1.01211,0.685691,-0.0174179,-0.00304182,0,
6,0.99583,0.675659,-0.0171013,-0.00326808,0,
6,0.97951,0.665249,-0.0167846,-0.00349587,0,
6,0.963136,0.654418,-0.0164718,-0.00373055,0,
6,0.946694,0.643128,-0.0161631,-0.00397352,0,
6,0.930172,0.63134,-0.0158596,-0.00422592,0,
6,0.913555,0.61901,-0.0155615,-0.00448875,0,
6,0.896829,0.606089,-0.0152693,-0.00476277,0,
6,0.879979,0.592534,-0.0149833,-0.00504854,0,
6,0.862989,0.578319,-0.0147048,-0.00534646,0,
6,0.845842,0.563451,-0.0144354,-0.00565718,0,
6,0.828521,0.547982,-0.0141775,-0.0059819,0,
6,0.811008,0.531972,-0.0139315,-0.00631033,0,
6,0.793282,0.51547,-0.0136973,-0.00663877,0,
6,0.775322,0.498521,-0.0134759,-0.00696347,0,
6,0.757107,0.481174,-0.0132686,-0.00728044,0,
6,0.738612,0.46349,-0.0130776,-0.00758538,0,
6,0.719813,0.445547,-0.0129053,-0.00787365,0,
6,0.700681,0.427438,-0.0127533,-0.00814032,0,
6,0.681188,0.409262,-0.0126215,-0.00838019,0,
6,0.661304,0.391102,-0.0125054,-0.00858775,0,
6,0.640996,0.373006,-0.0123969,-0.00875785,0,
6,0.620228,0.354982,-0.0122864,-0.00888628,0,
6,0.598964,0.337021,-0.0121699,-0.00896935,0,
6,0.577166,0.319146,-0.0120598,-0.00900418,0,
6,0.554791,0.301489,-0.0119955,-0.00899048,0,
6,0.531799,0.284353,-0.0120502,-0.00893374,0,
6,0.508144,0.268167,-0.0122865,-0.00884688,0,
6,0.48378,0.25325,-0.0127407,-0.00874602,0,
6,0.459585,0.239969,-0.0128856,-0.0085508,0,
6,0.436695,0.228266,-0.0126687,-0.0081035,0,
6,0.414961,0.217584,-0.0124675,-0.00776775,0,
6,0.394252,0.207748,-0.0122667,-0.0074377,0,
6,0.374445,0.198631,-0.0120499,-0.00711025,0,
6,0.355433,0.190133,-0.0118319,-0.00678828,0,
6,0.337122,0.182176,-0.0116113,-0.00647065,0,
6,0.319433,0.174693,-0.0113867,-0.00615696,0,
6,0.3023,0.167631,-0.0111574,-0.00584734,0,
6,0.28567,0.160945,-0.0109226,-0.00554192,0,
6,0.269507,0.154599,-0.0106819,-0.00524093,0,
6,0.253785,0.148563,-0.0104351,-0.00494474,0,
6,0.238493,0.142814,-0.0101823,-0.00465382,0,
6,0.223631,0.137335,-0.00992371,-0.00436879,0,
6,0.209207,0.132111,-0.00966015,-0.00409038,0,
6,0.195237,0.127133,-0.00939263,-0.00381938,0,
6,0.181744,0.122392,-0.00912249,-0.00355667,0,
6,0.168754,0.11788,-0.00885134,-0.00330312,0,
6,0.156292,0.113593,-0.00858103,-0.00305955,0,
6,0.144384,0.109523,-0.00831355,-0.00282673,0,
6,0.133052,0.105665,-0.00805094,-0.00260529,0,
6,0.122315,0.102013,-0.00779522,-0.00239574,0,
6,0.112183,0.0985584,-0.00754828,-0.00219844,0,
6,0.102665,0.0952941,-0.00731182,-0.00201357,0,
6,0.0937597,0.0922115,-0.00708727,-0.00184116,0,
6,0.0854609,0.0893014,-0.00687577,-0.00168108,0,
6,0.077757,0.0865543,-0.00667813,-0.00153307,0,
6,0.0706309,0.0839599,-0.00649484,-0.00139674,0,
6,0.0640611,0.0815079,-0.00632609,-0.00127161,0,
6,0.0580229,0.0791878,-0.00617178,-0.00115713,0,
6,0.0524888,0.0769888,-0.00603158,-0.0010527,0,
6,0.0474296,0.0749001,-0.00590498,-0.000957672,0,
6,0.042815,0.0729109,-0.00579132,-0.000871383,0,
6,0.0386145,0.0710103,-0.00568981,-0.000793171,0,
6,0.0347975,0.0691875,-0.00559962,-0.000722382,0,
6,0.0313344,0.0674314,-0.00551986,-0.000658373,0,
6,0.0281964,0.0657306,-0.00544969,-0.000600525,0,
6,0.0253561,0.0640736,-0.00538818,-0.000548241,0,
6,0.0227875,0.0624479,-0.00533462,-0.000500948,0,
6,0.0204662,0.0608403,-0.00528805,-0.000458093,0,
6,0.0183694,0.0592362,-0.00524799,-0.000419139,0,
6,0.016476,0.057619,-0.00521342,-0.000383554,0,
6,0.0147664,0.0559693,-0.00518422,-0.000350793,0,
6,0.0132228,0.054264,-0.00515918,-0.000320281,0,
6,0.0118288,0.0524747,-0.00513869,-0.000291373,0,
6,0.0105693,0.0505658,-0.00512117,-0.00026332,0,
6,0.00943073,0.0484929,-0.00510769,-0.000235217,0,
6,0.00840063,0.0462008,-0.00509611,-0.000206003,0,
6,0.00746774,0.0436259,-0.00508826,-0.000174611,0,
6,0.00662185,0.0407056,-0.0050813,-0.000140503,0,
6,0.00585371,0.0374043,-0.00507779,-0.000104683,0,
6,0.00515491,0.0337545,-0.00507405,-7.04272e-05,0,
6,0.00451788,0.0298844,-0.00507332,-4.2115e-05,0,
6,0.00393573,0.0259879,-0.00507116,-2.23681e-05,0,
6,0.00340221,0.0222462,-0.00507174,-1.06542e-05,0,
6,0.00291168,0.0187701,-0.00506993,-4.59269e-06,0,
6,0.00245897,0.0155986,-0.00507111,-1.78984e-06,0,
6,0.00203939,0.0127249,-0.00506912,-6.20136e-07,0,
6,0.00164864,0.0101209,-0.00507077,-1.8395e-07,0,
6,0.00128281,0.00775224,-0.00506836,-4.35465e-08,0,
6,0.000938257,0.00558509,-0.0050706,-7.21071e-09,0,
6,0.000611645,0.00358844,-0.00506757,-6.36098e-10,0,
6,0.000299862,0.00173494,-0.00507057,-1.5748e-11,0,

10,0.000296632,0.00888044,0.0262541,-5.52946e-11,0,
10,0.000596102,0.0178427,0.0262546,-2.04921e-09,0,
10,0.000900397,0.0269461,0.026254,-2.08333e-08,0,
10,0.00121153,0.0362503,0.0262545,-1.11933e-07,0,
10,0.00153158,0.0458151,0.026254,-4.18522e-07,0,
10,0.00186264,0.0556987,0.0262544,-1.24336e-06,0,
10,0.00220692,0.0659552,0.0262539,-3.15154e-06,0,
10,0.00256668,0.0766291,0.0262542,-7.0994e-06,0,
10,0.00294431,0.0877465,0.0262539,-1.45555e-05,0,
10,0.00334229,0.0993031,0.0262541,-2.75255e-05,0,
10,0.00376326,0.111249,0.0262537,-4.83362e-05,0,
10,0.00421,0.123477,0.0262539,-7.90572e-05,0,
10,0.00468544,0.135821,0.0262535,-0.000120645,0,
10,0.00519274,0.148074,0.0262535,-0.000172239,0,
10,0.00573524,0.160017,0.026253,-0.000231139,0,
10,0.00631651,0.171457,0.0262527,-0.000293581,0,
10,0.00694041,0.182249,0.026252,-0.000355833,0,
10,0.00761104,0.192308,0.0262514,-0.000414986,0,
10,0.00833284,0.201599,0.0262502,-0.000469237,0,
10,0.00911058,0.210127,0.0262491,-0.000517773,0,
10,0.0099494,0.217927,0.0262473,-0.000560506,0,
10,0.0108548,0.225052,0.0262453,-0.000597808,0,
10,0.0118329,0.23156,0.0262427,-0.000630304,0,
10,0.0128901,0.237516,0.0262397,-0.00065873,0,
10,0.0140333,0.242983,0.0262358,-0.000683841,0,
10,0.0152702,0.248018,0.0262314,-0.000706354,0,
10,0.0166089,0.252676,0.026226,-0.000726926,0,
10,0.0180584,0.257006,0.0262198,-0.000746146,0,
10,0.0196282,0.261051,0.0262125,-0.00076453,0,
10,0.0213288,0.26485,0.026204,-0.000782533,0,
10,0.0231714,0.268437,0.0261943,-0.000800559,0,
10,0.0251682,0.271841,0.0261832,-0.000818969,0,
10,0.0273326,0.275089,0.0261704,-0.000838091,0,
10,0.0296789,0.278204,0.0261559,-0.000858231,0,
10,0.0322227,0.281207,0.0261396,-0.00087968,0,
10,0.0349809,0.284118,0.0261211,-0.000902718,0,
10,0.0379719,0.286953,0.0261004,-0.000927626,0,
10,0.0412155,0.289728,0.0260771,-0.000954685,0,
10,0.0447333,0.292458,0.0260511,-0.000984184,0,
10,0.0485489,0.295156,0.0260221,-0.00101642,0,
10,0.0526875,0.297837,0.0259899,-0.00105171,0,
10,0.0571768,0.300513,0.0259543,-0.00109039,0,
10,0.0620466,0.303197,0.0259148,-0.0011328,0,
10,0.0673295,0.305902,0.0258713,-0.00117933,0,
10,0.0730607,0.30864,0.0258234,-0.00123037,0,
10,0.0792784,0.311426,0.0257709,-0.00128636,0,
10,0.0860241,0.314274,0.0257134,-0.00134776,0,
10,0.0933428,0.317198,0.0256507,-0.00141506,0,
10,0.101283,0.320215,0.0255825,-0.0014888,0,
10,0.109899,0.323341,0.0255086,-0.00156955,0,
10,0.119247,0.326597,0.0254287,-0.00165789,0,
10,0.12939,0.330003,0.0253426,-0.00175448,0,
10,0.140395,0.333583,0.0252502,-0.00185997,0,
10,0.152337,0.337363,0.0251515,-0.00197506,0,
10,0.165296,0.341372,0.0250462,-0.00210047,0,
10,0.179357,0.345644,0.0249346,-0.00223691,0,
10,0.194615,0.350217,0.0248166,-0.00238512,0,
10,0.211171,0.355136,0.0246925,-0.00254575,0,
10,0.229138,0.36045,0.0245622,-0.00271944,0,
10,0.248635,0.366218,0.0244266,-0.00290668,0,
10,0.269793,0.372505,0.0242848,-0.0031078,0,
10,0.292753,0.37939,0.0241391,-0.00332288,0,
10,0.317669,0.386961,0.023986,-0.00355045,0,
10,0.344708,0.395315,0.0238307,-0.0037886,0,
10,0.372405,0.404051,0.0236794,-0.0040259,0,
10,0.399623,0.412831,0.0235352,-0.00425125,0,
10,0.426397,0.421664,0.0233989,-0.00446304,0,
10,0.452757,0.43056,0.0232705,-0.00466083,0,
10,0.478735,0.439541,0.0231527,-0.00484313,0,
10,0.504358,0.448633,0.0230462,-0.00500892,0,
10,0.529657,0.45787,0.0229525,-0.00515587,0,
10,0.554656,0.467285,0.0228684,-0.00528314,0,
10,0.579382,0.476904,0.0227952,-0.00539106,0,
10,0.603859,0.48675,0.0227136,-0.00553149,0,
10,0.628112,0.497029,0.0227116,-0.00557802,0,
10,0.652163,0.508132,0.0227894,-0.00553663,0,
10,0.676035,0.520256,0.0228265,-0.00547464,0,
10,0.699751,0.533283,0.0228167,-0.00538833,0,
10,0.72333,0.546935,0.022761,-0.00527428,0,
10,0.746795,0.560942,0.0226777,-0.00513164,0,
10,0.770165,0.575114,0.0225779,-0.00496219,0,
10,0.79346,0.589344,0.0224692,-0.00476899,0,
10,0.816699,0.603571,0.0223533,-0.00455551,0,
10,0.839903,0.617739,0.02223,-0.00432541,0,
10,0.863088,0.631773,0.0220973,-0.00408262,0,
10,0.886275,0.64557,0.0219546,-0.00383154,0,
10,0.909481,0.659001,0.0217992,-0.00358024,0,
10,0.932723,0.671926,0.0216308,-0.00333703,0,
10,0.956021,0.684252,0.0214537,-0.00310178,0,
10,0.97939,0.695957,0.0212701,-0.00287481,0,
10,1.00285,0.707065,0.0210814,-0.00265677,0,
10,1.02641,0.717618,0.0208877,-0.00244827,0,
10,1.0501,0.727653,0.0206884,-0.00224978,0,
10,1.07392,0.737198,0.0204838,-0.00206164,0,
10,1.0979,0.746276,0.0202726,-0.00188408,0,
10,1.12205,0.754918,0.0200579,-0.00171381,0,
10,1.14639,0.763135,0.0198375,-0.00155412,0,
10,1.17093,0.770914,0.0196077,-0.00140903,0,
10,1.19568,0.778235,0.0193707,-0.00127903,0,
10,1.22066,0.785106,0.019125,-0.00116571,0,
10,1.24589,0.791556,0.0188728,-0.00107415,0,
10,1.27137,0.797688,0.018615,-0.000989132,0,
10,1.29713,0.803643,0.0183524,-0.000911903,0,
10,1.32317,0.809491,0.0180848,-0.000843967,0,
10,1.34951,0.815223,0.01781,-0.000784891,0,
10,1.37616,0.820804,0.0175278,-0.000733836,0,
10,1.40313,0.826223,0.0172381,-0.000689456,0,
10,1.43043,0.831505,0.0169418,-0.000650264,0,
10,1.45807,0.836691,0.0166391,-0.000615026,0,
10,1.48607,0.841812,0.01633,-0.00058287,0,
10,1.51444,0.846875,0.0160142,-0.000553178,0,
10,1.54318,0.851876,0.0156916,-0.000525455,0,
10,1.57231,0.856803,0.0153618,-0.000499276,0,
10,1.60184,0.861648,0.0150251,-0.000474293,0,
10,1.63178,0.86641,0.0146813,-0.000450251,0,
10,1.66213,0.871081,0.0143303,-0.000426993,0,
10,1.69292,0.875653,0.0139723,-0.000404452,0,
10,1.72416,0.88011,0.0136069,-0.000382641,0,
10,1.75585,0.884428,0.0132348,-0.000361649,0,
10,1.78802,0.888582,0.0128551,-0.000341545,0,
10,1.82067,0.892555,0.0124695,-0.000322286,0,
10,1.85383,0.896369,0.0120752,-0.000301196,0,
10,1.88751,0.900081,0.0116721,-0.00027697,0,
10,1.92173,0.903719,0.0112634,-0.000253854,0,
10,1.95652,0.907263,0.0108457,-0.000230072,0,
10,1.9919,0.910678,0.0104212,-0.000205762,0,
10,2.02791,0.913934,0.00998764,-0.000181489,0,
10,2.06456,0.917002,0.00954726,-0.000157649,0,
10,2.10268,0.919913,0.00908706,-0.000134029,0,
10,2.1443,0.922746,0.00858662,-0.000111162,0,
10,2.18977,0.925447,0.00803974,-8.92906e-05,0,
10,2.23946,0.927934,0.00744472,-6.86956e-05,0,
10,2.29376,0.930122,0.00679655,-5.01219e-05,0,
10,2.35309,0.931934,0.00609306,-3.4147e-05,0,
10,2.4179,0.933303,0.00533046,-2.12158e-05,0,
10,2.48863,0.93419,0.00450698,-1.15874e-05,0,
10,2.56575,0.934594,0.00362031,-5.23331e-06,0,
10,2.64971,0.934571,0.00266978,-1.75742e-06,0,
10,2.74098,0.934237,0.00165481,-4.08955e-07,0,
10,2.83997,0.933767,0.000576137,-2.50719e-07,0,
10,2.94709,0.933362,-0.0005652,-4.52292e-07,0,
10,3.06269,0.933201,-0.00176708,-5.42228e-07,0,
10,3.18706,0.93339,-0.00302673,-4.3845e-07,0,
10,3.3204,0.933936,-0.00433997,-2.61531e-07,0,
10,3.46281,0.934747,-0.0057012,-1.2411e-07,0,
10,3.61427,0.935682,-0.00710281,-5.41041e-08,0,
10,3.77463,0.936609,-0.00853543,-2.81799e-08,0,
10,3.94358,0.937448,-0.00998802,-2.0236e-08,0,
10,4.12067,0.938184,-0.0114485,-1.75521e-08,0,
10,4.30525,0.93885,-0.0129042,-1.64071e-08,0,
10,4.49655,0.939488,-0.0143424,-1.60817e-08,0,
10,4.6936,0.940127,-0.0157506,-1.65956e-08,0,
10,4.89531,0.940768,-0.0171173,-1.84921e-08,0,
10,5.10047,0.9414,-0.0184319,-2.33222e-08,0,
10,5.30776,0.942,-0.019685,-3.4527e-08,0,
10,5.51581,0.942553,-0.0208693,-5.91493e-08,0,
10,5.72323,0.943056,-0.0219787,-1.12613e-07,0,
10,5.92863,0.943534,-0.0230097,-2.3355e-07,0,
10,6.13069,0.944056,-0.0239599,-5.24859e-07,0,
10,6.32816,0.944719,-0.0248294,-1.19607e-06,0,
10,6.51991,0.945542,-0.0256194,-2.28979e-06,0,
10,6.70495,0.94627,-0.0263333,-2.21408e-06,0,
10,6.88244,0.946142,-0.0269733,5.05837e-06,0,
10,7.0517,0.943894,-0.0275438,3.11265e-05,0,
10,7.21224,0.93814,-0.028043,8.92608e-05,0,
10,7.3637,0.928054,-0.028478,0.000187931,0,
10,7.5059,0.913751,-0.0288518,0.000311518,0,
10,7.63878,0.895897,-0.0291641,0.000423791,0,
10,7.76243,0.875719,-0.02943,0.000546584,0,
10,7.87701,0.855019,-0.0296415,0.000669905,0,
10,7.9828,0.835208,-0.0298168,0.000779428,0,
10,8.08014,0.816907,-0.0299563,0.000871362,0,
10,8.16941,0.800112,-0.0300719,0.000947422,0,
10,8.25106,0.784508,-0.0301671,0.0010114,0,
10,8.32554,0.769721,-0.0302484,0.00106642,0,
10,8.39331,0.755452,-0.0303175,0.0011146,0,
10,8.45484,0.74151,-0.0303771,0.00115709,0,
10,8.5106,0.727801,-0.0304278,0.00119424,0,
10,8.56104,0.714293,-0.0304711,0.00122616,0,
10,8.60659,0.700994,-0.0305081,0.00125295,0,
10,8.64767,0.687924,-0.0305398,0.00127476,0,
10,8.68467,0.675101,-0.0305674,0.00129188,0,
10,8.71795,0.66251,-0.0305916,0.00130146,0,
10,8.74786,0.650117,-0.0306123,0.00130582,0,
10,8.77471,0.637906,-0.0306303,0.00130657,0,
10,8.79881,0.625874,-0.0306456,0.00130357,0,
10,8.8204,0.614011,-0.0306587,0.00129738,0,
10,8.83975,0.602307,-0.0306699,0.00128852,0,
10,8.85708,0.590746,-0.0306794,0.00127751,0,
10,8.87259,0.579309,-0.0306875,0.0012648,0,
10,8.88646,0.567974,-0.0306943,0.00125079,0,
10,8.89886,0.556715,-0.0307,0.00123581,0,
10,8.90995,0.545505,-0.0307049,0.00122013,0,
10,8.91986,0.534314,-0.0307089,0.00120394,0,
10,8.92872,0.523106,-0.0307123,0.0011874,0,
10,8.93663,0.511847,-0.0307152,0.00117057,0,
10,8.94369,0.500498,-0.0307176,0.00115345,0,
10,8.95,0.489017,-0.0307196,0.00113601,0,
10,8.95564,0.477359,-0.0307213,0.00111815,0,
10,8.96067,0.465475,-0.0307226,0.00109967,0,
10,8.96517,0.453311,-0.0307237,0.00108033,0,
10,8.96918,0.440805,-0.0307245,0.00105978,0,
10,8.97276,0.427889,-0.0307254,0.00103759,0,
10,8.97596,0.414482,-0.0307259,0.00101318,0,
10,8.97882,0.400494,-0.0307265,0.000985834,0,
10,8.98137,0.385815,-0.0307267,0.000954602,0,
10,8.98365,0.37032,-0.0307273,0.000918272,0,
10,8.98569,0.353858,-0.0307273,0.00087555,0,
10,8.9875,0.336244,-0.0307278,0.000823603,0,
10,8.98913,0.31724,-0.0307276,0.000758267,0,
10,8.99058,0.29662,-0.0307281,0.000680957,0,
10,8.99188,0.274229,-0.0307278,0.000589707,0,
10,8.99304,0.249905,-0.0307283,0.00047679,0,
10,8.99408,0.223598,-0.030728,0.000350231,0,
10,8.99501,0.195671,-0.0307285,0.000223573,0,
10,8.99583,0.167023,-0.030728,0.000118771,0,
10,8.99658,0.138925,-0.0307286,5.11035e-05,0,
10,8.99724,0.112502,-0.030728,1.76606e-05,0,
10,8.99784,0.0883526,-0.0307287,4.85541e-06,0,
10,8.99837,0.0665925,-0.030728,1.01868e-06,0,
10,8.99885,0.0470891,-0.0307288,1.4596e-07,0,
10,8.99927,0.029631,-0.0307279,1.10827e-08,0,
10,8.99966,0.0140029,-0.0307289,2.45233e-10,0,
10,0,0,0.0262548,0,0,
10,9,0,-0.0307278,0,0,

0.004,0,0,-0.234153,0,-4.15746e-08,
0.00868226,0,0,-0.234152,0,-2.47868e-07,
0.014062,0,0,-0.234152,0,-4.88231e-07,
0.0201548,0,0,-0.234152,0,-9.42964e-07,
0.0269766,0,0,-0.234151,0,-1.28067e-06,
0.0345437,0,0,-0.23415,0,-1.37611e-06,
0.0428729,0,0,-0.234147,0,-9.54266e-07,
0.051981,0,0,-0.234145,0,2.08211e-07,
0.0618853,0,0,-0.234141,0,2.31057e-06,
0.0726036,0,0,-0.234139,0,5.4925e-06,
0.0841536,0,0,-0.234138,0,9.74267e-06,
0.0965535,0,0,-0.234142,0,1.49398e-05,
0.109822,0,0,-0.234148,0,2.07812e-05,
0.123977,0,0,-0.234162,0,2.68951e-05,
0.139037,0,0,-0.23418,0,3.28296e-05,
0.155022,0,0,-0.234205,0,3.81818e-05,
0.171949,0,0,-0.234234,0,4.26007e-05,
0.189839,0,0,-0.234267,0,4.58713e-05,
0.208709,0,0,-0.234302,0,4.7901e-05,
0.228579,0,0,-0.234338,0,4.87512e-05,
0.249467,0,0,-0.234374,0,4.86086e-05,
0.271391,0,0,-0.234408,0,4.77776e-05,
0.29437,0,0,-0.234442,0,4.66376e-05,
0.31842,0,0,-0.234474,0,4.56033e-05,
0.343559,0,0,-0.234506,0,4.50607e-05,
0.369804,0,0,-0.234542,0,4.53122e-05,
0.39717,0,0,-0.234582,0,4.65295e-05,
0.425672,0,0,-0.234632,0,4.87366e-05,
0.455324,0,0,-0.234694,0,5.18259e-05,
0.48614,0,0,-0.234772,0,5.56041e-05,
0.518132,0,0,-0.23487,0,5.98344e-05,
0.551309,0,0,-0.234994,0,6.42469e-05,
0.585683,0,0,-0.23515,0,6.84858e-05,
0.621259,0,0,-0.235347,0,7.20359e-05,
0.658046,0,0,-0.235597,0,7.41164e-05,
0.696047,0,0,-0.235915,0,7.35736e-05,
0.735265,0,0,-0.236318,0,6.89184e-05,
0.7757,0,0,-0.236822,0,5.84605e-05,
0.817352,0,0,-0.237444,0,4.05222e-05,
0.860215,0,0,-0.238191,0,1.37866e-05,
0.904285,0,0,-0.239061,0,-2.23508e-05,
0.949552,0,0,-0.240044,0,-6.75956e-05,
0.996004,0,0,-0.241119,0,-0.000120834,
1.04363,0,0,-0.242259,0,-0.000180455,
1.09241,0,0,-0.243436,0,-0.000244762,
1.14232,0,0,-0.244621,0,-0.000312303,
1.19335,0,0,-0.245788,0,-0.00038202,
1.24546,0,0,-0.246913,0,-0.000453221,
1.29863,0,0,-0.247969,0,-0.000525472,
1.35283,0,0,-0.248935,0,-0.000598467,
1.40802,0,0,-0.249787,0,-0.000671933,
1.46416,0,0,-0.250501,0,-0.000745583,
1.52121,0,0,-0.251056,0,-0.000819091,
1.57913,0,0,-0.251427,0,-0.000892087,
1.63787,0,0,-0.251593,0,-0.000964163,
1.69739,0,0,-0.251533,0,-0.00103488,
1.75761,0,0,-0.251229,0,-0.00110378,
1.81851,0,0,-0.250664,0,-0.0011704,
1.88,0,0,-0.249825,0,-0.00123426,
1.94204,0,0,-0.2487,0,-0.00129494,
2.00457,0,0,-0.247283,0,-0.00135202,
2.06751,0,0,-0.245572,0,-0.00140515,
2.13081,0,0,-0.243568,0,-0.00145401,
2.19439,0,0,-0.241276,0,-0.00149839,
2.25819,0,0,-0.238705,0,-0.0015381,
2.32214,0,0,-0.235867,0,-0.00157308,
2.38617,0,0,-0.232776,0,-0.00160328,
2.4502,0,0,-0.229449,0,-0.00162873,
2.51418,0,0,-0.225903,0,-0.00164951,
2.57803,0,0,-0.22216,0,-0.00166572,
2.64167,0,0,-0.21824,0,-0.00167754,
2.70505,0,0,-0.214165,0,-0.00168516,
2.76808,0,0,-0.209957,0,-0.00168882,
2.83072,0,0,-0.205636,0,-0.00168874,
2.89288,0,0,-0.201225,0,-0.00168515,
2.95451,0,0,-0.196743,0,-0.00167827,
3.01555,0,0,-0.192211,0,-0.00166837,
3.07594,0,0,-0.187649,0,-0.00165568,
3.13561,0,0,-0.183074,0,-0.00164047,
3.19453,0,0,-0.178502,0,-0.00162298,
3.25262,0,0,-0.17395,0,-0.00160343,
3.30985,0,0,-0.169433,0,-0.00158205,
3.36617,0,0,-0.164962,0,-0.00155905,
3.42154,0,0,-0.160551,0,-0.00153467,
3.47591,0,0,-0.15621,0,-0.00150914,
3.52925,0,0,-0.151949,0,-0.00148265,
3.58152,0,0,-0.147774,0,-0.00145538,
3.6327,0,0,-0.143694,0,-0.00142749,
3.68276,0,0,-0.139714,0,-0.00139911,
3.73167,0,0,-0.135838,0,-0.0013704,
3.77941,0,0,-0.132072,0,-0.00134149,
3.82596,0,0,-0.128418,0,-0.00131251,
3.8713,0,0,-0.124878,0,-0.00128357,
3.91543,0,0,-0.121451,0,-0.00125464,
3.95833,0,0,-0.118158,0,-0.00122614,
4,0,0,-0.11496,0,-0.00119778,
4.04167,0,0,-0.111793,0,-0.00116891,
4.08333,0,0,-0.108654,0,-0.00113966,
4.125,0,0,-0.10554,0,-0.00111,
4.16667,0,0,-0.102455,0,-0.00107992,
4.20833,0,0,-0.0993982,0,-0.00104945,
4.25,0,0,-0.0963719,0,-0.00101861,
4.29167,0,0,-0.093377,0,-0.000987423,
4.33333,0,0,-0.0904147,0,-0.00095591,
4.375,0,0,-0.0874859,0,-0.000924092,
4.41667,0,0,-0.0845917,0,-0.000891991,
4.45833,0,0,-0.0817331,0,-0.00085963,
4.5,0,0,-0.0789108,0,-0.000827031,
4.54167,0,0,-0.0761258,0,-0.000794216,
4.58333,0,0,-0.0733786,0,-0.000761206,
4.625,0,0,-0.07067,0,-0.00072802,
4.66667,0,0,-0.0680006,0,-0.000694676,
4.70833,0,0,-0.0653711,0,-0.000661195,
4.75,0,0,-0.0627818,0,-0.000627595,
4.79167,0,0,-0.0602332,0,-0.000593894,
4.83333,0,0,-0.0577259,0,-0.000560105,
4.875,0,0,-0.0552601,0,-0.000526246,
4.91667,0,0,-0.0528363,0,-0.000492329,
4.95833,0,0,-0.0504549,0,-0.000458373,
5,0,0,-0.0481161,0,-0.000424391,
5.04167,0,0,-0.0458202,0,-0.000390398,
5.08333,0,0,-0.0435677,0,-0.000356407,
5.125,0,0,-0.0413589,0,-0.00032243,
5.16667,0,0,-0.0391941,0,-0.000288486,
5.20833,0,0,-0.0370738,0,-0.000254596,
5.25,0,0,-0.0349986,0,-0.000220794,
5.29167,0,0,-0.0329688,0,-0.000187128,
5.33333,0,0,-0.0309849,0,-0.000153658,
5.375,0,0,-0.0290466,0,-0.000120439,
5.41667,0,0,-0.0271535,0,-8.75095e-05,
5.45833,0,0,-0.0253051,0,-5.48797e-05,
5.5,0,0,-0.0235005,0,-2.25464e-05,
5.54167,0,0,-0.0217392,0,9.49751e-06,
5.58333,0,0,-0.0200205,0,4.12565e-05,
5.625,0,0,-0.0183441,0,7.27323e-05,
5.66667,0,0,-0.0167092,0,0.000103925,
5.70833,0,0,-0.0151155,0,0.000134832,
5.75,0,0,-0.0135623,0,0.000165452,
5.79167,0,0,-0.0120492,0,0.000195781,
5.83333,0,0,-0.0105757,0,0.000225815,
5.875,0,0,-0.00914125,0,0.000255548,
5.91667,0,0,-0.00774532,0,0.000284976,
5.95833,0,0,-0.00638735,0,0.000314096,
6,0,0,-0.00506682,0,0.000342903,
6.04167,0,0,-0.00378315,0,0.000371395,
6.08333,0,0,-0.00253581,0,0.000399568,
6.125,0,0,-0.00132422,0,0.00042742,
6.16667,0,0,-0.000147817,0,0.000454946,
6.20833,0,0,0.000993975,0,0.000482143,
6.25,0,0,0.00210175,0,0.000509007,
6.29167,0,0,0.00317609,0,0.000535538,
6.33333,0,0,0.00421759,0,0.000561731,
6.375,0,0,0.00522686,0,0.000587584,
6.41667,0,0,0.00620451,0,0.000613095,
6.45833,0,0,0.00715113,0,0.000638263,
6.5,0,0,0.00806737,0,0.000663084,
6.54167,0,0,0.00895382,0,0.000687559,
6.58333,0,0,0.00981112,0,0.000711687,
6.625,0,0,0.0106399,0,0.000735468,
6.66667,0,0,0.0114407,0,0.000758902,
6.70833,0,0,0.0122142,0,0.00078199,
6.75,0,0,0.012961,0,0.000804733,
6.79167,0,0,0.0136818,0,0.000827132,
6.83333,0,0,0.014377,0,0.000849191,
6.875,0,0,0.0150473,0,0.00087091,
6.91667,0,0,0.0156932,0,0.000892293,
6.95833,0,0,0.0163154,0,0.000913343,
7,0,0,0.0169144,0,0.000934063,
7.04167,0,0,0.0174907,0,0.000954455,
7.08333,0,0,0.0180449,0,0.000974525,
7.125,0,0,0.0185777,0,0.000994283,
7.16667,0,0,0.0190895,0,0.00101374,
7.20833,0,0,0.0195808,0,0.0010329,
7.25,0,0,0.0200523,0,0.00105177,
7.29167,0,0,0.0205043,0,0.00107034,
7.33333,0,0,0.0209373,0,0.00108863,
7.375,0,0,0.0213518,0,0.00110662,
7.41667,0,0,0.0217482,0,0.00112431,
7.45833,0,0,0.022127,0,0.00114171,
7.5,0,0,0.0224887,0,0.00115881,
7.54167,0,0,0.0228336,0,0.00117563,
7.58333,0,0,0.0231621,0,0.00119215,
7.625,0,0,0.0234747,0,0.00120839,
7.66667,0,0,0.0237718,0,0.00122436,
7.70833,0,0,0.0240536,0,0.00124007,
7.75,0,0,0.0243205,0,0.00125552,
7.79167,0,0,0.0245729,0,0.00127072,
7.83333,0,0,0.0248103,0,0.00128565,
7.875,0,0,0.0250326,0,0.00130039,
7.91667,0,0,0.0252514,0,0.00131556,
7.95833,0,0,0.0253912,0,0.00132957,
8,0,0,0.025631,0,0.00134375,
8.04171,0,0,0.0258976,0,0.00135901,
8.08368,0,0,0.0260255,0,0.00137407,
8.12617,0,0,0.0262,0,0.00138725,
8.16946,0,0,0.0263624,0,0.00140046,
8.21382,0,0,0.0265094,0,0.00141366,
8.25952,0,0,0.0266495,0,0.00142683,
8.30685,0,0,0.0267818,0,0.00144017,
8.35611,0,0,0.0269061,0,0.00145375,
8.40762,0,0,0.0270225,0,0.00146765,
8.46168,0,0,0.0271305,0,0.00148193,
8.51865,0,0,0.027229,0,0.00149663,
8.57889,0,0,0.0273171,0,0.00151179,
8.64276,0,0,0.0273934,0,0.00152743,
8.71067,0,0,0.0274563,0,0.00154359,
8.78306,0,0,0.0275037,0,0.00156029,
8.86037,0,0,0.0275336,0,0.00157753,
8.94309,0,0,0.0275434,0,0.00159534,
9.03174,0,0,0.0275304,0,0.0016137,
9.12689,0,0,0.0274914,0,0.00163262,
9.22912,0,0,0.027423,0,0.00165209,
9.33908,0,0,0.0273218,0,0.00167208,
9.45746,0,0,0.027184,0,0.00169257,
9.58501,0,0,0.0270057,0,0.00171351,
9.72253,0,0,0.0267835,0,0.00173486,
9.87088,0,0,0.0265137,0,0.00175656,
10.031,0,0,0.0261926,0,0.00177855,
10.2039,0,0,0.025817,0,0.00180074,
10.3906,0,0,0.0253847,0,0.00182307,
10.5924,0,0,0.024894,0,0.00184545,
10.8105,0,0,0.024343,0,0.00186779,
11.0463,0,0,0.0237317,0,0.00188999,
11.3012,0,0,0.0230623,0,0.00191196,
11.5769,0,0,0.0223366,0,0.00193359,
11.8751,0,0,0.0215585,0,0.00195482,
12.1977,0,0,0.0207337,0,0.00197556,
12.5466,0,0,0.0198685,0,0.00199573,
12.9242,0,0,0.0189719,0,0.00201528,
13.3327,0,0,0.018053,0,0.00203415,
13.7748,0,0,0.0171225,0,0.00205231,
14.2532,0,0,0.0161919,0,0.00206974,
14.7709,0,0,0.0152722,0,0.00208644,
15.3312,0,0,0.0143753,0,0.00210242,
15.9377,0,0,0.0135116,0,0.0021177,
16.594,0,0,0.0126907,0,0.00213234,
17.3044,0,0,0.01192,0,0.00214639,
18.0733,0,0,0.0112042,0,0.00215991,
18.9056,0,0,0.0105468,0,0.00217284,
19.8064,0,0,0.009947,0,0.00218504,
20.7816,0,0,0.00940201,0,0.0021966,
21.8371,0,0,0.00890685,0,0.00220787,
22.9796,0,0,0.00845225,0,0.00221902,
24.2163,0,0,0.00802703,0,0.00223013,
25.5551,0,0,0.00761731,0,0.00224134,
27.0042,0,0,0.0072075,0,0.00225275,
28.5729,0,0,0.00678216,0,0.00226434,
30.271,0,0,0.00632446,0,0.00227614,
32.1091,0,0,0.0058185,0,0.00228811,
34.0989,0,0,0.00525005,0,0.0023002,
36.2529,0,0,0.00460246,0,0.00231253,
38.5845,0,0,0.00386834,0,0.00232505,
41.1085,0,0,0.00309012,0,0.00233764,
43.8407,0,0,0.00210471,0,0.00234797,
46.7983,0,0,0.00108634,0,0.00235369,
50,0,0,0.00221619,0,0.00237051,

