e2ea1b3cf577f0d99fffaf459ba19a7a3ef9213c 
X,Z,x_velocity,cp,uw_b,cf,
1,0,0,-0.223533,0,0,
1,9,0,-0.131255,0,0,
1,8.99969,0.0154321,-0.131255,2.87494e-10,0,
1,8.99934,0.0329396,-0.131255,1.34379e-08,0,
1,8.99894,0.0528195,-0.131255,1.8536e-07,0,
1,8.99848,0.0753862,-0.131255,1.35877e-06,0,
1,8.99797,0.100952,-0.131254,6.79052e-06,0,
1,8.99739,0.129714,-0.131255,2.56962e-05,0,
1,8.99672,0.161474,-0.131254,7.60933e-05,0,
1,8.99597,0.195291,-0.131254,0.000176799,0,
1,8.99512,0.229512,-0.131254,0.000325675,0,
1,8.99416,0.262478,-0.131254,0.000494068,0,
1,8.99306,0.293215,-0.131254,0.000652545,0,
1,8.99182,0.321553,-0.131254,0.00078001,0,
1,8.99041,0.347632,-0.131253,0.000885618,0,
1,8.98881,0.371613,-0.131253,0.000972808,0,
1,8.98699,0.39371,-0.131252,0.00104392,0,
1,8.98494,0.414213,-0.131252,0.00109989,0,
1,8.98261,0.433433,-0.131251,0.0011426,0,
1,8.97996,0.451609,-0.13125,0.00117839,0,
1,8.97696,0.468915,-0.131249,0.00120803,0,
1,8.97356,0.485492,-0.131247,0.00123278,0,
1,8.9697,0.501459,-0.131246,0.00125362,0,
1,8.96533,0.516913,-0.131244,0.00127125,0,
1,8.96038,0.531938,-0.131242,0.0012862,0,
1,8.95476,0.546603,-0.13124,0.00129883,0,
1,8.9484,0.560968,-0.131237,0.0013094,0,
1,8.9412,0.575083,-0.131235,0.0013181,0,
1,8.93303,0.588991,-0.131232,0.00132502,0,
1,8.92379,0.602729,-0.131229,0.00133022,0,
1,8.91333,0.616328,-0.131226,0.00133371,0,
1,8.90149,0.629817,-0.131222,0.00133547,0,
1,8.8881,0.64322,-0.131219,0.00133544,0,
1,8.87295,0.65656,-0.131217,0.00133356,0,
1,8.85584,0.669855,-0.131214,0.00132972,0,
1,8.83651,0.683125,-0.131213,0.00132382,0,
1,8.81469,0.696389,-0.131213,0.00131572,0,
1,8.79007,0.709668,-0.131214,0.00130527,0,
1,8.76232,0.722984,-0.131219,0.00129228,0,
1,8.73107,0.736361,-0.131226,0.00127653,0,
1,8.69591,0.74983,-0.131238,0.00125772,0,
1,8.6564,0.763427,-0.131256,0.00123553,0,
1,8.61206,0.777198,-0.131282,0.00120952,0,
1,8.56236,0.791199,-0.131317,0.00117935,0,
1,8.50675,0.805509,-0.131366,0.00114615,0,
1,8.44464,0.820267,-0.131432,0.00110588,0,
1,8.3754,0.835691,-0.131518,0.00105431,0,
1,8.29839,0.852031,-0.131632,0.000991044,0,
1,8.21296,0.869529,-0.131779,0.000911568,0,
1,8.11843,0.888378,-0.131965,0.000810651,0,
1,8.01417,0.908574,-0.132204,0.000684865,0,
1,7.89956,0.929669,-0.132493,0.000537726,0,
1,7.77403,0.950534,-0.13287,0.000387803,0,
1,7.63711,0.969557,-0.133321,0.000203834,0,
1,7.48842,0.984409,-0.133854,7.53028e-05,0,
1,7.32773,0.993164,-0.134493,1.79436e-05,0,
1,7.15495,0.996323,-0.135236,1.75634e-06,0,
1,6.97022,0.996369,-0.136098,2.204e-08,0,
1,6.77388,0.995751,-0.137092,3.71158e-09,0,
1,6.56652,0.995638,-0.138234,9.6795e-09,0,
1,6.34896,0.996095,-0.139538,1.24689e-08,0,
1,6.12229,0.996823,-0.141017,1.40563e-08,0,
1,5.88784,0.997621,-0.142683,1.48792e-08,0,
1,5.64716,0.998454,-0.144549,1.58194e-08,0,
1,5.40194,0.999351,-0.146624,1.71327e-08,0,
1,5.15407,1.00034,-0.148914,1.88305e-08,0,
1,4.90545,1.00143,-0.151418,2.0572e-08,0,
1,4.65805,1.00262,-0.154134,2.24031e-08,0,
1,4.41376,1.0039,-0.157051,2.43049e-08,0,
1,4.17441,1.00526,-0.160154,2.60447e-08,0,
1,3.94163,1.00664,-0.163422,2.74593e-08,0,
1,3.7169,1.00798,-0.166826,2.9169e-08,0,
1,3.50146,1.00938,-0.170332,3.31219e-08,0,
1,3.29629,1.01114,-0.173905,4.13172e-08,0,
1,3.10217,1.01362,-0.177514,5.18209e-08,0,
1,2.91959,1.01662,-0.18113,9.49267e-08,0,
1,2.74885,1.01866,-0.18471,8.72935e-07,0,
1,2.59002,1.01732,-0.188195,-7.04392e-06,0,
1,2.44299,1.0109,-0.191524,-5.49667e-05,0,
1,2.30752,0.999642,-0.194633,-0.000155201,0,
1,2.18321,0.985015,-0.197471,-0.000293343,0,
1,2.06959,0.968605,-0.200072,-0.000412125,0,
1,1.9661,0.951682,-0.20242,-0.000515363,0,
1,1.87215,0.935168,-0.204484,-0.000611717,0,
1,1.78711,0.919568,-0.206301,-0.000696618,0,
1,1.71033,0.905033,-0.20789,-0.000769965,0,
1,1.64119,0.89153,-0.209274,-0.000833262,0,
1,1.57905,0.878943,-0.210473,-0.000888653,0,
1,1.52332,0.867143,-0.211509,-0.000938387,0,
1,1.47342,0.856023,-0.212407,-0.000984588,0,
1,1.42882,0.845493,-0.213163,-0.0010163,0,
1,1.389,0.835469,-0.213794,-0.00104111,0,
1,1.35351,0.825887,-0.214336,-0.00106407,0,
1,1.3219,0.816714,-0.214793,-0.00108452,0,
1,1.29378,0.807929,-0.215182,-0.00110224,0,
1,1.26878,0.799523,-0.215511,-0.00111734,0,
1,1.24659,0.791492,-0.215789,-0.00113025,0,
1,1.22689,0.783829,-0.216024,-0.00114108,0,
1,1.2092,0.776446,-0.216225,-0.00114883,0,
1,1.1932,0.769293,-0.216398,-0.00115422,0,
1,1.1787,0.762354,-0.216547,-0.00115786,0,
1,1.16554,0.75561,-0.216674,-0.00116063,0,
1,1.15357,0.74903,-0.216782,-0.00116428,0,
1,1.14266,0.742571,-0.216874,-0.00117196,0,
1,1.13268,0.736167,-0.216953,-0.0011877,0,
1,1.12354,0.729728,-0.21702,-0.00121704,0,
1,1.11514,0.723137,-0.217079,-0.00126677,0,
1,1.10739,0.716248,-0.217133,-0.0013445,0,
1,1.10022,0.708894,-0.217185,-0.00145788,0,
1,1.09357,0.700904,-0.217238,-0.00161355,0,
1,1.08738,0.692135,-0.217296,-0.00181563,0,
1,1.0816,0.6825,-0.21736,-0.00206441,0,
1,1.07618,0.672004,-0.217432,-0.00235538,0,
1,1.07107,0.660738,-0.217511,-0.00267965,0,
1,1.06626,0.648858,-0.217596,-0.0030255,0,
1,1.06169,0.636551,-0.217687,-0.00338063,0,
1,1.05735,0.624001,-0.217783,-0.00373412,0,
1,1.05321,0.611364,-0.217881,-0.00407743,0,
1,1.04925,0.598765,-0.217982,-0.00440461,0,
1,1.04544,0.586296,-0.218085,-0.00471196,0,
1,1.04177,0.574018,-0.218189,-0.00499754,0,
1,1.03822,0.561971,-0.218292,-0.00526062,0,
1,1.03478,0.550176,-0.218396,-0.00550132,0,
1,1.03144,0.538644,-0.2185,-0.00572027,0,
1,1.02818,0.527377,-0.218603,-0.00591838,0,
1,1.025,0.516369,-0.218706,-0.00609672,0,
1,1.02188,0.505613,-0.218808,-0.0062564,0,
1,1.01882,0.495099,-0.218909,-0.00639854,0,
1,1.01581,0.484814,-0.21901,-0.00652435,0,
1,1.01284,0.474747,-0.21911,-0.00663438,0,
1,1.00988,0.464779,-0.21921,-0.00673047,0,
1,1.00688,0.454791,-0.219311,-0.00681457,0,
1,1.00384,0.444777,-0.219415,-0.00688716,0,
1,1.00076,0.434723,-0.219519,-0.00694743,0,
1,0.997615,0.424615,-0.219625,-0.00699528,0,
1,0.99441,0.41443,-0.219732,-0.00703044,0,
1,0.991131,0.404145,-0.219841,-0.00705289,0,
1,0.987768,0.393732,-0.219951,-0.00706257,0,
1,0.984308,0.383164,-0.220062,-0.00705914,0,
1,0.980739,0.372407,-0.220176,-0.00704213,0,
1,0.977045,0.361429,-0.220291,-0.00701091,0,
1,0.973211,0.350192,-0.220408,-0.0069647,0,
1,0.969219,0.338655,-0.220527,-0.00690256,0,
1,0.965047,0.326774,-0.220648,-0.00682334,0,
1,0.960675,0.3145,-0.220772,-0.00672554,0,
1,0.956077,0.301779,-0.220897,-0.00660691,0,
1,0.951224,0.288555,-0.221025,-0.00646592,0,
1,0.946088,0.274774,-0.221156,-0.00630037,0,
1,0.940633,0.260387,-0.221289,-0.00610944,0,
1,0.934823,0.245354,-0.221426,-0.00589002,0,
1,0.928616,0.22964,-0.221565,-0.00563957,0,
1,0.921967,0.213213,-0.221705,-0.00535581,0,
1,0.914826,0.196054,-0.221847,-0.00503668,0,
1,0.907141,0.178157,-0.221988,-0.00468059,0,
1,0.898852,0.159538,-0.222129,-0.00428667,0,
1,0.889898,0.140244,-0.222267,-0.00385524,0,
1,0.880212,0.120373,-0.222402,-0.00338842,0,
1,0.869723,0.100104,-0.222532,-0.00289122,0,
1,0.858358,0.0797532,-0.222661,-0.0023738,0,
1,0.846039,0.0598663,-0.222788,-0.0018561,0,
1,0.83269,0.0413193,-0.222921,-0.001374,0,
1,0.818232,0.0252547,-0.223058,-0.000975123,0,
1,0.802744,0.0126465,-0.223198,-0.000679181,0,
1,0.78635,0.00354039,-0.223355,-0.000474642,0,
1,0.768969,-0.00286793,-0.223514,-0.000346045,0,
1,0.75053,-0.00752494,-0.223672,-0.000272184,0,
1,0.730977,-0.0111903,-0.223819,-0.000234047,0,
1,0.710271,-0.0143646,-0.223952,-0.000217654,0,
1,0.688397,-0.0173422,-0.224069,-0.000213803,0,
1,0.66536,-0.0202884,-0.224171,-0.000215541,0,
1,0.641194,-0.0232944,-0.224256,-0.000218631,0,
1,0.615961,-0.0263992,-0.224326,-0.000220414,0,
1,0.589754,-0.0296021,-0.224378,-0.000219327,0,
1,0.562692,-0.0328734,-0.224412,-0.00021468,0,
1,0.534925,-0.0361621,-0.224425,-0.000206339,0,
1,0.506624,-0.039403,-0.224415,-0.000194509,0,
1,0.477982,-0.042521,-0.22438,-0.000179551,0,
1,0.449206,-0.045435,-0.224322,-0.000161879,0,
1,0.420509,-0.0480594,-0.224241,-0.000141893,0,
1,0.392107,-0.0503058,-0.224141,-0.000119946,0,
1,0.364206,-0.0520847,-0.224027,-9.63615e-05,0,
1,0.337003,-0.0533067,-0.223903,-7.1451e-05,0,
1,0.310673,-0.053887,-0.223777,-4.55625e-05,0,
1,0.28537,-0.053751,-0.223655,-1.91487e-05,0,
1,0.26122,-0.0528425,-0.223545,7.17405e-06,0,
1,0.238324,-0.0511343,-0.223451,3.26035e-05,0,
1,0.21675,-0.0486377,-0.223377,5.619e-05,0,
1,0.196544,-0.0454097,-0.223324,7.69401e-05,0,
1,0.177724,-0.0415535,-0.223293,9.39581e-05,0,
1,0.160284,-0.0372123,-0.223281,0.000106584,0,
1,0.144202,-0.0325552,-0.223284,0.000114496,0,
1,0.129436,-0.0277596,-0.2233,0.000117763,0,
1,0.115935,-0.0229928,-0.223322,0.000116771,0,
1,0.103636,-0.0183971,-0.223349,0.00011214,0,
1,0.0924701,-0.0140794,-0.223378,0.0001046,0,
1,0.0823633,-0.0101094,-0.223406,9.4921e-05,0,
1,0.0732406,-0.0065215,-0.223431,8.3855e-05,0,
1,0.0650269,-0.00332321,-0.223454,7.2151e-05,0,
1,0.057648,-0.000505247,-0.223473,6.08137e-05,0,
1,0.0510323,0.00195835,-0.22349,4.94996e-05,0,
1,0.0451115,0.00410023,-0.223503,3.90704e-05,0,
1,0.0398209,0.00595169,-0.223513,2.93538e-05,0,
1,0.0351001,0.00753851,-0.223521,2.06029e-05,0,
1,0.0308929,0.00886893,-0.223526,1.30778e-05,0,
1,0.0271475,0.00992853,-0.223529,7.13173e-06,0,
1,0.0238164,0.0106818,-0.223531,3.0408e-06,0,
1,0.0208562,0.0110909,-0.223532,7.53941e-07,0,
1,0.0182274,0.011145,-0.223533,-1.96213e-07,0,
1,0.0158944,0.0108785,-0.223533,-4.13307e-07,0,
1,0.0138249,0.0103604,-0.223533,-3.48019e-07,0,
1,0.0119898,0.00966943,-0.223534,-2.27812e-07,0,
1,0.0103632,0.00887521,-0.223534,-1.30859e-07,0,
1,0.00892169,0.00803116,-0.223534,-6.8984e-08,0,
1,0.00764438,0.00717533,-0.223534,-3.40205e-08,0,
1,0.00651264,0.0063336,-0.223534,-1.58085e-08,0,
1,0.00550983,0.005523,-0.223533,-6.92184e-09,0,
1,0.00462115,0.00475415,-0.223533,-2.84075e-09,0,
1,0.00383341,0.00403318,-0.223533,-1.08121e-09,0,
1,0.0031349,0.00336297,-0.223533,-3.75095e-10,0,
1,0.00251518,0.00274414,-0.223533,-1.15448e-10,0,
1,0.00196502,0.00217572,-0.223533,-3.01949e-11,0,
1,0.00147619,0.00165569,-0.223533,-6.24429e-12,0,
1,0.00104139,0.00118134,-0.223533,-8.96177e-13,0,
1,0.000654158,0.000749553,-0.223533,-6.86188e-14,0,
1,0.000308731,0.000356981,-0.223533,-1.53746e-15,0,

4,0,0,-0.176205,0,0,
4,9,0,-0.101139,0,0,
4,8.99969,0.014309,-0.101138,2.26333e-10,0,
4,8.99934,0.030486,-0.101138,1.05007e-08,0,
4,8.99894,0.0487936,-0.101138,1.43382e-07,0,
4,8.9985,0.0695092,-0.101138,1.04066e-06,0,
4,8.99799,0.0929146,-0.101138,5.16434e-06,0,
4,8.99742,0.119212,-0.101138,1.95462e-05,0,
4,8.99677,0.148313,-0.101138,5.86123e-05,0,
4,8.99605,0.179532,-0.101138,0.000139885,0,
4,8.99522,0.211505,-0.101138,0.000267072,0,
4,8.99429,0.242689,-0.101138,0.000419727,0,
4,8.99324,0.272022,-0.101138,0.000569849,0,
4,8.99205,0.299129,-0.101137,0.000699429,0,
4,8.9907,0.324089,-0.101137,0.000803663,0,
4,8.98919,0.347075,-0.101136,0.00089145,0,
4,8.98747,0.368275,-0.101136,0.000964439,0,
4,8.98553,0.387956,-0.101135,0.00102194,0,
4,8.98334,0.4064,-0.101134,0.00106816,0,
4,8.98087,0.423826,-0.101133,0.00110719,0,
4,8.97807,0.440403,-0.101131,0.00114028,0,
4,8.97491,0.456272,-0.10113,0.00116874,0,
4,8.97134,0.471552,-0.101128,0.00119354,0,
4,8.96731,0.486343,-0.101125,0.00121541,0,
4,8.96276,0.500729,-0.101123,0.00123487,0,
4,8.95762,0.514783,-0.10112,0.00125229,0,
4,8.95182,0.528567,-0.101117,0.00126791,0,
4,8.94526,0.542133,-0.101113,0.00128191,0,
4,8.93787,0.555528,-0.101108,0.00129434,0,
4,8.92952,0.568791,-0.101104,0.00130521,0,
4,8.92011,0.581956,-0.101098,0.0013145,0,
4,8.90949,0.595051,-0.101092,0.00132209,0,
4,8.89751,0.608103,-0.101086,0.00132789,0,
4,8.88402,0.621131,-0.101079,0.00133173,0,
4,8.86881,0.634153,-0.101072,0.00133345,0,
4,8.85169,0.647184,-0.101065,0.00133288,0,
4,8.83242,0.660238,-0.101057,0.00132984,0,
4,8.81074,0.673326,-0.10105,0.00132415,0,
4,8.78637,0.68646,-0.101043,0.00131562,0,
4,8.75901,0.699654,-0.101037,0.00130409,0,
4,8.7283,0.712921,-0.101032,0.00128934,0,
4,8.69387,0.726282,-0.10103,0.00127119,0,
4,8.65533,0.739761,-0.10103,0.00124937,0,
4,8.61222,0.753389,-0.101035,0.00122359,0,
4,8.56407,0.767209,-0.101045,0.00119344,0,
4,8.5104,0.781274,-0.101062,0.00115868,0,
4,8.45065,0.79566,-0.10109,0.00112113,0,
4,8.38429,0.810523,-0.101131,0.00107377,0,
4,8.31073,0.826099,-0.101188,0.00101639,0,
4,8.22941,0.842652,-0.101265,0.00094599,0,
4,8.13974,0.860444,-0.101366,0.000858202,0,
4,8.04115,0.879648,-0.101493,0.000749411,0,
4,7.93313,0.90015,-0.101652,0.000619928,0,
4,7.81519,0.92124,-0.101836,0.000478989,0,
4,7.68693,0.94145,-0.102071,0.000344024,0,
4,7.54803,0.958885,-0.102338,0.000202155,0,
4,7.39831,0.971653,-0.102658,8.87123e-05,0,
4,7.23771,0.978887,-0.103046,2.73426e-05,0,
4,7.06634,0.981546,-0.103493,4.53183e-06,0,
4,6.88453,0.981694,-0.104,4.11296e-08,0,
4,6.69275,0.981169,-0.104571,-6.72347e-08,0,
4,6.49173,0.980893,-0.105215,3.06486e-08,0,
4,6.28238,0.981016,-0.105941,2.78816e-08,0,
4,6.06579,0.981373,-0.10676,1.57253e-08,0,
4,5.84328,0.981808,-0.107677,1.07186e-08,0,
4,5.61626,0.98226,-0.1087,9.47955e-09,0,
4,5.3863,0.982731,-0.109835,9.65211e-09,0,
4,5.15502,0.983236,-0.111087,1.03952e-08,0,
4,4.92406,0.983792,-0.112458,1.14333e-08,0,
4,4.69507,0.98441,-0.11395,1.26674e-08,0,
4,4.46961,0.985093,-0.115564,1.3953e-08,0,
4,4.24915,0.985824,-0.117297,1.49901e-08,0,
4,4.03501,0.986547,-0.119143,1.5498e-08,0,
4,3.82836,0.987195,-0.121096,1.57624e-08,0,
4,3.63018,0.987775,-0.123145,1.72344e-08,0,
4,3.44125,0.988477,-0.125278,2.30404e-08,0,
4,3.26217,0.989664,-0.127481,7.82727e-08,0,
4,3.09333,0.99162,-0.12974,6.79811e-07,0,
4,2.93497,0.994128,-0.132036,3.11476e-06,0,
4,2.78715,0.996291,-0.134352,6.06817e-06,0,
4,2.64979,0.996905,-0.136664,1.56675e-06,0,
4,2.52268,0.995053,-0.138947,-2.03288e-05,0,
4,2.40551,0.99044,-0.14117,-6.44949e-05,0,
4,2.29789,0.983348,-0.143308,-0.00012908,0,
4,2.19939,0.974396,-0.145341,-0.000207613,0,
4,2.10949,0.96429,-0.147255,-0.00029205,0,
4,2.02768,0.953665,-0.149044,-0.000374883,0,
4,1.95343,0.943028,-0.150706,-0.000450198,0,
4,1.88618,0.932746,-0.152239,-0.000515818,0,
4,1.82542,0.923001,-0.153653,-0.000561671,0,
4,1.77062,0.913848,-0.154952,-0.000599284,0,
4,1.72128,0.905334,-0.156133,-0.000632985,0,
4,1.67693,0.897485,-0.157208,-0.000662886,0,
4,1.63713,0.890296,-0.158183,-0.000689408,0,
4,1.60144,0.883742,-0.159065,-0.000712936,0,
4,1.56949,0.877792,-0.159862,-0.000733876,0,
4,1.54091,0.872405,-0.160579,-0.000752729,0,
4,1.51537,0.86753,-0.161226,-0.000769763,0,
4,1.49167,0.862972,-0.161828,-0.0007855,0,
4,1.46926,0.858634,-0.162404,-0.000800577,0,
4,1.44801,0.854476,-0.16296,-0.000807708,0,
4,1.42781,0.850463,-0.163494,-0.000814585,0,
4,1.40855,0.846577,-0.164005,-0.000820199,0,
4,1.39015,0.842804,-0.164497,-0.000824598,0,
4,1.37252,0.839127,-0.164971,-0.00082829,0,
4,1.3556,0.83553,-0.165429,-0.000831739,0,
4,1.3393,0.831994,-0.165873,-0.000835634,0,
4,1.32357,0.828501,-0.166303,-0.000840791,0,
4,1.30836,0.825029,-0.166721,-0.00084802,0,
4,1.29362,0.821555,-0.167128,-0.000858409,0,
4,1.2793,0.818049,-0.167526,-0.000873324,0,
4,1.26537,0.814479,-0.167914,-0.000894455,0,
4,1.25179,0.810804,-0.168294,-0.00092385,0,
4,1.23852,0.806977,-0.168666,-0.000963941,0,
4,1.22554,0.80294,-0.16903,-0.00101754,0,
4,1.21282,0.798628,-0.169388,-0.00108778,0,
4,1.20034,0.793967,-0.169739,-0.00117799,0,
4,1.18806,0.78888,-0.170083,-0.00129144,0,
4,1.17599,0.783287,-0.170421,-0.00143106,0,
4,1.16408,0.777117,-0.170752,-0.00159895,0,
4,1.15233,0.770315,-0.171077,-0.00179606,0,
4,1.14073,0.762847,-0.171395,-0.00202182,0,
4,1.12925,0.754707,-0.171707,-0.00227406,0,
4,1.11788,0.745916,-0.172012,-0.00254913,0,
4,1.10661,0.73652,-0.172312,-0.00284226,0,
4,1.09543,0.726579,-0.172605,-0.00314801,0,
4,1.08432,0.716165,-0.172892,-0.00346076,0,
4,1.07328,0.70535,-0.173174,-0.00377513,0,
4,1.0623,0.694209,-0.173451,-0.00408624,0,
4,1.05136,0.682807,-0.173721,-0.00438985,0,
4,1.04044,0.671186,-0.173988,-0.00468256,0,
4,1.0295,0.659378,-0.174249,-0.00496177,0,
4,1.01855,0.647429,-0.174507,-0.00522497,0,
4,1.00757,0.635377,-0.17476,-0.00547011,0,
4,0.996544,0.623256,-0.175009,-0.00569527,0,
4,0.98547,0.611096,-0.175254,-0.00589883,0,
4,0.974334,0.598922,-0.175494,-0.00607948,0,
4,0.963124,0.586755,-0.175732,-0.00623598,0,
4,0.951826,0.574615,-0.175962,-0.00636731,0,
4,0.940428,0.562519,-0.176197,-0.00648647,0,
4,0.928915,0.550433,-0.176402,-0.00658371,0,
4,0.917272,0.538215,-0.176561,-0.00663758,0,
4,0.905481,0.525712,-0.17671,-0.00669836,0,
4,0.893524,0.512841,-0.176855,-0.00676608,0,
4,0.881383,0.49955,-0.177002,-0.00684062,0,
4,0.869035,0.4858,-0.17715,-0.00692174,0,
4,0.856459,0.471557,-0.177302,-0.00700899,0,
4,0.843629,0.456793,-0.177457,-0.00710172,0,
4,0.830518,0.441485,-0.177616,-0.00719915,0,
4,0.817097,0.425615,-0.177777,-0.00730037,0,
4,0.803334,0.409167,-0.17794,-0.00740445,0,
4,0.789195,0.392131,-0.178103,-0.00751041,0,
4,0.774643,0.374494,-0.178265,-0.00761721,0,
4,0.759639,0.356248,-0.178426,-0.00772368,0,
4,0.744138,0.337385,-0.178586,-0.00782837,0,
4,0.728096,0.317902,-0.178746,-0.00792948,0,
4,0.711463,0.29781,-0.178906,-0.008025,0,
4,0.694189,0.277133,-0.179066,-0.00811203,0,
4,0.676218,0.255908,-0.179228,-0.00818663,0,
4,0.657495,0.234184,-0.179389,-0.00824457,0,
4,0.637962,0.212012,-0.17955,-0.00828184,0,
4,0.617561,0.189434,-0.179705,-0.00829524,0,
4,0.596848,0.1671,-0.179843,-0.00828204,0,
4,0.576557,0.145767,-0.179964,-0.00824208,0,
4,0.556564,0.125306,-0.180065,-0.0081765,0,
4,0.536763,0.10561,-0.180152,-0.00808614,0,
4,0.517057,0.086625,-0.180236,-0.00797159,0,
4,0.497368,0.0683655,-0.180334,-0.00783403,0,
4,0.477632,0.0509188,-0.180467,-0.00767621,0,
4,0.457804,0.0344005,-0.180638,-0.00750335,0,
4,0.437857,0.0188575,-0.180849,-0.00732446,0,
4,0.417786,0.00411977,-0.180875,-0.00709009,0,
4,0.397605,-0.0101456,-0.180739,-0.00676605,0,
4,0.377348,-0.0241278,-0.18063,-0.00647095,0,
4,0.357066,-0.0377813,-0.180496,-0.00617676,0,
4,0.336828,-0.0510072,-0.180347,-0.00587689,0,
4,0.316717,-0.0637104,-0.180184,-0.00556906,0,
4,0.296825,-0.0758144,-0.180009,-0.00525381,0,
4,0.27725,-0.0872623,-0.179825,-0.00493306,0,
4,0.258095,-0.0980146,-0.179635,-0.00460915,0,
4,0.239458,-0.108048,-0.179439,-0.00428468,0,
4,0.221432,-0.117355,-0.179241,-0.00396231,0,
4,0.2041,-0.125938,-0.17904,-0.00364465,0,
4,0.187537,-0.133813,-0.178839,-0.00333416,0,
4,0.171798,-0.141004,-0.17864,-0.00303305,0,
4,0.156928,-0.14754,-0.178443,-0.00274319,0,
4,0.142956,-0.153457,-0.17825,-0.00246615,0,
4,0.129894,-0.158792,-0.178063,-0.00220308,0,
4,0.117744,-0.163583,-0.177882,-0.00195482,0,
4,0.106492,-0.167869,-0.17771,-0.00172185,0,
4,0.0961173,-0.171685,-0.177547,-0.00150435,0,
4,0.0865883,-0.175066,-0.177393,-0.00130226,0,
4,0.0778675,-0.178044,-0.17725,-0.00111527,0,
4,0.0699123,-0.180646,-0.177119,-0.000942917,0,
4,0.062677,-0.182899,-0.176998,-0.000784608,0,
4,0.056114,-0.184823,-0.176888,-0.000639647,0,
4,0.0501747,-0.186437,-0.17679,-0.000507279,0,
4,0.0448114,-0.187754,-0.176702,-0.000386718,0,
4,0.039977,-0.188785,-0.176623,-0.000277177,0,
4,0.0356266,-0.189535,-0.176555,-0.000177884,0,
4,0.0317171,-0.190005,-0.176494,-8.81104e-05,0,
4,0.0282081,-0.190188,-0.176442,-7.1884e-06,0,
4,0.0250617,-0.190072,-0.176397,6.54634e-05,0,
4,0.0222427,-0.189634,-0.176358,0.00013031,0,
4,0.0197189,-0.18884,-0.176326,0.000187653,0,
4,0.0174603,-0.187637,-0.176298,0.000237566,0,
4,0.0154398,-0.185952,-0.176276,0.000279782,0,
4,0.0136326,-0.183679,-0.176257,0.000313535,0,
4,0.0120162,-0.180666,-0.176243,0.000337319,0,
4,0.0105703,-0.176706,-0.176231,0.000348649,0,
4,0.00927657,-0.171524,-0.176223,0.00034404,0,
4,0.00811839,-0.164789,-0.176217,0.000319806,0,
4,0.0070809,-0.156173,-0.176213,0.000274435,0,
4,0.0061507,-0.145499,-0.17621,0.000212152,0,
4,0.00531578,-0.132913,-0.176209,0.000144438,0,
4,0.00456537,-0.11896,-0.176207,8.54763e-05,0,
4,0.00388979,-0.104412,-0.176207,4.39583e-05,0,
4,0.00328037,-0.0899703,-0.176207,1.97902e-05,0,
4,0.00272934,-0.0760919,-0.176207,7.83079e-06,0,
4,0.0022297,-0.062989,-0.176206,2.6978e-06,0,
4,0.00177519,-0.0507157,-0.176207,7.84313e-07,0,
4,0.00136016,-0.0392454,-0.176206,1.80247e-07,0,
4,0.000979511,-0.0285159,-0.176207,2.88143e-08,0,
4,0.00062865,-0.0184516,-0.176205,2.45441e-09,0,
4,0.000303409,-0.00897369,-0.176207,5.97171e-11,0,

6,0,0,-0.0265976,0,0,
6,9,0,-0.077024,0,0,
6,8.99969,0.013551,-0.0770236,1.88334e-10,0,
6,8.99934,0.0288325,-0.0770239,8.69221e-09,0,
6,8.99895,0.046083,-0.0770236,1.17848e-07,0,
6,8.9985,0.0655543,-0.0770238,8.493e-07,0,
6,8.99801,0.0875054,-0.0770236,4.19238e-06,0,
6,8.99744,0.112136,-0.0770237,1.58556e-05,0,
6,8.99681,0.139416,-0.0770235,4.79016e-05,0,
6,8.99609,0.168815,-0.0770236,0.000116363,0,
6,8.99529,0.199175,-0.0770234,0.00022784,0,
6,8.99438,0.229061,-0.0770233,0.000367613,0,
6,8.99336,0.257376,-0.077023,0.000510052,0,
6,8.9922,0.283626,-0.0770229,0.00063784,0,
6,8.9909,0.307815,-0.0770225,0.000741221,0,
6,8.98944,0.330104,-0.0770221,0.000828186,0,
6,8.98779,0.350665,-0.0770215,0.00090131,0,
6,8.98593,0.369746,-0.0770208,0.00095923,0,
6,8.98383,0.387607,-0.0770199,0.00100672,0,
6,8.98147,0.404455,-0.077019,0.00104694,0,
6,8.97881,0.420455,-0.0770177,0.00108138,0,
6,8.97581,0.435748,-0.0770163,0.00111135,0,
6,8.97244,0.450451,-0.0770145,0.00113785,0,
6,8.96863,0.464666,-0.0770125,0.00116165,0,
6,8.96435,0.478478,-0.0770101,0.0011833,0,
6,8.95953,0.491962,-0.0770073,0.00120318,0,
6,8.95409,0.50518,-0.077004,0.00122158,0,
6,8.94798,0.51819,-0.0770003,0.00123867,0,
6,8.94109,0.53104,-0.0769959,0.00125454,0,
6,8.93334,0.543773,-0.0769909,0.00126921,0,
6,8.92463,0.556426,-0.0769853,0.00128262,0,
6,8.91482,0.569032,-0.0769788,0.00129467,0,
6,8.90379,0.58162,-0.0769715,0.00130522,0,
6,8.89139,0.594213,-0.0769634,0.00131406,0,
6,8.87746,0.606832,-0.0769543,0.00132097,0,
6,8.86181,0.619495,-0.0769442,0.0013257,0,
6,8.84423,0.632214,-0.0769331,0.00132798,0,
6,8.82452,0.645001,-0.0769211,0.00132756,0,
6,8.80241,0.657865,-0.076908,0.00132416,0,
6,8.77763,0.670814,-0.0768939,0.00131752,0,
6,8.74989,0.683854,-0.0768789,0.00130741,0,
6,8.71885,0.696996,-0.076863,0.0012936,0,
6,8.68417,0.71025,-0.0768464,0.00127585,0,
6,8.64545,0.723632,-0.0768294,0.00125392,0,
6,8.60229,0.737165,-0.076812,0.00122752,0,
6,8.55423,0.750878,-0.0767947,0.00119633,0,
6,8.50082,0.764813,-0.0767777,0.0011604,0,
6,8.44155,0.779035,-0.0767625,0.00112015,0,
6,8.37592,0.79367,-0.07675,0.00107256,0,
6,8.30339,0.808922,-0.0767408,0.00101658,0,
6,8.22344,0.825054,-0.0767349,0.000949319,0,
6,8.13555,0.842366,-0.0767336,0.000867,0,
6,8.0392,0.861105,-0.0767328,0.000766206,0,
6,7.93391,0.881261,-0.076733,0.000646727,0,
6,7.81927,0.902243,-0.0767229,0.000515196,0,
6,7.6949,0.922668,-0.0767104,0.000386705,0,
6,7.56054,0.940699,-0.0766832,0.000270792,0,
6,7.41603,0.954729,-0.0766491,0.000139312,0,
6,7.26132,0.963782,-0.0766155,5.52552e-05,0,
6,7.09653,0.968117,-0.0765682,1.41385e-05,0,
6,6.92195,0.9692,-0.0765097,8.48465e-07,0,
6,6.73802,0.968786,-0.0764327,-9.23828e-07,0,
6,6.5454,0.968106,-0.0763351,-4.23369e-07,0,
6,6.34489,0.967657,-0.0762139,-1.10341e-07,0,
6,6.1375,0.967454,-0.0760668,-2.6399e-08,0,
6,5.92439,0.967361,-0.0758903,-9.36494e-09,0,
6,5.70687,0.967267,-0.0756804,-5.50961e-09,0,
6,5.48633,0.967132,-0.0754327,-4.49648e-09,0,
6,5.26426,0.966951,-0.0751423,-4.43562e-09,0,
6,5.04218,0.966734,-0.0748044,-4.74046e-09,0,
6,4.82159,0.966496,-0.074414,-5.16688e-09,0,
6,4.60398,0.966245,-0.0739667,-5.68536e-09,0,
6,4.39071,0.965981,-0.0734587,-6.48466e-09,0,
6,4.18307,0.965672,-0.0728867,-7.91118e-09,0,
6,3.98218,0.965253,-0.0722492,-1.01776e-08,0,
6,3.78902,0.964668,-0.0715457,-1.29109e-08,0,
6,3.60438,0.963944,-0.0707776,-1.66367e-08,0,
6,3.42888,0.963257,-0.0699482,-3.41812e-08,0,
6,3.26296,0.962905,-0.0690617,-7.85588e-08,0,
6,3.10691,0.963123,-0.0681229,-2.6202e-08,0,
6,2.96084,0.963874,-0.067137,3.16847e-07,0,
6,2.82473,0.96475,-0.066112,1.2022e-07,0,
6,2.69844,0.965112,-0.0650586,-3.72559e-06,0,
6,2.58172,0.964339,-0.0639901,-1.58078e-05,0,
6,2.47424,0.962045,-0.0629206,-3.98449e-05,0,
6,2.37559,0.958139,-0.0618639,-7.70883e-05,0,
6,2.28535,0.952782,-0.0608323,-0.000126303,0,
6,2.20301,0.946284,-0.0598363,-0.00018455,0,
6,2.1281,0.939012,-0.0588841,-0.000248075,0,
6,2.06009,0.93132,-0.0579821,-0.00031296,0,
6,1.99849,0.92352,-0.057133,-0.000375447,0,
6,1.9428,0.915869,-0.0563415,-0.000432451,0,
6,1.89255,0.908559,-0.0556028,-0.000483261,0,
6,1.84728,0.901677,-0.054925,-0.000525422,0,
6,1.80655,0.895222,-0.0543077,-0.000555677,0,
6,1.76996,0.889195,-0.0537369,-0.000583391,0,
6,1.73712,0.883613,-0.0532171,-0.000608763,0,
6,1.70768,0.878448,-0.0527407,-0.000632248,0,
6,1.67998,0.873471,-0.0522878,-0.000655013,0,
6,1.65329,0.868583,-0.0518443,-0.000677253,0,
6,1.62754,0.863783,-0.0514106,-0.00069893,0,
6,1.60265,0.85907,-0.0509855,-0.000720079,0,
6,1.57854,0.854442,-0.0505687,-0.000740673,0,
6,1.55515,0.849895,-0.0501596,-0.000760745,0,
6,1.53242,0.845427,-0.0497577,-0.00078031,0,
6,1.5103,0.841028,-0.0493626,-0.000799365,0,
6,1.48874,0.836686,-0.048974,-0.000817943,0,
6,1.46769,0.832387,-0.0485909,-0.000836209,0,
6,1.44712,0.828126,-0.0482122,-0.000854558,0,
6,1.42698,0.82392,-0.0478348,-0.000873555,0,
6,1.40725,0.819811,-0.0474588,-0.000893509,0,
6,1.38788,0.815839,-0.0470804,-0.000914072,0,
6,1.36886,0.811993,-0.0467162,-0.000930589,0,
6,1.35015,0.808203,-0.0463641,-0.000934414,0,
6,1.33173,0.804416,-0.04601,-0.000943598,0,
6,1.31357,0.800615,-0.0456602,-0.00095418,0,
6,1.29566,0.796784,-0.0453121,-0.000966601,0,
6,1.27797,0.792901,-0.0449664,-0.000981842,0,
6,1.26048,0.788942,-0.0446226,-0.00100113,0,
6,1.24318,0.784876,-0.0442805,-0.001026,0,
6,1.22605,0.780665,-0.04394,-0.00105832,0,
6,1.20907,0.776265,-0.043601,-0.00110023,0,
6,1.19223,0.771623,-0.0432633,-0.00115411,0,
6,1.17551,0.766679,-0.0429268,-0.00122252,0,
6,1.1589,0.761369,-0.0425916,-0.00130797,0,
6,1.14238,0.755628,-0.0422575,-0.0014127,0,
6,1.12595,0.749391,-0.0419248,-0.00153842,0,
6,1.10959,0.742608,-0.0415933,-0.00168595,0,
6,1.09329,0.73524,-0.0412635,-0.001855,0,
6,1.07704,0.727271,-0.0409356,-0.00204404,0,
6,1.06081,0.718702,-0.0406098,-0.00225029,0,
6,1.04459,0.709553,-0.0402863,-0.00247,0,
6,1.02836,0.699866,-0.0399654,-0.0026986,0,
6,1.01211,0.689697,-0.0396474,-0.00293107,0,
6,0.99583,0.679108,-0.0393327,-0.00316229,0,
6,0.97951,0.668167,-0.0390208,-0.00338767,0,
6,0.963136,0.656938,-0.0387137,-0.00361553,0,
6,0.946694,0.645404,-0.038402,-0.00382085,0,
6,0.930172,0.633468,-0.0380844,-0.00402217,0,
6,0.913555,0.621049,-0.0377697,-0.00422919,0,
6,0.896829,0.608092,-0.037458,-0.00444404,0,
6,0.879979,0.594559,-0.0371509,-0.00466829,0,
6,0.862989,0.580427,-0.0368486,-0.00490311,0,
6,0.845842,0.565694,-0.0365516,-0.00514942,0,
6,0.828521,0.550364,-0.0362617,-0.00540653,0,
6,0.811008,0.534443,-0.0359813,-0.00567123,0,
6,0.793282,0.517931,-0.035711,-0.0059423,0,
6,0.775322,0.500831,-0.0354516,-0.00621812,0,
6,0.757107,0.483155,-0.0352037,-0.00649652,0,
6,0.738612,0.464924,-0.0349681,-0.00677481,0,
6,0.719813,0.446169,-0.0347457,-0.00704976,0,
6,0.700681,0.426934,-0.0345375,-0.0073177,0,
6,0.681188,0.407269,-0.0343439,-0.00757456,0,
6,0.661304,0.387224,-0.0341636,-0.00781596,0,
6,0.640996,0.366842,-0.0339936,-0.00803721,0,
6,0.620228,0.346155,-0.0338305,-0.00823313,0,
6,0.598964,0.3252,-0.0336742,-0.00839792,0,
6,0.577166,0.304062,-0.033536,-0.00852509,0,
6,0.554791,0.28294,-0.0334416,-0.00860889,0,
6,0.531799,0.262196,-0.0334395,-0.00864625,0,
6,0.508144,0.242285,-0.0335489,-0.00863836,0,
6,0.48378,0.223519,-0.033785,-0.0085888,0,
6,0.459585,0.206343,-0.033765,-0.00839058,0,
6,0.436695,0.190927,-0.0335371,-0.00806808,0,
6,0.414961,0.1768,-0.0333785,-0.00779931,0,
6,0.394252,0.163779,-0.0332066,-0.00752046,0,
6,0.374445,0.151717,-0.0330408,-0.00723677,0,
6,0.355433,0.140499,-0.0328786,-0.00694938,0,
6,0.337122,0.130027,-0.0327173,-0.00665859,0,
6,0.319433,0.120218,-0.0325552,-0.00636536,0,
6,0.3023,0.111002,-0.0323904,-0.00607042,0,
6,0.28567,0.102324,-0.0322215,-0.00577447,0,
6,0.269507,0.0941353,-0.0320471,-0.00547821,0,
6,0.253785,0.0863997,-0.0318658,-0.00518242,0,
6,0.238493,0.079087,-0.0316767,-0.00488799,0,
6,0.223631,0.0721738,-0.0314792,-0.00459593,0,
6,0.209207,0.0656414,-0.0312728,-0.00430734,0,
6,0.195237,0.0594745,-0.0310577,-0.00402342,0,
6,0.181744,0.0536604,-0.0308342,-0.00374544,0,
6,0.168754,0.0481875,-0.0306034,-0.00347465,0,
6,0.156292,0.0430449,-0.0303664,-0.00321229,0,
6,0.144384,0.0382218,-0.0301249,-0.00295952,0,
6,0.133052,0.0337068,-0.0298811,-0.00271735,0,
6,0.122315,0.029488,-0.029637,-0.00248665,0,
6,0.112183,0.0255529,-0.029395,-0.0022681,0,
6,0.102665,0.0218882,-0.0291575,-0.00206218,0,
6,0.0937597,0.0184803,-0.0289264,-0.00186915,0,
6,0.0854609,0.015315,-0.0287039,-0.00168911,0,
6,0.077757,0.0123784,-0.0284917,-0.00152193,0,
6,0.0706309,0.00965638,-0.0282909,-0.00136735,0,
6,0.0640611,0.00713518,-0.0281028,-0.00122497,0,
6,0.0580229,0.00480154,-0.0279279,-0.00109428,0,
6,0.0524888,0.00264281,-0.0277668,-0.000974706,0,
6,0.0474296,0.000646847,-0.0276195,-0.00086563,0,
6,0.042815,-0.00119816,-0.0274858,-0.000766241,0,
6,0.0386145,-0.00290381,-0.027365,-0.000675781,0,
6,0.0347975,-0.00448094,-0.0272567,-0.000593707,0,
6,0.0313344,-0.00593934,-0.0271602,-0.00051934,0,
6,0.0281964,-0.00728806,-0.0270747,-0.000452007,0,
6,0.0253561,-0.00853546,-0.0269994,-0.000391091,0,
6,0.0227875,-0.00968921,-0.0269333,-0.000336017,0,
6,0.0204662,-0.0107562,-0.0268756,-0.000286248,0,
6,0.0183694,-0.0117423,-0.0268257,-0.00024129,0,
6,0.016476,-0.0126526,-0.0267825,-0.000200691,0,
6,0.0147664,-0.0134908,-0.0267459,-0.000164045,0,
6,0.0132228,-0.0142588,-0.0267143,-0.000130999,0,
6,0.0118288,-0.0149566,-0.0266885,-0.000101267,0,
6,0.0105693,-0.0155804,-0.0266663,-7.46488e-05,0,
6,0.00943073,-0.0161218,-0.0266493,-5.10803e-05,0,
6,0.00840063,-0.0165643,-0.0266346,-3.06999e-05,0,
6,0.00746774,-0.0168802,-0.0266248,-1.39325e-05,0,
6,0.00662185,-0.0170273,-0.026616,-1.48065e-06,0,
6,0.00585371,-0.0169503,-0.0266117,6.00256e-06,0,
6,0.00515491,-0.0165953,-0.026607,8.64106e-06,0,
6,0.00451788,-0.0159361,-0.0266062,7.80839e-06,0,
6,0.00393573,-0.0149929,-0.0266035,5.5122e-06,0,
6,0.00340221,-0.0138225,-0.0266043,3.27037e-06,0,
6,0.00291168,-0.0124907,-0.0266019,1.68852e-06,0,
6,0.00245897,-0.011053,-0.0266034,7.67205e-07,0,
6,0.00203939,-0.00954929,-0.0266008,3.03736e-07,0,
6,0.00164864,-0.00800512,-0.026603,1.01347e-07,0,
6,0.00128281,-0.0064359,-0.0265999,2.66542e-08,0,
6,0.000938257,-0.00484974,-0.0266028,4.855e-09,0,
6,0.000611645,-0.00324949,-0.0265988,4.67413e-10,0,
6,0.000299862,-0.00163419,-0.0266027,1.25468e-11,0,

10,0.000296632,0.00812797,0.0310142,-4.46268e-11,0,
10,0.000596102,0.0163305,0.0310149,-1.65383e-09,0,
10,0.000900397,0.024662,0.0310142,-1.68141e-08,0,
10,0.00121153,0.0331771,0.0310148,-9.03533e-08,0,
10,0.00153158,0.0419307,0.0310141,-3.37986e-07,0,
10,0.00186264,0.0509765,0.0310146,-1.00506e-06,0,
10,0.00220692,0.0603653,0.0310141,-2.55205e-06,0,
10,0.00256668,0.0701401,0.0310144,-5.7663e-06,0,
10,0.00294431,0.0803291,0.031014,-1.18785e-05,0,
10,0.00334229,0.090935,0.0310142,-2.26192e-05,0,
10,0.00376326,0.101921,0.0310138,-4.00968e-05,0,
10,0.00421,0.113198,0.031014,-6.63624e-05,0,
10,0.00468544,0.124622,0.0310135,-0.000102667,0,
10,0.00519274,0.135999,0.0310135,-0.000148706,0,
10,0.00573524,0.14712,0.0310129,-0.000202373,0,
10,0.00631651,0.157789,0.0310126,-0.000260287,0,
10,0.00694041,0.167855,0.0310116,-0.000318801,0,
10,0.00761104,0.177225,0.0310109,-0.000374894,0,
10,0.00833284,0.185858,0.0310095,-0.000426588,0,
10,0.00911058,0.193758,0.031008,-0.000472928,0,
10,0.0099494,0.20096,0.0310058,-0.000513744,0,
10,0.0108548,0.207518,0.0310033,-0.000549382,0,
10,0.0118329,0.213493,0.031,-0.00058047,0,
10,0.0128901,0.218951,0.0309963,-0.000607756,0,
10,0.0140333,0.223953,0.0309915,-0.000632006,0,
10,0.0152702,0.228559,0.030986,-0.000653945,0,
10,0.0166089,0.232822,0.0309794,-0.00067423,0,
10,0.0180584,0.236788,0.0309718,-0.00069344,0,
10,0.0196282,0.2405,0.0309629,-0.000712087,0,
10,0.0213288,0.243995,0.0309527,-0.000730615,0,
10,0.0231714,0.247304,0.0309409,-0.000749419,0,
10,0.0251682,0.250456,0.0309274,-0.000768856,0,
10,0.0273326,0.253475,0.0309121,-0.000789251,0,
10,0.0296789,0.256383,0.0308949,-0.000810909,0,
10,0.0322227,0.2592,0.0308754,-0.000834124,0,
10,0.0349809,0.261944,0.0308535,-0.000859183,0,
10,0.0379719,0.264632,0.0308289,-0.000886376,0,
10,0.0412155,0.267278,0.0308015,-0.000915996,0,
10,0.0447333,0.269897,0.030771,-0.000948346,0,
10,0.0485489,0.272503,0.0307371,-0.000983743,0,
10,0.0526875,0.275109,0.0306996,-0.00102252,0,
10,0.0571768,0.277729,0.0306582,-0.00106504,0,
10,0.0620466,0.280375,0.0306126,-0.00111166,0,
10,0.0673295,0.283061,0.0305626,-0.0011628,0,
10,0.0730607,0.285802,0.0305078,-0.00121889,0,
10,0.0792784,0.288612,0.0304481,-0.00128039,0,
10,0.0860241,0.291507,0.0303831,-0.00134778,0,
10,0.0933428,0.294505,0.0303127,-0.00142161,0,
10,0.101283,0.297624,0.0302366,-0.00150241,0,
10,0.109899,0.300885,0.0301547,-0.00159079,0,
10,0.119247,0.30431,0.0300669,-0.00168737,0,
10,0.12939,0.307926,0.0299732,-0.00179279,0,
10,0.140395,0.31176,0.0298734,-0.00190773,0,
10,0.152337,0.315847,0.0297678,-0.00203285,0,
10,0.165296,0.320223,0.0296564,-0.00216884,0,
10,0.179357,0.324932,0.0295396,-0.00231632,0,
10,0.194615,0.330022,0.0294174,-0.00247589,0,
10,0.211171,0.335552,0.0292903,-0.00264804,0,
10,0.229138,0.341586,0.0291584,-0.0028331,0,
10,0.248635,0.348201,0.0290225,-0.00303118,0,
10,0.269793,0.355487,0.0288817,-0.00324206,0,
10,0.292753,0.363544,0.0287383,-0.00346506,0,
10,0.317669,0.372493,0.0285879,-0.00369752,0,
10,0.344708,0.382462,0.0284362,-0.00393542,0,
10,0.372405,0.39298,0.0282878,-0.00416801,0,
10,0.399623,0.403634,0.0281447,-0.00438393,0,
10,0.426397,0.414423,0.0280077,-0.00457963,0,
10,0.452757,0.425346,0.0278749,-0.00475651,0,
10,0.478735,0.43641,0.0277484,-0.00491212,0,
10,0.504358,0.44763,0.027628,-0.00504463,0,
10,0.529657,0.459022,0.0275137,-0.0051543,0,
10,0.554656,0.470598,0.0273991,-0.0052408,0,
10,0.579382,0.482363,0.027292,-0.00530382,0,
10,0.603859,0.49432,0.027169,-0.00537599,0,
10,0.628112,0.506622,0.0270994,-0.00538818,0,
10,0.652163,0.519603,0.0270965,-0.00530222,0,
10,0.676035,0.533451,0.027064,-0.00518669,0,
10,0.699751,0.548026,0.0269947,-0.00504116,0,
10,0.72333,0.563032,0.0268856,-0.00486712,0,
10,0.746795,0.578168,0.0267502,-0.00466826,0,
10,0.770165,0.593215,0.0265968,-0.00444933,0,
10,0.79346,0.608035,0.0264318,-0.00421528,0,
10,0.816699,0.622537,0.0262571,-0.00397092,0,
10,0.839903,0.636636,0.0260711,-0.00372197,0,
10,0.863088,0.650223,0.0258719,-0.00347999,0,
10,0.886275,0.663202,0.0256612,-0.00324607,0,
10,0.909481,0.675525,0.0254417,-0.0030208,0,
10,0.932723,0.687199,0.025215,-0.00280482,0,
10,0.956021,0.698257,0.0249817,-0.00259883,0,
10,0.97939,0.708735,0.0247416,-0.00240343,0,
10,1.00285,0.718661,0.0244944,-0.00221916,0,
10,1.02641,0.728059,0.02424,-0.00204646,0,
10,1.0501,0.73695,0.0239786,-0.00188563,0,
10,1.07392,0.745358,0.0237108,-0.0017366,0,
10,1.0979,0.753322,0.0234377,-0.00159434,0,
10,1.12205,0.760859,0.023157,-0.00146604,0,
10,1.14639,0.76797,0.0228676,-0.00135066,0,
10,1.17093,0.774666,0.0225703,-0.00124878,0,
10,1.19568,0.780974,0.0222653,-0.0011606,0,
10,1.22066,0.786933,0.0219525,-0.00108566,0,
10,1.24589,0.792592,0.0216333,-0.00102289,0,
10,1.27137,0.798001,0.021306,-0.000970966,0,
10,1.29713,0.803213,0.0209745,-0.000933054,0,
10,1.32317,0.808331,0.0206373,-0.000892721,0,
10,1.34951,0.813486,0.0202931,-0.000851722,0,
10,1.37616,0.818728,0.0199446,-0.000813454,0,
10,1.40313,0.824012,0.0195877,-0.000778076,0,
10,1.43043,0.82926,0.019223,-0.000745357,0,
10,1.45807,0.834426,0.0188497,-0.000714674,0,
10,1.48607,0.839507,0.018469,-0.000685337,0,
10,1.51444,0.844526,0.0180808,-0.00065688,0,
10,1.54318,0.849499,0.0176855,-0.000629133,0,
10,1.57231,0.854422,0.0172824,-0.000602109,0,
10,1.60184,0.859273,0.0168716,-0.000575863,0,
10,1.63178,0.864022,0.0164527,-0.000550439,0,
10,1.66213,0.868643,0.0160264,-0.000525838,0,
10,1.69292,0.873119,0.0155917,-0.000501971,0,
10,1.72416,0.877453,0.0151504,-0.000478508,0,
10,1.75585,0.881685,0.0146995,-0.000451211,0,
10,1.78802,0.885861,0.0142399,-0.000423179,0,
10,1.82067,0.88999,0.0137732,-0.000395134,0,
10,1.85383,0.894053,0.0132975,-0.000365928,0,
10,1.88751,0.898027,0.0128134,-0.000335782,0,
10,1.92173,0.901888,0.0123207,-0.000305073,0,
10,1.95652,0.905612,0.0118189,-0.000274243,0,
10,1.9919,0.909173,0.0113087,-0.000243769,0,
10,2.02791,0.91255,0.0107885,-0.000214197,0,
10,2.06456,0.915723,0.0102606,-0.000185751,0,
10,2.10268,0.918732,0.00970984,-0.000158008,0,
10,2.1443,0.921666,0.00911172,-0.000131328,0,
10,2.18977,0.924475,0.00845898,-0.000105833,0,
10,2.23946,0.927078,0.00774986,-8.18178e-05,0,
10,2.29376,0.929389,0.00697874,-6.01038e-05,0,
10,2.35309,0.931329,0.00614336,-4.13869e-05,0,
10,2.4179,0.932826,0.00523969,-2.62034e-05,0,
10,2.48863,0.933833,0.00426609,-1.48531e-05,0,
10,2.56575,0.934346,0.00322047,-7.27887e-06,0,
10,2.64971,0.934416,0.0021027,-3.0029e-06,0,
10,2.74098,0.934163,0.000912872,-1.16751e-06,0,
10,2.83997,0.933763,-0.000347344,-7.2844e-07,0,
10,2.94709,0.933423,-0.00167583,-7.64268e-07,0,
10,3.06269,0.933328,-0.00306922,-7.42484e-07,0,
10,3.18706,0.933594,-0.00452338,-5.5514e-07,0,
10,3.3204,0.934226,-0.00603264,-3.19732e-07,0,
10,3.46281,0.935134,-0.0075897,-1.4874e-07,0,
10,3.61427,0.936171,-0.00918515,-6.35804e-08,0,
10,3.77463,0.937198,-0.0108076,-3.23681e-08,0,
10,3.94358,0.938131,-0.0124442,-2.29202e-08,0,
10,4.12067,0.938956,-0.0140808,-1.97505e-08,0,
10,4.30525,0.939703,-0.0157031,-1.83198e-08,0,
10,4.49655,0.940417,-0.0172972,-1.77731e-08,0,
10,4.6936,0.941126,-0.0188497,-1.80864e-08,0,
10,4.89531,0.941833,-0.0203482,-1.97551e-08,0,
10,5.10047,0.942523,-0.021782,-2.42392e-08,0,
10,5.30776,0.943177,-0.023142,-3.47967e-08,0,
10,5.51581,0.943778,-0.024421,-5.8168e-08,0,
10,5.72323,0.944322,-0.0256139,-1.08811e-07,0,
10,5.92863,0.944834,-0.0267175,-2.21947e-07,0,
10,6.13069,0.945381,-0.0277309,-4.90027e-07,0,
10,6.32816,0.946057,-0.0286548,-1.10707e-06,0,
10,6.51991,0.946897,-0.0294916,-2.15831e-06,0,
10,6.70495,0.947671,-0.0302453,-2.35482e-06,0,
10,6.88244,0.947669,-0.0309196,3.62366e-06,0,
10,7.0517,0.945664,-0.0315187,2.66533e-05,0,
10,7.21224,0.94027,-0.0320436,8.00579e-05,0,
10,7.3637,0.930596,-0.0324996,0.000173073,0,
10,7.5059,0.916682,-0.0328914,0.000296902,0,
10,7.63878,0.899121,-0.0332233,0.000404488,0,
10,7.76243,0.879014,-0.0335048,0.000523463,0,
10,7.87701,0.858127,-0.0337307,0.000645065,0,
10,7.9828,0.837919,-0.0339173,0.00075546,0,
10,8.08014,0.819105,-0.034067,0.000849585,0,
10,8.16941,0.801768,-0.034191,0.000927905,0,
10,8.25106,0.785662,-0.0342934,0.000993573,0,
10,8.32554,0.770461,-0.0343804,0.00104982,0,
10,8.39331,0.755885,-0.0344543,0.00109892,0,
10,8.45484,0.741733,-0.0345177,0.00114215,0,
10,8.5106,0.727885,-0.0345719,0.00118013,0,
10,8.56104,0.71428,-0.0346185,0.00121312,0,
10,8.60659,0.7009,-0.0346583,0.0012412,0,
10,8.64767,0.68775,-0.0346929,0.00126448,0,
10,8.68467,0.674836,-0.0347229,0.00128289,0,
10,8.71795,0.662132,-0.0347489,0.00129308,0,
10,8.74786,0.649613,-0.0347716,0.00129974,0,
10,8.77471,0.637275,-0.0347911,0.00130211,0,
10,8.79881,0.625114,-0.0348079,0.00130062,0,
10,8.8204,0.613123,-0.0348223,0.00129578,0,
10,8.83975,0.601292,-0.0348348,0.0012881,0,
10,8.85708,0.589608,-0.0348454,0.00127806,0,
10,8.87259,0.578054,-0.0348546,0.00126611,0,
10,8.88646,0.566608,-0.0348623,0.00125264,0,
10,8.89886,0.555247,-0.0348689,0.001238,0,
10,8.90995,0.543944,-0.0348745,0.00122248,0,
10,8.91986,0.532668,-0.0348792,0.00120631,0,
10,8.92872,0.521387,-0.0348832,0.00118964,0,
10,8.93663,0.510066,-0.0348864,0.00117258,0,
10,8.94369,0.498665,-0.0348892,0.00115515,0,
10,8.95,0.487143,-0.0348914,0.00113733,0,
10,8.95564,0.475454,-0.0348934,0.00111903,0,
10,8.96067,0.463549,-0.0348949,0.0011001,0,
10,8.96517,0.451373,-0.0348963,0.00108028,0,
10,8.96918,0.438865,-0.0348972,0.00105926,0,
10,8.97276,0.425955,-0.0348982,0.0010366,0,
10,8.97596,0.412562,-0.0348988,0.00101175,0,
10,8.97882,0.398595,-0.0348996,0.000983978,0,
10,8.98137,0.383946,-0.0348999,0.000952352,0,
10,8.98365,0.368487,-0.0349005,0.000915662,0,
10,8.98569,0.352069,-0.0349006,0.000872485,0,
10,8.9875,0.334509,-0.0349011,0.000820707,0,
10,8.98913,0.315574,-0.034901,0.000755176,0,
10,8.99058,0.295032,-0.0349015,0.000677766,0,
10,8.99188,0.272721,-0.0349013,0.000586047,0,
10,8.99304,0.248478,-0.0349018,0.000473297,0,
10,8.99408,0.222264,-0.0349014,0.000347084,0,
10,8.99501,0.194449,-0.034902,0.000221098,0,
10,8.99583,0.165935,-0.0349015,0.000117189,0,
10,8.99658,0.137988,-0.0349021,5.03207e-05,0,
10,8.99724,0.111724,-0.0349015,1.73647e-05,0,
10,8.99784,0.0877304,-0.0349022,4.76983e-06,0,
10,8.99837,0.0661167,-0.0349014,1.00023e-06,0,
10,8.99885,0.0467485,-0.0349023,1.43277e-07,0,
10,8.99927,0.0294144,-0.0349014,1.08771e-08,0,
10,8.99966,0.0138996,-0.0349024,2.40647e-10,0,
10,0,0,0.0310151,0,0,
10,9,0,-0.0349013,0,0,

0.004,0,0,-0.222744,0,-1.07675e-07,
0.00868226,0,0,-0.22274,0,-1.89956e-07,
0.014062,0,0,-0.222743,0,-2.91293e-07,
0.0201548,0,0,-0.222741,0,-7.5002e-07,
0.0269766,0,0,-0.222743,0,-1.36686e-06,
0.0345437,0,0,-0.222742,0,-2.25625e-06,
0.0428729,0,0,-0.222742,0,-3.26039e-06,
0.051981,0,0,-0.222741,0,-4.35025e-06,
0.0618853,0,0,-0.222739,0,-5.34134e-06,
0.0726036,0,0,-0.222735,0,-6.07077e-06,
0.0841536,0,0,-0.22273,0,-6.2737e-06,
0.0965535,0,0,-0.222724,0,-5.68302e-06,
0.109822,0,0,-0.222717,0,-4.01981e-06,
0.123977,0,0,-0.22271,0,-1.08507e-06,
0.139037,0,0,-0.222704,0,3.19393e-06,
0.155022,0,0,-0.222702,0,8.71174e-06,
0.171949,0,0,-0.222705,0,1.51793e-05,
0.189839,0,0,-0.222715,0,2.21618e-05,
0.208709,0,0,-0.222732,0,2.91409e-05,
0.228579,0,0,-0.222757,0,3.55977e-05,
0.249467,0,0,-0.222788,0,4.1074e-05,
0.271391,0,0,-0.222823,0,4.52253e-05,
0.29437,0,0,-0.222861,0,4.78373e-05,
0.31842,0,0,-0.222899,0,4.88355e-05,
0.343559,0,0,-0.222935,0,4.82717e-05,
0.369804,0,0,-0.222966,0,4.63115e-05,
0.39717,0,0,-0.222992,0,4.32092e-05,
0.425672,0,0,-0.223012,0,3.92848e-05,
0.455324,0,0,-0.223025,0,3.48951e-05,
0.48614,0,0,-0.223033,0,3.04098e-05,
0.518132,0,0,-0.223037,0,2.62072e-05,
0.551309,0,0,-0.223036,0,2.26902e-05,
0.585683,0,0,-0.223033,0,2.03111e-05,
0.621259,0,0,-0.223028,0,1.95367e-05,
0.658046,0,0,-0.223024,0,2.07048e-05,
0.696047,0,0,-0.223027,0,2.38567e-05,
0.735265,0,0,-0.223042,0,2.86801e-05,
0.7757,0,0,-0.223072,0,3.46292e-05,
0.817352,0,0,-0.223119,0,4.11342e-05,
0.860215,0,0,-0.223185,0,4.77894e-05,
0.904285,0,0,-0.223271,0,5.44366e-05,
0.949552,0,0,-0.22338,0,6.11353e-05,
0.996004,0,0,-0.223518,0,6.79602e-05,
1.04363,0,0,-0.223696,0,7.47268e-05,
1.09241,0,0,-0.223927,0,8.08778e-05,
1.14232,0,0,-0.224229,0,8.5369e-05,
1.19335,0,0,-0.224626,0,8.65275e-05,
1.24546,0,0,-0.225146,0,8.21242e-05,
1.29863,0,0,-0.225813,0,6.96663e-05,
1.35283,0,0,-0.226645,0,4.6919e-05,
1.40802,0,0,-0.227643,0,1.2624e-05,
1.46416,0,0,-0.228787,0,-3.29641e-05,
1.52121,0,0,-0.230044,0,-8.80628e-05,
1.57913,0,0,-0.231374,0,-0.000149913,
1.63787,0,0,-0.232735,0,-0.000215628,
1.69739,0,0,-0.234093,0,-0.000282905,
1.75761,0,0,-0.235419,0,-0.00035031,
1.81851,0,0,-0.236691,0,-0.00041718,
1.88,0,0,-0.23789,0,-0.000483324,
1.94204,0,0,-0.239001,0,-0.000548749,
2.00457,0,0,-0.240008,0,-0.000613496,
2.06751,0,0,-0.240901,0,-0.000677568,
2.13081,0,0,-0.241666,0,-0.000740935,
2.19439,0,0,-0.242294,0,-0.000803538,
2.25819,0,0,-0.242772,0,-0.000865303,
2.32214,0,0,-0.243091,0,-0.000926149,
2.38617,0,0,-0.243242,0,-0.000985978,
2.4502,0,0,-0.243217,0,-0.00104468,
2.51418,0,0,-0.243007,0,-0.00110214,
2.57803,0,0,-0.242606,0,-0.00115822,
2.64167,0,0,-0.242008,0,-0.00121278,
2.70505,0,0,-0.241209,0,-0.00126567,
2.76808,0,0,-0.240205,0,-0.00131674,
2.83072,0,0,-0.238995,0,-0.00136583,
2.89288,0,0,-0.23758,0,-0.00141277,
2.95451,0,0,-0.235959,0,-0.00145739,
3.01555,0,0,-0.234137,0,-0.00149953,
3.07594,0,0,-0.232118,0,-0.00153903,
3.13561,0,0,-0.229909,0,-0.00157575,
3.19453,0,0,-0.227519,0,-0.00160954,
3.25262,0,0,-0.224958,0,-0.00164028,
3.30985,0,0,-0.222237,0,-0.00166787,
3.36617,0,0,-0.21937,0,-0.00169224,
3.42154,0,0,-0.216373,0,-0.00171337,
3.47591,0,0,-0.213262,0,-0.00173128,
3.52925,0,0,-0.210053,0,-0.00174603,
3.58152,0,0,-0.206764,0,-0.00175773,
3.6327,0,0,-0.203412,0,-0.0017665,
3.68276,0,0,-0.200013,0,-0.00177251,
3.73167,0,0,-0.196586,0,-0.00177593,
3.77941,0,0,-0.193144,0,-0.00177694,
3.82596,0,0,-0.189703,0,-0.00177574,
3.8713,0,0,-0.186277,0,-0.00177253,
3.91543,0,0,-0.182875,0,-0.00176739,
3.95833,0,0,-0.179526,0,-0.00176083,
4,0,0,-0.176205,0,-0.00175282,
4.04167,0,0,-0.172851,0,-0.00174309,
4.08333,0,0,-0.169459,0,-0.00173192,
4.125,0,0,-0.166032,0,-0.00171932,
4.16667,0,0,-0.162577,0,-0.0017053,
4.20833,0,0,-0.159096,0,-0.00168992,
4.25,0,0,-0.155595,0,-0.00167323,
4.29167,0,0,-0.152077,0,-0.00165528,
4.33333,0,0,-0.148546,0,-0.00163611,
4.375,0,0,-0.145006,0,-0.00161577,
4.41667,0,0,-0.141461,0,-0.00159432,
4.45833,0,0,-0.137914,0,-0.00157179,
4.5,0,0,-0.134369,0,-0.00154824,
4.54167,0,0,-0.130829,0,-0.0015237,
4.58333,0,0,-0.127297,0,-0.00149822,
4.625,0,0,-0.123776,0,-0.00147185,
4.66667,0,0,-0.12027,0,-0.00144463,
4.70833,0,0,-0.11678,0,-0.0014166,
4.75,0,0,-0.113309,0,-0.0013878,
4.79167,0,0,-0.109861,0,-0.00135827,
4.83333,0,0,-0.106437,0,-0.00132804,
4.875,0,0,-0.103039,0,-0.00129716,
4.91667,0,0,-0.0996698,0,-0.00126566,
4.95833,0,0,-0.0963313,0,-0.00123357,
5,0,0,-0.0930252,0,-0.00120093,
5.04167,0,0,-0.0897534,0,-0.00116777,
5.08333,0,0,-0.0865174,0,-0.00113412,
5.125,0,0,-0.0833188,0,-0.00110002,
5.16667,0,0,-0.080159,0,-0.00106549,
5.20833,0,0,-0.0770393,0,-0.00103056,
5.25,0,0,-0.0739609,0,-0.000995254,
5.29167,0,0,-0.0709251,0,-0.000959595,
5.33333,0,0,-0.067933,0,-0.00092361,
5.375,0,0,-0.0649854,0,-0.000887322,
5.41667,0,0,-0.0620834,0,-0.000850756,
5.45833,0,0,-0.0592278,0,-0.000813935,
5.5,0,0,-0.0564195,0,-0.000776884,
5.54167,0,0,-0.0536592,0,-0.000739629,
5.58333,0,0,-0.0509474,0,-0.000702196,
5.625,0,0,-0.0482848,0,-0.00066461,
5.66667,0,0,-0.0456719,0,-0.000626897,
5.70833,0,0,-0.0431091,0,-0.00058908,
5.75,0,0,-0.0405967,0,-0.000551181,
5.79167,0,0,-0.038135,0,-0.000513223,
5.83333,0,0,-0.0357243,0,-0.000475223,
5.875,0,0,-0.0333649,0,-0.000437193,
5.91667,0,0,-0.031057,0,-0.000399141,
5.95833,0,0,-0.0288012,0,-0.000361074,
6,0,0,-0.0265979,0,-0.000322995,
6.04167,0,0,-0.0244479,0,-0.00028492,
6.08333,0,0,-0.0223525,0,-0.000246884,
6.125,0,0,-0.0203131,0,-0.000208969,
6.16667,0,0,-0.018331,0,-0.000171312,
6.20833,0,0,-0.0164069,0,-0.000134077,
6.25,0,0,-0.01454,0,-9.73987e-05,
6.29167,0,0,-0.0127287,0,-6.13297e-05,
6.33333,0,0,-0.0109712,0,-2.58589e-05,
6.375,0,0,-0.00926589,0,9.05049e-06,
6.41667,0,0,-0.0076114,0,4.34325e-05,
6.45833,0,0,-0.0060064,0,7.73115e-05,
6.5,0,0,-0.00444971,0,0.000110704,
6.54167,0,0,-0.00294018,0,0.000143622,
6.58333,0,0,-0.00147674,0,0.000176075,
6.625,0,0,-5.83681e-05,0,0.00020807,
6.66667,0,0,0.00131594,0,0.000239615,
6.70833,0,0,0.00264715,0,0.000270717,
6.75,0,0,0.00393618,0,0.000301381,
6.79167,0,0,0.00518395,0,0.000331613,
6.83333,0,0,0.00639134,0,0.000361415,
6.875,0,0,0.00755922,0,0.000390791,
6.91667,0,0,0.00868846,0,0.000419743,
6.95833,0,0,0.00977988,0,0.000448276,
7,0,0,0.0108343,0,0.000476391,
7.04167,0,0,0.0118526,0,0.000504091,
7.08333,0,0,0.0128356,0,0.00053138,
7.125,0,0,0.013784,0,0.000558258,
7.16667,0,0,0.0146986,0,0.000584729,
7.20833,0,0,0.0155803,0,0.000610795,
7.25,0,0,0.0164297,0,0.000636457,
7.29167,0,0,0.0172477,0,0.000661718,
7.33333,0,0,0.0180349,0,0.000686582,
7.375,0,0,0.0187922,0,0.000711051,
7.41667,0,0,0.0195203,0,0.000735129,
7.45833,0,0,0.0202198,0,0.000758821,
7.5,0,0,0.0208914,0,0.000782132,
7.54167,0,0,0.0215358,0,0.000805067,
7.58333,0,0,0.0221537,0,0.000827635,
7.625,0,0,0.0227458,0,0.000849848,
7.66667,0,0,0.0233126,0,0.000871723,
7.70833,0,0,0.0238548,0,0.000893272,
7.75,0,0,0.0243729,0,0.000914505,
7.79167,0,0,0.0248673,0,0.000935423,
7.83333,0,0,0.025338,0,0.000956018,
7.875,0,0,0.0257851,0,0.000976339,
7.91667,0,0,0.0262194,0,0.000996906,
7.95833,0,0,0.0265753,0,0.00101629,
8,0,0,0.027007,0,0.00103553,
8.04171,0,0,0.0274533,0,0.00105578,
8.08368,0,0,0.0277692,0,0.00107578,
8.12617,0,0,0.0281218,0,0.0010941,
8.16946,0,0,0.0284559,0,0.00111251,
8.21382,0,0,0.0287725,0,0.00113093,
8.25952,0,0,0.0290791,0,0.0011494,
8.30685,0,0,0.0293752,0,0.00116809,
8.35611,0,0,0.0296613,0,0.00118711,
8.40762,0,0,0.0299375,0,0.00120652,
8.46168,0,0,0.0302033,0,0.0012264,
8.51865,0,0,0.0304578,0,0.00124682,
8.57889,0,0,0.0306997,0,0.00126783,
8.64276,0,0,0.0309271,0,0.00128946,
8.71067,0,0,0.0311379,0,0.00131175,
8.78306,0,0,0.0313294,0,0.00133473,
8.86037,0,0,0.0314983,0,0.00135842,
8.94309,0,0,0.0316411,0,0.00138282,
9.03174,0,0,0.0317536,0,0.00140793,
9.12689,0,0,0.0318312,0,0.00143373,
9.22912,0,0,0.0318691,0,0.0014602,
9.33908,0,0,0.0318618,0,0.00148728,
9.45746,0,0,0.031804,0,0.00151493,
9.58501,0,0,0.0316897,0,0.00154307,
9.72253,0,0,0.0315137,0,0.00157162,
9.87088,0,0,0.0312703,0,0.0016005,
10.031,0,0,0.0309539,0,0.00162958,
10.2039,0,0,0.0305598,0,0.00165876,
10.3906,0,0,0.0300845,0,0.00168789,
10.5924,0,0,0.0295251,0,0.00171685,
10.8105,0,0,0.0288797,0,0.00174549,
11.0463,0,0,0.0281493,0,0.00177368,
11.3012,0,0,0.0273352,0,0.00180131,
11.5769,0,0,0.0264406,0,0.00182824,
11.8751,0,0,0.0254719,0,0.00185438,
12.1977,0,0,0.0244366,0,0.00187963,
12.5466,0,0,0.023345,0,0.00190392,
12.9242,0,0,0.0222085,0,0.00192719,
13.3327,0,0,0.0210403,0,0.00194941,
13.7748,0,0,0.0198555,0,0.00197057,
14.2532,0,0,0.0186691,0,0.00199068,
14.7709,0,0,0.017497,0,0.00200976,
15.3312,0,0,0.0163541,0,0.00202786,
15.9377,0,0,0.0152549,0,0.00204505,
16.594,0,0,0.0142119,0,0.0020614,
17.3044,0,0,0.0132347,0,0.00207699,
18.0733,0,0,0.012331,0,0.00209187,
18.9056,0,0,0.0115046,0,0.00210596,
19.8064,0,0,0.0107562,0,0.00211925,
20.7816,0,0,0.0100832,0,0.00213194,
21.8371,0,0,0.00947821,0,0.00214436,
22.9796,0,0,0.00893121,0,0.00215675,
24.2163,0,0,0.00842872,0,0.00216921,
25.5551,0,0,0.00795543,0,0.00218174,
27.0042,0,0,0.00749414,0,0.00219449,
28.5729,0,0,0.00702665,0,0.00220752,
30.271,0,0,0.00653424,0,0.00222085,
32.1091,0,0,0.00599909,0,0.00223442,
34.0989,0,0,0.00540534,0,0.00224815,
36.2529,0,0,0.00473457,0,0.00226197,
38.5845,0,0,0.00397826,0,0.0022758,
41.1085,0,0,0.00317247,0,0.00228944,
43.8407,0,0,0.00216304,0,0.00230073,
46.7983,0,0,0.0011134,0,0.00230765,
50,0,0,0.00205547,0,0.0023238,

