f1861f5986d9b7d8cd11b7aea607e82cef03f0a8 
X,Z,x_velocity,cp,uw_b,cf,
1,0,0,-0.225024,0,0,
1,9,0,-0.130643,0,0,
1,8.99969,0.0154167,-0.130643,2.86618e-10,0,
1,8.99934,0.032907,-0.130643,1.33971e-08,0,
1,8.99894,0.0527675,-0.130643,1.848e-07,0,
1,8.99848,0.0753124,-0.130643,1.3547e-06,0,
1,8.99797,0.100854,-0.130642,6.77061e-06,0,
1,8.99739,0.129589,-0.130643,2.56244e-05,0,
1,8.99672,0.161323,-0.130642,7.58989e-05,0,
1,8.99597,0.195114,-0.130642,0.000176408,0,
1,8.99512,0.229313,-0.130642,0.000325076,0,
1,8.99416,0.262262,-0.130642,0.000493322,0,
1,8.99306,0.292985,-0.130642,0.000651712,0,
1,8.99182,0.32131,-0.130642,0.000779189,0,
1,8.99041,0.347378,-0.130641,0.000884775,0,
1,8.98881,0.371347,-0.130641,0.000971962,0,
1,8.98699,0.393434,-0.13064,0.00104309,0,
1,8.98494,0.413928,-0.13064,0.00109904,0,
1,8.98261,0.43314,-0.130639,0.0011418,0,
1,8.97996,0.451309,-0.130638,0.00117762,0,
1,8.97696,0.468608,-0.130637,0.0012073,0,
1,8.97356,0.485179,-0.130635,0.0012321,0,
1,8.9697,0.501139,-0.130634,0.00125299,0,
1,8.96533,0.516588,-0.130632,0.00127067,0,
1,8.96038,0.531608,-0.13063,0.00128568,0,
1,8.95476,0.546269,-0.130628,0.00129837,0,
1,8.9484,0.560631,-0.130625,0.00130902,0,
1,8.9412,0.574743,-0.130623,0.00131778,0,
1,8.93303,0.588648,-0.13062,0.00132477,0,
1,8.92379,0.602384,-0.130617,0.00133004,0,
1,8.91333,0.615983,-0.130613,0.0013336,0,
1,8.90149,0.629472,-0.13061,0.00133542,0,
1,8.8881,0.642876,-0.130607,0.00133546,0,
1,8.87295,0.656216,-0.130604,0.00133363,0,
1,8.85584,0.669512,-0.130602,0.00132985,0,
1,8.83651,0.682785,-0.1306,0.001324,0,
1,8.81469,0.696052,-0.1306,0.00131594,0,
1,8.79007,0.709334,-0.130601,0.00130553,0,
1,8.76232,0.722653,-0.130605,0.00129258,0,
1,8.73107,0.736034,-0.130613,0.00127685,0,
1,8.69591,0.749506,-0.130625,0.00125808,0,
1,8.6564,0.763107,-0.130642,0.0012359,0,
1,8.61206,0.776882,-0.130668,0.00120991,0,
1,8.56236,0.790888,-0.130703,0.00117975,0,
1,8.50675,0.805201,-0.130752,0.00114652,0,
1,8.44464,0.819962,-0.130817,0.00110639,0,
1,8.3754,0.835387,-0.130903,0.00105486,0,
1,8.29839,0.851727,-0.131016,0.000991627,0,
1,8.21296,0.869226,-0.131162,0.00091218,0,
1,8.11843,0.888076,-0.131347,0.000811285,0,
1,8.01417,0.908274,-0.131586,0.00068551,0,
1,7.89956,0.929372,-0.131874,0.000538355,0,
1,7.77403,0.950243,-0.132249,0.000388363,0,
1,7.63711,0.969275,-0.132698,0.000204344,0,
1,7.48842,0.984138,-0.133229,7.5589e-05,0,
1,7.32773,0.992906,-0.133866,1.80503e-05,0,
1,7.15495,0.996072,-0.134607,1.77324e-06,0,
1,6.97022,0.996121,-0.135465,2.21363e-08,0,
1,6.77388,0.995502,-0.136456,3.62471e-09,0,
1,6.56652,0.995386,-0.137595,9.66546e-09,0,
1,6.34896,0.995841,-0.138896,1.24448e-08,0,
1,6.12229,0.996567,-0.140371,1.4034e-08,0,
1,5.88784,0.997364,-0.142035,1.48632e-08,0,
1,5.64716,0.998196,-0.1439,1.58119e-08,0,
1,5.40194,0.999094,-0.145975,1.71358e-08,0,
1,5.15407,1.00008,-0.148266,1.87997e-08,0,
1,4.90545,1.00117,-0.150774,2.05681e-08,0,
1,4.65805,1.00236,-0.153498,2.24553e-08,0,
1,4.41376,1.00365,-0.156427,2.44147e-08,0,
1,4.17441,1.00502,-0.159548,2.62145e-08,0,
1,3.94163,1.00641,-0.162841,2.76965e-08,0,
1,3.7169,1.00777,-0.166276,2.94793e-08,0,
1,3.50146,1.00918,-0.169822,3.35086e-08,0,
1,3.29629,1.01096,-0.173445,4.17991e-08,0,
1,3.10217,1.01346,-0.177114,5.24655e-08,0,
1,2.91959,1.01648,-0.180799,9.58909e-08,0,
1,2.74885,1.01857,-0.18446,9.0942e-07,0,
1,2.59002,1.01731,-0.188033,-6.62993e-06,0,
1,2.44299,1.01099,-0.191458,-5.36581e-05,0,
1,2.30752,0.999829,-0.194671,-0.000152664,0,
1,2.18321,0.985288,-0.197615,-0.000289514,0,
1,2.06959,0.968954,-0.200323,-0.000407219,0,
1,1.9661,0.952096,-0.202778,-0.000509508,0,
1,1.87215,0.93564,-0.204947,-0.000604921,0,
1,1.78711,0.920094,-0.206867,-0.000688925,0,
1,1.71033,0.905611,-0.208555,-0.000761432,0,
1,1.64119,0.892156,-0.210033,-0.000823964,0,
1,1.57905,0.879618,-0.211323,-0.000878706,0,
1,1.52332,0.867867,-0.212444,-0.000927817,0,
1,1.47342,0.856792,-0.213422,-0.000973548,0,
1,1.42882,0.846307,-0.214255,-0.00100696,0,
1,1.389,0.83633,-0.214955,-0.00103143,0,
1,1.35351,0.826797,-0.215561,-0.00105421,0,
1,1.3219,0.817672,-0.216078,-0.00107462,0,
1,1.29378,0.808934,-0.216521,-0.00109243,0,
1,1.26878,0.800574,-0.216899,-0.0011077,0,
1,1.24659,0.792587,-0.217222,-0.0011208,0,
1,1.22689,0.784966,-0.217498,-0.00113187,0,
1,1.2092,0.777623,-0.217736,-0.00113987,0,
1,1.1932,0.770509,-0.217943,-0.00114551,0,
1,1.1787,0.763608,-0.218123,-0.00114941,0,
1,1.16554,0.756902,-0.218279,-0.0011524,0,
1,1.15357,0.75036,-0.218413,-0.00115622,0,
1,1.14266,0.743938,-0.21853,-0.00116397,0,
1,1.13268,0.737573,-0.218631,-0.00117961,0,
1,1.12354,0.731176,-0.218719,-0.00120861,0,
1,1.11514,0.724632,-0.218797,-0.00125767,0,
1,1.10739,0.717796,-0.218868,-0.00133427,0,
1,1.10022,0.710504,-0.218936,-0.00144599,0,
1,1.09357,0.702586,-0.219005,-0.00159936,0,
1,1.08738,0.693899,-0.219076,-0.00179852,0,
1,1.0816,0.684356,-0.219153,-0.00204384,0,
1,1.07618,0.673957,-0.219235,-0.00233099,0,
1,1.07107,0.662787,-0.219324,-0.00265132,0,
1,1.06626,0.651,-0.219419,-0.00299332,0,
1,1.06169,0.63878,-0.219518,-0.00334486,0,
1,1.05735,0.626308,-0.219621,-0.00369508,0,
1,1.05321,0.613741,-0.219727,-0.00403546,0,
1,1.04925,0.601203,-0.219834,-0.00436002,0,
1,1.04544,0.588787,-0.219942,-0.00466503,0,
1,1.04177,0.576555,-0.220051,-0.0049485,0,
1,1.03822,0.564548,-0.220159,-0.00520967,0,
1,1.03478,0.552788,-0.220268,-0.00544863,0,
1,1.03144,0.541286,-0.220375,-0.00566596,0,
1,1.02818,0.530044,-0.220482,-0.00586258,0,
1,1.025,0.519059,-0.220588,-0.00603953,0,
1,1.02188,0.508321,-0.220693,-0.00619791,0,
1,1.01882,0.497823,-0.220797,-0.00633883,0,
1,1.01581,0.487552,-0.2209,-0.00646349,0,
1,1.01284,0.477496,-0.221003,-0.00657245,0,
1,1.00988,0.467536,-0.221105,-0.00666751,0,
1,1.00688,0.457555,-0.221209,-0.00675061,0,
1,1.00384,0.447545,-0.221314,-0.00682215,0,
1,1.00076,0.437495,-0.221421,-0.00688148,0,
1,0.997615,0.427388,-0.221529,-0.00692843,0,
1,0.99441,0.417205,-0.221638,-0.0069627,0,
1,0.991131,0.40692,-0.221748,-0.00698431,0,
1,0.987768,0.396509,-0.22186,-0.00699319,0,
1,0.984308,0.385942,-0.221973,-0.00698898,0,
1,0.980739,0.375189,-0.222088,-0.00697124,0,
1,0.977045,0.364217,-0.222205,-0.00693934,0,
1,0.973211,0.35299,-0.222324,-0.00689252,0,
1,0.969219,0.34147,-0.222445,-0.00682986,0,
1,0.965047,0.329614,-0.222569,-0.00675023,0,
1,0.960675,0.317376,-0.222695,-0.00665231,0,
1,0.956077,0.304706,-0.222823,-0.00653376,0,
1,0.951224,0.291551,-0.222954,-0.00639309,0,
1,0.946088,0.277862,-0.223088,-0.00622835,0,
1,0.940633,0.263597,-0.223225,-0.00603895,0,
1,0.934823,0.248722,-0.223366,-0.00582166,0,
1,0.928616,0.233208,-0.22351,-0.00557434,0,
1,0.921967,0.217037,-0.223656,-0.00529497,0,
1,0.914826,0.200199,-0.223805,-0.00498189,0,
1,0.907141,0.182708,-0.223955,-0.00463399,0,
1,0.898852,0.164599,-0.224105,-0.00425106,0,
1,0.889898,0.145947,-0.224256,-0.00383428,0,
1,0.880212,0.126881,-0.224406,-0.00338691,0,
1,0.869723,0.10761,-0.224555,-0.00291525,0,
1,0.858358,0.0884551,-0.224703,-0.00243033,0,
1,0.846039,0.0698995,-0.224854,-0.0019501,0,
1,0.83269,0.0526121,-0.225007,-0.00150103,0,
1,0.818232,0.037385,-0.225167,-0.00111693,0,
1,0.802744,0.0249544,-0.225324,-0.000820581,0,
1,0.78635,0.0154712,-0.225488,-0.000609129,0,
1,0.768969,0.0083975,-0.225647,-0.000468666,0,
1,0.75053,0.00300055,-0.225799,-0.00038227,0,
1,0.730977,-0.00136518,-0.225935,-0.000333873,0,
1,0.710271,-0.00516298,-0.226056,-0.000310233,0,
1,0.688397,-0.0086886,-0.226157,-0.000301712,0,
1,0.66536,-0.0121178,-0.226242,-0.000302061,0,
1,0.641194,-0.0155607,-0.226311,-0.000305191,0,
1,0.615961,-0.019083,-0.226363,-0.000307941,0,
1,0.589754,-0.0227093,-0.226399,-0.000307976,0,
1,0.562692,-0.0264321,-0.226416,-0.000304037,0,
1,0.534925,-0.0302197,-0.226415,-0.000295641,0,
1,0.506624,-0.0340227,-0.226392,-0.000282818,0,
1,0.477982,-0.0377815,-0.226347,-0.000265913,0,
1,0.449206,-0.0414309,-0.22628,-0.000245442,0,
1,0.420509,-0.0449041,-0.226191,-0.000222008,0,
1,0.392107,-0.0481355,-0.226083,-0.000196237,0,
1,0.364206,-0.0510616,-0.225958,-0.000168743,0,
1,0.337003,-0.0536222,-0.225821,-0.000140097,0,
1,0.310673,-0.0557602,-0.225677,-0.000110798,0,
1,0.28537,-0.0574222,-0.225531,-8.12904e-05,0,
1,0.26122,-0.0585578,-0.225388,-5.19692e-05,0,
1,0.238324,-0.059121,-0.225254,-2.32099e-05,0,
1,0.21675,-0.0590717,-0.225133,4.58471e-06,0,
1,0.196544,-0.0583792,-0.225028,3.09385e-05,0,
1,0.177724,-0.057027,-0.224943,5.52801e-05,0,
1,0.160284,-0.0550188,-0.224878,7.69643e-05,0,
1,0.144202,-0.0523837,-0.224832,9.53402e-05,0,
1,0.129436,-0.0491789,-0.224806,0.000109848,0,
1,0.115935,-0.0454894,-0.224796,0.000120112,0,
1,0.103636,-0.0414227,-0.224799,0.000125999,0,
1,0.0924701,-0.0371,-0.224811,0.000127621,0,
1,0.0823633,-0.0326456,-0.224831,0.000125349,0,
1,0.0732406,-0.0281772,-0.224855,0.000119725,0,
1,0.0650269,-0.0237965,-0.22488,0.000111389,0,
1,0.057648,-0.0195842,-0.224905,0.000101003,0,
1,0.0510323,-0.0155969,-0.224928,8.91953e-05,0,
1,0.0451115,-0.0118683,-0.22495,7.65285e-05,0,
1,0.0398209,-0.00841307,-0.224968,6.34913e-05,0,
1,0.0351001,-0.00523347,-0.224984,5.05237e-05,0,
1,0.0308929,-0.00232802,-0.224996,3.8069e-05,0,
1,0.0271475,0.000295647,-0.225005,2.67214e-05,0,
1,0.0238164,0.00260912,-0.225012,1.6956e-05,0,
1,0.0208562,0.00455909,-0.225016,9.38137e-06,0,
1,0.0182274,0.006078,-0.225019,4.35666e-06,0,
1,0.0158944,0.00711838,-0.225021,1.6152e-06,0,
1,0.0138249,0.00768709,-0.225022,4.13034e-07,0,
1,0.0119898,0.00784715,-0.225023,5.3068e-09,0,
1,0.0103632,0.00769083,-0.225023,-8.18762e-08,0,
1,0.00892169,0.00731043,-0.225023,-7.12149e-08,0,
1,0.00764438,0.0067833,-0.225024,-4.44209e-08,0,
1,0.00651264,0.00616843,-0.225024,-2.3702e-08,0,
1,0.00550983,0.00550891,-0.225024,-1.13676e-08,0,
1,0.00462115,0.00483518,-0.225024,-4.97548e-09,0,
1,0.00383341,0.00416838,-0.225024,-1.9863e-09,0,
1,0.0031349,0.00352267,-0.225024,-7.14832e-10,0,
1,0.00251518,0.00290717,-0.225024,-2.26468e-10,0,
1,0.00196502,0.00232725,-0.225024,-6.06267e-11,0,
1,0.00147619,0.00178564,-0.225024,-1.27787e-11,0,
1,0.00104139,0.00128311,-0.225024,-1.86319e-12,0,
1,0.000654158,0.000819126,-0.225024,-1.44564e-13,0,
1,0.000308731,0.000392195,-0.225024,-3.27563e-15,0,

4,0,0,-0.169105,0,0,
4,9,0,-0.100419,0,0,
4,8.99969,0.0142945,-0.100419,2.25555e-10,0,
4,8.99934,0.0304551,-0.100419,1.04646e-08,0,
4,8.99894,0.0487441,-0.100419,1.4289e-07,0,
4,8.9985,0.0694387,-0.100419,1.0371e-06,0,
4,8.99799,0.0928205,-0.100419,5.14695e-06,0,
4,8.99742,0.119092,-0.100419,1.94827e-05,0,
4,8.99677,0.148166,-0.100419,5.84352e-05,0,
4,8.99605,0.179358,-0.100419,0.00013951,0,
4,8.99522,0.211309,-0.100419,0.000266465,0,
4,8.99429,0.242475,-0.100419,0.00041893,0,
4,8.99324,0.271793,-0.100418,0.000568927,0,
4,8.99205,0.298886,-0.100418,0.000698481,0,
4,8.9907,0.323834,-0.100418,0.000802665,0,
4,8.98919,0.346808,-0.100417,0.000890423,0,
4,8.98747,0.367997,-0.100416,0.0009634,0,
4,8.98553,0.387668,-0.100416,0.00102087,0,
4,8.98334,0.406102,-0.100415,0.0010671,0,
4,8.98087,0.423519,-0.100414,0.00110615,0,
4,8.97807,0.440086,-0.100412,0.00113926,0,
4,8.97491,0.455946,-0.100411,0.00116774,0,
4,8.97134,0.471216,-0.100409,0.00119258,0,
4,8.96731,0.485998,-0.100406,0.00121449,0,
4,8.96276,0.500375,-0.100404,0.001234,0,
4,8.95762,0.51442,-0.100401,0.00125148,0,
4,8.95182,0.528196,-0.100397,0.00126717,0,
4,8.94526,0.541754,-0.100394,0.00128124,0,
4,8.93787,0.555142,-0.100389,0.00129375,0,
4,8.92952,0.568398,-0.100384,0.00130472,0,
4,8.92011,0.581557,-0.100379,0.0013141,0,
4,8.90949,0.594647,-0.100373,0.0013218,0,
4,8.89751,0.607694,-0.100367,0.00132771,0,
4,8.88402,0.620719,-0.10036,0.00133166,0,
4,8.86881,0.633738,-0.100352,0.00133349,0,
4,8.85169,0.646768,-0.100345,0.00133303,0,
4,8.83242,0.659821,-0.100337,0.00133009,0,
4,8.81074,0.67291,-0.10033,0.0013245,0,
4,8.78637,0.686045,-0.100323,0.00131606,0,
4,8.75901,0.699241,-0.100316,0.0013046,0,
4,8.7283,0.712512,-0.100311,0.00128992,0,
4,8.69387,0.725876,-0.100308,0.00127182,0,
4,8.65533,0.739358,-0.100308,0.00125004,0,
4,8.61222,0.75299,-0.100312,0.00122428,0,
4,8.56407,0.766814,-0.100322,0.00119414,0,
4,8.5104,0.780883,-0.100338,0.00115937,0,
4,8.45065,0.795273,-0.100364,0.00112178,0,
4,8.38429,0.810138,-0.100404,0.00107442,0,
4,8.31073,0.825715,-0.100458,0.00101705,0,
4,8.22941,0.842267,-0.100532,0.000946681,0,
4,8.13974,0.860058,-0.100629,0.000858923,0,
4,8.04115,0.879262,-0.100752,0.000750156,0,
4,7.93313,0.899764,-0.100906,0.000620678,0,
4,7.81519,0.920857,-0.101084,0.000479686,0,
4,7.68693,0.941075,-0.101311,0.000344619,0,
4,7.54803,0.958519,-0.101569,0.000202721,0,
4,7.39831,0.971301,-0.101876,8.90269e-05,0,
4,7.23771,0.978546,-0.102251,2.7452e-05,0,
4,7.06634,0.98121,-0.102681,4.53436e-06,0,
4,6.88453,0.981354,-0.103169,2.21987e-08,0,
4,6.69275,0.98082,-0.103718,-7.75088e-08,0,
4,6.49173,0.980532,-0.104336,2.71236e-08,0,
4,6.28238,0.980641,-0.105034,2.66795e-08,0,
4,6.06579,0.980982,-0.105818,1.51488e-08,0,
4,5.84328,0.9814,-0.106697,1.02878e-08,0,
4,5.61626,0.981832,-0.107676,9.05413e-09,0,
4,5.3863,0.98228,-0.108761,9.1839e-09,0,
4,5.15502,0.982761,-0.109955,9.86561e-09,0,
4,4.92406,0.983288,-0.111261,1.08338e-08,0,
4,4.69507,0.983872,-0.112681,1.19912e-08,0,
4,4.46961,0.984519,-0.114214,1.31927e-08,0,
4,4.24915,0.98521,-0.115856,1.41362e-08,0,
4,4.03501,0.98589,-0.117602,1.45354e-08,0,
4,3.82836,0.98649,-0.119445,1.4664e-08,0,
4,3.63018,0.987018,-0.121374,1.59547e-08,0,
4,3.44125,0.987658,-0.123376,2.14593e-08,0,
4,3.26217,0.988773,-0.12544,7.30381e-08,0,
4,3.09333,0.99065,-0.12755,6.37802e-07,0,
4,2.93497,0.993083,-0.129688,2.94027e-06,0,
4,2.78715,0.995191,-0.131839,5.69522e-06,0,
4,2.64979,0.995777,-0.133979,1.07607e-06,0,
4,2.52268,0.993923,-0.136086,-2.07968e-05,0,
4,2.40551,0.989322,-0.138133,-6.49006e-05,0,
4,2.29789,0.982245,-0.140096,-0.000129531,0,
4,2.19939,0.973302,-0.141957,-0.00020832,0,
4,2.10949,0.963195,-0.143704,-0.000293252,0,
4,2.02768,0.952556,-0.145333,-0.00037676,0,
4,1.95343,0.941898,-0.146842,-0.000452821,0,
4,1.88618,0.931591,-0.148231,-0.000519277,0,
4,1.82542,0.921815,-0.14951,-0.000565165,0,
4,1.77062,0.912627,-0.150681,-0.000603266,0,
4,1.72128,0.904075,-0.151745,-0.000637449,0,
4,1.67693,0.896187,-0.15271,-0.000667815,0,
4,1.63713,0.888958,-0.153584,-0.000694767,0,
4,1.60144,0.882368,-0.154374,-0.000718682,0,
4,1.56949,0.876382,-0.155086,-0.000739966,0,
4,1.54091,0.870963,-0.155726,-0.000759122,0,
4,1.51537,0.866056,-0.156303,-0.000776451,0,
4,1.49167,0.861465,-0.156839,-0.000792401,0,
4,1.46926,0.857099,-0.157348,-0.000807512,0,
4,1.44801,0.852925,-0.15784,-0.000818507,0,
4,1.42781,0.848904,-0.158316,-0.000825173,0,
4,1.40855,0.84501,-0.15877,-0.000831357,0,
4,1.39015,0.84123,-0.159207,-0.000836199,0,
4,1.37252,0.837548,-0.159628,-0.000840098,0,
4,1.3556,0.833949,-0.160034,-0.000843556,0,
4,1.3393,0.830415,-0.160428,-0.000847049,0,
4,1.32357,0.826929,-0.160809,-0.000851495,0,
4,1.30836,0.823471,-0.161179,-0.000857605,0,
4,1.29362,0.820018,-0.161539,-0.00086634,0,
4,1.2793,0.816546,-0.161891,-0.000878935,0,
4,1.26537,0.813023,-0.162234,-0.000896929,0,
4,1.25179,0.809413,-0.16257,-0.000922209,0,
4,1.23852,0.805672,-0.162898,-0.00095704,0,
4,1.22554,0.801747,-0.163221,-0.00100408,0,
4,1.21282,0.797578,-0.163537,-0.00106637,0,
4,1.20034,0.793095,-0.163847,-0.00114722,0,
4,1.18806,0.78822,-0.164151,-0.00125001,0,
4,1.17599,0.782874,-0.16445,-0.00137794,0,
4,1.16408,0.776982,-0.164743,-0.00153363,0,
4,1.15233,0.770479,-0.165031,-0.00171866,0,
4,1.14073,0.76332,-0.165312,-0.00193324,0,
4,1.12925,0.755487,-0.165588,-0.00217597,0,
4,1.11788,0.746988,-0.165859,-0.00244383,0,
4,1.10661,0.737858,-0.166124,-0.00273248,0,
4,1.09543,0.728151,-0.166385,-0.00303666,0,
4,1.08432,0.717935,-0.16664,-0.00335071,0,
4,1.07328,0.707282,-0.16689,-0.00366901,0,
4,1.0623,0.696268,-0.167136,-0.00398637,0,
4,1.05136,0.684961,-0.167378,-0.00429819,0,
4,1.04044,0.673405,-0.167615,-0.0046007,0,
4,1.0295,0.661637,-0.167849,-0.00489099,0,
4,1.01855,0.649705,-0.168079,-0.00516628,0,
4,1.00757,0.637649,-0.168305,-0.00542405,0,
4,0.996544,0.625506,-0.168528,-0.00566253,0,
4,0.98547,0.613308,-0.168748,-0.00587966,0,
4,0.974334,0.601081,-0.168963,-0.00607401,0,
4,0.963124,0.58885,-0.169177,-0.0062442,0,
4,0.951826,0.576634,-0.169383,-0.00638897,0,
4,0.940428,0.564454,-0.169596,-0.00651679,0,
4,0.928915,0.552291,-0.169781,-0.00663298,0,
4,0.917272,0.540011,-0.169919,-0.00669466,0,
4,0.905481,0.527449,-0.170044,-0.00676304,0,
4,0.893524,0.51452,-0.170165,-0.00683852,0,
4,0.881383,0.501169,-0.170285,-0.00692114,0,
4,0.869035,0.487357,-0.170407,-0.00701084,0,
4,0.856459,0.473049,-0.170533,-0.00710728,0,
4,0.843629,0.458216,-0.170662,-0.00720995,0,
4,0.830518,0.442828,-0.170795,-0.00731814,0,
4,0.817097,0.426864,-0.170932,-0.00743102,0,
4,0.803334,0.410304,-0.171072,-0.00754765,0,
4,0.789195,0.393131,-0.171214,-0.00766694,0,
4,0.774643,0.375335,-0.171357,-0.00778768,0,
4,0.759639,0.356907,-0.1715,-0.00790846,0,
4,0.744138,0.337846,-0.171644,-0.00802757,0,
4,0.728096,0.318158,-0.171788,-0.00814294,0,
4,0.711463,0.297863,-0.171933,-0.00825219,0,
4,0.694189,0.276996,-0.172079,-0.00835237,0,
4,0.676218,0.255605,-0.172226,-0.00843939,0,
4,0.657495,0.233746,-0.172373,-0.00850889,0,
4,0.637962,0.211473,-0.17252,-0.00855681,0,
4,0.617561,0.188831,-0.172662,-0.00857992,0,
4,0.596848,0.16647,-0.17279,-0.00857523,0,
4,0.576557,0.145144,-0.172903,-0.00854241,0,
4,0.556564,0.124724,-0.172996,-0.00848273,0,
4,0.536763,0.105097,-0.173076,-0.00839694,0,
4,0.517057,0.0862058,-0.17315,-0.00828525,0,
4,0.497368,0.0680661,-0.173235,-0.00814813,0,
4,0.477632,0.0507761,-0.173353,-0.00798782,0,
4,0.457804,0.0344865,-0.173515,-0.00780903,0,
4,0.437857,0.0193197,-0.173722,-0.00762127,0,
4,0.417786,0.00523179,-0.173897,-0.00743095,0,
4,0.397605,-0.00813157,-0.173857,-0.00707886,0,
4,0.377348,-0.0210816,-0.173701,-0.00675376,0,
4,0.357066,-0.0336496,-0.173574,-0.00643968,0,
4,0.336828,-0.0457761,-0.173421,-0.00611788,0,
4,0.316717,-0.0574015,-0.173259,-0.00578834,0,
4,0.296825,-0.0684744,-0.173084,-0.00545226,0,
4,0.27725,-0.0789554,-0.172901,-0.00511191,0,
4,0.258095,-0.0888164,-0.172708,-0.00476984,0,
4,0.239458,-0.0980406,-0.172509,-0.00442875,0,
4,0.221432,-0.106622,-0.172305,-0.00409134,0,
4,0.2041,-0.114564,-0.172097,-0.0037602,0,
4,0.187537,-0.12188,-0.171888,-0.00343771,0,
4,0.171798,-0.128588,-0.171678,-0.00312596,0,
4,0.156928,-0.134713,-0.17147,-0.00282674,0,
4,0.142956,-0.140283,-0.171266,-0.00254147,0,
4,0.129894,-0.145329,-0.171067,-0.0022712,0,
4,0.117744,-0.149883,-0.170875,-0.00201664,0,
4,0.106492,-0.153977,-0.170692,-0.00177818,0,
4,0.0961173,-0.15764,-0.170518,-0.00155592,0,
4,0.0865883,-0.160903,-0.170356,-0.00134969,0,
4,0.0778675,-0.163792,-0.170205,-0.00115913,0,
4,0.0699123,-0.166332,-0.170066,-0.000983702,0,
4,0.062677,-0.168545,-0.169939,-0.000822753,0,
4,0.056114,-0.17045,-0.169823,-0.000675535,0,
4,0.0501747,-0.172063,-0.16972,-0.000541245,0,
4,0.0448114,-0.173397,-0.169628,-0.000419054,0,
4,0.039977,-0.174462,-0.169546,-0.000308133,0,
4,0.0356266,-0.175263,-0.169474,-0.000207673,0,
4,0.0317171,-0.175802,-0.169411,-0.000116908,0,
4,0.0282081,-0.176075,-0.169356,-3.51309e-05,0,
4,0.0250617,-0.176071,-0.169309,3.82824e-05,0,
4,0.0222427,-0.175773,-0.169269,0.000103848,0,
4,0.0197189,-0.175152,-0.169235,0.000161935,0,
4,0.0174603,-0.174164,-0.169206,0.00021271,0,
4,0.0154398,-0.172748,-0.169182,0.00025604,0,
4,0.0136326,-0.170813,-0.169163,0.000291349,0,
4,0.0120162,-0.168231,-0.169147,0.000317399,0,
4,0.0105703,-0.164821,-0.169135,0.000332008,0,
4,0.00927657,-0.160335,-0.169125,0.000331886,0,
4,0.00811839,-0.154461,-0.169118,0.000313101,0,
4,0.0070809,-0.146863,-0.169114,0.000273115,0,
4,0.0061507,-0.137304,-0.169111,0.00021461,0,
4,0.00531578,-0.125835,-0.169109,0.000148165,0,
4,0.00456537,-0.112915,-0.169108,8.85439e-05,0,
4,0.00388979,-0.099281,-0.169108,4.57854e-05,0,
4,0.00328037,-0.0856455,-0.169107,2.06617e-05,0,
4,0.00272934,-0.0724865,-0.169107,8.18238e-06,0,
4,0.0022297,-0.0600344,-0.169106,2.81988e-06,0,
4,0.00177519,-0.0483554,-0.169107,8.20069e-07,0,
4,0.00136016,-0.0374309,-0.169106,1.88543e-07,0,
4,0.000979511,-0.0272051,-0.169107,3.0155e-08,0,
4,0.00062865,-0.0176079,-0.169106,2.56988e-09,0,
4,0.000303409,-0.0085653,-0.169107,6.25558e-11,0,

6,0,0,-0.0255119,0,0,
6,9,0,-0.0763753,0,0,
6,8.99969,0.0135424,-0.076375,1.87855e-10,0,
6,8.99934,0.0288141,-0.0763752,8.67002e-09,0,
6,8.99895,0.0460533,-0.076375,1.17547e-07,0,
6,8.9985,0.0655118,-0.0763751,8.47127e-07,0,
6,8.99801,0.0874483,-0.0763749,4.18173e-06,0,
6,8.99744,0.112063,-0.076375,1.58163e-05,0,
6,8.99681,0.139325,-0.0763748,4.77895e-05,0,
6,8.99609,0.168707,-0.0763749,0.000116117,0,
6,8.99529,0.199052,-0.0763747,0.000227422,0,
6,8.99438,0.228926,-0.0763747,0.000367039,0,
6,8.99336,0.257231,-0.0763744,0.000509369,0,
6,8.9922,0.283473,-0.0763742,0.000637085,0,
6,8.9909,0.307656,-0.0763738,0.000740426,0,
6,8.98944,0.329938,-0.0763734,0.00082735,0,
6,8.98779,0.350493,-0.0763728,0.000900443,0,
6,8.98593,0.369567,-0.0763722,0.000958339,0,
6,8.98383,0.387421,-0.0763713,0.00100581,0,
6,8.98147,0.404261,-0.0763703,0.00104602,0,
6,8.97881,0.420254,-0.0763691,0.00108044,0,
6,8.97581,0.435538,-0.0763677,0.0011104,0,
6,8.97244,0.450233,-0.076366,0.0011369,0,
6,8.96863,0.464439,-0.0763639,0.00116071,0,
6,8.96435,0.478242,-0.0763616,0.00118236,0,
6,8.95953,0.491716,-0.0763588,0.00120226,0,
6,8.95409,0.504925,-0.0763555,0.00122069,0,
6,8.94798,0.517925,-0.0763518,0.00123783,0,
6,8.94109,0.530765,-0.0763475,0.00125375,0,
6,8.93334,0.543488,-0.0763425,0.00126848,0,
6,8.92463,0.556131,-0.0763368,0.00128197,0,
6,8.91482,0.568728,-0.0763304,0.00129411,0,
6,8.90379,0.581307,-0.076323,0.00130475,0,
6,8.89139,0.593892,-0.0763149,0.0013137,0,
6,8.87746,0.606504,-0.0763057,0.00132073,0,
6,8.86181,0.619159,-0.0762956,0.00132559,0,
6,8.84423,0.631873,-0.0762845,0.00132801,0,
6,8.82452,0.644655,-0.0762724,0.00132773,0,
6,8.80241,0.657515,-0.0762592,0.00132446,0,
6,8.77763,0.670461,-0.0762451,0.00131795,0,
6,8.74989,0.683499,-0.0762299,0.00130796,0,
6,8.71885,0.69664,-0.0762138,0.00129425,0,
6,8.68417,0.709895,-0.076197,0.00127659,0,
6,8.64545,0.723278,-0.0761795,0.00125472,0,
6,8.60229,0.736812,-0.0761616,0.00122836,0,
6,8.55423,0.750527,-0.0761438,0.00119718,0,
6,8.50082,0.764464,-0.0761259,0.00116128,0,
6,8.44155,0.778688,-0.0761097,0.00112081,0,
6,8.37592,0.793327,-0.0760959,0.00107321,0,
6,8.30339,0.808581,-0.0760851,0.00101724,0,
6,8.22344,0.824713,-0.0760772,0.000949981,0,
6,8.13555,0.842024,-0.0760734,0.000867679,0,
6,8.0392,0.860762,-0.0760694,0.0007669,0,
6,7.93391,0.880918,-0.0760657,0.00064742,0,
6,7.81927,0.901902,-0.0760509,0.000515837,0,
6,7.6949,0.922332,-0.0760323,0.000387248,0,
6,7.56054,0.940372,-0.0759985,0.00027138,0,
6,7.41603,0.954412,-0.0759561,0.000139727,0,
6,7.26132,0.963475,-0.0759124,5.54536e-05,0,
6,7.09653,0.967818,-0.0758537,1.41861e-05,0,
6,6.92195,0.968903,-0.0757821,8.29882e-07,0,
6,6.73802,0.968484,-0.0756902,-9.48708e-07,0,
6,6.5454,0.967797,-0.0755758,-4.371e-07,0,
6,6.34489,0.967339,-0.0754358,-1.16079e-07,0,
6,6.1375,0.967126,-0.0752675,-2.86929e-08,0,
6,5.92439,0.967022,-0.0750674,-1.03737e-08,0,
6,5.70687,0.966917,-0.0748314,-6.04996e-09,0,
6,5.48633,0.966769,-0.0745549,-4.87348e-09,0,
6,5.26426,0.966575,-0.0742332,-4.76622e-09,0,
6,5.04218,0.966344,-0.0738612,-5.06999e-09,0,
6,4.82159,0.966089,-0.0734344,-5.51299e-09,0,
6,4.60398,0.965822,-0.0729484,-6.05404e-09,0,
6,4.39071,0.965541,-0.0723997,-6.87608e-09,0,
6,4.18307,0.965214,-0.0717856,-8.32369e-09,0,
6,3.98218,0.964779,-0.0711049,-1.06131e-08,0,
6,3.78902,0.964177,-0.0703577,-1.33807e-08,0,
6,3.60438,0.963436,-0.0695462,-1.71885e-08,0,
6,3.42888,0.96273,-0.0686741,-3.52668e-08,0,
6,3.26296,0.962353,-0.0677464,-8.32385e-08,0,
6,3.10691,0.962545,-0.0667683,-4.44188e-08,0,
6,2.96084,0.963272,-0.0657457,2.74935e-07,0,
6,2.82473,0.964135,-0.0646869,7.51686e-08,0,
6,2.69844,0.964499,-0.0636028,-3.69863e-06,0,
6,2.58172,0.963747,-0.062507,-1.55942e-05,0,
6,2.47424,0.961487,-0.0614138,-3.93196e-05,0,
6,2.37559,0.957624,-0.0603367,-7.61953e-05,0,
6,2.28535,0.952312,-0.0592881,-0.000125096,0,
6,2.20301,0.94586,-0.0582781,-0.000183153,0,
6,2.1281,0.938628,-0.0573149,-0.000246604,0,
6,2.06009,0.930973,-0.0564043,-0.000311458,0,
6,1.99849,0.923208,-0.0555492,-0.000373813,0,
6,1.9428,0.915594,-0.0547533,-0.000430558,0,
6,1.89255,0.908321,-0.0540119,-0.000481348,0,
6,1.84728,0.901468,-0.0533326,-0.000521312,0,
6,1.80655,0.895029,-0.0527146,-0.000551534,0,
6,1.76996,0.889015,-0.0521436,-0.000579276,0,
6,1.73712,0.883444,-0.0516243,-0.000604671,0,
6,1.70768,0.87829,-0.0511487,-0.000628173,0,
6,1.67998,0.873322,-0.0506972,-0.000650936,0,
6,1.65329,0.868444,-0.0502554,-0.000673163,0,
6,1.62754,0.863653,-0.0498238,-0.000694814,0,
6,1.60265,0.858947,-0.0494012,-0.000715941,0,
6,1.57854,0.854325,-0.0489872,-0.000736502,0,
6,1.55515,0.849785,-0.0485811,-0.000756541,0,
6,1.53242,0.845323,-0.0481824,-0.000776081,0,
6,1.5103,0.840933,-0.0477907,-0.000795125,0,
6,1.48874,0.836603,-0.0474057,-0.000813676,0,
6,1.46769,0.832319,-0.0470267,-0.000831837,0,
6,1.44712,0.82807,-0.0466527,-0.000849892,0,
6,1.42698,0.823861,-0.0462818,-0.000868358,0,
6,1.40725,0.819724,-0.0459117,-0.000887731,0,
6,1.38788,0.815706,-0.0455429,-0.000908256,0,
6,1.36886,0.811831,-0.0451754,-0.000928887,0,
6,1.35015,0.808048,-0.0448219,-0.000935936,0,
6,1.33173,0.804284,-0.0444777,-0.000943336,0,
6,1.31357,0.800506,-0.0441317,-0.000953844,0,
6,1.29566,0.7967,-0.04379,-0.000966094,0,
6,1.27797,0.792846,-0.0434498,-0.000981096,0,
6,1.26048,0.788917,-0.043112,-0.00100005,0,
6,1.24318,0.784885,-0.0427758,-0.0010245,0,
6,1.22605,0.780712,-0.0424415,-0.00105628,0,
6,1.20907,0.776354,-0.0421088,-0.00109755,0,
6,1.19223,0.771757,-0.0417776,-0.00115072,0,
6,1.17551,0.766864,-0.0414479,-0.00121837,0,
6,1.1589,0.761609,-0.0411196,-0.00130306,0,
6,1.14238,0.755925,-0.0407927,-0.00140712,0,
6,1.12595,0.74975,-0.0404674,-0.00153231,0,
6,1.10959,0.743029,-0.0401435,-0.00167954,0,
6,1.09329,0.735724,-0.0398216,-0.00184858,0,
6,1.07704,0.727817,-0.039502,-0.00203794,0,
6,1.06081,0.71931,-0.0391847,-0.00224486,0,
6,1.04459,0.710221,-0.03887,-0.00246555,0,
6,1.02836,0.700593,-0.0385581,-0.00269544,0,
6,1.01211,0.690482,-0.0382494,-0.00292945,0,
6,0.99583,0.679951,-0.0379437,-0.00316245,0,
6,0.97951,0.669068,-0.0376422,-0.00338997,0,
6,0.963136,0.657896,-0.0373434,-0.00362333,0,
6,0.946694,0.646399,-0.0370391,-0.00382756,0,
6,0.930172,0.634472,-0.0367317,-0.00403525,0,
6,0.913555,0.622045,-0.0364273,-0.00424947,0,
6,0.896829,0.609065,-0.0361262,-0.00447211,0,
6,0.879979,0.595493,-0.03583,-0.00470461,0,
6,0.862989,0.581305,-0.0355388,-0.00494802,0,
6,0.845842,0.566495,-0.0352533,-0.00520327,0,
6,0.828521,0.551074,-0.0349751,-0.00547099,0,
6,0.811008,0.535055,-0.0347062,-0.00574647,0,
6,0.793282,0.518442,-0.0344479,-0.0060282,0,
6,0.775322,0.501244,-0.034201,-0.00631432,0,
6,0.757107,0.483475,-0.0339662,-0.00660243,0,
6,0.738612,0.465159,-0.0337444,-0.00688957,0,
6,0.719813,0.446334,-0.0335366,-0.00717225,0,
6,0.700681,0.427047,-0.0333436,-0.0074465,0,
6,0.681188,0.407352,-0.0331656,-0.00770802,0,
6,0.661304,0.387305,-0.0330009,-0.00795217,0,
6,0.640996,0.366951,-0.0328459,-0.00817406,0,
6,0.620228,0.346326,-0.0326972,-0.00836836,0,
6,0.598964,0.325476,-0.0325562,-0.00852922,0,
6,0.577166,0.304498,-0.0324366,-0.00865041,0,
6,0.554791,0.283609,-0.0323692,-0.00872705,0,
6,0.531799,0.263178,-0.0324004,-0.00875696,0,
6,0.508144,0.243641,-0.0325504,-0.0087426,0,
6,0.48378,0.225239,-0.0327976,-0.00868514,0,
6,0.459585,0.208305,-0.0327614,-0.00842722,0,
6,0.436695,0.193046,-0.0325316,-0.00811724,0,
6,0.414961,0.179082,-0.0323792,-0.0078403,0,
6,0.394252,0.166236,-0.0322071,-0.00755201,0,
6,0.374445,0.154363,-0.0320421,-0.00726014,0,
6,0.355433,0.143344,-0.0318777,-0.00696431,0,
6,0.337122,0.133078,-0.0317123,-0.00666566,0,
6,0.319433,0.123481,-0.0315442,-0.00636524,0,
6,0.3023,0.114481,-0.0313718,-0.00606386,0,
6,0.28567,0.106017,-0.0311939,-0.00576228,0,
6,0.269507,0.0980433,-0.0310092,-0.00546123,0,
6,0.253785,0.0905192,-0.0308168,-0.00516152,0,
6,0.238493,0.0834135,-0.030616,-0.00486403,0,
6,0.223631,0.0767014,-0.0304064,-0.00456974,0,
6,0.209207,0.0703628,-0.030188,-0.00427973,0,
6,0.195237,0.0643814,-0.0299611,-0.00399516,0,
6,0.181744,0.0587433,-0.0297265,-0.00371723,0,
6,0.168754,0.0534363,-0.0294853,-0.00344713,0,
6,0.156292,0.0484489,-0.0292392,-0.00318601,0,
6,0.144384,0.0437699,-0.0289899,-0.00293493,0,
6,0.133052,0.0393877,-0.0287397,-0.00269482,0,
6,0.122315,0.0352905,-0.0284908,-0.00246646,0,
6,0.112183,0.0314659,-0.0282456,-0.00225042,0,
6,0.102665,0.027901,-0.0280062,-0.00204711,0,
6,0.0937597,0.0245824,-0.0277749,-0.00185673,0,
6,0.0854609,0.0214966,-0.0275533,-0.00167927,0,
6,0.077757,0.01863,-0.0273432,-0.0015146,0,
6,0.0706309,0.0159688,-0.0271455,-0.0013624,0,
6,0.0640611,0.0134997,-0.0269612,-0.00122225,0,
6,0.0580229,0.0112096,-0.0267907,-0.00109362,0,
6,0.0524888,0.00908577,-0.0266341,-0.000975922,0,
6,0.0474296,0.00711612,-0.0264914,-0.000868502,0,
6,0.042815,0.00528909,-0.0263621,-0.000770686,0,
6,0.0386145,0.00359376,-0.0262457,-0.000681793,0,
6,0.0347975,0.00201987,-0.0261416,-0.000601148,0,
6,0.0313344,0.000557815,-0.026049,-0.0005281,0,
6,0.0281964,-0.000801428,-0.0259671,-0.000461978,0,
6,0.0253561,-0.00206637,-0.0258949,-0.00040215,0,
6,0.0227875,-0.00324489,-0.0258318,-0.000348082,0,
6,0.0204662,-0.00434413,-0.0257767,-0.000299225,0,
6,0.0183694,-0.00537061,-0.0257291,-0.000255076,0,
6,0.016476,-0.00633015,-0.0256879,-0.000215178,0,
6,0.0147664,-0.0072277,-0.0256531,-0.000179114,0,
6,0.0132228,-0.00806716,-0.025623,-0.000146513,0,
6,0.0118288,-0.00885087,-0.0255985,-0.000117056,0,
6,0.0105693,-0.0095789,-0.0255774,-9.0495e-05,0,
6,0.00943073,-0.0102477,-0.0255612,-6.66835e-05,0,
6,0.00840063,-0.0108477,-0.0255472,-4.56445e-05,0,
6,0.00746774,-0.0113601,-0.0255378,-2.7658e-05,0,
6,0.00662185,-0.011753,-0.0255295,-1.33133e-05,0,
6,0.00585371,-0.0119797,-0.0255253,-3.32093e-06,0,
6,0.00515491,-0.0119876,-0.0255209,2.08696e-06,0,
6,0.00451788,-0.0117396,-0.0255201,3.7437e-06,0,
6,0.00393573,-0.0112353,-0.0255175,3.27683e-06,0,
6,0.00340221,-0.01051,-0.0255182,2.16547e-06,0,
6,0.00291168,-0.00961416,-0.025516,1.19288e-06,0,
6,0.00245897,-0.0085956,-0.0255174,5.65876e-07,0,
6,0.00203939,-0.00749126,-0.025515,2.31016e-07,0,
6,0.00164864,-0.00632706,-0.025517,7.88765e-08,0,
6,0.00128281,-0.00511995,-0.025514,2.11199e-08,0,
6,0.000938257,-0.00388021,-0.0255168,3.90281e-09,0,
6,0.000611645,-0.00261311,-0.0255131,3.80239e-10,0,
6,0.000299862,-0.00132015,-0.0255168,1.03095e-11,0,

10,0.000296632,0.00815347,0.0304531,-4.50528e-11,0,
10,0.000596102,0.0163819,0.0304538,-1.66964e-09,0,
10,0.000900397,0.0247399,0.0304531,-1.69752e-08,0,
10,0.00121153,0.0332821,0.0304536,-9.12201e-08,0,
10,0.00153158,0.0420638,0.030453,-3.41229e-07,0,
10,0.00186264,0.0511388,0.0304535,-1.01469e-06,0,
10,0.00220692,0.060558,0.0304529,-2.57638e-06,0,
10,0.00256668,0.0703644,0.0304533,-5.82074e-06,0,
10,0.00294431,0.0805863,0.0304528,-1.19887e-05,0,
10,0.00334229,0.0912258,0.0304531,-2.28234e-05,0,
10,0.00376326,0.102246,0.0304527,-4.04441e-05,0,
10,0.00421,0.113556,0.0304528,-6.69056e-05,0,
10,0.00468544,0.125011,0.0304524,-0.000103448,0,
10,0.00519274,0.136418,0.0304524,-0.000149745,0,
10,0.00573524,0.147565,0.0304518,-0.000203659,0,
10,0.00631651,0.158257,0.0304515,-0.000261789,0,
10,0.00694041,0.168345,0.0304505,-0.000320478,0,
10,0.00761104,0.177733,0.0304498,-0.000376709,0,
10,0.00833284,0.186383,0.0304484,-0.000428511,0,
10,0.00911058,0.194299,0.0304469,-0.000474937,0,
10,0.0099494,0.201516,0.0304448,-0.000515824,0,
10,0.0108548,0.208088,0.0304423,-0.000551521,0,
10,0.0118329,0.214076,0.0304391,-0.000582657,0,
10,0.0128901,0.219545,0.0304353,-0.000609982,0,
10,0.0140333,0.224559,0.0304306,-0.000634262,0,
10,0.0152702,0.229175,0.0304252,-0.000656222,0,
10,0.0166089,0.233448,0.0304187,-0.000676519,0,
10,0.0180584,0.237423,0.0304111,-0.000695734,0,
10,0.0196282,0.241144,0.0304023,-0.000714375,0,
10,0.0213288,0.244646,0.0303921,-0.000732889,0,
10,0.0231714,0.247962,0.0303805,-0.000751671,0,
10,0.0251682,0.251119,0.0303672,-0.000771076,0,
10,0.0273326,0.254144,0.030352,-0.000791429,0,
10,0.0296789,0.257056,0.0303349,-0.000813035,0,
10,0.0322227,0.259878,0.0303156,-0.000836188,0,
10,0.0349809,0.262626,0.0302938,-0.000861175,0,
10,0.0379719,0.265316,0.0302695,-0.000888284,0,
10,0.0412155,0.267965,0.0302424,-0.000917807,0,
10,0.0447333,0.270585,0.0302121,-0.000950046,0,
10,0.0485489,0.273192,0.0301785,-0.000985319,0,
10,0.0526875,0.275798,0.0301413,-0.00102396,0,
10,0.0571768,0.278417,0.0301002,-0.00106631,0,
10,0.0620466,0.281061,0.030055,-0.00111276,0,
10,0.0673295,0.283745,0.0300054,-0.00116371,0,
10,0.0730607,0.286483,0.029951,-0.00121958,0,
10,0.0792784,0.289289,0.0298917,-0.00128084,0,
10,0.0860241,0.292179,0.0298272,-0.00134797,0,
10,0.0933428,0.29517,0.0297573,-0.00142151,0,
10,0.101283,0.298281,0.0296817,-0.001502,0,
10,0.109899,0.301532,0.0296004,-0.00159004,0,
10,0.119247,0.304946,0.0295132,-0.00168624,0,
10,0.12939,0.308549,0.02942,-0.00179126,0,
10,0.140395,0.312369,0.0293209,-0.00190577,0,
10,0.152337,0.316439,0.029216,-0.00203043,0,
10,0.165296,0.320795,0.0291053,-0.00216592,0,
10,0.179357,0.325482,0.0289892,-0.00231289,0,
10,0.194615,0.330547,0.0288678,-0.00247193,0,
10,0.211171,0.336048,0.0287416,-0.00264353,0,
10,0.229138,0.34205,0.0286106,-0.00282804,0,
10,0.248635,0.348629,0.0284758,-0.00302557,0,
10,0.269793,0.355874,0.0283362,-0.00323594,0,
10,0.292753,0.363888,0.0281942,-0.00345848,0,
10,0.317669,0.372788,0.0280453,-0.00369058,0,
10,0.344708,0.382705,0.0278953,-0.0039282,0,
10,0.372405,0.39317,0.0277488,-0.00416067,0,
10,0.399623,0.403774,0.0276076,-0.00437667,0,
10,0.426397,0.414516,0.0274727,-0.00457238,0,
10,0.452757,0.425396,0.0273417,-0.00474984,0,
10,0.478735,0.436417,0.0272165,-0.00490639,0,
10,0.504358,0.447594,0.0270969,-0.00504038,0,
10,0.529657,0.458942,0.0269832,-0.00515192,0,
10,0.554656,0.470472,0.0268692,-0.00524094,0,
10,0.579382,0.482191,0.0267619,-0.00530683,0,
10,0.603859,0.4941,0.0266415,-0.00535885,0,
10,0.628112,0.506247,0.0265481,-0.00542231,0,
10,0.652163,0.518924,0.0265267,-0.00534198,0,
10,0.676035,0.532446,0.0265078,-0.00523245,0,
10,0.699751,0.546765,0.0264494,-0.0050933,0,
10,0.72333,0.56162,0.0263532,-0.00492507,0,
10,0.746795,0.5767,0.0262258,-0.00473082,0,
10,0.770165,0.59175,0.0260787,-0.00451507,0,
10,0.79346,0.606606,0.025918,-0.00428282,0,
10,0.816699,0.62116,0.0257472,-0.00403896,0,
10,0.839903,0.635327,0.0255657,-0.00378865,0,
10,0.863088,0.649,0.0253718,-0.00354396,0,
10,0.886275,0.662078,0.025166,-0.00330704,0,
10,0.909481,0.674507,0.0249511,-0.0030785,0,
10,0.932723,0.686285,0.024729,-0.002859,0,
10,0.956021,0.697441,0.0245003,-0.00264928,0,
10,0.97939,0.708013,0.0242649,-0.00245002,0,
10,1.00285,0.718029,0.0240227,-0.00226179,0,
10,1.02641,0.727514,0.0237733,-0.0020851,0,
10,1.0501,0.736489,0.0235172,-0.00192029,0,
10,1.07392,0.744977,0.0232542,-0.00176749,0,
10,1.0979,0.753015,0.0229862,-0.00162175,0,
10,1.12205,0.760623,0.0227111,-0.00148971,0,
10,1.14639,0.767802,0.0224271,-0.00137092,0,
10,1.17093,0.77456,0.0221354,-0.00126586,0,
10,1.19568,0.780923,0.0218357,-0.00117485,0,
10,1.22066,0.78693,0.0215286,-0.00109747,0,
10,1.24589,0.792627,0.0212146,-0.00103267,0,
10,1.27137,0.798068,0.0208934,-0.00097918,0,
10,1.29713,0.803306,0.0205667,-0.000941457,0,
10,1.32317,0.808461,0.0202353,-0.00089664,0,
10,1.34951,0.813665,0.019898,-0.000854383,0,
10,1.37616,0.818942,0.019555,-0.00081528,0,
10,1.40313,0.824238,0.0192041,-0.00077931,0,
10,1.43043,0.829484,0.0188452,-0.000746104,0,
10,1.45807,0.834644,0.0184781,-0.000714971,0,
10,1.48607,0.839722,0.0181037,-0.00068522,0,
10,1.51444,0.844744,0.0177222,-0.000656402,0,
10,1.54318,0.849722,0.0173334,-0.000628353,0,
10,1.57231,0.85465,0.016937,-0.000601056,0,
10,1.60184,0.859508,0.016533,-0.00057453,0,
10,1.63178,0.864268,0.0161209,-0.000548789,0,
10,1.66213,0.868905,0.0157015,-0.000523851,0,
10,1.69292,0.8734,0.0152739,-0.000499683,0,
10,1.72416,0.877746,0.0148399,-0.000476083,0,
10,1.75585,0.881969,0.0143963,-0.00045039,0,
10,1.78802,0.886121,0.0139438,-0.000421701,0,
10,1.82067,0.890226,0.0134847,-0.000393847,0,
10,1.85383,0.894268,0.0130167,-0.000364955,0,
10,1.88751,0.898224,0.0125404,-0.000335104,0,
10,1.92173,0.902071,0.0120557,-0.000304638,0,
10,1.95652,0.905783,0.011562,-0.000273976,0,
10,1.9919,0.909337,0.01106,-0.000243599,0,
10,2.02791,0.912707,0.0105482,-0.00021406,0,
10,2.06456,0.915876,0.0100288,-0.0001856,0,
10,2.10268,0.918881,0.00948685,-0.000157811,0,
10,2.1443,0.921812,0.00889829,-0.00013107,0,
10,2.18977,0.924617,0.00825596,-0.000105518,0,
10,2.23946,0.927214,0.00755811,-8.14676e-05,0,
10,2.29376,0.92952,0.00679921,-5.97501e-05,0,
10,2.35309,0.931452,0.00597701,-4.10617e-05,0,
10,2.4179,0.932939,0.00508752,-2.59281e-05,0,
10,2.48863,0.933935,0.00412913,-1.46361e-05,0,
10,2.56575,0.934437,0.00309974,-7.11779e-06,0,
10,2.64971,0.934498,0.00199919,-2.88931e-06,0,
10,2.74098,0.934236,0.000827547,-1.09164e-06,0,
10,2.83997,0.933828,-0.000413602,-6.80926e-07,0,
10,2.94709,0.933481,-0.00172222,-7.36376e-07,0,
10,3.06269,0.93338,-0.00309505,-7.26855e-07,0,
10,3.18706,0.933638,-0.00452807,-5.46693e-07,0,
10,3.3204,0.934263,-0.00601576,-3.15489e-07,0,
10,3.46281,0.93516,-0.00755098,-1.46878e-07,0,
10,3.61427,0.936186,-0.00912452,-6.28722e-08,0,
10,3.77463,0.937202,-0.0107252,-3.20871e-08,0,
10,3.94358,0.938124,-0.0123403,-2.27513e-08,0,
10,4.12067,0.938938,-0.0139561,-1.96034e-08,0,
10,4.30525,0.939675,-0.0155585,-1.81797e-08,0,
10,4.49655,0.940379,-0.0171335,-1.76385e-08,0,
10,4.6936,0.94108,-0.018668,-1.79544e-08,0,
10,4.89531,0.941778,-0.0201499,-1.9619e-08,0,
10,5.10047,0.942462,-0.0215683,-2.40854e-08,0,
10,5.30776,0.943109,-0.0229143,-3.45971e-08,0,
10,5.51581,0.943703,-0.0241806,-5.78665e-08,0,
10,5.72323,0.944242,-0.0253621,-1.08305e-07,0,
10,5.92863,0.944749,-0.0264557,-2.2109e-07,0,
10,6.13069,0.945291,-0.0274601,-4.88743e-07,0,
10,6.32816,0.945964,-0.0283762,-1.10549e-06,0,
10,6.51991,0.9468,-0.0292062,-2.15554e-06,0,
10,6.70495,0.947571,-0.0299539,-2.34317e-06,0,
10,6.88244,0.947565,-0.030623,3.66632e-06,0,
10,7.0517,0.945557,-0.0312177,2.67593e-05,0,
10,7.21224,0.940159,-0.0317387,8.02504e-05,0,
10,7.3637,0.930483,-0.0321916,0.000173367,0,
10,7.5059,0.916569,-0.0325807,0.000296988,0,
10,7.63878,0.899006,-0.0329103,0.000404676,0,
10,7.76243,0.878898,-0.0331899,0.000523748,0,
10,7.87701,0.85801,-0.0334141,0.00064543,0,
10,7.9828,0.837803,-0.0335996,0.00075588,0,
10,8.08014,0.818988,-0.0337483,0.000850039,0,
10,8.16941,0.801651,-0.0338715,0.000928384,0,
10,8.25106,0.785545,-0.0339732,0.00099407,0,
10,8.32554,0.770344,-0.0340596,0.00105033,0,
10,8.39331,0.755767,-0.0341329,0.00109943,0,
10,8.45484,0.741616,-0.0341959,0.00114265,0,
10,8.5106,0.72777,-0.0342497,0.00118061,0,
10,8.56104,0.714168,-0.034296,0.00121355,0,
10,8.60659,0.700792,-0.0343355,0.00124157,0,
10,8.64767,0.687649,-0.0343699,0.00126477,0,
10,8.68467,0.674743,-0.0343996,0.0012831,0,
10,8.71795,0.66205,-0.0344255,0.00129312,0,
10,8.74786,0.649542,-0.0344479,0.00129964,0,
10,8.77471,0.637216,-0.0344672,0.00130188,0,
10,8.79881,0.625067,-0.0344839,0.00130027,0,
10,8.8204,0.613089,-0.0344982,0.00129534,0,
10,8.83975,0.601271,-0.0345105,0.00128757,0,
10,8.85708,0.589599,-0.0345211,0.00127747,0,
10,8.87259,0.578057,-0.0345302,0.00126546,0,
10,8.88646,0.566622,-0.034538,0.00125196,0,
10,8.89886,0.555272,-0.0345445,0.0012373,0,
10,8.90995,0.543979,-0.03455,0.00122179,0,
10,8.91986,0.532712,-0.0345547,0.00120562,0,
10,8.92872,0.52144,-0.0345586,0.00118898,0,
10,8.93663,0.510126,-0.0345618,0.00117195,0,
10,8.94369,0.498731,-0.0345646,0.00115456,0,
10,8.95,0.487215,-0.0345668,0.00113678,0,
10,8.95564,0.47553,-0.0345687,0.00111853,0,
10,8.96067,0.463629,-0.0345702,0.00109965,0,
10,8.96517,0.451456,-0.0345715,0.00107988,0,
10,8.96918,0.438949,-0.0345725,0.00105891,0,
10,8.97276,0.42604,-0.0345735,0.0010363,0,
10,8.97596,0.412648,-0.034574,0.0010115,0,
10,8.97882,0.398681,-0.0345748,0.00098377,0,
10,8.98137,0.384031,-0.0345751,0.000952186,0,
10,8.98365,0.368571,-0.0345757,0.000915536,0,
10,8.98569,0.35215,-0.0345757,0.000872408,0,
10,8.9875,0.334587,-0.0345763,0.000820616,0,
10,8.98913,0.315648,-0.0345762,0.000755114,0,
10,8.99058,0.295101,-0.0345767,0.000677727,0,
10,8.99188,0.272785,-0.0345764,0.000586065,0,
10,8.99304,0.248538,-0.0345769,0.000473326,0,
10,8.99408,0.222319,-0.0345766,0.000347122,0,
10,8.99501,0.194499,-0.0345771,0.000221136,0,
10,8.99583,0.16598,-0.0345766,0.000117217,0,
10,8.99658,0.138027,-0.0345772,5.03363e-05,0,
10,8.99724,0.111757,-0.0345766,1.73711e-05,0,
10,8.99784,0.0877571,-0.0345773,4.77178e-06,0,
10,8.99837,0.0661375,-0.0345766,1.00067e-06,0,
10,8.99885,0.0467636,-0.0345774,1.43343e-07,0,
10,8.99927,0.0294241,-0.0345766,1.08822e-08,0,
10,8.99966,0.0139043,-0.0345776,2.40764e-10,0,
10,0,0,0.030454,0,0,
10,9,0,-0.0345765,0,0,

0.004,0,0,-0.223669,0,-7.91109e-08,
0.00868226,0,0,-0.223666,0,-1.6869e-07,
0.014062,0,0,-0.223668,0,-2.79573e-07,
0.0201548,0,0,-0.223667,0,-6.69258e-07,
0.0269766,0,0,-0.223668,0,-1.15056e-06,
0.0345437,0,0,-0.223667,0,-1.77778e-06,
0.0428729,0,0,-0.223667,0,-2.39383e-06,
0.051981,0,0,-0.223665,0,-2.93038e-06,
0.0618853,0,0,-0.223663,0,-3.21097e-06,
0.0726036,0,0,-0.22366,0,-3.08105e-06,
0.0841536,0,0,-0.223656,0,-2.34418e-06,
0.0965535,0,0,-0.223652,0,-8.35776e-07,
0.109822,0,0,-0.223648,0,1.56508e-06,
0.123977,0,0,-0.223646,0,4.88804e-06,
0.139037,0,0,-0.223646,0,9.0481e-06,
0.155022,0,0,-0.22365,0,1.38479e-05,
0.171949,0,0,-0.223658,0,1.89926e-05,
0.189839,0,0,-0.223671,0,2.41411e-05,
0.208709,0,0,-0.223688,0,2.89452e-05,
0.228579,0,0,-0.223711,0,3.31034e-05,
0.249467,0,0,-0.223736,0,3.63844e-05,
0.271391,0,0,-0.223764,0,3.86528e-05,
0.29437,0,0,-0.223793,0,3.98672e-05,
0.31842,0,0,-0.223821,0,4.0081e-05,
0.343559,0,0,-0.223847,0,3.94259e-05,
0.369804,0,0,-0.223871,0,3.80977e-05,
0.39717,0,0,-0.223893,0,3.63357e-05,
0.425672,0,0,-0.223911,0,3.44047e-05,
0.455324,0,0,-0.223927,0,3.25775e-05,
0.48614,0,0,-0.223941,0,3.11192e-05,
0.518132,0,0,-0.223954,0,3.02813e-05,
0.551309,0,0,-0.223968,0,3.02768e-05,
0.585683,0,0,-0.223985,0,3.12345e-05,
0.621259,0,0,-0.224007,0,3.319e-05,
0.658046,0,0,-0.224037,0,3.6098e-05,
0.696047,0,0,-0.224078,0,3.98515e-05,
0.735265,0,0,-0.224132,0,4.43077e-05,
0.7757,0,0,-0.224204,0,4.9316e-05,
0.817352,0,0,-0.224296,0,5.47271e-05,
0.860215,0,0,-0.224414,0,6.03848e-05,
0.904285,0,0,-0.224563,0,6.60418e-05,
0.949552,0,0,-0.224754,0,7.12226e-05,
0.996004,0,0,-0.224998,0,7.51587e-05,
1.04363,0,0,-0.225311,0,7.66918e-05,
1.09241,0,0,-0.225716,0,7.41982e-05,
1.14232,0,0,-0.226231,0,6.57414e-05,
1.19335,0,0,-0.226874,0,4.94236e-05,
1.24546,0,0,-0.227652,0,2.38555e-05,
1.29863,0,0,-0.228559,0,-1.13785e-05,
1.35283,0,0,-0.229575,0,-5.5497e-05,
1.40802,0,0,-0.230671,0,-0.000106717,
1.46416,0,0,-0.231817,0,-0.00016279,
1.52121,0,0,-0.232981,0,-0.00022161,
1.57913,0,0,-0.234138,0,-0.000281611,
1.63787,0,0,-0.235266,0,-0.000341866,
1.69739,0,0,-0.236347,0,-0.000401954,
1.75761,0,0,-0.237366,0,-0.000461745,
1.81851,0,0,-0.23831,0,-0.000521229,
1.88,0,0,-0.239166,0,-0.000580409,
1.94204,0,0,-0.239923,0,-0.000639265,
2.00457,0,0,-0.240569,0,-0.000697753,
2.06751,0,0,-0.241094,0,-0.000755808,
2.13081,0,0,-0.241487,0,-0.000813353,
2.19439,0,0,-0.24174,0,-0.000870305,
2.25819,0,0,-0.241843,0,-0.000926577,
2.32214,0,0,-0.241788,0,-0.000982072,
2.38617,0,0,-0.241566,0,-0.00103668,
2.4502,0,0,-0.241171,0,-0.0010903,
2.51418,0,0,-0.240594,0,-0.00114277,
2.57803,0,0,-0.239832,0,-0.00119396,
2.64167,0,0,-0.238878,0,-0.0012437,
2.70505,0,0,-0.23773,0,-0.00129183,
2.76808,0,0,-0.236385,0,-0.00133814,
2.83072,0,0,-0.234843,0,-0.00138247,
2.89288,0,0,-0.233105,0,-0.00142461,
2.95451,0,0,-0.231173,0,-0.00146438,
3.01555,0,0,-0.229052,0,-0.00150158,
3.07594,0,0,-0.226747,0,-0.00153603,
3.13561,0,0,-0.224268,0,-0.00156758,
3.19453,0,0,-0.221625,0,-0.00159608,
3.25262,0,0,-0.21883,0,-0.00162145,
3.30985,0,0,-0.215896,0,-0.00164363,
3.36617,0,0,-0.212839,0,-0.00166261,
3.42154,0,0,-0.209675,0,-0.00167845,
3.47591,0,0,-0.206421,0,-0.00169122,
3.52925,0,0,-0.203092,0,-0.00170101,
3.58152,0,0,-0.199707,0,-0.00170799,
3.6327,0,0,-0.196281,0,-0.00171229,
3.68276,0,0,-0.192829,0,-0.00171411,
3.73167,0,0,-0.189368,0,-0.00171363,
3.77941,0,0,-0.185911,0,-0.00171103,
3.82596,0,0,-0.182471,0,-0.00170652,
3.8713,0,0,-0.179061,0,-0.00170028,
3.91543,0,0,-0.175687,0,-0.00169238,
3.95833,0,0,-0.172377,0,-0.00168333,
4,0,0,-0.169106,0,-0.00167305,
4.04167,0,0,-0.16581,0,-0.00166125,
4.08333,0,0,-0.162486,0,-0.00164818,
4.125,0,0,-0.159137,0,-0.00163383,
4.16667,0,0,-0.155767,0,-0.00161823,
4.20833,0,0,-0.152379,0,-0.00160143,
4.25,0,0,-0.148978,0,-0.00158347,
4.29167,0,0,-0.145566,0,-0.00156439,
4.33333,0,0,-0.142148,0,-0.00154424,
4.375,0,0,-0.138726,0,-0.00152306,
4.41667,0,0,-0.135303,0,-0.0015009,
4.45833,0,0,-0.131883,0,-0.00147779,
4.5,0,0,-0.128468,0,-0.00145377,
4.54167,0,0,-0.125061,0,-0.00142889,
4.58333,0,0,-0.121666,0,-0.00140317,
4.625,0,0,-0.118284,0,-0.00137666,
4.66667,0,0,-0.114918,0,-0.0013494,
4.70833,0,0,-0.11157,0,-0.00132141,
4.75,0,0,-0.108243,0,-0.00129273,
4.79167,0,0,-0.104939,0,-0.0012634,
4.83333,0,0,-0.10166,0,-0.00123345,
4.875,0,0,-0.0984073,0,-0.00120291,
4.91667,0,0,-0.0951838,0,-0.00117182,
4.95833,0,0,-0.0919908,0,-0.00114021,
5,0,0,-0.0888301,0,-0.00110811,
5.04167,0,0,-0.0857032,0,-0.00107556,
5.08333,0,0,-0.0826116,0,-0.00104258,
5.125,0,0,-0.0795566,0,-0.0010092,
5.16667,0,0,-0.0765397,0,-0.000975448,
5.20833,0,0,-0.0735619,0,-0.000941359,
5.25,0,0,-0.0706244,0,-0.000906954,
5.29167,0,0,-0.0677282,0,-0.000872259,
5.33333,0,0,-0.0648744,0,-0.000837296,
5.375,0,0,-0.0620637,0,-0.000802091,
5.41667,0,0,-0.0592971,0,-0.000766668,
5.45833,0,0,-0.0565754,0,-0.00073105,
5.5,0,0,-0.0538992,0,-0.000695262,
5.54167,0,0,-0.0512692,0,-0.00065933,
5.58333,0,0,-0.048686,0,-0.000623279,
5.625,0,0,-0.0461501,0,-0.000587135,
5.66667,0,0,-0.0436619,0,-0.000550921,
5.70833,0,0,-0.0412217,0,-0.000514659,
5.75,0,0,-0.03883,0,-0.000478368,
5.79167,0,0,-0.0364869,0,-0.000442067,
5.83333,0,0,-0.0341927,0,-0.000405771,
5.875,0,0,-0.0319478,0,-0.000369494,
5.91667,0,0,-0.0297524,0,-0.000333249,
5.95833,0,0,-0.027607,0,-0.000297051,
6,0,0,-0.0255122,0,-0.000260926,
6.04167,0,0,-0.0234684,0,-0.000224915,
6.08333,0,0,-0.0214764,0,-0.000189083,
6.125,0,0,-0.0195365,0,-0.000153516,
6.16667,0,0,-0.0176487,0,-0.0001183,
6.20833,0,0,-0.0158121,0,-8.34896e-05,
6.25,0,0,-0.0140257,0,-4.91006e-05,
6.29167,0,0,-0.0122885,0,-1.51264e-05,
6.33333,0,0,-0.0105995,0,1.84456e-05,
6.375,0,0,-0.00895767,0,5.16249e-05,
6.41667,0,0,-0.00736228,0,8.44169e-05,
6.45833,0,0,-0.00581245,0,0.000116824,
6.5,0,0,-0.00430735,0,0.000148848,
6.54167,0,0,-0.00284618,0,0.000180488,
6.58333,0,0,-0.00142815,0,0.000211746,
6.625,0,0,-5.24811e-05,0,0.00024262,
6.66667,0,0,0.00128161,0,0.000273113,
6.70833,0,0,0.00257488,0,0.000303222,
6.75,0,0,0.0038281,0,0.000332947,
6.79167,0,0,0.00504202,0,0.000362287,
6.83333,0,0,0.00621741,0,0.000391242,
6.875,0,0,0.00735502,0,0.000419811,
6.91667,0,0,0.00845559,0,0.000447994,
6.95833,0,0,0.00951988,0,0.000475791,
7,0,0,0.0105486,0,0.000503202,
7.04167,0,0,0.0115426,0,0.000530226,
7.08333,0,0,0.0125025,0,0.000556865,
7.125,0,0,0.013429,0,0.000583117,
7.16667,0,0,0.0143229,0,0.000608984,
7.20833,0,0,0.015185,0,0.000634466,
7.25,0,0,0.0160159,0,0.000659565,
7.29167,0,0,0.0168164,0,0.000684282,
7.33333,0,0,0.017587,0,0.000708618,
7.375,0,0,0.0183287,0,0.000732576,
7.41667,0,0,0.0190419,0,0.00075616,
7.45833,0,0,0.0197275,0,0.000779372,
7.5,0,0,0.0203859,0,0.000802216,
7.54167,0,0,0.0210179,0,0.0008247,
7.58333,0,0,0.0216242,0,0.000846832,
7.625,0,0,0.0222053,0,0.000868626,
7.66667,0,0,0.022762,0,0.000890097,
7.70833,0,0,0.0232946,0,0.000911253,
7.75,0,0,0.0238036,0,0.000932099,
7.79167,0,0,0.0242896,0,0.000952636,
7.83333,0,0,0.0247525,0,0.000972854,
7.875,0,0,0.0251923,0,0.000992803,
7.91667,0,0,0.0256198,0,0.00101301,
7.95833,0,0,0.0259691,0,0.00103204,
8,0,0,0.0263954,0,0.00105094,
8.04171,0,0,0.0268368,0,0.00107085,
8.08368,0,0,0.0271478,0,0.00109052,
8.12617,0,0,0.027496,0,0.00110851,
8.16946,0,0,0.0278261,0,0.00112657,
8.21382,0,0,0.0281391,0,0.00114465,
8.25952,0,0,0.0284424,0,0.00116278,
8.30685,0,0,0.0287356,0,0.00118113,
8.35611,0,0,0.0290191,0,0.00119979,
8.40762,0,0,0.0292931,0,0.00121885,
8.46168,0,0,0.0295572,0,0.00123837,
8.51865,0,0,0.0298104,0,0.00125842,
8.57889,0,0,0.0300515,0,0.00127905,
8.64276,0,0,0.0302788,0,0.00130029,
8.71067,0,0,0.0304901,0,0.00132218,
8.78306,0,0,0.0306828,0,0.00134476,
8.86037,0,0,0.0308538,0,0.00136803,
8.94309,0,0,0.0309996,0,0.001392,
9.03174,0,0,0.0311161,0,0.00141667,
9.12689,0,0,0.0311988,0,0.00144202,
9.22912,0,0,0.031243,0,0.00146803,
9.33908,0,0,0.0312434,0,0.00149465,
9.45746,0,0,0.0311946,0,0.00152183,
9.58501,0,0,0.0310911,0,0.0015495,
9.72253,0,0,0.0309271,0,0.00157759,
9.87088,0,0,0.030697,0,0.00160598,
10.031,0,0,0.0303957,0,0.00163458,
10.2039,0,0,0.0300187,0,0.00166327,
10.3906,0,0,0.0295618,0,0.00169192,
10.5924,0,0,0.0290222,0,0.00172038,
10.8105,0,0,0.028399,0,0.00174854,
11.0463,0,0,0.0276917,0,0.00177626,
11.3012,0,0,0.0269015,0,0.00180341,
11.5769,0,0,0.0260326,0,0.00182989,
11.8751,0,0,0.0250899,0,0.00185557,
12.1977,0,0,0.0240817,0,0.00188038,
12.5466,0,0,0.0230172,0,0.00190423,
12.9242,0,0,0.0219077,0,0.00192708,
13.3327,0,0,0.0207667,0,0.0019489,
13.7748,0,0,0.0196081,0,0.00196968,
14.2532,0,0,0.0184473,0,0.00198943,
14.7709,0,0,0.0172995,0,0.00200816,
15.3312,0,0,0.0161797,0,0.00202595,
15.9377,0,0,0.0151019,0,0.00204284,
16.594,0,0,0.0140785,0,0.00205891,
17.3044,0,0,0.0131195,0,0.00207426,
18.0733,0,0,0.0122317,0,0.00208893,
18.9056,0,0,0.0114195,0,0.00210284,
19.8064,0,0,0.0106834,0,0.00211597,
20.7816,0,0,0.010021,0,0.00212852,
21.8371,0,0,0.00942532,0,0.00214083,
22.9796,0,0,0.00888591,0,0.00215313,
24.2163,0,0,0.00838986,0,0.00216553,
25.5551,0,0,0.00792186,0,0.00217801,
27.0042,0,0,0.00746512,0,0.00219073,
28.5729,0,0,0.00700151,0,0.00220375,
30.271,0,0,0.00651247,0,0.00221709,
32.1091,0,0,0.0059804,0,0.00223068,
34.0989,0,0,0.00538958,0,0.00224446,
36.2529,0,0,0.00472187,0,0.00225835,
38.5845,0,0,0.0039685,0,0.00227226,
41.1085,0,0,0.00316566,0,0.00228601,
43.8407,0,0,0.00215885,0,0.0022974,
46.7983,0,0,0.00111128,0,0.00230434,
50,0,0,0.00205514,0,0.00232069,

