09a003a3e33051ba3fee9f98e7ec5d0f2df1f0bc 
X,Z,x_velocity,cp,uw_b,cf,
1,0,0,-0.219027,0,0,
1,9,0,-0.136553,0,0,
1,8.99969,0.0156403,-0.136553,2.99878e-10,0,
1,8.99934,0.0333821,-0.136553,1.4015e-08,0,
1,8.99894,0.0535256,-0.136553,1.93284e-07,0,
1,8.99848,0.0763878,-0.136553,1.41632e-06,0,
1,8.99797,0.102283,-0.136553,7.07192e-06,0,
1,8.99739,0.131402,-0.136553,2.67111e-05,0,
1,8.99672,0.163529,-0.136553,7.88352e-05,0,
1,8.99597,0.197687,-0.136553,0.000182309,0,
1,8.99512,0.232191,-0.136553,0.000334099,0,
1,8.99416,0.265379,-0.136553,0.000504586,0,
1,8.99306,0.296292,-0.136553,0.000664298,0,
1,8.99182,0.324784,-0.136552,0.000791792,0,
1,8.99041,0.351004,-0.136552,0.000897798,0,
1,8.98881,0.375107,-0.136552,0.000985148,0,
1,8.98699,0.397312,-0.136551,0.00105626,0,
1,8.98494,0.417909,-0.136551,0.00111233,0,
1,8.98261,0.43721,-0.13655,0.00115478,0,
1,8.97996,0.45546,-0.136549,0.00119035,0,
1,8.97696,0.472831,-0.136548,0.00121975,0,
1,8.97356,0.489465,-0.136547,0.00124427,0,
1,8.9697,0.505481,-0.136545,0.00126487,0,
1,8.96533,0.520975,-0.136544,0.00128229,0,
1,8.96038,0.536032,-0.136542,0.00129705,0,
1,8.95476,0.55072,-0.13654,0.00130954,0,
1,8.9484,0.565098,-0.136538,0.00132004,0,
1,8.9412,0.579217,-0.136536,0.00132874,0,
1,8.93303,0.593119,-0.136533,0.00133577,0,
1,8.92379,0.606841,-0.136531,0.00134119,0,
1,8.91333,0.620414,-0.136528,0.00134503,0,
1,8.90149,0.633868,-0.136525,0.00134728,0,
1,8.8881,0.647224,-0.136522,0.00134789,0,
1,8.87295,0.660507,-0.13652,0.0013468,0,
1,8.85584,0.673735,-0.136518,0.00134389,0,
1,8.83651,0.686927,-0.136517,0.00133902,0,
1,8.81469,0.700101,-0.136516,0.001332,0,
1,8.79007,0.713276,-0.136518,0.00132259,0,
1,8.76232,0.726471,-0.136521,0.00131048,0,
1,8.73107,0.739708,-0.136528,0.00129536,0,
1,8.69591,0.753012,-0.136538,0.001278,0,
1,8.6564,0.76644,-0.136555,0.00125451,0,
1,8.61206,0.78007,-0.136579,0.00122704,0,
1,8.56236,0.793984,-0.136613,0.00119522,0,
1,8.50675,0.808282,-0.13666,0.00115814,0,
1,8.44464,0.823092,-0.136722,0.00111439,0,
1,8.3754,0.838584,-0.136805,0.00106189,0,
1,8.29839,0.854969,-0.136912,0.00099752,0,
1,8.21296,0.872489,-0.137053,0.000916854,0,
1,8.11843,0.891351,-0.137228,0.000814373,0,
1,8.01417,0.911574,-0.137458,0.000685733,0,
1,7.89956,0.932709,-0.137734,0.000533233,0,
1,7.77403,0.953566,-0.138097,0.000376365,0,
1,7.63711,0.972384,-0.138517,0.000213784,0,
1,7.48842,0.986954,-0.139019,7.8239e-05,0,
1,7.32773,0.995499,-0.139632,1.80797e-05,0,
1,7.15495,0.998521,-0.140337,1.59658e-06,0,
1,6.97022,0.998499,-0.141156,9.0135e-09,0,
1,6.77388,0.997859,-0.142098,2.04831e-09,0,
1,6.56652,0.997736,-0.143179,8.88848e-09,0,
1,6.34896,0.998173,-0.144409,1.20201e-08,0,
1,6.12229,0.998865,-0.145798,1.35817e-08,0,
1,5.88784,0.999617,-0.147357,1.42876e-08,0,
1,5.64716,1.00039,-0.149095,1.51023e-08,0,
1,5.40194,1.00123,-0.151017,1.6276e-08,0,
1,5.15407,1.00214,-0.153125,1.76934e-08,0,
1,4.90545,1.00313,-0.155414,1.92527e-08,0,
1,4.65805,1.00421,-0.157879,2.0919e-08,0,
1,4.41376,1.00537,-0.160505,2.25895e-08,0,
1,4.17441,1.00659,-0.163275,2.40024e-08,0,
1,3.94163,1.0078,-0.166163,2.50016e-08,0,
1,3.7169,1.00896,-0.169141,2.63199e-08,0,
1,3.50146,1.01016,-0.172176,3.02008e-08,0,
1,3.29629,1.01172,-0.175233,3.90739e-08,0,
1,3.10217,1.01399,-0.178287,5.066e-08,0,
1,2.91959,1.01673,-0.18131,8.85971e-08,0,
1,2.74885,1.01843,-0.184269,5.30136e-07,0,
1,2.59002,1.01665,-0.187115,-8.01304e-06,0,
1,2.44299,1.00968,-0.189798,-5.14986e-05,0,
1,2.30752,0.997735,-0.192269,-0.000138457,0,
1,2.18321,0.982403,-0.194502,-0.000254177,0,
1,2.06959,0.965454,-0.196491,-0.000375543,0,
1,1.9661,0.948233,-0.198248,-0.000484561,0,
1,1.87215,0.931565,-0.199791,-0.000573139,0,
1,1.78711,0.915846,-0.201141,-0.000641608,0,
1,1.71033,0.90118,-0.202319,-0.000694533,0,
1,1.64119,0.88751,-0.203345,-0.000736945,0,
1,1.57905,0.874716,-0.204237,-0.00077249,0,
1,1.52332,0.86267,-0.205011,-0.000803238,0,
1,1.47342,0.851266,-0.205682,-0.000830206,0,
1,1.42882,0.840421,-0.206263,-0.0008539,0,
1,1.389,0.830074,-0.206767,-0.000874643,0,
1,1.35351,0.820182,-0.207203,-0.000892719,0,
1,1.3219,0.810714,-0.207581,-0.000908408,0,
1,1.29378,0.801653,-0.207908,-0.000921972,0,
1,1.26878,0.792986,-0.208192,-0.00093365,0,
1,1.24659,0.784706,-0.208438,-0.000944026,0,
1,1.22689,0.776803,-0.208652,-0.000953221,0,
1,1.2092,0.769184,-0.20884,-0.000960294,0,
1,1.1932,0.761796,-0.209006,-0.000965783,0,
1,1.1787,0.754625,-0.209153,-0.000969964,0,
1,1.16554,0.747655,-0.209283,-0.00097316,0,
1,1.15357,0.74086,-0.209397,-0.00097651,0,
1,1.14266,0.734202,-0.209499,-0.000982248,0,
1,1.13268,0.727618,-0.209588,-0.000994041,0,
1,1.12354,0.721016,-0.209667,-0.00101722,0,
1,1.11514,0.714268,-0.209738,-0.00105869,0,
1,1.10739,0.707202,-0.209803,-0.00112681,0,
1,1.10022,0.699612,-0.209865,-0.00123056,0,
1,1.09357,0.691275,-0.209928,-0.00137826,0,
1,1.08738,0.681993,-0.209995,-0.0015757,0,
1,1.0816,0.671646,-0.210066,-0.00182416,0,
1,1.07618,0.660241,-0.210144,-0.00211897,0,
1,1.07107,0.64791,-0.210227,-0.00244969,0,
1,1.06626,0.634879,-0.210316,-0.0028023,0,
1,1.06169,0.621402,-0.210409,-0.00316239,0,
1,1.05735,0.607718,-0.210506,-0.00351766,0,
1,1.05321,0.594022,-0.210604,-0.00385909,0,
1,1.04925,0.58046,-0.210704,-0.00418091,0,
1,1.04544,0.567131,-0.210805,-0.00447998,0,
1,1.04177,0.554098,-0.210906,-0.00475502,0,
1,1.03822,0.541395,-0.211008,-0.00500601,0,
1,1.03478,0.529038,-0.211108,-0.00523368,0,
1,1.03144,0.51703,-0.211209,-0.00543916,0,
1,1.02818,0.505366,-0.211308,-0.0056238,0,
1,1.025,0.494033,-0.211407,-0.005789,0,
1,1.02188,0.483018,-0.211505,-0.00593614,0,
1,1.01882,0.472304,-0.211602,-0.00606654,0,
1,1.01581,0.461875,-0.211699,-0.00618159,0,
1,1.01284,0.451716,-0.211794,-0.00628183,0,
1,1.00988,0.4417,-0.21189,-0.00636989,0,
1,1.00688,0.43171,-0.211988,-0.00644725,0,
1,1.00384,0.42173,-0.212086,-0.00651373,0,
1,1.00076,0.411741,-0.212186,-0.00656905,0,
1,0.997615,0.401722,-0.212288,-0.0066138,0,
1,0.99441,0.391651,-0.212391,-0.00664807,0,
1,0.991131,0.381505,-0.212496,-0.00667185,0,
1,0.987768,0.371259,-0.212603,-0.00668503,0,
1,0.984308,0.360886,-0.212713,-0.00668741,0,
1,0.980739,0.350358,-0.212825,-0.00667869,0,
1,0.977045,0.339648,-0.21294,-0.00665846,0,
1,0.973211,0.328724,-0.213058,-0.00662619,0,
1,0.969219,0.317554,-0.213179,-0.00658123,0,
1,0.965047,0.306105,-0.213305,-0.0065228,0,
1,0.960675,0.294343,-0.213435,-0.00644997,0,
1,0.956077,0.282233,-0.213569,-0.00636169,0,
1,0.951224,0.269742,-0.213709,-0.00625679,0,
1,0.946088,0.256839,-0.213854,-0.00613392,0,
1,0.940633,0.243495,-0.214005,-0.0059916,0,
1,0.934823,0.22969,-0.214164,-0.00582829,0,
1,0.928616,0.215418,-0.21433,-0.00564364,0,
1,0.921967,0.200689,-0.214503,-0.00543618,0,
1,0.914826,0.185531,-0.214686,-0.00520517,0,
1,0.907141,0.169996,-0.214877,-0.00495059,0,
1,0.898852,0.154165,-0.215076,-0.00467336,0,
1,0.889898,0.138151,-0.215284,-0.00437557,0,
1,0.880212,0.122106,-0.215499,-0.00406088,0,
1,0.869723,0.10622,-0.215721,-0.00373467,0,
1,0.858358,0.090715,-0.215948,-0.00340411,0,
1,0.846039,0.0758311,-0.216175,-0.00307775,0,
1,0.83269,0.0618022,-0.216401,-0.00276454,0,
1,0.818232,0.0488287,-0.216619,-0.00247586,0,
1,0.802744,0.0371456,-0.216818,-0.00221932,0,
1,0.78635,0.0268601,-0.216997,-0.00199645,0,
1,0.768969,0.0178456,-0.217146,-0.0018096,0,
1,0.75053,0.00994963,-0.217264,-0.00165746,0,
1,0.730977,0.00301539,-0.217345,-0.00153704,0,
1,0.710271,-0.00310158,-0.217387,-0.00144429,0,
1,0.688397,-0.00851266,-0.21739,-0.00137647,0,
1,0.66536,-0.013279,-0.217338,-0.0013381,0,
1,0.641194,-0.0174392,-0.217204,-0.00133803,0,
1,0.615961,-0.0210782,-0.217,-0.00135329,0,
1,0.589754,-0.0243076,-0.21674,-0.00138091,0,
1,0.562692,-0.0272137,-0.216422,-0.00141751,0,
1,0.534925,-0.0298543,-0.216056,-0.00145591,0,
1,0.506624,-0.0322678,-0.215656,-0.0014883,0,
1,0.477982,-0.0344792,-0.21524,-0.00150683,0,
1,0.449206,-0.0365053,-0.214833,-0.0015045,0,
1,0.420509,-0.0383577,-0.214464,-0.00147644,0,
1,0.392107,-0.0400455,-0.21416,-0.00142091,0,
1,0.364206,-0.0415776,-0.213948,-0.0013397,0,
1,0.337003,-0.0429634,-0.213843,-0.0012376,0,
1,0.310673,-0.044213,-0.213853,-0.0011211,0,
1,0.28537,-0.0453374,-0.213975,-0.000997205,0,
1,0.26122,-0.0463474,-0.214195,-0.000872365,0,
1,0.238324,-0.0472537,-0.214494,-0.000751797,0,
1,0.21675,-0.0480659,-0.214849,-0.000639186,0,
1,0.196544,-0.0487927,-0.215237,-0.000536736,0,
1,0.177724,-0.0494414,-0.215638,-0.000445398,0,
1,0.160284,-0.0500177,-0.216034,-0.000365137,0,
1,0.144202,-0.0505262,-0.216412,-0.000295292,0,
1,0.129436,-0.0509699,-0.216763,-0.000234848,0,
1,0.115935,-0.0513504,-0.217083,-0.000182671,0,
1,0.103636,-0.0516685,-0.21737,-0.000137634,0,
1,0.0924701,-0.0519235,-0.217623,-9.8719e-05,0,
1,0.0823633,-0.0521144,-0.217845,-6.50355e-05,0,
1,0.0732406,-0.052239,-0.218037,-3.58349e-05,0,
1,0.0650269,-0.0522948,-0.218203,-1.0504e-05,0,
1,0.057648,-0.0522783,-0.218345,1.14524e-05,0,
1,0.0510323,-0.0521855,-0.218466,3.0437e-05,0,
1,0.0451115,-0.0520115,-0.218569,4.67756e-05,0,
1,0.0398209,-0.05175,-0.218656,6.07247e-05,0,
1,0.0351001,-0.051393,-0.218729,7.24817e-05,0,
1,0.0308929,-0.05093,-0.218791,8.2191e-05,0,
1,0.0271475,-0.050347,-0.218842,8.9939e-05,0,
1,0.0238164,-0.0496248,-0.218885,9.57388e-05,0,
1,0.0208562,-0.0487366,-0.218919,9.95046e-05,0,
1,0.0182274,-0.047645,-0.218948,0.000101008,0,
1,0.0158944,-0.046297,-0.21897,9.98048e-05,0,
1,0.0138249,-0.0446187,-0.218988,9.51568e-05,0,
1,0.0119898,-0.0425134,-0.219,8.60628e-05,0,
1,0.0103632,-0.0398721,-0.21901,7.17714e-05,0,
1,0.00892169,-0.0366208,-0.219015,5.31367e-05,0,
1,0.00764438,-0.0328081,-0.219019,3.37522e-05,0,
1,0.00651264,-0.0286615,-0.21902,1.81813e-05,0,
1,0.00550983,-0.0245024,-0.219022,8.4338e-06,0,
1,0.00462115,-0.0205858,-0.219022,3.4596e-06,0,
1,0.00383341,-0.0170348,-0.219024,1.27847e-06,0,
1,0.0031349,-0.0138743,-0.219023,4.26161e-07,0,
1,0.00251518,-0.0110822,-0.219024,1.25882e-07,0,
1,0.00196502,-0.00862093,-0.219023,3.16818e-08,0,
1,0.00147619,-0.00645066,-0.219025,6.3288e-09,0,
1,0.00104139,-0.00453446,-0.219024,8.80856e-10,0,
1,0.000654158,-0.0028394,-0.219026,6.56449e-11,0,
1,0.000308731,-0.00133665,-0.219024,1.43621e-12,0,

4,0,0,-0.194938,0,0,
4,9,0,-0.10885,0,0,
4,8.99969,0.0146127,-0.10885,2.42472e-10,0,
4,8.99934,0.0311315,-0.10885,1.12481e-08,0,
4,8.99894,0.0498236,-0.10885,1.53558e-07,0,
4,8.9985,0.0709711,-0.10885,1.11401e-06,0,
4,8.99799,0.0948588,-0.10885,5.52212e-06,0,
4,8.99742,0.121684,-0.10885,2.08477e-05,0,
4,8.99677,0.151336,-0.10885,6.22214e-05,0,
4,8.99605,0.183079,-0.10885,0.000147461,0,
4,8.99522,0.215502,-0.10885,0.000279253,0,
4,8.99429,0.247042,-0.10885,0.000435595,0,
4,8.99324,0.276655,-0.108849,0.000588085,0,
4,8.99205,0.304005,-0.108849,0.000718151,0,
4,8.9907,0.329184,-0.108849,0.000823322,0,
4,8.98919,0.352364,-0.108848,0.000911656,0,
4,8.98747,0.373736,-0.108848,0.000984919,0,
4,8.98553,0.393571,-0.108847,0.00104272,0,
4,8.98334,0.412156,-0.108846,0.0010888,0,
4,8.98087,0.429713,-0.108845,0.00112772,0,
4,8.97807,0.446412,-0.108844,0.00116065,0,
4,8.97491,0.462394,-0.108842,0.00118891,0,
4,8.97134,0.477778,-0.10884,0.00121348,0,
4,8.96731,0.492662,-0.108838,0.0012351,0,
4,8.96276,0.507131,-0.108836,0.0012543,0,
4,8.95762,0.521256,-0.108833,0.00127147,0,
4,8.95182,0.535098,-0.10883,0.00128688,0,
4,8.94526,0.54871,-0.108826,0.0013007,0,
4,8.93787,0.562135,-0.108822,0.00131301,0,
4,8.92952,0.575413,-0.108818,0.00132386,0,
4,8.92011,0.588576,-0.108813,0.00133322,0,
4,8.90949,0.601652,-0.108808,0.00134103,0,
4,8.89751,0.614663,-0.108802,0.00134717,0,
4,8.88402,0.627631,-0.108796,0.00135153,0,
4,8.86881,0.64057,-0.108789,0.00135392,0,
4,8.85169,0.653495,-0.108783,0.00135416,0,
4,8.83242,0.666415,-0.108776,0.00135202,0,
4,8.81074,0.679342,-0.10877,0.00134725,0,
4,8.78637,0.692283,-0.108764,0.00133962,0,
4,8.75901,0.705247,-0.108759,0.00132946,0,
4,8.7283,0.718259,-0.108757,0.00131559,0,
4,8.69387,0.731365,-0.108757,0.00129662,0,
4,8.65533,0.744616,-0.108761,0.00127436,0,
4,8.61222,0.758054,-0.10877,0.00124844,0,
4,8.56407,0.77173,-0.108786,0.00121832,0,
4,8.5104,0.785714,-0.108811,0.00118327,0,
4,8.45065,0.800101,-0.108847,0.00114219,0,
4,8.38429,0.815025,-0.108897,0.00109348,0,
4,8.31073,0.830667,-0.108966,0.00103477,0,
4,8.22941,0.847259,-0.109058,0.000962619,0,
4,8.13974,0.865062,-0.109177,0.000872559,0,
4,8.04115,0.884275,-0.109329,0.000760042,0,
4,7.93313,0.904814,-0.109517,0.000623772,0,
4,7.81519,0.925965,-0.109746,0.000475383,0,
4,7.68693,0.946158,-0.110017,0.0003302,0,
4,7.54803,0.963288,-0.110351,0.000206538,0,
4,7.39831,0.975636,-0.11074,9.71483e-05,0,
4,7.23771,0.982618,-0.111206,2.94366e-05,0,
4,7.06634,0.985187,-0.111754,4.8003e-06,0,
4,6.88453,0.985336,-0.112373,1.48159e-07,0,
4,6.69275,0.98487,-0.113073,-5.86528e-09,0,
4,6.49173,0.98468,-0.113863,5.28542e-08,0,
4,6.28238,0.984895,-0.114755,3.57402e-08,0,
4,6.06579,0.985345,-0.11576,1.97836e-08,0,
4,5.84328,0.985877,-0.116887,1.3975e-08,0,
4,5.61626,0.986436,-0.118143,1.27469e-08,0,
4,5.3863,0.987026,-0.119536,1.31907e-08,0,
4,5.15502,0.987664,-0.12107,1.43322e-08,0,
4,4.92406,0.988364,-0.122749,1.58807e-08,0,
4,4.69507,0.989139,-0.124574,1.77204e-08,0,
4,4.46961,0.989992,-0.126544,1.96699e-08,0,
4,4.24915,0.9909,-0.128655,2.13297e-08,0,
4,4.03501,0.991804,-0.130901,2.24458e-08,0,
4,3.82836,0.99264,-0.13327,2.35297e-08,0,
4,3.63018,0.993427,-0.135751,2.67236e-08,0,
4,3.44125,0.994378,-0.138326,3.69284e-08,0,
4,3.26217,0.995863,-0.140979,1.31398e-07,0,
4,3.09333,0.998128,-0.14369,1.11825e-06,0,
4,2.93497,1.00086,-0.14644,4.39403e-06,0,
4,2.78715,1.0031,-0.149206,6.8915e-06,0,
4,2.64979,1.00362,-0.151963,1.59957e-06,0,
4,2.52268,1.00154,-0.154674,-1.59877e-05,0,
4,2.40551,0.996603,-0.157303,-4.61708e-05,0,
4,2.29789,0.989119,-0.159817,-8.60728e-05,0,
4,2.19939,0.979757,-0.162191,-0.00013125,0,
4,2.10949,0.969268,-0.164411,-0.000177267,0,
4,2.02768,0.958319,-0.166469,-0.000220729,0,
4,1.95343,0.947413,-0.168366,-0.000259624,0,
4,1.88618,0.936884,-0.170105,-0.000293169,0,
4,1.82542,0.92693,-0.171692,-0.00032144,0,
4,1.77062,0.917648,-0.173136,-0.00034498,0,
4,1.72128,0.909069,-0.174445,-0.00036451,0,
4,1.67693,0.901185,-0.175629,-0.000380754,0,
4,1.63713,0.893967,-0.176697,-0.000394336,0,
4,1.60144,0.887375,-0.177658,-0.000405706,0,
4,1.56949,0.881368,-0.178522,-0.000415117,0,
4,1.54091,0.875906,-0.179296,-0.000423681,0,
4,1.51537,0.870928,-0.179991,-0.000431323,0,
4,1.49167,0.866233,-0.180635,-0.000437185,0,
4,1.46926,0.861722,-0.181246,-0.000442397,0,
4,1.44801,0.857369,-0.181826,-0.000447181,0,
4,1.42781,0.853158,-0.182378,-0.000451374,0,
4,1.40855,0.849071,-0.182904,-0.000454983,0,
4,1.39015,0.845092,-0.183407,-0.00045802,0,
4,1.37252,0.841207,-0.183889,-0.000460514,0,
4,1.3556,0.837402,-0.184352,-0.000462526,0,
4,1.3393,0.833663,-0.184798,-0.000464171,0,
4,1.32357,0.829974,-0.185228,-0.000465649,0,
4,1.30836,0.82632,-0.185643,-0.000467278,0,
4,1.29362,0.82268,-0.186046,-0.000469543,0,
4,1.2793,0.81903,-0.186437,-0.000473143,0,
4,1.26537,0.815339,-0.186816,-0.000479052,0,
4,1.25179,0.811567,-0.187186,-0.00048862,0,
4,1.23852,0.807663,-0.187546,-0.000503595,0,
4,1.22554,0.803558,-0.187898,-0.000526216,0,
4,1.21282,0.799166,-0.188241,-0.000559237,0,
4,1.20034,0.794376,-0.188576,-0.000605859,0,
4,1.18806,0.789057,-0.188902,-0.00066954,0,
4,1.17599,0.783061,-0.189221,-0.000753643,0,
4,1.16408,0.776237,-0.189531,-0.000860939,0,
4,1.15233,0.768455,-0.189832,-0.000993041,0,
4,1.14073,0.759623,-0.190125,-0.0011499,0,
4,1.12925,0.749709,-0.190407,-0.00132955,0,
4,1.11788,0.738748,-0.190679,-0.00152822,0,
4,1.10661,0.72683,-0.190941,-0.00174078,0,
4,1.09543,0.714087,-0.191192,-0.00196149,0,
4,1.08432,0.700669,-0.191433,-0.00218465,0,
4,1.07328,0.686729,-0.191663,-0.00240516,0,
4,1.0623,0.67241,-0.191883,-0.00261889,0,
4,1.05136,0.657836,-0.192093,-0.00282265,0,
4,1.04044,0.643089,-0.192293,-0.00301415,0,
4,1.0295,0.628231,-0.192485,-0.00319219,0,
4,1.01855,0.613329,-0.192667,-0.00335581,0,
4,1.00757,0.598439,-0.192842,-0.00350434,0,
4,0.996544,0.583602,-0.193008,-0.00363749,0,
4,0.98547,0.568853,-0.193166,-0.00375517,0,
4,0.974334,0.554217,-0.193318,-0.00385743,0,
4,0.963124,0.539714,-0.193462,-0.00394444,0,
4,0.951826,0.525362,-0.193599,-0.00401723,0,
4,0.940428,0.51117,-0.193731,-0.00407534,0,
4,0.928915,0.497133,-0.193856,-0.00411888,0,
4,0.917272,0.483235,-0.193976,-0.00414832,0,
4,0.905481,0.469455,-0.19409,-0.00416499,0,
4,0.893524,0.45577,-0.194199,-0.00416973,0,
4,0.881383,0.442157,-0.194304,-0.00416339,0,
4,0.869035,0.428588,-0.194403,-0.00414688,0,
4,0.856459,0.415033,-0.194498,-0.0041211,0,
4,0.843629,0.401457,-0.194589,-0.00408708,0,
4,0.830518,0.387822,-0.194676,-0.00404593,0,
4,0.817097,0.374082,-0.19476,-0.00399896,0,
4,0.803334,0.360185,-0.194841,-0.00394742,0,
4,0.789195,0.346068,-0.19492,-0.00389323,0,
4,0.774643,0.331664,-0.194997,-0.00383871,0,
4,0.759639,0.316901,-0.195073,-0.00378642,0,
4,0.744138,0.301703,-0.19515,-0.00373994,0,
4,0.728096,0.285984,-0.195229,-0.0037021,0,
4,0.711463,0.269653,-0.195315,-0.00367647,0,
4,0.694189,0.252608,-0.195408,-0.00366539,0,
4,0.676218,0.234745,-0.195512,-0.00367049,0,
4,0.657495,0.215958,-0.195626,-0.00369225,0,
4,0.637962,0.196157,-0.195752,-0.00372677,0,
4,0.617561,0.1753,-0.195882,-0.00377193,0,
4,0.596848,0.154006,-0.196028,-0.00382797,0,
4,0.576557,0.133136,-0.196175,-0.00388791,0,
4,0.556564,0.112738,-0.196361,-0.00395008,0,
4,0.536763,0.092644,-0.196442,-0.00397843,0,
4,0.517057,0.0724976,-0.196396,-0.00396409,0,
4,0.497368,0.0520588,-0.196382,-0.00396476,0,
4,0.477632,0.0313744,-0.196382,-0.00397169,0,
4,0.457804,0.0106837,-0.196403,-0.00397414,0,
4,0.437857,-0.00962279,-0.196442,-0.00396431,0,
4,0.417786,-0.0290434,-0.196497,-0.00393592,0,
4,0.397605,-0.0470824,-0.196567,-0.00388822,0,
4,0.377348,-0.0634501,-0.196658,-0.00382547,0,
4,0.357066,-0.0782992,-0.196731,-0.00368436,0,
4,0.336828,-0.0919062,-0.196784,-0.00352154,0,
4,0.316717,-0.104346,-0.196836,-0.00335694,0,
4,0.296825,-0.115623,-0.196878,-0.00317921,0,
4,0.27725,-0.125768,-0.196911,-0.00299085,0,
4,0.258095,-0.134838,-0.196931,-0.00279497,0,
4,0.239458,-0.142909,-0.196935,-0.00259465,0,
4,0.221432,-0.150066,-0.19692,-0.00239287,0,
4,0.2041,-0.1564,-0.196885,-0.00219231,0,
4,0.187537,-0.162001,-0.19683,-0.00199529,0,
4,0.171798,-0.166951,-0.196754,-0.00180375,0,
4,0.156928,-0.171327,-0.19666,-0.00161921,0,
4,0.142956,-0.175195,-0.196551,-0.00144285,0,
4,0.129894,-0.178614,-0.196431,-0.00127548,0,
4,0.117744,-0.181633,-0.196304,-0.00111764,0,
4,0.106492,-0.184291,-0.196174,-0.000969607,0,
4,0.0961173,-0.186624,-0.196044,-0.000831455,0,
4,0.0865883,-0.188658,-0.195918,-0.000703094,0,
4,0.0778675,-0.190415,-0.195798,-0.000584295,0,
4,0.0699123,-0.191913,-0.195685,-0.00047473,0,
4,0.062677,-0.193164,-0.195582,-0.000373995,0,
4,0.056114,-0.194178,-0.195488,-0.000281639,0,
4,0.0501747,-0.194959,-0.195404,-0.000197182,0,
4,0.0448114,-0.195509,-0.195329,-0.000120138,0,
4,0.039977,-0.195825,-0.195264,-5.0029e-05,0,
4,0.0356266,-0.195899,-0.195206,1.35925e-05,0,
4,0.0317171,-0.195719,-0.195157,7.11307e-05,0,
4,0.0282081,-0.195263,-0.195114,0.000122922,0,
4,0.0250617,-0.194503,-0.195078,0.000169208,0,
4,0.0222427,-0.193396,-0.195048,0.000210093,0,
4,0.0197189,-0.191884,-0.195023,0.000245485,0,
4,0.0174603,-0.189885,-0.195002,0.000275001,0,
4,0.0154398,-0.187289,-0.194985,0.000297841,0,
4,0.0136326,-0.183941,-0.194972,0.000312621,0,
4,0.0120162,-0.179642,-0.194961,0.000317262,0,
4,0.0105703,-0.174138,-0.194954,0.000309116,0,
4,0.00927657,-0.167145,-0.194948,0.000285705,0,
4,0.00811839,-0.158414,-0.194945,0.000246345,0,
4,0.0070809,-0.147837,-0.194942,0.000194239,0,
4,0.0061507,-0.135573,-0.194941,0.000137344,0,
4,0.00531578,-0.122093,-0.19494,8.59129e-05,0,
4,0.00456537,-0.108057,-0.194939,4.73751e-05,0,
4,0.00388979,-0.0941019,-0.194939,2.31443e-05,0,
4,0.00328037,-0.0806721,-0.194939,1.00799e-05,0,
4,0.00272934,-0.0679987,-0.194939,3.91048e-06,0,
4,0.0022297,-0.0561567,-0.194938,1.33186e-06,0,
4,0.00177519,-0.0451328,-0.194939,3.84558e-07,0,
4,0.00136016,-0.0348727,-0.194938,8.79855e-08,0,
4,0.000979511,-0.0253055,-0.194939,1.40202e-08,0,
4,0.00062865,-0.0163551,-0.194938,1.19118e-09,0,
4,0.000303409,-0.00794562,-0.194939,2.8918e-11,0,

6,0,0,-0.0745953,0,0,
6,9,0,-0.085381,0,0,
6,8.99969,0.0138663,-0.0853806,2.03806e-10,0,
6,8.99934,0.0295029,-0.0853809,9.40577e-09,0,
6,8.99895,0.0471533,-0.0853806,1.27507e-07,0,
6,8.9985,0.0670747,-0.0853808,9.1857e-07,0,
6,8.99801,0.0895296,-0.0853806,4.52964e-06,0,
6,8.99744,0.114715,-0.0853807,1.70893e-05,0,
6,8.99681,0.142579,-0.0853805,5.1384e-05,0,
6,8.99609,0.172546,-0.0853806,0.000123904,0,
6,8.99529,0.203401,-0.0853804,0.000240437,0,
6,8.99438,0.233682,-0.0853803,0.000384598,0,
6,8.99336,0.262304,-0.08538,0.000529944,0,
6,8.9922,0.288803,-0.0853799,0.000659522,0,
6,8.9909,0.313214,-0.0853794,0.000763388,0,
6,8.98944,0.335706,-0.085379,0.000851203,0,
6,8.98779,0.356452,-0.0853784,0.00092488,0,
6,8.98593,0.375703,-0.0853777,0.000983208,0,
6,8.98383,0.393724,-0.0853769,0.00103081,0,
6,8.98147,0.410726,-0.0853759,0.00107113,0,
6,8.97881,0.426873,-0.0853746,0.00110559,0,
6,8.97581,0.442307,-0.0853732,0.00113553,0,
6,8.97244,0.457145,-0.0853714,0.00116196,0,
6,8.96863,0.471487,-0.0853694,0.00118562,0,
6,8.96435,0.485419,-0.085367,0.00120709,0,
6,8.95953,0.499012,-0.0853642,0.00122677,0,
6,8.95409,0.51233,-0.085361,0.00124493,0,
6,8.94798,0.525427,-0.0853574,0.00126177,0,
6,8.94109,0.538351,-0.0853531,0.00127738,0,
6,8.93334,0.551142,-0.0853483,0.00129179,0,
6,8.92463,0.563836,-0.0853429,0.00130498,0,
6,8.91482,0.576464,-0.0853367,0.00131686,0,
6,8.90379,0.589051,-0.0853299,0.00132729,0,
6,8.89139,0.60162,-0.0853222,0.00133612,0,
6,8.87746,0.614187,-0.0853137,0.00134313,0,
6,8.86181,0.626768,-0.0853044,0.00134808,0,
6,8.84423,0.639373,-0.0852942,0.00135074,0,
6,8.82452,0.65201,-0.0852832,0.00135082,0,
6,8.80241,0.664686,-0.0852715,0.00134805,0,
6,8.77763,0.677404,-0.085259,0.00134225,0,
6,8.74989,0.690173,-0.0852463,0.0013341,0,
6,8.71885,0.703018,-0.0852334,0.00132179,0,
6,8.68417,0.715989,-0.0852206,0.00130365,0,
6,8.64545,0.729128,-0.085209,0.00128195,0,
6,8.60229,0.742462,-0.0851984,0.00125631,0,
6,8.55423,0.756021,-0.0851896,0.0012263,0,
6,8.50082,0.769854,-0.0851834,0.00119132,0,
6,8.44155,0.784041,-0.0851808,0.00115048,0,
6,8.37592,0.798697,-0.0851835,0.00110248,0,
6,8.30339,0.81399,-0.0851928,0.00104535,0,
6,8.22344,0.830152,-0.0852114,0.000976215,0,
6,8.13555,0.84747,-0.0852392,0.000891166,0,
6,8.0392,0.866208,-0.0852787,0.000786019,0,
6,7.93391,0.886395,-0.0853238,0.000658996,0,
6,7.81927,0.907443,-0.0853784,0.000519637,0,
6,7.6949,0.927914,-0.0854324,0.000380698,0,
6,7.56054,0.945798,-0.085501,0.000257204,0,
6,7.41603,0.959392,-0.0855658,0.000156425,0,
6,7.26132,0.968063,-0.0856513,6.17486e-05,0,
6,7.09653,0.972248,-0.0857593,1.59438e-05,0,
6,6.92195,0.973329,-0.0858707,1.3238e-06,0,
6,6.73802,0.972988,-0.08599,-6.80192e-07,0,
6,6.5454,0.972422,-0.0861134,-2.83708e-07,0,
6,6.34489,0.972105,-0.086243,-4.35464e-08,0,
6,6.1375,0.972044,-0.086379,2.90614e-09,0,
6,5.92439,0.972101,-0.086521,4.07911e-09,0,
6,5.70687,0.97217,-0.0866679,1.88543e-09,0,
6,5.48633,0.972215,-0.0868176,8.23236e-10,0,
6,5.26426,0.972234,-0.0869675,3.69688e-10,0,
6,5.04218,0.97224,-0.0871142,1.74276e-10,0,
6,4.82159,0.972246,-0.0872542,1.22724e-10,0,
6,4.60398,0.972262,-0.0873832,8.54235e-11,0,
6,4.39071,0.972283,-0.0874971,-2.57558e-10,0,
6,4.18307,0.972274,-0.0875915,-1.39406e-09,0,
6,3.98218,0.972166,-0.0876623,-3.60163e-09,0,
6,3.78902,0.971906,-0.0877057,-6.29197e-09,0,
6,3.60438,0.97154,-0.0877188,-8.50849e-09,0,
6,3.42888,0.97127,-0.0876995,-1.00338e-08,0,
6,3.26296,0.9714,-0.0876463,7.30065e-08,0,
6,3.10691,0.97213,-0.0875576,6.83752e-07,0,
6,2.96084,0.973344,-0.0874343,2.08092e-06,0,
6,2.82473,0.974572,-0.0872808,2.55162e-06,0,
6,2.69844,0.975162,-0.0871025,-1.02676e-06,0,
6,2.58172,0.97452,-0.086904,-1.09556e-05,0,
6,2.47424,0.972284,-0.0866893,-2.79529e-05,0,
6,2.37559,0.968384,-0.0864629,-5.13855e-05,0,
6,2.28535,0.962992,-0.0862294,-7.97374e-05,0,
6,2.20301,0.956433,-0.0859932,-0.000111098,0,
6,2.1281,0.949084,-0.0857586,-0.000143585,0,
6,2.06009,0.941309,-0.0855288,-0.000175619,0,
6,1.99849,0.933414,-0.0853067,-0.000206051,0,
6,1.9428,0.925637,-0.0850943,-0.000234165,0,
6,1.89255,0.918145,-0.0848932,-0.000259618,0,
6,1.84728,0.911048,-0.0847042,-0.000282339,0,
6,1.80655,0.90441,-0.0845281,-0.000302353,0,
6,1.76996,0.898262,-0.0843647,-0.000319592,0,
6,1.73712,0.892619,-0.084214,-0.000335354,0,
6,1.70768,0.887437,-0.0840756,-0.000349762,0,
6,1.67998,0.88248,-0.083943,-0.00036191,0,
6,1.65329,0.877641,-0.0838124,-0.000373176,0,
6,1.62754,0.872909,-0.0836841,-0.000383859,0,
6,1.60265,0.86828,-0.0835579,-0.000393806,0,
6,1.57854,0.863745,-0.0834338,-0.000403052,0,
6,1.55515,0.8593,-0.0833115,-0.000411642,0,
6,1.53242,0.854937,-0.083191,-0.000419613,0,
6,1.5103,0.850648,-0.0830722,-0.000426997,0,
6,1.48874,0.846429,-0.0829549,-0.000433818,0,
6,1.46769,0.84227,-0.082839,-0.000440093,0,
6,1.44712,0.838168,-0.0827244,-0.000445833,0,
6,1.42698,0.834114,-0.0826111,-0.000451043,0,
6,1.40725,0.830103,-0.082499,-0.000455728,0,
6,1.38788,0.826129,-0.0823878,-0.000459874,0,
6,1.36886,0.822186,-0.0822777,-0.000463497,0,
6,1.35015,0.818269,-0.0821684,-0.000466609,0,
6,1.33173,0.81437,-0.08206,-0.000469244,0,
6,1.31357,0.810483,-0.0819524,-0.000471471,0,
6,1.29566,0.8066,-0.0818454,-0.000473409,0,
6,1.27797,0.802711,-0.0817391,-0.000475249,0,
6,1.26048,0.798806,-0.0816334,-0.000477288,0,
6,1.24318,0.794869,-0.0815282,-0.000479966,0,
6,1.22605,0.790879,-0.0814236,-0.000483913,0,
6,1.20907,0.786811,-0.0813194,-0.000490012,0,
6,1.19223,0.782627,-0.0812156,-0.000499469,0,
6,1.17551,0.778279,-0.0811121,-0.000513881,0,
6,1.1589,0.773704,-0.0810089,-0.000535372,0,
6,1.14238,0.768816,-0.0809059,-0.000566547,0,
6,1.12595,0.763509,-0.0808029,-0.000610546,0,
6,1.10959,0.75765,-0.0806999,-0.000670926,0,
6,1.09329,0.751088,-0.0805967,-0.000751417,0,
6,1.07704,0.743664,-0.0804934,-0.00085549,0,
6,1.06081,0.735223,-0.0803897,-0.000985788,0,
6,1.04459,0.725641,-0.080286,-0.00114362,0,
6,1.02836,0.714847,-0.0801821,-0.00132849,0,
6,1.01211,0.702834,-0.0800786,-0.00153793,0,
6,0.99583,0.689653,-0.0799755,-0.00176783,0,
6,0.97951,0.675399,-0.0798734,-0.00201304,0,
6,0.963136,0.660194,-0.0797724,-0.00226811,0,
6,0.946694,0.64417,-0.079673,-0.00252786,0,
6,0.930172,0.627454,-0.0795749,-0.0027878,0,
6,0.913555,0.610162,-0.0794786,-0.00304435,0,
6,0.896829,0.592396,-0.0793835,-0.00329442,0,
6,0.879979,0.574243,-0.0792904,-0.00353532,0,
6,0.862989,0.555781,-0.0791982,-0.0037643,0,
6,0.845842,0.53708,-0.0791085,-0.00397817,0,
6,0.828521,0.518214,-0.0790181,-0.00417269,0,
6,0.811008,0.499261,-0.0789333,-0.00434273,0,
6,0.793282,0.480312,-0.0788409,-0.00448098,0,
6,0.775322,0.461477,-0.0787684,-0.00458713,0,
6,0.757107,0.442822,-0.0786613,-0.00467689,0,
6,0.738612,0.424094,-0.0784899,-0.00467528,0,
6,0.719813,0.404943,-0.0783176,-0.00469696,0,
6,0.700681,0.385224,-0.0781487,-0.00474346,0,
6,0.681188,0.364876,-0.0779903,-0.00481379,0,
6,0.661304,0.343865,-0.0778449,-0.00490633,0,
6,0.640996,0.322184,-0.0777139,-0.00501827,0,
6,0.620228,0.299852,-0.0776011,-0.00514621,0,
6,0.598964,0.276928,-0.0775121,-0.00528585,0,
6,0.577166,0.253538,-0.0774528,-0.00543172,0,
6,0.554791,0.229868,-0.0774286,-0.00557687,0,
6,0.531799,0.20614,-0.0774392,-0.00571225,0,
6,0.508144,0.182556,-0.0774794,-0.00582842,0,
6,0.48378,0.15924,-0.0775392,-0.00591748,0,
6,0.459585,0.136987,-0.0776037,-0.00597079,0,
6,0.436695,0.116677,-0.0776627,-0.00598417,0,
6,0.414961,0.0981492,-0.0777312,-0.00595916,0,
6,0.394252,0.0813946,-0.0778331,-0.00589883,0,
6,0.374445,0.0665838,-0.0780213,-0.00581027,0,
6,0.355433,0.0539446,-0.0783365,-0.00570509,0,
6,0.337122,0.0435153,-0.0788121,-0.00559705,0,
6,0.319433,0.0349362,-0.079194,-0.00546706,0,
6,0.3023,0.0275101,-0.0793465,-0.00511935,0,
6,0.28567,0.0207968,-0.0794414,-0.00487705,0,
6,0.269507,0.0146918,-0.0795241,-0.00463299,0,
6,0.253785,0.00911301,-0.079556,-0.00438622,0,
6,0.238493,0.00399067,-0.0795477,-0.00413861,0,
6,0.223631,-0.000732785,-0.0794916,-0.00389127,0,
6,0.209207,-0.00510549,-0.0793914,-0.00364556,0,
6,0.195237,-0.00916743,-0.0792459,-0.00340275,0,
6,0.181744,-0.0129518,-0.079062,-0.00316413,0,
6,0.168754,-0.0164864,-0.0788416,-0.00293094,0,
6,0.156292,-0.0197942,-0.0785939,-0.00270436,0,
6,0.144384,-0.0228942,-0.0783239,-0.00248548,0,
6,0.133052,-0.0258024,-0.0780412,-0.00227533,0,
6,0.122315,-0.0285321,-0.077751,-0.00207471,0,
6,0.112183,-0.0310944,-0.0774619,-0.00188425,0,
6,0.102665,-0.0334986,-0.0771783,-0.00170439,0,
6,0.0937597,-0.0357526,-0.0769062,-0.00153544,0,
6,0.0854609,-0.037863,-0.0766482,-0.00137749,0,
6,0.077757,-0.0398358,-0.0764078,-0.00123044,0,
6,0.0706309,-0.0416761,-0.0761858,-0.00109409,0,
6,0.0640611,-0.0433884,-0.0759835,-0.000968151,0,
6,0.0580229,-0.044977,-0.0758004,-0.0008522,0,
6,0.0524888,-0.0464457,-0.0756363,-0.000745741,0,
6,0.0474296,-0.0477981,-0.0754901,-0.000648248,0,
6,0.042815,-0.0490375,-0.0753608,-0.000559187,0,
6,0.0386145,-0.050167,-0.0752469,-0.000477996,0,
6,0.0347975,-0.051189,-0.0751472,-0.000404098,0,
6,0.0313344,-0.0521057,-0.0750602,-0.000336947,0,
6,0.0281964,-0.0529186,-0.0749846,-0.000276029,0,
6,0.0253561,-0.0536286,-0.0749192,-0.000220854,0,
6,0.0227875,-0.0542351,-0.0748629,-0.000170951,0,
6,0.0204662,-0.0547365,-0.0748146,-0.00012591,0,
6,0.0183694,-0.0551291,-0.0747733,-8.53721e-05,0,
6,0.016476,-0.0554067,-0.0747382,-4.90372e-05,0,
6,0.0147664,-0.0555595,-0.0747087,-1.66787e-05,0,
6,0.0132228,-0.0555727,-0.0746837,1.18197e-05,0,
6,0.0118288,-0.0554244,-0.0746633,3.64265e-05,0,
6,0.0105693,-0.0550827,-0.0746463,5.68953e-05,0,
6,0.00943073,-0.0545017,-0.074633,7.26746e-05,0,
6,0.00840063,-0.0536166,-0.0746222,8.28175e-05,0,
6,0.00746774,-0.0523416,-0.0746145,8.60403e-05,0,
6,0.00662185,-0.0505744,-0.0746083,8.12283e-05,0,
6,0.00585371,-0.0482229,-0.0746048,6.86539e-05,0,
6,0.00515491,-0.045254,-0.0746018,5.11576e-05,0,
6,0.00451788,-0.0417401,-0.0746008,3.34264e-05,0,
6,0.00393573,-0.0378473,-0.0745992,1.92915e-05,0,
6,0.00340221,-0.033766,-0.0745993,9.96485e-06,0,
6,0.00291168,-0.0296469,-0.0745981,4.64854e-06,0,
6,0.00245897,-0.0255829,-0.0745986,1.9539e-06,0,
6,0.00203939,-0.0216196,-0.0745974,7.27023e-07,0,
6,0.00164864,-0.0177731,-0.0745982,2.30549e-07,0,
6,0.00128281,-0.0140422,-0.0745967,5.80991e-08,0,
6,0.000938257,-0.0104167,-0.0745979,1.02032e-08,0,
6,0.000611645,-0.0068806,-0.0745961,9.51641e-10,0,
6,0.000299862,-0.00341543,-0.0745977,2.48428e-11,0,

10,0.000296632,0.00863336,0.0271218,-9.9104e-11,0,
10,0.000596102,0.0173568,0.0271258,-3.67733e-09,0,
10,0.000900397,0.0262285,0.0271217,-3.74294e-08,0,
10,0.00121153,0.0353065,0.0271253,-2.01316e-07,0,
10,0.00153158,0.0446488,0.0271216,-7.53355e-07,0,
10,0.00186264,0.0543095,0.0271248,-2.23873e-06,0,
10,0.00220692,0.0643339,0.0271214,-5.66932e-06,0,
10,0.00256668,0.0747488,0.0271242,-1.27305e-05,0,
10,0.00294431,0.0855475,0.0271211,-2.59163e-05,0,
10,0.00334229,0.0966701,0.0271236,-4.83742e-05,0,
10,0.00376326,0.107986,0.0271206,-8.3178e-05,0,
10,0.00421,0.119291,0.0271226,-0.000131989,0,
10,0.00468544,0.130329,0.0271196,-0.000193722,0,
10,0.00519274,0.14084,0.027121,-0.000264304,0,
10,0.00573524,0.15062,0.0271176,-0.000337993,0,
10,0.00631651,0.159549,0.0271179,-0.000409363,0,
10,0.00694041,0.167594,0.0271138,-0.000474716,0,
10,0.00761104,0.17479,0.0271127,-0.000532369,0,
10,0.00833284,0.181212,0.0271075,-0.000582199,0,
10,0.00911058,0.186953,0.0271045,-0.000624995,0,
10,0.0099494,0.192106,0.0270977,-0.000661948,0,
10,0.0108548,0.196759,0.0270922,-0.000694352,0,
10,0.0118329,0.20099,0.0270835,-0.000723383,0,
10,0.0128901,0.204866,0.027075,-0.000750051,0,
10,0.0140333,0.208443,0.0270638,-0.000775205,0,
10,0.0152702,0.211769,0.0270517,-0.000799578,0,
10,0.0166089,0.214883,0.0270373,-0.000823764,0,
10,0.0180584,0.21782,0.0270208,-0.000848262,0,
10,0.0196282,0.220606,0.0270022,-0.000873504,0,
10,0.0213288,0.223266,0.0269806,-0.000899895,0,
10,0.0231714,0.225821,0.0269568,-0.000927791,0,
10,0.0251682,0.228287,0.0269289,-0.00095753,0,
10,0.0273326,0.230681,0.0268985,-0.000989439,0,
10,0.0296789,0.233016,0.0268628,-0.00102385,0,
10,0.0322227,0.235304,0.0268242,-0.0010611,0,
10,0.0349809,0.237555,0.0267787,-0.00110153,0,
10,0.0379719,0.239782,0.0267296,-0.00114551,0,
10,0.0412155,0.241991,0.0266722,-0.00119341,0,
10,0.0447333,0.244192,0.0266101,-0.00124563,0,
10,0.0485489,0.246394,0.0265375,-0.00130265,0,
10,0.0526875,0.248604,0.0264592,-0.00136492,0,
10,0.0571768,0.25083,0.026368,-0.00143293,0,
10,0.0620466,0.25308,0.0262694,-0.00150723,0,
10,0.0673295,0.255361,0.0261553,-0.00158846,0,
10,0.0730607,0.257681,0.0260311,-0.00167727,0,
10,0.0792784,0.260049,0.0258893,-0.00177432,0,
10,0.0860241,0.262472,0.0257336,-0.00188037,0,
10,0.0933428,0.264959,0.0255574,-0.00199635,0,
10,0.101283,0.26752,0.0253633,-0.00212316,0,
10,0.109899,0.270166,0.0251457,-0.00226175,0,
10,0.119247,0.272906,0.0249055,-0.00241326,0,
10,0.12939,0.275755,0.0246384,-0.00257887,0,
10,0.140395,0.278726,0.0243457,-0.00275989,0,
10,0.152337,0.281836,0.0240252,-0.00295763,0,
10,0.165296,0.285104,0.023675,-0.00317345,0,
10,0.179357,0.288554,0.0232998,-0.00340883,0,
10,0.194615,0.292211,0.0228952,-0.00366525,0,
10,0.211171,0.29611,0.0224789,-0.0039441,0,
10,0.229138,0.300292,0.0220401,-0.00424654,0,
10,0.248635,0.304808,0.0216125,-0.00457317,0,
10,0.269793,0.309723,0.0211881,-0.00492411,0,
10,0.292753,0.315121,0.0208125,-0.00529827,0,
10,0.317669,0.321108,0.0205002,-0.00569259,0,
10,0.344708,0.327826,0.0202383,-0.00609668,0,
10,0.372405,0.335025,0.0202128,-0.00669564,0,
10,0.399623,0.342976,0.020888,-0.00693263,0,
10,0.426397,0.352658,0.0218763,-0.00701263,0,
10,0.452757,0.364648,0.0225748,-0.00708971,0,
10,0.478735,0.378748,0.0229853,-0.00714615,0,
10,0.504358,0.394297,0.0232148,-0.00716001,0,
10,0.529657,0.41068,0.0233644,-0.00711951,0,
10,0.554656,0.42758,0.0234883,-0.00702211,0,
10,0.579382,0.444949,0.0236054,-0.00686921,0,
10,0.603859,0.462865,0.0237093,-0.00666259,0,
10,0.628112,0.481409,0.0237876,-0.00640359,0,
10,0.652163,0.500585,0.0238275,-0.0060937,0,
10,0.676035,0.520299,0.0238236,-0.00573591,0,
10,0.699751,0.54035,0.0237727,-0.00533599,0,
10,0.72333,0.560436,0.0236747,-0.00490513,0,
10,0.746795,0.580142,0.0235208,-0.00448001,0,
10,0.770165,0.59905,0.0233231,-0.00407146,0,
10,0.79346,0.616942,0.0231075,-0.00367613,0,
10,0.816699,0.633813,0.0228829,-0.003295,0,
10,0.839903,0.649733,0.0226489,-0.00293178,0,
10,0.863088,0.664733,0.0224004,-0.00259127,0,
10,0.886275,0.678786,0.0221343,-0.0022785,0,
10,0.909481,0.691831,0.0218501,-0.00199776,0,
10,0.932723,0.70382,0.0215502,-0.00175159,0,
10,0.956021,0.714754,0.0212371,-0.00154042,0,
10,0.97939,0.724677,0.0209132,-0.00136277,0,
10,1.00285,0.73367,0.0205799,-0.00121582,0,
10,1.02641,0.741834,0.0202385,-0.00109596,0,
10,1.0501,0.74928,0.0198898,-0.000999172,0,
10,1.07392,0.756127,0.0195345,-0.000921441,0,
10,1.0979,0.762488,0.019173,-0.000859021,0,
10,1.12205,0.768467,0.0188057,-0.000808634,0,
10,1.14639,0.774157,0.0184328,-0.000767536,0,
10,1.17093,0.779636,0.0180545,-0.000733471,0,
10,1.19568,0.784965,0.0176706,-0.000704586,0,
10,1.22066,0.790193,0.0172815,-0.000679418,0,
10,1.24589,0.795351,0.0168866,-0.000657203,0,
10,1.27137,0.800461,0.0164859,-0.000637625,0,
10,1.29713,0.805537,0.0160794,-0.000619769,0,
10,1.32317,0.810593,0.0156671,-0.000602977,0,
10,1.34951,0.81564,0.0152488,-0.000586801,0,
10,1.37616,0.820683,0.0148242,-0.000570946,0,
10,1.40313,0.825724,0.0143932,-0.000555211,0,
10,1.43043,0.830763,0.0139555,-0.000539466,0,
10,1.45807,0.835798,0.013511,-0.000523634,0,
10,1.48607,0.840825,0.0130596,-0.000507674,0,
10,1.51444,0.84584,0.012601,-0.000491571,0,
10,1.54318,0.850836,0.0121352,-0.000475323,0,
10,1.57231,0.855805,0.011662,-0.000458933,0,
10,1.60184,0.86074,0.0111813,-0.000442405,0,
10,1.63178,0.865632,0.0106931,-0.000425795,0,
10,1.66213,0.870468,0.0101972,-0.000409208,0,
10,1.69292,0.875237,0.00969376,-0.000392634,0,
10,1.72416,0.879925,0.00918262,-0.000376074,0,
10,1.75585,0.884518,0.00866387,-0.000359542,0,
10,1.78802,0.889002,0.0081373,-0.000343063,0,
10,1.82067,0.893361,0.00760355,-0.000326671,0,
10,1.85383,0.897582,0.0070616,-0.000310375,0,
10,1.88751,0.901654,0.00651579,-0.000292787,0,
10,1.92173,0.905581,0.00596966,-0.000265323,0,
10,1.95652,0.909347,0.00541504,-0.000237655,0,
10,1.9919,0.912914,0.00485194,-0.00021046,0,
10,2.02791,0.916267,0.00427939,-0.000184706,0,
10,2.06456,0.919395,0.00369927,-0.000160431,0,
10,2.10268,0.922345,0.00309586,-0.000137075,0,
10,2.1443,0.925209,0.002442,-0.000114841,0,
10,2.18977,0.927942,0.0017307,-9.36311e-05,0,
10,2.23946,0.930465,0.000960384,-7.36016e-05,0,
10,2.29376,0.932703,0.000125786,-5.54042e-05,0,
10,2.35309,0.934583,-0.000774862,-3.95249e-05,0,
10,2.4179,0.936041,-0.001745,-2.63422e-05,0,
10,2.48863,0.93704,-0.00278553,-1.6099e-05,0,
10,2.56575,0.937575,-0.00389772,-8.83226e-06,0,
10,2.64971,0.937694,-0.0050808,-4.32201e-06,0,
10,2.74098,0.9375,-0.00633368,-2.07618e-06,0,
10,2.83997,0.937149,-0.00765363,-1.3751e-06,0,
10,2.94709,0.936827,-0.00903729,-1.39371e-06,0,
10,3.06269,0.936716,-0.0104799,-1.42628e-06,0,
10,3.18706,0.936942,-0.0119758,-1.15146e-06,0,
10,3.3204,0.937536,-0.013518,-6.92654e-07,0,
10,3.46281,0.938422,-0.0150981,-3.17518e-07,0,
10,3.61427,0.939459,-0.016706,-1.26893e-07,0,
10,3.77463,0.9405,-0.0183302,-5.87498e-08,0,
10,3.94358,0.941448,-0.0199576,-3.83484e-08,0,
10,4.12067,0.942278,-0.0215743,-3.11194e-08,0,
10,4.30525,0.94302,-0.0231666,-2.75053e-08,0,
10,4.49655,0.943718,-0.0247211,-2.55602e-08,0,
10,4.6936,0.944405,-0.0262258,-2.50014e-08,0,
10,4.89531,0.945087,-0.0276696,-2.62822e-08,0,
10,5.10047,0.945752,-0.0290431,-3.10553e-08,0,
10,5.30776,0.946379,-0.0303389,-4.30631e-08,0,
10,5.51581,0.946952,-0.0315514,-6.988e-08,0,
10,5.72323,0.947468,-0.0326767,-1.27661e-07,0,
10,5.92863,0.947949,-0.0337132,-2.55999e-07,0,
10,6.13069,0.948461,-0.0346604,-5.60074e-07,0,
10,6.32816,0.9491,-0.0355206,-1.26059e-06,0,
10,6.51991,0.949896,-0.0362957,-2.43732e-06,0,
10,6.70495,0.950622,-0.0369914,-2.54736e-06,0,
10,6.88244,0.95058,-0.0376102,4.48182e-06,0,
10,7.0517,0.948598,-0.0381593,3.0372e-05,0,
10,7.21224,0.943401,-0.0386369,8.86791e-05,0,
10,7.3637,0.934148,-0.0390527,0.000190215,0,
10,7.5059,0.920558,-0.0394195,0.000294154,0,
10,7.63878,0.902959,-0.0397248,0.000411727,0,
10,7.76243,0.882732,-0.0399801,0.000540965,0,
10,7.87701,0.861753,-0.0401858,0.000671309,0,
10,7.9828,0.841531,-0.0403551,0.000790007,0,
10,8.08014,0.822765,-0.0404904,0.000889182,0,
10,8.16941,0.805489,-0.0406037,0.00097041,0,
10,8.25106,0.789433,-0.0406976,0.00103762,0,
10,8.32554,0.774276,-0.0407786,0.00109431,0,
10,8.39331,0.759752,-0.0408477,0.00114284,0,
10,8.45484,0.745681,-0.0409078,0.00118459,0,
10,8.5106,0.731955,-0.0409595,0.00122036,0,
10,8.56104,0.718527,-0.0410043,0.00125059,0,
10,8.60659,0.705382,-0.0410436,0.00127571,0,
10,8.64767,0.692509,-0.0410772,0.00129556,0,
10,8.68467,0.679853,-0.0411057,0.00130603,0,
10,8.71795,0.667362,-0.0411312,0.00131452,0,
10,8.74786,0.655024,-0.041153,0.00131939,0,
10,8.77471,0.642832,-0.0411723,0.00132075,0,
10,8.79881,0.630781,-0.041189,0.00131887,0,
10,8.8204,0.618864,-0.0412036,0.00131407,0,
10,8.83975,0.607074,-0.0412162,0.0013067,0,
10,8.85708,0.595399,-0.0412271,0.00129714,0,
10,8.87259,0.583827,-0.0412366,0.00128575,0,
10,8.88646,0.572341,-0.0412447,0.00127285,0,
10,8.89886,0.560919,-0.0412517,0.00125875,0,
10,8.90995,0.549539,-0.0412577,0.0012437,0,
10,8.91986,0.538174,-0.0412627,0.00122791,0,
10,8.92872,0.526794,-0.0412671,0.00121154,0,
10,8.93663,0.515367,-0.0412707,0.00119467,0,
10,8.94369,0.503854,-0.0412739,0.00117735,0,
10,8.95,0.492218,-0.0412765,0.00115955,0,
10,8.95564,0.480413,-0.0412787,0.00114117,0,
10,8.96067,0.468391,-0.0412805,0.00112209,0,
10,8.96517,0.456098,-0.0412821,0.00110207,0,
10,8.96918,0.443474,-0.0412833,0.00108079,0,
10,8.97276,0.430449,-0.0412845,0.00105783,0,
10,8.97596,0.416943,-0.0412853,0.00103264,0,
10,8.97882,0.402865,-0.0412861,0.00100449,0,
10,8.98137,0.388106,-0.0412866,0.000972458,0,
10,8.98365,0.372539,-0.0412873,0.000935331,0,
10,8.98569,0.356014,-0.0412875,0.000891591,0,
10,8.9875,0.33835,-0.0412881,0.000839651,0,
10,8.98913,0.319313,-0.041288,0.000773413,0,
10,8.99058,0.298659,-0.0412886,0.000695126,0,
10,8.99188,0.27622,-0.0412884,0.000602499,0,
10,8.99304,0.251827,-0.0412889,0.000488329,0,
10,8.99408,0.225422,-0.0412886,0.000359912,0,
10,8.99501,0.197355,-0.0412892,0.000230731,0,
10,8.99583,0.168515,-0.0412887,0.000123116,0,
10,8.99658,0.140185,-0.0412893,5.31628e-05,0,
10,8.99724,0.113519,-0.0412887,1.84122e-05,0,
10,8.99784,0.0891407,-0.0412894,5.06682e-06,0,
10,8.99837,0.0671765,-0.0412887,1.06324e-06,0,
10,8.99885,0.0474949,-0.0412895,1.52323e-07,0,
10,8.99927,0.0298823,-0.0412886,1.15632e-08,0,
10,8.99966,0.0141199,-0.0412896,2.55801e-10,0,
10,0,0,0.0271264,0,0,
10,9,0,-0.0412885,0,0,

0.004,0,0,-0.214089,0,6.42864e-08,
0.00868226,0,0,-0.214091,0,-5.24686e-07,
0.014062,0,0,-0.214088,0,-1.21399e-06,
0.0201548,0,0,-0.21409,0,-1.96326e-06,
0.0269766,0,0,-0.214082,0,-2.09832e-06,
0.0345437,0,0,-0.214081,0,-9.96159e-07,
0.0428729,0,0,-0.21407,0,1.79826e-06,
0.051981,0,0,-0.214067,0,6.72284e-06,
0.0618853,0,0,-0.214062,0,1.35623e-05,
0.0726036,0,0,-0.214069,0,2.1895e-05,
0.0841536,0,0,-0.214081,0,3.08135e-05,
0.0965535,0,0,-0.214106,0,3.9609e-05,
0.109822,0,0,-0.214138,0,4.76785e-05,
0.123977,0,0,-0.214182,0,5.48519e-05,
0.139037,0,0,-0.214233,0,6.11224e-05,
0.155022,0,0,-0.214294,0,6.66364e-05,
0.171949,0,0,-0.214364,0,7.14495e-05,
0.189839,0,0,-0.214447,0,7.55116e-05,
0.208709,0,0,-0.214542,0,7.861e-05,
0.228579,0,0,-0.214652,0,8.04531e-05,
0.249467,0,0,-0.214776,0,8.07215e-05,
0.271391,0,0,-0.214915,0,7.91471e-05,
0.29437,0,0,-0.215068,0,7.55466e-05,
0.31842,0,0,-0.215233,0,6.98547e-05,
0.343559,0,0,-0.215409,0,6.21208e-05,
0.369804,0,0,-0.215593,0,5.25095e-05,
0.39717,0,0,-0.215785,0,4.12595e-05,
0.425672,0,0,-0.21598,0,2.86517e-05,
0.455324,0,0,-0.216179,0,1.49591e-05,
0.48614,0,0,-0.216379,0,4.38821e-07,
0.518132,0,0,-0.216579,0,-1.4708e-05,
0.551309,0,0,-0.216779,0,-3.0342e-05,
0.585683,0,0,-0.216979,0,-4.64034e-05,
0.621259,0,0,-0.217178,0,-6.28929e-05,
0.658046,0,0,-0.217377,0,-7.98777e-05,
0.696047,0,0,-0.217576,0,-9.74908e-05,
0.735265,0,0,-0.217777,0,-0.000115893,
0.7757,0,0,-0.217978,0,-0.000135309,
0.817352,0,0,-0.218181,0,-0.000155947,
0.860215,0,0,-0.218388,0,-0.000178004,
0.904285,0,0,-0.218595,0,-0.00020168,
0.949552,0,0,-0.218802,0,-0.000227078,
0.996004,0,0,-0.219009,0,-0.000254166,
1.04363,0,0,-0.219217,0,-0.000283026,
1.09241,0,0,-0.219418,0,-0.000313266,
1.14232,0,0,-0.219605,0,-0.000344617,
1.19335,0,0,-0.219774,0,-0.000376799,
1.24546,0,0,-0.219912,0,-0.000409726,
1.29863,0,0,-0.220011,0,-0.000443699,
1.35283,0,0,-0.220043,0,-0.000478515,
1.40802,0,0,-0.219993,0,-0.000514212,
1.46416,0,0,-0.21986,0,-0.000548125,
1.52121,0,0,-0.219612,0,-0.000577623,
1.57913,0,0,-0.219291,0,-0.000597082,
1.63787,0,0,-0.218976,0,-0.000600382,
1.69739,0,0,-0.21876,0,-0.000588305,
1.75761,0,0,-0.218692,0,-0.00056359,
1.81851,0,0,-0.218742,0,-0.000533228,
1.88,0,0,-0.218889,0,-0.000503758,
1.94204,0,0,-0.219103,0,-0.00047813,
2.00457,0,0,-0.219336,0,-0.00045636,
2.06751,0,0,-0.2196,0,-0.000432875,
2.13081,0,0,-0.220094,0,-0.000405781,
2.19439,0,0,-0.220998,0,-0.000381957,
2.25819,0,0,-0.222348,0,-0.000371704,
2.32214,0,0,-0.224055,0,-0.000381688,
2.38617,0,0,-0.226026,0,-0.000412432,
2.4502,0,0,-0.228164,0,-0.00046144,
2.51418,0,0,-0.230386,0,-0.000525033,
2.57803,0,0,-0.232614,0,-0.00060026,
2.64167,0,0,-0.234772,0,-0.000685046,
2.70505,0,0,-0.236779,0,-0.000778017,
2.76808,0,0,-0.238548,0,-0.00087772,
2.83072,0,0,-0.239979,0,-0.000982056,
2.89288,0,0,-0.240973,0,-0.00108784,
2.95451,0,0,-0.241445,0,-0.00119083,
3.01555,0,0,-0.241346,0,-0.00128656,
3.07594,0,0,-0.240669,0,-0.00137119,
3.13561,0,0,-0.239448,0,-0.00144218,
3.19453,0,0,-0.237748,0,-0.00149845,
3.25262,0,0,-0.235655,0,-0.0015404,
3.30985,0,0,-0.233262,0,-0.00156959,
3.36617,0,0,-0.230657,0,-0.00158824,
3.42154,0,0,-0.227914,0,-0.00159883,
3.47591,0,0,-0.225091,0,-0.00160365,
3.52925,0,0,-0.22223,0,-0.00160465,
3.58152,0,0,-0.219361,0,-0.00160305,
3.6327,0,0,-0.216501,0,-0.00159985,
3.68276,0,0,-0.213662,0,-0.00159563,
3.73167,0,0,-0.210855,0,-0.00159076,
3.77941,0,0,-0.208085,0,-0.00158528,
3.82596,0,0,-0.205357,0,-0.00157936,
3.8713,0,0,-0.202674,0,-0.00157303,
3.91543,0,0,-0.200038,0,-0.00156629,
3.95833,0,0,-0.197468,0,-0.00155932,
4,0,0,-0.194938,0,-0.00155203,
4.04167,0,0,-0.192398,0,-0.00154408,
4.08333,0,0,-0.189843,0,-0.00153568,
4.125,0,0,-0.187274,0,-0.00152674,
4.16667,0,0,-0.184693,0,-0.0015173,
4.20833,0,0,-0.182101,0,-0.00150735,
4.25,0,0,-0.179498,0,-0.00149691,
4.29167,0,0,-0.176885,0,-0.00148594,
4.33333,0,0,-0.174267,0,-0.0014745,
4.375,0,0,-0.171643,0,-0.00146256,
4.41667,0,0,-0.169013,0,-0.0014501,
4.45833,0,0,-0.16638,0,-0.00143719,
4.5,0,0,-0.163745,0,-0.00142384,
4.54167,0,0,-0.16111,0,-0.00141,
4.58333,0,0,-0.158473,0,-0.00139561,
4.625,0,0,-0.155839,0,-0.00138082,
4.66667,0,0,-0.153207,0,-0.00136561,
4.70833,0,0,-0.150578,0,-0.00134992,
4.75,0,0,-0.147952,0,-0.00133367,
4.79167,0,0,-0.145335,0,-0.00131706,
4.83333,0,0,-0.142724,0,-0.00130005,
4.875,0,0,-0.140117,0,-0.00128261,
4.91667,0,0,-0.137519,0,-0.00126464,
4.95833,0,0,-0.134935,0,-0.00124636,
5,0,0,-0.13236,0,-0.00122771,
5.04167,0,0,-0.129791,0,-0.00120868,
5.08333,0,0,-0.127234,0,-0.00118917,
5.125,0,0,-0.124693,0,-0.00116939,
5.16667,0,0,-0.122163,0,-0.0011492,
5.20833,0,0,-0.119643,0,-0.00112867,
5.25,0,0,-0.117136,0,-0.00110774,
5.29167,0,0,-0.114644,0,-0.00108652,
5.33333,0,0,-0.112165,0,-0.00106486,
5.375,0,0,-0.1097,0,-0.0010429,
5.41667,0,0,-0.107251,0,-0.00102061,
5.45833,0,0,-0.104814,0,-0.000998007,
5.5,0,0,-0.10239,0,-0.000974942,
5.54167,0,0,-0.0999862,0,-0.000951596,
5.58333,0,0,-0.0976002,0,-0.000927979,
5.625,0,0,-0.0952208,0,-0.000904023,
5.66667,0,0,-0.0928579,0,-0.00087963,
5.70833,0,0,-0.09052,0,-0.000855003,
5.75,0,0,-0.0882007,0,-0.000830151,
5.79167,0,0,-0.0858843,0,-0.000804968,
5.83333,0,0,-0.0835886,0,-0.000779442,
5.875,0,0,-0.0813193,0,-0.00075373,
5.91667,0,0,-0.0790676,0,-0.000727799,
5.95833,0,0,-0.0768181,0,-0.00070153,
6,0,0,-0.0745956,0,-0.000675048,
6.04167,0,0,-0.0723967,0,-0.000648411,
6.08333,0,0,-0.070212,0,-0.000621566,
6.125,0,0,-0.0680323,0,-0.000594406,
6.16667,0,0,-0.0658859,0,-0.000567167,
6.20833,0,0,-0.0637568,0,-0.00053975,
6.25,0,0,-0.0616379,0,-0.000512087,
6.29167,0,0,-0.0595298,0,-0.00048413,
6.33333,0,0,-0.0574596,0,-0.000456206,
6.375,0,0,-0.0554003,0,-0.000428024,
6.41667,0,0,-0.05335,0,-0.000399603,
6.45833,0,0,-0.0513175,0,-0.00037095,
6.5,0,0,-0.0493236,0,-0.0003424,
6.54167,0,0,-0.0473356,0,-0.000313476,
6.58333,0,0,-0.0453587,0,-0.000284309,
6.625,0,0,-0.0434085,0,-0.000254995,
6.66667,0,0,-0.0414924,0,-0.000225811,
6.70833,0,0,-0.0395824,0,-0.000196145,
6.75,0,0,-0.0376916,0,-0.00016629,
6.79167,0,0,-0.0358324,0,-0.000136356,
6.83333,0,0,-0.0340002,0,-0.000106502,
6.875,0,0,-0.0321794,0,-7.61193e-05,
6.91667,0,0,-0.0303873,0,-4.56455e-05,
6.95833,0,0,-0.0286314,0,-1.51841e-05,
7,0,0,-0.0268933,0,1.52414e-05,
7.04167,0,0,-0.0251771,0,4.61313e-05,
7.08333,0,0,-0.0234997,0,7.70125e-05,
7.125,0,0,-0.0218592,0,0.000107849,
7.16667,0,0,-0.0202305,0,0.000138695,
7.20833,0,0,-0.0186362,0,0.00016979,
7.25,0,0,-0.0170867,0,0.00020076,
7.29167,0,0,-0.0155723,0,0.000231678,
7.33333,0,0,-0.0140665,0,0.000262683,
7.375,0,0,-0.0126085,0,0.000293658,
7.41667,0,0,-0.0111954,0,0.00032444,
7.45833,0,0,-0.00981503,0,0.000355164,
7.5,0,0,-0.00844587,0,0.00038599,
7.54167,0,0,-0.00713434,0,0.000416479,
7.58333,0,0,-0.00586089,0,0.000446761,
7.625,0,0,-0.00461905,0,0.000477018,
7.66667,0,0,-0.00339415,0,0.000507367,
7.70833,0,0,-0.00223291,0,0.000537108,
7.75,0,0,-0.00110044,0,0.000566657,
7.79167,0,0,1.37582e-06,0,0.000596166,
7.83333,0,0,0.00107992,0,0.000625751,
7.875,0,0,0.00209344,0,0.00065454,
7.91667,0,0,0.00309286,0,0.000683495,
7.95833,0,0,0.00402963,0,0.000711945,
8,0,0,0.00499656,0,0.000740654,
8.04171,0,0,0.00593117,0,0.000769208,
8.08368,0,0,0.00678058,0,0.000797853,
8.12617,0,0,0.00764202,0,0.00082553,
8.16946,0,0,0.00847929,0,0.00085359,
8.21382,0,0,0.00927623,0,0.000881152,
8.25952,0,0,0.0100906,0,0.00090933,
8.30685,0,0,0.0108999,0,0.000938074,
8.35611,0,0,0.0116955,0,0.000967661,
8.40762,0,0,0.0124797,0,0.000997516,
8.46168,0,0,0.0132927,0,0.00102872,
8.51865,0,0,0.0141075,0,0.00106092,
8.57889,0,0,0.0149002,0,0.00109432,
8.64276,0,0,0.015712,0,0.00112862,
8.71067,0,0,0.0165452,0,0.00116449,
8.78306,0,0,0.0173894,0,0.0012017,
8.86037,0,0,0.018199,0,0.00124051,
8.94309,0,0,0.0190755,0,0.0012809,
9.03174,0,0,0.0199547,0,0.00132195,
9.12689,0,0,0.0208406,0,0.00136582,
9.22912,0,0,0.0217711,0,0.00141224,
9.33908,0,0,0.0226504,0,0.0014594,
9.45746,0,0,0.0236326,0,0.00151029,
9.58501,0,0,0.0245711,0,0.00156418,
9.72253,0,0,0.0255232,0,0.00162097,
9.87088,0,0,0.0263916,0,0.00167652,
10.031,0,0,0.0273028,0,0.00173652,
10.2039,0,0,0.0280987,0,0.00179898,
10.3906,0,0,0.0286993,0,0.00186298,
10.5924,0,0,0.0291388,0,0.00192603,
10.8105,0,0,0.0293436,0,0.00198735,
11.0463,0,0,0.0293296,0,0.00204597,
11.3012,0,0,0.02905,0,0.0021007,
11.5769,0,0,0.0285804,0,0.00215467,
11.8751,0,0,0.027753,0,0.00219981,
12.1977,0,0,0.0268919,0,0.0022391,
12.5466,0,0,0.0260099,0,0.00227367,
12.9242,0,0,0.0250814,0,0.00230513,
13.3327,0,0,0.0241358,0,0.00233447,
13.7748,0,0,0.0230464,0,0.00236025,
14.2532,0,0,0.0217629,0,0.00238234,
14.7709,0,0,0.0203675,0,0.00239847,
15.3312,0,0,0.0190846,0,0.00241136,
15.9377,0,0,0.0179408,0,0.00242147,
16.594,0,0,0.0168114,0,0.0024282,
17.3044,0,0,0.0156318,0,0.00243232,
18.0733,0,0,0.0144377,0,0.00243318,
18.9056,0,0,0.0133468,0,0.00243205,
19.8064,0,0,0.0124101,0,0.00242959,
20.7816,0,0,0.0115599,0,0.00242592,
21.8371,0,0,0.0107492,0,0.00242093,
22.9796,0,0,0.00999426,0,0.00241526,
24.2163,0,0,0.00930995,0,0.00241004,
25.5551,0,0,0.00868776,0,0.00240555,
27.0042,0,0,0.0081378,0,0.00240268,
28.5729,0,0,0.00763621,0,0.00240102,
30.271,0,0,0.00713241,0,0.00239986,
32.1091,0,0,0.00656759,0,0.00239924,
34.0989,0,0,0.00588076,0,0.00239863,
36.2529,0,0,0.00506241,0,0.00239889,
38.5845,0,0,0.00416906,0,0.00240099,
41.1085,0,0,0.00330892,0,0.00240487,
43.8407,0,0,0.00230654,0,0.00240785,
46.7983,0,0,0.00122474,0,0.00240617,
50,0,0,0.00220445,0,0.00241557,

