0e91cc41782a21ccab20ec8321cf904c9ebe0d1c 
X,Z,x_velocity,cp,uw_b,cf,
1,0,0,-0.228276,0,0,
1,9,0,-0.129816,0,0,
1,8.99969,0.0154453,-0.129816,2.88771e-10,0,
1,8.99934,0.0329679,-0.129816,1.34978e-08,0,
1,8.99894,0.0528653,-0.129816,1.86188e-07,0,
1,8.99848,0.075452,-0.129816,1.36483e-06,0,
1,8.99797,0.101041,-0.129816,6.82052e-06,0,
1,8.99739,0.129828,-0.129816,2.58064e-05,0,
1,8.99672,0.161614,-0.129816,7.63984e-05,0,
1,8.99597,0.195454,-0.129816,0.000177433,0,
1,8.99512,0.229689,-0.129816,0.000326684,0,
1,8.99416,0.262662,-0.129816,0.000495388,0,
1,8.99306,0.293398,-0.129815,0.000654073,0,
1,8.99182,0.321728,-0.129815,0.000781797,0,
1,8.99041,0.347794,-0.129815,0.000887578,0,
1,8.98881,0.371756,-0.129814,0.000974948,0,
1,8.98699,0.393833,-0.129814,0.00104627,0,
1,8.98494,0.414318,-0.129813,0.00110212,0,
1,8.98261,0.433521,-0.129812,0.00114514,0,
1,8.97996,0.45168,-0.129811,0.00118118,0,
1,8.97696,0.468967,-0.12981,0.00121111,0,
1,8.97356,0.485523,-0.129809,0.00123621,0,
1,8.9697,0.501467,-0.129807,0.00125744,0,
1,8.96533,0.516897,-0.129806,0.00127552,0,
1,8.96038,0.531896,-0.129804,0.00129099,0,
1,8.95476,0.546534,-0.129801,0.00130421,0,
1,8.9484,0.560871,-0.129799,0.00131545,0,
1,8.9412,0.574955,-0.129796,0.0013249,0,
1,8.93303,0.588832,-0.129793,0.00133266,0,
1,8.92379,0.602537,-0.12979,0.0013388,0,
1,8.91333,0.616104,-0.129787,0.00134333,0,
1,8.90149,0.62956,-0.129784,0.00134624,0,
1,8.8881,0.64293,-0.12978,0.00134747,0,
1,8.87295,0.656238,-0.129777,0.00134696,0,
1,8.85584,0.669502,-0.129775,0.00134461,0,
1,8.83651,0.682745,-0.129773,0.00134033,0,
1,8.81469,0.695985,-0.129772,0.00133398,0,
1,8.79007,0.709244,-0.129773,0.00132541,0,
1,8.76232,0.722545,-0.129776,0.00131445,0,
1,8.73107,0.735915,-0.129782,0.00130089,0,
1,8.69591,0.749388,-0.129793,0.00128446,0,
1,8.6564,0.763002,-0.129809,0.00126486,0,
1,8.61206,0.776807,-0.129832,0.00124169,0,
1,8.56236,0.790864,-0.129865,0.00121444,0,
1,8.50675,0.805253,-0.129911,0.00118254,0,
1,8.44464,0.820077,-0.129972,0.00114551,0,
1,8.3754,0.835473,-0.130056,0.00110486,0,
1,8.29839,0.851688,-0.130162,0.00105331,0,
1,8.21296,0.869081,-0.130297,0.000972624,0,
1,8.11843,0.887913,-0.130475,0.0008668,0,
1,8.01417,0.908139,-0.130704,0.00073261,0,
1,7.89956,0.929268,-0.130986,0.000574262,0,
1,7.77403,0.950179,-0.131353,0.000411485,0,
1,7.63711,0.969257,-0.131795,0.000210015,0,
1,7.48842,0.984083,-0.13232,7.67821e-05,0,
1,7.32773,0.992719,-0.132947,1.79585e-05,0,
1,7.15495,0.995755,-0.133679,1.68511e-06,0,
1,6.97022,0.995739,-0.134526,1.45012e-08,0,
1,6.77388,0.995115,-0.135506,3.54843e-09,0,
1,6.56652,0.995013,-0.136633,9.68774e-09,0,
1,6.34896,0.995475,-0.137921,1.24246e-08,0,
1,6.12229,0.996197,-0.139384,1.39701e-08,0,
1,5.88784,0.996987,-0.141035,1.47961e-08,0,
1,5.64716,0.997812,-0.142889,1.57614e-08,0,
1,5.40194,0.998705,-0.144954,1.71073e-08,0,
1,5.15407,0.999692,-0.147239,1.87363e-08,0,
1,4.90545,1.00078,-0.149746,2.05781e-08,0,
1,4.65805,1.00197,-0.152475,2.25786e-08,0,
1,4.41376,1.00327,-0.155418,2.46619e-08,0,
1,4.17441,1.00464,-0.158563,2.65628e-08,0,
1,3.94163,1.00605,-0.161891,2.81699e-08,0,
1,3.7169,1.00744,-0.165377,3.00597e-08,0,
1,3.50146,1.00887,-0.16899,3.42124e-08,0,
1,3.29629,1.01066,-0.172697,4.26929e-08,0,
1,3.10217,1.01317,-0.176468,5.38622e-08,0,
1,2.91959,1.01623,-0.180272,9.09733e-08,0,
1,2.74885,1.01848,-0.184069,8.76266e-07,0,
1,2.59002,1.01756,-0.187796,-4.57784e-06,0,
1,2.44299,1.01171,-0.191386,-4.42833e-05,0,
1,2.30752,1.00096,-0.194775,-0.000131994,0,
1,2.18321,0.986694,-0.197894,-0.000257105,0,
1,2.06959,0.970474,-0.200773,-0.000373578,0,
1,1.9661,0.953611,-0.203406,-0.000464127,0,
1,1.87215,0.937069,-0.205741,-0.000547846,0,
1,1.78711,0.921405,-0.207814,-0.000621438,0,
1,1.71033,0.906796,-0.209642,-0.00068449,0,
1,1.64119,0.893213,-0.211245,-0.000738533,0,
1,1.57905,0.880544,-0.212647,-0.000785746,0,
1,1.52332,0.868658,-0.213868,-0.000828314,0,
1,1.47342,0.857439,-0.214929,-0.000868169,0,
1,1.42882,0.846794,-0.215849,-0.000906964,0,
1,1.389,0.836658,-0.216656,-0.000946802,0,
1,1.35351,0.826999,-0.217335,-0.000972664,0,
1,1.3219,0.817788,-0.217895,-0.00098775,0,
1,1.29378,0.808992,-0.218381,-0.00100119,0,
1,1.26878,0.800593,-0.218796,-0.00101281,0,
1,1.24659,0.792583,-0.219151,-0.00102286,0,
1,1.22689,0.784949,-0.219454,-0.00103144,0,
1,1.2092,0.7776,-0.219717,-0.00103758,0,
1,1.1932,0.770481,-0.219945,-0.00104209,0,
1,1.1787,0.763572,-0.220144,-0.00104578,0,
1,1.16554,0.756846,-0.220317,-0.00105034,0,
1,1.15357,0.750264,-0.220467,-0.00105815,0,
1,1.14266,0.743763,-0.220598,-0.00107347,0,
1,1.13268,0.737251,-0.220712,-0.00110235,0,
1,1.12354,0.730601,-0.220813,-0.00115279,0,
1,1.11514,0.723645,-0.220906,-0.0012344,0,
1,1.10739,0.716188,-0.220993,-0.00135709,0,
1,1.10022,0.708029,-0.22108,-0.00152957,0,
1,1.09357,0.698998,-0.221169,-0.00175737,0,
1,1.08738,0.688999,-0.221264,-0.0020403,0,
1,1.0816,0.678039,-0.221364,-0.0023729,0,
1,1.07618,0.666235,-0.221471,-0.00274412,0,
1,1.07107,0.653787,-0.221582,-0.00313937,0,
1,1.06626,0.640922,-0.221699,-0.0035435,0,
1,1.06169,0.627861,-0.221819,-0.00394332,0,
1,1.05735,0.614787,-0.221941,-0.00432889,0,
1,1.05321,0.601839,-0.222065,-0.00469361,0,
1,1.04925,0.589115,-0.222189,-0.00503371,0,
1,1.04544,0.576677,-0.222313,-0.00534753,0,
1,1.04177,0.564562,-0.222436,-0.00563481,0,
1,1.03822,0.552785,-0.222559,-0.0058962,0,
1,1.03478,0.541351,-0.222681,-0.00613287,0,
1,1.03144,0.530253,-0.222801,-0.00634623,0,
1,1.02818,0.519481,-0.222921,-0.0065378,0,
1,1.025,0.509021,-0.223039,-0.00670909,0,
1,1.02188,0.498857,-0.223156,-0.00686156,0,
1,1.01882,0.488972,-0.223272,-0.00699657,0,
1,1.01581,0.47935,-0.223387,-0.00711552,0,
1,1.01284,0.469975,-0.2235,-0.00721892,0,
1,1.00988,0.460732,-0.223614,-0.00730909,0,
1,1.00688,0.451511,-0.223729,-0.00738841,0,
1,1.00384,0.4423,-0.223846,-0.00745616,0,
1,1.00076,0.433084,-0.223964,-0.00751235,0,
1,0.997615,0.423846,-0.224083,-0.00755684,0,
1,0.99441,0.414564,-0.224204,-0.00758981,0,
1,0.991131,0.405216,-0.224327,-0.00761135,0,
1,0.987768,0.395778,-0.224451,-0.00762131,0,
1,0.984308,0.386224,-0.224578,-0.00761942,0,
1,0.980739,0.376529,-0.224706,-0.00760531,0,
1,0.977045,0.366662,-0.224838,-0.00757845,0,
1,0.973211,0.356593,-0.224972,-0.00753821,0,
1,0.969219,0.34629,-0.22511,-0.00748377,0,
1,0.965047,0.335717,-0.225251,-0.00741416,0,
1,0.960675,0.324836,-0.225396,-0.00732823,0,
1,0.956077,0.313609,-0.225545,-0.00722463,0,
1,0.951224,0.30199,-0.225698,-0.00710181,0,
1,0.946088,0.289936,-0.225855,-0.00695773,0,
1,0.940633,0.277396,-0.226017,-0.00678956,0,
1,0.934823,0.264324,-0.226185,-0.00659555,0,
1,0.928616,0.250681,-0.226357,-0.00637339,0,
1,0.921967,0.236443,-0.226536,-0.00612282,0,
1,0.914826,0.221603,-0.22672,-0.00584062,0,
1,0.907141,0.206168,-0.22691,-0.00552531,0,
1,0.898852,0.190164,-0.227105,-0.00517617,0,
1,0.889898,0.173642,-0.227304,-0.00479352,0,
1,0.880212,0.156687,-0.227506,-0.0043792,0,
1,0.869723,0.139423,-0.227711,-0.00393707,0,
1,0.858358,0.122025,-0.227918,-0.00347363,0,
1,0.846039,0.104726,-0.228126,-0.00299858,0,
1,0.83269,0.0878256,-0.228334,-0.00252477,0,
1,0.818232,0.071694,-0.228544,-0.00207242,0,
1,0.802744,0.0568679,-0.228746,-0.00166451,0,
1,0.78635,0.0437974,-0.228945,-0.00131751,0,
1,0.768969,0.0325975,-0.229131,-0.00104121,0,
1,0.75053,0.0232017,-0.229305,-0.000835989,0,
1,0.730977,0.015362,-0.229458,-0.000693876,0,
1,0.710271,0.00872044,-0.229587,-0.000603248,0,
1,0.688397,0.00290387,-0.229686,-0.000550974,0,
1,0.66536,-0.00240649,-0.229758,-0.000524182,0,
1,0.641194,-0.00743361,-0.229801,-0.000516711,0,
1,0.615961,-0.0123264,-0.229816,-0.000517489,0,
1,0.589754,-0.0171957,-0.22981,-0.000520015,0,
1,0.562692,-0.0221015,-0.229782,-0.000520797,0,
1,0.534925,-0.027051,-0.229734,-0.000517438,0,
1,0.506624,-0.0320149,-0.229666,-0.000508788,0,
1,0.477982,-0.0369417,-0.229578,-0.000494435,0,
1,0.449206,-0.0417699,-0.229472,-0.000474452,0,
1,0.420509,-0.0464356,-0.229349,-0.000449182,0,
1,0.392107,-0.0508778,-0.229213,-0.000419146,0,
1,0.364206,-0.0550419,-0.229067,-0.000384988,0,
1,0.337003,-0.0588808,-0.228918,-0.000347447,0,
1,0.310673,-0.0623561,-0.228769,-0.000307322,0,
1,0.28537,-0.0654384,-0.228624,-0.000265447,0,
1,0.26122,-0.0681068,-0.228488,-0.000222649,0,
1,0.238324,-0.0703479,-0.228365,-0.000179719,0,
1,0.21675,-0.0721547,-0.228256,-0.000137379,0,
1,0.196544,-0.0735254,-0.228164,-9.62995e-05,0,
1,0.177724,-0.0744616,-0.22809,-5.7075e-05,0,
1,0.160284,-0.074968,-0.228033,-2.02195e-05,0,
1,0.144202,-0.0750505,-0.227993,1.38323e-05,0,
1,0.129436,-0.0747164,-0.227968,4.47162e-05,0,
1,0.115935,-0.0739739,-0.227957,7.21299e-05,0,
1,0.103636,-0.0728318,-0.227957,9.58265e-05,0,
1,0.0924701,-0.0713001,-0.227967,0.000115614,0,
1,0.0823633,-0.0693904,-0.227985,0.000131359,0,
1,0.0732406,-0.0671166,-0.228008,0.000142994,0,
1,0.0650269,-0.0644956,-0.228034,0.000150531,0,
1,0.057648,-0.0615479,-0.228062,0.000154062,0,
1,0.0510323,-0.0582977,-0.228091,0.000153765,0,
1,0.0451115,-0.0547724,-0.228119,0.00014989,0,
1,0.0398209,-0.0510011,-0.228146,0.000142733,0,
1,0.0351001,-0.0470131,-0.22817,0.000132632,0,
1,0.0308929,-0.0428371,-0.228192,0.000119957,0,
1,0.0271475,-0.0385009,-0.228211,0.000105094,0,
1,0.0238164,-0.0340337,-0.228227,8.8475e-05,0,
1,0.0208562,-0.0294733,-0.22824,7.06626e-05,0,
1,0.0182274,-0.0248801,-0.22825,5.25423e-05,0,
1,0.0158944,-0.0203572,-0.228257,3.55133e-05,0,
1,0.0138249,-0.016063,-0.228263,2.13208e-05,0,
1,0.0119898,-0.0121888,-0.228266,1.12318e-05,0,
1,0.0103632,-0.00889356,-0.228268,5.21807e-06,0,
1,0.00892169,-0.00624353,-0.228269,2.17638e-06,0,
1,0.00764438,-0.00420712,-0.228271,8.30991e-07,0,
1,0.00651264,-0.00269584,-0.228271,2.94008e-07,0,
1,0.00550983,-0.00160621,-0.228272,9.65015e-08,0,
1,0.00462115,-0.000843342,-0.228272,2.9084e-08,0,
1,0.00383341,-0.00032852,-0.228273,7.86437e-09,0,
1,0.0031349,5.15488e-07,-0.228273,1.82842e-09,0,
1,0.00251518,0.000192023,-0.228274,3.35858e-10,0,
1,0.00196502,0.000282898,-0.228273,3.86648e-11,0,
1,0.00147619,0.000301222,-0.228275,-5.20316e-13,0,
1,0.00104139,0.00026815,-0.228273,-1.10767e-12,0,
1,0.000654158,0.000199579,-0.228275,-1.52217e-13,0,
1,0.000308731,0.000107292,-0.228273,-4.70556e-15,0,

4,0,0,-0.152155,0,0,
4,9,0,-0.0995995,0,0,
4,8.99969,0.0143651,-0.0995992,2.2958e-10,0,
4,8.99934,0.0306055,-0.0995994,1.06511e-08,0,
4,8.99894,0.0489844,-0.0995991,1.45432e-07,0,
4,8.9985,0.0697801,-0.0995993,1.05545e-06,0,
4,8.99799,0.0932752,-0.0995991,5.23666e-06,0,
4,8.99742,0.119671,-0.0995992,1.98104e-05,0,
4,8.99677,0.148874,-0.099599,5.93504e-05,0,
4,8.99605,0.180188,-0.0995991,0.000141451,0,
4,8.99522,0.21224,-0.0995989,0.000269621,0,
4,8.99429,0.243481,-0.0995988,0.000423093,0,
4,8.99324,0.272851,-0.0995985,0.00057375,0,
4,8.99205,0.299982,-0.0995983,0.000703651,0,
4,8.9907,0.324955,-0.0995978,0.000808174,0,
4,8.98919,0.347945,-0.0995974,0.0008962,0,
4,8.98747,0.369141,-0.0995966,0.00096942,0,
4,8.98553,0.388819,-0.0995959,0.00102677,0,
4,8.98334,0.407258,-0.0995949,0.00107326,0,
4,8.98087,0.424676,-0.0995939,0.0011125,0,
4,8.97807,0.44124,-0.0995925,0.00114584,0,
4,8.97491,0.457092,-0.0995909,0.0011746,0,
4,8.97134,0.472351,-0.0995891,0.00119975,0,
4,8.96731,0.487116,-0.0995869,0.00122204,0,
4,8.96276,0.501472,-0.0995844,0.001242,0,
4,8.95762,0.515491,-0.0995815,0.00126,0,
4,8.95182,0.529236,-0.0995782,0.00127631,0,
4,8.94526,0.542759,-0.0995744,0.0012911,0,
4,8.93787,0.556107,-0.0995702,0.00130445,0,
4,8.92952,0.569318,-0.0995654,0.00131638,0,
4,8.92011,0.582428,-0.0995601,0.00132686,0,
4,8.90949,0.595466,-0.0995542,0.00133581,0,
4,8.89751,0.608456,-0.0995478,0.00134312,0,
4,8.88402,0.621422,-0.0995409,0.00134866,0,
4,8.86881,0.634381,-0.0995335,0.00135226,0,
4,8.85169,0.647349,-0.0995257,0.00135374,0,
4,8.83242,0.660342,-0.0995177,0.00135294,0,
4,8.81074,0.673372,-0.0995097,0.00134966,0,
4,8.78637,0.686454,-0.0995019,0.00134374,0,
4,8.75901,0.699602,-0.0994946,0.00133497,0,
4,8.7283,0.712833,-0.0994886,0.00132319,0,
4,8.69387,0.72617,-0.0994842,0.00130818,0,
4,8.65533,0.73964,-0.0994824,0.00128973,0,
4,8.61222,0.75328,-0.0994841,0.00126754,0,
4,8.56407,0.767134,-0.099491,0.00124123,0,
4,8.5104,0.781265,-0.0995041,0.00121025,0,
4,8.45065,0.795746,-0.0995264,0.00117384,0,
4,8.38429,0.810672,-0.0995586,0.00113123,0,
4,8.31073,0.826168,-0.0996063,0.00108341,0,
4,8.22941,0.842443,-0.0996707,0.00103005,0,
4,8.13974,0.859901,-0.0997572,0.000939425,0,
4,8.04115,0.878886,-0.0998726,0.000823303,0,
4,7.93313,0.899303,-0.100016,0.000682141,0,
4,7.81519,0.920411,-0.100183,0.000526693,0,
4,7.68693,0.940718,-0.100394,0.000375381,0,
4,7.54803,0.95827,-0.100635,0.000215686,0,
4,7.39831,0.97108,-0.100923,9.37505e-05,0,
4,7.23771,0.978265,-0.101272,2.8406e-05,0,
4,7.06634,0.980846,-0.101674,4.50074e-06,0,
4,6.88453,0.980936,-0.102129,-4.72951e-08,0,
4,6.69275,0.98038,-0.102639,-9.58743e-08,0,
4,6.49173,0.980083,-0.103212,2.28785e-08,0,
4,6.28238,0.980179,-0.103856,2.49702e-08,0,
4,6.06579,0.980498,-0.10458,1.41555e-08,0,
4,5.84328,0.980885,-0.105389,9.53053e-09,0,
4,5.61626,0.981281,-0.106288,8.31882e-09,0,
4,5.3863,0.981687,-0.107281,8.36913e-09,0,
4,5.15502,0.982121,-0.108369,8.94339e-09,0,
4,4.92406,0.982595,-0.109555,9.80766e-09,0,
4,4.69507,0.983119,-0.110839,1.08388e-08,0,
4,4.46961,0.983697,-0.112216,1.18864e-08,0,
4,4.24915,0.984311,-0.113684,1.26235e-08,0,
4,4.03501,0.984909,-0.115235,1.27857e-08,0,
4,3.82836,0.985421,-0.116861,1.2626e-08,0,
4,3.63018,0.985848,-0.11855,1.35188e-08,0,
4,3.44125,0.986361,-0.12029,1.83187e-08,0,
4,3.26217,0.987307,-0.122066,5.71993e-08,0,
4,3.09333,0.98898,-0.123866,4.87862e-07,0,
4,2.93497,0.991224,-0.125672,2.32336e-06,0,
4,2.78715,0.993234,-0.127469,4.59287e-06,0,
4,2.64979,0.993864,-0.129239,6.68684e-07,0,
4,2.52268,0.992177,-0.130964,-1.82257e-05,0,
4,2.40551,0.9878,-0.132621,-5.68728e-05,0,
4,2.29789,0.98093,-0.134194,-0.000114358,0,
4,2.19939,0.972126,-0.135667,-0.000185572,0,
4,2.10949,0.962069,-0.137035,-0.000263422,0,
4,2.02768,0.951396,-0.138294,-0.000341223,0,
4,1.95343,0.940617,-0.139447,-0.00041409,0,
4,1.88618,0.930094,-0.140498,-0.000479185,0,
4,1.82542,0.920061,-0.141451,-0.000535431,0,
4,1.77062,0.910647,-0.142315,-0.000582976,0,
4,1.72128,0.901912,-0.143095,-0.000622652,0,
4,1.67693,0.893869,-0.143798,-0.000655552,0,
4,1.63713,0.886503,-0.14443,-0.000682749,0,
4,1.60144,0.879784,-0.144998,-0.000705136,0,
4,1.56949,0.873673,-0.145508,-0.000723449,0,
4,1.54091,0.86813,-0.145964,-0.000739194,0,
4,1.51537,0.863101,-0.146374,-0.000752412,0,
4,1.49167,0.858376,-0.146753,-0.000762454,0,
4,1.46926,0.853856,-0.147112,-0.0007709,0,
4,1.44801,0.849516,-0.147453,-0.00077809,0,
4,1.42781,0.845338,-0.147777,-0.000783911,0,
4,1.40855,0.841305,-0.148087,-0.000788509,0,
4,1.39015,0.837399,-0.148384,-0.00079207,0,
4,1.37252,0.833603,-0.148668,-0.000794829,0,
4,1.3556,0.829901,-0.148941,-0.0007971,0,
4,1.3393,0.826277,-0.149205,-0.000799295,0,
4,1.32357,0.822711,-0.149459,-0.000801923,0,
4,1.30836,0.819185,-0.149706,-0.000805617,0,
4,1.29362,0.815676,-0.149944,-0.000811367,0,
4,1.2793,0.812162,-0.150177,-0.000820116,0,
4,1.26537,0.808612,-0.150403,-0.000833152,0,
4,1.25179,0.804994,-0.150623,-0.000852097,0,
4,1.23852,0.801265,-0.150838,-0.000878944,0,
4,1.22554,0.797377,-0.151048,-0.000916095,0,
4,1.21282,0.793269,-0.151254,-0.000966372,0,
4,1.20034,0.788873,-0.151455,-0.00103297,0,
4,1.18806,0.784109,-0.151651,-0.00111935,0,
4,1.17599,0.778892,-0.151843,-0.001229,0,
4,1.16408,0.773139,-0.152031,-0.00136503,0,
4,1.15233,0.766772,-0.152214,-0.00152982,0,
4,1.14073,0.759731,-0.152393,-0.0017245,0,
4,1.12925,0.751984,-0.152567,-0.00194864,0,
4,1.11788,0.743528,-0.152737,-0.00220009,0,
4,1.10661,0.734391,-0.152903,-0.00247516,0,
4,1.09543,0.724625,-0.153065,-0.00276895,0,
4,1.08432,0.714299,-0.153223,-0.00307591,0,
4,1.07328,0.703493,-0.153378,-0.00339035,0,
4,1.0623,0.692287,-0.153531,-0.00370689,0,
4,1.05136,0.680758,-0.15368,-0.00402071,0,
4,1.04044,0.668957,-0.153826,-0.00432785,0,
4,1.0295,0.656926,-0.15397,-0.00462527,0,
4,1.01855,0.644716,-0.154112,-0.0049101,0,
4,1.00757,0.632374,-0.154252,-0.00517972,0,
4,0.996544,0.619938,-0.154389,-0.00543231,0,
4,0.98547,0.607442,-0.154524,-0.00566592,0,
4,0.974334,0.594915,-0.154657,-0.00587902,0,
4,0.963124,0.582381,-0.154787,-0.00607028,0,
4,0.951826,0.569863,-0.154914,-0.00623833,0,
4,0.940428,0.557379,-0.15504,-0.00638246,0,
4,0.928915,0.544948,-0.155166,-0.00653129,0,
4,0.917272,0.532474,-0.155255,-0.00661672,0,
4,0.905481,0.519798,-0.155305,-0.00669884,0,
4,0.893524,0.506825,-0.155351,-0.00678663,0,
4,0.881383,0.493498,-0.155393,-0.00688003,0,
4,0.869035,0.479777,-0.155436,-0.006979,0,
4,0.856459,0.465627,-0.155481,-0.00708347,0,
4,0.843629,0.451019,-0.155528,-0.00719326,0,
4,0.830518,0.43592,-0.155578,-0.00730804,0,
4,0.817097,0.420304,-0.155631,-0.00742733,0,
4,0.803334,0.404145,-0.155686,-0.00755042,0,
4,0.789195,0.387419,-0.155743,-0.00767638,0,
4,0.774643,0.370107,-0.155802,-0.00780399,0,
4,0.759639,0.352198,-0.155863,-0.00793168,0,
4,0.744138,0.33369,-0.155926,-0.00805752,0,
4,0.728096,0.314596,-0.15599,-0.00817912,0,
4,0.711463,0.294947,-0.156055,-0.00829411,0,
4,0.694189,0.274789,-0.156122,-0.00839881,0,
4,0.676218,0.254179,-0.156189,-0.00848869,0,
4,0.657495,0.233175,-0.156255,-0.00855944,0,
4,0.637962,0.211829,-0.156321,-0.00860721,0,
4,0.617561,0.190181,-0.156383,-0.00862896,0,
4,0.596848,0.168849,-0.156436,-0.00862203,0,
4,0.576557,0.148545,-0.156482,-0.00858687,0,
4,0.556564,0.129123,-0.156518,-0.00852544,0,
4,0.536763,0.110443,-0.156542,-0.00843872,0,
4,0.517057,0.0923863,-0.156553,-0.00832673,0,
4,0.497368,0.0748904,-0.156555,-0.00818892,0,
4,0.477632,0.0579822,-0.156559,-0.00802526,0,
4,0.457804,0.0418074,-0.156584,-0.00783822,0,
4,0.437857,0.0266113,-0.156654,-0.00763436,0,
4,0.417786,0.0126344,-0.156784,-0.00742486,0,
4,0.397605,-7.92835e-05,-0.156928,-0.00722182,0,
4,0.377348,-0.0118855,-0.156905,-0.00685288,0,
4,0.357066,-0.0231491,-0.156772,-0.00649763,0,
4,0.336828,-0.0339436,-0.156658,-0.00616266,0,
4,0.316717,-0.0442415,-0.156523,-0.00581959,0,
4,0.296825,-0.0540185,-0.156377,-0.00547076,0,
4,0.27725,-0.0632548,-0.156216,-0.00511892,0,
4,0.258095,-0.0719373,-0.156041,-0.00476691,0,
4,0.239458,-0.0800599,-0.155854,-0.00441762,0,
4,0.221432,-0.0876237,-0.155655,-0.00407378,0,
4,0.2041,-0.0946363,-0.155446,-0.00373799,0,
4,0.187537,-0.101111,-0.15523,-0.00341254,0,
4,0.171798,-0.107067,-0.155008,-0.00309941,0,
4,0.156928,-0.112526,-0.154785,-0.00280021,0,
4,0.142956,-0.117512,-0.154562,-0.00251619,0,
4,0.129894,-0.12205,-0.154342,-0.00224822,0,
4,0.117744,-0.126167,-0.154129,-0.00199682,0,
4,0.106492,-0.12989,-0.153925,-0.0017622,0,
4,0.0961173,-0.133242,-0.153731,-0.00154429,0,
4,0.0865883,-0.136248,-0.153548,-0.00134277,0,
4,0.0778675,-0.138929,-0.153379,-0.00115714,0,
4,0.0699123,-0.141306,-0.153223,-0.000986752,0,
4,0.062677,-0.143397,-0.153081,-0.000830851,0,
4,0.056114,-0.145217,-0.152953,-0.000688608,0,
4,0.0501747,-0.146781,-0.152838,-0.000559157,0,
4,0.0448114,-0.148098,-0.152735,-0.000441618,0,
4,0.039977,-0.149178,-0.152645,-0.000335124,0,
4,0.0356266,-0.150026,-0.152565,-0.000238836,0,
4,0.0317171,-0.150642,-0.152495,-0.000151962,0,
4,0.0282081,-0.151026,-0.152435,-7.37733e-05,0,
4,0.0250617,-0.151169,-0.152383,-3.62087e-06,0,
4,0.0222427,-0.151057,-0.152339,5.90442e-05,0,
4,0.0197189,-0.150669,-0.152301,0.00011464,0,
4,0.0174603,-0.149971,-0.152269,0.00016341,0,
4,0.0154398,-0.148911,-0.152243,0.000205344,0,
4,0.0136326,-0.147419,-0.152221,0.000240057,0,
4,0.0120162,-0.145389,-0.152203,0.000266595,0,
4,0.0105703,-0.14267,-0.152189,0.000283164,0,
4,0.00927657,-0.139055,-0.152179,0.000286884,0,
4,0.00811839,-0.134267,-0.152171,0.00027401,0,
4,0.0070809,-0.127993,-0.152166,0.000241595,0,
4,0.0061507,-0.11998,-0.152162,0.000191242,0,
4,0.00531578,-0.110222,-0.15216,0.00013234,0,
4,0.00456537,-0.099094,-0.152158,7.88972e-05,0,
4,0.00388979,-0.0872551,-0.152158,4.05993e-05,0,
4,0.00328037,-0.0753579,-0.152157,1.8235e-05,0,
4,0.00272934,-0.0638419,-0.152158,7.19872e-06,0,
4,0.0022297,-0.0529206,-0.152156,2.47749e-06,0,
4,0.00177519,-0.0426587,-0.152157,7.20453e-07,0,
4,0.00136016,-0.0330444,-0.152156,1.65757e-07,0,
4,0.000979511,-0.0240322,-0.152157,2.65384e-08,0,
4,0.00062865,-0.0155633,-0.152155,2.2642e-09,0,
4,0.000303409,-0.00757472,-0.152157,5.51742e-11,0,

6,0,0,-0.0261975,0,0,
6,9,0,-0.0757633,0,0,
6,8.99969,0.0136414,-0.075763,1.92602e-10,0,
6,8.99934,0.0290244,-0.0757632,8.88882e-09,0,
6,8.99895,0.0463887,-0.075763,1.20506e-07,0,
6,8.9985,0.0659875,-0.0757631,8.68338e-07,0,
6,8.99801,0.0880806,-0.0757629,4.28497e-06,0,
6,8.99744,0.112867,-0.0757631,1.61942e-05,0,
6,8.99681,0.140309,-0.0757629,4.88579e-05,0,
6,8.99609,0.169866,-0.0757629,0.000118438,0,
6,8.99529,0.200361,-0.0757627,0.000231315,0,
6,8.99438,0.230352,-0.0757627,0.000372306,0,
6,8.99336,0.258744,-0.0757624,0.00051555,0,
6,8.9922,0.285053,-0.0757623,0.000643813,0,
6,8.9909,0.309288,-0.0757619,0.000747404,0,
6,8.98944,0.331612,-0.0757615,0.000834627,0,
6,8.98779,0.3522,-0.0757609,0.000907951,0,
6,8.98593,0.371302,-0.0757603,0.0009658,0,
6,8.98383,0.389181,-0.0757595,0.00101342,0,
6,8.98147,0.406041,-0.0757585,0.00105374,0,
6,8.97881,0.422048,-0.0757574,0.00108828,0,
6,8.97581,0.437341,-0.075756,0.00111839,0,
6,8.97244,0.45204,-0.0757543,0.00114506,0,
6,8.96863,0.466244,-0.0757524,0.00116907,0,
6,8.96435,0.480039,-0.0757501,0.00119097,0,
6,8.95953,0.493499,-0.0757474,0.00121119,0,
6,8.95409,0.506687,-0.0757443,0.00122999,0,
6,8.94798,0.51966,-0.0757407,0.00124759,0,
6,8.94109,0.532466,-0.0757365,0.00126407,0,
6,8.93334,0.545148,-0.0757317,0.00127946,0,
6,8.92463,0.557743,-0.0757262,0.00129375,0,
6,8.91482,0.570286,-0.0757199,0.00130683,0,
6,8.90379,0.582803,-0.0757128,0.00131858,0,
6,8.89139,0.595321,-0.0757049,0.0013288,0,
6,8.87746,0.607861,-0.0756959,0.0013373,0,
6,8.86181,0.62044,-0.075686,0.00134383,0,
6,8.84423,0.633075,-0.075675,0.00134814,0,
6,8.82452,0.645777,-0.0756629,0.00134996,0,
6,8.80241,0.658557,-0.0756496,0.00134902,0,
6,8.77763,0.671427,-0.0756353,0.00134507,0,
6,8.74989,0.684396,-0.0756199,0.00133786,0,
6,8.71885,0.697476,-0.0756035,0.00132716,0,
6,8.68417,0.710682,-0.0755861,0.00131274,0,
6,8.64545,0.724035,-0.0755681,0.00129438,0,
6,8.60229,0.73756,-0.0755494,0.00127179,0,
6,8.55423,0.751295,-0.0755306,0.00124464,0,
6,8.50082,0.765285,-0.0755116,0.00121241,0,
6,8.44155,0.779589,-0.0754933,0.0011744,0,
6,8.37592,0.79428,-0.0754751,0.00112991,0,
6,8.30339,0.809452,-0.0754589,0.00108019,0,
6,8.22344,0.825275,-0.0754451,0.00102691,0,
6,8.13555,0.842146,-0.0754389,0.000943004,0,
6,8.0392,0.860514,-0.0754349,0.000837318,0,
6,7.93391,0.880461,-0.07543,0.000709529,0,
6,7.81927,0.901396,-0.0754124,0.00056637,0,
6,7.6949,0.921892,-0.0753923,0.000424608,0,
6,7.56054,0.94006,-0.0753485,0.000292257,0,
6,7.41603,0.954208,-0.0752952,0.000150097,0,
6,7.26132,0.963301,-0.0752418,5.91164e-05,0,
6,7.09653,0.967613,-0.0751693,1.48664e-05,0,
6,6.92195,0.968654,-0.0750819,7.47154e-07,0,
6,6.73802,0.96821,-0.0749717,-1.04366e-06,0,
6,6.5454,0.967516,-0.0748361,-4.69162e-07,0,
6,6.34489,0.967058,-0.0746718,-1.24919e-07,0,
6,6.1375,0.966841,-0.0744761,-3.18142e-08,0,
6,5.92439,0.966727,-0.0742452,-1.18157e-08,0,
6,5.70687,0.966607,-0.0739747,-6.84749e-09,0,
6,5.48633,0.966443,-0.0736599,-5.42782e-09,0,
6,5.26426,0.966231,-0.073296,-5.24301e-09,0,
6,5.04218,0.965981,-0.072878,-5.5568e-09,0,
6,4.82159,0.965706,-0.0724016,-6.05453e-09,0,
6,4.60398,0.965417,-0.0718626,-6.6522e-09,0,
6,4.39071,0.965113,-0.0712581,-7.51185e-09,0,
6,4.18307,0.964765,-0.070586,-8.95853e-09,0,
6,3.98218,0.964312,-0.0698458,-1.12526e-08,0,
6,3.78902,0.963698,-0.0690389,-1.40759e-08,0,
6,3.60438,0.962942,-0.0681684,-1.78041e-08,0,
6,3.42888,0.96221,-0.0672393,-3.4596e-08,0,
6,3.26296,0.961782,-0.0662577,-8.40524e-08,0,
6,3.10691,0.9619,-0.0652301,-7.58147e-08,0,
6,2.96084,0.962556,-0.0641635,1.819e-07,0,
6,2.82473,0.963394,-0.0630669,8.86354e-08,0,
6,2.69844,0.963817,-0.0619518,-2.91068e-06,0,
6,2.58172,0.96322,-0.0608318,-1.27384e-05,0,
6,2.47424,0.961196,-0.0597209,-3.26711e-05,0,
6,2.37559,0.957615,-0.0586326,-6.38495e-05,0,
6,2.28535,0.952595,-0.0575786,-0.000105209,0,
6,2.20301,0.946412,-0.0565684,-0.000154224,0,
6,2.1281,0.939413,-0.0556091,-0.000207799,0,
6,2.06009,0.93194,-0.0547055,-0.000262966,0,
6,1.99849,0.92429,-0.0538607,-0.000317316,0,
6,1.9428,0.916699,-0.0530752,-0.000369036,0,
6,1.89255,0.909342,-0.0523496,-0.00041635,0,
6,1.84728,0.902361,-0.051681,-0.00045813,0,
6,1.80655,0.895834,-0.0510682,-0.000489141,0,
6,1.76996,0.889776,-0.0505071,-0.000511817,0,
6,1.73712,0.884187,-0.0499951,-0.000532464,0,
6,1.70768,0.879027,-0.0495288,-0.000551412,0,
6,1.67998,0.874063,-0.0490864,-0.000569621,0,
6,1.65329,0.869197,-0.0486547,-0.000587314,0,
6,1.62754,0.864422,-0.0482339,-0.000604379,0,
6,1.60265,0.859735,-0.0478228,-0.000620847,0,
6,1.57854,0.855132,-0.0474209,-0.000636761,0,
6,1.55515,0.850608,-0.0470274,-0.000652171,0,
6,1.53242,0.846159,-0.0466417,-0.000667125,0,
6,1.5103,0.841781,-0.0462631,-0.000681675,0,
6,1.48874,0.837468,-0.045891,-0.000695877,0,
6,1.46769,0.833215,-0.0455249,-0.000709805,0,
6,1.44712,0.829019,-0.0451642,-0.000723556,0,
6,1.42698,0.824875,-0.0448082,-0.000737259,0,
6,1.40725,0.820785,-0.0444562,-0.000751076,0,
6,1.38788,0.816748,-0.0441076,-0.000765191,0,
6,1.36886,0.812772,-0.0437619,-0.000779801,0,
6,1.35015,0.808857,-0.0434189,-0.000795018,0,
6,1.33173,0.805002,-0.0430797,-0.000811005,0,
6,1.31357,0.801188,-0.0427443,-0.000827602,0,
6,1.29566,0.797372,-0.0424195,-0.000840347,0,
6,1.27797,0.793511,-0.0421017,-0.000853613,0,
6,1.26048,0.789577,-0.0417836,-0.000869941,0,
6,1.24318,0.785547,-0.0414687,-0.000889883,0,
6,1.22605,0.781388,-0.0411555,-0.000915495,0,
6,1.20907,0.777056,-0.0408444,-0.000949193,0,
6,1.19223,0.772496,-0.0405351,-0.000993797,0,
6,1.17551,0.767643,-0.0402276,-0.00105243,0,
6,1.1589,0.76242,-0.0399221,-0.00112838,0,
6,1.14238,0.756746,-0.0396185,-0.00122478,0,
6,1.12595,0.750541,-0.039317,-0.00134422,0,
6,1.10959,0.743734,-0.0390179,-0.00148822,0,
6,1.09329,0.736277,-0.0387214,-0.00165681,0,
6,1.07704,0.72815,-0.038428,-0.00184812,0,
6,1.06081,0.719361,-0.0381373,-0.00205833,0,
6,1.04459,0.70995,-0.0378509,-0.00228184,0,
6,1.02836,0.699986,-0.0375666,-0.00251172,0,
6,1.01211,0.689562,-0.0372909,-0.00274607,0,
6,0.99583,0.678739,-0.0370098,-0.00297015,0,
6,0.97951,0.667516,-0.0367196,-0.00318824,0,
6,0.963136,0.655869,-0.0364344,-0.00340716,0,
6,0.946694,0.643775,-0.0361514,-0.00362813,0,
6,0.930172,0.631203,-0.0358732,-0.00385257,0,
6,0.913555,0.618121,-0.0355994,-0.00408196,0,
6,0.896829,0.604495,-0.0353308,-0.00431763,0,
6,0.879979,0.590301,-0.0350677,-0.00456065,0,
6,0.862989,0.575533,-0.034811,-0.00481203,0,
6,0.845842,0.560211,-0.034561,-0.00507296,0,
6,0.828521,0.54436,-0.0343194,-0.00534024,0,
6,0.811008,0.528001,-0.034088,-0.00561046,0,
6,0.793282,0.511149,-0.0338676,-0.00588186,0,
6,0.775322,0.49382,-0.0336588,-0.00615228,0,
6,0.757107,0.476034,-0.0334619,-0.00641912,0,
6,0.738612,0.457818,-0.033277,-0.0066794,0,
6,0.719813,0.439207,-0.0331044,-0.00692977,0,
6,0.700681,0.420243,-0.0329445,-0.00716661,0,
6,0.681188,0.400979,-0.0327979,-0.00738607,0,
6,0.661304,0.381477,-0.0326651,-0.00758406,0,
6,0.640996,0.36181,-0.0325467,-0.0077563,0,
6,0.620228,0.342055,-0.0324419,-0.0078983,0,
6,0.598964,0.322285,-0.0323492,-0.00800595,0,
6,0.577166,0.30256,-0.0322649,-0.00807606,0,
6,0.554791,0.282923,-0.0321833,-0.0081059,0,
6,0.531799,0.263392,-0.0320973,-0.00809251,0,
6,0.508144,0.243968,-0.0320047,-0.00803257,0,
6,0.48378,0.224677,-0.031915,-0.00792328,0,
6,0.459585,0.206294,-0.0318704,-0.00777196,0,
6,0.436695,0.18984,-0.0319231,-0.00760031,0,
6,0.414961,0.175435,-0.0321196,-0.00742839,0,
6,0.394252,0.162997,-0.0323831,-0.0072655,0,
6,0.374445,0.152026,-0.0323816,-0.00693337,0,
6,0.355433,0.141997,-0.032196,-0.00659929,0,
6,0.337122,0.132681,-0.032062,-0.00630608,0,
6,0.319433,0.123993,-0.0319091,-0.00601214,0,
6,0.3023,0.11586,-0.0317505,-0.00571842,0,
6,0.28567,0.108225,-0.0315826,-0.00542571,0,
6,0.269507,0.101038,-0.0314048,-0.00513475,0,
6,0.253785,0.0942602,-0.0312167,-0.00484632,0,
6,0.238493,0.0878587,-0.0310181,-0.00456123,0,
6,0.223631,0.0818082,-0.030809,-0.00428035,0,
6,0.209207,0.0760878,-0.0305901,-0.00400465,0,
6,0.195237,0.0706808,-0.0303624,-0.00373513,0,
6,0.181744,0.0655732,-0.0301271,-0.00347282,0,
6,0.168754,0.0607528,-0.029886,-0.00321874,0,
6,0.156292,0.0562088,-0.0296412,-0.00297386,0,
6,0.144384,0.0519309,-0.0293947,-0.00273905,0,
6,0.133052,0.047909,-0.0291492,-0.00251507,0,
6,0.122315,0.0441331,-0.028907,-0.00230254,0,
6,0.112183,0.0405927,-0.0286703,-0.0021019,0,
6,0.102665,0.0372773,-0.0284415,-0.00191341,0,
6,0.0937597,0.0341761,-0.0282223,-0.00173717,0,
6,0.0854609,0.0312778,-0.0280143,-0.00157313,0,
6,0.077757,0.0285712,-0.0278187,-0.00142107,0,
6,0.0706309,0.0260452,-0.0276363,-0.00128067,0,
6,0.0640611,0.0236884,-0.0274677,-0.00115148,0,
6,0.0580229,0.0214898,-0.027313,-0.00103299,0,
6,0.0524888,0.0194386,-0.0271719,-0.000924627,0,
6,0.0474296,0.0175243,-0.0270443,-0.000825767,0,
6,0.042815,0.0157366,-0.0269295,-0.000735777,0,
6,0.0386145,0.0140657,-0.0268268,-0.000654015,0,
6,0.0347975,0.0125021,-0.0267354,-0.000579845,0,
6,0.0313344,0.0110368,-0.0266546,-0.000512647,0,
6,0.0281964,0.00966112,-0.0265834,-0.000451824,0,
6,0.0253561,0.00836665,-0.026521,-0.000396808,0,
6,0.0227875,0.00714542,-0.0264667,-0.000347059,0,
6,0.0204662,0.00598972,-0.0264195,-0.000302072,0,
6,0.0183694,0.00489209,-0.0263789,-0.000261373,0,
6,0.016476,0.00384532,-0.0263438,-0.000224521,0,
6,0.0147664,0.00284238,-0.0263143,-0.000191104,0,
6,0.0132228,0.00187653,-0.026289,-0.000160742,0,
6,0.0118288,0.00094142,-0.0262684,-0.000133085,0,
6,0.0105693,3.15391e-05,-0.0262508,-0.000107825,0,
6,0.00943073,-0.000856852,-0.0262374,-8.47224e-05,0,
6,0.00840063,-0.00172379,-0.0262259,-6.36643e-05,0,
6,0.00746774,-0.00256205,-0.0262183,-4.47787e-05,0,
6,0.00662185,-0.00335175,-0.0262115,-2.85586e-05,0,
6,0.00585371,-0.0040555,-0.0262083,-1.58067e-05,0,
6,0.00515491,-0.00462131,-0.0262048,-7.1443e-06,0,
6,0.00451788,-0.00499973,-0.0262042,-2.34287e-06,0,
6,0.00393573,-0.00516639,-0.0262021,-2.96438e-07,0,
6,0.00340221,-0.00512916,-0.0262028,2.85804e-07,0,
6,0.00291168,-0.00491674,-0.0262009,3.01742e-07,0,
6,0.00245897,-0.00456343,-0.0262021,1.86198e-07,0,
6,0.00203939,-0.00410017,-0.0262,8.81243e-08,0,
6,0.00164864,-0.00355157,-0.0262018,3.3117e-08,0,
6,0.00128281,-0.00293588,-0.0261992,9.4883e-09,0,
6,0.000938257,-0.00226599,-0.0262016,1.84429e-09,0,
6,0.000611645,-0.00155046,-0.0261984,1.86902e-10,0,
6,0.000299862,-0.000794314,-0.0262016,5.23038e-12,0,

10,0.000296632,0.0080781,0.0277642,-4.51583e-11,0,
10,0.000596102,0.0162315,0.027765,-1.67377e-09,0,
10,0.000900397,0.0245144,0.0277642,-1.70195e-08,0,
10,0.00121153,0.032981,0.0277648,-9.14719e-08,0,
10,0.00153158,0.041686,0.0277641,-3.4223e-07,0,
10,0.00186264,0.0506831,0.0277646,-1.01787e-06,0,
10,0.00220692,0.0600226,0.027764,-2.58511e-06,0,
10,0.00256668,0.0697472,0.0277644,-5.8422e-06,0,
10,0.00294431,0.0798845,0.0277639,-1.20371e-05,0,
10,0.00334229,0.0904363,0.0277642,-2.29242e-05,0,
10,0.00376326,0.101364,0.0277638,-4.06377e-05,0,
10,0.00421,0.112578,0.027764,-6.72462e-05,0,
10,0.00468544,0.123928,0.0277635,-0.000103992,0,
10,0.00519274,0.135223,0.0277635,-0.000150529,0,
10,0.00573524,0.146248,0.0277628,-0.000204679,0,
10,0.00631651,0.15681,0.0277625,-0.000262989,0,
10,0.00694041,0.166758,0.0277616,-0.000321766,0,
10,0.00761104,0.176002,0.0277608,-0.000377977,0,
10,0.00833284,0.184505,0.0277594,-0.000429661,0,
10,0.00911058,0.192276,0.0277579,-0.000475899,0,
10,0.0099494,0.199351,0.0277557,-0.000516561,0,
10,0.0108548,0.205786,0.0277532,-0.000552028,0,
10,0.0118329,0.211646,0.0277499,-0.000582956,0,
10,0.0128901,0.216995,0.0277461,-0.000610112,0,
10,0.0140333,0.221897,0.0277414,-0.000634272,0,
10,0.0152702,0.22641,0.0277359,-0.000656163,0,
10,0.0166089,0.230587,0.0277293,-0.00067644,0,
10,0.0180584,0.234475,0.0277217,-0.000695681,0,
10,0.0196282,0.238114,0.0277128,-0.000714387,0,
10,0.0213288,0.24154,0.0277026,-0.000732999,0,
10,0.0231714,0.244784,0.0276909,-0.000751906,0,
10,0.0251682,0.247875,0.0276775,-0.000771458,0,
10,0.0273326,0.250836,0.0276623,-0.000791975,0,
10,0.0296789,0.253688,0.0276451,-0.000813758,0,
10,0.0322227,0.25645,0.0276257,-0.000837096,0,
10,0.0349809,0.259141,0.0276038,-0.000862273,0,
10,0.0379719,0.261775,0.0275793,-0.000889575,0,
10,0.0412155,0.264367,0.0275519,-0.000919291,0,
10,0.0447333,0.266931,0.0275214,-0.000951723,0,
10,0.0485489,0.269481,0.0274875,-0.000987184,0,
10,0.0526875,0.272028,0.0274498,-0.00102601,0,
10,0.0571768,0.274585,0.0274082,-0.00106854,0,
10,0.0620466,0.277165,0.0273623,-0.00111517,0,
10,0.0673295,0.279782,0.0273118,-0.00116629,0,
10,0.0730607,0.282447,0.0272564,-0.00122233,0,
10,0.0792784,0.285175,0.0271958,-0.00128375,0,
10,0.0860241,0.287981,0.0271297,-0.00135106,0,
10,0.0933428,0.29088,0.0270579,-0.00142478,0,
10,0.101283,0.29389,0.0269801,-0.00150547,0,
10,0.109899,0.29703,0.026896,-0.00159376,0,
10,0.119247,0.30032,0.0268056,-0.00169026,0,
10,0.12939,0.303785,0.0267088,-0.00179566,0,
10,0.140395,0.30745,0.0266054,-0.00191065,0,
10,0.152337,0.311346,0.0264957,-0.00203597,0,
10,0.165296,0.315508,0.0263797,-0.00217232,0,
10,0.179357,0.319974,0.0262577,-0.00232044,0,
10,0.194615,0.32479,0.0261299,-0.00248101,0,
10,0.211171,0.33001,0.0259971,-0.00265464,0,
10,0.229138,0.335693,0.0258592,-0.00284182,0,
10,0.248635,0.341913,0.0257176,-0.00304285,0,
10,0.269793,0.348752,0.0255716,-0.00325777,0,
10,0.292753,0.356309,0.0254239,-0.00348617,0,
10,0.317669,0.364699,0.0252709,-0.00372581,0,
10,0.344708,0.374049,0.0251185,-0.00397269,0,
10,0.372405,0.383926,0.0249724,-0.00421562,0,
10,0.399623,0.39395,0.0248343,-0.00444324,0,
10,0.426397,0.404128,0.024705,-0.00465324,0,
10,0.452757,0.414473,0.0245861,-0.00484345,0,
10,0.478735,0.425009,0.0244757,-0.00501158,0,
10,0.504358,0.435764,0.0243826,-0.00515687,0,
10,0.529657,0.446759,0.0242747,-0.00531137,0,
10,0.554656,0.458141,0.0242433,-0.00541702,0,
10,0.579382,0.470245,0.0243064,-0.00540708,0,
10,0.603859,0.483265,0.0243276,-0.00538017,0,
10,0.628112,0.497049,0.0242957,-0.00533192,0,
10,0.652163,0.511325,0.0242189,-0.00525693,0,
10,0.676035,0.525873,0.0241184,-0.00515267,0,
10,0.699751,0.540578,0.0240073,-0.00501928,0,
10,0.72333,0.555399,0.0238913,-0.00485855,0,
10,0.746795,0.570321,0.0237699,-0.0046729,0,
10,0.770165,0.58531,0.0236406,-0.00446511,0,
10,0.79346,0.6003,0.0235009,-0.0042383,0,
10,0.816699,0.615191,0.0233491,-0.00399613,0,
10,0.839903,0.62986,0.0231854,-0.00374298,0,
10,0.863088,0.644156,0.023008,-0.00348856,0,
10,0.886275,0.657925,0.0228173,-0.00323996,0,
10,0.909481,0.671068,0.0226173,-0.00299741,0,
10,0.932723,0.683555,0.0224098,-0.00276176,0,
10,0.956021,0.695403,0.022196,-0.00253442,0,
10,0.97939,0.706632,0.0219755,-0.00231679,0,
10,1.00285,0.717256,0.0217481,-0.00211016,0,
10,1.02641,0.727279,0.0215135,-0.00191563,0,
10,1.0501,0.7367,0.0212717,-0.00173426,0,
10,1.07392,0.745524,0.0210227,-0.00156704,0,
10,1.0979,0.753767,0.0207662,-0.00141486,0,
10,1.12205,0.761463,0.0205022,-0.0012783,0,
10,1.14639,0.768662,0.0202306,-0.0011574,0,
10,1.17093,0.775434,0.0199517,-0.00105158,0,
10,1.19568,0.781859,0.019666,-0.000959774,0,
10,1.22066,0.788014,0.0193737,-0.000880678,0,
10,1.24589,0.793957,0.019075,-0.000812947,0,
10,1.27137,0.799728,0.0187699,-0.000755238,0,
10,1.29713,0.805348,0.0184582,-0.00070615,0,
10,1.32317,0.810831,0.0181396,-0.000664209,0,
10,1.34951,0.816194,0.0178141,-0.000627955,0,
10,1.37616,0.821461,0.0174819,-0.000596069,0,
10,1.40313,0.826655,0.0171428,-0.000567459,0,
10,1.43043,0.831799,0.0167968,-0.000541287,0,
10,1.45807,0.836905,0.0164438,-0.000516932,0,
10,1.48607,0.841977,0.0160836,-0.000493939,0,
10,1.51444,0.847013,0.0157163,-0.000471978,0,
10,1.54318,0.852008,0.0153417,-0.000450807,0,
10,1.57231,0.856955,0.0149596,-0.000430253,0,
10,1.60184,0.861844,0.0145701,-0.000410197,0,
10,1.63178,0.866667,0.014173,-0.000390565,0,
10,1.66213,0.871412,0.0137682,-0.000371325,0,
10,1.69292,0.876068,0.0133558,-0.000352478,0,
10,1.72416,0.880622,0.0129355,-0.000334061,0,
10,1.75585,0.885057,0.0125075,-0.000316143,0,
10,1.78802,0.889355,0.0120715,-0.000298824,0,
10,1.82067,0.893498,0.0116279,-0.000282228,0,
10,1.85383,0.897464,0.0111761,-0.000266458,0,
10,1.88751,0.901242,0.0107175,-0.000251506,0,
10,1.92173,0.904846,0.0102505,-0.000235183,0,
10,1.95652,0.908332,0.00977415,-0.000213927,0,
10,1.9919,0.911713,0.00929162,-0.00019288,0,
10,2.02791,0.914943,0.00879922,-0.000170914,0,
10,2.06456,0.91798,0.00829997,-0.000148747,0,
10,2.10268,0.920847,0.00777909,-0.000126656,0,
10,2.1443,0.923623,0.00721363,-0.000105371,0,
10,2.18977,0.926261,0.00659677,-8.5017e-05,0,
10,2.23946,0.928682,0.00592689,-6.57748e-05,0,
10,2.29376,0.93081,0.00519871,-4.83084e-05,0,
10,2.35309,0.932571,0.00441011,-3.31815e-05,0,
10,2.4179,0.933902,0.00355728,-2.08631e-05,0,
10,2.48863,0.934764,0.00263864,-1.1649e-05,0,
10,2.56575,0.93516,0.00165216,-5.53836e-06,0,
10,2.64971,0.935146,0.000597601,-2.15565e-06,0,
10,2.74098,0.934842,-0.000525072,-7.88223e-07,0,
10,2.83997,0.934421,-0.00171444,-5.48094e-07,0,
10,2.94709,0.934079,-0.00296869,-6.51694e-07,0,
10,3.06269,0.933989,-0.00428481,-6.5751e-07,0,
10,3.18706,0.934251,-0.00565903,-4.95186e-07,0,
10,3.3204,0.934866,-0.00708612,-2.84877e-07,0,
10,3.46281,0.935739,-0.0085593,-1.32549e-07,0,
10,3.61427,0.93673,-0.0100698,-5.77161e-08,0,
10,3.77463,0.937706,-0.011607,-3.06005e-08,0,
10,3.94358,0.93859,-0.0131586,-2.22947e-08,0,
10,4.12067,0.939369,-0.0147117,-1.93771e-08,0,
10,4.30525,0.940076,-0.0162528,-1.8039e-08,0,
10,4.49655,0.940753,-0.0177684,-1.75184e-08,0,
10,4.6936,0.941427,-0.019246,-1.78226e-08,0,
10,4.89531,0.9421,-0.0206736,-1.94667e-08,0,
10,5.10047,0.942759,-0.022041,-2.39545e-08,0,
10,5.30776,0.943384,-0.0233393,-3.46622e-08,0,
10,5.51581,0.943958,-0.0245614,-5.83444e-08,0,
10,5.72323,0.944477,-0.0257021,-1.09726e-07,0,
10,5.92863,0.944964,-0.0267584,-2.25133e-07,0,
10,6.13069,0.945485,-0.0277289,-5.02123e-07,0,
10,6.32816,0.946136,-0.0286141,-1.1495e-06,0,
10,6.51991,0.946954,-0.0294161,-2.26418e-06,0,
10,6.70495,0.947715,-0.0301386,-2.45595e-06,0,
10,6.88244,0.947708,-0.0307849,3.99638e-06,0,
10,7.0517,0.945691,-0.0313598,2.85472e-05,0,
10,7.21224,0.940257,-0.0318626,8.46857e-05,0,
10,7.3637,0.9305,-0.0322998,0.000181382,0,
10,7.5059,0.916454,-0.0326741,0.000306489,0,
10,7.63878,0.898754,-0.0329869,0.00042062,0,
10,7.76243,0.878607,-0.0332524,0.000545817,0,
10,7.87701,0.857849,-0.0334629,0.000671992,0,
10,7.9828,0.837949,-0.0336365,0.000784089,0,
10,8.08014,0.819555,-0.033774,0.000877815,0,
10,8.16941,0.802651,-0.0338876,0.000955151,0,
10,8.25106,0.7869,-0.0339811,0.00102022,0,
10,8.32554,0.771932,-0.0340613,0.00107637,0,
10,8.39331,0.757473,-0.0341297,0.00112539,0,
10,8.45484,0.743366,-0.0341885,0.00116805,0,
10,8.5106,0.729537,-0.0342386,0.0012048,0,
10,8.56104,0.715958,-0.0342814,0.00123601,0,
10,8.60659,0.702624,-0.034318,0.00126205,0,
10,8.64767,0.689538,-0.0343496,0.00128325,0,
10,8.68467,0.676702,-0.0343773,0.00129994,0,
10,8.71795,0.664087,-0.0344019,0.00130905,0,
10,8.74786,0.651663,-0.0344233,0.00131382,0,
10,8.77471,0.63942,-0.0344417,0.00131462,0,
10,8.79881,0.627351,-0.0344576,0.0013117,0,
10,8.8204,0.615449,-0.0344712,0.00130562,0,
10,8.83975,0.603701,-0.0344829,0.0012969,0,
10,8.85708,0.592092,-0.034493,0.00128603,0,
10,8.87259,0.580604,-0.0345015,0.00127346,0,
10,8.88646,0.569216,-0.0345088,0.00125955,0,
10,8.89886,0.557902,-0.034515,0.00124462,0,
10,8.90995,0.546636,-0.0345202,0.00122895,0,
10,8.91986,0.535389,-0.0345246,0.00121272,0,
10,8.92872,0.524126,-0.0345283,0.00119608,0,
10,8.93663,0.512814,-0.0345314,0.00117911,0,
10,8.94369,0.501414,-0.034534,0.00116182,0,
10,8.95,0.489885,-0.0345361,0.00114415,0,
10,8.95564,0.478182,-0.0345379,0.00112603,0,
10,8.96067,0.466256,-0.0345394,0.00110728,0,
10,8.96517,0.454053,-0.0345407,0.00108764,0,
10,8.96918,0.441512,-0.0345416,0.00106679,0,
10,8.97276,0.428564,-0.0345425,0.00104429,0,
10,8.97596,0.415129,-0.0345431,0.00101957,0,
10,8.97882,0.401115,-0.0345438,0.000991916,0,
10,8.98137,0.386415,-0.0345441,0.00096038,0,
10,8.98365,0.370901,-0.0345447,0.000923752,0,
10,8.98569,0.354424,-0.0345448,0.000880651,0,
10,8.9875,0.336799,-0.0345453,0.000828724,0,
10,8.98913,0.317791,-0.0345452,0.000763071,0,
10,8.99058,0.297168,-0.0345457,0.000685426,0,
10,8.99188,0.274768,-0.0345455,0.000593675,0,
10,8.99304,0.250429,-0.034546,0.000480352,0,
10,8.99408,0.224097,-0.0345456,0.000353199,0,
10,8.99501,0.196132,-0.0345462,0.00022575,0,
10,8.99583,0.167432,-0.0345457,0.000120083,0,
10,8.99658,0.139269,-0.0345463,5.17212e-05,0,
10,8.99724,0.112778,-0.0345457,1.78849e-05,0,
10,8.99784,0.0885644,-0.0345464,4.91825e-06,0,
10,8.99837,0.0667483,-0.0345456,1.03189e-06,0,
10,8.99885,0.0471966,-0.0345465,1.47842e-07,0,
10,8.99927,0.0296971,-0.0345456,1.12246e-08,0,
10,8.99966,0.0140335,-0.0345466,2.48349e-10,0,
10,0,0,0.0277652,0,0,
10,9,0,-0.0345455,0,0,

0.004,0,0,-0.224258,0,-1.17545e-08,
0.00868226,0,0,-0.224258,0,-1.38079e-07,
0.014062,0,0,-0.224258,0,-2.84661e-07,
0.0201548,0,0,-0.224258,0,-5.32581e-07,
0.0269766,0,0,-0.224257,0,-6.90863e-07,
0.0345437,0,0,-0.224257,0,-6.68693e-07,
0.0428729,0,0,-0.224254,0,-3.13407e-07,
0.051981,0,0,-0.224253,0,5.12243e-07,
0.0618853,0,0,-0.224251,0,1.91558e-06,
0.0726036,0,0,-0.22425,0,3.98744e-06,
0.0841536,0,0,-0.224249,0,6.72576e-06,
0.0965535,0,0,-0.224251,0,1.00788e-05,
0.109822,0,0,-0.224255,0,1.38802e-05,
0.123977,0,0,-0.224262,0,1.79248e-05,
0.139037,0,0,-0.224273,0,2.19493e-05,
0.155022,0,0,-0.224288,0,2.57207e-05,
0.171949,0,0,-0.224305,0,2.90353e-05,
0.189839,0,0,-0.224327,0,3.17756e-05,
0.208709,0,0,-0.22435,0,3.38933e-05,
0.228579,0,0,-0.224375,0,3.54228e-05,
0.249467,0,0,-0.224401,0,3.64493e-05,
0.271391,0,0,-0.224429,0,3.7098e-05,
0.29437,0,0,-0.224458,0,3.75043e-05,
0.31842,0,0,-0.224488,0,3.7803e-05,
0.343559,0,0,-0.22452,0,3.81128e-05,
0.369804,0,0,-0.224555,0,3.8531e-05,
0.39717,0,0,-0.224594,0,3.91291e-05,
0.425672,0,0,-0.224638,0,3.99567e-05,
0.455324,0,0,-0.224689,0,4.10473e-05,
0.48614,0,0,-0.224748,0,4.24242e-05,
0.518132,0,0,-0.224818,0,4.41031e-05,
0.551309,0,0,-0.224902,0,4.60877e-05,
0.585683,0,0,-0.225001,0,4.83577e-05,
0.621259,0,0,-0.225122,0,5.08488e-05,
0.658046,0,0,-0.225267,0,5.34279e-05,
0.696047,0,0,-0.225443,0,5.58659e-05,
0.735265,0,0,-0.225655,0,5.78122e-05,
0.7757,0,0,-0.225913,0,5.87737e-05,
0.817352,0,0,-0.226225,0,5.81064e-05,
0.860215,0,0,-0.226601,0,5.50248e-05,
0.904285,0,0,-0.227051,0,4.86405e-05,
0.949552,0,0,-0.227587,0,3.8038e-05,
0.996004,0,0,-0.228215,0,2.23849e-05,
1.04363,0,0,-0.228941,0,1.05989e-06,
1.09241,0,0,-0.229764,0,-2.62396e-05,
1.14232,0,0,-0.230681,0,-5.94463e-05,
1.19335,0,0,-0.23168,0,-9.81562e-05,
1.24546,0,0,-0.23275,0,-0.000141732,
1.29863,0,0,-0.233874,0,-0.000189441,
1.35283,0,0,-0.235036,0,-0.000240583,
1.40802,0,0,-0.236218,0,-0.000294566,
1.46416,0,0,-0.237403,0,-0.000350932,
1.52121,0,0,-0.238573,0,-0.000409342,
1.57913,0,0,-0.239709,0,-0.000469533,
1.63787,0,0,-0.240793,0,-0.000531284,
1.69739,0,0,-0.241805,0,-0.000594382,
1.75761,0,0,-0.242726,0,-0.000658595,
1.81851,0,0,-0.243534,0,-0.000723659,
1.88,0,0,-0.244208,0,-0.000789274,
1.94204,0,0,-0.244727,0,-0.000855094,
2.00457,0,0,-0.245071,0,-0.00092073,
2.06751,0,0,-0.245218,0,-0.000985757,
2.13081,0,0,-0.245152,0,-0.00104972,
2.19439,0,0,-0.244856,0,-0.00111213,
2.25819,0,0,-0.244315,0,-0.00117252,
2.32214,0,0,-0.243521,0,-0.00123041,
2.38617,0,0,-0.242466,0,-0.00128538,
2.4502,0,0,-0.241148,0,-0.00133701,
2.51418,0,0,-0.239568,0,-0.00138498,
2.57803,0,0,-0.237733,0,-0.00142902,
2.64167,0,0,-0.235651,0,-0.00146894,
2.70505,0,0,-0.233334,0,-0.00150464,
2.76808,0,0,-0.230798,0,-0.00153608,
2.83072,0,0,-0.22806,0,-0.00156331,
2.89288,0,0,-0.225139,0,-0.00158641,
2.95451,0,0,-0.222053,0,-0.00160553,
3.01555,0,0,-0.218824,0,-0.00162087,
3.07594,0,0,-0.215471,0,-0.00163263,
3.13561,0,0,-0.212014,0,-0.00164105,
3.19453,0,0,-0.208472,0,-0.00164636,
3.25262,0,0,-0.204864,0,-0.00164879,
3.30985,0,0,-0.201207,0,-0.00164858,
3.36617,0,0,-0.197517,0,-0.00164594,
3.42154,0,0,-0.193811,0,-0.00164109,
3.47591,0,0,-0.190102,0,-0.00163426,
3.52925,0,0,-0.186404,0,-0.00162563,
3.58152,0,0,-0.182729,0,-0.00161542,
3.6327,0,0,-0.179087,0,-0.0016038,
3.68276,0,0,-0.17549,0,-0.00159096,
3.73167,0,0,-0.171945,0,-0.00157707,
3.77941,0,0,-0.168461,0,-0.00156228,
3.82596,0,0,-0.165044,0,-0.00154675,
3.8713,0,0,-0.161701,0,-0.0015306,
3.91543,0,0,-0.158432,0,-0.00151384,
3.95833,0,0,-0.15526,0,-0.00149689,
4,0,0,-0.152155,0,-0.00147957,
4.04167,0,0,-0.149054,0,-0.00146144,
4.08333,0,0,-0.145952,0,-0.00144265,
4.125,0,0,-0.14285,0,-0.00142319,
4.16667,0,0,-0.139751,0,-0.00140304,
4.20833,0,0,-0.136656,0,-0.00138224,
4.25,0,0,-0.133568,0,-0.00136081,
4.29167,0,0,-0.130487,0,-0.00133878,
4.33333,0,0,-0.127417,0,-0.00131618,
4.375,0,0,-0.124357,0,-0.00129302,
4.41667,0,0,-0.121311,0,-0.00126933,
4.45833,0,0,-0.11828,0,-0.00124513,
4.5,0,0,-0.115264,0,-0.00122043,
4.54167,0,0,-0.112266,0,-0.00119526,
4.58333,0,0,-0.109287,0,-0.00116963,
4.625,0,0,-0.106328,0,-0.00114356,
4.66667,0,0,-0.103391,0,-0.00111707,
4.70833,0,0,-0.100476,0,-0.00109018,
4.75,0,0,-0.0975859,0,-0.00106292,
4.79167,0,0,-0.0947209,0,-0.0010353,
4.83333,0,0,-0.0918823,0,-0.00100733,
4.875,0,0,-0.0890712,0,-0.000979038,
4.91667,0,0,-0.0862885,0,-0.000950441,
4.95833,0,0,-0.0835354,0,-0.000921558,
5,0,0,-0.0808127,0,-0.000892408,
5.04167,0,0,-0.0781213,0,-0.000863009,
5.08333,0,0,-0.075462,0,-0.000833378,
5.125,0,0,-0.0728356,0,-0.00080353,
5.16667,0,0,-0.0702428,0,-0.000773483,
5.20833,0,0,-0.0676845,0,-0.000743254,
5.25,0,0,-0.0651612,0,-0.000712865,
5.29167,0,0,-0.0626736,0,-0.000682334,
5.33333,0,0,-0.0602222,0,-0.000651681,
5.375,0,0,-0.0578074,0,-0.000620919,
5.41667,0,0,-0.0554297,0,-0.000590063,
5.45833,0,0,-0.0530896,0,-0.000559128,
5.5,0,0,-0.0507874,0,-0.000528132,
5.54167,0,0,-0.0485235,0,-0.000497093,
5.58333,0,0,-0.0462982,0,-0.000466029,
5.625,0,0,-0.0441116,0,-0.000434953,
5.66667,0,0,-0.041964,0,-0.000403878,
5.70833,0,0,-0.0398555,0,-0.000372817,
5.75,0,0,-0.0377862,0,-0.000341787,
5.79167,0,0,-0.0357564,0,-0.000310801,
5.83333,0,0,-0.0337659,0,-0.000279876,
5.875,0,0,-0.0318149,0,-0.000249023,
5.91667,0,0,-0.0299032,0,-0.000218251,
5.95833,0,0,-0.0280308,0,-0.000187573,
6,0,0,-0.0261976,0,-0.000156997,
6.04167,0,0,-0.0244037,0,-0.000126535,
6.08333,0,0,-0.0226487,0,-9.61993e-05,
6.125,0,0,-0.0209326,0,-6.59998e-05,
6.16667,0,0,-0.0192552,0,-3.59485e-05,
6.20833,0,0,-0.0176163,0,-6.0574e-06,
6.25,0,0,-0.0160156,0,2.36613e-05,
6.29167,0,0,-0.014453,0,5.31959e-05,
6.33333,0,0,-0.012928,0,8.25361e-05,
6.375,0,0,-0.0114404,0,0.000111673,
6.41667,0,0,-0.00998983,0,0.000140598,
6.45833,0,0,-0.00857589,0,0.000169303,
6.5,0,0,-0.00719824,0,0.000197781,
6.54167,0,0,-0.00585645,0,0.000226022,
6.58333,0,0,-0.00455012,0,0.000254022,
6.625,0,0,-0.00327881,0,0.000281775,
6.66667,0,0,-0.00204208,0,0.000309276,
6.70833,0,0,-0.000839499,0,0.000336519,
6.75,0,0,0.000329379,0,0.000363499,
6.79167,0,0,0.00146502,0,0.000390208,
6.83333,0,0,0.00256792,0,0.000416644,
6.875,0,0,0.00363856,0,0.000442802,
6.91667,0,0,0.00467743,0,0.000468678,
6.95833,0,0,0.00568502,0,0.000494268,
7,0,0,0.00666183,0,0.000519567,
7.04167,0,0,0.00760839,0,0.000544569,
7.08333,0,0,0.00852523,0,0.000569271,
7.125,0,0,0.00941289,0,0.000593669,
7.16667,0,0,0.0102719,0,0.00061776,
7.20833,0,0,0.0111029,0,0.000641543,
7.25,0,0,0.0119063,0,0.000665014,
7.29167,0,0,0.0126827,0,0.000688172,
7.33333,0,0,0.0134326,0,0.000711015,
7.375,0,0,0.0141568,0,0.000733544,
7.41667,0,0,0.0148556,0,0.000755761,
7.45833,0,0,0.0155295,0,0.000777667,
7.5,0,0,0.0161793,0,0.000799266,
7.54167,0,0,0.0168053,0,0.000820567,
7.58333,0,0,0.0174082,0,0.000841578,
7.625,0,0,0.0179884,0,0.000862309,
7.66667,0,0,0.0185463,0,0.000882767,
7.70833,0,0,0.0190825,0,0.000902956,
7.75,0,0,0.0195972,0,0.000922876,
7.79167,0,0,0.0200908,0,0.000942526,
7.83333,0,0,0.0205633,0,0.000961896,
7.875,0,0,0.0210147,0,0.000981038,
7.91667,0,0,0.0214555,0,0.00100047,
7.95833,0,0,0.0218205,0,0.00101877,
8,0,0,0.0222636,0,0.00103699,
8.04171,0,0,0.0227229,0,0.00105626,
8.08368,0,0,0.0230545,0,0.00107534,
8.12617,0,0,0.0234241,0,0.00109278,
8.16946,0,0,0.0237774,0,0.00111034,
8.21382,0,0,0.0241154,0,0.00112795,
8.25952,0,0,0.0244456,0,0.00114565,
8.30685,0,0,0.024768,0,0.00116359,
8.35611,0,0,0.0250831,0,0.00118189,
8.40762,0,0,0.0253913,0,0.00120062,
8.46168,0,0,0.0256925,0,0.00121986,
8.51865,0,0,0.0259859,0,0.00123967,
8.57889,0,0,0.0262707,0,0.00126009,
8.64276,0,0,0.0265453,0,0.00128117,
8.71067,0,0,0.0268079,0,0.00130296,
8.78306,0,0,0.0270562,0,0.00132548,
8.86037,0,0,0.0272873,0,0.00134876,
8.94309,0,0,0.027498,0,0.00137281,
9.03174,0,0,0.0276845,0,0.00139763,
9.12689,0,0,0.0278427,0,0.00142321,
9.22912,0,0,0.027968,0,0.00144952,
9.33908,0,0,0.0280551,0,0.00147652,
9.45746,0,0,0.028099,0,0.00150417,
9.58501,0,0,0.0280938,0,0.00153239,
9.72253,0,0,0.0280345,0,0.00156111,
9.87088,0,0,0.0279151,0,0.00159025,
10.031,0,0,0.0277292,0,0.00161969,
10.2039,0,0,0.0274729,0,0.00164929,
10.3906,0,0,0.0271423,0,0.00167894,
10.5924,0,0,0.0267325,0,0.00170849,
10.8105,0,0,0.0262426,0,0.00173781,
11.0463,0,0,0.0256711,0,0.00176676,
11.3012,0,0,0.0250177,0,0.00179521,
11.5769,0,0,0.0242858,0,0.00182302,
11.8751,0,0,0.0234794,0,0.00185005,
12.1977,0,0,0.0226053,0,0.00187621,
12.5466,0,0,0.0216712,0,0.0019014,
12.9242,0,0,0.0206874,0,0.00192555,
13.3327,0,0,0.0196664,0,0.00194861,
13.7748,0,0,0.0186206,0,0.00197053,
14.2532,0,0,0.0175653,0,0.00199133,
14.7709,0,0,0.0165148,0,0.002011,
15.3312,0,0,0.0154826,0,0.00202959,
15.9377,0,0,0.0144843,0,0.00204713,
16.594,0,0,0.0135313,0,0.00206372,
17.3044,0,0,0.0126332,0,0.00207944,
18.0733,0,0,0.0117991,0,0.00209437,
18.9056,0,0,0.0110329,0,0.00210855,
19.8064,0,0,0.0103351,0,0.00212187,
20.7816,0,0,0.00970491,0,0.00213436,
21.8371,0,0,0.00913688,0,0.00214638,
22.9796,0,0,0.00862072,0,0.00215821,
24.2163,0,0,0.00814492,0,0.00217004,
25.5551,0,0,0.00769493,0,0.00218192,
27.0042,0,0,0.00725447,0,0.00219398,
28.5729,0,0,0.00680677,0,0.00220633,
30.271,0,0,0.00633358,0,0.00221902,
32.1091,0,0,0.00581717,0,0.00223204,
34.0989,0,0,0.00524202,0,0.00224537,
36.2529,0,0,0.00459179,0,0.00225896,
38.5845,0,0,0.00385929,0,0.00227282,
41.1085,0,0,0.00308207,0,0.0022868,
43.8407,0,0,0.00210221,0,0.00229859,
46.7983,0,0,0.00108367,0,0.00230573,
50,0,0,0.00208791,0,0.00232287,

