10aa5e2483096c781dde024ae6821772bb727dfe 
X,Z,x_velocity,cp,uw_b,cf,
1,0,0,-0.230841,0,0,
1,9,0,-0.129997,0,0,
1,8.99969,0.01546,-0.129996,2.89988e-10,0,
1,8.99934,0.0329996,-0.129996,1.35549e-08,0,
1,8.99894,0.0529169,-0.129996,1.8698e-07,0,
1,8.99848,0.0755266,-0.129996,1.37065e-06,0,
1,8.99797,0.101142,-0.129996,6.84934e-06,0,
1,8.99739,0.129959,-0.129996,2.5912e-05,0,
1,8.99672,0.161777,-0.129996,7.66897e-05,0,
1,8.99597,0.195647,-0.129996,0.000178032,0,
1,8.99512,0.229908,-0.129996,0.000327624,0,
1,8.99416,0.2629,-0.129996,0.000496595,0,
1,8.99306,0.293653,-0.129996,0.000655458,0,
1,8.99182,0.321998,-0.129995,0.000783266,0,
1,8.99041,0.348079,-0.129995,0.000889134,0,
1,8.98881,0.372057,-0.129995,0.000976562,0,
1,8.98699,0.394152,-0.129994,0.00104792,0,
1,8.98494,0.414655,-0.129993,0.00110388,0,
1,8.98261,0.433877,-0.129992,0.0011469,0,
1,8.97996,0.452057,-0.129991,0.00118296,0,
1,8.97696,0.469367,-0.12999,0.00121289,0,
1,8.97356,0.485948,-0.129989,0.00123797,0,
1,8.9697,0.501918,-0.129987,0.00125916,0,
1,8.96533,0.517377,-0.129986,0.00127719,0,
1,8.96038,0.532407,-0.129983,0.00129256,0,
1,8.95476,0.547077,-0.129981,0.00130566,0,
1,8.9484,0.561447,-0.129979,0.00131675,0,
1,8.9412,0.575567,-0.129976,0.00132601,0,
1,8.93303,0.589479,-0.129973,0.00133354,0,
1,8.92379,0.603221,-0.12997,0.0013394,0,
1,8.91333,0.616823,-0.129967,0.00134361,0,
1,8.90149,0.630314,-0.129963,0.00134615,0,
1,8.8881,0.643716,-0.12996,0.00134696,0,
1,8.87295,0.657051,-0.129957,0.00134597,0,
1,8.85584,0.670338,-0.129955,0.00134309,0,
1,8.83651,0.683594,-0.129953,0.00133818,0,
1,8.81469,0.696837,-0.129952,0.00133111,0,
1,8.79007,0.710085,-0.129953,0.00132168,0,
1,8.76232,0.723355,-0.129957,0.00130968,0,
1,8.73107,0.73667,-0.129964,0.00129482,0,
1,8.69591,0.750053,-0.129975,0.00127672,0,
1,8.6564,0.763532,-0.129992,0.00125505,0,
1,8.61206,0.777144,-0.130016,0.00123061,0,
1,8.56236,0.790964,-0.130051,0.00119972,0,
1,8.50675,0.805102,-0.130101,0.00116368,0,
1,8.44464,0.819693,-0.130166,0.00112143,0,
1,8.3754,0.834915,-0.130255,0.00107083,0,
1,8.29839,0.850998,-0.130369,0.00100851,0,
1,8.21296,0.86821,-0.130519,0.000930034,0,
1,8.11843,0.886791,-0.130708,0.000829997,0,
1,8.01417,0.9068,-0.130954,0.000703998,0,
1,7.89956,0.927842,-0.13125,0.000553709,0,
1,7.77403,0.94879,-0.131637,0.000397791,0,
1,7.63711,0.967959,-0.132092,0.000227952,0,
1,7.48842,0.983114,-0.132636,8.66257e-05,0,
1,7.32773,0.992297,-0.133297,2.16177e-05,0,
1,7.15495,0.995785,-0.134063,2.28219e-06,0,
1,6.97022,0.995972,-0.134952,4.51054e-08,0,
1,6.77388,0.995368,-0.135979,4.75112e-09,0,
1,6.56652,0.995236,-0.137161,1.03752e-08,0,
1,6.34896,0.99569,-0.138512,1.30922e-08,0,
1,6.12229,0.996438,-0.140047,1.48317e-08,0,
1,5.88784,0.997269,-0.141782,1.57821e-08,0,
1,5.64716,0.99814,-0.14373,1.68398e-08,0,
1,5.40194,0.999081,-0.145903,1.83022e-08,0,
1,5.15407,1.00012,-0.148309,2.00792e-08,0,
1,4.90545,1.00127,-0.150951,2.20731e-08,0,
1,4.65805,1.00252,-0.153827,2.42493e-08,0,
1,4.41376,1.00389,-0.156931,2.65081e-08,0,
1,4.17441,1.00534,-0.160247,2.85918e-08,0,
1,3.94163,1.00682,-0.163754,3.03563e-08,0,
1,3.7169,1.00827,-0.167423,3.2533e-08,0,
1,3.50146,1.0098,-0.171217,3.7334e-08,0,
1,3.29629,1.01172,-0.175097,4.70112e-08,0,
1,3.10217,1.01438,-0.179029,5.92676e-08,0,
1,2.91959,1.01752,-0.182974,1.16135e-07,0,
1,2.74885,1.01961,-0.186882,1.01357e-06,0,
1,2.59002,1.01823,-0.190686,-6.63219e-06,0,
1,2.44299,1.01169,-0.194306,-5.07847e-05,0,
1,2.30752,1.00026,-0.197674,-0.000140706,0,
1,2.18321,0.985507,-0.20074,-0.00026183,0,
1,2.06959,0.969111,-0.203487,-0.000391291,0,
1,1.9661,0.952347,-0.205918,-0.000509833,0,
1,1.87215,0.936064,-0.208051,-0.000605898,0,
1,1.78711,0.920754,-0.2099,-0.000677939,0,
1,1.71033,0.906557,-0.211493,-0.000732766,0,
1,1.64119,0.893375,-0.212859,-0.000778023,0,
1,1.57905,0.881051,-0.214021,-0.00081748,0,
1,1.52332,0.869436,-0.215005,-0.000852951,0,
1,1.47342,0.858412,-0.215834,-0.000885222,0,
1,1.42882,0.847899,-0.216528,-0.000914348,0,
1,1.389,0.83784,-0.217108,-0.000940353,0,
1,1.35351,0.828199,-0.21759,-0.000963316,0,
1,1.3219,0.818952,-0.217989,-0.000983391,0,
1,1.29378,0.810086,-0.218319,-0.00100074,0,
1,1.26878,0.801595,-0.218591,-0.00101546,0,
1,1.24659,0.793476,-0.218814,-0.00102795,0,
1,1.22689,0.785726,-0.218997,-0.00103814,0,
1,1.2092,0.778257,-0.219149,-0.00104503,0,
1,1.1932,0.771017,-0.219274,-0.00104964,0,
1,1.1787,0.76398,-0.219375,-0.00105376,0,
1,1.16554,0.757103,-0.219456,-0.00106088,0,
1,1.15357,0.750305,-0.21952,-0.00107778,0,
1,1.14266,0.743454,-0.219571,-0.00111466,0,
1,1.13268,0.736345,-0.219612,-0.00118614,0,
1,1.12354,0.728697,-0.219649,-0.00131019,0,
1,1.11514,0.72017,-0.21969,-0.00150568,0,
1,1.10739,0.710438,-0.219742,-0.00178796,0,
1,1.10022,0.699303,-0.21981,-0.00216303,0,
1,1.09357,0.686799,-0.219896,-0.00262243,0,
1,1.08738,0.673197,-0.219998,-0.00314332,0,
1,1.0816,0.658897,-0.220113,-0.00369539,0,
1,1.07618,0.644308,-0.22024,-0.00425001,0,
1,1.07107,0.629761,-0.220375,-0.00478581,0,
1,1.06626,0.615491,-0.220516,-0.00528972,0,
1,1.06169,0.601644,-0.22066,-0.00575527,0,
1,1.05735,0.5883,-0.220806,-0.00618042,0,
1,1.05321,0.575495,-0.220953,-0.00656587,0,
1,1.04925,0.563233,-0.2211,-0.00691369,0,
1,1.04544,0.5515,-0.221247,-0.00722666,0,
1,1.04177,0.540271,-0.221392,-0.00750775,0,
1,1.03822,0.529518,-0.221536,-0.00775991,0,
1,1.03478,0.519209,-0.221679,-0.0079859,0,
1,1.03144,0.509312,-0.221821,-0.00818827,0,
1,1.02818,0.499796,-0.221961,-0.00836929,0,
1,1.025,0.490633,-0.2221,-0.00853129,0,
1,1.02188,0.481793,-0.222238,-0.00867635,0,
1,1.01882,0.473251,-0.222374,-0.00880525,0,
1,1.01581,0.464977,-0.222509,-0.00891966,0,
1,1.01284,0.456945,-0.222642,-0.00901998,0,
1,1.00988,0.449044,-0.222775,-0.0091089,0,
1,1.00688,0.441171,-0.22291,-0.00918908,0,
1,1.00384,0.433308,-0.223047,-0.00926016,0,
1,1.00076,0.425438,-0.223186,-0.00932224,0,
1,0.997615,0.417543,-0.223328,-0.00937544,0,
1,0.99441,0.409604,-0.223472,-0.00941982,0,
1,0.991131,0.401602,-0.22362,-0.00945536,0,
1,0.987768,0.393515,-0.223771,-0.00948195,0,
1,0.984308,0.385321,-0.223926,-0.0094994,0,
1,0.980739,0.376996,-0.224086,-0.00950741,0,
1,0.977045,0.368515,-0.224252,-0.00950556,0,
1,0.973211,0.359852,-0.224423,-0.00949333,0,
1,0.969219,0.350977,-0.224601,-0.00947006,0,
1,0.965047,0.34186,-0.224786,-0.00943492,0,
1,0.960675,0.332468,-0.224979,-0.00938693,0,
1,0.956077,0.322769,-0.225182,-0.00932493,0,
1,0.951224,0.312727,-0.225395,-0.00924753,0,
1,0.946088,0.302305,-0.22562,-0.00915314,0,
1,0.940633,0.291465,-0.225858,-0.00903996,0,
1,0.934823,0.280169,-0.226111,-0.00890581,0,
1,0.928616,0.268379,-0.22638,-0.00874841,0,
1,0.921967,0.256059,-0.226667,-0.00856498,0,
1,0.914826,0.243174,-0.226975,-0.00835253,0,
1,0.907141,0.229693,-0.227306,-0.00810748,0,
1,0.898852,0.215593,-0.227661,-0.00782539,0,
1,0.889898,0.200869,-0.228039,-0.00750473,0,
1,0.880212,0.185543,-0.228436,-0.00714488,0,
1,0.869723,0.169678,-0.228848,-0.00674962,0,
1,0.858358,0.153377,-0.229266,-0.00632012,0,
1,0.846039,0.136771,-0.229687,-0.00586183,0,
1,0.83269,0.12002,-0.230094,-0.00538198,0,
1,0.818232,0.103308,-0.230482,-0.00489342,0,
1,0.802744,0.0869797,-0.230816,-0.00440817,0,
1,0.78635,0.0713768,-0.231089,-0.00393116,0,
1,0.768969,0.0566263,-0.231311,-0.00347024,0,
1,0.75053,0.0428604,-0.231488,-0.00303835,0,
1,0.730977,0.0301897,-0.231637,-0.00265204,0,
1,0.710271,0.018663,-0.231742,-0.00232439,0,
1,0.688397,0.00826961,-0.231796,-0.00205894,0,
1,0.66536,-0.0010458,-0.231796,-0.00185245,0,
1,0.641194,-0.00937706,-0.231737,-0.00169914,0,
1,0.615961,-0.0168359,-0.231615,-0.00159059,0,
1,0.589754,-0.0235284,-0.231424,-0.00151833,0,
1,0.562692,-0.0295351,-0.231158,-0.00147727,0,
1,0.534925,-0.0349127,-0.23079,-0.00146739,0,
1,0.506624,-0.0397252,-0.230333,-0.00148237,0,
1,0.477982,-0.044067,-0.229838,-0.00149425,0,
1,0.449206,-0.0480306,-0.229339,-0.00149932,0,
1,0.420509,-0.0516815,-0.228855,-0.00149239,0,
1,0.392107,-0.0550643,-0.228413,-0.00146916,0,
1,0.364206,-0.0582109,-0.228034,-0.00142753,0,
1,0.337003,-0.0611445,-0.227739,-0.00136741,0,
1,0.310673,-0.0638832,-0.227539,-0.00129049,0,
1,0.28537,-0.0664413,-0.22744,-0.00119977,0,
1,0.26122,-0.0688303,-0.22744,-0.00109906,0,
1,0.238324,-0.0710597,-0.22753,-0.000992407,0,
1,0.21675,-0.0731365,-0.227694,-0.000883571,0,
1,0.196544,-0.0750658,-0.227915,-0.000775733,0,
1,0.177724,-0.0768502,-0.228174,-0.000671331,0,
1,0.160284,-0.07849,-0.228454,-0.000572069,0,
1,0.144202,-0.0799832,-0.228739,-0.000479023,0,
1,0.129436,-0.0813259,-0.229017,-0.000392794,0,
1,0.115935,-0.0825122,-0.229279,-0.000313648,0,
1,0.103636,-0.083535,-0.229521,-0.000241637,0,
1,0.0924701,-0.0843859,-0.229739,-0.000176682,0,
1,0.0823633,-0.0850558,-0.229931,-0.000118626,0,
1,0.0732406,-0.0855353,-0.230098,-6.72613e-05,0,
1,0.0650269,-0.0858143,-0.230241,-2.23428e-05,0,
1,0.057648,-0.0858818,-0.230363,1.64023e-05,0,
1,0.0510323,-0.085726,-0.230465,4.92682e-05,0,
1,0.0451115,-0.085333,-0.230549,7.65603e-05,0,
1,0.0398209,-0.0846855,-0.230618,9.85808e-05,0,
1,0.0351001,-0.0837616,-0.230673,0.000115608,0,
1,0.0308929,-0.0825322,-0.230718,0.000127865,0,
1,0.0271475,-0.0809581,-0.230753,0.000135489,0,
1,0.0238164,-0.0789861,-0.230779,0.000138482,0,
1,0.0208562,-0.0765458,-0.230799,0.000136672,0,
1,0.0182274,-0.0735475,-0.230814,0.000129699,0,
1,0.0158944,-0.0698867,-0.230824,0.000117141,0,
1,0.0138249,-0.0654657,-0.230831,9.89569e-05,0,
1,0.0119898,-0.0602435,-0.230835,7.63366e-05,0,
1,0.0103632,-0.0543107,-0.230837,5.2418e-05,0,
1,0.00892169,-0.0479383,-0.230839,3.15027e-05,0,
1,0.00764438,-0.0415185,-0.230839,1.65787e-05,0,
1,0.00651264,-0.0354126,-0.23084,7.76388e-06,0,
1,0.00550983,-0.0298387,-0.23084,3.3021e-06,0,
1,0.00462115,-0.0248695,-0.23084,1.29301e-06,0,
1,0.00383341,-0.0204894,-0.23084,4.67028e-07,0,
1,0.0031349,-0.0166446,-0.23084,1.53951e-07,0,
1,0.00251518,-0.0132723,-0.23084,4.52083e-08,0,
1,0.00196502,-0.0103115,-0.23084,1.13375e-08,0,
1,0.00147619,-0.00770777,-0.230841,2.25918e-09,0,
1,0.00104139,-0.00541348,-0.23084,3.1383e-10,0,
1,0.000654158,-0.00338733,-0.230841,2.33505e-11,0,
1,0.000308731,-0.00159357,-0.23084,5.1019e-13,0,

4,0,0,-0.145965,0,0,
4,9,0,-0.0989743,0,0,
4,8.99969,0.0143368,-0.098974,2.28448e-10,0,
4,8.99934,0.0305457,-0.0989742,1.0599e-08,0,
4,8.99894,0.04889,-0.098974,1.44729e-07,0,
4,8.9985,0.0696475,-0.0989742,1.05043e-06,0,
4,8.99799,0.093101,-0.0989739,5.21248e-06,0,
4,8.99742,0.119452,-0.0989741,1.97237e-05,0,
4,8.99677,0.14861,-0.0989738,5.91141e-05,0,
4,8.99605,0.179881,-0.0989739,0.000140965,0,
4,8.99522,0.211895,-0.0989737,0.000268861,0,
4,8.99429,0.243106,-0.0989736,0.000422134,0,
4,8.99324,0.272452,-0.0989733,0.000572682,0,
4,8.99205,0.299561,-0.0989731,0.000702663,0,
4,8.9907,0.324515,-0.0989726,0.000807181,0,
4,8.98919,0.34749,-0.0989721,0.000895231,0,
4,8.98747,0.368676,-0.0989714,0.000968494,0,
4,8.98553,0.388347,-0.0989706,0.0010259,0,
4,8.98334,0.406784,-0.0989696,0.00107249,0,
4,8.98087,0.424202,-0.0989685,0.00111182,0,
4,8.97807,0.440771,-0.0989671,0.00114526,0,
4,8.97491,0.456631,-0.0989654,0.00117411,0,
4,8.97134,0.471902,-0.0989635,0.00119935,0,
4,8.96731,0.486683,-0.0989613,0.00122171,0,
4,8.96276,0.50106,-0.0989587,0.00124172,0,
4,8.95762,0.515104,-0.0989557,0.00125976,0,
4,8.95182,0.528878,-0.0989522,0.00127607,0,
4,8.94526,0.542434,-0.0989483,0.00129082,0,
4,8.93787,0.555819,-0.0989439,0.00130408,0,
4,8.92952,0.569071,-0.098939,0.00131586,0,
4,8.92011,0.582224,-0.0989335,0.00132614,0,
4,8.90949,0.595307,-0.0989275,0.00133481,0,
4,8.89751,0.608343,-0.0989209,0.00134177,0,
4,8.88402,0.621352,-0.0989137,0.00134685,0,
4,8.86881,0.634352,-0.0989061,0.00134989,0,
4,8.85169,0.647355,-0.098898,0.0013507,0,
4,8.83242,0.660373,-0.0988897,0.00134907,0,
4,8.81074,0.673416,-0.0988813,0.00134478,0,
4,8.78637,0.686491,-0.0988731,0.0013376,0,
4,8.75901,0.699607,-0.0988655,0.00132726,0,
4,8.7283,0.712772,-0.0988588,0.00131351,0,
4,8.69387,0.726,-0.0988538,0.00129667,0,
4,8.65533,0.739318,-0.0988518,0.00127461,0,
4,8.61222,0.752769,-0.098854,0.00124872,0,
4,8.56407,0.766401,-0.0988613,0.00121885,0,
4,8.5104,0.780278,-0.0988754,0.0011844,0,
4,8.45065,0.794496,-0.0988986,0.00114437,0,
4,8.38429,0.809192,-0.0989336,0.00109722,0,
4,8.31073,0.824557,-0.098984,0.00104054,0,
4,8.22941,0.840843,-0.0990529,0.000970782,0,
4,8.13974,0.85834,-0.0991451,0.000883593,0,
4,8.04115,0.877278,-0.0992617,0.000774516,0,
4,7.93313,0.897624,-0.099408,0.000642491,0,
4,7.81519,0.918737,-0.0995805,0.00049607,0,
4,7.68693,0.939131,-0.0997891,0.000353069,0,
4,7.54803,0.956765,-0.100037,0.00022808,0,
4,7.39831,0.969826,-0.10033,0.000104101,0,
4,7.23771,0.977452,-0.100684,3.32508e-05,0,
4,7.06634,0.980412,-0.101093,5.82302e-06,0,
4,6.88453,0.980682,-0.101559,9.93562e-08,0,
4,6.69275,0.980151,-0.102079,-1.07071e-07,0,
4,6.49173,0.979823,-0.102665,2.16059e-08,0,
4,6.28238,0.979892,-0.103324,2.77908e-08,0,
4,6.06579,0.980204,-0.104065,1.59345e-08,0,
4,5.84328,0.980598,-0.104893,1.04893e-08,0,
4,5.61626,0.981004,-0.105815,9.00811e-09,0,
4,5.3863,0.981421,-0.106835,9.03636e-09,0,
4,5.15502,0.981865,-0.107955,9.68291e-09,0,
4,4.92406,0.98235,-0.109178,1.06639e-08,0,
4,4.69507,0.982888,-0.110503,1.18556e-08,0,
4,4.46961,0.983482,-0.111929,1.30814e-08,0,
4,4.24915,0.984111,-0.11345,1.39771e-08,0,
4,4.03501,0.984717,-0.11506,1.42561e-08,0,
4,3.82836,0.985234,-0.116749,1.42693e-08,0,
4,3.63018,0.985671,-0.118504,1.5744e-08,0,
4,3.44125,0.98622,-0.120313,2.25136e-08,0,
4,3.26217,0.987243,-0.122159,8.63792e-08,0,
4,3.09333,0.989016,-0.124024,7.53511e-07,0,
4,2.93497,0.991311,-0.125891,3.16119e-06,0,
4,2.78715,0.993254,-0.127739,5.12836e-06,0,
4,2.64979,0.993689,-0.129552,-4.82873e-07,0,
4,2.52268,0.991726,-0.131307,-1.98626e-05,0,
4,2.40551,0.987053,-0.132979,-5.4592e-05,0,
4,2.29789,0.979916,-0.134548,-0.00010213,0,
4,2.19939,0.970901,-0.136,-0.000157633,0,
4,2.10949,0.960702,-0.137327,-0.000215816,0,
4,2.02768,0.949957,-0.138529,-0.000272263,0,
4,1.95343,0.939167,-0.13961,-0.000324019,0,
4,1.88618,0.928684,-0.140577,-0.00036959,0,
4,1.82542,0.918729,-0.141437,-0.000408637,0,
4,1.77062,0.90942,-0.1422,-0.000441559,0,
4,1.72128,0.900806,-0.142875,-0.000469107,0,
4,1.67693,0.89289,-0.143471,-0.000492133,0,
4,1.63713,0.88565,-0.143997,-0.000511419,0,
4,1.60144,0.87905,-0.144461,-0.000527572,0,
4,1.56949,0.87305,-0.144869,-0.000540975,0,
4,1.54091,0.867608,-0.145228,-0.000552883,0,
4,1.51537,0.862665,-0.145544,-0.000563232,0,
4,1.49167,0.85802,-0.145832,-0.000571236,0,
4,1.46926,0.85357,-0.146102,-0.000578154,0,
4,1.44801,0.849295,-0.146353,-0.000584248,0,
4,1.42781,0.845174,-0.146589,-0.000589368,0,
4,1.40855,0.841191,-0.14681,-0.00059356,0,
4,1.39015,0.837331,-0.147019,-0.000596907,0,
4,1.37252,0.833576,-0.147216,-0.000599537,0,
4,1.3556,0.829913,-0.147403,-0.000601649,0,
4,1.3393,0.826324,-0.14758,-0.000603535,0,
4,1.32357,0.822794,-0.147749,-0.000605605,0,
4,1.30836,0.819302,-0.14791,-0.000608414,0,
4,1.29362,0.815827,-0.148064,-0.000612675,0,
4,1.2793,0.812343,-0.148212,-0.000619389,0,
4,1.26537,0.808821,-0.148354,-0.000629697,0,
4,1.25179,0.805223,-0.14849,-0.000645053,0,
4,1.23852,0.801505,-0.148621,-0.000667219,0,
4,1.22554,0.797613,-0.148746,-0.000698264,0,
4,1.21282,0.793484,-0.148866,-0.00074053,0,
4,1.20034,0.789045,-0.148982,-0.000796554,0,
4,1.18806,0.784215,-0.149091,-0.000868923,0,
4,1.17599,0.778908,-0.149196,-0.00096006,0,
4,1.16408,0.773043,-0.149295,-0.00107195,0,
4,1.15233,0.766547,-0.149388,-0.00120588,0,
4,1.14073,0.759367,-0.149476,-0.00136214,0,
4,1.12925,0.751475,-0.149558,-0.00153996,0,
4,1.11788,0.742872,-0.149635,-0.00173744,0,
4,1.10661,0.733584,-0.149707,-0.00195177,0,
4,1.09543,0.723661,-0.149774,-0.00217946,0,
4,1.08432,0.713169,-0.149836,-0.00241672,0,
4,1.07328,0.70218,-0.149895,-0.00265974,0,
4,1.0623,0.690772,-0.14995,-0.00290503,0,
4,1.05136,0.679019,-0.150002,-0.00314946,0,
4,1.04044,0.666968,-0.15005,-0.00339049,0,
4,1.0295,0.65466,-0.150096,-0.0036263,0,
4,1.01855,0.642147,-0.150138,-0.00385532,0,
4,1.00757,0.629476,-0.150179,-0.00407604,0,
4,0.996544,0.616684,-0.150217,-0.00428744,0,
4,0.98547,0.603805,-0.150252,-0.00448882,0,
4,0.974334,0.590865,-0.150284,-0.00467974,0,
4,0.963124,0.577887,-0.150315,-0.00485996,0,
4,0.951826,0.564888,-0.150342,-0.00502947,0,
4,0.940428,0.551883,-0.150368,-0.00518835,0,
4,0.928915,0.538885,-0.150391,-0.00533676,0,
4,0.917272,0.525903,-0.150411,-0.00547585,0,
4,0.905481,0.512944,-0.150431,-0.00560456,0,
4,0.893524,0.500003,-0.150451,-0.00572214,0,
4,0.881383,0.48707,-0.150472,-0.00582781,0,
4,0.869035,0.474133,-0.150497,-0.00592019,0,
4,0.856459,0.461176,-0.150522,-0.00599688,0,
4,0.843629,0.448186,-0.150548,-0.00605546,0,
4,0.830518,0.435149,-0.150581,-0.0061076,0,
4,0.817097,0.421983,-0.150548,-0.00611459,0,
4,0.803334,0.408549,-0.150438,-0.00610154,0,
4,0.789195,0.394736,-0.150319,-0.00609334,0,
4,0.774643,0.380475,-0.150197,-0.00609397,0,
4,0.759639,0.365714,-0.150077,-0.00610449,0,
4,0.744138,0.350399,-0.149962,-0.00612595,0,
4,0.728096,0.33447,-0.149855,-0.00615967,0,
4,0.711463,0.317856,-0.149757,-0.00620715,0,
4,0.694189,0.300476,-0.14967,-0.00626997,0,
4,0.676218,0.282239,-0.149596,-0.0063496,0,
4,0.657495,0.263052,-0.149534,-0.00644729,0,
4,0.637962,0.242826,-0.14949,-0.00656394,0,
4,0.617561,0.221493,-0.149463,-0.00670003,0,
4,0.596848,0.199607,-0.149458,-0.00685063,0,
4,0.576557,0.177935,-0.149484,-0.00700663,0,
4,0.556564,0.15644,-0.149536,-0.00716342,0,
4,0.536763,0.135116,-0.149618,-0.00731547,0,
4,0.517057,0.113972,-0.149724,-0.00745608,0,
4,0.497368,0.0930139,-0.149847,-0.00757774,0,
4,0.477632,0.0722497,-0.14998,-0.00767256,0,
4,0.457804,0.0517294,-0.150122,-0.00773238,0,
4,0.437857,0.0316272,-0.150292,-0.00774961,0,
4,0.417786,0.0123333,-0.150538,-0.00772009,0,
4,0.397605,-0.00553702,-0.150948,-0.0076472,0,
4,0.377348,-0.0213337,-0.151589,-0.00754432,0,
4,0.357066,-0.0347437,-0.152489,-0.0074296,0,
4,0.336828,-0.0460963,-0.153093,-0.00723321,0,
4,0.316717,-0.0561846,-0.153253,-0.00673526,0,
4,0.296825,-0.0654804,-0.153344,-0.00636771,0,
4,0.27725,-0.0740237,-0.153393,-0.00598896,0,
4,0.258095,-0.081857,-0.15335,-0.00559384,0,
4,0.239458,-0.0890299,-0.153229,-0.00519579,0,
4,0.221432,-0.0955891,-0.15303,-0.00479814,0,
4,0.2041,-0.101582,-0.152759,-0.00440571,0,
4,0.187537,-0.107055,-0.152423,-0.0040227,0,
4,0.171798,-0.112052,-0.152036,-0.00365266,0,
4,0.156928,-0.116612,-0.151611,-0.00329842,0,
4,0.142956,-0.120771,-0.15116,-0.00296213,0,
4,0.129894,-0.124563,-0.150699,-0.00264525,0,
4,0.117744,-0.128016,-0.150238,-0.00234864,0,
4,0.106492,-0.131155,-0.14979,-0.00207263,0,
4,0.0961173,-0.134002,-0.14936,-0.00181712,0,
4,0.0865883,-0.136577,-0.148957,-0.00158164,0,
4,0.0778675,-0.138895,-0.148582,-0.00136548,0,
4,0.0699123,-0.140971,-0.14824,-0.00116771,0,
4,0.062677,-0.142817,-0.14793,-0.000987298,0,
4,0.056114,-0.144443,-0.147652,-0.000823125,0,
4,0.0501747,-0.145859,-0.147405,-0.000674048,0,
4,0.0448114,-0.147069,-0.147187,-0.000538927,0,
4,0.039977,-0.14808,-0.146996,-0.000416651,0,
4,0.0356266,-0.148895,-0.146829,-0.000306163,0,
4,0.0317171,-0.149512,-0.146685,-0.000206468,0,
4,0.0282081,-0.14993,-0.14656,-0.000116649,0,
4,0.0250617,-0.150144,-0.146453,-3.58817e-05,0,
4,0.0222427,-0.150142,-0.146361,3.65582e-05,0,
4,0.0197189,-0.149908,-0.146283,0.000101272,0,
4,0.0174603,-0.149418,-0.146218,0.000158709,0,
4,0.0154398,-0.148637,-0.146163,0.000209122,0,
4,0.0136326,-0.147514,-0.146117,0.000252477,0,
4,0.0120162,-0.145974,-0.14608,0.000288316,0,
4,0.0105703,-0.143911,-0.146049,0.000315518,0,
4,0.00927657,-0.141168,-0.146026,0.000331933,0,
4,0.00811839,-0.137524,-0.146006,0.000333982,0,
4,0.0070809,-0.132675,-0.145994,0.000316746,0,
4,0.0061507,-0.126258,-0.145983,0.000275974,0,
4,0.00531578,-0.117963,-0.145979,0.000213424,0,
4,0.00456537,-0.107758,-0.145974,0.00014179,0,
4,0.00388979,-0.0960721,-0.145973,7.9594e-05,0,
4,0.00328037,-0.0836614,-0.14597,3.78851e-05,0,
4,0.00272934,-0.0712359,-0.145971,1.54631e-05,0,
4,0.0022297,-0.0592361,-0.145969,5.41601e-06,0,
4,0.00177519,-0.0478533,-0.145971,1.5896e-06,0,
4,0.00136016,-0.0371308,-0.145968,3.67681e-07,0,
4,0.000979511,-0.0270427,-0.14597,5.90795e-08,0,
4,0.00062865,-0.0175353,-0.145966,5.05477e-09,0,
4,0.000303409,-0.00854432,-0.14597,1.23472e-10,0,

6,0,0,-0.0148434,0,0,
6,9,0,-0.0745679,0,0,
6,8.99969,0.0135943,-0.0745676,1.90652e-10,0,
6,8.99934,0.0289246,-0.0745679,8.79914e-09,0,
6,8.99895,0.0462301,-0.0745676,1.19297e-07,0,
6,8.9985,0.0657634,-0.0745678,8.597e-07,0,
6,8.99801,0.0877842,-0.0745676,4.24312e-06,0,
6,8.99744,0.112491,-0.0745677,1.6042e-05,0,
6,8.99681,0.139852,-0.0745675,4.84314e-05,0,
6,8.99609,0.169328,-0.0745676,0.000117522,0,
6,8.99529,0.199752,-0.0745673,0.0002298,0,
6,8.99438,0.229686,-0.0745673,0.00037029,0,
6,8.99336,0.258032,-0.074567,0.000513227,0,
6,8.9922,0.284301,-0.0745669,0.000641315,0,
6,8.9909,0.3085,-0.0745665,0.000744998,0,
6,8.98944,0.33079,-0.0745661,0.000832188,0,
6,8.98779,0.351348,-0.0745655,0.000905527,0,
6,8.98593,0.370425,-0.0745649,0.000963317,0,
6,8.98383,0.388284,-0.074564,0.00101106,0,
6,8.98147,0.405127,-0.0745631,0.00105148,0,
6,8.97881,0.42112,-0.0745619,0.00108614,0,
6,8.97581,0.436403,-0.0745605,0.00111637,0,
6,8.97244,0.451095,-0.0745587,0.00114318,0,
6,8.96863,0.465296,-0.0745568,0.00116732,0,
6,8.96435,0.479093,-0.0745544,0.00118937,0,
6,8.95953,0.492559,-0.0745517,0.00120972,0,
6,8.95409,0.505759,-0.0745484,0.00122864,0,
6,8.94798,0.518748,-0.0745447,0.00124634,0,
6,8.94109,0.531575,-0.0745404,0.00126288,0,
6,8.93334,0.544282,-0.0745354,0.0012783,0,
6,8.92463,0.556908,-0.0745297,0.00129256,0,
6,8.91482,0.569485,-0.0745233,0.00130554,0,
6,8.90379,0.58204,-0.0745159,0.00131709,0,
6,8.89139,0.594597,-0.0745076,0.00132702,0,
6,8.87746,0.607175,-0.0744983,0.00133509,0,
6,8.86181,0.61979,-0.074488,0.00134104,0,
6,8.84423,0.632454,-0.0744765,0.00134459,0,
6,8.82452,0.645176,-0.0744638,0.00134544,0,
6,8.80241,0.657961,-0.0744498,0.00134329,0,
6,8.77763,0.670814,-0.0744346,0.00133785,0,
6,8.74989,0.683737,-0.0744181,0.00132885,0,
6,8.71885,0.696735,-0.0744005,0.00131643,0,
6,8.68417,0.709822,-0.0743817,0.0012999,0,
6,8.64545,0.723028,-0.0743622,0.00127777,0,
6,8.60229,0.736382,-0.0743422,0.00125179,0,
6,8.55423,0.749914,-0.0743215,0.00122163,0,
6,8.50082,0.763665,-0.0743005,0.00118683,0,
6,8.44155,0.777707,-0.0742797,0.00114663,0,
6,8.37592,0.792159,-0.0742597,0.00109983,0,
6,8.30339,0.807194,-0.0742412,0.00104451,0,
6,8.22344,0.823062,-0.0742254,0.000977749,0,
6,8.13555,0.84007,-0.074211,0.000895788,0,
6,8.0392,0.858514,-0.0741976,0.000794595,0,
6,7.93391,0.878467,-0.0741776,0.000672659,0,
6,7.81927,0.899424,-0.0741516,0.000536136,0,
6,7.6949,0.92003,-0.0741046,0.000400185,0,
6,7.56054,0.938317,-0.0740532,0.000277558,0,
6,7.41603,0.952581,-0.0739758,0.00016149,0,
6,7.26132,0.961949,-0.073888,6.60394e-05,0,
6,7.09653,0.966621,-0.0737921,1.77764e-05,0,
6,6.92195,0.967914,-0.0736697,1.34383e-06,0,
6,6.73802,0.967557,-0.0735215,-1.12841e-06,0,
6,6.5454,0.966841,-0.0733402,-5.76113e-07,0,
6,6.34489,0.966326,-0.0731232,-1.69146e-07,0,
6,6.1375,0.966056,-0.0728661,-4.68463e-08,0,
6,5.92439,0.965899,-0.0725643,-1.77063e-08,0,
6,5.70687,0.965741,-0.0722121,-9.90733e-09,0,
6,5.48633,0.965533,-0.0718036,-7.57181e-09,0,
6,5.26426,0.965271,-0.0713325,-7.18971e-09,0,
6,5.04218,0.964962,-0.0707926,-7.60688e-09,0,
6,4.82159,0.964622,-0.0701779,-8.35303e-09,0,
6,4.60398,0.964259,-0.0694833,-9.31506e-09,0,
6,4.39071,0.963872,-0.0687046,-1.06883e-08,0,
6,4.18307,0.963428,-0.0678391,-1.28796e-08,0,
6,3.98218,0.962864,-0.0668862,-1.6211e-08,0,
6,3.78902,0.962125,-0.0658473,-2.03718e-08,0,
6,3.60438,0.96124,-0.0647264,-2.71555e-08,0,
6,3.42888,0.960392,-0.06353,-6.12164e-08,0,
6,3.26296,0.959871,-0.0622659,-1.69975e-07,0,
6,3.10691,0.95991,-0.0609422,-2.58372e-07,0,
6,2.96084,0.960466,-0.0595686,-1.72881e-07,0,
6,2.82473,0.961153,-0.0581585,-8.81318e-07,0,
6,2.69844,0.961375,-0.0567282,-5.18427e-06,0,
6,2.58172,0.960554,-0.0552954,-1.63071e-05,0,
6,2.47424,0.958317,-0.0538782,-3.62246e-05,0,
6,2.37559,0.954555,-0.0524932,-6.51217e-05,0,
6,2.28535,0.949394,-0.0511555,-0.000101737,0,
6,2.20301,0.943108,-0.0498769,-0.000143973,0,
6,2.1281,0.936038,-0.0486664,-0.000189382,0,
6,2.06009,0.928519,-0.0475298,-0.000235655,0,
6,1.99849,0.920844,-0.0464703,-0.00028092,0,
6,1.9428,0.913244,-0.0454886,-0.000323845,0,
6,1.89255,0.905889,-0.0445839,-0.000363613,0,
6,1.84728,0.898892,-0.0437536,-0.000399824,0,
6,1.80655,0.892325,-0.0429952,-0.000432304,0,
6,1.76996,0.886227,-0.0423037,-0.00046098,0,
6,1.73712,0.880612,-0.0416765,-0.000487312,0,
6,1.70768,0.87545,-0.041107,-0.000511294,0,
6,1.67998,0.870506,-0.0405679,-0.000532155,0,
6,1.65329,0.865674,-0.0400429,-0.000551757,0,
6,1.62754,0.860946,-0.0395324,-0.000570423,0,
6,1.60265,0.856318,-0.0390347,-0.000587964,0,
6,1.57854,0.851785,-0.0385492,-0.000604419,0,
6,1.55515,0.847342,-0.0380747,-0.000619836,0,
6,1.53242,0.842984,-0.0376106,-0.000634255,0,
6,1.5103,0.838705,-0.0371558,-0.000647704,0,
6,1.48874,0.834499,-0.0367098,-0.000660204,0,
6,1.46769,0.830361,-0.0362719,-0.000671769,0,
6,1.44712,0.826286,-0.0358412,-0.000682405,0,
6,1.42698,0.822269,-0.0354174,-0.000692132,0,
6,1.40725,0.818305,-0.0349998,-0.000700982,0,
6,1.38788,0.814388,-0.0345879,-0.000708984,0,
6,1.36886,0.810513,-0.0341813,-0.000716216,0,
6,1.35015,0.806672,-0.0337797,-0.00072278,0,
6,1.33173,0.802856,-0.0333826,-0.000728846,0,
6,1.31357,0.799057,-0.0329895,-0.000734748,0,
6,1.29566,0.795263,-0.0326002,-0.000740929,0,
6,1.27797,0.791462,-0.0322142,-0.000747975,0,
6,1.26048,0.787638,-0.0318313,-0.000756641,0,
6,1.24318,0.78377,-0.0314514,-0.000767882,0,
6,1.22605,0.779832,-0.0310741,-0.000783213,0,
6,1.20907,0.775791,-0.0306995,-0.000804333,0,
6,1.19223,0.771605,-0.0303274,-0.000833423,0,
6,1.17551,0.767221,-0.029958,-0.00087326,0,
6,1.1589,0.762571,-0.0295913,-0.000927184,0,
6,1.14238,0.757576,-0.0292278,-0.00099899,0,
6,1.12595,0.752146,-0.0288677,-0.00109264,0,
6,1.10959,0.746185,-0.0285118,-0.00121177,0,
6,1.09329,0.739603,-0.0281607,-0.00135896,0,
6,1.07704,0.73233,-0.0278152,-0.00153482,0,
6,1.06081,0.724324,-0.0274758,-0.00173704,0,
6,1.04459,0.715588,-0.0271436,-0.00195986,0,
6,1.02836,0.706177,-0.0268176,-0.00219322,0,
6,1.01211,0.6962,-0.0265015,-0.00242464,0,
6,0.99583,0.685798,-0.0261907,-0.00265749,0,
6,0.97951,0.674996,-0.0258497,-0.00283763,0,
6,0.963136,0.663718,-0.0254886,-0.00301598,0,
6,0.946694,0.651918,-0.0251342,-0.00319724,0,
6,0.930172,0.639567,-0.0247828,-0.00338356,0,
6,0.913555,0.62664,-0.0244401,-0.0035774,0,
6,0.896829,0.613122,-0.024105,-0.00378097,0,
6,0.879979,0.599006,-0.0237792,-0.00399637,0,
6,0.862989,0.584298,-0.0234623,-0.00422555,0,
6,0.845842,0.569006,-0.0231572,-0.00446912,0,
6,0.828521,0.553134,-0.0228682,-0.00472477,0,
6,0.811008,0.536685,-0.0225954,-0.0049924,0,
6,0.793282,0.519667,-0.0223389,-0.00527145,0,
6,0.775322,0.502097,-0.0220986,-0.00556077,0,
6,0.757107,0.483993,-0.0218743,-0.00585869,0,
6,0.738612,0.465378,-0.0216665,-0.00616305,0,
6,0.719813,0.446281,-0.0214759,-0.00647121,0,
6,0.700681,0.426741,-0.0213048,-0.00677983,0,
6,0.681188,0.406819,-0.0211559,-0.00708465,0,
6,0.661304,0.386598,-0.0210328,-0.00738023,0,
6,0.640996,0.366185,-0.0209378,-0.0076599,0,
6,0.620228,0.345694,-0.0208704,-0.00791612,0,
6,0.598964,0.32523,-0.0208264,-0.00814147,0,
6,0.577166,0.304862,-0.0207974,-0.00832963,0,
6,0.554791,0.284625,-0.0207732,-0.00847494,0,
6,0.531799,0.264523,-0.0207482,-0.00857187,0,
6,0.508144,0.244585,-0.0207344,-0.00861508,0,
6,0.48378,0.224946,-0.0207738,-0.00860037,0,
6,0.459585,0.20661,-0.0209598,-0.00853173,0,
6,0.436695,0.190829,-0.021378,-0.00842921,0,
6,0.414961,0.177792,-0.022119,-0.00831471,0,
6,0.394252,0.167264,-0.0230208,-0.0081975,0,
6,0.374445,0.158494,-0.0233983,-0.0078634,0,
6,0.355433,0.15072,-0.0233076,-0.00741553,0,
6,0.337122,0.143576,-0.0232258,-0.00708214,0,
6,0.319433,0.136966,-0.02311,-0.0067462,0,
6,0.3023,0.130814,-0.0229513,-0.00641114,0,
6,0.28567,0.125059,-0.0227594,-0.00607775,0,
6,0.269507,0.119654,-0.0225326,-0.00574691,0,
6,0.253785,0.114557,-0.0222726,-0.00541971,0,
6,0.238493,0.109737,-0.0219815,-0.00509722,0,
6,0.223631,0.105166,-0.0216619,-0.00478052,0,
6,0.209207,0.100824,-0.0213174,-0.00447072,0,
6,0.195237,0.0966931,-0.0209522,-0.00416896,0,
6,0.181744,0.0927605,-0.0205712,-0.00387636,0,
6,0.168754,0.0890146,-0.0201796,-0.00359403,0,
6,0.156292,0.0854464,-0.0197829,-0.00332296,0,
6,0.144384,0.0820479,-0.0193866,-0.00306404,0,
6,0.133052,0.0788123,-0.0189958,-0.00281799,0,
6,0.122315,0.0757336,-0.0186153,-0.00258539,0,
6,0.112183,0.0728058,-0.0182494,-0.00236657,0,
6,0.102665,0.0700234,-0.0179013,-0.00216172,0,
6,0.0937597,0.0673808,-0.0175737,-0.00197082,0,
6,0.0854609,0.0648723,-0.0172684,-0.00179368,0,
6,0.077757,0.0624919,-0.0169865,-0.00162996,0,
6,0.0706309,0.0602337,-0.0167282,-0.0014792,0,
6,0.0640611,0.0580914,-0.0164934,-0.00134085,0,
6,0.0580229,0.0560585,-0.0162813,-0.00121427,0,
6,0.0524888,0.0541283,-0.0160911,-0.00109876,0,
6,0.0474296,0.0522939,-0.0159213,-0.000993615,0,
6,0.042815,0.0505483,-0.0157705,-0.000898098,0,
6,0.0386145,0.0488841,-0.0156373,-0.00081148,0,
6,0.0347975,0.0472939,-0.0155201,-0.000733044,0,
6,0.0313344,0.04577,-0.0154174,-0.000662093,0,
6,0.0281964,0.0443047,-0.0153277,-0.00059796,0,
6,0.0253561,0.0428897,-0.0152496,-0.000540007,0,
6,0.0227875,0.0415163,-0.015182,-0.000487628,0,
6,0.0204662,0.0401754,-0.0151235,-0.00044025,0,
6,0.0183694,0.038857,-0.0150733,-0.000397326,0,
6,0.016476,0.0375501,-0.0150302,-0.000358329,0,
6,0.0147664,0.0362422,-0.0149937,-0.000322748,0,
6,0.0132228,0.0349185,-0.0149625,-0.000290068,0,
6,0.0118288,0.0335616,-0.0149368,-0.000259755,0,
6,0.0105693,0.0321501,-0.0149148,-0.000231229,0,
6,0.00943073,0.0306575,-0.0148976,-0.000203832,0,
6,0.00840063,0.0290512,-0.0148828,-0.000176808,0,
6,0.00746774,0.0272922,-0.0148724,-0.000149351,0,
6,0.00662185,0.0253393,-0.0148632,-0.000120842,0,
6,0.00585371,0.0231612,-0.0148582,-9.1455e-05,0,
6,0.00515491,0.0207615,-0.0148531,-6.29353e-05,0,
6,0.00451788,0.0182063,-0.0148518,-3.84497e-05,0,
6,0.00393573,0.015623,-0.0148489,-2.06555e-05,0,
6,0.00340221,0.0131508,-0.0148495,-9.81158e-06,0,
6,0.00291168,0.0108856,-0.0148473,-4.16487e-06,0,
6,0.00245897,0.0088641,-0.0148487,-1.58456e-06,0,
6,0.00203939,0.00708237,-0.0148463,-5.33268e-07,0,
6,0.00164864,0.00551702,-0.0148483,-1.53208e-07,0,
6,0.00128281,0.00413929,-0.0148454,-3.50654e-08,0,
6,0.000938257,0.00292144,-0.0148481,-5.60541e-09,0,
6,0.000611645,0.00183896,-0.0148445,-4.76647e-10,0,
6,0.000299862,0.000871104,-0.014848,-1.13558e-11,0,

10,0.000296632,0.0100452,0.0301345,-9.8119e-11,0,
10,0.000596102,0.0201836,0.0301352,-3.6364e-09,0,
10,0.000900397,0.0304821,0.0301344,-3.69672e-08,0,
10,0.00121153,0.0410081,0.030135,-1.9855e-07,0,
10,0.00153158,0.0518279,0.0301344,-7.41695e-07,0,
10,0.00186264,0.0630047,0.0301348,-2.19891e-06,0,
10,0.00220692,0.0745926,0.0301343,-5.55134e-06,0,
10,0.00256668,0.0866281,0.0301347,-1.24176e-05,0,
10,0.00294431,0.0991157,0.0301342,-2.51689e-05,0,
10,0.00334229,0.11201,0.0301345,-4.67797e-05,0,
10,0.00376326,0.125197,0.030134,-8.019e-05,0,
10,0.00421,0.138493,0.0301341,-0.000127166,0,
10,0.00468544,0.151654,0.0301336,-0.000187153,0,
10,0.00519274,0.164423,0.0301335,-0.000256971,0,
10,0.00573524,0.176568,0.0301327,-0.000331728,0,
10,0.00631651,0.187924,0.0301322,-0.000406382,0,
10,0.00694041,0.198398,0.0301311,-0.000476984,0,
10,0.00761104,0.207966,0.03013,-0.000541132,0,
10,0.00833284,0.216653,0.0301282,-0.000597828,0,
10,0.00911058,0.224517,0.0301262,-0.00064708,0,
10,0.0099494,0.231632,0.0301235,-0.0006895,0,
10,0.0108548,0.238079,0.0301203,-0.000726004,0,
10,0.0118329,0.243937,0.0301163,-0.000757605,0,
10,0.0128901,0.249284,0.0301116,-0.000785293,0,
10,0.0140333,0.254186,0.0301059,-0.000809976,0,
10,0.0152702,0.258705,0.0300992,-0.000832454,0,
10,0.0166089,0.262893,0.0300914,-0.000853418,0,
10,0.0180584,0.266796,0.0300823,-0.000873462,0,
10,0.0196282,0.270455,0.0300718,-0.000893095,0,
10,0.0213288,0.273904,0.0300598,-0.000912761,0,
10,0.0231714,0.277172,0.0300459,-0.000932852,0,
10,0.0251682,0.280285,0.0300302,-0.000953721,0,
10,0.0273326,0.283266,0.0300123,-0.000975695,0,
10,0.0296789,0.286136,0.0299921,-0.000999082,0,
10,0.0322227,0.28891,0.0299692,-0.00102418,0,
10,0.0349809,0.291607,0.0299434,-0.00105129,0,
10,0.0379719,0.29424,0.0299144,-0.00108071,0,
10,0.0412155,0.296821,0.0298819,-0.00111274,0,
10,0.0447333,0.299365,0.0298455,-0.00114772,0,
10,0.0485489,0.301881,0.0298048,-0.00118597,0,
10,0.0526875,0.304382,0.0297594,-0.00122786,0,
10,0.0571768,0.306878,0.0297088,-0.00127377,0,
10,0.0620466,0.30938,0.0296526,-0.0013241,0,
10,0.0673295,0.311897,0.0295903,-0.00137931,0,
10,0.0730607,0.314441,0.0295212,-0.00143988,0,
10,0.0792784,0.317023,0.0294449,-0.00150631,0,
10,0.0860241,0.319653,0.0293606,-0.00157917,0,
10,0.0933428,0.322345,0.0292678,-0.00165907,0,
10,0.101283,0.325109,0.0291659,-0.00174667,0,
10,0.109899,0.327961,0.0290542,-0.00184268,0,
10,0.119247,0.330915,0.0289322,-0.00194786,0,
10,0.12939,0.333987,0.0287992,-0.00206306,0,
10,0.140395,0.337195,0.0286547,-0.00218915,0,
10,0.152337,0.34056,0.0284985,-0.00232709,0,
10,0.165296,0.344105,0.0283301,-0.00247789,0,
10,0.179357,0.347856,0.0281495,-0.00264261,0,
10,0.194615,0.351844,0.0279567,-0.00282236,0,
10,0.211171,0.356103,0.0277524,-0.00301824,0,
10,0.229138,0.360674,0.0275369,-0.00323137,0,
10,0.248635,0.365607,0.0273118,-0.00346282,0,
10,0.269793,0.370958,0.0270778,-0.00371351,0,
10,0.292753,0.376795,0.0268385,-0.00398414,0,
10,0.317669,0.383201,0.0265926,-0.00427412,0,
10,0.344708,0.390272,0.0263487,-0.00458085,0,
10,0.372405,0.397685,0.0261201,-0.0048888,0,
10,0.399623,0.405172,0.0259126,-0.00518519,0,
10,0.426397,0.41276,0.0257287,-0.00546813,0,
10,0.452757,0.420479,0.0255662,-0.00573499,0,
10,0.478735,0.428366,0.0254419,-0.00598439,0,
10,0.504358,0.436464,0.0253061,-0.00624054,0,
10,0.529657,0.444889,0.0253209,-0.00655578,0,
10,0.554656,0.454121,0.0256359,-0.00657348,0,
10,0.579382,0.464754,0.0259897,-0.00657034,0,
10,0.603859,0.476893,0.026198,-0.00654601,0,
10,0.628112,0.490267,0.0262813,-0.00649178,0,
10,0.652163,0.50446,0.0262746,-0.00640063,0,
10,0.676035,0.519131,0.026223,-0.00626949,0,
10,0.699751,0.534105,0.0261541,-0.00609808,0,
10,0.72333,0.549343,0.026082,-0.00588714,0,
10,0.746795,0.564871,0.0260084,-0.00563755,0,
10,0.770165,0.580706,0.0259294,-0.00535048,0,
10,0.79346,0.596809,0.025838,-0.00502858,0,
10,0.816699,0.613047,0.0257305,-0.00467745,0,
10,0.839903,0.629161,0.0255983,-0.00431754,0,
10,0.863088,0.644814,0.0254393,-0.00396825,0,
10,0.886275,0.659743,0.0252645,-0.00362914,0,
10,0.909481,0.673855,0.0250804,-0.00330019,0,
10,0.932723,0.687167,0.0248901,-0.00298375,0,
10,0.956021,0.699721,0.0246924,-0.0026831,0,
10,0.97939,0.711525,0.0244855,-0.00240187,0,
10,1.00285,0.722554,0.0242682,-0.00214352,0,
10,1.02641,0.732777,0.0240402,-0.00191078,0,
10,1.0501,0.742181,0.0238021,-0.00170514,0,
10,1.07392,0.750786,0.0235547,-0.00152671,0,
10,1.0979,0.758649,0.0232989,-0.00137434,0,
10,1.12205,0.765852,0.0230353,-0.00124588,0,
10,1.14639,0.772493,0.0227643,-0.00113848,0,
10,1.17093,0.778676,0.0224865,-0.00104893,0,
10,1.19568,0.784503,0.0222024,-0.000974051,0,
10,1.22066,0.790069,0.0219122,-0.000910993,0,
10,1.24589,0.795448,0.0216161,-0.000857365,0,
10,1.27137,0.8007,0.021314,-0.000811229,0,
10,1.29713,0.805863,0.0210058,-0.000771015,0,
10,1.32317,0.810962,0.0206913,-0.000735418,0,
10,1.34951,0.816014,0.0203704,-0.00070334,0,
10,1.37616,0.821027,0.020043,-0.00067387,0,
10,1.40313,0.82601,0.019709,-0.000646288,0,
10,1.43043,0.830967,0.0193682,-0.000620068,0,
10,1.45807,0.835902,0.0190204,-0.000594844,0,
10,1.48607,0.840817,0.0186655,-0.000570375,0,
10,1.51444,0.845711,0.0183033,-0.000546493,0,
10,1.54318,0.850582,0.0179337,-0.000523078,0,
10,1.57231,0.855422,0.0175567,-0.000500037,0,
10,1.60184,0.860224,0.017172,-0.000477307,0,
10,1.63178,0.864976,0.0167797,-0.000454848,0,
10,1.66213,0.869667,0.0163795,-0.000432645,0,
10,1.69292,0.874285,0.0159714,-0.00041071,0,
10,1.72416,0.878818,0.0155553,-0.000389078,0,
10,1.75585,0.883253,0.0151312,-0.000367804,0,
10,1.78802,0.887575,0.0146988,-0.000346954,0,
10,1.82067,0.891769,0.0142584,-0.000326615,0,
10,1.85383,0.895818,0.0138096,-0.000306878,0,
10,1.88751,0.899705,0.0133529,-0.000287859,0,
10,1.92173,0.903409,0.0128876,-0.000269637,0,
10,1.95652,0.906917,0.0124153,-0.000252169,0,
10,1.9919,0.910243,0.0119349,-0.000232214,0,
10,2.02791,0.913427,0.0114457,-0.000206166,0,
10,2.06456,0.91646,0.0109504,-0.000179831,0,
10,2.10268,0.91934,0.0104322,-0.000152519,0,
10,2.1443,0.922137,0.0098696,-0.000125965,0,
10,2.18977,0.924798,0.00925449,-0.00010085,0,
10,2.23946,0.927247,0.00858586,-7.75424e-05,0,
10,2.29376,0.929407,0.00785788,-5.67736e-05,0,
10,2.35309,0.931202,0.00706856,-3.90823e-05,0,
10,2.4179,0.932572,0.00621376,-2.48375e-05,0,
10,2.48863,0.933477,0.00529183,-1.4196e-05,0,
10,2.56575,0.933919,0.00430045,-7.03994e-06,0,
10,2.64971,0.933949,0.00323918,-2.93297e-06,0,
10,2.74098,0.933678,0.00210767,-1.14171e-06,0,
10,2.83997,0.93327,0.000907072,-7.5078e-07,0,
10,2.94709,0.932917,-0.000361034,-8.78503e-07,0,
10,3.06269,0.932797,-0.00169382,-9.31744e-07,0,
10,3.18706,0.933026,-0.00308769,-7.41076e-07,0,
10,3.3204,0.933617,-0.00453756,-4.4275e-07,0,
10,3.46281,0.934486,-0.00603684,-2.08069e-07,0,
10,3.61427,0.935492,-0.00757689,-8.75525e-08,0,
10,3.77463,0.936495,-0.0091471,-4.29709e-08,0,
10,3.94358,0.937409,-0.0107352,-2.93125e-08,0,
10,4.12067,0.938216,-0.0123277,-2.46017e-08,0,
10,4.30525,0.938946,-0.0139108,-2.24107e-08,0,
10,4.49655,0.939643,-0.0154707,-2.14837e-08,0,
10,4.6936,0.940336,-0.0169939,-2.17453e-08,0,
10,4.89531,0.94103,-0.0184683,-2.38222e-08,0,
10,5.10047,0.94171,-0.0198826,-2.95708e-08,0,
10,5.30776,0.942355,-0.0212275,-4.30832e-08,0,
10,5.51581,0.942949,-0.0224953,-7.27471e-08,0,
10,5.72323,0.943489,-0.0236802,-1.36628e-07,0,
10,5.92863,0.944003,-0.0247789,-2.79085e-07,0,
10,6.13069,0.944559,-0.0257893,-6.14738e-07,0,
10,6.32816,0.945252,-0.0267122,-1.3665e-06,0,
10,6.51991,0.946095,-0.0275489,-2.54538e-06,0,
10,6.70495,0.946817,-0.028304,-2.37743e-06,0,
10,6.88244,0.946655,-0.0289793,5.48118e-06,0,
10,7.0517,0.944378,-0.0295807,3.27192e-05,0,
10,7.21224,0.938679,-0.0301063,9.23976e-05,0,
10,7.3637,0.92878,-0.0305641,0.000193699,0,
10,7.5059,0.914639,-0.0309624,0.000308073,0,
10,7.63878,0.896759,-0.0312961,0.000422471,0,
10,7.76243,0.876451,-0.0315776,0.000547586,0,
10,7.87701,0.855572,-0.0318037,0.000673828,0,
10,7.9828,0.835566,-0.0319905,0.000786626,0,
10,8.08014,0.817062,-0.0321401,0.000881358,0,
10,8.16941,0.800059,-0.0322647,0.00095942,0,
10,8.25106,0.784265,-0.0323677,0.00102448,0,
10,8.32554,0.769339,-0.0324557,0.00107969,0,
10,8.39331,0.755005,-0.0325303,0.00112744,0,
10,8.45484,0.741076,-0.0325944,0.00116907,0,
10,8.5106,0.727443,-0.0326491,0.00120524,0,
10,8.56104,0.71406,-0.032696,0.00123625,0,
10,8.60659,0.700917,-0.0327365,0.00126232,0,
10,8.64767,0.688004,-0.032771,0.00128247,0,
10,8.68467,0.675287,-0.0328005,0.00129543,0,
10,8.71795,0.662742,-0.0328264,0.00130479,0,
10,8.74786,0.650366,-0.0328483,0.00130979,0,
10,8.77471,0.638155,-0.0328674,0.00131079,0,
10,8.79881,0.626108,-0.0328837,0.00130821,0,
10,8.8204,0.614219,-0.0328977,0.0013025,0,
10,8.83975,0.602478,-0.0329097,0.00129412,0,
10,8.85708,0.590874,-0.03292,0.00128352,0,
10,8.87259,0.579389,-0.0329287,0.00127113,0,
10,8.88646,0.568004,-0.0329362,0.00125732,0,
10,8.89886,0.556695,-0.0329424,0.00124244,0,
10,8.90995,0.545436,-0.0329477,0.00122675,0,
10,8.91986,0.534198,-0.0329521,0.00121046,0,
10,8.92872,0.522948,-0.0329559,0.00119374,0,
10,8.93663,0.511651,-0.032959,0.00117667,0,
10,8.94369,0.500268,-0.0329616,0.00115926,0,
10,8.95,0.488759,-0.0329637,0.00114148,0,
10,8.95564,0.477077,-0.0329655,0.00112326,0,
10,8.96067,0.465174,-0.0329669,0.00110441,0,
10,8.96517,0.452996,-0.0329682,0.0010847,0,
10,8.96918,0.44048,-0.0329691,0.00106377,0,
10,8.97276,0.427558,-0.0329701,0.00104121,0,
10,8.97596,0.41415,-0.0329706,0.00101645,0,
10,8.97882,0.400164,-0.0329713,0.000988766,0,
10,8.98137,0.385491,-0.0329716,0.000957213,0,
10,8.98365,0.370005,-0.0329722,0.000920582,0,
10,8.98569,0.353556,-0.0329723,0.000877461,0,
10,8.9875,0.335961,-0.0329728,0.000825664,0,
10,8.98913,0.316985,-0.0329727,0.000760063,0,
10,8.99058,0.296396,-0.0329732,0.000682517,0,
10,8.99188,0.274031,-0.0329729,0.000590788,0,
10,8.99304,0.249729,-0.0329734,0.000477699,0,
10,8.99408,0.223441,-0.032973,0.00035091,0,
10,8.99501,0.195531,-0.0329736,0.000224015,0,
10,8.99583,0.166899,-0.0329731,0.000119007,0,
10,8.99658,0.138814,-0.0329737,5.12014e-05,0,
10,8.99724,0.112405,-0.0329731,1.76922e-05,0,
10,8.99784,0.08827,-0.0329738,4.8634e-06,0,
10,8.99837,0.066526,-0.0329731,1.02021e-06,0,
10,8.99885,0.0470393,-0.0329739,1.46161e-07,0,
10,8.99927,0.0295981,-0.032973,1.10968e-08,0,
10,8.99966,0.0139867,-0.032974,2.45521e-10,0,
10,0,0,0.0301354,0,0,
10,9,0,-0.0329729,0,0,

0.004,0,0,-0.224506,0,2.75946e-07,
0.00868226,0,0,-0.224517,0,-2.96272e-07,
0.014062,0,0,-0.224507,0,-8.52802e-07,
0.0201548,0,0,-0.224513,0,-7.0959e-07,
0.0269766,0,0,-0.2245,0,6.88488e-07,
0.0345437,0,0,-0.224501,0,4.29437e-06,
0.0428729,0,0,-0.22449,0,1.03071e-05,
0.051981,0,0,-0.224494,0,1.90239e-05,
0.0618853,0,0,-0.224498,0,2.96502e-05,
0.0726036,0,0,-0.224521,0,4.13616e-05,
0.0841536,0,0,-0.224552,0,5.28223e-05,
0.0965535,0,0,-0.2246,0,6.32248e-05,
0.109822,0,0,-0.224657,0,7.19637e-05,
0.123977,0,0,-0.224727,0,7.90022e-05,
0.139037,0,0,-0.224805,0,8.44025e-05,
0.155022,0,0,-0.224894,0,8.83148e-05,
0.171949,0,0,-0.224994,0,9.07075e-05,
0.189839,0,0,-0.225105,0,9.144e-05,
0.208709,0,0,-0.22523,0,9.02583e-05,
0.228579,0,0,-0.225367,0,8.69044e-05,
0.249467,0,0,-0.225518,0,8.11691e-05,
0.271391,0,0,-0.225682,0,7.29572e-05,
0.29437,0,0,-0.225859,0,6.23031e-05,
0.31842,0,0,-0.226047,0,4.93638e-05,
0.343559,0,0,-0.226246,0,3.43847e-05,
0.369804,0,0,-0.226455,0,1.76662e-05,
0.39717,0,0,-0.226671,0,-4.69429e-07,
0.425672,0,0,-0.226895,0,-1.97091e-05,
0.455324,0,0,-0.227125,0,-3.9777e-05,
0.48614,0,0,-0.227361,0,-6.04527e-05,
0.518132,0,0,-0.227601,0,-8.15761e-05,
0.551309,0,0,-0.227847,0,-0.000103039,
0.585683,0,0,-0.228097,0,-0.000124765,
0.621259,0,0,-0.228351,0,-0.00014668,
0.658046,0,0,-0.22861,0,-0.000168682,
0.696047,0,0,-0.228873,0,-0.000190601,
0.735265,0,0,-0.22914,0,-0.000212167,
0.7757,0,0,-0.22941,0,-0.000232981,
0.817352,0,0,-0.229683,0,-0.000252511,
0.860215,0,0,-0.229959,0,-0.000270122,
0.904285,0,0,-0.230239,0,-0.000285157,
0.949552,0,0,-0.230523,0,-0.000297054,
0.996004,0,0,-0.230815,0,-0.000305492,
1.04363,0,0,-0.231121,0,-0.000310491,
1.09241,0,0,-0.231447,0,-0.000312441,
1.14232,0,0,-0.231803,0,-0.000312032,
1.19335,0,0,-0.232203,0,-0.000310116,
1.24546,0,0,-0.232661,0,-0.000307582,
1.29863,0,0,-0.233196,0,-0.000305285,
1.35283,0,0,-0.233826,0,-0.000304039,
1.40802,0,0,-0.234572,0,-0.000304643,
1.46416,0,0,-0.235453,0,-0.000307905,
1.52121,0,0,-0.236485,0,-0.00031466,
1.57913,0,0,-0.237685,0,-0.000325758,
1.63787,0,0,-0.239064,0,-0.000342059,
1.69739,0,0,-0.240633,0,-0.000364415,
1.75761,0,0,-0.242397,0,-0.000393689,
1.81851,0,0,-0.244362,0,-0.000430784,
1.88,0,0,-0.246522,0,-0.000476649,
1.94204,0,0,-0.24887,0,-0.000532269,
2.00457,0,0,-0.251385,0,-0.000598639,
2.06751,0,0,-0.254036,0,-0.000676708,
2.13081,0,0,-0.256774,0,-0.000767287,
2.19439,0,0,-0.259531,0,-0.000870918,
2.25819,0,0,-0.262214,0,-0.000987674,
2.32214,0,0,-0.264705,0,-0.0011169,
2.38617,0,0,-0.26686,0,-0.00125688,
2.4502,0,0,-0.268513,0,-0.00140448,
2.51418,0,0,-0.269493,0,-0.00155496,
2.57803,0,0,-0.269648,0,-0.00170232,
2.64167,0,0,-0.268876,0,-0.00184012,
2.70505,0,0,-0.267139,0,-0.00196272,
2.76808,0,0,-0.264463,0,-0.00206607,
2.83072,0,0,-0.260933,0,-0.00214811,
2.89288,0,0,-0.25667,0,-0.00220868,
2.95451,0,0,-0.251818,0,-0.00224922,
3.01555,0,0,-0.246516,0,-0.0022722,
3.07594,0,0,-0.240893,0,-0.00228054,
3.13561,0,0,-0.235058,0,-0.00227708,
3.19453,0,0,-0.229099,0,-0.0022643,
3.25262,0,0,-0.223087,0,-0.0022442,
3.30985,0,0,-0.217075,0,-0.00221837,
3.36617,0,0,-0.211108,0,-0.0021881,
3.42154,0,0,-0.205218,0,-0.00215438,
3.47591,0,0,-0.199431,0,-0.00211797,
3.52925,0,0,-0.193768,0,-0.00207955,
3.58152,0,0,-0.188244,0,-0.00203964,
3.6327,0,0,-0.182872,0,-0.00199869,
3.68276,0,0,-0.17766,0,-0.00195709,
3.73167,0,0,-0.172615,0,-0.00191517,
3.77941,0,0,-0.16774,0,-0.0018732,
3.82596,0,0,-0.163039,0,-0.00183142,
3.8713,0,0,-0.158511,0,-0.00178997,
3.91543,0,0,-0.154153,0,-0.00174887,
3.95833,0,0,-0.149989,0,-0.00170866,
4,0,0,-0.145966,0,-0.00166896,
4.04167,0,0,-0.142004,0,-0.00162888,
4.08333,0,0,-0.138098,0,-0.00158859,
4.125,0,0,-0.134245,0,-0.00154812,
4.16667,0,0,-0.130446,0,-0.00150746,
4.20833,0,0,-0.126701,0,-0.00146665,
4.25,0,0,-0.123012,0,-0.00142572,
4.29167,0,0,-0.119379,0,-0.00138471,
4.33333,0,0,-0.115802,0,-0.00134367,
4.375,0,0,-0.112281,0,-0.00130264,
4.41667,0,0,-0.108816,0,-0.00126165,
4.45833,0,0,-0.105407,0,-0.00122071,
4.5,0,0,-0.102054,0,-0.00117985,
4.54167,0,0,-0.0987564,0,-0.00113907,
4.58333,0,0,-0.095514,0,-0.00109842,
4.625,0,0,-0.0923264,0,-0.00105789,
4.66667,0,0,-0.0891933,0,-0.00101749,
4.70833,0,0,-0.0861141,0,-0.000977236,
4.75,0,0,-0.0830887,0,-0.000937135,
4.79167,0,0,-0.0801165,0,-0.000897196,
4.83333,0,0,-0.077197,0,-0.00085743,
4.875,0,0,-0.0743297,0,-0.000817841,
4.91667,0,0,-0.0715142,0,-0.000778435,
4.95833,0,0,-0.0687499,0,-0.000739214,
5,0,0,-0.0660364,0,-0.000700183,
5.04167,0,0,-0.0633732,0,-0.000661348,
5.08333,0,0,-0.0607598,0,-0.000622711,
5.125,0,0,-0.0581956,0,-0.000584274,
5.16667,0,0,-0.0556802,0,-0.000546042,
5.20833,0,0,-0.0532131,0,-0.000508019,
5.25,0,0,-0.0507938,0,-0.000470209,
5.29167,0,0,-0.0484218,0,-0.000432616,
5.33333,0,0,-0.0460964,0,-0.000395242,
5.375,0,0,-0.0438173,0,-0.000358087,
5.41667,0,0,-0.041584,0,-0.000321155,
5.45833,0,0,-0.0393958,0,-0.000284445,
5.5,0,0,-0.0372522,0,-0.00024796,
5.54167,0,0,-0.0351529,0,-0.000211696,
5.58333,0,0,-0.0330972,0,-0.000175653,
5.625,0,0,-0.0310847,0,-0.000139832,
5.66667,0,0,-0.029115,0,-0.000104235,
5.70833,0,0,-0.0271877,0,-6.88644e-05,
5.75,0,0,-0.0253021,0,-3.37214e-05,
5.79167,0,0,-0.023458,0,1.19057e-06,
5.83333,0,0,-0.0216549,0,3.58677e-05,
5.875,0,0,-0.0198924,0,7.03066e-05,
5.91667,0,0,-0.0181699,0,0.000104505,
5.95833,0,0,-0.0164871,0,0.000138459,
6,0,0,-0.0148436,0,0.000172166,
6.04167,0,0,-0.0132388,0,0.000205622,
6.08333,0,0,-0.0116724,0,0.000238821,
6.125,0,0,-0.010144,0,0.000271759,
6.16667,0,0,-0.00865294,0,0.000304433,
6.20833,0,0,-0.00719892,0,0.000336839,
6.25,0,0,-0.00578145,0,0.000368972,
6.29167,0,0,-0.00440008,0,0.000400829,
6.33333,0,0,-0.00305437,0,0.000432405,
6.375,0,0,-0.00174383,0,0.000463694,
6.41667,0,0,-0.000467989,0,0.000494694,
6.45833,0,0,0.000773618,0,0.000525401,
6.5,0,0,0.00198147,0,0.00055581,
6.54167,0,0,0.00315603,0,0.000585918,
6.58333,0,0,0.00429777,0,0.000615722,
6.625,0,0,0.00540717,0,0.000645218,
6.66667,0,0,0.00648472,0,0.000674404,
6.70833,0,0,0.00753087,0,0.000703279,
6.75,0,0,0.00854612,0,0.000731838,
6.79167,0,0,0.00953092,0,0.00076008,
6.83333,0,0,0.0104857,0,0.000788002,
6.875,0,0,0.0114111,0,0.000815599,
6.91667,0,0,0.0123074,0,0.000842869,
6.95833,0,0,0.0131752,0,0.00086981,
7,0,0,0.0140149,0,0.000896418,
7.04167,0,0,0.0148271,0,0.000922693,
7.08333,0,0,0.0156123,0,0.00094863,
7.125,0,0,0.0163708,0,0.000974228,
7.16667,0,0,0.0171033,0,0.000999486,
7.20833,0,0,0.0178102,0,0.0010244,
7.25,0,0,0.018492,0,0.00104898,
7.29167,0,0,0.0191491,0,0.00107321,
7.33333,0,0,0.0197822,0,0.00109711,
7.375,0,0,0.0203918,0,0.00112068,
7.41667,0,0,0.0209783,0,0.00114392,
7.45833,0,0,0.0215422,0,0.00116684,
7.5,0,0,0.0220839,0,0.00118943,
7.54167,0,0,0.0226039,0,0.00121169,
7.58333,0,0,0.0231026,0,0.00123361,
7.625,0,0,0.0235805,0,0.00125521,
7.66667,0,0,0.0240379,0,0.00127648,
7.70833,0,0,0.0244753,0,0.00129742,
7.75,0,0,0.0248929,0,0.00131804,
7.79167,0,0,0.0252915,0,0.00133833,
7.83333,0,0,0.0256703,0,0.00135827,
7.875,0,0,0.026031,0,0.00137791,
7.91667,0,0,0.0263806,0,0.0013978,
7.95833,0,0,0.026658,0,0.00141669,
8,0,0,0.0270212,0,0.00143591,
8.04171,0,0,0.027409,0,0.00145574,
8.08368,0,0,0.0276637,0,0.00147538,
8.12617,0,0,0.0279526,0,0.00149323,
8.16946,0,0,0.0282286,0,0.00151105,
8.21382,0,0,0.0284877,0,0.00152888,
8.25952,0,0,0.0287384,0,0.00154676,
8.30685,0,0,0.0289807,0,0.00156486,
8.35611,0,0,0.0292146,0,0.00158329,
8.40762,0,0,0.0294404,0,0.00160213,
8.46168,0,0,0.0296577,0,0.00162146,
8.51865,0,0,0.0298654,0,0.00164134,
8.57889,0,0,0.0300625,0,0.00166181,
8.64276,0,0,0.0302472,0,0.00168293,
8.71067,0,0,0.0304176,0,0.00170472,
8.78306,0,0,0.0305713,0,0.00172719,
8.86037,0,0,0.0307057,0,0.00175036,
8.94309,0,0,0.0308173,0,0.00177422,
9.03174,0,0,0.0309027,0,0.00179875,
9.12689,0,0,0.0309576,0,0.00182393,
9.22912,0,0,0.0309772,0,0.0018497,
9.33908,0,0,0.030957,0,0.00187601,
9.45746,0,0,0.0308919,0,0.00190276,
9.58501,0,0,0.0307774,0,0.00192989,
9.72253,0,0,0.0306075,0,0.00195729,
9.87088,0,0,0.0303753,0,0.00198482,
10.031,0,0,0.0300778,0,0.00201231,
10.2039,0,0,0.0297105,0,0.00203962,
10.3906,0,0,0.0292672,0,0.00206654,
10.5924,0,0,0.028748,0,0.00209292,
10.8105,0,0,0.0281498,0,0.00211858,
11.0463,0,0,0.0274713,0,0.00214334,
11.3012,0,0,0.0267139,0,0.00216702,
11.5769,0,0,0.0258815,0,0.00218947,
11.8751,0,0,0.0249786,0,0.00221055,
12.1977,0,0,0.0240121,0,0.00223016,
12.5466,0,0,0.0229916,0,0.00224823,
12.9242,0,0,0.021926,0,0.00226472,
13.3327,0,0,0.0208285,0,0.00227961,
13.7748,0,0,0.0197133,0,0.00229292,
14.2532,0,0,0.0185931,0,0.00230472,
14.7709,0,0,0.0174823,0,0.00231505,
15.3312,0,0,0.0163963,0,0.00232403,
15.9377,0,0,0.0153491,0,0.00233178,
16.594,0,0,0.0143521,0,0.00233845,
17.3044,0,0,0.0134143,0,0.0023442,
18.0733,0,0,0.0125427,0,0.00234919,
18.9056,0,0,0.0117418,0,0.0023535,
19.8064,0,0,0.011012,0,0.00235705,
20.7816,0,0,0.010351,0,0.00235987,
21.8371,0,0,0.00975317,0,0.00236231,
22.9796,0,0,0.00920789,0,0.00236473,
24.2163,0,0,0.00870214,0,0.00236738,
25.5551,0,0,0.00822172,0,0.00237047,
27.0042,0,0,0.00774775,0,0.00237409,
28.5729,0,0,0.00726198,0,0.00237826,
30.271,0,0,0.00674821,0,0.00238287,
32.1091,0,0,0.00619,0,0.00238797,
34.0989,0,0,0.00557422,0,0.0023937,
36.2529,0,0,0.00488267,0,0.00240009,
38.5845,0,0,0.00410199,0,0.00240693,
41.1085,0,0,0.00327071,0,0.00241405,
43.8407,0,0,0.0022269,0,0.00241897,
46.7983,0,0,0.00115022,0,0.00241926,
50,0,0,0.00227103,0,0.00243188,

