184a19a483d20d30cf2ba5e7531434b7dbf93ea7 
X,Z,x_velocity,cp,uw_b,cf,
1,0,0,-0.236941,0,0,
1,9,0,-0.119351,0,0,
1,8.99969,0.0174557,-0.119351,5.70517e-10,0,
1,8.99934,0.0372582,-0.119351,2.66631e-08,0,
1,8.99894,0.0597421,-0.119351,3.67502e-07,0,
1,8.99848,0.0852531,-0.119351,2.6854e-06,0,
1,8.99797,0.114097,-0.119351,1.32885e-05,0,
1,8.99739,0.146319,-0.119351,4.90995e-05,0,
1,8.99672,0.18124,-0.119351,0.000139101,0,
1,8.99597,0.217023,-0.119351,0.000304064,0,
1,8.99512,0.251031,-0.11935,0.000534056,0,
1,8.99416,0.28166,-0.11935,0.000749202,0,
1,8.99306,0.309029,-0.11935,0.000903528,0,
1,8.99182,0.333629,-0.119349,0.00102888,0,
1,8.99041,0.355826,-0.119349,0.00112745,0,
1,8.98881,0.376025,-0.119348,0.00120407,0,
1,8.98699,0.394622,-0.119347,0.00126404,0,
1,8.98494,0.411999,-0.119346,0.00131201,0,
1,8.98261,0.428547,-0.119345,0.00134404,0,
1,8.97996,0.444563,-0.119344,0.00136956,0,
1,8.97696,0.460175,-0.119343,0.00139435,0,
1,8.97356,0.475437,-0.119342,0.00141616,0,
1,8.9697,0.490398,-0.11934,0.00143541,0,
1,8.96533,0.5051,-0.119338,0.00145247,0,
1,8.96038,0.519582,-0.119336,0.00146762,0,
1,8.95476,0.533877,-0.119333,0.00148107,0,
1,8.9484,0.548016,-0.11933,0.00149294,0,
1,8.9412,0.562026,-0.119327,0.00150334,0,
1,8.93303,0.575931,-0.119324,0.00151228,0,
1,8.92379,0.589752,-0.11932,0.00151976,0,
1,8.91333,0.603505,-0.119316,0.00152573,0,
1,8.90149,0.617206,-0.119312,0.00153013,0,
1,8.8881,0.630866,-0.119308,0.00153283,0,
1,8.87295,0.644495,-0.119303,0.00153373,0,
1,8.85584,0.658098,-0.119299,0.00153265,0,
1,8.83651,0.671678,-0.119296,0.00152942,0,
1,8.81469,0.685236,-0.119293,0.00152382,0,
1,8.79007,0.69877,-0.119291,0.0015156,0,
1,8.76232,0.712274,-0.119291,0.00150445,0,
1,8.73107,0.725737,-0.119294,0.00149008,0,
1,8.69591,0.73915,-0.1193,0.00147295,0,
1,8.6564,0.752512,-0.119312,0.00145005,0,
1,8.61206,0.765826,-0.119331,0.00142355,0,
1,8.56236,0.779085,-0.119358,0.00139396,0,
1,8.50675,0.792294,-0.119398,0.00136119,0,
1,8.44464,0.805499,-0.119452,0.00132479,0,
1,8.3754,0.818815,-0.119528,0.00128355,0,
1,8.29839,0.832453,-0.11963,0.00123503,0,
1,8.21296,0.846744,-0.119767,0.00117461,0,
1,8.11843,0.862117,-0.119945,0.00109666,0,
1,8.01417,0.879028,-0.120174,0.000995697,0,
1,7.89956,0.897796,-0.120461,0.00086502,0,
1,7.77403,0.918338,-0.120822,0.000701139,0,
1,7.63711,0.939788,-0.121257,0.000516455,0,
1,7.48842,0.960325,-0.121816,0.000337904,0,
1,7.32773,0.977634,-0.122463,0.000159053,0,
1,7.15495,0.989412,-0.123225,4.8689e-05,0,
1,6.97022,0.994967,-0.124133,7.63809e-06,0,
1,6.77388,0.996135,-0.125176,4.10013e-07,0,
1,6.56652,0.995693,-0.126374,1.96143e-08,0,
1,6.34896,0.995446,-0.127747,1.56027e-08,0,
1,6.12229,0.995844,-0.129311,1.52237e-08,0,
1,5.88784,0.996653,-0.131082,1.68146e-08,0,
1,5.64716,0.997606,-0.133075,1.81056e-08,0,
1,5.40194,0.998611,-0.135307,1.94243e-08,0,
1,5.15407,0.999689,-0.137789,2.12364e-08,0,
1,4.90545,1.00088,-0.140531,2.35106e-08,0,
1,4.65805,1.00219,-0.143536,2.59619e-08,0,
1,4.41376,1.00361,-0.146805,2.82396e-08,0,
1,4.17441,1.00506,-0.150328,3.03695e-08,0,
1,3.94163,1.00654,-0.15409,3.36096e-08,0,
1,3.7169,1.00819,-0.158068,4.07689e-08,0,
1,3.50146,1.01043,-0.162236,5.36652e-08,0,
1,3.29629,1.01351,-0.166571,6.80065e-08,0,
1,3.10217,1.01681,-0.17104,2.94562e-07,0,
1,2.91959,1.01831,-0.175584,1.36297e-06,0,
1,2.74885,1.01547,-0.180119,-1.48363e-05,0,
1,2.59002,1.00713,-0.184543,-7.46806e-05,0,
1,2.44299,0.994169,-0.188763,-0.000177224,0,
1,2.30752,0.978486,-0.192712,-0.00030045,0,
1,2.18321,0.961909,-0.196354,-0.000419796,0,
1,2.06959,0.945703,-0.19968,-0.000520282,0,
1,1.9661,0.930561,-0.202691,-0.000597942,0,
1,1.87215,0.916752,-0.205397,-0.000655705,0,
1,1.78711,0.904263,-0.207811,-0.000699996,0,
1,1.71033,0.892887,-0.209948,-0.000738815,0,
1,1.64119,0.882318,-0.211831,-0.000772411,0,
1,1.57905,0.872262,-0.21348,-0.000803869,0,
1,1.52332,0.862523,-0.214916,-0.000835433,0,
1,1.47342,0.853008,-0.21616,-0.000866847,0,
1,1.42882,0.843682,-0.217235,-0.000896581,0,
1,1.389,0.834545,-0.218161,-0.000923935,0,
1,1.35351,0.825609,-0.218956,-0.000948659,0,
1,1.3219,0.816896,-0.219639,-0.000970716,0,
1,1.29378,0.80843,-0.220225,-0.000990137,0,
1,1.26878,0.800236,-0.220728,-0.00100692,0,
1,1.24659,0.792335,-0.221159,-0.00102141,0,
1,1.22689,0.784743,-0.221529,-0.0010338,0,
1,1.2092,0.777381,-0.22185,-0.00104389,0,
1,1.1932,0.770191,-0.22213,-0.00105468,0,
1,1.1787,0.763122,-0.222372,-0.00107192,0,
1,1.16554,0.756069,-0.222584,-0.00110618,0,
1,1.15357,0.748846,-0.222769,-0.00117418,0,
1,1.14266,0.741154,-0.222936,-0.00130019,0,
1,1.13268,0.732584,-0.223095,-0.00151369,0,
1,1.12354,0.722682,-0.223258,-0.00184345,0,
1,1.11514,0.71112,-0.223435,-0.00230743,0,
1,1.10739,0.697883,-0.223632,-0.00290109,0,
1,1.10022,0.683326,-0.223848,-0.00359282,0,
1,1.09357,0.66801,-0.224081,-0.0043344,0,
1,1.08738,0.652498,-0.224324,-0.00507907,0,
1,1.0816,0.637224,-0.224574,-0.00579312,0,
1,1.07618,0.622468,-0.224828,-0.00645731,0,
1,1.07107,0.608386,-0.225083,-0.00706357,0,
1,1.06626,0.595047,-0.225337,-0.00761049,0,
1,1.06169,0.582461,-0.225589,-0.00810051,0,
1,1.05735,0.570609,-0.225837,-0.00853784,0,
1,1.05321,0.55945,-0.226083,-0.00892735,0,
1,1.04925,0.548939,-0.226324,-0.00927665,0,
1,1.04544,0.539019,-0.226561,-0.0095868,0,
1,1.04177,0.529628,-0.226792,-0.00986101,0,
1,1.03822,0.520705,-0.227017,-0.0101061,0,
1,1.03478,0.512197,-0.227238,-0.0103257,0,
1,1.03144,0.504061,-0.227454,-0.0105227,0,
1,1.02818,0.496254,-0.227666,-0.0106997,0,
1,1.025,0.488743,-0.227874,-0.0108587,0,
1,1.02188,0.481497,-0.22808,-0.0110016,0,
1,1.01882,0.474487,-0.228283,-0.01113,0,
1,1.01581,0.467692,-0.228484,-0.0112451,0,
1,1.01284,0.461089,-0.228682,-0.0113472,0,
1,1.00988,0.454589,-0.228881,-0.0114388,0,
1,1.00688,0.448109,-0.229084,-0.0115225,0,
1,1.00384,0.441636,-0.229289,-0.0115974,0,
1,1.00076,0.435157,-0.229499,-0.0116638,0,
1,0.997615,0.428661,-0.229712,-0.0117214,0,
1,0.99441,0.422132,-0.229931,-0.0117703,0,
1,0.991131,0.415556,-0.230155,-0.0118104,0,
1,0.987768,0.408918,-0.230386,-0.0118414,0,
1,0.984308,0.402202,-0.230623,-0.011863,0,
1,0.980739,0.395388,-0.230867,-0.0118747,0,
1,0.977045,0.38846,-0.23112,-0.011876,0,
1,0.973211,0.381398,-0.231382,-0.0118662,0,
1,0.969219,0.37418,-0.231654,-0.0118444,0,
1,0.965047,0.366786,-0.231936,-0.0118097,0,
1,0.960675,0.35919,-0.232234,-0.0117606,0,
1,0.956077,0.35137,-0.232542,-0.0116954,0,
1,0.951224,0.3433,-0.232857,-0.0116176,0,
1,0.946088,0.334942,-0.233119,-0.0115193,0,
1,0.940633,0.326229,-0.233225,-0.0114497,0,
1,0.934823,0.316946,-0.233077,-0.0112001,0,
1,0.928616,0.306798,-0.232761,-0.0109506,0,
1,0.921967,0.295568,-0.232487,-0.0106941,0,
1,0.914826,0.283093,-0.232331,-0.0104231,0,
1,0.907141,0.269282,-0.232304,-0.01013,0,
1,0.898852,0.254133,-0.232386,-0.00980688,0,
1,0.889898,0.237736,-0.232555,-0.00944603,0,
1,0.880212,0.220265,-0.232793,-0.00904691,0,
1,0.869723,0.201957,-0.233083,-0.00860398,0,
1,0.858358,0.183082,-0.233413,-0.00811793,0,
1,0.846039,0.16393,-0.233777,-0.00759578,0,
1,0.83269,0.144815,-0.23418,-0.0070505,0,
1,0.818232,0.126075,-0.234625,-0.00650114,0,
1,0.802744,0.108232,-0.235109,-0.00597536,0,
1,0.78635,0.091739,-0.23563,-0.00549934,0,
1,0.768969,0.0766666,-0.236149,-0.00508749,0,
1,0.75053,0.0629047,-0.236617,-0.0047473,0,
1,0.730977,0.0501863,-0.23699,-0.00447356,0,
1,0.710271,0.038193,-0.237357,-0.00424814,0,
1,0.688397,0.0266868,-0.237731,-0.00405529,0,
1,0.66536,0.0155804,-0.238033,-0.00389117,0,
1,0.641194,0.00488796,-0.238231,-0.00375468,0,
1,0.615961,-0.00532427,-0.2383,-0.00364483,0,
1,0.589754,-0.0149657,-0.238223,-0.00355902,0,
1,0.562692,-0.0239433,-0.237976,-0.00349201,0,
1,0.534925,-0.0321876,-0.237514,-0.00343587,0,
1,0.506624,-0.0396889,-0.236782,-0.0033764,0,
1,0.477982,-0.0465255,-0.235788,-0.00329276,0,
1,0.449206,-0.0528375,-0.234611,-0.00316828,0,
1,0.420509,-0.0587311,-0.233389,-0.00300857,0,
1,0.392107,-0.0641241,-0.232194,-0.00284811,0,
1,0.364206,-0.0686931,-0.230984,-0.00273519,0,
1,0.337003,-0.0722128,-0.229915,-0.00269839,0,
1,0.310673,-0.074977,-0.229318,-0.00256393,0,
1,0.28537,-0.0774817,-0.229341,-0.00243547,0,
1,0.26122,-0.079903,-0.229679,-0.00237339,0,
1,0.238324,-0.0822827,-0.230041,-0.00229967,0,
1,0.21675,-0.084656,-0.230339,-0.00218193,0,
1,0.196544,-0.0869934,-0.230664,-0.0020001,0,
1,0.177724,-0.0892286,-0.231125,-0.00177493,0,
1,0.160284,-0.0913314,-0.23171,-0.00154969,0,
1,0.144202,-0.0933136,-0.232309,-0.00134945,0,
1,0.129436,-0.0951859,-0.2329,-0.00117065,0,
1,0.115935,-0.0969516,-0.233461,-0.00100907,0,
1,0.103636,-0.09861,-0.233973,-0.000862285,0,
1,0.0924701,-0.100156,-0.234433,-0.000728109,0,
1,0.0823633,-0.101582,-0.234839,-0.000605257,0,
1,0.0732406,-0.102876,-0.235193,-0.000492839,0,
1,0.0650269,-0.104028,-0.235498,-0.000390267,0,
1,0.057648,-0.105024,-0.235759,-0.00029709,0,
1,0.0510323,-0.105849,-0.235981,-0.000212925,0,
1,0.0451115,-0.106488,-0.236168,-0.000137409,0,
1,0.0398209,-0.106922,-0.236324,-7.01913e-05,0,
1,0.0351001,-0.10713,-0.236455,-1.09335e-05,0,
1,0.0308929,-0.107087,-0.236563,4.06737e-05,0,
1,0.0271475,-0.106758,-0.236652,8.48746e-05,0,
1,0.0238164,-0.1061,-0.236724,0.000121804,0,
1,0.0208562,-0.105052,-0.236781,0.000151407,0,
1,0.0182274,-0.103534,-0.236827,0.000173339,0,
1,0.0158944,-0.101429,-0.236862,0.000186818,0,
1,0.0138249,-0.0985798,-0.236889,0.000190471,0,
1,0.0119898,-0.0947828,-0.236907,0.000182412,0,
1,0.0103632,-0.0898041,-0.236921,0.000161072,0,
1,0.00892169,-0.0834598,-0.236929,0.000127432,0,
1,0.00764438,-0.0757682,-0.236934,8.75335e-05,0,
1,0.00651264,-0.0670896,-0.236936,5.116e-05,0,
1,0.00550983,-0.0580526,-0.236937,2.54831e-05,0,
1,0.00462115,-0.0492674,-0.236938,1.10221e-05,0,
1,0.00383341,-0.0411098,-0.236938,4.22128e-06,0,
1,0.0031349,-0.0337203,-0.236938,1.44073e-06,0,
1,0.00251518,-0.0271022,-0.236939,4.32609e-07,0,
1,0.00196502,-0.0212001,-0.236939,1.10241e-07,0,
1,0.00147619,-0.0159425,-0.236939,2.22487e-08,0,
1,0.00104139,-0.0112572,-0.236939,3.12439e-09,0,
1,0.000654158,-0.00707785,-0.23694,2.34715e-10,0,
1,0.000308731,-0.0033441,-0.236939,5.17285e-12,0,

4,0,0,-0.0984766,0,0,
4,9,0,-0.0876442,0,0,
4,8.99969,0.0161542,-0.0876437,4.45418e-10,0,
4,8.99934,0.0344146,-0.0876441,2.06599e-08,0,
4,8.99894,0.0550755,-0.0876437,2.81882e-07,0,
4,8.9985,0.0784417,-0.087644,2.04021e-06,0,
4,8.99799,0.104795,-0.0876436,1.00412e-05,0,
4,8.99742,0.13423,-0.0876438,3.72532e-05,0,
4,8.99677,0.166294,-0.0876435,0.000107552,0,
4,8.99605,0.199565,-0.0876436,0.000243025,0,
4,8.99522,0.231765,-0.0876432,0.00044183,0,
4,8.99429,0.261072,-0.0876432,0.000651954,0,
4,8.99324,0.287346,-0.0876428,0.000803086,0,
4,8.99205,0.311029,-0.0876425,0.00092645,0,
4,8.9907,0.332433,-0.0876419,0.00102577,0,
4,8.98919,0.351896,-0.0876414,0.00110461,0,
4,8.98747,0.369774,-0.0876405,0.00116749,0,
4,8.98553,0.386428,-0.0876396,0.0012187,0,
4,8.98334,0.402253,-0.0876385,0.00125284,0,
4,8.98087,0.41754,-0.0876375,0.00128197,0,
4,8.97807,0.432413,-0.0876361,0.00131009,0,
4,8.97491,0.446931,-0.0876345,0.0013355,0,
4,8.97134,0.461149,-0.0876326,0.00135866,0,
4,8.96731,0.475112,-0.0876303,0.00137996,0,
4,8.96276,0.488865,-0.0876276,0.00139968,0,
4,8.95762,0.502445,-0.0876245,0.00141805,0,
4,8.95182,0.515886,-0.0876209,0.0014352,0,
4,8.94526,0.529222,-0.0876168,0.00145121,0,
4,8.93787,0.542478,-0.0876121,0.00146612,0,
4,8.92952,0.555681,-0.0876067,0.00147988,0,
4,8.92011,0.568852,-0.0876006,0.00149243,0,
4,8.90949,0.582009,-0.0875938,0.00150363,0,
4,8.89751,0.595168,-0.0875862,0.00151332,0,
4,8.88402,0.60834,-0.0875778,0.00152128,0,
4,8.86881,0.621532,-0.0875686,0.00152727,0,
4,8.85169,0.63475,-0.0875585,0.00153103,0,
4,8.83242,0.647992,-0.0875477,0.00153226,0,
4,8.81074,0.661254,-0.087536,0.00153065,0,
4,8.78637,0.674529,-0.0875239,0.00152588,0,
4,8.75901,0.687803,-0.087511,0.0015177,0,
4,8.7283,0.701063,-0.0874983,0.00150718,0,
4,8.69387,0.714315,-0.0874862,0.00149037,0,
4,8.65533,0.727571,-0.0874749,0.0014689,0,
4,8.61222,0.740819,-0.0874651,0.00144401,0,
4,8.56407,0.754027,-0.0874574,0.00141566,0,
4,8.5104,0.767171,-0.0874527,0.00138378,0,
4,8.45065,0.780259,-0.0874531,0.00134815,0,
4,8.38429,0.79335,-0.0874612,0.00130807,0,
4,8.31073,0.806589,-0.0874812,0.00126199,0,
4,8.22941,0.820223,-0.0875174,0.00120691,0,
4,8.13974,0.834612,-0.0875745,0.00113838,0,
4,8.04115,0.8502,-0.0876545,0.00105189,0,
4,7.93313,0.867437,-0.0877601,0.000941932,0,
4,7.81519,0.886588,-0.0878883,0.000803648,0,
4,7.68693,0.907388,-0.0880428,0.000638963,0,
4,7.54803,0.928618,-0.0882168,0.000468288,0,
4,7.39831,0.948105,-0.0884206,0.000311173,0,
4,7.23771,0.963537,-0.0886599,0.000186744,0,
4,7.06634,0.973614,-0.0889431,7.24859e-05,0,
4,6.88453,0.978485,-0.0892804,1.73649e-05,0,
4,6.69275,0.979709,-0.0896587,1.53707e-06,0,
4,6.49173,0.979351,-0.0900759,-2.82163e-07,0,
4,6.28238,0.978844,-0.0905336,-5.46325e-08,0,
4,6.06579,0.978694,-0.0910392,2.65055e-08,0,
4,5.84328,0.978849,-0.0915973,2.02956e-08,0,
4,5.61626,0.979128,-0.0922107,1.10838e-08,0,
4,5.3863,0.979422,-0.0928805,7.56831e-09,0,
4,5.15502,0.979712,-0.093606,6.7695e-09,0,
4,4.92406,0.980017,-0.0943854,6.98565e-09,0,
4,4.69507,0.980348,-0.0952154,7.35974e-09,0,
4,4.46961,0.980676,-0.0960907,7.23237e-09,0,
4,4.24915,0.980929,-0.0970044,6.38166e-09,0,
4,4.03501,0.981053,-0.0979479,5.6945e-09,0,
4,3.82836,0.981134,-0.098911,7.78779e-09,0,
4,3.63018,0.981476,-0.0998826,1.93581e-08,0,
4,3.44125,0.982484,-0.10085,1.8444e-07,0,
4,3.26217,0.984249,-0.101798,1.41226e-06,0,
4,3.09333,0.98616,-0.102712,3.37445e-06,0,
4,2.93497,0.987016,-0.103583,-1.1e-07,0,
4,2.78715,0.98561,-0.104401,-1.66629e-05,0,
4,2.64979,0.981265,-0.105153,-4.96033e-05,0,
4,2.52268,0.974,-0.105825,-9.73717e-05,0,
4,2.40551,0.964369,-0.106412,-0.000155184,0,
4,2.29789,0.95317,-0.106909,-0.00021716,0,
4,2.19939,0.941203,-0.10732,-0.000278054,0,
4,2.10949,0.929121,-0.107652,-0.000334148,0,
4,2.02768,0.917393,-0.107911,-0.000383402,0,
4,1.95343,0.906309,-0.108108,-0.000425176,0,
4,1.88618,0.89602,-0.108251,-0.000459798,0,
4,1.82542,0.88658,-0.108349,-0.000488188,0,
4,1.77062,0.87798,-0.108411,-0.000511519,0,
4,1.72128,0.870173,-0.108444,-0.000530946,0,
4,1.67693,0.863103,-0.108455,-0.000547522,0,
4,1.63713,0.856706,-0.108448,-0.000561798,0,
4,1.60144,0.850922,-0.108428,-0.000573906,0,
4,1.56949,0.845693,-0.1084,-0.000583891,0,
4,1.54091,0.840969,-0.108366,-0.000592741,0,
4,1.51537,0.836688,-0.10833,-0.000599922,0,
4,1.49167,0.832668,-0.108289,-0.000605016,0,
4,1.46926,0.828817,-0.108246,-0.000609174,0,
4,1.44801,0.825111,-0.108199,-0.000612557,0,
4,1.42781,0.821534,-0.108151,-0.000615063,0,
4,1.40855,0.818068,-0.1081,-0.000616772,0,
4,1.39015,0.814699,-0.108047,-0.000617786,0,
4,1.37252,0.811414,-0.107993,-0.000618229,0,
4,1.3556,0.808199,-0.107937,-0.000618258,0,
4,1.3393,0.805043,-0.107879,-0.000618095,0,
4,1.32357,0.801933,-0.10782,-0.000617985,0,
4,1.30836,0.798857,-0.10776,-0.000618201,0,
4,1.29362,0.7958,-0.107699,-0.000619126,0,
4,1.2793,0.792746,-0.107636,-0.000621261,0,
4,1.26537,0.789678,-0.107573,-0.000625237,0,
4,1.25179,0.786572,-0.107508,-0.000631825,0,
4,1.23852,0.783405,-0.107442,-0.000642091,0,
4,1.22554,0.780144,-0.107375,-0.000657204,0,
4,1.21282,0.776754,-0.107307,-0.000678655,0,
4,1.20034,0.773189,-0.107238,-0.00070826,0,
4,1.18806,0.769395,-0.107167,-0.00074819,0,
4,1.17599,0.765309,-0.107095,-0.000800981,0,
4,1.16408,0.760859,-0.107022,-0.000869524,0,
4,1.15233,0.755963,-0.106947,-0.000956988,0,
4,1.14073,0.750536,-0.10687,-0.00106667,0,
4,1.12925,0.744493,-0.106793,-0.00120176,0,
4,1.11788,0.737759,-0.106715,-0.00136501,0,
4,1.10661,0.730275,-0.106637,-0.00155833,0,
4,1.09543,0.722011,-0.106559,-0.00178243,0,
4,1.08432,0.712965,-0.106484,-0.00203649,0,
4,1.07328,0.703168,-0.106411,-0.00231803,0,
4,1.0623,0.692681,-0.106343,-0.00262303,0,
4,1.05136,0.681589,-0.106279,-0.00294611,0,
4,1.04044,0.669975,-0.106221,-0.00328098,0,
4,1.0295,0.657928,-0.106169,-0.00362089,0,
4,1.01855,0.645563,-0.106123,-0.00395851,0,
4,1.00757,0.632997,-0.106084,-0.00428559,0,
4,0.996544,0.620346,-0.106052,-0.004594,0,
4,0.98547,0.607723,-0.106026,-0.00487554,0,
4,0.974334,0.595241,-0.106004,-0.00512809,0,
4,0.963124,0.582979,-0.105987,-0.00533779,0,
4,0.951826,0.57097,-0.10596,-0.00549927,0,
4,0.940428,0.559229,-0.105947,-0.0056257,0,
4,0.928915,0.547712,-0.105878,-0.00571875,0,
4,0.917272,0.536232,-0.105697,-0.00573173,0,
4,0.905481,0.524586,-0.105474,-0.00574886,0,
4,0.893524,0.512694,-0.105247,-0.00578258,0,
4,0.881383,0.500546,-0.105029,-0.00583246,0,
4,0.869035,0.488146,-0.104825,-0.00589409,0,
4,0.856459,0.475489,-0.104631,-0.00596424,0,
4,0.843629,0.462558,-0.104444,-0.0060424,0,
4,0.830518,0.449329,-0.104262,-0.00612925,0,
4,0.817097,0.435776,-0.104088,-0.00622534,0,
4,0.803334,0.421875,-0.103919,-0.00633096,0,
4,0.789195,0.407605,-0.103757,-0.0064472,0,
4,0.774643,0.392954,-0.1036,-0.00657521,0,
4,0.759639,0.377905,-0.103449,-0.0067146,0,
4,0.744138,0.362422,-0.103303,-0.00686466,0,
4,0.728096,0.346447,-0.103166,-0.00702569,0,
4,0.711463,0.329896,-0.10304,-0.00719925,0,
4,0.694189,0.312674,-0.10293,-0.00738761,0,
4,0.676218,0.294678,-0.102839,-0.00759242,0,
4,0.657495,0.275815,-0.102771,-0.00781485,0,
4,0.637962,0.256011,-0.102736,-0.00805525,0,
4,0.617561,0.235233,-0.102737,-0.00831269,0,
4,0.596848,0.214082,-0.102787,-0.00857693,0,
4,0.576557,0.193358,-0.102891,-0.00883317,0,
4,0.556564,0.17304,-0.103037,-0.00907568,0,
4,0.536763,0.153079,-0.103217,-0.00929807,0,
4,0.517057,0.133384,-0.103411,-0.00949347,0,
4,0.497368,0.113842,-0.103607,-0.00965417,0,
4,0.477632,0.0943964,-0.10381,-0.00977145,0,
4,0.457804,0.0751922,-0.104065,-0.00983663,0,
4,0.437857,0.0567366,-0.104488,-0.00984539,0,
4,0.417786,0.0399304,-0.105292,-0.00980547,0,
4,0.397605,0.025756,-0.106774,-0.00974027,0,
4,0.377348,0.0146837,-0.109238,-0.00968063,0,
4,0.357066,0.00632264,-0.112278,-0.00963221,0,
4,0.336828,-0.000324734,-0.114178,-0.00929043,0,
4,0.316717,-0.00615757,-0.114613,-0.00860535,0,
4,0.296825,-0.0115844,-0.114666,-0.00815299,0,
4,0.27725,-0.0166491,-0.114573,-0.00767736,0,
4,0.258095,-0.0213866,-0.114221,-0.0071808,0,
4,0.239458,-0.02583,-0.113644,-0.00667116,0,
4,0.221432,-0.0300064,-0.112887,-0.00616351,0,
4,0.2041,-0.0339363,-0.11199,-0.00566232,0,
4,0.187537,-0.037638,-0.11099,-0.00517395,0,
4,0.171798,-0.0411273,-0.109929,-0.00470372,0,
4,0.156928,-0.0444176,-0.108844,-0.00425572,0,
4,0.142956,-0.0475197,-0.10777,-0.00383288,0,
4,0.129894,-0.0504427,-0.106733,-0.00343701,0,
4,0.117744,-0.0531939,-0.105753,-0.00306902,0,
4,0.106492,-0.055779,-0.104845,-0.00272901,0,
4,0.0961173,-0.058203,-0.104015,-0.00241645,0,
4,0.0865883,-0.0604696,-0.103267,-0.00213037,0,
4,0.0778675,-0.0625824,-0.102599,-0.0018695,0,
4,0.0699123,-0.0645445,-0.102008,-0.00163235,0,
4,0.062677,-0.0663587,-0.10149,-0.00141732,0,
4,0.056114,-0.0680278,-0.101038,-0.00122278,0,
4,0.0501747,-0.0695545,-0.100645,-0.00104711,0,
4,0.0448114,-0.0709415,-0.100306,-0.000888716,0,
4,0.039977,-0.0721913,-0.100013,-0.000746104,0,
4,0.0356266,-0.0733061,-0.0997624,-0.000617845,0,
4,0.0317171,-0.0742877,-0.0995476,-0.000502613,0,
4,0.0282081,-0.0751374,-0.0993641,-0.000399182,0,
4,0.0250617,-0.0758552,-0.0992078,-0.000306432,0,
4,0.0222427,-0.0764401,-0.099075,-0.000223349,0,
4,0.0197189,-0.076889,-0.0989626,-0.000149031,0,
4,0.0174603,-0.0771964,-0.0988674,-8.26873e-05,0,
4,0.0154398,-0.077353,-0.0987877,-2.3656e-05,0,
4,0.0136326,-0.0773444,-0.0987205,2.8579e-05,0,
4,0.0120162,-0.0771485,-0.0986654,7.43443e-05,0,
4,0.0105703,-0.0767319,-0.098619,0.000113699,0,
4,0.00927657,-0.0760441,-0.0985826,0.000146287,0,
4,0.00811839,-0.0750081,-0.0985519,0.000171072,0,
4,0.0070809,-0.0735066,-0.0985301,0.000185925,0,
4,0.0061507,-0.0713647,-0.0985113,0.000187228,0,
4,0.00531578,-0.0683417,-0.098501,0.000170571,0,
4,0.00456537,-0.0641751,-0.0984911,0.000134829,0,
4,0.00388979,-0.0587344,-0.0984888,8.84976e-05,0,
4,0.00328037,-0.0522166,-0.0984838,4.72319e-05,0,
4,0.00272934,-0.0451043,-0.0984852,2.06605e-05,0,
4,0.0022297,-0.0378733,-0.0984813,7.51192e-06,0,
4,0.00177519,-0.0308121,-0.0984841,2.2508e-06,0,
4,0.00136016,-0.0240422,-0.0984797,5.27662e-07,0,
4,0.000979511,-0.0175937,-0.0984836,8.56748e-08,0,
4,0.00062865,-0.0114563,-0.0984782,7.39601e-09,0,
4,0.000303409,-0.0056034,-0.0984835,1.8209e-10,0,

6,0,0,0.00736594,0,0,
6,9,0,-0.0638429,0,0,
6,8.99969,0.01522,-0.0638425,3.53091e-10,0,
6,8.99934,0.0323799,-0.0638428,1.62912e-08,0,
6,8.99895,0.0517452,-0.0638425,2.20705e-07,0,
6,8.9985,0.0735917,-0.0638427,1.58674e-06,0,
6,8.99801,0.0981827,-0.0638425,7.77855e-06,0,
6,8.99744,0.125646,-0.0638426,2.89323e-05,0,
6,8.99681,0.155686,-0.0638424,8.46258e-05,0,
6,8.99609,0.187214,-0.0638425,0.000195789,0,
6,8.99529,0.218332,-0.0638422,0.000363791,0,
6,8.99438,0.247135,-0.0638422,0.000560913,0,
6,8.99336,0.273015,-0.0638418,0.000719777,0,
6,8.9922,0.296297,-0.0638416,0.000841679,0,
6,8.9909,0.317336,-0.0638411,0.00094133,0,
6,8.98944,0.336437,-0.0638407,0.00102133,0,
6,8.98779,0.353931,-0.06384,0.00108563,0,
6,8.98593,0.370158,-0.0638394,0.00113825,0,
6,8.98383,0.385501,-0.0638385,0.00117498,0,
6,8.98147,0.400266,-0.0638376,0.00120451,0,
6,8.97881,0.414592,-0.0638365,0.0012336,0,
6,8.97581,0.428543,-0.0638352,0.00126013,0,
6,8.97244,0.442172,-0.0638336,0.00128458,0,
6,8.96863,0.455531,-0.0638317,0.00130737,0,
6,8.96435,0.468663,-0.0638295,0.00132887,0,
6,8.95953,0.481611,-0.0638269,0.00134933,0,
6,8.95409,0.494414,-0.0638238,0.00136892,0,
6,8.94798,0.507105,-0.0638202,0.00138776,0,
6,8.94109,0.519719,-0.0638159,0.0014059,0,
6,8.93334,0.532284,-0.063811,0.00142333,0,
6,8.92463,0.544827,-0.0638053,0.00143996,0,
6,8.91482,0.557373,-0.0637987,0.00145568,0,
6,8.90379,0.56994,-0.0637911,0.00147029,0,
6,8.89139,0.582547,-0.0637823,0.00148356,0,
6,8.87746,0.595208,-0.0637723,0.00149523,0,
6,8.86181,0.60793,-0.063761,0.00150497,0,
6,8.84423,0.620719,-0.0637481,0.00151247,0,
6,8.82452,0.633576,-0.0637336,0.00151736,0,
6,8.80241,0.646495,-0.0637172,0.00151929,0,
6,8.77763,0.659468,-0.0636988,0.0015179,0,
6,8.74989,0.672478,-0.0636779,0.00151321,0,
6,8.71885,0.685509,-0.0636545,0.00150567,0,
6,8.68417,0.698561,-0.0636287,0.00149227,0,
6,8.64545,0.71165,-0.0636004,0.00147214,0,
6,8.60229,0.724766,-0.0635694,0.00144815,0,
6,8.55423,0.737866,-0.0635349,0.00142019,0,
6,8.50082,0.750909,-0.0634966,0.00138825,0,
6,8.44155,0.763883,-0.0634546,0.00135217,0,
6,8.37592,0.776827,-0.0634097,0.00131152,0,
6,8.30339,0.789854,-0.0633632,0.00126519,0,
6,8.22344,0.80318,-0.0633168,0.00121091,0,
6,8.13555,0.817131,-0.0632716,0.00114516,0,
6,8.0392,0.83214,-0.0632266,0.00106419,0,
6,7.93391,0.848687,-0.0631773,0.000963165,0,
6,7.81927,0.867143,-0.0631177,0.000837327,0,
6,7.6949,0.88742,-0.0630353,0.000686805,0,
6,7.56054,0.908525,-0.0629281,0.000527643,0,
6,7.41603,0.928488,-0.0627782,0.000375574,0,
6,7.26132,0.945054,-0.0626048,0.000247202,0,
6,7.09653,0.956833,-0.0623839,0.00013065,0,
6,6.92195,0.963656,-0.0621342,4.43694e-05,0,
6,6.73802,0.966385,-0.0618519,7.72726e-06,0,
6,6.5454,0.966616,-0.0615148,-1.40886e-06,0,
6,6.34489,0.965905,-0.0611215,-1.48529e-06,0,
6,6.1375,0.965162,-0.0606641,-6.04393e-07,0,
6,5.92439,0.964652,-0.0601376,-2.04357e-07,0,
6,5.70687,0.9643,-0.0595357,-7.71027e-08,0,
6,5.48633,0.963976,-0.0588519,-3.60187e-08,0,
6,5.26426,0.963609,-0.0580797,-2.10555e-08,0,
6,5.04218,0.963188,-0.0572131,-1.57456e-08,0,
6,4.82159,0.962727,-0.0562469,-1.46132e-08,0,
6,4.60398,0.962217,-0.055177,-1.57266e-08,0,
6,4.39071,0.96161,-0.0540016,-1.86731e-08,0,
6,4.18307,0.960832,-0.0527208,-2.32367e-08,0,
6,3.98218,0.959862,-0.0513378,-2.88519e-08,0,
6,3.78902,0.958825,-0.0498583,-4.89926e-08,0,
6,3.60438,0.95802,-0.0482902,-1.58321e-07,0,
6,3.42888,0.957766,-0.046642,-3.85323e-07,0,
6,3.26296,0.958139,-0.0449229,-5.14086e-07,0,
6,3.10691,0.958797,-0.043147,-1.2831e-06,0,
6,2.96084,0.959066,-0.0413331,-5.88925e-06,0,
6,2.82473,0.958206,-0.0395029,-1.85465e-05,0,
6,2.69844,0.955679,-0.0376796,-4.21781e-05,0,
6,2.58172,0.951278,-0.0358868,-7.74549e-05,0,
6,2.47424,0.94512,-0.034146,-0.000123007,0,
6,2.37559,0.937541,-0.0324753,-0.000176144,0,
6,2.28535,0.928981,-0.0308884,-0.000233697,0,
6,2.20301,0.919882,-0.0293947,-0.000293067,0,
6,2.1281,0.910631,-0.0279998,-0.000351182,0,
6,2.06009,0.901527,-0.0267054,-0.000405752,0,
6,1.99849,0.892783,-0.0255107,-0.000455453,0,
6,1.9428,0.884533,-0.0244129,-0.000499803,0,
6,1.89255,0.876852,-0.023408,-0.000538907,0,
6,1.84728,0.86977,-0.0224909,-0.00057319,0,
6,1.80655,0.86329,-0.0216568,-0.000603152,0,
6,1.76996,0.857392,-0.0208994,-0.00062921,0,
6,1.73712,0.852051,-0.0202146,-0.000653556,0,
6,1.70768,0.847213,-0.0195944,-0.000674642,0,
6,1.67998,0.842633,-0.0190083,-0.000692869,0,
6,1.65329,0.838203,-0.0184388,-0.000710396,0,
6,1.62754,0.83391,-0.0178859,-0.000727237,0,
6,1.60265,0.829743,-0.0173479,-0.000743206,0,
6,1.57854,0.825695,-0.0168238,-0.000758347,0,
6,1.55515,0.821756,-0.0163125,-0.000772704,0,
6,1.53242,0.817919,-0.0158129,-0.00078632,0,
6,1.5103,0.814175,-0.0153242,-0.000799233,0,
6,1.48874,0.810518,-0.0148455,-0.000811485,0,
6,1.46769,0.806941,-0.0143762,-0.00082312,0,
6,1.44712,0.803437,-0.0139155,-0.000834182,0,
6,1.42698,0.799999,-0.0134628,-0.000844723,0,
6,1.40725,0.796621,-0.0130177,-0.000854803,0,
6,1.38788,0.793294,-0.0125797,-0.000864519,0,
6,1.36886,0.79001,-0.0121484,-0.000874048,0,
6,1.35015,0.786758,-0.0117235,-0.000883459,0,
6,1.33173,0.783524,-0.0113045,-0.000893363,0,
6,1.31357,0.780294,-0.0108909,-0.000904404,0,
6,1.29566,0.777052,-0.0104826,-0.000917366,0,
6,1.27797,0.773778,-0.0100791,-0.000933209,0,
6,1.26048,0.770452,-0.00968024,-0.000952775,0,
6,1.24318,0.767047,-0.00928576,-0.000977566,0,
6,1.22605,0.76354,-0.00889549,-0.00100854,0,
6,1.20907,0.759901,-0.00850945,-0.00104586,0,
6,1.19223,0.756104,-0.00812701,-0.00108908,0,
6,1.17551,0.752125,-0.00775048,-0.00113975,0,
6,1.1589,0.747931,-0.00736588,-0.00118912,0,
6,1.14238,0.743463,-0.0069713,-0.00124263,0,
6,1.12595,0.738654,-0.00658009,-0.00130735,0,
6,1.10959,0.73345,-0.00619021,-0.00138523,0,
6,1.09329,0.727799,-0.00580283,-0.00147661,0,
6,1.07704,0.721656,-0.00541787,-0.00158251,0,
6,1.06081,0.714977,-0.00503538,-0.00170383,0,
6,1.04459,0.707724,-0.00465571,-0.00184148,0,
6,1.02836,0.699862,-0.00427953,-0.00199646,0,
6,1.01211,0.691359,-0.00390783,-0.00217008,0,
6,0.99583,0.682181,-0.00354168,-0.00236395,0,
6,0.97951,0.672292,-0.00318238,-0.0025799,0,
6,0.963136,0.661661,-0.00283148,-0.00281969,0,
6,0.946694,0.65026,-0.00249084,-0.00308478,0,
6,0.930172,0.63807,-0.00216269,-0.00337598,0,
6,0.913555,0.625083,-0.00184921,-0.00369327,0,
6,0.896829,0.611301,-0.00155204,-0.00403569,0,
6,0.879979,0.596721,-0.00127126,-0.00440164,0,
6,0.862989,0.581329,-0.0010052,-0.00478929,0,
6,0.845842,0.565101,-0.000750373,-0.00519716,0,
6,0.828521,0.548032,-0.000505067,-0.00562508,0,
6,0.811008,0.530197,-0.000270403,-0.00607623,0,
6,0.793282,0.511794,-6.00832e-05,-0.00655981,0,
6,0.775322,0.493069,0.00011985,-0.00705744,0,
6,0.757107,0.474193,0.000271431,-0.00754613,0,
6,0.738612,0.455261,0.000388779,-0.00801859,0,
6,0.719813,0.436341,0.000468983,-0.00846849,0,
6,0.700681,0.417497,0.00050934,-0.00888996,0,
6,0.681188,0.398804,0.000510062,-0.00927752,0,
6,0.661304,0.380326,0.000475674,-0.00962619,0,
6,0.640996,0.362106,0.000417794,-0.00993165,0,
6,0.620228,0.34414,0.000355038,-0.0101901,0,
6,0.598964,0.326375,0.000308437,-0.010398,0,
6,0.577166,0.308738,0.000287476,-0.0105515,0,
6,0.554791,0.291208,0.000270064,-0.0106464,0,
6,0.531799,0.273925,0.000175728,-0.0106802,0,
6,0.508144,0.257305,-0.00014777,-0.0106562,0,
6,0.48378,0.242037,-0.000959419,-0.0105895,0,
6,0.459585,0.229341,-0.00256293,-0.0105136,0,
6,0.436695,0.219906,-0.00506819,-0.0104612,0,
6,0.414961,0.213002,-0.00769641,-0.010407,0,
6,0.394252,0.20752,-0.00876009,-0.00980648,0,
6,0.374445,0.202703,-0.00849024,-0.00915755,0,
6,0.355433,0.198255,-0.00810295,-0.00870985,0,
6,0.337122,0.194108,-0.00770105,-0.00827114,0,
6,0.319433,0.190208,-0.00720464,-0.0078367,0,
6,0.3023,0.186513,-0.00663691,-0.00741354,0,
6,0.28567,0.182989,-0.00601611,-0.0070001,0,
6,0.269507,0.17961,-0.00534889,-0.00659671,0,
6,0.253785,0.176355,-0.00464417,-0.00620388,0,
6,0.238493,0.173206,-0.00391125,-0.00582216,0,
6,0.223631,0.17015,-0.00315992,-0.0054522,0,
6,0.209207,0.167177,-0.00239962,-0.00509469,0,
6,0.195237,0.16428,-0.00163999,-0.0047504,0,
6,0.181744,0.161452,-0.000890048,-0.0044201,0,
6,0.168754,0.158692,-0.00015838,-0.0041045,0,
6,0.156292,0.155996,0.000547529,-0.00380424,0,
6,0.144384,0.153363,0.00122121,-0.00351983,0,
6,0.133052,0.150794,0.00185757,-0.00325164,0,
6,0.122315,0.148288,0.00245282,-0.00299985,0,
6,0.112183,0.145846,0.00300457,-0.00276449,0,
6,0.102665,0.143468,0.00351166,-0.00254542,0,
6,0.0937597,0.141153,0.00397411,-0.00234233,0,
6,0.0854609,0.138902,0.00439282,-0.00215477,0,
6,0.077757,0.136714,0.00476952,-0.00198217,0,
6,0.0706309,0.134586,0.00510644,-0.00182387,0,
6,0.0640611,0.132517,0.00540624,-0.00167913,0,
6,0.0580229,0.130504,0.00567176,-0.00154715,0,
6,0.0524888,0.128542,0.00590597,-0.00142711,0,
6,0.0474296,0.126628,0.0061118,-0.00131818,0,
6,0.042815,0.124756,0.0062921,-0.0012195,0,
6,0.0386145,0.12292,0.00644957,-0.00113026,0,
6,0.0347975,0.121114,0.00658673,-0.00104966,0,
6,0.0313344,0.11933,0.00670591,-0.000976902,0,
6,0.0281964,0.117559,0.0068092,-0.000911257,0,
6,0.0253561,0.115792,0.00689853,-0.000852008,0,
6,0.0227875,0.114018,0.00697557,-0.000798473,0,
6,0.0204662,0.112224,0.00704191,-0.000749997,0,
6,0.0183694,0.110396,0.00709874,-0.000705942,0,
6,0.016476,0.108516,0.00714749,-0.000665678,0,
6,0.0147664,0.106562,0.00718882,-0.00062856,0,
6,0.0132228,0.104509,0.00722415,-0.000593901,0,
6,0.0118288,0.102324,0.00725353,-0.000560933,0,
6,0.0105693,0.0999641,0.00727864,-0.000528735,0,
6,0.00943073,0.0973736,0.00729871,-0.000496139,0,
6,0.00840063,0.0944787,0.007316,-0.000461597,0,
6,0.00746774,0.0911813,0.00732871,-0.000423025,0,
6,0.00662185,0.0873544,0.00733997,-0.000377776,0,
6,0.00585371,0.0828439,0.00734682,-0.000323128,0,
6,0.00515491,0.0774945,0.00735352,-0.000258071,0,
6,0.00451788,0.0712185,0.00735597,-0.000186466,0,
6,0.00393573,0.0641007,0.00735968,-0.000118407,0,
6,0.00340221,0.0564478,0.00735947,-6.50973e-05,0,
6,0.00291168,0.04868,0.007362,-3.10245e-05,0,
6,0.00245897,0.0411459,0.0073606,-1.28999e-05,0,
6,0.00203939,0.0340335,0.0073631,-4.6605e-06,0,
6,0.00164864,0.0273976,0.00736105,-1.42362e-06,0,
6,0.00128281,0.0212189,0.00736399,-3.44961e-07,0,
6,0.000938257,0.0154474,0.00736125,-5.83108e-08,0,
6,0.000611645,0.0100249,0.00736492,-5.24528e-09,0,
6,0.000299862,0.00489403,0.00736128,-1.32355e-10,0,

10,0.000296632,0.0125604,0.0319801,-2.06069e-10,0,
10,0.000596102,0.025237,0.0319805,-7.63657e-09,0,
10,0.000900397,0.0381134,0.03198,-7.76079e-08,0,
10,0.00121153,0.0512729,0.0319804,-4.16423e-07,0,
10,0.00153158,0.0647958,0.03198,-1.55189e-06,0,
10,0.00186264,0.0787536,0.0319803,-4.57836e-06,0,
10,0.00220692,0.0931985,0.0319799,-1.14544e-05,0,
10,0.00256668,0.108145,0.0319801,-2.52362e-05,0,
10,0.00294431,0.123549,0.0319799,-4.99704e-05,0,
10,0.00334229,0.139279,0.03198,-8.98703e-05,0,
10,0.00376326,0.155114,0.0319797,-0.000147677,0,
10,0.00421,0.170757,0.0319797,-0.000222907,0,
10,0.00468544,0.185893,0.0319792,-0.000311319,0,
10,0.00519274,0.200245,0.031979,-0.000406243,0,
10,0.00573524,0.213617,0.0319783,-0.000500871,0,
10,0.00631651,0.225911,0.0319777,-0.000589983,0,
10,0.00694041,0.237106,0.0319766,-0.000670505,0,
10,0.00761104,0.247239,0.0319754,-0.000741217,0,
10,0.00833284,0.256385,0.0319736,-0.000802177,0,
10,0.00911058,0.264636,0.0319716,-0.000854189,0,
10,0.0099494,0.27209,0.0319688,-0.000898414,0,
10,0.0108548,0.278842,0.0319656,-0.000936117,0,
10,0.0118329,0.284982,0.0319616,-0.000968527,0,
10,0.0128901,0.29059,0.031957,-0.000996761,0,
10,0.0140333,0.295738,0.0319513,-0.0010218,0,
10,0.0152702,0.300489,0.0319448,-0.00104448,0,
10,0.0166089,0.304895,0.0319371,-0.00106551,0,
10,0.0180584,0.309004,0.0319282,-0.0010855,0,
10,0.0196282,0.312855,0.0319179,-0.00110496,0,
10,0.0213288,0.316483,0.031906,-0.00112434,0,
10,0.0231714,0.319917,0.0318925,-0.00114403,0,
10,0.0251682,0.323183,0.0318771,-0.00116438,0,
10,0.0273326,0.326303,0.0318595,-0.00118572,0,
10,0.0296789,0.329298,0.0318397,-0.00120835,0,
10,0.0322227,0.332184,0.0318172,-0.00123257,0,
10,0.0349809,0.334977,0.0317918,-0.00125867,0,
10,0.0379719,0.337691,0.0317631,-0.00128694,0,
10,0.0412155,0.340339,0.0317309,-0.0013177,0,
10,0.0447333,0.342931,0.0316947,-0.00135124,0,
10,0.0485489,0.34548,0.0316541,-0.00138791,0,
10,0.0526875,0.347994,0.0316086,-0.00142805,0,
10,0.0571768,0.350484,0.0315576,-0.00147204,0,
10,0.0620466,0.352958,0.0315006,-0.00152028,0,
10,0.0673295,0.355426,0.031437,-0.00157321,0,
10,0.0730607,0.357896,0.0313659,-0.00163131,0,
10,0.0792784,0.360376,0.0312866,-0.00169508,0,
10,0.0860241,0.362877,0.0311983,-0.00176508,0,
10,0.0933428,0.365405,0.0311,-0.00184193,0,
10,0.101283,0.367972,0.0309907,-0.0019263,0,
10,0.109899,0.370585,0.0308693,-0.00201891,0,
10,0.119247,0.373256,0.0307347,-0.00212057,0,
10,0.12939,0.375994,0.0305856,-0.00223216,0,
10,0.140395,0.378812,0.0304207,-0.00235464,0,
10,0.152337,0.381722,0.0302388,-0.00248905,0,
10,0.165296,0.384738,0.0300385,-0.00263657,0,
10,0.179357,0.387875,0.0298185,-0.00279844,0,
10,0.194615,0.391151,0.0295776,-0.00297604,0,
10,0.211171,0.394585,0.0293148,-0.00317087,0,
10,0.229138,0.3982,0.0290293,-0.00338452,0,
10,0.248635,0.402023,0.0287208,-0.00361871,0,
10,0.269793,0.406084,0.028389,-0.00387525,0,
10,0.292753,0.410419,0.028036,-0.004156,0,
10,0.317669,0.415074,0.0276604,-0.00446213,0,
10,0.344708,0.420098,0.0272704,-0.0047956,0,
10,0.372405,0.425252,0.0268893,-0.00513695,0,
10,0.399623,0.430354,0.0265334,-0.00547166,0,
10,0.426397,0.435432,0.0262059,-0.00579868,0,
10,0.452757,0.440513,0.0259051,-0.00611893,0,
10,0.478735,0.445622,0.0256369,-0.00643173,0,
10,0.504358,0.450785,0.0254068,-0.00673178,0,
10,0.529657,0.456031,0.0252205,-0.00702046,0,
10,0.554656,0.461389,0.0250507,-0.00729842,0,
10,0.579382,0.466886,0.0249021,-0.00768283,0,
10,0.603859,0.472728,0.0252002,-0.00797462,0,
10,0.628112,0.47944,0.0260265,-0.00795765,0,
10,0.652163,0.487595,0.0268059,-0.0079254,0,
10,0.676035,0.497387,0.0272955,-0.00788291,0,
10,0.699751,0.508608,0.0275426,-0.00781895,0,
10,0.72333,0.520824,0.0276268,-0.00772204,0,
10,0.746795,0.53362,0.0276252,-0.00758544,0,
10,0.770165,0.546754,0.0275913,-0.00740634,0,
10,0.79346,0.560167,0.0275556,-0.00718334,0,
10,0.816699,0.573919,0.0275286,-0.00691492,0,
10,0.839903,0.588111,0.0275075,-0.00659917,0,
10,0.863088,0.602818,0.0274836,-0.00623465,0,
10,0.886275,0.618038,0.0274464,-0.00582193,0,
10,0.909481,0.633653,0.027388,-0.00536579,0,
10,0.932723,0.64938,0.0273015,-0.00487921,0,
10,0.956021,0.664737,0.0271774,-0.00442217,0,
10,0.97939,0.679245,0.0270285,-0.00398869,0,
10,1.00285,0.692689,0.0268714,-0.00357456,0,
10,1.02641,0.705064,0.0267095,-0.0031848,0,
10,1.0501,0.716416,0.026543,-0.0028248,0,
10,1.07392,0.726762,0.026368,-0.00249981,0,
10,1.0979,0.736091,0.0261814,-0.00221434,0,
10,1.12205,0.744409,0.0259817,-0.00197048,0,
10,1.14639,0.751779,0.02577,-0.00176675,0,
10,1.17093,0.758337,0.0255484,-0.00159839,0,
10,1.19568,0.76426,0.0253202,-0.00145896,0,
10,1.22066,0.769731,0.0250874,-0.00134219,0,
10,1.24589,0.774902,0.0248511,-0.0012432,0,
10,1.27137,0.779885,0.0246105,-0.00115865,0,
10,1.29713,0.784744,0.0243648,-0.00108628,0,
10,1.32317,0.789512,0.0241131,-0.0010243,0,
10,1.34951,0.794207,0.0238553,-0.000971058,0,
10,1.37616,0.798842,0.0235917,-0.000924905,0,
10,1.40313,0.803434,0.0233224,-0.000884318,0,
10,1.43043,0.807999,0.0230474,-0.000847954,0,
10,1.45807,0.812555,0.0227669,-0.000814638,0,
10,1.48607,0.817115,0.0224806,-0.000783345,0,
10,1.51444,0.82169,0.0221886,-0.000753224,0,
10,1.54318,0.826285,0.0218905,-0.000723859,0,
10,1.57231,0.830899,0.0215856,-0.000695452,0,
10,1.60184,0.83553,0.0212735,-0.000668078,0,
10,1.63178,0.84018,0.0209545,-0.000641224,0,
10,1.66213,0.844852,0.0206285,-0.00061451,0,
10,1.69292,0.849544,0.0202956,-0.000587881,0,
10,1.72416,0.854252,0.0199555,-0.00056136,0,
10,1.75585,0.858967,0.019608,-0.000534929,0,
10,1.78802,0.863675,0.0192532,-0.000508576,0,
10,1.82067,0.868363,0.0188906,-0.000482308,0,
10,1.85383,0.873017,0.0185202,-0.000456169,0,
10,1.88751,0.877623,0.0181416,-0.000430233,0,
10,1.92173,0.882166,0.0177549,-0.000404609,0,
10,1.95652,0.88663,0.0173596,-0.000379442,0,
10,1.9919,0.890999,0.0169557,-0.000354898,0,
10,2.02791,0.895255,0.0165426,-0.000331155,0,
10,2.06456,0.89938,0.0161207,-0.000308467,0,
10,2.10268,0.90343,0.0156789,-0.00028683,0,
10,2.1443,0.90755,0.0151952,-0.000265593,0,
10,2.18977,0.911703,0.0146673,-0.000245055,0,
10,2.23946,0.915807,0.0140869,-0.000225502,0,
10,2.29376,0.919779,0.0134583,-0.000206456,0,
10,2.35309,0.923618,0.0127709,-0.000173789,0,
10,2.4179,0.927312,0.0120194,-0.000133845,0,
10,2.48863,0.930668,0.0112058,-9.50829e-05,0,
10,2.56575,0.933434,0.0103207,-6.13106e-05,0,
10,2.64971,0.935473,0.00936694,-3.55494e-05,0,
10,2.74098,0.936744,0.00834145,-1.79032e-05,0,
10,2.83997,0.937281,0.00724734,-7.27157e-06,0,
10,2.94709,0.93721,0.00608545,-2.07322e-06,0,
10,3.06269,0.936756,0.00485999,-4.37554e-07,0,
10,3.18706,0.936204,0.00357455,-5.03561e-07,0,
10,3.3204,0.935842,0.00223448,-8.45037e-07,0,
10,3.46281,0.935874,0.000845348,-8.1867e-07,0,
10,3.61427,0.936355,-0.000585835,-5.07987e-07,0,
10,3.77463,0.937191,-0.00205086,-2.23206e-07,0,
10,3.94358,0.938194,-0.00353964,-8.51905e-08,0,
10,4.12067,0.939184,-0.00504046,-4.22702e-08,0,
10,4.30525,0.940057,-0.00654038,-3.24735e-08,0,
10,4.49655,0.940799,-0.00802603,-3.22072e-08,0,
10,4.6936,0.941454,-0.00948432,-3.86239e-08,0,
10,4.89531,0.942073,-0.0109029,-5.61215e-08,0,
10,5.10047,0.942678,-0.0122705,-9.49861e-08,0,
10,5.30776,0.943267,-0.0135773,-1.76069e-07,0,
10,5.51581,0.943841,-0.0148151,-3.44714e-07,0,
10,5.72323,0.944433,-0.0159774,-7.09932e-07,0,
10,5.92863,0.945116,-0.0170599,-1.50412e-06,0,
10,6.13069,0.945945,-0.0180602,-2.93288e-06,0,
10,6.32816,0.94679,-0.0189784,-3.99587e-06,0,
10,6.51991,0.947121,-0.0198145,3.39667e-07,0,
10,6.70495,0.945918,-0.0205711,2.12565e-05,0,
10,6.88244,0.941901,-0.0212456,7.35271e-05,0,
10,7.0517,0.934045,-0.0218419,0.000170284,0,
10,7.21224,0.921904,-0.0223667,0.000294133,0,
10,7.3637,0.905537,-0.0228182,0.000416461,0,
10,7.5059,0.885935,-0.023202,0.000556992,0,
10,7.63878,0.865105,-0.0235151,0.000704352,0,
10,7.76243,0.844964,-0.0237754,0.000843074,0,
10,7.87701,0.826576,-0.0239843,0.000960024,0,
10,7.9828,0.810104,-0.0241578,0.00105472,0,
10,8.08014,0.795212,-0.024301,0.00113203,0,
10,8.16941,0.781421,-0.0244243,0.00119714,0,
10,8.25106,0.768291,-0.0245309,0.00125257,0,
10,8.32554,0.755484,-0.0246246,0.00130059,0,
10,8.39331,0.742782,-0.0247058,0.00134292,0,
10,8.45484,0.730073,-0.0247759,0.00138015,0,
10,8.5106,0.717328,-0.0248357,0.00141237,0,
10,8.56104,0.704574,-0.0248866,0.00143943,0,
10,8.60659,0.691874,-0.0249301,0.00146127,0,
10,8.64767,0.679301,-0.0249671,0.00147805,0,
10,8.68467,0.6669,-0.0249995,0.00149011,0,
10,8.71795,0.654645,-0.0250273,0.00149045,0,
10,8.74786,0.642484,-0.0250503,0.00148703,0,
10,8.77471,0.630408,-0.0250701,0.00148099,0,
10,8.79881,0.618432,-0.0250864,0.00147196,0,
10,8.8204,0.606567,-0.0251003,0.00146048,0,
10,8.83975,0.59482,-0.0251119,0.00144702,0,
10,8.85708,0.583192,-0.0251216,0.00143196,0,
10,8.87259,0.571675,-0.0251297,0.00141574,0,
10,8.88646,0.560257,-0.0251365,0.00139876,0,
10,8.89886,0.54892,-0.0251421,0.00138131,0,
10,8.90995,0.537643,-0.0251468,0.00136362,0,
10,8.91986,0.526401,-0.0251507,0.00134587,0,
10,8.92872,0.51517,-0.025154,0.00132815,0,
10,8.93663,0.503922,-0.0251566,0.00131051,0,
10,8.94369,0.492629,-0.0251589,0.00129291,0,
10,8.95,0.481263,-0.0251607,0.00127533,0,
10,8.95564,0.469793,-0.0251623,0.00125765,0,
10,8.96067,0.458188,-0.0251636,0.00123971,0,
10,8.96517,0.446416,-0.0251647,0.0012213,0,
10,8.96918,0.434443,-0.0251655,0.00120219,0,
10,8.97276,0.422231,-0.0251664,0.00118207,0,
10,8.97596,0.409742,-0.0251669,0.00116058,0,
10,8.97882,0.396933,-0.0251676,0.00113728,0,
10,8.98137,0.383756,-0.0251679,0.00111172,0,
10,8.98365,0.370158,-0.0251685,0.00108674,0,
10,8.98569,0.355991,-0.0251685,0.00105202,0,
10,8.9875,0.340961,-0.0251691,0.00100531,0,
10,8.98913,0.324746,-0.025169,0.000948321,0,
10,8.99058,0.307046,-0.0251696,0.000877596,0,
10,8.99188,0.287567,-0.0251694,0.000789687,0,
10,8.99304,0.266027,-0.02517,0.000682172,0,
10,8.99408,0.242127,-0.0251695,0.000547182,0,
10,8.99501,0.215477,-0.0251703,0.000369269,0,
10,8.99583,0.186311,-0.0251697,0.000206287,0,
10,8.99658,0.156196,-0.0251704,9.35439e-05,0,
10,8.99724,0.12699,-0.0251696,3.35382e-05,0,
10,8.99784,0.0998925,-0.0251705,9.40556e-06,0,
10,8.99837,0.0753342,-0.0251696,1.99018e-06,0,
10,8.99885,0.0532821,-0.0251706,2.86006e-07,0,
10,8.99927,0.0335318,-0.0251695,2.17352e-08,0,
10,8.99966,0.0158477,-0.0251707,4.81077e-10,0,
10,0,0,0.0319806,0,0,
10,9,0,-0.0251694,0,0,

0.004,0,0,-0.228197,0,4.41226e-07,
0.00868226,0,0,-0.228216,0,-1.18983e-06,
0.014062,0,0,-0.228196,0,-2.91757e-06,
0.0201548,0,0,-0.228207,0,-3.41169e-06,
0.0269766,0,0,-0.228178,0,-9.93606e-07,
0.0345437,0,0,-0.228175,0,6.61861e-06,
0.0428729,0,0,-0.22815,0,1.97113e-05,
0.051981,0,0,-0.228161,0,3.80996e-05,
0.0618853,0,0,-0.22818,0,5.90497e-05,
0.0726036,0,0,-0.228239,0,8.02404e-05,
0.0841536,0,0,-0.228316,0,9.93694e-05,
0.0965535,0,0,-0.228423,0,0.000115942,
0.109822,0,0,-0.228546,0,0.000130101,
0.123977,0,0,-0.228694,0,0.000142638,
0.139037,0,0,-0.228866,0,0.000153876,
0.155022,0,0,-0.229071,0,0.000163609,
0.171949,0,0,-0.229312,0,0.0001709,
0.189839,0,0,-0.229593,0,0.000174504,
0.208709,0,0,-0.229916,0,0.000173136,
0.228579,0,0,-0.230279,0,0.0001658,
0.249467,0,0,-0.230678,0,0.000151932,
0.271391,0,0,-0.231107,0,0.000131517,
0.29437,0,0,-0.231556,0,0.000105056,
0.31842,0,0,-0.232017,0,7.34599e-05,
0.343559,0,0,-0.23248,0,3.78653e-05,
0.369804,0,0,-0.232936,0,-5.2588e-07,
0.39717,0,0,-0.23338,0,-4.0577e-05,
0.425672,0,0,-0.233804,0,-8.13566e-05,
0.455324,0,0,-0.234207,0,-0.000122194,
0.48614,0,0,-0.234587,0,-0.000162735,
0.518132,0,0,-0.234943,0,-0.00020284,
0.551309,0,0,-0.235276,0,-0.000242534,
0.585683,0,0,-0.235588,0,-0.000281969,
0.621259,0,0,-0.235877,0,-0.0003212,
0.658046,0,0,-0.236143,0,-0.000360242,
0.696047,0,0,-0.236385,0,-0.000398936,
0.735265,0,0,-0.236601,0,-0.000437332,
0.7757,0,0,-0.236784,0,-0.000475133,
0.817352,0,0,-0.236931,0,-0.000512254,
0.860215,0,0,-0.23703,0,-0.000548114,
0.904285,0,0,-0.237073,0,-0.000582422,
0.949552,0,0,-0.237053,0,-0.000613823,
0.996004,0,0,-0.236955,0,-0.000640401,
1.04363,0,0,-0.236787,0,-0.000658963,
1.09241,0,0,-0.236548,0,-0.000666415,
1.14232,0,0,-0.23631,0,-0.000661797,
1.19335,0,0,-0.236117,0,-0.000647357,
1.24546,0,0,-0.235962,0,-0.000627676,
1.29863,0,0,-0.235873,0,-0.000604974,
1.35283,0,0,-0.235896,0,-0.0005809,
1.40802,0,0,-0.236101,0,-0.000557098,
1.46416,0,0,-0.236581,0,-0.000536158,
1.52121,0,0,-0.237423,0,-0.000523362,
1.57913,0,0,-0.238659,0,-0.000524819,
1.63787,0,0,-0.240256,0,-0.000544948,
1.69739,0,0,-0.242152,0,-0.000585173,
1.75761,0,0,-0.244275,0,-0.000644974,
1.81851,0,0,-0.24654,0,-0.000723014,
1.88,0,0,-0.248854,0,-0.000817754,
1.94204,0,0,-0.251108,0,-0.000927661,
2.00457,0,0,-0.253176,0,-0.00105093,
2.06751,0,0,-0.254912,0,-0.00118507,
2.13081,0,0,-0.256153,0,-0.00132642,
2.19439,0,0,-0.256736,0,-0.00146989,
2.25819,0,0,-0.256524,0,-0.00160938,
2.32214,0,0,-0.255429,0,-0.00173882,
2.38617,0,0,-0.253421,0,-0.00185308,
2.4502,0,0,-0.250532,0,-0.00194864,
2.51418,0,0,-0.246848,0,-0.00202414,
2.57803,0,0,-0.242483,0,-0.00208019,
2.64167,0,0,-0.23756,0,-0.00211877,
2.70505,0,0,-0.232194,0,-0.00214256,
2.76808,0,0,-0.226479,0,-0.00215416,
2.83072,0,0,-0.220491,0,-0.00215565,
2.89288,0,0,-0.214293,0,-0.00214853,
2.95451,0,0,-0.207935,0,-0.00213375,
3.01555,0,0,-0.201465,0,-0.00211192,
3.07594,0,0,-0.194926,0,-0.0020835,
3.13561,0,0,-0.188359,0,-0.00204891,
3.19453,0,0,-0.181806,0,-0.00200858,
3.25262,0,0,-0.175307,0,-0.00196315,
3.30985,0,0,-0.168896,0,-0.00191327,
3.36617,0,0,-0.162607,0,-0.0018596,
3.42154,0,0,-0.156466,0,-0.00180287,
3.47591,0,0,-0.150496,0,-0.00174386,
3.52925,0,0,-0.144716,0,-0.00168323,
3.58152,0,0,-0.139139,0,-0.00162163,
3.6327,0,0,-0.133772,0,-0.00155966,
3.68276,0,0,-0.128621,0,-0.00149782,
3.73167,0,0,-0.123688,0,-0.00143655,
3.77941,0,0,-0.118971,0,-0.0013762,
3.82596,0,0,-0.114466,0,-0.00131703,
3.8713,0,0,-0.110169,0,-0.00125918,
3.91543,0,0,-0.106073,0,-0.00120265,
3.95833,0,0,-0.102194,0,-0.00114795,
4,0,0,-0.0984769,0,-0.00109453,
4.04167,0,0,-0.0948484,0,-0.00104131,
4.08333,0,0,-0.0913015,0,-0.000988403,
4.125,0,0,-0.0878308,0,-0.000935849,
4.16667,0,0,-0.0844357,0,-0.000883626,
4.20833,0,0,-0.0811154,0,-0.000831756,
4.25,0,0,-0.0778685,0,-0.000780265,
4.29167,0,0,-0.0746942,0,-0.000729187,
4.33333,0,0,-0.0715912,0,-0.000678552,
4.375,0,0,-0.0685579,0,-0.000628369,
4.41667,0,0,-0.0655929,0,-0.000578627,
4.45833,0,0,-0.0626955,0,-0.000529338,
4.5,0,0,-0.0598647,0,-0.000480524,
4.54167,0,0,-0.0570988,0,-0.000432198,
4.58333,0,0,-0.0543962,0,-0.000384356,
4.625,0,0,-0.0517563,0,-0.000337001,
4.66667,0,0,-0.049178,0,-0.000290141,
4.70833,0,0,-0.0466597,0,-0.000243779,
4.75,0,0,-0.0441999,0,-0.000197915,
4.79167,0,0,-0.0417979,0,-0.000152546,
4.83333,0,0,-0.0394527,0,-0.000107666,
4.875,0,0,-0.0371625,0,-6.32681e-05,
4.91667,0,0,-0.0349266,0,-1.93571e-05,
4.95833,0,0,-0.0327439,0,2.40618e-05,
5,0,0,-0.0306134,0,6.69949e-05,
5.04167,0,0,-0.0285335,0,0.000109457,
5.08333,0,0,-0.0265037,0,0.000151444,
5.125,0,0,-0.0245227,0,0.000192953,
5.16667,0,0,-0.0225895,0,0.000233993,
5.20833,0,0,-0.0207028,0,0.000274581,
5.25,0,0,-0.0188622,0,0.000314715,
5.29167,0,0,-0.0170664,0,0.000354397,
5.33333,0,0,-0.0153143,0,0.000393637,
5.375,0,0,-0.0136051,0,0.000432455,
5.41667,0,0,-0.0119385,0,0.000470849,
5.45833,0,0,-0.010313,0,0.000508825,
5.5,0,0,-0.0087279,0,0.000546393,
5.54167,0,0,-0.00718259,0,0.000583567,
5.58333,0,0,-0.00567682,0,0.000620347,
5.625,0,0,-0.00420933,0,0.000656736,
5.66667,0,0,-0.00277936,0,0.000692743,
5.70833,0,0,-0.00138672,0,0.000728373,
5.75,0,0,-3.10674e-05,0,0.000763627,
5.79167,0,0,0.00128869,0,0.000798507,
5.83333,0,0,0.00257323,0,0.000833015,
5.875,0,0,0.00382256,0,0.000867147,
5.91667,0,0,0.00503722,0,0.000900901,
5.95833,0,0,0.0062181,0,0.00093428,
6,0,0,0.00736583,0,0.000967281,
6.04167,0,0,0.00848039,0,0.000999892,
6.08333,0,0,0.00956258,0,0.00103211,
6.125,0,0,0.0106131,0,0.00106395,
6.16667,0,0,0.0116324,0,0.00109539,
6.20833,0,0,0.0126208,0,0.00112643,
6.25,0,0,0.013579,0,0.00115707,
6.29167,0,0,0.0145076,0,0.00118732,
6.33333,0,0,0.0154071,0,0.00121717,
6.375,0,0,0.0162776,0,0.00124662,
6.41667,0,0,0.0171203,0,0.00127567,
6.45833,0,0,0.0179352,0,0.00130433,
6.5,0,0,0.0187229,0,0.0013326,
6.54167,0,0,0.0194837,0,0.00136046,
6.58333,0,0,0.0202187,0,0.00138792,
6.625,0,0,0.0209279,0,0.001415,
6.66667,0,0,0.0216116,0,0.00144168,
6.70833,0,0,0.0222705,0,0.00146796,
6.75,0,0,0.0229055,0,0.00149384,
6.79167,0,0,0.0235167,0,0.00151933,
6.83333,0,0,0.0241043,0,0.00154442,
6.875,0,0,0.0246693,0,0.00156913,
6.91667,0,0,0.0252125,0,0.00159345,
6.95833,0,0,0.0257339,0,0.00161739,
7,0,0,0.0262339,0,0.00164094,
7.04167,0,0,0.0267134,0,0.0016641,
7.08333,0,0,0.027173,0,0.00168687,
7.125,0,0,0.0276127,0,0.00170924,
7.16667,0,0,0.0280332,0,0.00173121,
7.20833,0,0,0.0284351,0,0.00175279,
7.25,0,0,0.0288189,0,0.00177397,
7.29167,0,0,0.0291849,0,0.00179475,
7.33333,0,0,0.0295335,0,0.00181514,
7.375,0,0,0.0298656,0,0.00183515,
7.41667,0,0,0.0301812,0,0.00185478,
7.45833,0,0,0.0304807,0,0.00187404,
7.5,0,0,0.0307647,0,0.00189292,
7.54167,0,0,0.0310337,0,0.00191145,
7.58333,0,0,0.0312877,0,0.00192964,
7.625,0,0,0.0315271,0,0.00194747,
7.66667,0,0,0.0317524,0,0.00196496,
7.70833,0,0,0.0319641,0,0.00198214,
7.75,0,0,0.0321619,0,0.001999,
7.79167,0,0,0.0323466,0,0.00201554,
7.83333,0,0,0.0325174,0,0.00203169,
7.875,0,0,0.0326762,0,0.00204756,
7.91667,0,0,0.0328282,0,0.00206377,
7.95833,0,0,0.032908,0,0.00207915,
8,0,0,0.0330957,0,0.00209561,
8.04171,0,0,0.0333227,0,0.00211222,
8.08368,0,0,0.0334053,0,0.0021285,
8.12617,0,0,0.0335225,0,0.00214261,
8.16946,0,0,0.033632,0,0.00215642,
8.21382,0,0,0.0337241,0,0.00217012,
8.25952,0,0,0.0338077,0,0.00218373,
8.30685,0,0,0.0338828,0,0.00219744,
8.35611,0,0,0.033949,0,0.00221136,
8.40762,0,0,0.0340058,0,0.00222555,
8.46168,0,0,0.0340525,0,0.00224006,
8.51865,0,0,0.0340882,0,0.00225491,
8.57889,0,0,0.0341118,0,0.00227013,
8.64276,0,0,0.0341217,0,0.00228572,
8.71067,0,0,0.0341165,0,0.0023017,
8.78306,0,0,0.0340942,0,0.00231805,
8.86037,0,0,0.0340528,0,0.00233478,
8.94309,0,0,0.0339893,0,0.00235186,
9.03174,0,0,0.0339011,0,0.00236929,
9.12689,0,0,0.0337849,0,0.00238702,
9.22912,0,0,0.033637,0,0.00240499,
9.33908,0,0,0.033455,0,0.00242314,
9.45746,0,0,0.0332347,0,0.00244136,
9.58501,0,0,0.0329718,0,0.00245953,
9.72253,0,0,0.0326643,0,0.00247748,
9.87088,0,0,0.0323092,0,0.00249519,
10.031,0,0,0.0319017,0,0.00251294,
10.2039,0,0,0.0314415,0,0.00253151,
10.3906,0,0,0.0309245,0,0.00255102,
10.5924,0,0,0.0303491,0,0.0025711,
10.8105,0,0,0.0297149,0,0.00259245,
11.0463,0,0,0.029022,0,0.0026161,
11.3012,0,0,0.0282692,0,0.00264138,
11.5769,0,0,0.0274549,0,0.00266711,
11.8751,0,0,0.0265847,0,0.00269173,
12.1977,0,0,0.0256629,0,0.00271382,
12.5466,0,0,0.0246977,0,0.00273348,
12.9242,0,0,0.0237001,0,0.0027521,
13.3327,0,0,0.0226787,0,0.00277071,
13.7748,0,0,0.0216414,0,0.0027882,
14.2532,0,0,0.0205977,0,0.00280367,
14.7709,0,0,0.0195588,0,0.00281676,
15.3312,0,0,0.0185387,0,0.00282719,
15.9377,0,0,0.0175487,0,0.00283559,
16.594,0,0,0.016597,0,0.0028422,
17.3044,0,0,0.0156916,0,0.00284693,
18.0733,0,0,0.0148378,0,0.00284994,
18.9056,0,0,0.0140385,0,0.00285134,
19.8064,0,0,0.0132921,0,0.00285118,
20.7816,0,0,0.0125948,0,0.00284917,
21.8371,0,0,0.0119412,0,0.00284623,
22.9796,0,0,0.0113247,0,0.00284282,
24.2163,0,0,0.0107321,0,0.00283929,
25.5551,0,0,0.0101469,0,0.00283706,
27.0042,0,0,0.00955345,0,0.00283553,
28.5729,0,0,0.00893504,0,0.0028342,
30.271,0,0,0.00827336,0,0.00283312,
32.1091,0,0,0.00755276,0,0.00283246,
34.0989,0,0,0.00675958,0,0.00283258,
36.2529,0,0,0.00587772,0,0.00283393,
38.5845,0,0,0.00490092,0,0.00283633,
41.1085,0,0,0.00388706,0,0.00283806,
43.8407,0,0,0.00264286,0,0.00283497,
46.7983,0,0,0.00136375,0,0.0028274,
50,0,0,0.00276789,0,0.00283383,

