19b3ce80918584bb26f639f264a2db52ccf7a64b 
X,Z,x_velocity,cp,uw_b,cf,
1,0,0,-0.245383,0,0,
1,9,0,-0.124026,0,0,
1,8.99969,0.0153526,-0.124026,2.84085e-10,0,
1,8.99934,0.0327716,-0.124026,1.32801e-08,0,
1,8.99894,0.0525536,-0.124026,1.8321e-07,0,
1,8.99848,0.075012,-0.124026,1.3433e-06,0,
1,8.99797,0.10046,-0.124026,6.71581e-06,0,
1,8.99739,0.129095,-0.124026,2.54311e-05,0,
1,8.99672,0.160726,-0.124026,7.53919e-05,0,
1,8.99597,0.194421,-0.124026,0.000175428,0,
1,8.99512,0.228533,-0.124026,0.000323654,0,
1,8.99416,0.261406,-0.124026,0.000491663,0,
1,8.99306,0.292061,-0.124025,0.000649973,0,
1,8.99182,0.320317,-0.124025,0.000777927,0,
1,8.99041,0.346312,-0.124025,0.000883679,0,
1,8.98881,0.370212,-0.124024,0.000971124,0,
1,8.98699,0.392237,-0.124023,0.0010426,0,
1,8.98494,0.412682,-0.124023,0.00109845,0,
1,8.98261,0.431853,-0.124022,0.00114181,0,
1,8.97996,0.449987,-0.124021,0.00117813,0,
1,8.97696,0.467255,-0.124019,0.00120836,0,
1,8.97356,0.4838,-0.124018,0.00123376,0,
1,8.9697,0.49974,-0.124016,0.0012553,0,
1,8.96533,0.515173,-0.124014,0.00127368,0,
1,8.96038,0.530183,-0.124012,0.00128942,0,
1,8.95476,0.544839,-0.12401,0.00130288,0,
1,8.9484,0.559201,-0.124007,0.00131432,0,
1,8.9412,0.573319,-0.124004,0.0013239,0,
1,8.93303,0.587236,-0.124001,0.00133172,0,
1,8.92379,0.600989,-0.123997,0.00133783,0,
1,8.91333,0.614608,-0.123994,0.00134223,0,
1,8.90149,0.628121,-0.12399,0.00134488,0,
1,8.8881,0.641551,-0.123986,0.00134573,0,
1,8.87295,0.654917,-0.123983,0.00134469,0,
1,8.85584,0.668239,-0.12398,0.00134166,0,
1,8.83651,0.681531,-0.123977,0.00133653,0,
1,8.81469,0.69481,-0.123976,0.00132916,0,
1,8.79007,0.708091,-0.123976,0.00131939,0,
1,8.76232,0.721391,-0.123979,0.00130704,0,
1,8.73107,0.734727,-0.123985,0.00129187,0,
1,8.69591,0.748119,-0.123995,0.00127361,0,
1,8.6564,0.761593,-0.12401,0.00125191,0,
1,8.61206,0.775176,-0.124033,0.00122643,0,
1,8.56236,0.788908,-0.124066,0.00119728,0,
1,8.50675,0.802847,-0.124111,0.00116574,0,
1,8.44464,0.817126,-0.124173,0.00112505,0,
1,8.3754,0.831952,-0.124257,0.00107665,0,
1,8.29839,0.847582,-0.124367,0.001017,0,
1,8.21296,0.864319,-0.124513,0.000941528,0,
1,8.11843,0.88245,-0.124696,0.000844997,0,
1,8.01417,0.902093,-0.124934,0.000722717,0,
1,7.89956,0.922925,-0.12522,0.000575786,0,
1,7.77403,0.943906,-0.125594,0.000420682,0,
1,7.63711,0.963423,-0.126036,0.000248414,0,
1,7.48842,0.979257,-0.126564,9.8463e-05,0,
1,7.32773,0.989248,-0.127206,2.65344e-05,0,
1,7.15495,0.993348,-0.12795,3.28721e-06,0,
1,6.97022,0.993796,-0.128817,9.19871e-08,0,
1,6.77388,0.993194,-0.129817,3.21264e-09,0,
1,6.56652,0.992978,-0.130971,1.01585e-08,0,
1,6.34896,0.993369,-0.132293,1.26408e-08,0,
1,6.12229,0.994091,-0.1338,1.44482e-08,0,
1,5.88784,0.994915,-0.135509,1.54692e-08,0,
1,5.64716,0.99578,-0.137436,1.65418e-08,0,
1,5.40194,0.996714,-0.139596,1.80271e-08,0,
1,5.15407,0.99775,-0.142002,1.98727e-08,0,
1,4.90545,0.998901,-0.14466,2.19982e-08,0,
1,4.65805,1.00017,-0.147577,2.43503e-08,0,
1,4.41376,1.00157,-0.150752,2.68274e-08,0,
1,4.17441,1.00306,-0.154178,2.91711e-08,0,
1,3.94163,1.00459,-0.157844,3.13346e-08,0,
1,3.7169,1.00613,-0.161728,3.41008e-08,0,
1,3.50146,1.00778,-0.165803,3.97356e-08,0,
1,3.29629,1.00988,-0.17004,5.01569e-08,0,
1,3.10217,1.01276,-0.174412,6.29667e-08,0,
1,2.91959,1.01613,-0.178887,1.53556e-07,0,
1,2.74885,1.01838,-0.183416,1.54292e-06,0,
1,2.59002,1.01711,-0.187925,-6.14978e-06,0,
1,2.44299,1.01078,-0.192328,-5.22677e-05,0,
1,2.30752,0.999729,-0.196545,-0.000145311,0,
1,2.18321,0.985505,-0.200497,-0.000269825,0,
1,2.06959,0.969728,-0.204179,-0.000398069,0,
1,1.9661,0.953647,-0.207598,-0.000490237,0,
1,1.87215,0.938104,-0.210708,-0.000573759,0,
1,1.78711,0.923548,-0.213521,-0.000646629,0,
1,1.71033,0.9101,-0.216054,-0.000708982,0,
1,1.64119,0.89771,-0.218324,-0.000763033,0,
1,1.57905,0.886227,-0.220336,-0.00080064,0,
1,1.52332,0.875446,-0.22211,-0.000831222,0,
1,1.47342,0.865212,-0.223682,-0.000861668,0,
1,1.42882,0.855433,-0.225064,-0.000890706,0,
1,1.389,0.846054,-0.226276,-0.00091765,0,
1,1.35351,0.837043,-0.227335,-0.000942242,0,
1,1.3219,0.828381,-0.228258,-0.00096435,0,
1,1.29378,0.820061,-0.22906,-0.000983926,0,
1,1.26878,0.81208,-0.229757,-0.00100089,0,
1,1.24659,0.804441,-0.23036,-0.00101548,0,
1,1.22689,0.797143,-0.230883,-0.0010276,0,
1,1.2092,0.790106,-0.23134,-0.00103633,0,
1,1.1932,0.78328,-0.231741,-0.00104296,0,
1,1.1787,0.776638,-0.232093,-0.00104979,0,
1,1.16554,0.770131,-0.232402,-0.00106164,0,
1,1.15357,0.763671,-0.232672,-0.00108627,0,
1,1.14266,0.757113,-0.232911,-0.00113608,0,
1,1.13268,0.750235,-0.233124,-0.0012281,0,
1,1.12354,0.74274,-0.23332,-0.00138279,0,
1,1.11514,0.734282,-0.23351,-0.00162075,0,
1,1.10739,0.724556,-0.233703,-0.00195725,0,
1,1.10022,0.713418,-0.233902,-0.00239539,0,
1,1.09357,0.700975,-0.234112,-0.00292135,0,
1,1.08738,0.687549,-0.23433,-0.00350661,0,
1,1.0816,0.673557,-0.234554,-0.00411718,0,
1,1.07618,0.65939,-0.234782,-0.00472323,0,
1,1.07107,0.64535,-0.23501,-0.00530382,0,
1,1.06626,0.631644,-0.235238,-0.00584677,0,
1,1.06169,0.618394,-0.235463,-0.00634654,0,
1,1.05735,0.605664,-0.235685,-0.00680187,0,
1,1.05321,0.593477,-0.235903,-0.00721408,0,
1,1.04925,0.581831,-0.236117,-0.00758566,0,
1,1.04544,0.570706,-0.236327,-0.00791974,0,
1,1.04177,0.560077,-0.236532,-0.00821959,0,
1,1.03822,0.549914,-0.236734,-0.00848838,0,
1,1.03478,0.540184,-0.236932,-0.00872905,0,
1,1.03144,0.530856,-0.237127,-0.0089443,0,
1,1.02818,0.5219,-0.237319,-0.00913696,0,
1,1.025,0.513287,-0.237507,-0.00930943,0,
1,1.02188,0.504987,-0.237693,-0.00946261,0,
1,1.01882,0.496971,-0.237875,-0.00959843,0,
1,1.01581,0.489209,-0.238054,-0.00971869,0,
1,1.01284,0.481675,-0.238229,-0.00982364,0,
1,1.00988,0.474264,-0.238404,-0.00991657,0,
1,1.00688,0.466877,-0.238579,-0.01,0,
1,1.00384,0.459498,-0.238756,-0.0100735,0,
1,1.00076,0.45211,-0.238935,-0.0101372,0,
1,0.997615,0.444696,-0.239116,-0.0101911,0,
1,0.99441,0.437238,-0.239299,-0.0102352,0,
1,0.991131,0.429715,-0.239484,-0.0102696,0,
1,0.987768,0.422107,-0.239673,-0.0102939,0,
1,0.984308,0.414393,-0.239866,-0.010308,0,
1,0.980739,0.406548,-0.240062,-0.0103114,0,
1,0.977045,0.398547,-0.240263,-0.0103036,0,
1,0.973211,0.390363,-0.24047,-0.0102841,0,
1,0.969219,0.381967,-0.240682,-0.0102518,0,
1,0.965047,0.373326,-0.2409,-0.010206,0,
1,0.960675,0.364407,-0.241125,-0.0101453,0,
1,0.956077,0.355173,-0.241358,-0.0100683,0,
1,0.951224,0.345584,-0.241599,-0.00997343,0,
1,0.946088,0.335597,-0.241848,-0.00985872,0,
1,0.940633,0.325164,-0.242107,-0.00972194,0,
1,0.934823,0.314235,-0.242375,-0.00956054,0,
1,0.928616,0.302754,-0.242653,-0.00937157,0,
1,0.921967,0.29066,-0.242941,-0.00914983,0,
1,0.914826,0.27789,-0.243239,-0.00889261,0,
1,0.907141,0.264384,-0.243549,-0.00859586,0,
1,0.898852,0.250096,-0.24387,-0.00825546,0,
1,0.889898,0.235001,-0.244203,-0.00786905,0,
1,0.880212,0.219109,-0.244548,-0.00743664,0,
1,0.869723,0.202464,-0.244903,-0.00695608,0,
1,0.858358,0.185145,-0.245266,-0.00642954,0,
1,0.846039,0.167277,-0.245633,-0.00586231,0,
1,0.83269,0.149032,-0.246002,-0.00526316,0,
1,0.818232,0.130644,-0.246367,-0.0046488,0,
1,0.802744,0.11256,-0.246714,-0.00404251,0,
1,0.78635,0.0952345,-0.247043,-0.00346489,0,
1,0.768969,0.0788672,-0.247342,-0.00293485,0,
1,0.75053,0.063632,-0.247606,-0.00246796,0,
1,0.730977,0.0496454,-0.247827,-0.00207428,0,
1,0.710271,0.0369324,-0.247997,-0.00175714,0,
1,0.688397,0.025415,-0.248112,-0.00151282,0,
1,0.66536,0.0149307,-0.248167,-0.00133207,0,
1,0.641194,0.00527668,-0.248167,-0.00120232,0,
1,0.615961,-0.00373204,-0.24811,-0.00111478,0,
1,0.589754,-0.0122506,-0.248,-0.00105657,0,
1,0.562692,-0.0204107,-0.247846,-0.00101582,0,
1,0.534925,-0.0282968,-0.247654,-0.000985567,0,
1,0.506624,-0.0359427,-0.247433,-0.000959523,0,
1,0.477982,-0.0433466,-0.247187,-0.000933935,0,
1,0.449206,-0.0504841,-0.246922,-0.000906499,0,
1,0.420509,-0.0573191,-0.246646,-0.000875363,0,
1,0.392107,-0.0638133,-0.246365,-0.000839477,0,
1,0.364206,-0.0699312,-0.246089,-0.000798325,0,
1,0.337003,-0.0756425,-0.245826,-0.00075183,0,
1,0.310673,-0.0809238,-0.245581,-0.000700289,0,
1,0.28537,-0.0857585,-0.245361,-0.000644303,0,
1,0.26122,-0.0901376,-0.245169,-0.000584703,0,
1,0.238324,-0.0940583,-0.24501,-0.000522474,0,
1,0.21675,-0.0975234,-0.244882,-0.000458675,0,
1,0.196544,-0.10054,-0.244787,-0.000394373,0,
1,0.177724,-0.10312,-0.244721,-0.000330586,0,
1,0.160284,-0.105276,-0.244683,-0.000268256,0,
1,0.144202,-0.107021,-0.244669,-0.000208208,0,
1,0.129436,-0.108373,-0.244676,-0.000151137,0,
1,0.115935,-0.109343,-0.244698,-9.76033e-05,0,
1,0.103636,-0.109947,-0.244734,-4.80349e-05,0,
1,0.0924701,-0.110195,-0.244778,-2.74238e-06,0,
1,0.0823633,-0.110096,-0.244829,3.80677e-05,0,
1,0.0732406,-0.109657,-0.244884,7.42746e-05,0,
1,0.0650269,-0.10888,-0.24494,0.000105824,0,
1,0.057648,-0.107764,-0.244995,0.00013271,0,
1,0.0510323,-0.106302,-0.245048,0.000154953,0,
1,0.0451115,-0.104482,-0.245098,0.000172577,0,
1,0.0398209,-0.102287,-0.245144,0.000185595,0,
1,0.0351001,-0.0996903,-0.245186,0.000193994,0,
1,0.0308929,-0.0966595,-0.245223,0.000197713,0,
1,0.0271475,-0.0931527,-0.245255,0.000196636,0,
1,0.0238164,-0.0891204,-0.245283,0.000190585,0,
1,0.0208562,-0.0845079,-0.245306,0.000179346,0,
1,0.0182274,-0.0792616,-0.245325,0.000162743,0,
1,0.0158944,-0.0733425,-0.245339,0.000140826,0,
1,0.0138249,-0.0667523,-0.245352,0.000114269,0,
1,0.0119898,-0.0595747,-0.245359,8.49862e-05,0,
1,0.0103632,-0.0520225,-0.245366,5.64907e-05,0,
1,0.00892169,-0.0444453,-0.245369,3.29337e-05,0,
1,0.00764438,-0.0372491,-0.245373,1.67921e-05,0,
1,0.00651264,-0.0307537,-0.245373,7.59111e-06,0,
1,0.00550983,-0.0251061,-0.245376,3.10448e-06,0,
1,0.00462115,-0.020302,-0.245375,1.16589e-06,0,
1,0.00383341,-0.0162561,-0.245378,4.03516e-07,0,
1,0.0031349,-0.0128584,-0.245376,1.27506e-07,0,
1,0.00251518,-0.0100025,-0.245379,3.59344e-08,0,
1,0.00196502,-0.00759546,-0.245377,8.66316e-09,0,
1,0.00147619,-0.00555928,-0.245381,1.66268e-09,0,
1,0.00104139,-0.00382979,-0.245378,2.22913e-10,0,
1,0.000654158,-0.00235437,-0.245382,1.60409e-11,0,
1,0.000308731,-0.00108989,-0.245378,3.39686e-13,0,

4,0,0,-0.106899,0,0,
4,9,0,-0.0919395,0,0,
4,8.99969,0.0142123,-0.0919392,2.21816e-10,0,
4,8.99934,0.0302807,-0.0919394,1.02916e-08,0,
4,8.99894,0.0484661,-0.0919392,1.40538e-07,0,
4,8.9985,0.0690447,-0.0919393,1.02017e-06,0,
4,8.99799,0.0922974,-0.0919391,5.06447e-06,0,
4,8.99742,0.118428,-0.0919392,1.9183e-05,0,
4,8.99677,0.147353,-0.091939,5.76055e-05,0,
4,8.99605,0.178401,-0.0919391,0.000137772,0,
4,8.99522,0.210224,-0.0919389,0.000263681,0,
4,8.99429,0.24128,-0.0919388,0.000415332,0,
4,8.99324,0.270504,-0.0919385,0.000564814,0,
4,8.99205,0.297504,-0.0919383,0.000694537,0,
4,8.9907,0.322358,-0.0919378,0.000798617,0,
4,8.98919,0.345241,-0.0919373,0.000886402,0,
4,8.98747,0.366342,-0.0919366,0.000959528,0,
4,8.98553,0.385935,-0.0919359,0.00101671,0,
4,8.98334,0.404299,-0.0919349,0.00106336,0,
4,8.98087,0.421646,-0.0919338,0.00110274,0,
4,8.97807,0.438146,-0.0919324,0.00113627,0,
4,8.97491,0.45394,-0.0919308,0.00116525,0,
4,8.97134,0.469147,-0.0919288,0.00119066,0,
4,8.96731,0.483868,-0.0919266,0.00121323,0,
4,8.96276,0.498187,-0.091924,0.00123348,0,
4,8.95762,0.512179,-0.091921,0.00125179,0,
4,8.95182,0.525905,-0.0919175,0.00126842,0,
4,8.94526,0.539419,-0.0919136,0.0012835,0,
4,8.93787,0.552768,-0.0919091,0.00129711,0,
4,8.92952,0.565991,-0.0919041,0.00130925,0,
4,8.92011,0.579123,-0.0918984,0.00131987,0,
4,8.90949,0.592194,-0.0918921,0.00132887,0,
4,8.89751,0.605227,-0.0918851,0.00133611,0,
4,8.88402,0.618243,-0.0918775,0.00134142,0,
4,8.86881,0.631259,-0.0918693,0.00134462,0,
4,8.85169,0.644288,-0.0918605,0.00134551,0,
4,8.83242,0.657341,-0.0918512,0.00134389,0,
4,8.81074,0.670427,-0.0918416,0.00133955,0,
4,8.78637,0.683553,-0.0918318,0.00133228,0,
4,8.75901,0.696725,-0.0918221,0.00132189,0,
4,8.7283,0.709952,-0.0918129,0.00130816,0,
4,8.69387,0.723243,-0.0918046,0.00129084,0,
4,8.65533,0.73661,-0.0917978,0.00126963,0,
4,8.61222,0.750069,-0.0917934,0.00124424,0,
4,8.56407,0.763641,-0.0917923,0.00121485,0,
4,8.5104,0.777368,-0.0917965,0.00118077,0,
4,8.45065,0.791334,-0.091808,0.00114168,0,
4,8.38429,0.805682,-0.0918285,0.00109618,0,
4,8.31073,0.820625,-0.0918614,0.00104178,0,
4,8.22941,0.836447,-0.0919087,0.000974754,0,
4,8.13974,0.853471,-0.0919748,0.000890966,0,
4,8.04115,0.871973,-0.0920579,0.000786004,0,
4,7.93313,0.891975,-0.0921644,0.000658589,0,
4,7.81519,0.912928,-0.0922841,0.000515111,0,
4,7.68693,0.933452,-0.0924355,0.00037389,0,
4,7.54803,0.951578,-0.0925985,0.000244047,0,
4,7.39831,0.965383,-0.0927945,0.000113556,0,
4,7.23771,0.973736,-0.0930403,3.81874e-05,0,
4,7.06634,0.977182,-0.0933182,7.2456e-06,0,
4,6.88453,0.977634,-0.0936331,1.07146e-07,0,
4,6.69275,0.977061,-0.0939803,-2.32433e-07,0,
4,6.49173,0.976595,-0.0943657,-2.41897e-08,0,
4,6.28238,0.976515,-0.0947947,1.52819e-08,0,
4,6.06579,0.97669,-0.0952717,1.09012e-08,0,
4,5.84328,0.976948,-0.0957998,6.79677e-09,0,
4,5.61626,0.977205,-0.0963804,5.35157e-09,0,
4,5.3863,0.977451,-0.097014,5.04174e-09,0,
4,5.15502,0.977701,-0.0977001,5.20383e-09,0,
4,4.92406,0.977968,-0.0984368,5.61345e-09,0,
4,4.69507,0.978263,-0.0992209,6.13526e-09,0,
4,4.46961,0.978589,-0.100048,6.58055e-09,0,
4,4.24915,0.978922,-0.100911,6.59804e-09,0,
4,4.03501,0.979205,-0.101803,5.93485e-09,0,
4,3.82836,0.97937,-0.102715,4.92175e-09,0,
4,3.63018,0.979432,-0.103637,5.08713e-09,0,
4,3.44125,0.979586,-0.104559,9.43004e-09,0,
4,3.26217,0.980194,-0.10547,5.16223e-08,0,
4,3.09333,0.981527,-0.10636,4.91723e-07,0,
4,2.93497,0.983368,-0.107216,2.05906e-06,0,
4,2.78715,0.98487,-0.10803,2.72948e-06,0,
4,2.64979,0.984906,-0.108794,-4.78922e-06,0,
4,2.52268,0.982614,-0.109502,-2.83914e-05,0,
4,2.40551,0.977698,-0.110148,-7.13465e-05,0,
4,2.29789,0.970404,-0.110725,-0.000131541,0,
4,2.19939,0.961306,-0.111234,-0.000203403,0,
4,2.10949,0.951076,-0.111676,-0.000280188,0,
4,2.02768,0.940332,-0.112055,-0.0003559,0,
4,1.95343,0.929561,-0.112377,-0.000426244,0,
4,1.88618,0.919106,-0.11265,-0.000488805,0,
4,1.82542,0.909183,-0.112878,-0.000542744,0,
4,1.77062,0.899913,-0.11307,-0.000588312,0,
4,1.72128,0.891343,-0.11323,-0.000626387,0,
4,1.67693,0.883479,-0.113363,-0.000658068,0,
4,1.63713,0.8763,-0.113474,-0.000684423,0,
4,1.60144,0.869769,-0.113566,-0.000706326,0,
4,1.56949,0.863845,-0.113643,-0.000724417,0,
4,1.54091,0.858486,-0.113707,-0.000740198,0,
4,1.51537,0.853635,-0.113761,-0.000753396,0,
4,1.49167,0.84909,-0.113807,-0.000763566,0,
4,1.46926,0.84475,-0.113848,-0.000772187,0,
4,1.44801,0.840591,-0.113885,-0.000779495,0,
4,1.42781,0.836593,-0.113918,-0.0007855,0,
4,1.40855,0.832739,-0.113947,-0.000790424,0,
4,1.39015,0.829011,-0.113973,-0.000794474,0,
4,1.37252,0.825394,-0.113996,-0.000797891,0,
4,1.3556,0.82187,-0.114016,-0.000801028,0,
4,1.3393,0.818424,-0.114035,-0.000804345,0,
4,1.32357,0.815036,-0.114051,-0.000808358,0,
4,1.30836,0.811688,-0.114066,-0.000814012,0,
4,1.29362,0.808358,-0.114079,-0.000822125,0,
4,1.2793,0.805022,-0.114091,-0.000833827,0,
4,1.26537,0.801651,-0.114101,-0.000850546,0,
4,1.25179,0.798212,-0.114111,-0.000874022,0,
4,1.23852,0.794663,-0.114119,-0.000906327,0,
4,1.22554,0.790959,-0.114126,-0.000949862,0,
4,1.21282,0.787045,-0.114131,-0.00100732,0,
4,1.20034,0.782861,-0.114135,-0.00108158,0,
4,1.18806,0.778342,-0.114138,-0.00117557,0,
4,1.17599,0.773422,-0.114139,-0.00129196,0,
4,1.16408,0.768039,-0.114138,-0.00143293,0,
4,1.15233,0.762143,-0.114136,-0.00159977,0,
4,1.14073,0.755698,-0.114132,-0.00179269,0,
4,1.12925,0.748689,-0.114126,-0.00201059,0,
4,1.11788,0.741125,-0.114118,-0.00225116,0,
4,1.10661,0.733031,-0.11411,-0.00251101,0,
4,1.09543,0.724451,-0.1141,-0.00278604,0,
4,1.08432,0.715437,-0.11409,-0.00307178,0,
4,1.07328,0.706047,-0.114079,-0.00336374,0,
4,1.0623,0.696341,-0.114069,-0.00365772,0,
4,1.05136,0.686374,-0.114058,-0.00394992,0,
4,1.04044,0.676182,-0.114048,-0.00423724,0,
4,1.0295,0.665792,-0.114037,-0.00451727,0,
4,1.01855,0.655243,-0.114027,-0.00478766,0,
4,1.00757,0.64457,-0.114016,-0.00504623,0,
4,0.996544,0.633802,-0.114006,-0.00529121,0,
4,0.98547,0.622965,-0.113995,-0.00552136,0,
4,0.974334,0.61208,-0.113984,-0.005735,0,
4,0.963124,0.601166,-0.113972,-0.00593095,0,
4,0.951826,0.590239,-0.113959,-0.00610859,0,
4,0.940428,0.579311,-0.113948,-0.00629306,0,
4,0.928915,0.568303,-0.113905,-0.00642684,0,
4,0.917272,0.557075,-0.11383,-0.00656102,0,
4,0.905481,0.54553,-0.113751,-0.00670574,0,
4,0.893524,0.533599,-0.113673,-0.00686214,0,
4,0.881383,0.521223,-0.1136,-0.00703101,0,
4,0.869035,0.508349,-0.113533,-0.00721277,0,
4,0.856459,0.49493,-0.113474,-0.00740759,0,
4,0.843629,0.480926,-0.113423,-0.00761532,0,
4,0.830518,0.466304,-0.113378,-0.00783553,0,
4,0.817097,0.451041,-0.113338,-0.00806749,0,
4,0.803334,0.435118,-0.113302,-0.00831024,0,
4,0.789195,0.418525,-0.11327,-0.00856254,0,
4,0.774643,0.401252,-0.11324,-0.00882284,0,
4,0.759639,0.383301,-0.113214,-0.00908912,0,
4,0.744138,0.364685,-0.113193,-0.00935875,0,
4,0.728096,0.345436,-0.11318,-0.00962822,0,
4,0.711463,0.325613,-0.11318,-0.00989289,0,
4,0.694189,0.305298,-0.113195,-0.0101465,0,
4,0.676218,0.284584,-0.113227,-0.010381,0,
4,0.657495,0.263556,-0.113275,-0.0105886,0,
4,0.637962,0.242283,-0.113337,-0.0107628,0,
4,0.617561,0.220798,-0.113408,-0.0108987,0,
4,0.596848,0.199693,-0.113475,-0.010989,0,
4,0.576557,0.179645,-0.113531,-0.0110309,0,
4,0.556564,0.16049,-0.113576,-0.0110267,0,
4,0.536763,0.142119,-0.113624,-0.0109776,0,
4,0.517057,0.124535,-0.113711,-0.0108844,0,
4,0.497368,0.107895,-0.113898,-0.0107499,0,
4,0.477632,0.0924836,-0.114262,-0.0105818,0,
4,0.457804,0.0785964,-0.114856,-0.0103934,0,
4,0.437857,0.0663495,-0.115654,-0.0102026,0,
4,0.417786,0.055509,-0.116168,-0.0100039,0,
4,0.397605,0.0454397,-0.116132,-0.00938084,0,
4,0.377348,0.0357207,-0.115928,-0.00894128,0,
4,0.357066,0.0263354,-0.115753,-0.00849906,0,
4,0.336828,0.0172957,-0.115535,-0.00804933,0,
4,0.316717,0.00861989,-0.115289,-0.0075931,0,
4,0.296825,0.000326706,-0.115011,-0.00713245,0,
4,0.27725,-0.00756791,-0.114701,-0.00667057,0,
4,0.258095,-0.0150519,-0.114359,-0.00621094,0,
4,0.239458,-0.0221179,-0.113989,-0.00575708,0,
4,0.221432,-0.0287632,-0.113593,-0.00531239,0,
4,0.2041,-0.03499,-0.113176,-0.00488003,0,
4,0.187537,-0.0408044,-0.112745,-0.00446281,0,
4,0.171798,-0.0462164,-0.112305,-0.00406311,0,
4,0.156928,-0.0512387,-0.111863,-0.00368281,0,
4,0.142956,-0.0558863,-0.111425,-0.00332334,0,
4,0.129894,-0.0601756,-0.110997,-0.00298561,0,
4,0.117744,-0.0641239,-0.110585,-0.00267008,0,
4,0.106492,-0.0677488,-0.110193,-0.00237683,0,
4,0.0961173,-0.071068,-0.109824,-0.00210557,0,
4,0.0865883,-0.0740988,-0.109481,-0.00185572,0,
4,0.0778675,-0.0768578,-0.109164,-0.00162647,0,
4,0.0699123,-0.0793607,-0.108876,-0.00141684,0,
4,0.062677,-0.0816224,-0.108614,-0.00122574,0,
4,0.056114,-0.0836567,-0.108379,-0.001052,0,
4,0.0501747,-0.0854759,-0.108169,-0.00089442,0,
4,0.0448114,-0.0870915,-0.107982,-0.000751787,0,
4,0.039977,-0.0885131,-0.107818,-0.000622923,0,
4,0.0356266,-0.0897492,-0.107674,-0.000506688,0,
4,0.0317171,-0.0908061,-0.107548,-0.000402004,0,
4,0.0282081,-0.0916885,-0.107439,-0.000307859,0,
4,0.0250617,-0.0923985,-0.107345,-0.000223323,0,
4,0.0222427,-0.0929356,-0.107264,-0.000147556,0,
4,0.0197189,-0.0932954,-0.107194,-7.98169e-05,0,
4,0.0174603,-0.0934689,-0.107135,-1.94791e-05,0,
4,0.0154398,-0.0934406,-0.107086,3.39413e-05,0,
4,0.0136326,-0.0931858,-0.107044,8.07427e-05,0,
4,0.0120162,-0.092667,-0.107009,0.000120957,0,
4,0.0105703,-0.091827,-0.106981,0.000154205,0,
4,0.00927657,-0.0905798,-0.106959,0.000179457,0,
4,0.00811839,-0.0887965,-0.10694,0.000194669,0,
4,0.0070809,-0.0862901,-0.106928,0.000196507,0,
4,0.0061507,-0.082811,-0.106917,0.000181031,0,
4,0.00531578,-0.0780935,-0.106913,0.000147099,0,
4,0.00456537,-0.0720025,-0.106907,0.000101629,0,
4,0.00388979,-0.0647189,-0.106907,5.85413e-05,0,
4,0.00328037,-0.0567269,-0.106904,2.82666e-05,0,
4,0.00272934,-0.0485496,-0.106905,1.16275e-05,0,
4,0.0022297,-0.0405391,-0.106903,4.09501e-06,0,
4,0.00177519,-0.0328638,-0.106904,1.20814e-06,0,
4,0.00136016,-0.0255775,-0.106902,2.80935e-07,0,
4,0.000979511,-0.0186785,-0.106904,4.53785e-08,0,
4,0.00062865,-0.0121408,-0.106901,3.90176e-09,0,
4,0.000303409,-0.00592864,-0.106904,9.57366e-11,0,

6,0,0,0.00299532,0,0,
6,9,0,-0.0679984,0,0,
6,8.99969,0.0135061,-0.0679981,1.85915e-10,0,
6,8.99934,0.0287362,-0.0679983,8.58012e-09,0,
6,8.99895,0.0459277,-0.067998,1.16323e-07,0,
6,8.9985,0.0653314,-0.0679982,8.38296e-07,0,
6,8.99801,0.0872051,-0.067998,4.13839e-06,0,
6,8.99744,0.111749,-0.0679981,1.56562e-05,0,
6,8.99681,0.138934,-0.0679979,4.73315e-05,0,
6,8.99609,0.168239,-0.067998,0.000115109,0,
6,8.99529,0.198513,-0.0679978,0.000225708,0,
6,8.99438,0.228326,-0.0679978,0.000364687,0,
6,8.99336,0.256579,-0.0679975,0.000506567,0,
6,8.9922,0.282772,-0.0679974,0.000633957,0,
6,8.9909,0.306902,-0.067997,0.000737294,0,
6,8.98944,0.329126,-0.0679966,0.00082409,0,
6,8.98779,0.34962,-0.0679961,0.000897128,0,
6,8.98593,0.368636,-0.0679955,0.000954672,0,
6,8.98383,0.386433,-0.0679948,0.00100224,0,
6,8.98147,0.403214,-0.0679939,0.0010425,0,
6,8.97881,0.419144,-0.0679928,0.00107703,0,
6,8.97581,0.434364,-0.0679914,0.00110716,0,
6,8.97244,0.448992,-0.0679898,0.0011339,0,
6,8.96863,0.46313,-0.067988,0.00115801,0,
6,8.96435,0.476864,-0.0679857,0.00118005,0,
6,8.95953,0.490267,-0.0679831,0.00120043,0,
6,8.95409,0.503405,-0.06798,0.00121943,0,
6,8.94798,0.516334,-0.0679764,0.00123723,0,
6,8.94109,0.529104,-0.0679722,0.00125393,0,
6,8.93334,0.541758,-0.0679673,0.00126956,0,
6,8.92463,0.554335,-0.0679618,0.00128407,0,
6,8.91482,0.566868,-0.0679553,0.00129735,0,
6,8.90379,0.579387,-0.067948,0.00130924,0,
6,8.89139,0.591916,-0.0679397,0.00131954,0,
6,8.87746,0.604476,-0.0679303,0.00132801,0,
6,8.86181,0.617084,-0.0679198,0.00133435,0,
6,8.84423,0.629752,-0.0679079,0.00133829,0,
6,8.82452,0.642491,-0.0678947,0.00133949,0,
6,8.80241,0.655305,-0.06788,0.00133765,0,
6,8.77763,0.6682,-0.0678638,0.00133245,0,
6,8.74989,0.681176,-0.0678459,0.00132356,0,
6,8.71885,0.694234,-0.0678262,0.00131073,0,
6,8.68417,0.707376,-0.0678048,0.00129407,0,
6,8.64545,0.720614,-0.0677818,0.00127158,0,
6,8.60229,0.733962,-0.0677572,0.00124522,0,
6,8.55423,0.747429,-0.0677305,0.00121482,0,
6,8.50082,0.761039,-0.0677019,0.00118011,0,
6,8.44155,0.774853,-0.0676715,0.00114053,0,
6,8.37592,0.788987,-0.0676397,0.00109504,0,
6,8.30339,0.803629,-0.067607,0.00104165,0,
6,8.22344,0.81905,-0.0675736,0.000977296,0,
6,8.13555,0.835591,-0.0675381,0.000898495,0,
6,8.0392,0.853583,-0.067498,0.000801286,0,
6,7.93391,0.873153,-0.0674461,0.000683965,0,
6,7.81927,0.893889,-0.0673799,0.000550979,0,
6,7.6949,0.914537,-0.0672838,0.00041727,0,
6,7.56054,0.933193,-0.0671736,0.000295253,0,
6,7.41603,0.948109,-0.0670273,0.00017126,0,
6,7.26132,0.958195,-0.0668544,7.25483e-05,0,
6,7.09653,0.96343,-0.0666582,2.06904e-05,0,
6,6.92195,0.96503,-0.0664224,1.92279e-06,0,
6,6.73802,0.964748,-0.0661457,-1.32957e-06,0,
6,6.5454,0.963967,-0.0658204,-7.75578e-07,0,
6,6.34489,0.963338,-0.0654418,-2.5785e-07,0,
6,6.1375,0.962957,-0.0650045,-7.98071e-08,0,
6,5.92439,0.962699,-0.0645024,-3.07402e-08,0,
6,5.70687,0.962442,-0.0639293,-1.60235e-08,0,
6,5.48633,0.96213,-0.0632788,-1.11749e-08,0,
6,5.26426,0.961753,-0.0625449,-9.88507e-09,0,
6,5.04218,0.961321,-0.061722,-1.00299e-08,0,
6,4.82159,0.960848,-0.0608054,-1.07399e-08,0,
6,4.60398,0.960347,-0.0597918,-1.1723e-08,0,
6,4.39071,0.959815,-0.0586797,-1.3085e-08,0,
6,4.18307,0.959219,-0.0574696,-1.51397e-08,0,
6,3.98218,0.958498,-0.0561643,-1.8141e-08,0,
6,3.78902,0.957601,-0.0547694,-2.17753e-08,0,
6,3.60438,0.956564,-0.0532934,-2.89063e-08,0,
6,3.42888,0.95557,-0.0517467,-6.82266e-08,0,
6,3.26296,0.954912,-0.050141,-1.97919e-07,0,
6,3.10691,0.954814,-0.048488,-3.7377e-07,0,
6,2.96084,0.955236,-0.0468001,-5.15788e-07,0,
6,2.82473,0.955792,-0.045092,-1.52645e-06,0,
6,2.69844,0.955883,-0.043381,-6.25729e-06,0,
6,2.58172,0.954931,-0.0416865,-1.85706e-05,0,
6,2.47424,0.952568,-0.0400276,-4.14051e-05,0,
6,2.37559,0.948695,-0.0384219,-7.57069e-05,0,
6,2.28535,0.943451,-0.0368845,-0.000120454,0,
6,2.20301,0.937121,-0.0354267,-0.000173084,0,
6,2.1281,0.930047,-0.0340567,-0.000230399,0,
6,2.06009,0.922564,-0.0327787,-0.000289295,0,
6,1.99849,0.914956,-0.0315943,-0.000347206,0,
6,1.9428,0.90745,-0.0305026,-0.000402268,0,
6,1.89255,0.900205,-0.0295014,-0.00045332,0,
6,1.84728,0.893331,-0.0285862,-0.000499763,0,
6,1.80655,0.886892,-0.0277535,-0.000541301,0,
6,1.76996,0.880922,-0.0269963,-0.000577557,0,
6,1.73712,0.875442,-0.0263126,-0.000610205,0,
6,1.70768,0.870416,-0.0256894,-0.000634159,0,
6,1.67998,0.865604,-0.0250977,-0.000655168,0,
6,1.65329,0.8609,-0.0245233,-0.000675437,0,
6,1.62754,0.856297,-0.0239648,-0.000694892,0,
6,1.60265,0.851789,-0.0234215,-0.00071366,0,
6,1.57854,0.847373,-0.022892,-0.00073183,0,
6,1.55515,0.843044,-0.0223753,-0.00074948,0,
6,1.53242,0.838798,-0.0218702,-0.000766692,0,
6,1.5103,0.834632,-0.0213757,-0.000783565,0,
6,1.48874,0.830544,-0.020891,-0.00080022,0,
6,1.46769,0.826533,-0.020415,-0.00081677,0,
6,1.44712,0.8226,-0.0199477,-0.000833307,0,
6,1.42698,0.818743,-0.0194876,-0.000849707,0,
6,1.40725,0.81495,-0.0190399,-0.000863808,0,
6,1.38788,0.811199,-0.0186031,-0.000873847,0,
6,1.36886,0.807475,-0.0181708,-0.000883683,0,
6,1.35015,0.803768,-0.0177444,-0.000893089,0,
6,1.33173,0.800067,-0.017323,-0.00090315,0,
6,1.31357,0.796357,-0.0169063,-0.000914896,0,
6,1.29566,0.79262,-0.016494,-0.000929314,0,
6,1.27797,0.788833,-0.0160857,-0.000947665,0,
6,1.26048,0.784968,-0.0156813,-0.000971481,0,
6,1.24318,0.78099,-0.0152805,-0.00100259,0,
6,1.22605,0.776859,-0.0148834,-0.00104311,0,
6,1.20907,0.772524,-0.0144898,-0.00109538,0,
6,1.19223,0.767933,-0.0140999,-0.00116185,0,
6,1.17551,0.763027,-0.0137138,-0.00124486,0,
6,1.1589,0.757747,-0.0133318,-0.00134642,0,
6,1.14238,0.752039,-0.0129539,-0.0014678,0,
6,1.12595,0.745862,-0.0125806,-0.00160922,0,
6,1.10959,0.73919,-0.0122118,-0.00176956,0,
6,1.09329,0.73202,-0.0118487,-0.00194615,0,
6,1.07704,0.724372,-0.0114893,-0.00213481,0,
6,1.06081,0.716285,-0.0111384,-0.00233247,0,
6,1.04459,0.707796,-0.0107858,-0.00253501,0,
6,1.02836,0.698909,-0.0104261,-0.00273355,0,
6,1.01211,0.689597,-0.0100699,-0.00293902,0,
6,0.99583,0.679843,-0.0097159,-0.00315262,0,
6,0.97951,0.669627,-0.00936609,-0.00337548,0,
6,0.963136,0.658928,-0.00902122,-0.00360897,0,
6,0.946694,0.647715,-0.00868225,-0.00385443,0,
6,0.930172,0.635959,-0.00834994,-0.00411316,0,
6,0.913555,0.623622,-0.00802492,-0.0043863,0,
6,0.896829,0.610666,-0.00770765,-0.00467473,0,
6,0.879979,0.597055,-0.00739837,-0.00497911,0,
6,0.862989,0.582767,-0.00709727,-0.00529986,0,
6,0.845842,0.567809,-0.00680495,-0.00563752,0,
6,0.828521,0.552227,-0.00652288,-0.00599317,0,
6,0.811008,0.536094,-0.00625353,-0.00636465,0,
6,0.793282,0.519476,-0.00599911,-0.00674125,0,
6,0.775322,0.502418,-0.00576205,-0.00711904,0,
6,0.757107,0.484968,-0.00554586,-0.00749381,0,
6,0.738612,0.467189,-0.00535415,-0.00786066,0,
6,0.719813,0.449169,-0.00518971,-0.00821382,0,
6,0.700681,0.431004,-0.00505264,-0.00854678,0,
6,0.681188,0.412783,-0.00493855,-0.00885269,0,
6,0.661304,0.394564,-0.00483818,-0.00912494,0,
6,0.640996,0.376359,-0.00474027,-0.00935792,0,
6,0.620228,0.358156,-0.00463855,-0.0095471,0,
6,0.598964,0.339971,-0.00454252,-0.00968854,0,
6,0.577166,0.321924,-0.00448926,-0.00977932,0,
6,0.554791,0.304327,-0.00455193,-0.00981946,0,
6,0.531799,0.287679,-0.00483305,-0.00981425,0,
6,0.508144,0.272495,-0.00541181,-0.0097742,0,
6,0.48378,0.258977,-0.00623378,-0.00970485,0,
6,0.459585,0.247179,-0.00654141,-0.00943275,0,
6,0.436695,0.236866,-0.00634891,-0.00892963,0,
6,0.414961,0.227507,-0.00618032,-0.00856034,0,
6,0.394252,0.218935,-0.00598818,-0.0081907,0,
6,0.374445,0.211016,-0.00575977,-0.00782372,0,
6,0.355433,0.203649,-0.00551315,-0.00746176,0,
6,0.337122,0.196754,-0.00525319,-0.00710635,0,
6,0.319433,0.19027,-0.00498184,-0.00675671,0,
6,0.3023,0.184146,-0.00469817,-0.00641245,0,
6,0.28567,0.17834,-0.00440208,-0.00607373,0,
6,0.269507,0.172817,-0.00409376,-0.0057408,0,
6,0.253785,0.16755,-0.00377375,-0.00541402,0,
6,0.238493,0.162518,-0.00344293,-0.00509389,0,
6,0.223631,0.157703,-0.00310262,-0.00478103,0,
6,0.209207,0.153094,-0.00275458,-0.00447621,0,
6,0.195237,0.148678,-0.00240095,-0.00418024,0,
6,0.181744,0.14445,-0.00204424,-0.00389402,0,
6,0.168754,0.140403,-0.00168725,-0.00361842,0,
6,0.156292,0.136533,-0.00133293,-0.00335427,0,
6,0.144384,0.132833,-0.00098432,-0.00310234,0,
6,0.133052,0.129302,-0.000644353,-0.00286324,0,
6,0.122315,0.125933,-0.000315777,-0.00263744,0,
6,0.112183,0.122721,-1.03179e-06,-0.00242524,0,
6,0.102665,0.119663,0.000297834,-0.00222679,0,
6,0.0937597,0.11675,0.000579219,-0.00204203,0,
6,0.0854609,0.113978,0.000841988,-0.00187077,0,
6,0.077757,0.111338,0.00108547,-0.00171266,0,
6,0.0706309,0.108823,0.00130943,-0.00156725,0,
6,0.0640611,0.106425,0.00151401,-0.00143398,0,
6,0.0580229,0.104135,0.0016997,-0.00131221,0,
6,0.0524888,0.101945,0.00186723,-0.00120127,0,
6,0.0474296,0.0998449,0.00201754,-0.00110044,0,
6,0.042815,0.0978257,0.0021517,-0.00100899,0,
6,0.0386145,0.0958774,0.00227087,-0.000926192,0,
6,0.0347975,0.09399,0.00237625,-0.000851332,0,
6,0.0313344,0.0921529,0.00246906,-0.000783711,0,
6,0.0281964,0.090355,0.00255041,-0.000722652,0,
6,0.0253561,0.0885847,0.00262151,-0.000667507,0,
6,0.0227875,0.086829,0.00268329,-0.000617651,0,
6,0.0204662,0.0850739,0.0027369,-0.000572483,0,
6,0.0183694,0.0833036,0.002783,-0.000531413,0,
6,0.016476,0.0814994,0.00282273,-0.000493856,0,
6,0.0147664,0.0796396,0.00285638,-0.000459207,0,
6,0.0132228,0.0776974,0.00288523,-0.000426819,0,
6,0.0118288,0.0756395,0.002909,-0.000395958,0,
6,0.0105693,0.0734234,0.00292934,-0.000365742,0,
6,0.00943073,0.0709946,0.00294525,-0.000335068,0,
6,0.00840063,0.0682827,0.00295893,-0.000302536,0,
6,0.00746774,0.0651998,0.00296853,-0.000266473,0,
6,0.00662185,0.0616446,0.00297702,-0.000225314,0,
6,0.00585371,0.0575231,0.00298168,-0.000178725,0,
6,0.00515491,0.0527962,0.0029864,-0.00012937,0,
6,0.00451788,0.0475443,0.00298765,-8.33966e-05,0,
6,0.00393573,0.0419892,0.00299028,-4.73322e-05,0,
6,0.00340221,0.0364183,0.00298977,-2.37317e-05,0,
6,0.00291168,0.0310669,0.00299181,-1.06105e-05,0,
6,0.00245897,0.0260623,0.00299054,-4.24303e-06,0,
6,0.00203939,0.0214408,0.00299272,-1.49878e-06,0,
6,0.00164864,0.0171865,0.00299092,-4.51694e-07,0,
6,0.00128281,0.0132614,0.00299353,-1.08458e-07,0,
6,0.000938257,0.00962176,0.00299111,-1.82016e-08,0,
6,0.000611645,0.00622427,0.00299437,-1.6268e-09,0,
6,0.000299862,0.00302928,0.00299114,-4.07989e-11,0,

10,0.000296632,0.0100189,0.0277284,-8.31725e-11,0,
10,0.000596102,0.0201296,0.0277289,-3.08217e-09,0,
10,0.000900397,0.0303991,0.0277284,-3.13301e-08,0,
10,0.00121153,0.0408945,0.0277288,-1.68263e-07,0,
10,0.00153158,0.0516823,0.0277284,-6.28573e-07,0,
10,0.00186264,0.0628265,0.0277287,-1.86394e-06,0,
10,0.00220692,0.074384,0.0277283,-4.7085e-06,0,
10,0.00256668,0.0863966,0.0277286,-1.05459e-05,0,
10,0.00294431,0.0988793,0.0277282,-2.14263e-05,0,
10,0.00334229,0.111804,0.0277284,-3.99832e-05,0,
10,0.00376326,0.125083,0.0277281,-6.89542e-05,0,
10,0.00421,0.13856,0.0277282,-0.000110252,0,
10,0.00468544,0.152023,0.0277278,-0.000163922,0,
10,0.00519274,0.165229,0.0277278,-0.000227676,0,
10,0.00573524,0.17795,0.0277273,-0.000297457,0,
10,0.00631651,0.190004,0.027727,-0.000368712,0,
10,0.00694041,0.201273,0.0277262,-0.00043757,0,
10,0.00761104,0.211699,0.0277255,-0.000501414,0,
10,0.00833284,0.221276,0.0277243,-0.000558885,0,
10,0.00911058,0.230034,0.0277231,-0.000609591,0,
10,0.0099494,0.238023,0.0277212,-0.000653782,0,
10,0.0108548,0.245308,0.0277191,-0.000692073,0,
10,0.0118329,0.251958,0.0277163,-0.00072526,0,
10,0.0128901,0.258041,0.0277131,-0.000754189,0,
10,0.0140333,0.263624,0.027709,-0.000779684,0,
10,0.0152702,0.268768,0.0277043,-0.000802511,0,
10,0.0166089,0.273528,0.0276987,-0.000823353,0,
10,0.0180584,0.277953,0.0276922,-0.000842815,0,
10,0.0196282,0.282088,0.0276845,-0.000861424,0,
10,0.0213288,0.285972,0.0276757,-0.000879643,0,
10,0.0231714,0.289636,0.0276655,-0.000897879,0,
10,0.0251682,0.293113,0.0276539,-0.000916498,0,
10,0.0273326,0.296427,0.0276406,-0.000935832,0,
10,0.0296789,0.299602,0.0276254,-0.000956191,0,
10,0.0322227,0.302659,0.0276083,-0.000977867,0,
10,0.0349809,0.305616,0.027589,-0.00100115,0,
10,0.0379719,0.308491,0.0275672,-0.00102632,0,
10,0.0412155,0.311297,0.0275428,-0.00105366,0,
10,0.0447333,0.314051,0.0275154,-0.00108347,0,
10,0.0485489,0.316764,0.0274848,-0.00111605,0,
10,0.0526875,0.31945,0.0274507,-0.00115172,0,
10,0.0571768,0.322122,0.0274128,-0.00119082,0,
10,0.0620466,0.32479,0.0273707,-0.00123372,0,
10,0.0673295,0.327467,0.0273241,-0.00128079,0,
10,0.0730607,0.330165,0.0272726,-0.00133246,0,
10,0.0792784,0.332896,0.0272158,-0.00138916,0,
10,0.0860241,0.335672,0.0271533,-0.00145138,0,
10,0.0933428,0.338506,0.0270847,-0.00151963,0,
10,0.101283,0.341413,0.0270096,-0.00159448,0,
10,0.109899,0.344407,0.0269276,-0.0016765,0,
10,0.119247,0.347505,0.0268383,-0.00176636,0,
10,0.12939,0.350723,0.0267413,-0.00186472,0,
10,0.140395,0.354082,0.0266363,-0.00197232,0,
10,0.152337,0.357603,0.026523,-0.00208993,0,
10,0.165296,0.361309,0.0264012,-0.00221836,0,
10,0.179357,0.365229,0.0262708,-0.00235845,0,
10,0.194615,0.369393,0.0261316,-0.00251107,0,
10,0.211171,0.373837,0.0259837,-0.00267707,0,
10,0.229138,0.378601,0.0258273,-0.00285731,0,
10,0.248635,0.383731,0.0256628,-0.00305257,0,
10,0.269793,0.389282,0.02549,-0.00326355,0,
10,0.292753,0.395318,0.0253109,-0.00349075,0,
10,0.317669,0.40191,0.025123,-0.00373343,0,
10,0.344708,0.409142,0.0249318,-0.00399052,0,
10,0.372405,0.416667,0.0247462,-0.00424891,0,
10,0.399623,0.4242,0.0245713,-0.00449701,0,
10,0.426397,0.43176,0.0244077,-0.00473333,0,
10,0.452757,0.439363,0.0242553,-0.00495809,0,
10,0.478735,0.447033,0.0241171,-0.00516953,0,
10,0.504358,0.454798,0.0239943,-0.00536675,0,
10,0.529657,0.46269,0.0238896,-0.00554817,0,
10,0.554656,0.470748,0.0237989,-0.00571101,0,
10,0.579382,0.479004,0.0237284,-0.00585629,0,
10,0.603859,0.487486,0.0236426,-0.0060056,0,
10,0.628112,0.49628,0.0236324,-0.00619145,0,
10,0.652163,0.505768,0.0237801,-0.00616453,0,
10,0.676035,0.516417,0.0239437,-0.00611351,0,
10,0.699751,0.528324,0.0240339,-0.00603641,0,
10,0.72333,0.541294,0.0240546,-0.00592792,0,
10,0.746795,0.55501,0.0240209,-0.00578475,0,
10,0.770165,0.569178,0.0239557,-0.00560652,0,
10,0.79346,0.583605,0.0238734,-0.00539519,0,
10,0.816699,0.598189,0.0237817,-0.00515385,0,
10,0.839903,0.612868,0.0236825,-0.00488636,0,
10,0.863088,0.627568,0.0235736,-0.00459743,0,
10,0.886275,0.642169,0.0234534,-0.00429312,0,
10,0.909481,0.656482,0.0233163,-0.00398845,0,
10,0.932723,0.670285,0.0231613,-0.00369465,0,
10,0.956021,0.683422,0.0229956,-0.00341075,0,
10,0.97939,0.695851,0.0228229,-0.00313706,0,
10,1.00285,0.707597,0.0226453,-0.00287486,0,
10,1.02641,0.718703,0.0224624,-0.00262553,0,
10,1.0501,0.729197,0.0222732,-0.00239044,0,
10,1.07392,0.739084,0.022077,-0.00217093,0,
10,1.0979,0.74836,0.0218735,-0.00196821,0,
10,1.12205,0.757021,0.0216626,-0.00178331,0,
10,1.14639,0.765072,0.0214445,-0.00161692,0,
10,1.17093,0.772534,0.0212193,-0.00146931,0,
10,1.19568,0.779447,0.0209869,-0.00134009,0,
10,1.22066,0.785873,0.0207473,-0.00122812,0,
10,1.24589,0.791896,0.0205009,-0.00113155,0,
10,1.27137,0.797612,0.0202484,-0.00104814,0,
10,1.29713,0.803115,0.0199902,-0.000975718,0,
10,1.32317,0.808483,0.0197267,-0.000912444,0,
10,1.34951,0.813767,0.0194576,-0.000856895,0,
10,1.37616,0.818988,0.0191827,-0.000807927,0,
10,1.40313,0.824149,0.0189016,-0.000764514,0,
10,1.43043,0.829241,0.018614,-0.000725662,0,
10,1.45807,0.834262,0.0183199,-0.000690409,0,
10,1.48607,0.839219,0.0180193,-0.000657893,0,
10,1.51444,0.844123,0.0177121,-0.000627418,0,
10,1.54318,0.848983,0.0173983,-0.000598477,0,
10,1.57231,0.853803,0.0170778,-0.000570733,0,
10,1.60184,0.858581,0.0167505,-0.000543959,0,
10,1.63178,0.863305,0.0164161,-0.000517993,0,
10,1.66213,0.867965,0.0160746,-0.000492711,0,
10,1.69292,0.872549,0.015726,-0.000468015,0,
10,1.72416,0.877044,0.01537,-0.00044385,0,
10,1.75585,0.881438,0.0150068,-0.000420206,0,
10,1.78802,0.885715,0.0146361,-0.000397118,0,
10,1.82067,0.889857,0.0142584,-0.00037466,0,
10,1.85383,0.893848,0.0138728,-0.000352867,0,
10,1.88751,0.897677,0.0134813,-0.000331644,0,
10,1.92173,0.901366,0.0130813,-0.000307573,0,
10,1.95652,0.904956,0.0126728,-0.000279951,0,
10,1.9919,0.908446,0.0122584,-0.000252117,0,
10,2.02791,0.911795,0.0118341,-0.000223341,0,
10,2.06456,0.914966,0.0114033,-0.000194457,0,
10,2.10268,0.917988,0.0109521,-0.000165604,0,
10,2.1443,0.920946,0.0104614,-0.00013756,0,
10,2.18977,0.923785,0.00992425,-0.00011072,0,
10,2.23946,0.926424,0.00933921,-8.54713e-05,0,
10,2.29376,0.928778,0.00870108,-6.26809e-05,0,
10,2.35309,0.930763,0.00800763,-4.30586e-05,0,
10,2.4179,0.932303,0.00725494,-2.71321e-05,0,
10,2.48863,0.933347,0.00644111,-1.51818e-05,0,
10,2.56575,0.933883,0.00556373,-7.14756e-06,0,
10,2.64971,0.933957,0.00462197,-2.57017e-06,0,
10,2.74098,0.933676,0.00361515,-6.17266e-07,0,
10,2.83997,0.933212,0.00254383,-2.4101e-07,0,
10,2.94709,0.932769,0.00140896,-4.54746e-07,0,
10,3.06269,0.93254,0.000212553,-6.18142e-07,0,
10,3.18706,0.932655,-0.00104276,-5.43818e-07,0,
10,3.3204,0.933141,-0.00235303,-3.4288e-07,0,
10,3.46281,0.933919,-0.00371286,-1.66892e-07,0,
10,3.61427,0.934851,-0.00511495,-7.10208e-08,0,
10,3.77463,0.935793,-0.00655009,-3.42205e-08,0,
10,3.94358,0.936654,-0.00800736,-2.29744e-08,0,
10,4.12067,0.937408,-0.00947467,-1.93916e-08,0,
10,4.30525,0.938085,-0.0109393,-1.79356e-08,0,
10,4.49655,0.938727,-0.0123883,-1.75355e-08,0,
10,4.6936,0.939368,-0.0138091,-1.81999e-08,0,
10,4.89531,0.940013,-0.0151897,-2.05984e-08,0,
10,5.10047,0.940649,-0.0165194,-2.65841e-08,0,
10,5.30776,0.941255,-0.0177884,-4.02028e-08,0,
10,5.51581,0.941814,-0.0189891,-6.97724e-08,0,
10,5.72323,0.942325,-0.0201152,-1.33601e-07,0,
10,5.92863,0.942819,-0.0211627,-2.77898e-07,0,
10,6.13069,0.94337,-0.022129,-6.219e-07,0,
10,6.32816,0.944071,-0.0230143,-1.38267e-06,0,
10,6.51991,0.944913,-0.0238192,-2.48856e-06,0,
10,6.70495,0.945578,-0.0245476,-1.89815e-06,0,
10,6.88244,0.945239,-0.0252004,7.15414e-06,0,
10,7.0517,0.942613,-0.0257828,3.66902e-05,0,
10,7.21224,0.936399,-0.0262916,9.96764e-05,0,
10,7.3637,0.925914,-0.026736,0.000204313,0,
10,7.5059,0.911274,-0.0271221,0.00032029,0,
10,7.63878,0.893113,-0.0274435,0.000433604,0,
10,7.76243,0.872786,-0.0277164,0.000556846,0,
10,7.87701,0.852126,-0.0279349,0.000679904,0,
10,7.9828,0.832487,-0.028116,0.000788805,0,
10,8.08014,0.814415,-0.028261,0.000880211,0,
10,8.16941,0.797858,-0.028382,0.000955798,0,
10,8.25106,0.78249,-0.0284821,0.0010191,0,
10,8.32554,0.767948,-0.0285678,0.00107289,0,
10,8.39331,0.753934,-0.0286406,0.00111964,0,
10,8.45484,0.740248,-0.0287032,0.00116084,0,
10,8.5106,0.726781,-0.0287563,0.00119709,0,
10,8.56104,0.713492,-0.028802,0.00122851,0,
10,8.60659,0.700386,-0.0288408,0.00125511,0,
10,8.64767,0.687482,-0.0288746,0.00127696,0,
10,8.68467,0.674782,-0.0289033,0.00129172,0,
10,8.71795,0.662264,-0.0289278,0.00130048,0,
10,8.74786,0.649916,-0.0289491,0.00130538,0,
10,8.77471,0.637737,-0.028967,0.00130612,0,
10,8.79881,0.625728,-0.0289826,0.00130317,0,
10,8.8204,0.613882,-0.0289957,0.00129705,0,
10,8.83975,0.60219,-0.0290069,0.00128826,0,
10,8.85708,0.590639,-0.0290164,0.0012773,0,
10,8.87259,0.579211,-0.0290244,0.00126462,0,
10,8.88646,0.567884,-0.0290311,0.00125062,0,
10,8.89886,0.556633,-0.0290368,0.00123563,0,
10,8.90995,0.545432,-0.0290416,0.00121993,0,
10,8.91986,0.534249,-0.0290455,0.00120373,0,
10,8.92872,0.52305,-0.0290488,0.00118717,0,
10,8.93663,0.511801,-0.0290515,0.00117033,0,
10,8.94369,0.500461,-0.0290538,0.00115321,0,
10,8.95,0.488989,-0.0290556,0.00113579,0,
10,8.95564,0.47734,-0.0290571,0.00111796,0,
10,8.96067,0.465464,-0.0290583,0.00109952,0,
10,8.96517,0.453307,-0.0290594,0.00108023,0,
10,8.96918,0.440808,-0.0290602,0.00105974,0,
10,8.97276,0.427898,-0.029061,0.00103761,0,
10,8.97596,0.414497,-0.0290614,0.00101327,0,
10,8.97882,0.400513,-0.029062,0.000985991,0,
10,8.98137,0.385839,-0.0290622,0.000954832,0,
10,8.98365,0.370349,-0.0290627,0.000918579,0,
10,8.98569,0.353893,-0.0290627,0.000875967,0,
10,8.9875,0.336285,-0.0290632,0.000824037,0,
10,8.98913,0.317287,-0.0290631,0.000758787,0,
10,8.99058,0.296676,-0.0290635,0.000681566,0,
10,8.99188,0.274298,-0.0290632,0.000590599,0,
10,8.99304,0.249993,-0.0290637,0.000477847,0,
10,8.99408,0.223701,-0.0290633,0.000350971,0,
10,8.99501,0.195778,-0.0290639,0.000224095,0,
10,8.99583,0.167126,-0.0290634,0.000119082,0,
10,8.99658,0.139016,-0.029064,5.125e-05,0,
10,8.99724,0.112579,-0.0290634,1.77144e-05,0,
10,8.99784,0.0884148,-0.029064,4.87075e-06,0,
10,8.99837,0.0666404,-0.0290633,1.02196e-06,0,
10,8.99885,0.0471235,-0.0290641,1.46435e-07,0,
10,8.99927,0.029653,-0.0290633,1.11191e-08,0,
10,8.99966,0.0140135,-0.0290643,2.46042e-10,0,
10,0,0,0.027729,0,0,
10,9,0,-0.0290632,0,0,

0.004,0,0,-0.2352,0,2.98677e-07,
0.00868226,0,0,-0.235212,0,2.11587e-07,
0.014062,0,0,-0.235202,0,1.81445e-07,
0.0201548,0,0,-0.235208,0,1.03374e-06,
0.0269766,0,0,-0.235199,0,2.77363e-06,
0.0345437,0,0,-0.235203,0,5.95463e-06,
0.0428729,0,0,-0.235198,0,1.03897e-05,
0.051981,0,0,-0.235204,0,1.61573e-05,
0.0618853,0,0,-0.235209,0,2.26991e-05,
0.0726036,0,0,-0.235225,0,2.95877e-05,
0.0841536,0,0,-0.235245,0,3.60531e-05,
0.0965535,0,0,-0.235273,0,4.161e-05,
0.109822,0,0,-0.235305,0,4.58194e-05,
0.123977,0,0,-0.235343,0,4.86139e-05,
0.139037,0,0,-0.235382,0,5.00586e-05,
0.155022,0,0,-0.235425,0,5.04108e-05,
0.171949,0,0,-0.235469,0,4.99336e-05,
0.189839,0,0,-0.235517,0,4.88875e-05,
0.208709,0,0,-0.235568,0,4.74447e-05,
0.228579,0,0,-0.235626,0,4.57133e-05,
0.249467,0,0,-0.23569,0,4.37484e-05,
0.271391,0,0,-0.235764,0,4.15998e-05,
0.29437,0,0,-0.235847,0,3.93352e-05,
0.31842,0,0,-0.235943,0,3.70514e-05,
0.343559,0,0,-0.236053,0,3.48605e-05,
0.369804,0,0,-0.23618,0,3.28635e-05,
0.39717,0,0,-0.236326,0,3.11165e-05,
0.425672,0,0,-0.236494,0,2.95989e-05,
0.455324,0,0,-0.23669,0,2.81917e-05,
0.48614,0,0,-0.236917,0,2.6671e-05,
0.518132,0,0,-0.237181,0,2.47159e-05,
0.551309,0,0,-0.237487,0,2.19252e-05,
0.585683,0,0,-0.237841,0,1.78362e-05,
0.621259,0,0,-0.23825,0,1.19405e-05,
0.658046,0,0,-0.23872,0,3.69865e-06,
0.696047,0,0,-0.239259,0,-7.44494e-06,
0.735265,0,0,-0.239872,0,-2.20402e-05,
0.7757,0,0,-0.240566,0,-4.06043e-05,
0.817352,0,0,-0.241343,0,-6.35908e-05,
0.860215,0,0,-0.242206,0,-9.13595e-05,
0.904285,0,0,-0.243154,0,-0.000124154,
0.949552,0,0,-0.244183,0,-0.000162094,
0.996004,0,0,-0.245285,0,-0.000205179,
1.04363,0,0,-0.246451,0,-0.000253304,
1.09241,0,0,-0.247665,0,-0.000306277,
1.14232,0,0,-0.24891,0,-0.000363841,
1.19335,0,0,-0.250167,0,-0.000425682,
1.24546,0,0,-0.251412,0,-0.000491436,
1.29863,0,0,-0.252618,0,-0.000560682,
1.35283,0,0,-0.253756,0,-0.000632939,
1.40802,0,0,-0.254796,0,-0.000707659,
1.46416,0,0,-0.255706,0,-0.000784228,
1.52121,0,0,-0.256453,0,-0.000861972,
1.57913,0,0,-0.257004,0,-0.000940171,
1.63787,0,0,-0.25733,0,-0.00101808,
1.69739,0,0,-0.257401,0,-0.00109495,
1.75761,0,0,-0.257193,0,-0.00117007,
1.81851,0,0,-0.256685,0,-0.00124275,
1.88,0,0,-0.255861,0,-0.00131239,
1.94204,0,0,-0.254708,0,-0.00137845,
2.00457,0,0,-0.253221,0,-0.00144048,
2.06751,0,0,-0.251397,0,-0.00149811,
2.13081,0,0,-0.249238,0,-0.00155106,
2.19439,0,0,-0.246752,0,-0.0015991,
2.25819,0,0,-0.243947,0,-0.00164211,
2.32214,0,0,-0.240836,0,-0.00167998,
2.38617,0,0,-0.237436,0,-0.00171266,
2.4502,0,0,-0.233763,0,-0.00174012,
2.51418,0,0,-0.229837,0,-0.00176239,
2.57803,0,0,-0.225681,0,-0.00177953,
2.64167,0,0,-0.221317,0,-0.00179165,
2.70505,0,0,-0.21677,0,-0.00179889,
2.76808,0,0,-0.212065,0,-0.00180143,
2.83072,0,0,-0.207228,0,-0.00179947,
2.89288,0,0,-0.202285,0,-0.00179325,
2.95451,0,0,-0.197259,0,-0.00178301,
3.01555,0,0,-0.192176,0,-0.00176903,
3.07594,0,0,-0.187059,0,-0.00175161,
3.13561,0,0,-0.18193,0,-0.00173102,
3.19453,0,0,-0.17681,0,-0.00170759,
3.25262,0,0,-0.171718,0,-0.0016816,
3.30985,0,0,-0.166671,0,-0.00165336,
3.36617,0,0,-0.161687,0,-0.00162314,
3.42154,0,0,-0.156777,0,-0.00159122,
3.47591,0,0,-0.151957,0,-0.00155786,
3.52925,0,0,-0.147235,0,-0.0015233,
3.58152,0,0,-0.142623,0,-0.00148781,
3.6327,0,0,-0.138127,0,-0.00145161,
3.68276,0,0,-0.133755,0,-0.00141491,
3.73167,0,0,-0.129512,0,-0.00137791,
3.77941,0,0,-0.1254,0,-0.00134078,
3.82596,0,0,-0.121424,0,-0.00130367,
3.8713,0,0,-0.117585,0,-0.00126674,
3.91543,0,0,-0.113881,0,-0.00122997,
3.95833,0,0,-0.110334,0,-0.00119385,
4,0,0,-0.1069,0,-0.00115804,
4.04167,0,0,-0.103511,0,-0.00112176,
4.08333,0,0,-0.100163,0,-0.00108513,
4.125,0,0,-0.0968547,0,-0.00104815,
4.16667,0,0,-0.0935872,0,-0.0010108,
4.20833,0,0,-0.090362,0,-0.000973138,
4.25,0,0,-0.0871803,0,-0.000935188,
4.29167,0,0,-0.0840431,0,-0.000896989,
4.33333,0,0,-0.0809513,0,-0.000858577,
4.375,0,0,-0.0779058,0,-0.000819984,
4.41667,0,0,-0.0749073,0,-0.000781239,
4.45833,0,0,-0.0719565,0,-0.000742374,
4.5,0,0,-0.069054,0,-0.000703416,
4.54167,0,0,-0.0662002,0,-0.000664391,
4.58333,0,0,-0.0633956,0,-0.000625325,
4.625,0,0,-0.0606405,0,-0.000586241,
4.66667,0,0,-0.0579352,0,-0.000547159,
4.70833,0,0,-0.0552799,0,-0.000508101,
4.75,0,0,-0.0526749,0,-0.000469091,
4.79167,0,0,-0.0501204,0,-0.000430152,
4.83333,0,0,-0.0476162,0,-0.000391304,
4.875,0,0,-0.0451626,0,-0.000352568,
4.91667,0,0,-0.0427593,0,-0.000313961,
4.95833,0,0,-0.0404065,0,-0.000275501,
5,0,0,-0.0381038,0,-0.000237204,
5.04167,0,0,-0.0358511,0,-0.000199085,
5.08333,0,0,-0.0336483,0,-0.000161158,
5.125,0,0,-0.0314952,0,-0.000123439,
5.16667,0,0,-0.0293913,0,-8.59411e-05,
5.20833,0,0,-0.0273366,0,-4.868e-05,
5.25,0,0,-0.0253305,0,-1.16705e-05,
5.29167,0,0,-0.0233728,0,2.50732e-05,
5.33333,0,0,-0.0214631,0,6.15376e-05,
5.375,0,0,-0.0196009,0,9.77094e-05,
5.41667,0,0,-0.0177858,0,0.000133576,
5.45833,0,0,-0.0160173,0,0.000169126,
5.5,0,0,-0.0142948,0,0.000204349,
5.54167,0,0,-0.0126178,0,0.000239235,
5.58333,0,0,-0.0109858,0,0.000273776,
5.625,0,0,-0.00939813,0,0.000307961,
5.66667,0,0,-0.00785425,0,0.000341785,
5.70833,0,0,-0.00635354,0,0.000375241,
5.75,0,0,-0.00489538,0,0.000408324,
5.79167,0,0,-0.00347915,0,0.00044103,
5.83333,0,0,-0.00210422,0,0.000473352,
5.875,0,0,-0.000769968,0,0.000505286,
5.91667,0,0,0.000524256,0,0.000536829,
5.95833,0,0,0.0017791,0,0.000567975,
6,0,0,0.0029952,0,0.000598721,
6.04167,0,0,0.00417323,0,0.000629063,
6.08333,0,0,0.00531384,0,0.000658996,
6.125,0,0,0.00641774,0,0.000688517,
6.16667,0,0,0.00748559,0,0.000717621,
6.20833,0,0,0.0085181,0,0.000746306,
6.25,0,0,0.00951598,0,0.000774567,
6.29167,0,0,0.0104799,0,0.000802404,
6.33333,0,0,0.0114107,0,0.000829812,
6.375,0,0,0.012309,0,0.000856791,
6.41667,0,0,0.0131755,0,0.000883339,
6.45833,0,0,0.0140111,0,0.000909456,
6.5,0,0,0.0148164,0,0.000935141,
6.54167,0,0,0.0155922,0,0.000960396,
6.58333,0,0,0.0163392,0,0.000985222,
6.625,0,0,0.0170581,0,0.00100962,
6.66667,0,0,0.0177496,0,0.0010336,
6.70833,0,0,0.0184146,0,0.00105715,
6.75,0,0,0.0190535,0,0.00108029,
6.79167,0,0,0.0196673,0,0.00110301,
6.83333,0,0,0.0202564,0,0.00112533,
6.875,0,0,0.0208215,0,0.00114725,
6.91667,0,0,0.0213634,0,0.00116878,
6.95833,0,0,0.0218826,0,0.00118992,
7,0,0,0.0223799,0,0.00121069,
7.04167,0,0,0.0228559,0,0.00123109,
7.08333,0,0,0.0233111,0,0.00125115,
7.125,0,0,0.023746,0,0.00127085,
7.16667,0,0,0.0241613,0,0.0012902,
7.20833,0,0,0.0245574,0,0.00130921,
7.25,0,0,0.024935,0,0.00132786,
7.29167,0,0,0.0252944,0,0.00134617,
7.33333,0,0,0.0256362,0,0.00136413,
7.375,0,0,0.0259609,0,0.00138174,
7.41667,0,0,0.026269,0,0.00139902,
7.45833,0,0,0.0265609,0,0.00141596,
7.5,0,0,0.0268371,0,0.00143257,
7.54167,0,0,0.0270981,0,0.00144886,
7.58333,0,0,0.0273442,0,0.00146485,
7.625,0,0,0.0275758,0,0.00148053,
7.66667,0,0,0.0277933,0,0.00149592,
7.70833,0,0,0.0279971,0,0.00151103,
7.75,0,0,0.0281873,0,0.00152588,
7.79167,0,0,0.0283644,0,0.00154045,
7.83333,0,0,0.0285278,0,0.00155474,
7.875,0,0,0.0286777,0,0.00156881,
7.91667,0,0,0.0288244,0,0.00158332,
7.95833,0,0,0.0288925,0,0.00159671,
8,0,0,0.0290677,0,0.00161055,
8.04171,0,0,0.0292756,0,0.00162526,
8.08368,0,0,0.0293397,0,0.00163974,
8.12617,0,0,0.0294491,0,0.0016522,
8.16946,0,0,0.0295483,0,0.00166459,
8.21382,0,0,0.029631,0,0.00167692,
8.25952,0,0,0.0297059,0,0.00168918,
8.30685,0,0,0.0297723,0,0.00170156,
8.35611,0,0,0.0298297,0,0.00171413,
8.40762,0,0,0.0298779,0,0.00172698,
8.46168,0,0,0.0299161,0,0.00174015,
8.51865,0,0,0.0299434,0,0.00175367,
8.57889,0,0,0.0299586,0,0.00176758,
8.64276,0,0,0.0299601,0,0.0017819,
8.71067,0,0,0.0299464,0,0.00179665,
8.78306,0,0,0.0299155,0,0.00181185,
8.86037,0,0,0.0298651,0,0.0018275,
8.94309,0,0,0.0297927,0,0.0018436,
9.03174,0,0,0.0296957,0,0.00186015,
9.12689,0,0,0.029571,0,0.00187715,
9.22912,0,0,0.0294155,0,0.00189456,
9.33908,0,0,0.0292258,0,0.00191235,
9.45746,0,0,0.0289988,0,0.00193049,
9.58501,0,0,0.0287311,0,0.00194893,
9.72253,0,0,0.0284191,0,0.00196761,
9.87088,0,0,0.0280595,0,0.00198645,
10.031,0,0,0.0276497,0,0.00200539,
10.2039,0,0,0.0271874,0,0.00202435,
10.3906,0,0,0.0266701,0,0.00204325,
10.5924,0,0,0.0260959,0,0.00206198,
10.8105,0,0,0.0254656,0,0.00208045,
11.0463,0,0,0.0247791,0,0.00209858,
11.3012,0,0,0.0240381,0,0.00211626,
11.5769,0,0,0.0232459,0,0.00213343,
11.8751,0,0,0.0224061,0,0.00214999,
12.1977,0,0,0.021525,0,0.00216588,
12.5466,0,0,0.0206096,0,0.00218105,
12.9242,0,0,0.0196678,0,0.00219545,
13.3327,0,0,0.0187095,0,0.00220907,
13.7748,0,0,0.0177442,0,0.00222188,
14.2532,0,0,0.0167837,0,0.00223389,
14.7709,0,0,0.0158386,0,0.00224513,
15.3312,0,0,0.014919,0,0.00225562,
15.9377,0,0,0.0140361,0,0.00226541,
16.594,0,0,0.0131978,0,0.00227458,
17.3044,0,0,0.0124114,0,0.00228319,
18.0733,0,0,0.011682,0,0.00229131,
18.9056,0,0,0.011011,0,0.00229885,
19.8064,0,0,0.0103986,0,0.00230567,
20.7816,0,0,0.00984167,0,0.00231202,
21.8371,0,0,0.00933306,0,0.00231816,
22.9796,0,0,0.0088636,0,0.00232441,
24.2163,0,0,0.00842095,0,0.00233154,
25.5551,0,0,0.00798945,0,0.00233981,
27.0042,0,0,0.00755387,0,0.00234793,
28.5729,0,0,0.00709973,0,0.00235521,
30.271,0,0,0.00661215,0,0.0023622,
32.1091,0,0,0.00607551,0,0.00236935,
34.0989,0,0,0.00547582,0,0.00237683,
36.2529,0,0,0.00479687,0,0.00238489,
38.5845,0,0,0.00402998,0,0.00239446,
41.1085,0,0,0.00321766,0,0.00240535,
43.8407,0,0,0.00219088,0,0.00241216,
46.7983,0,0,0.00113046,0,0.00241344,
50,0,0,0.00231054,0,0.00242669,

