3a646ac482a7ff4a6aa98d7cc8bf8f19fee94ebf 
X,Z,x_velocity,cp,uw_b,cf,
1,0,0,-0.247959,0,0,
1,9,0,-0.122845,0,0,
1,8.99969,0.0154599,-0.122845,2.96397e-10,0,
1,8.99934,0.0330008,-0.122845,1.38556e-08,0,
1,8.99894,0.052921,-0.122845,1.91142e-07,0,
1,8.99848,0.0755359,-0.122845,1.40123e-06,0,
1,8.99797,0.101158,-0.122845,7.00185e-06,0,
1,8.99739,0.12998,-0.122845,2.64809e-05,0,
1,8.99672,0.161787,-0.122845,7.83133e-05,0,
1,8.99597,0.195603,-0.122845,0.000181573,0,
1,8.99512,0.229729,-0.122845,0.000333677,0,
1,8.99416,0.262469,-0.122845,0.000505509,0,
1,8.99306,0.292838,-0.122844,0.000668043,0,
1,8.99182,0.320776,-0.122844,0.000792399,0,
1,8.99041,0.346492,-0.122844,0.000897406,0,
1,8.98881,0.370139,-0.122843,0.000984088,0,
1,8.98699,0.391941,-0.122843,0.001055,0,
1,8.98494,0.412208,-0.122842,0.00110951,0,
1,8.98261,0.431239,-0.122841,0.00115283,0,
1,8.97996,0.449258,-0.12284,0.00118914,0,
1,8.97696,0.466431,-0.122839,0.00121951,0,
1,8.97356,0.482896,-0.122837,0.0012452,0,
1,8.9697,0.498769,-0.122836,0.00126714,0,
1,8.96533,0.514147,-0.122834,0.00128603,0,
1,8.96038,0.529113,-0.122832,0.00130236,0,
1,8.95476,0.543734,-0.122829,0.00131649,0,
1,8.9484,0.55807,-0.122827,0.00132867,0,
1,8.9412,0.57217,-0.122824,0.00133905,0,
1,8.93303,0.586077,-0.12282,0.00134771,0,
1,8.92379,0.599827,-0.122817,0.00135469,0,
1,8.91333,0.613451,-0.122813,0.00135997,0,
1,8.90149,0.626977,-0.122809,0.00136352,0,
1,8.8881,0.640425,-0.122805,0.00136525,0,
1,8.87295,0.653816,-0.122801,0.00136508,0,
1,8.85584,0.667166,-0.122798,0.0013629,0,
1,8.83651,0.680491,-0.122795,0.0013586,0,
1,8.81469,0.693804,-0.122793,0.00135203,0,
1,8.79007,0.70712,-0.122793,0.00134305,0,
1,8.76232,0.720452,-0.122794,0.00133148,0,
1,8.73107,0.733816,-0.122799,0.00131712,0,
1,8.69591,0.747228,-0.122808,0.00129971,0,
1,8.6564,0.76071,-0.122822,0.00127895,0,
1,8.61206,0.774285,-0.122844,0.00125448,0,
1,8.56236,0.787982,-0.122874,0.00122602,0,
1,8.50675,0.801841,-0.122917,0.00119411,0,
1,8.44464,0.815929,-0.122975,0.00116265,0,
1,8.3754,0.830449,-0.123055,0.00111618,0,
1,8.29839,0.845714,-0.123161,0.00105844,0,
1,8.21296,0.86207,-0.123303,0.00098452,0,
1,8.11843,0.87984,-0.123481,0.000889056,0,
1,8.01417,0.899192,-0.123714,0.000766934,0,
1,7.89956,0.919872,-0.123995,0.000618312,0,
1,7.77403,0.940928,-0.124363,0.000457664,0,
1,7.63711,0.960802,-0.124798,0.000282863,0,
1,7.48842,0.977331,-0.12532,0.000116665,0,
1,7.32773,0.988191,-0.125958,3.3582e-05,0,
1,7.15495,0.992978,-0.126697,4.7471e-06,0,
1,6.97022,0.993741,-0.127558,1.77606e-07,0,
1,6.77388,0.993166,-0.128552,2.27332e-09,0,
1,6.56652,0.992876,-0.129699,1.01843e-08,0,
1,6.34896,0.99321,-0.131014,1.24865e-08,0,
1,6.12229,0.993914,-0.132513,1.43646e-08,0,
1,5.88784,0.994738,-0.134214,1.54439e-08,0,
1,5.64716,0.995605,-0.136132,1.64977e-08,0,
1,5.40194,0.996537,-0.138284,1.79606e-08,0,
1,5.15407,0.997569,-0.140682,1.98082e-08,0,
1,4.90545,0.998716,-0.143334,2.19431e-08,0,
1,4.65805,0.999987,-0.146247,2.43131e-08,0,
1,4.41376,1.00138,-0.149421,2.68018e-08,0,
1,4.17441,1.00287,-0.152851,2.9171e-08,0,
1,3.94163,1.0044,-0.156525,3.13881e-08,0,
1,3.7169,1.00593,-0.160424,3.44144e-08,0,
1,3.50146,1.00762,-0.164523,4.05511e-08,0,
1,3.29629,1.0098,-0.168794,5.15132e-08,0,
1,3.10217,1.01279,-0.173211,6.44568e-08,0,
1,2.91959,1.01615,-0.177745,2.11219e-07,0,
1,2.74885,1.01814,-0.182343,1.71427e-06,0,
1,2.59002,1.01635,-0.186929,-8.89093e-06,0,
1,2.44299,1.00944,-0.191417,-6.02663e-05,0,
1,2.30752,0.997979,-0.195725,-0.00015786,0,
1,2.18321,0.983526,-0.199774,-0.000284702,0,
1,2.06959,0.967674,-0.20358,-0.000397983,0,
1,1.9661,0.951657,-0.207123,-0.000486626,0,
1,1.87215,0.936304,-0.210354,-0.000566309,0,
1,1.78711,0.92202,-0.213297,-0.000634624,0,
1,1.71033,0.908861,-0.215963,-0.000692683,0,
1,1.64119,0.896712,-0.218368,-0.000742651,0,
1,1.57905,0.885411,-0.220533,-0.000787323,0,
1,1.52332,0.874816,-0.22246,-0.000825707,0,
1,1.47342,0.864783,-0.224163,-0.000851275,0,
1,1.42882,0.85519,-0.225674,-0.000877562,0,
1,1.389,0.845975,-0.22701,-0.000902805,0,
1,1.35351,0.837107,-0.228186,-0.000926225,0,
1,1.3219,0.828569,-0.229219,-0.000947555,0,
1,1.29378,0.820355,-0.230123,-0.000966593,0,
1,1.26878,0.812466,-0.230915,-0.000983161,0,
1,1.24659,0.804907,-0.231605,-0.00099739,0,
1,1.22689,0.797678,-0.232205,-0.00100919,0,
1,1.2092,0.790701,-0.232734,-0.00101786,0,
1,1.1932,0.783922,-0.233201,-0.00102513,0,
1,1.1787,0.777306,-0.233613,-0.00103479,0,
1,1.16554,0.770792,-0.233976,-0.00105282,0,
1,1.15357,0.764263,-0.234296,-0.00108976,0,
1,1.14266,0.757534,-0.234582,-0.00116145,0,
1,1.13268,0.750335,-0.234841,-0.00128851,0,
1,1.12354,0.742322,-0.235084,-0.00149411,0,
1,1.11514,0.733138,-0.235321,-0.00179863,0,
1,1.10739,0.722535,-0.23556,-0.00221261,0,
1,1.10022,0.710497,-0.235806,-0.00273008,0,
1,1.09357,0.697269,-0.236059,-0.0033268,0,
1,1.08738,0.683265,-0.236316,-0.00396718,0,
1,1.0816,0.668925,-0.236576,-0.00461571,0,
1,1.07618,0.654614,-0.236836,-0.00524503,0,
1,1.07107,0.640592,-0.237093,-0.00583801,0,
1,1.06626,0.627022,-0.237347,-0.00638598,0,
1,1.06169,0.613992,-0.237597,-0.00688604,0,
1,1.05735,0.601538,-0.237841,-0.00733887,0,
1,1.05321,0.589665,-0.23808,-0.00774689,0,
1,1.04925,0.578357,-0.238313,-0.00811347,0,
1,1.04544,0.567585,-0.238541,-0.00844224,0,
1,1.04177,0.557317,-0.238764,-0.00873678,0,
1,1.03822,0.547519,-0.238982,-0.00900046,0,
1,1.03478,0.538154,-0.239195,-0.00923636,0,
1,1.03144,0.529189,-0.239405,-0.00944807,0,
1,1.02818,0.520591,-0.23961,-0.00963747,0,
1,1.025,0.512326,-0.239811,-0.00980615,0,
1,1.02188,0.504361,-0.240008,-0.00995625,0,
1,1.01882,0.496663,-0.240201,-0.0100894,0,
1,1.01581,0.489204,-0.240389,-0.0102078,0,
1,1.01284,0.481957,-0.240575,-0.0103121,0,
1,1.00988,0.474824,-0.240759,-0.0104049,0,
1,1.00688,0.467711,-0.240944,-0.0104887,0,
1,1.00384,0.460601,-0.24113,-0.010563,0,
1,1.00076,0.453481,-0.241319,-0.0106279,0,
1,0.997615,0.446334,-0.241509,-0.0106834,0,
1,0.99441,0.439142,-0.241702,-0.0107296,0,
1,0.991131,0.431888,-0.241898,-0.0107664,0,
1,0.987768,0.424552,-0.242097,-0.0107936,0,
1,0.984308,0.417113,-0.2423,-0.0108109,0,
1,0.980739,0.409551,-0.242507,-0.010818,0,
1,0.977045,0.401841,-0.242719,-0.0108144,0,
1,0.973211,0.393957,-0.242937,-0.0107995,0,
1,0.969219,0.385874,-0.24316,-0.0107724,0,
1,0.965047,0.377562,-0.243391,-0.0107322,0,
1,0.960675,0.368989,-0.243628,-0.0106779,0,
1,0.956077,0.360122,-0.243874,-0.010608,0,
1,0.951224,0.350927,-0.244128,-0.010521,0,
1,0.946088,0.341364,-0.244392,-0.0104151,0,
1,0.940633,0.331393,-0.244665,-0.0102882,0,
1,0.934823,0.320971,-0.244949,-0.0101381,0,
1,0.928616,0.310053,-0.245243,-0.00996192,0,
1,0.921967,0.298588,-0.245548,-0.00975682,0,
1,0.914826,0.286525,-0.245863,-0.00951953,0,
1,0.907141,0.273805,-0.246188,-0.00924611,0,
1,0.898852,0.260368,-0.246521,-0.00892901,0,
1,0.889898,0.246154,-0.246864,-0.00856572,0,
1,0.880212,0.231123,-0.247218,-0.00815231,0,
1,0.869723,0.215269,-0.247582,-0.00768934,0,
1,0.858358,0.198628,-0.247955,-0.00717782,0,
1,0.846039,0.181275,-0.248335,-0.00661944,0,
1,0.83269,0.163325,-0.248717,-0.00602042,0,
1,0.818232,0.144939,-0.249095,-0.00539401,0,
1,0.802744,0.1265,-0.249454,-0.00476077,0,
1,0.78635,0.108425,-0.249796,-0.00413985,0,
1,0.768969,0.0909021,-0.250108,-0.00354932,0,
1,0.75053,0.0741405,-0.250389,-0.00300655,0,
1,0.730977,0.0583543,-0.250631,-0.00252664,0,
1,0.710271,0.0437214,-0.250826,-0.00212064,0,
1,0.688397,0.0303387,-0.250967,-0.00179359,0,
1,0.66536,0.0181867,-0.251046,-0.00154306,0,
1,0.641194,0.00713702,-0.251061,-0.00135928,0,
1,0.615961,-0.00298991,-0.251011,-0.00123078,0,
1,0.589754,-0.0123697,-0.2509,-0.00114819,0,
1,0.562692,-0.0211741,-0.250736,-0.00109275,0,
1,0.534925,-0.0295454,-0.250528,-0.00105554,0,
1,0.506624,-0.0375686,-0.250286,-0.00102761,0,
1,0.477982,-0.0452811,-0.250017,-0.00100325,0,
1,0.449206,-0.0526871,-0.249728,-0.00097833,0,
1,0.420509,-0.0597713,-0.249426,-0.000950165,0,
1,0.392107,-0.0665089,-0.249121,-0.000917073,0,
1,0.364206,-0.0728724,-0.248821,-0.000878161,0,
1,0.337003,-0.0788359,-0.248533,-0.000833162,0,
1,0.310673,-0.0843779,-0.248266,-0.000782304,0,
1,0.28537,-0.0894824,-0.248024,-0.000726195,0,
1,0.26122,-0.09414,-0.247812,-0.000665711,0,
1,0.238324,-0.0983473,-0.247634,-0.0006019,0,
1,0.21675,-0.102106,-0.24749,-0.000535889,0,
1,0.196544,-0.105423,-0.24738,-0.000468809,0,
1,0.177724,-0.108309,-0.247302,-0.000401755,0,
1,0.160284,-0.110776,-0.247253,-0.000335732,0,
1,0.144202,-0.112839,-0.247231,-0.000271619,0,
1,0.129436,-0.114512,-0.24723,-0.000210161,0,
1,0.115935,-0.115809,-0.247248,-0.000151965,0,
1,0.103636,-0.116746,-0.247279,-9.75023e-05,0,
1,0.0924701,-0.117333,-0.247322,-4.71221e-05,0,
1,0.0823633,-0.117581,-0.247372,-1.06708e-06,0,
1,0.0732406,-0.117496,-0.247426,4.05094e-05,0,
1,0.0650269,-0.117081,-0.247482,7.7524e-05,0,
1,0.057648,-0.116337,-0.247538,0.000109944,0,
1,0.0510323,-0.115258,-0.247593,0.000137767,0,
1,0.0451115,-0.113832,-0.247646,0.000161,0,
1,0.0398209,-0.112041,-0.247694,0.000179639,0,
1,0.0351001,-0.109859,-0.247738,0.000193636,0,
1,0.0308929,-0.107249,-0.247779,0.000202884,0,
1,0.0271475,-0.104163,-0.247813,0.000207193,0,
1,0.0238164,-0.10054,-0.247844,0.000206266,0,
1,0.0208562,-0.0963095,-0.247869,0.0001997,0,
1,0.0182274,-0.0913887,-0.247891,0.000187036,0,
1,0.0158944,-0.0856995,-0.247908,0.000167906,0,
1,0.0138249,-0.0791882,-0.247922,0.000142408,0,
1,0.0119898,-0.071869,-0.247931,0.000111776,0,
1,0.0103632,-0.0638828,-0.247939,7.91445e-05,0,
1,0.00892169,-0.0555416,-0.247942,4.93639e-05,0,
1,0.00764438,-0.0472936,-0.247947,2.68089e-05,0,
1,0.00651264,-0.0395788,-0.247948,1.27581e-05,0,
1,0.00550983,-0.03268,-0.247951,5.41806e-06,0,
1,0.00462115,-0.0266861,-0.24795,2.08965e-06,0,
1,0.00383341,-0.0215544,-0.247953,7.37394e-07,0,
1,0.0031349,-0.0171849,-0.247952,2.36592e-07,0,
1,0.00251518,-0.0134662,-0.247955,6.75529e-08,0,
1,0.00196502,-0.0102952,-0.247953,1.64792e-08,0,
1,0.00147619,-0.00758293,-0.247956,3.19788e-09,0,
1,0.00104139,-0.00525447,-0.247953,4.33253e-10,0,
1,0.000654158,-0.00324769,-0.247958,3.14904e-11,0,
1,0.000308731,-0.00151093,-0.247953,6.73233e-13,0,

4,0,0,-0.100619,0,0,
4,9,0,-0.0906981,0,0,
4,8.99969,0.0143267,-0.0906978,2.32466e-10,0,
4,8.99934,0.0305242,-0.090698,1.07855e-08,0,
4,8.99894,0.0488554,-0.0906978,1.47274e-07,0,
4,8.9985,0.0695982,-0.0906979,1.06889e-06,0,
4,8.99799,0.0930339,-0.0906977,5.30378e-06,0,
4,8.99742,0.119361,-0.0906978,2.00657e-05,0,
4,8.99677,0.14848,-0.0906977,6.01155e-05,0,
4,8.99605,0.179677,-0.0906977,0.00014326,0,
4,8.99522,0.211552,-0.0906975,0.000273048,0,
4,8.99429,0.242521,-0.0906974,0.000428603,0,
4,8.99324,0.271486,-0.0906971,0.000583781,0,
4,8.99205,0.298196,-0.0906969,0.000709034,0,
4,8.9907,0.322808,-0.0906964,0.000812395,0,
4,8.98919,0.345478,-0.0906959,0.000899323,0,
4,8.98747,0.366397,-0.0906952,0.000971686,0,
4,8.98553,0.385844,-0.0906945,0.00102799,0,
4,8.98334,0.404092,-0.0906935,0.00107414,0,
4,8.98087,0.42135,-0.0906924,0.00111324,0,
4,8.97807,0.437779,-0.090691,0.00114661,0,
4,8.97491,0.453516,-0.0906894,0.00117554,0,
4,8.97134,0.468677,-0.0906875,0.00120098,0,
4,8.96731,0.483359,-0.0906853,0.00122366,0,
4,8.96276,0.497646,-0.0906827,0.00124409,0,
4,8.95762,0.511608,-0.0906797,0.00126264,0,
4,8.95182,0.525306,-0.0906763,0.00127958,0,
4,8.94526,0.538795,-0.0906724,0.00129506,0,
4,8.93787,0.552119,-0.0906679,0.00130915,0,
4,8.92952,0.565318,-0.0906628,0.00132188,0,
4,8.92011,0.578427,-0.0906572,0.00133319,0,
4,8.90949,0.591476,-0.0906509,0.001343,0,
4,8.89751,0.604489,-0.0906439,0.00135116,0,
4,8.88402,0.617487,-0.0906363,0.00135751,0,
4,8.86881,0.630489,-0.090628,0.00136187,0,
4,8.85169,0.643507,-0.0906191,0.00136402,0,
4,8.83242,0.656554,-0.0906096,0.00136374,0,
4,8.81074,0.669637,-0.0905997,0.00136083,0,
4,8.78637,0.682765,-0.0905895,0.00135505,0,
4,8.75901,0.695943,-0.0905793,0.0013462,0,
4,8.7283,0.709178,-0.0905695,0.00133405,0,
4,8.69387,0.722477,-0.0905603,0.00131839,0,
4,8.65533,0.735848,-0.0905525,0.00129896,0,
4,8.61222,0.749305,-0.0905464,0.00127541,0,
4,8.56407,0.762861,-0.0905436,0.00124731,0,
4,8.5104,0.776534,-0.0905441,0.0012144,0,
4,8.45065,0.790352,-0.0905512,0.00117948,0,
4,8.38429,0.804419,-0.0905675,0.00113901,0,
4,8.31073,0.818982,-0.090596,0.00108664,0,
4,8.22941,0.834381,-0.0906396,0.00102141,0,
4,8.13974,0.850981,-0.0907015,0.000939016,0,
4,8.04115,0.869095,-0.0907802,0.000834627,0,
4,7.93313,0.888799,-0.0908813,0.000706279,0,
4,7.81519,0.90964,-0.0909955,0.000558981,0,
4,7.68693,0.930342,-0.0911367,0.00041111,0,
4,7.54803,0.948975,-0.0912927,0.000276223,0,
4,7.39831,0.963546,-0.0914765,0.000133236,0,
4,7.23771,0.972706,-0.0917057,4.72987e-05,0,
4,7.06634,0.976745,-0.0919671,9.94717e-06,0,
4,6.88453,0.977478,-0.0922634,4.15182e-07,0,
4,6.69275,0.97695,-0.0925892,-2.9013e-07,0,
4,6.49173,0.976431,-0.0929492,-4.67443e-08,0,
4,6.28238,0.976293,-0.0933483,1.3328e-08,0,
4,6.06579,0.976432,-0.093791,1.12704e-08,0,
4,5.84328,0.97667,-0.0942796,6.77142e-09,0,
4,5.61626,0.976911,-0.0948152,5.0489e-09,0,
4,5.3863,0.977137,-0.0953978,4.61088e-09,0,
4,5.15502,0.977361,-0.0960262,4.69103e-09,0,
4,4.92406,0.9776,-0.0966981,5.01945e-09,0,
4,4.69507,0.977865,-0.0974098,5.45686e-09,0,
4,4.46961,0.978157,-0.0981562,5.78821e-09,0,
4,4.24915,0.978447,-0.0989307,5.65657e-09,0,
4,4.03501,0.978674,-0.0997255,4.81131e-09,0,
4,3.82836,0.978775,-0.100532,3.71418e-09,0,
4,3.63018,0.978783,-0.10134,4.07274e-09,0,
4,3.44125,0.978923,-0.10214,9.15606e-09,0,
4,3.26217,0.979566,-0.102922,6.36613e-08,0,
4,3.09333,0.98094,-0.103676,5.78244e-07,0,
4,2.93497,0.982738,-0.10439,2.1293e-06,0,
4,2.78715,0.984042,-0.105058,1.97609e-06,0,
4,2.64979,0.983725,-0.105673,-7.72311e-06,0,
4,2.52268,0.980987,-0.106231,-3.46331e-05,0,
4,2.40551,0.975613,-0.106727,-8.14541e-05,0,
4,2.29789,0.967907,-0.107159,-0.000145566,0,
4,2.19939,0.958475,-0.107527,-0.000221037,0,
4,2.10949,0.947998,-0.107834,-0.00030092,0,
4,2.02768,0.937087,-0.108086,-0.000379091,0,
4,1.95343,0.926218,-0.108289,-0.000451233,0,
4,1.88618,0.915718,-0.108451,-0.000515015,0,
4,1.82542,0.905789,-0.108578,-0.000569741,0,
4,1.77062,0.896537,-0.108676,-0.000615821,0,
4,1.72128,0.888002,-0.108751,-0.000654269,0,
4,1.67693,0.880181,-0.108806,-0.000686268,0,
4,1.63713,0.873049,-0.108847,-0.000712906,0,
4,1.60144,0.866568,-0.108875,-0.000735038,0,
4,1.56949,0.860695,-0.108895,-0.000753302,0,
4,1.54091,0.855387,-0.108907,-0.000769097,0,
4,1.51537,0.850588,-0.108914,-0.000781988,0,
4,1.49167,0.846094,-0.108917,-0.00079169,0,
4,1.46926,0.841805,-0.108917,-0.000799687,0,
4,1.44801,0.837697,-0.108915,-0.000806299,0,
4,1.42781,0.833748,-0.108911,-0.000811577,0,
4,1.40855,0.829939,-0.108904,-0.000815768,0,
4,1.39015,0.826255,-0.108896,-0.000819211,0,
4,1.37252,0.822677,-0.108887,-0.000822196,0,
4,1.3556,0.819189,-0.108876,-0.000825133,0,
4,1.3393,0.815774,-0.108864,-0.000828503,0,
4,1.32357,0.812412,-0.108851,-0.000833014,0,
4,1.30836,0.809084,-0.108838,-0.000839559,0,
4,1.29362,0.805768,-0.108823,-0.000849035,0,
4,1.2793,0.802437,-0.108808,-0.000862651,0,
4,1.26537,0.799062,-0.108792,-0.000881902,0,
4,1.25179,0.795608,-0.108775,-0.000908591,0,
4,1.23852,0.792034,-0.108758,-0.000944832,0,
4,1.22554,0.788291,-0.108741,-0.000993041,0,
4,1.21282,0.784327,-0.108722,-0.00105588,0,
4,1.20034,0.780082,-0.108702,-0.00113613,0,
4,1.18806,0.775492,-0.108682,-0.00123654,0,
4,1.17599,0.770497,-0.10866,-0.00135951,0,
4,1.16408,0.765041,-0.108637,-0.00150681,0,
4,1.15233,0.759081,-0.108612,-0.00167933,0,
4,1.14073,0.752591,-0.108586,-0.00187677,0,
4,1.12925,0.745564,-0.108559,-0.00209761,0,
4,1.11788,0.738016,-0.108531,-0.00233919,0,
4,1.10661,0.729978,-0.108503,-0.00259788,0,
4,1.09543,0.721495,-0.108473,-0.00286952,0,
4,1.08432,0.71262,-0.108444,-0.00314967,0,
4,1.07328,0.703411,-0.108415,-0.00343399,0,
4,1.0623,0.693923,-0.108386,-0.00371846,0,
4,1.05136,0.68421,-0.108357,-0.00399949,0,
4,1.04044,0.674303,-0.108329,-0.00427418,0,
4,1.0295,0.664229,-0.108301,-0.00454025,0,
4,1.01855,0.654023,-0.108273,-0.00479548,0,
4,1.00757,0.643718,-0.108245,-0.00503777,0,
4,0.996544,0.633342,-0.108217,-0.00526534,0,
4,0.98547,0.622919,-0.10819,-0.00547666,0,
4,0.974334,0.612472,-0.108161,-0.00567071,0,
4,0.963124,0.602018,-0.108136,-0.00586653,0,
4,0.951826,0.591502,-0.108088,-0.00602349,0,
4,0.940428,0.580804,-0.108008,-0.00617317,0,
4,0.928915,0.569831,-0.107925,-0.00633116,0,
4,0.917272,0.558518,-0.107841,-0.00649895,0,
4,0.905481,0.546809,-0.107761,-0.00667765,0,
4,0.893524,0.534653,-0.107687,-0.0068681,0,
4,0.881383,0.522,-0.107618,-0.00707088,0,
4,0.869035,0.508807,-0.107557,-0.00728625,0,
4,0.856459,0.495038,-0.107501,-0.00751411,0,
4,0.843629,0.480666,-0.107452,-0.00775405,0,
4,0.830518,0.465669,-0.107407,-0.00800529,0,
4,0.817097,0.450037,-0.107366,-0.00826676,0,
4,0.803334,0.433764,-0.107329,-0.00853702,0,
4,0.789195,0.41685,-0.107294,-0.00881428,0,
4,0.774643,0.399306,-0.107263,-0.00909625,0,
4,0.759639,0.381158,-0.107238,-0.00938002,0,
4,0.744138,0.36245,-0.107221,-0.00966193,0,
4,0.728096,0.343244,-0.107215,-0.00993733,0,
4,0.711463,0.323618,-0.10722,-0.0101999,0,
4,0.694189,0.303653,-0.107238,-0.010442,0,
4,0.676218,0.283421,-0.107269,-0.0106571,0,
4,0.657495,0.262988,-0.107313,-0.0108397,0,
4,0.637962,0.2424,-0.107369,-0.0109857,0,
4,0.617561,0.221675,-0.107432,-0.0110915,0,
4,0.596848,0.201374,-0.107491,-0.0111517,0,
4,0.576557,0.182135,-0.107538,-0.0111653,0,
4,0.556564,0.163773,-0.10757,-0.0111348,0,
4,0.536763,0.146148,-0.107595,-0.0110612,0,
4,0.517057,0.129216,-0.107643,-0.0109453,0,
4,0.497368,0.113083,-0.107772,-0.0107902,0,
4,0.477632,0.0980147,-0.108063,-0.0106041,0,
4,0.457804,0.0843471,-0.108588,-0.010401,0,
4,0.437857,0.0722945,-0.109367,-0.0101982,0,
4,0.417786,0.06173,-0.110096,-0.0099995,0,
4,0.397605,0.0520695,-0.110225,-0.00944839,0,
4,0.377348,0.0428273,-0.109972,-0.00895704,0,
4,0.357066,0.0338868,-0.109758,-0.00850947,0,
4,0.336828,0.0252547,-0.109505,-0.00805303,0,
4,0.316717,0.0169476,-0.109222,-0.00759189,0,
4,0.296825,0.00898498,-0.108909,-0.00712727,0,
4,0.27725,0.00138381,-0.108566,-0.00666242,0,
4,0.258095,-0.00584234,-0.108193,-0.00620079,0,
4,0.239458,-0.012684,-0.107795,-0.0057458,0,
4,0.221432,-0.0191364,-0.107374,-0.00530076,0,
4,0.2041,-0.0251987,-0.106935,-0.0048687,0,
4,0.187537,-0.0308745,-0.106486,-0.00445233,0,
4,0.171798,-0.0361709,-0.106031,-0.00405391,0,
4,0.156928,-0.0410979,-0.105577,-0.00367525,0,
4,0.142956,-0.045668,-0.105131,-0.00331766,0,
4,0.129894,-0.0498953,-0.104697,-0.002982,0,
4,0.117744,-0.0537951,-0.104282,-0.00266867,0,
4,0.106492,-0.0573833,-0.103888,-0.00237768,0,
4,0.0961173,-0.0606761,-0.103519,-0.0021087,0,
4,0.0865883,-0.0636896,-0.103176,-0.0018611,0,
4,0.0778675,-0.0664395,-0.102861,-0.00163407,0,
4,0.0699123,-0.0689407,-0.102574,-0.00142658,0,
4,0.062677,-0.0712077,-0.102314,-0.00123755,0,
4,0.056114,-0.0732537,-0.102081,-0.00106577,0,
4,0.0501747,-0.0750911,-0.101873,-0.000910049,0,
4,0.0448114,-0.076731,-0.101689,-0.000769171,0,
4,0.039977,-0.0781834,-0.101527,-0.000641953,0,
4,0.0356266,-0.0794566,-0.101384,-0.000527255,0,
4,0.0317171,-0.0805577,-0.10126,-0.000423998,0,
4,0.0282081,-0.0814918,-0.101153,-0.000331172,0,
4,0.0250617,-0.0822619,-0.101059,-0.000247845,0,
4,0.0222427,-0.0828683,-0.100979,-0.000173173,0,
4,0.0197189,-0.0833082,-0.100911,-0.000106408,0,
4,0.0174603,-0.0835746,-0.100853,-4.6914e-05,0,
4,0.0154398,-0.0836544,-0.100804,5.81583e-06,0,
4,0.0136326,-0.0835268,-0.100762,5.21149e-05,0,
4,0.0120162,-0.083159,-0.100728,9.20739e-05,0,
4,0.0105703,-0.0825011,-0.1007,0.000125413,0,
4,0.00927657,-0.0814772,-0.100678,0.000151263,0,
4,0.00811839,-0.0799728,-0.10066,0.000167831,0,
4,0.0070809,-0.0778201,-0.100647,0.000172113,0,
4,0.0061507,-0.0747927,-0.100637,0.000160453,0,
4,0.00531578,-0.0706444,-0.100632,0.000131567,0,
4,0.00456537,-0.0652402,-0.100627,9.14937e-05,0,
4,0.00388979,-0.0587305,-0.100626,5.29267e-05,0,
4,0.00328037,-0.0515481,-0.100624,2.56236e-05,0,
4,0.00272934,-0.0441696,-0.100625,1.05604e-05,0,
4,0.0022297,-0.03692,-0.100622,3.72544e-06,0,
4,0.00177519,-0.029957,-0.100624,1.10089e-06,0,
4,0.00136016,-0.0233338,-0.100621,2.56399e-07,0,
4,0.000979511,-0.0170521,-0.100624,4.14762e-08,0,
4,0.00062865,-0.0110908,-0.10062,3.57101e-09,0,
4,0.000303409,-0.00541901,-0.100624,8.7726e-11,0,

6,0,0,0.00405887,0,0,
6,9,0,-0.0668718,0,0,
6,8.99969,0.0136409,-0.0668715,1.96651e-10,0,
6,8.99934,0.0290226,-0.0668717,9.07531e-09,0,
6,8.99895,0.0463847,-0.0668715,1.23028e-07,0,
6,8.9985,0.0659799,-0.0668716,8.8645e-07,0,
6,8.99801,0.0880669,-0.0668715,4.3738e-06,0,
6,8.99744,0.112841,-0.0668716,1.65256e-05,0,
6,8.99681,0.140257,-0.0668714,4.98329e-05,0,
6,8.99609,0.169752,-0.0668715,0.000120707,0,
6,8.99529,0.20012,-0.0668713,0.000235547,0,
6,8.99438,0.229878,-0.0668712,0.000378977,0,
6,8.99336,0.25789,-0.066871,0.00052677,0,
6,8.9922,0.283774,-0.0668708,0.000651782,0,
6,8.9909,0.307639,-0.0668704,0.000752781,0,
6,8.98944,0.329646,-0.0668701,0.000838644,0,
6,8.98779,0.349958,-0.0668695,0.000910789,0,
6,8.98593,0.368826,-0.066869,0.000967597,0,
6,8.98383,0.386506,-0.0668682,0.00101438,0,
6,8.98147,0.4032,-0.0668673,0.00105418,0,
6,8.97881,0.419064,-0.0668662,0.0010884,0,
6,8.97581,0.434234,-0.0668649,0.00111831,0,
6,8.97244,0.448825,-0.0668633,0.00114492,0,
6,8.96863,0.462933,-0.0668614,0.00116897,0,
6,8.96435,0.476642,-0.0668592,0.001191,0,
6,8.95953,0.490025,-0.0668566,0.00121144,0,
6,8.95409,0.503145,-0.0668536,0.00123056,0,
6,8.94798,0.516057,-0.06685,0.00124855,0,
6,8.94109,0.52881,-0.0668459,0.00126552,0,
6,8.93334,0.541447,-0.0668412,0.00128149,0,
6,8.92463,0.554006,-0.0668357,0.00129642,0,
6,8.91482,0.566521,-0.0668293,0.00131023,0,
6,8.90379,0.57902,-0.0668221,0.00132275,0,
6,8.89139,0.591529,-0.0668139,0.00133381,0,
6,8.87746,0.604068,-0.0668046,0.00134315,0,
6,8.86181,0.616656,-0.0667941,0.00135052,0,
6,8.84423,0.629306,-0.0667823,0.00135562,0,
6,8.82452,0.642027,-0.0667692,0.00135815,0,
6,8.80241,0.654828,-0.0667545,0.0013578,0,
6,8.77763,0.667712,-0.0667381,0.00135427,0,
6,8.74989,0.680682,-0.0667201,0.00134726,0,
6,8.71885,0.693739,-0.0667001,0.00133648,0,
6,8.68417,0.706884,-0.0666783,0.00132165,0,
6,8.64545,0.720119,-0.0666542,0.00130248,0,
6,8.60229,0.733445,-0.0666281,0.00127852,0,
6,8.55423,0.746868,-0.0666,0.0012496,0,
6,8.50082,0.760391,-0.0665684,0.00121564,0,
6,8.44155,0.774037,-0.066535,0.00117825,0,
6,8.37592,0.787896,-0.0665013,0.00113434,0,
6,8.30339,0.80217,-0.0664667,0.00108268,0,
6,8.22344,0.817163,-0.0664319,0.00102002,0,
6,8.13555,0.833252,-0.0663951,0.000942754,0,
6,8.0392,0.850807,-0.066354,0.000846611,0,
6,7.93391,0.870015,-0.066301,0.000729136,0,
6,7.81927,0.890564,-0.0662336,0.000593659,0,
6,7.6949,0.911315,-0.0661347,0.000454581,0,
6,7.56054,0.930405,-0.0660214,0.000325519,0,
6,7.41603,0.946004,-0.0658669,0.000196572,0,
6,7.26132,0.956873,-0.0656847,8.6866e-05,0,
6,7.09653,0.962783,-0.0654796,2.66815e-05,0,
6,6.92195,0.964804,-0.0652321,3.37416e-06,0,
6,6.73802,0.964687,-0.0649428,-1.35817e-06,0,
6,6.5454,0.963913,-0.0646029,-9.40059e-07,0,
6,6.34489,0.963239,-0.0642077,-3.29408e-07,0,
6,6.1375,0.962816,-0.0637516,-1.02372e-07,0,
6,5.92439,0.962536,-0.0632288,-3.81316e-08,0,
6,5.70687,0.962268,-0.062633,-1.88744e-08,0,
6,5.48633,0.961948,-0.0619579,-1.24296e-08,0,
6,5.26426,0.961562,-0.0611974,-1.0543e-08,0,
6,5.04218,0.961119,-0.0603463,-1.04436e-08,0,
6,4.82159,0.960636,-0.0594001,-1.10395e-08,0,
6,4.60398,0.960125,-0.0583558,-1.19999e-08,0,
6,4.39071,0.95958,-0.0572123,-1.34412e-08,0,
6,4.18307,0.958965,-0.0559704,-1.56925e-08,0,
6,3.98218,0.958214,-0.0546337,-1.88847e-08,0,
6,3.78902,0.957284,-0.0532082,-2.2622e-08,0,
6,3.60438,0.956232,-0.051703,-3.12066e-08,0,
6,3.42888,0.955265,-0.0501288,-7.83882e-08,0,
6,3.26296,0.95468,-0.0484976,-2.18806e-07,0,
6,3.10691,0.954676,-0.0468213,-3.85764e-07,0,
6,2.96084,0.955154,-0.0451124,-5.6651e-07,0,
6,2.82473,0.955676,-0.0433862,-1.9618e-06,0,
6,2.69844,0.955618,-0.0416606,-7.79731e-06,0,
6,2.58172,0.954417,-0.039955,-2.20809e-05,0,
6,2.47424,0.951742,-0.038289,-4.75703e-05,0,
6,2.37559,0.947537,-0.0366799,-8.47839e-05,0,
6,2.28535,0.941976,-0.0351423,-0.0001322,0,
6,2.20301,0.935366,-0.0336871,-0.000187012,0,
6,2.1281,0.92806,-0.0323215,-0.000245961,0,
6,2.06009,0.920394,-0.0310493,-0.000305975,0,
6,1.99849,0.912651,-0.0298717,-0.000364571,0,
6,1.9428,0.905048,-0.0287873,-0.000419894,0,
6,1.89255,0.897742,-0.0277935,-0.000470223,0,
6,1.84728,0.890854,-0.0268856,-0.000514587,0,
6,1.80655,0.884444,-0.0260576,-0.000547093,0,
6,1.76996,0.878522,-0.0253028,-0.000572238,0,
6,1.73712,0.873078,-0.0246192,-0.000594947,0,
6,1.70768,0.868071,-0.0239992,-0.000615717,0,
6,1.67998,0.86327,-0.0234142,-0.0006358,0,
6,1.65329,0.858577,-0.0228457,-0.000655275,0,
6,1.62754,0.853985,-0.0222938,-0.000674045,0,
6,1.60265,0.849492,-0.0217568,-0.00069221,0,
6,1.57854,0.845093,-0.0212337,-0.00070982,0,
6,1.55515,0.840782,-0.0207235,-0.000726916,0,
6,1.53242,0.836555,-0.020225,-0.00074356,0,
6,1.5103,0.832404,-0.0197374,-0.000759884,0,
6,1.48874,0.828325,-0.0192597,-0.000776034,0,
6,1.46769,0.824313,-0.0187908,-0.00079217,0,
6,1.44712,0.820371,-0.0183299,-0.000808475,0,
6,1.42698,0.816505,-0.0178758,-0.000825226,0,
6,1.40725,0.812724,-0.0174282,-0.000842534,0,
6,1.38788,0.809032,-0.0169871,-0.000860449,0,
6,1.36886,0.805411,-0.0165547,-0.000878359,0,
6,1.35015,0.801819,-0.016134,-0.000889663,0,
6,1.33173,0.798216,-0.0157201,-0.000903004,0,
6,1.31357,0.794582,-0.0153097,-0.000918219,0,
6,1.29566,0.790902,-0.0149042,-0.000935873,0,
6,1.27797,0.787152,-0.0145027,-0.000957395,0,
6,1.26048,0.783307,-0.0141053,-0.000984462,0,
6,1.24318,0.77933,-0.0137115,-0.00101904,0,
6,1.22605,0.775181,-0.0133215,-0.00106329,0,
6,1.20907,0.770812,-0.0129351,-0.00111953,0,
6,1.19223,0.76617,-0.0125525,-0.00119005,0,
6,1.17551,0.7612,-0.0121737,-0.00127692,0,
6,1.1589,0.755849,-0.011799,-0.0013817,0,
6,1.14238,0.75007,-0.0114284,-0.00150509,0,
6,1.12595,0.743831,-0.0110625,-0.0016466,0,
6,1.10959,0.737121,-0.0107004,-0.00180432,0,
6,1.09329,0.729947,-0.0103454,-0.0019766,0,
6,1.07704,0.722331,-0.00999031,-0.00215777,0,
6,1.06081,0.714278,-0.00963248,-0.00234601,0,
6,1.04459,0.705787,-0.00927915,-0.00254362,0,
6,1.02836,0.69686,-0.00892879,-0.00275006,0,
6,1.01211,0.687493,-0.00858247,-0.00296536,0,
6,0.99583,0.677675,-0.00824038,-0.00319007,0,
6,0.97951,0.66739,-0.00790312,-0.00342505,0,
6,0.963136,0.656619,-0.00757128,-0.00367138,0,
6,0.946694,0.645338,-0.00724554,-0.00393013,0,
6,0.930172,0.633517,-0.00692649,-0.0042023,0,
6,0.913555,0.621121,-0.00661456,-0.00448874,0,
6,0.896829,0.608109,-0.00631,-0.00479011,0,
6,0.879979,0.594442,-0.00601299,-0.00510688,0,
6,0.862989,0.580098,-0.00572414,-0.00543946,0,
6,0.845842,0.56509,-0.00544476,-0.00578873,0,
6,0.828521,0.549477,-0.00517773,-0.00615662,0,
6,0.811008,0.533342,-0.00492473,-0.00653507,0,
6,0.793282,0.51675,-0.00468656,-0.00691589,0,
6,0.775322,0.499755,-0.00446592,-0.00729478,0,
6,0.757107,0.482417,-0.00426618,-0.00766715,0,
6,0.738612,0.464811,-0.00409118,-0.00802774,0,
6,0.719813,0.447035,-0.00394385,-0.00837046,0,
6,0.700681,0.429194,-0.00382462,-0.00868858,0,
6,0.681188,0.41138,-0.0037297,-0.00897527,0,
6,0.661304,0.393653,-0.00365059,-0.00922476,0,
6,0.640996,0.376029,-0.00357534,-0.00943268,0,
6,0.620228,0.358488,-0.00349303,-0.00959522,0,
6,0.598964,0.341006,-0.0034037,-0.00970875,0,
6,0.577166,0.323628,-0.00333226,-0.00977043,0,
6,0.554791,0.306552,-0.00333992,-0.00978035,0,
6,0.531799,0.290185,-0.00352853,-0.0097451,0,
6,0.508144,0.275055,-0.00399261,-0.00967965,0,
6,0.48378,0.261533,-0.00478941,-0.00960253,0,
6,0.459585,0.249957,-0.00542744,-0.00950352,0,
6,0.436695,0.240036,-0.00545005,-0.00893457,0,
6,0.414961,0.23108,-0.00521048,-0.00852868,0,
6,0.394252,0.222872,-0.00501564,-0.00815343,0,
6,0.374445,0.215281,-0.00477652,-0.00778261,0,
6,0.355433,0.208207,-0.0045132,-0.00741858,0,
6,0.337122,0.201571,-0.00423484,-0.00706147,0,
6,0.319433,0.195314,-0.00394534,-0.00671216,0,
6,0.3023,0.189389,-0.00364521,-0.00636895,0,
6,0.28567,0.183757,-0.00333406,-0.00603179,0,
6,0.269507,0.178387,-0.00301228,-0.00570083,0,
6,0.253785,0.173255,-0.00268046,-0.00537633,0,
6,0.238493,0.168339,-0.00233956,-0.00505872,0,
6,0.223631,0.163626,-0.00199093,-0.00474858,0,
6,0.209207,0.159104,-0.00163631,-0.00444661,0,
6,0.195237,0.154764,-0.0012778,-0.00415357,0,
6,0.181744,0.150599,-0.000917836,-0.00387032,0,
6,0.168754,0.146606,-0.000559102,-0.00359769,0,
6,0.156292,0.142779,-0.000204417,-0.00333648,0,
6,0.144384,0.139116,0.000143369,-0.0030874,0,
6,0.133052,0.135613,0.000481497,-0.00285106,0,
6,0.122315,0.132266,0.000807417,-0.0026279,0,
6,0.112183,0.12907,0.00111888,-0.00241822,0,
6,0.102665,0.126022,0.00141403,-0.00222214,0,
6,0.0937597,0.123115,0.00169142,-0.0020396,0,
6,0.0854609,0.120343,0.00195007,-0.00187041,0,
6,0.077757,0.1177,0.00218942,-0.00171423,0,
6,0.0706309,0.115179,0.00240935,-0.00157061,0,
6,0.0640611,0.11277,0.00261006,-0.00143898,0,
6,0.0580229,0.110466,0.00279209,-0.00131873,0,
6,0.0524888,0.108259,0.00295622,-0.00120918,0,
6,0.0474296,0.106138,0.00310339,-0.00110962,0,
6,0.042815,0.104095,0.00323469,-0.00101934,0,
6,0.0386145,0.10212,0.00335129,-0.000937612,0,
6,0.0347975,0.100202,0.00345435,-0.000863724,0,
6,0.0313344,0.0983303,0.00354509,-0.000796983,0,
6,0.0281964,0.0964942,0.00362461,-0.00073672,0,
6,0.0253561,0.0946813,0.00369409,-0.000682289,0,
6,0.0227875,0.0928784,0.00375445,-0.000633068,0,
6,0.0204662,0.0910708,0.00380681,-0.000588455,0,
6,0.0183694,0.0892419,0.00385183,-0.00054786,0,
6,0.016476,0.0873722,0.00389062,-0.00051069,0,
6,0.0147664,0.0854387,0.00392346,-0.000476332,0,
6,0.0132228,0.0834129,0.00395161,-0.000444122,0,
6,0.0118288,0.0812594,0.0039748,-0.0004133,0,
6,0.0105693,0.078933,0.00399463,-0.000382947,0,
6,0.00943073,0.0763751,0.00401013,-0.000351901,0,
6,0.00840063,0.0735105,0.00402345,-0.000318679,0,
6,0.00746774,0.0702448,0.0040328,-0.000281503,0,
6,0.00662185,0.0664694,0.00404106,-0.000238701,0,
6,0.00585371,0.0620827,0.00404558,-0.000189902,0,
6,0.00515491,0.0570414,0.00405018,-0.000137899,0,
6,0.00451788,0.0514288,0.00405139,-8.92081e-05,0,
6,0.00393573,0.0454791,0.00405396,-5.08185e-05,0,
6,0.00340221,0.039498,0.00405346,-2.5572e-05,0,
6,0.00291168,0.0337385,0.00405545,-1.1471e-05,0,
6,0.00245897,0.0283394,0.00405421,-4.60046e-06,0,
6,0.00203939,0.023342,0.00405633,-1.6292e-06,0,
6,0.00164864,0.0187318,0.00405457,-4.92134e-07,0,
6,0.00128281,0.0144695,0.00405712,-1.1842e-07,0,
6,0.000938257,0.0105092,0.00405476,-1.99136e-08,0,
6,0.000611645,0.00680509,0.00405795,-1.78327e-09,0,
6,0.000299862,0.00331514,0.00405479,-4.48081e-11,0,

10,0.000296632,0.0101836,0.0275029,-8.79743e-11,0,
10,0.000596102,0.0204606,0.0275034,-3.26013e-09,0,
10,0.000900397,0.0308991,0.0275029,-3.31388e-08,0,
10,0.00121153,0.0415672,0.0275033,-1.77968e-07,0,
10,0.00153158,0.0525325,0.0275029,-6.64743e-07,0,
10,0.00186264,0.0638597,0.0275032,-1.97066e-06,0,
10,0.00220692,0.0756059,0.0275028,-4.97553e-06,0,
10,0.00256668,0.0878125,0.0275031,-1.11342e-05,0,
10,0.00294431,0.100492,0.0275028,-2.25905e-05,0,
10,0.00334229,0.113613,0.0275029,-4.20712e-05,0,
10,0.00376326,0.12708,0.0275026,-7.23603e-05,0,
10,0.00421,0.140733,0.0275027,-0.000115316,0,
10,0.00468544,0.154349,0.0275024,-0.000170816,0,
10,0.00519274,0.167684,0.0275023,-0.000236347,0,
10,0.00573524,0.180508,0.0275018,-0.000307665,0,
10,0.00631651,0.192642,0.0275015,-0.000380128,0,
10,0.00694041,0.203971,0.0275008,-0.000449871,0,
10,0.00761104,0.214445,0.0275001,-0.000514333,0,
10,0.00833284,0.224059,0.0274989,-0.000572221,0,
10,0.00911058,0.232846,0.0274976,-0.000623202,0,
10,0.0099494,0.240859,0.0274957,-0.000667572,0,
10,0.0108548,0.248164,0.0274936,-0.000705978,0,
10,0.0118329,0.254831,0.0274909,-0.000739236,0,
10,0.0128901,0.260931,0.0274876,-0.000768207,0,
10,0.0140333,0.266529,0.0274836,-0.000793724,0,
10,0.0152702,0.271687,0.0274789,-0.000816557,0,
10,0.0166089,0.27646,0.0274733,-0.000837391,0,
10,0.0180584,0.280898,0.0274668,-0.000856833,0,
10,0.0196282,0.285044,0.0274592,-0.00087541,0,
10,0.0213288,0.288938,0.0274504,-0.000893585,0,
10,0.0231714,0.292613,0.0274403,-0.000911764,0,
10,0.0251682,0.296098,0.0274287,-0.000930313,0,
10,0.0273326,0.29942,0.0274155,-0.000949563,0,
10,0.0296789,0.302602,0.0274004,-0.000969821,0,
10,0.0322227,0.305665,0.0273834,-0.000991381,0,
10,0.0349809,0.308627,0.0273642,-0.00101453,0,
10,0.0379719,0.311505,0.0273426,-0.00103954,0,
10,0.0412155,0.314314,0.0273183,-0.00106671,0,
10,0.0447333,0.317069,0.027291,-0.00109631,0,
10,0.0485489,0.319782,0.0272606,-0.00112867,0,
10,0.0526875,0.322467,0.0272267,-0.00116409,0,
10,0.0571768,0.325134,0.0271889,-0.00120291,0,
10,0.0620466,0.327797,0.027147,-0.00124549,0,
10,0.0673295,0.330467,0.0271006,-0.0012922,0,
10,0.0730607,0.333156,0.0270493,-0.00134348,0,
10,0.0792784,0.335874,0.0269926,-0.00139974,0,
10,0.0860241,0.338635,0.0269303,-0.00146147,0,
10,0.0933428,0.341452,0.0268618,-0.00152919,0,
10,0.101283,0.344337,0.0267868,-0.00160343,0,
10,0.109899,0.347306,0.0267048,-0.0016848,0,
10,0.119247,0.350373,0.0266153,-0.00177393,0,
10,0.12939,0.353556,0.0265181,-0.00187151,0,
10,0.140395,0.356873,0.0264126,-0.00197825,0,
10,0.152337,0.360346,0.0262987,-0.00209493,0,
10,0.165296,0.363995,0.0261759,-0.00222236,0,
10,0.179357,0.367849,0.0260441,-0.00236139,0,
10,0.194615,0.371936,0.025903,-0.00251289,0,
10,0.211171,0.376288,0.0257528,-0.00267775,0,
10,0.229138,0.380945,0.0255934,-0.00285686,0,
10,0.248635,0.38595,0.0254251,-0.00305104,0,
10,0.269793,0.391353,0.0252477,-0.00326107,0,
10,0.292753,0.397214,0.025063,-0.00348756,0,
10,0.317669,0.4036,0.0248683,-0.00372994,0,
10,0.344708,0.410588,0.0246691,-0.00398764,0,
10,0.372405,0.41784,0.0244749,-0.00424731,0,
10,0.399623,0.425084,0.0242911,-0.00449731,0,
10,0.426397,0.432337,0.0241188,-0.00473699,0,
10,0.452757,0.439619,0.023959,-0.00496547,0,
10,0.478735,0.446958,0.023815,-0.00518149,0,
10,0.504358,0.454383,0.0236887,-0.00538404,0,
10,0.529657,0.461934,0.0235823,-0.00557061,0,
10,0.554656,0.469648,0.0234915,-0.00574093,0,
10,0.579382,0.477562,0.0234231,-0.00589335,0,
10,0.603859,0.485708,0.0233391,-0.00606163,0,
10,0.628112,0.494205,0.0233554,-0.00623796,0,
10,0.652163,0.503452,0.0235423,-0.00621171,0,
10,0.676035,0.513885,0.0237231,-0.00616488,0,
10,0.699751,0.525554,0.0238195,-0.00609558,0,
10,0.72333,0.538233,0.0238387,-0.00599784,0,
10,0.746795,0.551595,0.0238024,-0.00586758,0,
10,0.770165,0.565368,0.0237361,-0.00570353,0,
10,0.79346,0.579399,0.023656,-0.00550664,0,
10,0.816699,0.593621,0.0235698,-0.00527909,0,
10,0.839903,0.608003,0.0234784,-0.00502387,0,
10,0.863088,0.622495,0.023379,-0.00474491,0,
10,0.886275,0.636995,0.0232676,-0.00444745,0,
10,0.909481,0.651335,0.0231417,-0.00413828,0,
10,0.932723,0.66529,0.0229978,-0.003838,0,
10,0.956021,0.678645,0.022839,-0.00354863,0,
10,0.97939,0.691296,0.0226718,-0.00326927,0,
10,1.00285,0.703242,0.0224993,-0.00300065,0,
10,1.02641,0.714528,0.0223224,-0.00274407,0,
10,1.0501,0.725193,0.0221401,-0.0025009,0,
10,1.07392,0.735251,0.0219516,-0.00227252,0,
10,1.0979,0.744698,0.0217562,-0.00206029,0,
10,1.12205,0.753523,0.0215536,-0.00186546,0,
10,1.14639,0.761726,0.0213438,-0.00168898,0,
10,1.17093,0.769324,0.0211267,-0.00153131,0,
10,1.19568,0.776361,0.0209024,-0.00139219,0,
10,1.22066,0.782909,0.0206709,-0.00127056,0,
10,1.24589,0.789059,0.0204327,-0.00116468,0,
10,1.27137,0.794912,0.0201885,-0.00107249,0,
10,1.29713,0.800561,0.0199388,-0.000992079,0,
10,1.32317,0.806074,0.0196837,-0.00092187,0,
10,1.34951,0.811488,0.019423,-0.000860628,0,
10,1.37616,0.816811,0.0191563,-0.000807246,0,
10,1.40313,0.822038,0.0188831,-0.000760582,0,
10,1.43043,0.827167,0.0186034,-0.000719427,0,
10,1.45807,0.832205,0.0183173,-0.000682588,0,
10,1.48607,0.83717,0.0180247,-0.000649014,0,
10,1.51444,0.842083,0.0177258,-0.000617881,0,
10,1.54318,0.846959,0.0174204,-0.000588599,0,
10,1.57231,0.851801,0.0171083,-0.000560767,0,
10,1.60184,0.856606,0.0167894,-0.000534105,0,
10,1.63178,0.861364,0.0164635,-0.000508401,0,
10,1.66213,0.866063,0.0161307,-0.000483493,0,
10,1.69292,0.870692,0.0157907,-0.00045925,0,
10,1.72416,0.875241,0.0154436,-0.000435593,0,
10,1.75585,0.879698,0.0150892,-0.000412482,0,
10,1.78802,0.884048,0.0147276,-0.000389938,0,
10,1.82067,0.888275,0.0143583,-0.000368017,0,
10,1.85383,0.892357,0.0139822,-0.000346823,0,
10,1.88751,0.896275,0.0135979,-0.000326411,0,
10,1.92173,0.900018,0.0132081,-0.000306721,0,
10,1.95652,0.903608,0.012809,-0.000284209,0,
10,1.9919,0.907095,0.012402,-0.000258134,0,
10,2.02791,0.910484,0.0119879,-0.000232208,0,
10,2.06456,0.913736,0.0115658,-0.000205168,0,
10,2.10268,0.916869,0.0111246,-0.000177026,0,
10,2.1443,0.919967,0.010644,-0.000148829,0,
10,2.18977,0.922969,0.010118,-0.000121271,0,
10,2.23946,0.925789,0.00954457,-9.49101e-05,0,
10,2.29376,0.928338,0.0089189,-7.07574e-05,0,
10,2.35309,0.930526,0.00823855,-4.96128e-05,0,
10,2.4179,0.93227,0.00749966,-3.20852e-05,0,
10,2.48863,0.933509,0.00670025,-1.85723e-05,0,
10,2.56575,0.934216,0.0058379,-9.15742e-06,0,
10,2.64971,0.934421,0.00491177,-3.51504e-06,0,
10,2.74098,0.934218,0.00392117,-8.83609e-07,0,
10,2.83997,0.933771,0.00286672,-1.92015e-07,0,
10,2.94709,0.933288,0.00174945,-3.4543e-07,0,
10,3.06269,0.93298,0.000571376,-5.61517e-07,0,
10,3.18706,0.933,-0.000664857,-5.4427e-07,0,
10,3.3204,0.933401,-0.0019554,-3.64774e-07,0,
10,3.46281,0.934123,-0.00329505,-1.84975e-07,0,
10,3.61427,0.93503,-0.00467677,-7.97819e-08,0,
10,3.77463,0.935974,-0.00609162,-3.71851e-08,0,
10,3.94358,0.936847,-0.00752895,-2.37883e-08,0,
10,4.12067,0.937611,-0.00897686,-1.95866e-08,0,
10,4.30525,0.938288,-0.0104228,-1.79331e-08,0,
10,4.49655,0.938923,-0.0118539,-1.75261e-08,0,
10,4.6936,0.939552,-0.0132579,-1.84231e-08,0,
10,4.89531,0.940185,-0.0146228,-2.14341e-08,0,
10,5.10047,0.940811,-0.0159379,-2.87278e-08,0,
10,5.30776,0.941408,-0.0171937,-4.50338e-08,0,
10,5.51581,0.94196,-0.0183823,-8.01577e-08,0,
10,5.72323,0.942466,-0.0194975,-1.56003e-07,0,
10,5.92863,0.942965,-0.0205354,-3.28488e-07,0,
10,6.13069,0.943534,-0.0214931,-7.38339e-07,0,
10,6.32816,0.944261,-0.022371,-1.61145e-06,0,
10,6.51991,0.945106,-0.0231693,-2.71335e-06,0,
10,6.70495,0.945682,-0.0238921,-1.35141e-06,0,
10,6.88244,0.945078,-0.0245395,1.03725e-05,0,
10,7.0517,0.941966,-0.0251173,4.53116e-05,0,
10,7.21224,0.935095,-0.0256206,0.000116108,0,
10,7.3637,0.923919,-0.0260608,0.000229967,0,
10,7.5059,0.908654,-0.0264443,0.000344505,0,
10,7.63878,0.890042,-0.0267592,0.000462781,0,
10,7.76243,0.869595,-0.0270267,0.000589525,0,
10,7.87701,0.849126,-0.0272401,0.000713171,0,
10,7.9828,0.82988,-0.0274168,0.000820693,0,
10,8.08014,0.812281,-0.0275583,0.000909946,0,
10,8.16941,0.7962,-0.0276764,0.000983528,0,
10,8.25106,0.78127,-0.0277744,0.00104523,0,
10,8.32554,0.767103,-0.0278588,0.00109765,0,
10,8.39331,0.753392,-0.0279307,0.00114331,0,
10,8.45484,0.739936,-0.0279929,0.00118364,0,
10,8.5106,0.726636,-0.0280458,0.00121917,0,
10,8.56104,0.713462,-0.0280912,0.00124992,0,
10,8.60659,0.700434,-0.0281298,0.00127584,0,
10,8.64767,0.687585,-0.0281632,0.00129696,0,
10,8.68467,0.674929,-0.0281918,0.00131148,0,
10,8.71795,0.662449,-0.0282162,0.00131915,0,
10,8.74786,0.650131,-0.0282374,0.00132316,0,
10,8.77471,0.637979,-0.0282553,0.00132304,0,
10,8.79881,0.625991,-0.0282707,0.00131928,0,
10,8.8204,0.614163,-0.0282837,0.00131243,0,
10,8.83975,0.602485,-0.0282949,0.00130301,0,
10,8.85708,0.590944,-0.0283043,0.0012915,0,
10,8.87259,0.579522,-0.0283122,0.00127837,0,
10,8.88646,0.568198,-0.0283189,0.00126398,0,
10,8.89886,0.556948,-0.0283245,0.00124868,0,
10,8.90995,0.545745,-0.0283292,0.00123271,0,
10,8.91986,0.534557,-0.0283331,0.00121629,0,
10,8.92872,0.523353,-0.0283363,0.00119954,0,
10,8.93663,0.512097,-0.028339,0.00118254,0,
10,8.94369,0.500751,-0.0283412,0.00116528,0,
10,8.95,0.489274,-0.028343,0.00114774,0,
10,8.95564,0.477622,-0.0283445,0.0011298,0,
10,8.96067,0.465746,-0.0283456,0.00111128,0,
10,8.96517,0.453595,-0.0283467,0.00109192,0,
10,8.96918,0.441107,-0.0283474,0.0010714,0,
10,8.97276,0.428216,-0.0283482,0.00104927,0,
10,8.97596,0.414844,-0.0283486,0.00102499,0,
10,8.97882,0.400901,-0.0283491,0.000997833,0,
10,8.98137,0.386285,-0.0283493,0.000966886,0,
10,8.98365,0.370872,-0.0283498,0.000930972,0,
10,8.98569,0.354519,-0.0283498,0.000888911,0,
10,8.9875,0.337043,-0.0283502,0.000837794,0,
10,8.98913,0.318207,-0.0283501,0.000773198,0,
10,8.99058,0.297783,-0.0283505,0.000696634,0,
10,8.99188,0.275616,-0.0283502,0.000606806,0,
10,8.99304,0.251554,-0.0283507,0.000496595,0,
10,8.99408,0.225452,-0.0283503,0.000364685,0,
10,8.99501,0.197558,-0.0283508,0.000233891,0,
10,8.99583,0.168799,-0.0283504,0.000124927,0,
10,8.99658,0.140487,-0.0283509,5.40051e-05,0,
10,8.99724,0.113803,-0.0283504,1.87221e-05,0,
10,8.99784,0.0893866,-0.028351,5.15588e-06,0,
10,8.99837,0.0673763,-0.0283503,1.08251e-06,0,
10,8.99885,0.0476451,-0.0283511,1.55149e-07,0,
10,8.99927,0.0299817,-0.0283503,1.17818e-08,0,
10,8.99966,0.014169,-0.0283512,2.60715e-10,0,
10,0,0,0.0275035,0,0,
10,9,0,-0.0283502,0,0,

0.004,0,0,-0.236361,0,3.32401e-07,
0.00868226,0,0,-0.236374,0,2.48298e-07,
0.014062,0,0,-0.236363,0,2.34381e-07,
0.0201548,0,0,-0.23637,0,1.22409e-06,
0.0269766,0,0,-0.23636,0,3.19841e-06,
0.0345437,0,0,-0.236364,0,6.76198e-06,
0.0428729,0,0,-0.236359,0,1.16815e-05,
0.051981,0,0,-0.236366,0,1.8014e-05,
0.0618853,0,0,-0.236372,0,2.51117e-05,
0.0726036,0,0,-0.236391,0,3.24854e-05,
0.0841536,0,0,-0.236413,0,3.92914e-05,
0.0965535,0,0,-0.236445,0,4.50233e-05,
0.109822,0,0,-0.23648,0,4.92449e-05,
0.123977,0,0,-0.236521,0,5.19322e-05,
0.139037,0,0,-0.236563,0,5.32035e-05,
0.155022,0,0,-0.236609,0,5.33761e-05,
0.171949,0,0,-0.236656,0,5.27632e-05,
0.189839,0,0,-0.236707,0,5.16633e-05,
0.208709,0,0,-0.236763,0,5.02728e-05,
0.228579,0,0,-0.236825,0,4.8716e-05,
0.249467,0,0,-0.236896,0,4.70599e-05,
0.271391,0,0,-0.236978,0,4.53621e-05,
0.29437,0,0,-0.237072,0,4.36874e-05,
0.31842,0,0,-0.23718,0,4.21096e-05,
0.343559,0,0,-0.237306,0,4.06876e-05,
0.369804,0,0,-0.237453,0,3.94332e-05,
0.39717,0,0,-0.237624,0,3.82789e-05,
0.425672,0,0,-0.237825,0,3.70566e-05,
0.455324,0,0,-0.238058,0,3.54917e-05,
0.48614,0,0,-0.238331,0,3.32113e-05,
0.518132,0,0,-0.238649,0,2.97603e-05,
0.551309,0,0,-0.239019,0,2.46202e-05,
0.585683,0,0,-0.239446,0,1.72278e-05,
0.621259,0,0,-0.23994,0,6.99437e-06,
0.658046,0,0,-0.240505,0,-6.66921e-06,
0.696047,0,0,-0.241147,0,-2.43211e-05,
0.735265,0,0,-0.241872,0,-4.64507e-05,
0.7757,0,0,-0.242681,0,-7.3442e-05,
0.817352,0,0,-0.243574,0,-0.000105546,
0.860215,0,0,-0.244547,0,-0.000142868,
0.904285,0,0,-0.245592,0,-0.000185376,
0.949552,0,0,-0.246701,0,-0.000232923,
0.996004,0,0,-0.247859,0,-0.000285271,
1.04363,0,0,-0.249051,0,-0.000342119,
1.09241,0,0,-0.250255,0,-0.000403124,
1.14232,0,0,-0.251452,0,-0.000467906,
1.19335,0,0,-0.252614,0,-0.000536045,
1.24546,0,0,-0.253716,0,-0.000607075,
1.29863,0,0,-0.254729,0,-0.000680478,
1.35283,0,0,-0.255621,0,-0.000755673,
1.40802,0,0,-0.256362,0,-0.000832025,
1.46416,0,0,-0.25692,0,-0.00090885,
1.52121,0,0,-0.257267,0,-0.000985433,
1.57913,0,0,-0.257375,0,-0.00106105,
1.63787,0,0,-0.257218,0,-0.00113501,
1.69739,0,0,-0.256777,0,-0.00120665,
1.75761,0,0,-0.256034,0,-0.0012754,
1.81851,0,0,-0.254979,0,-0.00134077,
1.88,0,0,-0.253603,0,-0.00140235,
1.94204,0,0,-0.251902,0,-0.00145983,
2.00457,0,0,-0.249877,0,-0.00151293,
2.06751,0,0,-0.24753,0,-0.00156144,
2.13081,0,0,-0.244869,0,-0.00160517,
2.19439,0,0,-0.241903,0,-0.00164399,
2.25819,0,0,-0.238643,0,-0.00167779,
2.32214,0,0,-0.235106,0,-0.00170648,
2.38617,0,0,-0.231308,0,-0.00173005,
2.4502,0,0,-0.22727,0,-0.00174849,
2.51418,0,0,-0.223013,0,-0.0017619,
2.57803,0,0,-0.21856,0,-0.00177039,
2.64167,0,0,-0.213936,0,-0.00177412,
2.70505,0,0,-0.209166,0,-0.00177328,
2.76808,0,0,-0.204274,0,-0.0017681,
2.83072,0,0,-0.199286,0,-0.00175882,
2.89288,0,0,-0.194225,0,-0.00174573,
2.95451,0,0,-0.189117,0,-0.00172911,
3.01555,0,0,-0.183981,0,-0.00170924,
3.07594,0,0,-0.17884,0,-0.00168641,
3.13561,0,0,-0.173714,0,-0.0016609,
3.19453,0,0,-0.168619,0,-0.001633,
3.25262,0,0,-0.163575,0,-0.00160298,
3.30985,0,0,-0.158595,0,-0.00157112,
3.36617,0,0,-0.153693,0,-0.00153772,
3.42154,0,0,-0.148881,0,-0.00150302,
3.47591,0,0,-0.14417,0,-0.00146728,
3.52925,0,0,-0.139568,0,-0.00143072,
3.58152,0,0,-0.135083,0,-0.00139355,
3.6327,0,0,-0.130721,0,-0.00135594,
3.68276,0,0,-0.126486,0,-0.00131809,
3.73167,0,0,-0.122383,0,-0.00128015,
3.77941,0,0,-0.118414,0,-0.00124229,
3.82596,0,0,-0.114581,0,-0.00120466,
3.8713,0,0,-0.110886,0,-0.00116738,
3.91543,0,0,-0.107323,0,-0.00113043,
3.95833,0,0,-0.103915,0,-0.00109426,
4,0,0,-0.100619,0,-0.0010585,
4.04167,0,0,-0.0973693,0,-0.00102237,
4.08333,0,0,-0.0941608,0,-0.000985959,
4.125,0,0,-0.0909923,0,-0.000949278,
4.16667,0,0,-0.0878653,0,-0.000912311,
4.20833,0,0,-0.0847808,0,-0.000875092,
4.25,0,0,-0.0817397,0,-0.000837657,
4.29167,0,0,-0.0787428,0,-0.00080004,
4.33333,0,0,-0.0757909,0,-0.000762268,
4.375,0,0,-0.0728846,0,-0.000724369,
4.41667,0,0,-0.0700246,0,-0.00068637,
4.45833,0,0,-0.0672112,0,-0.000648295,
4.5,0,0,-0.064445,0,-0.000610167,
4.54167,0,0,-0.0617262,0,-0.000572006,
4.58333,0,0,-0.0590553,0,-0.000533835,
4.625,0,0,-0.0564325,0,-0.000495677,
4.66667,0,0,-0.053858,0,-0.000457555,
4.70833,0,0,-0.0513319,0,-0.000419491,
4.75,0,0,-0.0488543,0,-0.000381503,
4.79167,0,0,-0.0464252,0,-0.00034361,
4.83333,0,0,-0.0440446,0,-0.000305827,
4.875,0,0,-0.0417124,0,-0.000268172,
4.91667,0,0,-0.0394285,0,-0.000230658,
4.95833,0,0,-0.0371928,0,-0.000193302,
5,0,0,-0.035005,0,-0.000156117,
5.04167,0,0,-0.0328651,0,-0.000119116,
5.08333,0,0,-0.0307726,0,-8.23141e-05,
5.125,0,0,-0.0287273,0,-4.57244e-05,
5.16667,0,0,-0.026729,0,-9.35969e-06,
5.20833,0,0,-0.0247773,0,2.67678e-05,
5.25,0,0,-0.0228719,0,6.26457e-05,
5.29167,0,0,-0.0210123,0,9.82621e-05,
5.33333,0,0,-0.0191981,0,0.000133606,
5.375,0,0,-0.017429,0,0.000168668,
5.41667,0,0,-0.0157043,0,0.000203439,
5.45833,0,0,-0.0140238,0,0.00023791,
5.5,0,0,-0.0123868,0,0.000272071,
5.54167,0,0,-0.0107929,0,0.000305914,
5.58333,0,0,-0.00924146,0,0.000339431,
5.625,0,0,-0.00773206,0,0.000372613,
5.66667,0,0,-0.00626409,0,0.000405455,
5.70833,0,0,-0.00483698,0,0.00043795,
5.75,0,0,-0.00345015,0,0.000470091,
5.79167,0,0,-0.00210301,0,0.000501873,
5.83333,0,0,-0.000794956,0,0.000533289,
5.875,0,0,0.000474628,0,0.000564336,
5.91667,0,0,0.00170636,0,0.00059501,
5.95833,0,0,0.00290086,0,0.000625306,
6,0,0,0.00405876,0,0.00065522,
6.04167,0,0,0.00518069,0,0.00068475,
6.08333,0,0,0.00626729,0,0.000713891,
6.125,0,0,0.00731922,0,0.000742643,
6.16667,0,0,0.00833711,0,0.000771001,
6.20833,0,0,0.00932162,0,0.000798965,
6.25,0,0,0.0102734,0,0.000826531,
6.29167,0,0,0.0111931,0,0.000853697,
6.33333,0,0,0.0120815,0,0.000880463,
6.375,0,0,0.0129391,0,0.000906826,
6.41667,0,0,0.0137667,0,0.000932786,
6.45833,0,0,0.0145649,0,0.000958341,
6.5,0,0,0.0153344,0,0.000983492,
6.54167,0,0,0.0160759,0,0.00100824,
6.58333,0,0,0.01679,0,0.00103258,
6.625,0,0,0.0174775,0,0.00105652,
6.66667,0,0,0.0181389,0,0.00108006,
6.70833,0,0,0.018775,0,0.0011032,
6.75,0,0,0.0193863,0,0.00112594,
6.79167,0,0,0.0199736,0,0.0011483,
6.83333,0,0,0.0205374,0,0.00117026,
6.875,0,0,0.0210783,0,0.00119185,
6.91667,0,0,0.0215971,0,0.00121306,
6.95833,0,0,0.0220942,0,0.00123392,
7,0,0,0.0225704,0,0.00125442,
7.04167,0,0,0.0230262,0,0.00127458,
7.08333,0,0,0.0234621,0,0.0012944,
7.125,0,0,0.0238786,0,0.00131387,
7.16667,0,0,0.0242762,0,0.001333,
7.20833,0,0,0.0246555,0,0.00135179,
7.25,0,0,0.0250168,0,0.00137024,
7.29167,0,0,0.0253608,0,0.00138834,
7.33333,0,0,0.0256879,0,0.0014061,
7.375,0,0,0.0259985,0,0.00142353,
7.41667,0,0,0.0262932,0,0.00144063,
7.45833,0,0,0.0265723,0,0.0014574,
7.5,0,0,0.0268363,0,0.00147385,
7.54167,0,0,0.0270856,0,0.00148999,
7.58333,0,0,0.0273206,0,0.00150582,
7.625,0,0,0.0275416,0,0.00152137,
7.66667,0,0,0.027749,0,0.00153663,
7.70833,0,0,0.0279431,0,0.00155161,
7.75,0,0,0.0281241,0,0.00156633,
7.79167,0,0,0.0282923,0,0.0015808,
7.83333,0,0,0.0284473,0,0.00159497,
7.875,0,0,0.0285891,0,0.00160893,
7.91667,0,0,0.0287281,0,0.00162334,
7.95833,0,0,0.0287881,0,0.00163663,
8,0,0,0.0289572,0,0.00165042,
8.04171,0,0,0.02916,0,0.00166507,
8.08368,0,0,0.0292179,0,0.00167949,
8.12617,0,0,0.0293212,0,0.00169187,
8.16946,0,0,0.0294149,0,0.00170416,
8.21382,0,0,0.0294918,0,0.00171638,
8.25952,0,0,0.0295612,0,0.00172853,
8.30685,0,0,0.0296221,0,0.00174078,
8.35611,0,0,0.0296741,0,0.00175324,
8.40762,0,0,0.029717,0,0.00176596,
8.46168,0,0,0.0297499,0,0.00177899,
8.51865,0,0,0.0297719,0,0.00179236,
8.57889,0,0,0.0297818,0,0.00180612,
8.64276,0,0,0.029778,0,0.00182027,
8.71067,0,0,0.0297588,0,0.00183483,
8.78306,0,0,0.0297225,0,0.00184981,
8.86037,0,0,0.0296667,0,0.0018652,
8.94309,0,0,0.0295892,0,0.00188102,
9.03174,0,0,0.0294873,0,0.00189725,
9.12689,0,0,0.0293583,0,0.00191387,
9.22912,0,0,0.0291988,0,0.00193087,
9.33908,0,0,0.0290058,0,0.0019482,
9.45746,0,0,0.028776,0,0.00196583,
9.58501,0,0,0.0285062,0,0.00198371,
9.72253,0,0,0.0281932,0,0.00200178,
9.87088,0,0,0.0278334,0,0.00201996,
10.031,0,0,0.0274243,0,0.00203816,
10.2039,0,0,0.0269643,0,0.00205632,
10.3906,0,0,0.0264509,0,0.00207435,
10.5924,0,0,0.0258826,0,0.00209215,
10.8105,0,0,0.0252601,0,0.00210965,
11.0463,0,0,0.024583,0,0.00212675,
11.3012,0,0,0.0238534,0,0.00214337,
11.5769,0,0,0.023075,0,0.00215944,
11.8751,0,0,0.0222509,0,0.00217489,
12.1977,0,0,0.0213871,0,0.00218966,
12.5466,0,0,0.0204908,0,0.00220371,
12.9242,0,0,0.0195695,0,0.00221699,
13.3327,0,0,0.0186328,0,0.00222947,
13.7748,0,0,0.0176903,0,0.00224117,
14.2532,0,0,0.016753,0,0.00225222,
14.7709,0,0,0.015832,0,0.00226301,
15.3312,0,0,0.0149357,0,0.00227378,
15.9377,0,0,0.0140748,0,0.00228415,
16.594,0,0,0.0132577,0,0.00229423,
17.3044,0,0,0.0124894,0,0.00230487,
18.0733,0,0,0.0117742,0,0.00231563,
18.9056,0,0,0.0111128,0,0.00232566,
19.8064,0,0,0.0105043,0,0.00233441,
20.7816,0,0,0.00994814,0,0.00234165,
21.8371,0,0,0.0094378,0,0.00234789,
22.9796,0,0,0.00896378,0,0.00235368,
24.2163,0,0,0.00851549,0,0.0023593,
25.5551,0,0,0.00807951,0,0.00236497,
27.0042,0,0,0.00764149,0,0.00237117,
28.5729,0,0,0.00718438,0,0.00237907,
30.271,0,0,0.00668996,0,0.00238806,
32.1091,0,0,0.00614157,0,0.00239752,
34.0989,0,0,0.00552706,0,0.00240671,
36.2529,0,0,0.00483351,0,0.00241427,
38.5845,0,0,0.00405549,0,0.00242135,
41.1085,0,0,0.00323861,0,0.00242845,
43.8407,0,0,0.00220805,0,0.00243434,
46.7983,0,0,0.00114194,0,0.00243869,
50,0,0,0.00235505,0,0.00245521,

