3ab54e9b7f05abc62c486d68d8a8d211e56abe7d 
X,Z,x_velocity,cp,uw_b,cf,
1,0,0,-0.221894,0,0,
1,9,0,-0.136905,0,0,
1,8.99969,0.0156579,-0.136903,3.02122e-10,0,
1,8.99934,0.0334204,-0.136904,1.41204e-08,0,
1,8.99894,0.0535883,-0.136903,1.94746e-07,0,
1,8.99848,0.0764793,-0.136904,1.42706e-06,0,
1,8.99797,0.102408,-0.136903,7.12525e-06,0,
1,8.99739,0.131564,-0.136904,2.69074e-05,0,
1,8.99672,0.16373,-0.136903,7.93793e-05,0,
1,8.99597,0.197922,-0.136904,0.000183439,0,
1,8.99512,0.232447,-0.136903,0.000335898,0,
1,8.99416,0.26564,-0.136904,0.000506942,0,
1,8.99306,0.296548,-0.136903,0.00066703,0,
1,8.99182,0.325022,-0.136903,0.000795038,0,
1,8.99041,0.351214,-0.136902,0.000901364,0,
1,8.98881,0.375283,-0.136902,0.000989048,0,
1,8.98699,0.397453,-0.136901,0.00106055,0,
1,8.98494,0.418021,-0.136901,0.00111641,0,
1,8.98261,0.437299,-0.1369,0.00115942,0,
1,8.97996,0.455526,-0.136899,0.00119545,0,
1,8.97696,0.472873,-0.136898,0.00122537,0,
1,8.97356,0.489482,-0.136897,0.00125047,0,
1,8.9697,0.505471,-0.136896,0.00127172,0,
1,8.96533,0.520939,-0.136894,0.00128987,0,
1,8.96038,0.535969,-0.136892,0.00130546,0,
1,8.95476,0.550629,-0.13689,0.00131887,0,
1,8.9484,0.564979,-0.136888,0.00133039,0,
1,8.9412,0.57907,-0.136886,0.00134022,0,
1,8.93303,0.592943,-0.136883,0.00134849,0,
1,8.92379,0.606637,-0.13688,0.00135528,0,
1,8.91333,0.620183,-0.136877,0.00136063,0,
1,8.90149,0.63361,-0.136874,0.00136453,0,
1,8.8881,0.646943,-0.136871,0.00136697,0,
1,8.87295,0.660204,-0.136868,0.00136787,0,
1,8.85584,0.673414,-0.136866,0.00136716,0,
1,8.83651,0.686593,-0.136864,0.00136474,0,
1,8.81469,0.69976,-0.136863,0.00136048,0,
1,8.79007,0.712937,-0.136864,0.00135423,0,
1,8.76232,0.726146,-0.136866,0.00134577,0,
1,8.73107,0.739413,-0.136872,0.00133488,0,
1,8.69591,0.752767,-0.136881,0.00132123,0,
1,8.6564,0.766244,-0.136896,0.00130439,0,
1,8.61206,0.779889,-0.136917,0.00128381,0,
1,8.56236,0.793753,-0.136948,0.00125875,0,
1,8.50675,0.807906,-0.13699,0.00122864,0,
1,8.44464,0.82244,-0.137049,0.00119558,0,
1,8.3754,0.837553,-0.137128,0.00115245,0,
1,8.29839,0.853572,-0.137229,0.00108715,0,
1,8.21296,0.870828,-0.137368,0.00100279,0,
1,8.11843,0.889533,-0.137544,0.000893236,0,
1,8.01417,0.909686,-0.137776,0.000753805,0,
1,7.89956,0.930833,-0.138057,0.000587125,0,
1,7.77403,0.951797,-0.13843,0.000414357,0,
1,7.63711,0.970844,-0.138866,0.000229109,0,
1,7.48842,0.985666,-0.139387,8.40782e-05,0,
1,7.32773,0.994371,-0.140023,1.96153e-05,0,
1,7.15495,0.997459,-0.140758,1.77715e-06,0,
1,6.97022,0.997458,-0.141612,1.64712e-08,0,
1,6.77388,0.996833,-0.142595,3.62544e-09,0,
1,6.56652,0.996732,-0.143726,9.77582e-09,0,
1,6.34896,0.997197,-0.145015,1.27243e-08,0,
1,6.12229,0.997924,-0.146474,1.4333e-08,0,
1,5.88784,0.998715,-0.148118,1.51438e-08,0,
1,5.64716,0.999539,-0.149955,1.60899e-08,0,
1,5.40194,1.00043,-0.151993,1.74138e-08,0,
1,5.15407,1.0014,-0.154236,1.90108e-08,0,
1,4.90545,1.00247,-0.156682,2.0772e-08,0,
1,4.65805,1.00364,-0.159325,2.26634e-08,0,
1,4.41376,1.0049,-0.162151,2.4581e-08,0,
1,4.17441,1.00622,-0.165141,2.62261e-08,0,
1,3.94163,1.00755,-0.16827,2.74637e-08,0,
1,3.7169,1.00884,-0.171503,2.89903e-08,0,
1,3.50146,1.01017,-0.174801,3.30638e-08,0,
1,3.29629,1.01184,-0.178125,4.20733e-08,0,
1,3.10217,1.01422,-0.181436,5.37951e-08,0,
1,2.91959,1.01707,-0.184703,9.08386e-08,0,
1,2.74885,1.01892,-0.187878,5.92559e-07,0,
1,2.59002,1.01737,-0.190908,-6.48273e-06,0,
1,2.44299,1.0107,-0.193731,-4.47849e-05,0,
1,2.30752,0.999045,-0.196299,-0.000123351,0,
1,2.18321,0.983876,-0.19858,-0.000231266,0,
1,2.06959,0.966909,-0.200575,-0.000349137,0,
1,1.9661,0.949482,-0.202298,-0.000459715,0,
1,1.87215,0.932481,-0.203777,-0.000552334,0,
1,1.78711,0.91641,-0.20504,-0.000624515,0,
1,1.71033,0.901453,-0.206117,-0.000680076,0,
1,1.64119,0.887571,-0.207034,-0.000724276,0,
1,1.57905,0.874627,-0.207819,-0.000760767,0,
1,1.52332,0.862472,-0.208491,-0.000791524,0,
1,1.47342,0.850982,-0.209068,-0.000818011,0,
1,1.42882,0.840068,-0.209567,-0.000840788,0,
1,1.389,0.829663,-0.210001,-0.000860305,0,
1,1.35351,0.81972,-0.210378,-0.000876966,0,
1,1.3219,0.810207,-0.21071,-0.000891139,0,
1,1.29378,0.801103,-0.211001,-0.000903051,0,
1,1.26878,0.792395,-0.211258,-0.000912924,0,
1,1.24659,0.784076,-0.211484,-0.000921194,0,
1,1.22689,0.776136,-0.211686,-0.000927775,0,
1,1.2092,0.768483,-0.211866,-0.000931656,0,
1,1.1932,0.761063,-0.212028,-0.000933601,0,
1,1.1787,0.753854,-0.212174,-0.000934829,0,
1,1.16554,0.746818,-0.212305,-0.000938021,0,
1,1.15357,0.739881,-0.212423,-0.000948793,0,
1,1.14266,0.732913,-0.212528,-0.000976896,0,
1,1.13268,0.725702,-0.212626,-0.001037,0,
1,1.12354,0.717941,-0.212719,-0.00114796,0,
1,1.11514,0.709248,-0.212815,-0.00133051,0,
1,1.10739,0.699241,-0.212921,-0.00160233,0,
1,1.10022,0.687674,-0.21304,-0.00197136,0,
1,1.09357,0.674557,-0.213174,-0.00242837,0,
1,1.08738,0.660169,-0.213319,-0.0029502,0,
1,1.0816,0.64496,-0.213477,-0.00350534,0,
1,1.07618,0.629414,-0.213642,-0.0040619,0,
1,1.07107,0.613941,-0.213815,-0.0045955,0,
1,1.06626,0.598833,-0.213989,-0.0050906,0,
1,1.06169,0.584273,-0.214164,-0.00554008,0,
1,1.05735,0.570355,-0.214338,-0.00594223,0,
1,1.05321,0.557115,-0.214509,-0.00629872,0,
1,1.04925,0.544548,-0.214675,-0.00661252,0,
1,1.04544,0.532627,-0.214836,-0.00688758,0,
1,1.04177,0.521313,-0.214992,-0.00712858,0,
1,1.03822,0.510561,-0.215139,-0.00733944,0,
1,1.03478,0.500325,-0.21528,-0.00752368,0,
1,1.03144,0.490561,-0.21541,-0.00768425,0,
1,1.02818,0.481228,-0.215532,-0.00782429,0,
1,1.025,0.472288,-0.215642,-0.00794661,0,
1,1.02188,0.463704,-0.215747,-0.00805303,0,
1,1.01882,0.455438,-0.215844,-0.00814524,0,
1,1.01581,0.447461,-0.21593,-0.00822404,0,
1,1.01284,0.43974,-0.216029,-0.00829214,0,
1,1.00988,0.432164,-0.216107,-0.00835235,0,
1,1.00688,0.42463,-0.216195,-0.00840553,0,
1,1.00384,0.417121,-0.216273,-0.00845106,0,
1,1.00076,0.40962,-0.216358,-0.0084895,0,
1,0.997615,0.402108,-0.216433,-0.00852096,0,
1,0.99441,0.394567,-0.216515,-0.00854502,0,
1,0.991131,0.386977,-0.216585,-0.00856172,0,
1,0.987768,0.379318,-0.216668,-0.00857126,0,
1,0.984308,0.371568,-0.216737,-0.00857359,0,
1,0.980739,0.363703,-0.21682,-0.00856788,0,
1,0.977045,0.355698,-0.216894,-0.00855375,0,
1,0.973211,0.347526,-0.21699,-0.00853029,0,
1,0.969219,0.339155,-0.217079,-0.00849702,0,
1,0.965047,0.330551,-0.217194,-0.00845294,0,
1,0.960675,0.321679,-0.217309,-0.00839723,0,
1,0.956077,0.312495,-0.217459,-0.00832729,0,
1,0.951224,0.302958,-0.217615,-0.00824174,0,
1,0.946088,0.293016,-0.217806,-0.00813926,0,
1,0.940633,0.282617,-0.218016,-0.00801754,0,
1,0.934823,0.271703,-0.218267,-0.00787176,0,
1,0.928616,0.26022,-0.218551,-0.00769863,0,
1,0.921967,0.248104,-0.218878,-0.0074953,0,
1,0.914826,0.2353,-0.219249,-0.00725827,0,
1,0.907141,0.221758,-0.219661,-0.00698422,0,
1,0.898852,0.207449,-0.220124,-0.00666914,0,
1,0.889898,0.192361,-0.220619,-0.00631459,0,
1,0.880212,0.176515,-0.221155,-0.00592233,0,
1,0.869723,0.15997,-0.2217,-0.00549866,0,
1,0.858358,0.142829,-0.222256,-0.00504946,0,
1,0.846039,0.125231,-0.222794,-0.00458424,0,
1,0.83269,0.107328,-0.223298,-0.00411234,0,
1,0.818232,0.0892966,-0.223736,-0.00364593,0,
1,0.802744,0.0714797,-0.224089,-0.00319656,0,
1,0.78635,0.0542405,-0.224357,-0.00277119,0,
1,0.768969,0.0377324,-0.224533,-0.00237631,0,
1,0.75053,0.0221788,-0.224619,-0.00201825,0,
1,0.730977,0.00788683,-0.224606,-0.00170174,0,
1,0.710271,-0.00478608,-0.224488,-0.00143031,0,
1,0.688397,-0.0155249,-0.224262,-0.00120496,0,
1,0.66536,-0.0241882,-0.223938,-0.00102223,0,
1,0.641194,-0.0309062,-0.223538,-0.00088043,0,
1,0.615961,-0.0360297,-0.223063,-0.000776767,0,
1,0.589754,-0.0399494,-0.22252,-0.000703457,0,
1,0.562692,-0.0429816,-0.221918,-0.000652269,0,
1,0.534925,-0.0453513,-0.221191,-0.000628586,0,
1,0.506624,-0.0472327,-0.220319,-0.000642807,0,
1,0.477982,-0.0487828,-0.219419,-0.000657769,0,
1,0.449206,-0.0501085,-0.218609,-0.000664668,0,
1,0.420509,-0.0512727,-0.217945,-0.000657459,0,
1,0.392107,-0.0523126,-0.217481,-0.000633425,0,
1,0.364206,-0.0532514,-0.217238,-0.000593363,0,
1,0.337003,-0.0541044,-0.217216,-0.000540268,0,
1,0.310673,-0.0548818,-0.21739,-0.000479258,0,
1,0.28537,-0.055591,-0.2177,-0.000413843,0,
1,0.26122,-0.0562344,-0.218041,-0.000355048,0,
1,0.238324,-0.0568147,-0.218364,-0.000303563,0,
1,0.21675,-0.0573345,-0.21868,-0.000258706,0,
1,0.196544,-0.0577972,-0.219013,-0.000217501,0,
1,0.177724,-0.0582076,-0.219365,-0.000179599,0,
1,0.160284,-0.0585685,-0.219711,-0.000144965,0,
1,0.144202,-0.0588805,-0.220035,-0.000113307,0,
1,0.129436,-0.0591429,-0.22033,-8.44238e-05,0,
1,0.115935,-0.0593535,-0.22059,-5.81333e-05,0,
1,0.103636,-0.059509,-0.220816,-3.42851e-05,0,
1,0.0924701,-0.0596054,-0.221008,-1.27404e-05,0,
1,0.0823633,-0.059638,-0.221171,6.62309e-06,0,
1,0.0732406,-0.0596012,-0.221306,2.39165e-05,0,
1,0.0650269,-0.0594892,-0.221419,3.92431e-05,0,
1,0.057648,-0.0592949,-0.221513,5.26984e-05,0,
1,0.0510323,-0.0590106,-0.22159,6.43671e-05,0,
1,0.0451115,-0.0586271,-0.221653,7.43218e-05,0,
1,0.0398209,-0.0581332,-0.221705,8.26179e-05,0,
1,0.0351001,-0.0575147,-0.221747,8.92892e-05,0,
1,0.0308929,-0.0567534,-0.221781,9.43306e-05,0,
1,0.0271475,-0.0558248,-0.221808,9.76794e-05,0,
1,0.0238164,-0.0546958,-0.221831,9.91882e-05,0,
1,0.0208562,-0.0533211,-0.221848,9.85755e-05,0,
1,0.0182274,-0.0516388,-0.221861,9.53705e-05,0,
1,0.0158944,-0.0495672,-0.221871,8.88872e-05,0,
1,0.0138249,-0.0470076,-0.221879,7.83704e-05,0,
1,0.0119898,-0.0438672,-0.221883,6.36066e-05,0,
1,0.0103632,-0.0401154,-0.221887,4.60028e-05,0,
1,0.00892169,-0.0358608,-0.221888,2.89069e-05,0,
1,0.00764438,-0.0313664,-0.22189,1.57076e-05,0,
1,0.00651264,-0.0269426,-0.221889,7.50301e-06,0,
1,0.00550983,-0.0228157,-0.221891,3.22788e-06,0,
1,0.00462115,-0.0190877,-0.22189,1.27294e-06,0,
1,0.00383341,-0.0157738,-0.221891,4.62191e-07,0,
1,0.0031349,-0.0128471,-0.22189,1.53038e-07,0,
1,0.00251518,-0.0102678,-0.221892,4.51238e-08,0,
1,0.00196502,-0.00799371,-0.22189,1.136e-08,0,
1,0.00147619,-0.00598645,-0.221893,2.27193e-09,0,
1,0.00104139,-0.00421136,-0.22189,3.16643e-10,0,
1,0.000654158,-0.00263914,-0.221893,2.36288e-11,0,
1,0.000308731,-0.00124321,-0.221889,5.17674e-13,0,

4,0,0,-0.177033,0,0,
4,9,0,-0.107839,0,0,
4,8.99969,0.01465,-0.107837,2.45785e-10,0,
4,8.99934,0.0312116,-0.107839,1.14023e-08,0,
4,8.99894,0.0499532,-0.107837,1.5567e-07,0,
4,8.9985,0.0711578,-0.107839,1.12934e-06,0,
4,8.99799,0.0951109,-0.107837,5.59756e-06,0,
4,8.99742,0.122009,-0.107838,2.11252e-05,0,
4,8.99677,0.151737,-0.107837,6.30022e-05,0,
4,8.99605,0.18355,-0.107838,0.000149131,0,
4,8.99522,0.216022,-0.107837,0.000282001,0,
4,8.99429,0.247589,-0.107838,0.000439282,0,
4,8.99324,0.277208,-0.107837,0.000592413,0,
4,8.99205,0.304545,-0.107837,0.000723207,0,
4,8.9907,0.329693,-0.107836,0.000828847,0,
4,8.98919,0.352832,-0.107836,0.00091764,0,
4,8.98747,0.374159,-0.107835,0.000991411,0,
4,8.98553,0.393957,-0.107835,0.00104889,0,
4,8.98334,0.412511,-0.107834,0.0010957,0,
4,8.98087,0.430034,-0.107833,0.0011352,0,
4,8.97807,0.446698,-0.107831,0.00116879,0,
4,8.97491,0.462642,-0.10783,0.0011978,0,
4,8.97134,0.477985,-0.107828,0.00122323,0,
4,8.96731,0.492827,-0.107826,0.00124582,0,
4,8.96276,0.507251,-0.107823,0.00126613,0,
4,8.95762,0.52133,-0.107821,0.00128455,0,
4,8.95182,0.535124,-0.107817,0.00130136,0,
4,8.94526,0.548686,-0.107814,0.00131675,0,
4,8.93787,0.562062,-0.10781,0.00133083,0,
4,8.92952,0.575289,-0.107805,0.00134365,0,
4,8.92011,0.588401,-0.1078,0.0013552,0,
4,8.90949,0.601427,-0.107794,0.00136545,0,
4,8.89751,0.614392,-0.107788,0.00137431,0,
4,8.88402,0.627317,-0.107782,0.00138166,0,
4,8.86881,0.640219,-0.107775,0.00138739,0,
4,8.85169,0.653114,-0.107767,0.00139135,0,
4,8.83242,0.666017,-0.10776,0.00139336,0,
4,8.81074,0.67894,-0.107752,0.00139324,0,
4,8.78637,0.691897,-0.107745,0.00139081,0,
4,8.75901,0.704901,-0.107738,0.00138582,0,
4,8.7283,0.717968,-0.107733,0.00137804,0,
4,8.69387,0.731118,-0.10773,0.00136716,0,
4,8.65533,0.744375,-0.107729,0.0013528,0,
4,8.61222,0.757771,-0.107733,0.00133448,0,
4,8.56407,0.771345,-0.107742,0.00131155,0,
4,8.5104,0.785148,-0.10776,0.00128316,0,
4,8.45065,0.799241,-0.107785,0.00124866,0,
4,8.38429,0.813714,-0.107827,0.00121117,0,
4,8.31073,0.828775,-0.107885,0.00116328,0,
4,8.22941,0.844812,-0.107964,0.00108774,0,
4,8.13974,0.862205,-0.108074,0.000990296,0,
4,8.04115,0.881166,-0.108214,0.000865853,0,
4,7.93313,0.901603,-0.10839,0.000712681,0,
4,7.81519,0.922814,-0.108604,0.0005443,0,
4,7.68693,0.943239,-0.108858,0.000377951,0,
4,7.54803,0.960731,-0.109171,0.000235216,0,
4,7.39831,0.973449,-0.10954,0.000108021,0,
4,7.23771,0.980682,-0.109981,3.30437e-05,0,
4,7.06634,0.983359,-0.110498,5.43564e-06,0,
4,6.88453,0.983526,-0.111083,1.36391e-07,0,
4,6.69275,0.983039,-0.111743,-2.98742e-08,0,
4,6.49173,0.982819,-0.112487,5.0216e-08,0,
4,6.28238,0.983004,-0.113328,3.61423e-08,0,
4,6.06579,0.983422,-0.114274,1.96185e-08,0,
4,5.84328,0.98392,-0.115335,1.33916e-08,0,
4,5.61626,0.98444,-0.116516,1.19585e-08,0,
4,5.3863,0.984985,-0.117825,1.22405e-08,0,
4,5.15502,0.985571,-0.119264,1.32381e-08,0,
4,4.92406,0.986213,-0.120836,1.46504e-08,0,
4,4.69507,0.98692,-0.122541,1.63176e-08,0,
4,4.46961,0.987694,-0.124378,1.80494e-08,0,
4,4.24915,0.988515,-0.126339,1.94337e-08,0,
4,4.03501,0.989322,-0.128418,2.02342e-08,0,
4,3.82836,0.990048,-0.130602,2.09056e-08,0,
4,3.63018,0.990707,-0.132878,2.35109e-08,0,
4,3.44125,0.991493,-0.135227,3.27328e-08,0,
4,3.26217,0.992766,-0.137633,1.08981e-07,0,
4,3.09333,0.99478,-0.140074,8.96413e-07,0,
4,2.93497,0.99728,-0.14253,3.57752e-06,0,
4,2.78715,0.999381,-0.144978,5.57005e-06,0,
4,2.64979,0.999932,-0.147395,8.55109e-07,0,
4,2.52268,0.998039,-0.149749,-1.43788e-05,0,
4,2.40551,0.993375,-0.152009,-4.03996e-05,0,
4,2.29789,0.986172,-0.154144,-7.49398e-05,0,
4,2.19939,0.977015,-0.156136,-0.000114471,0,
4,2.10949,0.966609,-0.157973,-0.000155356,0,
4,2.02768,0.955604,-0.159649,-0.000194657,0,
4,1.95343,0.944521,-0.161169,-0.000230461,0,
4,1.88618,0.933727,-0.162537,-0.000261845,0,
4,1.82542,0.923455,-0.163762,-0.000288639,0,
4,1.77062,0.913834,-0.164856,-0.000311148,0,
4,1.72128,0.904919,-0.165828,-0.000329899,0,
4,1.67693,0.896718,-0.16669,-0.000345489,0,
4,1.63713,0.889211,-0.167453,-0.000358486,0,
4,1.60144,0.88236,-0.168127,-0.000369324,0,
4,1.56949,0.876126,-0.168722,-0.000378206,0,
4,1.54091,0.870469,-0.169246,-0.000386245,0,
4,1.51537,0.865322,-0.169709,-0.000393283,0,
4,1.49167,0.860478,-0.170131,-0.000398566,0,
4,1.46926,0.855832,-0.170525,-0.000403145,0,
4,1.44801,0.851359,-0.170894,-0.00040722,0,
4,1.42781,0.84704,-0.171239,-0.000410657,0,
4,1.40855,0.842857,-0.171563,-0.00041347,0,
4,1.39015,0.838795,-0.171868,-0.000415668,0,
4,1.37252,0.834837,-0.172156,-0.000417283,0,
4,1.3556,0.830968,-0.172429,-0.000418375,0,
4,1.3393,0.827174,-0.172688,-0.000419071,0,
4,1.32357,0.823439,-0.172933,-0.000419559,0,
4,1.30836,0.819744,-0.173167,-0.000420118,0,
4,1.29362,0.816071,-0.17339,-0.000421134,0,
4,1.2793,0.812396,-0.173604,-0.000423119,0,
4,1.26537,0.80869,-0.173808,-0.000426726,0,
4,1.25179,0.804922,-0.174003,-0.000432761,0,
4,1.23852,0.801048,-0.174191,-0.000442192,0,
4,1.22554,0.797022,-0.174371,-0.000456145,0,
4,1.21282,0.792782,-0.174543,-0.000475881,0,
4,1.20034,0.78826,-0.174708,-0.000502748,0,
4,1.18806,0.783375,-0.174865,-0.000538106,0,
4,1.17599,0.778041,-0.175015,-0.000583217,0,
4,1.16408,0.772167,-0.175158,-0.000639104,0,
4,1.15233,0.765665,-0.175293,-0.000706409,0,
4,1.14073,0.758459,-0.17542,-0.000785265,0,
4,1.12925,0.750492,-0.17554,-0.000875212,0,
4,1.11788,0.741732,-0.175652,-0.000975181,0,
4,1.10661,0.73218,-0.175756,-0.00108355,0,
4,1.09543,0.721863,-0.175852,-0.00119833,0,
4,1.08432,0.710835,-0.175941,-0.00131729,0,
4,1.07328,0.699169,-0.176022,-0.0014382,0,
4,1.0623,0.686949,-0.176095,-0.00155914,0,
4,1.05136,0.674262,-0.176161,-0.00167843,0,
4,1.04044,0.661168,-0.176221,-0.00179472,0,
4,1.0295,0.647725,-0.176274,-0.00190723,0,
4,1.01855,0.633997,-0.17632,-0.00201536,0,
4,1.00757,0.620045,-0.17636,-0.00211855,0,
4,0.996544,0.605923,-0.176394,-0.00221634,0,
4,0.98547,0.591679,-0.176421,-0.00230823,0,
4,0.974334,0.577361,-0.176444,-0.0023937,0,
4,0.963124,0.563016,-0.17646,-0.00247261,0,
4,0.951826,0.548688,-0.17647,-0.00254419,0,
4,0.940428,0.534409,-0.176476,-0.0026072,0,
4,0.928915,0.520191,-0.176479,-0.00266105,0,
4,0.917272,0.506035,-0.176478,-0.00270566,0,
4,0.905481,0.49193,-0.176476,-0.00274119,0,
4,0.893524,0.477857,-0.176472,-0.00276802,0,
4,0.881383,0.463792,-0.176468,-0.00278686,0,
4,0.869035,0.449706,-0.176464,-0.00279859,0,
4,0.856459,0.435567,-0.176461,-0.00280439,0,
4,0.843629,0.421336,-0.176459,-0.00280574,0,
4,0.830518,0.406968,-0.176459,-0.00280456,0,
4,0.817097,0.392409,-0.176463,-0.00280325,0,
4,0.803334,0.377595,-0.176471,-0.00280476,0,
4,0.789195,0.362451,-0.176485,-0.00281265,0,
4,0.774643,0.346897,-0.176507,-0.00283139,0,
4,0.759639,0.330852,-0.176541,-0.00286486,0,
4,0.744138,0.314226,-0.176587,-0.00291646,0,
4,0.728096,0.296927,-0.176648,-0.00298987,0,
4,0.711463,0.278867,-0.176733,-0.00308763,0,
4,0.694189,0.260017,-0.176864,-0.00321725,0,
4,0.676218,0.240482,-0.17709,-0.00339403,0,
4,0.657495,0.220461,-0.177456,-0.00364928,0,
4,0.637962,0.199867,-0.177644,-0.00383472,0,
4,0.617561,0.178265,-0.177606,-0.00394957,0,
4,0.596848,0.155945,-0.177652,-0.00414239,0,
4,0.576557,0.133729,-0.177822,-0.00440092,0,
4,0.556564,0.111805,-0.178097,-0.00470966,0,
4,0.536763,0.0904244,-0.178476,-0.00504851,0,
4,0.517057,0.0698163,-0.178932,-0.00539408,0,
4,0.497368,0.0501547,-0.179452,-0.0057288,0,
4,0.477632,0.0315532,-0.180024,-0.00604004,0,
4,0.457804,0.014074,-0.180632,-0.00631747,0,
4,0.437857,-0.0022659,-0.181268,-0.00655324,0,
4,0.417786,-0.0174929,-0.181907,-0.00674234,0,
4,0.397605,-0.0316664,-0.18253,-0.00688181,0,
4,0.377348,-0.0448772,-0.1831,-0.00696952,0,
4,0.357066,-0.0572376,-0.183582,-0.00700395,0,
4,0.336828,-0.0688806,-0.183915,-0.00698208,0,
4,0.316717,-0.0799575,-0.18407,-0.00690018,0,
4,0.296825,-0.0906295,-0.18399,-0.006754,0,
4,0.27725,-0.101053,-0.18371,-0.00653957,0,
4,0.258095,-0.111346,-0.18325,-0.00625507,0,
4,0.239458,-0.121526,-0.182772,-0.00590498,0,
4,0.221432,-0.131397,-0.182405,-0.00550825,0,
4,0.2041,-0.140473,-0.182429,-0.00510645,0,
4,0.187537,-0.14809,-0.18297,-0.00475573,0,
4,0.171798,-0.153833,-0.184211,-0.00448937,0,
4,0.156928,-0.157943,-0.185183,-0.00426396,0,
4,0.142956,-0.161183,-0.184832,-0.00363803,0,
4,0.129894,-0.164107,-0.183797,-0.00314627,0,
4,0.117744,-0.166842,-0.18286,-0.00275554,0,
4,0.106492,-0.169402,-0.182027,-0.00239812,0,
4,0.0961173,-0.171793,-0.181264,-0.00207246,0,
4,0.0865883,-0.174019,-0.180603,-0.00177757,0,
4,0.0778675,-0.17608,-0.180022,-0.00151149,0,
4,0.0699123,-0.177975,-0.179529,-0.00127216,0,
4,0.062677,-0.179701,-0.179103,-0.00105738,0,
4,0.056114,-0.181253,-0.178748,-0.000864985,0,
4,0.0501747,-0.182626,-0.178445,-0.000692837,0,
4,0.0448114,-0.183814,-0.178195,-0.000538999,0,
4,0.039977,-0.184808,-0.177982,-0.000401626,0,
4,0.0356266,-0.185598,-0.177807,-0.000279102,0,
4,0.0317171,-0.186173,-0.177659,-0.00016996,0,
4,0.0282081,-0.186517,-0.177538,-7.29176e-05,0,
4,0.0250617,-0.18661,-0.177436,1.32186e-05,0,
4,0.0222427,-0.186425,-0.177353,8.93713e-05,0,
4,0.0197189,-0.185925,-0.177283,0.000156238,0,
4,0.0174603,-0.185059,-0.177227,0.000214257,0,
4,0.0154398,-0.183757,-0.177181,0.000263598,0,
4,0.0136326,-0.181919,-0.177144,0.000303824,0,
4,0.0120162,-0.179406,-0.177116,0.000333743,0,
4,0.0105703,-0.17602,-0.177091,0.000351129,0,
4,0.00927657,-0.171495,-0.177076,0.000352663,0,
4,0.00811839,-0.165488,-0.177062,0.000334078,0,
4,0.0070809,-0.157632,-0.177056,0.000292606,0,
4,0.0061507,-0.147657,-0.177047,0.000230944,0,
4,0.00531578,-0.135604,-0.177047,0.000160359,0,
4,0.00456537,-0.121941,-0.177042,9.64719e-05,0,
4,0.00388979,-0.107445,-0.177044,5.0217e-05,0,
4,0.00328037,-0.0928764,-0.177039,2.27958e-05,0,
4,0.00272934,-0.078755,-0.177043,9.07055e-06,0,
4,0.0022297,-0.0653417,-0.177038,3.13766e-06,0,
4,0.00177519,-0.0527164,-0.177042,9.15303e-07,0,
4,0.00136016,-0.0408687,-0.177036,2.11013e-07,0,
4,0.000979511,-0.0297445,-0.177042,3.38349e-08,0,
4,0.00062865,-0.0192763,-0.177035,2.89069e-09,0,
4,0.000303409,-0.0093879,-0.177042,7.0549e-11,0,

6,0,0,-0.0460385,0,0,
6,9,0,-0.0836405,0,0,
6,8.99969,0.0139324,-0.0836388,2.07929e-10,0,
6,8.99934,0.0296438,-0.0836403,9.59627e-09,0,
6,8.99895,0.0473791,-0.083639,1.3009e-07,0,
6,8.9985,0.0673966,-0.0836401,9.37132e-07,0,
6,8.99801,0.0899598,-0.083639,4.62022e-06,0,
6,8.99744,0.115265,-0.0836399,1.74215e-05,0,
6,8.99681,0.143255,-0.083639,5.23241e-05,0,
6,8.99609,0.17334,-0.0836397,0.000125947,0,
6,8.99529,0.20429,-0.0836389,0.000243865,0,
6,8.99438,0.234636,-0.0836394,0.00038926,0,
6,8.99336,0.263296,-0.0836387,0.000535472,0,
6,8.9922,0.289812,-0.0836389,0.000665569,0,
6,8.9909,0.31422,-0.0836381,0.000770129,0,
6,8.98944,0.336693,-0.0836381,0.000858395,0,
6,8.98779,0.357411,-0.0836372,0.00093253,0,
6,8.98593,0.376638,-0.0836368,0.000990517,0,
6,8.98383,0.394638,-0.0836358,0.00103872,0,
6,8.98147,0.411614,-0.083635,0.00107951,0,
6,8.97881,0.427731,-0.0836336,0.0011145,0,
6,8.97581,0.443131,-0.0836324,0.00114505,0,
6,8.97244,0.45793,-0.0836306,0.00117219,0,
6,8.96863,0.472229,-0.0836287,0.00119668,0,
6,8.96435,0.486113,-0.0836263,0.0012191,0,
6,8.95953,0.499655,-0.0836237,0.00123986,0,
6,8.95409,0.512917,-0.0836204,0.00125927,0,
6,8.94798,0.525956,-0.0836169,0.00127752,0,
6,8.94109,0.538817,-0.0836126,0.00129475,0,
6,8.93334,0.551544,-0.0836079,0.00131099,0,
6,8.92463,0.564171,-0.0836024,0.00132625,0,
6,8.91482,0.576732,-0.0835961,0.00134045,0,
6,8.90379,0.589252,-0.0835891,0.0013535,0,
6,8.89139,0.601756,-0.0835812,0.00136525,0,
6,8.87746,0.614263,-0.0835724,0.00137551,0,
6,8.86181,0.626789,-0.0835627,0.00138408,0,
6,8.84423,0.63935,-0.0835519,0.00139073,0,
6,8.82452,0.651955,-0.0835402,0.00139523,0,
6,8.80241,0.664616,-0.0835274,0.00139731,0,
6,8.77763,0.67734,-0.0835138,0.00139672,0,
6,8.74989,0.690138,-0.0834992,0.00139319,0,
6,8.71885,0.70302,-0.083484,0.00138644,0,
6,8.68417,0.715998,-0.0834682,0.00137616,0,
6,8.64545,0.72909,-0.0834522,0.00136199,0,
6,8.60229,0.742319,-0.0834365,0.00134347,0,
6,8.55423,0.755715,-0.0834213,0.00132,0,
6,8.50082,0.769314,-0.0834078,0.00129085,0,
6,8.44155,0.783166,-0.0833957,0.00125538,0,
6,8.37592,0.797337,-0.0833881,0.00121548,0,
6,8.30339,0.811975,-0.0833859,0.00117155,0,
6,8.22344,0.827428,-0.0833935,0.00110207,0,
6,8.13555,0.844149,-0.0834114,0.00101251,0,
6,8.0392,0.862475,-0.0834382,0.000898202,0,
6,7.93391,0.882456,-0.0834669,0.000757354,0,
6,7.81927,0.903513,-0.0834994,0.000600467,0,
6,7.6949,0.924197,-0.0835232,0.000442404,0,
6,7.56054,0.942451,-0.0835547,0.000299574,0,
6,7.41603,0.956492,-0.0835732,0.000175787,0,
6,7.26132,0.965541,-0.0836037,7.01146e-05,0,
6,7.09653,0.969943,-0.0836486,1.82703e-05,0,
6,6.92195,0.971096,-0.0836873,1.43387e-06,0,
6,6.73802,0.970741,-0.0837236,-9.08038e-07,0,
6,6.5454,0.970124,-0.0837528,-4.04797e-07,0,
6,6.34489,0.969747,-0.0837757,-8.60508e-08,0,
6,6.1375,0.969623,-0.0837915,-1.19908e-08,0,
6,5.92439,0.969614,-0.0837987,-2.26495e-09,0,
6,5.70687,0.969612,-0.0837947,-1.61543e-09,0,
6,5.48633,0.96958,-0.0837764,-1.72686e-09,0,
6,5.26426,0.969516,-0.0837393,-1.94505e-09,0,
6,5.04218,0.969431,-0.083679,-2.20567e-09,0,
6,4.82159,0.969338,-0.0835899,-2.45994e-09,0,
6,4.60398,0.969248,-0.0834666,-2.76687e-09,0,
6,4.39071,0.969157,-0.0833027,-3.42003e-09,0,
6,4.18307,0.969029,-0.0830928,-4.90241e-09,0,
6,3.98218,0.968801,-0.0828309,-7.55862e-09,0,
6,3.78902,0.968416,-0.0825131,-1.09468e-08,0,
6,3.60438,0.96791,-0.0821349,-1.4827e-08,0,
6,3.42888,0.96747,-0.0816954,-2.69205e-08,0,
6,3.26296,0.967383,-0.0811927,-2.01027e-08,0,
6,3.10691,0.967859,-0.0806281,2.80197e-07,0,
6,2.96084,0.968825,-0.0800026,1.10926e-06,0,
6,2.82473,0.969869,-0.0793241,1.26637e-06,0,
6,2.69844,0.970388,-0.0786,-1.83473e-06,0,
6,2.58172,0.969803,-0.0778412,-1.04307e-05,0,
6,2.47424,0.967737,-0.0770563,-2.55192e-05,0,
6,2.37559,0.964078,-0.0762579,-4.68611e-05,0,
6,2.28535,0.958949,-0.0754559,-7.3343e-05,0,
6,2.20301,0.95263,-0.0746623,-0.000103408,0,
6,2.1281,0.945469,-0.0738848,-0.000135424,0,
6,2.06009,0.937811,-0.0731329,-0.00016794,0,
6,1.99849,0.929961,-0.0724113,-0.000199804,0,
6,1.9428,0.922162,-0.0717261,-0.000230207,0,
6,1.89255,0.914594,-0.0710791,-0.000258656,0,
6,1.84728,0.90738,-0.0704733,-0.000284898,0,
6,1.80655,0.900595,-0.0699087,-0.000308787,0,
6,1.76996,0.894285,-0.0693857,-0.000330115,0,
6,1.73712,0.888473,-0.0689032,-0.000350111,0,
6,1.70768,0.883118,-0.0684594,-0.000368841,0,
6,1.67998,0.877983,-0.0680344,-0.000385416,0,
6,1.65329,0.872961,-0.0676154,-0.000401336,0,
6,1.62754,0.868041,-0.067203,-0.000416934,0,
6,1.60265,0.86322,-0.0667968,-0.000432062,0,
6,1.57854,0.858493,-0.0663958,-0.000446759,0,
6,1.55515,0.853854,-0.0660003,-0.000461031,0,
6,1.53242,0.849299,-0.0656091,-0.000474879,0,
6,1.5103,0.844823,-0.0652224,-0.000488296,0,
6,1.48874,0.840419,-0.0648392,-0.00050126,0,
6,1.46769,0.836083,-0.0644598,-0.000513749,0,
6,1.44712,0.831808,-0.0640831,-0.000525733,0,
6,1.42698,0.827591,-0.0637094,-0.000537176,0,
6,1.40725,0.823425,-0.0633378,-0.000548052,0,
6,1.38788,0.819305,-0.0629683,-0.000558315,0,
6,1.36886,0.815224,-0.0626008,-0.000567966,0,
6,1.35015,0.811178,-0.0622344,-0.000577027,0,
6,1.33173,0.807159,-0.0618697,-0.000585566,0,
6,1.31357,0.803158,-0.0615055,-0.000593727,0,
6,1.29566,0.799166,-0.0611427,-0.000601794,0,
6,1.27797,0.795169,-0.0607801,-0.000610263,0,
6,1.26048,0.791151,-0.0604186,-0.00061995,0,
6,1.24318,0.78709,-0.0600569,-0.000632089,0,
6,1.22605,0.782953,-0.0596964,-0.000648402,0,
6,1.20907,0.7787,-0.0593358,-0.000670954,0,
6,1.19223,0.774281,-0.0589775,-0.000701928,0,
6,1.17551,0.769645,-0.0586176,-0.000744335,0,
6,1.1589,0.764722,-0.0582479,-0.000791851,0,
6,1.14238,0.75942,-0.0578694,-0.00085353,0,
6,1.12595,0.753633,-0.0574916,-0.000932252,0,
6,1.10959,0.747264,-0.0571139,-0.00102924,0,
6,1.09329,0.740253,-0.0567456,-0.00114859,0,
6,1.07704,0.732525,-0.0563573,-0.0012678,0,
6,1.06081,0.72394,-0.0559522,-0.00140476,0,
6,1.04459,0.714372,-0.0555558,-0.00156914,0,
6,1.02836,0.703742,-0.0551599,-0.00176356,0,
6,1.01211,0.692008,-0.0547683,-0.00199006,0,
6,0.99583,0.679162,-0.054379,-0.00224884,0,
6,0.97951,0.665223,-0.0539973,-0.00253859,0,
6,0.963136,0.650261,-0.0536331,-0.0028631,0,
6,0.946694,0.634386,-0.0532812,-0.00321265,0,
6,0.930172,0.61773,-0.0529529,-0.00358281,0,
6,0.913555,0.600456,-0.0526484,-0.00397092,0,
6,0.896829,0.582728,-0.0523695,-0.00436508,0,
6,0.879979,0.564682,-0.0521171,-0.00475876,0,
6,0.862989,0.546433,-0.0518937,-0.00514635,0,
6,0.845842,0.52808,-0.0517029,-0.00552311,0,
6,0.828521,0.509707,-0.0515426,-0.00588498,0,
6,0.811008,0.491387,-0.0514191,-0.0062289,0,
6,0.793282,0.47319,-0.0513235,-0.0065528,0,
6,0.775322,0.455159,-0.0512628,-0.00685475,0,
6,0.757107,0.437311,-0.0512268,-0.00713321,0,
6,0.738612,0.41965,-0.0512225,-0.00738696,0,
6,0.719813,0.402173,-0.0512316,-0.00761485,0,
6,0.700681,0.384866,-0.0512705,-0.00781596,0,
6,0.681188,0.367708,-0.0513128,-0.00798985,0,
6,0.661304,0.35067,-0.0513731,-0.00813607,0,
6,0.640996,0.333708,-0.0514196,-0.0082534,0,
6,0.620228,0.316763,-0.0514501,-0.00833821,0,
6,0.598964,0.299738,-0.0514177,-0.0083834,0,
6,0.577166,0.282512,-0.0513144,-0.00838633,0,
6,0.554791,0.264928,-0.0511148,-0.0083425,0,
6,0.531799,0.246808,-0.0508075,-0.00824441,0,
6,0.508144,0.227962,-0.0503968,-0.00808575,0,
6,0.48378,0.208226,-0.0498946,-0.0078631,0,
6,0.459585,0.188186,-0.0493477,-0.00758137,0,
6,0.436695,0.168719,-0.0488471,-0.00725746,0,
6,0.414961,0.149778,-0.0483878,-0.00689717,0,
6,0.394252,0.131391,-0.0480043,-0.00650344,0,
6,0.374445,0.113705,-0.0477108,-0.00608576,0,
6,0.355433,0.0970513,-0.0475526,-0.00566539,0,
6,0.337122,0.0819547,-0.0475726,-0.00526964,0,
6,0.319433,0.068996,-0.0478344,-0.00492961,0,
6,0.3023,0.0585373,-0.0483927,-0.00467243,0,
6,0.28567,0.050469,-0.0492078,-0.0044945,0,
6,0.269507,0.0441939,-0.0498247,-0.00429309,0,
6,0.253785,0.0389519,-0.0499283,-0.00394008,0,
6,0.238493,0.0342384,-0.0498118,-0.00361201,0,
6,0.223631,0.029885,-0.049722,-0.00334081,0,
6,0.209207,0.0258509,-0.0495944,-0.00308097,0,
6,0.195237,0.0221043,-0.0494575,-0.00283312,0,
6,0.181744,0.018618,-0.0492885,-0.00259779,0,
6,0.168754,0.0153695,-0.0491167,-0.0023753,0,
6,0.156292,0.0123389,-0.0489233,-0.00216603,0,
6,0.144384,0.00950904,-0.0487281,-0.00197005,0,
6,0.133052,0.00686468,-0.0485208,-0.00178695,0,
6,0.122315,0.00439375,-0.0483171,-0.00161647,0,
6,0.112183,0.00208445,-0.048112,-0.00145849,0,
6,0.102665,-7.30482e-05,-0.0479145,-0.00131259,0,
6,0.0937597,-0.00208813,-0.0477228,-0.00117807,0,
6,0.0854609,-0.00396814,-0.0475422,-0.00105438,0,
6,0.077757,-0.00572073,-0.0473725,-0.000941069,0,
6,0.0706309,-0.00735244,-0.0472155,-0.000837522,0,
6,0.0640611,-0.00886982,-0.0470713,-0.000743018,0,
6,0.0580229,-0.0102782,-0.04694,-0.000656921,0,
6,0.0524888,-0.0115834,-0.0468216,-0.000578706,0,
6,0.0474296,-0.0127904,-0.0467151,-0.000507758,0,
6,0.042815,-0.0139045,-0.0466205,-0.000443459,0,
6,0.0386145,-0.01493,-0.0465362,-0.000385247,0,
6,0.0347975,-0.0158715,-0.0464621,-0.000332649,0,
6,0.0313344,-0.0167332,-0.0463965,-0.000285166,0,
6,0.0281964,-0.0175188,-0.0463394,-0.000242327,0,
6,0.0253561,-0.0182316,-0.0462894,-0.000203697,0,
6,0.0227875,-0.0188743,-0.0462459,-0.000168911,0,
6,0.0204662,-0.019449,-0.0462086,-0.000137617,0,
6,0.0183694,-0.0199571,-0.0461757,-0.000109489,0,
6,0.016476,-0.0203983,-0.0461487,-8.42561e-05,0,
6,0.0147664,-0.0207713,-0.046124,-6.1693e-05,0,
6,0.0132228,-0.0210721,-0.0461054,-4.16279e-05,0,
6,0.0118288,-0.021294,-0.046087,-2.39673e-05,0,
6,0.0105693,-0.0214254,-0.0460753,-8.71818e-06,0,
6,0.00943073,-0.0214485,-0.0460619,3.95974e-06,0,
6,0.00840063,-0.0213367,-0.0460559,1.37111e-05,0,
6,0.00746774,-0.0210527,-0.0460464,1.99828e-05,0,
6,0.00662185,-0.0205512,-0.0460449,2.22711e-05,0,
6,0.00585371,-0.0197889,-0.0460384,2.06424e-05,0,
6,0.00515491,-0.0187469,-0.04604,1.62456e-05,0,
6,0.00451788,-0.0174495,-0.046035,1.09956e-05,0,
6,0.00393573,-0.0159616,-0.0460384,6.51493e-06,0,
6,0.00340221,-0.0143587,-0.0460337,3.44188e-06,0,
6,0.00291168,-0.0127042,-0.0460379,1.63863e-06,0,
6,0.00245897,-0.0110393,-0.0460329,7.01477e-07,0,
6,0.00203939,-0.00938843,-0.0460378,2.65297e-07,0,
6,0.00164864,-0.0077624,-0.0460321,8.53575e-08,0,
6,0.00128281,-0.00616509,-0.0460379,2.17893e-08,0,
6,0.000938257,-0.00459472,-0.0460313,3.86932e-09,0,
6,0.000611645,-0.00304848,-0.0460382,3.64357e-10,0,
6,0.000299862,-0.0015193,-0.0460304,9.59211e-12,0,

10,0.000296632,0.0109535,0.0403069,-2.0079e-10,0,
10,0.000596102,0.0220191,0.0403149,-7.44853e-09,0,
10,0.000900397,0.033271,0.0403076,-7.57811e-08,0,
10,0.00121153,0.0447791,0.0403136,-4.07207e-07,0,
10,0.00153158,0.0566157,0.040308,-1.52067e-06,0,
10,0.00186264,0.0688394,0.0403125,-4.49883e-06,0,
10,0.00220692,0.0814924,0.0403082,-1.1298e-05,0,
10,0.00256668,0.0945759,0.0403114,-2.50115e-05,0,
10,0.00294431,0.108034,0.0403081,-4.97959e-05,0,
10,0.00334229,0.121718,0.0403103,-9.00203e-05,0,
10,0.00376326,0.135387,0.0403075,-0.000148456,0,
10,0.00421,0.148726,0.0403086,-0.000224273,0,
10,0.00468544,0.161416,0.0403059,-0.000312385,0,
10,0.00519274,0.173191,0.0403058,-0.000405092,0,
10,0.00573524,0.183899,0.0403026,-0.000494906,0,
10,0.00631651,0.193493,0.0403005,-0.000576667,0,
10,0.00694041,0.202019,0.0402963,-0.000647871,0,
10,0.00761104,0.209566,0.040292,-0.00070806,0,
10,0.00833284,0.21625,0.0402859,-0.00075817,0,
10,0.00911058,0.222186,0.0402786,-0.000799753,0,
10,0.0099494,0.227488,0.04027,-0.000834506,0,
10,0.0108548,0.232249,0.0402589,-0.000863786,0,
10,0.0118329,0.236555,0.0402471,-0.000888906,0,
10,0.0128901,0.240474,0.0402312,-0.000911002,0,
10,0.0140333,0.244067,0.0402153,-0.000931023,0,
10,0.0152702,0.24738,0.0401937,-0.000949631,0,
10,0.0166089,0.250456,0.0401722,-0.000967458,0,
10,0.0180584,0.253328,0.0401438,-0.000984979,0,
10,0.0196282,0.256025,0.0401149,-0.00100274,0,
10,0.0213288,0.258572,0.0400784,-0.00102113,0,
10,0.0231714,0.260989,0.0400402,-0.00104056,0,
10,0.0251682,0.263296,0.0399936,-0.00106125,0,
10,0.0273326,0.265506,0.0399436,-0.00108358,0,
10,0.0296789,0.267634,0.0398845,-0.00110801,0,
10,0.0322227,0.269693,0.0398196,-0.00113494,0,
10,0.0349809,0.271694,0.0397452,-0.00116448,0,
10,0.0379719,0.273646,0.0396621,-0.001197,0,
10,0.0412155,0.275559,0.0395681,-0.00123316,0,
10,0.0447333,0.27744,0.0394624,-0.00127337,0,
10,0.0485489,0.279299,0.0393453,-0.00131774,0,
10,0.0526875,0.281142,0.0392118,-0.00136676,0,
10,0.0571768,0.282977,0.039065,-0.00142128,0,
10,0.0620466,0.28481,0.0388972,-0.00148183,0,
10,0.0673295,0.286649,0.0387159,-0.00154861,0,
10,0.0730607,0.2885,0.0385058,-0.00162227,0,
10,0.0792784,0.29037,0.0382799,-0.00170387,0,
10,0.0860241,0.292266,0.0380184,-0.00179416,0,
10,0.0933428,0.294197,0.0377412,-0.00189355,0,
10,0.101283,0.296167,0.0374189,-0.00200286,0,
10,0.109899,0.298188,0.0370771,-0.00212349,0,
10,0.119247,0.300268,0.0366846,-0.00225655,0,
10,0.12939,0.302419,0.0362759,-0.00240287,0,
10,0.140395,0.304653,0.0358099,-0.00256313,0,
10,0.152337,0.306984,0.0353387,-0.00273866,0,
10,0.165296,0.309429,0.0348116,-0.00293059,0,
10,0.179357,0.312011,0.0342945,-0.00314037,0,
10,0.194615,0.314758,0.0337429,-0.00336922,0,
10,0.211171,0.317706,0.0332411,-0.00361744,0,
10,0.229138,0.320899,0.0327468,-0.00388589,0,
10,0.248635,0.324399,0.0323439,-0.00417592,0,
10,0.269793,0.328286,0.0320488,-0.00448769,0,
10,0.292753,0.332671,0.031825,-0.00482424,0,
10,0.317669,0.337711,0.0319066,-0.00536884,0,
10,0.344708,0.344034,0.0331106,-0.0056406,0,
10,0.372405,0.35258,0.0350076,-0.0056663,0,
10,0.399623,0.364253,0.0362369,-0.00572252,0,
10,0.426397,0.379107,0.0367527,-0.00582799,0,
10,0.452757,0.395899,0.0368002,-0.00594532,0,
10,0.478735,0.413238,0.0366714,-0.00601086,0,
10,0.504358,0.430459,0.0365136,-0.0060059,0,
10,0.529657,0.447522,0.0364054,-0.0059354,0,
10,0.554656,0.464641,0.0363519,-0.00581075,0,
10,0.579382,0.482022,0.0363327,-0.00563985,0,
10,0.603859,0.49977,0.0363231,-0.00542602,0,
10,0.628112,0.517877,0.0363053,-0.00516977,0,
10,0.652163,0.536248,0.0362719,-0.00487106,0,
10,0.676035,0.554719,0.0362127,-0.00453476,0,
10,0.699751,0.573037,0.0361213,-0.00417721,0,
10,0.72333,0.590893,0.0359986,-0.00381463,0,
10,0.746795,0.608032,0.0358518,-0.00344997,0,
10,0.770165,0.62433,0.0356808,-0.00308635,0,
10,0.79346,0.639754,0.0354848,-0.00272944,0,
10,0.816699,0.654291,0.0352621,-0.00238541,0,
10,0.839903,0.667908,0.0350159,-0.0020616,0,
10,0.863088,0.680536,0.0347477,-0.00176633,0,
10,0.886275,0.692094,0.0344611,-0.00150666,0,
10,0.909481,0.702525,0.034157,-0.00128711,0,
10,0.932723,0.71184,0.0338383,-0.00110853,0,
10,0.956021,0.720127,0.0335056,-0.000967968,0,
10,0.97939,0.727539,0.0331618,-0.000859789,0,
10,1.00285,0.734262,0.0328073,-0.000777363,0,
10,1.02641,0.740475,0.0324442,-0.000714539,0,
10,1.0501,0.746327,0.0320723,-0.000666337,0,
10,1.07392,0.751931,0.0316927,-0.000628948,0,
10,1.0979,0.757364,0.0313045,-0.000599458,0,
10,1.12205,0.762681,0.0309088,-0.000575571,0,
10,1.14639,0.76792,0.0305049,-0.000555292,0,
10,1.17093,0.773113,0.0300937,-0.000537184,0,
10,1.19568,0.778277,0.0296736,-0.000520951,0,
10,1.22066,0.783422,0.0292452,-0.000506286,0,
10,1.24589,0.788555,0.0288077,-0.000492486,0,
10,1.27137,0.793684,0.0283621,-0.000479036,0,
10,1.29713,0.798815,0.0279071,-0.000465667,0,
10,1.32317,0.80395,0.0274433,-0.000452204,0,
10,1.34951,0.809089,0.0269697,-0.000438546,0,
10,1.37616,0.81423,0.0264867,-0.000424621,0,
10,1.40313,0.819369,0.0259935,-0.000410371,0,
10,1.43043,0.824504,0.0254901,-0.000395766,0,
10,1.45807,0.82963,0.0249762,-0.00038087,0,
10,1.48607,0.834741,0.0244514,-0.000365728,0,
10,1.51444,0.83983,0.0239159,-0.00035042,0,
10,1.54318,0.844889,0.0233689,-0.000335,0,
10,1.57231,0.84991,0.022811,-0.00031961,0,
10,1.60184,0.854883,0.0222414,-0.000304357,0,
10,1.63178,0.859798,0.0216606,-0.000289367,0,
10,1.66213,0.864643,0.0210681,-0.000274764,0,
10,1.69292,0.869405,0.0204643,-0.000260706,0,
10,1.72416,0.87407,0.0198488,-0.000247329,0,
10,1.75585,0.878623,0.0192223,-0.000234764,0,
10,1.78802,0.883049,0.0185845,-0.000223035,0,
10,1.82067,0.887331,0.0179362,-0.000212175,0,
10,1.85383,0.891453,0.0172771,-0.000202249,0,
10,1.88751,0.895398,0.0166079,-0.000193156,0,
10,1.92173,0.899153,0.0159288,-0.000184676,0,
10,1.95652,0.902707,0.0152399,-0.00017674,0,
10,1.9919,0.906046,0.014542,-0.000169342,0,
10,2.02791,0.909164,0.0138348,-0.000162175,0,
10,2.06456,0.912068,0.0131232,-0.000150886,0,
10,2.10268,0.914826,0.0123906,-0.000132873,0,
10,2.1443,0.917526,0.0115972,-0.000112505,0,
10,2.18977,0.920106,0.0107336,-9.24861e-05,0,
10,2.23946,0.922485,0.00979836,-7.35371e-05,0,
10,2.29376,0.924599,0.00878576,-5.64602e-05,0,
10,2.35309,0.92639,0.00769383,-4.16347e-05,0,
10,2.4179,0.927807,0.00651959,-2.93411e-05,0,
10,2.48863,0.928826,0.00526224,-1.97454e-05,0,
10,2.56575,0.929454,0.0039217,-1.28189e-05,0,
10,2.64971,0.929746,0.00249908,-8.2768e-06,0,
10,2.74098,0.929805,0.000997054,-5.67016e-06,0,
10,2.83997,0.929777,-0.000581036,-4.35433e-06,0,
10,2.94709,0.92983,-0.00223002,-3.61326e-06,0,
10,3.06269,0.930121,-0.00394452,-2.86912e-06,0,
10,3.18706,0.930748,-0.00571706,-1.93464e-06,0,
10,3.3204,0.931721,-0.0075397,-1.03348e-06,0,
10,3.46281,0.932955,-0.00940199,-4.41103e-07,0,
10,3.61427,0.934309,-0.0112926,-1.74044e-07,0,
10,3.77463,0.935645,-0.0131973,-8.34825e-08,0,
10,3.94358,0.936877,-0.0151013,-5.58127e-08,0,
10,4.12067,0.937982,-0.0169883,-4.52381e-08,0,
10,4.30525,0.93899,-0.0188426,-3.95776e-08,0,
10,4.49655,0.939941,-0.0206491,-3.61627e-08,0,
10,4.6936,0.940865,-0.0223941,-3.47821e-08,0,
10,4.89531,0.941765,-0.0240654,-3.62086e-08,0,
10,5.10047,0.942629,-0.0256526,-4.28425e-08,0,
10,5.30776,0.943437,-0.0271477,-5.99634e-08,0,
10,5.51581,0.944173,-0.0285447,-9.82386e-08,0,
10,5.72323,0.944834,-0.0298397,-1.80009e-07,0,
10,5.92863,0.945447,-0.0310313,-3.57745e-07,0,
10,6.13069,0.946078,-0.0321196,-7.63882e-07,0,
10,6.32816,0.946826,-0.0331074,-1.66171e-06,0,
10,6.51991,0.947718,-0.0339978,-3.11544e-06,0,
10,6.70495,0.948512,-0.0347974,-3.26703e-06,0,
10,6.88244,0.948474,-0.0355095,4.71054e-06,0,
10,7.0517,0.946391,-0.0361422,3.31636e-05,0,
10,7.21224,0.940955,-0.0366926,9.5298e-05,0,
10,7.3637,0.931339,-0.0371708,0.000200563,0,
10,7.5059,0.91735,-0.0375855,0.000309381,0,
10,7.63878,0.899437,-0.0379246,0.000433985,0,
10,7.76243,0.879068,-0.0382068,0.000570041,0,
10,7.87701,0.858182,-0.0384306,0.000705532,0,
10,7.9828,0.838298,-0.038613,0.000824436,0,
10,8.08014,0.820075,-0.0387559,0.000921409,0,
10,8.16941,0.803484,-0.0388731,0.000999605,0,
10,8.25106,0.78817,-0.0389683,0.0010642,0,
10,8.32554,0.773726,-0.0390496,0.00111933,0,
10,8.39331,0.75983,-0.0391189,0.00116729,0,
10,8.45484,0.746279,-0.0391791,0.001209,0,
10,8.5106,0.732969,-0.0392307,0.00124474,0,
10,8.56104,0.719863,-0.0392752,0.00127478,0,
10,8.60659,0.706952,-0.0393134,0.00129954,0,
10,8.64767,0.694221,-0.0393469,0.00131727,0,
10,8.68467,0.681655,-0.039376,0.00132967,0,
10,8.71795,0.669247,-0.039401,0.00133737,0,
10,8.74786,0.656995,-0.0394225,0.00134077,0,
10,8.77471,0.644894,-0.0394411,0.00134037,0,
10,8.79881,0.632939,-0.0394572,0.00133665,0,
10,8.8204,0.621123,-0.0394709,0.00133007,0,
10,8.83975,0.609435,-0.0394828,0.00132108,0,
10,8.85708,0.597864,-0.0394929,0.00131007,0,
10,8.87259,0.586393,-0.0395016,0.00129743,0,
10,8.88646,0.575002,-0.039509,0.0012835,0,
10,8.89886,0.563671,-0.0395153,0.00126858,0,
10,8.90995,0.552373,-0.0395206,0.0012529,0,
10,8.91986,0.541082,-0.0395251,0.00123665,0,
10,8.92872,0.529766,-0.0395289,0.00121996,0,
10,8.93663,0.518393,-0.0395321,0.00120291,0,
10,8.94369,0.506924,-0.0395347,0.00118551,0,
10,8.95,0.495321,-0.039537,0.0011677,0,
10,8.95564,0.48354,-0.0395387,0.00114941,0,
10,8.96067,0.471531,-0.0395404,0.00113047,0,
10,8.96517,0.459243,-0.0395415,0.00111062,0,
10,8.96918,0.446614,-0.0395427,0.00108954,0,
10,8.97276,0.433575,-0.0395435,0.00106678,0,
10,8.97596,0.420048,-0.0395443,0.00104179,0,
10,8.97882,0.405941,-0.0395448,0.00101384,0,
10,8.98137,0.391144,-0.0395454,0.000981997,0,
10,8.98365,0.375532,-0.0395457,0.000945031,0,
10,8.98569,0.358953,-0.0395462,0.000901429,0,
10,8.9875,0.341228,-0.0395462,0.000849571,0,
10,8.98913,0.322118,-0.0395467,0.000783249,0,
10,8.99058,0.30138,-0.0395466,0.000704749,0,
10,8.99188,0.278843,-0.039547,0.000612103,0,
10,8.99304,0.254337,-0.0395469,0.000497317,0,
10,8.99408,0.22779,-0.0395472,0.000367793,0,
10,8.99501,0.199538,-0.039547,0.000236807,0,
10,8.99583,0.170463,-0.0395473,0.00012695,0,
10,8.99658,0.141857,-0.0395471,5.50411e-05,0,
10,8.99724,0.114898,-0.0395474,1.91161e-05,0,
10,8.99784,0.0902339,-0.0395471,5.26874e-06,0,
10,8.99837,0.0680051,-0.0395474,1.10642e-06,0,
10,8.99885,0.0480832,-0.0395472,1.5856e-07,0,
10,8.99927,0.0302536,-0.0395474,1.20383e-08,0,
10,8.99966,0.0142958,-0.0395472,2.66331e-10,0,
10,0,0,0.0403165,0,0,
10,9,0,-0.0395474,0,0,

0.004,0,0,-0.216673,0,-1.44713e-07,
0.00868226,0,0,-0.216679,0,-6.69643e-07,
0.014062,0,0,-0.216671,0,-1.4457e-06,
0.0201548,0,0,-0.216676,0,-1.9413e-06,
0.0269766,0,0,-0.216663,0,-1.31388e-06,
0.0345437,0,0,-0.216662,0,1.46198e-06,
0.0428729,0,0,-0.216649,0,6.83766e-06,
0.051981,0,0,-0.216649,0,1.52657e-05,
0.0618853,0,0,-0.216648,0,2.60295e-05,
0.0726036,0,0,-0.216667,0,3.80451e-05,
0.0841536,0,0,-0.216694,0,4.97088e-05,
0.0965535,0,0,-0.216738,0,6.00872e-05,
0.109822,0,0,-0.216788,0,6.87902e-05,
0.123977,0,0,-0.216849,0,7.62453e-05,
0.139037,0,0,-0.216914,0,8.30995e-05,
0.155022,0,0,-0.216991,0,9.00225e-05,
0.171949,0,0,-0.217079,0,9.72553e-05,
0.189839,0,0,-0.217186,0,0.000104559,
0.208709,0,0,-0.217314,0,0.00011121,
0.228579,0,0,-0.217468,0,0.000116232,
0.249467,0,0,-0.217649,0,0.000118605,
0.271391,0,0,-0.217855,0,0.000117453,
0.29437,0,0,-0.218086,0,0.000112159,
0.31842,0,0,-0.218338,0,0.000102418,
0.343559,0,0,-0.218606,0,8.82992e-05,
0.369804,0,0,-0.21888,0,7.02404e-05,
0.39717,0,0,-0.219154,0,4.90407e-05,
0.425672,0,0,-0.219421,0,2.57486e-05,
0.455324,0,0,-0.219674,0,1.52323e-06,
0.48614,0,0,-0.219908,0,-2.24189e-05,
0.518132,0,0,-0.220124,0,-4.54074e-05,
0.551309,0,0,-0.220321,0,-6.69782e-05,
0.585683,0,0,-0.220504,0,-8.69985e-05,
0.621259,0,0,-0.220672,0,-0.000105669,
0.658046,0,0,-0.22083,0,-0.000123166,
0.696047,0,0,-0.220975,0,-0.000139708,
0.735265,0,0,-0.221117,0,-0.000155414,
0.7757,0,0,-0.221249,0,-0.000170521,
0.817352,0,0,-0.221376,0,-0.000185018,
0.860215,0,0,-0.221504,0,-0.000198935,
0.904285,0,0,-0.221629,0,-0.000212386,
0.949552,0,0,-0.221756,0,-0.000225313,
0.996004,0,0,-0.221882,0,-0.000237675,
1.04363,0,0,-0.222023,0,-0.00024932,
1.09241,0,0,-0.222166,0,-0.000260321,
1.14232,0,0,-0.222328,0,-0.000270584,
1.19335,0,0,-0.222507,0,-0.000279979,
1.24546,0,0,-0.222722,0,-0.000288492,
1.29863,0,0,-0.222958,0,-0.000296132,
1.35283,0,0,-0.223238,0,-0.000302976,
1.40802,0,0,-0.22356,0,-0.000308789,
1.46416,0,0,-0.223939,0,-0.000313186,
1.52121,0,0,-0.224369,0,-0.00031596,
1.57913,0,0,-0.224875,0,-0.000316475,
1.63787,0,0,-0.225483,0,-0.000313389,
1.69739,0,0,-0.226226,0,-0.000305367,
1.75761,0,0,-0.227137,0,-0.000293087,
1.81851,0,0,-0.228252,0,-0.000278771,
1.88,0,0,-0.229562,0,-0.000265897,
1.94204,0,0,-0.231153,0,-0.000256524,
2.00457,0,0,-0.23302,0,-0.000253374,
2.06751,0,0,-0.235216,0,-0.000255996,
2.13081,0,0,-0.23786,0,-0.000265063,
2.19439,0,0,-0.240986,0,-0.000285375,
2.25819,0,0,-0.24473,0,-0.000319697,
2.32214,0,0,-0.248755,0,-0.000375905,
2.38617,0,0,-0.252818,0,-0.000458573,
2.4502,0,0,-0.256854,0,-0.000556447,
2.51418,0,0,-0.261286,0,-0.000665157,
2.57803,0,0,-0.266233,0,-0.000798502,
2.64167,0,0,-0.271322,0,-0.00097036,
2.70505,0,0,-0.275923,0,-0.00118281,
2.76808,0,0,-0.279463,0,-0.00142197,
2.83072,0,0,-0.281583,0,-0.00166154,
2.89288,0,0,-0.282157,0,-0.001882,
2.95451,0,0,-0.281155,0,-0.00206916,
3.01555,0,0,-0.278708,0,-0.00221442,
3.07594,0,0,-0.274996,0,-0.00231997,
3.13561,0,0,-0.270251,0,-0.00238889,
3.19453,0,0,-0.26478,0,-0.0024244,
3.25262,0,0,-0.258846,0,-0.00243295,
3.30985,0,0,-0.252671,0,-0.00242208,
3.36617,0,0,-0.246367,0,-0.0023975,
3.42154,0,0,-0.240109,0,-0.00236408,
3.47591,0,0,-0.23392,0,-0.00232515,
3.52925,0,0,-0.227845,0,-0.00228315,
3.58152,0,0,-0.221891,0,-0.00223886,
3.6327,0,0,-0.216145,0,-0.00219287,
3.68276,0,0,-0.210575,0,-0.00214568,
3.73167,0,0,-0.2052,0,-0.00209843,
3.77941,0,0,-0.199999,0,-0.00205178,
3.82596,0,0,-0.195034,0,-0.002006,
3.8713,0,0,-0.190254,0,-0.00196102,
3.91543,0,0,-0.185651,0,-0.00191708,
3.95833,0,0,-0.181256,0,-0.00187471,
4,0,0,-0.177034,0,-0.00183373,
4.04167,0,0,-0.172883,0,-0.00179291,
4.08333,0,0,-0.168782,0,-0.0017525,
4.125,0,0,-0.164745,0,-0.00171258,
4.16667,0,0,-0.160776,0,-0.00167331,
4.20833,0,0,-0.156865,0,-0.00163422,
4.25,0,0,-0.15301,0,-0.00159526,
4.29167,0,0,-0.149237,0,-0.00155699,
4.33333,0,0,-0.145525,0,-0.00151964,
4.375,0,0,-0.141875,0,-0.00148257,
4.41667,0,0,-0.138277,0,-0.00144555,
4.45833,0,0,-0.134775,0,-0.00140917,
4.5,0,0,-0.131332,0,-0.00137379,
4.54167,0,0,-0.127952,0,-0.00133877,
4.58333,0,0,-0.124625,0,-0.00130387,
4.625,0,0,-0.121397,0,-0.00126968,
4.66667,0,0,-0.118219,0,-0.0012365,
4.70833,0,0,-0.115106,0,-0.00120367,
4.75,0,0,-0.112042,0,-0.00117101,
4.79167,0,0,-0.10907,0,-0.00113899,
4.83333,0,0,-0.106141,0,-0.00110783,
4.875,0,0,-0.103274,0,-0.00107699,
4.91667,0,0,-0.100448,0,-0.00104619,
4.95833,0,0,-0.0977078,0,-0.0010159,
5,0,0,-0.0950041,0,-0.00098628,
5.04167,0,0,-0.0923562,0,-0.000956803,
5.08333,0,0,-0.0897456,0,-0.000927189,
5.125,0,0,-0.0872164,0,-0.000897952,
5.16667,0,0,-0.0847189,0,-0.000869173,
5.20833,0,0,-0.0822751,0,-0.000840354,
5.25,0,0,-0.0798659,0,-0.000811287,
5.29167,0,0,-0.0775408,0,-0.000782524,
5.33333,0,0,-0.0752433,0,-0.000754092,
5.375,0,0,-0.0730007,0,-0.000725558,
5.41667,0,0,-0.0707907,0,-0.000696663,
5.45833,0,0,-0.0686731,0,-0.000668093,
5.5,0,0,-0.066581,0,-0.000639753,
5.54167,0,0,-0.0645454,0,-0.000611293,
5.58333,0,0,-0.062546,0,-0.000582357,
5.625,0,0,-0.06065,0,-0.000553876,
5.66667,0,0,-0.0587785,0,-0.000525556,
5.70833,0,0,-0.0569637,0,-0.000497175,
5.75,0,0,-0.0551955,0,-0.000468266,
5.79167,0,0,-0.0535417,0,-0.000440031,
5.83333,0,0,-0.0519063,0,-0.000411925,
5.875,0,0,-0.0503326,0,-0.00038391,
5.91667,0,0,-0.048817,0,-0.000355421,
5.95833,0,0,-0.0474231,0,-0.000327826,
6,0,0,-0.0460386,0,-0.000300288,
6.04167,0,0,-0.0447247,0,-0.000273132,
6.08333,0,0,-0.0434779,0,-0.000245642,
6.125,0,0,-0.0423497,0,-0.000219186,
6.16667,0,0,-0.041227,0,-0.00019263,
6.20833,0,0,-0.0401803,0,-0.000166828,
6.25,0,0,-0.0392087,0,-0.000140952,
6.29167,0,0,-0.0383375,0,-0.000116129,
6.33333,0,0,-0.0374727,0,-9.09787e-05,
6.375,0,0,-0.0366906,0,-6.70262e-05,
6.41667,0,0,-0.0359788,0,-4.33294e-05,
6.45833,0,0,-0.0353354,0,-2.051e-05,
6.5,0,0,-0.0347103,0,2.78034e-06,
6.54167,0,0,-0.0341754,0,2.44166e-05,
6.58333,0,0,-0.0336894,0,4.54612e-05,
6.625,0,0,-0.0332208,0,6.59599e-05,
6.66667,0,0,-0.0327987,0,8.6883e-05,
6.70833,0,0,-0.0324637,0,0.00010584,
6.75,0,0,-0.0321327,0,0.000124194,
6.79167,0,0,-0.0317697,0,0.000142324,
6.83333,0,0,-0.0314933,0,0.000160447,
6.875,0,0,-0.0312739,0,0.000176751,
6.91667,0,0,-0.0310073,0,0.000192903,
6.95833,0,0,-0.0306657,0,0.000209065,
7,0,0,-0.0304569,0,0.000224288,
7.04167,0,0,-0.0302298,0,0.000238781,
7.08333,0,0,-0.0299112,0,0.000254149,
7.125,0,0,-0.0295086,0,0.000269334,
7.16667,0,0,-0.0292582,0,0.000282155,
7.20833,0,0,-0.0288779,0,0.000296291,
7.25,0,0,-0.0283988,0,0.000312739,
7.29167,0,0,-0.0278641,0,0.000328345,
7.33333,0,0,-0.0274553,0,0.000339986,
7.375,0,0,-0.0267877,0,0.000355725,
7.41667,0,0,-0.0260596,0,0.0003751,
7.45833,0,0,-0.0253355,0,0.000392596,
7.5,0,0,-0.0246693,0,0.000405032,
7.54167,0,0,-0.0236347,0,0.000424301,
7.58333,0,0,-0.0226174,0,0.000448021,
7.625,0,0,-0.0216673,0,0.000468898,
7.66667,0,0,-0.020681,0,0.000484387,
7.70833,0,0,-0.019273,0,0.000508696,
7.75,0,0,-0.0179894,0,0.000537217,
7.79167,0,0,-0.0168065,0,0.000562568,
7.83333,0,0,-0.015493,0,0.000582903,
7.875,0,0,-0.0137715,0,0.00061267,
7.91667,0,0,-0.0122659,0,0.000646342,
7.95833,0,0,-0.0108848,0,0.000676579,
8,0,0,-0.00924769,0,0.000703036,
8.04171,0,0,-0.00730002,0,0.000738363,
8.08368,0,0,-0.00571441,0,0.000775427,
8.12617,0,0,-0.00409469,0,0.000809398,
8.16946,0,0,-0.00225886,0,0.00084233,
8.21382,0,0,-0.000253008,0,0.000882225,
8.25952,0,0,0.00150538,0,0.000923434,
8.30685,0,0,0.00336605,0,0.000964537,
8.35611,0,0,0.00549162,0,0.00100744,
8.40762,0,0,0.00761809,0,0.00105463,
8.46168,0,0,0.00957924,0,0.00110356,
8.51865,0,0,0.0117066,0,0.00115495,
8.57889,0,0,0.0140746,0,0.00120988,
8.64276,0,0,0.0162224,0,0.00126568,
8.71067,0,0,0.018347,0,0.0013248,
8.78306,0,0,0.0206086,0,0.00138721,
8.86037,0,0,0.0229901,0,0.00145312,
8.94309,0,0,0.0249844,0,0.00151919,
9.03174,0,0,0.0270719,0,0.00159434,
9.12689,0,0,0.0291803,0,0.001665,
9.22912,0,0,0.0309618,0,0.0017355,
9.33908,0,0,0.0329386,0,0.00180947,
9.45746,0,0,0.034621,0,0.00188443,
9.58501,0,0,0.036189,0,0.00196141,
9.72253,0,0,0.0376145,0,0.0020402,
9.87088,0,0,0.0392103,0,0.00212572,
10.031,0,0,0.0405821,0,0.00220346,
10.2039,0,0,0.0417151,0,0.00227701,
10.3906,0,0,0.042583,0,0.00234352,
10.5924,0,0,0.0436142,0,0.00241831,
10.8105,0,0,0.044727,0,0.00247145,
11.0463,0,0,0.0454285,0,0.00251105,
11.3012,0,0,0.0448793,0,0.00252347,
11.5769,0,0,0.0451661,0,0.00255211,
11.8751,0,0,0.0449973,0,0.00253857,
12.1977,0,0,0.0439417,0,0.00249495,
12.5466,0,0,0.040156,0,0.00239485,
12.9242,0,0,0.0389799,0,0.0022838,
13.3327,0,0,0.0347001,0,0.00222145,
13.7748,0,0,0.0248347,0,0.00217526,
14.2532,0,0,0.0105273,0,0.00213676,
14.7709,0,0,-0.00858405,0,0.00203036,
15.3312,0,0,-0.0227767,0,0.00196366,
15.9377,0,0,-0.0194252,0,0.00197081,
16.594,0,0,-0.000892142,0,0.00204209,
17.3044,0,0,0.0172924,0,0.00214564,
18.0733,0,0,0.0234551,0,0.00219973,
18.9056,0,0,0.01832,0,0.00221417,
19.8064,0,0,0.0103968,0,0.00224928,
20.7816,0,0,0.00748839,0,0.00229927,
21.8371,0,0,0.0117869,0,0.00232181,
22.9796,0,0,0.0172814,0,0.00230759,
24.2163,0,0,0.0142667,0,0.00222449,
25.5551,0,0,0.00424781,0,0.00213585,
27.0042,0,0,-0.00247065,0,0.0021692,
28.5729,0,0,0.00239977,0,0.00227688,
30.271,0,0,0.0130285,0,0.00234838,
32.1091,0,0,0.0145664,0,0.0023357,
34.0989,0,0,0.00570458,0,0.00229418,
36.2529,0,0,0.00105822,0,0.00234001,
38.5845,0,0,0.00868696,0,0.00250255,
41.1085,0,0,0.0172193,0,0.00261447,
43.8407,0,0,0.0147382,0,0.00250144,
46.7983,0,0,0.00632679,0,0.00231993,
50,0,0,0.00458066,0,0.00221987,

