3b6c862e88af5ddeb28aef2b5977eb9901e0f84c 
X,Z,x_velocity,cp,uw_b,cf,
1,0,0,-0.236112,0,0,
1,9,0,-0.127121,0,0,
1,8.99969,0.0157603,-0.127121,3.24509e-10,0,
1,8.99934,0.0336408,-0.127121,1.51684e-08,0,
1,8.99894,0.053945,-0.127121,2.09216e-07,0,
1,8.99848,0.0769929,-0.127121,1.53298e-06,0,
1,8.99797,0.103098,-0.127121,7.64994e-06,0,
1,8.99739,0.132439,-0.127121,2.8842e-05,0,
1,8.99672,0.164754,-0.127121,8.48029e-05,0,
1,8.99597,0.198971,-0.127121,0.000195002,0,
1,8.99512,0.233285,-0.12712,0.000355265,0,
1,8.99416,0.265933,-0.12712,0.000536703,0,
1,8.99306,0.296092,-0.12712,0.000696254,0,
1,8.99182,0.323819,-0.12712,0.000820735,0,
1,8.99041,0.349323,-0.127119,0.000924833,0,
1,8.98881,0.372784,-0.127119,0.00101032,0,
1,8.98699,0.394441,-0.127118,0.00108011,0,
1,8.98494,0.414605,-0.127118,0.0011336,0,
1,8.98261,0.433572,-0.127117,0.00117609,0,
1,8.97996,0.451559,-0.127116,0.00121185,0,
1,8.97696,0.468724,-0.127115,0.00124179,0,
1,8.97356,0.485199,-0.127114,0.00126712,0,
1,8.9697,0.501094,-0.127112,0.00128875,0,
1,8.96533,0.516504,-0.12711,0.00130735,0,
1,8.96038,0.531505,-0.127108,0.00132342,0,
1,8.95476,0.546164,-0.127106,0.00133731,0,
1,8.9484,0.560537,-0.127103,0.00134927,0,
1,8.9412,0.574672,-0.1271,0.00135948,0,
1,8.93303,0.588609,-0.127097,0.00136803,0,
1,8.92379,0.602384,-0.127094,0.00137499,0,
1,8.91333,0.616025,-0.12709,0.00138037,0,
1,8.90149,0.629559,-0.127087,0.00138415,0,
1,8.8881,0.643008,-0.127083,0.0013863,0,
1,8.87295,0.65639,-0.127079,0.00138673,0,
1,8.85584,0.669724,-0.127076,0.00138536,0,
1,8.83651,0.683024,-0.127073,0.00138207,0,
1,8.81469,0.696304,-0.127072,0.00137672,0,
1,8.79007,0.709579,-0.127072,0.00136916,0,
1,8.76232,0.722861,-0.127074,0.00135919,0,
1,8.73107,0.736166,-0.127078,0.00134655,0,
1,8.69591,0.749509,-0.127087,0.00133094,0,
1,8.6564,0.76291,-0.127101,0.00131198,0,
1,8.61206,0.776388,-0.127123,0.00128919,0,
1,8.56236,0.78997,-0.127152,0.00126227,0,
1,8.50675,0.803693,-0.127196,0.00123348,0,
1,8.44464,0.817663,-0.127255,0.00119803,0,
1,8.3754,0.832091,-0.127335,0.00115235,0,
1,8.29839,0.847259,-0.127442,0.00109507,0,
1,8.21296,0.863503,-0.127585,0.00102089,0,
1,8.11843,0.88116,-0.127766,0.000924249,0,
1,8.01417,0.900418,-0.128002,0.00079943,0,
1,7.89956,0.921063,-0.128291,0.000645072,0,
1,7.77403,0.94218,-0.128664,0.000475419,0,
1,7.63711,0.962128,-0.129113,0.000308862,0,
1,7.48842,0.978767,-0.129652,0.00012811,0,
1,7.32773,0.989812,-0.130307,3.72782e-05,0,
1,7.15495,0.994761,-0.13107,5.29304e-06,0,
1,6.97022,0.995603,-0.131958,2.07698e-07,0,
1,6.77388,0.995047,-0.132982,4.02035e-09,0,
1,6.56652,0.994758,-0.134163,1.06696e-08,0,
1,6.34896,0.995099,-0.135515,1.29838e-08,0,
1,6.12229,0.99582,-0.137054,1.4978e-08,0,
1,5.88784,0.996664,-0.138795,1.61023e-08,0,
1,5.64716,0.997552,-0.140755,1.71606e-08,0,
1,5.40194,0.998503,-0.142946,1.86183e-08,0,
1,5.15407,0.999552,-0.145378,2.04703e-08,0,
1,4.90545,1.00071,-0.148057,2.26329e-08,0,
1,4.65805,1.00199,-0.150984,2.49972e-08,0,
1,4.41376,1.00339,-0.154154,2.73962e-08,0,
1,4.17441,1.00487,-0.157557,2.95746e-08,0,
1,3.94163,1.00637,-0.161173,3.15672e-08,0,
1,3.7169,1.00787,-0.164977,3.45124e-08,0,
1,3.50146,1.00951,-0.168935,4.10353e-08,0,
1,3.29629,1.01167,-0.173011,5.28964e-08,0,
1,3.10217,1.01461,-0.177173,6.63419e-08,0,
1,2.91959,1.0178,-0.181382,2.27317e-07,0,
1,2.74885,1.01939,-0.18558,1.17726e-06,0,
1,2.59002,1.01696,-0.18969,-1.16437e-05,0,
1,2.44299,1.00927,-0.193625,-6.28555e-05,0,
1,2.30752,0.996963,-0.197308,-0.000154712,0,
1,2.18321,0.981741,-0.200688,-0.000270108,0,
1,2.06959,0.965281,-0.203741,-0.000387456,0,
1,1.9661,0.948804,-0.20647,-0.000490935,0,
1,1.87215,0.933063,-0.208886,-0.000573554,0,
1,1.78711,0.918426,-0.211007,-0.000636421,0,
1,1.71033,0.904949,-0.212857,-0.000685009,0,
1,1.64119,0.892497,-0.214462,-0.000725593,0,
1,1.57905,0.880865,-0.215847,-0.000759376,0,
1,1.52332,0.869859,-0.217038,-0.000789264,0,
1,1.47342,0.859349,-0.218057,-0.000817226,0,
1,1.42882,0.849259,-0.218927,-0.000843412,0,
1,1.389,0.839545,-0.219668,-0.000867448,0,
1,1.35351,0.830181,-0.220299,-0.000889205,0,
1,1.3219,0.821158,-0.220837,-0.000908646,0,
1,1.29378,0.81247,-0.221294,-0.00092576,0,
1,1.26878,0.804122,-0.221685,-0.000940499,0,
1,1.24659,0.796118,-0.222018,-0.000953117,0,
1,1.22689,0.788461,-0.222303,-0.000963507,0,
1,1.2092,0.781067,-0.222549,-0.000970914,0,
1,1.1932,0.773881,-0.222763,-0.000977043,0,
1,1.1787,0.766867,-0.222949,-0.00098574,0,
1,1.16554,0.759948,-0.22311,-0.00100431,0,
1,1.15357,0.752975,-0.223249,-0.001046,0,
1,1.14266,0.745691,-0.223372,-0.00113231,0,
1,1.13268,0.737709,-0.223488,-0.00129189,0,
1,1.12354,0.728541,-0.223609,-0.00155643,0,
1,1.11514,0.717732,-0.223744,-0.00195186,0,
1,1.10739,0.705073,-0.2239,-0.00248466,0,
1,1.10022,0.690746,-0.224078,-0.00313465,0,
1,1.09357,0.675261,-0.224276,-0.00385895,0,
1,1.08738,0.659233,-0.224488,-0.0046074,0,
1,1.0816,0.643197,-0.22471,-0.00533892,0,
1,1.07618,0.627529,-0.224939,-0.0060276,0,
1,1.07107,0.612456,-0.225172,-0.00666068,0,
1,1.06626,0.598094,-0.225405,-0.00723434,0,
1,1.06169,0.584484,-0.225636,-0.00774968,0,
1,1.05735,0.571622,-0.225866,-0.00821042,0,
1,1.05321,0.559479,-0.226093,-0.00862132,0,
1,1.04925,0.548012,-0.226317,-0.00898737,0,
1,1.04544,0.537171,-0.226538,-0.00931339,0,
1,1.04177,0.526908,-0.226756,-0.00960378,0,
1,1.03822,0.517174,-0.22697,-0.00986365,0,
1,1.03478,0.507922,-0.227181,-0.0100956,0,
1,1.03144,0.499103,-0.227389,-0.0103019,0,
1,1.02818,0.490671,-0.227592,-0.0104853,0,
1,1.025,0.482583,-0.227791,-0.010649,0,
1,1.02188,0.4748,-0.227987,-0.0107953,0,
1,1.01882,0.46729,-0.22818,-0.010926,0,
1,1.01581,0.460024,-0.228371,-0.0110427,0,
1,1.01284,0.452978,-0.228559,-0.0111457,0,
1,1.00988,0.446053,-0.228747,-0.0112377,0,
1,1.00688,0.439159,-0.228937,-0.0113215,0,
1,1.00384,0.432282,-0.22913,-0.0113963,0,
1,1.00076,0.425408,-0.229326,-0.0114621,0,
1,0.997615,0.418522,-0.229526,-0.011519,0,
1,0.99441,0.411609,-0.22973,-0.0115671,0,
1,0.991131,0.404651,-0.229938,-0.0116062,0,
1,0.987768,0.397632,-0.230151,-0.0116361,0,
1,0.984308,0.390534,-0.23037,-0.0116566,0,
1,0.980739,0.383337,-0.230595,-0.0116673,0,
1,0.977045,0.376022,-0.230827,-0.0116677,0,
1,0.973211,0.368565,-0.231066,-0.0116571,0,
1,0.969219,0.360946,-0.231314,-0.0116348,0,
1,0.965047,0.353139,-0.231571,-0.0115997,0,
1,0.960675,0.345119,-0.231837,-0.0115506,0,
1,0.956077,0.336859,-0.232113,-0.0114862,0,
1,0.951224,0.328332,-0.232401,-0.0114049,0,
1,0.946088,0.319509,-0.232699,-0.0113044,0,
1,0.940633,0.310357,-0.233007,-0.0111856,0,
1,0.934823,0.30084,-0.233292,-0.0110383,0,
1,0.928616,0.290908,-0.233487,-0.0108954,0,
1,0.921967,0.280425,-0.233551,-0.0106267,0,
1,0.914826,0.269226,-0.233512,-0.0103496,0,
1,0.907141,0.257206,-0.23345,-0.0100484,0,
1,0.898852,0.244261,-0.233409,-0.0097102,0,
1,0.889898,0.230314,-0.233406,-0.00932686,0,
1,0.880212,0.215385,-0.233462,-0.00891976,0,
1,0.869723,0.199649,-0.233572,-0.00849857,0,
1,0.858358,0.183365,-0.233718,-0.00806546,0,
1,0.846039,0.166778,-0.23388,-0.00762569,0,
1,0.83269,0.150042,-0.234053,-0.00718032,0,
1,0.818232,0.133162,-0.234233,-0.00670757,0,
1,0.802744,0.116205,-0.234473,-0.00620184,0,
1,0.78635,0.0992711,-0.234797,-0.00566909,0,
1,0.768969,0.0823365,-0.23515,-0.0051186,0,
1,0.75053,0.0654894,-0.235498,-0.00456585,0,
1,0.730977,0.0489094,-0.235816,-0.00403166,0,
1,0.710271,0.0328543,-0.236087,-0.00354044,0,
1,0.688397,0.0176293,-0.23629,-0.00311189,0,
1,0.66536,0.00351546,-0.236406,-0.00274343,0,
1,0.641194,-0.00926,-0.236426,-0.00244696,0,
1,0.615961,-0.0205427,-0.236345,-0.00221895,0,
1,0.589754,-0.0302925,-0.236163,-0.00204797,0,
1,0.562692,-0.0385749,-0.235835,-0.0019172,0,
1,0.534925,-0.0455038,-0.235368,-0.00181853,0,
1,0.506624,-0.0512132,-0.234702,-0.00176287,0,
1,0.477982,-0.0558654,-0.233807,-0.00177251,0,
1,0.449206,-0.059698,-0.232812,-0.00178317,0,
1,0.420509,-0.0629377,-0.231846,-0.00178787,0,
1,0.392107,-0.0657481,-0.230973,-0.00178173,0,
1,0.364206,-0.0682424,-0.230258,-0.00175923,0,
1,0.337003,-0.0704982,-0.229742,-0.00171653,0,
1,0.310673,-0.0725693,-0.22945,-0.00165289,0,
1,0.28537,-0.0744946,-0.229387,-0.00156765,0,
1,0.26122,-0.0763015,-0.229524,-0.00146632,0,
1,0.238324,-0.0780085,-0.229825,-0.00135298,0,
1,0.21675,-0.0796285,-0.230249,-0.00123244,0,
1,0.196544,-0.0811701,-0.230754,-0.00110913,0,
1,0.177724,-0.0826378,-0.2313,-0.000986684,0,
1,0.160284,-0.0840333,-0.231856,-0.000867779,0,
1,0.144202,-0.0853552,-0.232396,-0.000754235,0,
1,0.129436,-0.0865997,-0.232904,-0.000647168,0,
1,0.115935,-0.0877607,-0.23337,-0.000547184,0,
1,0.103636,-0.0888304,-0.233788,-0.000454539,0,
1,0.0924701,-0.0897996,-0.234158,-0.000369266,0,
1,0.0823633,-0.0906578,-0.234481,-0.000291258,0,
1,0.0732406,-0.0913939,-0.23476,-0.000220328,0,
1,0.0650269,-0.0919959,-0.234999,-0.000156234,0,
1,0.057648,-0.0924512,-0.235202,-9.87068e-05,0,
1,0.0510323,-0.0927461,-0.235375,-4.74626e-05,0,
1,0.0451115,-0.0928656,-0.235519,-2.21649e-06,0,
1,0.0398209,-0.0927924,-0.235641,3.73056e-05,0,
1,0.0351001,-0.0925058,-0.235741,7.13504e-05,0,
1,0.0308929,-0.0919802,-0.235824,0.000100117,0,
1,0.0271475,-0.0911825,-0.235892,0.000123728,0,
1,0.0238164,-0.0900687,-0.235947,0.000142184,0,
1,0.0208562,-0.0885793,-0.235991,0.000155305,0,
1,0.0182274,-0.0866332,-0.236026,0.00016264,0,
1,0.0158944,-0.0841202,-0.236052,0.000163369,0,
1,0.0138249,-0.0808966,-0.236073,0.000156287,0,
1,0.0119898,-0.0767928,-0.236086,0.000140144,0,
1,0.0103632,-0.0716548,-0.236096,0.000114837,0,
1,0.00892169,-0.0654417,-0.236101,8.33357e-05,0,
1,0.00764438,-0.0583506,-0.236105,5.21788e-05,0,
1,0.00651264,-0.0508343,-0.236106,2.79762e-05,0,
1,0.00550983,-0.0434214,-0.236108,1.30172e-05,0,
1,0.00462115,-0.036495,-0.236108,5.3733e-06,0,
1,0.00383341,-0.0302285,-0.236109,1.9979e-06,0,
1,0.0031349,-0.0246483,-0.236109,6.69198e-07,0,
1,0.00251518,-0.0197109,-0.23611,1.98377e-07,0,
1,0.00196502,-0.0153502,-0.236109,5.00617e-08,0,
1,0.00147619,-0.0114977,-0.236111,1.00222e-08,0,
1,0.00104139,-0.00808979,-0.236109,1.3975e-09,0,
1,0.000654158,-0.00507002,-0.236111,1.04319e-10,0,
1,0.000308731,-0.00238856,-0.236109,2.2858e-12,0,

4,0,0,-0.125166,0,0,
4,9,0,-0.0956354,0,0,
4,8.99969,0.0145656,-0.095635,2.48273e-10,0,
4,8.99934,0.0310329,-0.0956353,1.15185e-08,0,
4,8.99894,0.0496691,-0.095635,1.57271e-07,0,
4,8.9985,0.070756,-0.0956352,1.14111e-06,0,
4,8.99799,0.0945774,-0.095635,5.65719e-06,0,
4,8.99742,0.121327,-0.0956351,2.13579e-05,0,
4,8.99677,0.15088,-0.0956349,6.37268e-05,0,
4,8.99605,0.182475,-0.095635,0.000150931,0,
4,8.99522,0.214653,-0.0956347,0.000285596,0,
4,8.99429,0.245802,-0.0956347,0.000445374,0,
4,8.99324,0.274826,-0.0956344,0.000604402,0,
4,8.99205,0.301539,-0.0956341,0.000729215,0,
4,8.9907,0.326141,-0.0956336,0.000833063,0,
4,8.98919,0.348791,-0.0956332,0.000920079,0,
4,8.98747,0.369694,-0.0956325,0.0009924,0,
4,8.98553,0.389136,-0.0956317,0.00104834,0,
4,8.98334,0.407395,-0.0956307,0.00109439,0,
4,8.98087,0.424672,-0.0956296,0.00113348,0,
4,8.97807,0.441128,-0.0956283,0.00116691,0,
4,8.97491,0.456897,-0.0956267,0.00119595,0,
4,8.97134,0.472093,-0.0956248,0.00122156,0,
4,8.96731,0.48681,-0.0956226,0.00124445,0,
4,8.96276,0.501131,-0.0956201,0.00126515,0,
4,8.95762,0.515126,-0.0956171,0.00128404,0,
4,8.95182,0.528854,-0.0956137,0.00130139,0,
4,8.94526,0.54237,-0.0956099,0.00131736,0,
4,8.93787,0.555717,-0.0956055,0.00133204,0,
4,8.92952,0.568934,-0.0956006,0.00134547,0,
4,8.92011,0.582057,-0.0955951,0.0013576,0,
4,8.90949,0.595113,-0.095589,0.00136835,0,
4,8.89751,0.608127,-0.0955822,0.00137759,0,
4,8.88402,0.621119,-0.0955748,0.00138517,0,
4,8.86881,0.634105,-0.0955667,0.00139091,0,
4,8.85169,0.6471,-0.0955581,0.0013946,0,
4,8.83242,0.660112,-0.0955491,0.00139603,0,
4,8.81074,0.673149,-0.0955397,0.00139499,0,
4,8.78637,0.686218,-0.0955301,0.00139126,0,
4,8.75901,0.699323,-0.0955207,0.00138461,0,
4,8.7283,0.712469,-0.0955118,0.00137479,0,
4,8.69387,0.725662,-0.095504,0.00136154,0,
4,8.65533,0.738908,-0.0954978,0.0013445,0,
4,8.61222,0.752218,-0.0954942,0.00132325,0,
4,8.56407,0.765605,-0.0954941,0.0012974,0,
4,8.5104,0.779088,-0.0954993,0.00126788,0,
4,8.45065,0.792723,-0.0955126,0.00123385,0,
4,8.38429,0.806652,-0.0955373,0.00119176,0,
4,8.31073,0.821102,-0.0955765,0.00114032,0,
4,8.22941,0.836376,-0.0956339,0.00107526,0,
4,8.13974,0.852829,-0.0957129,0.000991763,0,
4,8.04115,0.870787,-0.0958164,0.000884509,0,
4,7.93313,0.890377,-0.0959444,0.000750237,0,
4,7.81519,0.911205,-0.0961017,0.000593423,0,
4,7.68693,0.932023,-0.0962805,0.000433002,0,
4,7.54803,0.950798,-0.0965033,0.000286076,0,
4,7.39831,0.965473,-0.096755,0.000151933,0,
4,7.23771,0.974793,-0.0970594,5.47475e-05,0,
4,7.06634,0.979014,-0.0974248,1.19289e-05,0,
4,6.88453,0.979869,-0.097835,7.7105e-07,0,
4,6.69275,0.979417,-0.0982937,-2.08695e-07,0,
4,6.49173,0.978959,-0.098805,-1.24115e-08,0,
4,6.28238,0.978892,-0.0993777,2.87749e-08,0,
4,6.06579,0.979118,-0.100019,1.82241e-08,0,
4,5.84328,0.979456,-0.100733,1.07694e-08,0,
4,5.61626,0.979812,-0.101525,8.30266e-09,0,
4,5.3863,0.980167,-0.102397,7.87884e-09,0,
4,5.15502,0.980537,-0.103351,8.26816e-09,0,
4,4.92406,0.980938,-0.104386,9.08004e-09,0,
4,4.69507,0.981384,-0.105501,1.00837e-08,0,
4,4.46961,0.981874,-0.106691,1.10038e-08,0,
4,4.24915,0.982377,-0.107952,1.14176e-08,0,
4,4.03501,0.982827,-0.109274,1.11576e-08,0,
4,3.82836,0.983166,-0.110648,1.09067e-08,0,
4,3.63018,0.983445,-0.112061,1.29155e-08,0,
4,3.44125,0.983914,-0.113498,2.2897e-08,0,
4,3.26217,0.984948,-0.114946,1.40741e-07,0,
4,3.09333,0.986721,-0.116387,1.10044e-06,0,
4,2.93497,0.98883,-0.117805,3.45596e-06,0,
4,2.78715,0.990281,-0.119185,3.31819e-06,0,
4,2.64979,0.989948,-0.120513,-6.06703e-06,0,
4,2.52268,0.987073,-0.121771,-2.88039e-05,0,
4,2.40551,0.98149,-0.122942,-6.48313e-05,0,
4,2.29789,0.97355,-0.124013,-0.000111037,0,
4,2.19939,0.963893,-0.124978,-0.000162877,0,
4,2.10949,0.953224,-0.125834,-0.000215791,0,
4,2.02768,0.942163,-0.126586,-0.000266129,0,
4,1.95343,0.931188,-0.127242,-0.000311585,0,
4,1.88618,0.920622,-0.12781,-0.000351115,0,
4,1.82542,0.910662,-0.128298,-0.000384613,0,
4,1.77062,0.901405,-0.128717,-0.000412556,0,
4,1.72128,0.892884,-0.129075,-0.000435717,0,
4,1.67693,0.885089,-0.129381,-0.000454952,0,
4,1.63713,0.877987,-0.129642,-0.000471039,0,
4,1.60144,0.871534,-0.129864,-0.000484592,0,
4,1.56949,0.865684,-0.130053,-0.000495809,0,
4,1.54091,0.860392,-0.130215,-0.000505832,0,
4,1.51537,0.855597,-0.130353,-0.000514348,0,
4,1.49167,0.851096,-0.130475,-0.0005207,0,
4,1.46926,0.846791,-0.130586,-0.00052607,0,
4,1.44801,0.842657,-0.130687,-0.000530676,0,
4,1.42781,0.838674,-0.130778,-0.000534405,0,
4,1.40855,0.834824,-0.130861,-0.000537325,0,
4,1.39015,0.831093,-0.130937,-0.000539528,0,
4,1.37252,0.827464,-0.131007,-0.000541156,0,
4,1.3556,0.823924,-0.13107,-0.000542332,0,
4,1.3393,0.820458,-0.131128,-0.00054325,0,
4,1.32357,0.817051,-0.131181,-0.000544196,0,
4,1.30836,0.813687,-0.13123,-0.000545568,0,
4,1.29362,0.810346,-0.131275,-0.000547892,0,
4,1.2793,0.807008,-0.131316,-0.000551843,0,
4,1.26537,0.803646,-0.131354,-0.000558334,0,
4,1.25179,0.80023,-0.131388,-0.000568445,0,
4,1.23852,0.796724,-0.13142,-0.000583513,0,
4,1.22554,0.793083,-0.131448,-0.000605163,0,
4,1.21282,0.789253,-0.131473,-0.00063531,0,
4,1.20034,0.78517,-0.131496,-0.000676146,0,
4,1.18806,0.780761,-0.131515,-0.000730085,0,
4,1.17599,0.775944,-0.13153,-0.000799661,0,
4,1.16408,0.770632,-0.131542,-0.000887364,0,
4,1.15233,0.764741,-0.131551,-0.000995418,0,
4,1.14073,0.758195,-0.131557,-0.00112554,0,
4,1.12925,0.750936,-0.131559,-0.00127867,0,
4,1.11788,0.742934,-0.131558,-0.00145483,0,
4,1.10661,0.734183,-0.131554,-0.00165303,0,
4,1.09543,0.724707,-0.131549,-0.00187125,0,
4,1.08432,0.714556,-0.131542,-0.00210673,0,
4,1.07328,0.703794,-0.131533,-0.00235623,0,
4,1.0623,0.692496,-0.131525,-0.00261633,0,
4,1.05136,0.680743,-0.131516,-0.0028836,0,
4,1.04044,0.668594,-0.131508,-0.0031549,0,
4,1.0295,0.656102,-0.1315,-0.00342757,0,
4,1.01855,0.643338,-0.131494,-0.00369902,0,
4,1.00757,0.630365,-0.131488,-0.00396645,0,
4,0.996544,0.617245,-0.131484,-0.0042273,0,
4,0.98547,0.604034,-0.131481,-0.00447895,0,
4,0.974334,0.590786,-0.131479,-0.00471861,0,
4,0.963124,0.57756,-0.131479,-0.00494308,0,
4,0.951826,0.564412,-0.13148,-0.00515038,0,
4,0.940428,0.551398,-0.131483,-0.0053369,0,
4,0.928915,0.538554,-0.131484,-0.00549683,0,
4,0.917272,0.525894,-0.131485,-0.00562774,0,
4,0.905481,0.513417,-0.131476,-0.00572776,0,
4,0.893524,0.501107,-0.13147,-0.00580473,0,
4,0.881383,0.488905,-0.131416,-0.00585605,0,
4,0.869035,0.476654,-0.131294,-0.00585896,0,
4,0.856459,0.464207,-0.131158,-0.00587015,0,
4,0.843629,0.451502,-0.131015,-0.00588922,0,
4,0.830518,0.438509,-0.130869,-0.00591541,0,
4,0.817097,0.425205,-0.130723,-0.00594856,0,
4,0.803334,0.411564,-0.130578,-0.00598874,0,
4,0.789195,0.39756,-0.130435,-0.00603695,0,
4,0.774643,0.383164,-0.130294,-0.00609419,0,
4,0.759639,0.368342,-0.130155,-0.00616085,0,
4,0.744138,0.353047,-0.13002,-0.00623678,0,
4,0.728096,0.33722,-0.129893,-0.00632208,0,
4,0.711463,0.320791,-0.129775,-0.00641766,0,
4,0.694189,0.303689,-0.129667,-0.00652419,0,
4,0.676218,0.285839,-0.12957,-0.00664178,0,
4,0.657495,0.267171,-0.129486,-0.0067701,0,
4,0.637962,0.247626,-0.129418,-0.00690854,0,
4,0.617561,0.227162,-0.129365,-0.00705593,0,
4,0.596848,0.206326,-0.129334,-0.00720555,0,
4,0.576557,0.185846,-0.12933,-0.00734837,0,
4,0.556564,0.165669,-0.129351,-0.00748106,0,
4,0.536763,0.145778,-0.1294,-0.0075995,0,
4,0.517057,0.126192,-0.129476,-0.00769923,0,
4,0.497368,0.106961,-0.129581,-0.00777577,0,
4,0.477632,0.0881422,-0.129708,-0.00782482,0,
4,0.457804,0.0697726,-0.129848,-0.00784213,0,
4,0.437857,0.0518475,-0.129982,-0.00782302,0,
4,0.417786,0.0343289,-0.130094,-0.00776197,0,
4,0.397605,0.0172063,-0.130189,-0.00765303,0,
4,0.377348,0.000621022,-0.130316,-0.00749314,0,
4,0.357066,-0.0149887,-0.130592,-0.00728993,0,
4,0.336828,-0.0288742,-0.131214,-0.00706901,0,
4,0.316717,-0.0402985,-0.132407,-0.00687152,0,
4,0.296825,-0.0490963,-0.134188,-0.00672435,0,
4,0.27725,-0.0558979,-0.135371,-0.0065007,0,
4,0.258095,-0.061683,-0.135411,-0.00583852,0,
4,0.239458,-0.0669971,-0.135102,-0.00541701,0,
4,0.221432,-0.0719028,-0.134753,-0.00499793,0,
4,0.2041,-0.0764414,-0.13427,-0.00458648,0,
4,0.187537,-0.0806463,-0.133704,-0.00418571,0,
4,0.171798,-0.0845462,-0.133075,-0.00379935,0,
4,0.156928,-0.0881659,-0.132408,-0.00343058,0,
4,0.142956,-0.0915264,-0.131727,-0.00308166,0,
4,0.129894,-0.0946454,-0.131052,-0.00275408,0,
4,0.117744,-0.0975375,-0.130399,-0.00244863,0,
4,0.106492,-0.100215,-0.129782,-0.0021655,0,
4,0.0961173,-0.102688,-0.129208,-0.00190439,0,
4,0.0865883,-0.104966,-0.128682,-0.00166464,0,
4,0.0778675,-0.107055,-0.128206,-0.00144533,0,
4,0.0699123,-0.108961,-0.127781,-0.00124536,0,
4,0.062677,-0.11069,-0.127403,-0.00106352,0,
4,0.056114,-0.112246,-0.127071,-0.000898537,0,
4,0.0501747,-0.113633,-0.12678,-0.000749141,0,
4,0.0448114,-0.114854,-0.126528,-0.000614084,0,
4,0.039977,-0.115911,-0.126309,-0.000492164,0,
4,0.0356266,-0.116805,-0.12612,-0.000382243,0,
4,0.0317171,-0.117535,-0.125958,-0.000283261,0,
4,0.0282081,-0.1181,-0.12582,-0.000194241,0,
4,0.0250617,-0.118496,-0.125701,-0.000114298,0,
4,0.0222427,-0.118715,-0.125601,-4.26474e-05,0,
4,0.0197189,-0.118747,-0.125516,2.13816e-05,0,
4,0.0174603,-0.118575,-0.125444,7.83314e-05,0,
4,0.0154398,-0.118174,-0.125385,0.00012858,0,
4,0.0136326,-0.117509,-0.125335,0.000172288,0,
4,0.0120162,-0.116528,-0.125294,0.000209291,0,
4,0.0105703,-0.115155,-0.12526,0.00023893,0,
4,0.00927657,-0.113278,-0.125235,0.000259747,0,
4,0.00811839,-0.110734,-0.125213,0.00026909,0,
4,0.0070809,-0.107289,-0.125199,0.000262855,0,
4,0.0061507,-0.102641,-0.125187,0.000236487,0,
4,0.00531578,-0.096482,-0.125181,0.000189121,0,
4,0.00456537,-0.0886755,-0.125175,0.000129509,0,
4,0.00388979,-0.0794702,-0.125174,7.43349e-05,0,
4,0.00328037,-0.0694687,-0.125171,3.58488e-05,0,
4,0.00272934,-0.0593084,-0.125173,1.47286e-05,0,
4,0.0022297,-0.0494124,-0.12517,5.17633e-06,0,
4,0.00177519,-0.0399771,-0.125172,1.52283e-06,0,
4,0.00136016,-0.0310582,-0.125169,3.52992e-07,0,
4,0.000979511,-0.0226447,-0.125171,5.6838e-08,0,
4,0.00062865,-0.0146978,-0.125167,4.87266e-09,0,
4,0.000303409,-0.00716802,-0.125171,1.19239e-10,0,

6,0,0,-0.00831155,0,0,
6,9,0,-0.0713227,0,0,
6,8.99969,0.0138612,-0.0713224,2.10156e-10,0,
6,8.99934,0.0294919,-0.0713227,9.69875e-09,0,
6,8.99895,0.0471354,-0.0713224,1.31476e-07,0,
6,8.9985,0.0670485,-0.0713226,9.47127e-07,0,
6,8.99801,0.0894925,-0.0713224,4.66988e-06,0,
6,8.99744,0.114659,-0.0713225,1.76125e-05,0,
6,8.99681,0.142485,-0.0713223,5.29175e-05,0,
6,8.99609,0.172363,-0.0713224,0.000127445,0,
6,8.99529,0.203031,-0.0713222,0.000246957,0,
6,8.99438,0.232974,-0.0713221,0.000394701,0,
6,8.99336,0.261053,-0.0713218,0.00054645,0,
6,8.9922,0.286945,-0.0713217,0.000671393,0,
6,8.9909,0.310803,-0.0713213,0.00077307,0,
6,8.98944,0.332791,-0.0713209,0.000859203,0,
6,8.98779,0.353086,-0.0713203,0.000931474,0,
6,8.98593,0.37195,-0.0713197,0.000987966,0,
6,8.98383,0.389643,-0.0713189,0.00103482,0,
6,8.98147,0.406361,-0.071318,0.00107475,0,
6,8.97881,0.422258,-0.0713168,0.00110916,0,
6,8.97581,0.437469,-0.0713155,0.00113931,0,
6,8.97244,0.452104,-0.0713138,0.0011662,0,
6,8.96863,0.466259,-0.0713119,0.00119055,0,
6,8.96435,0.480017,-0.0713096,0.00121293,0,
6,8.95953,0.493449,-0.071307,0.00123374,0,
6,8.95409,0.506617,-0.0713038,0.00125327,0,
6,8.94798,0.519575,-0.0713002,0.00127171,0,
6,8.94109,0.53237,-0.071296,0.00128918,0,
6,8.93334,0.545045,-0.0712912,0.00130571,0,
6,8.92463,0.557636,-0.0712856,0.00132127,0,
6,8.91482,0.570176,-0.0712792,0.0013358,0,
6,8.90379,0.582693,-0.0712719,0.00134915,0,
6,8.89139,0.59521,-0.0712637,0.00136114,0,
6,8.87746,0.607748,-0.0712544,0.00137156,0,
6,8.86181,0.620322,-0.0712439,0.00138016,0,
6,8.84423,0.632946,-0.0712322,0.00138666,0,
6,8.82452,0.645629,-0.0712191,0.00139077,0,
6,8.80241,0.658375,-0.0712046,0.00139217,0,
6,8.77763,0.671188,-0.0711886,0.00139056,0,
6,8.74989,0.68407,-0.071171,0.00138563,0,
6,8.71885,0.69702,-0.0711518,0.00137704,0,
6,8.68417,0.710036,-0.0711309,0.00136446,0,
6,8.64545,0.72312,-0.0711082,0.00134753,0,
6,8.60229,0.736271,-0.0710838,0.0013259,0,
6,8.55423,0.749496,-0.0710579,0.00129919,0,
6,8.50082,0.76281,-0.0710311,0.00126796,0,
6,8.44155,0.776261,-0.0710034,0.00123175,0,
6,8.37592,0.789955,-0.0709761,0.00118943,0,
6,8.30339,0.804079,-0.0709501,0.00113888,0,
6,8.22344,0.818913,-0.0709266,0.00107665,0,
6,8.13555,0.834818,-0.0709046,0.000998646,0,
6,8.0392,0.852176,-0.0708831,0.000900178,0,
6,7.93391,0.871221,-0.0708548,0.000777701,0,
6,7.81927,0.89171,-0.0708165,0.000633795,0,
6,7.6949,0.912553,-0.0707569,0.00048395,0,
6,7.56054,0.931844,-0.070678,0.000342572,0,
6,7.41603,0.947582,-0.0705761,0.000223204,0,
6,7.26132,0.958577,-0.0704547,0.00010104,0,
6,7.09653,0.964671,-0.0703161,3.19931e-05,0,
6,6.92195,0.966858,-0.0701477,4.63328e-06,0,
6,6.73802,0.966842,-0.0699473,-1.23744e-06,0,
6,6.5454,0.966124,-0.0697062,-9.51215e-07,0,
6,6.34489,0.965493,-0.069421,-3.25568e-07,0,
6,6.1375,0.965118,-0.0690867,-9.49959e-08,0,
6,5.92439,0.964894,-0.0686983,-3.37694e-08,0,
6,5.70687,0.96469,-0.0682497,-1.66857e-08,0,
6,5.48633,0.964439,-0.0677347,-1.11484e-08,0,
6,5.26426,0.964126,-0.067147,-9.59024e-09,0,
6,5.04218,0.963762,-0.0664804,-9.66401e-09,0,
6,4.82159,0.963363,-0.0657293,-1.04144e-08,0,
6,4.60398,0.962939,-0.0648893,-1.15795e-08,0,
6,4.39071,0.962482,-0.0639571,-1.33527e-08,0,
6,4.18307,0.96195,-0.0629314,-1.61647e-08,0,
6,3.98218,0.961274,-0.0618132,-2.02781e-08,0,
6,3.78902,0.960416,-0.0606059,-2.53187e-08,0,
6,3.60438,0.959451,-0.0593157,-3.74592e-08,0,
6,3.42888,0.958605,-0.0579509,-1.0097e-07,0,
6,3.26296,0.958177,-0.0565209,-2.65128e-07,0,
6,3.10691,0.958332,-0.055035,-3.768e-07,0,
6,2.96084,0.958921,-0.0535056,-4.80209e-07,0,
6,2.82473,0.959468,-0.0519483,-2.16107e-06,0,
6,2.69844,0.959355,-0.0503816,-8.40924e-06,0,
6,2.58172,0.958046,-0.0488241,-2.18722e-05,0,
6,2.47424,0.955235,-0.0472947,-4.36791e-05,0,
6,2.37559,0.950887,-0.0458106,-7.33248e-05,0,
6,2.28535,0.945183,-0.0443862,-0.000109158,0,
6,2.20301,0.93843,-0.0430329,-0.000148982,0,
6,2.1281,0.930982,-0.0417586,-0.000190571,0,
6,2.06009,0.923173,-0.0405677,-0.000232013,0,
6,1.99849,0.915289,-0.0394622,-0.000271881,0,
6,1.9428,0.907547,-0.0384415,-0.000309266,0,
6,1.89255,0.900104,-0.037504,-0.000343824,0,
6,1.84728,0.893065,-0.0366461,-0.000375235,0,
6,1.80655,0.886489,-0.0358644,-0.000403418,0,
6,1.76996,0.880406,-0.0351535,-0.000428281,0,
6,1.73712,0.874827,-0.03451,-0.000451441,0,
6,1.70768,0.869711,-0.0339268,-0.000472334,0,
6,1.67998,0.864825,-0.0333756,-0.000490518,0,
6,1.65329,0.86006,-0.0328396,-0.000507839,0,
6,1.62754,0.855409,-0.0323192,-0.000524469,0,
6,1.60265,0.850865,-0.0318126,-0.000540217,0,
6,1.57854,0.846425,-0.0313191,-0.000555093,0,
6,1.55515,0.842081,-0.0308375,-0.000569119,0,
6,1.53242,0.837829,-0.030367,-0.000582304,0,
6,1.5103,0.833663,-0.0299065,-0.000594652,0,
6,1.48874,0.829578,-0.0294555,-0.000606163,0,
6,1.46769,0.825567,-0.0290131,-0.000616834,0,
6,1.44712,0.821626,-0.0285787,-0.00062666,0,
6,1.42698,0.817749,-0.0281516,-0.000635642,0,
6,1.40725,0.81393,-0.0277314,-0.000643785,0,
6,1.38788,0.810164,-0.0273174,-0.000651116,0,
6,1.36886,0.806445,-0.0269092,-0.000657681,0,
6,1.35015,0.802765,-0.0265064,-0.000663562,0,
6,1.33173,0.799116,-0.0261086,-0.000668844,0,
6,1.31357,0.795488,-0.0257155,-0.000673778,0,
6,1.29566,0.79187,-0.0253266,-0.00067874,0,
6,1.27797,0.788248,-0.0249416,-0.000684265,0,
6,1.26048,0.784607,-0.0245601,-0.000691125,0,
6,1.24318,0.780925,-0.0241818,-0.000700319,0,
6,1.22605,0.777178,-0.0238064,-0.000713449,0,
6,1.20907,0.773334,-0.0234339,-0.000732391,0,
6,1.19223,0.769352,-0.0230642,-0.00075948,0,
6,1.17551,0.765177,-0.0226974,-0.000797693,0,
6,1.1589,0.760741,-0.0223338,-0.000850583,0,
6,1.14238,0.755961,-0.0219737,-0.000922006,0,
6,1.12595,0.750744,-0.0216175,-0.00101549,0,
6,1.10959,0.744998,-0.0212657,-0.00113336,0,
6,1.09329,0.738647,-0.020919,-0.00127485,0,
6,1.07704,0.73166,-0.020577,-0.0014352,0,
6,1.06081,0.724065,-0.0202443,-0.00161375,0,
6,1.04459,0.715878,-0.0198929,-0.00177847,0,
6,1.02836,0.707075,-0.0195242,-0.00194863,0,
6,1.01211,0.697643,-0.0191637,-0.00212844,0,
6,0.99583,0.687586,-0.0188047,-0.0023169,0,
6,0.97951,0.676906,-0.0184522,-0.00251387,0,
6,0.963136,0.6656,-0.0181057,-0.00272,0,
6,0.946694,0.653659,-0.0177671,-0.0029364,0,
6,0.930172,0.641073,-0.0174375,-0.00316437,0,
6,0.913555,0.627832,-0.0171183,-0.00340509,0,
6,0.896829,0.613929,-0.0168106,-0.00365941,0,
6,0.879979,0.599366,-0.0165152,-0.00392781,0,
6,0.862989,0.584158,-0.0162318,-0.00421052,0,
6,0.845842,0.568336,-0.0159608,-0.00450808,0,
6,0.828521,0.551953,-0.0157005,-0.00482188,0,
6,0.811008,0.535061,-0.0154557,-0.00514856,0,
6,0.793282,0.517687,-0.0152323,-0.00548169,0,
6,0.775322,0.499848,-0.0150295,-0.00581929,0,
6,0.757107,0.481565,-0.0148479,-0.00615903,0,
6,0.738612,0.462881,-0.0146878,-0.00649787,0,
6,0.719813,0.443862,-0.0145505,-0.00683181,0,
6,0.700681,0.424594,-0.0144365,-0.00715567,0,
6,0.681188,0.40517,-0.0143457,-0.00746318,0,
6,0.661304,0.38568,-0.0142766,-0.00774748,0,
6,0.640996,0.366207,-0.0142287,-0.00800259,0,
6,0.620228,0.34683,-0.0142029,-0.00822364,0,
6,0.598964,0.327629,-0.0142011,-0.00840655,0,
6,0.577166,0.308688,-0.0142248,-0.00854799,0,
6,0.554791,0.290085,-0.014272,-0.00864536,0,
6,0.531799,0.271867,-0.0143332,-0.00869623,0,
6,0.508144,0.254022,-0.0143878,-0.00869746,0,
6,0.48378,0.236468,-0.0144128,-0.00864396,0,
6,0.459585,0.21969,-0.0143969,-0.00853382,0,
6,0.436695,0.204352,-0.0143851,-0.00837691,0,
6,0.414961,0.190455,-0.0144924,-0.00818786,0,
6,0.394252,0.178248,-0.0148833,-0.00799092,0,
6,0.374445,0.16809,-0.0157557,-0.00781672,0,
6,0.355433,0.16011,-0.0172415,-0.00768662,0,
6,0.337122,0.153952,-0.0188085,-0.007582,0,
6,0.319433,0.148861,-0.0193287,-0.00711332,0,
6,0.3023,0.14427,-0.0189992,-0.00663257,0,
6,0.28567,0.139957,-0.0186384,-0.0062718,0,
6,0.269507,0.135877,-0.018258,-0.00591951,0,
6,0.253785,0.131996,-0.017822,-0.00557329,0,
6,0.238493,0.128289,-0.017349,-0.00523429,0,
6,0.223631,0.124736,-0.0168425,-0.00490341,0,
6,0.209207,0.121321,-0.0163126,-0.00458168,0,
6,0.195237,0.118032,-0.0157653,-0.00427007,0,
6,0.181744,0.114859,-0.0152112,-0.00396953,0,
6,0.168754,0.111796,-0.0146559,-0.00368095,0,
6,0.156292,0.108837,-0.0141089,-0.00340515,0,
6,0.144384,0.105978,-0.013576,-0.0031428,0,
6,0.133052,0.103219,-0.0130642,-0.00289444,0,
6,0.122315,0.100555,-0.0125773,-0.00266043,0,
6,0.112183,0.0979861,-0.0121199,-0.00244096,0,
6,0.102665,0.0955104,-0.0116939,-0.00223605,0,
6,0.0937597,0.0931264,-0.0113013,-0.00204553,0,
6,0.0854609,0.0908321,-0.010942,-0.00186912,0,
6,0.077757,0.0886256,-0.0106162,-0.00170638,0,
6,0.0706309,0.0865041,-0.0103223,-0.00155677,0,
6,0.0640611,0.0844645,-0.0100592,-0.00141967,0,
6,0.0580229,0.0825032,-0.00982473,-0.0012944,0,
6,0.0524888,0.0806159,-0.00961697,-0.00118023,0,
6,0.0474296,0.0787979,-0.00943353,-0.00107643,0,
6,0.042815,0.0770438,-0.00927237,-0.000982218,0,
6,0.0386145,0.0753478,-0.00913114,-0.000896865,0,
6,0.0347975,0.0737035,-0.00900788,-0.00081964,0,
6,0.0313344,0.0721039,-0.00890057,-0.000749836,0,
6,0.0281964,0.0705412,-0.00880747,-0.000686768,0,
6,0.0253561,0.0690072,-0.00872687,-0.000629787,0,
6,0.0227875,0.0674925,-0.00865738,-0.000578276,0,
6,0.0204662,0.0659868,-0.00859751,-0.000531643,0,
6,0.0183694,0.0644781,-0.00854632,-0.000489314,0,
6,0.016476,0.0629526,-0.0085024,-0.00045073,0,
6,0.0147664,0.0613941,-0.00846537,-0.000415333,0,
6,0.0132228,0.0597826,-0.00843366,-0.00038254,0,
6,0.0118288,0.0580935,-0.00840762,-0.000351718,0,
6,0.0105693,0.0562953,-0.00838525,-0.000322132,0,
6,0.00943073,0.054348,-0.00836784,-0.000292892,0,
6,0.00840063,0.0521995,-0.00835265,-0.000262886,0,
6,0.00746774,0.0497843,-0.0083421,-0.000230772,0,
6,0.00662185,0.0470249,-0.00833247,-0.000195194,0,
6,0.00585371,0.0438445,-0.00832733,-0.000155573,0,
6,0.00515491,0.0402014,-0.00832178,-0.000113567,0,
6,0.00451788,0.0361414,-0.00832048,-7.38897e-05,0,
6,0.00393573,0.0318279,-0.00831727,-4.22004e-05,0,
6,0.00340221,0.0274929,-0.00831803,-2.11804e-05,0,
6,0.00291168,0.023337,-0.00831551,-9.43212e-06,0,
6,0.00245897,0.0194723,-0.00831718,-3.74432e-06,0,
6,0.00203939,0.0159315,-0.00831449,-1.31082e-06,0,
6,0.00164864,0.0127013,-0.00831681,-3.91287e-07,0,
6,0.00128281,0.00974906,-0.00831358,-9.30496e-08,0,
6,0.000938257,0.00703737,-0.00831666,-1.54667e-08,0,
6,0.000611645,0.00452994,-0.00831262,-1.36931e-09,0,
6,0.000299862,0.00219409,-0.00831669,-3.40197e-11,0,

10,0.000296632,0.0108927,0.0296153,-1.28896e-10,0,
10,0.000596102,0.0218861,0.0296149,-4.77685e-09,0,
10,0.000900397,0.0330531,0.0296152,-4.85567e-08,0,
10,0.00121153,0.0444664,0.0296149,-2.60727e-07,0,
10,0.00153158,0.0561973,0.0296151,-9.73297e-07,0,
10,0.00186264,0.0683123,0.0296148,-2.88133e-06,0,
10,0.00220692,0.0808661,0.029615,-7.25416e-06,0,
10,0.00256668,0.09389,0.0296147,-1.61501e-05,0,
10,0.00294431,0.107374,0.0296149,-3.24914e-05,0,
10,0.00334229,0.121247,0.0296146,-5.97437e-05,0,
10,0.00376326,0.135361,0.0296146,-0.000100967,0,
10,0.00421,0.14949,0.0296143,-0.000157394,0,
10,0.00468544,0.163362,0.0296142,-0.000227335,0,
10,0.00519274,0.176703,0.0296137,-0.000306341,0,
10,0.00573524,0.18929,0.0296133,-0.000388655,0,
10,0.00631651,0.200978,0.0296125,-0.000468991,0,
10,0.00694041,0.2117,0.0296116,-0.000543606,0,
10,0.00761104,0.221456,0.0296103,-0.000610495,0,
10,0.00833284,0.23029,0.0296087,-0.000669047,0,
10,0.00911058,0.238273,0.0296066,-0.000719581,0,
10,0.0099494,0.245489,0.029604,-0.000762931,0,
10,0.0108548,0.252027,0.0296008,-0.000800157,0,
10,0.0118329,0.257969,0.0295969,-0.000832363,0,
10,0.0128901,0.263393,0.0295923,-0.000860596,0,
10,0.0140333,0.268369,0.0295867,-0.000885791,0,
10,0.0152702,0.272958,0.0295802,-0.000908765,0,
10,0.0166089,0.277213,0.0295725,-0.000930217,0,
10,0.0180584,0.28118,0.0295637,-0.00095075,0,
10,0.0196282,0.2849,0.0295533,-0.000970873,0,
10,0.0213288,0.288405,0.0295416,-0.00099103,0,
10,0.0231714,0.291725,0.0295279,-0.00101161,0,
10,0.0251682,0.294887,0.0295126,-0.00103298,0,
10,0.0273326,0.297913,0.0294949,-0.00105546,0,
10,0.0296789,0.300822,0.029475,-0.00107935,0,
10,0.0322227,0.303631,0.0294523,-0.00110496,0,
10,0.0349809,0.306357,0.0294269,-0.00113259,0,
10,0.0379719,0.309013,0.029398,-0.00116254,0,
10,0.0412155,0.311613,0.0293657,-0.00119512,0,
10,0.0447333,0.314167,0.0293293,-0.00123065,0,
10,0.0485489,0.316687,0.0292886,-0.00126948,0,
10,0.0526875,0.319184,0.0292429,-0.00131197,0,
10,0.0571768,0.321667,0.0291918,-0.0013585,0,
10,0.0620466,0.324146,0.0291348,-0.00140948,0,
10,0.0673295,0.326631,0.0290712,-0.00146538,0,
10,0.0730607,0.329131,0.0290004,-0.00152668,0,
10,0.0792784,0.331656,0.0289215,-0.00159391,0,
10,0.0860241,0.334215,0.028834,-0.00166764,0,
10,0.0933428,0.336818,0.0287367,-0.00174851,0,
10,0.101283,0.339477,0.0286292,-0.0018372,0,
10,0.109899,0.342201,0.02851,-0.00193445,0,
10,0.119247,0.345004,0.0283788,-0.00204107,0,
10,0.12939,0.347898,0.0282337,-0.00215795,0,
10,0.140395,0.350898,0.0280747,-0.00228604,0,
10,0.152337,0.354018,0.0279001,-0.00242642,0,
10,0.165296,0.357277,0.0277093,-0.00258022,0,
10,0.179357,0.360694,0.0275015,-0.00274866,0,
10,0.194615,0.364292,0.0272762,-0.00293305,0,
10,0.211171,0.368097,0.0270328,-0.0031348,0,
10,0.229138,0.372139,0.0267715,-0.00335536,0,
10,0.248635,0.376453,0.0264926,-0.00359624,0,
10,0.269793,0.38108,0.0261971,-0.00385894,0,
10,0.292753,0.386072,0.0258876,-0.00414491,0,
10,0.317669,0.391487,0.0255638,-0.00445462,0,
10,0.344708,0.397397,0.0252342,-0.00478777,0,
10,0.372405,0.403526,0.0249197,-0.00512599,0,
10,0.399623,0.409656,0.0246303,-0.00545517,0,
10,0.426397,0.415818,0.0243729,-0.00577584,0,
10,0.452757,0.422044,0.0241515,-0.00608305,0,
10,0.478735,0.428379,0.0239328,-0.00645791,0,
10,0.504358,0.43503,0.0240803,-0.00679348,0,
10,0.529657,0.442543,0.0247034,-0.00682233,0,
10,0.554656,0.451474,0.0252829,-0.00685212,0,
10,0.579382,0.461873,0.0256064,-0.00688542,0,
10,0.603859,0.473397,0.0257317,-0.00690662,0,
10,0.628112,0.485592,0.0257347,-0.00690087,0,
10,0.652163,0.498141,0.0256868,-0.00685958,0,
10,0.676035,0.510931,0.0256311,-0.00677956,0,
10,0.699751,0.523994,0.0255865,-0.00666012,0,
10,0.72333,0.537427,0.0255536,-0.00650105,0,
10,0.746795,0.551326,0.0255243,-0.00630181,0,
10,0.770165,0.565749,0.0254892,-0.00606163,0,
10,0.79346,0.580702,0.0254414,-0.00578004,0,
10,0.816699,0.596136,0.0253777,-0.00545775,0,
10,0.839903,0.611947,0.0252954,-0.00509724,0,
10,0.863088,0.627967,0.0251943,-0.00470404,0,
10,0.886275,0.643937,0.025069,-0.00429083,0,
10,0.909481,0.659485,0.0249149,-0.00389928,0,
10,0.932723,0.674275,0.0247437,-0.00352306,0,
10,0.956021,0.688189,0.0245656,-0.00315851,0,
10,0.97939,0.701252,0.0243828,-0.00280872,0,
10,1.00285,0.7135,0.0241938,-0.0024787,0,
10,1.02641,0.724919,0.0239954,-0.0021739,0,
10,1.0501,0.73545,0.0237861,-0.00189917,0,
10,1.07392,0.745047,0.0235655,-0.00165767,0,
10,1.0979,0.753712,0.0233346,-0.00145024,0,
10,1.12205,0.761517,0.0230946,-0.00127549,0,
10,1.14639,0.768583,0.0228465,-0.00113046,0,
10,1.17093,0.775052,0.0225911,-0.00101123,0,
10,1.19568,0.781069,0.0223291,-0.000913666,0,
10,1.22066,0.786756,0.022061,-0.000833976,0,
10,1.24589,0.79221,0.0217869,-0.000768736,0,
10,1.27137,0.797496,0.0215068,-0.00071506,0,
10,1.29713,0.802659,0.0212204,-0.000670539,0,
10,1.32317,0.807726,0.0209276,-0.000633085,0,
10,1.34951,0.812723,0.0206285,-0.000600916,0,
10,1.37616,0.81767,0.0203231,-0.00057256,0,
10,1.40313,0.822586,0.0200114,-0.000546851,0,
10,1.43043,0.827484,0.0196932,-0.000522883,0,
10,1.45807,0.832374,0.0193685,-0.000499996,0,
10,1.48607,0.837257,0.0190371,-0.000477791,0,
10,1.51444,0.842132,0.0186987,-0.000456086,0,
10,1.54318,0.846995,0.0183532,-0.00043483,0,
10,1.57231,0.851842,0.0180004,-0.000413999,0,
10,1.60184,0.856667,0.0176404,-0.000393536,0,
10,1.63178,0.861463,0.0172729,-0.000373452,0,
10,1.66213,0.866218,0.0168979,-0.000353729,0,
10,1.69292,0.87092,0.0165152,-0.000334379,0,
10,1.72416,0.875554,0.0161248,-0.000315444,0,
10,1.75585,0.880106,0.0157265,-0.000296964,0,
10,1.78802,0.884562,0.0153203,-0.000278992,0,
10,1.82067,0.888908,0.0149059,-0.000261598,0,
10,1.85383,0.893127,0.0144834,-0.000244869,0,
10,1.88751,0.897202,0.0140527,-0.000228896,0,
10,1.92173,0.901115,0.0136137,-0.000213776,0,
10,1.95652,0.904848,0.0131663,-0.000199602,0,
10,1.9919,0.908381,0.0127103,-0.000186469,0,
10,2.02791,0.911696,0.0122462,-0.000174479,0,
10,2.06456,0.914777,0.0117732,-0.000163741,0,
10,2.10268,0.917673,0.0112825,-0.000153998,0,
10,2.1443,0.920534,0.0107485,-0.000137324,0,
10,2.18977,0.923387,0.0101641,-0.000115285,0,
10,2.23946,0.926136,0.00953045,-9.21065e-05,0,
10,2.29376,0.928633,0.00883815,-6.94104e-05,0,
10,2.35309,0.930774,0.00808738,-4.92973e-05,0,
10,2.4179,0.932487,0.0072725,-3.26045e-05,0,
10,2.48863,0.933716,0.00639278,-1.96087e-05,0,
10,2.56575,0.93444,0.00544516,-1.03454e-05,0,
10,2.64971,0.934683,0.00442953,-4.5462e-06,0,
10,2.74098,0.934534,0.00334519,-1.60493e-06,0,
10,2.83997,0.934143,0.00219343,-6.41711e-07,0,
10,2.94709,0.933704,0.000975648,-6.77137e-07,0,
10,3.06269,0.93342,-0.000305305,-8.89811e-07,0,
10,3.18706,0.933449,-0.00164604,-8.56219e-07,0,
10,3.3204,0.933856,-0.00304172,-5.89289e-07,0,
10,3.46281,0.934596,-0.0044863,-3.01939e-07,0,
10,3.61427,0.935539,-0.00597175,-1.27268e-07,0,
10,3.77463,0.936532,-0.00748829,-5.60769e-08,0,
10,3.94358,0.937459,-0.00902421,-3.38137e-08,0,
10,4.12067,0.938276,-0.0105667,-2.68219e-08,0,
10,4.30525,0.938998,-0.0121023,-2.3976e-08,0,
10,4.49655,0.939671,-0.0136176,-2.29925e-08,0,
10,4.6936,0.940332,-0.0150994,-2.38405e-08,0,
10,4.89531,0.940993,-0.0165357,-2.75677e-08,0,
10,5.10047,0.941645,-0.0179154,-3.69608e-08,0,
10,5.30776,0.942267,-0.019229,-5.80167e-08,0,
10,5.51581,0.94284,-0.0204689,-1.03028e-07,0,
10,5.72323,0.943367,-0.0216292,-1.99401e-07,0,
10,5.92863,0.943885,-0.0227061,-4.17029e-07,0,
10,6.13069,0.944476,-0.0236974,-9.2786e-07,0,
10,6.32816,0.945223,-0.0246036,-1.98109e-06,0,
10,6.51991,0.946067,-0.025426,-3.17602e-06,0,
10,6.70495,0.946585,-0.0261684,-1.1152e-06,0,
10,6.88244,0.945837,-0.0268329,1.32138e-05,0,
10,7.0517,0.942511,-0.027423,5.31419e-05,0,
10,7.21224,0.93543,-0.0279388,0.000130816,0,
10,7.3637,0.924093,-0.0283843,0.000251565,0,
10,7.5059,0.908593,-0.0287701,0.000361536,0,
10,7.63878,0.889677,-0.029095,0.000489501,0,
10,7.76243,0.869101,-0.0293605,0.000624031,0,
10,7.87701,0.848712,-0.0295772,0.000753304,0,
10,7.9828,0.829685,-0.0297521,0.000863145,0,
10,8.08014,0.812358,-0.0298944,0.000952611,0,
10,8.16941,0.796536,-0.0300116,0.00102552,0,
10,8.25106,0.781837,-0.0301103,0.00108616,0,
10,8.32554,0.767878,-0.0301947,0.00113741,0,
10,8.39331,0.754364,-0.0302674,0.00118177,0,
10,8.45484,0.741112,-0.03033,0.00122064,0,
10,8.5106,0.728027,-0.0303836,0.00125453,0,
10,8.56104,0.715082,-0.0304298,0.00128361,0,
10,8.60659,0.702281,-0.0304693,0.00130783,0,
10,8.64767,0.689619,-0.0305032,0.00132432,0,
10,8.68467,0.677087,-0.0305324,0.00133643,0,
10,8.71795,0.664692,-0.0305574,0.00134377,0,
10,8.74786,0.65244,-0.0305788,0.00134672,0,
10,8.77471,0.640336,-0.0305972,0.00134575,0,
10,8.79881,0.62838,-0.030613,0.00134133,0,
10,8.8204,0.616568,-0.0306265,0.00133396,0,
10,8.83975,0.604893,-0.030638,0.00132411,0,
10,8.85708,0.593342,-0.0306478,0.00131224,0,
10,8.87259,0.581901,-0.0306561,0.00129877,0,
10,8.88646,0.57055,-0.0306631,0.00128407,0,
10,8.89886,0.559266,-0.030669,0.00126846,0,
10,8.90995,0.548023,-0.030674,0.00125218,0,
10,8.91986,0.536793,-0.0306782,0.00123543,0,
10,8.92872,0.525545,-0.0306817,0.00121835,0,
10,8.93663,0.514243,-0.0306846,0.001201,0,
10,8.94369,0.502851,-0.030687,0.00118339,0,
10,8.95,0.491329,-0.0306889,0.00116548,0,
10,8.95564,0.479634,-0.0306906,0.00114719,0,
10,8.96067,0.467717,-0.0306919,0.00112831,0,
10,8.96517,0.455528,-0.0306931,0.00110861,0,
10,8.96918,0.443006,-0.0306939,0.00108775,0,
10,8.97276,0.430085,-0.0306948,0.00106531,0,
10,8.97596,0.41669,-0.0306953,0.00104074,0,
10,8.97882,0.402732,-0.0306959,0.00101333,0,
10,8.98137,0.388109,-0.0306962,0.000982172,0,
10,8.98365,0.3727,-0.0306967,0.000946112,0,
10,8.98569,0.356363,-0.0306967,0.000903935,0,
10,8.9875,0.338923,-0.0306972,0.000853191,0,
10,8.98913,0.320139,-0.0306971,0.000788497,0,
10,8.99058,0.299773,-0.0306975,0.000711756,0,
10,8.99188,0.277659,-0.0306973,0.00062147,0,
10,8.99304,0.25364,-0.0306977,0.000511391,0,
10,8.99408,0.227537,-0.0306974,0.000376503,0,
10,8.99501,0.199552,-0.0306979,0.000242622,0,
10,8.99583,0.170611,-0.0306975,0.000130263,0,
10,8.99658,0.14205,-0.030698,5.65597e-05,0,
10,8.99724,0.115088,-0.0306975,1.96641e-05,0,
10,8.99784,0.0903993,-0.0306981,5.42314e-06,0,
10,8.99837,0.0681382,-0.0306975,1.13925e-06,0,
10,8.99885,0.0481822,-0.0306982,1.63303e-07,0,
10,8.99927,0.0303186,-0.0306974,1.24006e-08,0,
10,8.99966,0.0143277,-0.0306983,2.74393e-10,0,
10,0,0,0.029615,0,0,
10,9,0,-0.0306973,0,0,

0.004,0,0,-0.227319,0,2.7263e-07,
0.00868226,0,0,-0.227331,0,-8.901e-07,
0.014062,0,0,-0.227318,0,-2.1479e-06,
0.0201548,0,0,-0.227326,0,-2.72662e-06,
0.0269766,0,0,-0.227305,0,-1.33327e-06,
0.0345437,0,0,-0.227304,0,3.64418e-06,
0.0428729,0,0,-0.227284,0,1.27656e-05,
0.051981,0,0,-0.227287,0,2.6371e-05,
0.0618853,0,0,-0.227294,0,4.29043e-05,
0.0726036,0,0,-0.227332,0,6.06378e-05,
0.0841536,0,0,-0.227384,0,7.73822e-05,
0.0965535,0,0,-0.227461,0,9.21446e-05,
0.109822,0,0,-0.227551,0,0.000104579,
0.123977,0,0,-0.227659,0,0.000115242,
0.139037,0,0,-0.22778,0,0.000124682,
0.155022,0,0,-0.22792,0,0.000133265,
0.171949,0,0,-0.228084,0,0.000140747,
0.189839,0,0,-0.228275,0,0.000146433,
0.208709,0,0,-0.228495,0,0.000149329,
0.228579,0,0,-0.228746,0,0.000148456,
0.249467,0,0,-0.229028,0,0.000143033,
0.271391,0,0,-0.229337,0,0.000132609,
0.29437,0,0,-0.229671,0,0.000117116,
0.31842,0,0,-0.230024,0,9.68643e-05,
0.343559,0,0,-0.23039,0,7.24805e-05,
0.369804,0,0,-0.230763,0,4.48025e-05,
0.39717,0,0,-0.231137,0,1.47742e-05,
0.425672,0,0,-0.231508,0,-1.66687e-05,
0.455324,0,0,-0.23187,0,-4.86957e-05,
0.48614,0,0,-0.232222,0,-8.06721e-05,
0.518132,0,0,-0.232563,0,-0.000112183,
0.551309,0,0,-0.232892,0,-0.000143029,
0.585683,0,0,-0.233211,0,-0.000173173,
0.621259,0,0,-0.233519,0,-0.000202705,
0.658046,0,0,-0.23382,0,-0.000231779,
0.696047,0,0,-0.234114,0,-0.000260574,
0.735265,0,0,-0.234404,0,-0.00028925,
0.7757,0,0,-0.23469,0,-0.00031792,
0.817352,0,0,-0.234974,0,-0.000346616,
0.860215,0,0,-0.235256,0,-0.00037524,
0.904285,0,0,-0.235536,0,-0.000403493,
0.949552,0,0,-0.235814,0,-0.00043086,
0.996004,0,0,-0.236089,0,-0.000456578,
1.04363,0,0,-0.23636,0,-0.000479748,
1.09241,0,0,-0.236623,0,-0.000499342,
1.14232,0,0,-0.236879,0,-0.000514502,
1.19335,0,0,-0.237129,0,-0.000524638,
1.24546,0,0,-0.23738,0,-0.000529644,
1.29863,0,0,-0.237645,0,-0.000529645,
1.35283,0,0,-0.23795,0,-0.000524993,
1.40802,0,0,-0.238335,0,-0.00051634,
1.46416,0,0,-0.238856,0,-0.000504963,
1.52121,0,0,-0.239584,0,-0.000493159,
1.57913,0,0,-0.240598,0,-0.000484639,
1.63787,0,0,-0.241954,0,-0.00048421,
1.69739,0,0,-0.243677,0,-0.000496458,
1.75761,0,0,-0.245753,0,-0.000524807,
1.81851,0,0,-0.248144,0,-0.000571006,
1.88,0,0,-0.250799,0,-0.000635692,
1.94204,0,0,-0.253651,0,-0.000718912,
2.00457,0,0,-0.256611,0,-0.000820448,
2.06751,0,0,-0.259567,0,-0.000939841,
2.13081,0,0,-0.262374,0,-0.00107602,
2.19439,0,0,-0.264854,0,-0.00122686,
2.25819,0,0,-0.266795,0,-0.00138836,
2.32214,0,0,-0.267972,0,-0.00155422,
2.38617,0,0,-0.268185,0,-0.00171617,
2.4502,0,0,-0.267307,0,-0.00186545,
2.51418,0,0,-0.265302,0,-0.00199472,
2.57803,0,0,-0.262218,0,-0.00209903,
2.64167,0,0,-0.258185,0,-0.00217631,
2.70505,0,0,-0.253382,0,-0.00222744,
2.76808,0,0,-0.247997,0,-0.00225557,
2.83072,0,0,-0.242206,0,-0.00226499,
2.89288,0,0,-0.236152,0,-0.00226008,
2.95451,0,0,-0.229948,0,-0.00224463,
3.01555,0,0,-0.223672,0,-0.00222153,
3.07594,0,0,-0.217384,0,-0.00219285,
3.13561,0,0,-0.211124,0,-0.00216,
3.19453,0,0,-0.204922,0,-0.00212388,
3.25262,0,0,-0.198803,0,-0.00208507,
3.30985,0,0,-0.192786,0,-0.002044,
3.36617,0,0,-0.186888,0,-0.00200105,
3.42154,0,0,-0.181124,0,-0.00195653,
3.47591,0,0,-0.175508,0,-0.00191074,
3.52925,0,0,-0.170049,0,-0.00186401,
3.58152,0,0,-0.164755,0,-0.00181663,
3.6327,0,0,-0.159635,0,-0.00176885,
3.68276,0,0,-0.154693,0,-0.00172091,
3.73167,0,0,-0.149933,0,-0.0016731,
3.77941,0,0,-0.145355,0,-0.00162569,
3.82596,0,0,-0.14096,0,-0.00157887,
3.8713,0,0,-0.136746,0,-0.00153279,
3.91543,0,0,-0.132707,0,-0.00148743,
3.95833,0,0,-0.128864,0,-0.00144335,
4,0,0,-0.125166,0,-0.00140014,
4.04167,0,0,-0.121539,0,-0.0013569,
4.08333,0,0,-0.117976,0,-0.00131378,
4.125,0,0,-0.114472,0,-0.00127081,
4.16667,0,0,-0.11103,0,-0.00122799,
4.20833,0,0,-0.107646,0,-0.00118529,
4.25,0,0,-0.104321,0,-0.00114274,
4.29167,0,0,-0.101053,0,-0.00110035,
4.33333,0,0,-0.0978449,0,-0.00105818,
4.375,0,0,-0.0946927,0,-0.00101623,
4.41667,0,0,-0.0915964,0,-0.000974534,
4.45833,0,0,-0.0885543,0,-0.000933094,
4.5,0,0,-0.0855679,0,-0.000891917,
4.54167,0,0,-0.0826337,0,-0.000850957,
4.58333,0,0,-0.079752,0,-0.000810246,
4.625,0,0,-0.0769216,0,-0.000769806,
4.66667,0,0,-0.0741437,0,-0.000729667,
4.70833,0,0,-0.071414,0,-0.000689758,
4.75,0,0,-0.0687333,0,-0.00065008,
4.79167,0,0,-0.0661006,0,-0.000610642,
4.83333,0,0,-0.0635176,0,-0.00057148,
4.875,0,0,-0.0609798,0,-0.000532538,
4.91667,0,0,-0.0584883,0,-0.00049383,
4.95833,0,0,-0.0560419,0,-0.00045535,
5,0,0,-0.0536424,0,-0.000417115,
5.04167,0,0,-0.0512856,0,-0.000379073,
5.08333,0,0,-0.0489734,0,-0.000341264,
5.125,0,0,-0.0467039,0,-0.000303697,
5.16667,0,0,-0.0444785,0,-0.000266368,
5.20833,0,0,-0.0422938,0,-0.00022921,
5.25,0,0,-0.0401519,0,-0.000192266,
5.29167,0,0,-0.0380511,0,-0.00015556,
5.33333,0,0,-0.0359922,0,-0.00011909,
5.375,0,0,-0.0339723,0,-8.27876e-05,
5.41667,0,0,-0.0319939,0,-4.66964e-05,
5.45833,0,0,-0.030055,0,-1.08548e-05,
5.5,0,0,-0.0281562,0,2.47426e-05,
5.54167,0,0,-0.0262951,0,6.0157e-05,
5.58333,0,0,-0.0244742,0,9.53472e-05,
5.625,0,0,-0.0226914,0,0.000130272,
5.66667,0,0,-0.0209466,0,0.000164947,
5.70833,0,0,-0.0192383,0,0.00019942,
5.75,0,0,-0.0175692,0,0.000233655,
5.79167,0,0,-0.0159365,0,0.000267612,
5.83333,0,0,-0.0143397,0,0.000301315,
5.875,0,0,-0.0127783,0,0.000334799,
5.91667,0,0,-0.0112549,0,0.000368029,
5.95833,0,0,-0.0097663,0,0.000400969,
6,0,0,-0.00831169,0,0.00043365,
6.04167,0,0,-0.0068914,0,0.000466089,
6.08333,0,0,-0.00550741,0,0.000498256,
6.125,0,0,-0.00415683,0,0.000530125,
6.16667,0,0,-0.0028384,0,0.000561734,
6.20833,0,0,-0.00155305,0,0.000593076,
6.25,0,0,-0.00030228,0,0.000624129,
6.29167,0,0,0.00091662,0,0.000654874,
6.33333,0,0,0.00210518,0,0.000685355,
6.375,0,0,0.00326188,0,0.000715544,
6.41667,0,0,0.00438588,0,0.000745429,
6.45833,0,0,0.00547961,0,0.000774999,
6.5,0,0,0.00654479,0,0.000804305,
6.54167,0,0,0.00757947,0,0.000833293,
6.58333,0,0,0.0085836,0,0.000861964,
6.625,0,0,0.00955911,0,0.000890318,
6.66667,0,0,0.0105077,0,0.000918402,
6.70833,0,0,0.0114272,0,0.000946143,
6.75,0,0,0.0123186,0,0.000973546,
6.79167,0,0,0.0131831,0,0.00100063,
6.83333,0,0,0.0140222,0,0.00102745,
6.875,0,0,0.0148337,0,0.0010539,
6.91667,0,0,0.0156195,0,0.00108,
6.95833,0,0,0.0163801,0,0.00110579,
7,0,0,0.0171169,0,0.00113132,
7.04167,0,0,0.0178275,0,0.00115646,
7.08333,0,0,0.0185145,0,0.00118125,
7.125,0,0,0.0191782,0,0.00120575,
7.16667,0,0,0.0198192,0,0.00123001,
7.20833,0,0,0.0204352,0,0.00125389,
7.25,0,0,0.0210301,0,0.00127743,
7.29167,0,0,0.0216033,0,0.0013007,
7.33333,0,0,0.0221549,0,0.00132374,
7.375,0,0,0.0226823,0,0.00134638,
7.41667,0,0,0.0231908,0,0.00136866,
7.45833,0,0,0.0236791,0,0.00139066,
7.5,0,0,0.0241467,0,0.00141243,
7.54167,0,0,0.024591,0,0.00143378,
7.58333,0,0,0.0250185,0,0.00145473,
7.625,0,0,0.0254275,0,0.00147543,
7.66667,0,0,0.0258166,0,0.00149591,
7.70833,0,0,0.0261834,0,0.00151596,
7.75,0,0,0.0265353,0,0.00153562,
7.79167,0,0,0.0268707,0,0.00155504,
7.83333,0,0,0.0271862,0,0.0015742,
7.875,0,0,0.0274809,0,0.00159294,
7.91667,0,0,0.0277695,0,0.00161188,
7.95833,0,0,0.027987,0,0.00162992,
8,0,0,0.0282953,0,0.00164867,
8.04171,0,0,0.0286291,0,0.0016678,
8.08368,0,0,0.0288296,0,0.00168667,
8.12617,0,0,0.0290646,0,0.00170373,
8.16946,0,0,0.0292865,0,0.00172079,
8.21382,0,0,0.0294846,0,0.00173767,
8.25952,0,0,0.0296785,0,0.00175448,
8.30685,0,0,0.0298653,0,0.00177157,
8.35611,0,0,0.03004,0,0.00178906,
8.40762,0,0,0.0301983,0,0.00180676,
8.46168,0,0,0.0303535,0,0.00182481,
8.51865,0,0,0.0305015,0,0.00184342,
8.57889,0,0,0.0306338,0,0.00186266,
8.64276,0,0,0.0307429,0,0.00188227,
8.71067,0,0,0.0308458,0,0.00190239,
8.78306,0,0,0.0309348,0,0.00192321,
8.86037,0,0,0.0309965,0,0.00194474,
8.94309,0,0,0.0310225,0,0.00196661,
9.03174,0,0,0.0310296,0,0.0019888,
9.12689,0,0,0.0310105,0,0.00201195,
9.22912,0,0,0.0309439,0,0.00203549,
9.33908,0,0,0.0308427,0,0.00205947,
9.45746,0,0,0.0306981,0,0.00208368,
9.58501,0,0,0.0304985,0,0.00210809,
9.72253,0,0,0.0302367,0,0.00213247,
9.87088,0,0,0.0299226,0,0.00215679,
10.031,0,0,0.0295412,0,0.00218099,
10.2039,0,0,0.0290936,0,0.0022049,
10.3906,0,0,0.0285685,0,0.00222824,
10.5924,0,0,0.0279742,0,0.00225063,
10.8105,0,0,0.0273068,0,0.00227254,
11.0463,0,0,0.0265572,0,0.00229353,
11.3012,0,0,0.0257576,0,0.00231352,
11.5769,0,0,0.0248812,0,0.00233156,
11.8751,0,0,0.0239419,0,0.00234911,
12.1977,0,0,0.0229556,0,0.00236555,
12.5466,0,0,0.0219875,0,0.0023812,
12.9242,0,0,0.0209567,0,0.00239428,
13.3327,0,0,0.0199164,0,0.00240718,
13.7748,0,0,0.0189285,0,0.00241951,
14.2532,0,0,0.0180332,0,0.00243247,
14.7709,0,0,0.0171363,0,0.00244521,
15.3312,0,0,0.0163122,0,0.00245756,
15.9377,0,0,0.015613,0,0.00246925,
16.594,0,0,0.0149576,0,0.00247978,
17.3044,0,0,0.0143509,0,0.00248989,
18.0733,0,0,0.0137241,0,0.00249456,
18.9056,0,0,0.0130675,0,0.0024951,
19.8064,0,0,0.0123034,0,0.00248984,
20.7816,0,0,0.0115048,0,0.00248287,
21.8371,0,0,0.0105535,0,0.00247337,
22.9796,0,0,0.00946718,0,0.00246391,
24.2163,0,0,0.00838576,0,0.00245843,
25.5551,0,0,0.00744164,0,0.00245506,
27.0042,0,0,0.00697404,0,0.00246209,
28.5729,0,0,0.00701596,0,0.00247399,
30.271,0,0,0.00741038,0,0.00248362,
32.1091,0,0,0.00750826,0,0.00248925,
34.0989,0,0,0.00651261,0,0.00248191,
36.2529,0,0,0.00480317,0,0.00247196,
38.5845,0,0,0.00348101,0,0.0024736,
41.1085,0,0,0.00295838,0,0.00248485,
43.8407,0,0,0.00243037,0,0.00249533,
46.7983,0,0,0.00140966,0,0.00249603,
50,0,0,0.00243724,0,0.00250176,

