5ccd88ae6abc5460ca2cc87842cef981290daa77 
X,Z,x_velocity,cp,uw_b,cf,
1,0,0,-0.236868,0,0,
1,9,0,-0.117045,0,0,
1,8.99969,0.0178474,-0.117045,6.34339e-10,0,
1,8.99934,0.0380941,-0.117045,2.96448e-08,0,
1,8.99894,0.0610818,-0.117045,4.08532e-07,0,
1,8.99848,0.0871619,-0.117045,2.98325e-06,0,
1,8.99797,0.116637,-0.117045,1.47328e-05,0,
1,8.99739,0.149519,-0.117045,5.41787e-05,0,
1,8.99672,0.185029,-0.117045,0.000152193,0,
1,8.99597,0.22117,-0.117045,0.000328949,0,
1,8.99512,0.255162,-0.117045,0.00057308,0,
1,8.99416,0.285514,-0.117044,0.000790568,0,
1,8.99306,0.312469,-0.117044,0.000947104,0,
1,8.99182,0.336553,-0.117043,0.00107284,0,
1,8.99041,0.358182,-0.117043,0.00117082,0,
1,8.98881,0.377787,-0.117042,0.00124646,0,
1,8.98699,0.395781,-0.117041,0.00130537,0,
1,8.98494,0.412549,-0.11704,0.00135231,0,
1,8.98261,0.428474,-0.117039,0.00138534,0,
1,8.97996,0.443875,-0.117038,0.00140921,0,
1,8.97696,0.45892,-0.117037,0.00143268,0,
1,8.97356,0.473686,-0.117035,0.00145315,0,
1,8.9697,0.488228,-0.117033,0.00147128,0,
1,8.96533,0.502582,-0.117031,0.00148786,0,
1,8.96038,0.516777,-0.117029,0.00150277,0,
1,8.95476,0.530838,-0.117027,0.00151616,0,
1,8.9484,0.544787,-0.117024,0.00152814,0,
1,8.9412,0.558647,-0.117021,0.00153876,0,
1,8.93303,0.572435,-0.117017,0.00154806,0,
1,8.92379,0.586168,-0.117013,0.00155601,0,
1,8.91333,0.599861,-0.117009,0.00156256,0,
1,8.90149,0.613526,-0.117005,0.00156762,0,
1,8.8881,0.627171,-0.117001,0.0015711,0,
1,8.87295,0.640805,-0.116996,0.00157286,0,
1,8.85584,0.654431,-0.116992,0.00157277,0,
1,8.83651,0.668051,-0.116988,0.00157066,0,
1,8.81469,0.681663,-0.116985,0.00156635,0,
1,8.79007,0.695261,-0.116983,0.0015597,0,
1,8.76232,0.708834,-0.116982,0.00155036,0,
1,8.73107,0.722368,-0.116984,0.00153793,0,
1,8.69591,0.735846,-0.116989,0.00152198,0,
1,8.6564,0.749242,-0.116998,0.00150228,0,
1,8.61206,0.762534,-0.117014,0.00147831,0,
1,8.56236,0.775709,-0.117039,0.00145007,0,
1,8.50675,0.788774,-0.117076,0.00141872,0,
1,8.44464,0.801776,-0.117127,0.00138388,0,
1,8.3754,0.814835,-0.117199,0.00134437,0,
1,8.29839,0.828165,-0.117298,0.00129778,0,
1,8.21296,0.842091,-0.117431,0.00123962,0,
1,8.11843,0.857043,-0.117606,0.00116438,0,
1,8.01417,0.873485,-0.117833,0.00106678,0,
1,7.89956,0.891786,-0.118115,0.000940133,0,
1,7.77403,0.911992,-0.118475,0.00077969,0,
1,7.63711,0.933466,-0.118904,0.000592051,0,
1,7.48842,0.954612,-0.11946,0.000405363,0,
1,7.32773,0.973244,-0.120105,0.000208161,0,
1,7.15495,0.986874,-0.120866,7.13376e-05,0,
1,6.97022,0.994118,-0.121779,1.42014e-05,0,
1,6.77388,0.996229,-0.122826,1.09441e-06,0,
1,6.56652,0.996002,-0.124031,3.95512e-08,0,
1,6.34896,0.99563,-0.12541,1.83707e-08,0,
1,6.12229,0.995889,-0.126982,1.57009e-08,0,
1,5.88784,0.996648,-0.128763,1.67356e-08,0,
1,5.64716,0.997609,-0.130769,1.81039e-08,0,
1,5.40194,0.998635,-0.133016,1.9407e-08,0,
1,5.15407,0.999729,-0.135517,2.11515e-08,0,
1,4.90545,1.00093,-0.138284,2.33654e-08,0,
1,4.65805,1.00226,-0.141322,2.57171e-08,0,
1,4.41376,1.00367,-0.14463,2.78823e-08,0,
1,4.17441,1.00512,-0.148203,3.00799e-08,0,
1,3.94163,1.00661,-0.152026,3.3946e-08,0,
1,3.7169,1.00839,-0.156078,4.21982e-08,0,
1,3.50146,1.01087,-0.160339,5.51747e-08,0,
1,3.29629,1.01417,-0.16479,7.18623e-08,0,
1,3.10217,1.01728,-0.169394,6.42247e-07,0,
1,2.91959,1.01784,-0.174087,2.45235e-07,0,
1,2.74885,1.01351,-0.178778,-2.84726e-05,0,
1,2.59002,1.00376,-0.183368,-0.00010814,0,
1,2.44299,0.989916,-0.187767,-0.000229889,0,
1,2.30752,0.973879,-0.191912,-0.000367777,0,
1,2.18321,0.957287,-0.195773,-0.00049628,0,
1,2.06959,0.941268,-0.199347,-0.000599554,0,
1,1.9661,0.926469,-0.202617,-0.000674525,0,
1,1.87215,0.913095,-0.205587,-0.000727621,0,
1,1.78711,0.901049,-0.208273,-0.000768417,0,
1,1.71033,0.890084,-0.210685,-0.000804678,0,
1,1.64119,0.879881,-0.212841,-0.000835004,0,
1,1.57905,0.870152,-0.214756,-0.00086469,0,
1,1.52332,0.860714,-0.216447,-0.000896234,0,
1,1.47342,0.851476,-0.217934,-0.000928778,0,
1,1.42882,0.842402,-0.219235,-0.000960573,0,
1,1.389,0.833487,-0.22037,-0.000990661,0,
1,1.35351,0.824743,-0.221357,-0.00101849,0,
1,1.3219,0.816192,-0.222213,-0.00104374,0,
1,1.29378,0.80786,-0.222954,-0.00106621,0,
1,1.26878,0.799773,-0.223595,-0.00108576,0,
1,1.24659,0.791957,-0.224148,-0.00110291,0,
1,1.22689,0.784422,-0.224625,-0.00111873,0,
1,1.2092,0.777079,-0.225039,-0.00113467,0,
1,1.1932,0.769843,-0.225401,-0.00115742,0,
1,1.1787,0.76262,-0.225718,-0.00119726,0,
1,1.16554,0.755239,-0.225996,-0.00127033,0,
1,1.15357,0.747437,-0.226245,-0.00139962,0,
1,1.14266,0.738856,-0.226477,-0.00161274,0,
1,1.13268,0.7291,-0.226704,-0.00193622,0,
1,1.12354,0.71787,-0.226938,-0.0023869,0,
1,1.11514,0.705125,-0.227185,-0.00296189,0,
1,1.10739,0.691137,-0.227447,-0.00363423,0,
1,1.10022,0.676387,-0.227721,-0.00436046,0,
1,1.09357,0.661389,-0.228003,-0.00509593,0,
1,1.08738,0.64656,-0.228289,-0.00580636,0,
1,1.0816,0.632188,-0.228575,-0.00647088,0,
1,1.07618,0.618439,-0.22886,-0.00707955,0,
1,1.07107,0.605394,-0.229141,-0.00762998,0,
1,1.06626,0.593075,-0.229417,-0.00812362,0,
1,1.06169,0.581468,-0.229688,-0.00856427,0,
1,1.05735,0.57054,-0.229954,-0.0089566,0,
1,1.05321,0.560247,-0.230214,-0.00930782,0,
1,1.04925,0.550536,-0.230467,-0.00961967,0,
1,1.04544,0.541348,-0.230712,-0.00989499,0,
1,1.04177,0.532623,-0.23095,-0.0101407,0,
1,1.03822,0.524312,-0.231182,-0.0103604,0,
1,1.03478,0.516368,-0.231408,-0.0105572,0,
1,1.03144,0.508752,-0.231628,-0.0107336,0,
1,1.02818,0.501429,-0.231844,-0.0108918,0,
1,1.025,0.494368,-0.232055,-0.0110337,0,
1,1.02188,0.487543,-0.232263,-0.0111608,0,
1,1.01882,0.480929,-0.232467,-0.0112745,0,
1,1.01581,0.474504,-0.232668,-0.011376,0,
1,1.01284,0.468251,-0.232867,-0.0114655,0,
1,1.00988,0.462086,-0.233066,-0.0115452,0,
1,1.00688,0.455929,-0.233267,-0.0116172,0,
1,1.00384,0.449768,-0.233472,-0.0116809,0,
1,1.00076,0.443593,-0.233679,-0.0117362,0,
1,0.997615,0.43739,-0.233891,-0.011783,0,
1,0.99441,0.431147,-0.234107,-0.0118213,0,
1,0.991131,0.424848,-0.234327,-0.0118507,0,
1,0.987768,0.41848,-0.234553,-0.011871,0,
1,0.984308,0.412026,-0.234786,-0.0118818,0,
1,0.980739,0.405469,-0.235025,-0.0118824,0,
1,0.977045,0.39879,-0.235272,-0.0118722,0,
1,0.973211,0.391972,-0.235527,-0.0118502,0,
1,0.969219,0.384993,-0.235793,-0.0118156,0,
1,0.965047,0.377832,-0.236071,-0.0117665,0,
1,0.960675,0.370467,-0.236357,-0.0117062,0,
1,0.956077,0.362868,-0.236619,-0.0116203,0,
1,0.951224,0.354996,-0.236771,-0.0115926,0,
1,0.946088,0.346686,-0.236721,-0.0113903,0,
1,0.940633,0.33769,-0.236494,-0.0111846,0,
1,0.934823,0.327817,-0.236239,-0.0109694,0,
1,0.928616,0.316902,-0.236062,-0.0107376,0,
1,0.921967,0.304827,-0.235993,-0.0104828,0,
1,0.914826,0.291544,-0.236021,-0.0101984,0,
1,0.907141,0.277082,-0.236127,-0.00987879,0,
1,0.898852,0.261547,-0.236287,-0.00952301,0,
1,0.889898,0.245089,-0.236488,-0.00912933,0,
1,0.880212,0.227877,-0.236729,-0.00869462,0,
1,0.869723,0.210083,-0.237004,-0.00821908,0,
1,0.858358,0.19188,-0.237308,-0.0077069,0,
1,0.846039,0.173452,-0.237635,-0.007166,0,
1,0.83269,0.154993,-0.237981,-0.00660737,0,
1,0.818232,0.136704,-0.238339,-0.00604452,0,
1,0.802744,0.118959,-0.238698,-0.00549709,0,
1,0.78635,0.102108,-0.239053,-0.0049838,0,
1,0.768969,0.0862122,-0.239377,-0.00451453,0,
1,0.75053,0.0712657,-0.23965,-0.00409509,0,
1,0.730977,0.0572001,-0.239856,-0.00372501,0,
1,0.710271,0.0439165,-0.239983,-0.00340389,0,
1,0.688397,0.0313225,-0.24003,-0.00312792,0,
1,0.66536,0.0193625,-0.240015,-0.00289049,0,
1,0.641194,0.00802355,-0.239964,-0.00268447,0,
1,0.615961,-0.00271173,-0.239884,-0.00247358,0,
1,0.589754,-0.0128351,-0.239763,-0.00228732,0,
1,0.562692,-0.0223023,-0.239567,-0.00213038,0,
1,0.534925,-0.0310758,-0.239265,-0.00200788,0,
1,0.506624,-0.039131,-0.238846,-0.0019252,0,
1,0.477982,-0.0465112,-0.238317,-0.0018633,0,
1,0.449206,-0.0533163,-0.237712,-0.00181451,0,
1,0.420509,-0.0596293,-0.237066,-0.00177325,0,
1,0.392107,-0.0655083,-0.236414,-0.00173197,0,
1,0.364206,-0.0709977,-0.235794,-0.00168461,0,
1,0.337003,-0.076135,-0.235242,-0.00162705,0,
1,0.310673,-0.0809541,-0.234789,-0.00155669,0,
1,0.28537,-0.0854875,-0.234448,-0.00147292,0,
1,0.26122,-0.0897592,-0.234223,-0.00137768,0,
1,0.238324,-0.0937784,-0.234112,-0.00127122,0,
1,0.21675,-0.097543,-0.234107,-0.00115469,0,
1,0.196544,-0.101043,-0.234193,-0.00103034,0,
1,0.177724,-0.104265,-0.234353,-0.000901138,0,
1,0.160284,-0.107189,-0.234564,-0.0007704,0,
1,0.144202,-0.109799,-0.234807,-0.000641482,0,
1,0.129436,-0.112076,-0.235063,-0.000517462,0,
1,0.115935,-0.114003,-0.235317,-0.000400929,0,
1,0.103636,-0.115565,-0.235557,-0.000293857,0,
1,0.0924701,-0.116751,-0.235777,-0.000197571,0,
1,0.0823633,-0.11755,-0.235973,-0.000112778,0,
1,0.0732406,-0.117956,-0.236143,-3.9644e-05,0,
1,0.0650269,-0.117963,-0.236288,2.20902e-05,0,
1,0.057648,-0.117566,-0.23641,7.29976e-05,0,
1,0.0510323,-0.116759,-0.23651,0.000113848,0,
1,0.0451115,-0.115537,-0.236593,0.000145508,0,
1,0.0398209,-0.113888,-0.236659,0.000168848,0,
1,0.0351001,-0.111797,-0.236712,0.000184689,0,
1,0.0308929,-0.10924,-0.236753,0.000193743,0,
1,0.0271475,-0.106185,-0.236786,0.000196583,0,
1,0.0238164,-0.102588,-0.23681,0.000193608,0,
1,0.0208562,-0.0983916,-0.236828,0.000185033,0,
1,0.0182274,-0.0935296,-0.236842,0.000170912,0,
1,0.0158944,-0.0879323,-0.236851,0.000151273,0,
1,0.0138249,-0.0815497,-0.236857,0.000126455,0,
1,0.0119898,-0.0743921,-0.236861,9.77666e-05,0,
1,0.0103632,-0.0665906,-0.236864,6.81766e-05,0,
1,0.00892169,-0.0584386,-0.236865,4.19704e-05,0,
1,0.00764438,-0.0503509,-0.236866,2.26323e-05,0,
1,0.00651264,-0.0427245,-0.236866,1.07881e-05,0,
1,0.00550983,-0.0358105,-0.236867,4.62853e-06,0,
1,0.00462115,-0.0296924,-0.236867,1.81476e-06,0,
1,0.00383341,-0.0243426,-0.236867,6.53287e-07,0,
1,0.0031349,-0.0196849,-0.236867,2.14132e-07,0,
1,0.00251518,-0.0156314,-0.236868,6.24712e-08,0,
1,0.00196502,-0.0120986,-0.236867,1.55635e-08,0,
1,0.00147619,-0.00901291,-0.236868,3.08172e-09,0,
1,0.00104139,-0.00631074,-0.236867,4.25579e-10,0,
1,0.000654158,-0.00393785,-0.236868,3.14942e-11,0,
1,0.000308731,-0.00184795,-0.236867,6.84728e-13,0,

4,0,0,-0.09071,0,0,
4,9,0,-0.0851958,0,0,
4,8.99969,0.0165424,-0.0851954,5.0027e-10,0,
4,8.99934,0.0352412,-0.0851957,2.3203e-08,0,
4,8.99894,0.0563972,-0.0851954,3.16526e-07,0,
4,8.9985,0.0803207,-0.0851956,2.28957e-06,0,
4,8.99799,0.107292,-0.0851953,1.12481e-05,0,
4,8.99742,0.137378,-0.0851954,4.15512e-05,0,
4,8.99677,0.170043,-0.0851952,0.000119011,0,
4,8.99605,0.203709,-0.0851952,0.000265975,0,
4,8.99522,0.23593,-0.0851949,0.000479577,0,
4,8.99429,0.264947,-0.0851948,0.000695773,0,
4,8.99324,0.2908,-0.0851943,0.000845994,0,
4,8.99205,0.313997,-0.0851939,0.000969872,0,
4,8.9907,0.334865,-0.0851932,0.00106867,0,
4,8.98919,0.353769,-0.0851926,0.0011465,0,
4,8.98747,0.371079,-0.0851916,0.00120823,0,
4,8.98553,0.38716,-0.0851906,0.00125828,0,
4,8.98334,0.402391,-0.0851894,0.00129372,0,
4,8.98087,0.41709,-0.0851882,0.00132096,0,
4,8.97807,0.431421,-0.0851867,0.0013476,0,
4,8.97491,0.445467,-0.085185,0.00137147,0,
4,8.97134,0.459284,-0.085183,0.00139352,0,
4,8.96731,0.472913,-0.0851808,0.0014143,0,
4,8.96276,0.486388,-0.0851781,0.00143381,0,
4,8.95762,0.499737,-0.085175,0.00145222,0,
4,8.95182,0.51299,-0.0851714,0.00146967,0,
4,8.94526,0.526172,-0.0851672,0.00148622,0,
4,8.93787,0.539307,-0.0851625,0.00150189,0,
4,8.92952,0.552417,-0.0851571,0.00151666,0,
4,8.92011,0.565521,-0.0851509,0.00153044,0,
4,8.90949,0.578634,-0.085144,0.00154312,0,
4,8.89751,0.59177,-0.0851362,0.00155451,0,
4,8.88402,0.604935,-0.0851275,0.00156439,0,
4,8.86881,0.618134,-0.0851177,0.00157262,0,
4,8.85169,0.631363,-0.0851068,0.00157879,0,
4,8.83242,0.644617,-0.0850948,0.00158247,0,
4,8.81074,0.657887,-0.0850817,0.00158318,0,
4,8.78637,0.671159,-0.0850674,0.00158069,0,
4,8.75901,0.684421,-0.0850522,0.00157579,0,
4,8.7283,0.697685,-0.0850376,0.00156256,0,
4,8.69387,0.710965,-0.0850236,0.0015457,0,
4,8.65533,0.724236,-0.08501,0.00152535,0,
4,8.61222,0.737457,-0.0849973,0.00150148,0,
4,8.56407,0.750588,-0.0849859,0.00147411,0,
4,8.5104,0.763601,-0.0849769,0.00144327,0,
4,8.45065,0.776504,-0.0849722,0.00140874,0,
4,8.38429,0.789359,-0.0849748,0.00136987,0,
4,8.31073,0.802312,-0.0849886,0.00132512,0,
4,8.22941,0.815606,-0.0850184,0.00127146,0,
4,8.13974,0.829596,-0.0850685,0.00120487,0,
4,8.04115,0.844722,-0.0851413,0.00112097,0,
4,7.93313,0.861445,-0.0852389,0.00101426,0,
4,7.81519,0.880102,-0.0853587,0.000879321,0,
4,7.68693,0.900603,-0.0855028,0.000716044,0,
4,7.54803,0.922003,-0.0856631,0.000539964,0,
4,7.39831,0.942344,-0.0858529,0.000373583,0,
4,7.23771,0.959274,-0.0860696,0.000234687,0,
4,7.06634,0.971106,-0.0863251,9.91381e-05,0,
4,6.88453,0.977444,-0.086633,2.79799e-05,0,
4,6.69275,0.97951,-0.0869788,3.72917e-06,0,
4,6.49173,0.979407,-0.0873606,-2.68362e-07,0,
4,6.28238,0.978839,-0.0877763,-1.39595e-07,0,
4,6.06579,0.978559,-0.0882325,1.29728e-08,0,
4,5.84328,0.978623,-0.0887336,2.17959e-08,0,
4,5.61626,0.978856,-0.0892823,1.19532e-08,0,
4,5.3863,0.979123,-0.089879,7.27707e-09,0,
4,5.15502,0.979386,-0.0905227,5.9395e-09,0,
4,4.92406,0.979658,-0.0912113,5.81926e-09,0,
4,4.69507,0.979945,-0.0919407,5.83724e-09,0,
4,4.46961,0.980205,-0.0927058,5.31958e-09,0,
4,4.24915,0.980364,-0.0934995,4.21893e-09,0,
4,4.03501,0.980394,-0.0943137,3.77721e-09,0,
4,3.82836,0.980444,-0.0951386,6.76302e-09,0,
4,3.63018,0.980886,-0.0959642,2.50281e-08,0,
4,3.44125,0.982093,-0.0967785,3.08817e-07,0,
4,3.26217,0.983963,-0.0975661,1.79512e-06,0,
4,3.09333,0.985624,-0.0983155,2.79039e-06,0,
4,2.93497,0.985755,-0.0990187,-5.00447e-06,0,
4,2.78715,0.983252,-0.0996668,-3.04603e-05,0,
4,2.64979,0.977677,-0.100249,-7.67372e-05,0,
4,2.52268,0.969279,-0.100758,-0.000140953,0,
4,2.40551,0.95875,-0.101187,-0.000216483,0,
4,2.29789,0.946929,-0.101539,-0.00029571,0,
4,2.19939,0.934586,-0.101816,-0.000372105,0,
4,2.10949,0.922325,-0.102027,-0.000441237,0,
4,2.02768,0.910557,-0.102178,-0.000500899,0,
4,1.95343,0.899522,-0.10228,-0.000550686,0,
4,1.88618,0.889334,-0.102339,-0.000591419,0,
4,1.82542,0.880018,-0.102365,-0.000624577,0,
4,1.77062,0.871548,-0.102363,-0.000651793,0,
4,1.72128,0.863869,-0.102342,-0.000674531,0,
4,1.67693,0.856922,-0.102305,-0.000693996,0,
4,1.63713,0.850642,-0.102257,-0.000710496,0,
4,1.60144,0.844969,-0.102203,-0.000724133,0,
4,1.56949,0.839845,-0.102145,-0.000734963,0,
4,1.54091,0.835217,-0.102087,-0.000743993,0,
4,1.51537,0.831028,-0.102031,-0.00075078,0,
4,1.49167,0.827095,-0.101972,-0.000755093,0,
4,1.46926,0.823326,-0.101913,-0.000758233,0,
4,1.44801,0.819701,-0.101853,-0.000760455,0,
4,1.42781,0.816199,-0.101792,-0.000761778,0,
4,1.40855,0.812804,-0.10173,-0.000762429,0,
4,1.39015,0.809501,-0.101667,-0.000762673,0,
4,1.37252,0.806274,-0.101603,-0.000762818,0,
4,1.3556,0.803108,-0.101538,-0.000763276,0,
4,1.3393,0.79999,-0.101473,-0.000764441,0,
4,1.32357,0.796904,-0.101407,-0.000766801,0,
4,1.30836,0.793831,-0.10134,-0.000770944,0,
4,1.29362,0.790752,-0.101273,-0.000777703,0,
4,1.2793,0.787646,-0.101205,-0.000788094,0,
4,1.26537,0.784487,-0.101136,-0.000803174,0,
4,1.25179,0.781245,-0.101067,-0.000824348,0,
4,1.23852,0.777885,-0.100997,-0.000853326,0,
4,1.22554,0.774365,-0.100927,-0.000892129,0,
4,1.21282,0.770635,-0.100855,-0.000943104,0,
4,1.20034,0.766641,-0.100782,-0.00100889,0,
4,1.18806,0.76232,-0.100709,-0.00109233,0,
4,1.17599,0.757606,-0.100634,-0.00119634,0,
4,1.16408,0.752435,-0.100558,-0.00132363,0,
4,1.15233,0.746745,-0.100481,-0.00147641,0,
4,1.14073,0.740488,-0.100403,-0.00165607,0,
4,1.12925,0.733634,-0.100325,-0.00186275,0,
4,1.11788,0.726177,-0.100248,-0.00209518,0,
4,1.10661,0.718132,-0.100171,-0.00235059,0,
4,1.09543,0.70954,-0.100096,-0.00262475,0,
4,1.08432,0.700461,-0.100022,-0.0029123,0,
4,1.07328,0.690969,-0.0999507,-0.00320702,0,
4,1.0623,0.681145,-0.0998819,-0.00350231,0,
4,1.05136,0.671077,-0.0998159,-0.00379136,0,
4,1.04044,0.660834,-0.0997519,-0.0040676,0,
4,1.0295,0.650484,-0.0996903,-0.00432545,0,
4,1.01855,0.64011,-0.099629,-0.00455836,0,
4,1.00757,0.629789,-0.0995706,-0.00476057,0,
4,0.996544,0.619595,-0.0995061,-0.00492865,0,
4,0.98547,0.609591,-0.0994512,-0.00507612,0,
4,0.974334,0.599744,-0.0993562,-0.00519193,0,
4,0.963124,0.589849,-0.0991892,-0.00524112,0,
4,0.951826,0.579683,-0.099003,-0.00530693,0,
4,0.940428,0.569156,-0.0988157,-0.00539628,0,
4,0.928915,0.558246,-0.0986351,-0.00550714,0,
4,0.917272,0.546968,-0.0984638,-0.00563697,0,
4,0.905481,0.535354,-0.0983033,-0.00578291,0,
4,0.893524,0.52344,-0.0981532,-0.00594188,0,
4,0.881383,0.511254,-0.0980107,-0.00610841,0,
4,0.869035,0.498801,-0.0978725,-0.00627962,0,
4,0.856459,0.486072,-0.097737,-0.00645479,0,
4,0.843629,0.473049,-0.0976034,-0.00663442,0,
4,0.830518,0.459707,-0.0974718,-0.00681903,0,
4,0.817097,0.446019,-0.0973422,-0.00700908,0,
4,0.803334,0.431953,-0.0972149,-0.00720503,0,
4,0.789195,0.417479,-0.0970902,-0.00740725,0,
4,0.774643,0.402559,-0.0969687,-0.0076161,0,
4,0.759639,0.387155,-0.0968514,-0.00783189,0,
4,0.744138,0.371224,-0.0967395,-0.00805476,0,
4,0.728096,0.354719,-0.0966347,-0.00828465,0,
4,0.711463,0.33759,-0.0965396,-0.00852114,0,
4,0.694189,0.319785,-0.0964583,-0.00876334,0,
4,0.676218,0.301257,-0.0963961,-0.00900976,0,
4,0.657495,0.281973,-0.096359,-0.00925803,0,
4,0.637962,0.26192,-0.0963542,-0.00950459,0,
4,0.617561,0.241112,-0.096386,-0.00974511,0,
4,0.596848,0.220174,-0.0964598,-0.00996821,0,
4,0.576557,0.199884,-0.0965696,-0.0101625,0,
4,0.556564,0.18018,-0.0967056,-0.0103263,0,
4,0.536763,0.16097,-0.0968536,-0.0104573,0,
4,0.517057,0.142139,-0.0969979,-0.0105522,0,
4,0.497368,0.12358,-0.0971318,-0.0106062,0,
4,0.477632,0.105271,-0.0972754,-0.0106141,0,
4,0.457804,0.087375,-0.097495,-0.0105717,0,
4,0.437857,0.0703432,-0.0979201,-0.0104812,0,
4,0.417786,0.0548726,-0.0987389,-0.0103564,0,
4,0.397605,0.0416329,-0.100145,-0.0102227,0,
4,0.377348,0.0308579,-0.102215,-0.0101044,0,
4,0.357066,0.0221338,-0.104152,-0.00998355,0,
4,0.336828,0.0145323,-0.104878,-0.00928376,0,
4,0.316717,0.00747036,-0.104833,-0.00874964,0,
4,0.296825,0.000831204,-0.104749,-0.00825493,0,
4,0.27725,-0.00541438,-0.104507,-0.00774905,0,
4,0.258095,-0.0112942,-0.104093,-0.00723608,0,
4,0.239458,-0.0168349,-0.103537,-0.00671772,0,
4,0.221432,-0.0220563,-0.102875,-0.00620959,0,
4,0.2041,-0.0269709,-0.102132,-0.00571199,0,
4,0.187537,-0.0315914,-0.101327,-0.00522929,0,
4,0.171798,-0.0359304,-0.100484,-0.00476523,0,
4,0.156928,-0.04,-0.0996266,-0.00432281,0,
4,0.142956,-0.0438117,-0.0987739,-0.00390427,0,
4,0.129894,-0.0473762,-0.0979442,-0.00351111,0,
4,0.117744,-0.0507038,-0.0971515,-0.00314415,0,
4,0.106492,-0.053804,-0.0964062,-0.0028036,0,
4,0.0961173,-0.0566859,-0.0957153,-0.00248918,0,
4,0.0865883,-0.0593579,-0.0950826,-0.00220019,0,
4,0.0778675,-0.0618283,-0.0945092,-0.00193561,0,
4,0.0699123,-0.0641048,-0.0939944,-0.00169422,0,
4,0.062677,-0.0661949,-0.0935359,-0.00147464,0,
4,0.056114,-0.0681057,-0.0931302,-0.00127542,0,
4,0.0501747,-0.069844,-0.0927735,-0.00109507,0,
4,0.0448114,-0.071416,-0.0924615,-0.000932115,0,
4,0.039977,-0.0728277,-0.0921897,-0.000785117,0,
4,0.0356266,-0.0740843,-0.0919541,-0.000652703,0,
4,0.0317171,-0.07519,-0.0917506,-0.000533573,0,
4,0.0282081,-0.0761482,-0.0915753,-0.000426517,0,
4,0.0250617,-0.076961,-0.091425,-0.000330416,0,
4,0.0222427,-0.0776288,-0.0912964,-0.000244254,0,
4,0.0197189,-0.0781497,-0.091187,-0.000167119,0,
4,0.0174603,-0.0785189,-0.091094,-9.82094e-05,0,
4,0.0154398,-0.0787276,-0.0910159,-3.68533e-05,0,
4,0.0136326,-0.0787613,-0.0909497,1.74726e-05,0,
4,0.0120162,-0.0785973,-0.0908954,6.50945e-05,0,
4,0.0105703,-0.0782006,-0.0908496,0.000106057,0,
4,0.00927657,-0.0775181,-0.0908138,0.000139964,0,
4,0.00811839,-0.076468,-0.0907834,0.000165699,0,
4,0.0070809,-0.0749259,-0.090762,0.000180994,0,
4,0.0061507,-0.0727072,-0.0907436,0.000182097,0,
4,0.00531578,-0.0695626,-0.0907337,0.000164727,0,
4,0.00456537,-0.0652323,-0.0907241,0.000128569,0,
4,0.00388979,-0.0596134,-0.090722,8.31312e-05,0,
4,0.00328037,-0.0529415,-0.0907171,4.38149e-05,0,
4,0.00272934,-0.0457122,-0.0907186,1.90234e-05,0,
4,0.0022297,-0.038388,-0.0907147,6.896e-06,0,
4,0.00177519,-0.0312419,-0.0907175,2.06529e-06,0,
4,0.00136016,-0.0243879,-0.0907132,4.84441e-07,0,
4,0.000979511,-0.0178542,-0.090717,7.87216e-08,0,
4,0.00062865,-0.0116304,-0.0907117,6.80126e-09,0,
4,0.000303409,-0.00569054,-0.0907169,1.6757e-10,0,

6,0,0,0.0152158,0,0,
6,9,0,-0.0615358,0,0,
6,8.99969,0.0157472,-0.0615354,4.24519e-10,0,
6,8.99934,0.0335004,-0.0615357,1.95851e-08,0,
6,8.99895,0.0535337,-0.0615354,2.65264e-07,0,
6,8.9985,0.0761298,-0.0615356,1.90554e-06,0,
6,8.99801,0.10155,-0.0615354,9.31946e-06,0,
6,8.99744,0.129888,-0.0615355,3.44728e-05,0,
6,8.99681,0.160735,-0.0615353,9.98149e-05,0,
6,8.99609,0.192772,-0.0615354,0.000227761,0,
6,8.99529,0.223803,-0.0615351,0.000420613,0,
6,8.99438,0.252005,-0.061535,0.000627665,0,
6,8.99336,0.277195,-0.0615346,0.000778495,0,
6,8.9922,0.299814,-0.0615344,0.000900014,0,
6,8.9909,0.32018,-0.0615339,0.000998195,0,
6,8.98944,0.338621,-0.0615334,0.00107634,0,
6,8.98779,0.355479,-0.0615326,0.00113878,0,
6,8.98593,0.371095,-0.0615319,0.0011897,0,
6,8.98383,0.385834,-0.0615309,0.00122705,0,
6,8.98147,0.400017,-0.0615299,0.0012546,0,
6,8.97881,0.413823,-0.0615288,0.00128198,0,
6,8.97581,0.427333,-0.0615274,0.0013065,0,
6,8.97244,0.440603,-0.0615258,0.00132987,0,
6,8.96863,0.45367,-0.061524,0.00135197,0,
6,8.96435,0.466568,-0.0615217,0.00137303,0,
6,8.95953,0.47933,-0.0615191,0.00139326,0,
6,8.95409,0.491986,-0.061516,0.00141284,0,
6,8.94798,0.504564,-0.0615124,0.00143187,0,
6,8.94109,0.517091,-0.0615082,0.00145041,0,
6,8.93334,0.529593,-0.0615032,0.00146844,0,
6,8.92463,0.54209,-0.0614975,0.0014859,0,
6,8.91482,0.554604,-0.0614908,0.00150268,0,
6,8.90379,0.567151,-0.0614831,0.00151859,0,
6,8.89139,0.579743,-0.0614742,0.00153341,0,
6,8.87746,0.592387,-0.0614638,0.00154684,0,
6,8.86181,0.605086,-0.061452,0.0015587,0,
6,8.84423,0.617836,-0.0614383,0.00156845,0,
6,8.82452,0.630632,-0.0614227,0.00157561,0,
6,8.80241,0.643464,-0.0614046,0.00157991,0,
6,8.77763,0.656321,-0.0613845,0.00158198,0,
6,8.74989,0.669218,-0.0613617,0.00157892,0,
6,8.71885,0.682193,-0.0613368,0.00156745,0,
6,8.68417,0.695255,-0.0613098,0.00155208,0,
6,8.64545,0.708365,-0.0612797,0.00153258,0,
6,8.60229,0.721464,-0.061246,0.00150887,0,
6,8.55423,0.734491,-0.0612082,0.00148099,0,
6,8.50082,0.747405,-0.0611661,0.00144903,0,
6,8.44155,0.760197,-0.0611199,0.00141295,0,
6,8.37592,0.77291,-0.0610702,0.00137237,0,
6,8.30339,0.78566,-0.0610186,0.0013262,0,
6,8.22344,0.798659,-0.060967,0.00127218,0,
6,8.13555,0.812226,-0.060916,0.00120738,0,
6,8.0392,0.826778,-0.0608651,0.00112824,0,
6,7.93391,0.842797,-0.0608096,0.00102998,0,
6,7.81927,0.860706,-0.0607437,0.000907379,0,
6,7.6949,0.88058,-0.0606538,0.000759316,0,
6,7.56054,0.901698,-0.0605372,0.000596041,0,
6,7.41603,0.922316,-0.0603744,0.000437338,0,
6,7.26132,0.940171,-0.0601843,0.000298173,0,
6,7.09653,0.953584,-0.0599398,0.000167052,0,
6,6.92195,0.961957,-0.0596591,6.3576e-05,0,
6,6.73802,0.965795,-0.0593429,1.45033e-05,0,
6,6.5454,0.966576,-0.058967,-4.6759e-07,0,
6,6.34489,0.965988,-0.0585308,-1.88095e-06,0,
6,6.1375,0.96517,-0.0580249,-8.96593e-07,0,
6,5.92439,0.964553,-0.0574439,-3.17165e-07,0,
6,5.70687,0.964127,-0.0567813,-1.16142e-07,0,
6,5.48633,0.963761,-0.0560302,-5.06151e-08,0,
6,5.26426,0.963367,-0.0551841,-2.68282e-08,0,
6,5.04218,0.962923,-0.0542369,-1.79733e-08,0,
6,4.82159,0.962432,-0.0531833,-1.54207e-08,0,
6,4.60398,0.961875,-0.0520196,-1.59999e-08,0,
6,4.39071,0.961194,-0.0507441,-1.86578e-08,0,
6,4.18307,0.960318,-0.0493575,-2.25745e-08,0,
6,3.98218,0.959264,-0.0478636,-2.78576e-08,0,
6,3.78902,0.958224,-0.046269,-5.89428e-08,0,
6,3.60438,0.95754,-0.0445818,-1.94923e-07,0,
6,3.42888,0.957491,-0.0428106,-4.03251e-07,0,
6,3.26296,0.958013,-0.0409659,-6.28042e-07,0,
6,3.10691,0.958594,-0.0390627,-2.45707e-06,0,
6,2.96084,0.958452,-0.0371217,-1.02562e-05,0,
6,2.82473,0.956858,-0.0351672,-2.9079e-05,0,
6,2.69844,0.953378,-0.0332251,-6.19695e-05,0,
6,2.58172,0.94795,-0.0313204,-0.000109178,0,
6,2.47424,0.940813,-0.0294757,-0.000168662,0,
6,2.37559,0.932386,-0.0277095,-0.000237049,0,
6,2.28535,0.92315,-0.0260355,-0.000311002,0,
6,2.20301,0.913556,-0.0244629,-0.000385776,0,
6,2.1281,0.903972,-0.0229968,-0.00045735,0,
6,2.06009,0.894668,-0.0216381,-0.000523104,0,
6,1.99849,0.885821,-0.020385,-0.000581735,0,
6,1.9428,0.877539,-0.0192354,-0.000633126,0,
6,1.89255,0.869873,-0.01818,-0.000677871,0,
6,1.84728,0.862833,-0.0172024,-0.000707691,0,
6,1.80655,0.856406,-0.0163059,-0.00073397,0,
6,1.76996,0.85057,-0.0154941,-0.000757709,0,
6,1.73712,0.845289,-0.014759,-0.000778879,0,
6,1.70768,0.840504,-0.0140931,-0.000798948,0,
6,1.67998,0.835981,-0.0134647,-0.000818271,0,
6,1.65329,0.831614,-0.0128547,-0.000836718,0,
6,1.62754,0.827388,-0.0122628,-0.000854305,0,
6,1.60265,0.82329,-0.0116869,-0.000871266,0,
6,1.57854,0.819311,-0.011126,-0.000887673,0,
6,1.55515,0.815443,-0.0105787,-0.000903589,0,
6,1.53242,0.811678,-0.010044,-0.000919082,0,
6,1.5103,0.808008,-0.0095209,-0.000934212,0,
6,1.48874,0.804427,-0.00900833,-0.000949057,0,
6,1.46769,0.800927,-0.00850559,-0.000963681,0,
6,1.44712,0.797503,-0.00801144,-0.000978126,0,
6,1.42698,0.794146,-0.00752716,-0.000992401,0,
6,1.40725,0.790848,-0.00705435,-0.00100585,0,
6,1.38788,0.787595,-0.00659194,-0.00101633,0,
6,1.36886,0.784369,-0.00613922,-0.00102731,0,
6,1.35015,0.781156,-0.0056934,-0.00103927,0,
6,1.33173,0.777935,-0.0052533,-0.00105277,0,
6,1.31357,0.774688,-0.00481891,-0.00106896,0,
6,1.29566,0.771395,-0.00438946,-0.0010887,0,
6,1.27797,0.768037,-0.00396488,-0.00111206,0,
6,1.26048,0.764594,-0.00354495,-0.00113892,0,
6,1.24318,0.761045,-0.00312763,-0.00116995,0,
6,1.22605,0.757366,-0.00270925,-0.00120174,0,
6,1.20907,0.753529,-0.00229108,-0.00123898,0,
6,1.19223,0.749499,-0.0018761,-0.00128292,0,
6,1.17551,0.745235,-0.00146389,-0.00133495,0,
6,1.1589,0.740691,-0.00105437,-0.00139672,0,
6,1.14238,0.735819,-0.000647625,-0.00147011,0,
6,1.12595,0.730577,-0.00024361,-0.00155684,0,
6,1.10959,0.724925,0.000157467,-0.00165751,0,
6,1.09329,0.71883,0.000555328,-0.00177298,0,
6,1.07704,0.712264,0.00094966,-0.00190395,0,
6,1.06081,0.7052,0.00134022,-0.00205104,0,
6,1.04459,0.697614,0.00172671,-0.00221494,0,
6,1.02836,0.689486,0.00210863,-0.00239635,0,
6,1.01211,0.680792,0.00248527,-0.0025962,0,
6,0.99583,0.67151,0.00285578,-0.00281556,0,
6,0.97951,0.661614,0.00321901,-0.00305557,0,
6,0.963136,0.651084,0.00357346,-0.00331718,0,
6,0.946694,0.639905,0.00391739,-0.00360093,0,
6,0.930172,0.628069,0.00424917,-0.00390674,0,
6,0.913555,0.615572,0.00456791,-0.00423388,0,
6,0.896829,0.602401,0.00487407,-0.00458123,0,
6,0.879979,0.588528,0.0051695,-0.00494773,0,
6,0.862989,0.573909,0.00545652,-0.00533303,0,
6,0.845842,0.558516,0.00573548,-0.0057383,0,
6,0.828521,0.542376,0.00600368,-0.00616129,0,
6,0.811008,0.525629,0.00624757,-0.00661327,0,
6,0.793282,0.508502,0.00646358,-0.00708331,0,
6,0.775322,0.491183,0.00665624,-0.00754591,0,
6,0.757107,0.473789,0.00682169,-0.00799353,0,
6,0.738612,0.456393,0.00695781,-0.00842015,0,
6,0.719813,0.439049,0.00706156,-0.00882076,0,
6,0.700681,0.421809,0.00713139,-0.00919115,0,
6,0.681188,0.404715,0.00716926,-0.00952755,0,
6,0.661304,0.387792,0.00718344,-0.00982646,0,
6,0.640996,0.37103,0.00718972,-0.0100845,0,
6,0.620228,0.354382,0.00720805,-0.0102983,0,
6,0.598964,0.337774,0.00725159,-0.010464,0,
6,0.577166,0.321165,0.0073075,-0.010578,0,
6,0.554791,0.304641,0.00731536,-0.0106381,0,
6,0.531799,0.288522,0.00714392,-0.0106472,0,
6,0.508144,0.273395,0.00660079,-0.0106182,0,
6,0.48378,0.259931,0.00542798,-0.0105746,0,
6,0.459585,0.248945,0.00354264,-0.0105403,0,
6,0.436695,0.240537,0.0017282,-0.0104908,0,
6,0.414961,0.233645,0.00115931,-0.00985149,0,
6,0.394252,0.227521,0.00148967,-0.00928328,0,
6,0.374445,0.221894,0.00179608,-0.00884206,0,
6,0.355433,0.216678,0.00213233,-0.00840908,0,
6,0.337122,0.211802,0.00254212,-0.00798347,0,
6,0.319433,0.207207,0.00300723,-0.00756412,0,
6,0.3023,0.202847,0.00351058,-0.00715757,0,
6,0.28567,0.198689,0.00404111,-0.00676117,0,
6,0.269507,0.194704,0.00459611,-0.00637465,0,
6,0.253785,0.190872,0.00517135,-0.00599823,0,
6,0.238493,0.187175,0.0057619,-0.00563232,0,
6,0.223631,0.1836,0.00636261,-0.00527746,0,
6,0.209207,0.180136,0.00696805,-0.0049343,0,
6,0.195237,0.176776,0.00757257,-0.00460356,0,
6,0.181744,0.173516,0.00817051,-0.00428597,0,
6,0.168754,0.170352,0.00875635,-0.00398224,0,
6,0.156292,0.167281,0.00932493,-0.00369303,0,
6,0.144384,0.164302,0.00987158,-0.00341887,0,
6,0.133052,0.161415,0.0103923,-0.00316016,0,
6,0.122315,0.158617,0.010884,-0.00291714,0,
6,0.112183,0.155908,0.0113443,-0.00268988,0,
6,0.102665,0.153288,0.0117716,-0.00247829,0,
6,0.0937597,0.150753,0.0121653,-0.00228211,0,
6,0.0854609,0.148302,0.0125254,-0.00210094,0,
6,0.077757,0.145932,0.0128527,-0.00193424,0,
6,0.0706309,0.143639,0.0131482,-0.0017814,0,
6,0.0640611,0.141418,0.0134136,-0.0016417,0,
6,0.0580229,0.139266,0.0136507,-0.00151438,0,
6,0.0524888,0.137176,0.0138616,-0.00139865,0,
6,0.0474296,0.135142,0.0140483,-0.00129369,0,
6,0.042815,0.133156,0.014213,-0.00119867,0,
6,0.0386145,0.131212,0.0143578,-0.00111281,0,
6,0.0347975,0.129301,0.0144846,-0.00103529,0,
6,0.0313344,0.127413,0.0145954,-0.00096538,0,
6,0.0281964,0.125539,0.0146918,-0.000902331,0,
6,0.0253561,0.123668,0.0147755,-0.000845446,0,
6,0.0227875,0.121786,0.0148479,-0.000794054,0,
6,0.0204662,0.11988,0.0149105,-0.000747504,0,
6,0.0183694,0.117932,0.0149642,-0.000705161,0,
6,0.016476,0.115924,0.0150103,-0.000666389,0,
6,0.0147664,0.11383,0.0150495,-0.00063053,0,
6,0.0132228,0.111622,0.015083,-0.000596873,0,
6,0.0118288,0.109261,0.0151108,-0.000564603,0,
6,0.0105693,0.1067,0.0151346,-0.00053273,0,
6,0.00943073,0.103876,0.0151535,-0.000499982,0,
6,0.00840063,0.100705,0.0151698,-0.000464663,0,
6,0.00746774,0.0970773,0.0151816,-0.000424518,0,
6,0.00662185,0.0928533,0.0151921,-0.000376792,0,
6,0.00585371,0.0878705,0.0151984,-0.000318965,0,
6,0.00515491,0.0819785,0.0152045,-0.000250883,0,
6,0.00451788,0.0751206,0.0152066,-0.000177834,0,
6,0.00393573,0.0674367,0.01521,-0.000110733,0,
6,0.00340221,0.0592818,0.0152097,-5.99178e-05,0,
6,0.00291168,0.0510872,0.015212,-2.82711e-05,0,
6,0.00245897,0.0431838,0.0152107,-1.17003e-05,0,
6,0.00203939,0.0357382,0.015213,-4.22203e-06,0,
6,0.00164864,0.0287911,0.0152111,-1.29041e-06,0,
6,0.00128281,0.0223159,0.0152139,-3.13081e-07,0,
6,0.000938257,0.016259,0.0152113,-5.30006e-08,0,
6,0.000611645,0.0105597,0.0152148,-4.7748e-09,0,
6,0.000299862,0.00515893,0.0152114,-1.20661e-10,0,

10,0.000296632,0.0119591,0.0320852,-1.63118e-10,0,
10,0.000596102,0.0240281,0.0320858,-6.04464e-09,0,
10,0.000900397,0.0362868,0.0320852,-6.14318e-08,0,
10,0.00121153,0.0488148,0.0320857,-3.29704e-07,0,
10,0.00153158,0.0616896,0.0320851,-1.22952e-06,0,
10,0.00186264,0.0749822,0.0320855,-3.63264e-06,0,
10,0.00220692,0.0887484,0.0320851,-9.11385e-06,0,
10,0.00256668,0.103015,0.0320854,-2.01769e-05,0,
10,0.00294431,0.117758,0.032085,-4.0258e-05,0,
10,0.00334229,0.132883,0.0320852,-7.31997e-05,0,
10,0.00376326,0.14821,0.0320848,-0.000122016,0,
10,0.00421,0.163479,0.0320849,-0.000187327,0,
10,0.00468544,0.178394,0.0320845,-0.000266496,0,
10,0.00519274,0.192666,0.0320844,-0.000354278,0,
10,0.00573524,0.206066,0.0320838,-0.000445363,0,
10,0.00631651,0.218482,0.0320835,-0.000530003,0,
10,0.00694041,0.229905,0.0320826,-0.000606014,0,
10,0.00761104,0.240356,0.0320819,-0.000674083,0,
10,0.00833284,0.249879,0.0320806,-0.000733629,0,
10,0.00911058,0.258541,0.0320792,-0.000785078,0,
10,0.0099494,0.266418,0.0320771,-0.000829246,0,
10,0.0108548,0.27359,0.0320748,-0.000867122,0,
10,0.0118329,0.280135,0.0320718,-0.00089973,0,
10,0.0128901,0.286127,0.0320682,-0.000928051,0,
10,0.0140333,0.291633,0.0320638,-0.000952981,0,
10,0.0152702,0.296715,0.0320587,-0.000975317,0,
10,0.0166089,0.301426,0.0320526,-0.000995751,0,
10,0.0180584,0.305813,0.0320455,-0.00101489,0,
10,0.0196282,0.30992,0.0320372,-0.00103324,0,
10,0.0213288,0.31378,0.0320276,-0.00105127,0,
10,0.0231714,0.317428,0.0320165,-0.00106936,0,
10,0.0251682,0.320889,0.0320039,-0.00108789,0,
10,0.0273326,0.324189,0.0319894,-0.00110718,0,
10,0.0296789,0.327349,0.031973,-0.00112752,0,
10,0.0322227,0.330389,0.0319544,-0.00114922,0,
10,0.0349809,0.333324,0.0319333,-0.00117256,0,
10,0.0379719,0.336172,0.0319095,-0.00119783,0,
10,0.0412155,0.338946,0.0318827,-0.0012253,0,
10,0.0447333,0.341658,0.0318525,-0.00125529,0,
10,0.0485489,0.344321,0.0318187,-0.0012881,0,
10,0.0526875,0.346946,0.0317809,-0.00132406,0,
10,0.0571768,0.349544,0.0317385,-0.00136352,0,
10,0.0620466,0.352125,0.0316913,-0.00140684,0,
10,0.0673295,0.354699,0.0316386,-0.00145443,0,
10,0.0730607,0.357276,0.03158,-0.00150671,0,
10,0.0792784,0.359866,0.0315149,-0.00156415,0,
10,0.0860241,0.362479,0.0314427,-0.00162726,0,
10,0.0933428,0.365124,0.0313626,-0.00169657,0,
10,0.101283,0.367814,0.031274,-0.00177268,0,
10,0.109899,0.370558,0.0311762,-0.00185624,0,
10,0.119247,0.373369,0.0310684,-0.00194794,0,
10,0.12939,0.376259,0.0309497,-0.00204854,0,
10,0.140395,0.379242,0.0308194,-0.00215887,0,
10,0.152337,0.382333,0.0306766,-0.00227982,0,
10,0.165296,0.385547,0.0305206,-0.00241234,0,
10,0.179357,0.388904,0.0303504,-0.00255749,0,
10,0.194615,0.392423,0.0301656,-0.00271636,0,
10,0.211171,0.396128,0.0299654,-0.00289015,0,
10,0.229138,0.400045,0.0297495,-0.0030801,0,
10,0.248635,0.404204,0.0295178,-0.0032875,0,
10,0.269793,0.40864,0.0292698,-0.0035137,0,
10,0.292753,0.413394,0.0290073,-0.00375999,0,
10,0.317669,0.418514,0.0287281,-0.00402688,0,
10,0.344708,0.424056,0.0284385,-0.00431568,0,
10,0.372405,0.429748,0.0281542,-0.00460997,0,
10,0.399623,0.435386,0.0278864,-0.00489687,0,
10,0.426397,0.440995,0.0276362,-0.00517534,0,
10,0.452757,0.446595,0.0274032,-0.00544872,0,
10,0.478735,0.452214,0.0271954,-0.00571055,0,
10,0.504358,0.45788,0.0270167,-0.0059608,0,
10,0.529657,0.463626,0.0268639,-0.0061999,0,
10,0.554656,0.469476,0.0267335,-0.00642687,0,
10,0.579382,0.475457,0.0266314,-0.00664058,0,
10,0.603859,0.481593,0.0265222,-0.00684565,0,
10,0.628112,0.487916,0.0264758,-0.0071792,0,
10,0.652163,0.494741,0.0267632,-0.00724822,0,
10,0.676035,0.502621,0.0272789,-0.00721049,0,
10,0.699751,0.511903,0.0276723,-0.00715742,0,
10,0.72333,0.522558,0.0278948,-0.00708468,0,
10,0.746795,0.534278,0.0279793,-0.00698349,0,
10,0.770165,0.546684,0.0279783,-0.00684772,0,
10,0.79346,0.559491,0.0279366,-0.0066746,0,
10,0.816699,0.572575,0.0278827,-0.00646333,0,
10,0.839903,0.585929,0.0278298,-0.00621348,0,
10,0.863088,0.599603,0.0277786,-0.00592474,0,
10,0.886275,0.613631,0.0277246,-0.00559746,0,
10,0.909481,0.627982,0.0276588,-0.00523414,0,
10,0.932723,0.64251,0.027578,-0.00484104,0,
10,0.956021,0.656915,0.0274697,-0.00444494,0,
10,0.97939,0.670797,0.0273309,-0.00407289,0,
10,1.00285,0.683858,0.0271788,-0.00371675,0,
10,1.02641,0.696013,0.0270203,-0.00337616,0,
10,1.0501,0.707295,0.0268591,-0.00305411,0,
10,1.07392,0.717751,0.0266936,-0.00275399,0,
10,1.0979,0.727391,0.0265211,-0.00247947,0,
10,1.12205,0.736195,0.0263392,-0.00223398,0,
10,1.14639,0.744151,0.0261467,-0.00201958,0,
10,1.17093,0.751292,0.0259439,-0.001836,0,
10,1.19568,0.757709,0.0257322,-0.00168058,0,
10,1.22066,0.763535,0.0255136,-0.00154896,0,
10,1.24589,0.768921,0.0252901,-0.0014364,0,
10,1.27137,0.774012,0.0250626,-0.00133884,0,
10,1.29713,0.778921,0.0248314,-0.00125336,0,
10,1.32317,0.783727,0.0245959,-0.00117811,0,
10,1.34951,0.788469,0.0243552,-0.00111186,0,
10,1.37616,0.793164,0.0241087,-0.0010536,0,
10,1.40313,0.797813,0.0238563,-0.00100227,0,
10,1.43043,0.802417,0.023598,-0.000956732,0,
10,1.45807,0.806985,0.0233339,-0.000915811,0,
10,1.48607,0.811531,0.0230641,-0.000878423,0,
10,1.51444,0.816071,0.0227886,-0.0008436,0,
10,1.54318,0.820622,0.0225071,-0.000810586,0,
10,1.57231,0.825195,0.0222196,-0.000778886,0,
10,1.60184,0.829796,0.0219257,-0.000748212,0,
10,1.63178,0.834424,0.0216253,-0.000718338,0,
10,1.66213,0.839078,0.0213182,-0.000689042,0,
10,1.69292,0.843755,0.0210042,-0.000660111,0,
10,1.72416,0.84845,0.0206832,-0.000631439,0,
10,1.75585,0.853159,0.0203549,-0.000602956,0,
10,1.78802,0.857873,0.0200193,-0.000574595,0,
10,1.82067,0.862585,0.019676,-0.000546316,0,
10,1.85383,0.867285,0.0193251,-0.000518119,0,
10,1.88751,0.871959,0.0189662,-0.000490055,0,
10,1.92173,0.876595,0.0185992,-0.00046222,0,
10,1.95652,0.881176,0.0182237,-0.00043475,0,
10,1.9919,0.885687,0.0178398,-0.000407803,0,
10,2.02791,0.890109,0.0174466,-0.000381549,0,
10,2.06456,0.894426,0.017045,-0.000356239,0,
10,2.10268,0.898697,0.0166235,-0.000331807,0,
10,2.1443,0.903079,0.016162,-0.00030748,0,
10,2.18977,0.907543,0.0156572,-0.000283612,0,
10,2.23946,0.912006,0.0151019,-0.000260755,0,
10,2.29376,0.916375,0.0144992,-0.000238955,0,
10,2.35309,0.920619,0.0138369,-0.000210077,0,
10,2.4179,0.924777,0.0131126,-0.00016714,0,
10,2.48863,0.928736,0.0123281,-0.000124809,0,
10,2.56575,0.93221,0.0114726,-8.48798e-05,0,
10,2.64971,0.934961,0.0105483,-5.19451e-05,0,
10,2.74098,0.936869,0.0095522,-2.79711e-05,0,
10,2.83997,0.937921,0.00848636,-1.25386e-05,0,
10,2.94709,0.938204,0.00735242,-4.14362e-06,0,
10,3.06269,0.937911,0.00615384,-7.6009e-07,0,
10,3.18706,0.937333,0.00489505,-1.8264e-07,0,
10,3.3204,0.936801,0.00358107,-5.11142e-07,0,
10,3.46281,0.936597,0.00221785,-6.72305e-07,0,
10,3.61427,0.936861,0.000811905,-4.97195e-07,0,
10,3.77463,0.937557,-0.000628811,-2.4578e-07,0,
10,3.94358,0.938514,-0.00209485,-9.57809e-08,0,
10,4.12067,0.939526,-0.00357489,-4.25889e-08,0,
10,4.30525,0.940444,-0.00505631,-3.08119e-08,0,
10,4.49655,0.941221,-0.00652582,-3.17354e-08,0,
10,4.6936,0.941886,-0.00797036,-4.06019e-08,0,
10,4.89531,0.942494,-0.00937744,-6.28531e-08,0,
10,5.10047,0.943079,-0.0107358,-1.11735e-07,0,
10,5.30776,0.943655,-0.0120354,-2.14452e-07,0,
10,5.51581,0.944233,-0.0132679,-4.31448e-07,0,
10,5.72323,0.944855,-0.0144265,-9.04995e-07,0,
10,5.92863,0.945597,-0.0155072,-1.89774e-06,0,
10,6.13069,0.946473,-0.0165068,-3.4461e-06,0,
10,6.32816,0.947252,-0.0174262,-3.67955e-06,0,
10,6.51991,0.947245,-0.0182635,4.25559e-06,0,
10,6.70495,0.945292,-0.0190222,3.33612e-05,0,
10,6.88244,0.940098,-0.0196961,9.87123e-05,0,
10,7.0517,0.930806,-0.0202931,0.000212111,0,
10,7.21224,0.917211,-0.0208198,0.000339866,0,
10,7.3637,0.899641,-0.0212649,0.000470146,0,
10,7.5059,0.879388,-0.0216449,0.000616024,0,
10,7.63878,0.858524,-0.0219529,0.000766893,0,
10,7.76243,0.838778,-0.0222092,0.0009032,0,
10,7.87701,0.820946,-0.0224156,0.00101738,0,
10,7.9828,0.805017,-0.0225873,0.00110988,0,
10,8.08014,0.790587,-0.02273,0.00118655,0,
10,8.16941,0.777175,-0.0228534,0.00125222,0,
10,8.25106,0.764361,-0.0229607,0.00130919,0,
10,8.32554,0.751827,-0.0230553,0.00135913,0,
10,8.39331,0.739363,-0.0231378,0.00140316,0,
10,8.45484,0.726855,-0.0232095,0.00144191,0,
10,8.5106,0.714269,-0.023271,0.00147533,0,
10,8.56104,0.701631,-0.0233236,0.00150315,0,
10,8.60659,0.689012,-0.0233688,0.00152519,0,
10,8.64767,0.676506,-0.0234073,0.00154152,0,
10,8.68467,0.664198,-0.0234414,0.00155259,0,
10,8.71795,0.652113,-0.0234693,0.00155644,0,
10,8.74786,0.640174,-0.0234922,0.00154746,0,
10,8.77471,0.628312,-0.0235127,0.00153864,0,
10,8.79881,0.616524,-0.0235291,0.00152765,0,
10,8.8204,0.60482,-0.0235434,0.0015144,0,
10,8.83975,0.593205,-0.023555,0.00149939,0,
10,8.85708,0.581684,-0.023565,0.00148311,0,
10,8.87259,0.570252,-0.0235731,0.0014658,0,
10,8.88646,0.558904,-0.02358,0.00144783,0,
10,8.89886,0.547625,-0.0235856,0.00142946,0,
10,8.90995,0.536401,-0.0235903,0.00141092,0,
10,8.91986,0.525211,-0.0235941,0.00139238,0,
10,8.92872,0.514035,-0.0235973,0.00137393,0,
10,8.93663,0.502849,-0.0235998,0.00135561,0,
10,8.94369,0.491631,-0.023602,0.00133742,0,
10,8.95,0.480355,-0.0236036,0.00131933,0,
10,8.95564,0.468996,-0.0236051,0.00130123,0,
10,8.96067,0.457528,-0.0236062,0.00128298,0,
10,8.96517,0.445925,-0.0236072,0.00126439,0,
10,8.96918,0.434157,-0.0236079,0.00124526,0,
10,8.97276,0.422195,-0.0236086,0.00122531,0,
10,8.97596,0.410007,-0.023609,0.00120424,0,
10,8.97882,0.39756,-0.0236095,0.00118192,0,
10,8.98137,0.384812,-0.0236097,0.00115793,0,
10,8.98365,0.371695,-0.0236102,0.00113374,0,
10,8.98569,0.358039,-0.0236101,0.00109949,0,
10,8.9875,0.343537,-0.0236106,0.00105362,0,
10,8.98913,0.327861,-0.0236105,0.000997583,0,
10,8.99058,0.310701,-0.023611,0.000927734,0,
10,8.99188,0.291746,-0.0236106,0.000840273,0,
10,8.99304,0.270693,-0.0236112,0.000732204,0,
10,8.99408,0.247258,-0.0236107,0.000601586,0,
10,8.99501,0.220968,-0.0236114,0.00041517,0,
10,8.99583,0.191764,-0.0236108,0.000234244,0,
10,8.99658,0.161145,-0.0236115,0.000107746,0,
10,8.99724,0.131175,-0.0236108,3.90418e-05,0,
10,8.99784,0.103239,-0.0236116,1.10148e-05,0,
10,8.99837,0.0778728,-0.0236107,2.33688e-06,0,
10,8.99885,0.0550818,-0.0236117,3.36145e-07,0,
10,8.99927,0.0346658,-0.0236107,2.55528e-08,0,
10,8.99966,0.0163842,-0.0236118,5.65626e-10,0,
10,0,0,0.032086,0,0,
10,9,0,-0.0236106,0,0,

0.004,0,0,-0.227984,0,6.96834e-07,
0.00868226,0,0,-0.228012,0,-2.26584e-07,
0.014062,0,0,-0.227987,0,-5.87119e-07,
0.0201548,0,0,-0.228001,0,1.2393e-06,
0.0269766,0,0,-0.227975,0,5.83047e-06,
0.0345437,0,0,-0.227982,0,1.50128e-05,
0.0428729,0,0,-0.22797,0,2.82405e-05,
0.051981,0,0,-0.227993,0,4.51452e-05,
0.0618853,0,0,-0.228021,0,6.32941e-05,
0.0726036,0,0,-0.228084,0,8.09784e-05,
0.0841536,0,0,-0.228159,0,9.63707e-05,
0.0965535,0,0,-0.228258,0,0.000109117,
0.109822,0,0,-0.228369,0,0.000119179,
0.123977,0,0,-0.228498,0,0.000126996,
0.139037,0,0,-0.228643,0,0.000132561,
0.155022,0,0,-0.22881,0,0.000135562,
0.171949,0,0,-0.228998,0,0.000135303,
0.189839,0,0,-0.229211,0,0.000131043,
0.208709,0,0,-0.229447,0,0.000122153,
0.228579,0,0,-0.229706,0,0.00010832,
0.249467,0,0,-0.229986,0,8.95828e-05,
0.271391,0,0,-0.230282,0,6.63279e-05,
0.29437,0,0,-0.230593,0,3.92096e-05,
0.31842,0,0,-0.230913,0,9.07236e-06,
0.343559,0,0,-0.231238,0,-2.31545e-05,
0.369804,0,0,-0.231564,0,-5.65709e-05,
0.39717,0,0,-0.231888,0,-9.03971e-05,
0.425672,0,0,-0.232207,0,-0.000124013,
0.455324,0,0,-0.23252,0,-0.000156941,
0.48614,0,0,-0.232824,0,-0.000188791,
0.518132,0,0,-0.233118,0,-0.000219186,
0.551309,0,0,-0.233402,0,-0.000247702,
0.585683,0,0,-0.233673,0,-0.000273832,
0.621259,0,0,-0.233934,0,-0.000297012,
0.658046,0,0,-0.234185,0,-0.000316678,
0.696047,0,0,-0.23443,0,-0.000332382,
0.735265,0,0,-0.234674,0,-0.000343903,
0.7757,0,0,-0.234926,0,-0.000351347,
0.817352,0,0,-0.235197,0,-0.000355182,
0.860215,0,0,-0.235503,0,-0.00035622,
0.904285,0,0,-0.235861,0,-0.000355554,
0.949552,0,0,-0.236292,0,-0.000354496,
0.996004,0,0,-0.236815,0,-0.000354524,
1.04363,0,0,-0.23745,0,-0.000357219,
1.09241,0,0,-0.238212,0,-0.000364161,
1.14232,0,0,-0.239109,0,-0.000376784,
1.19335,0,0,-0.240143,0,-0.000396239,
1.24546,0,0,-0.241308,0,-0.000423309,
1.29863,0,0,-0.242592,0,-0.000458417,
1.35283,0,0,-0.243977,0,-0.000501709,
1.40802,0,0,-0.24544,0,-0.000553141,
1.46416,0,0,-0.246951,0,-0.00061245,
1.52121,0,0,-0.248478,0,-0.000679039,
1.57913,0,0,-0.249981,0,-0.000752099,
1.63787,0,0,-0.251415,0,-0.000830982,
1.69739,0,0,-0.252726,0,-0.000915305,
1.75761,0,0,-0.253862,0,-0.00100433,
1.81851,0,0,-0.25477,0,-0.00109671,
1.88,0,0,-0.255396,0,-0.00119104,
1.94204,0,0,-0.255687,0,-0.00128631,
2.00457,0,0,-0.255594,0,-0.00138138,
2.06751,0,0,-0.255074,0,-0.0014749,
2.13081,0,0,-0.254089,0,-0.00156552,
2.19439,0,0,-0.252609,0,-0.00165191,
2.25819,0,0,-0.250616,0,-0.00173281,
2.32214,0,0,-0.248099,0,-0.00180706,
2.38617,0,0,-0.245061,0,-0.00187362,
2.4502,0,0,-0.241519,0,-0.0019317,
2.51418,0,0,-0.237497,0,-0.00198073,
2.57803,0,0,-0.23303,0,-0.00202042,
2.64167,0,0,-0.228159,0,-0.00205071,
2.70505,0,0,-0.222929,0,-0.00207168,
2.76808,0,0,-0.217388,0,-0.0020836,
2.83072,0,0,-0.211589,0,-0.00208683,
2.89288,0,0,-0.20558,0,-0.00208188,
2.95451,0,0,-0.199413,0,-0.00206931,
3.01555,0,0,-0.193135,0,-0.00204973,
3.07594,0,0,-0.186791,0,-0.0020238,
3.13561,0,0,-0.180421,0,-0.00199217,
3.19453,0,0,-0.174063,0,-0.00195547,
3.25262,0,0,-0.167753,0,-0.00191439,
3.30985,0,0,-0.161519,0,-0.0018696,
3.36617,0,0,-0.155386,0,-0.0018217,
3.42154,0,0,-0.149376,0,-0.00177123,
3.47591,0,0,-0.143508,0,-0.00171874,
3.52925,0,0,-0.137795,0,-0.00166472,
3.58152,0,0,-0.132249,0,-0.00160958,
3.6327,0,0,-0.126879,0,-0.00155365,
3.68276,0,0,-0.121691,0,-0.00149728,
3.73167,0,0,-0.116692,0,-0.00144078,
3.77941,0,0,-0.111882,0,-0.00138438,
3.82596,0,0,-0.107265,0,-0.00132831,
3.8713,0,0,-0.10284,0,-0.0012728,
3.91543,0,0,-0.0986042,0,-0.00121795,
3.95833,0,0,-0.0945789,0,-0.00116437,
4,0,0,-0.0907104,0,-0.00111156,
4.04167,0,0,-0.0869224,0,-0.00105842,
4.08333,0,0,-0.0832113,0,-0.00100506,
4.125,0,0,-0.0795739,0,-0.000951565,
4.16667,0,0,-0.076012,0,-0.000897954,
4.20833,0,0,-0.0725265,0,-0.000844304,
4.25,0,0,-0.069118,0,-0.000790687,
4.29167,0,0,-0.0657871,0,-0.000737176,
4.33333,0,0,-0.0625341,0,-0.000683849,
4.375,0,0,-0.0593587,0,-0.000630775,
4.41667,0,0,-0.0562606,0,-0.000578007,
4.45833,0,0,-0.0532394,0,-0.000525592,
4.5,0,0,-0.0502944,0,-0.000473578,
4.54167,0,0,-0.0474249,0,-0.000422016,
4.58333,0,0,-0.0446299,0,-0.000370945,
4.625,0,0,-0.041908,0,-0.000320393,
4.66667,0,0,-0.0392582,0,-0.000270379,
4.70833,0,0,-0.0366792,0,-0.000220925,
4.75,0,0,-0.0341698,0,-0.000172048,
4.79167,0,0,-0.0317284,0,-0.00012376,
4.83333,0,0,-0.0293538,0,-7.60616e-05,
4.875,0,0,-0.0270446,0,-2.89606e-05,
4.91667,0,0,-0.0247995,0,1.75331e-05,
4.95833,0,0,-0.0226171,0,6.34124e-05,
5,0,0,-0.020496,0,0.000108677,
5.04167,0,0,-0.0184349,0,0.000153329,
5.08333,0,0,-0.0164324,0,0.00019737,
5.125,0,0,-0.0144872,0,0.000240798,
5.16667,0,0,-0.012598,0,0.000283617,
5.20833,0,0,-0.0107635,0,0.000325833,
5.25,0,0,-0.00898243,0,0.00036745,
5.29167,0,0,-0.00725363,0,0.000408471,
5.33333,0,0,-0.00557583,0,0.0004489,
5.375,0,0,-0.00394786,0,0.000488744,
5.41667,0,0,-0.00236858,0,0.000528009,
5.45833,0,0,-0.000836871,0,0.000566699,
5.5,0,0,0.000648377,0,0.000604821,
5.54167,0,0,0.00208824,0,0.000642379,
5.58333,0,0,0.00348376,0,0.000679378,
5.625,0,0,0.00483596,0,0.000715822,
5.66667,0,0,0.00614585,0,0.000751717,
5.70833,0,0,0.00741442,0,0.000787066,
5.75,0,0,0.00864264,0,0.000821874,
5.79167,0,0,0.00983144,0,0.000856147,
5.83333,0,0,0.0109817,0,0.000889889,
5.875,0,0,0.0120945,0,0.000923104,
5.91667,0,0,0.0131704,0,0.000955798,
5.95833,0,0,0.0142106,0,0.000987977,
6,0,0,0.0152157,0,0.00101965,
6.04167,0,0,0.0161865,0,0.00105081,
6.08333,0,0,0.0171239,0,0.00108148,
6.125,0,0,0.0180286,0,0.00111165,
6.16667,0,0,0.0189013,0,0.00114133,
6.20833,0,0,0.0197428,0,0.00117053,
6.25,0,0,0.0205538,0,0.00119925,
6.29167,0,0,0.021335,0,0.0012275,
6.33333,0,0,0.0220869,0,0.00125528,
6.375,0,0,0.0228104,0,0.00128259,
6.41667,0,0,0.0235061,0,0.00130944,
6.45833,0,0,0.0241746,0,0.00133583,
6.5,0,0,0.0248166,0,0.00136176,
6.54167,0,0,0.0254328,0,0.00138723,
6.58333,0,0,0.0260238,0,0.00141226,
6.625,0,0,0.0265902,0,0.00143683,
6.66667,0,0,0.0271326,0,0.00146096,
6.70833,0,0,0.0276517,0,0.00148465,
6.75,0,0,0.0281482,0,0.0015079,
6.79167,0,0,0.0286227,0,0.00153072,
6.83333,0,0,0.0290758,0,0.00155314,
6.875,0,0,0.0295081,0,0.00157514,
6.91667,0,0,0.0299203,0,0.00159673,
6.95833,0,0,0.0303128,0,0.00161792,
7,0,0,0.0306862,0,0.00163871,
7.04167,0,0,0.0310411,0,0.00165908,
7.08333,0,0,0.031378,0,0.00167905,
7.125,0,0,0.0316974,0,0.00169861,
7.16667,0,0,0.0319998,0,0.00171777,
7.20833,0,0,0.0322857,0,0.00173654,
7.25,0,0,0.0325557,0,0.00175491,
7.29167,0,0,0.0328102,0,0.00177289,
7.33333,0,0,0.0330497,0,0.0017905,
7.375,0,0,0.0332746,0,0.00180774,
7.41667,0,0,0.0334853,0,0.00182462,
7.45833,0,0,0.0336823,0,0.00184114,
7.5,0,0,0.033866,0,0.00185733,
7.54167,0,0,0.0340366,0,0.00187317,
7.58333,0,0,0.0341946,0,0.00188869,
7.625,0,0,0.0343403,0,0.00190389,
7.66667,0,0,0.0344739,0,0.00191879,
7.70833,0,0,0.0345958,0,0.00193339,
7.75,0,0,0.0347061,0,0.0019477,
7.79167,0,0,0.0348052,0,0.00196173,
7.83333,0,0,0.0348923,0,0.00197543,
7.875,0,0,0.0349684,0,0.00198887,
7.91667,0,0,0.0350411,0,0.00200274,
7.95833,0,0,0.0350378,0,0.00201566,
8,0,0,0.0351492,0,0.00202954,
8.04171,0,0,0.0353009,0,0.00204384,
8.08368,0,0,0.0353048,0,0.00205784,
8.12617,0,0,0.0353496,0,0.00206963,
8.16946,0,0,0.0353871,0,0.00208116,
8.21382,0,0,0.035407,0,0.00209255,
8.25952,0,0,0.0354188,0,0.0021038,
8.30685,0,0,0.0354218,0,0.0021151,
8.35611,0,0,0.0354154,0,0.00212654,
8.40762,0,0,0.035399,0,0.00213819,
8.46168,0,0,0.035372,0,0.00215008,
8.51865,0,0,0.0353331,0,0.00216225,
8.57889,0,0,0.035281,0,0.00217471,
8.64276,0,0,0.0352142,0,0.0021875,
8.71067,0,0,0.0351309,0,0.00220061,
8.78306,0,0,0.0350292,0,0.00221404,
8.86037,0,0,0.0349069,0,0.00222778,
8.94309,0,0,0.0347618,0,0.00224182,
9.03174,0,0,0.0345916,0,0.00225612,
9.12689,0,0,0.0343935,0,0.00227063,
9.22912,0,0,0.0341646,0,0.00228527,
9.33908,0,0,0.0339014,0,0.00229994,
9.45746,0,0,0.0336019,0,0.00231486,
9.58501,0,0,0.0332647,0,0.00233096,
9.72253,0,0,0.0328874,0,0.0023497,
9.87088,0,0,0.0324658,0,0.00237128,
10.031,0,0,0.0319948,0,0.00239375,
10.2039,0,0,0.0314717,0,0.00241624,
10.3906,0,0,0.0308983,0,0.00244038,
10.5924,0,0,0.0302712,0,0.00246612,
10.8105,0,0,0.0295887,0,0.00249248,
11.0463,0,0,0.0288509,0,0.00251892,
11.3012,0,0,0.0280598,0,0.0025447,
11.5769,0,0,0.027218,0,0.00256842,
11.8751,0,0,0.0263314,0,0.00259121,
12.1977,0,0,0.0254067,0,0.00261494,
12.5466,0,0,0.0244463,0,0.00263863,
12.9242,0,0,0.0234573,0,0.00266145,
13.3327,0,0,0.0224497,0,0.00268299,
13.7748,0,0,0.0214317,0,0.00270272,
14.2532,0,0,0.0204133,0,0.00272057,
14.7709,0,0,0.019406,0,0.00273674,
15.3312,0,0,0.0184207,0,0.00275148,
15.9377,0,0,0.0174651,0,0.00276451,
16.594,0,0,0.0165465,0,0.00277513,
17.3044,0,0,0.0156736,0,0.00278336,
18.0733,0,0,0.0148529,0,0.00279004,
18.9056,0,0,0.0140845,0,0.00279575,
19.8064,0,0,0.0133649,0,0.00280125,
20.7816,0,0,0.0126908,0,0.00280668,
21.8371,0,0,0.0120542,0,0.00281159,
22.9796,0,0,0.0114445,0,0.00281598,
24.2163,0,0,0.0108508,0,0.00282007,
25.5551,0,0,0.0102577,0,0.00282396,
27.0042,0,0,0.00965044,0,0.00282784,
28.5729,0,0,0.00901586,0,0.00283178,
30.271,0,0,0.00833949,0,0.00283594,
32.1091,0,0,0.00760601,0,0.00284071,
34.0989,0,0,0.00680336,0,0.00284536,
36.2529,0,0,0.00591839,0,0.00284876,
38.5845,0,0,0.00494269,0,0.00285281,
41.1085,0,0,0.0039286,0,0.00285899,
43.8407,0,0,0.0026719,0,0.00286488,
46.7983,0,0,0.00137453,0,0.00286657,
50,0,0,0.00279175,0,0.00288004,

