5db2ac34d78ad296f2a922a388043ea655c0c8d0 
X,Z,x_velocity,cp,uw_b,cf,
1,0,0,-0.236684,0,0,
1,9,0,-0.126779,0,0,
1,8.99969,0.0158637,-0.126778,3.37707e-10,0,
1,8.99934,0.0338615,-0.126779,1.57851e-08,0,
1,8.99894,0.0542986,-0.126778,2.17714e-07,0,
1,8.99848,0.0774969,-0.126778,1.59499e-06,0,
1,8.99797,0.10377,-0.126778,7.95553e-06,0,
1,8.99739,0.133289,-0.126778,2.9958e-05,0,
1,8.99672,0.165768,-0.126778,8.78819e-05,0,
1,8.99597,0.200091,-0.126778,0.000201417,0,
1,8.99512,0.234397,-0.126778,0.000365714,0,
1,8.99416,0.26688,-0.126778,0.000552439,0,
1,8.99306,0.296808,-0.126778,0.000710094,0,
1,8.99182,0.324305,-0.126777,0.00083441,0,
1,8.99041,0.349589,-0.126777,0.000937588,0,
1,8.98881,0.372858,-0.126777,0.00102198,0,
1,8.98699,0.394359,-0.126776,0.00109077,0,
1,8.98494,0.414398,-0.126775,0.00114373,0,
1,8.98261,0.433271,-0.126774,0.00118539,0,
1,8.97996,0.451191,-0.126773,0.00122065,0,
1,8.97696,0.468309,-0.126772,0.0012502,0,
1,8.97356,0.484753,-0.126771,0.00127521,0,
1,8.9697,0.500629,-0.126769,0.00129657,0,
1,8.96533,0.516026,-0.126767,0.00131494,0,
1,8.96038,0.531022,-0.126765,0.00133082,0,
1,8.95476,0.54568,-0.126763,0.00134455,0,
1,8.9484,0.560056,-0.12676,0.0013564,0,
1,8.9412,0.574196,-0.126758,0.00136654,0,
1,8.93303,0.588141,-0.126754,0.00137506,0,
1,8.92379,0.601925,-0.126751,0.00138201,0,
1,8.91333,0.615577,-0.126748,0.00138742,0,
1,8.90149,0.629123,-0.126744,0.00139126,0,
1,8.8881,0.642585,-0.12674,0.00139346,0,
1,8.87295,0.655981,-0.126737,0.00139397,0,
1,8.85584,0.669329,-0.126734,0.00139268,0,
1,8.83651,0.682642,-0.126731,0.00138947,0,
1,8.81469,0.695934,-0.12673,0.0013842,0,
1,8.79007,0.709218,-0.12673,0.00137671,0,
1,8.76232,0.722507,-0.126732,0.00136678,0,
1,8.73107,0.735814,-0.126737,0.00135416,0,
1,8.69591,0.749152,-0.126745,0.00133854,0,
1,8.6564,0.762539,-0.12676,0.00131954,0,
1,8.61206,0.775993,-0.126781,0.00129672,0,
1,8.56236,0.789535,-0.126811,0.00126992,0,
1,8.50675,0.803204,-0.126853,0.00124188,0,
1,8.44464,0.817112,-0.126912,0.00120409,0,
1,8.3754,0.831461,-0.126993,0.00115873,0,
1,8.29839,0.84652,-0.1271,0.00110208,0,
1,8.21296,0.862627,-0.127243,0.00102878,0,
1,8.11843,0.880132,-0.127424,0.000933312,0,
1,8.01417,0.899248,-0.127658,0.000809778,0,
1,7.89956,0.919809,-0.127949,0.000656365,0,
1,7.77403,0.940947,-0.128314,0.000486199,0,
1,7.63711,0.961029,-0.128771,0.000320169,0,
1,7.48842,0.977934,-0.129313,0.000137551,0,
1,7.32773,0.989353,-0.129961,4.11881e-05,0,
1,7.15495,0.994631,-0.130725,6.18916e-06,0,
1,6.97022,0.995642,-0.131612,2.70599e-07,0,
1,6.77388,0.995112,-0.132635,4.19287e-09,0,
1,6.56652,0.994791,-0.133814,1.07207e-08,0,
1,6.34896,0.995104,-0.135165,1.29472e-08,0,
1,6.12229,0.995815,-0.136702,1.49794e-08,0,
1,5.88784,0.99666,-0.138442,1.61414e-08,0,
1,5.64716,0.99755,-0.140399,1.71966e-08,0,
1,5.40194,0.998501,-0.142588,1.86452e-08,0,
1,5.15407,0.999548,-0.145017,2.04998e-08,0,
1,4.90545,1.00071,-0.147694,2.26729e-08,0,
1,4.65805,1.00199,-0.150619,2.50503e-08,0,
1,4.41376,1.00338,-0.153788,2.74537e-08,0,
1,4.17441,1.00486,-0.15719,2.96291e-08,0,
1,3.94163,1.00635,-0.160808,3.16464e-08,0,
1,3.7169,1.00785,-0.164615,3.47501e-08,0,
1,3.50146,1.00951,-0.168577,4.16425e-08,0,
1,3.29629,1.01171,-0.172662,5.394e-08,0,
1,3.10217,1.0147,-0.176835,6.77067e-08,0,
1,2.91959,1.01787,-0.18106,2.68015e-07,0,
1,2.74885,1.01929,-0.185276,1.11281e-06,0,
1,2.59002,1.01657,-0.189405,-1.33661e-05,0,
1,2.44299,1.00857,-0.193359,-6.69568e-05,0,
1,2.30752,0.996024,-0.197061,-0.000160333,0,
1,2.18321,0.980673,-0.20046,-0.000275563,0,
1,2.06959,0.964189,-0.203535,-0.000391132,0,
1,1.9661,0.947774,-0.206284,-0.000491895,0,
1,1.87215,0.932158,-0.208722,-0.000571908,0,
1,1.78711,0.917671,-0.210866,-0.000633001,0,
1,1.71033,0.904345,-0.212741,-0.00068061,0,
1,1.64119,0.892033,-0.21437,-0.000720673,0,
1,1.57905,0.880521,-0.215779,-0.000754161,0,
1,1.52332,0.869613,-0.216993,-0.000784082,0,
1,1.47342,0.859177,-0.218034,-0.000812208,0,
1,1.42882,0.849142,-0.218924,-0.000838583,0,
1,1.389,0.839468,-0.219684,-0.000862757,0,
1,1.35351,0.830133,-0.220332,-0.00088459,0,
1,1.3219,0.82113,-0.220885,-0.000904061,0,
1,1.29378,0.812458,-0.221356,-0.000921182,0,
1,1.26878,0.80412,-0.221759,-0.000935927,0,
1,1.24659,0.796124,-0.222103,-0.000948565,0,
1,1.22689,0.788473,-0.222397,-0.000958991,0,
1,1.2092,0.781083,-0.222652,-0.00096644,0,
1,1.1932,0.773901,-0.222874,-0.000972608,0,
1,1.1787,0.76689,-0.223066,-0.000981256,0,
1,1.16554,0.759974,-0.223233,-0.000999747,0,
1,1.15357,0.753004,-0.223378,-0.00104138,0,
1,1.14266,0.745722,-0.223506,-0.00112766,0,
1,1.13268,0.737739,-0.223626,-0.00128749,0,
1,1.12354,0.728561,-0.22375,-0.00155293,0,
1,1.11514,0.717726,-0.223889,-0.00195037,0,
1,1.10739,0.705022,-0.224048,-0.0024865,0,
1,1.10022,0.690636,-0.224228,-0.00314117,0,
1,1.09357,0.675086,-0.224428,-0.0038707,0,
1,1.08738,0.658999,-0.224642,-0.00462417,0,
1,1.0816,0.642914,-0.224866,-0.00536001,0,
1,1.07618,0.62721,-0.225097,-0.00605216,0,
1,1.07107,0.612115,-0.22533,-0.00668787,0,
1,1.06626,0.597741,-0.225564,-0.00726346,0,
1,1.06169,0.584129,-0.225797,-0.00778012,0,
1,1.05735,0.571274,-0.226028,-0.00824168,0,
1,1.05321,0.559145,-0.226255,-0.008653,0,
1,1.04925,0.547697,-0.22648,-0.00901916,0,
1,1.04544,0.536881,-0.226701,-0.00934502,0,
1,1.04177,0.526647,-0.22692,-0.00963504,0,
1,1.03822,0.516946,-0.227135,-0.00989508,0,
1,1.03478,0.507728,-0.227346,-0.0101261,0,
1,1.03144,0.498943,-0.227553,-0.0103314,0,
1,1.02818,0.490543,-0.227756,-0.0105138,0,
1,1.025,0.482485,-0.227956,-0.0106767,0,
1,1.02188,0.474731,-0.228151,-0.0108223,0,
1,1.01882,0.467249,-0.228344,-0.0109523,0,
1,1.01581,0.46001,-0.228534,-0.0110683,0,
1,1.01284,0.452989,-0.228722,-0.0111706,0,
1,1.00988,0.446091,-0.228909,-0.011262,0,
1,1.00688,0.439223,-0.229099,-0.011345,0,
1,1.00384,0.432373,-0.229292,-0.011419,0,
1,1.00076,0.425527,-0.229488,-0.0114841,0,
1,0.997615,0.418669,-0.229687,-0.0115402,0,
1,0.99441,0.411784,-0.22989,-0.0115875,0,
1,0.991131,0.404857,-0.230098,-0.0116258,0,
1,0.987768,0.397869,-0.23031,-0.0116549,0,
1,0.984308,0.390803,-0.230528,-0.0116747,0,
1,0.980739,0.38364,-0.230753,-0.0116846,0,
1,0.977045,0.376359,-0.230984,-0.0116843,0,
1,0.973211,0.36894,-0.231222,-0.0116731,0,
1,0.969219,0.36136,-0.231469,-0.0116501,0,
1,0.965047,0.353594,-0.231725,-0.0116144,0,
1,0.960675,0.345618,-0.23199,-0.0115649,0,
1,0.956077,0.337405,-0.232264,-0.0115001,0,
1,0.951224,0.328928,-0.232551,-0.0114184,0,
1,0.946088,0.320157,-0.232847,-0.0113175,0,
1,0.940633,0.311063,-0.233152,-0.0111987,0,
1,0.934823,0.301606,-0.233429,-0.0110529,0,
1,0.928616,0.291734,-0.23361,-0.0109047,0,
1,0.921967,0.281306,-0.233658,-0.0106386,0,
1,0.914826,0.270152,-0.233601,-0.0103603,0,
1,0.907141,0.25815,-0.233533,-0.0100547,0,
1,0.898852,0.245189,-0.233504,-0.00972147,0,
1,0.889898,0.231186,-0.233516,-0.0093465,0,
1,0.880212,0.216145,-0.233584,-0.0089375,0,
1,0.869723,0.200219,-0.233712,-0.008511,0,
1,0.858358,0.183684,-0.23388,-0.00806764,0,
1,0.846039,0.166833,-0.234066,-0.00761408,0,
1,0.83269,0.149884,-0.234256,-0.00715835,0,
1,0.818232,0.132917,-0.234446,-0.00669319,0,
1,0.802744,0.116039,-0.234649,-0.00620546,0,
1,0.78635,0.0993198,-0.234911,-0.00569825,0,
1,0.768969,0.0826731,-0.235238,-0.00517592,0,
1,0.75053,0.0661409,-0.235581,-0.00465233,0,
1,0.730977,0.0498796,-0.235914,-0.00414705,0,
1,0.710271,0.0341258,-0.236217,-0.003683,0,
1,0.688397,0.0191484,-0.236462,-0.00327668,0,
1,0.66536,0.00517925,-0.236622,-0.00292237,0,
1,0.641194,-0.00759005,-0.236679,-0.00263533,0,
1,0.615961,-0.0190069,-0.236619,-0.00241068,0,
1,0.589754,-0.0289965,-0.236443,-0.00223886,0,
1,0.562692,-0.0375764,-0.236143,-0.00210494,0,
1,0.534925,-0.0448257,-0.235687,-0.00199807,0,
1,0.506624,-0.0508436,-0.235038,-0.0019274,0,
1,0.477982,-0.0557658,-0.234139,-0.0019215,0,
1,0.449206,-0.0598128,-0.233086,-0.00194131,0,
1,0.420509,-0.0632158,-0.232026,-0.00195745,0,
1,0.392107,-0.0661527,-0.23104,-0.00196507,0,
1,0.364206,-0.0687451,-0.230201,-0.00195357,0,
1,0.337003,-0.0710731,-0.229565,-0.00191059,0,
1,0.310673,-0.0731865,-0.22919,-0.00183149,0,
1,0.28537,-0.0751227,-0.229093,-0.00172195,0,
1,0.26122,-0.0769148,-0.229252,-0.00159392,0,
1,0.238324,-0.0785897,-0.229614,-0.001458,0,
1,0.21675,-0.0801693,-0.230115,-0.0013177,0,
1,0.196544,-0.0816659,-0.230686,-0.00118445,0,
1,0.177724,-0.0830838,-0.231303,-0.00105165,0,
1,0.160284,-0.084429,-0.231938,-0.000924555,0,
1,0.144202,-0.085704,-0.232552,-0.000804666,0,
1,0.129436,-0.0869079,-0.233128,-0.000692576,0,
1,0.115935,-0.0880372,-0.233653,-0.000588509,0,
1,0.103636,-0.0890855,-0.234122,-0.000492382,0,
1,0.0924701,-0.0900449,-0.234534,-0.000403984,0,
1,0.0823633,-0.0909056,-0.234891,-0.00032304,0,
1,0.0732406,-0.0916567,-0.235199,-0.000249261,0,
1,0.0650269,-0.0922864,-0.235461,-0.000182345,0,
1,0.057648,-0.0927818,-0.235684,-0.000121994,0,
1,0.0510323,-0.0931292,-0.235872,-6.79137e-05,0,
1,0.0451115,-0.0933134,-0.23603,-1.98243e-05,0,
1,0.0398209,-0.0933171,-0.236162,2.25391e-05,0,
1,0.0351001,-0.09312,-0.236271,5.94122e-05,0,
1,0.0308929,-0.0926973,-0.236362,9.09855e-05,0,
1,0.0271475,-0.0920171,-0.236437,0.000117378,0,
1,0.0238164,-0.0910377,-0.236497,0.000138595,0,
1,0.0208562,-0.0897029,-0.236546,0.000154472,0,
1,0.0182274,-0.0879355,-0.236585,0.000164582,0,
1,0.0158944,-0.0856302,-0.236614,0.000168123,0,
1,0.0138249,-0.0826459,-0.236637,0.00016384,0,
1,0.0119898,-0.0788077,-0.236653,0.000150227,0,
1,0.0103632,-0.073937,-0.236665,0.000126531,0,
1,0.00892169,-0.0679379,-0.236671,9.48276e-05,0,
1,0.00764438,-0.0609349,-0.236676,6.13822e-05,0,
1,0.00651264,-0.0533405,-0.236677,3.38745e-05,0,
1,0.00550983,-0.0457111,-0.236679,1.6093e-05,0,
1,0.00462115,-0.0384958,-0.236679,6.72804e-06,0,
1,0.00383341,-0.0319232,-0.236681,2.5191e-06,0,
1,0.0031349,-0.0260492,-0.23668,8.46848e-07,0,
1,0.00251518,-0.0208418,-0.236682,2.5153e-07,0,
1,0.00196502,-0.0162371,-0.236681,6.35482e-08,0,
1,0.00147619,-0.0121656,-0.236682,1.27318e-08,0,
1,0.00104139,-0.00856196,-0.236681,1.77634e-09,0,
1,0.000654158,-0.00536708,-0.236683,1.3266e-10,0,
1,0.000308731,-0.00252898,-0.236681,2.90792e-12,0,

4,0,0,-0.123887,0,0,
4,9,0,-0.095331,0,0,
4,8.99969,0.0146192,-0.0953306,2.5352e-10,0,
4,8.99934,0.0311471,-0.0953309,1.17619e-08,0,
4,8.99894,0.0498516,-0.0953306,1.6059e-07,0,
4,8.9985,0.0710156,-0.0953308,1.1651e-06,0,
4,8.99799,0.0949229,-0.0953306,5.77481e-06,0,
4,8.99742,0.121765,-0.0953307,2.17896e-05,0,
4,8.99677,0.151408,-0.0953305,6.49426e-05,0,
4,8.99605,0.183072,-0.0953306,0.000153548,0,
4,8.99522,0.215275,-0.0953303,0.000289975,0,
4,8.99429,0.246387,-0.0953302,0.00045143,0,
4,8.99324,0.275303,-0.0953299,0.000612595,0,
4,8.99205,0.301877,-0.0953297,0.000736495,0,
4,8.9907,0.326342,-0.0953292,0.000840098,0,
4,8.98919,0.348861,-0.0953287,0.000926705,0,
4,8.98747,0.369644,-0.095328,0.000998648,0,
4,8.98553,0.388986,-0.0953273,0.00105397,0,
4,8.98334,0.407163,-0.0953263,0.00109978,0,
4,8.98087,0.424374,-0.0953252,0.00113874,0,
4,8.97807,0.440774,-0.0953239,0.00117214,0,
4,8.97491,0.456497,-0.0953223,0.00120123,0,
4,8.97134,0.471654,-0.0953205,0.00122696,0,
4,8.96731,0.48634,-0.0953183,0.00125004,0,
4,8.96276,0.500636,-0.0953158,0.00127099,0,
4,8.95762,0.514613,-0.095313,0.00129017,0,
4,8.95182,0.528331,-0.0953096,0.00130785,0,
4,8.94526,0.541841,-0.0953058,0.00132416,0,
4,8.93787,0.555189,-0.0953014,0.00133919,0,
4,8.92952,0.568414,-0.0952965,0.00135294,0,
4,8.92011,0.581548,-0.095291,0.00136536,0,
4,8.90949,0.594619,-0.0952848,0.00137635,0,
4,8.89751,0.607652,-0.0952779,0.00138577,0,
4,8.88402,0.620665,-0.0952704,0.00139348,0,
4,8.86881,0.633673,-0.0952623,0.00139927,0,
4,8.85169,0.646688,-0.0952535,0.00140297,0,
4,8.83242,0.65972,-0.0952442,0.00140437,0,
4,8.81074,0.672774,-0.0952346,0.00140327,0,
4,8.78637,0.685856,-0.0952247,0.00139945,0,
4,8.75901,0.69897,-0.0952149,0.0013927,0,
4,8.7283,0.712118,-0.0952056,0.00138278,0,
4,8.69387,0.725305,-0.0951972,0.00136938,0,
4,8.65533,0.738535,-0.0951903,0.00135216,0,
4,8.61222,0.751817,-0.0951859,0.00133069,0,
4,8.56407,0.765159,-0.0951849,0.00130502,0,
4,8.5104,0.778588,-0.0951896,0.00127504,0,
4,8.45065,0.792171,-0.0952024,0.00123957,0,
4,8.38429,0.806042,-0.0952258,0.00119763,0,
4,8.31073,0.82041,-0.0952636,0.00114656,0,
4,8.22941,0.835571,-0.0953196,0.00108214,0,
4,8.13974,0.851883,-0.0953969,0.000999592,0,
4,8.04115,0.86969,-0.0954991,0.000893617,0,
4,7.93313,0.889152,-0.0956253,0.000760564,0,
4,7.81519,0.909922,-0.0957812,0.000604096,0,
4,7.68693,0.930802,-0.095958,0.000442851,0,
4,7.54803,0.949772,-0.0961788,0.000294127,0,
4,7.39831,0.964735,-0.0964252,0.000161961,0,
4,7.23771,0.974386,-0.0967253,5.97409e-05,0,
4,7.06634,0.978883,-0.097088,1.35703e-05,0,
4,6.88453,0.979888,-0.0974945,1.02189e-06,0,
4,6.69275,0.97947,-0.0979492,-2.1897e-07,0,
4,6.49173,0.978995,-0.0984553,-2.03765e-08,0,
4,6.28238,0.978903,-0.0990218,2.91464e-08,0,
4,6.06579,0.979115,-0.0996553,1.90919e-08,0,
4,5.84328,0.979449,-0.100361,1.11087e-08,0,
4,5.61626,0.979802,-0.101143,8.38368e-09,0,
4,5.3863,0.980154,-0.102003,7.86463e-09,0,
4,5.15502,0.980519,-0.102942,8.2154e-09,0,
4,4.92406,0.980914,-0.103961,9.01025e-09,0,
4,4.69507,0.981353,-0.105057,9.9968e-09,0,
4,4.46961,0.981835,-0.106226,1.08767e-08,0,
4,4.24915,0.982325,-0.107462,1.12188e-08,0,
4,4.03501,0.982756,-0.108757,1.08827e-08,0,
4,3.82836,0.983073,-0.110099,1.06449e-08,0,
4,3.63018,0.983339,-0.111478,1.29029e-08,0,
4,3.44125,0.983817,-0.112878,2.42084e-08,0,
4,3.26217,0.984883,-0.114285,1.64792e-07,0,
4,3.09333,0.986683,-0.115682,1.23604e-06,0,
4,2.93497,0.988766,-0.117053,3.59354e-06,0,
4,2.78715,0.990107,-0.118385,2.89946e-06,0,
4,2.64979,0.989587,-0.119663,-7.48712e-06,0,
4,2.52268,0.98648,-0.120871,-3.12382e-05,0,
4,2.40551,0.98066,-0.121991,-6.79771e-05,0,
4,2.29789,0.972511,-0.123012,-0.000114442,0,
4,2.19939,0.962689,-0.123927,-0.000166032,0,
4,2.10949,0.951903,-0.124738,-0.000218248,0,
4,2.02768,0.940773,-0.125447,-0.000267618,0,
4,1.95343,0.929766,-0.126063,-0.000312,0,
4,1.88618,0.919198,-0.126594,-0.000350468,0,
4,1.82542,0.909256,-0.127049,-0.000382992,0,
4,1.77062,0.90003,-0.127438,-0.000410087,0,
4,1.72128,0.891548,-0.127769,-0.000432543,0,
4,1.67693,0.883796,-0.12805,-0.000451211,0,
4,1.63713,0.876736,-0.128289,-0.00046686,0,
4,1.60144,0.870325,-0.128491,-0.000480082,0,
4,1.56949,0.864515,-0.128663,-0.000491037,0,
4,1.54091,0.85926,-0.128809,-0.000500859,0,
4,1.51537,0.854498,-0.128933,-0.000509217,0,
4,1.49167,0.850029,-0.129042,-0.000515457,0,
4,1.46926,0.845753,-0.129141,-0.000520752,0,
4,1.44801,0.841646,-0.12923,-0.00052531,0,
4,1.42781,0.837689,-0.129311,-0.000529014,0,
4,1.40855,0.833863,-0.129383,-0.000531925,0,
4,1.39015,0.830154,-0.12945,-0.00053412,0,
4,1.37252,0.826547,-0.129509,-0.000535722,0,
4,1.3556,0.823027,-0.129564,-0.000536866,0,
4,1.3393,0.819581,-0.129613,-0.000537712,0,
4,1.32357,0.816194,-0.129658,-0.000538511,0,
4,1.30836,0.812851,-0.129698,-0.000539618,0,
4,1.29362,0.809534,-0.129735,-0.000541513,0,
4,1.2793,0.806222,-0.129769,-0.000544819,0,
4,1.26537,0.802892,-0.129799,-0.000550346,0,
4,1.25179,0.799515,-0.129827,-0.000559139,0,
4,1.23852,0.796057,-0.129851,-0.000572433,0,
4,1.22554,0.792474,-0.129873,-0.000591765,0,
4,1.21282,0.788717,-0.129892,-0.000618967,0,
4,1.20034,0.784724,-0.129908,-0.000656163,0,
4,1.18806,0.780423,-0.129921,-0.000705741,0,
4,1.17599,0.775734,-0.129932,-0.000770263,0,
4,1.16408,0.770568,-0.129939,-0.000852326,0,
4,1.15233,0.764838,-0.129942,-0.000954362,0,
4,1.14073,0.758462,-0.129943,-0.00107839,0,
4,1.12925,0.751374,-0.129941,-0.00122575,0,
4,1.11788,0.74353,-0.129936,-0.00139689,0,
4,1.10661,0.734916,-0.129929,-0.00159124,0,
4,1.09543,0.725547,-0.12992,-0.00180718,0,
4,1.08432,0.715466,-0.12991,-0.00204214,0,
4,1.07328,0.704736,-0.129899,-0.00229295,0,
4,1.0623,0.693432,-0.129888,-0.00255612,0,
4,1.05136,0.681637,-0.129878,-0.00282801,0,
4,1.04044,0.669416,-0.129869,-0.00310522,0,
4,1.0295,0.65683,-0.129861,-0.00338476,0,
4,1.01855,0.643953,-0.129855,-0.00366371,0,
4,1.00757,0.630858,-0.129851,-0.00393891,0,
4,0.996544,0.617611,-0.129848,-0.00420749,0,
4,0.98547,0.604277,-0.129848,-0.00446653,0,
4,0.974334,0.590917,-0.12985,-0.00471293,0,
4,0.963124,0.577595,-0.129854,-0.00494317,0,
4,0.951826,0.564375,-0.129861,-0.00515604,0,
4,0.940428,0.551315,-0.129869,-0.00534565,0,
4,0.928915,0.538447,-0.129877,-0.00550719,0,
4,0.917272,0.525781,-0.129885,-0.00563827,0,
4,0.905481,0.513311,-0.129881,-0.00573707,0,
4,0.893524,0.50102,-0.129883,-0.00581626,0,
4,0.881383,0.488824,-0.129825,-0.00585548,0,
4,0.869035,0.476562,-0.129693,-0.00585972,0,
4,0.856459,0.464101,-0.129553,-0.00587203,0,
4,0.843629,0.451387,-0.129406,-0.00589189,0,
4,0.830518,0.438389,-0.129259,-0.00591857,0,
4,0.817097,0.425084,-0.129112,-0.00595201,0,
4,0.803334,0.411445,-0.128968,-0.00599255,0,
4,0.789195,0.397447,-0.128825,-0.00604157,0,
4,0.774643,0.383063,-0.128685,-0.00609997,0,
4,0.759639,0.368259,-0.128548,-0.00616785,0,
4,0.744138,0.352986,-0.128417,-0.00624483,0,
4,0.728096,0.33718,-0.128296,-0.00633098,0,
4,0.711463,0.32077,-0.128186,-0.0064275,0,
4,0.694189,0.303682,-0.128088,-0.0065352,0,
4,0.676218,0.285841,-0.128002,-0.00665428,0,
4,0.657495,0.267177,-0.127929,-0.0067846,0,
4,0.637962,0.247629,-0.127874,-0.00692567,0,
4,0.617561,0.227156,-0.127834,-0.0070765,0,
4,0.596848,0.206307,-0.127817,-0.00723035,0,
4,0.576557,0.18581,-0.127829,-0.00737804,0,
4,0.556564,0.16562,-0.127865,-0.00751621,0,
4,0.536763,0.145725,-0.12793,-0.00764066,0,
4,0.517057,0.126151,-0.128025,-0.00774685,0,
4,0.497368,0.106944,-0.128148,-0.00783023,0,
4,0.477632,0.0881508,-0.128293,-0.00788631,0,
4,0.457804,0.0697833,-0.128444,-0.00791045,0,
4,0.437857,0.0518112,-0.128586,-0.0078974,0,
4,0.417786,0.0341875,-0.128705,-0.00784112,0,
4,0.397605,0.0169387,-0.128819,-0.00773578,0,
4,0.377348,0.000314165,-0.128997,-0.00758054,0,
4,0.357066,-0.0150857,-0.129388,-0.00738802,0,
4,0.336828,-0.0284109,-0.130207,-0.00718796,0,
4,0.316717,-0.0390418,-0.131692,-0.00701601,0,
4,0.296825,-0.0471188,-0.13357,-0.00688061,0,
4,0.27725,-0.0535199,-0.134573,-0.00649229,0,
4,0.258095,-0.0590933,-0.134526,-0.00590748,0,
4,0.239458,-0.0642239,-0.134245,-0.00548956,0,
4,0.221432,-0.0689676,-0.133871,-0.00507051,0,
4,0.2041,-0.0733642,-0.133365,-0.00465768,0,
4,0.187537,-0.0774451,-0.13277,-0.0042543,0,
4,0.171798,-0.0812378,-0.132108,-0.00386448,0,
4,0.156928,-0.0847656,-0.131407,-0.00349171,0,
4,0.142956,-0.0880481,-0.130691,-0.00313853,0,
4,0.129894,-0.0911018,-0.129983,-0.00280662,0,
4,0.117744,-0.0939401,-0.129299,-0.00249691,0,
4,0.106492,-0.0965744,-0.128653,-0.0022097,0,
4,0.0961173,-0.0990137,-0.128054,-0.00194476,0,
4,0.0865883,-0.101266,-0.127507,-0.00170146,0,
4,0.0778675,-0.103337,-0.127013,-0.00147889,0,
4,0.0699123,-0.105232,-0.126572,-0.00127596,0,
4,0.062677,-0.106956,-0.126182,-0.00109143,0,
4,0.056114,-0.108512,-0.125839,-0.000924027,0,
4,0.0501747,-0.109904,-0.12554,-0.000772467,0,
4,0.0448114,-0.111135,-0.12528,-0.000635477,0,
4,0.039977,-0.112205,-0.125055,-0.000511836,0,
4,0.0356266,-0.113116,-0.124862,-0.000400386,0,
4,0.0317171,-0.113868,-0.124696,-0.000300047,0,
4,0.0282081,-0.114458,-0.124555,-0.000209823,0,
4,0.0250617,-0.114883,-0.124434,-0.000128811,0,
4,0.0222427,-0.115136,-0.124332,-5.62083e-05,0,
4,0.0197189,-0.115207,-0.124245,8.67654e-06,0,
4,0.0174603,-0.11508,-0.124172,6.64069e-05,0,
4,0.0154398,-0.114732,-0.124111,0.000117387,0,
4,0.0136326,-0.114129,-0.12406,0.000161809,0,
4,0.0120162,-0.113223,-0.124019,0.000199557,0,
4,0.0105703,-0.111941,-0.123985,0.000230037,0,
4,0.00927657,-0.110178,-0.123958,0.000251898,0,
4,0.00811839,-0.107778,-0.123936,0.000262622,0,
4,0.0070809,-0.104518,-0.123922,0.000258231,0,
4,0.0061507,-0.100103,-0.123909,0.000234105,0,
4,0.00531578,-0.0942251,-0.123903,0.000188877,0,
4,0.00456537,-0.0867267,-0.123897,0.000130515,0,
4,0.00388979,-0.0778226,-0.123896,7.5481e-05,0,
4,0.00328037,-0.0680913,-0.123893,3.65873e-05,0,
4,0.00272934,-0.0581673,-0.123894,1.50745e-05,0,
4,0.0022297,-0.0484807,-0.123891,5.3053e-06,0,
4,0.00177519,-0.0392341,-0.123893,1.5619e-06,0,
4,0.00136016,-0.0304875,-0.12389,3.62216e-07,0,
4,0.000979511,-0.0222327,-0.123893,5.83446e-08,0,
4,0.00062865,-0.0144327,-0.123889,5.00347e-09,0,
4,0.000303409,-0.00703978,-0.123893,1.22478e-10,0,

6,0,0,-0.00846755,0,0,
6,9,0,-0.0710453,0,0,
6,8.99969,0.0139126,-0.071045,2.14629e-10,0,
6,8.99934,0.0296011,-0.0710453,9.90509e-09,0,
6,8.99895,0.0473098,-0.071045,1.3427e-07,0,
6,8.9985,0.0672961,-0.0710452,9.67184e-07,0,
6,8.99801,0.0898215,-0.071045,4.76778e-06,0,
6,8.99744,0.115076,-0.0710451,1.79726e-05,0,
6,8.99681,0.142989,-0.0710449,5.39451e-05,0,
6,8.99609,0.172936,-0.071045,0.000129715,0,
6,8.99529,0.203636,-0.0710448,0.000250876,0,
6,8.99438,0.233553,-0.0710447,0.000400279,0,
6,8.99336,0.261538,-0.0710445,0.000554132,0,
6,8.9922,0.287308,-0.0710443,0.000678198,0,
6,8.9909,0.311046,-0.0710439,0.000779649,0,
6,8.98944,0.33292,-0.0710435,0.00086537,0,
6,8.98779,0.353114,-0.0710429,0.000937226,0,
6,8.98593,0.371893,-0.0710423,0.000993286,0,
6,8.98383,0.389517,-0.0710415,0.00103978,0,
6,8.98147,0.406181,-0.0710406,0.00107951,0,
6,8.97881,0.422035,-0.0710394,0.00111379,0,
6,8.97581,0.437211,-0.0710381,0.00114388,0,
6,8.97244,0.451818,-0.0710364,0.00117074,0,
6,8.96863,0.465951,-0.0710345,0.0011951,0,
6,8.96435,0.479691,-0.0710323,0.00121752,0,
6,8.95953,0.493108,-0.0710296,0.00123839,0,
6,8.95409,0.506263,-0.0710265,0.00125802,0,
6,8.94798,0.519211,-0.0710229,0.00127659,0,
6,8.94109,0.531998,-0.0710188,0.00129422,0,
6,8.93334,0.544667,-0.0710139,0.00131094,0,
6,8.92463,0.557254,-0.0710084,0.00132672,0,
6,8.91482,0.569791,-0.071002,0.00134149,0,
6,8.90379,0.582308,-0.0709948,0.00135511,0,
6,8.89139,0.594827,-0.0709865,0.00136739,0,
6,8.87746,0.607369,-0.0709772,0.0013781,0,
6,8.86181,0.619949,-0.0709667,0.00138697,0,
6,8.84423,0.63258,-0.070955,0.00139373,0,
6,8.82452,0.645269,-0.0709419,0.00139806,0,
6,8.80241,0.658022,-0.0709273,0.00139963,0,
6,8.77763,0.67084,-0.0709112,0.00139812,0,
6,8.74989,0.683722,-0.0708935,0.00139318,0,
6,8.71885,0.696667,-0.0708742,0.00138449,0,
6,8.68417,0.70967,-0.070853,0.0013717,0,
6,8.64545,0.72273,-0.0708302,0.00135477,0,
6,8.60229,0.73585,-0.0708058,0.00133237,0,
6,8.55423,0.749039,-0.07078,0.00130552,0,
6,8.50082,0.762314,-0.0707528,0.0012743,0,
6,8.44155,0.77572,-0.0707248,0.00123817,0,
6,8.37592,0.789357,-0.0706969,0.00119604,0,
6,8.30339,0.803404,-0.0706703,0.00114583,0,
6,8.22344,0.818134,-0.0706461,0.00108415,0,
6,8.13555,0.833907,-0.0706237,0.00100693,0,
6,8.0392,0.851113,-0.0706017,0.000909539,0,
6,7.93391,0.870016,-0.0705738,0.000788138,0,
6,7.81927,0.890421,-0.0705348,0.000644576,0,
6,7.6949,0.911296,-0.0704771,0.000494068,0,
6,7.56054,0.930758,-0.0703948,0.000351041,0,
6,7.41603,0.946758,-0.0702964,0.000229808,0,
6,7.26132,0.958051,-0.0701755,0.000108499,0,
6,7.09653,0.96443,-0.0700343,3.53968e-05,0,
6,6.92195,0.966821,-0.0698671,5.61439e-06,0,
6,6.73802,0.966899,-0.0696665,-1.16446e-06,0,
6,6.5454,0.966197,-0.0694258,-1.01571e-06,0,
6,6.34489,0.965551,-0.0691409,-3.57811e-07,0,
6,6.1375,0.965162,-0.0688069,-1.04547e-07,0,
6,5.92439,0.964932,-0.0684189,-3.65031e-08,0,
6,5.70687,0.964729,-0.0679709,-1.76537e-08,0,
6,5.48633,0.964481,-0.0674568,-1.15456e-08,0,
6,5.26426,0.964172,-0.0668703,-9.76214e-09,0,
6,5.04218,0.963813,-0.0662053,-9.73909e-09,0,
6,4.82159,0.963418,-0.0654563,-1.04516e-08,0,
6,4.60398,0.963001,-0.0646188,-1.16194e-08,0,
6,4.39071,0.962549,-0.0636897,-1.34445e-08,0,
6,4.18307,0.962018,-0.0626678,-1.63706e-08,0,
6,3.98218,0.96134,-0.0615539,-2.06271e-08,0,
6,3.78902,0.960481,-0.0603517,-2.5844e-08,0,
6,3.60438,0.959525,-0.0590673,-3.96369e-08,0,
6,3.42888,0.958713,-0.0577089,-1.10573e-07,0,
6,3.26296,0.95834,-0.0562855,-2.78576e-07,0,
6,3.10691,0.958556,-0.0548067,-3.60148e-07,0,
6,2.96084,0.959179,-0.0532848,-4.74949e-07,0,
6,2.82473,0.95971,-0.0517358,-2.41025e-06,0,
6,2.69844,0.959523,-0.0501781,-9.21786e-06,0,
6,2.58172,0.95809,-0.0486303,-2.34349e-05,0,
6,2.47424,0.955127,-0.0471111,-4.60223e-05,0,
6,2.37559,0.950616,-0.0456374,-7.63695e-05,0,
6,2.28535,0.944754,-0.0442238,-0.0001128,0,
6,2.20301,0.937861,-0.0428811,-0.000153201,0,
6,2.1281,0.930297,-0.0416172,-0.0001954,0,
6,2.06009,0.922399,-0.0404365,-0.000237495,0,
6,1.99849,0.914449,-0.0393407,-0.000278017,0,
6,1.9428,0.906665,-0.0383294,-0.000315968,0,
6,1.89255,0.899199,-0.0374007,-0.000350788,0,
6,1.84728,0.892152,-0.036551,-0.000382267,0,
6,1.80655,0.885578,-0.0357769,-0.000410398,0,
6,1.76996,0.879504,-0.0350729,-0.000435164,0,
6,1.73712,0.873938,-0.0344356,-0.000458208,0,
6,1.70768,0.86884,-0.0338581,-0.000478959,0,
6,1.67998,0.863973,-0.0333123,-0.000496997,0,
6,1.65329,0.859231,-0.0327815,-0.00051416,0,
6,1.62754,0.854604,-0.0322662,-0.000530635,0,
6,1.60265,0.850086,-0.0317646,-0.00054623,0,
6,1.57854,0.845673,-0.0312759,-0.000560961,0,
6,1.55515,0.841359,-0.0307989,-0.000574851,0,
6,1.53242,0.837137,-0.0303329,-0.000587911,0,
6,1.5103,0.833002,-0.0298769,-0.000600149,0,
6,1.48874,0.828947,-0.0294302,-0.000611564,0,
6,1.46769,0.824968,-0.028992,-0.000622154,0,
6,1.44712,0.821059,-0.0285617,-0.000631915,0,
6,1.42698,0.817214,-0.0281386,-0.000640846,0,
6,1.40725,0.813428,-0.0277223,-0.000648957,0,
6,1.38788,0.809695,-0.0273121,-0.00065627,0,
6,1.36886,0.806007,-0.0269077,-0.000662833,0,
6,1.35015,0.802359,-0.0265086,-0.000668729,0,
6,1.33173,0.798742,-0.0261145,-0.000674045,0,
6,1.31357,0.795145,-0.025725,-0.00067904,0,
6,1.29566,0.791558,-0.0253397,-0.000684091,0,
6,1.27797,0.787967,-0.0249582,-0.00068975,0,
6,1.26048,0.784355,-0.0245802,-0.000696811,0,
6,1.24318,0.780702,-0.0242054,-0.000706351,0,
6,1.22605,0.77698,-0.0238336,-0.000719935,0,
6,1.20907,0.773157,-0.0234646,-0.00073965,0,
6,1.19223,0.76919,-0.0230985,-0.000767981,0,
6,1.17551,0.765023,-0.0227353,-0.000808042,0,
6,1.1589,0.760587,-0.0223752,-0.000863435,0,
6,1.14238,0.755798,-0.022019,-0.000937962,0,
6,1.12595,0.750564,-0.0216663,-0.00103481,0,
6,1.10959,0.744797,-0.0213196,-0.00115547,0,
6,1.09329,0.738432,-0.0209749,-0.00129748,0,
6,1.07704,0.731461,-0.0206435,-0.00145694,0,
6,1.06081,0.723911,-0.0203033,-0.00162483,0,
6,1.04459,0.715767,-0.0199386,-0.00178111,0,
6,1.02836,0.706984,-0.0195771,-0.00194889,0,
6,1.01211,0.697556,-0.0192175,-0.00212733,0,
6,0.99583,0.687488,-0.0188619,-0.00231565,0,
6,0.97951,0.676776,-0.018512,-0.002514,0,
6,0.963136,0.665415,-0.0181685,-0.00272314,0,
6,0.946694,0.653395,-0.0178332,-0.00294424,0,
6,0.930172,0.640707,-0.0175073,-0.00317855,0,
6,0.913555,0.627341,-0.0171922,-0.00342712,0,
6,0.896829,0.613296,-0.0168891,-0.0036906,0,
6,0.879979,0.598578,-0.0165986,-0.00396918,0,
6,0.862989,0.583203,-0.0163203,-0.00426283,0,
6,0.845842,0.567208,-0.0160544,-0.00457189,0,
6,0.828521,0.55065,-0.0157988,-0.00489772,0,
6,0.811008,0.533585,-0.0155586,-0.00523749,0,
6,0.793282,0.516046,-0.0153403,-0.00558348,0,
6,0.775322,0.498052,-0.0151433,-0.0059336,0,
6,0.757107,0.47963,-0.0149687,-0.00628529,0,
6,0.738612,0.460832,-0.0148166,-0.00663517,0,
6,0.719813,0.441735,-0.0146879,-0.00697875,0,
6,0.700681,0.422428,-0.0145825,-0.00731029,0,
6,0.681188,0.403008,-0.0144993,-0.00762324,0,
6,0.661304,0.38356,-0.0144373,-0.00791096,0,
6,0.640996,0.364164,-0.0143965,-0.00816804,0,
6,0.620228,0.344895,-0.0143782,-0.00839002,0,
6,0.598964,0.325832,-0.0143845,-0.00857312,0,
6,0.577166,0.307053,-0.0144161,-0.0087143,0,
6,0.554791,0.288625,-0.0144685,-0.00881103,0,
6,0.531799,0.270573,-0.0145286,-0.00886074,0,
6,0.508144,0.252864,-0.0145738,-0.0088598,0,
6,0.48378,0.235395,-0.0145831,-0.00880257,0,
6,0.459585,0.218658,-0.0145589,-0.00868724,0,
6,0.436695,0.203369,-0.0145688,-0.00852533,0,
6,0.414961,0.189617,-0.0147529,-0.00833466,0,
6,0.394252,0.177727,-0.0152913,-0.00814332,0,
6,0.374445,0.168041,-0.0163764,-0.00798365,0,
6,0.355433,0.160562,-0.0180516,-0.00787106,0,
6,0.337122,0.154802,-0.0195303,-0.00777024,0,
6,0.319433,0.149945,-0.0198391,-0.00716658,0,
6,0.3023,0.145488,-0.0194363,-0.00672843,0,
6,0.28567,0.141295,-0.019064,-0.00635614,0,
6,0.269507,0.137325,-0.0186545,-0.00599476,0,
6,0.253785,0.133544,-0.0181924,-0.00564114,0,
6,0.238493,0.129929,-0.0176926,-0.00529595,0,
6,0.223631,0.12646,-0.017162,-0.00495969,0,
6,0.209207,0.12312,-0.0166082,-0.00463314,0,
6,0.195237,0.119899,-0.0160397,-0.00431716,0,
6,0.181744,0.116787,-0.0154649,-0.00401266,0,
6,0.168754,0.113778,-0.0148922,-0.00372047,0,
6,0.156292,0.110868,-0.0143291,-0.0034414,0,
6,0.144384,0.108053,-0.0137826,-0.00317609,0,
6,0.133052,0.105331,-0.0132587,-0.00292505,0,
6,0.122315,0.102699,-0.0127622,-0.00268865,0,
6,0.112183,0.100158,-0.0122965,-0.00246703,0,
6,0.102665,0.0977058,-0.0118641,-0.0022602,0,
6,0.0937597,0.0953409,-0.0114663,-0.00206797,0,
6,0.0854609,0.0930621,-0.0111032,-0.00189004,0,
6,0.077757,0.0908676,-0.0107743,-0.00172594,0,
6,0.0706309,0.088755,-0.0104785,-0.00157513,0,
6,0.0640611,0.0867215,-0.0102139,-0.00143696,0,
6,0.0580229,0.0847637,-0.00997857,-0.00131074,0,
6,0.0524888,0.0828777,-0.00977025,-0.00119573,0,
6,0.0474296,0.0810589,-0.00958664,-0.00109116,0,
6,0.042815,0.0793022,-0.00942542,-0.000996289,0,
6,0.0386145,0.0776019,-0.00928434,-0.000910345,0,
6,0.0347975,0.0759517,-0.00916128,-0.000832593,0,
6,0.0313344,0.0743447,-0.00905425,-0.000762317,0,
6,0.0281964,0.0727733,-0.00896143,-0.000698832,0,
6,0.0253561,0.0712292,-0.00888112,-0.00064148,0,
6,0.0227875,0.0697031,-0.0088119,-0.000589638,0,
6,0.0204662,0.0681846,-0.00875229,-0.000542707,0,
6,0.0183694,0.0666616,-0.00870132,-0.000500111,0,
6,0.016476,0.0651204,-0.00865762,-0.000461286,0,
6,0.0147664,0.0635443,-0.00862072,-0.000425668,0,
6,0.0132228,0.0619133,-0.0085892,-0.000392667,0,
6,0.0118288,0.0602022,-0.0085632,-0.000361642,0,
6,0.0105693,0.0583793,-0.00854099,-0.00033185,0,
6,0.00943073,0.0564035,-0.00852352,-0.000302387,0,
6,0.00840063,0.0542218,-0.00850848,-0.000272116,0,
6,0.00746774,0.051767,-0.00849779,-0.000239649,0,
6,0.00662185,0.0489586,-0.00848831,-0.000203553,0,
6,0.00585371,0.0457154,-0.00848296,-0.000163122,0,
6,0.00515491,0.0419889,-0.00847758,-0.000119883,0,
6,0.00451788,0.0378183,-0.00847602,-7.85846e-05,0,
6,0.00393573,0.033365,-0.00847304,-4.52036e-05,0,
6,0.00340221,0.0288677,-0.00847351,-2.28221e-05,0,
6,0.00291168,0.0245388,-0.00847129,-1.02083e-05,0,
6,0.00245897,0.0205009,-0.00847264,-4.06554e-06,0,
6,0.00203939,0.0167923,-0.0084703,-1.42681e-06,0,
6,0.00164864,0.0134021,-0.00847223,-4.2681e-07,0,
6,0.00128281,0.0102976,-0.00846944,-1.01694e-07,0,
6,0.000938257,0.0074408,-0.00847203,-1.69352e-08,0,
6,0.000611645,0.00479435,-0.00846854,-1.50211e-09,0,
6,0.000299862,0.0023244,-0.008472,-3.73887e-11,0,

10,0.000296632,0.011083,0.0296553,-1.39623e-10,0,
10,0.000596102,0.0222691,0.0296559,-5.17467e-09,0,
10,0.000900397,0.0336322,0.0296553,-5.26008e-08,0,
10,0.00121153,0.0452464,0.0296558,-2.82421e-07,0,
10,0.00153158,0.0571838,0.0296552,-1.05405e-06,0,
10,0.00186264,0.0695114,0.0296556,-3.11897e-06,0,
10,0.00220692,0.0822832,0.0296552,-7.84567e-06,0,
10,0.00256668,0.0955275,0.0296555,-1.74414e-05,0,
10,0.00294431,0.109229,0.029655,-3.50088e-05,0,
10,0.00334229,0.123307,0.0296553,-6.41591e-05,0,
10,0.00376326,0.1376,0.0296548,-0.000107954,0,
10,0.00421,0.15187,0.0296549,-0.0001674,0,
10,0.00468544,0.165834,0.0296544,-0.000240395,0,
10,0.00519274,0.179218,0.0296542,-0.000322062,0,
10,0.00573524,0.191802,0.0296534,-0.000406386,0,
10,0.00631651,0.20345,0.0296528,-0.000488025,0,
10,0.00694041,0.214106,0.0296516,-0.000563333,0,
10,0.00761104,0.223779,0.0296503,-0.000630454,0,
10,0.00833284,0.232521,0.0296484,-0.000688932,0,
10,0.00911058,0.240411,0.0296463,-0.00073921,0,
10,0.0099494,0.247537,0.0296433,-0.000782215,0,
10,0.0108548,0.253988,0.02964,-0.000819071,0,
10,0.0118329,0.25985,0.0296357,-0.000850918,0,
10,0.0128901,0.265201,0.0296307,-0.000878823,0,
10,0.0140333,0.270111,0.0296247,-0.000903731,0,
10,0.0152702,0.274639,0.0296177,-0.000926461,0,
10,0.0166089,0.27884,0.0296095,-0.000947712,0,
10,0.0180584,0.282757,0.0296,-0.000968077,0,
10,0.0196282,0.286431,0.0295891,-0.000988065,0,
10,0.0213288,0.289895,0.0295765,-0.00100812,0,
10,0.0231714,0.293177,0.0295621,-0.00102863,0,
10,0.0251682,0.296304,0.0295457,-0.00104994,0,
10,0.0273326,0.299296,0.0295271,-0.00107239,0,
10,0.0296789,0.302173,0.0295059,-0.00109628,0,
10,0.0322227,0.304953,0.029482,-0.00112192,0,
10,0.0349809,0.30765,0.0294551,-0.0011496,0,
10,0.0379719,0.310278,0.0294247,-0.00117963,0,
10,0.0412155,0.31285,0.0293905,-0.00121231,0,
10,0.0447333,0.315377,0.0293522,-0.00124798,0,
10,0.0485489,0.31787,0.0293092,-0.00128698,0,
10,0.0526875,0.320339,0.029261,-0.00132968,0,
10,0.0571768,0.322794,0.0292071,-0.00137646,0,
10,0.0620466,0.325244,0.029147,-0.00142775,0,
10,0.0673295,0.327699,0.0290798,-0.001484,0,
10,0.0730607,0.330168,0.029005,-0.00154571,0,
10,0.0792784,0.33266,0.0289218,-0.00161342,0,
10,0.0860241,0.335185,0.0288292,-0.00168771,0,
10,0.0933428,0.337752,0.0287265,-0.00176922,0,
10,0.101283,0.340371,0.0286126,-0.00185865,0,
10,0.109899,0.343054,0.0284865,-0.00195675,0,
10,0.119247,0.345812,0.0283473,-0.00206435,0,
10,0.12939,0.348657,0.0281938,-0.00218237,0,
10,0.140395,0.351604,0.0280251,-0.00231179,0,
10,0.152337,0.354666,0.0278399,-0.00245368,0,
10,0.165296,0.357862,0.0276375,-0.00260921,0,
10,0.179357,0.36121,0.0274169,-0.00277965,0,
10,0.194615,0.364732,0.0271777,-0.00296634,0,
10,0.211171,0.368454,0.0269194,-0.00317074,0,
10,0.229138,0.372404,0.0266422,-0.00339436,0,
10,0.248635,0.376617,0.0263468,-0.00363878,0,
10,0.269793,0.381134,0.0260341,-0.00390558,0,
10,0.292753,0.386004,0.0257077,-0.00419628,0,
10,0.317669,0.391285,0.0253674,-0.00451144,0,
10,0.344708,0.397049,0.025023,-0.00485077,0,
10,0.372405,0.403028,0.0246968,-0.00519547,0,
10,0.399623,0.409011,0.0243984,-0.00553123,0,
10,0.426397,0.415029,0.0241406,-0.00585886,0,
10,0.452757,0.421117,0.0239071,-0.00617227,0,
10,0.478735,0.427319,0.0237172,-0.00659754,0,
10,0.504358,0.433925,0.0239832,-0.00686158,0,
10,0.529657,0.441536,0.0246958,-0.0068922,0,
10,0.554656,0.450652,0.0252836,-0.00692545,0,
10,0.579382,0.461269,0.0256036,-0.00696026,0,
10,0.603859,0.472997,0.0257227,-0.00698011,0,
10,0.628112,0.48537,0.0257235,-0.00697061,0,
10,0.652163,0.498076,0.0256774,-0.00692399,0,
10,0.676035,0.511013,0.0256262,-0.00683768,0,
10,0.699751,0.524225,0.0255872,-0.00671121,0,
10,0.72333,0.537813,0.0255598,-0.00654436,0,
10,0.746795,0.551876,0.0255354,-0.00633648,0,
10,0.770165,0.566469,0.0255047,-0.0060867,0,
10,0.79346,0.581596,0.0254605,-0.00579455,0,
10,0.816699,0.597202,0.0253999,-0.00546095,0,
10,0.839903,0.613174,0.0253201,-0.00508877,0,
10,0.863088,0.629328,0.0252219,-0.00468421,0,
10,0.886275,0.645375,0.0250973,-0.00426649,0,
10,0.909481,0.660924,0.0249428,-0.00387194,0,
10,0.932723,0.675665,0.0247741,-0.00349203,0,
10,0.956021,0.689512,0.0245989,-0.00312454,0,
10,0.97939,0.702498,0.0244189,-0.00277321,0,
10,1.00285,0.714655,0.0242317,-0.0024433,0,
10,1.02641,0.725955,0.0240345,-0.00214043,0,
10,1.0501,0.736334,0.0238257,-0.00186954,0,
10,1.07392,0.745749,0.0236056,-0.00163357,0,
10,1.0979,0.754214,0.0233751,-0.00143289,0,
10,1.12205,0.761815,0.0231355,-0.00126551,0,
10,1.14639,0.768683,0.022888,-0.00112775,0,
10,1.17093,0.774971,0.0226335,-0.00101514,0,
10,1.19568,0.780828,0.0223726,-0.000923177,0,
10,1.22066,0.786377,0.0221058,-0.000847887,0,
10,1.24589,0.791712,0.0218331,-0.000785979,0,
10,1.27137,0.796898,0.0215544,-0.000734767,0,
10,1.29713,0.801976,0.0212696,-0.000692,0,
10,1.32317,0.806972,0.0209786,-0.000655743,0,
10,1.34951,0.811908,0.0206814,-0.000624349,0,
10,1.37616,0.816804,0.0203781,-0.000596451,0,
10,1.40313,0.821676,0.0200684,-0.000570943,0,
10,1.43043,0.826536,0.0197526,-0.000546942,0,
10,1.45807,0.831392,0.0194302,-0.000523841,0,
10,1.48607,0.836245,0.0191013,-0.000501352,0,
10,1.51444,0.841093,0.0187654,-0.00047942,0,
10,1.54318,0.845931,0.0184223,-0.000458094,0,
10,1.57231,0.850755,0.018072,-0.000437072,0,
10,1.60184,0.855561,0.0177144,-0.000416203,0,
10,1.63178,0.860342,0.0173495,-0.000395525,0,
10,1.66213,0.865087,0.0169771,-0.000375201,0,
10,1.69292,0.869785,0.0165971,-0.000355251,0,
10,1.72416,0.874419,0.0162094,-0.000335702,0,
10,1.75585,0.878976,0.0158139,-0.000316596,0,
10,1.78802,0.883441,0.0154104,-0.000297961,0,
10,1.82067,0.8878,0.0149988,-0.000279841,0,
10,1.85383,0.892041,0.0145791,-0.000262311,0,
10,1.88751,0.896145,0.0141512,-0.000245465,0,
10,1.92173,0.900096,0.013715,-0.000229405,0,
10,1.95652,0.903875,0.0132705,-0.000214232,0,
10,1.9919,0.907462,0.0128174,-0.000200046,0,
10,2.02791,0.910839,0.0123561,-0.000186942,0,
10,2.06456,0.91399,0.0118861,-0.000175035,0,
10,2.10268,0.916962,0.0113981,-0.000164085,0,
10,2.1443,0.9199,0.010867,-0.000147372,0,
10,2.18977,0.922833,0.0102864,-0.000123774,0,
10,2.23946,0.925669,0.00965651,-9.8963e-05,0,
10,2.29376,0.928257,0.00896817,-7.46884e-05,0,
10,2.35309,0.930492,0.00822137,-5.32252e-05,0,
10,2.4179,0.932295,0.00741056,-3.543e-05,0,
10,2.48863,0.93361,0.00653493,-2.15412e-05,0,
10,2.56575,0.934408,0.00559151,-1.1564e-05,0,
10,2.64971,0.934712,0.00458013,-5.21786e-06,0,
10,2.74098,0.934604,0.00350017,-1.89681e-06,0,
10,2.83997,0.934231,0.00235286,-7.2082e-07,0,
10,2.94709,0.933786,0.0011397,-6.86844e-07,0,
10,3.06269,0.933477,-0.000136513,-9.16665e-07,0,
10,3.18706,0.933471,-0.00147232,-9.14603e-07,0,
10,3.3204,0.933844,-0.00286297,-6.49375e-07,0,
10,3.46281,0.934562,-0.00430243,-3.39738e-07,0,
10,3.61427,0.935498,-0.00578285,-1.43576e-07,0,
10,3.77463,0.936497,-0.0072945,-6.17071e-08,0,
10,3.94358,0.937438,-0.00882586,-3.59395e-08,0,
10,4.12067,0.938267,-0.0103642,-2.8017e-08,0,
10,4.30525,0.938998,-0.011896,-2.48901e-08,0,
10,4.49655,0.939675,-0.0134078,-2.38439e-08,0,
10,4.6936,0.940337,-0.0148868,-2.48317e-08,0,
10,4.89531,0.941,-0.0163206,-2.90158e-08,0,
10,5.10047,0.941654,-0.0176983,-3.94419e-08,0,
10,5.30776,0.942278,-0.0190104,-6.26387e-08,0,
10,5.51581,0.942853,-0.0202493,-1.12011e-07,0,
10,5.72323,0.943384,-0.0214088,-2.1763e-07,0,
10,5.92863,0.94391,-0.0224852,-4.56215e-07,0,
10,6.13069,0.944516,-0.0234765,-1.01235e-06,0,
10,6.32816,0.945278,-0.0243828,-2.13052e-06,0,
10,6.51991,0.946121,-0.0252058,-3.28448e-06,0,
10,6.70495,0.946589,-0.0259485,-7.01979e-07,0,
10,6.88244,0.945708,-0.0266139,1.51273e-05,0,
10,7.0517,0.942166,-0.0272038,5.77734e-05,0,
10,7.21224,0.934827,-0.0277201,0.000139257,0,
10,7.3637,0.923234,-0.0281666,0.000260061,0,
10,7.5059,0.907492,-0.0285515,0.000371656,0,
10,7.63878,0.888402,-0.0288773,0.00050105,0,
10,7.76243,0.867783,-0.0291414,0.000636383,0,
10,7.87701,0.847472,-0.0293586,0.000765368,0,
10,7.9828,0.828589,-0.0295325,0.000874396,0,
10,8.08014,0.811416,-0.0296752,0.000963026,0,
10,8.16941,0.795734,-0.0297923,0.0010353,0,
10,8.25106,0.781148,-0.0298916,0.00109545,0,
10,8.32554,0.767275,-0.0299763,0.00114628,0,
10,8.39331,0.753827,-0.0300496,0.00119029,0,
10,8.45484,0.740625,-0.0301125,0.0012288,0,
10,8.5106,0.727583,-0.0301665,0.00126237,0,
10,8.56104,0.714677,-0.0302131,0.00129114,0,
10,8.60659,0.701909,-0.0302528,0.00131426,0,
10,8.64767,0.689271,-0.0302866,0.00133047,0,
10,8.68467,0.676757,-0.030316,0.0013423,0,
10,8.71795,0.664377,-0.0303409,0.00134938,0,
10,8.74786,0.652136,-0.0303624,0.0013521,0,
10,8.77471,0.640041,-0.0303808,0.00135092,0,
10,8.79881,0.628091,-0.0303966,0.00134632,0,
10,8.8204,0.616284,-0.0304101,0.00133879,0,
10,8.83975,0.604612,-0.0304216,0.00132881,0,
10,8.85708,0.593064,-0.0304314,0.00131682,0,
10,8.87259,0.581625,-0.0304397,0.00130325,0,
10,8.88646,0.570276,-0.0304467,0.00128846,0,
10,8.89886,0.558993,-0.0304526,0.00127276,0,
10,8.90995,0.547752,-0.0304576,0.00125641,0,
10,8.91986,0.536523,-0.0304618,0.0012396,0,
10,8.92872,0.525276,-0.0304652,0.00122247,0,
10,8.93663,0.513976,-0.0304681,0.00120508,0,
10,8.94369,0.502588,-0.0304705,0.00118744,0,
10,8.95,0.49107,-0.0304725,0.0011695,0,
10,8.95564,0.47938,-0.0304742,0.00115119,0,
10,8.96067,0.467472,-0.0304754,0.00113231,0,
10,8.96517,0.455292,-0.0304766,0.00111262,0,
10,8.96918,0.442784,-0.0304774,0.00109178,0,
10,8.97276,0.429881,-0.0304783,0.00106939,0,
10,8.97596,0.416509,-0.0304788,0.00104488,0,
10,8.97882,0.40258,-0.0304794,0.00101757,0,
10,8.98137,0.387995,-0.0304796,0.000986567,0,
10,8.98365,0.372634,-0.0304802,0.000950718,0,
10,8.98569,0.356359,-0.0304802,0.000908899,0,
10,8.9875,0.338995,-0.0304807,0.000858515,0,
10,8.98913,0.320302,-0.0304806,0.000794195,0,
10,8.99058,0.300037,-0.030481,0.000717813,0,
10,8.99188,0.27803,-0.0304808,0.000627722,0,
10,8.99304,0.254122,-0.0304812,0.000518496,0,
10,8.99408,0.228107,-0.0304809,0.000381749,0,
10,8.99501,0.200147,-0.0304814,0.000246407,0,
10,8.99583,0.17118,-0.0304809,0.000132544,0,
10,8.99658,0.142554,-0.0304815,5.7644e-05,0,
10,8.99724,0.115509,-0.0304809,2.00629e-05,0,
10,8.99784,0.0907338,-0.0304816,5.53626e-06,0,
10,8.99837,0.0683915,-0.0304809,1.16329e-06,0,
10,8.99885,0.0483616,-0.0304817,1.66763e-07,0,
10,8.99927,0.0304316,-0.0304809,1.26637e-08,0,
10,8.99966,0.0143811,-0.0304818,2.80216e-10,0,
10,0,0,0.0296561,0,0,
10,9,0,-0.0304808,0,0,

0.004,0,0,-0.227429,0,2.95448e-07,
0.00868226,0,0,-0.227442,0,-1.00745e-06,
0.014062,0,0,-0.227428,0,-2.42133e-06,
0.0201548,0,0,-0.227436,0,-3.11854e-06,
0.0269766,0,0,-0.227414,0,-1.66493e-06,
0.0345437,0,0,-0.227411,0,3.70683e-06,
0.0428729,0,0,-0.22739,0,1.35915e-05,
0.051981,0,0,-0.227394,0,2.82736e-05,
0.0618853,0,0,-0.227402,0,4.59513e-05,
0.0726036,0,0,-0.227443,0,6.46963e-05,
0.0841536,0,0,-0.227501,0,8.22048e-05,
0.0965535,0,0,-0.227584,0,9.75438e-05,
0.109822,0,0,-0.227681,0,0.000110492,
0.123977,0,0,-0.227797,0,0.000121735,
0.139037,0,0,-0.227928,0,0.00013187,
0.155022,0,0,-0.228081,0,0.000141225,
0.171949,0,0,-0.22826,0,0.000149445,
0.189839,0,0,-0.228471,0,0.000155696,
0.208709,0,0,-0.228715,0,0.000158847,
0.228579,0,0,-0.228994,0,0.000157821,
0.249467,0,0,-0.229306,0,0.000151772,
0.271391,0,0,-0.229649,0,0.00014024,
0.29437,0,0,-0.230017,0,0.00012319,
0.31842,0,0,-0.230405,0,0.000101019,
0.343559,0,0,-0.230806,0,7.44708e-05,
0.369804,0,0,-0.231211,0,4.452e-05,
0.39717,0,0,-0.231615,0,1.22347e-05,
0.425672,0,0,-0.23201,0,-2.13441e-05,
0.455324,0,0,-0.232394,0,-5.53224e-05,
0.48614,0,0,-0.232763,0,-8.90241e-05,
0.518132,0,0,-0.233118,0,-0.000122032,
0.551309,0,0,-0.233457,0,-0.00015416,
0.585683,0,0,-0.233783,0,-0.000185417,
0.621259,0,0,-0.234097,0,-0.000215919,
0.658046,0,0,-0.234401,0,-0.000245871,
0.696047,0,0,-0.234697,0,-0.000275505,
0.735265,0,0,-0.234987,0,-0.000305057,
0.7757,0,0,-0.235273,0,-0.000334721,
0.817352,0,0,-0.235555,0,-0.000364623,
0.860215,0,0,-0.235835,0,-0.000394773,
0.904285,0,0,-0.236114,0,-0.000424973,
0.949552,0,0,-0.236389,0,-0.000454742,
0.996004,0,0,-0.236662,0,-0.000483268,
1.04363,0,0,-0.236924,0,-0.000509591,
1.09241,0,0,-0.237174,0,-0.000532426,
1.14232,0,0,-0.237398,0,-0.000550649,
1.19335,0,0,-0.237589,0,-0.000563569,
1.24546,0,0,-0.237754,0,-0.000570607,
1.29863,0,0,-0.237887,0,-0.000571892,
1.35283,0,0,-0.238034,0,-0.000567094,
1.40802,0,0,-0.238253,0,-0.000556666,
1.46416,0,0,-0.238594,0,-0.00054202,
1.52121,0,0,-0.23913,0,-0.000524909,
1.57913,0,0,-0.239961,0,-0.000509123,
1.63787,0,0,-0.241175,0,-0.000500527,
1.69739,0,0,-0.242811,0,-0.000505569,
1.75761,0,0,-0.244849,0,-0.000529029,
1.81851,0,0,-0.247237,0,-0.000573201,
1.88,0,0,-0.249903,0,-0.000638453,
1.94204,0,0,-0.25276,0,-0.000724238,
2.00457,0,0,-0.2557,0,-0.000829597,
2.06751,0,0,-0.258591,0,-0.000953197,
2.13081,0,0,-0.261273,0,-0.00109302,
2.19439,0,0,-0.263555,0,-0.00124583,
2.25819,0,0,-0.265224,0,-0.00140656,
2.32214,0,0,-0.266072,0,-0.00156814,
2.38617,0,0,-0.265934,0,-0.00172228,
2.4502,0,0,-0.264729,0,-0.0018611,
2.51418,0,0,-0.262455,0,-0.00197861,
2.57803,0,0,-0.25919,0,-0.00207132,
2.64167,0,0,-0.255078,0,-0.00213853,
2.70505,0,0,-0.250292,0,-0.00218215,
2.76808,0,0,-0.245003,0,-0.0022057,
2.83072,0,0,-0.239361,0,-0.0022133,
2.89288,0,0,-0.233487,0,-0.00220881,
2.95451,0,0,-0.22747,0,-0.00219535,
3.01555,0,0,-0.221376,0,-0.00217519,
3.07594,0,0,-0.215253,0,-0.00214982,
3.13561,0,0,-0.209138,0,-0.00212022,
3.19453,0,0,-0.203062,0,-0.00208711,
3.25262,0,0,-0.197048,0,-0.00205097,
3.30985,0,0,-0.191118,0,-0.00201222,
3.36617,0,0,-0.185293,0,-0.00197121,
3.42154,0,0,-0.179588,0,-0.00192829,
3.47591,0,0,-0.17402,0,-0.00188378,
3.52925,0,0,-0.1686,0,-0.00183806,
3.58152,0,0,-0.16334,0,-0.00179146,
3.6327,0,0,-0.158246,0,-0.00174428,
3.68276,0,0,-0.153325,0,-0.00169681,
3.73167,0,0,-0.148581,0,-0.00164929,
3.77941,0,0,-0.144016,0,-0.00160194,
3.82596,0,0,-0.139633,0,-0.00155499,
3.8713,0,0,-0.13543,0,-0.00150863,
3.91543,0,0,-0.131403,0,-0.00146295,
3.95833,0,0,-0.127573,0,-0.00141857,
4,0,0,-0.123888,0,-0.0013751,
4.04167,0,0,-0.120273,0,-0.00133161,
4.08333,0,0,-0.116723,0,-0.00128823,
4.125,0,0,-0.113233,0,-0.00124495,
4.16667,0,0,-0.109804,0,-0.00120174,
4.20833,0,0,-0.106435,0,-0.00115864,
4.25,0,0,-0.103126,0,-0.0011157,
4.29167,0,0,-0.0998761,0,-0.00107298,
4.33333,0,0,-0.0966852,0,-0.00103049,
4.375,0,0,-0.0935518,0,-0.000988268,
4.41667,0,0,-0.090475,0,-0.000946301,
4.45833,0,0,-0.0874539,0,-0.000904584,
4.5,0,0,-0.0844878,0,-0.000863124,
4.54167,0,0,-0.0815761,0,-0.00082194,
4.58333,0,0,-0.0787178,0,-0.000781047,
4.625,0,0,-0.0759117,0,-0.000740445,
4.66667,0,0,-0.0731568,0,-0.000700114,
4.70833,0,0,-0.0704525,0,-0.00066004,
4.75,0,0,-0.0677984,0,-0.000620228,
4.79167,0,0,-0.0651936,0,-0.000580687,
4.83333,0,0,-0.0626372,0,-0.000541418,
4.875,0,0,-0.0601283,0,-0.000502409,
4.91667,0,0,-0.0576664,0,-0.000463641,
4.95833,0,0,-0.0552511,0,-0.000425114,
5,0,0,-0.0528817,0,-0.000386833,
5.04167,0,0,-0.0505578,0,-0.000348807,
5.08333,0,0,-0.0482784,0,-0.000311028,
5.125,0,0,-0.0460431,0,-0.000273484,
5.16667,0,0,-0.0438515,0,-0.000236171,
5.20833,0,0,-0.0417031,0,-0.000199096,
5.25,0,0,-0.0395974,0,-0.000162261,
5.29167,0,0,-0.0375337,0,-0.00012566,
5.33333,0,0,-0.0355116,0,-8.92871e-05,
5.375,0,0,-0.0335309,0,-5.31454e-05,
5.41667,0,0,-0.0315911,0,-1.72417e-05,
5.45833,0,0,-0.0296916,0,1.84198e-05,
5.5,0,0,-0.0278319,0,5.38406e-05,
5.54167,0,0,-0.0260118,0,8.90196e-05,
5.58333,0,0,-0.0242306,0,0.000123953,
5.625,0,0,-0.0224881,0,0.000158637,
5.66667,0,0,-0.0207837,0,0.000193072,
5.70833,0,0,-0.0191169,0,0.000227259,
5.75,0,0,-0.0174873,0,0.000261195,
5.79167,0,0,-0.0158946,0,0.000294877,
5.83333,0,0,-0.0143383,0,0.000328302,
5.875,0,0,-0.0128178,0,0.00036147,
5.91667,0,0,-0.0113328,0,0.000394379,
5.95833,0,0,-0.00988295,0,0.000427025,
6,0,0,-0.00846768,0,0.000459406,
6.04167,0,0,-0.0070866,0,0.000491518,
6.08333,0,0,-0.00573926,0,0.000523363,
6.125,0,0,-0.00442527,0,0.000554937,
6.16667,0,0,-0.00314412,0,0.000586238,
6.20833,0,0,-0.00189545,0,0.000617258,
6.25,0,0,-0.000678759,0,0.000647997,
6.29167,0,0,0.000506387,0,0.000678457,
6.33333,0,0,0.00166045,0,0.000708635,
6.375,0,0,0.00278377,0,0.000738524,
6.41667,0,0,0.0038769,0,0.00076812,
6.45833,0,0,0.00494031,0,0.000797426,
6.5,0,0,0.00597441,0,0.000826442,
6.54167,0,0,0.00697959,0,0.000855159,
6.58333,0,0,0.00795643,0,0.000883574,
6.625,0,0,0.00890537,0,0.000911685,
6.66667,0,0,0.00982688,0,0.000939493,
6.70833,0,0,0.0107214,0,0.000966992,
6.75,0,0,0.0115894,0,0.000994181,
6.79167,0,0,0.0124315,0,0.00102106,
6.83333,0,0,0.013248,0,0.00104763,
6.875,0,0,0.0140394,0,0.00107388,
6.91667,0,0,0.0148062,0,0.00109982,
6.95833,0,0,0.0155489,0,0.00112545,
7,0,0,0.0162678,0,0.00115077,
7.04167,0,0,0.0169633,0,0.00117578,
7.08333,0,0,0.0176359,0,0.00120048,
7.125,0,0,0.018286,0,0.00122487,
7.16667,0,0,0.018914,0,0.00124897,
7.20833,0,0,0.0195202,0,0.00127278,
7.25,0,0,0.0201052,0,0.00129629,
7.29167,0,0,0.0206691,0,0.00131952,
7.33333,0,0,0.0212123,0,0.00134244,
7.375,0,0,0.0217351,0,0.00136507,
7.41667,0,0,0.0222379,0,0.00138739,
7.45833,0,0,0.022721,0,0.0014094,
7.5,0,0,0.0231846,0,0.00143111,
7.54167,0,0,0.0236292,0,0.0014525,
7.58333,0,0,0.0240551,0,0.00147358,
7.625,0,0,0.0244625,0,0.00149435,
7.66667,0,0,0.0248519,0,0.0015148,
7.70833,0,0,0.0252234,0,0.00153495,
7.75,0,0,0.0255776,0,0.0015548,
7.79167,0,0,0.0259148,0,0.00157433,
7.83333,0,0,0.0262345,0,0.00159351,
7.875,0,0,0.0265384,0,0.0016124,
7.91667,0,0,0.0268327,0,0.00163157,
7.95833,0,0,0.027056,0,0.00164981,
8,0,0,0.0273725,0,0.00166867,
8.04171,0,0,0.0277191,0,0.00168798,
8.08368,0,0,0.0279292,0,0.00170709,
8.12617,0,0,0.0281727,0,0.00172431,
8.16946,0,0,0.0284052,0,0.00174142,
8.21382,0,0,0.0286207,0,0.00175851,
8.25952,0,0,0.0288279,0,0.00177563,
8.30685,0,0,0.029027,0,0.00179295,
8.35611,0,0,0.0292179,0,0.00181059,
8.40762,0,0,0.0294009,0,0.00182861,
8.46168,0,0,0.0295759,0,0.00184708,
8.51865,0,0,0.0297423,0,0.00186606,
8.57889,0,0,0.0298991,0,0.00188558,
8.64276,0,0,0.0300448,0,0.00190569,
8.71067,0,0,0.0301777,0,0.00192643,
8.78306,0,0,0.0302953,0,0.00194785,
8.86037,0,0,0.0303947,0,0.00196996,
8.94309,0,0,0.0304726,0,0.00199275,
9.03174,0,0,0.0305261,0,0.00201617,
9.12689,0,0,0.0305519,0,0.00204019,
9.22912,0,0,0.030547,0,0.00206474,
9.33908,0,0,0.030507,0,0.0020898,
9.45746,0,0,0.030426,0,0.00211531,
9.58501,0,0,0.0302984,0,0.00214115,
9.72253,0,0,0.0301218,0,0.00216719,
9.87088,0,0,0.0298915,0,0.00219331,
10.031,0,0,0.0295996,0,0.00221936,
10.2039,0,0,0.0292453,0,0.00224514,
10.3906,0,0,0.0288262,0,0.00227052,
10.5924,0,0,0.0283345,0,0.00229524,
10.8105,0,0,0.0277714,0,0.00231915,
11.0463,0,0,0.0271363,0,0.00234202,
11.3012,0,0,0.026431,0,0.00236368,
11.5769,0,0,0.025656,0,0.0023839,
11.8751,0,0,0.0248137,0,0.00240253,
12.1977,0,0,0.0239139,0,0.0024194,
12.5466,0,0,0.0229667,0,0.00243442,
12.9242,0,0,0.0219754,0,0.00244751,
13.3327,0,0,0.020952,0,0.00245885,
13.7748,0,0,0.019913,0,0.00246913,
14.2532,0,0,0.0188677,0,0.00247877,
14.7709,0,0,0.0178281,0,0.00248729,
15.3312,0,0,0.0168055,0,0.00249457,
15.9377,0,0,0.0158116,0,0.00250041,
16.594,0,0,0.0148529,0,0.00250451,
17.3044,0,0,0.0139437,0,0.00250741,
18.0733,0,0,0.0130845,0,0.00250956,
18.9056,0,0,0.0122785,0,0.00251077,
19.8064,0,0,0.0115291,0,0.00251048,
20.7816,0,0,0.0108379,0,0.00250913,
21.8371,0,0,0.0102047,0,0.002508,
22.9796,0,0,0.00962267,0,0.0025072,
24.2163,0,0,0.00909603,0,0.00250689,
25.5551,0,0,0.0086127,0,0.00250636,
27.0042,0,0,0.00815717,0,0.00250487,
28.5729,0,0,0.0076885,0,0.00250321,
30.271,0,0,0.0071391,0,0.00250129,
32.1091,0,0,0.00648784,0,0.00249984,
34.0989,0,0,0.00577258,0,0.00250068,
36.2529,0,0,0.0050364,0,0.00250464,
38.5845,0,0,0.0042608,0,0.00251029,
41.1085,0,0,0.00342121,0,0.002516,
43.8407,0,0,0.00232624,0,0.00251807,
46.7983,0,0,0.00119479,0,0.0025137,
50,0,0,0.00241476,0,0.0025212,

