6c141ec88fac0ac13c0b118ea890955f44d3db76 
X,Z,x_velocity,cp,uw_b,cf,
1,0,0,-0.219427,0,0,
1,9,0,-0.138625,0,0,
1,8.99969,0.0156963,-0.138623,3.03662e-10,0,
1,8.99934,0.0335013,-0.138624,1.41916e-08,0,
1,8.99894,0.0537164,-0.138623,1.95714e-07,0,
1,8.99848,0.0766593,-0.138624,1.43399e-06,0,
1,8.99797,0.102644,-0.138623,7.15852e-06,0,
1,8.99739,0.131862,-0.138624,2.7024e-05,0,
1,8.99672,0.164089,-0.138623,7.96821e-05,0,
1,8.99597,0.19834,-0.138624,0.000184015,0,
1,8.99512,0.232918,-0.138623,0.000336716,0,
1,8.99416,0.266159,-0.138623,0.000507874,0,
1,8.99306,0.297111,-0.138623,0.000667988,0,
1,8.99182,0.325633,-0.138623,0.00079565,0,
1,8.99041,0.351874,-0.138622,0.000901843,0,
1,8.98881,0.375992,-0.138622,0.00098933,0,
1,8.98699,0.398209,-0.138621,0.00106056,0,
1,8.98494,0.418816,-0.138621,0.00111654,0,
1,8.98261,0.438126,-0.13862,0.0011591,0,
1,8.97996,0.456383,-0.138619,0.00119476,0,
1,8.97696,0.473758,-0.138618,0.00122426,0,
1,8.97356,0.490395,-0.138617,0.0012489,0,
1,8.9697,0.506409,-0.138616,0.00126965,0,
1,8.96533,0.5219,-0.138615,0.00128724,0,
1,8.96038,0.536951,-0.138613,0.00130222,0,
1,8.95476,0.551631,-0.138611,0.00131497,0,
1,8.9484,0.565998,-0.138609,0.00132578,0,
1,8.9412,0.580104,-0.138606,0.00133485,0,
1,8.93303,0.59399,-0.138604,0.0013423,0,
1,8.92379,0.607694,-0.138601,0.00134823,0,
1,8.91333,0.621249,-0.138599,0.00135266,0,
1,8.90149,0.634683,-0.138596,0.0013556,0,
1,8.8881,0.64802,-0.138593,0.00135702,0,
1,8.87295,0.661284,-0.138591,0.00135687,0,
1,8.85584,0.674495,-0.138588,0.00135507,0,
1,8.83651,0.687675,-0.138587,0.00135151,0,
1,8.81469,0.700845,-0.138587,0.00134606,0,
1,8.79007,0.714025,-0.138588,0.00133857,0,
1,8.76232,0.727241,-0.138591,0.00132881,0,
1,8.73107,0.740518,-0.138596,0.00131653,0,
1,8.69591,0.753889,-0.138606,0.00130139,0,
1,8.6564,0.767393,-0.138621,0.00128293,0,
1,8.61206,0.781075,-0.138643,0.00126063,0,
1,8.56236,0.794994,-0.138673,0.00123399,0,
1,8.50675,0.809228,-0.138716,0.00120405,0,
1,8.44464,0.823914,-0.138772,0.00116785,0,
1,8.3754,0.839286,-0.138848,0.00111708,0,
1,8.29839,0.855616,-0.138948,0.00105288,0,
1,8.21296,0.87315,-0.13908,0.000970169,0,
1,8.11843,0.89207,-0.139248,0.00086249,0,
1,8.01417,0.912354,-0.139469,0.000726022,0,
1,7.89956,0.933517,-0.139736,0.000564172,0,
1,7.77403,0.954365,-0.140091,0.000397597,0,
1,7.63711,0.973189,-0.140509,0.000212531,0,
1,7.48842,0.987683,-0.141004,7.64238e-05,0,
1,7.32773,0.996036,-0.141606,1.71344e-05,0,
1,7.15495,0.998878,-0.142302,1.4253e-06,0,
1,6.97022,0.998771,-0.14311,-5.65661e-11,0,
1,6.77388,0.998125,-0.144041,1.80529e-09,0,
1,6.56652,0.998017,-0.145111,8.73632e-09,0,
1,6.34896,0.998458,-0.146328,1.18181e-08,0,
1,6.12229,0.999142,-0.147706,1.33026e-08,0,
1,5.88784,0.99988,-0.149253,1.3985e-08,0,
1,5.64716,1.00064,-0.150981,1.47998e-08,0,
1,5.40194,1.00146,-0.152894,1.59753e-08,0,
1,5.15407,1.00236,-0.154996,1.73959e-08,0,
1,4.90545,1.00335,-0.157284,1.89782e-08,0,
1,4.65805,1.00442,-0.159752,2.06743e-08,0,
1,4.41376,1.00557,-0.162387,2.23936e-08,0,
1,4.17441,1.00679,-0.165174,2.38618e-08,0,
1,3.94163,1.008,-0.168088,2.49455e-08,0,
1,3.7169,1.00918,-0.171102,2.63136e-08,0,
1,3.50146,1.01038,-0.174181,3.01466e-08,0,
1,3.29629,1.01194,-0.177293,3.88108e-08,0,
1,3.10217,1.0142,-0.180409,5.03104e-08,0,
1,2.91959,1.01696,-0.183501,8.32375e-08,0,
1,2.74885,1.01878,-0.186533,5.46121e-07,0,
1,2.59002,1.01725,-0.189456,-6.63796e-06,0,
1,2.44299,1.01061,-0.192214,-4.65106e-05,0,
1,2.30752,0.998984,-0.194758,-0.0001288,0,
1,2.18321,0.983862,-0.197056,-0.000241218,0,
1,2.06959,0.966955,-0.199098,-0.00036263,0,
1,1.9661,0.94959,-0.200893,-0.000474831,0,
1,1.87215,0.932641,-0.202457,-0.000567264,0,
1,1.78711,0.916606,-0.203812,-0.000638168,0,
1,1.71033,0.901658,-0.204981,-0.000692015,0,
1,1.64119,0.887757,-0.205985,-0.000734595,0,
1,1.57905,0.87478,-0.206845,-0.000769986,0,
1,1.52332,0.862595,-0.207579,-0.000800444,0,
1,1.47342,0.851087,-0.208205,-0.000827163,0,
1,1.42882,0.840163,-0.208737,-0.000850806,0,
1,1.389,0.829755,-0.209189,-0.000871779,0,
1,1.35351,0.819811,-0.209573,-0.000890352,0,
1,1.3219,0.810298,-0.209899,-0.000906742,0,
1,1.29378,0.801191,-0.210176,-0.000921107,0,
1,1.26878,0.792476,-0.210412,-0.000933583,0,
1,1.24659,0.784147,-0.210613,-0.00094465,0,
1,1.22689,0.776193,-0.210784,-0.00095433,0,
1,1.2092,0.76852,-0.210931,-0.000961691,0,
1,1.1932,0.761075,-0.211059,-0.000967354,0,
1,1.1787,0.753843,-0.21117,-0.000971818,0,
1,1.16554,0.746803,-0.211266,-0.000975819,0,
1,1.15357,0.739922,-0.211349,-0.000981071,0,
1,1.14266,0.733151,-0.21142,-0.000990731,0,
1,1.13268,0.726414,-0.211482,-0.00100934,0,
1,1.12354,0.719599,-0.211537,-0.00104324,0,
1,1.11514,0.712556,-0.211585,-0.00110039,0,
1,1.10739,0.705096,-0.211632,-0.00118984,0,
1,1.10022,0.697003,-0.211679,-0.00132042,0,
1,1.09357,0.688072,-0.211729,-0.00149918,0,
1,1.08738,0.678145,-0.211784,-0.001729,0,
1,1.0816,0.667162,-0.211846,-0.00200801,0,
1,1.07618,0.655187,-0.211916,-0.00232863,0,
1,1.07107,0.642394,-0.211992,-0.00267853,0,
1,1.06626,0.629022,-0.212074,-0.00304319,0,
1,1.06169,0.615324,-0.212161,-0.00340889,0,
1,1.05735,0.601523,-0.212252,-0.0037646,0,
1,1.05321,0.587794,-0.212345,-0.00410261,0,
1,1.04925,0.574264,-0.212441,-0.00441829,0,
1,1.04544,0.561019,-0.212537,-0.00470935,0,
1,1.04177,0.548109,-0.212634,-0.00497518,0,
1,1.03822,0.53556,-0.212731,-0.0052162,0,
1,1.03478,0.523382,-0.212828,-0.00543348,0,
1,1.03144,0.511572,-0.212924,-0.00562838,0,
1,1.02818,0.50012,-0.21302,-0.0058024,0,
1,1.025,0.489012,-0.213116,-0.00595706,0,
1,1.02188,0.478232,-0.21321,-0.00609386,0,
1,1.01882,0.467761,-0.213304,-0.00621418,0,
1,1.01581,0.457584,-0.213398,-0.00631938,0,
1,1.01284,0.44768,-0.21349,-0.00641011,0,
1,1.00988,0.437929,-0.213583,-0.00648891,0,
1,1.00688,0.428213,-0.213676,-0.00655716,0,
1,1.00384,0.418517,-0.213772,-0.00661473,0,
1,1.00076,0.408823,-0.213869,-0.00666135,0,
1,0.997615,0.399111,-0.213967,-0.00669758,0,
1,0.99441,0.389358,-0.214067,-0.00672348,0,
1,0.991131,0.379542,-0.214168,-0.00673905,0,
1,0.987768,0.369639,-0.214272,-0.00674421,0,
1,0.984308,0.359624,-0.214378,-0.00673876,0,
1,0.980739,0.34947,-0.214485,-0.00672238,0,
1,0.977045,0.339147,-0.214596,-0.00669466,0,
1,0.973211,0.328627,-0.21471,-0.00665511,0,
1,0.969219,0.317877,-0.214828,-0.00660307,0,
1,0.965047,0.306864,-0.214949,-0.00653777,0,
1,0.960675,0.295554,-0.215075,-0.00645826,0,
1,0.956077,0.283911,-0.215206,-0.00636352,0,
1,0.951224,0.271899,-0.215342,-0.00625236,0,
1,0.946088,0.25948,-0.215484,-0.00612335,0,
1,0.940633,0.24662,-0.215632,-0.005975,0,
1,0.934823,0.233284,-0.215789,-0.00580507,0,
1,0.928616,0.219445,-0.215953,-0.00561201,0,
1,0.921967,0.205093,-0.216125,-0.00539627,0,
1,0.914826,0.190236,-0.216305,-0.00515592,0,
1,0.907141,0.174897,-0.216493,-0.00489043,0,
1,0.898852,0.159125,-0.216688,-0.00460011,0,
1,0.889898,0.142994,-0.216891,-0.00428626,0,
1,0.880212,0.126613,-0.2171,-0.0039515,0,
1,0.869723,0.11013,-0.217314,-0.00360011,0,
1,0.858358,0.0937363,-0.217532,-0.0032383,0,
1,0.846039,0.0776652,-0.21775,-0.00287428,0,
1,0.83269,0.0621838,-0.217964,-0.00251779,0,
1,0.818232,0.0475771,-0.218171,-0.00218229,0,
1,0.802744,0.0342279,-0.218356,-0.0018803,0,
1,0.78635,0.0224134,-0.21852,-0.00161854,0,
1,0.768969,0.0121407,-0.218649,-0.0014018,0,
1,0.75053,0.00334556,-0.218743,-0.00123042,0,
1,0.730977,-0.00409848,-0.218793,-0.00110141,0,
1,0.710271,-0.0103622,-0.218796,-0.00100973,0,
1,0.688397,-0.0156343,-0.218749,-0.000949108,0,
1,0.66536,-0.0200949,-0.218649,-0.0009125,0,
1,0.641194,-0.0238884,-0.218497,-0.000893945,0,
1,0.615961,-0.0271016,-0.218248,-0.000900746,0,
1,0.589754,-0.029795,-0.217872,-0.000946054,0,
1,0.562692,-0.0320674,-0.217414,-0.000993432,0,
1,0.534925,-0.0340212,-0.216913,-0.00103849,0,
1,0.506624,-0.0357286,-0.216388,-0.00107494,0,
1,0.477982,-0.0372375,-0.215873,-0.00109547,0,
1,0.449206,-0.0385811,-0.215407,-0.00109434,0,
1,0.420509,-0.0397829,-0.215026,-0.00106861,0,
1,0.392107,-0.0408613,-0.214762,-0.00101859,0,
1,0.364206,-0.0418309,-0.214633,-0.000947635,0,
1,0.337003,-0.0427044,-0.214643,-0.000861463,0,
1,0.310673,-0.0434932,-0.214787,-0.000766716,0,
1,0.28537,-0.0442079,-0.215039,-0.00066769,0,
1,0.26122,-0.0448539,-0.215329,-0.000574713,0,
1,0.238324,-0.0454323,-0.215627,-0.000490618,0,
1,0.21675,-0.0459449,-0.215961,-0.000409115,0,
1,0.196544,-0.0463932,-0.216328,-0.000332779,0,
1,0.177724,-0.0467791,-0.216699,-0.000263951,0,
1,0.160284,-0.0471043,-0.217058,-0.000203549,0,
1,0.144202,-0.0473701,-0.217393,-0.000151485,0,
1,0.129436,-0.0475769,-0.217697,-0.000107199,0,
1,0.115935,-0.0477246,-0.217967,-6.98637e-05,0,
1,0.103636,-0.0478123,-0.218204,-3.85711e-05,0,
1,0.0924701,-0.0478387,-0.218408,-1.24458e-05,0,
1,0.0823633,-0.0478019,-0.218583,9.29684e-06,0,
1,0.0732406,-0.0476996,-0.218732,2.7329e-05,0,
1,0.0650269,-0.0475288,-0.218858,4.22137e-05,0,
1,0.057648,-0.0472859,-0.218963,5.44138e-05,0,
1,0.0510323,-0.0469665,-0.219052,6.43032e-05,0,
1,0.0451115,-0.0465649,-0.219126,7.2179e-05,0,
1,0.0398209,-0.0460738,-0.219188,7.82722e-05,0,
1,0.0351001,-0.0454834,-0.219238,8.27514e-05,0,
1,0.0308929,-0.0447805,-0.219281,8.57211e-05,0,
1,0.0271475,-0.0439469,-0.219315,8.72151e-05,0,
1,0.0238164,-0.0429578,-0.219343,8.71774e-05,0,
1,0.0208562,-0.0417784,-0.219365,8.54307e-05,0,
1,0.0182274,-0.0403608,-0.219383,8.16344e-05,0,
1,0.0158944,-0.0386414,-0.219396,7.52597e-05,0,
1,0.0138249,-0.0365424,-0.219406,6.57031e-05,0,
1,0.0119898,-0.0339902,-0.219412,5.2797e-05,0,
1,0.0103632,-0.0309611,-0.219418,3.77384e-05,0,
1,0.00892169,-0.0275468,-0.219419,2.33698e-05,0,
1,0.00764438,-0.0239662,-0.219422,1.24884e-05,0,
1,0.00651264,-0.020473,-0.219422,5.8661e-06,0,
1,0.00550983,-0.0172452,-0.219423,2.48567e-06,0,
1,0.00462115,-0.0143566,-0.219422,9.67596e-07,0,
1,0.00383341,-0.0118108,-0.219424,3.47486e-07,0,
1,0.0031349,-0.00958058,-0.219423,1.13992e-07,0,
1,0.00251518,-0.00762893,-0.219425,3.33428e-08,0,
1,0.00196502,-0.00591972,-0.219423,8.33501e-09,0,
1,0.00147619,-0.00442006,-0.219426,1.65648e-09,0,
1,0.00104139,-0.00310148,-0.219423,2.29614e-10,0,
1,0.000654158,-0.00193902,-0.219426,1.70554e-11,0,
1,0.000308731,-0.000911564,-0.219423,3.72125e-13,0,

4,0,0,-0.191257,0,0,
4,9,0,-0.111026,0,0,
4,8.99969,0.0147157,-0.111023,2.48497e-10,0,
4,8.99934,0.0313505,-0.111025,1.15273e-08,0,
4,8.99894,0.0501735,-0.111024,1.57361e-07,0,
4,8.9985,0.0714683,-0.111025,1.14143e-06,0,
4,8.99799,0.0955206,-0.111024,5.65586e-06,0,
4,8.99742,0.122526,-0.111025,2.13337e-05,0,
4,8.99677,0.152364,-0.111024,6.35656e-05,0,
4,8.99605,0.184284,-0.111025,0.000150273,0,
4,8.99522,0.216854,-0.111024,0.000283759,0,
4,8.99429,0.248504,-0.111024,0.00044146,0,
4,8.99324,0.278198,-0.111023,0.000594817,0,
4,8.99205,0.305612,-0.111024,0.000725242,0,
4,8.9907,0.330841,-0.111023,0.000830812,0,
4,8.98919,0.354058,-0.111023,0.000919432,0,
4,8.98747,0.375459,-0.111022,0.000992925,0,
4,8.98553,0.395322,-0.111021,0.00105064,0,
4,8.98334,0.413931,-0.11102,0.00109691,0,
4,8.98087,0.43151,-0.111019,0.00113597,0,
4,8.97807,0.448226,-0.111018,0.00116906,0,
4,8.97491,0.46422,-0.111017,0.0011975,0,
4,8.97134,0.479612,-0.111015,0.00122229,0,
4,8.96731,0.494501,-0.111013,0.00124417,0,
4,8.96276,0.50897,-0.11101,0.00126369,0,
4,8.95762,0.523091,-0.111008,0.00128124,0,
4,8.95182,0.536925,-0.111005,0.0012971,0,
4,8.94526,0.550524,-0.111001,0.00131146,0,
4,8.93787,0.563934,-0.110997,0.00132442,0,
4,8.92952,0.577192,-0.110993,0.00133603,0,
4,8.92011,0.590332,-0.110988,0.0013463,0,
4,8.90949,0.603383,-0.110983,0.00135518,0,
4,8.89751,0.616369,-0.110977,0.0013626,0,
4,8.88402,0.629311,-0.110971,0.00136845,0,
4,8.86881,0.642228,-0.110965,0.00137262,0,
4,8.85169,0.655136,-0.110958,0.00137496,0,
4,8.83242,0.668049,-0.110951,0.00137533,0,
4,8.81074,0.680982,-0.110945,0.00137356,0,
4,8.78637,0.693949,-0.110938,0.00136947,0,
4,8.75901,0.706965,-0.110933,0.00136287,0,
4,8.7283,0.720048,-0.110929,0.00135353,0,
4,8.69387,0.733221,-0.110928,0.00134116,0,
4,8.65533,0.74651,-0.110929,0.00132542,0,
4,8.61222,0.75995,-0.110935,0.00130581,0,
4,8.56407,0.773584,-0.110947,0.00128169,0,
4,8.5104,0.787466,-0.110966,0.00125246,0,
4,8.45065,0.801667,-0.110997,0.00121987,0,
4,8.38429,0.81634,-0.111042,0.00117819,0,
4,8.31073,0.831741,-0.111104,0.00112113,0,
4,8.22941,0.848161,-0.11119,0.0010478,0,
4,8.13974,0.865868,-0.111303,0.000952755,0,
4,8.04115,0.88504,-0.111448,0.000830993,0,
4,7.93313,0.905568,-0.111631,0.000682139,0,
4,7.81519,0.926716,-0.111851,0.000519397,0,
4,7.68693,0.946913,-0.112118,0.000359701,0,
4,7.54803,0.964063,-0.112437,0.000223133,0,
4,7.39831,0.976397,-0.112818,9.70273e-05,0,
4,7.23771,0.983267,-0.113275,2.87481e-05,0,
4,7.06634,0.985702,-0.113805,4.47382e-06,0,
4,6.88453,0.985778,-0.114407,8.19186e-08,0,
4,6.69275,0.985295,-0.115083,-1.29029e-08,0,
4,6.49173,0.98511,-0.115846,5.00371e-08,0,
4,6.28238,0.985324,-0.116705,3.35172e-08,0,
4,6.06579,0.98576,-0.11767,1.83966e-08,0,
4,5.84328,0.986268,-0.118748,1.29576e-08,0,
4,5.61626,0.986795,-0.119946,1.17583e-08,0,
4,5.3863,0.987346,-0.121269,1.20597e-08,0,
4,5.15502,0.987938,-0.122719,1.29865e-08,0,
4,4.92406,0.988583,-0.124299,1.42736e-08,0,
4,4.69507,0.989291,-0.126008,1.57831e-08,0,
4,4.46961,0.990064,-0.127845,1.7336e-08,0,
4,4.24915,0.990881,-0.129803,1.85474e-08,0,
4,4.03501,0.991683,-0.131875,1.91806e-08,0,
4,3.82836,0.992403,-0.134051,1.96753e-08,0,
4,3.63018,0.993058,-0.136317,2.1942e-08,0,
4,3.44125,0.993851,-0.138658,3.00777e-08,0,
4,3.26217,0.995145,-0.141059,9.84303e-08,0,
4,3.09333,0.997194,-0.143501,8.31811e-07,0,
4,2.93497,0.999723,-0.145967,3.44097e-06,0,
4,2.78715,1.0018,-0.148436,5.53335e-06,0,
4,2.64979,1.00225,-0.150887,3.97567e-07,0,
4,2.52268,1.00015,-0.153289,-1.70346e-05,0,
4,2.40551,0.995212,-0.155613,-4.76785e-05,0,
4,2.29789,0.987727,-0.157831,-8.90188e-05,0,
4,2.19939,0.978323,-0.159922,-0.000136642,0,
4,2.10949,0.967732,-0.161876,-0.000185923,0,
4,2.02768,0.956615,-0.163685,-0.000233114,0,
4,1.95343,0.945487,-0.165351,-0.000275813,0,
4,1.88618,0.934699,-0.166876,-0.000312903,0,
4,1.82542,0.924468,-0.168267,-0.000344251,0,
4,1.77062,0.914908,-0.169531,-0.000370309,0,
4,1.72128,0.906061,-0.170676,-0.000391808,0,
4,1.67693,0.897928,-0.17171,-0.00040953,0,
4,1.63713,0.890483,-0.172641,-0.00042419,0,
4,1.60144,0.883688,-0.173479,-0.000436312,0,
4,1.56949,0.877502,-0.174232,-0.000446232,0,
4,1.54091,0.871882,-0.174905,-0.000455141,0,
4,1.51537,0.866766,-0.175509,-0.000462996,0,
4,1.49167,0.861947,-0.176069,-0.000468945,0,
4,1.46926,0.857322,-0.176599,-0.000474178,0,
4,1.44801,0.852865,-0.177101,-0.000478944,0,
4,1.42781,0.848558,-0.177579,-0.000483091,0,
4,1.40855,0.844383,-0.178035,-0.000486643,0,
4,1.39015,0.840324,-0.178469,-0.00048962,0,
4,1.37252,0.836365,-0.178886,-0.000492077,0,
4,1.3556,0.832492,-0.179286,-0.000494082,0,
4,1.3393,0.82869,-0.17967,-0.000495726,0,
4,1.32357,0.824945,-0.180041,-0.000497172,0,
4,1.30836,0.821241,-0.180398,-0.000498658,0,
4,1.29362,0.817561,-0.180745,-0.000500527,0,
4,1.2793,0.813885,-0.18108,-0.000503251,0,
4,1.26537,0.810189,-0.181406,-0.000507472,0,
4,1.25179,0.806443,-0.181723,-0.000514038,0,
4,1.23852,0.802612,-0.182032,-0.000524074,0,
4,1.22554,0.798648,-0.182333,-0.000538996,0,
4,1.21282,0.794495,-0.182627,-0.000560574,0,
4,1.20034,0.790079,-0.182914,-0.000590979,0,
4,1.18806,0.785311,-0.183195,-0.000632762,0,
4,1.17599,0.780083,-0.183469,-0.000688795,0,
4,1.16408,0.774272,-0.183736,-0.000762083,0,
4,1.15233,0.767749,-0.183998,-0.000855504,0,
4,1.14073,0.760385,-0.184253,-0.000971406,0,
4,1.12925,0.752075,-0.184501,-0.00111121,0,
4,1.11788,0.742752,-0.184743,-0.00127498,0,
4,1.10661,0.732399,-0.184978,-0.0014612,0,
4,1.09543,0.721052,-0.185207,-0.00166693,0,
4,1.08432,0.708793,-0.185429,-0.00188795,0,
4,1.07328,0.69574,-0.185646,-0.00211912,0,
4,1.0623,0.682027,-0.185856,-0.00235558,0,
4,1.05136,0.66779,-0.186062,-0.00259269,0,
4,1.04044,0.653134,-0.186261,-0.00282631,0,
4,1.0295,0.638147,-0.186457,-0.00305357,0,
4,1.01855,0.622927,-0.186648,-0.00327195,0,
4,1.00757,0.607555,-0.186835,-0.00347947,0,
4,0.996544,0.592097,-0.187017,-0.0036748,0,
4,0.98547,0.576606,-0.187195,-0.00385713,0,
4,0.974334,0.561123,-0.187368,-0.00402586,0,
4,0.963124,0.545678,-0.187538,-0.00418089,0,
4,0.951826,0.530295,-0.187703,-0.00432203,0,
4,0.940428,0.514991,-0.187864,-0.00444941,0,
4,0.928915,0.499778,-0.18802,-0.00456323,0,
4,0.917272,0.484664,-0.188172,-0.00466371,0,
4,0.905481,0.469657,-0.18832,-0.00475203,0,
4,0.893524,0.454754,-0.188465,-0.00482721,0,
4,0.881383,0.439944,-0.188607,-0.00488947,0,
4,0.869035,0.425203,-0.188746,-0.00493922,0,
4,0.856459,0.410507,-0.188882,-0.00497758,0,
4,0.843629,0.395828,-0.189017,-0.00500499,0,
4,0.830518,0.381144,-0.18915,-0.00502183,0,
4,0.817097,0.366429,-0.189282,-0.00502825,0,
4,0.803334,0.35166,-0.189413,-0.00502469,0,
4,0.789195,0.336812,-0.189543,-0.00501174,0,
4,0.774643,0.321858,-0.189674,-0.00498962,0,
4,0.759639,0.306774,-0.189805,-0.00495855,0,
4,0.744138,0.291533,-0.189937,-0.00491905,0,
4,0.728096,0.276108,-0.19007,-0.00487157,0,
4,0.711463,0.260464,-0.190204,-0.00481684,0,
4,0.694189,0.244565,-0.190338,-0.00475595,0,
4,0.676218,0.228358,-0.190472,-0.00469053,0,
4,0.657495,0.211775,-0.190601,-0.00462261,0,
4,0.637962,0.194725,-0.190729,-0.00455325,0,
4,0.617561,0.177108,-0.190851,-0.00448871,0,
4,0.596848,0.159314,-0.190967,-0.00444037,0,
4,0.576557,0.141862,-0.191086,-0.00441159,0,
4,0.556564,0.124591,-0.191204,-0.00439868,0,
4,0.536763,0.10735,-0.191327,-0.00440104,0,
4,0.517057,0.0900265,-0.191459,-0.00441535,0,
4,0.497368,0.0725628,-0.191625,-0.00444598,0,
4,0.477632,0.0548943,-0.191758,-0.00446979,0,
4,0.457804,0.0368702,-0.191805,-0.00445513,0,
4,0.437857,0.0183245,-0.191844,-0.00444384,0,
4,0.417786,-0.000801592,-0.191915,-0.00443404,0,
4,0.397605,-0.0204345,-0.192025,-0.00442002,0,
4,0.377348,-0.0403554,-0.192183,-0.00439507,0,
4,0.357066,-0.0602067,-0.192378,-0.00435064,0,
4,0.336828,-0.0794973,-0.192592,-0.00427863,0,
4,0.316717,-0.0975812,-0.192822,-0.00417611,0,
4,0.296825,-0.113678,-0.193079,-0.00405087,0,
4,0.27725,-0.127111,-0.193423,-0.00392242,0,
4,0.258095,-0.137764,-0.193826,-0.00380934,0,
4,0.239458,-0.146378,-0.194117,-0.00354404,0,
4,0.221432,-0.153749,-0.194251,-0.00324987,0,
4,0.2041,-0.160215,-0.194305,-0.00299388,0,
4,0.187537,-0.165907,-0.194298,-0.00273767,0,
4,0.171798,-0.170936,-0.194224,-0.00248457,0,
4,0.156928,-0.175394,-0.194099,-0.00223813,0,
4,0.142956,-0.17936,-0.193931,-0.00200103,0,
4,0.129894,-0.182894,-0.193734,-0.00177528,0,
4,0.117744,-0.186049,-0.193519,-0.00156225,0,
4,0.106492,-0.188863,-0.193296,-0.00136273,0,
4,0.0961173,-0.19137,-0.193073,-0.00117704,0,
4,0.0865883,-0.193595,-0.192858,-0.00100513,0,
4,0.0778675,-0.195557,-0.192654,-0.000846691,0,
4,0.0699123,-0.197272,-0.192466,-0.000701199,0,
4,0.062677,-0.198749,-0.192294,-0.000568024,0,
4,0.056114,-0.199996,-0.19214,-0.000446446,0,
4,0.0501747,-0.201016,-0.192002,-0.000335704,0,
4,0.0448114,-0.201812,-0.191881,-0.000235038,0,
4,0.039977,-0.202378,-0.191776,-0.00014372,0,
4,0.0356266,-0.202708,-0.191684,-6.10505e-05,0,
4,0.0317171,-0.20279,-0.191606,1.36133e-05,0,
4,0.0282081,-0.202607,-0.191539,8.08278e-05,0,
4,0.0250617,-0.202131,-0.191482,0.000141038,0,
4,0.0222427,-0.201326,-0.191434,0.000194553,0,
4,0.0197189,-0.200142,-0.191394,0.0002415,0,
4,0.0174603,-0.198507,-0.191362,0.00028172,0,
4,0.0154398,-0.196324,-0.191335,0.000314658,0,
4,0.0136326,-0.193455,-0.191314,0.000339173,0,
4,0.0120162,-0.189715,-0.191297,0.00035335,0,
4,0.0105703,-0.184859,-0.191284,0.000354371,0,
4,0.00927657,-0.178583,-0.191275,0.000338901,0,
4,0.00811839,-0.170561,-0.191269,0.000304379,0,
4,0.0070809,-0.160546,-0.191264,0.000251617,0,
4,0.0061507,-0.148509,-0.191262,0.000187221,0,
4,0.00531578,-0.13478,-0.19126,0.000123065,0,
4,0.00456537,-0.120009,-0.191259,7.07902e-05,0,
4,0.00388979,-0.104953,-0.191258,3.56857e-05,0,
4,0.00328037,-0.0902279,-0.191258,1.5867e-05,0,
4,0.00272934,-0.0761963,-0.191258,6.23305e-06,0,
4,0.0022297,-0.0630119,-0.191258,2.1383e-06,0,
4,0.00177519,-0.050696,-0.191257,6.20029e-07,0,
4,0.00136016,-0.0392062,-0.191257,1.42239e-07,0,
4,0.000979511,-0.028472,-0.191257,2.2708e-08,0,
4,0.00062865,-0.0184146,-0.191257,1.93222e-09,0,
4,0.000303409,-0.00895171,-0.191256,4.69729e-11,0,

6,0,0,-0.0654666,0,0,
6,9,0,-0.0876357,0,0,
6,8.99969,0.0139983,-0.0876331,2.10714e-10,0,
6,8.99934,0.0297832,-0.0876353,9.72432e-09,0,
6,8.99895,0.0476007,-0.0876334,1.31817e-07,0,
6,8.9985,0.0677097,-0.087635,9.49462e-07,0,
6,8.99801,0.0903744,-0.0876335,4.67985e-06,0,
6,8.99744,0.11579,-0.0876348,1.76374e-05,0,
6,8.99681,0.143896,-0.0876335,5.29238e-05,0,
6,8.99609,0.174095,-0.0876346,0.000127217,0,
6,8.99529,0.205147,-0.0876335,0.000245933,0,
6,8.99438,0.235579,-0.0876343,0.000391972,0,
6,8.99336,0.264314,-0.0876332,0.000538561,0,
6,8.9922,0.290899,-0.0876337,0.000668888,0,
6,8.9909,0.315378,-0.0876327,0.000773152,0,
6,8.98944,0.337926,-0.0876329,0.000861396,0,
6,8.98779,0.358716,-0.0876318,0.000935415,0,
6,8.98593,0.378009,-0.0876315,0.000993721,0,
6,8.98383,0.396069,-0.0876303,0.00104158,0,
6,8.98147,0.413105,-0.0876296,0.00108212,0,
6,8.97881,0.429283,-0.0876282,0.0011168,0,
6,8.97581,0.444743,-0.0876269,0.00114699,0,
6,8.97244,0.459602,-0.0876251,0.0011737,0,
6,8.96863,0.473962,-0.0876232,0.00119769,0,
6,8.96435,0.487906,-0.0876208,0.00121954,0,
6,8.95953,0.501508,-0.0876182,0.00123966,0,
6,8.95409,0.51483,-0.0876149,0.00125834,0,
6,8.94798,0.527926,-0.0876114,0.00127579,0,
6,8.94109,0.540845,-0.0876072,0.00129212,0,
6,8.93334,0.553627,-0.0876025,0.00130738,0,
6,8.92463,0.566309,-0.087597,0.00132157,0,
6,8.91482,0.578921,-0.087591,0.00133462,0,
6,8.90379,0.59149,-0.0875841,0.00134644,0,
6,8.89139,0.60404,-0.0875765,0.00135687,0,
6,8.87746,0.61659,-0.0875681,0.00136577,0,
6,8.86181,0.629157,-0.0875588,0.00137293,0,
6,8.84423,0.641754,-0.0875487,0.00137814,0,
6,8.82452,0.654395,-0.0875378,0.00138119,0,
6,8.80241,0.667088,-0.0875261,0.00138184,0,
6,8.77763,0.679845,-0.0875136,0.00137985,0,
6,8.74989,0.692675,-0.0875007,0.00137498,0,
6,8.71885,0.705591,-0.0874875,0.00136696,0,
6,8.68417,0.718607,-0.0874741,0.00135548,0,
6,8.64545,0.731744,-0.0874612,0.00134018,0,
6,8.60229,0.745025,-0.087449,0.00132057,0,
6,8.55423,0.758483,-0.0874388,0.00129603,0,
6,8.50082,0.77216,-0.0874304,0.00126598,0,
6,8.44155,0.78611,-0.0874264,0.00123185,0,
6,8.37592,0.800455,-0.0874288,0.00119008,0,
6,8.30339,0.815419,-0.087439,0.00113501,0,
6,8.22344,0.8313,-0.0874603,0.00106547,0,
6,8.13555,0.848415,-0.0874924,0.000976621,0,
6,8.0392,0.867032,-0.0875376,0.000863887,0,
6,7.93391,0.887164,-0.0875896,0.000725996,0,
6,7.81927,0.908204,-0.0876521,0.000573559,0,
6,7.6949,0.928688,-0.0877138,0.000421134,0,
6,7.56054,0.946597,-0.0877941,0.000284483,0,
6,7.41603,0.960255,-0.087874,0.000160396,0,
6,7.26132,0.968941,-0.0879737,6.26577e-05,0,
6,7.09653,0.973065,-0.0880962,1.58939e-05,0,
6,6.92195,0.974085,-0.0882236,1.28192e-06,0,
6,6.73802,0.973731,-0.0883585,-6.37277e-07,0,
6,6.5454,0.973189,-0.0884975,-2.43406e-07,0,
6,6.34489,0.972912,-0.0886419,-2.56471e-08,0,
6,6.1375,0.972888,-0.088791,9.13547e-09,0,
6,5.92439,0.972975,-0.0889438,6.40426e-09,0,
6,5.70687,0.973072,-0.0890974,3.04077e-09,0,
6,5.48633,0.973144,-0.0892487,1.61322e-09,0,
6,5.26426,0.973191,-0.0893928,1.02913e-09,0,
6,5.04218,0.973223,-0.089525,7.63834e-10,0,
6,4.82159,0.973252,-0.0896388,6.4021e-10,0,
6,4.60398,0.973287,-0.0897286,5.10839e-10,0,
6,4.39071,0.973324,-0.0897868,6.27596e-11,0,
6,4.18307,0.973324,-0.0898076,-1.15977e-09,0,
6,3.98218,0.973219,-0.0897836,-3.40375e-09,0,
6,3.78902,0.972956,-0.0897108,-6.11425e-09,0,
6,3.60438,0.972576,-0.0895833,-8.39457e-09,0,
6,3.42888,0.972277,-0.0893996,-1.16408e-08,0,
6,3.26296,0.972356,-0.089157,3.77184e-08,0,
6,3.10691,0.973018,-0.0888565,4.59124e-07,0,
6,2.96084,0.974154,-0.088498,1.48547e-06,0,
6,2.82473,0.975301,-0.0880883,1.74173e-06,0,
6,2.69844,0.975805,-0.087633,-1.79968e-06,0,
6,2.58172,0.975065,-0.0871425,-1.18538e-05,0,
6,2.47424,0.972716,-0.0866235,-2.96072e-05,0,
6,2.37559,0.968684,-0.0860871,-5.46691e-05,0,
6,2.28535,0.963141,-0.0855411,-8.5548e-05,0,
6,2.20301,0.956411,-0.0849962,-0.000120223,0,
6,2.1281,0.948874,-0.0844584,-0.00015663,0,
6,2.06009,0.940896,-0.083936,-0.000192992,0,
6,1.99849,0.932788,-0.0834325,-0.000227956,0,
6,1.9428,0.924791,-0.0829537,-0.000260642,0,
6,1.89255,0.917079,-0.0825005,-0.000290573,0,
6,1.84728,0.909764,-0.0820759,-0.000317571,0,
6,1.80655,0.902915,-0.0816797,-0.000341588,0,
6,1.76996,0.896565,-0.0813128,-0.000362544,0,
6,1.73712,0.890732,-0.0809741,-0.000381811,0,
6,1.70768,0.88537,-0.0806629,-0.000399442,0,
6,1.67998,0.880238,-0.0803645,-0.000414524,0,
6,1.65329,0.875226,-0.0800706,-0.000428626,0,
6,1.62754,0.870323,-0.0797812,-0.000442069,0,
6,1.60265,0.865524,-0.0794965,-0.000454676,0,
6,1.57854,0.860821,-0.0792155,-0.000466484,0,
6,1.55515,0.856209,-0.0789386,-0.000477542,0,
6,1.53242,0.85168,-0.0786648,-0.000487891,0,
6,1.5103,0.847229,-0.0783944,-0.000497565,0,
6,1.48874,0.842848,-0.0781265,-0.000506591,0,
6,1.46769,0.83853,-0.0778615,-0.000514989,0,
6,1.44712,0.834268,-0.0775986,-0.00052278,0,
6,1.42698,0.830058,-0.077338,-0.000529962,0,
6,1.40725,0.825891,-0.0770791,-0.000536563,0,
6,1.38788,0.821762,-0.0768218,-0.000542559,0,
6,1.36886,0.817665,-0.0765661,-0.000547961,0,
6,1.35015,0.813592,-0.0763114,-0.000552849,0,
6,1.33173,0.809536,-0.0760581,-0.000557317,0,
6,1.31357,0.80549,-0.0758052,-0.000561509,0,
6,1.29566,0.801443,-0.0755535,-0.000565665,0,
6,1.27797,0.797383,-0.0753019,-0.000570162,0,
6,1.26048,0.793295,-0.0750513,-0.000575576,0,
6,1.24318,0.789155,-0.0748006,-0.000582784,0,
6,1.22605,0.784937,-0.0745507,-0.000593081,0,
6,1.20907,0.780597,-0.0743006,-0.000608307,0,
6,1.19223,0.77608,-0.0740515,-0.000631242,0,
6,1.17551,0.771308,-0.0738026,-0.000665561,0,
6,1.1589,0.766173,-0.0735553,-0.000716271,0,
6,1.14238,0.760535,-0.0733094,-0.000789729,0,
6,1.12595,0.754221,-0.073067,-0.000893417,0,
6,1.10959,0.747035,-0.0728286,-0.00103507,0,
6,1.09329,0.738791,-0.0725972,-0.00122135,0,
6,1.07704,0.729341,-0.0723739,-0.00145611,0,
6,1.06081,0.718612,-0.0721619,-0.00173865,0,
6,1.04459,0.706618,-0.0719619,-0.00206298,0,
6,1.02836,0.693467,-0.0717776,-0.00241809,0,
6,1.01211,0.679327,-0.0716056,-0.00278888,0,
6,0.99583,0.664405,-0.071456,-0.00315745,0,
6,0.97951,0.648943,-0.0713083,-0.00350111,0,
6,0.963136,0.63323,-0.0712233,-0.00381425,0,
6,0.946694,0.617473,-0.0710817,-0.00407222,0,
6,0.930172,0.601565,-0.0708161,-0.00421794,0,
6,0.913555,0.585308,-0.0705546,-0.00436634,0,
6,0.896829,0.568656,-0.0703039,-0.00451872,0,
6,0.879979,0.551615,-0.0700673,-0.00467591,0,
6,0.862989,0.534203,-0.0698507,-0.00483871,0,
6,0.845842,0.516449,-0.0696527,-0.00500704,0,
6,0.828521,0.498387,-0.0694755,-0.00518022,0,
6,0.811008,0.480053,-0.0693181,-0.005357,0,
6,0.793282,0.461486,-0.0691816,-0.00553577,0,
6,0.775322,0.442725,-0.0690643,-0.00571458,0,
6,0.757107,0.423809,-0.0689665,-0.00589144,0,
6,0.738612,0.40478,-0.0688862,-0.00606434,0,
6,0.719813,0.385682,-0.068824,-0.0062314,0,
6,0.700681,0.366556,-0.0687769,-0.00639077,0,
6,0.681188,0.347437,-0.0687445,-0.00654044,0,
6,0.661304,0.328342,-0.0687236,-0.00667826,0,
6,0.640996,0.309268,-0.068713,-0.0068024,0,
6,0.620228,0.290192,-0.068711,-0.00691127,0,
6,0.598964,0.27108,-0.0687183,-0.00700329,0,
6,0.577166,0.2519,-0.0687357,-0.00707657,0,
6,0.554791,0.23263,-0.0687656,-0.00712876,0,
6,0.531799,0.213271,-0.0688096,-0.0071569,0,
6,0.508144,0.193849,-0.0688687,-0.00715741,0,
6,0.48378,0.174403,-0.0689407,-0.00712593,0,
6,0.459585,0.155636,-0.0690166,-0.00706001,0,
6,0.436695,0.138375,-0.0690859,-0.00696366,0,
6,0.414961,0.122478,-0.0691425,-0.00684011,0,
6,0.394252,0.107784,-0.0691731,-0.00669153,0,
6,0.374445,0.0941183,-0.0691686,-0.00651898,0,
6,0.355433,0.0813051,-0.0691228,-0.00632249,0,
6,0.337122,0.0691975,-0.0690465,-0.00610204,0,
6,0.319433,0.0577257,-0.0689694,-0.00585957,0,
6,0.3023,0.0469562,-0.0689498,-0.0056024,0,
6,0.28567,0.0371188,-0.0690623,-0.00534596,0,
6,0.269507,0.0285326,-0.0693768,-0.00511167,0,
6,0.253785,0.0213941,-0.0699213,-0.00491776,0,
6,0.238493,0.0155536,-0.0704001,-0.00475459,0,
6,0.223631,0.0104712,-0.0703813,-0.00433628,0,
6,0.209207,0.00575497,-0.0701023,-0.00400876,0,
6,0.195237,0.00131947,-0.0698724,-0.00371543,0,
6,0.181744,-0.00285394,-0.0696083,-0.00343045,0,
6,0.168754,-0.00678297,-0.0693394,-0.00315543,0,
6,0.156292,-0.0104817,-0.0690572,-0.0028913,0,
6,0.144384,-0.0139627,-0.0687761,-0.00263916,0,
6,0.133052,-0.0172369,-0.0684904,-0.00239992,0,
6,0.122315,-0.0203143,-0.0682147,-0.00217423,0,
6,0.112183,-0.0232038,-0.0679438,-0.00196239,0,
6,0.102665,-0.0259133,-0.0676882,-0.00176458,0,
6,0.0937597,-0.0284502,-0.0674435,-0.00158071,0,
6,0.0854609,-0.0308215,-0.0672179,-0.00141054,0,
6,0.077757,-0.0330336,-0.0670074,-0.00125368,0,
6,0.0706309,-0.0350927,-0.0668165,-0.00110962,0,
6,0.0640611,-0.0370046,-0.0666413,-0.000977703,0,
6,0.0580229,-0.0387749,-0.0664853,-0.000857257,0,
6,0.0524888,-0.0404089,-0.0663443,-0.000747574,0,
6,0.0474296,-0.0419117,-0.0662201,-0.000647913,0,
6,0.042815,-0.0432881,-0.0661092,-0.000557526,0,
6,0.0386145,-0.0445424,-0.0660126,-0.000475689,0,
6,0.0347975,-0.0456787,-0.0659272,-0.000401712,0,
6,0.0313344,-0.0467002,-0.0658534,-0.000334932,0,
6,0.0281964,-0.0476097,-0.0657886,-0.00027472,0,
6,0.0253561,-0.0484086,-0.0657331,-0.000220506,0,
6,0.0227875,-0.0490973,-0.0656848,-0.000171771,0,
6,0.0204662,-0.0496748,-0.065644,-0.000128049,0,
6,0.0183694,-0.0501375,-0.0656083,-8.89304e-05,0,
6,0.016476,-0.0504789,-0.0655791,-5.4092e-05,0,
6,0.0147664,-0.0506887,-0.0655532,-2.33034e-05,0,
6,0.0132228,-0.0507505,-0.0655332,3.54605e-06,0,
6,0.0118288,-0.0506402,-0.0655148,2.64091e-05,0,
6,0.0105693,-0.0503219,-0.0655022,4.49827e-05,0,
6,0.00943073,-0.0497446,-0.0654896,5.86439e-05,0,
6,0.00840063,-0.0488386,-0.0654828,6.64344e-05,0,
6,0.00746774,-0.0475166,-0.0654746,6.73147e-05,0,
6,0.00662185,-0.0456886,-0.0654724,6.0929e-05,0,
6,0.00585371,-0.0432992,-0.0654672,4.87539e-05,0,
6,0.00515491,-0.0403732,-0.0654679,3.42804e-05,0,
6,0.00451788,-0.03703,-0.0654641,2.12902e-05,0,
6,0.00393573,-0.033438,-0.0654664,1.18388e-05,0,
6,0.00340221,-0.029752,-0.0654628,5.973e-06,0,
6,0.00291168,-0.0260796,-0.0654659,2.74937e-06,0,
6,0.00245897,-0.0224816,-0.0654619,1.14737e-06,0,
6,0.00203939,-0.0189859,-0.0654658,4.25289e-07,0,
6,0.00164864,-0.0156,-0.065461,1.34575e-07,0,
6,0.00128281,-0.0123201,-0.0654659,3.38676e-08,0,
6,0.000938257,-0.00913564,-0.06546,5.94181e-09,0,
6,0.000611645,-0.0060323,-0.0654662,5.5374e-10,0,
6,0.000299862,-0.00299329,-0.0654588,1.4446e-11,0,

10,0.000296632,0.00648697,0.0136984,-4.96575e-11,0,
10,0.000596102,0.0130495,0.0137047,-1.84507e-09,0,
10,0.000900397,0.0197319,0.0136981,-1.87996e-08,0,
10,0.00121153,0.0265766,0.0137044,-1.01228e-07,0,
10,0.00153158,0.0336304,0.013698,-3.79397e-07,0,
10,0.00186264,0.0409351,0.0137039,-1.13063e-06,0,
10,0.00220692,0.0485305,0.0136979,-2.87752e-06,0,
10,0.00256668,0.0564453,0.0137034,-6.51804e-06,0,
10,0.00294431,0.0646941,0.0136977,-1.34592e-05,0,
10,0.00334229,0.0732581,0.0137027,-2.56652e-05,0,
10,0.00376326,0.0820754,0.0136974,-4.54592e-05,0,
10,0.00421,0.0910255,0.0137018,-7.48968e-05,0,
10,0.00468544,0.0999341,0.0136967,-0.000114772,0,
10,0.00519274,0.108592,0.0137003,-0.000163732,0,
10,0.00573524,0.1168,0.0136952,-0.000218378,0,
10,0.00631651,0.124407,0.0136976,-0.000274322,0,
10,0.00694041,0.131334,0.0136921,-0.000327739,0,
10,0.00761104,0.137571,0.0136928,-0.000376185,0,
10,0.00833284,0.143157,0.0136866,-0.000418764,0,
10,0.00911058,0.148158,0.0136852,-0.000455634,0,
10,0.0099494,0.15265,0.0136779,-0.000487549,0,
10,0.0108548,0.156708,0.013674,-0.00051556,0,
10,0.0118329,0.1604,0.0136652,-0.000540653,0,
10,0.0128901,0.163786,0.0136584,-0.000563695,0,
10,0.0140333,0.166917,0.0136476,-0.000585435,0,
10,0.0152702,0.169834,0.0136374,-0.000606554,0,
10,0.0166089,0.172575,0.0136241,-0.000627598,0,
10,0.0180584,0.175168,0.01361,-0.000648978,0,
10,0.0196282,0.17764,0.0135934,-0.000671091,0,
10,0.0213288,0.180013,0.0135749,-0.00069434,0,
10,0.0231714,0.182304,0.0135542,-0.000719055,0,
10,0.0251682,0.18453,0.0135304,-0.000745496,0,
10,0.0273326,0.186704,0.0135044,-0.000773962,0,
10,0.0296789,0.188841,0.0134744,-0.000804824,0,
10,0.0322227,0.190951,0.0134419,-0.000838379,0,
10,0.0349809,0.193045,0.0134042,-0.000874893,0,
10,0.0379719,0.195132,0.0133636,-0.000914695,0,
10,0.0412155,0.197222,0.0133165,-0.000958212,0,
10,0.0447333,0.199324,0.0132657,-0.00100582,0,
10,0.0485489,0.201447,0.013207,-0.00105788,0,
10,0.0526875,0.203599,0.0131437,-0.00111481,0,
10,0.0571768,0.205789,0.0130709,-0.00117716,0,
10,0.0620466,0.208026,0.0129925,-0.00124546,0,
10,0.0673295,0.21032,0.0129026,-0.00132021,0,
10,0.0730607,0.212681,0.012806,-0.00140202,0,
10,0.0792784,0.21512,0.0126964,-0.00149162,0,
10,0.0860241,0.217648,0.0125789,-0.00158971,0,
10,0.0933428,0.220278,0.0124465,-0.00169707,0,
10,0.101283,0.223024,0.0123053,-0.00181451,0,
10,0.109899,0.225904,0.0121486,-0.00194297,0,
10,0.119247,0.228934,0.0119805,-0.0020834,0,
10,0.12939,0.232137,0.0118017,-0.00223698,0,
10,0.140395,0.235536,0.01161,-0.00240487,0,
10,0.152337,0.239161,0.0114022,-0.00258805,0,
10,0.165296,0.243045,0.0111858,-0.00278771,0,
10,0.179357,0.247227,0.0109546,-0.00300495,0,
10,0.194615,0.251754,0.0107151,-0.00324084,0,
10,0.211171,0.256682,0.0104663,-0.00349626,0,
10,0.229138,0.262079,0.0102132,-0.00377183,0,
10,0.248635,0.268027,0.00995512,-0.00406753,0,
10,0.269793,0.274625,0.00970874,-0.00438319,0,
10,0.292753,0.281996,0.00944251,-0.00475613,0,
10,0.317669,0.290424,0.00936753,-0.00519661,0,
10,0.344708,0.300737,0.00967083,-0.00535384,0,
10,0.372405,0.313253,0.00998539,-0.00552143,0,
10,0.399623,0.327442,0.0101379,-0.00567933,0,
10,0.426397,0.342799,0.0101897,-0.00580728,0,
10,0.452757,0.358842,0.0101813,-0.00589282,0,
10,0.478735,0.375317,0.0101615,-0.00593282,0,
10,0.504358,0.392164,0.0101427,-0.00592925,0,
10,0.529657,0.409402,0.0101251,-0.005885,0,
10,0.554656,0.42705,0.0101008,-0.0058023,0,
10,0.579382,0.445084,0.0100629,-0.00568263,0,
10,0.603859,0.463442,0.0100079,-0.00552744,0,
10,0.628112,0.48204,0.00993462,-0.00533871,0,
10,0.652163,0.500785,0.00984387,-0.00511893,0,
10,0.676035,0.519593,0.00973598,-0.00487122,0,
10,0.699751,0.538382,0.00961172,-0.00459939,0,
10,0.72333,0.557068,0.0094709,-0.00430791,0,
10,0.746795,0.57555,0.00931443,-0.00400185,0,
10,0.770165,0.593695,0.00914284,-0.0036874,0,
10,0.79346,0.611306,0.00895842,-0.00338311,0,
10,0.816699,0.628188,0.00876344,-0.00308932,0,
10,0.839903,0.644236,0.00855954,-0.00280623,0,
10,0.863088,0.659427,0.00834595,-0.00253579,0,
10,0.886275,0.673767,0.00812218,-0.00228054,0,
10,0.909481,0.687258,0.00788782,-0.00204262,0,
10,0.932723,0.6999,0.00764386,-0.00182345,0,
10,0.956021,0.711693,0.00739117,-0.00162383,0,
10,0.97939,0.722648,0.00713109,-0.00144405,0,
10,1.00285,0.732785,0.00686435,-0.00128418,0,
10,1.02641,0.742136,0.00659188,-0.00114417,0,
10,1.0501,0.75074,0.00631418,-0.00102385,0,
10,1.07392,0.758648,0.00603184,-0.000922707,0,
10,1.0979,0.765924,0.00574522,-0.000839669,0,
10,1.12205,0.772651,0.00545442,-0.000772984,0,
10,1.14639,0.778919,0.00515969,-0.000720382,0,
10,1.17093,0.784822,0.00486054,-0.000679329,0,
10,1.19568,0.790448,0.0045575,-0.000647312,0,
10,1.22066,0.795871,0.00425096,-0.000622053,0,
10,1.24589,0.801146,0.00393983,-0.000601627,0,
10,1.27137,0.806323,0.00362453,-0.000584759,0,
10,1.29713,0.811439,0.00330567,-0.000570176,0,
10,1.32317,0.816517,0.00298353,-0.000557362,0,
10,1.34951,0.821571,0.00265766,-0.000545563,0,
10,1.37616,0.82661,0.00232845,-0.000534277,0,
10,1.40313,0.831639,0.00199546,-0.00052315,0,
10,1.43043,0.836659,0.00165941,-0.000511812,0,
10,1.45807,0.841677,0.00132,-0.000496504,0,
10,1.48607,0.846695,0.000976851,-0.000480431,0,
10,1.51444,0.851703,0.000630265,-0.000463395,0,
10,1.54318,0.856695,0.000280347,-0.000445687,0,
10,1.57231,0.861663,-7.48602e-05,-0.000427146,0,
10,1.60184,0.866598,-0.000435774,-0.000407673,0,
10,1.63178,0.871487,-0.000802043,-0.000387417,0,
10,1.66213,0.87632,-0.00117407,-0.000366528,0,
10,1.69292,0.881086,-0.00155173,-0.000345172,0,
10,1.72416,0.885772,-0.00193533,-0.000323487,0,
10,1.75585,0.890364,-0.00232499,-0.000301578,0,
10,1.78802,0.894846,-0.00272071,-0.000279568,0,
10,1.82067,0.899202,-0.00312268,-0.000257597,0,
10,1.85383,0.903416,-0.00353071,-0.000235832,0,
10,1.88751,0.907471,-0.00394521,-0.000214427,0,
10,1.92173,0.911351,-0.00436573,-0.000193552,0,
10,1.95652,0.915039,-0.004793,-0.000173353,0,
10,1.9919,0.91852,-0.00522615,-0.000153993,0,
10,2.02791,0.92178,-0.0056665,-0.000135646,0,
10,2.06456,0.924809,-0.00611233,-0.000118293,0,
10,2.10268,0.927651,-0.00657606,-0.000101489,0,
10,2.1443,0.930396,-0.00707833,-8.53878e-05,0,
10,2.18977,0.932997,-0.00762513,-6.98086e-05,0,
10,2.23946,0.935376,-0.00821758,-5.48536e-05,0,
10,2.29376,0.93746,-0.00886038,-4.10554e-05,0,
10,2.35309,0.939176,-0.0095551,-2.882e-05,0,
10,2.4179,0.940465,-0.0103051,-1.85211e-05,0,
10,2.48863,0.941289,-0.0111117,-1.0463e-05,0,
10,2.56575,0.941647,-0.0119766,-4.79213e-06,0,
10,2.64971,0.941588,-0.0129,-1.41938e-06,0,
10,2.74098,0.941216,-0.0138821,1.75817e-08,0,
10,2.83997,0.940688,-0.0149216,1.46984e-07,0,
10,2.94709,0.940193,-0.0160167,-2.70291e-07,0,
10,3.06269,0.939911,-0.0171644,-6.02776e-07,0,
10,3.18706,0.939966,-0.0183611,-6.01317e-07,0,
10,3.3204,0.940384,-0.019602,-3.91063e-07,0,
10,3.46281,0.941088,-0.0208811,-1.87823e-07,0,
10,3.61427,0.941938,-0.0221912,-7.89804e-08,0,
10,3.77463,0.942792,-0.0235231,-3.88897e-08,0,
10,3.94358,0.943558,-0.0248666,-2.651e-08,0,
10,4.12067,0.944216,-0.0262104,-2.19817e-08,0,
10,4.30525,0.944795,-0.0275429,-1.98045e-08,0,
10,4.49655,0.945343,-0.0288525,-1.881e-08,0,
10,4.6936,0.945891,-0.0301285,-1.88297e-08,0,
10,4.89531,0.946445,-0.0313607,-2.02386e-08,0,
10,5.10047,0.946992,-0.03254,-2.44262e-08,0,
10,5.30776,0.947514,-0.0336589,-3.46465e-08,0,
10,5.51581,0.947992,-0.0347114,-5.72648e-08,0,
10,5.72323,0.948422,-0.0356929,-1.06344e-07,0,
10,5.92863,0.948827,-0.036601,-2.17826e-07,0,
10,6.13069,0.949268,-0.0374338,-4.92916e-07,0,
10,6.32816,0.949842,-0.0381925,-1.15438e-06,0,
10,6.51991,0.950585,-0.0388776,-2.2977e-06,0,
10,6.70495,0.951275,-0.0394936,-2.34762e-06,0,
10,6.88244,0.951208,-0.0400417,5.06942e-06,0,
10,7.0517,0.949182,-0.0405289,3.23402e-05,0,
10,7.21224,0.943872,-0.040952,9.35086e-05,0,
10,7.3637,0.93442,-0.0413205,0.000199046,0,
10,7.5059,0.920634,-0.0416431,0.000314217,0,
10,7.63878,0.902928,-0.0419086,0.000440168,0,
10,7.76243,0.882657,-0.0421316,0.000577476,0,
10,7.87701,0.861716,-0.0423077,0.000714743,0,
10,7.9828,0.841629,-0.0424523,0.000837065,0,
10,8.08014,0.82309,-0.0425652,0.000937383,0,
10,8.16941,0.806121,-0.0426595,0.00101805,0,
10,8.25106,0.790426,-0.0427371,0.00108378,0,
10,8.32554,0.775651,-0.0428047,0.00113872,0,
10,8.39331,0.761496,-0.0428632,0.00118552,0,
10,8.45484,0.747755,-0.0429151,0.00122572,0,
10,8.5106,0.734305,-0.0429604,0.00126011,0,
10,8.56104,0.721086,-0.0430005,0.00128912,0,
10,8.60659,0.70807,-0.0430358,0.00131281,0,
10,8.64767,0.695234,-0.0430671,0.00132971,0,
10,8.68467,0.682561,-0.0430945,0.00134191,0,
10,8.71795,0.670046,-0.0431187,0.00134941,0,
10,8.74786,0.657684,-0.0431399,0.00135268,0,
10,8.77471,0.645471,-0.0431585,0.00135217,0,
10,8.79881,0.633404,-0.0431748,0.00134834,0,
10,8.8204,0.621474,-0.043189,0.00134162,0,
10,8.83975,0.609675,-0.0432014,0.00133244,0,
10,8.85708,0.597993,-0.0432122,0.00132119,0,
10,8.87259,0.586414,-0.0432216,0.00130826,0,
10,8.88646,0.574919,-0.0432297,0.00129398,0,
10,8.89886,0.563489,-0.0432367,0.00127865,0,
10,8.90995,0.552098,-0.0432427,0.0012625,0,
10,8.91986,0.540721,-0.0432479,0.00124574,0,
10,8.92872,0.529325,-0.0432523,0.00122849,0,
10,8.93663,0.51788,-0.0432561,0.00121084,0,
10,8.94369,0.506348,-0.0432592,0.00119282,0,
10,8.95,0.494689,-0.0432619,0.0011744,0,
10,8.95564,0.482859,-0.0432641,0.00115546,0,
10,8.96067,0.470811,-0.0432661,0.00113585,0,
10,8.96517,0.458489,-0.0432676,0.00111536,0,
10,8.96918,0.445834,-0.0432691,0.00109365,0,
10,8.97276,0.432777,-0.04327,0.00107029,0,
10,8.97596,0.419238,-0.0432712,0.00104472,0,
10,8.97882,0.405124,-0.0432717,0.00101622,0,
10,8.98137,0.390328,-0.0432727,0.00098385,0,
10,8.98365,0.374722,-0.0432729,0.000946399,0,
10,8.98569,0.358156,-0.0432737,0.000902297,0,
10,8.9875,0.34045,-0.0432736,0.000850172,0,
10,8.98913,0.321369,-0.0432744,0.000783608,0,
10,8.99058,0.300666,-0.0432741,0.000704809,0,
10,8.99188,0.278166,-0.0432748,0.000611643,0,
10,8.99304,0.253697,-0.0432744,0.000496702,0,
10,8.99408,0.227192,-0.0432751,0.000367082,0,
10,8.99501,0.198989,-0.0432746,0.000236146,0,
10,8.99583,0.169971,-0.0432753,0.000126473,0,
10,8.99658,0.141429,-0.0432747,5.47839e-05,0,
10,8.99724,0.11454,-0.0432754,1.90131e-05,0,
10,8.99784,0.0899451,-0.0432747,5.23779e-06,0,
10,8.99837,0.0677827,-0.0432755,1.09959e-06,0,
10,8.99885,0.0479231,-0.0432747,1.57552e-07,0,
10,8.99927,0.0301514,-0.0432755,1.19603e-08,0,
10,8.99966,0.0142469,-0.0432747,2.64583e-10,0,
10,0,0,0.0137049,0,0,
10,9,0,-0.0432756,0,0,

0.004,0,0,-0.214649,0,-2.77529e-07,
0.00868226,0,0,-0.214652,0,-3.78855e-07,
0.014062,0,0,-0.214648,0,-7.82212e-07,
0.0201548,0,0,-0.214651,0,-1.13869e-06,
0.0269766,0,0,-0.214644,0,-9.93969e-07,
0.0345437,0,0,-0.214644,0,2.03955e-07,
0.0428729,0,0,-0.214636,0,2.71698e-06,
0.051981,0,0,-0.214635,0,6.97467e-06,
0.0618853,0,0,-0.214632,0,1.28773e-05,
0.0726036,0,0,-0.214638,0,2.01643e-05,
0.0841536,0,0,-0.214648,0,2.81032e-05,
0.0965535,0,0,-0.21467,0,3.60535e-05,
0.109822,0,0,-0.214698,0,4.34157e-05,
0.123977,0,0,-0.214736,0,5.00029e-05,
0.139037,0,0,-0.214779,0,5.58217e-05,
0.155022,0,0,-0.214829,0,6.10948e-05,
0.171949,0,0,-0.214887,0,6.59839e-05,
0.189839,0,0,-0.214955,0,7.05663e-05,
0.208709,0,0,-0.215034,0,7.47042e-05,
0.228579,0,0,-0.215125,0,7.81293e-05,
0.249467,0,0,-0.215231,0,8.04527e-05,
0.271391,0,0,-0.215352,0,8.13148e-05,
0.29437,0,0,-0.215487,0,8.04e-05,
0.31842,0,0,-0.215638,0,7.75201e-05,
0.343559,0,0,-0.215801,0,7.25738e-05,
0.369804,0,0,-0.215976,0,6.56382e-05,
0.39717,0,0,-0.216161,0,5.68725e-05,
0.425672,0,0,-0.216354,0,4.6551e-05,
0.455324,0,0,-0.216552,0,3.49413e-05,
0.48614,0,0,-0.216754,0,2.23802e-05,
0.518132,0,0,-0.216958,0,9.1516e-06,
0.551309,0,0,-0.217164,0,-4.49098e-06,
0.585683,0,0,-0.217368,0,-1.83814e-05,
0.621259,0,0,-0.217572,0,-3.23989e-05,
0.658046,0,0,-0.217774,0,-4.65094e-05,
0.696047,0,0,-0.217977,0,-6.0737e-05,
0.735265,0,0,-0.218179,0,-7.51472e-05,
0.7757,0,0,-0.218381,0,-8.98486e-05,
0.817352,0,0,-0.218584,0,-0.00010499,
0.860215,0,0,-0.218787,0,-0.000120675,
0.904285,0,0,-0.218993,0,-0.000137144,
0.949552,0,0,-0.2192,0,-0.000154602,
0.996004,0,0,-0.21941,0,-0.000173311,
1.04363,0,0,-0.219618,0,-0.000193304,
1.09241,0,0,-0.21983,0,-0.000214849,
1.14232,0,0,-0.220039,0,-0.000238117,
1.19335,0,0,-0.220248,0,-0.000263418,
1.24546,0,0,-0.220443,0,-0.000290447,
1.29863,0,0,-0.220627,0,-0.00031922,
1.35283,0,0,-0.220783,0,-0.000349348,
1.40802,0,0,-0.220899,0,-0.000380169,
1.46416,0,0,-0.220979,0,-0.00040957,
1.52121,0,0,-0.221029,0,-0.00043262,
1.57913,0,0,-0.221168,0,-0.0004448,
1.63787,0,0,-0.22151,0,-0.000443875,
1.69739,0,0,-0.222041,0,-0.000435506,
1.75761,0,0,-0.222764,0,-0.000420966,
1.81851,0,0,-0.223638,0,-0.000404803,
1.88,0,0,-0.224611,0,-0.000391242,
1.94204,0,0,-0.225644,0,-0.000381921,
2.00457,0,0,-0.22668,0,-0.000377465,
2.06751,0,0,-0.227731,0,-0.000374676,
2.13081,0,0,-0.228855,0,-0.000371998,
2.19439,0,0,-0.229932,0,-0.00036536,
2.25819,0,0,-0.231311,0,-0.000358632,
2.32214,0,0,-0.233076,0,-0.000364014,
2.38617,0,0,-0.235106,0,-0.000390028,
2.4502,0,0,-0.237267,0,-0.000436511,
2.51418,0,0,-0.239441,0,-0.000501389,
2.57803,0,0,-0.241519,0,-0.000580249,
2.64167,0,0,-0.243403,0,-0.000670096,
2.70505,0,0,-0.245017,0,-0.000764403,
2.76808,0,0,-0.246294,0,-0.000862695,
2.83072,0,0,-0.247182,0,-0.000962367,
2.89288,0,0,-0.247638,0,-0.00106248,
2.95451,0,0,-0.247658,0,-0.00115864,
3.01555,0,0,-0.247237,0,-0.00125102,
3.07594,0,0,-0.246384,0,-0.00133848,
3.13561,0,0,-0.245105,0,-0.00141939,
3.19453,0,0,-0.243427,0,-0.00149514,
3.25262,0,0,-0.241383,0,-0.00156588,
3.30985,0,0,-0.238975,0,-0.00163161,
3.36617,0,0,-0.236237,0,-0.0016909,
3.42154,0,0,-0.233219,0,-0.00174213,
3.47591,0,0,-0.229967,0,-0.00178462,
3.52925,0,0,-0.226492,0,-0.00181655,
3.58152,0,0,-0.22287,0,-0.00184017,
3.6327,0,0,-0.219179,0,-0.00185307,
3.68276,0,0,-0.215463,0,-0.00185655,
3.73167,0,0,-0.211749,0,-0.00185078,
3.77941,0,0,-0.208091,0,-0.00184045,
3.82596,0,0,-0.204519,0,-0.00182606,
3.8713,0,0,-0.201039,0,-0.00180874,
3.91543,0,0,-0.197658,0,-0.00178898,
3.95833,0,0,-0.194415,0,-0.00176882,
4,0,0,-0.191257,0,-0.00174859,
4.04167,0,0,-0.188126,0,-0.00172784,
4.08333,0,0,-0.185019,0,-0.00170681,
4.125,0,0,-0.181946,0,-0.00168572,
4.16667,0,0,-0.178888,0,-0.00166473,
4.20833,0,0,-0.175849,0,-0.00164385,
4.25,0,0,-0.17283,0,-0.00162301,
4.29167,0,0,-0.169843,0,-0.00160217,
4.33333,0,0,-0.166869,0,-0.00158129,
4.375,0,0,-0.163914,0,-0.00156047,
4.41667,0,0,-0.160973,0,-0.0015396,
4.45833,0,0,-0.158058,0,-0.00151863,
4.5,0,0,-0.155155,0,-0.00149744,
4.54167,0,0,-0.152272,0,-0.00147626,
4.58333,0,0,-0.1494,0,-0.00145495,
4.625,0,0,-0.146547,0,-0.00143343,
4.66667,0,0,-0.143705,0,-0.00141158,
4.70833,0,0,-0.140886,0,-0.00138962,
4.75,0,0,-0.138078,0,-0.00136744,
4.79167,0,0,-0.135285,0,-0.00134495,
4.83333,0,0,-0.132503,0,-0.00132205,
4.875,0,0,-0.129748,0,-0.00129895,
4.91667,0,0,-0.127006,0,-0.00127557,
4.95833,0,0,-0.12428,0,-0.00125181,
5,0,0,-0.121566,0,-0.00122764,
5.04167,0,0,-0.118884,0,-0.00120326,
5.08333,0,0,-0.116218,0,-0.00117855,
5.125,0,0,-0.113574,0,-0.00115346,
5.16667,0,0,-0.110949,0,-0.00112806,
5.20833,0,0,-0.108358,0,-0.00110247,
5.25,0,0,-0.105787,0,-0.00107655,
5.29167,0,0,-0.103248,0,-0.0010503,
5.33333,0,0,-0.100735,0,-0.00102381,
5.375,0,0,-0.0982585,0,-0.000997212,
5.41667,0,0,-0.0958066,0,-0.000970358,
5.45833,0,0,-0.0933981,0,-0.000943376,
5.5,0,0,-0.0910191,0,-0.000916361,
5.54167,0,0,-0.0886781,0,-0.000889348,
5.58333,0,0,-0.0863638,0,-0.000862127,
5.625,0,0,-0.0841007,0,-0.00083485,
5.66667,0,0,-0.0818699,0,-0.000807604,
5.70833,0,0,-0.0796796,0,-0.000780446,
5.75,0,0,-0.0775199,0,-0.000753199,
5.79167,0,0,-0.0754162,0,-0.000726055,
5.83333,0,0,-0.0733434,0,-0.000698994,
5.875,0,0,-0.0713127,0,-0.000672054,
5.91667,0,0,-0.0693161,0,-0.000645083,
5.95833,0,0,-0.0673767,0,-0.000618297,
6,0,0,-0.0654668,0,-0.000591629,
6.04167,0,0,-0.0636001,0,-0.000565133,
6.08333,0,0,-0.0617703,0,-0.000538647,
6.125,0,0,-0.0599962,0,-0.000512396,
6.16667,0,0,-0.0582486,0,-0.000486268,
6.20833,0,0,-0.0565466,0,-0.000460366,
6.25,0,0,-0.0548837,0,-0.000434531,
6.29167,0,0,-0.0532727,0,-0.000408966,
6.33333,0,0,-0.0516847,0,-0.000383515,
6.375,0,0,-0.0501451,0,-0.00035835,
6.41667,0,0,-0.0486454,0,-0.000333316,
6.45833,0,0,-0.0471921,0,-0.000308561,
6.5,0,0,-0.0457597,0,-0.000283905,
6.54167,0,0,-0.0443773,0,-0.00025961,
6.58333,0,0,-0.0430329,0,-0.000235466,
6.625,0,0,-0.0417296,0,-0.000211612,
6.66667,0,0,-0.040447,0,-0.000187841,
6.70833,0,0,-0.0392144,0,-0.000164497,
6.75,0,0,-0.0380166,0,-0.000141316,
6.79167,0,0,-0.0368512,0,-0.000118409,
6.83333,0,0,-0.0357083,0,-9.55506e-05,
6.875,0,0,-0.0346155,0,-7.31751e-05,
6.91667,0,0,-0.0335523,0,-5.09653e-05,
6.95833,0,0,-0.032514,0,-2.90291e-05,
7,0,0,-0.0314988,0,-7.1445e-06,
7.04167,0,0,-0.0305327,0,1.42866e-05,
7.08333,0,0,-0.0295913,0,3.55028e-05,
7.125,0,0,-0.0286645,0,5.64714e-05,
7.16667,0,0,-0.0277667,0,7.74252e-05,
7.20833,0,0,-0.0269138,0,9.78628e-05,
7.25,0,0,-0.0260773,0,0.000118142,
7.29167,0,0,-0.0252461,0,0.000138196,
7.33333,0,0,-0.0244497,0,0.000158185,
7.375,0,0,-0.0236928,0,0.000177739,
7.41667,0,0,-0.0229453,0,0.000197173,
7.45833,0,0,-0.0221947,0,0.000216349,
7.5,0,0,-0.0214838,0,0.000235393,
7.54167,0,0,-0.0208051,0,0.000254071,
7.58333,0,0,-0.020129,0,0.000272742,
7.625,0,0,-0.0194438,0,0.000291105,
7.66667,0,0,-0.0188029,0,0.000309268,
7.70833,0,0,-0.0181834,0,0.000327212,
7.75,0,0,-0.0175624,0,0.000345253,
7.79167,0,0,-0.0169276,0,0.000362959,
7.83333,0,0,-0.0163371,0,0.00038033,
7.875,0,0,-0.0157553,0,0.000397813,
7.91667,0,0,-0.0151657,0,0.000415769,
7.95833,0,0,-0.0145994,0,0.000432682,
8,0,0,-0.0140154,0,0.000448946,
8.04171,0,0,-0.0133969,0,0.000466708,
8.08368,0,0,-0.0128516,0,0.000484981,
8.12617,0,0,-0.0122597,0,0.000501819,
8.16946,0,0,-0.0117049,0,0.000518278,
8.21382,0,0,-0.0110891,0,0.00053593,
8.25952,0,0,-0.0104691,0,0.000554515,
8.30685,0,0,-0.00983414,0,0.000573146,
8.35611,0,0,-0.00920485,0,0.000591409,
8.40762,0,0,-0.00845975,0,0.000611895,
8.46168,0,0,-0.00771668,0,0.000633688,
8.51865,0,0,-0.00695076,0,0.000656132,
8.57889,0,0,-0.00615614,0,0.000678669,
8.64276,0,0,-0.00517259,0,0.000704624,
8.71067,0,0,-0.00422073,0,0.000731913,
8.78306,0,0,-0.00322473,0,0.000761279,
8.86037,0,0,-0.00213421,0,0.000792129,
8.94309,0,0,-0.000804732,0,0.000827904,
9.03174,0,0,0.000491989,0,0.000864544,
9.12689,0,0,0.0018607,0,0.000903993,
9.22912,0,0,0.00347607,0,0.000948893,
9.33908,0,0,0.00504434,0,0.00099532,
9.45746,0,0,0.00672392,0,0.00104914,
9.58501,0,0,0.0085231,0,0.00110755,
9.72253,0,0,0.0104943,0,0.00117237,
9.87088,0,0,0.0123029,0,0.00123821,
10.031,0,0,0.0140415,0,0.00130985,
10.2039,0,0,0.0158561,0,0.00138524,
10.3906,0,0,0.0177798,0,0.00146647,
10.5924,0,0,0.0194107,0,0.00154935,
10.8105,0,0,0.020738,0,0.00163268,
11.0463,0,0,0.0222609,0,0.00171732,
11.3012,0,0,0.0239392,0,0.00180579,
11.5769,0,0,0.0254075,0,0.00189679,
11.8751,0,0,0.0267169,0,0.001985,
12.1977,0,0,0.0281555,0,0.00207083,
12.5466,0,0,0.0292043,0,0.00215259,
12.9242,0,0,0.0300586,0,0.00223524,
13.3327,0,0,0.0304296,0,0.00230785,
13.7748,0,0,0.0300983,0,0.00237224,
14.2532,0,0,0.0290112,0,0.00242823,
14.7709,0,0,0.0278857,0,0.00247973,
15.3312,0,0,0.0265843,0,0.00251984,
15.9377,0,0,0.0249016,0,0.00255094,
16.594,0,0,0.0229576,0,0.00257129,
17.3044,0,0,0.0212974,0,0.002597,
18.0733,0,0,0.02109,0,0.00254799,
18.9056,0,0,0.0219614,0,0.00245383,
19.8064,0,0,0.0185208,0,0.00230145,
20.7816,0,0,0.0105111,0,0.00213072,
21.8371,0,0,4.97037e-05,0,0.00204048,
22.9796,0,0,-0.00781144,0,0.00201142,
24.2163,0,0,-0.00745996,0,0.00207735,
25.5551,0,0,-0.00174896,0,0.0021728,
27.0042,0,0,0.00491886,0,0.00229226,
28.5729,0,0,0.00916059,0,0.00240969,
30.271,0,0,0.0118056,0,0.0025124,
32.1091,0,0,0.0149628,0,0.00260497,
34.0989,0,0,0.0167432,0,0.00258086,
36.2529,0,0,0.0143672,0,0.00246958,
38.5845,0,0,0.00654012,0,0.00230167,
41.1085,0,0,-0.0026747,0,0.00216177,
43.8407,0,0,-0.00685679,0,0.00216791,
46.7983,0,0,-0.00433063,0,0.00226487,
50,0,0,0.00073558,0,0.00240689,

