6d2a3825c0ce7973f802446dc41a4ae513efa935 
X,Z,x_velocity,cp,uw_b,cf,
1,0,0,-0.215014,0,0,
1,9,0,-0.137921,0,0,
1,8.99969,0.01567,-0.137921,3.0142e-10,0,
1,8.99934,0.0334449,-0.137921,1.40867e-08,0,
1,8.99894,0.0536255,-0.137921,1.94265e-07,0,
1,8.99848,0.076529,-0.137921,1.4234e-06,0,
1,8.99797,0.102469,-0.137921,7.10635e-06,0,
1,8.99739,0.131637,-0.137921,2.68342e-05,0,
1,8.99672,0.163815,-0.137921,7.91631e-05,0,
1,8.99597,0.19802,-0.137921,0.000182956,0,
1,8.99512,0.232565,-0.13792,0.000335066,0,
1,8.99416,0.265786,-0.13792,0.000505764,0,
1,8.99306,0.296728,-0.13792,0.000665586,0,
1,8.99182,0.325248,-0.13792,0.000792974,0,
1,8.99041,0.351494,-0.13792,0.00089897,0,
1,8.98881,0.375623,-0.137919,0.000986271,0,
1,8.98699,0.397853,-0.137919,0.0010573,0,
1,8.98494,0.418469,-0.137918,0.00111339,0,
1,8.98261,0.437787,-0.137917,0.00115567,0,
1,8.97996,0.456054,-0.137917,0.0011911,0,
1,8.97696,0.47344,-0.137916,0.00122034,0,
1,8.97356,0.490088,-0.137914,0.00124467,0,
1,8.9697,0.506116,-0.137913,0.00126507,0,
1,8.96533,0.521623,-0.137912,0.00128227,0,
1,8.96038,0.53669,-0.13791,0.00129679,0,
1,8.95476,0.551387,-0.137908,0.00130903,0,
1,8.9484,0.565774,-0.137906,0.00131925,0,
1,8.9412,0.579899,-0.137904,0.00132766,0,
1,8.93303,0.593807,-0.137901,0.00133438,0,
1,8.92379,0.607534,-0.137899,0.00133947,0,
1,8.91333,0.621112,-0.137896,0.00134297,0,
1,8.90149,0.634568,-0.137893,0.00134487,0,
1,8.8881,0.647928,-0.137891,0.00134513,0,
1,8.87295,0.661214,-0.137889,0.00134367,0,
1,8.85584,0.674445,-0.137887,0.0013404,0,
1,8.83651,0.687642,-0.137886,0.00133519,0,
1,8.81469,0.700822,-0.137886,0.00132787,0,
1,8.79007,0.714006,-0.137887,0.00131823,0,
1,8.76232,0.727214,-0.137891,0.00130597,0,
1,8.73107,0.74047,-0.137898,0.00129076,0,
1,8.69591,0.753799,-0.137909,0.0012724,0,
1,8.6564,0.767238,-0.137925,0.00125114,0,
1,8.61206,0.780858,-0.13795,0.00122357,0,
1,8.56236,0.794755,-0.137984,0.00119168,0,
1,8.50675,0.809034,-0.13803,0.00115456,0,
1,8.44464,0.823826,-0.138092,0.00111082,0,
1,8.3754,0.839302,-0.138174,0.00105835,0,
1,8.29839,0.855676,-0.13828,0.000994055,0,
1,8.21296,0.873187,-0.138419,0.00091347,0,
1,8.11843,0.892038,-0.138593,0.000811149,0,
1,8.01417,0.912241,-0.13882,0.000682975,0,
1,7.89956,0.933344,-0.139092,0.000531447,0,
1,7.77403,0.954159,-0.139451,0.000376201,0,
1,7.63711,0.972963,-0.139868,0.000208325,0,
1,7.48842,0.987517,-0.140364,7.57884e-05,0,
1,7.32773,0.996023,-0.140967,1.73794e-05,0,
1,7.15495,0.999009,-0.141663,1.51934e-06,0,
1,6.97022,0.998968,-0.142469,5.73803e-09,0,
1,6.77388,0.998322,-0.143397,1.58394e-09,0,
1,6.56652,0.998194,-0.144461,8.58095e-09,0,
1,6.34896,0.998623,-0.145669,1.17315e-08,0,
1,6.12229,0.999305,-0.147033,1.325e-08,0,
1,5.88784,1.00004,-0.148561,1.39057e-08,0,
1,5.64716,1.0008,-0.150261,1.46607e-08,0,
1,5.40194,1.00162,-0.152138,1.57583e-08,0,
1,5.15407,1.0025,-0.154191,1.70819e-08,0,
1,4.90545,1.00347,-0.156416,1.85288e-08,0,
1,4.65805,1.00452,-0.158803,2.00624e-08,0,
1,4.41376,1.00564,-0.161339,2.15787e-08,0,
1,4.17441,1.00681,-0.164005,2.28206e-08,0,
1,3.94163,1.00797,-0.166776,2.36439e-08,0,
1,3.7169,1.00907,-0.169622,2.47767e-08,0,
1,3.50146,1.01021,-0.17251,2.83917e-08,0,
1,3.29629,1.01171,-0.17541,3.67358e-08,0,
1,3.10217,1.01392,-0.178296,4.74685e-08,0,
1,2.91959,1.01658,-0.181144,8.43214e-08,0,
1,2.74885,1.01816,-0.183923,4.5345e-07,0,
1,2.59002,1.01621,-0.186591,-9.11424e-06,0,
1,2.44299,1.00905,-0.189099,-5.59992e-05,0,
1,2.30752,0.996956,-0.191407,-0.000148763,0,
1,2.18321,0.981524,-0.193491,-0.000271845,0,
1,2.06959,0.96449,-0.195349,-0.000401236,0,
1,1.9661,0.947168,-0.19699,-0.000517426,0,
1,1.87215,0.930402,-0.198432,-0.000610699,0,
1,1.78711,0.914615,-0.199696,-0.000681408,0,
1,1.71033,0.899911,-0.200802,-0.000735303,0,
1,1.64119,0.886223,-0.201765,-0.000778335,0,
1,1.57905,0.873417,-0.202605,-0.0008145,0,
1,1.52332,0.861362,-0.203334,-0.000845905,0,
1,1.47342,0.849948,-0.203966,-0.000873522,0,
1,1.42882,0.839091,-0.204514,-0.000897813,0,
1,1.389,0.82873,-0.204989,-0.000919076,0,
1,1.35351,0.818821,-0.2054,-0.000937589,0,
1,1.3219,0.809337,-0.205755,-0.000953634,0,
1,1.29378,0.800256,-0.206063,-0.000967486,0,
1,1.26878,0.791569,-0.206329,-0.000979406,0,
1,1.24659,0.783267,-0.206559,-0.000990012,0,
1,1.22689,0.775341,-0.206758,-0.000999487,0,
1,1.2092,0.767697,-0.206933,-0.00100693,0,
1,1.1932,0.760282,-0.207087,-0.00101294,0,
1,1.1787,0.753081,-0.207223,-0.00101781,0,
1,1.16554,0.746079,-0.207343,-0.00102169,0,
1,1.15357,0.739255,-0.207449,-0.00102523,0,
1,1.14266,0.732582,-0.207543,-0.00102975,0,
1,1.13268,0.726016,-0.207625,-0.00103736,0,
1,1.12354,0.719499,-0.207698,-0.0010512,0,
1,1.11514,0.712947,-0.207762,-0.00107531,0,
1,1.10739,0.706256,-0.20782,-0.00111465,0,
1,1.10022,0.699294,-0.207874,-0.00117484,0,
1,1.09357,0.691907,-0.207925,-0.00126167,0,
1,1.08738,0.683934,-0.207976,-0.00138034,0,
1,1.0816,0.67523,-0.20803,-0.00153455,0,
1,1.07618,0.665689,-0.208086,-0.00172544,0,
1,1.07107,0.65528,-0.208147,-0.00195085,0,
1,1.06626,0.64405,-0.208213,-0.00220519,0,
1,1.06169,0.632118,-0.208283,-0.00248022,0,
1,1.05735,0.619647,-0.208357,-0.00276657,0,
1,1.05321,0.60681,-0.208434,-0.00305519,0,
1,1.04925,0.593769,-0.208514,-0.0033385,0,
1,1.04544,0.580658,-0.208596,-0.0036108,0,
1,1.04177,0.567584,-0.20868,-0.00386825,0,
1,1.03822,0.554622,-0.208764,-0.00410851,0,
1,1.03478,0.541825,-0.208849,-0.00433043,0,
1,1.03144,0.529228,-0.208934,-0.00453369,0,
1,1.02818,0.516849,-0.20902,-0.00471848,0,
1,1.025,0.504698,-0.209105,-0.00488537,0,
1,1.02188,0.492777,-0.20919,-0.00503508,0,
1,1.01882,0.481082,-0.209275,-0.00516847,0,
1,1.01581,0.469606,-0.20936,-0.00528657,0,
1,1.01284,0.458342,-0.209443,-0.00538993,0,
1,1.00988,0.447158,-0.209528,-0.00548003,0,
1,1.00688,0.435924,-0.209614,-0.00555865,0,
1,1.00384,0.424631,-0.209702,-0.00562577,0,
1,1.00076,0.413267,-0.209791,-0.00568121,0,
1,0.997615,0.401818,-0.209882,-0.00572491,0,
1,0.99441,0.390269,-0.209975,-0.00575675,0,
1,0.991131,0.378603,-0.210069,-0.00577658,0,
1,0.987768,0.366799,-0.210166,-0.00578416,0,
1,0.984308,0.354837,-0.210265,-0.0057792,0,
1,0.980739,0.342694,-0.210367,-0.00576132,0,
1,0.977045,0.330346,-0.210471,-0.00573007,0,
1,0.973211,0.31777,-0.210578,-0.00568489,0,
1,0.969219,0.304939,-0.210689,-0.00562513,0,
1,0.965047,0.291828,-0.210803,-0.00555008,0,
1,0.960675,0.278415,-0.21092,-0.0054589,0,
1,0.956077,0.264676,-0.211042,-0.00535075,0,
1,0.951224,0.250593,-0.211168,-0.00522469,0,
1,0.946088,0.236153,-0.211298,-0.00507979,0,
1,0.940633,0.22135,-0.211434,-0.00491525,0,
1,0.934823,0.206189,-0.211574,-0.00473036,0,
1,0.928616,0.19069,-0.211719,-0.00452473,0,
1,0.921967,0.174891,-0.21187,-0.00429839,0,
1,0.914826,0.158856,-0.212026,-0.004052,0,
1,0.907141,0.142677,-0.212187,-0.00378713,0,
1,0.898852,0.126483,-0.212354,-0.00350647,0,
1,0.889898,0.110442,-0.212524,-0.00321415,0,
1,0.880212,0.0947609,-0.212698,-0.00291586,0,
1,0.869723,0.0796762,-0.212873,-0.00261877,0,
1,0.858358,0.0654373,-0.213048,-0.00233101,0,
1,0.846039,0.0522756,-0.213219,-0.00206079,0,
1,0.83269,0.0403688,-0.213383,-0.00181498,0,
1,0.818232,0.0298124,-0.213533,-0.00160052,0,
1,0.802744,0.0206801,-0.213663,-0.00141961,0,
1,0.78635,0.0129176,-0.213773,-0.00126967,0,
1,0.768969,0.0063028,-0.213854,-0.00114933,0,
1,0.75053,0.000626128,-0.21391,-0.00105489,0,
1,0.730977,-0.00429071,-0.213937,-0.000981363,0,
1,0.710271,-0.00857688,-0.213939,-0.000925555,0,
1,0.688397,-0.012299,-0.213893,-0.000894318,0,
1,0.66536,-0.0155121,-0.213799,-0.000886524,0,
1,0.641194,-0.0183171,-0.213672,-0.000884135,0,
1,0.615961,-0.0208151,-0.213511,-0.000889801,0,
1,0.589754,-0.0230745,-0.213323,-0.000899963,0,
1,0.562692,-0.0251399,-0.213114,-0.000910602,0,
1,0.534925,-0.0270409,-0.212891,-0.000917986,0,
1,0.506624,-0.0287965,-0.212665,-0.000918602,0,
1,0.477982,-0.0304188,-0.212448,-0.000909436,0,
1,0.449206,-0.0319153,-0.212252,-0.000888255,0,
1,0.420509,-0.0332909,-0.21209,-0.000853904,0,
1,0.392107,-0.0345488,-0.211973,-0.000806495,0,
1,0.364206,-0.0356918,-0.211909,-0.000747416,0,
1,0.337003,-0.0367228,-0.211902,-0.000679136,0,
1,0.310673,-0.0376455,-0.211953,-0.000604832,0,
1,0.28537,-0.0384639,-0.212058,-0.00052792,0,
1,0.26122,-0.039183,-0.212208,-0.000451617,0,
1,0.238324,-0.0398081,-0.212394,-0.000378598,0,
1,0.21675,-0.0403444,-0.212604,-0.000310822,0,
1,0.196544,-0.0407975,-0.212828,-0.000249496,0,
1,0.177724,-0.0411723,-0.213055,-0.000195156,0,
1,0.160284,-0.0414734,-0.213279,-0.000147813,0,
1,0.144202,-0.0417047,-0.213492,-0.000107116,0,
1,0.129436,-0.0418696,-0.213691,-7.24952e-05,0,
1,0.115935,-0.0419708,-0.213874,-4.32801e-05,0,
1,0.103636,-0.0420103,-0.214038,-1.87815e-05,0,
1,0.0924701,-0.0419895,-0.214185,1.65587e-06,0,
1,0.0823633,-0.0419093,-0.214314,1.86242e-05,0,
1,0.0732406,-0.0417699,-0.214427,3.26409e-05,0,
1,0.0650269,-0.0415709,-0.214525,4.41477e-05,0,
1,0.057648,-0.0413109,-0.214609,5.3514e-05,0,
1,0.0510323,-0.0409879,-0.214682,6.10438e-05,0,
1,0.0451115,-0.0405984,-0.214744,6.69815e-05,0,
1,0.0398209,-0.0401373,-0.214797,7.15184e-05,0,
1,0.0351001,-0.0395977,-0.214841,7.4795e-05,0,
1,0.0308929,-0.0389695,-0.214878,7.68999e-05,0,
1,0.0271475,-0.0382385,-0.214909,7.78631e-05,0,
1,0.0238164,-0.0373849,-0.214935,7.76419e-05,0,
1,0.0208562,-0.0363811,-0.214955,7.60947e-05,0,
1,0.0182274,-0.0351883,-0.214972,7.29415e-05,0,
1,0.0158944,-0.0337539,-0.214984,6.77287e-05,0,
1,0.0138249,-0.0320112,-0.214994,5.98813e-05,0,
1,0.0119898,-0.0298904,-0.215,4.90569e-05,0,
1,0.0103632,-0.0273531,-0.215005,3.59601e-05,0,
1,0.00892169,-0.0244507,-0.215007,2.28807e-05,0,
1,0.00764438,-0.0213533,-0.215009,1.25199e-05,0,
1,0.00651264,-0.018286,-0.21501,5.98183e-06,0,
1,0.00550983,-0.0154235,-0.215011,2.56144e-06,0,
1,0.00462115,-0.0128476,-0.215011,1.00301e-06,0,
1,0.00383341,-0.0105714,-0.215012,3.61379e-07,0,
1,0.0031349,-0.00857499,-0.215011,1.18763e-07,0,
1,0.00251518,-0.00682734,-0.215012,3.47726e-08,0,
1,0.00196502,-0.00529672,-0.215012,8.69684e-09,0,
1,0.00147619,-0.00395403,-0.215013,1.72871e-09,0,
1,0.00104139,-0.00277372,-0.215012,2.39596e-10,0,
1,0.000654158,-0.00173367,-0.215013,1.77898e-11,0,
1,0.000308731,-0.000814792,-0.215012,3.8794e-13,0,

4,0,0,-0.207003,0,0,
4,9,0,-0.110838,0,0,
4,8.99969,0.0146491,-0.110838,2.44243e-10,0,
4,8.99934,0.0312087,-0.110838,1.133e-08,0,
4,8.99894,0.0499465,-0.110838,1.54671e-07,0,
4,8.9985,0.0711452,-0.110838,1.12201e-06,0,
4,8.99799,0.0950897,-0.110838,5.56098e-06,0,
4,8.99742,0.121977,-0.110838,2.09881e-05,0,
4,8.99677,0.151693,-0.110837,6.26068e-05,0,
4,8.99605,0.183499,-0.110838,0.000148259,0,
4,8.99522,0.215976,-0.110837,0.000280513,0,
4,8.99429,0.247561,-0.110837,0.000437208,0,
4,8.99324,0.277213,-0.110837,0.000589914,0,
4,8.99205,0.3046,-0.110837,0.000719916,0,
4,8.9907,0.329816,-0.110836,0.000825132,0,
4,8.98919,0.35303,-0.110836,0.000913457,0,
4,8.98747,0.374435,-0.110835,0.000986664,0,
4,8.98553,0.3943,-0.110834,0.00104455,0,
4,8.98334,0.412912,-0.110833,0.00109047,0,
4,8.98087,0.430495,-0.110832,0.00112926,0,
4,8.97807,0.447219,-0.110831,0.00116204,0,
4,8.97491,0.463226,-0.11083,0.00119011,0,
4,8.97134,0.478634,-0.110828,0.00121447,0,
4,8.96731,0.493541,-0.110826,0.00123585,0,
4,8.96276,0.508032,-0.110823,0.00125479,0,
4,8.95762,0.522179,-0.110821,0.00127166,0,
4,8.95182,0.536042,-0.110817,0.00128674,0,
4,8.94526,0.549673,-0.110814,0.0013002,0,
4,8.93787,0.563117,-0.11081,0.00131213,0,
4,8.92952,0.576413,-0.110806,0.00132256,0,
4,8.92011,0.589593,-0.110801,0.00133148,0,
4,8.90949,0.602685,-0.110796,0.00133883,0,
4,8.89751,0.615713,-0.11079,0.00134451,0,
4,8.88402,0.628696,-0.110784,0.00134838,0,
4,8.86881,0.641652,-0.110778,0.00135031,0,
4,8.85169,0.654594,-0.110772,0.00135011,0,
4,8.83242,0.667535,-0.110766,0.00134757,0,
4,8.81074,0.680486,-0.11076,0.00134247,0,
4,8.78637,0.693455,-0.110755,0.00133453,0,
4,8.75901,0.706454,-0.110751,0.00132353,0,
4,8.7283,0.719494,-0.110749,0.00131018,0,
4,8.69387,0.732613,-0.11075,0.0012913,0,
4,8.65533,0.745862,-0.110756,0.00126874,0,
4,8.61222,0.759288,-0.110767,0.00124258,0,
4,8.56407,0.772946,-0.110785,0.0012123,0,
4,8.5104,0.78691,-0.110812,0.00117716,0,
4,8.45065,0.801277,-0.110851,0.00113607,0,
4,8.38429,0.816185,-0.110905,0.00108741,0,
4,8.31073,0.831816,-0.110979,0.00102878,0,
4,8.22941,0.848403,-0.111075,0.000956764,0,
4,8.13974,0.866203,-0.111202,0.000866898,0,
4,8.04115,0.88541,-0.111361,0.000754807,0,
4,7.93313,0.905929,-0.111559,0.000619596,0,
4,7.81519,0.927038,-0.111798,0.000472431,0,
4,7.68693,0.947171,-0.112086,0.000329439,0,
4,7.54803,0.96426,-0.112435,0.000207294,0,
4,7.39831,0.976591,-0.112848,9.30634e-05,0,
4,7.23771,0.983537,-0.113341,2.8097e-05,0,
4,7.06634,0.986069,-0.113915,4.5885e-06,0,
4,6.88453,0.986208,-0.114568,1.65125e-07,0,
4,6.69275,0.985756,-0.115306,1.03547e-08,0,
4,6.49173,0.98559,-0.116141,5.7014e-08,0,
4,6.28238,0.985831,-0.117084,3.66126e-08,0,
4,6.06579,0.986309,-0.118147,2.02145e-08,0,
4,5.84328,0.986871,-0.119339,1.44099e-08,0,
4,5.61626,0.987464,-0.12067,1.32292e-08,0,
4,5.3863,0.988091,-0.122145,1.37229e-08,0,
4,5.15502,0.988772,-0.123772,1.49117e-08,0,
4,4.92406,0.98952,-0.125554,1.64948e-08,0,
4,4.69507,0.990348,-0.127493,1.83642e-08,0,
4,4.46961,0.991258,-0.129588,2.03429e-08,0,
4,4.24915,0.992229,-0.131836,2.20756e-08,0,
4,4.03501,0.9932,-0.134231,2.32874e-08,0,
4,3.82836,0.994107,-0.136763,2.44967e-08,0,
4,3.63018,0.994977,-0.139418,2.77372e-08,0,
4,3.44125,0.996027,-0.142181,3.76581e-08,0,
4,3.26217,0.997635,-0.145036,1.34991e-07,0,
4,3.09333,1.00004,-0.147962,1.1478e-06,0,
4,2.93497,1.00288,-0.150941,4.57142e-06,0,
4,2.78715,1.00517,-0.15395,7.40971e-06,0,
4,2.64979,1.00565,-0.156959,1.9001e-06,0,
4,2.52268,1.00345,-0.159931,-1.7415e-05,0,
4,2.40551,0.998362,-0.162825,-5.11196e-05,0,
4,2.29789,0.990735,-0.165606,-9.59841e-05,0,
4,2.19939,0.981265,-0.168246,-0.000146896,0,
4,2.10949,0.970715,-0.170727,-0.000198717,0,
4,2.02768,0.959748,-0.173041,-0.000247505,0,
4,1.95343,0.948861,-0.175185,-0.00029094,0,
4,1.88618,0.938379,-0.177161,-0.000328151,0,
4,1.82542,0.92849,-0.178974,-0.000359285,0,
4,1.77062,0.919282,-0.180631,-0.000385036,0,
4,1.72128,0.910782,-0.18214,-0.000406289,0,
4,1.67693,0.902975,-0.183511,-0.000423911,0,
4,1.63713,0.89583,-0.184753,-0.000438628,0,
4,1.60144,0.889304,-0.185874,-0.000450964,0,
4,1.56949,0.883357,-0.186885,-0.00046124,0,
4,1.54091,0.877946,-0.187793,-0.000470613,0,
4,1.51537,0.873013,-0.188611,-0.000478978,0,
4,1.49167,0.868358,-0.18937,-0.000485451,0,
4,1.46926,0.863881,-0.190092,-0.000491253,0,
4,1.44801,0.859559,-0.190778,-0.000496614,0,
4,1.42781,0.855373,-0.191432,-0.000501364,0,
4,1.40855,0.851307,-0.192056,-0.000505521,0,
4,1.39015,0.847344,-0.192654,-0.000509116,0,
4,1.37252,0.84347,-0.193228,-0.000512207,0,
4,1.3556,0.839669,-0.19378,-0.000514894,0,
4,1.3393,0.835927,-0.194312,-0.000517351,0,
4,1.32357,0.832228,-0.194826,-0.000519851,0,
4,1.30836,0.828552,-0.195322,-0.000522814,0,
4,1.29362,0.824877,-0.195804,-0.000526855,0,
4,1.2793,0.821177,-0.196271,-0.000532832,0,
4,1.26537,0.817417,-0.196726,-0.000541971,0,
4,1.25179,0.813551,-0.197169,-0.000555881,0,
4,1.23852,0.809522,-0.1976,-0.00057667,0,
4,1.22554,0.805254,-0.198022,-0.000607032,0,
4,1.21282,0.80065,-0.198433,-0.000650241,0,
4,1.20034,0.795591,-0.198834,-0.000710051,0,
4,1.18806,0.789934,-0.199225,-0.000790423,0,
4,1.17599,0.783527,-0.199607,-0.000895056,0,
4,1.16408,0.776222,-0.199979,-0.00102674,0,
4,1.15233,0.767899,-0.200339,-0.00118667,0,
4,1.14073,0.758493,-0.200689,-0.00137387,0,
4,1.12925,0.748004,-0.201027,-0.00158508,0,
4,1.11788,0.736499,-0.201352,-0.001815,0,
4,1.10661,0.724096,-0.201664,-0.00205712,0,
4,1.09543,0.710943,-0.201963,-0.00230454,0,
4,1.08432,0.697198,-0.202249,-0.00255082,0,
4,1.07328,0.683013,-0.202522,-0.00279046,0,
4,1.0623,0.668522,-0.202782,-0.00301922,0,
4,1.05136,0.65384,-0.20303,-0.00323391,0,
4,1.04044,0.639035,-0.203265,-0.0034325,0,
4,1.0295,0.624156,-0.20349,-0.00361401,0,
4,1.01855,0.60926,-0.203703,-0.00377775,0,
4,1.00757,0.594388,-0.203906,-0.00392333,0,
4,0.996544,0.579573,-0.204099,-0.00405079,0,
4,0.98547,0.564836,-0.204282,-0.00416042,0,
4,0.974334,0.550189,-0.204455,-0.00425267,0,
4,0.963124,0.535642,-0.204619,-0.00432813,0,
4,0.951826,0.521196,-0.204775,-0.00438745,0,
4,0.940428,0.506848,-0.204922,-0.00443132,0,
4,0.928915,0.492595,-0.205062,-0.00446045,0,
4,0.917272,0.478427,-0.205194,-0.00447556,0,
4,0.905481,0.464333,-0.205318,-0.00447738,0,
4,0.893524,0.450299,-0.205436,-0.00446662,0,
4,0.881383,0.436311,-0.205547,-0.00444402,0,
4,0.869035,0.422349,-0.205652,-0.00441031,0,
4,0.856459,0.408393,-0.205751,-0.00436625,0,
4,0.843629,0.394421,-0.205844,-0.00431266,0,
4,0.830518,0.380406,-0.205932,-0.00425043,0,
4,0.817097,0.366318,-0.206015,-0.00418053,0,
4,0.803334,0.352125,-0.206094,-0.00410411,0,
4,0.789195,0.337786,-0.206168,-0.00402255,0,
4,0.774643,0.323257,-0.206239,-0.0039375,0,
4,0.759639,0.308482,-0.206308,-0.003851,0,
4,0.744138,0.293396,-0.206374,-0.00376559,0,
4,0.728096,0.277918,-0.206441,-0.00368437,0,
4,0.711463,0.26195,-0.206509,-0.00361112,0,
4,0.694189,0.245371,-0.20658,-0.00355019,0,
4,0.676218,0.228034,-0.206659,-0.00350638,0,
4,0.657495,0.209771,-0.206748,-0.00348417,0,
4,0.637962,0.190401,-0.206855,-0.00348494,0,
4,0.617561,0.16978,-0.20698,-0.00350999,0,
4,0.596848,0.14843,-0.207129,-0.00356177,0,
4,0.576557,0.127165,-0.2073,-0.00362583,0,
4,0.556564,0.106088,-0.207472,-0.00368809,0,
4,0.536763,0.0852866,-0.207682,-0.00376419,0,
4,0.517057,0.0646038,-0.207788,-0.00378649,0,
4,0.497368,0.0436938,-0.207794,-0.00378625,0,
4,0.477632,0.0224297,-0.207845,-0.00380226,0,
4,0.457804,0.00105381,-0.207914,-0.0038237,0,
4,0.437857,-0.0199373,-0.20801,-0.00383829,0,
4,0.417786,-0.0399183,-0.208124,-0.00383683,0,
4,0.397605,-0.0583193,-0.208252,-0.00381545,0,
4,0.377348,-0.074879,-0.208393,-0.00377632,0,
4,0.357066,-0.0898763,-0.208509,-0.00363555,0,
4,0.336828,-0.103623,-0.208602,-0.00349386,0,
4,0.316717,-0.116175,-0.208684,-0.00333995,0,
4,0.296825,-0.127566,-0.208747,-0.00317037,0,
4,0.27725,-0.137846,-0.208792,-0.00298823,0,
4,0.258095,-0.147081,-0.208816,-0.00279692,0,
4,0.239458,-0.155348,-0.20882,-0.00259976,0,
4,0.221432,-0.162727,-0.208802,-0.00239988,0,
4,0.2041,-0.1693,-0.208764,-0.00220014,0,
4,0.187537,-0.175147,-0.208706,-0.00200304,0,
4,0.171798,-0.180342,-0.20863,-0.00181069,0,
4,0.156928,-0.184954,-0.208539,-0.0016248,0,
4,0.142956,-0.189042,-0.208437,-0.0014467,0,
4,0.129894,-0.192662,-0.208326,-0.00127735,0,
4,0.117744,-0.195858,-0.20821,-0.0011174,0,
4,0.106492,-0.19867,-0.208093,-0.000967224,0,
4,0.0961173,-0.201132,-0.207978,-0.000826961,0,
4,0.0865883,-0.203272,-0.207866,-0.000696561,0,
4,0.0778675,-0.205111,-0.20776,-0.000575825,0,
4,0.0699123,-0.206668,-0.207661,-0.000464442,0,
4,0.062677,-0.207957,-0.20757,-0.000362016,0,
4,0.056114,-0.208987,-0.207487,-0.000268099,0,
4,0.0501747,-0.209763,-0.207413,-0.000182213,0,
4,0.0448114,-0.210287,-0.207347,-0.00010387,0,
4,0.039977,-0.210554,-0.207289,-3.25972e-05,0,
4,0.0356266,-0.210557,-0.207238,3.20518e-05,0,
4,0.0317171,-0.210279,-0.207194,9.04708e-05,0,
4,0.0282081,-0.209697,-0.207157,0.000142978,0,
4,0.0250617,-0.208774,-0.207125,0.000189784,0,
4,0.0222427,-0.207461,-0.207098,0.000230942,0,
4,0.0197189,-0.205691,-0.207076,0.000266279,0,
4,0.0174603,-0.203366,-0.207057,0.000295295,0,
4,0.0154398,-0.200359,-0.207043,0.000317027,0,
4,0.0136326,-0.196495,-0.207031,0.000329913,0,
4,0.0120162,-0.191551,-0.207023,0.000331754,0,
4,0.0105703,-0.18526,-0.207016,0.00032,0,
4,0.00927657,-0.177344,-0.207012,0.00029264,0,
4,0.00811839,-0.167585,-0.207009,0.000249777,0,
4,0.0070809,-0.155938,-0.207007,0.000195317,0,
4,0.0061507,-0.142636,-0.207005,0.000137363,0,
4,0.00531578,-0.128195,-0.207005,8.5727e-05,0,
4,0.00456537,-0.113294,-0.207004,4.72739e-05,0,
4,0.00388979,-0.0985617,-0.207004,2.31207e-05,0,
4,0.00328037,-0.0844319,-0.207004,1.00812e-05,0,
4,0.00272934,-0.0711258,-0.207004,3.91363e-06,0,
4,0.0022297,-0.0587101,-0.207003,1.3331e-06,0,
4,0.00177519,-0.0471647,-0.207004,3.84808e-07,0,
4,0.00136016,-0.0364287,-0.207003,8.79973e-08,0,
4,0.000979511,-0.0264253,-0.207004,1.40135e-08,0,
4,0.00062865,-0.0170734,-0.207003,1.18986e-09,0,
4,0.000303409,-0.00829217,-0.207004,2.88689e-11,0,

6,0,0,-0.0849413,0,0,
6,9,0,-0.0875126,0,0,
6,8.99969,0.013896,-0.0875122,2.05246e-10,0,
6,8.99934,0.029566,-0.0875125,9.47222e-09,0,
6,8.99895,0.0472542,-0.0875122,1.28406e-07,0,
6,8.9985,0.067218,-0.0875124,9.25019e-07,0,
6,8.99801,0.0897205,-0.0875122,4.56101e-06,0,
6,8.99744,0.114958,-0.0875123,1.72038e-05,0,
6,8.99681,0.142878,-0.0875121,5.17054e-05,0,
6,8.99609,0.172899,-0.0875122,0.000124595,0,
6,8.99529,0.203802,-0.0875119,0.00024158,0,
6,8.99438,0.234122,-0.0875119,0.000386126,0,
6,8.99336,0.262777,-0.0875116,0.000531719,0,
6,8.9922,0.289306,-0.0875114,0.000661453,0,
6,8.9909,0.313745,-0.087511,0.00076529,0,
6,8.98944,0.336267,-0.0875106,0.000853152,0,
6,8.98779,0.357041,-0.0875099,0.000926838,0,
6,8.98593,0.376318,-0.0875093,0.000985278,0,
6,8.98383,0.394365,-0.0875084,0.00103281,0,
6,8.98147,0.411392,-0.0875074,0.00107308,0,
6,8.97881,0.427566,-0.0875061,0.00110747,0,
6,8.97581,0.443026,-0.0875046,0.00113732,0,
6,8.97244,0.457891,-0.0875029,0.00116363,0,
6,8.96863,0.472261,-0.0875008,0.00118715,0,
6,8.96435,0.486219,-0.0874984,0.00120845,0,
6,8.95953,0.499841,-0.0874956,0.00122792,0,
6,8.95409,0.513187,-0.0874924,0.00124585,0,
6,8.94798,0.526312,-0.0874887,0.00126242,0,
6,8.94109,0.539264,-0.0874845,0.00127773,0,
6,8.93334,0.552084,-0.0874797,0.0012918,0,
6,8.92463,0.564806,-0.0874743,0.00130462,0,
6,8.91482,0.577463,-0.0874682,0.00131608,0,
6,8.90379,0.590078,-0.0874614,0.00132608,0,
6,8.89139,0.602676,-0.0874538,0.00133443,0,
6,8.87746,0.615273,-0.0874455,0.00134094,0,
6,8.86181,0.627884,-0.0874364,0.00134538,0,
6,8.84423,0.640521,-0.0874266,0.0013475,0,
6,8.82452,0.653192,-0.087416,0.00134705,0,
6,8.80241,0.665903,-0.0874048,0.00134376,0,
6,8.77763,0.678661,-0.087393,0.00133738,0,
6,8.74989,0.691473,-0.087381,0.00132798,0,
6,8.71885,0.704351,-0.0873689,0.00131591,0,
6,8.68417,0.717337,-0.0873574,0.00129725,0,
6,8.64545,0.730478,-0.0873474,0.00127509,0,
6,8.60229,0.743803,-0.0873389,0.00124909,0,
6,8.55423,0.757349,-0.0873327,0.00121881,0,
6,8.50082,0.771167,-0.0873297,0.00118366,0,
6,8.44155,0.785338,-0.0873311,0.00114275,0,
6,8.37592,0.799981,-0.0873386,0.00109477,0,
6,8.30339,0.815266,-0.087354,0.00103773,0,
6,8.22344,0.831426,-0.0873798,0.000968751,0,
6,8.13555,0.848746,-0.0874166,0.00088395,0,
6,8.0392,0.867485,-0.0874668,0.000779282,0,
6,7.93391,0.88766,-0.0875249,0.000653343,0,
6,7.81927,0.908673,-0.0875958,0.000515154,0,
6,7.6949,0.929082,-0.0876685,0.000378195,0,
6,7.56054,0.946894,-0.0877625,0.000256768,0,
6,7.41603,0.96046,-0.0878573,0.000149774,0,
6,7.26132,0.969113,-0.0879767,5.89602e-05,0,
6,7.09653,0.973264,-0.088124,1.51903e-05,0,
6,6.92195,0.974323,-0.0882809,1.31104e-06,0,
6,6.73802,0.973988,-0.0884523,-5.85656e-07,0,
6,6.5454,0.973447,-0.0886355,-2.30891e-07,0,
6,6.34489,0.973165,-0.0888332,-2.32099e-08,0,
6,6.1375,0.973142,-0.0890466,1.05107e-08,0,
6,5.92439,0.973239,-0.0892763,7.44794e-09,0,
6,5.70687,0.973353,-0.0895218,3.83906e-09,0,
6,5.48633,0.973447,-0.089782,2.33667e-09,0,
6,5.26426,0.973522,-0.0900549,1.81753e-09,0,
6,5.04218,0.97359,-0.090338,1.7096e-09,0,
6,4.82159,0.973664,-0.0906279,1.81326e-09,0,
6,4.60398,0.973755,-0.0909207,1.96713e-09,0,
6,4.39071,0.973857,-0.0912121,1.85002e-09,0,
6,4.18307,0.973932,-0.0914972,9.98754e-10,0,
6,3.98218,0.973911,-0.091771,-8.12822e-10,0,
6,3.78902,0.973741,-0.0920286,-2.92669e-09,0,
6,3.60438,0.973473,-0.0922653,-3.84183e-09,0,
6,3.42888,0.973319,-0.092477,2.56918e-09,0,
6,3.26296,0.973585,-0.0926602,1.21867e-07,0,
6,3.10691,0.974464,-0.092811,8.20104e-07,0,
6,2.96084,0.975815,-0.0929279,2.37333e-06,0,
6,2.82473,0.977133,-0.0930121,3.02862e-06,0,
6,2.69844,0.977736,-0.0930663,-6.90646e-07,0,
6,2.58172,0.977023,-0.0930927,-1.15623e-05,0,
6,2.47424,0.974649,-0.0930933,-3.05271e-05,0,
6,2.37559,0.970569,-0.0930704,-5.68873e-05,0,
6,2.28535,0.964985,-0.0930271,-8.8896e-05,0,
6,2.20301,0.958242,-0.092967,-0.000124345,0,
6,2.1281,0.950731,-0.0928937,-0.000161061,0,
6,2.06009,0.942823,-0.092811,-0.000197234,0,
6,1.99849,0.934823,-0.092722,-0.000231554,0,
6,1.9428,0.926966,-0.0926296,-0.000263214,0,
6,1.89255,0.919416,-0.0925363,-0.000291834,0,
6,1.84728,0.912278,-0.092444,-0.000317343,0,
6,1.80655,0.905611,-0.0923542,-0.000339783,0,
6,1.76996,0.899444,-0.0922678,-0.000359139,0,
6,1.73712,0.893788,-0.0921858,-0.000376806,0,
6,1.70768,0.888597,-0.0921086,-0.000392882,0,
6,1.67998,0.883636,-0.092033,-0.000406459,0,
6,1.65329,0.878793,-0.0919571,-0.000419058,0,
6,1.62754,0.87406,-0.0918812,-0.000430996,0,
6,1.60265,0.869429,-0.0918052,-0.000442109,0,
6,1.57854,0.864894,-0.0917294,-0.000452441,0,
6,1.55515,0.860448,-0.0916536,-0.000462039,0,
6,1.53242,0.856083,-0.0915779,-0.000470946,0,
6,1.5103,0.851793,-0.0915023,-0.000479193,0,
6,1.48874,0.84757,-0.0914268,-0.000486805,0,
6,1.46769,0.843408,-0.0913515,-0.0004938,0,
6,1.44712,0.8393,-0.0912762,-0.000500186,0,
6,1.42698,0.835239,-0.0912009,-0.000505968,0,
6,1.40725,0.83122,-0.0911258,-0.000511148,0,
6,1.38788,0.827236,-0.0910506,-0.000515731,0,
6,1.36886,0.823281,-0.0909755,-0.000519729,0,
6,1.35015,0.819348,-0.0909005,-0.000523176,0,
6,1.33173,0.815431,-0.0908254,-0.000526134,0,
6,1.31357,0.811521,-0.0907503,-0.000528712,0,
6,1.29566,0.80761,-0.0906752,-0.000531091,0,
6,1.27797,0.803686,-0.0906,-0.000533547,0,
6,1.26048,0.799735,-0.0905249,-0.000536488,0,
6,1.24318,0.795738,-0.0904497,-0.000540501,0,
6,1.22605,0.791672,-0.0903744,-0.000546401,0,
6,1.20907,0.787504,-0.0902992,-0.000555301,0,
6,1.19223,0.783191,-0.0902238,-0.00056865,0,
6,1.17551,0.778677,-0.0901484,-0.00058842,0,
6,1.1589,0.773889,-0.0900728,-0.00061696,0,
6,1.14238,0.768735,-0.089997,-0.00065715,0,
6,1.12595,0.7631,-0.089921,-0.000712289,0,
6,1.10959,0.756849,-0.0898449,-0.000785886,0,
6,1.09329,0.749837,-0.0897687,-0.000881335,0,
6,1.07704,0.741919,-0.0896925,-0.00100145,0,
6,1.06081,0.732966,-0.0896167,-0.00114789,0,
6,1.04459,0.722886,-0.0895417,-0.00132083,0,
6,1.02836,0.711643,-0.089468,-0.0015187,0,
6,1.01211,0.699256,-0.0893965,-0.00173819,0,
6,0.99583,0.68579,-0.0893278,-0.00197483,0,
6,0.97951,0.671344,-0.0892628,-0.0022236,0,
6,0.963136,0.656033,-0.0892021,-0.0024795,0,
6,0.946694,0.639975,-0.0891462,-0.00273803,0,
6,0.930172,0.623282,-0.0890957,-0.00299543,0,
6,0.913555,0.606052,-0.0890508,-0.00324873,0,
6,0.896829,0.588375,-0.0890118,-0.00349538,0,
6,0.879979,0.570324,-0.088979,-0.00373319,0,
6,0.862989,0.551964,-0.0889521,-0.00395988,0,
6,0.845842,0.533357,-0.0889323,-0.00417269,0,
6,0.828521,0.514561,-0.0889171,-0.00436779,0,
6,0.811008,0.495645,-0.0889128,-0.00454007,0,
6,0.793282,0.476688,-0.0889025,-0.00468178,0,
6,0.775322,0.457789,-0.0889287,-0.00479645,0,
6,0.757107,0.438978,-0.088895,-0.00488103,0,
6,0.738612,0.420035,-0.0887475,-0.00488285,0,
6,0.719813,0.400688,-0.0885943,-0.00490122,0,
6,0.700681,0.380827,-0.0884511,-0.00493878,0,
6,0.681188,0.360411,-0.0883221,-0.00499338,0,
6,0.661304,0.339418,-0.0882113,-0.00506342,0,
6,0.640996,0.31784,-0.0881168,-0.00514625,0,
6,0.620228,0.295682,-0.0880386,-0.00523877,0,
6,0.598964,0.272964,-0.0879759,-0.00533709,0,
6,0.577166,0.249734,-0.0879287,-0.00543652,0,
6,0.554791,0.226074,-0.087897,-0.00553164,0,
6,0.531799,0.2021,-0.0878791,-0.00561637,0,
6,0.508144,0.177949,-0.0878736,-0.00568418,0,
6,0.48378,0.15375,-0.0878745,-0.00572828,0,
6,0.459585,0.130401,-0.0878764,-0.00574092,0,
6,0.436695,0.108961,-0.0878847,-0.00571895,0,
6,0.414961,0.0894132,-0.0879138,-0.00566402,0,
6,0.394252,0.0718534,-0.0879889,-0.00558079,0,
6,0.374445,0.0564422,-0.0881298,-0.00547733,0,
6,0.355433,0.0432475,-0.0883589,-0.00536503,0,
6,0.337122,0.0320434,-0.0885761,-0.00525001,0,
6,0.319433,0.0222166,-0.0886594,-0.00496004,0,
6,0.3023,0.0133169,-0.0886908,-0.00473467,0,
6,0.28567,0.00521393,-0.08873,-0.0045091,0,
6,0.269507,-0.00218618,-0.0887427,-0.0042794,0,
6,0.253785,-0.00896463,-0.0887373,-0.00404749,0,
6,0.238493,-0.01519,-0.088708,-0.00381457,0,
6,0.223631,-0.0209209,-0.0886541,-0.00358204,0,
6,0.209207,-0.0262073,-0.0885747,-0.00335116,0,
6,0.195237,-0.031092,-0.0884697,-0.00312322,0,
6,0.181744,-0.0356118,-0.0883404,-0.00289943,0,
6,0.168754,-0.0397986,-0.0881885,-0.00268096,0,
6,0.156292,-0.0436798,-0.0880172,-0.00246887,0,
6,0.144384,-0.0472795,-0.0878301,-0.00226416,0,
6,0.133052,-0.0506186,-0.0876314,-0.00206767,0,
6,0.122315,-0.0537154,-0.0874256,-0.0018801,0,
6,0.112183,-0.0565862,-0.0872169,-0.00170202,0,
6,0.102665,-0.0592452,-0.0870094,-0.0015338,0,
6,0.0937597,-0.0617048,-0.0868068,-0.00137568,0,
6,0.0854609,-0.0639764,-0.0866121,-0.00122773,0,
6,0.077757,-0.0660699,-0.0864275,-0.00108987,0,
6,0.0706309,-0.0679942,-0.0862548,-0.00096193,0,
6,0.0640611,-0.0697572,-0.086095,-0.000843615,0,
6,0.0580229,-0.0713663,-0.0859487,-0.000734553,0,
6,0.0524888,-0.0728276,-0.0858159,-0.000634313,0,
6,0.0474296,-0.074147,-0.0856963,-0.00054242,0,
6,0.042815,-0.0753291,-0.0855894,-0.000458374,0,
6,0.0386145,-0.0763781,-0.0854945,-0.000381667,0,
6,0.0347975,-0.0772972,-0.0854108,-0.000311789,0,
6,0.0313344,-0.0780883,-0.0853372,-0.000248248,0,
6,0.0281964,-0.0787524,-0.0852729,-0.000190573,0,
6,0.0253561,-0.0792887,-0.085217,-0.000138324,0,
6,0.0227875,-0.0796945,-0.0851688,-9.11045e-05,0,
6,0.0204662,-0.0799648,-0.0851271,-4.8565e-05,0,
6,0.0183694,-0.0800908,-0.0850917,-1.04208e-05,0,
6,0.016476,-0.0800597,-0.0850613,2.35311e-05,0,
6,0.0147664,-0.0798523,-0.085036,5.33824e-05,0,
6,0.0132228,-0.0794409,-0.0850145,7.90688e-05,0,
6,0.0118288,-0.0787861,-0.0849973,0.0001003,0,
6,0.0105693,-0.0778321,-0.0849827,0.000116465,0,
6,0.00943073,-0.0765018,-0.0849718,0.00012653,0,
6,0.00840063,-0.0746926,-0.0849627,0.000129045,0,
6,0.00746774,-0.0722803,-0.0849569,0.000122526,0,
6,0.00662185,-0.0691422,-0.0849518,0.000106567,0,
6,0.00585371,-0.0652083,-0.0849495,8.33679e-05,0,
6,0.00515491,-0.0605261,-0.0849469,5.79601e-05,0,
6,0.00451788,-0.0552778,-0.0849466,3.58033e-05,0,
6,0.00393573,-0.049716,-0.084945,1.98389e-05,0,
6,0.00340221,-0.0440708,-0.0849455,9.97223e-06,0,
6,0.00291168,-0.0384987,-0.084944,4.56991e-06,0,
6,0.00245897,-0.0330846,-0.084945,1.89772e-06,0,
6,0.00203939,-0.0278624,-0.0849434,6.99851e-07,0,
6,0.00164864,-0.0228364,-0.0849447,2.20358e-07,0,
6,0.00128281,-0.0179945,-0.0849427,5.51977e-08,0,
6,0.000938257,-0.0133163,-0.0849446,9.64239e-09,0,
6,0.000611645,-0.00877654,-0.0849421,8.95079e-10,0,
6,0.000299862,-0.00434767,-0.0849445,2.32668e-11,0,

10,0.000296632,0.00777084,0.0280218,-7.17366e-11,0,
10,0.000596102,0.0156225,0.0280241,-2.66174e-09,0,
10,0.000900397,0.0236073,0.0280218,-2.70949e-08,0,
10,0.00121153,0.031778,0.0280236,-1.45779e-07,0,
10,0.00153158,0.0401871,0.0280217,-5.45951e-07,0,
10,0.00186264,0.048885,0.0280232,-1.62491e-06,0,
10,0.00220692,0.0579161,0.0280216,-4.12673e-06,0,
10,0.00256668,0.0673112,0.0280228,-9.31234e-06,0,
10,0.00294431,0.0770767,0.0280213,-1.91077e-05,0,
10,0.00334229,0.0871777,0.0280223,-3.60856e-05,0,
10,0.00376326,0.0975213,0.0280209,-6.30512e-05,0,
10,0.00421,0.107946,0.0280216,-0.000102074,0,
10,0.00468544,0.118232,0.02802,-0.000153244,0,
10,0.00519274,0.128138,0.0280202,-0.000213978,0,
10,0.00573524,0.137448,0.0280183,-0.000279617,0,
10,0.00631651,0.146018,0.0280175,-0.000345058,0,
10,0.00694041,0.153783,0.0280148,-0.000406299,0,
10,0.00761104,0.160751,0.0280129,-0.000461107,0,
10,0.00833284,0.166977,0.0280089,-0.00050885,0,
10,0.00911058,0.172542,0.0280052,-0.000549965,0,
10,0.0099494,0.17753,0.0279996,-0.000585425,0,
10,0.0108548,0.182028,0.0279938,-0.000616374,0,
10,0.0118329,0.186109,0.027986,-0.000643919,0,
10,0.0128901,0.189839,0.0279775,-0.000669041,0,
10,0.0140333,0.193276,0.0279669,-0.000692575,0,
10,0.0152702,0.196465,0.0279551,-0.000715219,0,
10,0.0166089,0.199447,0.0279412,-0.000737558,0,
10,0.0180584,0.202255,0.0279254,-0.000760086,0,
10,0.0196282,0.204917,0.0279072,-0.000783232,0,
10,0.0213288,0.207456,0.0278865,-0.000807376,0,
10,0.0231714,0.209895,0.0278631,-0.000832866,0,
10,0.0251682,0.212249,0.0278365,-0.00086003,0,
10,0.0273326,0.214535,0.0278066,-0.000889187,0,
10,0.0296789,0.216767,0.0277727,-0.00092065,0,
10,0.0322227,0.218956,0.0277349,-0.00095474,0,
10,0.0349809,0.221115,0.0276921,-0.00099179,0,
10,0.0379719,0.223254,0.0276444,-0.00103214,0,
10,0.0412155,0.225382,0.0275907,-0.00107617,0,
10,0.0447333,0.22751,0.027531,-0.00112425,0,
10,0.0485489,0.229645,0.027464,-0.00117681,0,
10,0.0526875,0.231797,0.0273897,-0.0012343,0,
10,0.0571768,0.233976,0.0273066,-0.0012972,0,
10,0.0620466,0.236189,0.0272146,-0.00136605,0,
10,0.0673295,0.238447,0.0271123,-0.00144142,0,
10,0.0730607,0.24076,0.0269992,-0.00152392,0,
10,0.0792784,0.243137,0.0268741,-0.00161425,0,
10,0.0860241,0.245589,0.0267365,-0.00171312,0,
10,0.0933428,0.24813,0.0265852,-0.00182135,0,
10,0.101283,0.250772,0.0264196,-0.00193979,0,
10,0.109899,0.253531,0.0262389,-0.00206939,0,
10,0.119247,0.256422,0.0260428,-0.00221115,0,
10,0.12939,0.259466,0.0258307,-0.00236615,0,
10,0.140395,0.262685,0.0256032,-0.00253554,0,
10,0.152337,0.266103,0.0253608,-0.00272049,0,
10,0.165296,0.269752,0.0251044,-0.00292224,0,
10,0.179357,0.273668,0.0248365,-0.00314201,0,
10,0.194615,0.277892,0.024559,-0.00338102,0,
10,0.211171,0.282478,0.0242772,-0.00364035,0,
10,0.229138,0.287488,0.0239942,-0.00392086,0,
10,0.248635,0.293002,0.0237186,-0.00422306,0,
10,0.269793,0.299116,0.0234545,-0.00454687,0,
10,0.292753,0.305951,0.0232157,-0.0048914,0,
10,0.317669,0.313659,0.0229993,-0.00525305,0,
10,0.344708,0.32243,0.0228376,-0.00562034,0,
10,0.372405,0.33193,0.0226917,-0.00604901,0,
10,0.399623,0.342086,0.0228661,-0.00641156,0,
10,0.426397,0.353614,0.0234149,-0.00650259,0,
10,0.452757,0.367138,0.0238686,-0.00657371,0,
10,0.478735,0.382552,0.024115,-0.0066171,0,
10,0.504358,0.39929,0.0242076,-0.00661851,0,
10,0.529657,0.416752,0.0242095,-0.00657049,0,
10,0.554656,0.43456,0.024174,-0.00647198,0,
10,0.579382,0.452581,0.0241265,-0.00632518,0,
10,0.603859,0.470827,0.0240751,-0.00613263,0,
10,0.628112,0.489353,0.0240156,-0.00589645,0,
10,0.652163,0.508186,0.0239415,-0.00561855,0,
10,0.676035,0.527293,0.0238462,-0.00530161,0,
10,0.699751,0.546557,0.0237267,-0.00495016,0,
10,0.72333,0.56576,0.0235777,-0.00457701,0,
10,0.746795,0.584581,0.023396,-0.00420716,0,
10,0.770165,0.602698,0.0231897,-0.00384587,0,
10,0.79346,0.619933,0.0229666,-0.00349406,0,
10,0.816699,0.636245,0.02273,-0.00315378,0,
10,0.839903,0.65165,0.0224797,-0.00282869,0,
10,0.863088,0.666149,0.0222141,-0.00252321,0,
10,0.886275,0.679714,0.0219328,-0.00224168,0,
10,0.909481,0.692303,0.0216361,-0.00198768,0,
10,0.932723,0.70389,0.0213257,-0.00176331,0,
10,0.956021,0.714482,0.0210031,-0.00156903,0,
10,0.97939,0.724124,0.02067,-0.00140381,0,
10,1.00285,0.732891,0.0203276,-0.0012655,0,
10,1.02641,0.740878,0.0199768,-0.0011512,0,
10,1.0501,0.748189,0.0196183,-0.00105763,0,
10,1.07392,0.754936,0.0192529,-0.000981401,0,
10,1.0979,0.761225,0.018881,-0.000919287,0,
10,1.12205,0.767155,0.0185029,-0.000868409,0,
10,1.14639,0.772812,0.0181188,-0.000826315,0,
10,1.17093,0.778268,0.0177289,-0.000790966,0,
10,1.19568,0.783582,0.0173331,-0.00076067,0,
10,1.22066,0.788798,0.0169315,-0.000734061,0,
10,1.24589,0.793949,0.0165238,-0.000710213,0,
10,1.27137,0.799053,0.0161097,-0.000689047,0,
10,1.29713,0.804126,0.0156892,-0.000669683,0,
10,1.32317,0.809181,0.0152625,-0.000651454,0,
10,1.34951,0.814227,0.0148292,-0.000633904,0,
10,1.37616,0.819272,0.0143893,-0.000616729,0,
10,1.40313,0.824316,0.0139425,-0.000599719,0,
10,1.43043,0.829359,0.0134886,-0.000582736,0,
10,1.45807,0.8344,0.0130275,-0.000565692,0,
10,1.48607,0.839435,0.012559,-0.00054854,0,
10,1.51444,0.84446,0.012083,-0.000531257,0,
10,1.54318,0.849468,0.0115994,-0.000513836,0,
10,1.57231,0.854453,0.011108,-0.000496274,0,
10,1.60184,0.859406,0.0106087,-0.000478568,0,
10,1.63178,0.864319,0.0101015,-0.000460775,0,
10,1.66213,0.86918,0.00958647,-0.000442996,0,
10,1.69292,0.873978,0.00906338,-0.000425222,0,
10,1.72416,0.878699,0.00853245,-0.000407448,0,
10,1.75585,0.883329,0.00799332,-0.000389686,0,
10,1.78802,0.887853,0.00744669,-0.000371952,0,
10,1.82067,0.892257,0.00689165,-0.000354249,0,
10,1.85383,0.896533,0.00633074,-0.000335778,0,
10,1.88751,0.900685,0.00576858,-0.000308959,0,
10,1.92173,0.904699,0.00519997,-0.000279775,0,
10,1.95652,0.908539,0.00462116,-0.000250629,0,
10,1.9919,0.912184,0.00403466,-0.000222475,0,
10,2.02791,0.915618,0.00343799,-0.00019579,0,
10,2.06456,0.918831,0.00283408,-0.000170532,0,
10,2.10268,0.92187,0.00220589,-0.000146148,0,
10,2.1443,0.924831,0.0015257,-0.000122835,0,
10,2.18977,0.927668,0.000785948,-0.000100502,0,
10,2.23946,0.930302,-1.46785e-05,-7.9307e-05,0,
10,2.29376,0.932654,-0.000881721,-5.99388e-05,0,
10,2.35309,0.934649,-0.00181675,-4.29475e-05,0,
10,2.4179,0.936218,-0.00282326,-2.87712e-05,0,
10,2.48863,0.937317,-0.00390189,-1.77018e-05,0,
10,2.56575,0.937938,-0.00505375,-9.80308e-06,0,
10,2.64971,0.938121,-0.00627766,-4.85328e-06,0,
10,2.74098,0.937969,-0.00757217,-2.32765e-06,0,
10,2.83997,0.937639,-0.00893399,-1.44893e-06,0,
10,2.94709,0.937323,-0.0103592,-1.3413e-06,0,
10,3.06269,0.937212,-0.0118426,-1.2932e-06,0,
10,3.18706,0.937438,-0.0133778,-1.00835e-06,0,
10,3.3204,0.938038,-0.0149576,-5.97976e-07,0,
10,3.46281,0.938938,-0.0165732,-2.764e-07,0,
10,3.61427,0.939994,-0.0182141,-1.12529e-07,0,
10,3.77463,0.941057,-0.0198682,-5.28534e-08,0,
10,3.94358,0.942026,-0.0215223,-3.4798e-08,0,
10,4.12067,0.942874,-0.0231622,-2.84242e-08,0,
10,4.30525,0.943629,-0.024774,-2.52118e-08,0,
10,4.49655,0.944338,-0.0263444,-2.35163e-08,0,
10,4.6936,0.945032,-0.0278615,-2.30911e-08,0,
10,4.89531,0.945721,-0.0293144,-2.43471e-08,0,
10,5.10047,0.94639,-0.0306941,-2.87976e-08,0,
10,5.30776,0.947021,-0.0319934,-3.98978e-08,0,
10,5.51581,0.947596,-0.033207,-6.47392e-08,0,
10,5.72323,0.948112,-0.0343317,-1.18402e-07,0,
10,5.92863,0.948593,-0.0353661,-2.37782e-07,0,
10,6.13069,0.949104,-0.0363103,-5.21406e-07,0,
10,6.32816,0.949739,-0.0371665,-1.17968e-06,0,
10,6.51991,0.950535,-0.0379374,-2.30561e-06,0,
10,6.70495,0.951272,-0.0386284,-2.47822e-06,0,
10,6.88244,0.951255,-0.0392426,4.10059e-06,0,
10,7.0517,0.949311,-0.039787,2.89291e-05,0,
10,7.21224,0.944138,-0.0402605,8.55799e-05,0,
10,7.3637,0.934881,-0.0406721,0.000184595,0,
10,7.5059,0.921319,-0.0410333,0.000292417,0,
10,7.63878,0.903807,-0.041335,0.000407728,0,
10,7.76243,0.883648,-0.0415881,0.000534983,0,
10,7.87701,0.862705,-0.0417911,0.000663858,0,
10,7.9828,0.842491,-0.0419586,0.000781277,0,
10,8.08014,0.823718,-0.042092,0.000879833,0,
10,8.16941,0.806431,-0.0422038,0.000960787,0,
10,8.25106,0.790368,-0.0422964,0.0010279,0,
10,8.32554,0.775206,-0.0423764,0.00108463,0,
10,8.39331,0.760682,-0.0424447,0.00113334,0,
10,8.45484,0.74661,-0.0425042,0.00117542,0,
10,8.5106,0.73288,-0.0425554,0.00121168,0,
10,8.56104,0.719439,-0.0426,0.00124257,0,
10,8.60659,0.706267,-0.0426387,0.00126847,0,
10,8.64767,0.693354,-0.0426726,0.00128975,0,
10,8.68467,0.680652,-0.0427017,0.00130179,0,
10,8.71795,0.668114,-0.0427271,0.00131132,0,
10,8.74786,0.655728,-0.0427494,0.00131715,0,
10,8.77471,0.643487,-0.0427688,0.00131933,0,
10,8.79881,0.631387,-0.0427858,0.00131815,0,
10,8.8204,0.619422,-0.0428005,0.00131393,0,
10,8.83975,0.607584,-0.0428134,0.00130706,0,
10,8.85708,0.595865,-0.0428245,0.0012979,0,
10,8.87259,0.584249,-0.0428342,0.00128683,0,
10,8.88646,0.57272,-0.0428425,0.00127419,0,
10,8.89886,0.56126,-0.0428496,0.00126028,0,
10,8.90995,0.549842,-0.0428558,0.00124538,0,
10,8.91986,0.538443,-0.042861,0.00122969,0,
10,8.92872,0.527031,-0.0428655,0.00121337,0,
10,8.93663,0.515573,-0.0428693,0.00119653,0,
10,8.94369,0.504034,-0.0428725,0.0011792,0,
10,8.95,0.492373,-0.0428752,0.00116137,0,
10,8.95564,0.480546,-0.0428775,0.00114295,0,
10,8.96067,0.468504,-0.0428794,0.00112379,0,
10,8.96517,0.456194,-0.042881,0.0011037,0,
10,8.96918,0.443554,-0.0428823,0.00108233,0,
10,8.97276,0.430516,-0.0428835,0.00105928,0,
10,8.97596,0.416999,-0.0428843,0.001034,0,
10,8.97882,0.402912,-0.0428852,0.00100576,0,
10,8.98137,0.388146,-0.0428857,0.000973632,0,
10,8.98365,0.372574,-0.0428864,0.000936415,0,
10,8.98569,0.356044,-0.0428866,0.000892568,0,
10,8.9875,0.338378,-0.0428872,0.000840612,0,
10,8.98913,0.319341,-0.0428872,0.000774294,0,
10,8.99058,0.298689,-0.0428878,0.000695927,0,
10,8.99188,0.276251,-0.0428876,0.000603169,0,
10,8.99304,0.251858,-0.0428881,0.000488915,0,
10,8.99408,0.225453,-0.0428878,0.000360385,0,
10,8.99501,0.197383,-0.0428884,0.000231068,0,
10,8.99583,0.168539,-0.0428879,0.000123314,0,
10,8.99658,0.140204,-0.0428885,5.32538e-05,0,
10,8.99724,0.113532,-0.0428879,1.84446e-05,0,
10,8.99784,0.0891493,-0.0428886,5.0757e-06,0,
10,8.99837,0.0671815,-0.0428879,1.06507e-06,0,
10,8.99885,0.0474976,-0.0428887,1.52581e-07,0,
10,8.99927,0.0298834,-0.0428879,1.15823e-08,0,
10,8.99966,0.0141202,-0.0428889,2.56216e-10,0,
10,0,0,0.0280246,0,0,
10,9,0,-0.0428878,0,0,

0.004,0,0,-0.211761,0,4.02586e-08,
0.00868226,0,0,-0.211763,0,-2.6585e-07,
0.014062,0,0,-0.21176,0,-6.25809e-07,
0.0201548,0,0,-0.211762,0,-1.00238e-06,
0.0269766,0,0,-0.211758,0,-1.03734e-06,
0.0345437,0,0,-0.211757,0,-3.87693e-07,
0.0428729,0,0,-0.211751,0,1.19762e-06,
0.051981,0,0,-0.21175,0,4.01234e-06,
0.0618853,0,0,-0.211746,0,8.03599e-06,
0.0726036,0,0,-0.211749,0,1.31581e-05,
0.0841536,0,0,-0.211754,0,1.89314e-05,
0.0965535,0,0,-0.211766,0,2.49268e-05,
0.109822,0,0,-0.211784,0,3.0667e-05,
0.123977,0,0,-0.211809,0,3.58874e-05,
0.139037,0,0,-0.211839,0,4.04287e-05,
0.155022,0,0,-0.211874,0,4.42918e-05,
0.171949,0,0,-0.211916,0,4.74962e-05,
0.189839,0,0,-0.211963,0,5.00641e-05,
0.208709,0,0,-0.212017,0,5.19506e-05,
0.228579,0,0,-0.212078,0,5.3068e-05,
0.249467,0,0,-0.212147,0,5.32951e-05,
0.271391,0,0,-0.212223,0,5.25133e-05,
0.29437,0,0,-0.212306,0,5.0626e-05,
0.31842,0,0,-0.212396,0,4.75801e-05,
0.343559,0,0,-0.212493,0,4.33731e-05,
0.369804,0,0,-0.212596,0,3.80538e-05,
0.39717,0,0,-0.212704,0,3.1711e-05,
0.425672,0,0,-0.212817,0,2.44595e-05,
0.455324,0,0,-0.212934,0,1.64242e-05,
0.48614,0,0,-0.213054,0,7.72557e-06,
0.518132,0,0,-0.213177,0,-1.53079e-06,
0.551309,0,0,-0.213304,0,-1.12624e-05,
0.585683,0,0,-0.213433,0,-2.14143e-05,
0.621259,0,0,-0.213565,0,-3.19664e-05,
0.658046,0,0,-0.2137,0,-4.29296e-05,
0.696047,0,0,-0.21384,0,-5.43432e-05,
0.735265,0,0,-0.213984,0,-6.62718e-05,
0.7757,0,0,-0.214134,0,-7.88003e-05,
0.817352,0,0,-0.214291,0,-9.20382e-05,
0.860215,0,0,-0.214454,0,-0.000106117,
0.904285,0,0,-0.214626,0,-0.000121164,
0.949552,0,0,-0.214807,0,-0.000137341,
0.996004,0,0,-0.214997,0,-0.00015482,
1.04363,0,0,-0.215197,0,-0.000173785,
1.09241,0,0,-0.215405,0,-0.000194434,
1.14232,0,0,-0.215622,0,-0.000216958,
1.19335,0,0,-0.215847,0,-0.000241544,
1.24546,0,0,-0.216076,0,-0.000268202,
1.29863,0,0,-0.216306,0,-0.000296958,
1.35283,0,0,-0.216535,0,-0.000327581,
1.40802,0,0,-0.216758,0,-0.000359503,
1.46416,0,0,-0.216972,0,-0.000392049,
1.52121,0,0,-0.217171,0,-0.000423761,
1.57913,0,0,-0.217346,0,-0.000453197,
1.63787,0,0,-0.217501,0,-0.000478781,
1.69739,0,0,-0.217623,0,-0.000499106,
1.75761,0,0,-0.217698,0,-0.000512844,
1.81851,0,0,-0.217711,0,-0.000518511,
1.88,0,0,-0.217657,0,-0.000515892,
1.94204,0,0,-0.217531,0,-0.00050442,
2.00457,0,0,-0.217352,0,-0.000484017,
2.06751,0,0,-0.217251,0,-0.000456351,
2.13081,0,0,-0.217282,0,-0.000424654,
2.19439,0,0,-0.217485,0,-0.000392109,
2.25819,0,0,-0.217953,0,-0.000361257,
2.32214,0,0,-0.218797,0,-0.000337582,
2.38617,0,0,-0.22003,0,-0.000328124,
2.4502,0,0,-0.221566,0,-0.000336458,
2.51418,0,0,-0.223333,0,-0.000361969,
2.57803,0,0,-0.225266,0,-0.000402269,
2.64167,0,0,-0.227301,0,-0.000454656,
2.70505,0,0,-0.229383,0,-0.000516833,
2.76808,0,0,-0.231459,0,-0.00058715,
2.83072,0,0,-0.233478,0,-0.000664533,
2.89288,0,0,-0.235387,0,-0.000748327,
2.95451,0,0,-0.237127,0,-0.000837958,
3.01555,0,0,-0.238628,0,-0.000932595,
3.07594,0,0,-0.239813,0,-0.00103067,
3.13561,0,0,-0.2406,0,-0.0011296,
3.19453,0,0,-0.240925,0,-0.00122598,
3.25262,0,0,-0.240748,0,-0.00131612,
3.30985,0,0,-0.240064,0,-0.00139683,
3.36617,0,0,-0.2389,0,-0.00146585,
3.42154,0,0,-0.23731,0,-0.00152219,
3.47591,0,0,-0.235364,0,-0.00156597,
3.52925,0,0,-0.233137,0,-0.00159822,
3.58152,0,0,-0.230705,0,-0.00162052,
3.6327,0,0,-0.228131,0,-0.00163467,
3.68276,0,0,-0.225473,0,-0.00164249,
3.73167,0,0,-0.222772,0,-0.00164558,
3.77941,0,0,-0.220063,0,-0.00164526,
3.82596,0,0,-0.217368,0,-0.00164256,
3.8713,0,0,-0.214704,0,-0.00163821,
3.91543,0,0,-0.212081,0,-0.00163262,
3.95833,0,0,-0.209522,0,-0.00162644,
4,0,0,-0.207003,0,-0.00161971,
4.04167,0,0,-0.204476,0,-0.00161224,
4.08333,0,0,-0.201938,0,-0.00160427,
4.125,0,0,-0.199389,0,-0.00159585,
4.16667,0,0,-0.196831,0,-0.00158698,
4.20833,0,0,-0.194264,0,-0.00157768,
4.25,0,0,-0.19169,0,-0.00156796,
4.29167,0,0,-0.189109,0,-0.00155786,
4.33333,0,0,-0.186523,0,-0.00154738,
4.375,0,0,-0.183933,0,-0.00153653,
4.41667,0,0,-0.181338,0,-0.00152531,
4.45833,0,0,-0.178741,0,-0.00151376,
4.5,0,0,-0.17614,0,-0.00150187,
4.54167,0,0,-0.173538,0,-0.00148965,
4.58333,0,0,-0.170934,0,-0.00147709,
4.625,0,0,-0.168329,0,-0.0014642,
4.66667,0,0,-0.165724,0,-0.001451,
4.70833,0,0,-0.16312,0,-0.00143747,
4.75,0,0,-0.160515,0,-0.00142362,
4.79167,0,0,-0.157913,0,-0.00140947,
4.83333,0,0,-0.155311,0,-0.00139499,
4.875,0,0,-0.152712,0,-0.00138021,
4.91667,0,0,-0.150115,0,-0.00136511,
4.95833,0,0,-0.147521,0,-0.0013497,
5,0,0,-0.144931,0,-0.00133396,
5.04167,0,0,-0.142344,0,-0.0013179,
5.08333,0,0,-0.139762,0,-0.00130152,
5.125,0,0,-0.137184,0,-0.00128482,
5.16667,0,0,-0.134611,0,-0.0012678,
5.20833,0,0,-0.132045,0,-0.00125046,
5.25,0,0,-0.129484,0,-0.00123282,
5.29167,0,0,-0.126929,0,-0.00121486,
5.33333,0,0,-0.124382,0,-0.00119656,
5.375,0,0,-0.121842,0,-0.00117795,
5.41667,0,0,-0.11931,0,-0.00115901,
5.45833,0,0,-0.116785,0,-0.00113974,
5.5,0,0,-0.114269,0,-0.00112013,
5.54167,0,0,-0.111763,0,-0.0011002,
5.58333,0,0,-0.109267,0,-0.00107997,
5.625,0,0,-0.10678,0,-0.0010594,
5.66667,0,0,-0.104304,0,-0.00103849,
5.70833,0,0,-0.101839,0,-0.00101725,
5.75,0,0,-0.0993865,0,-0.000995695,
5.79167,0,0,-0.0969445,0,-0.000973783,
5.83333,0,0,-0.0945159,0,-0.000951531,
5.875,0,0,-0.0921014,0,-0.000928954,
5.91667,0,0,-0.0897007,0,-0.000906068,
5.95833,0,0,-0.0873132,0,-0.000882841,
6,0,0,-0.0849416,0,-0.000859301,
6.04167,0,0,-0.0825858,0,-0.000835438,
6.08333,0,0,-0.0802458,0,-0.000811262,
6.125,0,0,-0.077922,0,-0.000786742,
6.16667,0,0,-0.0756168,0,-0.000761918,
6.20833,0,0,-0.0733294,0,-0.000736781,
6.25,0,0,-0.0710602,0,-0.00071135,
6.29167,0,0,-0.0688107,0,-0.000685615,
6.33333,0,0,-0.0665822,0,-0.000659623,
6.375,0,0,-0.0643732,0,-0.00063334,
6.41667,0,0,-0.0621847,0,-0.00060678,
6.45833,0,0,-0.0600191,0,-0.000579934,
6.5,0,0,-0.0578765,0,-0.000552845,
6.54167,0,0,-0.0557557,0,-0.000525488,
6.58333,0,0,-0.0536582,0,-0.000497897,
6.625,0,0,-0.051587,0,-0.000470086,
6.66667,0,0,-0.04954,0,-0.000442083,
6.70833,0,0,-0.0475171,0,-0.000413858,
6.75,0,0,-0.0455201,0,-0.000385437,
6.79167,0,0,-0.0435513,0,-0.000356827,
6.83333,0,0,-0.0416078,0,-0.000328043,
6.875,0,0,-0.0396911,0,-0.000299086,
6.91667,0,0,-0.037803,0,-0.000270001,
6.95833,0,0,-0.0359445,0,-0.000240803,
7,0,0,-0.0341119,0,-0.000211483,
7.04167,0,0,-0.0323084,0,-0.000182049,
7.08333,0,0,-0.0305349,0,-0.000152522,
7.125,0,0,-0.0287915,0,-0.000122901,
7.16667,0,0,-0.0270747,0,-9.31741e-05,
7.20833,0,0,-0.0253894,0,-6.33991e-05,
7.25,0,0,-0.0237353,0,-3.36e-05,
7.29167,0,0,-0.0221115,0,-3.77764e-06,
7.33333,0,0,-0.0205151,0,2.60935e-05,
7.375,0,0,-0.0189514,0,5.59411e-05,
7.41667,0,0,-0.0174187,0,8.57816e-05,
7.45833,0,0,-0.015916,0,0.000115618,
7.5,0,0,-0.0144417,0,0.00014546,
7.54167,0,0,-0.0130012,0,0.000175205,
7.58333,0,0,-0.011591,0,0.000204887,
7.625,0,0,-0.0102105,0,0.000234502,
7.66667,0,0,-0.00885913,0,0.000264071,
7.70833,0,0,-0.00754081,0,0.000293509,
7.75,0,0,-0.00625156,0,0.000322885,
7.79167,0,0,-0.00499176,0,0.000352177,
7.83333,0,0,-0.00376227,0,0.000381375,
7.875,0,0,-0.00256452,0,0.000410431,
7.91667,0,0,-0.00139036,0,0.000439671,
7.95833,0,0,-0.000275923,0,0.000468229,
8,0,0,0.00086209,0,0.000496638,
8.04171,0,0,0.00199732,0,0.000525913,
8.08368,0,0,0.00303483,0,0.000555306,
8.12617,0,0,0.00408936,0,0.000583771,
8.16946,0,0,0.00512723,0,0.000612576,
8.21382,0,0,0.0061573,0,0.000641734,
8.25952,0,0,0.00718844,0,0.000671447,
8.30685,0,0,0.00822159,0,0.000701827,
8.35611,0,0,0.00925974,0,0.000733041,
8.40762,0,0,0.0103112,0,0.000765298,
8.46168,0,0,0.0113748,0,0.000798793,
8.51865,0,0,0.01245,0,0.000833551,
8.57889,0,0,0.0135375,0,0.000869721,
8.64276,0,0,0.0146456,0,0.000907526,
8.71067,0,0,0.0157639,0,0.000947091,
8.78306,0,0,0.0168907,0,0.000988438,
8.86037,0,0,0.0180211,0,0.00103167,
8.94309,0,0,0.0191633,0,0.00107692,
9.03174,0,0,0.0202961,0,0.00112402,
9.12689,0,0,0.021418,0,0.00117313,
9.22912,0,0,0.022528,0,0.00122415,
9.33908,0,0,0.0236039,0,0.00127682,
9.45746,0,0,0.024653,0,0.0013314,
9.58501,0,0,0.0256492,0,0.00138772,
9.72253,0,0,0.0265785,0,0.00144559,
9.87088,0,0,0.0274158,0,0.0015043,
10.031,0,0,0.0281707,0,0.00156418,
10.2039,0,0,0.0288068,0,0.00162462,
10.3906,0,0,0.0292876,0,0.00168507,
10.5924,0,0,0.0296187,0,0.00174479,
10.8105,0,0,0.0297872,0,0.00180355,
11.0463,0,0,0.0297632,0,0.00186066,
11.3012,0,0,0.0295394,0,0.00191546,
11.5769,0,0,0.0291342,0,0.00196774,
11.8751,0,0,0.0285149,0,0.00201598,
12.1977,0,0,0.0277288,0,0.00206023,
12.5466,0,0,0.0268205,0,0.00210037,
12.9242,0,0,0.0257835,0,0.00213668,
13.3327,0,0,0.0246641,0,0.00216871,
13.7748,0,0,0.0234977,0,0.00219665,
14.2532,0,0,0.0222535,0,0.00222072,
14.7709,0,0,0.0209487,0,0.00224071,
15.3312,0,0,0.019586,0,0.00225719,
15.9377,0,0,0.0181782,0,0.00227011,
16.594,0,0,0.0168209,0,0.00227985,
17.3044,0,0,0.0155666,0,0.00228707,
18.0733,0,0,0.014418,0,0.00229209,
18.9056,0,0,0.0133468,0,0.00229532,
19.8064,0,0,0.0123345,0,0.00229712,
20.7816,0,0,0.011415,0,0.00229751,
21.8371,0,0,0.0106145,0,0.00229695,
22.9796,0,0,0.00990728,0,0.00229586,
24.2163,0,0,0.00926388,0,0.00229466,
25.5551,0,0,0.00866837,0,0.00229384,
27.0042,0,0,0.00810117,0,0.00229338,
28.5729,0,0,0.00753523,0,0.00229353,
30.271,0,0,0.00694149,0,0.00229442,
32.1091,0,0,0.00630509,0,0.00229626,
34.0989,0,0,0.00562899,0,0.00229957,
36.2529,0,0,0.00491405,0,0.00230438,
38.5845,0,0,0.00414914,0,0.00231044,
41.1085,0,0,0.00332766,0,0.00231717,
43.8407,0,0,0.00227465,0,0.00232202,
46.7983,0,0,0.0011673,0,0.00232288,
50,0,0,0.00204536,0,0.00233406,

