71a85f98251c56899fa8230efd5e491f9545bc40 
X,Z,x_velocity,cp,uw_b,cf,
1,0,0,-0.236055,0,0,
1,9,0,-0.127549,0,0,
1,8.99969,0.0157282,-0.127549,3.19924e-10,0,
1,8.99934,0.0335722,-0.127549,1.49541e-08,0,
1,8.99894,0.0538348,-0.127549,2.06261e-07,0,
1,8.99848,0.0768357,-0.127549,1.5114e-06,0,
1,8.99797,0.102889,-0.127549,7.54348e-06,0,
1,8.99739,0.132174,-0.127549,2.84521e-05,0,
1,8.99672,0.164439,-0.127549,8.37211e-05,0,
1,8.99597,0.198628,-0.127549,0.000192729,0,
1,8.99512,0.232958,-0.127548,0.000351523,0,
1,8.99416,0.265681,-0.127548,0.000530968,0,
1,8.99306,0.29594,-0.127548,0.000691321,0,
1,8.99182,0.323764,-0.127548,0.000815911,0,
1,8.99041,0.349363,-0.127548,0.000920351,0,
1,8.98881,0.372907,-0.127547,0.00100622,0,
1,8.98699,0.394632,-0.127547,0.00107634,0,
1,8.98494,0.41485,-0.127546,0.00113012,0,
1,8.98261,0.433858,-0.127545,0.00117281,0,
1,8.97996,0.451875,-0.127544,0.00120869,0,
1,8.97696,0.46906,-0.127543,0.00123871,0,
1,8.97356,0.485549,-0.127542,0.00126409,0,
1,8.9697,0.501454,-0.12754,0.00128577,0,
1,8.96533,0.516869,-0.127538,0.00130441,0,
1,8.96038,0.531872,-0.127536,0.00132052,0,
1,8.95476,0.546531,-0.127534,0.00133445,0,
1,8.9484,0.560903,-0.127532,0.00134646,0,
1,8.9412,0.575035,-0.127529,0.0013567,0,
1,8.93303,0.588969,-0.127526,0.00136529,0,
1,8.92379,0.60274,-0.127522,0.00137227,0,
1,8.91333,0.616377,-0.127519,0.00137766,0,
1,8.90149,0.629907,-0.127515,0.00138143,0,
1,8.8881,0.643351,-0.127511,0.00138354,0,
1,8.87295,0.656728,-0.127508,0.00138392,0,
1,8.85584,0.670056,-0.127505,0.00138246,0,
1,8.83651,0.683348,-0.127502,0.00137907,0,
1,8.81469,0.69662,-0.127501,0.00137358,0,
1,8.79007,0.709885,-0.1275,0.00136585,0,
1,8.76232,0.723156,-0.127502,0.00135563,0,
1,8.73107,0.736446,-0.127507,0.00134267,0,
1,8.69591,0.749773,-0.127516,0.00132662,0,
1,8.6564,0.763152,-0.12753,0.00130704,0,
1,8.61206,0.776603,-0.127551,0.00128357,0,
1,8.56236,0.790154,-0.127581,0.00125742,0,
1,8.50675,0.803875,-0.127625,0.00122495,0,
1,8.44464,0.817896,-0.127685,0.00118623,0,
1,8.3754,0.832399,-0.127766,0.00113979,0,
1,8.29839,0.847639,-0.127874,0.00108195,0,
1,8.21296,0.863945,-0.128017,0.00100753,0,
1,8.11843,0.881649,-0.128199,0.000911051,0,
1,8.01417,0.900942,-0.128435,0.000786789,0,
1,7.89956,0.921611,-0.128725,0.000633383,0,
1,7.77403,0.94273,-0.129094,0.000465734,0,
1,7.63711,0.962625,-0.129547,0.000303838,0,
1,7.48842,0.979152,-0.130086,0.000126099,0,
1,7.32773,0.990074,-0.130736,3.64457e-05,0,
1,7.15495,0.994935,-0.131497,5.08384e-06,0,
1,6.97022,0.995737,-0.132382,1.92623e-07,0,
1,6.77388,0.995175,-0.133403,3.8145e-09,0,
1,6.56652,0.994893,-0.13458,1.05637e-08,0,
1,6.34896,0.995238,-0.135927,1.29618e-08,0,
1,6.12229,0.995958,-0.13746,1.4961e-08,0,
1,5.88784,0.996799,-0.139193,1.60724e-08,0,
1,5.64716,0.997682,-0.141144,1.71239e-08,0,
1,5.40194,0.998628,-0.143324,1.85765e-08,0,
1,5.15407,0.999671,-0.145742,2.04202e-08,0,
1,4.90545,1.00083,-0.148404,2.25703e-08,0,
1,4.65805,1.0021,-0.151312,2.49214e-08,0,
1,4.41376,1.00348,-0.154459,2.73088e-08,0,
1,4.17441,1.00495,-0.157836,2.94738e-08,0,
1,3.94163,1.00644,-0.161422,3.14424e-08,0,
1,3.7169,1.00792,-0.165192,3.43502e-08,0,
1,3.50146,1.00955,-0.169113,4.08626e-08,0,
1,3.29629,1.01168,-0.173148,5.28567e-08,0,
1,3.10217,1.0146,-0.177266,6.65191e-08,0,
1,2.91959,1.01777,-0.18143,2.2009e-07,0,
1,2.74885,1.01938,-0.185581,1.14592e-06,0,
1,2.59002,1.01697,-0.189644,-1.13985e-05,0,
1,2.44299,1.00929,-0.193532,-6.18397e-05,0,
1,2.30752,0.996977,-0.19717,-0.000152483,0,
1,2.18321,0.98173,-0.200506,-0.000266224,0,
1,2.06959,0.965251,-0.203519,-0.000381485,0,
1,1.9661,0.948776,-0.20621,-0.000482786,0,
1,1.87215,0.933054,-0.208591,-0.000563834,0,
1,1.78711,0.918431,-0.210683,-0.000625968,0,
1,1.71033,0.904956,-0.212508,-0.000674288,0,
1,1.64119,0.8925,-0.214093,-0.00071485,0,
1,1.57905,0.880857,-0.215461,-0.000749152,0,
1,1.52332,0.869836,-0.216638,-0.000779806,0,
1,1.47342,0.859305,-0.217647,-0.000808578,0,
1,1.42882,0.849191,-0.218508,-0.00083534,0,
1,1.389,0.839451,-0.219243,-0.000859713,0,
1,1.35351,0.830062,-0.219869,-0.0008816,0,
1,1.3219,0.821016,-0.220403,-0.000901029,0,
1,1.29378,0.812309,-0.220858,-0.000918058,0,
1,1.26878,0.803944,-0.221247,-0.000932701,0,
1,1.24659,0.795927,-0.221579,-0.000945256,0,
1,1.22689,0.788258,-0.221863,-0.000955606,0,
1,1.2092,0.780855,-0.222109,-0.000962905,0,
1,1.1932,0.773664,-0.222324,-0.000968669,0,
1,1.1787,0.766653,-0.22251,-0.000976072,0,
1,1.16554,0.759751,-0.222671,-0.000991863,0,
1,1.15357,0.752824,-0.222811,-0.00102808,0,
1,1.14266,0.745634,-0.222935,-0.00110421,0,
1,1.13268,0.737819,-0.22305,-0.00124724,0,
1,1.12354,0.728904,-0.223167,-0.00148796,0,
1,1.11514,0.718416,-0.223296,-0.00185336,0,
1,1.10739,0.706088,-0.223445,-0.00235371,0,
1,1.10022,0.692033,-0.223615,-0.00297457,0,
1,1.09357,0.676718,-0.223804,-0.00367666,0,
1,1.08738,0.660758,-0.224008,-0.00441046,0,
1,1.0816,0.644708,-0.224223,-0.00513347,0,
1,1.07618,0.628969,-0.224444,-0.00581784,0,
1,1.07107,0.613791,-0.224669,-0.00644926,0,
1,1.06626,0.599303,-0.224895,-0.00702286,0,
1,1.06169,0.585557,-0.22512,-0.00753909,0,
1,1.05735,0.572555,-0.225344,-0.00800129,0,
1,1.05321,0.560272,-0.225564,-0.00841401,0,
1,1.04925,0.548666,-0.225782,-0.0087821,0,
1,1.04544,0.537691,-0.225997,-0.00911028,0,
1,1.04177,0.527297,-0.226208,-0.00940293,0,
1,1.03822,0.517437,-0.226417,-0.00966473,0,
1,1.03478,0.508065,-0.226623,-0.00989915,0,
1,1.03144,0.499132,-0.226825,-0.010108,0,
1,1.02818,0.490592,-0.227024,-0.010294,0,
1,1.025,0.482402,-0.227219,-0.0104599,0,
1,1.02188,0.474522,-0.227411,-0.0106085,0,
1,1.01882,0.466919,-0.2276,-0.0107415,0,
1,1.01581,0.459565,-0.227787,-0.0108605,0,
1,1.01284,0.452432,-0.227971,-0.0109658,0,
1,1.00988,0.445422,-0.228156,-0.0110603,0,
1,1.00688,0.438445,-0.228343,-0.0111465,0,
1,1.00384,0.431484,-0.228533,-0.0112239,0,
1,1.00076,0.424527,-0.228727,-0.0112924,0,
1,0.997615,0.417557,-0.228924,-0.0113521,0,
1,0.99441,0.410559,-0.229125,-0.011403,0,
1,0.991131,0.403517,-0.229331,-0.0114451,0,
1,0.987768,0.396412,-0.229542,-0.0114782,0,
1,0.984308,0.389227,-0.229759,-0.011502,0,
1,0.980739,0.381942,-0.229983,-0.0115161,0,
1,0.977045,0.374537,-0.230214,-0.0115201,0,
1,0.973211,0.366989,-0.230453,-0.0115132,0,
1,0.969219,0.359277,-0.2307,-0.0114947,0,
1,0.965047,0.351375,-0.230957,-0.0114636,0,
1,0.960675,0.343259,-0.231224,-0.0114186,0,
1,0.956077,0.334901,-0.231501,-0.0113584,0,
1,0.951224,0.326275,-0.23179,-0.0112812,0,
1,0.946088,0.31735,-0.23209,-0.0111851,0,
1,0.940633,0.308096,-0.232401,-0.0110676,0,
1,0.934823,0.298483,-0.232723,-0.0109292,0,
1,0.928616,0.288471,-0.233013,-0.0107691,0,
1,0.921967,0.277988,-0.233199,-0.0105796,0,
1,0.914826,0.26688,-0.23324,-0.0102843,0,
1,0.907141,0.254981,-0.233186,-0.00997619,0,
1,0.898852,0.242178,-0.233122,-0.00963527,0,
1,0.889898,0.228372,-0.23308,-0.00925407,0,
1,0.880212,0.213544,-0.233089,-0.00884266,0,
1,0.869723,0.197828,-0.233151,-0.00842052,0,
1,0.858358,0.181481,-0.233257,-0.00798967,0,
1,0.846039,0.164778,-0.233382,-0.00755419,0,
1,0.83269,0.147911,-0.233518,-0.007114,0,
1,0.818232,0.130922,-0.233681,-0.00664664,0,
1,0.802744,0.113898,-0.233933,-0.00614237,0,
1,0.78635,0.0969349,-0.234276,-0.005591,0,
1,0.768969,0.0800055,-0.234646,-0.00501564,0,
1,0.75053,0.0632477,-0.235025,-0.00445753,0,
1,0.730977,0.0469073,-0.235386,-0.0039292,0,
1,0.710271,0.031259,-0.235706,-0.0034506,0,
1,0.688397,0.0165703,-0.235969,-0.0030379,0,
1,0.66536,0.00306011,-0.236157,-0.00270111,0,
1,0.641194,-0.00913323,-0.236247,-0.00244268,0,
1,0.615961,-0.0199587,-0.236215,-0.00225702,0,
1,0.589754,-0.0294383,-0.236038,-0.00213084,0,
1,0.562692,-0.0376368,-0.235693,-0.00204762,0,
1,0.534925,-0.0446336,-0.235181,-0.00199148,0,
1,0.506624,-0.0505019,-0.234446,-0.00196352,0,
1,0.477982,-0.0553311,-0.233424,-0.00198574,0,
1,0.449206,-0.0592936,-0.232224,-0.00200525,0,
1,0.420509,-0.0625787,-0.231062,-0.00198843,0,
1,0.392107,-0.0653545,-0.230055,-0.00194979,0,
1,0.364206,-0.0677631,-0.22926,-0.00190249,0,
1,0.337003,-0.0699105,-0.228729,-0.00184833,0,
1,0.310673,-0.0718734,-0.228473,-0.00178538,0,
1,0.28537,-0.0737051,-0.228487,-0.00170872,0,
1,0.26122,-0.0754429,-0.228726,-0.00161695,0,
1,0.238324,-0.0771088,-0.22914,-0.00150087,0,
1,0.21675,-0.0787051,-0.229622,-0.00136726,0,
1,0.196544,-0.080219,-0.230119,-0.00123163,0,
1,0.177724,-0.0816416,-0.230658,-0.00109091,0,
1,0.160284,-0.0829716,-0.231252,-0.00094994,0,
1,0.144202,-0.0842124,-0.231854,-0.00081666,0,
1,0.129436,-0.0853664,-0.232431,-0.000693671,0,
1,0.115935,-0.0864331,-0.232965,-0.000581386,0,
1,0.103636,-0.0874098,-0.233446,-0.000479595,0,
1,0.0924701,-0.0882914,-0.23387,-0.000387695,0,
1,0.0823633,-0.0890708,-0.234238,-0.000304999,0,
1,0.0732406,-0.0897397,-0.234554,-0.000230811,0,
1,0.0650269,-0.0902883,-0.234823,-0.000164491,0,
1,0.057648,-0.0907056,-0.23505,-0.000105457,0,
1,0.0510323,-0.0909796,-0.235241,-5.31818e-05,0,
1,0.0451115,-0.0910966,-0.2354,-7.19244e-06,0,
1,0.0398209,-0.0910411,-0.235533,3.29278e-05,0,
1,0.0351001,-0.0907943,-0.235643,6.75393e-05,0,
1,0.0308929,-0.0903333,-0.235734,9.69302e-05,0,
1,0.0271475,-0.0896285,-0.235808,0.000121299,0,
1,0.0238164,-0.088641,-0.235868,0.000140721,0,
1,0.0208562,-0.0873182,-0.235917,0.000155095,0,
1,0.0182274,-0.0855877,-0.235955,0.000164058,0,
1,0.0158944,-0.08335,-0.235985,0.000166873,0,
1,0.0138249,-0.0804709,-0.236008,0.000162343,0,
1,0.0119898,-0.0767818,-0.236024,0.000148969,0,
1,0.0103632,-0.0721045,-0.236036,0.000125858,0,
1,0.00892169,-0.0663331,-0.236042,9.47671e-05,0,
1,0.00764438,-0.0595688,-0.236047,6.16519e-05,0,
1,0.00651264,-0.0521992,-0.236049,3.41625e-05,0,
1,0.00550983,-0.0447671,-0.236051,1.62722e-05,0,
1,0.00462115,-0.037721,-0.23605,6.81235e-06,0,
1,0.00383341,-0.0312937,-0.236052,2.55247e-06,0,
1,0.0031349,-0.0255446,-0.236051,8.58462e-07,0,
1,0.00251518,-0.0204449,-0.236053,2.55089e-07,0,
1,0.00196502,-0.0159329,-0.236052,6.44772e-08,0,
1,0.00147619,-0.0119414,-0.236054,1.29245e-08,0,
1,0.00104139,-0.00840659,-0.236052,1.80415e-09,0,
1,0.000654158,-0.00527114,-0.236054,1.34805e-10,0,
1,0.000308731,-0.0024844,-0.236052,2.95644e-12,0,

4,0,0,-0.128777,0,0,
4,9,0,-0.0962013,0,0,
4,8.99969,0.014559,-0.096201,2.4717e-10,0,
4,8.99934,0.0310187,-0.0962012,1.14673e-08,0,
4,8.99894,0.0496463,-0.0962009,1.56571e-07,0,
4,8.9985,0.0707234,-0.0962011,1.13604e-06,0,
4,8.99799,0.0945339,-0.0962009,5.63225e-06,0,
4,8.99742,0.121272,-0.096201,2.12657e-05,0,
4,8.99677,0.150815,-0.0962008,6.34641e-05,0,
4,8.99605,0.182405,-0.0962009,0.000150355,0,
4,8.99522,0.214591,-0.0962007,0.00028461,0,
4,8.99429,0.245763,-0.0962006,0.00044397,0,
4,8.99324,0.27483,-0.0962003,0.000602399,0,
4,8.99205,0.301595,-0.0962,0.000727492,0,
4,8.9907,0.326248,-0.0961996,0.000831439,0,
4,8.98919,0.348948,-0.0961991,0.000918593,0,
4,8.98747,0.369894,-0.0961984,0.000991034,0,
4,8.98553,0.389373,-0.0961976,0.00104717,0,
4,8.98334,0.407662,-0.0961966,0.00109328,0,
4,8.98087,0.424966,-0.0961955,0.00113239,0,
4,8.97807,0.441445,-0.0961942,0.00116582,0,
4,8.97491,0.457233,-0.0961926,0.00119483,0,
4,8.97134,0.472446,-0.0961907,0.00122038,0,
4,8.96731,0.487179,-0.0961885,0.00124319,0,
4,8.96276,0.501513,-0.0961859,0.0012638,0,
4,8.95762,0.51552,-0.096183,0.00128257,0,
4,8.95182,0.52926,-0.0961796,0.00129977,0,
4,8.94526,0.542784,-0.0961758,0.00131558,0,
4,8.93787,0.556139,-0.0961714,0.00133009,0,
4,8.92952,0.569362,-0.0961665,0.00134331,0,
4,8.92011,0.582488,-0.096161,0.00135523,0,
4,8.90949,0.595545,-0.0961549,0.00136576,0,
4,8.89751,0.608558,-0.0961482,0.00137478,0,
4,8.88402,0.621547,-0.0961408,0.00138214,0,
4,8.86881,0.634529,-0.0961328,0.00138764,0,
4,8.85169,0.647515,-0.0961243,0.00139109,0,
4,8.83242,0.660516,-0.0961154,0.00139228,0,
4,8.81074,0.67354,-0.0961061,0.00139095,0,
4,8.78637,0.686591,-0.0960967,0.00138688,0,
4,8.75901,0.699674,-0.0960875,0.00137978,0,
4,8.7283,0.712792,-0.0960788,0.00136934,0,
4,8.69387,0.72595,-0.0960712,0.00135525,0,
4,8.65533,0.739151,-0.0960653,0.00133755,0,
4,8.61222,0.752414,-0.0960626,0.0013146,0,
4,8.56407,0.765765,-0.0960644,0.00128765,0,
4,8.5104,0.779245,-0.0960718,0.00125641,0,
4,8.45065,0.79293,-0.0960872,0.00122005,0,
4,8.38429,0.806946,-0.0961135,0.00117707,0,
4,8.31073,0.821496,-0.0961543,0.00112483,0,
4,8.22941,0.836863,-0.0962137,0.00105922,0,
4,8.13974,0.853394,-0.0962946,0.000975589,0,
4,8.04115,0.87142,-0.0964007,0.000868743,0,
4,7.93313,0.891067,-0.0965313,0.00073545,0,
4,7.81519,0.911928,-0.0966922,0.000580383,0,
4,7.68693,0.93273,-0.0968754,0.00042228,0,
4,7.54803,0.95142,-0.0971039,0.00027816,0,
4,7.39831,0.965953,-0.0973607,0.000149908,0,
4,7.23771,0.975142,-0.0976726,5.3723e-05,0,
4,7.06634,0.979281,-0.0980475,1.15919e-05,0,
4,6.88453,0.980105,-0.0984678,7.35769e-07,0,
4,6.69275,0.979651,-0.0989381,-1.95262e-07,0,
4,6.49173,0.979206,-0.0994624,-6.96156e-09,0,
4,6.28238,0.979151,-0.10005,2.99007e-08,0,
4,6.06579,0.979388,-0.100708,1.85693e-08,0,
4,5.84328,0.979736,-0.101441,1.10469e-08,0,
4,5.61626,0.980101,-0.102253,8.59759e-09,0,
4,5.3863,0.980467,-0.103148,8.20463e-09,0,
4,5.15502,0.980849,-0.104126,8.63193e-09,0,
4,4.92406,0.981264,-0.105188,9.49085e-09,0,
4,4.69507,0.981724,-0.106332,1.05505e-08,0,
4,4.46961,0.982229,-0.107553,1.15351e-08,0,
4,4.24915,0.982749,-0.108847,1.20154e-08,0,
4,4.03501,0.983217,-0.110204,1.18179e-08,0,
4,3.82836,0.983575,-0.111615,1.16332e-08,0,
4,3.63018,0.983873,-0.113066,1.37774e-08,0,
4,3.44125,0.984358,-0.114544,2.4188e-08,0,
4,3.26217,0.985407,-0.116033,1.47054e-07,0,
4,3.09333,0.987197,-0.117517,1.15366e-06,0,
4,2.93497,0.989327,-0.118978,3.60054e-06,0,
4,2.78715,0.990808,-0.120404,3.49762e-06,0,
4,2.64979,0.990509,-0.121779,-5.71583e-06,0,
4,2.52268,0.987664,-0.123085,-2.78264e-05,0,
4,2.40551,0.982103,-0.124303,-6.2656e-05,0,
4,2.29789,0.974174,-0.125421,-0.000107177,0,
4,2.19939,0.964521,-0.126431,-0.000156962,0,
4,2.10949,0.953853,-0.127333,-0.00020758,0,
4,2.02768,0.942795,-0.128129,-0.000255598,0,
4,1.95343,0.931825,-0.128826,-0.000298883,0,
4,1.88618,0.92127,-0.129433,-0.000336487,0,
4,1.82542,0.911322,-0.12996,-0.000368347,0,
4,1.77062,0.902079,-0.130414,-0.000394932,0,
4,1.72128,0.893573,-0.130806,-0.000416981,0,
4,1.67693,0.885792,-0.131143,-0.000435305,0,
4,1.63713,0.878701,-0.131433,-0.00045064,0,
4,1.60144,0.872258,-0.131681,-0.000463564,0,
4,1.56949,0.866416,-0.131895,-0.000474309,0,
4,1.54091,0.861131,-0.132079,-0.000483977,0,
4,1.51537,0.856338,-0.132238,-0.000492267,0,
4,1.49167,0.851839,-0.132379,-0.000498501,0,
4,1.46926,0.847534,-0.132509,-0.000503829,0,
4,1.44801,0.843399,-0.132627,-0.00050846,0,
4,1.42781,0.839413,-0.132736,-0.000512271,0,
4,1.40855,0.83556,-0.132835,-0.000515314,0,
4,1.39015,0.831824,-0.132927,-0.000517656,0,
4,1.37252,0.82819,-0.133012,-0.000519413,0,
4,1.3556,0.824645,-0.133091,-0.000520685,0,
4,1.3393,0.821175,-0.133163,-0.000521631,0,
4,1.32357,0.817764,-0.133231,-0.000522497,0,
4,1.30836,0.814398,-0.133294,-0.000523632,0,
4,1.29362,0.811059,-0.133352,-0.000525512,0,
4,1.2793,0.807725,-0.133407,-0.000528766,0,
4,1.26537,0.804374,-0.133458,-0.000534201,0,
4,1.25179,0.800974,-0.133506,-0.000542881,0,
4,1.23852,0.797492,-0.13355,-0.000556059,0,
4,1.22554,0.793883,-0.133591,-0.000575286,0,
4,1.21282,0.790095,-0.13363,-0.000602411,0,
4,1.20034,0.786064,-0.133665,-0.000639561,0,
4,1.18806,0.781716,-0.133696,-0.0006891,0,
4,1.17599,0.776968,-0.133725,-0.000753529,0,
4,1.16408,0.771731,-0.13375,-0.000835326,0,
4,1.15233,0.765915,-0.133771,-0.00093673,0,
4,1.14073,0.75944,-0.133789,-0.0010595,0,
4,1.12925,0.752242,-0.133804,-0.00120465,0,
4,1.11788,0.74428,-0.133816,-0.00137228,0,
4,1.10661,0.735545,-0.133825,-0.00156149,0,
4,1.09543,0.726056,-0.133832,-0.0017704,0,
4,1.08432,0.71586,-0.133837,-0.00199633,0,
4,1.07328,0.705023,-0.13384,-0.00223603,0,
4,1.0623,0.693622,-0.133843,-0.00248608,0,
4,1.05136,0.681742,-0.133845,-0.00274303,0,
4,1.04044,0.669447,-0.133848,-0.00300369,0,
4,1.0295,0.656795,-0.133851,-0.00326539,0,
4,1.01855,0.643861,-0.133855,-0.00352557,0,
4,1.00757,0.630714,-0.133859,-0.0037816,0,
4,0.996544,0.617416,-0.133864,-0.00403127,0,
4,0.98547,0.604025,-0.13387,-0.00427257,0,
4,0.974334,0.590596,-0.133878,-0.00450364,0,
4,0.963124,0.577178,-0.133886,-0.00472268,0,
4,0.951826,0.563822,-0.133895,-0.00492817,0,
4,0.940428,0.550573,-0.133905,-0.00512042,0,
4,0.928915,0.537467,-0.133919,-0.0052939,0,
4,0.917272,0.524514,-0.133935,-0.00544668,0,
4,0.905481,0.511712,-0.133952,-0.00557694,0,
4,0.893524,0.499053,-0.133967,-0.00568224,0,
4,0.881383,0.48652,-0.133981,-0.00576112,0,
4,0.869035,0.47409,-0.133984,-0.00583182,0,
4,0.856459,0.461646,-0.133911,-0.00583651,0,
4,0.843629,0.449034,-0.133776,-0.00583594,0,
4,0.830518,0.43617,-0.133639,-0.00584358,0,
4,0.817097,0.423011,-0.133498,-0.00585763,0,
4,0.803334,0.409522,-0.133356,-0.00587825,0,
4,0.789195,0.395667,-0.133215,-0.00590596,0,
4,0.774643,0.381403,-0.133078,-0.00594157,0,
4,0.759639,0.366678,-0.132946,-0.00598644,0,
4,0.744138,0.35144,-0.132821,-0.00604186,0,
4,0.728096,0.335628,-0.132706,-0.00610886,0,
4,0.711463,0.319181,-0.132601,-0.00618822,0,
4,0.694189,0.302028,-0.132508,-0.00628056,0,
4,0.676218,0.284095,-0.132428,-0.00638631,0,
4,0.657495,0.265309,-0.132362,-0.00650564,0,
4,0.637962,0.245603,-0.132313,-0.00663847,0,
4,0.617561,0.22493,-0.13228,-0.00678415,0,
4,0.596848,0.203838,-0.132269,-0.00693641,0,
4,0.576557,0.183066,-0.132288,-0.00708588,0,
4,0.556564,0.162575,-0.132332,-0.00722865,0,
4,0.536763,0.142363,-0.132406,-0.0073599,0,
4,0.517057,0.122465,-0.132509,-0.00747442,0,
4,0.497368,0.102936,-0.132641,-0.00756697,0,
4,0.477632,0.0838225,-0.132794,-0.00763242,0,
4,0.457804,0.0651368,-0.132955,-0.00766564,0,
4,0.437857,0.0468496,-0.133109,-0.00766106,0,
4,0.417786,0.0289291,-0.133248,-0.00761266,0,
4,0.397605,0.0114411,-0.133391,-0.00751505,0,
4,0.377348,-0.00530175,-0.133601,-0.00736843,0,
4,0.357066,-0.0206405,-0.13402,-0.00718644,0,
4,0.336828,-0.0337326,-0.134831,-0.00699852,0,
4,0.316717,-0.044069,-0.136251,-0.00683844,0,
4,0.296825,-0.0519482,-0.137851,-0.00671142,0,
4,0.27725,-0.0583735,-0.138567,-0.00620828,0,
4,0.258095,-0.0640842,-0.138522,-0.00572344,0,
4,0.239458,-0.0693231,-0.138351,-0.0053193,0,
4,0.221432,-0.0741485,-0.138047,-0.00491399,0,
4,0.2041,-0.0786048,-0.137619,-0.00451488,0,
4,0.187537,-0.0827278,-0.137098,-0.00412485,0,
4,0.171798,-0.0865481,-0.136505,-0.00374773,0,
4,0.156928,-0.090092,-0.135868,-0.00338677,0,
4,0.142956,-0.0933814,-0.135209,-0.00304441,0,
4,0.129894,-0.0964346,-0.134552,-0.00272229,0,
4,0.117744,-0.0992666,-0.133914,-0.00242137,0,
4,0.106492,-0.10189,-0.133308,-0.00214198,0,
4,0.0961173,-0.104314,-0.132744,-0.00188397,0,
4,0.0865883,-0.106548,-0.132226,-0.00164678,0,
4,0.0778675,-0.108598,-0.131757,-0.00142959,0,
4,0.0699123,-0.11047,-0.131338,-0.00123137,0,
4,0.062677,-0.112168,-0.130967,-0.00105097,0,
4,0.056114,-0.113697,-0.13064,-0.000887176,0,
4,0.0501747,-0.115059,-0.130354,-0.000738769,0,
4,0.0448114,-0.116258,-0.130106,-0.000604535,0,
4,0.039977,-0.117294,-0.129892,-0.000483304,0,
4,0.0356266,-0.118168,-0.129707,-0.000373964,0,
4,0.0317171,-0.11888,-0.129548,-0.000275475,0,
4,0.0282081,-0.119427,-0.129413,-0.000186878,0,
4,0.0250617,-0.119804,-0.129298,-0.000107305,0,
4,0.0222427,-0.120005,-0.1292,-3.59833e-05,0,
4,0.0197189,-0.120016,-0.129117,2.77456e-05,0,
4,0.0174603,-0.119823,-0.129047,8.44129e-05,0,
4,0.0154398,-0.119398,-0.128989,0.000134385,0,
4,0.0136326,-0.118706,-0.12894,0.000177808,0,
4,0.0120162,-0.117694,-0.128901,0.000214501,0,
4,0.0105703,-0.116284,-0.128868,0.000243777,0,
4,0.00927657,-0.114363,-0.128843,0.000264148,0,
4,0.00811839,-0.111764,-0.128823,0.000272913,0,
4,0.0070809,-0.108251,-0.128809,0.000265924,0,
4,0.0061507,-0.103519,-0.128797,0.000238637,0,
4,0.00531578,-0.0972596,-0.128792,0.00019033,0,
4,0.00456537,-0.0893425,-0.128786,0.000129998,0,
4,0.00388979,-0.0800272,-0.128785,7.44488e-05,0,
4,0.00328037,-0.0699249,-0.128782,3.58437e-05,0,
4,0.00272934,-0.0596764,-0.128783,1.47092e-05,0,
4,0.0022297,-0.0497043,-0.128781,5.16514e-06,0,
4,0.00177519,-0.0402031,-0.128783,1.51856e-06,0,
4,0.00136016,-0.0312268,-0.128779,3.51814e-07,0,
4,0.000979511,-0.0227632,-0.128782,5.66228e-08,0,
4,0.00062865,-0.014772,-0.128778,4.85233e-09,0,
4,0.000303409,-0.00720308,-0.128782,1.18702e-10,0,

6,0,0,-0.0117042,0,0,
6,9,0,-0.0719155,0,0,
6,8.99969,0.0138524,-0.0719151,2.09131e-10,0,
6,8.99934,0.0294731,-0.0719154,9.65146e-09,0,
6,8.99895,0.0471054,-0.0719151,1.30836e-07,0,
6,8.9985,0.067006,-0.0719153,9.42529e-07,0,
6,8.99801,0.0894361,-0.0719151,4.64741e-06,0,
6,8.99744,0.114588,-0.0719152,1.75295e-05,0,
6,8.99681,0.1424,-0.071915,5.26794e-05,0,
6,8.99609,0.172269,-0.0719151,0.000126914,0,
6,8.99529,0.20294,-0.0719149,0.000246024,0,
6,8.99438,0.232901,-0.0719149,0.000393346,0,
6,8.99336,0.261017,-0.0719146,0.000544506,0,
6,8.9922,0.286955,-0.0719144,0.000669729,0,
6,8.9909,0.310857,-0.071914,0.000771503,0,
6,8.98944,0.332888,-0.0719136,0.000857779,0,
6,8.98779,0.353221,-0.071913,0.000930186,0,
6,8.98593,0.372119,-0.0719124,0.00098684,0,
6,8.98383,0.38984,-0.0719116,0.00103379,0,
6,8.98147,0.406581,-0.0719107,0.00107378,0,
6,8.97881,0.422498,-0.0719095,0.00110821,0,
6,8.97581,0.437726,-0.0719081,0.00113837,0,
6,8.97244,0.452376,-0.0719065,0.00116524,0,
6,8.96863,0.466545,-0.0719046,0.00118956,0,
6,8.96435,0.480316,-0.0719023,0.00121188,0,
6,8.95953,0.49376,-0.0718996,0.00123262,0,
6,8.95409,0.506939,-0.0718965,0.00125206,0,
6,8.94798,0.519907,-0.0718928,0.00127039,0,
6,8.94109,0.532712,-0.0718886,0.00128772,0,
6,8.93334,0.545395,-0.0718838,0.00130409,0,
6,8.92463,0.557994,-0.0718782,0.00131947,0,
6,8.91482,0.57054,-0.0718718,0.00133378,0,
6,8.90379,0.583061,-0.0718646,0.00134689,0,
6,8.89139,0.595581,-0.0718563,0.0013586,0,
6,8.87746,0.608119,-0.071847,0.00136871,0,
6,8.86181,0.620691,-0.0718366,0.00137695,0,
6,8.84423,0.633309,-0.071825,0.00138304,0,
6,8.82452,0.64598,-0.071812,0.00138668,0,
6,8.80241,0.658711,-0.0717976,0.00138755,0,
6,8.77763,0.671503,-0.0717817,0.00138531,0,
6,8.74989,0.684355,-0.0717644,0.00137965,0,
6,8.71885,0.697267,-0.0717454,0.00137025,0,
6,8.68417,0.710237,-0.0717249,0.00135716,0,
6,8.64545,0.723272,-0.0717029,0.00133943,0,
6,8.60229,0.736389,-0.0716796,0.00131622,0,
6,8.55423,0.749605,-0.0716552,0.00128892,0,
6,8.50082,0.762939,-0.0716296,0.00125719,0,
6,8.44155,0.776443,-0.0716034,0.00122041,0,
6,8.37592,0.790218,-0.0715775,0.00117744,0,
6,8.30339,0.80444,-0.0715529,0.00112624,0,
6,8.22344,0.819376,-0.0715311,0.00106348,0,
6,8.13555,0.835378,-0.0715111,0.000985187,0,
6,8.0392,0.852822,-0.0714919,0.000886772,0,
6,7.93391,0.871941,-0.0714668,0.000764744,0,
6,7.81927,0.892477,-0.0714319,0.000621809,0,
6,7.6949,0.913321,-0.0713786,0.000473586,0,
6,7.56054,0.932551,-0.0713037,0.000334053,0,
6,7.41603,0.948162,-0.0712127,0.000217033,0,
6,7.26132,0.95901,-0.0711026,9.94565e-05,0,
6,7.09653,0.964996,-0.070975,3.13007e-05,0,
6,6.92195,0.967129,-0.0708219,4.47805e-06,0,
6,6.73802,0.9671,-0.070638,-1.20776e-06,0,
6,6.5454,0.96639,-0.070416,-9.12029e-07,0,
6,6.34489,0.965775,-0.0701523,-3.07277e-07,0,
6,6.1375,0.965417,-0.0698425,-8.80826e-08,0,
6,5.92439,0.965209,-0.0694816,-3.10571e-08,0,
6,5.70687,0.96502,-0.069064,-1.54625e-08,0,
6,5.48633,0.964786,-0.0685837,-1.04742e-08,0,
6,5.26426,0.964493,-0.0680344,-9.11257e-09,0,
6,5.04218,0.964151,-0.0674102,-9.24464e-09,0,
6,4.82159,0.963776,-0.0667057,-9.99803e-09,0,
6,4.60398,0.963378,-0.0659164,-1.11472e-08,0,
6,4.39071,0.96295,-0.065039,-1.29084e-08,0,
6,4.18307,0.962449,-0.064072,-1.57389e-08,0,
6,3.98218,0.961807,-0.0630161,-1.99315e-08,0,
6,3.78902,0.960985,-0.0618745,-2.51124e-08,0,
6,3.60438,0.960056,-0.0606526,-3.72727e-08,0,
6,3.42888,0.959246,-0.0593584,-1.0027e-07,0,
6,3.26296,0.958854,-0.0580004,-2.57135e-07,0,
6,3.10691,0.959047,-0.0565875,-3.23537e-07,0,
6,2.96084,0.959675,-0.0551315,-3.28684e-07,0,
6,2.82473,0.960263,-0.0536479,-1.90483e-06,0,
6,2.69844,0.960195,-0.052154,-8.00629e-06,0,
6,2.58172,0.95893,-0.0506679,-2.11368e-05,0,
6,2.47424,0.956161,-0.0492074,-4.23093e-05,0,
6,2.37559,0.951848,-0.0477891,-7.09972e-05,0,
6,2.28535,0.94617,-0.0464268,-0.00010561,0,
6,2.20301,0.939435,-0.0451317,-0.000144064,0,
6,2.1281,0.931996,-0.0439113,-0.000184282,0,
6,2.06009,0.924193,-0.0427701,-0.000224598,0,
6,1.99849,0.91631,-0.0417103,-0.000263682,0,
6,1.9428,0.908571,-0.0407314,-0.000300463,0,
6,1.89255,0.901134,-0.0398321,-0.000334322,0,
6,1.84728,0.894101,-0.0390088,-0.000364991,0,
6,1.80655,0.887532,-0.0382585,-0.000392391,0,
6,1.76996,0.881458,-0.0375759,-0.000416487,0,
6,1.73712,0.875887,-0.0369577,-0.000438757,0,
6,1.70768,0.870779,-0.0363974,-0.000459013,0,
6,1.67998,0.865901,-0.0358678,-0.000476568,0,
6,1.65329,0.861145,-0.0353525,-0.000493179,0,
6,1.62754,0.856502,-0.0348522,-0.000509161,0,
6,1.60265,0.851966,-0.0343651,-0.00052433,0,
6,1.57854,0.847533,-0.0338904,-0.000538694,0,
6,1.55515,0.843196,-0.0334271,-0.000552274,0,
6,1.53242,0.83895,-0.0329743,-0.000565081,0,
6,1.5103,0.834789,-0.0325312,-0.000577117,0,
6,1.48874,0.830708,-0.032097,-0.000588381,0,
6,1.46769,0.826701,-0.031671,-0.000598865,0,
6,1.44712,0.822762,-0.0312526,-0.000608562,0,
6,1.42698,0.818887,-0.0308412,-0.000617466,0,
6,1.40725,0.815069,-0.0304363,-0.00062558,0,
6,1.38788,0.811302,-0.0300373,-0.000632918,0,
6,1.36886,0.807582,-0.0296439,-0.000639518,0,
6,1.35015,0.8039,-0.0292555,-0.000645452,0,
6,1.33173,0.800249,-0.0288719,-0.000650796,0,
6,1.31357,0.796619,-0.0284927,-0.000655764,0,
6,1.29566,0.792999,-0.0281175,-0.000660689,0,
6,1.27797,0.789378,-0.027746,-0.000666044,0,
6,1.26048,0.78574,-0.0273777,-0.000672517,0,
6,1.24318,0.782066,-0.0270125,-0.000681091,0,
6,1.22605,0.778331,-0.0266502,-0.000693058,0,
6,1.20907,0.774505,-0.0262904,-0.000710441,0,
6,1.19223,0.770546,-0.0259333,-0.00073562,0,
6,1.17551,0.766403,-0.0255789,-0.000771566,0,
6,1.1589,0.762006,-0.0252276,-0.000822026,0,
6,1.14238,0.75727,-0.0248796,-0.000891248,0,
6,1.12595,0.752096,-0.0245358,-0.000983514,0,
6,1.10959,0.746381,-0.0241964,-0.0011021,0,
6,1.09329,0.740036,-0.0238626,-0.00124809,0,
6,1.07704,0.733004,-0.0235342,-0.00141789,0,
6,1.06081,0.725291,-0.0232134,-0.00160308,0,
6,1.04459,0.71698,-0.0228991,-0.00180393,0,
6,1.02836,0.7081,-0.0225586,-0.00197174,0,
6,1.01211,0.698603,-0.0222005,-0.00214532,0,
6,0.99583,0.688475,-0.0218498,-0.00232674,0,
6,0.97951,0.677711,-0.0215009,-0.00251605,0,
6,0.963136,0.666303,-0.0211594,-0.00271414,0,
6,0.946694,0.654242,-0.0208249,-0.0029224,0,
6,0.930172,0.641517,-0.0204997,-0.00314234,0,
6,0.913555,0.628122,-0.0201849,-0.00337532,0,
6,0.896829,0.614054,-0.0198817,-0.00362231,0,
6,0.879979,0.599321,-0.0195908,-0.00388389,0,
6,0.862989,0.583942,-0.0193121,-0.00416042,0,
6,0.845842,0.567952,-0.0190457,-0.00445259,0,
6,0.828521,0.5514,-0.0187906,-0.00476177,0,
6,0.811008,0.534326,-0.0185524,-0.00508285,0,
6,0.793282,0.516752,-0.0183359,-0.00541156,0,
6,0.775322,0.498692,-0.0181396,-0.00574624,0,
6,0.757107,0.480173,-0.0179634,-0.00608475,0,
6,0.738612,0.461239,-0.0178076,-0.00642421,0,
6,0.719813,0.441956,-0.0176735,-0.00676084,0,
6,0.700681,0.422405,-0.0175624,-0.00708962,0,
6,0.681188,0.402679,-0.0174746,-0.00740435,0,
6,0.661304,0.38287,-0.0174095,-0.00769805,0,
6,0.640996,0.363065,-0.017367,-0.00796424,0,
6,0.620228,0.343348,-0.0173484,-0.00819749,0,
6,0.598964,0.323809,-0.0173557,-0.00839318,0,
6,0.577166,0.304538,-0.0173896,-0.00854744,0,
6,0.554791,0.285615,-0.0174466,-0.00865708,0,
6,0.531799,0.267082,-0.0175154,-0.00871916,0,
6,0.508144,0.24892,-0.0175752,-0.0087302,0,
6,0.48378,0.231039,-0.017605,-0.00868505,0,
6,0.459585,0.213942,-0.0175999,-0.00858182,0,
6,0.436695,0.198333,-0.0176123,-0.00843073,0,
6,0.414961,0.184254,-0.0177624,-0.00824713,0,
6,0.394252,0.171988,-0.0182151,-0.00805542,0,
6,0.374445,0.161885,-0.0191628,-0.00788535,0,
6,0.355433,0.154021,-0.0207147,-0.00775616,0,
6,0.337122,0.14798,-0.0222902,-0.00764716,0,
6,0.319433,0.142978,-0.0227941,-0.00714862,0,
6,0.3023,0.138458,-0.0224745,-0.00667641,0,
6,0.28567,0.134216,-0.0221329,-0.00631461,0,
6,0.269507,0.130207,-0.0217635,-0.00595988,0,
6,0.253785,0.126398,-0.0213348,-0.00561139,0,
6,0.238493,0.122762,-0.0208636,-0.00527006,0,
6,0.223631,0.119278,-0.0203569,-0.0049368,0,
6,0.209207,0.115931,-0.0198225,-0.00461261,0,
6,0.195237,0.112707,-0.0192691,-0.00429848,0,
6,0.181744,0.109596,-0.0187057,-0.00399539,0,
6,0.168754,0.106593,-0.0181408,-0.00370426,0,
6,0.156292,0.103691,-0.017583,-0.00342593,0,
6,0.144384,0.100886,-0.0170394,-0.0031611,0,
6,0.133052,0.0981769,-0.0165167,-0.00291032,0,
6,0.122315,0.0955602,-0.01602,-0.00267399,0,
6,0.112183,0.0930349,-0.0155533,-0.0024523,0,
6,0.102665,0.0905996,-0.0151193,-0.00224527,0,
6,0.0937597,0.0882531,-0.0147196,-0.00205276,0,
6,0.0854609,0.0859939,-0.0143545,-0.00187446,0,
6,0.077757,0.0838201,-0.0140236,-0.00170996,0,
6,0.0706309,0.0817294,-0.0137259,-0.0015587,0,
6,0.0640611,0.0797192,-0.0134596,-0.00142006,0,
6,0.0580229,0.0777862,-0.0132227,-0.00129336,0,
6,0.0524888,0.0759265,-0.0130131,-0.00117787,0,
6,0.0474296,0.0741359,-0.0128283,-0.00107283,0,
6,0.042815,0.0724094,-0.0126661,-0.000977483,0,
6,0.0386145,0.0707416,-0.0125243,-0.000891085,0,
6,0.0347975,0.0691264,-0.0124005,-0.000812898,0,
6,0.0313344,0.0675572,-0.012293,-0.000742209,0,
6,0.0281964,0.0660269,-0.0121997,-0.000678336,0,
6,0.0253561,0.0645275,-0.012119,-0.000620625,0,
6,0.0227875,0.0630502,-0.0120495,-0.000568457,0,
6,0.0204662,0.0615851,-0.0119897,-0.000521237,0,
6,0.0183694,0.0601211,-0.0119386,-0.000478396,0,
6,0.016476,0.0586451,-0.0118947,-0.00043938,0,
6,0.0147664,0.0571419,-0.0118577,-0.000403634,0,
6,0.0132228,0.0555927,-0.0118261,-0.00037059,0,
6,0.0118288,0.0539746,-0.0118,-0.00033963,0,
6,0.0105693,0.0522584,-0.0117777,-0.000310051,0,
6,0.00943073,0.0504068,-0.0117602,-0.000281007,0,
6,0.00840063,0.0483717,-0.0117452,-0.00025145,0,
6,0.00746774,0.0460924,-0.0117345,-0.000220119,0,
6,0.00662185,0.0434972,-0.011725,-0.000185741,0,
6,0.00585371,0.0405153,-0.0117196,-0.000147764,0,
6,0.00515491,0.0371078,-0.0117143,-0.000107713,0,
6,0.00451788,0.0333175,-0.0117127,-6.99899e-05,0,
6,0.00393573,0.0292973,-0.0117098,-3.99087e-05,0,
6,0.00340221,0.0252645,-0.0117102,-1.99869e-05,0,
6,0.00291168,0.0214073,-0.011708,-8.87704e-06,0,
6,0.00245897,0.01783,-0.0117094,-3.5136e-06,0,
6,0.00203939,0.0145621,-0.011707,-1.2263e-06,0,
6,0.00164864,0.0115897,-0.011709,-3.64944e-07,0,
6,0.00128281,0.00888116,-0.0117062,-8.65255e-08,0,
6,0.000938257,0.00640065,-0.0117088,-1.43398e-08,0,
6,0.000611645,0.00411375,-0.0117052,-1.26582e-09,0,
6,0.000299862,0.00198953,-0.0117087,-3.13571e-11,0,

10,0.000296632,0.0110827,0.0297488,-1.43048e-10,0,
10,0.000596102,0.0222688,0.0297494,-5.30172e-09,0,
10,0.000900397,0.0336322,0.0297488,-5.38933e-08,0,
10,0.00121153,0.0452468,0.0297493,-2.89365e-07,0,
10,0.00153158,0.0571849,0.0297487,-1.07997e-06,0,
10,0.00186264,0.0695131,0.0297491,-3.19553e-06,0,
10,0.00220692,0.0822847,0.0297486,-8.03734e-06,0,
10,0.00256668,0.0955269,0.029749,-1.7863e-05,0,
10,0.00294431,0.109222,0.0297485,-3.58385e-05,0,
10,0.00334229,0.123285,0.0297487,-6.56297e-05,0,
10,0.00376326,0.137551,0.0297483,-0.000110305,0,
10,0.00421,0.151776,0.0297484,-0.000170796,0,
10,0.00468544,0.165674,0.0297478,-0.000244846,0,
10,0.00519274,0.178969,0.0297476,-0.00032741,0,
10,0.00573524,0.191445,0.0297468,-0.000412355,0,
10,0.00631651,0.202968,0.0297461,-0.00049431,0,
10,0.00694041,0.213491,0.0297448,-0.00056966,0,
10,0.00761104,0.223026,0.0297435,-0.00063662,0,
10,0.00833284,0.231631,0.0297414,-0.000694814,0,
10,0.00911058,0.239389,0.0297392,-0.000744757,0,
10,0.0099494,0.246389,0.0297361,-0.000787431,0,
10,0.0108548,0.252723,0.0297325,-0.000823999,0,
10,0.0118329,0.258477,0.029728,-0.000855627,0,
10,0.0128901,0.263729,0.0297228,-0.00088339,0,
10,0.0140333,0.268549,0.0297164,-0.000908241,0,
10,0.0152702,0.272997,0.0297091,-0.000930995,0,
10,0.0166089,0.277124,0.0297005,-0.000952347,0,
10,0.0180584,0.280975,0.0296906,-0.000972889,0,
10,0.0196282,0.284588,0.0296791,-0.000993125,0,
10,0.0213288,0.287998,0.029666,-0.00101349,0,
10,0.0231714,0.29123,0.0296509,-0.00103438,0,
10,0.0251682,0.294312,0.0296338,-0.00105614,0,
10,0.0273326,0.297263,0.0296143,-0.0010791,0,
10,0.0296789,0.300103,0.0295923,-0.00110357,0,
10,0.0322227,0.302848,0.0295674,-0.00112985,0,
10,0.0349809,0.305513,0.0295392,-0.00115824,0,
10,0.0379719,0.308112,0.0295075,-0.00118906,0,
10,0.0412155,0.310657,0.0294719,-0.00122261,0,
10,0.0447333,0.31316,0.0294319,-0.00125924,0,
10,0.0485489,0.31563,0.029387,-0.00129928,0,
10,0.0526875,0.318078,0.0293368,-0.00134312,0,
10,0.0571768,0.320513,0.0292806,-0.00139116,0,
10,0.0620466,0.322945,0.0292178,-0.00144382,0,
10,0.0673295,0.325382,0.0291477,-0.00150158,0,
10,0.0730607,0.327835,0.0290695,-0.00156494,0,
10,0.0792784,0.330311,0.0289825,-0.00163445,0,
10,0.0860241,0.332821,0.0288857,-0.00171071,0,
10,0.0933428,0.335373,0.0287782,-0.00179438,0,
10,0.101283,0.337979,0.0286591,-0.00188617,0,
10,0.109899,0.340648,0.0285271,-0.00198686,0,
10,0.119247,0.343393,0.0283812,-0.00209732,0,
10,0.12939,0.346224,0.0282204,-0.00221847,0,
10,0.140395,0.349157,0.0280434,-0.00235133,0,
10,0.152337,0.352206,0.0278492,-0.00249701,0,
10,0.165296,0.355388,0.0276369,-0.00265672,0,
10,0.179357,0.358722,0.0274055,-0.00283175,0,
10,0.194615,0.36223,0.0271545,-0.00302352,0,
10,0.211171,0.365937,0.0268837,-0.00323352,0,
10,0.229138,0.369872,0.0265931,-0.00346331,0,
10,0.248635,0.374071,0.0262839,-0.00371454,0,
10,0.269793,0.378574,0.0259572,-0.00398884,0,
10,0.292753,0.383431,0.0256169,-0.00428779,0,
10,0.317669,0.388702,0.0252633,-0.00461202,0,
10,0.344708,0.394461,0.0249073,-0.00496102,0,
10,0.372405,0.400441,0.024572,-0.0053156,0,
10,0.399623,0.406434,0.0242674,-0.00566121,0,
10,0.426397,0.412471,0.0240126,-0.00599876,0,
10,0.452757,0.418591,0.0237541,-0.00632819,0,
10,0.478735,0.424852,0.0236571,-0.00682025,0,
10,0.504358,0.431677,0.0241235,-0.00694443,0,
10,0.529657,0.439757,0.0248893,-0.00697762,0,
10,0.554656,0.449439,0.0254199,-0.00701705,0,
10,0.579382,0.460568,0.0256904,-0.007053,0,
10,0.603859,0.472691,0.0257757,-0.00706777,0,
10,0.628112,0.485359,0.0257627,-0.00704883,0,
10,0.652163,0.49832,0.0257156,-0.00699045,0,
10,0.676035,0.511518,0.0256702,-0.00689099,0,
10,0.699751,0.525024,0.0256382,-0.00675014,0,
10,0.72333,0.538943,0.0256162,-0.00656748,0,
10,0.746795,0.553366,0.0255944,-0.00634215,0,
10,0.770165,0.568335,0.0255638,-0.00607326,0,
10,0.79346,0.583836,0.0255175,-0.00576071,0,
10,0.816699,0.599793,0.0254531,-0.00540603,0,
10,0.839903,0.61607,0.0253669,-0.00501315,0,
10,0.863088,0.632446,0.0252606,-0.00459,0,
10,0.886275,0.648571,0.0251254,-0.00417336,0,
10,0.909481,0.664051,0.0249628,-0.00377708,0,
10,0.932723,0.678658,0.0247901,-0.00339381,0,
10,0.956021,0.69237,0.0246111,-0.00302436,0,
10,0.97939,0.705232,0.0244266,-0.00267329,0,
10,1.00285,0.717256,0.0242332,-0.00234625,0,
10,1.02641,0.72839,0.0240286,-0.00204906,0,
10,1.0501,0.738569,0.0238117,-0.00178635,0,
10,1.07392,0.747762,0.0235833,-0.00156027,0,
10,1.0979,0.756008,0.0233447,-0.00137024,0,
10,1.12205,0.763413,0.0230974,-0.00121331,0,
10,1.14639,0.770123,0.0228423,-0.00108514,0,
10,1.17093,0.776292,0.0225805,-0.000980882,0,
10,1.19568,0.782064,0.0223124,-0.000895961,0,
10,1.22066,0.787556,0.0220384,-0.000826476,0,
10,1.24589,0.792854,0.0217584,-0.000769267,0,
10,1.27137,0.798017,0.0214723,-0.000721766,0,
10,1.29713,0.803083,0.0211802,-0.000681834,0,
10,1.32317,0.808077,0.0208818,-0.000647656,0,
10,1.34951,0.81302,0.0205773,-0.000617709,0,
10,1.37616,0.817929,0.0202665,-0.000590731,0,
10,1.40313,0.822818,0.0199496,-0.000565707,0,
10,1.43043,0.827697,0.0196262,-0.00054188,0,
10,1.45807,0.832571,0.0192963,-0.000518821,0,
10,1.48607,0.837439,0.0189596,-0.000496402,0,
10,1.51444,0.842298,0.0186157,-0.000474701,0,
10,1.54318,0.847143,0.0182646,-0.000453413,0,
10,1.57231,0.851972,0.0179064,-0.000432309,0,
10,1.60184,0.85678,0.0175407,-0.000411384,0,
10,1.63178,0.861559,0.0171677,-0.000390807,0,
10,1.66213,0.866296,0.0167872,-0.000370563,0,
10,1.69292,0.870979,0.016399,-0.00035061,0,
10,1.72416,0.875595,0.0160031,-0.000330952,0,
10,1.75585,0.880132,0.0155992,-0.000311636,0,
10,1.78802,0.884577,0.0151874,-0.000292741,0,
10,1.82067,0.888917,0.0147674,-0.000274365,0,
10,1.85383,0.893134,0.0143393,-0.000256616,0,
10,1.88751,0.897211,0.0139029,-0.000239606,0,
10,1.92173,0.901128,0.0134583,-0.000223445,0,
10,1.95652,0.904866,0.0130053,-0.000208244,0,
10,1.9919,0.908405,0.0125437,-0.000194107,0,
10,2.02791,0.911725,0.012074,-0.000181129,0,
10,2.06456,0.914812,0.0115956,-0.000169402,0,
10,2.10268,0.917719,0.0110992,-0.000158637,0,
10,2.1443,0.920598,0.0105598,-0.000139843,0,
10,2.18977,0.923462,0.00996965,-0.000116535,0,
10,2.23946,0.926198,0.00932934,-9.22301e-05,0,
10,2.29376,0.928667,0.00863012,-6.91099e-05,0,
10,2.35309,0.930778,0.00787189,-4.89862e-05,0,
10,2.4179,0.93246,0.00704921,-3.23997e-05,0,
10,2.48863,0.933662,0.00616137,-1.95294e-05,0,
10,2.56575,0.934364,0.00520534,-1.03679e-05,0,
10,2.64971,0.934594,0.00418113,-4.627e-06,0,
10,2.74098,0.93444,0.00308803,-1.70529e-06,0,
10,2.83997,0.934054,0.00192744,-7.44652e-07,0,
10,2.94709,0.933627,0.000700786,-7.82995e-07,0,
10,3.06269,0.933359,-0.000588991,-9.97686e-07,0,
10,3.18706,0.933405,-0.00193843,-9.49692e-07,0,
10,3.3204,0.933829,-0.00334259,-6.50444e-07,0,
10,3.46281,0.934583,-0.00479534,-3.30902e-07,0,
10,3.61427,0.935538,-0.00628858,-1.38114e-07,0,
10,3.77463,0.93654,-0.00781244,-6.03385e-08,0,
10,3.94358,0.937475,-0.00935519,-3.61771e-08,0,
10,4.12067,0.938298,-0.010904,-2.85474e-08,0,
10,4.30525,0.939027,-0.0124452,-2.53893e-08,0,
10,4.49655,0.939707,-0.0139655,-2.42185e-08,0,
10,4.6936,0.940375,-0.0154518,-2.49533e-08,0,
10,4.89531,0.941044,-0.016892,-2.86314e-08,0,
10,5.10047,0.941702,-0.0182751,-3.80572e-08,0,
10,5.30776,0.94233,-0.0195916,-5.92704e-08,0,
10,5.51581,0.942908,-0.0208339,-1.04622e-07,0,
10,5.72323,0.94344,-0.0219962,-2.01541e-07,0,
10,5.92863,0.943961,-0.0230748,-4.19701e-07,0,
10,6.13069,0.944554,-0.0240676,-9.30484e-07,0,
10,6.32816,0.9453,-0.0249751,-1.98505e-06,0,
10,6.51991,0.946145,-0.0257986,-3.20192e-06,0,
10,6.70495,0.946674,-0.0265418,-1.24615e-06,0,
10,6.88244,0.945961,-0.0272072,1.27891e-05,0,
10,7.0517,0.942709,-0.027798,5.21651e-05,0,
10,7.21224,0.935746,-0.0283147,0.000129146,0,
10,7.3637,0.92455,-0.0287613,0.000248423,0,
10,7.5059,0.909164,-0.0291487,0.00035762,0,
10,7.63878,0.890304,-0.0294757,0.000485064,0,
10,7.76243,0.869723,-0.0297425,0.000619209,0,
10,7.87701,0.84928,-0.0299609,0.000748807,0,
10,7.9828,0.83017,-0.030137,0.000859297,0,
10,8.08014,0.812744,-0.0302807,0.000949471,0,
10,8.16941,0.79682,-0.0303991,0.00102297,0,
10,8.25106,0.782021,-0.0304988,0.00108401,0,
10,8.32554,0.767968,-0.0305842,0.00113548,0,
10,8.39331,0.754377,-0.0306575,0.00117989,0,
10,8.45484,0.741066,-0.0307207,0.00121862,0,
10,8.5106,0.72795,-0.0307748,0.00125226,0,
10,8.56104,0.714999,-0.0308216,0.00128103,0,
10,8.60659,0.702208,-0.0308613,0.00130383,0,
10,8.64767,0.68956,-0.030895,0.00131996,0,
10,8.68467,0.677042,-0.0309244,0.00133194,0,
10,8.71795,0.664661,-0.0309494,0.00133931,0,
10,8.74786,0.652422,-0.030971,0.00134241,0,
10,8.77471,0.640327,-0.0309894,0.00134167,0,
10,8.79881,0.628377,-0.0310053,0.00133753,0,
10,8.8204,0.616569,-0.0310189,0.00133045,0,
10,8.83975,0.604895,-0.0310305,0.0013209,0,
10,8.85708,0.593343,-0.0310404,0.00130931,0,
10,8.87259,0.5819,-0.0310488,0.0012961,0,
10,8.88646,0.570545,-0.0310559,0.00128162,0,
10,8.89886,0.559256,-0.0310619,0.0012662,0,
10,8.90995,0.548009,-0.031067,0.00125009,0,
10,8.91986,0.536774,-0.0310712,0.00123348,0,
10,8.92872,0.52552,-0.0310748,0.00121651,0,
10,8.93663,0.514213,-0.0310777,0.00119926,0,
10,8.94369,0.502816,-0.0310802,0.00118173,0,
10,8.95,0.491289,-0.0310822,0.00116386,0,
10,8.95564,0.479588,-0.0310839,0.0011456,0,
10,8.96067,0.467667,-0.0310852,0.00112675,0,
10,8.96517,0.455472,-0.0310864,0.00110705,0,
10,8.96918,0.442945,-0.0310873,0.00108619,0,
10,8.97276,0.430018,-0.0310881,0.00106374,0,
10,8.97596,0.416615,-0.0310886,0.00103914,0,
10,8.97882,0.402648,-0.0310893,0.00101169,0,
10,8.98137,0.388014,-0.0310895,0.000980487,0,
10,8.98365,0.372591,-0.0310901,0.000944352,0,
10,8.98569,0.356237,-0.0310901,0.000902048,0,
10,8.9875,0.338774,-0.0310906,0.000851202,0,
10,8.98913,0.319966,-0.0310905,0.000786385,0,
10,8.99058,0.299571,-0.0310909,0.000709532,0,
10,8.99188,0.277429,-0.0310907,0.000619193,0,
10,8.99304,0.25338,-0.0310912,0.000508832,0,
10,8.99408,0.227256,-0.0310908,0.00037457,0,
10,8.99501,0.19927,-0.0310913,0.000241212,0,
10,8.99583,0.170348,-0.0310909,0.000129406,0,
10,8.99658,0.141818,-0.0310914,5.61496e-05,0,
10,8.99724,0.114894,-0.0310909,1.95126e-05,0,
10,8.99784,0.0902451,-0.0310915,5.38e-06,0,
10,8.99837,0.0680211,-0.0310909,1.13006e-06,0,
10,8.99885,0.0480989,-0.0310916,1.61977e-07,0,
10,8.99927,0.0302659,-0.0310908,1.22997e-08,0,
10,8.99966,0.0143027,-0.0310918,2.72155e-10,0,
10,0,0,0.0297496,0,0,
10,9,0,-0.0310907,0,0,

0.004,0,0,-0.226943,0,2.66143e-07,
0.00868226,0,0,-0.226955,0,-1.03569e-06,
0.014062,0,0,-0.226942,0,-2.46536e-06,
0.0201548,0,0,-0.22695,0,-3.29422e-06,
0.0269766,0,0,-0.226928,0,-2.06992e-06,
0.0345437,0,0,-0.226925,0,2.92892e-06,
0.0428729,0,0,-0.226903,0,1.23697e-05,
0.051981,0,0,-0.226906,0,2.65911e-05,
0.0618853,0,0,-0.226912,0,4.38824e-05,
0.0726036,0,0,-0.226952,0,6.23253e-05,
0.0841536,0,0,-0.227006,0,7.96077e-05,
0.0965535,0,0,-0.227087,0,9.47627e-05,
0.109822,0,0,-0.22718,0,0.000107574,
0.123977,0,0,-0.227291,0,0.000118766,
0.139037,0,0,-0.227417,0,0.00012902,
0.155022,0,0,-0.227565,0,0.000138763,
0.171949,0,0,-0.227738,0,0.000147717,
0.189839,0,0,-0.227943,0,0.00015507,
0.208709,0,0,-0.228182,0,0.00015965,
0.228579,0,0,-0.228458,0,0.000160278,
0.249467,0,0,-0.22877,0,0.000155978,
0.271391,0,0,-0.229115,0,0.000146142,
0.29437,0,0,-0.229488,0,0.000130595,
0.31842,0,0,-0.229883,0,0.00010961,
0.343559,0,0,-0.230292,0,8.3853e-05,
0.369804,0,0,-0.230707,0,5.42672e-05,
0.39717,0,0,-0.231121,0,2.19445e-05,
0.425672,0,0,-0.231527,0,-1.20122e-05,
0.455324,0,0,-0.231919,0,-4.66048e-05,
0.48614,0,0,-0.232295,0,-8.10489e-05,
0.518132,0,0,-0.232652,0,-0.000114804,
0.551309,0,0,-0.232992,0,-0.000147591,
0.585683,0,0,-0.233316,0,-0.000179344,
0.621259,0,0,-0.233625,0,-0.000210192,
0.658046,0,0,-0.233922,0,-0.000240336,
0.696047,0,0,-0.234209,0,-0.000270011,
0.735265,0,0,-0.234489,0,-0.000299433,
0.7757,0,0,-0.234764,0,-0.000328744,
0.817352,0,0,-0.235033,0,-0.000358038,
0.860215,0,0,-0.235297,0,-0.000387376,
0.904285,0,0,-0.235555,0,-0.000416672,
0.949552,0,0,-0.235804,0,-0.000445815,
0.996004,0,0,-0.236037,0,-0.000474601,
1.04363,0,0,-0.236253,0,-0.000502212,
1.09241,0,0,-0.236444,0,-0.000527847,
1.14232,0,0,-0.236619,0,-0.000549742,
1.19335,0,0,-0.236783,0,-0.000565449,
1.24546,0,0,-0.236966,0,-0.000574106,
1.29863,0,0,-0.237207,0,-0.000576347,
1.35283,0,0,-0.237455,0,-0.000573971,
1.40802,0,0,-0.237716,0,-0.000567331,
1.46416,0,0,-0.238041,0,-0.000555947,
1.52121,0,0,-0.238486,0,-0.000540634,
1.57913,0,0,-0.239166,0,-0.000523464,
1.63787,0,0,-0.240186,0,-0.000509402,
1.69739,0,0,-0.241626,0,-0.000505612,
1.75761,0,0,-0.243495,0,-0.000518734,
1.81851,0,0,-0.24575,0,-0.000552839,
1.88,0,0,-0.248317,0,-0.000609187,
1.94204,0,0,-0.25111,0,-0.000687305,
2.00457,0,0,-0.254018,0,-0.000785941,
2.06751,0,0,-0.256913,0,-0.000903474,
2.13081,0,0,-0.259639,0,-0.00103778,
2.19439,0,0,-0.262013,0,-0.00118574,
2.25819,0,0,-0.263829,0,-0.00134263,
2.32214,0,0,-0.264879,0,-0.00150175,
2.38617,0,0,-0.264992,0,-0.00165501,
2.4502,0,0,-0.264074,0,-0.00179445,
2.51418,0,0,-0.262114,0,-0.00191382,
2.57803,0,0,-0.259175,0,-0.00200932,
2.64167,0,0,-0.25539,0,-0.00207986,
2.70505,0,0,-0.250925,0,-0.00212695,
2.76808,0,0,-0.245952,0,-0.00215398,
2.83072,0,0,-0.240619,0,-0.00216506,
2.89288,0,0,-0.235044,0,-0.00216411,
2.95451,0,0,-0.229318,0,-0.00215425,
3.01555,0,0,-0.223505,0,-0.00213774,
3.07594,0,0,-0.217653,0,-0.00211612,
3.13561,0,0,-0.211798,0,-0.00209038,
3.19453,0,0,-0.205971,0,-0.00206126,
3.25262,0,0,-0.200192,0,-0.00202927,
3.30985,0,0,-0.194484,0,-0.00199475,
3.36617,0,0,-0.188864,0,-0.00195801,
3.42154,0,0,-0.183348,0,-0.00191933,
3.47591,0,0,-0.177952,0,-0.00187903,
3.52925,0,0,-0.172687,0,-0.00183738,
3.58152,0,0,-0.167565,0,-0.00179468,
3.6327,0,0,-0.162595,0,-0.00175122,
3.68276,0,0,-0.157784,0,-0.00170731,
3.73167,0,0,-0.153137,0,-0.00166322,
3.77941,0,0,-0.148657,0,-0.00161921,
3.82596,0,0,-0.144346,0,-0.00157552,
3.8713,0,0,-0.140203,0,-0.00153232,
3.91543,0,0,-0.136225,0,-0.00148962,
3.95833,0,0,-0.132433,0,-0.00144798,
4,0,0,-0.128777,0,-0.00140699,
4.04167,0,0,-0.125185,0,-0.00136578,
4.08333,0,0,-0.121651,0,-0.00132448,
4.125,0,0,-0.118171,0,-0.00128309,
4.16667,0,0,-0.114748,0,-0.00124163,
4.20833,0,0,-0.111382,0,-0.00120019,
4.25,0,0,-0.108073,0,-0.00115885,
4.29167,0,0,-0.10482,0,-0.00111768,
4.33333,0,0,-0.101621,0,-0.00107668,
4.375,0,0,-0.0984768,0,-0.00103586,
4.41667,0,0,-0.0953858,0,-0.000995194,
4.45833,0,0,-0.0923481,0,-0.000954691,
4.5,0,0,-0.0893633,0,-0.000914386,
4.54167,0,0,-0.0864303,0,-0.000874303,
4.58333,0,0,-0.0835481,0,-0.000834446,
4.625,0,0,-0.0807162,0,-0.000794802,
4.66667,0,0,-0.077934,0,-0.000755366,
4.70833,0,0,-0.0752008,0,-0.000716141,
4.75,0,0,-0.072516,0,-0.000677139,
4.79167,0,0,-0.0698789,0,-0.00063837,
4.83333,0,0,-0.067289,0,-0.000599832,
4.875,0,0,-0.0647452,0,-0.000561512,
4.91667,0,0,-0.062247,0,-0.000523403,
4.95833,0,0,-0.0597943,0,-0.000485512,
5,0,0,-0.0573864,0,-0.000447849,
5.04167,0,0,-0.0550223,0,-0.00041041,
5.08333,0,0,-0.0527015,0,-0.000373189,
5.125,0,0,-0.0504237,0,-0.000336176,
5.16667,0,0,-0.0481884,0,-0.000299374,
5.20833,0,0,-0.0459949,0,-0.000262783,
5.25,0,0,-0.043843,0,-0.000226407,
5.29167,0,0,-0.0417318,0,-0.000190238,
5.33333,0,0,-0.039661,0,-0.000154267,
5.375,0,0,-0.0376303,0,-0.000118492,
5.41667,0,0,-0.0356393,0,-8.29205e-05,
5.45833,0,0,-0.0336875,0,-4.75546e-05,
5.5,0,0,-0.0317744,0,-1.23906e-05,
5.54167,0,0,-0.0298997,0,2.25707e-05,
5.58333,0,0,-0.0280632,0,5.73236e-05,
5.625,0,0,-0.0262643,0,9.18666e-05,
5.66667,0,0,-0.0245024,0,0.000126203,
5.70833,0,0,-0.0227775,0,0.000160332,
5.75,0,0,-0.0210891,0,0.000194252,
5.79167,0,0,-0.0194369,0,0.000227959,
5.83333,0,0,-0.0178203,0,0.000261451,
5.875,0,0,-0.0162392,0,0.000294724,
5.91667,0,0,-0.0146931,0,0.000327779,
5.95833,0,0,-0.0131816,0,0.000360613,
6,0,0,-0.0117044,0,0.00039322,
6.04167,0,0,-0.0102612,0,0.000425595,
6.08333,0,0,-0.00885145,0,0.000457736,
6.125,0,0,-0.00747482,0,0.000489644,
6.16667,0,0,-0.00613103,0,0.000521313,
6.20833,0,0,-0.00481971,0,0.000552739,
6.25,0,0,-0.00354036,0,0.000583917,
6.29167,0,0,-0.00229262,0,0.000614846,
6.33333,0,0,-0.0010762,0,0.000645523,
6.375,0,0,0.000109341,0,0.000675944,
6.41667,0,0,0.00126443,0,0.000706104,
6.45833,0,0,0.00238942,0,0.000735996,
6.5,0,0,0.00348473,0,0.000765619,
6.54167,0,0,0.00455079,0,0.000794971,
6.58333,0,0,0.00558803,0,0.000824048,
6.625,0,0,0.00659681,0,0.000852843,
6.66667,0,0,0.00757759,0,0.000881352,
6.70833,0,0,0.00853084,0,0.000909573,
6.75,0,0,0.00945696,0,0.000937504,
6.79167,0,0,0.0103564,0,0.000965143,
6.83333,0,0,0.0112296,0,0.000992486,
6.875,0,0,0.012077,0,0.00101953,
6.91667,0,0,0.012899,0,0.00104627,
6.95833,0,0,0.013696,0,0.00107271,
7,0,0,0.0144686,0,0.00109884,
7.04167,0,0,0.0152171,0,0.00112468,
7.08333,0,0,0.0159419,0,0.00115021,
7.125,0,0,0.0166433,0,0.00117543,
7.16667,0,0,0.0173219,0,0.00120036,
7.20833,0,0,0.0179779,0,0.00122499,
7.25,0,0,0.0186117,0,0.00124932,
7.29167,0,0,0.0192239,0,0.00127338,
7.33333,0,0,0.0198146,0,0.00129715,
7.375,0,0,0.0203841,0,0.00132062,
7.41667,0,0,0.0209328,0,0.0013438,
7.45833,0,0,0.021461,0,0.00136668,
7.5,0,0,0.021969,0,0.00138925,
7.54167,0,0,0.0224569,0,0.00141152,
7.58333,0,0,0.0229254,0,0.00143348,
7.625,0,0,0.0233747,0,0.00145514,
7.66667,0,0,0.0238049,0,0.00147649,
7.70833,0,0,0.0242163,0,0.00149754,
7.75,0,0,0.0246094,0,0.00151828,
7.79167,0,0,0.0249848,0,0.00153871,
7.83333,0,0,0.0253417,0,0.00155879,
7.875,0,0,0.0256817,0,0.00157858,
7.91667,0,0,0.0260111,0,0.00159863,
7.95833,0,0,0.0262702,0,0.00161776,
8,0,0,0.0266192,0,0.0016375,
8.04171,0,0,0.026997,0,0.00165765,
8.08368,0,0,0.0272397,0,0.0016776,
8.12617,0,0,0.0275145,0,0.00169569,
8.16946,0,0,0.0277782,0,0.00171367,
8.21382,0,0,0.028025,0,0.00173165,
8.25952,0,0,0.0282639,0,0.00174966,
8.30685,0,0,0.0284949,0,0.0017679,
8.35611,0,0,0.0287179,0,0.00178649,
8.40762,0,0,0.0289331,0,0.0018055,
8.46168,0,0,0.0291404,0,0.001825,
8.51865,0,0,0.029339,0,0.00184506,
8.57889,0,0,0.0295279,0,0.00186572,
8.64276,0,0,0.0297061,0,0.00188701,
8.71067,0,0,0.0298721,0,0.00190894,
8.78306,0,0,0.0300236,0,0.00193157,
8.86037,0,0,0.0301579,0,0.0019549,
8.94309,0,0,0.0302722,0,0.00197896,
9.03174,0,0,0.0303622,0,0.00200376,
9.12689,0,0,0.0304232,0,0.00202922,
9.22912,0,0,0.0304527,0,0.00205529,
9.33908,0,0,0.030446,0,0.00208187,
9.45746,0,0,0.0303995,0,0.00210893,
9.58501,0,0,0.0303073,0,0.00213639,
9.72253,0,0,0.0301622,0,0.0021641,
9.87088,0,0,0.0299609,0,0.0021919,
10.031,0,0,0.0296989,0,0.00221963,
10.2039,0,0,0.0293696,0,0.00224709,
10.3906,0,0,0.0289748,0,0.00227411,
10.5924,0,0,0.0285061,0,0.00230048,
10.8105,0,0,0.0279601,0,0.00232597,
11.0463,0,0,0.0273393,0,0.00235034,
11.3012,0,0,0.0266471,0,0.00237341,
11.5769,0,0,0.02588,0,0.00239497,
11.8751,0,0,0.0250426,0,0.00241478,
12.1977,0,0,0.0241465,0,0.00243271,
12.5466,0,0,0.0231936,0,0.00244864,
12.9242,0,0,0.0221925,0,0.00246247,
13.3327,0,0,0.0211573,0,0.00247404,
13.7748,0,0,0.0201006,0,0.00248343,
14.2532,0,0,0.0190316,0,0.00249098,
14.7709,0,0,0.0179673,0,0.00249755,
15.3312,0,0,0.0169168,0,0.00250314,
15.9377,0,0,0.0158902,0,0.00250735,
16.594,0,0,0.014903,0,0.00251043,
17.3044,0,0,0.0139663,0,0.00251229,
18.0733,0,0,0.0130898,0,0.00251281,
18.9056,0,0,0.0122791,0,0.00251188,
19.8064,0,0,0.0115408,0,0.00250953,
20.7816,0,0,0.0108722,0,0.00250653,
21.8371,0,0,0.0102617,0,0.00250378,
22.9796,0,0,0.00968817,0,0.0025014,
24.2163,0,0,0.00913572,0,0.00249944,
25.5551,0,0,0.00861076,0,0.00249799,
27.0042,0,0,0.00811916,0,0.00249736,
28.5729,0,0,0.00762577,0,0.00249704,
30.271,0,0,0.00708788,0,0.00249594,
32.1091,0,0,0.0064873,0,0.00249464,
34.0989,0,0,0.00581386,0,0.00249382,
36.2529,0,0,0.00505995,0,0.00249398,
38.5845,0,0,0.00423237,0,0.00249607,
41.1085,0,0,0.00338275,0,0.00250108,
43.8407,0,0,0.00232594,0,0.0025047,
46.7983,0,0,0.00121317,0,0.00250334,
50,0,0,0.00240786,0,0.00251204,

