92b603ee4fdb4bcacf7efb2798666b0c78a81843 
X,Z,x_velocity,cp,uw_b,cf,
1,0,0,-0.213837,0,0,
1,9,0,-0.138453,0,0,
1,8.99969,0.015702,-0.138453,3.03364e-10,0,
1,8.99934,0.0335131,-0.138453,1.41773e-08,0,
1,8.99894,0.0537341,-0.138453,1.95508e-07,0,
1,8.99848,0.0766831,-0.138453,1.43243e-06,0,
1,8.99797,0.102674,-0.138453,7.15044e-06,0,
1,8.99739,0.131897,-0.138453,2.69928e-05,0,
1,8.99672,0.16413,-0.138453,7.95902e-05,0,
1,8.99597,0.198387,-0.138453,0.00018381,0,
1,8.99512,0.232975,-0.138453,0.000336367,0,
1,8.99416,0.26623,-0.138453,0.000507382,0,
1,8.99306,0.297198,-0.138453,0.000667389,0,
1,8.99182,0.325741,-0.138452,0.000794784,0,
1,8.99041,0.352008,-0.138452,0.000900841,0,
1,8.98881,0.376154,-0.138452,0.000988167,0,
1,8.98699,0.398399,-0.138451,0.0010592,0,
1,8.98494,0.419028,-0.138451,0.0011153,0,
1,8.98261,0.438358,-0.13845,0.00115754,0,
1,8.97996,0.456634,-0.138449,0.00119294,0,
1,8.97696,0.474029,-0.138448,0.00122215,0,
1,8.97356,0.490684,-0.138447,0.00124646,0,
1,8.9697,0.506718,-0.138446,0.00126684,0,
1,8.96533,0.522229,-0.138444,0.00128401,0,
1,8.96038,0.537299,-0.138443,0.00129852,0,
1,8.95476,0.551998,-0.138441,0.00131076,0,
1,8.9484,0.566384,-0.138439,0.001321,0,
1,8.9412,0.580509,-0.138437,0.00132944,0,
1,8.93303,0.594414,-0.138434,0.0013362,0,
1,8.92379,0.608136,-0.138432,0.00134137,0,
1,8.91333,0.621708,-0.138429,0.00134496,0,
1,8.90149,0.635158,-0.138426,0.00134698,0,
1,8.8881,0.64851,-0.138424,0.00134739,0,
1,8.87295,0.661786,-0.138422,0.00134612,0,
1,8.85584,0.675007,-0.13842,0.00134307,0,
1,8.83651,0.688192,-0.138419,0.0013381,0,
1,8.81469,0.70136,-0.138419,0.00133106,0,
1,8.79007,0.714531,-0.13842,0.00132171,0,
1,8.76232,0.727726,-0.138424,0.00130976,0,
1,8.73107,0.740967,-0.138431,0.00129487,0,
1,8.69591,0.75428,-0.138441,0.00127691,0,
1,8.6564,0.767705,-0.138457,0.00125584,0,
1,8.61206,0.781313,-0.138481,0.00122854,0,
1,8.56236,0.7952,-0.138514,0.00119689,0,
1,8.50675,0.809471,-0.138559,0.00115995,0,
1,8.44464,0.82426,-0.13862,0.0011163,0,
1,8.3754,0.839736,-0.1387,0.0010638,0,
1,8.29839,0.856113,-0.138805,0.000999287,0,
1,8.21296,0.873633,-0.138941,0.000918277,0,
1,8.11843,0.892497,-0.139112,0.000815246,0,
1,8.01417,0.912715,-0.139336,0.000686047,0,
1,7.89956,0.933828,-0.139603,0.000533237,0,
1,7.77403,0.95464,-0.139957,0.000376568,0,
1,7.63711,0.97341,-0.140367,0.000209274,0,
1,7.48842,0.987907,-0.140855,7.5879e-05,0,
1,7.32773,0.996354,-0.141451,1.72634e-05,0,
1,7.15495,0.999295,-0.142136,1.47536e-06,0,
1,6.97022,0.999232,-0.142931,2.54744e-09,0,
1,6.77388,0.99858,-0.143845,1.24224e-09,0,
1,6.56652,0.998451,-0.144893,8.40628e-09,0,
1,6.34896,0.998876,-0.146082,1.15866e-08,0,
1,6.12229,0.999549,-0.147424,1.30824e-08,0,
1,5.88784,1.00028,-0.148927,1.37117e-08,0,
1,5.64716,1.00102,-0.150598,1.44428e-08,0,
1,5.40194,1.00182,-0.152441,1.55145e-08,0,
1,5.15407,1.00269,-0.154456,1.68076e-08,0,
1,4.90545,1.00364,-0.156637,1.82198e-08,0,
1,4.65805,1.00467,-0.158976,1.97151e-08,0,
1,4.41376,1.00576,-0.161458,2.11897e-08,0,
1,4.17441,1.00691,-0.164065,2.23828e-08,0,
1,3.94163,1.00804,-0.166772,2.31517e-08,0,
1,3.7169,1.00912,-0.169549,2.42285e-08,0,
1,3.50146,1.01023,-0.172366,2.78189e-08,0,
1,3.29629,1.01169,-0.175191,3.62097e-08,0,
1,3.10217,1.01386,-0.178001,4.70614e-08,0,
1,2.91959,1.01649,-0.180773,8.23755e-08,0,
1,2.74885,1.01805,-0.183476,4.17207e-07,0,
1,2.59002,1.01607,-0.186071,-9.00839e-06,0,
1,2.44299,1.00889,-0.18851,-5.48938e-05,0,
1,2.30752,0.99676,-0.190755,-0.000145648,0,
1,2.18321,0.981274,-0.192782,-0.00026596,0,
1,2.06959,0.964186,-0.194589,-0.000392087,0,
1,1.9661,0.946827,-0.196187,-0.000505177,0,
1,1.87215,0.93003,-0.197594,-0.000596359,0,
1,1.78711,0.914204,-0.198828,-0.000665975,0,
1,1.71033,0.899454,-0.199909,-0.000719148,0,
1,1.64119,0.885719,-0.200854,-0.000761462,0,
1,1.57905,0.872871,-0.201678,-0.000796861,0,
1,1.52332,0.860779,-0.202396,-0.000827515,0,
1,1.47342,0.849331,-0.203021,-0.000854445,0,
1,1.42882,0.838443,-0.203563,-0.000878135,0,
1,1.389,0.828053,-0.204034,-0.000898888,0,
1,1.35351,0.818117,-0.204443,-0.000916977,0,
1,1.3219,0.808606,-0.204798,-0.00093268,0,
1,1.29378,0.7995,-0.205105,-0.000946259,0,
1,1.26878,0.790787,-0.205372,-0.000957969,0,
1,1.24659,0.78246,-0.205603,-0.000968423,0,
1,1.22689,0.774509,-0.205803,-0.000977792,0,
1,1.2092,0.766839,-0.20598,-0.000985188,0,
1,1.1932,0.759398,-0.206135,-0.000991214,0,
1,1.1787,0.75217,-0.206273,-0.000996142,0,
1,1.16554,0.745141,-0.206395,-0.00100011,0,
1,1.15357,0.738291,-0.206503,-0.00100374,0,
1,1.14266,0.73159,-0.206598,-0.00100832,0,
1,1.13268,0.724997,-0.206682,-0.00101592,0,
1,1.12354,0.718452,-0.206756,-0.00102962,0,
1,1.11514,0.711873,-0.206823,-0.00105345,0,
1,1.10739,0.705154,-0.206883,-0.00109233,0,
1,1.10022,0.698161,-0.206938,-0.00115186,0,
1,1.09357,0.69074,-0.20699,-0.00123784,0,
1,1.08738,0.682726,-0.207043,-0.00135546,0,
1,1.0816,0.673971,-0.207097,-0.00150841,0,
1,1.07618,0.664368,-0.207154,-0.00169787,0,
1,1.07107,0.653884,-0.207216,-0.00192166,0,
1,1.06626,0.642566,-0.207282,-0.00217421,0,
1,1.06169,0.630537,-0.207352,-0.00244728,0,
1,1.05735,0.617963,-0.207426,-0.00273144,0,
1,1.05321,0.605021,-0.207502,-0.00301764,0,
1,1.04925,0.591876,-0.207582,-0.0032983,0,
1,1.04544,0.578667,-0.207663,-0.00356773,0,
1,1.04177,0.5655,-0.207745,-0.00382211,0,
1,1.03822,0.552453,-0.207828,-0.00405916,0,
1,1.03478,0.539579,-0.207912,-0.00427779,0,
1,1.03144,0.526913,-0.207996,-0.00447769,0,
1,1.02818,0.514473,-0.20808,-0.00465912,0,
1,1.025,0.502269,-0.208164,-0.00482266,0,
1,1.02188,0.490302,-0.208247,-0.00496909,0,
1,1.01882,0.478568,-0.208331,-0.00509928,0,
1,1.01581,0.467061,-0.208413,-0.00521428,0,
1,1.01284,0.45577,-0.208496,-0.00531463,0,
1,1.00988,0.444565,-0.208578,-0.00540184,0,
1,1.00688,0.433315,-0.208662,-0.00547765,0,
1,1.00384,0.422011,-0.208748,-0.00554208,0,
1,1.00076,0.410641,-0.208835,-0.00559494,0,
1,0.997615,0.399192,-0.208924,-0.00563619,0,
1,0.99441,0.387647,-0.209014,-0.00566574,0,
1,0.991131,0.37599,-0.209106,-0.00568344,0,
1,0.987768,0.3642,-0.2092,-0.00568909,0,
1,0.984308,0.352257,-0.209297,-0.0056824,0,
1,0.980739,0.340138,-0.209395,-0.00566303,0,
1,0.977045,0.32782,-0.209496,-0.00563054,0,
1,0.973211,0.315278,-0.2096,-0.0055844,0,
1,0.969219,0.302487,-0.209707,-0.00552399,0,
1,0.965047,0.289422,-0.209818,-0.00544862,0,
1,0.960675,0.27606,-0.209931,-0.00535751,0,
1,0.956077,0.262379,-0.210049,-0.00524985,0,
1,0.951224,0.24836,-0.210171,-0.00512474,0,
1,0.946088,0.23399,-0.210296,-0.0049813,0,
1,0.940633,0.219263,-0.210427,-0.00481876,0,
1,0.934823,0.204183,-0.210562,-0.00463649,0,
1,0.928616,0.18877,-0.210702,-0.00443411,0,
1,0.921967,0.173061,-0.210847,-0.00421169,0,
1,0.914826,0.157117,-0.210997,-0.0039699,0,
1,0.907141,0.141029,-0.211151,-0.00371028,0,
1,0.898852,0.124922,-0.21131,-0.00343547,0,
1,0.889898,0.10896,-0.211473,-0.00314946,0,
1,0.880212,0.0933449,-0.211639,-0.00285777,0,
1,0.869723,0.0783083,-0.211805,-0.00256729,0,
1,0.858358,0.0640956,-0.211971,-0.00228589,0,
1,0.846039,0.0509372,-0.212131,-0.00202152,0,
1,0.83269,0.0390136,-0.212284,-0.00178088,0,
1,0.818232,0.0284278,-0.212422,-0.00157082,0,
1,0.802744,0.0192639,-0.21254,-0.00139358,0,
1,0.78635,0.0114777,-0.212637,-0.00124661,0,
1,0.768969,0.00485433,-0.212706,-0.00112859,0,
1,0.75053,-0.000811753,-0.21275,-0.00103591,0,
1,0.730977,-0.00569785,-0.212764,-0.000963817,0,
1,0.710271,-0.00993614,-0.212753,-0.000908621,0,
1,0.688397,-0.0135971,-0.212693,-0.00087659,0,
1,0.66536,-0.016731,-0.212577,-0.000871507,0,
1,0.641194,-0.0194342,-0.212424,-0.000871429,0,
1,0.615961,-0.0218101,-0.212237,-0.000879221,0,
1,0.589754,-0.023931,-0.212019,-0.000891747,0,
1,0.562692,-0.0258452,-0.211779,-0.000904892,0,
1,0.534925,-0.0275856,-0.211524,-0.00091469,0,
1,0.506624,-0.0291742,-0.211267,-0.000917317,0,
1,0.477982,-0.0306262,-0.211021,-0.000909417,0,
1,0.449206,-0.0319517,-0.210802,-0.000888474,0,
1,0.420509,-0.033158,-0.210624,-0.000853183,0,
1,0.392107,-0.0342505,-0.210499,-0.000803687,0,
1,0.364206,-0.035234,-0.210438,-0.000741615,0,
1,0.337003,-0.0361129,-0.210443,-0.000669823,0,
1,0.310673,-0.0368919,-0.210515,-0.000591957,0,
1,0.28537,-0.0375762,-0.210647,-0.000511865,0,
1,0.26122,-0.0381713,-0.210829,-0.000433084,0,
1,0.238324,-0.0386825,-0.211049,-0.000358471,0,
1,0.21675,-0.0391155,-0.211292,-0.000290022,0,
1,0.196544,-0.0394755,-0.211547,-0.000228869,0,
1,0.177724,-0.0397672,-0.211802,-0.0001754,0,
1,0.160284,-0.0399949,-0.212048,-0.000129453,0,
1,0.144202,-0.0401621,-0.21228,-9.05017e-05,0,
1,0.129436,-0.0402717,-0.212494,-5.78227e-05,0,
1,0.115935,-0.0403261,-0.212687,-3.06209e-05,0,
1,0.103636,-0.0403268,-0.212859,-8.11334e-06,0,
1,0.0924701,-0.040275,-0.213011,1.04218e-05,0,
1,0.0823633,-0.0401712,-0.213143,2.562e-05,0,
1,0.0732406,-0.0400152,-0.213258,3.80237e-05,0,
1,0.0650269,-0.0398064,-0.213356,4.80866e-05,0,
1,0.057648,-0.0395433,-0.213441,5.61816e-05,0,
1,0.0510323,-0.0392238,-0.213513,6.26096e-05,0,
1,0.0451115,-0.0388444,-0.213574,6.76083e-05,0,
1,0.0398209,-0.0384004,-0.213626,7.13608e-05,0,
1,0.0351001,-0.0378848,-0.213669,7.39997e-05,0,
1,0.0308929,-0.0372882,-0.213706,7.56062e-05,0,
1,0.0271475,-0.0365975,-0.213736,7.62065e-05,0,
1,0.0238164,-0.035794,-0.21376,7.5758e-05,0,
1,0.0208562,-0.0348519,-0.21378,7.41256e-05,0,
1,0.0182274,-0.033735,-0.213796,7.10437e-05,0,
1,0.0158944,-0.0323938,-0.213808,6.60779e-05,0,
1,0.0138249,-0.0307646,-0.213818,5.86581e-05,0,
1,0.0119898,-0.0287787,-0.213824,4.83852e-05,0,
1,0.0103632,-0.0263928,-0.213829,3.58025e-05,0,
1,0.00892169,-0.0236452,-0.213831,2.30178e-05,0,
1,0.00764438,-0.0206902,-0.213833,1.27104e-05,0,
1,0.00651264,-0.0177442,-0.213833,6.11276e-06,0,
1,0.00550983,-0.0149821,-0.213834,2.62809e-06,0,
1,0.00462115,-0.0124893,-0.213834,1.03153e-06,0,
1,0.00383341,-0.0102827,-0.213835,3.72193e-07,0,
1,0.0031349,-0.00834493,-0.213835,1.22442e-07,0,
1,0.00251518,-0.00664705,-0.213836,3.58796e-08,0,
1,0.00196502,-0.00515884,-0.213835,8.98027e-09,0,
1,0.00147619,-0.00385244,-0.213836,1.78623e-09,0,
1,0.00104139,-0.00270331,-0.213835,2.47718e-10,0,
1,0.000654158,-0.00169013,-0.213837,1.8403e-11,0,
1,0.000308731,-0.000794531,-0.213835,4.01513e-13,0,

4,0,0,-0.207329,0,0,
4,9,0,-0.111824,0,0,
4,8.99969,0.0147019,-0.111824,2.47115e-10,0,
4,8.99934,0.0313209,-0.111824,1.14629e-08,0,
4,8.99894,0.0501255,-0.111824,1.56479e-07,0,
4,8.9985,0.071399,-0.111824,1.13503e-06,0,
4,8.99799,0.0954269,-0.111824,5.62439e-06,0,
4,8.99742,0.122405,-0.111824,2.12181e-05,0,
4,8.99677,0.152216,-0.111824,6.32408e-05,0,
4,8.99605,0.184112,-0.111824,0.00014958,0,
4,8.99522,0.216665,-0.111824,0.00028262,0,
4,8.99429,0.24831,-0.111823,0.000439935,0,
4,8.99324,0.27801,-0.111823,0.000593034,0,
4,8.99205,0.305438,-0.111823,0.000723109,0,
4,8.9907,0.33069,-0.111822,0.000828477,0,
4,8.98919,0.353936,-0.111822,0.000916889,0,
4,8.98747,0.375369,-0.111821,0.000990139,0,
4,8.98553,0.395258,-0.111821,0.00104807,0,
4,8.98334,0.413892,-0.11182,0.00109396,0,
4,8.98087,0.431496,-0.111819,0.00113273,0,
4,8.97807,0.448239,-0.111817,0.00116548,0,
4,8.97491,0.464263,-0.111816,0.00119352,0,
4,8.97134,0.479685,-0.111814,0.00121785,0,
4,8.96731,0.494605,-0.111812,0.0012392,0,
4,8.96276,0.509107,-0.11181,0.00125811,0,
4,8.95762,0.523262,-0.111807,0.00127497,0,
4,8.95182,0.537131,-0.111804,0.00129004,0,
4,8.94526,0.550767,-0.111801,0.00130351,0,
4,8.93787,0.564213,-0.111797,0.00131546,0,
4,8.92952,0.577507,-0.111793,0.00132595,0,
4,8.92011,0.590684,-0.111788,0.00133496,0,
4,8.90949,0.603769,-0.111783,0.00134242,0,
4,8.89751,0.616788,-0.111777,0.00134825,0,
4,8.88402,0.62976,-0.111772,0.00135233,0,
4,8.86881,0.642701,-0.111766,0.0013545,0,
4,8.85169,0.655627,-0.111759,0.00135459,0,
4,8.83242,0.668549,-0.111753,0.0013524,0,
4,8.81074,0.681477,-0.111748,0.00134769,0,
4,8.78637,0.694422,-0.111743,0.00134019,0,
4,8.75901,0.707394,-0.111739,0.00132965,0,
4,8.7283,0.720406,-0.111737,0.00131689,0,
4,8.69387,0.733496,-0.111738,0.00129841,0,
4,8.65533,0.746717,-0.111744,0.00127634,0,
4,8.61222,0.760118,-0.111755,0.00125064,0,
4,8.56407,0.773754,-0.111774,0.00122079,0,
4,8.5104,0.787697,-0.111801,0.00118602,0,
4,8.45065,0.802048,-0.11184,0.00114519,0,
4,8.38429,0.816943,-0.111895,0.00109664,0,
4,8.31073,0.832566,-0.111969,0.00103792,0,
4,8.22941,0.849149,-0.112067,0.000965516,0,
4,8.13974,0.866951,-0.112194,0.000874903,0,
4,8.04115,0.886165,-0.112355,0.000761613,0,
4,7.93313,0.906693,-0.112556,0.000624678,0,
4,7.81519,0.927804,-0.112798,0.000475797,0,
4,7.68693,0.947922,-0.113089,0.000330816,0,
4,7.54803,0.964963,-0.113444,0.000207297,0,
4,7.39831,0.977222,-0.113862,9.4207e-05,0,
4,7.23771,0.984108,-0.114361,2.82699e-05,0,
4,7.06634,0.986606,-0.114944,4.57101e-06,0,
4,6.88453,0.986735,-0.115606,1.66755e-07,0,
4,6.69275,0.986287,-0.116355,1.57052e-08,0,
4,6.49173,0.986131,-0.117201,5.88192e-08,0,
4,6.28238,0.986383,-0.118157,3.70812e-08,0,
4,6.06579,0.986869,-0.119234,2.04604e-08,0,
4,5.84328,0.987439,-0.120442,1.46515e-08,0,
4,5.61626,0.988039,-0.121789,1.34907e-08,0,
4,5.3863,0.988674,-0.123281,1.39895e-08,0,
4,5.15502,0.989363,-0.124925,1.51971e-08,0,
4,4.92406,0.990121,-0.126724,1.68323e-08,0,
4,4.69507,0.990958,-0.12868,1.87467e-08,0,
4,4.46961,0.991877,-0.130792,2.07521e-08,0,
4,4.24915,0.992856,-0.133056,2.24513e-08,0,
4,4.03501,0.993835,-0.135464,2.36405e-08,0,
4,3.82836,0.994749,-0.138007,2.4864e-08,0,
4,3.63018,0.995625,-0.140671,2.82367e-08,0,
4,3.44125,0.996685,-0.14344,3.86137e-08,0,
4,3.26217,0.998304,-0.146297,1.38496e-07,0,
4,3.09333,1.00071,-0.149224,1.17617e-06,0,
4,2.93497,1.00356,-0.152199,4.60865e-06,0,
4,2.78715,1.00583,-0.155201,7.27347e-06,0,
4,2.64979,1.00628,-0.1582,1.6787e-06,0,
4,2.52268,1.00404,-0.16116,-1.71885e-05,0,
4,2.40551,0.998896,-0.16404,-4.97113e-05,0,
4,2.29789,0.991201,-0.166803,-9.27293e-05,0,
4,2.19939,0.98166,-0.169423,-0.00014134,0,
4,2.10949,0.97104,-0.171884,-0.000190666,0,
4,2.02768,0.960008,-0.174176,-0.000237007,0,
4,1.95343,0.949061,-0.176297,-0.000278212,0,
4,1.88618,0.938524,-0.178251,-0.000313499,0,
4,1.82542,0.928584,-0.180042,-0.000343029,0,
4,1.77062,0.91933,-0.181677,-0.00036747,0,
4,1.72128,0.910785,-0.183165,-0.000387658,0,
4,1.67693,0.902936,-0.184515,-0.000404413,0,
4,1.63713,0.895751,-0.185736,-0.000418421,0,
4,1.60144,0.889188,-0.186838,-0.000430174,0,
4,1.56949,0.883205,-0.187832,-0.000439968,0,
4,1.54091,0.877759,-0.188723,-0.000448935,0,
4,1.51537,0.872793,-0.189524,-0.00045697,0,
4,1.49167,0.868105,-0.190269,-0.000463188,0,
4,1.46926,0.863595,-0.190975,-0.000468779,0,
4,1.44801,0.859239,-0.191646,-0.000473975,0,
4,1.42781,0.855018,-0.192286,-0.000478606,0,
4,1.40855,0.850916,-0.192896,-0.000482687,0,
4,1.39015,0.846916,-0.19348,-0.000486241,0,
4,1.37252,0.843004,-0.19404,-0.000489315,0,
4,1.3556,0.839165,-0.194578,-0.000491991,0,
4,1.3393,0.835384,-0.195096,-0.000494418,0,
4,1.32357,0.831645,-0.195596,-0.00049684,0,
4,1.30836,0.827929,-0.196079,-0.000499638,0,
4,1.29362,0.824215,-0.196547,-0.000503381,0,
4,1.2793,0.820475,-0.197001,-0.000508887,0,
4,1.26537,0.816675,-0.197442,-0.000517306,0,
4,1.25179,0.81277,-0.197871,-0.000530225,0,
4,1.23852,0.808701,-0.198289,-0.00054971,0,
4,1.22554,0.804389,-0.198697,-0.000578441,0,
4,1.21282,0.799734,-0.199095,-0.000619715,0,
4,1.20034,0.79461,-0.199483,-0.000677353,0,
4,1.18806,0.788868,-0.199861,-0.000755435,0,
4,1.17599,0.782343,-0.200229,-0.000857811,0,
4,1.16408,0.774875,-0.200588,-0.000987422,0,
4,1.15233,0.766336,-0.200936,-0.00114555,0,
4,1.14073,0.756656,-0.201272,-0.00133125,0,
4,1.12925,0.745838,-0.201597,-0.0015411,0,
4,1.11788,0.733959,-0.201909,-0.00176961,0,
4,1.10661,0.721151,-0.202208,-0.00200996,0,
4,1.09543,0.70758,-0.202494,-0.00225503,0,
4,1.08432,0.693418,-0.202767,-0.00249821,0,
4,1.07328,0.678829,-0.203027,-0.00273394,0,
4,1.0623,0.663957,-0.203274,-0.00295798,0,
4,1.05136,0.648921,-0.203508,-0.00316726,0,
4,1.04044,0.633794,-0.203731,-0.00335985,0,
4,1.0295,0.618625,-0.203942,-0.00353492,0,
4,1.01855,0.603472,-0.204142,-0.0036919,0,
4,1.00757,0.588376,-0.204332,-0.00383055,0,
4,0.996544,0.573367,-0.204512,-0.003951,0,
4,0.98547,0.558466,-0.204682,-0.00405363,0,
4,0.974334,0.543685,-0.204843,-0.00413896,0,
4,0.963124,0.529029,-0.204995,-0.00420762,0,
4,0.951826,0.514499,-0.205138,-0.0042603,0,
4,0.940428,0.500092,-0.205273,-0.0042977,0,
4,0.928915,0.485801,-0.205401,-0.00432054,0,
4,0.917272,0.471616,-0.205521,-0.00432954,0,
4,0.905481,0.457526,-0.205634,-0.00432539,0,
4,0.893524,0.443516,-0.20574,-0.0043088,0,
4,0.881383,0.429569,-0.205841,-0.00428048,0,
4,0.869035,0.415668,-0.205935,-0.00424112,0,
4,0.856459,0.401791,-0.206023,-0.00419143,0,
4,0.843629,0.387915,-0.206106,-0.00413219,0,
4,0.830518,0.374014,-0.206185,-0.00406422,0,
4,0.817097,0.360059,-0.206258,-0.00398844,0,
4,0.803334,0.346017,-0.206327,-0.00390591,0,
4,0.789195,0.33185,-0.206393,-0.0038179,0,
4,0.774643,0.317511,-0.206455,-0.00372595,0,
4,0.759639,0.302948,-0.206515,-0.003632,0,
4,0.744138,0.288095,-0.206573,-0.00353845,0,
4,0.728096,0.272871,-0.20663,-0.00344833,0,
4,0.711463,0.257176,-0.206689,-0.00336541,0,
4,0.694189,0.240884,-0.20675,-0.0032942,0,
4,0.676218,0.223837,-0.206819,-0.00323983,0,
4,0.657495,0.205849,-0.206896,-0.00320756,0,
4,0.637962,0.186707,-0.206991,-0.0031998,0,
4,0.617561,0.166229,-0.207103,-0.00321919,0,
4,0.596848,0.144889,-0.207239,-0.00326988,0,
4,0.576557,0.123486,-0.207399,-0.00333882,0,
4,0.556564,0.102129,-0.207564,-0.00340783,0,
4,0.536763,0.080971,-0.207745,-0.00347349,0,
4,0.517057,0.0601341,-0.207928,-0.00355409,0,
4,0.497368,0.0394151,-0.208005,-0.00354998,0,
4,0.477632,0.0185102,-0.20802,-0.003548,0,
4,0.457804,-0.00250573,-0.20808,-0.00355882,0,
4,0.437857,-0.0231915,-0.208156,-0.00356856,0,
4,0.417786,-0.0429344,-0.208257,-0.00356716,0,
4,0.397605,-0.0611591,-0.208371,-0.0035489,0,
4,0.377348,-0.0775834,-0.208498,-0.00351405,0,
4,0.357066,-0.0924432,-0.20861,-0.00338825,0,
4,0.336828,-0.106021,-0.208703,-0.00325898,0,
4,0.316717,-0.118373,-0.208786,-0.00311678,0,
4,0.296825,-0.129538,-0.208852,-0.00295913,0,
4,0.27725,-0.139574,-0.208902,-0.00278905,0,
4,0.258095,-0.148553,-0.208934,-0.00260989,0,
4,0.239458,-0.156558,-0.208947,-0.00242488,0,
4,0.221432,-0.163677,-0.208939,-0.00223711,0,
4,0.2041,-0.169997,-0.208912,-0.00204936,0,
4,0.187537,-0.175602,-0.208865,-0.00186405,0,
4,0.171798,-0.180568,-0.208801,-0.00168322,0,
4,0.156928,-0.184965,-0.208722,-0.00150849,0,
4,0.142956,-0.188856,-0.208631,-0.00134113,0,
4,0.129894,-0.192294,-0.208532,-0.00118204,0,
4,0.117744,-0.195326,-0.208427,-0.00103183,0,
4,0.106492,-0.197988,-0.20832,-0.000890844,0,
4,0.0961173,-0.200314,-0.208215,-0.000759194,0,
4,0.0865883,-0.202331,-0.208113,-0.000636827,0,
4,0.0778675,-0.204058,-0.208016,-0.000523548,0,
4,0.0699123,-0.205514,-0.207925,-0.000419056,0,
4,0.062677,-0.20671,-0.207842,-0.000322977,0,
4,0.056114,-0.207654,-0.207767,-0.000234887,0,
4,0.0501747,-0.20835,-0.207699,-0.000154337,0,
4,0.0448114,-0.208798,-0.207639,-8.08726e-05,0,
4,0.039977,-0.208992,-0.207586,-1.40531e-05,0,
4,0.0356266,-0.208922,-0.20754,4.65298e-05,0,
4,0.0317171,-0.20857,-0.2075,0.000101232,0,
4,0.0282081,-0.20791,-0.207466,0.00015033,0,
4,0.0250617,-0.206902,-0.207437,0.000193988,0,
4,0.0222427,-0.205495,-0.207413,0.000232208,0,
4,0.0197189,-0.203614,-0.207393,0.000264756,0,
4,0.0174603,-0.201158,-0.207377,0.000291059,0,
4,0.0154398,-0.19799,-0.207364,0.000310076,0,
4,0.0136326,-0.193931,-0.207354,0.000320188,0,
4,0.0120162,-0.188752,-0.207346,0.000319216,0,
4,0.0105703,-0.18219,-0.20734,0.000304812,0,
4,0.00927657,-0.173983,-0.207337,0.000275428,0,
4,0.00811839,-0.163956,-0.207334,0.000231827,0,
4,0.0070809,-0.152121,-0.207332,0.000178482,0,
4,0.0061507,-0.138763,-0.207331,0.000123515,0,
4,0.00531578,-0.124427,-0.207331,7.59308e-05,0,
4,0.00456537,-0.109774,-0.20733,4.13532e-05,0,
4,0.00388979,-0.0953852,-0.20733,2.00417e-05,0,
4,0.00328037,-0.0816463,-0.20733,8.68641e-06,0,
4,0.00272934,-0.0687421,-0.20733,3.35976e-06,0,
4,0.0022297,-0.0567201,-0.20733,1.14193e-06,0,
4,0.00177519,-0.0455517,-0.20733,3.2919e-07,0,
4,0.00136016,-0.0351734,-0.207329,7.52151e-08,0,
4,0.000979511,-0.0255087,-0.20733,1.19708e-08,0,
4,0.00062865,-0.0164777,-0.207329,1.01594e-09,0,
4,0.000303409,-0.0080013,-0.20733,2.46392e-11,0,

6,0,0,-0.0915373,0,0,
6,9,0,-0.0887018,0,0,
6,8.99969,0.0139566,-0.0887014,2.08274e-10,0,
6,8.99934,0.0296947,-0.0887017,9.61182e-09,0,
6,8.99895,0.0474594,-0.0887014,1.30295e-07,0,
6,8.9985,0.0675092,-0.0887016,9.38548e-07,0,
6,8.99801,0.0901077,-0.0887014,4.62675e-06,0,
6,8.99744,0.115451,-0.0887015,1.74435e-05,0,
6,8.99681,0.143481,-0.0887013,5.2378e-05,0,
6,8.99609,0.17361,-0.0887014,0.00012604,0,
6,8.99529,0.204605,-0.0887011,0.00024397,0,
6,8.99438,0.234999,-0.0887011,0.000389322,0,
6,8.99336,0.263711,-0.0887008,0.000535441,0,
6,8.9922,0.290286,-0.0887006,0.000665494,0,
6,8.9909,0.314767,-0.0887002,0.0007694,0,
6,8.98944,0.337326,-0.0886998,0.000857409,0,
6,8.98779,0.358134,-0.0886992,0.000931186,0,
6,8.98593,0.377442,-0.0886985,0.000989695,0,
6,8.98383,0.395517,-0.0886976,0.00103723,0,
6,8.98147,0.412571,-0.0886966,0.00107751,0,
6,8.97881,0.42877,-0.0886953,0.0011119,0,
6,8.97581,0.444254,-0.0886939,0.00114174,0,
6,8.97244,0.45914,-0.0886921,0.00116803,0,
6,8.96863,0.47353,-0.0886901,0.00119154,0,
6,8.96435,0.487507,-0.0886877,0.00121282,0,
6,8.95953,0.501144,-0.0886849,0.00123227,0,
6,8.95409,0.514504,-0.0886818,0.00125018,0,
6,8.94798,0.527641,-0.0886781,0.00126674,0,
6,8.94109,0.540602,-0.0886739,0.00128205,0,
6,8.93334,0.553428,-0.0886692,0.00129615,0,
6,8.92463,0.566153,-0.0886638,0.001309,0,
6,8.91482,0.578809,-0.0886578,0.00132053,0,
6,8.90379,0.591421,-0.0886511,0.00133062,0,
6,8.89139,0.604012,-0.0886436,0.0013391,0,
6,8.87746,0.616598,-0.0886354,0.00134579,0,
6,8.86181,0.629194,-0.0886265,0.00135045,0,
6,8.84423,0.641812,-0.0886168,0.00135285,0,
6,8.82452,0.654461,-0.0886064,0.00135274,0,
6,8.80241,0.667146,-0.0885955,0.00134983,0,
6,8.77763,0.679874,-0.0885839,0.00134391,0,
6,8.74989,0.692652,-0.0885723,0.00133506,0,
6,8.71885,0.705494,-0.0885606,0.00132355,0,
6,8.68417,0.718444,-0.0885497,0.00130542,0,
6,8.64545,0.731549,-0.0885404,0.0012838,0,
6,8.60229,0.74484,-0.0885327,0.00125834,0,
6,8.55423,0.758354,-0.0885276,0.00122857,0,
6,8.50082,0.772143,-0.088526,0.00119386,0,
6,8.44155,0.786288,-0.0885292,0.0011533,0,
6,8.37592,0.800909,-0.0885391,0.00110551,0,
6,8.30339,0.816177,-0.0885574,0.00104846,0,
6,8.22344,0.832325,-0.0885869,0.000979156,0,
6,8.13555,0.849639,-0.0886283,0.000893654,0,
6,8.0392,0.86838,-0.0886845,0.000787819,0,
6,7.93391,0.88856,-0.08875,0.000660125,0,
6,7.81927,0.909577,-0.08883,0.000520219,0,
6,7.6949,0.929975,-0.088914,0.000381238,0,
6,7.56054,0.947752,-0.0890214,0.000257997,0,
6,7.41603,0.961251,-0.0891313,0.000152651,0,
6,7.26132,0.969837,-0.0892699,5.99382e-05,0,
6,7.09653,0.97395,-0.0894403,1.54038e-05,0,
6,6.92195,0.974997,-0.0896233,1.36189e-06,0,
6,6.73802,0.974669,-0.0898245,-5.4874e-07,0,
6,6.5454,0.974146,-0.0900414,-2.07611e-07,0,
6,6.34489,0.973886,-0.0902775,-1.23569e-08,0,
6,6.1375,0.973886,-0.0905342,1.50555e-08,0,
6,5.92439,0.974007,-0.0908127,9.51584e-09,0,
6,5.70687,0.974146,-0.0911129,5.02534e-09,0,
6,5.48633,0.974269,-0.091434,3.24108e-09,0,
6,5.26426,0.974375,-0.0917744,2.66854e-09,0,
6,5.04218,0.974477,-0.0921319,2.60935e-09,0,
6,4.82159,0.974589,-0.0925031,2.80895e-09,0,
6,4.60398,0.974721,-0.0928844,3.07737e-09,0,
6,4.39071,0.974868,-0.0932712,3.07512e-09,0,
6,4.18307,0.97499,-0.0936585,2.32667e-09,0,
6,3.98218,0.975018,-0.094041,6.30133e-10,0,
6,3.78902,0.9749,-0.0944131,-1.31663e-09,0,
6,3.60438,0.974689,-0.0947692,-1.65793e-09,0,
6,3.42888,0.974598,-0.0951046,9.51322e-09,0,
6,3.26296,0.974936,-0.0954146,1.60292e-07,0,
6,3.10691,0.975888,-0.0956943,9.71899e-07,0,
6,2.96084,0.977303,-0.0959414,2.69199e-06,0,
6,2.82473,0.97867,-0.0961564,3.40871e-06,0,
6,2.69844,0.979304,-0.0963407,-2.78685e-07,0,
6,2.58172,0.978603,-0.0964947,-1.0843e-05,0,
6,2.47424,0.976223,-0.0966187,-2.90188e-05,0,
6,2.37559,0.972122,-0.096714,-5.40436e-05,0,
6,2.28535,0.966505,-0.0967826,-8.42193e-05,0,
6,2.20301,0.959723,-0.0968275,-0.000117459,0,
6,2.1281,0.952171,-0.0968519,-0.000151739,0,
6,2.06009,0.944222,-0.0968596,-0.000185394,0,
6,1.99849,0.936184,-0.0968537,-0.000217231,0,
6,1.9428,0.928293,-0.0968374,-0.00024653,0,
6,1.89255,0.920713,-0.0968134,-0.000272964,0,
6,1.84728,0.913548,-0.0967841,-0.000296489,0,
6,1.80655,0.906857,-0.0967513,-0.000317159,0,
6,1.76996,0.90067,-0.0967166,-0.00033494,0,
6,1.73712,0.894997,-0.0966811,-0.000351183,0,
6,1.70768,0.88979,-0.0966459,-0.000365994,0,
6,1.67998,0.884813,-0.0966099,-0.000378456,0,
6,1.65329,0.879957,-0.0965723,-0.000390012,0,
6,1.62754,0.875209,-0.0965335,-0.000400968,0,
6,1.60265,0.870564,-0.0964936,-0.000411167,0,
6,1.57854,0.866015,-0.0964527,-0.000420649,0,
6,1.55515,0.861555,-0.096411,-0.000429462,0,
6,1.53242,0.857175,-0.0963685,-0.000437644,0,
6,1.5103,0.85287,-0.0963253,-0.000445227,0,
6,1.48874,0.848631,-0.0962814,-0.000452237,0,
6,1.46769,0.844452,-0.096237,-0.000458689,0,
6,1.44712,0.840326,-0.0961921,-0.000464592,0,
6,1.42698,0.836247,-0.0961466,-0.00046995,0,
6,1.40725,0.832207,-0.0961007,-0.000474763,0,
6,1.38788,0.828201,-0.0960543,-0.000479029,0,
6,1.36886,0.824223,-0.0960076,-0.000482755,0,
6,1.35015,0.820265,-0.0959604,-0.000485958,0,
6,1.33173,0.816322,-0.0959128,-0.000488682,0,
6,1.31357,0.812385,-0.0958649,-0.00049101,0,
6,1.29566,0.808446,-0.0958167,-0.000493085,0,
6,1.27797,0.804493,-0.0957681,-0.000495133,0,
6,1.26048,0.800515,-0.0957192,-0.0004975,0,
6,1.24318,0.796492,-0.0956701,-0.000500692,0,
6,1.22605,0.792401,-0.0956207,-0.000505429,0,
6,1.20907,0.788213,-0.095571,-0.000512705,0,
6,1.19223,0.783884,-0.0955212,-0.00052386,0,
6,1.17551,0.779361,-0.095471,-0.000540654,0,
6,1.1589,0.774569,-0.0954206,-0.000565366,0,
6,1.14238,0.769415,-0.09537,-0.000600716,0,
6,1.12595,0.76378,-0.095319,-0.000649899,0,
6,1.10959,0.757524,-0.0952679,-0.000716376,0,
6,1.09329,0.750489,-0.0952167,-0.000803554,0,
6,1.07704,0.742516,-0.0951655,-0.000914319,0,
6,1.06081,0.733461,-0.0951148,-0.00105046,0,
6,1.04459,0.723215,-0.0950651,-0.00121225,0,
6,1.02836,0.711734,-0.095017,-0.00139817,0,
6,1.01211,0.699033,-0.0949714,-0.00160489,0,
6,0.99583,0.685183,-0.0949291,-0.00182786,0,
6,0.97951,0.670291,-0.094891,-0.00206194,0,
6,0.963136,0.654487,-0.0948576,-0.0023021,0,
6,0.946694,0.637902,-0.0948297,-0.00254395,0,
6,0.930172,0.62066,-0.0948077,-0.00278402,0,
6,0.913555,0.60287,-0.0947918,-0.00301984,0,
6,0.896829,0.584626,-0.0947826,-0.00324967,0,
6,0.879979,0.566003,-0.0947801,-0.0034724,0,
6,0.862989,0.547066,-0.094785,-0.00368711,0,
6,0.845842,0.527869,-0.094797,-0.00389268,0,
6,0.828521,0.508463,-0.0948175,-0.00408742,0,
6,0.811008,0.488901,-0.0948448,-0.00426842,0,
6,0.793282,0.469247,-0.0948839,-0.00443166,0,
6,0.775322,0.449577,-0.094925,-0.00457014,0,
6,0.757107,0.429992,-0.0949905,-0.00468127,0,
6,0.738612,0.410575,-0.0950451,-0.00479417,0,
6,0.719813,0.391128,-0.0949606,-0.00478669,0,
6,0.700681,0.371319,-0.0947998,-0.00479144,0,
6,0.681188,0.350999,-0.0946718,-0.00482049,0,
6,0.661304,0.330121,-0.0945593,-0.00486979,0,
6,0.640996,0.308677,-0.094473,-0.00493599,0,
6,0.620228,0.286675,-0.0944069,-0.0050149,0,
6,0.598964,0.264139,-0.0943592,-0.0051018,0,
6,0.577166,0.241107,-0.0943266,-0.00519137,0,
6,0.554791,0.217645,-0.0943066,-0.00527761,0,
6,0.531799,0.193851,-0.0942959,-0.00535403,0,
6,0.508144,0.169848,-0.0942924,-0.00541381,0,
6,0.48378,0.145764,-0.0942897,-0.00545018,0,
6,0.459585,0.122489,-0.0942825,-0.00545595,0,
6,0.436695,0.101052,-0.0942741,-0.00542849,0,
6,0.414961,0.0813785,-0.094274,-0.00536908,0,
6,0.394252,0.0634827,-0.0942971,-0.00528078,0,
6,0.374445,0.0474932,-0.0943748,-0.00516982,0,
6,0.355433,0.0335751,-0.0945216,-0.00504567,0,
6,0.337122,0.02176,-0.0947599,-0.00491984,0,
6,0.319433,0.0117613,-0.0949341,-0.0047788,0,
6,0.3023,0.0029816,-0.0949846,-0.00449192,0,
6,0.28567,-0.00497772,-0.0950195,-0.00427306,0,
6,0.269507,-0.0122206,-0.0950465,-0.00405224,0,
6,0.253785,-0.0188307,-0.0950488,-0.0038292,0,
6,0.238493,-0.0248808,-0.0950307,-0.00360561,0,
6,0.223631,-0.0304322,-0.0949878,-0.00338264,0,
6,0.209207,-0.0355379,-0.0949202,-0.00316157,0,
6,0.195237,-0.0402429,-0.0948274,-0.00294357,0,
6,0.181744,-0.0445862,-0.0947104,-0.00272981,0,
6,0.168754,-0.048601,-0.0945714,-0.00252135,0,
6,0.156292,-0.0523161,-0.0944127,-0.0023192,0,
6,0.144384,-0.0557565,-0.0942385,-0.00212425,0,
6,0.133052,-0.0589437,-0.0940524,-0.00193729,0,
6,0.122315,-0.0618964,-0.0938592,-0.00175896,0,
6,0.112183,-0.0646308,-0.0936627,-0.00158974,0,
6,0.102665,-0.0671609,-0.0934674,-0.00142998,0,
6,0.0937597,-0.0694992,-0.0932765,-0.00127988,0,
6,0.0854609,-0.0716563,-0.0930932,-0.00113947,0,
6,0.077757,-0.0736416,-0.0929194,-0.00100868,0,
6,0.0706309,-0.0754635,-0.0927571,-0.000887325,0,
6,0.0640611,-0.0771292,-0.0926071,-0.00077511,0,
6,0.0580229,-0.0786452,-0.09247,-0.000671678,0,
6,0.0524888,-0.080017,-0.0923456,-0.000576616,0,
6,0.0474296,-0.0812494,-0.092234,-0.000489472,0,
6,0.042815,-0.0823465,-0.0921343,-0.000409765,0,
6,0.0386145,-0.0833115,-0.0920459,-0.000337012,0,
6,0.0347975,-0.0841465,-0.091968,-0.000270739,0,
6,0.0313344,-0.0848526,-0.0918998,-0.00021048,0,
6,0.0281964,-0.0854295,-0.0918403,-0.000155791,0,
6,0.0253561,-0.0858753,-0.0917886,-0.000106266,0,
6,0.0227875,-0.0861858,-0.091744,-6.15389e-05,0,
6,0.0204662,-0.0863539,-0.0917056,-2.12974e-05,0,
6,0.0183694,-0.0863688,-0.0916731,1.47064e-05,0,
6,0.016476,-0.0862147,-0.0916452,4.66297e-05,0,
6,0.0147664,-0.0858685,-0.0916221,7.45052e-05,0,
6,0.0132228,-0.0852977,-0.0916025,9.81932e-05,0,
6,0.0118288,-0.0844562,-0.0915869,0.000117304,0,
6,0.0105693,-0.0832796,-0.0915737,0.000131095,0,
6,0.00943073,-0.0816803,-0.0915641,0.000138392,0,
6,0.00840063,-0.0795451,-0.0915558,0.000137662,0,
6,0.00746774,-0.0767428,-0.0915508,0.000127562,0,
6,0.00662185,-0.0731557,-0.0915463,0.000108215,0,
6,0.00585371,-0.0687383,-0.0915445,8.25963e-05,0,
6,0.00515491,-0.0635772,-0.0915421,5.61697e-05,0,
6,0.00451788,-0.0578892,-0.091542,3.40967e-05,0,
6,0.00393573,-0.0519414,-0.0915404,1.86626e-05,0,
6,0.00340221,-0.0459608,-0.091541,9.30634e-06,0,
6,0.00291168,-0.0400945,-0.0915396,4.24317e-06,0,
6,0.00245897,-0.0344181,-0.0915406,1.75613e-06,0,
6,0.00203939,-0.028959,-0.091539,6.46076e-07,0,
6,0.00164864,-0.0237165,-0.0915403,2.03043e-07,0,
6,0.00128281,-0.018675,-0.0915384,5.078e-08,0,
6,0.000938257,-0.0138111,-0.0915402,8.85841e-09,0,
6,0.000611645,-0.00909743,-0.0915379,8.21286e-10,0,
6,0.000299862,-0.00450421,-0.0915401,2.13248e-11,0,

10,0.000296632,0.00759708,0.0269643,-7.45546e-11,0,
10,0.000596102,0.015274,0.0269664,-2.76665e-09,0,
10,0.000900397,0.0230822,0.0269643,-2.81664e-08,0,
10,0.00121153,0.031073,0.026966,-1.51567e-07,0,
10,0.00153158,0.0392979,0.0269642,-5.67723e-07,0,
10,0.00186264,0.0478057,0.0269656,-1.69e-06,0,
10,0.00220692,0.0566389,0.0269642,-4.29263e-06,0,
10,0.00256668,0.0658259,0.0269652,-9.68685e-06,0,
10,0.00294431,0.0753696,0.026964,-1.98707e-05,0,
10,0.00334229,0.0852297,0.0269648,-3.7496e-05,0,
10,0.00376326,0.0953063,0.0269637,-6.54061e-05,0,
10,0.00421,0.10543,0.0269641,-0.000105593,0,
10,0.00468544,0.115375,0.0269629,-0.0001579,0,
10,0.00519274,0.1249,0.0269626,-0.000219383,0,
10,0.00573524,0.133797,0.026961,-0.000285083,0,
10,0.00631651,0.141936,0.0269598,-0.000349806,0,
10,0.00694041,0.149269,0.0269573,-0.000409683,0,
10,0.00761104,0.155818,0.0269547,-0.000462729,0,
10,0.00833284,0.16165,0.0269508,-0.000508577,0,
10,0.00911058,0.166848,0.0269465,-0.000547861,0,
10,0.0099494,0.171502,0.0269407,-0.00058167,0,
10,0.0108548,0.175694,0.0269341,-0.000611196,0,
10,0.0118329,0.179499,0.026926,-0.00063755,0,
10,0.0128901,0.182978,0.0269166,-0.000661696,0,
10,0.0140333,0.186186,0.0269056,-0.000684445,0,
10,0.0152702,0.189166,0.0268928,-0.000706469,0,
10,0.0166089,0.191956,0.026878,-0.00072833,0,
10,0.0180584,0.194586,0.0268612,-0.000750497,0,
10,0.0196282,0.197082,0.0268418,-0.000773387,0,
10,0.0213288,0.199468,0.0268199,-0.000797376,0,
10,0.0231714,0.201761,0.0267948,-0.000822806,0,
10,0.0251682,0.203978,0.0267666,-0.000849994,0,
10,0.0273326,0.206134,0.0267345,-0.000879258,0,
10,0.0296789,0.208241,0.0266986,-0.000910928,0,
10,0.0322227,0.210311,0.0266577,-0.000945333,0,
10,0.0349809,0.212356,0.0266123,-0.000982797,0,
10,0.0379719,0.214383,0.0265609,-0.00102367,0,
10,0.0412155,0.216403,0.0265037,-0.00106837,0,
10,0.0447333,0.218425,0.0264393,-0.00111728,0,
10,0.0485489,0.220456,0.026368,-0.00117083,0,
10,0.0526875,0.222507,0.0262879,-0.00122948,0,
10,0.0571768,0.224584,0.0261993,-0.00129379,0,
10,0.0620466,0.226698,0.0261003,-0.00136431,0,
10,0.0673295,0.228856,0.025991,-0.00144163,0,
10,0.0730607,0.231068,0.0258696,-0.0015264,0,
10,0.0792784,0.233344,0.0257358,-0.0016194,0,
10,0.0860241,0.235696,0.0255883,-0.00172142,0,
10,0.0933428,0.238134,0.0254259,-0.00183331,0,
10,0.101283,0.240672,0.0252486,-0.00195599,0,
10,0.109899,0.243324,0.025054,-0.00209055,0,
10,0.119247,0.246107,0.0248445,-0.00223809,0,
10,0.12939,0.24904,0.0246169,-0.00239979,0,
10,0.140395,0.252145,0.0243749,-0.00257696,0,
10,0.152337,0.255446,0.0241133,-0.00277104,0,
10,0.165296,0.258975,0.0238401,-0.0029835,0,
10,0.179357,0.262767,0.0235506,-0.00321583,0,
10,0.194615,0.266866,0.0232547,-0.00346948,0,
10,0.211171,0.271323,0.0229487,-0.00374586,0,
10,0.229138,0.276204,0.0226451,-0.00404615,0,
10,0.248635,0.281587,0.0223441,-0.00437115,0,
10,0.269793,0.28757,0.0220513,-0.00472114,0,
10,0.292753,0.294276,0.0217915,-0.00509511,0,
10,0.317669,0.301859,0.0215104,-0.00549724,0,
10,0.344708,0.310529,0.0213541,-0.00606696,0,
10,0.372405,0.320504,0.0217738,-0.00628356,0,
10,0.399623,0.332344,0.0224669,-0.00641702,0,
10,0.426397,0.346368,0.0228904,-0.00654461,0,
10,0.452757,0.362173,0.0230783,-0.00664821,0,
10,0.478735,0.379051,0.0230958,-0.00670867,0,
10,0.504358,0.396416,0.0230374,-0.00671667,0,
10,0.529657,0.413976,0.0229582,-0.00667065,0,
10,0.554656,0.431683,0.0228899,-0.00657255,0,
10,0.579382,0.449611,0.0228371,-0.00642468,0,
10,0.603859,0.467861,0.0227933,-0.00622879,0,
10,0.628112,0.486502,0.0227461,-0.00598617,0,
10,0.652163,0.50555,0.0226861,-0.00569823,0,
10,0.676035,0.524959,0.0226053,-0.00536736,0,
10,0.699751,0.544608,0.0224996,-0.00499796,0,
10,0.72333,0.56428,0.0223634,-0.00460135,0,
10,0.746795,0.58363,0.0221924,-0.00420705,0,
10,0.770165,0.60229,0.0219918,-0.00382219,0,
10,0.79346,0.62004,0.02177,-0.00344746,0,
10,0.816699,0.636818,0.0215313,-0.00308516,0,
10,0.839903,0.652626,0.0212766,-0.00273988,0,
10,0.863088,0.667455,0.0210047,-0.00241718,0,
10,0.886275,0.681258,0.0207152,-0.00212254,0,
10,0.909481,0.693974,0.020409,-0.00186034,0,
10,0.932723,0.70557,0.0200878,-0.00163295,0,
10,0.956021,0.71606,0.0197536,-0.00144042,0,
10,0.97939,0.725513,0.0194084,-0.00128076,0,
10,1.00285,0.734034,0.0190534,-0.00115058,0,
10,1.02641,0.741751,0.01869,-0.00104572,0,
10,1.0501,0.748802,0.0183188,-0.000961819,0,
10,1.07392,0.755318,0.0179407,-0.000894776,0,
10,1.0979,0.76142,0.017556,-0.000840972,0,
10,1.12205,0.767208,0.0171651,-0.000797385,0,
10,1.14639,0.772769,0.0167684,-0.000761536,0,
10,1.17093,0.778168,0.0163659,-0.000731378,0,
10,1.19568,0.783456,0.0159578,-0.000705286,0,
10,1.22066,0.788666,0.0155435,-0.000682571,0,
10,1.24589,0.79382,0.015123,-0.000662757,0,
10,1.27137,0.798935,0.0146965,-0.000644836,0,
10,1.29713,0.804028,0.0142639,-0.000628097,0,
10,1.32317,0.809111,0.0138252,-0.00061207,0,
10,1.34951,0.814192,0.01338,-0.000596441,0,
10,1.37616,0.819272,0.0129282,-0.000580998,0,
10,1.40313,0.824353,0.0124696,-0.000565599,0,
10,1.43043,0.829435,0.012004,-0.000550159,0,
10,1.45807,0.834514,0.0115313,-0.00053463,0,
10,1.48607,0.839587,0.0110514,-0.000518989,0,
10,1.51444,0.844649,0.0105641,-0.000503229,0,
10,1.54318,0.849695,0.0100694,-0.000487348,0,
10,1.57231,0.854717,0.00956699,-0.000471346,0,
10,1.60184,0.859707,0.00905698,-0.000455219,0,
10,1.63178,0.864656,0.00853921,-0.000438961,0,
10,1.66213,0.869553,0.00801377,-0.000422651,0,
10,1.69292,0.874387,0.00748054,-0.00040633,0,
10,1.72416,0.879143,0.00693971,-0.000389966,0,
10,1.75585,0.883809,0.00639104,-0.000373551,0,
10,1.78802,0.888371,0.00583504,-0.000357091,0,
10,1.82067,0.892813,0.00527113,-0.000340569,0,
10,1.85383,0.897126,0.00470373,-0.000322367,0,
10,1.88751,0.901311,0.00413614,-0.000295335,0,
10,1.92173,0.905351,0.00356198,-0.000267105,0,
10,1.95652,0.909211,0.00297787,-0.000239128,0,
10,1.9919,0.912874,0.00238634,-0.000212247,0,
10,2.02791,0.916324,0.00178494,-0.000186817,0,
10,2.06456,0.919553,0.00117658,-0.000162781,0,
10,2.10268,0.922605,0.000544243,-0.000139598,0,
10,2.1443,0.925579,-0.000140027,-0.000117467,0,
10,2.18977,0.928427,-0.000883574,-9.62868e-05,0,
10,2.23946,0.931072,-0.00168763,-7.61989e-05,0,
10,2.29376,0.933433,-0.00255754,-5.78671e-05,0,
10,2.35309,0.935436,-0.00349471,-4.17515e-05,0,
10,2.4179,0.937012,-0.00450243,-2.82302e-05,0,
10,2.48863,0.938119,-0.00558113,-1.7579e-05,0,
10,2.56575,0.938747,-0.00673171,-9.88715e-06,0,
10,2.64971,0.938938,-0.00795276,-4.98925e-06,0,
10,2.74098,0.938793,-0.00924264,-2.43827e-06,0,
10,2.83997,0.938466,-0.0105978,-1.52966e-06,0,
10,2.94709,0.938149,-0.0120143,-1.4252e-06,0,
10,3.06269,0.93803,-0.0134866,-1.39761e-06,0,
10,3.18706,0.938245,-0.0150083,-1.10948e-06,0,
10,3.3204,0.938832,-0.0165719,-6.64044e-07,0,
10,3.46281,0.93972,-0.0181687,-3.04197e-07,0,
10,3.61427,0.940767,-0.0197882,-1.21144e-07,0,
10,3.77463,0.941821,-0.0214188,-5.56106e-08,0,
10,3.94358,0.942782,-0.0230471,-3.61511e-08,0,
10,4.12067,0.943621,-0.0246596,-2.93837e-08,0,
10,4.30525,0.944365,-0.0262426,-2.60292e-08,0,
10,4.49655,0.945061,-0.0277833,-2.41929e-08,0,
10,4.6936,0.945743,-0.0292701,-2.36306e-08,0,
10,4.89531,0.946417,-0.0306925,-2.47604e-08,0,
10,5.10047,0.947073,-0.0320421,-2.91083e-08,0,
10,5.30776,0.947691,-0.0333118,-4.02435e-08,0,
10,5.51581,0.948254,-0.034497,-6.50666e-08,0,
10,5.72323,0.948758,-0.0355944,-1.1856e-07,0,
10,5.92863,0.949227,-0.036603,-2.37711e-07,0,
10,6.13069,0.949724,-0.0375228,-5.22464e-07,0,
10,6.32816,0.950346,-0.0383564,-1.18741e-06,0,
10,6.51991,0.951129,-0.0391062,-2.32808e-06,0,
10,6.70495,0.951856,-0.039778,-2.49291e-06,0,
10,6.88244,0.951837,-0.0403743,4.2337e-06,0,
10,7.0517,0.949904,-0.0409028,2.95307e-05,0,
10,7.21224,0.944767,-0.0413617,8.70812e-05,0,
10,7.3637,0.935574,-0.0417608,0.000187716,0,
10,7.5059,0.922064,-0.0421124,0.000293564,0,
10,7.63878,0.904564,-0.0424047,0.00041088,0,
10,7.76243,0.884411,-0.0426497,0.000540084,0,
10,7.87701,0.863472,-0.0428461,0.000670512,0,
10,7.9828,0.843264,-0.0430079,0.00078939,0,
10,8.08014,0.824505,-0.0431366,0.000888724,0,
10,8.16941,0.807239,-0.0432446,0.00097002,0,
10,8.25106,0.791201,-0.043334,0.0010372,0,
10,8.32554,0.77607,-0.0434115,0.00109383,0,
10,8.39331,0.761581,-0.0434779,0.00114229,0,
10,8.45484,0.747547,-0.0435358,0.00118402,0,
10,8.5106,0.733858,-0.0435858,0.00121985,0,
10,8.56104,0.72046,-0.0436294,0.00125028,0,
10,8.60659,0.707333,-0.0436674,0.00127571,0,
10,8.64767,0.694466,-0.0437007,0.00129648,0,
10,8.68467,0.681806,-0.0437293,0.00130781,0,
10,8.71795,0.669306,-0.0437544,0.00131695,0,
10,8.74786,0.656951,-0.0437764,0.00132245,0,
10,8.77471,0.644737,-0.0437957,0.00132439,0,
10,8.79881,0.632657,-0.0438125,0.00132303,0,
10,8.8204,0.620707,-0.0438272,0.00131871,0,
10,8.83975,0.608879,-0.04384,0.00131177,0,
10,8.85708,0.597164,-0.0438511,0.00130258,0,
10,8.87259,0.585549,-0.0438608,0.00129151,0,
10,8.88646,0.574016,-0.0438691,0.00127888,0,
10,8.89886,0.562547,-0.0438763,0.001265,0,
10,8.90995,0.551119,-0.0438825,0.00125012,0,
10,8.91986,0.539706,-0.0438877,0.00123445,0,
10,8.92872,0.528278,-0.0438922,0.00121815,0,
10,8.93663,0.516802,-0.0438961,0.00120132,0,
10,8.94369,0.505243,-0.0438993,0.001184,0,
10,8.95,0.493562,-0.0439021,0.00116616,0,
10,8.95564,0.481713,-0.0439044,0.00114773,0,
10,8.96067,0.469649,-0.0439063,0.00112855,0,
10,8.96517,0.457316,-0.043908,0.00110842,0,
10,8.96918,0.444653,-0.0439093,0.00108702,0,
10,8.97276,0.431591,-0.0439105,0.00106392,0,
10,8.97596,0.41805,-0.0439114,0.00103858,0,
10,8.97882,0.403939,-0.0439123,0.00101028,0,
10,8.98137,0.389149,-0.0439128,0.000978088,0,
10,8.98365,0.373552,-0.0439135,0.000940797,0,
10,8.98569,0.356997,-0.0439138,0.000896857,0,
10,8.9875,0.339306,-0.0439144,0.000844856,0,
10,8.98913,0.320243,-0.0439144,0.000778399,0,
10,8.99058,0.299563,-0.0439149,0.000699852,0,
10,8.99188,0.277094,-0.0439148,0.00060693,0,
10,8.99304,0.252664,-0.0439153,0.000492367,0,
10,8.99408,0.226212,-0.043915,0.000363351,0,
10,8.99501,0.198082,-0.0439155,0.000233313,0,
10,8.99583,0.169161,-0.0439151,0.000124708,0,
10,8.99658,0.140734,-0.0439157,5.39272e-05,0,
10,8.99724,0.113967,-0.0439151,1.86942e-05,0,
10,8.99784,0.0894917,-0.0439158,5.14672e-06,0,
10,8.99837,0.0674395,-0.0439151,1.08017e-06,0,
10,8.99885,0.0476796,-0.0439159,1.54752e-07,0,
10,8.99927,0.0299977,-0.043915,1.17471e-08,0,
10,8.99966,0.0141741,-0.043916,2.5986e-10,0,
10,0,0,0.0269667,0,0,
10,9,0,-0.043915,0,0,

0.004,0,0,-0.210489,0,3.37514e-08,
0.00868226,0,0,-0.210491,0,-3.03348e-07,
0.014062,0,0,-0.210489,0,-7.03046e-07,
0.0201548,0,0,-0.210491,0,-1.14399e-06,
0.0269766,0,0,-0.210486,0,-1.22661e-06,
0.0345437,0,0,-0.210485,0,-5.84183e-07,
0.0428729,0,0,-0.210479,0,1.0648e-06,
0.051981,0,0,-0.210477,0,4.03643e-06,
0.0618853,0,0,-0.210473,0,8.30484e-06,
0.0726036,0,0,-0.210475,0,1.37334e-05,
0.0841536,0,0,-0.210481,0,1.98277e-05,
0.0965535,0,0,-0.210494,0,2.61249e-05,
0.109822,0,0,-0.210513,0,3.21334e-05,
0.123977,0,0,-0.210539,0,3.76048e-05,
0.139037,0,0,-0.210571,0,4.24099e-05,
0.155022,0,0,-0.210609,0,4.65808e-05,
0.171949,0,0,-0.210652,0,5.01532e-05,
0.189839,0,0,-0.210703,0,5.31462e-05,
0.208709,0,0,-0.210762,0,5.5489e-05,
0.228579,0,0,-0.210828,0,5.70535e-05,
0.249467,0,0,-0.210904,0,5.76708e-05,
0.271391,0,0,-0.210988,0,5.71787e-05,
0.29437,0,0,-0.21108,0,5.54466e-05,
0.31842,0,0,-0.211181,0,5.24006e-05,
0.343559,0,0,-0.21129,0,4.80329e-05,
0.369804,0,0,-0.211404,0,4.24018e-05,
0.39717,0,0,-0.211524,0,3.56211e-05,
0.425672,0,0,-0.211649,0,2.78417e-05,
0.455324,0,0,-0.211776,0,1.92293e-05,
0.48614,0,0,-0.211906,0,9.94572e-06,
0.518132,0,0,-0.212038,0,1.34163e-07,
0.551309,0,0,-0.212171,0,-1.00906e-05,
0.585683,0,0,-0.212306,0,-2.06479e-05,
0.621259,0,0,-0.212442,0,-3.14975e-05,
0.658046,0,0,-0.212579,0,-4.26372e-05,
0.696047,0,0,-0.212719,0,-5.40964e-05,
0.735265,0,0,-0.212861,0,-6.5934e-05,
0.7757,0,0,-0.213008,0,-7.82313e-05,
0.817352,0,0,-0.213159,0,-9.10971e-05,
0.860215,0,0,-0.213315,0,-0.000104664,
0.904285,0,0,-0.213477,0,-0.000119059,
0.949552,0,0,-0.213646,0,-0.000134447,
0.996004,0,0,-0.213822,0,-0.000151015,
1.04363,0,0,-0.214005,0,-0.000168968,
1.09241,0,0,-0.214195,0,-0.00018854,
1.14232,0,0,-0.214389,0,-0.000209981,
1.19335,0,0,-0.214589,0,-0.00023354,
1.24546,0,0,-0.21479,0,-0.000259224,
1.29863,0,0,-0.214988,0,-0.000287075,
1.35283,0,0,-0.215185,0,-0.000316797,
1.40802,0,0,-0.215374,0,-0.000347635,
1.46416,0,0,-0.215555,0,-0.000378941,
1.52121,0,0,-0.215727,0,-0.000409118,
1.57913,0,0,-0.215878,0,-0.000437178,
1.63787,0,0,-0.216015,0,-0.000462454,
1.69739,0,0,-0.216114,0,-0.000484419,
1.75761,0,0,-0.216164,0,-0.000502608,
1.81851,0,0,-0.216164,0,-0.000515674,
1.88,0,0,-0.216116,0,-0.000523108,
1.94204,0,0,-0.216024,0,-0.000522326,
2.00457,0,0,-0.215892,0,-0.000511509,
2.06751,0,0,-0.215864,0,-0.000491558,
2.13081,0,0,-0.215975,0,-0.000466809,
2.19439,0,0,-0.216168,0,-0.000442382,
2.25819,0,0,-0.216424,0,-0.000417171,
2.32214,0,0,-0.216854,0,-0.000390151,
2.38617,0,0,-0.217597,0,-0.000365074,
2.4502,0,0,-0.218766,0,-0.00035023,
2.51418,0,0,-0.220271,0,-0.000352951,
2.57803,0,0,-0.222037,0,-0.000374646,
2.64167,0,0,-0.223985,0,-0.000413525,
2.70505,0,0,-0.226037,0,-0.000466424,
2.76808,0,0,-0.22813,0,-0.00053044,
2.83072,0,0,-0.230199,0,-0.000603452,
2.89288,0,0,-0.232184,0,-0.00068406,
2.95451,0,0,-0.234024,0,-0.000771234,
3.01555,0,0,-0.235647,0,-0.000863958,
3.07594,0,0,-0.236978,0,-0.000960699,
3.13561,0,0,-0.237934,0,-0.00105901,
3.19453,0,0,-0.238447,0,-0.00115561,
3.25262,0,0,-0.238468,0,-0.00124675,
3.30985,0,0,-0.237988,0,-0.00132903,
3.36617,0,0,-0.237025,0,-0.00139992,
3.42154,0,0,-0.235629,0,-0.00145812,
3.47591,0,0,-0.233867,0,-0.0015035,
3.52925,0,0,-0.231815,0,-0.00153698,
3.58152,0,0,-0.22955,0,-0.00156008,
3.6327,0,0,-0.227141,0,-0.00157469,
3.68276,0,0,-0.224645,0,-0.00158274,
3.73167,0,0,-0.222108,0,-0.00158598,
3.77941,0,0,-0.219562,0,-0.00158583,
3.82596,0,0,-0.217032,0,-0.00158338,
3.8713,0,0,-0.214535,0,-0.00157941,
3.91543,0,0,-0.212079,0,-0.00157435,
3.95833,0,0,-0.209684,0,-0.00156884,
4,0,0,-0.207329,0,-0.0015629,
4.04167,0,0,-0.204969,0,-0.00155635,
4.08333,0,0,-0.202599,0,-0.00154938,
4.125,0,0,-0.20022,0,-0.00154206,
4.16667,0,0,-0.197832,0,-0.00153438,
4.20833,0,0,-0.195437,0,-0.00152632,
4.25,0,0,-0.193035,0,-0.00151788,
4.29167,0,0,-0.190627,0,-0.00150911,
4.33333,0,0,-0.188214,0,-0.0015,
4.375,0,0,-0.185796,0,-0.00149056,
4.41667,0,0,-0.183374,0,-0.00148075,
4.45833,0,0,-0.180948,0,-0.00147066,
4.5,0,0,-0.17852,0,-0.00146026,
4.54167,0,0,-0.176088,0,-0.00144956,
4.58333,0,0,-0.173655,0,-0.00143855,
4.625,0,0,-0.171221,0,-0.00142728,
4.66667,0,0,-0.168784,0,-0.00141572,
4.70833,0,0,-0.166347,0,-0.00140389,
4.75,0,0,-0.163908,0,-0.00139177,
4.79167,0,0,-0.16147,0,-0.00137939,
4.83333,0,0,-0.15903,0,-0.00136671,
4.875,0,0,-0.15659,0,-0.00135377,
4.91667,0,0,-0.15415,0,-0.00134056,
4.95833,0,0,-0.151711,0,-0.00132707,
5,0,0,-0.149271,0,-0.00131328,
5.04167,0,0,-0.146832,0,-0.00129922,
5.08333,0,0,-0.144393,0,-0.00128492,
5.125,0,0,-0.141955,0,-0.0012703,
5.16667,0,0,-0.139518,0,-0.00125536,
5.20833,0,0,-0.137082,0,-0.00124013,
5.25,0,0,-0.134648,0,-0.00122466,
5.29167,0,0,-0.132215,0,-0.00120883,
5.33333,0,0,-0.129784,0,-0.00119267,
5.375,0,0,-0.127356,0,-0.00117621,
5.41667,0,0,-0.124932,0,-0.0011595,
5.45833,0,0,-0.122509,0,-0.00114243,
5.5,0,0,-0.120089,0,-0.00112503,
5.54167,0,0,-0.117676,0,-0.00110732,
5.58333,0,0,-0.115267,0,-0.00108933,
5.625,0,0,-0.11286,0,-0.00107096,
5.66667,0,0,-0.110459,0,-0.00105224,
5.70833,0,0,-0.108066,0,-0.00103318,
5.75,0,0,-0.10568,0,-0.00101381,
5.79167,0,0,-0.103299,0,-0.000994054,
5.83333,0,0,-0.100928,0,-0.000973994,
5.875,0,0,-0.0985651,0,-0.000953576,
5.91667,0,0,-0.0962113,0,-0.000932818,
5.95833,0,0,-0.0938685,0,-0.000911674,
6,0,0,-0.0915375,0,-0.000890243,
6.04167,0,0,-0.0892165,0,-0.00086843,
6.08333,0,0,-0.0869072,0,-0.000846241,
6.125,0,0,-0.0846162,0,-0.000823711,
6.16667,0,0,-0.0823399,0,-0.000800931,
6.20833,0,0,-0.0800747,0,-0.000777788,
6.25,0,0,-0.0778251,0,-0.000754272,
6.29167,0,0,-0.0756004,0,-0.000730466,
6.33333,0,0,-0.0733917,0,-0.000706402,
6.375,0,0,-0.0711965,0,-0.000681987,
6.41667,0,0,-0.0690217,0,-0.00065723,
6.45833,0,0,-0.0668774,0,-0.000632264,
6.5,0,0,-0.0647496,0,-0.000607051,
6.54167,0,0,-0.0626395,0,-0.000581554,
6.58333,0,0,-0.0605551,0,-0.000555783,
6.625,0,0,-0.058503,0,-0.00052985,
6.66667,0,0,-0.0564669,0,-0.000503623,
6.70833,0,0,-0.0544548,0,-0.000477177,
6.75,0,0,-0.0524734,0,-0.000450544,
6.79167,0,0,-0.050523,0,-0.000423811,
6.83333,0,0,-0.0485898,0,-0.000396798,
6.875,0,0,-0.0466861,0,-0.000369691,
6.91667,0,0,-0.0448151,0,-0.000342469,
6.95833,0,0,-0.0429722,0,-0.000315154,
7,0,0,-0.0411479,0,-0.000287545,
7.04167,0,0,-0.0393585,0,-0.00025995,
7.08333,0,0,-0.0376018,0,-0.000232311,
7.125,0,0,-0.0358695,0,-0.000204598,
7.16667,0,0,-0.0341601,0,-0.000176637,
7.20833,0,0,-0.0324866,0,-0.000148798,
7.25,0,0,-0.0308416,0,-0.000120932,
7.29167,0,0,-0.0292184,0,-9.29688e-05,
7.33333,0,0,-0.0276235,0,-6.48113e-05,
7.375,0,0,-0.0260632,0,-3.68272e-05,
7.41667,0,0,-0.0245265,0,-8.82262e-06,
7.45833,0,0,-0.023011,0,1.92581e-05,
7.5,0,0,-0.021529,0,4.74281e-05,
7.54167,0,0,-0.020076,0,7.54284e-05,
7.58333,0,0,-0.0186423,0,0.000103464,
7.625,0,0,-0.0172309,0,0.000131531,
7.66667,0,0,-0.0158553,0,0.000159575,
7.70833,0,0,-0.0145018,0,0.000187513,
7.75,0,0,-0.0131659,0,0.000215515,
7.79167,0,0,-0.0118542,0,0.000243498,
7.83333,0,0,-0.0105778,0,0.000271363,
7.875,0,0,-0.00931694,0,0.000299287,
7.91667,0,0,-0.0080714,0,0.000327516,
7.95833,0,0,-0.00687987,0,0.000355159,
8,0,0,-0.00567518,0,0.0003825,
8.04171,0,0,-0.00445164,0,0.000411047,
8.08368,0,0,-0.00331536,0,0.000439887,
8.12617,0,0,-0.00216313,0,0.000467886,
8.16946,0,0,-0.0010272,0,0.000496136,
8.21382,0,0,0.000132616,0,0.00052526,
8.25952,0,0,0.00129586,0,0.00055511,
8.30685,0,0,0.00246468,0,0.000585767,
8.35611,0,0,0.00364878,0,0.000617265,
8.40762,0,0,0.00488123,0,0.000650482,
8.46168,0,0,0.00612435,0,0.000685033,
8.51865,0,0,0.00738911,0,0.00072117,
8.57889,0,0,0.0086883,0,0.00075892,
8.64276,0,0,0.0100402,0,0.000799073,
8.71067,0,0,0.0113986,0,0.000841003,
8.78306,0,0,0.0127862,0,0.0008853,
8.86037,0,0,0.0142145,0,0.000931946,
8.94309,0,0,0.0156634,0,0.00098153,
9.03174,0,0,0.0171073,0,0.0010336,
9.12689,0,0,0.0185594,0,0.00108805,
9.22912,0,0,0.0199962,0,0.00114538,
9.33908,0,0,0.0213997,0,0.00120519,
9.45746,0,0,0.0227557,0,0.00126714,
9.58501,0,0,0.0240427,0,0.00133094,
9.72253,0,0,0.0251933,0,0.00139605,
9.87088,0,0,0.0262576,0,0.00146382,
10.031,0,0,0.027137,0,0.00153085,
10.2039,0,0,0.0278655,0,0.00159732,
10.3906,0,0,0.0284185,0,0.00166266,
10.5924,0,0,0.0288168,0,0.00172839,
10.8105,0,0,0.0289934,0,0.00179145,
11.0463,0,0,0.0289958,0,0.00185235,
11.3012,0,0,0.0289132,0,0.00191125,
11.5769,0,0,0.0286782,0,0.00196659,
11.8751,0,0,0.0283928,0,0.00202156,
12.1977,0,0,0.0279713,0,0.00207421,
12.5466,0,0,0.0273359,0,0.00212376,
12.9242,0,0,0.0264914,0,0.00216788,
13.3327,0,0,0.0254172,0,0.00220649,
13.7748,0,0,0.0241209,0,0.00223927,
14.2532,0,0,0.0227728,0,0.00226606,
14.7709,0,0,0.0214399,0,0.00228885,
15.3312,0,0,0.0201256,0,0.00230656,
15.9377,0,0,0.0188471,0,0.00231994,
16.594,0,0,0.0175284,0,0.00232928,
17.3044,0,0,0.0162296,0,0.00233513,
18.0733,0,0,0.0150087,0,0.00233807,
18.9056,0,0,0.0138481,0,0.00233877,
19.8064,0,0,0.0127392,0,0.00233794,
20.7816,0,0,0.0117121,0,0.00233554,
21.8371,0,0,0.0108402,0,0.00233288,
22.9796,0,0,0.0101302,0,0.00233005,
24.2163,0,0,0.00952769,0,0.00232708,
25.5551,0,0,0.00894017,0,0.00232428,
27.0042,0,0,0.00833307,0,0.00232157,
28.5729,0,0,0.00774696,0,0.00231953,
30.271,0,0,0.00717454,0,0.00231803,
32.1091,0,0,0.00652926,0,0.00231714,
34.0989,0,0,0.00576669,0,0.00231738,
36.2529,0,0,0.00495571,0,0.00231963,
38.5845,0,0,0.00417176,0,0.00232451,
41.1085,0,0,0.00339289,0,0.00233064,
43.8407,0,0,0.00236862,0,0.00233448,
46.7983,0,0,0.00123022,0,0.0023337,
50,0,0,0.00207133,0,0.00234311,

