992cbf2fb05dc973485bedc4a8a0166cae21b51c 
X,Z,x_velocity,cp,uw_b,cf,
1,0,0,-0.216443,0,0,
1,9,0,-0.137122,0,0,
1,8.99969,0.0156416,-0.137122,2.9987e-10,0,
1,8.99934,0.0333847,-0.137122,1.40146e-08,0,
1,8.99894,0.0535297,-0.137122,1.93278e-07,0,
1,8.99848,0.0763935,-0.137122,1.41626e-06,0,
1,8.99797,0.10229,-0.137122,7.07158e-06,0,
1,8.99739,0.131411,-0.137122,2.67096e-05,0,
1,8.99672,0.16354,-0.137122,7.883e-05,0,
1,8.99597,0.1977,-0.137122,0.000182296,0,
1,8.99512,0.232206,-0.137121,0.000334072,0,
1,8.99416,0.265396,-0.137121,0.000504544,0,
1,8.99306,0.296312,-0.137121,0.000664242,0,
1,8.99182,0.324808,-0.137121,0.000791697,0,
1,8.99041,0.351032,-0.137121,0.000897682,0,
1,8.98881,0.37514,-0.13712,0.000985008,0,
1,8.98699,0.39735,-0.13712,0.00105609,0,
1,8.98494,0.41795,-0.137119,0.00111216,0,
1,8.98261,0.437255,-0.137118,0.00115455,0,
1,8.97996,0.455508,-0.137117,0.00119008,0,
1,8.97696,0.472883,-0.137116,0.00121942,0,
1,8.97356,0.489521,-0.137115,0.00124387,0,
1,8.9697,0.50554,-0.137114,0.00126439,0,
1,8.96533,0.521038,-0.137112,0.00128172,0,
1,8.96038,0.536098,-0.137111,0.00129638,0,
1,8.95476,0.55079,-0.137109,0.00130876,0,
1,8.9484,0.565172,-0.137106,0.00131914,0,
1,8.9412,0.579295,-0.137104,0.0013277,0,
1,8.93303,0.593201,-0.137102,0.00133457,0,
1,8.92379,0.606928,-0.137099,0.00133982,0,
1,8.91333,0.620506,-0.137096,0.00134348,0,
1,8.90149,0.633965,-0.137094,0.00134554,0,
1,8.8881,0.647329,-0.137091,0.00134596,0,
1,8.87295,0.66062,-0.137089,0.00134467,0,
1,8.85584,0.673859,-0.137087,0.00134158,0,
1,8.83651,0.687064,-0.137086,0.00133657,0,
1,8.81469,0.700255,-0.137086,0.00132947,0,
1,8.79007,0.713453,-0.137087,0.0013201,0,
1,8.76232,0.726678,-0.137091,0.0013082,0,
1,8.73107,0.739954,-0.137098,0.00129345,0,
1,8.69591,0.75331,-0.137109,0.00127548,0,
1,8.6564,0.766778,-0.137125,0.0012543,0,
1,8.61206,0.780412,-0.137149,0.00122929,0,
1,8.56236,0.794302,-0.137184,0.00119782,0,
1,8.50675,0.808567,-0.13723,0.00116109,0,
1,8.44464,0.823348,-0.137293,0.00111767,0,
1,8.3754,0.838819,-0.137376,0.00106541,0,
1,8.29839,0.855194,-0.137484,0.0010011,0,
1,8.21296,0.872715,-0.137625,0.000920262,0,
1,8.11843,0.891583,-0.137802,0.000817386,0,
1,8.01417,0.911804,-0.138033,0.000688505,0,
1,7.89956,0.932923,-0.138309,0.00053626,0,
1,7.77403,0.953753,-0.138674,0.000380394,0,
1,7.63711,0.972582,-0.1391,0.000208858,0,
1,7.48842,0.987159,-0.139606,7.60879e-05,0,
1,7.32773,0.995674,-0.140222,1.75066e-05,0,
1,7.15495,0.998664,-0.140932,1.5489e-06,0,
1,6.97022,0.998629,-0.141756,8.49241e-09,0,
1,6.77388,0.997992,-0.142705,2.27396e-09,0,
1,6.56652,0.997876,-0.143792,8.9357e-09,0,
1,6.34896,0.998318,-0.145029,1.20119e-08,0,
1,6.12229,0.999014,-0.146426,1.35438e-08,0,
1,5.88784,0.999769,-0.147993,1.42376e-08,0,
1,5.64716,1.00055,-0.149739,1.50392e-08,0,
1,5.40194,1.00138,-0.151667,1.61885e-08,0,
1,5.15407,1.0023,-0.153781,1.75701e-08,0,
1,4.90545,1.0033,-0.156074,1.9086e-08,0,
1,4.65805,1.00438,-0.158539,2.06945e-08,0,
1,4.41376,1.00553,-0.161162,2.22938e-08,0,
1,4.17441,1.00674,-0.163923,2.36171e-08,0,
1,3.94163,1.00795,-0.166797,2.45291e-08,0,
1,3.7169,1.00911,-0.169753,2.57333e-08,0,
1,3.50146,1.01029,-0.172758,2.9401e-08,0,
1,3.29629,1.01184,-0.175778,3.77558e-08,0,
1,3.10217,1.01409,-0.178786,4.85384e-08,0,
1,2.91959,1.0168,-0.181756,8.53588e-08,0,
1,2.74885,1.01847,-0.184654,5.10616e-07,0,
1,2.59002,1.01663,-0.187436,-8.61118e-06,0,
1,2.44299,1.0096,-0.190051,-5.48636e-05,0,
1,2.30752,0.997638,-0.192456,-0.000147353,0,
1,2.18321,0.982312,-0.194627,-0.000270956,0,
1,2.06959,0.965346,-0.196559,-0.000401966,0,
1,1.9661,0.948037,-0.198265,-0.000520606,0,
1,1.87215,0.931247,-0.19976,-0.00061608,0,
1,1.78711,0.915432,-0.201066,-0.000688101,0,
1,1.71033,0.900712,-0.202206,-0.000742755,0,
1,1.64119,0.887017,-0.203197,-0.000786303,0,
1,1.57905,0.874215,-0.204058,-0.000822922,0,
1,1.52332,0.86217,-0.204803,-0.000854805,0,
1,1.47342,0.850769,-0.205449,-0.00088295,0,
1,1.42882,0.839927,-0.206007,-0.000907799,0,
1,1.389,0.829581,-0.20649,-0.000929617,0,
1,1.35351,0.819688,-0.206907,-0.000948652,0,
1,1.3219,0.810217,-0.207267,-0.000965168,0,
1,1.29378,0.801151,-0.207578,-0.000979424,0,
1,1.26878,0.792476,-0.207848,-0.000991665,0,
1,1.24659,0.784187,-0.20808,-0.00100248,0,
1,1.22689,0.776273,-0.208282,-0.00101201,0,
1,1.2092,0.768641,-0.208458,-0.00101933,0,
1,1.1932,0.761239,-0.208614,-0.00102502,0,
1,1.1787,0.754052,-0.208751,-0.00102946,0,
1,1.16554,0.747062,-0.208872,-0.00103302,0,
1,1.15357,0.740244,-0.208979,-0.0010368,0,
1,1.14266,0.733561,-0.209072,-0.00104283,0,
1,1.13268,0.726958,-0.209155,-0.00105428,0,
1,1.12354,0.720355,-0.209228,-0.00107552,0,
1,1.11514,0.713647,-0.209293,-0.00111212,0,
1,1.10739,0.706693,-0.209352,-0.00117067,0,
1,1.10022,0.699331,-0.209409,-0.00125822,0,
1,1.09357,0.691379,-0.209465,-0.00138141,0,
1,1.08738,0.682668,-0.209523,-0.00154523,0,
1,1.0816,0.673073,-0.209585,-0.00175173,0,
1,1.07618,0.662549,-0.209653,-0.00199889,0,
1,1.07107,0.65115,-0.209726,-0.00228029,0,
1,1.06626,0.639015,-0.209804,-0.00258606,0,
1,1.06169,0.626331,-0.209886,-0.00290481,0,
1,1.05735,0.613301,-0.209973,-0.00322565,0,
1,1.05321,0.600106,-0.210062,-0.00353961,0,
1,1.04925,0.586897,-0.210153,-0.00384016,0,
1,1.04544,0.573785,-0.210246,-0.00412308,0,
1,1.04177,0.56085,-0.210339,-0.004386,0,
1,1.03822,0.548143,-0.210433,-0.00462792,0,
1,1.03478,0.535696,-0.210527,-0.00484876,0,
1,1.03144,0.523524,-0.210621,-0.00504902,0,
1,1.02818,0.511632,-0.210714,-0.00522955,0,
1,1.025,0.500017,-0.210806,-0.00539137,0,
1,1.02188,0.488672,-0.210898,-0.00553558,0,
1,1.01882,0.477587,-0.21099,-0.00566328,0,
1,1.01581,0.46675,-0.211081,-0.00577569,0,
1,1.01284,0.456148,-0.211171,-0.00587337,0,
1,1.00988,0.445655,-0.211261,-0.00595801,0,
1,1.00688,0.435148,-0.211353,-0.0060315,0,
1,1.00384,0.424616,-0.211446,-0.00609427,0,
1,1.00076,0.414049,-0.21154,-0.00614575,0,
1,0.997615,0.403428,-0.211636,-0.00618559,0,
1,0.99441,0.392733,-0.211734,-0.00621394,0,
1,0.991131,0.381939,-0.211833,-0.00623089,0,
1,0.987768,0.371023,-0.211934,-0.00623627,0,
1,0.984308,0.359958,-0.212037,-0.00622982,0,
1,0.980739,0.348717,-0.212142,-0.00621116,0,
1,0.977045,0.33727,-0.21225,-0.00617981,0,
1,0.973211,0.325586,-0.212361,-0.00613517,0,
1,0.969219,0.313634,-0.212475,-0.00607652,0,
1,0.965047,0.301383,-0.212592,-0.00600298,0,
1,0.960675,0.2888,-0.212713,-0.00591356,0,
1,0.956077,0.275856,-0.212838,-0.00580729,0,
1,0.951224,0.262526,-0.212968,-0.00568329,0,
1,0.946088,0.248789,-0.213102,-0.00554011,0,
1,0.940633,0.234627,-0.213241,-0.00537659,0,
1,0.934823,0.220034,-0.213386,-0.00519164,0,
1,0.928616,0.20501,-0.213536,-0.00498433,0,
1,0.921967,0.189575,-0.213691,-0.00475411,0,
1,0.914826,0.173764,-0.213851,-0.00450088,0,
1,0.907141,0.15764,-0.214016,-0.00422535,0,
1,0.898852,0.141295,-0.214186,-0.00392923,0,
1,0.889898,0.124859,-0.214359,-0.00361558,0,
1,0.880212,0.108506,-0.214535,-0.00328911,0,
1,0.869723,0.0924505,-0.214713,-0.00295639,0,
1,0.858358,0.0769457,-0.21489,-0.00262576,0,
1,0.846039,0.0622649,-0.215063,-0.00230686,0,
1,0.83269,0.0486714,-0.215231,-0.00200929,0,
1,0.818232,0.0363797,-0.215386,-0.00174377,0,
1,0.802744,0.0256031,-0.215522,-0.00151658,0,
1,0.78635,0.0163947,-0.215638,-0.00132742,0,
1,0.768969,0.00857112,-0.215725,-0.00117558,0,
1,0.75053,0.00192088,-0.215785,-0.00105735,0,
1,0.730977,-0.00376407,-0.215813,-0.000967894,0,
1,0.710271,-0.00866874,-0.215808,-0.000901975,0,
1,0.688397,-0.0129397,-0.215771,-0.000854575,0,
1,0.66536,-0.0166689,-0.215691,-0.000826405,0,
1,0.641194,-0.019909,-0.215546,-0.000823966,0,
1,0.615961,-0.022732,-0.215349,-0.000832051,0,
1,0.589754,-0.0252291,-0.215122,-0.000843062,0,
1,0.562692,-0.0274718,-0.214868,-0.000855166,0,
1,0.534925,-0.029507,-0.214597,-0.000864097,0,
1,0.506624,-0.0313648,-0.214324,-0.000865903,0,
1,0.477982,-0.0330648,-0.214061,-0.00085743,0,
1,0.449206,-0.0346203,-0.213823,-0.000836536,0,
1,0.420509,-0.0360404,-0.213626,-0.000802349,0,
1,0.392107,-0.0373323,-0.213482,-0.000755383,0,
1,0.364206,-0.038502,-0.2134,-0.000697427,0,
1,0.337003,-0.0395551,-0.213382,-0.000631248,0,
1,0.310673,-0.0404975,-0.213429,-0.000560138,0,
1,0.28537,-0.0413353,-0.213535,-0.000487434,0,
1,0.26122,-0.0420744,-0.213689,-0.000416109,0,
1,0.238324,-0.0427211,-0.213879,-0.000348503,0,
1,0.21675,-0.0432811,-0.214095,-0.000286212,0,
1,0.196544,-0.0437597,-0.214322,-0.000230119,0,
1,0.177724,-0.0441615,-0.214552,-0.000180513,0,
1,0.160284,-0.0444904,-0.214776,-0.000137248,0,
1,0.144202,-0.0447496,-0.214989,-9.99002e-05,0,
1,0.129436,-0.0449413,-0.215185,-6.78998e-05,0,
1,0.115935,-0.0450672,-0.215364,-4.06279e-05,0,
1,0.103636,-0.0451283,-0.215524,-1.74796e-05,0,
1,0.0924701,-0.0451249,-0.215666,2.10085e-06,0,
1,0.0823633,-0.0450567,-0.21579,1.86038e-05,0,
1,0.0732406,-0.044923,-0.215898,3.24508e-05,0,
1,0.0650269,-0.0447221,-0.215991,4.39976e-05,0,
1,0.057648,-0.0444518,-0.216071,5.35402e-05,0,
1,0.0510323,-0.0441089,-0.216139,6.13214e-05,0,
1,0.0451115,-0.0436887,-0.216197,6.75364e-05,0,
1,0.0398209,-0.0431846,-0.216246,7.23356e-05,0,
1,0.0351001,-0.0425878,-0.216288,7.58245e-05,0,
1,0.0308929,-0.0418857,-0.216322,7.80598e-05,0,
1,0.0271475,-0.041061,-0.21635,7.9039e-05,0,
1,0.0238164,-0.0400895,-0.216374,7.86799e-05,0,
1,0.0208562,-0.0389375,-0.216392,7.67898e-05,0,
1,0.0182274,-0.0375587,-0.216407,7.3025e-05,0,
1,0.0158944,-0.0358921,-0.216418,6.68787e-05,0,
1,0.0138249,-0.0338651,-0.216426,5.78214e-05,0,
1,0.0119898,-0.0314136,-0.216431,4.58254e-05,0,
1,0.0103632,-0.0285286,-0.216435,3.21971e-05,0,
1,0.00892169,-0.0253129,-0.216437,1.95947e-05,0,
1,0.00764438,-0.0219783,-0.216439,1.03278e-05,0,
1,0.00651264,-0.0187531,-0.216439,4.81076e-06,0,
1,0.00550983,-0.0157876,-0.21644,2.03081e-06,0,
1,0.00462115,-0.0131396,-0.21644,7.8976e-07,0,
1,0.00383341,-0.0108081,-0.216441,2.83702e-07,0,
1,0.0031349,-0.00876592,-0.21644,9.31253e-08,0,
1,0.00251518,-0.0069792,-0.216441,2.72545e-08,0,
1,0.00196502,-0.00541459,-0.216441,6.81564e-09,0,
1,0.00147619,-0.00404211,-0.216442,1.35474e-09,0,
1,0.00104139,-0.00283558,-0.216441,1.87768e-10,0,
1,0.000654158,-0.00177238,-0.216442,1.39421e-11,0,
1,0.000308731,-0.000833001,-0.216441,3.04045e-13,0,

4,0,0,-0.204989,0,0,
4,9,0,-0.10941,0,0,
4,8.99969,0.0146053,-0.10941,2.42082e-10,0,
4,8.99934,0.0311159,-0.10941,1.12301e-08,0,
4,8.99894,0.0497988,-0.109409,1.53313e-07,0,
4,8.9985,0.0709362,-0.10941,1.11225e-06,0,
4,8.99799,0.0948125,-0.109409,5.51358e-06,0,
4,8.99742,0.121626,-0.10941,2.08168e-05,0,
4,8.99677,0.151265,-0.109409,6.21363e-05,0,
4,8.99605,0.182997,-0.109409,0.000147284,0,
4,8.99522,0.21541,-0.109409,0.00027897,0,
4,8.99429,0.246943,-0.109409,0.000435229,0,
4,8.99324,0.276551,-0.109409,0.000587668,0,
4,8.99205,0.303898,-0.109409,0.000717716,0,
4,8.9907,0.329075,-0.109408,0.000822863,0,
4,8.98919,0.352254,-0.109408,0.000911181,0,
4,8.98747,0.373626,-0.109407,0.00098443,0,
4,8.98553,0.393462,-0.109406,0.00104224,0,
4,8.98334,0.412048,-0.109405,0.00108831,0,
4,8.98087,0.429607,-0.109404,0.00112721,0,
4,8.97807,0.446309,-0.109403,0.00116012,0,
4,8.97491,0.462294,-0.109401,0.00118835,0,
4,8.97134,0.477682,-0.1094,0.00121288,0,
4,8.96731,0.492571,-0.109397,0.00123446,0,
4,8.96276,0.507045,-0.109395,0.0012536,0,
4,8.95762,0.521176,-0.109392,0.00127071,0,
4,8.95182,0.535026,-0.109389,0.00128603,0,
4,8.94526,0.548646,-0.109386,0.00129976,0,
4,8.93787,0.562081,-0.109382,0.00131197,0,
4,8.92952,0.57537,-0.109377,0.0013227,0,
4,8.92011,0.588546,-0.109372,0.00133193,0,
4,8.90949,0.601636,-0.109367,0.0013396,0,
4,8.89751,0.614665,-0.109361,0.00134562,0,
4,8.88402,0.627653,-0.109355,0.00134986,0,
4,8.86881,0.640618,-0.109349,0.00135217,0,
4,8.85169,0.653572,-0.109342,0.00135239,0,
4,8.83242,0.66653,-0.109336,0.00135033,0,
4,8.81074,0.679503,-0.10933,0.00134578,0,
4,8.78637,0.692501,-0.109324,0.00133847,0,
4,8.75901,0.705535,-0.10932,0.00132814,0,
4,8.7283,0.718619,-0.109317,0.00131458,0,
4,8.69387,0.731769,-0.109317,0.00129815,0,
4,8.65533,0.745029,-0.109322,0.00127611,0,
4,8.61222,0.758453,-0.109331,0.00125047,0,
4,8.56407,0.772101,-0.109348,0.00122071,0,
4,8.5104,0.786048,-0.109374,0.00118609,0,
4,8.45065,0.800398,-0.109411,0.00114548,0,
4,8.38429,0.81529,-0.109463,0.0010972,0,
4,8.31073,0.83091,-0.109534,0.00103878,0,
4,8.22941,0.847492,-0.109628,0.000966687,0,
4,8.13974,0.865296,-0.109751,0.000876417,0,
4,8.04115,0.884512,-0.109906,0.00076363,0,
4,7.93313,0.905044,-0.110101,0.000627662,0,
4,7.81519,0.926166,-0.110333,0.000479563,0,
4,7.68693,0.946319,-0.110615,0.000335894,0,
4,7.54803,0.963449,-0.110953,0.000212483,0,
4,7.39831,0.975835,-0.111356,9.37853e-05,0,
4,7.23771,0.982817,-0.111838,2.83903e-05,0,
4,7.06634,0.985361,-0.112398,4.64299e-06,0,
4,6.88453,0.9855,-0.113036,1.53224e-07,0,
4,6.69275,0.98504,-0.113756,2.68491e-09,0,
4,6.49173,0.984863,-0.114571,5.53654e-08,0,
4,6.28238,0.985093,-0.115492,3.62494e-08,0,
4,6.06579,0.985558,-0.116531,1.99517e-08,0,
4,5.84328,0.986107,-0.117697,1.41123e-08,0,
4,5.61626,0.986686,-0.118999,1.28921e-08,0,
4,5.3863,0.987298,-0.120444,1.33321e-08,0,
4,5.15502,0.987963,-0.122039,1.4484e-08,0,
4,4.92406,0.988695,-0.123789,1.60644e-08,0,
4,4.69507,0.989505,-0.125695,1.79225e-08,0,
4,4.46961,0.990398,-0.127757,1.98772e-08,0,
4,4.24915,0.991352,-0.129974,2.15438e-08,0,
4,4.03501,0.992308,-0.13234,2.27185e-08,0,
4,3.82836,0.993202,-0.134845,2.38805e-08,0,
4,3.63018,0.994056,-0.137476,2.70055e-08,0,
4,3.44125,0.995081,-0.14022,3.66306e-08,0,
4,3.26217,0.996653,-0.143059,1.28221e-07,0,
4,3.09333,0.999017,-0.145975,1.09179e-06,0,
4,2.93497,1.00185,-0.148948,4.45543e-06,0,
4,2.78715,1.00418,-0.151955,7.49042e-06,0,
4,2.64979,1.00475,-0.154967,2.45283e-06,0,
4,2.52268,1.0027,-0.157946,-1.64691e-05,0,
4,2.40551,0.997779,-0.160852,-5.01578e-05,0,
4,2.29789,0.990321,-0.163648,-9.55198e-05,0,
4,2.19939,0.981003,-0.166305,-0.00014741,0,
4,2.10949,0.970575,-0.168804,-0.000200547,0,
4,2.02768,0.959696,-0.171137,-0.000250802,0,
4,1.95343,0.948867,-0.173299,-0.000295683,0,
4,1.88618,0.938421,-0.175292,-0.000334195,0,
4,1.82542,0.928551,-0.177121,-0.000366423,0,
4,1.77062,0.919354,-0.178793,-0.000393045,0,
4,1.72128,0.910859,-0.180316,-0.000414967,0,
4,1.67693,0.903057,-0.181698,-0.000433087,0,
4,1.63713,0.895917,-0.18295,-0.000448165,0,
4,1.60144,0.889399,-0.184081,-0.000460755,0,
4,1.56949,0.883461,-0.1851,-0.000471196,0,
4,1.54091,0.878061,-0.186015,-0.000480663,0,
4,1.51537,0.873141,-0.186839,-0.000489061,0,
4,1.49167,0.868502,-0.187603,-0.000495514,0,
4,1.46926,0.864043,-0.18833,-0.000501243,0,
4,1.44801,0.859741,-0.189021,-0.000506482,0,
4,1.42781,0.855577,-0.189679,-0.000511061,0,
4,1.40855,0.851536,-0.190307,-0.000515012,0,
4,1.39015,0.8476,-0.190909,-0.000518383,0,
4,1.37252,0.843754,-0.191487,-0.000521262,0,
4,1.3556,0.839982,-0.192042,-0.000523791,0,
4,1.3393,0.83627,-0.192576,-0.000526199,0,
4,1.32357,0.832598,-0.193093,-0.000528832,0,
4,1.30836,0.828947,-0.193592,-0.000532193,0,
4,1.29362,0.825294,-0.194076,-0.000536983,0,
4,1.2793,0.821607,-0.194546,-0.000544161,0,
4,1.26537,0.817852,-0.195003,-0.000555041,0,
4,1.25179,0.81398,-0.195448,-0.000571262,0,
4,1.23852,0.809932,-0.195881,-0.000594936,0,
4,1.22554,0.805634,-0.196304,-0.000628643,0,
4,1.21282,0.80099,-0.196716,-0.000675399,0,
4,1.20034,0.795889,-0.197118,-0.000738514,0,
4,1.18806,0.790203,-0.19751,-0.00082132,0,
4,1.17599,0.783799,-0.197891,-0.000926747,0,
4,1.16408,0.776554,-0.198261,-0.00105681,0,
4,1.15233,0.768373,-0.198621,-0.00121212,0,
4,1.14073,0.759203,-0.198968,-0.00139148,0,
4,1.12925,0.74905,-0.199304,-0.0015919,0,
4,1.11788,0.737971,-0.199627,-0.00180885,0,
4,1.10661,0.726063,-0.199937,-0.00203684,0,
4,1.09543,0.713451,-0.200234,-0.00227012,0,
4,1.08432,0.700269,-0.200518,-0.00250327,0,
4,1.07328,0.686647,-0.200789,-0.00273158,0,
4,1.0623,0.672704,-0.201048,-0.00295131,0,
4,1.05136,0.658542,-0.201294,-0.00315958,0,
4,1.04044,0.644224,-0.201529,-0.00335447,0,
4,1.0295,0.629797,-0.201754,-0.00353496,0,
4,1.01855,0.615314,-0.201967,-0.00370026,0,
4,1.00757,0.600818,-0.202171,-0.00384984,0,
4,0.996544,0.586343,-0.202364,-0.00398351,0,
4,0.98547,0.571913,-0.202549,-0.00410131,0,
4,0.974334,0.557547,-0.202724,-0.00420344,0,
4,0.963124,0.543257,-0.20289,-0.00429018,0,
4,0.951826,0.529053,-0.203048,-0.00436184,0,
4,0.940428,0.514939,-0.203199,-0.00441898,0,
4,0.928915,0.500919,-0.203341,-0.00446247,0,
4,0.917272,0.486987,-0.203477,-0.00449206,0,
4,0.905481,0.473131,-0.203605,-0.00450798,0,
4,0.893524,0.459332,-0.203728,-0.00451153,0,
4,0.881383,0.445569,-0.203844,-0.00450351,0,
4,0.869035,0.431819,-0.203954,-0.00448472,0,
4,0.856459,0.418056,-0.204059,-0.00445603,0,
4,0.843629,0.404252,-0.204159,-0.00441836,0,
4,0.830518,0.390373,-0.204254,-0.00437275,0,
4,0.817097,0.37638,-0.204345,-0.00432037,0,
4,0.803334,0.362229,-0.204432,-0.0042623,0,
4,0.789195,0.347869,-0.204517,-0.00420026,0,
4,0.774643,0.333244,-0.204599,-0.00413643,0,
4,0.759639,0.318292,-0.204678,-0.00407355,0,
4,0.744138,0.302945,-0.204757,-0.00401475,0,
4,0.728096,0.28712,-0.204836,-0.00396328,0,
4,0.711463,0.27072,-0.204918,-0.00392304,0,
4,0.694189,0.253631,-0.205007,-0.00389807,0,
4,0.676218,0.235731,-0.205108,-0.00389259,0,
4,0.657495,0.216896,-0.205224,-0.0039082,0,
4,0.637962,0.197015,-0.205358,-0.00394169,0,
4,0.617561,0.176034,-0.205508,-0.00398929,0,
4,0.596848,0.154583,-0.205666,-0.0040498,0,
4,0.576557,0.133536,-0.205884,-0.00412604,0,
4,0.556564,0.112818,-0.206018,-0.00418122,0,
4,0.536763,0.0920606,-0.20602,-0.00417988,0,
4,0.517057,0.0709375,-0.206049,-0.004205,0,
4,0.497368,0.049406,-0.206104,-0.00424964,0,
4,0.477632,0.0276004,-0.206186,-0.00430104,0,
4,0.457804,0.0057719,-0.206293,-0.00434768,0,
4,0.437857,-0.0157125,-0.206414,-0.00437802,0,
4,0.417786,-0.0363719,-0.206546,-0.00438297,0,
4,0.397605,-0.0556521,-0.206689,-0.00435908,0,
4,0.377348,-0.0730672,-0.206853,-0.00431005,0,
4,0.357066,-0.0884545,-0.207032,-0.00424378,0,
4,0.336828,-0.102219,-0.207159,-0.00404866,0,
4,0.316717,-0.114753,-0.207246,-0.00386068,0,
4,0.296825,-0.126145,-0.207323,-0.00366369,0,
4,0.27725,-0.136442,-0.207372,-0.00345246,0,
4,0.258095,-0.145708,-0.207398,-0.00323084,0,
4,0.239458,-0.154018,-0.207398,-0.00300276,0,
4,0.221432,-0.161449,-0.20737,-0.00277193,0,
4,0.2041,-0.168084,-0.207316,-0.00254166,0,
4,0.187537,-0.174,-0.207237,-0.00231485,0,
4,0.171798,-0.179271,-0.207134,-0.0020939,0,
4,0.156928,-0.183964,-0.207013,-0.00188077,0,
4,0.142956,-0.188138,-0.206876,-0.00167693,0,
4,0.129894,-0.191847,-0.206729,-0.00148344,0,
4,0.117744,-0.195137,-0.206576,-0.00130101,0,
4,0.106492,-0.198045,-0.206422,-0.00113002,0,
4,0.0961173,-0.200605,-0.20627,-0.00097056,0,
4,0.0865883,-0.202844,-0.206123,-0.000822546,0,
4,0.0778675,-0.204785,-0.205984,-0.0006857,0,
4,0.0699123,-0.206446,-0.205855,-0.000559625,0,
4,0.062677,-0.20784,-0.205736,-0.000443834,0,
4,0.056114,-0.208978,-0.205628,-0.000337779,0,
4,0.0501747,-0.209866,-0.205532,-0.000240884,0,
4,0.0448114,-0.210506,-0.205446,-0.000152561,0,
4,0.039977,-0.210896,-0.20537,-7.22384e-05,0,
4,0.0356266,-0.211031,-0.205304,6.26509e-07,0,
4,0.0317171,-0.210896,-0.205247,6.65248e-05,0,
4,0.0282081,-0.210474,-0.205197,0.000125875,0,
4,0.0250617,-0.209734,-0.205155,0.000178994,0,
4,0.0222427,-0.208634,-0.20512,0.000226057,0,
4,0.0197189,-0.207118,-0.20509,0.000267036,0,
4,0.0174603,-0.205104,-0.205066,0.000301607,0,
4,0.0154398,-0.202479,-0.205046,0.000329017,0,
4,0.0136326,-0.199092,-0.20503,0.000347915,0,
4,0.0120162,-0.194738,-0.205018,0.000356195,0,
4,0.0105703,-0.189156,-0.205009,0.00035104,0,
4,0.00927657,-0.182045,-0.205003,0.000329524,0,
4,0.00811839,-0.173112,-0.204998,0.000290113,0,
4,0.0070809,-0.162184,-0.204995,0.000234936,0,
4,0.0061507,-0.149339,-0.204993,0.000171398,0,
4,0.00531578,-0.134994,-0.204992,0.000110741,0,
4,0.00456537,-0.119829,-0.204991,6.28599e-05,0,
4,0.00388979,-0.104565,-0.204991,3.14029e-05,0,
4,0.00328037,-0.0897558,-0.20499,1.3885e-05,0,
4,0.00272934,-0.0757143,-0.204991,5.43655e-06,0,
4,0.0022297,-0.0625599,-0.20499,1.86128e-06,0,
4,0.00177519,-0.0502971,-0.20499,5.38935e-07,0,
4,0.00136016,-0.0388741,-0.204989,1.23492e-07,0,
4,0.000979511,-0.028216,-0.20499,1.96948e-08,0,
4,0.00062865,-0.0182401,-0.204989,1.67422e-09,0,
4,0.000303409,-0.00886313,-0.20499,4.06616e-11,0,

6,0,0,-0.0723446,0,0,
6,9,0,-0.0858015,0,0,
6,8.99969,0.0138518,-0.0858011,2.03178e-10,0,
6,8.99934,0.0294721,-0.0858014,9.37693e-09,0,
6,8.99895,0.0471045,-0.0858011,1.27118e-07,0,
6,8.9985,0.0670058,-0.0858013,9.15797e-07,0,
6,8.99801,0.0894386,-0.0858011,4.51623e-06,0,
6,8.99744,0.1146,-0.0858012,1.70408e-05,0,
6,8.99681,0.142439,-0.085801,5.12487e-05,0,
6,8.99609,0.172382,-0.0858011,0.000123616,0,
6,8.99529,0.203216,-0.0858008,0.000239966,0,
6,8.99438,0.23348,-0.0858008,0.000383976,0,
6,8.99336,0.262089,-0.0858005,0.000529232,0,
6,8.9922,0.288577,-0.0858003,0.000658762,0,
6,8.9909,0.312979,-0.0857999,0.000762649,0,
6,8.98944,0.335463,-0.0857995,0.000850454,0,
6,8.98779,0.356201,-0.0857988,0.000924134,0,
6,8.98593,0.375447,-0.0857982,0.000982463,0,
6,8.98383,0.393464,-0.0857973,0.00103009,0,
6,8.98147,0.410462,-0.0857963,0.00107044,0,
6,8.97881,0.426608,-0.085795,0.00110493,0,
6,8.97581,0.44204,-0.0857935,0.0011349,0,
6,8.97244,0.456879,-0.0857918,0.00116135,0,
6,8.96863,0.471222,-0.0857897,0.00118505,0,
6,8.96435,0.485156,-0.0857873,0.00120655,0,
6,8.95953,0.498754,-0.0857845,0.00122624,0,
6,8.95409,0.512078,-0.0857813,0.00124442,0,
6,8.94798,0.525183,-0.0857776,0.00126127,0,
6,8.94109,0.538117,-0.0857733,0.00127688,0,
6,8.93334,0.550921,-0.0857685,0.00129129,0,
6,8.92463,0.56363,-0.085763,0.00130447,0,
6,8.91482,0.576276,-0.0857568,0.00131633,0,
6,8.90379,0.588885,-0.0857499,0.00132674,0,
6,8.89139,0.60148,-0.0857422,0.00133553,0,
6,8.87746,0.614078,-0.0857336,0.00134251,0,
6,8.86181,0.626696,-0.0857243,0.00134745,0,
6,8.84423,0.639344,-0.0857142,0.0013501,0,
6,8.82452,0.652033,-0.0857032,0.00135018,0,
6,8.80241,0.664769,-0.0856915,0.00134744,0,
6,8.77763,0.677558,-0.0856792,0.00134158,0,
6,8.74989,0.690406,-0.0856664,0.00133238,0,
6,8.71885,0.703321,-0.0856535,0.00132031,0,
6,8.68417,0.716328,-0.0856409,0.00130357,0,
6,8.64545,0.72947,-0.0856291,0.00128182,0,
6,8.60229,0.742788,-0.0856188,0.00125625,0,
6,8.55423,0.756319,-0.0856104,0.00122643,0,
6,8.50082,0.77012,-0.0856048,0.00119174,0,
6,8.44155,0.78427,-0.085603,0.00115129,0,
6,8.37592,0.798892,-0.0856066,0.0011037,0,
6,8.30339,0.814159,-0.0856173,0.00104693,0,
6,8.22344,0.830306,-0.0856374,0.00097801,0,
6,8.13555,0.84762,-0.0856671,0.000893011,0,
6,8.0392,0.866362,-0.0857085,0.000787928,0,
6,7.93391,0.886543,-0.0857557,0.000661556,0,
6,7.81927,0.907567,-0.0858127,0.000522607,0,
6,7.6949,0.927992,-0.0858681,0.000385094,0,
6,7.56054,0.945833,-0.0859414,0.000262804,0,
6,7.41603,0.959462,-0.0860132,0.000150585,0,
6,7.26132,0.968176,-0.0861035,5.94364e-05,0,
6,7.09653,0.972357,-0.0862157,1.52978e-05,0,
6,6.92195,0.973417,-0.0863329,1.24236e-06,0,
6,6.73802,0.973067,-0.0864584,-6.63756e-07,0,
6,6.5454,0.972501,-0.0865893,-2.71582e-07,0,
6,6.34489,0.972189,-0.0867273,-3.98661e-08,0,
6,6.1375,0.972133,-0.0868727,3.70832e-09,0,
6,5.92439,0.972194,-0.0870252,4.29834e-09,0,
6,5.70687,0.972268,-0.0871837,2.01032e-09,0,
6,5.48633,0.972318,-0.0873461,9.33112e-10,0,
6,5.26426,0.972342,-0.0875097,4.82562e-10,0,
6,5.04218,0.972354,-0.087671,2.94131e-10,0,
6,4.82159,0.972365,-0.0878261,2.45443e-10,0,
6,4.60398,0.972386,-0.0879707,2.08279e-10,0,
6,4.39071,0.972413,-0.0881001,-1.18163e-10,0,
6,4.18307,0.972408,-0.0882093,-1.18148e-09,0,
6,3.98218,0.972304,-0.0882935,-3.22097e-09,0,
6,3.78902,0.972046,-0.0883483,-5.6684e-09,0,
6,3.60438,0.971679,-0.08837,-7.64137e-09,0,
6,3.42888,0.971406,-0.0883557,-9.17096e-09,0,
6,3.26296,0.971532,-0.0883031,6.15695e-08,0,
6,3.10691,0.972262,-0.08821,5.90515e-07,0,
6,2.96084,0.973476,-0.0880763,1.85799e-06,0,
6,2.82473,0.974693,-0.0879052,2.31585e-06,0,
6,2.69844,0.975247,-0.0877018,-1.41371e-06,0,
6,2.58172,0.974536,-0.0874711,-1.22767e-05,0,
6,2.47424,0.972207,-0.0872181,-3.14791e-05,0,
6,2.37559,0.9682,-0.0869481,-5.85058e-05,0,
6,2.28535,0.9627,-0.0866668,-9.16737e-05,0,
6,2.20301,0.956041,-0.0863795,-0.000128745,0,
6,2.1281,0.948603,-0.0860914,-0.000167455,0,
6,2.06009,0.940751,-0.0858071,-0.000205867,0,
6,1.99849,0.932789,-0.0855302,-0.000242546,0,
6,1.9428,0.924954,-0.0852636,-0.000276578,0,
6,1.89255,0.917412,-0.0850096,-0.000307501,0,
6,1.84728,0.910269,-0.0847696,-0.000335183,0,
6,1.80655,0.90359,-0.0845447,-0.000359632,0,
6,1.76996,0.897405,-0.084335,-0.000380823,0,
6,1.73712,0.891727,-0.0841409,-0.000400178,0,
6,1.70768,0.886513,-0.0839618,-0.000417784,0,
6,1.67998,0.881527,-0.0837896,-0.000432753,0,
6,1.65329,0.876659,-0.0836194,-0.00044668,0,
6,1.62754,0.871898,-0.0834516,-0.000459883,0,
6,1.60265,0.86724,-0.083286,-0.000472192,0,
6,1.57854,0.862677,-0.0831224,-0.000483652,0,
6,1.55515,0.858204,-0.0829608,-0.00049431,0,
6,1.53242,0.853812,-0.0828009,-0.000504207,0,
6,1.5103,0.849497,-0.0826427,-0.000513377,0,
6,1.48874,0.84525,-0.0824859,-0.000521844,0,
6,1.46769,0.841065,-0.0823306,-0.000529625,0,
6,1.44712,0.836937,-0.0821765,-0.00053673,0,
6,1.42698,0.832858,-0.0820235,-0.000543166,0,
6,1.40725,0.828823,-0.0818716,-0.000548939,0,
6,1.38788,0.824825,-0.0817205,-0.00055406,0,
6,1.36886,0.820858,-0.0815703,-0.000558552,0,
6,1.35015,0.816916,-0.0814208,-0.00056246,0,
6,1.33173,0.812992,-0.081272,-0.000565861,0,
6,1.31357,0.809078,-0.0811237,-0.000568886,0,
6,1.29566,0.805165,-0.0809758,-0.000571732,0,
6,1.27797,0.801241,-0.0808284,-0.000574696,0,
6,1.26048,0.797292,-0.0806814,-0.000578203,0,
6,1.24318,0.793301,-0.0805346,-0.00058285,0,
6,1.22605,0.789243,-0.0803881,-0.000589452,0,
6,1.20907,0.785089,-0.0802418,-0.000599103,0,
6,1.19223,0.780798,-0.0800956,-0.000613214,0,
6,1.17551,0.776319,-0.0799496,-0.000633713,0,
6,1.1589,0.771586,-0.0798036,-0.000662863,0,
6,1.14238,0.766515,-0.0796577,-0.000703476,0,
6,1.12595,0.761003,-0.079512,-0.000758835,0,
6,1.10959,0.754928,-0.0793665,-0.000832543,0,
6,1.09329,0.748157,-0.0792214,-0.000928274,0,
6,1.07704,0.740553,-0.0790772,-0.00104936,0,
6,1.06081,0.731989,-0.0789343,-0.0011983,0,
6,1.04459,0.722365,-0.0787934,-0.00137626,0,
6,1.02836,0.711631,-0.0786555,-0.00158276,0,
6,1.01211,0.699785,-0.0785216,-0.00181546,0,
6,0.99583,0.68687,-0.078393,-0.00207051,0,
6,0.97951,0.672967,-0.0782707,-0.00234296,0,
6,0.963136,0.65818,-0.0781559,-0.00262726,0,
6,0.946694,0.642621,-0.0780491,-0.00291774,0,
6,0.930172,0.626406,-0.0779512,-0.00320869,0,
6,0.913555,0.609646,-0.0778618,-0.0034947,0,
6,0.896829,0.592449,-0.0777821,-0.00376991,0,
6,0.879979,0.574919,-0.0777094,-0.00402788,0,
6,0.862989,0.557164,-0.0776493,-0.0042613,0,
6,0.845842,0.539297,-0.0775868,-0.0044602,0,
6,0.828521,0.521453,-0.0775571,-0.00462346,0,
6,0.811008,0.503714,-0.077484,-0.00475695,0,
6,0.793282,0.4859,-0.0773028,-0.00478943,0,
6,0.775322,0.46775,-0.0771026,-0.00483375,0,
6,0.757107,0.449163,-0.0769136,-0.0048937,0,
6,0.738612,0.430097,-0.0767362,-0.00496865,0,
6,0.719813,0.41053,-0.0765764,-0.00505839,0,
6,0.700681,0.390452,-0.0764323,-0.00516178,0,
6,0.681188,0.369854,-0.0763039,-0.00527732,0,
6,0.661304,0.348732,-0.0761902,-0.00540291,0,
6,0.640996,0.327088,-0.0760907,-0.00553588,0,
6,0.620228,0.304929,-0.0760053,-0.00567288,0,
6,0.598964,0.282287,-0.0759349,-0.00580982,0,
6,0.577166,0.259226,-0.0758811,-0.00594171,0,
6,0.554791,0.235845,-0.0758451,-0.00606254,0,
6,0.531799,0.212279,-0.075826,-0.00616528,0,
6,0.508144,0.188665,-0.0758209,-0.00624277,0,
6,0.48378,0.165108,-0.075823,-0.00628861,0,
6,0.459585,0.142449,-0.0758249,-0.00629649,0,
6,0.436695,0.121659,-0.0758283,-0.00626527,0,
6,0.414961,0.102648,-0.0758516,-0.00619783,0,
6,0.394252,0.0854551,-0.0759228,-0.00609919,0,
6,0.374445,0.0702506,-0.0760899,-0.00597805,0,
6,0.355433,0.0572015,-0.0763786,-0.0058465,0,
6,0.337122,0.0462484,-0.0767766,-0.00571574,0,
6,0.319433,0.0369374,-0.0769927,-0.00550048,0,
6,0.3023,0.0286707,-0.077018,-0.00518647,0,
6,0.28567,0.0211206,-0.0770454,-0.00493721,0,
6,0.269507,0.0141978,-0.0770465,-0.00468439,0,
6,0.253785,0.00782905,-0.0770183,-0.00442897,0,
6,0.238493,0.00195194,-0.0769607,-0.00417284,0,
6,0.223631,-0.003486,-0.0768718,-0.00391744,0,
6,0.209207,-0.00852916,-0.0767518,-0.0036643,0,
6,0.195237,-0.013215,-0.0766019,-0.00341479,0,
6,0.181744,-0.0175756,-0.076424,-0.00317026,0,
6,0.168754,-0.021638,-0.0762217,-0.00293196,0,
6,0.156292,-0.0254258,-0.0759988,-0.00270108,0,
6,0.144384,-0.028959,-0.0757603,-0.00247865,0,
6,0.133052,-0.0322553,-0.0755114,-0.00226558,0,
6,0.122315,-0.0353299,-0.0752571,-0.00206259,0,
6,0.112183,-0.0381963,-0.0750026,-0.00187026,0,
6,0.102665,-0.0408665,-0.0747524,-0.00168894,0,
6,0.0937597,-0.0433511,-0.0745103,-0.00151884,0,
6,0.0854609,-0.0456596,-0.0742794,-0.00135998,0,
6,0.077757,-0.0478007,-0.0740622,-0.00121225,0,
6,0.0706309,-0.0497822,-0.0738601,-0.00107538,0,
6,0.0640611,-0.0516114,-0.0736741,-0.000949036,0,
6,0.0580229,-0.0532948,-0.0735045,-0.000832763,0,
6,0.0524888,-0.0548386,-0.0733511,-0.000726063,0,
6,0.0474296,-0.0562483,-0.0732134,-0.000628392,0,
6,0.042815,-0.057529,-0.0730907,-0.000539186,0,
6,0.0386145,-0.0586851,-0.0729819,-0.000457871,0,
6,0.0347975,-0.0597205,-0.0728859,-0.000383879,0,
6,0.0313344,-0.0606381,-0.0728018,-0.000316658,0,
6,0.0281964,-0.0614402,-0.0727283,-0.000255683,0,
6,0.0253561,-0.0621277,-0.0726645,-0.000200458,0,
6,0.0227875,-0.0627003,-0.0726093,-0.000150529,0,
6,0.0204662,-0.0631557,-0.0725616,-0.000105489,0,
6,0.0183694,-0.0634893,-0.0725209,-6.49856e-05,0,
6,0.016476,-0.0636932,-0.0724861,-2.87373e-05,0,
6,0.0147664,-0.0637553,-0.0724569,3.44909e-06,0,
6,0.0132228,-0.0636572,-0.0724321,3.16451e-05,0,
6,0.0118288,-0.063372,-0.0724119,5.5749e-05,0,
6,0.0105693,-0.0628607,-0.0723949,7.5408e-05,0,
6,0.00943073,-0.0620675,-0.072382,8.99171e-05,0,
6,0.00840063,-0.0609157,-0.0723711,9.8147e-05,0,
6,0.00746774,-0.0593052,-0.0723639,9.86812e-05,0,
6,0.00662185,-0.0571234,-0.0723576,9.05182e-05,0,
6,0.00585371,-0.0542788,-0.0723546,7.44693e-05,0,
6,0.00515491,-0.0507584,-0.0723513,5.41505e-05,0,
6,0.00451788,-0.0466688,-0.0723508,3.46792e-05,0,
6,0.00393573,-0.0422074,-0.0723489,1.97246e-05,0,
6,0.00340221,-0.0375821,-0.0723495,1.00912e-05,0,
6,0.00291168,-0.0329489,-0.0723478,4.67929e-06,0,
6,0.00245897,-0.0283999,-0.0723489,1.95931e-06,0,
6,0.00203939,-0.0239785,-0.072347,7.27143e-07,0,
6,0.00164864,-0.0196975,-0.0723486,2.30144e-07,0,
6,0.00128281,-0.0155527,-0.0723463,5.79091e-08,0,
6,0.000938257,-0.0115306,-0.0723484,1.01567e-08,0,
6,0.000611645,-0.00761266,-0.0723455,9.46257e-10,0,
6,0.000299862,-0.00377711,-0.0723484,2.46787e-11,0,

10,0.000296632,0.00804226,0.028975,-6.97414e-11,0,
10,0.000596102,0.0161651,0.0289765,-2.58672e-09,0,
10,0.000900397,0.0244226,0.028975,-2.63209e-08,0,
10,0.00121153,0.0328691,0.0289762,-1.41555e-07,0,
10,0.00153158,0.0415589,0.0289749,-5.29878e-07,0,
10,0.00186264,0.0505439,0.0289759,-1.57622e-06,0,
10,0.00220692,0.0598706,0.0289748,-4.00068e-06,0,
10,0.00256668,0.0695722,0.0289755,-9.02254e-06,0,
10,0.00294431,0.0796583,0.0289746,-1.85046e-05,0,
10,0.00334229,0.0900988,0.0289752,-3.49439e-05,0,
10,0.00376326,0.100807,0.0289743,-6.10935e-05,0,
10,0.00421,0.111629,0.0289746,-9.90654e-05,0,
10,0.00468544,0.12235,0.0289736,-0.000149146,0,
10,0.00519274,0.132729,0.0289735,-0.000209073,0,
10,0.00573524,0.142545,0.0289721,-0.000274498,0,
10,0.00631651,0.151638,0.0289713,-0.000340446,0,
10,0.00694041,0.159927,0.0289692,-0.000402822,0,
10,0.00761104,0.167404,0.0289674,-0.000459151,0,
10,0.00833284,0.174109,0.0289643,-0.000508524,0,
10,0.00911058,0.180116,0.028961,-0.000551148,0,
10,0.0099494,0.185507,0.0289563,-0.000587848,0,
10,0.0108548,0.190367,0.0289512,-0.00061969,0,
10,0.0118329,0.194774,0.0289446,-0.000647761,0,
10,0.0128901,0.198795,0.0289371,-0.000673053,0,
10,0.0140333,0.202491,0.028928,-0.000696426,0,
10,0.0152702,0.205913,0.0289177,-0.000718608,0,
10,0.0166089,0.209103,0.0289055,-0.000740209,0,
10,0.0180584,0.212097,0.0288916,-0.000761747,0,
10,0.0196282,0.214927,0.0288755,-0.000783668,0,
10,0.0213288,0.217619,0.0288573,-0.000806364,0,
10,0.0231714,0.220194,0.0288365,-0.000830188,0,
10,0.0251682,0.222673,0.028813,-0.00085547,0,
10,0.0273326,0.225072,0.0287864,-0.000882527,0,
10,0.0296789,0.227407,0.0287564,-0.000911668,0,
10,0.0322227,0.229691,0.0287226,-0.000943205,0,
10,0.0349809,0.231936,0.0286846,-0.000977457,0,
10,0.0379719,0.234154,0.028642,-0.00101475,0,
10,0.0412155,0.236354,0.0285943,-0.00105545,0,
10,0.0447333,0.238548,0.028541,-0.0010999,0,
10,0.0485489,0.240744,0.0284815,-0.00114852,0,
10,0.0526875,0.242953,0.0284153,-0.00120173,0,
10,0.0571768,0.245184,0.0283416,-0.00125998,0,
10,0.0620466,0.247445,0.0282598,-0.00132377,0,
10,0.0673295,0.249748,0.0281692,-0.00139365,0,
10,0.0730607,0.252101,0.028069,-0.00147019,0,
10,0.0792784,0.254517,0.0279584,-0.00155404,0,
10,0.0860241,0.257006,0.0278368,-0.00164589,0,
10,0.0933428,0.259581,0.0277032,-0.00174649,0,
10,0.101283,0.262256,0.0275572,-0.00185665,0,
10,0.109899,0.265046,0.027398,-0.00197726,0,
10,0.119247,0.267968,0.0272253,-0.00210928,0,
10,0.12939,0.271042,0.0270387,-0.00225371,0,
10,0.140395,0.274289,0.0268383,-0.00241166,0,
10,0.152337,0.277736,0.0266245,-0.00258427,0,
10,0.165296,0.281413,0.0263981,-0.00277273,0,
10,0.179357,0.285355,0.0261604,-0.00297826,0,
10,0.194615,0.289606,0.0259135,-0.00320207,0,
10,0.211171,0.294215,0.0256603,-0.0034453,0,
10,0.229138,0.299246,0.0254041,-0.00370895,0,
10,0.248635,0.304773,0.0251501,-0.00399372,0,
10,0.269793,0.310891,0.0249014,-0.00429991,0,
10,0.292753,0.317714,0.0246693,-0.00462708,0,
10,0.317669,0.325386,0.0244465,-0.00497258,0,
10,0.344708,0.334085,0.0242696,-0.00532599,0,
10,0.372405,0.343466,0.0240892,-0.00567986,0,
10,0.399623,0.353241,0.024039,-0.00614326,0,
10,0.426397,0.363959,0.0243745,-0.00626187,0,
10,0.452757,0.376371,0.0248213,-0.00634228,0,
10,0.478735,0.390574,0.0250715,-0.00640534,0,
10,0.504358,0.406143,0.0251716,-0.00643708,0,
10,0.529657,0.422517,0.0251639,-0.00642648,0,
10,0.554656,0.43929,0.0251106,-0.00636927,0,
10,0.579382,0.456289,0.0250424,-0.00626566,0,
10,0.603859,0.473506,0.0249741,-0.00611732,0,
10,0.628112,0.490997,0.0249047,-0.00592586,0,
10,0.652163,0.508812,0.0248279,-0.0056925,0,
10,0.676035,0.526952,0.0247373,-0.00541862,0,
10,0.699751,0.545357,0.0246277,-0.00510666,0,
10,0.72333,0.563887,0.0244969,-0.00476132,0,
10,0.746795,0.582304,0.0243393,-0.00439948,0,
10,0.770165,0.600281,0.0241528,-0.00404183,0,
10,0.79346,0.617529,0.0239456,-0.00369172,0,
10,0.816699,0.633911,0.0237239,-0.00335001,0,
10,0.839903,0.649407,0.0234905,-0.00301929,0,
10,0.863088,0.664034,0.0232445,-0.00270372,0,
10,0.886275,0.677784,0.0229848,-0.002408,0,
10,0.909481,0.690621,0.0227106,-0.00213662,0,
10,0.932723,0.7025,0.0224226,-0.00189301,0,
10,0.956021,0.713401,0.0221219,-0.00167905,0,
10,0.97939,0.723341,0.0218101,-0.00149491,0,
10,1.00285,0.732375,0.0214884,-0.00133929,0,
10,1.02641,0.74059,0.0211577,-0.0012098,0,
10,1.0501,0.748087,0.020819,-0.00110331,0,
10,1.07392,0.754977,0.0204728,-0.00101635,0,
10,1.0979,0.761372,0.0201197,-0.000945466,0,
10,1.12205,0.767378,0.0197602,-0.000887452,0,
10,1.14639,0.773087,0.0193946,-0.000839563,0,
10,1.17093,0.778578,0.0190229,-0.000799529,0,
10,1.19568,0.783914,0.0186451,-0.000765497,0,
10,1.22066,0.789144,0.0182615,-0.000735949,0,
10,1.24589,0.794302,0.0178717,-0.00070966,0,
10,1.27137,0.799414,0.0174758,-0.000685725,0,
10,1.29713,0.804495,0.0170732,-0.00066399,0,
10,1.32317,0.809554,0.0166639,-0.000643866,0,
10,1.34951,0.814599,0.016248,-0.00062472,0,
10,1.37616,0.819637,0.0158253,-0.000606137,0,
10,1.40313,0.824673,0.0153957,-0.000587844,0,
10,1.43043,0.829706,0.0149588,-0.000569663,0,
10,1.45807,0.834734,0.0145146,-0.00055148,0,
10,1.48607,0.839754,0.014063,-0.000533225,0,
10,1.51444,0.844762,0.0136036,-0.000514862,0,
10,1.54318,0.849751,0.0131365,-0.000496375,0,
10,1.57231,0.854716,0.0126614,-0.000477759,0,
10,1.60184,0.859648,0.0121783,-0.000459088,0,
10,1.63178,0.864537,0.0116871,-0.00044048,0,
10,1.66213,0.869371,0.0111879,-0.000421927,0,
10,1.69292,0.874139,0.0106804,-0.000403427,0,
10,1.72416,0.878827,0.0101648,-0.000384994,0,
10,1.75585,0.883422,0.00964068,-0.000366658,0,
10,1.78802,0.88791,0.00910886,-0.000348471,0,
10,1.82067,0.892275,0.00856798,-0.000330482,0,
10,1.85383,0.896502,0.00802011,-0.000312759,0,
10,1.88751,0.900576,0.0074626,-0.000295324,0,
10,1.92173,0.904491,0.00690072,-0.000277145,0,
10,1.95652,0.908258,0.00633453,-0.000249336,0,
10,1.9919,0.91186,0.0057596,-0.00022156,0,
10,2.02791,0.915255,0.00517515,-0.000194298,0,
10,2.06456,0.918427,0.00458266,-0.000168489,0,
10,2.10268,0.921423,0.00396635,-0.00014371,0,
10,2.1443,0.924337,0.00329824,-0.000120161,0,
10,2.18977,0.927122,0.00257131,-9.77788e-05,0,
10,2.23946,0.929701,0.00178378,-7.67176e-05,0,
10,2.29376,0.931995,0.000930313,-5.7647e-05,0,
10,2.35309,0.933929,8.98951e-06,-4.10495e-05,0,
10,2.4179,0.935439,-0.000983735,-2.72969e-05,0,
10,2.48863,0.936484,-0.00204883,-1.66346e-05,0,
10,2.56575,0.937056,-0.00318762,-9.09707e-06,0,
10,2.64971,0.937203,-0.00439929,-4.43987e-06,0,
10,2.74098,0.937028,-0.00568269,-2.1227e-06,0,
10,2.83997,0.936689,-0.00703491,-1.36023e-06,0,
10,2.94709,0.936379,-0.00845244,-1.28992e-06,0,
10,3.06269,0.936284,-0.00993032,-1.24096e-06,0,
10,3.18706,0.936532,-0.0114628,-9.58941e-07,0,
10,3.3204,0.937151,-0.0130428,-5.6461e-07,0,
10,3.46281,0.938063,-0.0146617,-2.59009e-07,0,
10,3.61427,0.939123,-0.0163092,-1.05025e-07,0,
10,3.77463,0.940185,-0.0179732,-4.96481e-08,0,
10,3.94358,0.941154,-0.0196403,-3.31239e-08,0,
10,4.12067,0.942004,-0.0212962,-2.74155e-08,0,
10,4.30525,0.942764,-0.0229267,-2.46346e-08,0,
10,4.49655,0.943482,-0.0245182,-2.31749e-08,0,
10,4.6936,0.944187,-0.0260582,-2.2884e-08,0,
10,4.89531,0.944886,-0.0275355,-2.42479e-08,0,
10,5.10047,0.945567,-0.0289405,-2.8871e-08,0,
10,5.30776,0.946209,-0.0302656,-4.04298e-08,0,
10,5.51581,0.946796,-0.0315051,-6.60812e-08,0,
10,5.72323,0.947323,-0.0326551,-1.21339e-07,0,
10,5.92863,0.947815,-0.033714,-2.44222e-07,0,
10,6.13069,0.948337,-0.0346816,-5.36139e-07,0,
10,6.32816,0.948983,-0.03556,-1.21153e-06,0,
10,6.51991,0.94979,-0.0363516,-2.36034e-06,0,
10,6.70495,0.950534,-0.0370619,-2.53131e-06,0,
10,6.88244,0.950517,-0.0376939,4.11934e-06,0,
10,7.0517,0.948553,-0.0382545,2.90759e-05,0,
10,7.21224,0.943332,-0.0387425,8.5786e-05,0,
10,7.3637,0.934,-0.0391667,0.000184464,0,
10,7.5059,0.920378,-0.0395369,0.000295827,0,
10,7.63878,0.902854,-0.0398469,0.00041125,0,
10,7.76243,0.882693,-0.0401074,0.000538415,0,
10,7.87701,0.86175,-0.0403161,0.00066728,0,
10,7.9828,0.841537,-0.0404884,0.000784173,0,
10,8.08014,0.822765,-0.0406254,0.000882291,0,
10,8.16941,0.805486,-0.0407401,0.000962836,0,
10,8.25106,0.789437,-0.0408347,0.00102956,0,
10,8.32554,0.774296,-0.0409163,0.00108596,0,
10,8.39331,0.759797,-0.0409857,0.00113439,0,
10,8.45484,0.745751,-0.041046,0.00117627,0,
10,8.5106,0.732047,-0.0410979,0.00121239,0,
10,8.56104,0.718628,-0.0411428,0.00124322,0,
10,8.60659,0.705473,-0.0411821,0.00126912,0,
10,8.64767,0.692563,-0.0412158,0.00128969,0,
10,8.68467,0.679852,-0.0412448,0.00130243,0,
10,8.71795,0.667304,-0.0412707,0.00131226,0,
10,8.74786,0.654909,-0.0412929,0.00131805,0,
10,8.77471,0.642664,-0.0413125,0.00132004,0,
10,8.79881,0.630564,-0.0413294,0.00131858,0,
10,8.8204,0.618605,-0.0413441,0.00131404,0,
10,8.83975,0.606777,-0.0413569,0.00130683,0,
10,8.85708,0.595071,-0.0413679,0.00129733,0,
10,8.87259,0.583473,-0.0413775,0.00128593,0,
10,8.88646,0.571965,-0.0413857,0.00127298,0,
10,8.89886,0.560527,-0.0413927,0.0012588,0,
10,8.90995,0.549135,-0.0413987,0.00124366,0,
10,8.91986,0.537761,-0.0414038,0.00122777,0,
10,8.92872,0.526375,-0.0414082,0.00121129,0,
10,8.93663,0.514943,-0.0414119,0.00119432,0,
10,8.94369,0.50343,-0.041415,0.00117689,0,
10,8.95,0.491794,-0.0414176,0.00115899,0,
10,8.95564,0.479992,-0.0414199,0.00114053,0,
10,8.96067,0.467974,-0.0414216,0.00112136,0,
10,8.96517,0.455687,-0.0414233,0.00110127,0,
10,8.96918,0.443069,-0.0414245,0.00107992,0,
10,8.97276,0.430051,-0.0414256,0.00105691,0,
10,8.97596,0.416554,-0.0414264,0.00103166,0,
10,8.97882,0.402485,-0.0414273,0.00100347,0,
10,8.98137,0.387735,-0.0414277,0.000971406,0,
10,8.98365,0.372178,-0.0414284,0.000934254,0,
10,8.98569,0.355663,-0.0414286,0.000890484,0,
10,8.9875,0.338011,-0.0414292,0.000838575,0,
10,8.98913,0.318986,-0.0414292,0.000772343,0,
10,8.99058,0.298347,-0.0414297,0.000694081,0,
10,8.99188,0.275922,-0.0414295,0.00060144,0,
10,8.99304,0.251544,-0.0414301,0.000487346,0,
10,8.99408,0.225157,-0.0414297,0.000359055,0,
10,8.99501,0.197112,-0.0414303,0.000230073,0,
10,8.99583,0.168299,-0.0414298,0.000122704,0,
10,8.99658,0.14,-0.0414304,5.29618e-05,0,
10,8.99724,0.113367,-0.0414298,1.83372e-05,0,
10,8.99784,0.0890204,-0.0414305,5.04535e-06,0,
10,8.99837,0.0670854,-0.0414298,1.05865e-06,0,
10,8.99885,0.0474303,-0.0414306,1.51662e-07,0,
10,8.99927,0.0298415,-0.0414297,1.15128e-08,0,
10,8.99966,0.0141006,-0.0414308,2.54685e-10,0,
10,0,0,0.0289768,0,0,
10,9,0,-0.0414297,0,0,

0.004,0,0,-0.213035,0,5.6232e-08,
0.00868226,0,0,-0.213038,0,-2.60803e-07,
0.014062,0,0,-0.213035,0,-6.27473e-07,
0.0201548,0,0,-0.213037,0,-9.68194e-07,
0.0269766,0,0,-0.213032,0,-9.18034e-07,
0.0345437,0,0,-0.213032,0,-1.01246e-07,
0.0428729,0,0,-0.213025,0,1.73903e-06,
0.051981,0,0,-0.213024,0,4.90504e-06,
0.0618853,0,0,-0.21302,0,9.3563e-06,
0.0726036,0,0,-0.213024,0,1.49585e-05,
0.0841536,0,0,-0.21303,0,2.12135e-05,
0.0965535,0,0,-0.213045,0,2.76519e-05,
0.109822,0,0,-0.213065,0,3.376e-05,
0.123977,0,0,-0.213092,0,3.92641e-05,
0.139037,0,0,-0.213125,0,4.40088e-05,
0.155022,0,0,-0.213164,0,4.80124e-05,
0.171949,0,0,-0.213209,0,5.13087e-05,
0.189839,0,0,-0.21326,0,5.39279e-05,
0.208709,0,0,-0.213318,0,5.58206e-05,
0.228579,0,0,-0.213383,0,5.68871e-05,
0.249467,0,0,-0.213456,0,5.69885e-05,
0.271391,0,0,-0.213537,0,5.59888e-05,
0.29437,0,0,-0.213626,0,5.37773e-05,
0.31842,0,0,-0.213722,0,5.02925e-05,
0.343559,0,0,-0.213826,0,4.55311e-05,
0.369804,0,0,-0.213935,0,3.95488e-05,
0.39717,0,0,-0.21405,0,3.24504e-05,
0.425672,0,0,-0.21417,0,2.4372e-05,
0.455324,0,0,-0.214294,0,1.54636e-05,
0.48614,0,0,-0.214421,0,5.87237e-06,
0.518132,0,0,-0.214551,0,-4.26983e-06,
0.551309,0,0,-0.214684,0,-1.48558e-05,
0.585683,0,0,-0.21482,0,-2.58087e-05,
0.621259,0,0,-0.214958,0,-3.70846e-05,
0.658046,0,0,-0.215099,0,-4.8671e-05,
0.696047,0,0,-0.215244,0,-6.05843e-05,
0.735265,0,0,-0.215394,0,-7.28648e-05,
0.7757,0,0,-0.215548,0,-8.55723e-05,
0.817352,0,0,-0.215708,0,-9.87819e-05,
0.860215,0,0,-0.215875,0,-0.00011258,
0.904285,0,0,-0.21605,0,-0.000127061,
0.949552,0,0,-0.216233,0,-0.000142324,
0.996004,0,0,-0.216426,0,-0.00015847,
1.04363,0,0,-0.216629,0,-0.000175598,
1.09241,0,0,-0.216844,0,-0.000193799,
1.14232,0,0,-0.217069,0,-0.000213151,
1.19335,0,0,-0.217307,0,-0.000233705,
1.24546,0,0,-0.217555,0,-0.000255478,
1.29863,0,0,-0.217814,0,-0.000278423,
1.35283,0,0,-0.218081,0,-0.000302399,
1.40802,0,0,-0.218354,0,-0.000327113,
1.46416,0,0,-0.218631,0,-0.000352047,
1.52121,0,0,-0.218908,0,-0.000376383,
1.57913,0,0,-0.21918,0,-0.000398975,
1.63787,0,0,-0.219444,0,-0.000418436,
1.69739,0,0,-0.219694,0,-0.000433408,
1.75761,0,0,-0.219921,0,-0.000442846,
1.81851,0,0,-0.220122,0,-0.000446267,
1.88,0,0,-0.220293,0,-0.000443613,
1.94204,0,0,-0.220446,0,-0.000434887,
2.00457,0,0,-0.220633,0,-0.000420731,
2.06751,0,0,-0.220901,0,-0.000402388,
2.13081,0,0,-0.221315,0,-0.000381304,
2.19439,0,0,-0.221961,0,-0.000360148,
2.25819,0,0,-0.222929,0,-0.000343756,
2.32214,0,0,-0.224242,0,-0.000337796,
2.38617,0,0,-0.225869,0,-0.000346068,
2.4502,0,0,-0.227761,0,-0.000369703,
2.51418,0,0,-0.229869,0,-0.000408099,
2.57803,0,0,-0.232138,0,-0.000459992,
2.64167,0,0,-0.234512,0,-0.000524075,
2.70505,0,0,-0.236932,0,-0.000599237,
2.76808,0,0,-0.239332,0,-0.000684571,
2.83072,0,0,-0.24164,0,-0.000779245,
2.89288,0,0,-0.243772,0,-0.000882277,
2.95451,0,0,-0.245633,0,-0.000992207,
3.01555,0,0,-0.247117,0,-0.00110673,
3.07594,0,0,-0.248121,0,-0.00122241,
3.13561,0,0,-0.248555,0,-0.0013349,
3.19453,0,0,-0.24837,0,-0.00143958,
3.25262,0,0,-0.247558,0,-0.0015325,
3.30985,0,0,-0.246153,0,-0.00161097,
3.36617,0,0,-0.244226,0,-0.00167387,
3.42154,0,0,-0.241866,0,-0.0017215,
3.47591,0,0,-0.239169,0,-0.00175525,
3.52925,0,0,-0.236228,0,-0.00177714,
3.58152,0,0,-0.233126,0,-0.00178947,
3.6327,0,0,-0.229928,0,-0.00179448,
3.68276,0,0,-0.226689,0,-0.00179412,
3.73167,0,0,-0.223445,0,-0.00178994,
3.77941,0,0,-0.220226,0,-0.00178311,
3.82596,0,0,-0.217049,0,-0.00177448,
3.8713,0,0,-0.213929,0,-0.00176462,
3.91543,0,0,-0.210872,0,-0.00175384,
3.95833,0,0,-0.207902,0,-0.00174272,
4,0,0,-0.204989,0,-0.00173123,
4.04167,0,0,-0.202077,0,-0.00171905,
4.08333,0,0,-0.199162,0,-0.00170641,
4.125,0,0,-0.196244,0,-0.00169335,
4.16667,0,0,-0.193323,0,-0.00167988,
4.20833,0,0,-0.190402,0,-0.00166602,
4.25,0,0,-0.18748,0,-0.00165181,
4.29167,0,0,-0.184559,0,-0.00163725,
4.33333,0,0,-0.181639,0,-0.00162237,
4.375,0,0,-0.178721,0,-0.00160716,
4.41667,0,0,-0.175806,0,-0.00159164,
4.45833,0,0,-0.172892,0,-0.00157578,
4.5,0,0,-0.169982,0,-0.0015596,
4.54167,0,0,-0.167076,0,-0.00154308,
4.58333,0,0,-0.164173,0,-0.00152622,
4.625,0,0,-0.161276,0,-0.00150901,
4.66667,0,0,-0.158383,0,-0.00149147,
4.70833,0,0,-0.155496,0,-0.00147358,
4.75,0,0,-0.152615,0,-0.00145534,
4.79167,0,0,-0.149741,0,-0.00143676,
4.83333,0,0,-0.146875,0,-0.00141782,
4.875,0,0,-0.144016,0,-0.00139852,
4.91667,0,0,-0.141165,0,-0.00137885,
4.95833,0,0,-0.138324,0,-0.00135882,
5,0,0,-0.135493,0,-0.00133841,
5.04167,0,0,-0.132672,0,-0.00131763,
5.08333,0,0,-0.129862,0,-0.0012965,
5.125,0,0,-0.127065,0,-0.001275,
5.16667,0,0,-0.124279,0,-0.00125315,
5.20833,0,0,-0.121507,0,-0.00123092,
5.25,0,0,-0.118749,0,-0.00120833,
5.29167,0,0,-0.116006,0,-0.00118537,
5.33333,0,0,-0.113278,0,-0.00116203,
5.375,0,0,-0.110566,0,-0.00113833,
5.41667,0,0,-0.107872,0,-0.00111429,
5.45833,0,0,-0.105195,0,-0.00108991,
5.5,0,0,-0.102537,0,-0.0010652,
5.54167,0,0,-0.0998986,0,-0.00104017,
5.58333,0,0,-0.0972801,0,-0.00101484,
5.625,0,0,-0.0946823,0,-0.00098919,
5.66667,0,0,-0.092106,0,-0.000963242,
5.70833,0,0,-0.0895518,0,-0.000937006,
5.75,0,0,-0.0870206,0,-0.000910497,
5.79167,0,0,-0.0845129,0,-0.000883736,
5.83333,0,0,-0.0820293,0,-0.000856737,
5.875,0,0,-0.0795702,0,-0.000829512,
5.91667,0,0,-0.0771361,0,-0.000802066,
5.95833,0,0,-0.0747275,0,-0.000774404,
6,0,0,-0.0723449,0,-0.000746533,
6.04167,0,0,-0.0699888,0,-0.000718467,
6.08333,0,0,-0.0676596,0,-0.000690225,
6.125,0,0,-0.0653578,0,-0.00066182,
6.16667,0,0,-0.0630835,0,-0.000633263,
6.20833,0,0,-0.0608372,0,-0.000604559,
6.25,0,0,-0.058619,0,-0.00057571,
6.29167,0,0,-0.0564293,0,-0.000546723,
6.33333,0,0,-0.0542685,0,-0.00051761,
6.375,0,0,-0.0521369,0,-0.000488385,
6.41667,0,0,-0.0500347,0,-0.000459063,
6.45833,0,0,-0.0479619,0,-0.000429651,
6.5,0,0,-0.0459189,0,-0.000400154,
6.54167,0,0,-0.0439057,0,-0.000370574,
6.58333,0,0,-0.0419227,0,-0.000340919,
6.625,0,0,-0.0399699,0,-0.000311202,
6.66667,0,0,-0.0380477,0,-0.000281439,
6.70833,0,0,-0.036156,0,-0.000251639,
6.75,0,0,-0.0342949,0,-0.000221811,
6.79167,0,0,-0.0324643,0,-0.000191955,
6.83333,0,0,-0.0306644,0,-0.000162073,
6.875,0,0,-0.0288953,0,-0.000132171,
6.91667,0,0,-0.0271571,0,-0.000102259,
6.95833,0,0,-0.0254498,0,-7.23521e-05,
7,0,0,-0.0237736,0,-4.24629e-05,
7.04167,0,0,-0.0221282,0,-1.25969e-05,
7.08333,0,0,-0.0205138,0,1.72392e-05,
7.125,0,0,-0.0189303,0,4.70374e-05,
7.16667,0,0,-0.0173778,0,7.6787e-05,
7.20833,0,0,-0.0158562,0,0.000106478,
7.25,0,0,-0.0143655,0,0.000136096,
7.29167,0,0,-0.0129056,0,0.000165627,
7.33333,0,0,-0.0114764,0,0.000195065,
7.375,0,0,-0.0100776,0,0.000224408,
7.41667,0,0,-0.00870927,0,0.000253648,
7.45833,0,0,-0.00737121,0,0.000282775,
7.5,0,0,-0.00606336,0,0.000311778,
7.54167,0,0,-0.00478552,0,0.00034065,
7.58333,0,0,-0.00353764,0,0.000369381,
7.625,0,0,-0.00231946,0,0.000397964,
7.66667,0,0,-0.00113075,0,0.000426396,
7.70833,0,0,2.87406e-05,0,0.000454683,
7.75,0,0,0.00115902,0,0.000482817,
7.79167,0,0,0.00226037,0,0.000510791,
7.83333,0,0,0.00333241,0,0.000538581,
7.875,0,0,0.00437648,0,0.000566234,
7.91667,0,0,0.00539703,0,0.000594051,
7.95833,0,0,0.00635463,0,0.000621109,
8,0,0,0.00734735,0,0.000648072,
8.04171,0,0,0.00834217,0,0.000675917,
8.08368,0,0,0.00923009,0,0.000703775,
8.12617,0,0,0.0101375,0,0.00073053,
8.16946,0,0,0.0110287,0,0.00075753,
8.21382,0,0,0.0119086,0,0.000784797,
8.25952,0,0,0.0127854,0,0.000812445,
8.30685,0,0,0.0136618,0,0.000840674,
8.35611,0,0,0.0145407,0,0.000869643,
8.40762,0,0,0.0154244,0,0.000899505,
8.46168,0,0,0.0163139,0,0.000930404,
8.51865,0,0,0.0172099,0,0.000962469,
8.57889,0,0,0.0181122,0,0.000995829,
8.64276,0,0,0.0190199,0,0.0010306,
8.71067,0,0,0.0199303,0,0.00106687,
8.78306,0,0,0.0208406,0,0.00110469,
8.86037,0,0,0.0217473,0,0.00114407,
8.94309,0,0,0.0226458,0,0.00118503,
9.03174,0,0,0.0235303,0,0.00122753,
9.12689,0,0,0.0243947,0,0.00127156,
9.22912,0,0,0.0252309,0,0.00131709,
9.33908,0,0,0.0260311,0,0.00136413,
9.45746,0,0,0.0267834,0,0.00141266,
9.58501,0,0,0.0274735,0,0.00146248,
9.72253,0,0,0.02809,0,0.0015133,
9.87088,0,0,0.0286226,0,0.00156484,
10.031,0,0,0.0290619,0,0.00161689,
10.2039,0,0,0.0293895,0,0.00166916,
10.3906,0,0,0.0295919,0,0.00172121,
10.5924,0,0,0.0296656,0,0.00177269,
10.8105,0,0,0.029596,0,0.00182316,
11.0463,0,0,0.0293786,0,0.0018722,
11.3012,0,0,0.0290069,0,0.00191937,
11.5769,0,0,0.0284838,0,0.00196429,
11.8751,0,0,0.0278151,0,0.00200664,
12.1977,0,0,0.0270036,0,0.00204612,
12.5466,0,0,0.0260644,0,0.00208254,
12.9242,0,0,0.025014,0,0.00211581,
13.3327,0,0,0.0238661,0,0.0021458,
13.7748,0,0,0.0226408,0,0.00217244,
14.2532,0,0,0.0213621,0,0.00219576,
14.7709,0,0,0.0200558,0,0.00221585,
15.3312,0,0,0.0187459,0,0.00223293,
15.9377,0,0,0.0174557,0,0.0022472,
16.594,0,0,0.0162078,0,0.00225899,
17.3044,0,0,0.0150191,0,0.00226853,
18.0733,0,0,0.013906,0,0.00227628,
18.9056,0,0,0.0128797,0,0.00228249,
19.8064,0,0,0.0119469,0,0.00228741,
20.7816,0,0,0.0111059,0,0.00229099,
21.8371,0,0,0.0103536,0,0.00229344,
22.9796,0,0,0.00967932,0,0.00229525,
24.2163,0,0,0.0090667,0,0.0022968,
25.5551,0,0,0.0084966,0,0.00229853,
27.0042,0,0,0.0079455,0,0.00230057,
28.5729,0,0,0.00739327,0,0.00230313,
30.271,0,0,0.00682024,0,0.00230641,
32.1091,0,0,0.00621448,0,0.00231046,
34.0989,0,0,0.00557569,0,0.00231569,
36.2529,0,0,0.00488769,0,0.00232199,
38.5845,0,0,0.00412336,0,0.00232898,
41.1085,0,0,0.00329142,0,0.0023364,
43.8407,0,0,0.00223849,0,0.00234192,
46.7983,0,0,0.00114938,0,0.00234332,
50,0,0,0.00208282,0,0.00235543,

