a3cfcdef2270f99e39357bc5b5599e4d892d3af7 
X,Z,x_velocity,cp,uw_b,cf,
1,0,0,-0.215046,0,0,
1,9,0,-0.137771,0,0,
1,8.99969,0.0156623,-0.13777,3.01019e-10,0,
1,8.99934,0.0334287,-0.13777,1.4068e-08,0,
1,8.99894,0.0535997,-0.13777,1.9401e-07,0,
1,8.99848,0.0764926,-0.13777,1.42156e-06,0,
1,8.99797,0.102421,-0.13777,7.0974e-06,0,
1,8.99739,0.131577,-0.13777,2.68022e-05,0,
1,8.99672,0.163741,-0.13777,7.90779e-05,0,
1,8.99597,0.197935,-0.13777,0.000182788,0,
1,8.99512,0.232469,-0.13777,0.000334815,0,
1,8.99416,0.265682,-0.13777,0.000505457,0,
1,8.99306,0.296617,-0.13777,0.000665251,0,
1,8.99182,0.32513,-0.13777,0.000792664,0,
1,8.99041,0.35137,-0.137769,0.000898662,0,
1,8.98881,0.375493,-0.137769,0.000985974,0,
1,8.98699,0.397717,-0.137768,0.00105702,0,
1,8.98494,0.418328,-0.137768,0.00111311,0,
1,8.98261,0.437643,-0.137767,0.00115542,0,
1,8.97996,0.455905,-0.137766,0.00119088,0,
1,8.97696,0.473288,-0.137765,0.00122015,0,
1,8.97356,0.489934,-0.137764,0.00124452,0,
1,8.9697,0.505959,-0.137763,0.00126496,0,
1,8.96533,0.521463,-0.137761,0.0012822,0,
1,8.96038,0.536528,-0.137759,0.00129676,0,
1,8.95476,0.551224,-0.137758,0.00130904,0,
1,8.9484,0.565609,-0.137755,0.00131932,0,
1,8.9412,0.579734,-0.137753,0.00132777,0,
1,8.93303,0.593641,-0.137751,0.00133454,0,
1,8.92379,0.607368,-0.137748,0.00133969,0,
1,8.91333,0.620946,-0.137745,0.00134324,0,
1,8.90149,0.634404,-0.137743,0.0013452,0,
1,8.8881,0.647765,-0.13774,0.00134552,0,
1,8.87295,0.661053,-0.137738,0.00134413,0,
1,8.85584,0.674288,-0.137736,0.00134095,0,
1,8.83651,0.68749,-0.137735,0.00133585,0,
1,8.81469,0.700677,-0.137735,0.00132867,0,
1,8.79007,0.71387,-0.137737,0.00131922,0,
1,8.76232,0.72709,-0.137741,0.00130724,0,
1,8.73107,0.740362,-0.137748,0.00129242,0,
1,8.69591,0.753713,-0.137759,0.00127439,0,
1,8.6564,0.767177,-0.137775,0.00125313,0,
1,8.61206,0.780807,-0.137799,0.00122812,0,
1,8.56236,0.794692,-0.137833,0.00119661,0,
1,8.50675,0.808952,-0.137879,0.00115984,0,
1,8.44464,0.823728,-0.137941,0.0011164,0,
1,8.3754,0.839193,-0.138024,0.00106413,0,
1,8.29839,0.855563,-0.13813,0.000999855,0,
1,8.21296,0.873078,-0.13827,0.000919076,0,
1,8.11843,0.891936,-0.138445,0.000816307,0,
1,8.01417,0.912147,-0.138673,0.000687569,0,
1,7.89956,0.933252,-0.138947,0.000535513,0,
1,7.77403,0.954068,-0.139307,0.00037987,0,
1,7.63711,0.972884,-0.139729,0.000207978,0,
1,7.48842,0.98745,-0.14023,7.56174e-05,0,
1,7.32773,0.995952,-0.140838,1.73457e-05,0,
1,7.15495,0.998931,-0.14154,1.52302e-06,0,
1,6.97022,0.998889,-0.142354,6.5591e-09,0,
1,6.77388,0.998246,-0.143291,1.88873e-09,0,
1,6.56652,0.998124,-0.144365,8.72763e-09,0,
1,6.34896,0.99856,-0.145585,1.1836e-08,0,
1,6.12229,0.999248,-0.146962,1.33518e-08,0,
1,5.88784,0.999992,-0.148506,1.40183e-08,0,
1,5.64716,1.00076,-0.150225,1.47876e-08,0,
1,5.40194,1.00158,-0.152122,1.58998e-08,0,
1,5.15407,1.00248,-0.154197,1.72377e-08,0,
1,4.90545,1.00346,-0.156447,1.8699e-08,0,
1,4.65805,1.00452,-0.158863,2.02471e-08,0,
1,4.41376,1.00565,-0.161429,2.17785e-08,0,
1,4.17441,1.00683,-0.164127,2.30375e-08,0,
1,3.94163,1.00801,-0.166931,2.38776e-08,0,
1,3.7169,1.00913,-0.169811,2.50148e-08,0,
1,3.50146,1.01029,-0.172735,2.85958e-08,0,
1,3.29629,1.01179,-0.175669,3.68364e-08,0,
1,3.10217,1.01401,-0.178587,4.743e-08,0,
1,2.91959,1.01669,-0.181466,8.38841e-08,0,
1,2.74885,1.01829,-0.184273,4.67807e-07,0,
1,2.59002,1.01638,-0.186965,-9.02159e-06,0,
1,2.44299,1.00926,-0.189494,-5.60833e-05,0,
1,2.30752,0.997206,-0.19182,-0.00014959,0,
1,2.18321,0.981817,-0.193919,-0.000274163,0,
1,2.06959,0.964805,-0.195787,-0.000405989,0,
1,1.9661,0.947458,-0.197437,-0.000525215,0,
1,1.87215,0.930636,-0.198885,-0.000620893,0,
1,1.78711,0.914799,-0.200151,-0.000692725,0,
1,1.71033,0.900064,-0.201257,-0.000747049,0,
1,1.64119,0.886359,-0.202219,-0.000790314,0,
1,1.57905,0.873547,-0.203056,-0.000826722,0,
1,1.52332,0.861492,-0.203782,-0.000858428,0,
1,1.47342,0.850081,-0.204411,-0.0008864,0,
1,1.42882,0.839228,-0.204955,-0.00091107,0,
1,1.389,0.828871,-0.205426,-0.000932708,0,
1,1.35351,0.818966,-0.205834,-0.000951567,0,
1,1.3219,0.809484,-0.206186,-0.000967917,0,
1,1.29378,0.800406,-0.206491,-0.000982024,0,
1,1.26878,0.79172,-0.206755,-0.000994146,0,
1,1.24659,0.783419,-0.206982,-0.00100489,0,
1,1.22689,0.775493,-0.20718,-0.00101443,0,
1,1.2092,0.767849,-0.207353,-0.00102185,0,
1,1.1932,0.760434,-0.207505,-0.00102776,0,
1,1.1787,0.753233,-0.20764,-0.00103249,0,
1,1.16554,0.746229,-0.207759,-0.00103627,0,
1,1.15357,0.739401,-0.207864,-0.00103993,0,
1,1.14266,0.732717,-0.207956,-0.00104501,0,
1,1.13268,0.726132,-0.208037,-0.0010539,0,
1,1.12354,0.719579,-0.208109,-0.0010701,0,
1,1.11514,0.712972,-0.208173,-0.00109797,0,
1,1.10739,0.706197,-0.208231,-0.0011428,0,
1,1.10022,0.699116,-0.208285,-0.00121046,0,
1,1.09357,0.691573,-0.208337,-0.00130677,0,
1,1.08738,0.683407,-0.208389,-0.00143671,0,
1,1.0816,0.674481,-0.208444,-0.00160341,0,
1,1.07618,0.664707,-0.208503,-0.00180715,0,
1,1.07107,0.654075,-0.208567,-0.00204473,0,
1,1.06626,0.642654,-0.208635,-0.00230959,0,
1,1.06169,0.630578,-0.208708,-0.00259285,0,
1,1.05735,0.618017,-0.208785,-0.00288488,0,
1,1.05321,0.605142,-0.208865,-0.00317681,0,
1,1.04925,0.59211,-0.208947,-0.00346142,0,
1,1.04544,0.579049,-0.209031,-0.00373347,0,
1,1.04177,0.566055,-0.209116,-0.00398952,0,
1,1.03822,0.553197,-0.209203,-0.0042276,0,
1,1.03478,0.540523,-0.209289,-0.00444684,0,
1,1.03144,0.528061,-0.209376,-0.00464711,0,
1,1.02818,0.515827,-0.209462,-0.00482876,0,
1,1.025,0.503827,-0.209549,-0.00499244,0,
1,1.02188,0.492061,-0.209635,-0.00513897,0,
1,1.01882,0.480525,-0.20972,-0.00526924,0,
1,1.01581,0.46921,-0.209806,-0.0053843,0,
1,1.01284,0.458106,-0.20989,-0.00548473,0,
1,1.00988,0.447083,-0.209975,-0.00557201,0,
1,1.00688,0.436015,-0.210062,-0.00564788,0,
1,1.00384,0.42489,-0.21015,-0.00571234,0,
1,1.00076,0.413696,-0.210239,-0.00576521,0,
1,0.997615,0.402421,-0.21033,-0.00580656,0,
1,0.99441,0.391046,-0.210423,-0.00583608,0,
1,0.991131,0.379555,-0.210517,-0.00585347,0,
1,0.987768,0.367925,-0.210614,-0.00585878,0,
1,0.984308,0.356136,-0.210713,-0.00585169,0,
1,0.980739,0.344164,-0.210814,-0.00583174,0,
1,0.977045,0.331985,-0.210918,-0.00579844,0,
1,0.973211,0.319575,-0.211024,-0.00575122,0,
1,0.969219,0.306908,-0.211134,-0.0056894,0,
1,0.965047,0.293957,-0.211248,-0.00561221,0,
1,0.960675,0.280698,-0.211364,-0.00551881,0,
1,0.956077,0.267108,-0.211485,-0.00540829,0,
1,0.951224,0.253166,-0.21161,-0.00527966,0,
1,0.946088,0.238856,-0.211738,-0.00513193,0,
1,0.940633,0.224169,-0.211872,-0.00496422,0,
1,0.934823,0.209106,-0.21201,-0.00477574,0,
1,0.928616,0.19368,-0.212152,-0.00456597,0,
1,0.921967,0.177923,-0.212299,-0.00433481,0,
1,0.914826,0.16189,-0.212451,-0.00408276,0,
1,0.907141,0.145662,-0.212607,-0.00381116,0,
1,0.898852,0.129357,-0.212767,-0.00352249,0,
1,0.889898,0.113131,-0.21293,-0.00322065,0,
1,0.880212,0.0971833,-0.213096,-0.00291116,0,
1,0.869723,0.0817504,-0.213262,-0.00260121,0,
1,0.858358,0.0670927,-0.213427,-0.00229933,0,
1,0.846039,0.0534682,-0.213588,-0.00201449,0,
1,0.83269,0.0410942,-0.213742,-0.00175468,0,
1,0.818232,0.0301106,-0.213884,-0.001528,0,
1,0.802744,0.02063,-0.214006,-0.00133761,0,
1,0.78635,0.0126163,-0.214109,-0.00118122,0,
1,0.768969,0.00584302,-0.214185,-0.00105711,0,
1,0.75053,8.42401e-05,-0.214236,-0.00096123,0,
1,0.730977,-0.00486014,-0.214258,-0.000888775,0,
1,0.710271,-0.00915107,-0.214253,-0.00083451,0,
1,0.688397,-0.012891,-0.214216,-0.000798524,0,
1,0.66536,-0.0161335,-0.214123,-0.000788805,0,
1,0.641194,-0.018953,-0.213988,-0.000789178,0,
1,0.615961,-0.0214478,-0.213826,-0.000794646,0,
1,0.589754,-0.0236951,-0.213636,-0.000803917,0,
1,0.562692,-0.0257443,-0.213427,-0.000813074,0,
1,0.534925,-0.0276273,-0.213207,-0.000818475,0,
1,0.506624,-0.0293641,-0.212986,-0.000816966,0,
1,0.477982,-0.0309673,-0.212776,-0.000806015,0,
1,0.449206,-0.0324447,-0.212589,-0.00078395,0,
1,0.420509,-0.0338014,-0.212435,-0.000750154,0,
1,0.392107,-0.035041,-0.212325,-0.000705142,0,
1,0.364206,-0.0361669,-0.212265,-0.000650489,0,
1,0.337003,-0.0371824,-0.212259,-0.000588582,0,
1,0.310673,-0.0380915,-0.212306,-0.000522269,0,
1,0.28537,-0.0388985,-0.212401,-0.000454465,0,
1,0.26122,-0.0396083,-0.212537,-0.000387809,0,
1,0.238324,-0.0402262,-0.212704,-0.000324424,0,
1,0.21675,-0.0407572,-0.212893,-0.000265812,0,
1,0.196544,-0.0412063,-0.213094,-0.000212853,0,
1,0.177724,-0.041578,-0.213298,-0.000165896,0,
1,0.160284,-0.0418763,-0.213498,-0.000124882,0,
1,0.144202,-0.0421047,-0.213689,-8.94803e-05,0,
1,0.129436,-0.0422659,-0.213867,-5.91995e-05,0,
1,0.115935,-0.042362,-0.21403,-3.34823e-05,0,
1,0.103636,-0.0423946,-0.214177,-1.17656e-05,0,
1,0.0924701,-0.0423645,-0.214308,6.48091e-06,0,
1,0.0823633,-0.0422723,-0.214424,2.17347e-05,0,
1,0.0732406,-0.0421176,-0.214525,3.44128e-05,0,
1,0.0650269,-0.0418996,-0.214613,4.48712e-05,0,
1,0.057648,-0.0416164,-0.214689,5.34088e-05,0,
1,0.0510323,-0.0412654,-0.214754,6.02718e-05,0,
1,0.0451115,-0.0408424,-0.214809,6.56587e-05,0,
1,0.0398209,-0.0403415,-0.214856,6.97227e-05,0,
1,0.0351001,-0.0397544,-0.214896,7.25721e-05,0,
1,0.0308929,-0.0390695,-0.214929,7.42666e-05,0,
1,0.0271475,-0.0382705,-0.214956,7.48073e-05,0,
1,0.0238164,-0.0373345,-0.214979,7.41184e-05,0,
1,0.0208562,-0.0362297,-0.214997,7.20188e-05,0,
1,0.0182274,-0.0349125,-0.215011,6.81845e-05,0,
1,0.0158944,-0.0333255,-0.215022,6.21417e-05,0,
1,0.0138249,-0.031401,-0.21503,5.34102e-05,0,
1,0.0119898,-0.0290812,-0.215035,4.20157e-05,0,
1,0.0103632,-0.0263626,-0.215039,2.92583e-05,0,
1,0.00892169,-0.0233481,-0.215041,1.76409e-05,0,
1,0.00764438,-0.0202393,-0.215042,9.22219e-06,0,
1,0.00651264,-0.0172465,-0.215042,4.26947e-06,0,
1,0.00550983,-0.0145043,-0.215043,1.79487e-06,0,
1,0.00462115,-0.0120616,-0.215043,6.96118e-07,0,
1,0.00383341,-0.00991436,-0.215044,2.49601e-07,0,
1,0.0031349,-0.00803622,-0.215044,8.18191e-08,0,
1,0.00251518,-0.0063948,-0.215045,2.39191e-08,0,
1,0.00196502,-0.00495883,-0.215044,5.97588e-09,0,
1,0.00147619,-0.00370029,-0.215045,1.18683e-09,0,
1,0.00104139,-0.00259478,-0.215044,1.64372e-10,0,
1,0.000654158,-0.0016213,-0.215046,1.21965e-11,0,
1,0.000308731,-0.000761759,-0.215044,2.65814e-13,0,

4,0,0,-0.208515,0,0,
4,9,0,-0.11046,0,0,
4,8.99969,0.0146357,-0.110459,2.43622e-10,0,
4,8.99934,0.0311803,-0.11046,1.13013e-08,0,
4,8.99894,0.0499015,-0.110459,1.54282e-07,0,
4,8.9985,0.0710816,-0.11046,1.11922e-06,0,
4,8.99799,0.0950055,-0.110459,5.54746e-06,0,
4,8.99742,0.12187,-0.110459,2.09394e-05,0,
4,8.99677,0.151563,-0.110459,6.24738e-05,0,
4,8.99605,0.183347,-0.110459,0.000147985,0,
4,8.99522,0.215805,-0.110459,0.000280083,0,
4,8.99429,0.247374,-0.110459,0.000436662,0,
4,8.99324,0.277012,-0.110459,0.000589299,0,
4,8.99205,0.304387,-0.110458,0.000719335,0,
4,8.9907,0.32959,-0.110458,0.000824541,0,
4,8.98919,0.352792,-0.110458,0.000912877,0,
4,8.98747,0.374186,-0.110457,0.00098611,0,
4,8.98553,0.394042,-0.110456,0.00104397,0,
4,8.98334,0.412645,-0.110455,0.00108995,0,
4,8.98087,0.430221,-0.110454,0.00112879,0,
4,8.97807,0.446938,-0.110453,0.00116163,0,
4,8.97491,0.462938,-0.110451,0.00118976,0,
4,8.97134,0.478339,-0.110449,0.0012142,0,
4,8.96731,0.493241,-0.110447,0.00123566,0,
4,8.96276,0.507727,-0.110445,0.00125468,0,
4,8.95762,0.52187,-0.110442,0.00127165,0,
4,8.95182,0.535729,-0.110439,0.00128683,0,
4,8.94526,0.549357,-0.110436,0.0013004,0,
4,8.93787,0.562799,-0.110432,0.00131245,0,
4,8.92952,0.576094,-0.110427,0.00132301,0,
4,8.92011,0.589274,-0.110423,0.00133207,0,
4,8.90949,0.602367,-0.110417,0.00133957,0,
4,8.89751,0.615398,-0.110412,0.00134542,0,
4,8.88402,0.628386,-0.110406,0.00134949,0,
4,8.86881,0.641349,-0.1104,0.00135164,0,
4,8.85169,0.654301,-0.110393,0.0013517,0,
4,8.83242,0.667255,-0.110387,0.00134949,0,
4,8.81074,0.680223,-0.110381,0.0013448,0,
4,8.78637,0.693216,-0.110376,0.00133739,0,
4,8.75901,0.706245,-0.110372,0.00132696,0,
4,8.7283,0.719322,-0.11037,0.00131329,0,
4,8.69387,0.732466,-0.11037,0.00129683,0,
4,8.65533,0.745718,-0.110375,0.00127472,0,
4,8.61222,0.759134,-0.110386,0.00124902,0,
4,8.56407,0.772775,-0.110403,0.00121922,0,
4,8.5104,0.786716,-0.11043,0.00118456,0,
4,8.45065,0.80106,-0.110469,0.00114393,0,
4,8.38429,0.815947,-0.110522,0.00109564,0,
4,8.31073,0.831562,-0.110595,0.00103723,0,
4,8.22941,0.84814,-0.110691,0.000965182,0,
4,8.13974,0.865938,-0.110817,0.000874978,0,
4,8.04115,0.885146,-0.110976,0.00076229,0,
4,7.93313,0.905665,-0.111174,0.000626456,0,
4,7.81519,0.92677,-0.111411,0.000478506,0,
4,7.68693,0.946901,-0.111701,0.000335032,0,
4,7.54803,0.96401,-0.112047,0.000211803,0,
4,7.39831,0.976375,-0.112458,9.30661e-05,0,
4,7.23771,0.983337,-0.112952,2.81204e-05,0,
4,7.06634,0.985869,-0.113525,4.59909e-06,0,
4,6.88453,0.986007,-0.114178,1.6388e-07,0,
4,6.69275,0.985553,-0.114915,9.98259e-09,0,
4,6.49173,0.985387,-0.115749,5.73862e-08,0,
4,6.28238,0.985628,-0.116692,3.67953e-08,0,
4,6.06579,0.986105,-0.117756,2.02365e-08,0,
4,5.84328,0.986668,-0.118949,1.43727e-08,0,
4,5.61626,0.987261,-0.120282,1.31746e-08,0,
4,5.3863,0.987889,-0.12176,1.3663e-08,0,
4,5.15502,0.98857,-0.123391,1.4849e-08,0,
4,4.92406,0.989321,-0.125179,1.64294e-08,0,
4,4.69507,0.990151,-0.127127,1.8297e-08,0,
4,4.46961,0.991065,-0.129234,2.02784e-08,0,
4,4.24915,0.992041,-0.131497,2.20247e-08,0,
4,4.03501,0.99302,-0.13391,2.32611e-08,0,
4,3.82836,0.993937,-0.136464,2.44852e-08,0,
4,3.63018,0.994816,-0.139146,2.76778e-08,0,
4,3.44125,0.995874,-0.141941,3.73587e-08,0,
4,3.26217,0.997489,-0.144832,1.31749e-07,0,
4,3.09333,0.999897,-0.147801,1.11948e-06,0,
4,2.93497,1.00276,-0.150827,4.53215e-06,0,
4,2.78715,1.00508,-0.153886,7.55065e-06,0,
4,2.64979,1.00561,-0.156951,2.28989e-06,0,
4,2.52268,1.00347,-0.159982,-1.7071e-05,0,
4,2.40551,0.998452,-0.162938,-5.13513e-05,0,
4,2.29789,0.990896,-0.165782,-9.73517e-05,0,
4,2.19939,0.981492,-0.168486,-0.000149838,0,
4,2.10949,0.970998,-0.171031,-0.000203468,0,
4,2.02768,0.960074,-0.173406,-0.000254082,0,
4,1.95343,0.949216,-0.17561,-0.000299185,0,
4,1.88618,0.938754,-0.177644,-0.000337806,0,
4,1.82542,0.928879,-0.179511,-0.000370058,0,
4,1.77062,0.919684,-0.181219,-0.000396656,0,
4,1.72128,0.911194,-0.182777,-0.000418533,0,
4,1.67693,0.903398,-0.184192,-0.000436606,0,
4,1.63713,0.896264,-0.185475,-0.000451649,0,
4,1.60144,0.889751,-0.186634,-0.000464219,0,
4,1.56949,0.883816,-0.187679,-0.000474666,0,
4,1.54091,0.878418,-0.188619,-0.000484163,0,
4,1.51537,0.873498,-0.189465,-0.000492607,0,
4,1.49167,0.868857,-0.190251,-0.000499115,0,
4,1.46926,0.864395,-0.190999,-0.00050492,0,
4,1.44801,0.860089,-0.191709,-0.000510257,0,
4,1.42781,0.855919,-0.192387,-0.000514957,0,
4,1.40855,0.851869,-0.193034,-0.000519045,0,
4,1.39015,0.847923,-0.193654,-0.000522567,0,
4,1.37252,0.844065,-0.194249,-0.000525601,0,
4,1.3556,0.840281,-0.194822,-0.000528278,0,
4,1.3393,0.836554,-0.195374,-0.000530812,0,
4,1.32357,0.832867,-0.195907,-0.000533528,0,
4,1.30836,0.8292,-0.196422,-0.000536909,0,
4,1.29362,0.82553,-0.196922,-0.000541634,0,
4,1.2793,0.821828,-0.197407,-0.000548639,0,
4,1.26537,0.818058,-0.197879,-0.00055924,0,
4,1.25179,0.814172,-0.198339,-0.000575088,0,
4,1.23852,0.810112,-0.198787,-0.000598344,0,
4,1.22554,0.8058,-0.199224,-0.000631699,0,
4,1.21282,0.80114,-0.199651,-0.000678349,0,
4,1.20034,0.796015,-0.200067,-0.00074187,0,
4,1.18806,0.790291,-0.200473,-0.000825938,0,
4,1.17599,0.783826,-0.200869,-0.000933867,0,
4,1.16408,0.776483,-0.201253,-0.00106802,0,
4,1.15233,0.76816,-0.201627,-0.00122922,0,
4,1.14073,0.758801,-0.201988,-0.00141626,0,
4,1.12925,0.748412,-0.202337,-0.00162588,0,
4,1.11788,0.737055,-0.202673,-0.00185301,0,
4,1.10661,0.724842,-0.202996,-0.00209153,0,
4,1.09543,0.711909,-0.203305,-0.002335,0,
4,1.08432,0.698402,-0.203601,-0.00257739,0,
4,1.07328,0.684462,-0.203884,-0.00281352,0,
4,1.0623,0.670215,-0.204153,-0.00303937,0,
4,1.05136,0.655768,-0.20441,-0.00325186,0,
4,1.04044,0.641187,-0.204654,-0.00344901,0,
4,1.0295,0.626517,-0.204887,-0.00362983,0,
4,1.01855,0.611815,-0.205109,-0.00379359,0,
4,1.00757,0.59712,-0.20532,-0.00393988,0,
4,0.996544,0.582465,-0.205521,-0.00406867,0,
4,0.98547,0.567872,-0.205712,-0.0041802,0,
4,0.974334,0.553354,-0.205893,-0.00427487,0,
4,0.963124,0.538921,-0.206065,-0.00435321,0,
4,0.951826,0.524575,-0.206228,-0.0044158,0,
4,0.940428,0.510315,-0.206383,-0.00446329,0,
4,0.928915,0.496139,-0.20653,-0.00449633,0,
4,0.917272,0.482038,-0.206669,-0.00451586,0,
4,0.905481,0.468003,-0.2068,-0.00452199,0,
4,0.893524,0.454017,-0.206925,-0.00451567,0,
4,0.881383,0.440065,-0.207043,-0.00449773,0,
4,0.869035,0.426126,-0.207154,-0.00446892,0,
4,0.856459,0.41218,-0.207259,-0.00443004,0,
4,0.843629,0.398202,-0.207359,-0.00438195,0,
4,0.830518,0.384166,-0.207453,-0.00432557,0,
4,0.817097,0.370041,-0.207543,-0.00426195,0,
4,0.803334,0.355793,-0.207627,-0.00419217,0,
4,0.789195,0.341381,-0.207708,-0.00411796,0,
4,0.774643,0.326759,-0.207785,-0.00404098,0,
4,0.759639,0.311871,-0.207859,-0.00396339,0,
4,0.744138,0.296651,-0.207932,-0.00388788,0,
4,0.728096,0.281017,-0.208005,-0.00381768,0,
4,0.711463,0.26487,-0.20808,-0.00375664,0,
4,0.694189,0.24809,-0.208159,-0.00370912,0,
4,0.676218,0.230537,-0.208247,-0.0036796,0,
4,0.657495,0.212055,-0.208348,-0.00367196,0,
4,0.637962,0.192486,-0.208468,-0.00368628,0,
4,0.617561,0.171725,-0.20861,-0.00372336,0,
4,0.596848,0.150338,-0.208777,-0.00378086,0,
4,0.576557,0.129172,-0.208953,-0.00384479,0,
4,0.556564,0.108305,-0.209177,-0.00392297,0,
4,0.536763,0.0875874,-0.209298,-0.0039568,0,
4,0.517057,0.0666511,-0.209301,-0.00396184,0,
4,0.497368,0.0452589,-0.209351,-0.00398864,0,
4,0.477632,0.0234812,-0.209423,-0.0040284,0,
4,0.457804,0.00161264,-0.209525,-0.00406851,0,
4,0.437857,-0.0198821,-0.209648,-0.00409681,0,
4,0.417786,-0.040418,-0.209787,-0.00410345,0,
4,0.397605,-0.0594074,-0.209935,-0.00408477,0,
4,0.377348,-0.0764611,-0.2101,-0.00404432,0,
4,0.357066,-0.0916383,-0.210248,-0.00395131,0,
4,0.336828,-0.105365,-0.210362,-0.00377005,0,
4,0.316717,-0.117905,-0.210457,-0.00360376,0,
4,0.296825,-0.1293,-0.210532,-0.00342134,0,
4,0.27725,-0.139602,-0.210582,-0.00322542,0,
4,0.258095,-0.148878,-0.210609,-0.00301968,0,
4,0.239458,-0.157202,-0.210609,-0.00280762,0,
4,0.221432,-0.164653,-0.210585,-0.00259262,0,
4,0.2041,-0.17131,-0.210536,-0.00237776,0,
4,0.187537,-0.177248,-0.210465,-0.00216572,0,
4,0.171798,-0.182539,-0.210374,-0.0019588,0,
4,0.156928,-0.187248,-0.210267,-0.00175884,0,
4,0.142956,-0.191434,-0.210147,-0.0015673,0,
4,0.129894,-0.195149,-0.210019,-0.00138522,0,
4,0.117744,-0.198438,-0.209886,-0.00121331,0,
4,0.106492,-0.20134,-0.209752,-0.00105196,0,
4,0.0961173,-0.203887,-0.20962,-0.000901334,0,
4,0.0865883,-0.206106,-0.209493,-0.000761363,0,
4,0.0778675,-0.208022,-0.209373,-0.000631827,0,
4,0.0699123,-0.209651,-0.209261,-0.000512382,0,
4,0.062677,-0.211007,-0.209158,-0.000402593,0,
4,0.056114,-0.212102,-0.209065,-0.000301967,0,
4,0.0501747,-0.21294,-0.208981,-0.000209979,0,
4,0.0448114,-0.213524,-0.208907,-0.000126094,0,
4,0.039977,-0.213851,-0.208841,-4.97892e-05,0,
4,0.0356266,-0.213914,-0.208784,1.94293e-05,0,
4,0.0317171,-0.213696,-0.208734,8.20031e-05,0,
4,0.0282081,-0.213177,-0.208692,0.0001383,0,
4,0.0250617,-0.212323,-0.208656,0.000188579,0,
4,0.0222427,-0.211089,-0.208625,0.000232949,0,
4,0.0197189,-0.209407,-0.2086,0.0002713,0,
4,0.0174603,-0.20719,-0.208579,0.000303202,0,
4,0.0154398,-0.204312,-0.208562,0.00032777,0,
4,0.0136326,-0.200608,-0.208549,0.000343511,0,
4,0.0120162,-0.195859,-0.208539,0.000348226,0,
4,0.0105703,-0.189796,-0.208531,0.000339203,0,
4,0.00927657,-0.182125,-0.208526,0.00031399,0,
4,0.00811839,-0.172592,-0.208522,0.000271974,0,
4,0.0070809,-0.161093,-0.20852,0.000216332,0,
4,0.0061507,-0.147795,-0.208518,0.00015496,0,
4,0.00531578,-0.133179,-0.208517,9.84421e-05,0,
4,0.00456537,-0.117934,-0.208517,5.51127e-05,0,
4,0.00388979,-0.10274,-0.208517,2.72606e-05,0,
4,0.00328037,-0.0880917,-0.208516,1.19762e-05,0,
4,0.00272934,-0.0742542,-0.208516,4.67084e-06,0,
4,0.0022297,-0.0613194,-0.208516,1.59537e-06,0,
4,0.00177519,-0.0492779,-0.208516,4.61252e-07,0,
4,0.00136016,-0.038072,-0.208515,1.05583e-07,0,
4,0.000979511,-0.0276245,-0.208516,1.68255e-08,0,
4,0.00062865,-0.0178524,-0.208515,1.42937e-09,0,
4,0.000303409,-0.00867232,-0.208516,3.46952e-11,0,

6,0,0,-0.080555,0,0,
6,9,0,-0.0869914,0,0,
6,8.99969,0.0138818,-0.0869911,2.04633e-10,0,
6,8.99934,0.0295359,-0.0869913,9.44402e-09,0,
6,8.99895,0.0472063,-0.086991,1.28026e-07,0,
6,8.9985,0.0671503,-0.0869913,9.223e-07,0,
6,8.99801,0.0896308,-0.086991,4.54784e-06,0,
6,8.99744,0.114844,-0.0869912,1.7156e-05,0,
6,8.99681,0.142739,-0.0869909,5.15724e-05,0,
6,8.99609,0.172736,-0.086991,0.000124312,0,
6,8.99529,0.203617,-0.0869908,0.000241117,0,
6,8.99438,0.233919,-0.0869908,0.000385515,0,
6,8.99336,0.262558,-0.0869904,0.000531021,0,
6,8.9922,0.289073,-0.0869903,0.000660705,0,
6,8.9909,0.313499,-0.0869898,0.00076459,0,
6,8.98944,0.336007,-0.0869894,0.000852451,0,
6,8.98779,0.356768,-0.0869888,0.000926155,0,
6,8.98593,0.376033,-0.0869881,0.000984553,0,
6,8.98383,0.39407,-0.0869872,0.00103215,0,
6,8.98147,0.411087,-0.0869862,0.00107246,0,
6,8.97881,0.427251,-0.0869849,0.00110691,0,
6,8.97581,0.442702,-0.0869835,0.00113683,0,
6,8.97244,0.457557,-0.0869817,0.00116322,0,
6,8.96863,0.471918,-0.0869796,0.00118684,0,
6,8.96435,0.485869,-0.0869772,0.00120824,0,
6,8.95953,0.499482,-0.0869744,0.00122783,0,
6,8.95409,0.512822,-0.0869712,0.00124589,0,
6,8.94798,0.525942,-0.0869675,0.00126261,0,
6,8.94109,0.538889,-0.0869633,0.00127807,0,
6,8.93334,0.551705,-0.0869584,0.00129232,0,
6,8.92463,0.564425,-0.086953,0.00130533,0,
6,8.91482,0.577081,-0.0869468,0.00131701,0,
6,8.90379,0.589698,-0.08694,0.00132723,0,
6,8.89139,0.602299,-0.0869324,0.00133584,0,
6,8.87746,0.614902,-0.086924,0.00134263,0,
6,8.86181,0.627523,-0.0869148,0.00134738,0,
6,8.84423,0.640173,-0.0869048,0.00134984,0,
6,8.82452,0.652861,-0.0868941,0.00134975,0,
6,8.80241,0.665595,-0.0868827,0.00134685,0,
6,8.77763,0.678381,-0.0868708,0.00134085,0,
6,8.74989,0.691225,-0.0868584,0.00133152,0,
6,8.71885,0.704135,-0.086846,0.00131933,0,
6,8.68417,0.717136,-0.0868342,0.00130252,0,
6,8.64545,0.730271,-0.0868233,0.0012807,0,
6,8.60229,0.743581,-0.0868141,0.00125509,0,
6,8.55423,0.757106,-0.0868071,0.00122524,0,
6,8.50082,0.770899,-0.0868033,0.00119054,0,
6,8.44155,0.785044,-0.0868037,0.00115008,0,
6,8.37592,0.799661,-0.08681,0.00110249,0,
6,8.30339,0.814923,-0.086824,0.00104573,0,
6,8.22344,0.831067,-0.0868482,0.000976828,0,
6,8.13555,0.848377,-0.086883,0.000891854,0,
6,8.0392,0.867112,-0.0869307,0.000786802,0,
6,7.93391,0.887282,-0.0869856,0.000660475,0,
6,7.81927,0.90829,-0.0870524,0.000521597,0,
6,7.6949,0.928693,-0.0871196,0.000384198,0,
6,7.56054,0.94651,-0.0872074,0.000262092,0,
6,7.41603,0.960115,-0.0872968,0.0001497,0,
6,7.26132,0.968807,-0.0874078,5.90163e-05,0,
6,7.09653,0.972972,-0.0875442,1.51977e-05,0,
6,6.92195,0.974029,-0.0876892,1.28282e-06,0,
6,6.73802,0.973688,-0.0878467,-6.11545e-07,0,
6,6.5454,0.973139,-0.0880142,-2.43355e-07,0,
6,6.34489,0.972848,-0.088194,-2.81542e-08,0,
6,6.1375,0.972815,-0.0883869,8.46698e-09,0,
6,5.92439,0.972901,-0.0885934,6.47546e-09,0,
6,5.70687,0.973003,-0.0888127,3.26244e-09,0,
6,5.48633,0.973083,-0.0890434,1.89012e-09,0,
6,5.26426,0.973143,-0.0892832,1.39155e-09,0,
6,5.04218,0.973193,-0.0895294,1.25599e-09,0,
6,4.82159,0.973247,-0.0897784,1.30772e-09,0,
6,4.60398,0.973316,-0.090026,1.39674e-09,0,
6,4.39071,0.973395,-0.0902677,1.21207e-09,0,
6,4.18307,0.973445,-0.0904987,3.00151e-10,0,
6,3.98218,0.973398,-0.0907139,-1.56754e-09,0,
6,3.78902,0.9732,-0.0909083,-3.76709e-09,0,
6,3.60438,0.9729,-0.0910776,-5.00973e-09,0,
6,3.42888,0.972707,-0.0912179,-1.38019e-09,0,
6,3.26296,0.972926,-0.0913259,9.79006e-08,0,
6,3.10691,0.973755,-0.0913984,7.19388e-07,0,
6,2.96084,0.975062,-0.0914341,2.15071e-06,0,
6,2.82473,0.976348,-0.0914346,2.75571e-06,0,
6,2.69844,0.976933,-0.0914033,-9.53556e-07,0,
6,2.58172,0.976216,-0.0913436,-1.19478e-05,0,
6,2.47424,0.97385,-0.0912584,-3.13447e-05,0,
6,2.37559,0.969786,-0.0911513,-5.85402e-05,0,
6,2.28535,0.964222,-0.0910261,-9.17869e-05,0,
6,2.20301,0.9575,-0.0908873,-0.000128812,0,
6,2.1281,0.950008,-0.0907391,-0.000167342,0,
6,2.06009,0.942112,-0.0905854,-0.000205454,0,
6,1.99849,0.934119,-0.0904299,-0.000241736,0,
6,1.9428,0.926264,-0.0902755,-0.000275301,0,
6,1.89255,0.91871,-0.0901247,-0.000305714,0,
6,1.84728,0.911564,-0.0899792,-0.000332871,0,
6,1.80655,0.904887,-0.0898405,-0.000356795,0,
6,1.76996,0.898708,-0.0897093,-0.000377479,0,
6,1.73712,0.893038,-0.0895865,-0.000396348,0,
6,1.70768,0.887835,-0.089472,-0.000413492,0,
6,1.67998,0.882859,-0.089361,-0.000428016,0,
6,1.65329,0.878003,-0.0892504,-0.000441503,0,
6,1.62754,0.873256,-0.0891406,-0.000454274,0,
6,1.60265,0.868611,-0.0890315,-0.000466161,0,
6,1.57854,0.864062,-0.0889231,-0.00047721,0,
6,1.55515,0.859602,-0.0888154,-0.00048747,0,
6,1.53242,0.855225,-0.0887083,-0.000496983,0,
6,1.5103,0.850922,-0.0886019,-0.000505783,0,
6,1.48874,0.846688,-0.088496,-0.000513895,0,
6,1.46769,0.842515,-0.0883906,-0.000521336,0,
6,1.44712,0.838398,-0.0882856,-0.000528117,0,
6,1.42698,0.834329,-0.0881811,-0.000534244,0,
6,1.40725,0.830302,-0.0880769,-0.000539722,0,
6,1.38788,0.826312,-0.0879731,-0.000544563,0,
6,1.36886,0.822352,-0.0878695,-0.000548787,0,
6,1.35015,0.818415,-0.0877662,-0.000552439,0,
6,1.33173,0.814494,-0.087663,-0.000555599,0,
6,1.31357,0.810581,-0.08756,-0.000558397,0,
6,1.29566,0.806667,-0.0874571,-0.000561037,0,
6,1.27797,0.80274,-0.0873544,-0.000563828,0,
6,1.26048,0.798784,-0.0872517,-0.000567212,0,
6,1.24318,0.794782,-0.087149,-0.000571814,0,
6,1.22605,0.790708,-0.0870464,-0.000578495,0,
6,1.20907,0.78653,-0.0869438,-0.000588396,0,
6,1.19223,0.782205,-0.0868412,-0.000603035,0,
6,1.17551,0.777678,-0.0867385,-0.000624396,0,
6,1.1589,0.772877,-0.0866357,-0.000654854,0,
6,1.14238,0.767713,-0.0865328,-0.000697315,0,
6,1.12595,0.762074,-0.0864298,-0.000755104,0,
6,1.10959,0.755833,-0.0863267,-0.000831769,0,
6,1.09329,0.748851,-0.0862237,-0.00093078,0,
6,1.07704,0.74099,-0.0861211,-0.00105507,0,
6,1.06081,0.732128,-0.0860192,-0.00120652,0,
6,1.04459,0.722175,-0.0859187,-0.00138555,0,
6,1.02836,0.711095,-0.0858202,-0.00159085,0,
6,1.01211,0.698902,-0.0857246,-0.00181941,0,
6,0.99583,0.685655,-0.0856329,-0.00206692,0,
6,0.97951,0.671445,-0.085546,-0.00232839,0,
6,0.963136,0.65638,-0.0854646,-0.00259866,0,
6,0.946694,0.640573,-0.0853895,-0.0028728,0,
6,0.930172,0.624133,-0.0853211,-0.00314637,0,
6,0.913555,0.607162,-0.0852596,-0.00341552,0,
6,0.896829,0.589751,-0.0852051,-0.00367643,0,
6,0.879979,0.571984,-0.0851577,-0.00392537,0,
6,0.862989,0.553939,-0.085117,-0.00415799,0,
6,0.845842,0.535695,-0.085083,-0.00436923,0,
6,0.828521,0.517336,-0.0850552,-0.00455175,0,
6,0.811008,0.498964,-0.0850305,-0.00469891,0,
6,0.793282,0.480685,-0.0850278,-0.0048311,0,
6,0.775322,0.462403,-0.0849325,-0.00487129,0,
6,0.757107,0.443861,-0.0847496,-0.00489584,0,
6,0.738612,0.424891,-0.0845901,-0.00493567,0,
6,0.719813,0.405428,-0.0844364,-0.00499039,0,
6,0.700681,0.385442,-0.0843012,-0.00505943,0,
6,0.681188,0.364918,-0.0841804,-0.00514156,0,
6,0.661304,0.343847,-0.0840748,-0.00523493,0,
6,0.640996,0.322224,-0.0839831,-0.00533714,0,
6,0.620228,0.300053,-0.0839049,-0.00544514,0,
6,0.598964,0.277353,-0.0838404,-0.00555517,0,
6,0.577166,0.254169,-0.0837895,-0.0056627,0,
6,0.554791,0.230581,-0.0837532,-0.00576247,0,
6,0.531799,0.206703,-0.0837302,-0.00584853,0,
6,0.508144,0.182666,-0.0837189,-0.00591443,0,
6,0.48378,0.158593,-0.0837137,-0.0059537,0,
6,0.459585,0.135367,-0.0837095,-0.00595939,0,
6,0.436695,0.114031,-0.0837116,-0.00592942,0,
6,0.414961,0.0945526,-0.0837358,-0.00586604,0,
6,0.394252,0.077018,-0.0838077,-0.00577447,0,
6,0.374445,0.0615937,-0.0839523,-0.00566329,0,
6,0.355433,0.0483719,-0.08419,-0.00554425,0,
6,0.337122,0.0371556,-0.08445,-0.00542361,0,
6,0.319433,0.0273431,-0.0845517,-0.00513509,0,
6,0.3023,0.0184597,-0.0845642,-0.00489351,0,
6,0.28567,0.0103506,-0.0845938,-0.00465976,0,
6,0.269507,0.00292559,-0.0845939,-0.00442189,0,
6,0.253785,-0.00389279,-0.0845762,-0.00418178,0,
6,0.238493,-0.0101701,-0.0845339,-0.00394079,0,
6,0.223631,-0.0159623,-0.0844671,-0.00370033,0,
6,0.209207,-0.0213167,-0.0843745,-0.00346174,0,
6,0.195237,-0.0262742,-0.0842566,-0.0032263,0,
6,0.181744,-0.0308696,-0.0841145,-0.00299527,0,
6,0.168754,-0.0351332,-0.0839505,-0.00276984,0,
6,0.156292,-0.0390912,-0.0837675,-0.0025511,0,
6,0.144384,-0.0427665,-0.0835693,-0.00234008,0,
6,0.133052,-0.0461793,-0.0833602,-0.00213762,0,
6,0.122315,-0.0493473,-0.0831445,-0.00194445,0,
6,0.112183,-0.0522862,-0.0829265,-0.00176114,0,
6,0.102665,-0.05501,-0.0827104,-0.00158805,0,
6,0.0937597,-0.0575312,-0.0824996,-0.00142543,0,
6,0.0854609,-0.0598612,-0.0822973,-0.00127332,0,
6,0.077757,-0.0620099,-0.0821056,-0.00113166,0,
6,0.0706309,-0.0639866,-0.0819262,-0.00100024,0,
6,0.0640611,-0.0657996,-0.0817602,-0.000878751,0,
6,0.0580229,-0.0674563,-0.0816082,-0.000766801,0,
6,0.0524888,-0.0689635,-0.0814701,-0.00066394,0,
6,0.0474296,-0.0703273,-0.0813457,-0.000569673,0,
6,0.042815,-0.071553,-0.0812344,-0.00048348,0,
6,0.0386145,-0.072645,-0.0811355,-0.000404831,0,
6,0.0347975,-0.073607,-0.0810481,-0.000333199,0,
6,0.0313344,-0.0744416,-0.0809713,-0.000268072,0,
6,0.0281964,-0.0751502,-0.0809041,-0.000208961,0,
6,0.0253561,-0.0757327,-0.0808457,-0.00015541,0,
6,0.0227875,-0.0761874,-0.0807951,-0.000107,0,
6,0.0204662,-0.0765097,-0.0807514,-6.33662e-05,0,
6,0.0183694,-0.0766924,-0.0807142,-2.42023e-05,0,
6,0.016476,-0.0767239,-0.0806823,1.07178e-05,0,
6,0.0147664,-0.0765868,-0.0806556,4.15148e-05,0,
6,0.0132228,-0.0762559,-0.080633,6.81615e-05,0,
6,0.0118288,-0.075695,-0.0806147,9.04173e-05,0,
6,0.0105693,-0.0748524,-0.0805993,0.000107736,0,
6,0.00943073,-0.0736562,-0.0805877,0.00011916,0,
6,0.00840063,-0.0720097,-0.080578,0.000123299,0,
6,0.00746774,-0.0697932,-0.0805717,0.000118639,0,
6,0.00662185,-0.0668835,-0.0805663,0.000104553,0,
6,0.00585371,-0.0632013,-0.0805637,8.28533e-05,0,
6,0.00515491,-0.0587757,-0.0805609,5.82767e-05,0,
6,0.00451788,-0.0537699,-0.0805606,3.63376e-05,0,
6,0.00393573,-0.0484263,-0.0805588,2.02711e-05,0,
6,0.00340221,-0.042974,-0.0805594,1.02355e-05,0,
6,0.00291168,-0.0375729,-0.0805578,4.70449e-06,0,
6,0.00245897,-0.0323117,-0.0805589,1.9576e-06,0,
6,0.00203939,-0.0272279,-0.0805571,7.23038e-07,0,
6,0.00164864,-0.0223282,-0.0805586,2.27941e-07,0,
6,0.00128281,-0.0176024,-0.0805565,5.71577e-08,0,
6,0.000938257,-0.0130318,-0.0805584,9.9942e-09,0,
6,0.000611645,-0.00859251,-0.0805558,9.28529e-10,0,
6,0.000299862,-0.00425809,-0.0805584,2.41552e-11,0,

10,0.000296632,0.00778396,0.0288799,-6.73496e-11,0,
10,0.000596102,0.0156472,0.0288815,-2.49844e-09,0,
10,0.000900397,0.0236422,0.0288798,-2.54275e-08,0,
10,0.00121153,0.0318216,0.0288811,-1.36782e-07,0,
10,0.00153158,0.0402382,0.0288797,-5.12174e-07,0,
10,0.00186264,0.0489424,0.0288808,-1.52424e-06,0,
10,0.00220692,0.0579792,0.0288796,-3.87129e-06,0,
10,0.00256668,0.0673814,0.0288804,-8.73891e-06,0,
10,0.00294431,0.0771584,0.0288794,-1.79458e-05,0,
10,0.00334229,0.0872807,0.02888,-3.39444e-05,0,
10,0.00376326,0.0976636,0.0288791,-5.94614e-05,0,
10,0.00421,0.108155,0.0288794,-9.6619e-05,0,
10,0.00468544,0.118545,0.0288783,-0.000145747,0,
10,0.00519274,0.128594,0.0288782,-0.000204633,0,
10,0.00573524,0.138083,0.0288767,-0.000268949,0,
10,0.00631651,0.146858,0.0288759,-0.000333733,0,
10,0.00694041,0.15484,0.0288736,-0.000394908,0,
10,0.00761104,0.162026,0.0288717,-0.000450044,0,
10,0.00833284,0.168461,0.0288683,-0.000498296,0,
10,0.00911058,0.174218,0.0288648,-0.00053993,0,
10,0.0099494,0.179382,0.0288597,-0.000575809,0,
10,0.0108548,0.184037,0.0288543,-0.000607021,0,
10,0.0118329,0.188258,0.0288472,-0.000634651,0,
10,0.0128901,0.192112,0.0288392,-0.000659683,0,
10,0.0140333,0.195658,0.0288295,-0.000682962,0,
10,0.0152702,0.198945,0.0288185,-0.000705199,0,
10,0.0166089,0.202013,0.0288055,-0.00072699,0,
10,0.0180584,0.204897,0.0287908,-0.00074884,0,
10,0.0196282,0.207627,0.0287738,-0.000771184,0,
10,0.0213288,0.210229,0.0287545,-0.000794409,0,
10,0.0231714,0.212722,0.0287325,-0.000818863,0,
10,0.0251682,0.215127,0.0287077,-0.000844873,0,
10,0.0273326,0.217459,0.0286795,-0.000872756,0,
10,0.0296789,0.219733,0.0286479,-0.000902822,0,
10,0.0322227,0.221961,0.0286122,-0.000935385,0,
10,0.0349809,0.224157,0.0285723,-0.000970769,0,
10,0.0379719,0.22633,0.0285274,-0.00100931,0,
10,0.0412155,0.22849,0.0284773,-0.00105137,0,
10,0.0447333,0.230649,0.0284213,-0.00109731,0,
10,0.0485489,0.232815,0.028359,-0.00114755,0,
10,0.0526875,0.234998,0.0282895,-0.00120252,0,
10,0.0571768,0.237206,0.0282124,-0.00126269,0,
10,0.0620466,0.239451,0.0281268,-0.00132857,0,
10,0.0673295,0.241741,0.0280322,-0.00140072,0,
10,0.0730607,0.244087,0.0279277,-0.00147972,0,
10,0.0792784,0.2465,0.0278125,-0.00156624,0,
10,0.0860241,0.248992,0.0276861,-0.00166099,0,
10,0.0933428,0.251576,0.0275475,-0.00176472,0,
10,0.101283,0.254266,0.0273963,-0.00187828,0,
10,0.109899,0.257078,0.0272319,-0.00200256,0,
10,0.119247,0.26003,0.027054,-0.00213852,0,
10,0.12939,0.263142,0.0268624,-0.00228721,0,
10,0.140395,0.266438,0.0266574,-0.0024497,0,
10,0.152337,0.269945,0.0264394,-0.00262716,0,
10,0.165296,0.273696,0.0262097,-0.00282075,0,
10,0.179357,0.277728,0.0259698,-0.00303169,0,
10,0.194615,0.282088,0.0257221,-0.00326111,0,
10,0.211171,0.286828,0.0254698,-0.00351009,0,
10,0.229138,0.292017,0.0252165,-0.0037795,0,
10,0.248635,0.297734,0.0249679,-0.00406988,0,
10,0.269793,0.304081,0.024727,-0.00438126,0,
10,0.292753,0.311182,0.0245057,-0.00471288,0,
10,0.317669,0.31919,0.0242953,-0.00506154,0,
10,0.344708,0.328296,0.0241355,-0.00541583,0,
10,0.372405,0.338142,0.0239665,-0.00577241,0,
10,0.399623,0.348439,0.0239524,-0.00622949,0,
10,0.426397,0.359773,0.0243187,-0.00632017,0,
10,0.452757,0.372898,0.0247455,-0.00639242,0,
10,0.478735,0.387827,0.0249722,-0.00644286,0,
10,0.504358,0.404081,0.0250555,-0.00645769,0,
10,0.529657,0.42108,0.0250382,-0.00642765,0,
10,0.554656,0.438425,0.0249795,-0.00635007,0,
10,0.579382,0.455956,0.0249068,-0.00622624,0,
10,0.603859,0.473666,0.0248328,-0.00605842,0,
10,0.628112,0.491611,0.0247553,-0.00584854,0,
10,0.652163,0.50983,0.0246684,-0.00559825,0,
10,0.676035,0.528313,0.0245656,-0.00530952,0,
10,0.699751,0.546982,0.0244422,-0.00498562,0,
10,0.72333,0.565679,0.0242952,-0.00463256,0,
10,0.746795,0.584134,0.0241201,-0.00427463,0,
10,0.770165,0.602024,0.0239184,-0.00392283,0,
10,0.79346,0.619117,0.0236986,-0.00357902,0,
10,0.816699,0.635324,0.023465,-0.00324459,0,
10,0.839903,0.650645,0.023219,-0.00292265,0,
10,0.863088,0.665091,0.0229593,-0.00261738,0,
10,0.886275,0.678647,0.0226851,-0.00233319,0,
10,0.909481,0.691276,0.0223963,-0.00207394,0,
10,0.932723,0.702945,0.0220938,-0.00184234,0,
10,0.956021,0.713648,0.0217791,-0.00163958,0,
10,0.97939,0.723416,0.0214536,-0.00146535,0,
10,1.00285,0.73231,0.0211184,-0.00131814,0,
10,1.02641,0.740414,0.0207744,-0.00119556,0,
10,1.0501,0.747827,0.0204226,-0.00109462,0,
10,1.07392,0.754656,0.0200634,-0.00101205,0,
10,1.0979,0.761008,0.0196974,-0.000944599,0,
10,1.12205,0.766982,0.019325,-0.000889276,0,
10,1.14639,0.772669,0.0189465,-0.000843498,0,
10,1.17093,0.778145,0.018562,-0.000805114,0,
10,1.19568,0.783471,0.0181715,-0.000772352,0,
10,1.22066,0.788694,0.017775,-0.000743759,0,
10,1.24589,0.793849,0.0173726,-0.000718195,0,
10,1.27137,0.79896,0.0169637,-0.00069501,0,
10,1.29713,0.804041,0.0165482,-0.000674014,0,
10,1.32317,0.809101,0.0161262,-0.000654436,0,
10,1.34951,0.814151,0.0156975,-0.000635723,0,
10,1.37616,0.819196,0.0152621,-0.000617505,0,
10,1.40313,0.824239,0.0148196,-0.000599537,0,
10,1.43043,0.829281,0.01437,-0.000581655,0,
10,1.45807,0.83432,0.013913,-0.000563752,0,
10,1.48607,0.839352,0.0134486,-0.000545768,0,
10,1.51444,0.844372,0.0129765,-0.00052767,0,
10,1.54318,0.849375,0.0124966,-0.000509446,0,
10,1.57231,0.854355,0.0120088,-0.000491091,0,
10,1.60184,0.859302,0.011513,-0.00047262,0,
10,1.63178,0.864207,0.0110093,-0.00045418,0,
10,1.66213,0.86906,0.0104973,-0.00043578,0,
10,1.69292,0.873847,0.00997738,-0.000417415,0,
10,1.72416,0.878557,0.00944911,-0.000399091,0,
10,1.75585,0.883175,0.00891292,-0.000380836,0,
10,1.78802,0.887686,0.00836817,-0.000362688,0,
10,1.82067,0.892077,0.00781591,-0.000344697,0,
10,1.85383,0.896332,0.00725491,-0.000326897,0,
10,1.88751,0.900442,0.0066883,-0.000308622,0,
10,1.92173,0.904418,0.00611918,-0.000280689,0,
10,1.95652,0.908243,0.00554108,-0.000252054,0,
10,1.9919,0.911878,0.00495469,-0.00022358,0,
10,2.02791,0.915302,0.00435829,-0.000196465,0,
10,2.06456,0.918505,0.00375438,-0.000170866,0,
10,2.10268,0.921533,0.00312613,-0.000146211,0,
10,2.1443,0.924481,0.00244566,-0.000122699,0,
10,2.18977,0.927304,0.00170545,-0.00010024,0,
10,2.23946,0.929923,0.00090409,-7.89832e-05,0,
10,2.29376,0.932259,3.59869e-05,-5.96008e-05,0,
10,2.35309,0.934238,-0.000900526,-4.262e-05,0,
10,2.4179,0.935793,-0.00190904,-2.84671e-05,0,
10,2.48863,0.936878,-0.00299029,-1.74375e-05,0,
10,2.56575,0.937487,-0.00414549,-9.60013e-06,0,
10,2.64971,0.937662,-0.00537357,-4.72393e-06,0,
10,2.74098,0.937506,-0.00667317,-2.26254e-06,0,
10,2.83997,0.937176,-0.00804108,-1.41631e-06,0,
10,2.94709,0.936866,-0.00947352,-1.30481e-06,0,
10,3.06269,0.936765,-0.0109652,-1.23937e-06,0,
10,3.18706,0.937006,-0.0125102,-9.53122e-07,0,
10,3.3204,0.93762,-0.014101,-5.60803e-07,0,
10,3.46281,0.93853,-0.015729,-2.59051e-07,0,
10,3.61427,0.939594,-0.0173836,-1.06167e-07,0,
10,3.77463,0.940661,-0.0190526,-5.04685e-08,0,
10,3.94358,0.941635,-0.0207225,-3.3582e-08,0,
10,4.12067,0.942489,-0.0223792,-2.76197e-08,0,
10,4.30525,0.943251,-0.0240083,-2.46228e-08,0,
10,4.49655,0.943968,-0.0255966,-2.30627e-08,0,
10,4.6936,0.944671,-0.0271316,-2.27314e-08,0,
10,4.89531,0.945368,-0.0286024,-2.4067e-08,0,
10,5.10047,0.946045,-0.0299997,-2.86094e-08,0,
10,5.30776,0.946684,-0.0313161,-3.98581e-08,0,
10,5.51581,0.947267,-0.0325463,-6.5001e-08,0,
10,5.72323,0.94779,-0.0336866,-1.19327e-07,0,
10,5.92863,0.948278,-0.0347357,-2.4015e-07,0,
10,6.13069,0.948795,-0.0356936,-5.26786e-07,0,
10,6.32816,0.949436,-0.0365624,-1.19089e-06,0,
10,6.51991,0.950239,-0.0373449,-2.32576e-06,0,
10,6.70495,0.950981,-0.0380466,-2.50485e-06,0,
10,6.88244,0.950967,-0.0386704,4.08156e-06,0,
10,7.0517,0.949014,-0.0392234,2.89315e-05,0,
10,7.21224,0.943807,-0.0397046,8.55617e-05,0,
10,7.3637,0.934493,-0.0401227,0.000184223,0,
10,7.5059,0.920891,-0.0404878,0.000295597,0,
10,7.63878,0.903389,-0.0407934,0.000410905,0,
10,7.76243,0.883246,-0.0410502,0.000538044,0,
10,7.87701,0.862319,-0.0412557,0.00066691,0,
10,7.9828,0.842117,-0.0414254,0.000783887,0,
10,8.08014,0.823354,-0.0415603,0.000882094,0,
10,8.16941,0.806081,-0.0416732,0.000962719,0,
10,8.25106,0.790037,-0.0417665,0.0010295,0,
10,8.32554,0.774901,-0.041847,0.00108593,0,
10,8.39331,0.760405,-0.0419157,0.00113439,0,
10,8.45484,0.746363,-0.0419755,0.00117629,0,
10,8.5106,0.732662,-0.0420269,0.00121243,0,
10,8.56104,0.719245,-0.0420715,0.0012433,0,
10,8.60659,0.70609,-0.0421106,0.00126926,0,
10,8.64767,0.693179,-0.0421442,0.00129004,0,
10,8.68467,0.680467,-0.0421731,0.00130286,0,
10,8.71795,0.667915,-0.042199,0.00131282,0,
10,8.74786,0.655514,-0.0422212,0.00131877,0,
10,8.77471,0.643261,-0.0422408,0.00132092,0,
10,8.79881,0.631152,-0.0422578,0.00131964,0,
10,8.8204,0.619181,-0.0422726,0.00131527,0,
10,8.83975,0.60734,-0.0422854,0.00130822,0,
10,8.85708,0.595619,-0.0422966,0.00129887,0,
10,8.87259,0.584005,-0.0423062,0.0012876,0,
10,8.88646,0.572481,-0.0423145,0.00127477,0,
10,8.89886,0.561025,-0.0423216,0.00126069,0,
10,8.90995,0.549615,-0.0423277,0.00124563,0,
10,8.91986,0.538223,-0.0423329,0.00122979,0,
10,8.92872,0.526819,-0.0423374,0.00121335,0,
10,8.93663,0.51537,-0.0423411,0.0011964,0,
10,8.94369,0.50384,-0.0423443,0.00117898,0,
10,8.95,0.492188,-0.0423469,0.00116107,0,
10,8.95564,0.48037,-0.0423492,0.00114259,0,
10,8.96067,0.468338,-0.0423511,0.00112339,0,
10,8.96517,0.456036,-0.0423527,0.00110326,0,
10,8.96918,0.443405,-0.0423539,0.00108187,0,
10,8.97276,0.430375,-0.0423552,0.0010588,0,
10,8.97596,0.416866,-0.0423559,0.0010335,0,
10,8.97882,0.402786,-0.0423569,0.00100526,0,
10,8.98137,0.388026,-0.0423573,0.000973135,0,
10,8.98365,0.37246,-0.042358,0.000935923,0,
10,8.98569,0.355936,-0.0423582,0.000892081,0,
10,8.9875,0.338276,-0.0423588,0.000840151,0,
10,8.98913,0.319244,-0.0423588,0.000773847,0,
10,8.99058,0.298597,-0.0423594,0.0006955,0,
10,8.99188,0.276165,-0.0423592,0.000602757,0,
10,8.99304,0.251777,-0.0423597,0.000488541,0,
10,8.99408,0.225377,-0.0423594,0.000360067,0,
10,8.99501,0.197314,-0.0423599,0.00023083,0,
10,8.99583,0.168478,-0.0423595,0.000123168,0,
10,8.99658,0.140152,-0.0423601,5.31835e-05,0,
10,8.99724,0.113491,-0.0423595,1.84187e-05,0,
10,8.99784,0.0891168,-0.0423602,5.06838e-06,0,
10,8.99837,0.0671573,-0.0423595,1.06352e-06,0,
10,8.99885,0.0474806,-0.0423603,1.52359e-07,0,
10,8.99927,0.0298729,-0.0423594,1.15656e-08,0,
10,8.99966,0.0141153,-0.0423604,2.55847e-10,0,
10,0,0,0.0288819,0,0,
10,9,0,-0.0423593,0,0,

0.004,0,0,-0.211946,0,4.67965e-08,
0.00868226,0,0,-0.211948,0,-2.27576e-07,
0.014062,0,0,-0.211945,0,-5.46489e-07,
0.0201548,0,0,-0.211947,0,-8.53145e-07,
0.0269766,0,0,-0.211943,0,-8.29797e-07,
0.0345437,0,0,-0.211943,0,-1.54515e-07,
0.0428729,0,0,-0.211937,0,1.39628e-06,
0.051981,0,0,-0.211936,0,4.09527e-06,
0.0618853,0,0,-0.211932,0,7.92887e-06,
0.0726036,0,0,-0.211935,0,1.281e-05,
0.0841536,0,0,-0.21194,0,1.83309e-05,
0.0965535,0,0,-0.211952,0,2.40907e-05,
0.109822,0,0,-0.211969,0,2.96253e-05,
0.123977,0,0,-0.211992,0,3.46636e-05,
0.139037,0,0,-0.21202,0,3.90321e-05,
0.155022,0,0,-0.212054,0,4.27184e-05,
0.171949,0,0,-0.212093,0,4.57385e-05,
0.189839,0,0,-0.212138,0,4.81219e-05,
0.208709,0,0,-0.212188,0,4.98401e-05,
0.228579,0,0,-0.212244,0,5.08254e-05,
0.249467,0,0,-0.212307,0,5.09753e-05,
0.271391,0,0,-0.212377,0,5.01856e-05,
0.29437,0,0,-0.212454,0,4.8368e-05,
0.31842,0,0,-0.212537,0,4.54711e-05,
0.343559,0,0,-0.212626,0,4.14881e-05,
0.369804,0,0,-0.212721,0,3.64581e-05,
0.39717,0,0,-0.212821,0,3.04573e-05,
0.425672,0,0,-0.212926,0,2.35865e-05,
0.455324,0,0,-0.213035,0,1.59578e-05,
0.48614,0,0,-0.213148,0,7.68259e-06,
0.518132,0,0,-0.213264,0,-1.13803e-06,
0.551309,0,0,-0.213384,0,-1.04221e-05,
0.585683,0,0,-0.213506,0,-2.01121e-05,
0.621259,0,0,-0.213633,0,-3.01784e-05,
0.658046,0,0,-0.213763,0,-4.06196e-05,
0.696047,0,0,-0.213898,0,-5.14605e-05,
0.735265,0,0,-0.214037,0,-6.27499e-05,
0.7757,0,0,-0.214183,0,-7.45569e-05,
0.817352,0,0,-0.214335,0,-8.69676e-05,
0.860215,0,0,-0.214495,0,-0.000100082,
0.904285,0,0,-0.214664,0,-0.000114012,
0.949552,0,0,-0.214841,0,-0.000128875,
0.996004,0,0,-0.215029,0,-0.000144796,
1.04363,0,0,-0.215228,0,-0.000161896,
1.09241,0,0,-0.215439,0,-0.000180291,
1.14232,0,0,-0.215661,0,-0.000200081,
1.19335,0,0,-0.215894,0,-0.000221337,
1.24546,0,0,-0.216137,0,-0.000244093,
1.29863,0,0,-0.216389,0,-0.000268318,
1.35283,0,0,-0.216647,0,-0.000293887,
1.40802,0,0,-0.216908,0,-0.000320532,
1.46416,0,0,-0.217167,0,-0.000347762,
1.52121,0,0,-0.21742,0,-0.000374768,
1.57913,0,0,-0.217662,0,-0.00040034,
1.63787,0,0,-0.217888,0,-0.00042287,
1.69739,0,0,-0.218092,0,-0.000440598,
1.75761,0,0,-0.218269,0,-0.000452016,
1.81851,0,0,-0.218413,0,-0.000456275,
1.88,0,0,-0.218521,0,-0.000453416,
1.94204,0,0,-0.218597,0,-0.000443961,
2.00457,0,0,-0.218669,0,-0.000428584,
2.06751,0,0,-0.218801,0,-0.000408589,
2.13081,0,0,-0.219042,0,-0.000385571,
2.19439,0,0,-0.219467,0,-0.00036137,
2.25819,0,0,-0.220167,0,-0.000339438,
2.32214,0,0,-0.221211,0,-0.000325201,
2.38617,0,0,-0.222581,0,-0.000323691,
2.4502,0,0,-0.22423,0,-0.00033718,
2.51418,0,0,-0.226107,0,-0.000365548,
2.57803,0,0,-0.228159,0,-0.000407481,
2.64167,0,0,-0.230334,0,-0.000461393,
2.70505,0,0,-0.232577,0,-0.000525838,
2.76808,0,0,-0.234835,0,-0.000599657,
2.83072,0,0,-0.237048,0,-0.000681941,
2.89288,0,0,-0.239153,0,-0.000771918,
2.95451,0,0,-0.24108,0,-0.000868745,
3.01555,0,0,-0.242748,0,-0.000971198,
3.07594,0,0,-0.244067,0,-0.00107732,
3.13561,0,0,-0.244949,0,-0.00118416,
3.19453,0,0,-0.245323,0,-0.00128798,
3.25262,0,0,-0.245144,0,-0.0013848,
3.30985,0,0,-0.24441,0,-0.00147119,
3.36617,0,0,-0.24315,0,-0.0015448,
3.42154,0,0,-0.241424,0,-0.0016046,
3.47591,0,0,-0.239309,0,-0.00165076,
3.52925,0,0,-0.236889,0,-0.00168443,
3.58152,0,0,-0.234244,0,-0.00170732,
3.6327,0,0,-0.231446,0,-0.0017214,
3.68276,0,0,-0.228557,0,-0.00172862,
3.73167,0,0,-0.225623,0,-0.0017307,
3.77941,0,0,-0.222679,0,-0.00172906,
3.82596,0,0,-0.219753,0,-0.00172478,
3.8713,0,0,-0.216862,0,-0.00171863,
3.91543,0,0,-0.214016,0,-0.00171109,
3.95833,0,0,-0.211242,0,-0.00170284,
4,0,0,-0.208515,0,-0.00169396,
4.04167,0,0,-0.205783,0,-0.00168423,
4.08333,0,0,-0.203042,0,-0.00167394,
4.125,0,0,-0.200293,0,-0.00166313,
4.16667,0,0,-0.197539,0,-0.00165186,
4.20833,0,0,-0.194781,0,-0.00164016,
4.25,0,0,-0.192019,0,-0.00162806,
4.29167,0,0,-0.189256,0,-0.00161559,
4.33333,0,0,-0.186491,0,-0.00160278,
4.375,0,0,-0.183725,0,-0.00158963,
4.41667,0,0,-0.18096,0,-0.00157617,
4.45833,0,0,-0.178196,0,-0.0015624,
4.5,0,0,-0.175433,0,-0.00154834,
4.54167,0,0,-0.172672,0,-0.00153399,
4.58333,0,0,-0.169913,0,-0.00151936,
4.625,0,0,-0.167157,0,-0.00150446,
4.66667,0,0,-0.164405,0,-0.00148928,
4.70833,0,0,-0.161656,0,-0.00147383,
4.75,0,0,-0.15891,0,-0.00145809,
4.79167,0,0,-0.156169,0,-0.00144206,
4.83333,0,0,-0.153432,0,-0.00142574,
4.875,0,0,-0.150701,0,-0.00140914,
4.91667,0,0,-0.147975,0,-0.00139225,
4.95833,0,0,-0.145255,0,-0.00137507,
5,0,0,-0.142541,0,-0.00135759,
5.04167,0,0,-0.139834,0,-0.00133982,
5.08333,0,0,-0.137134,0,-0.00132173,
5.125,0,0,-0.134441,0,-0.00130334,
5.16667,0,0,-0.131756,0,-0.00128462,
5.20833,0,0,-0.12908,0,-0.00126559,
5.25,0,0,-0.126412,0,-0.00124624,
5.29167,0,0,-0.123754,0,-0.00122657,
5.33333,0,0,-0.121106,0,-0.00120657,
5.375,0,0,-0.118469,0,-0.00118625,
5.41667,0,0,-0.115842,0,-0.00116559,
5.45833,0,0,-0.113226,0,-0.0011446,
5.5,0,0,-0.110623,0,-0.00112326,
5.54167,0,0,-0.108033,0,-0.00110158,
5.58333,0,0,-0.105456,0,-0.00107957,
5.625,0,0,-0.102893,0,-0.00105723,
5.66667,0,0,-0.100344,0,-0.00103456,
5.70833,0,0,-0.0978107,0,-0.00101157,
5.75,0,0,-0.0952931,0,-0.000988246,
5.79167,0,0,-0.0927919,0,-0.000964591,
5.83333,0,0,-0.0903077,0,-0.000940608,
5.875,0,0,-0.0878414,0,-0.000916307,
5.91667,0,0,-0.0853935,0,-0.000891699,
5.95833,0,0,-0.0829645,0,-0.000866793,
6,0,0,-0.0805552,0,-0.000841597,
6.04167,0,0,-0.078166,0,-0.000816115,
6.08333,0,0,-0.0757974,0,-0.000790347,
6.125,0,0,-0.0734501,0,-0.000764294,
6.16667,0,0,-0.0711247,0,-0.000737963,
6.20833,0,0,-0.0688218,0,-0.000711366,
6.25,0,0,-0.0665421,0,-0.000684519,
6.29167,0,0,-0.0642859,0,-0.000657435,
6.33333,0,0,-0.0620537,0,-0.000630124,
6.375,0,0,-0.0598461,0,-0.000602591,
6.41667,0,0,-0.0576633,0,-0.000574838,
6.45833,0,0,-0.0555059,0,-0.000546869,
6.5,0,0,-0.0533746,0,-0.000518695,
6.54167,0,0,-0.0512696,0,-0.00049033,
6.58333,0,0,-0.0491916,0,-0.00046179,
6.625,0,0,-0.0471407,0,-0.000433092,
6.66667,0,0,-0.0451174,0,-0.000404246,
6.70833,0,0,-0.0431218,0,-0.000375257,
6.75,0,0,-0.0411544,0,-0.000346129,
6.79167,0,0,-0.0392155,0,-0.000316873,
6.83333,0,0,-0.0373055,0,-0.000287501,
6.875,0,0,-0.0354246,0,-0.000258032,
6.91667,0,0,-0.0335731,0,-0.000228481,
6.95833,0,0,-0.031751,0,-0.000198862,
7,0,0,-0.0299586,0,-0.00016918,
7.04167,0,0,-0.0281959,0,-0.000139437,
7.08333,0,0,-0.0264631,0,-0.000109637,
7.125,0,0,-0.0247604,0,-7.97919e-05,
7.16667,0,0,-0.0230881,0,-4.99191e-05,
7.20833,0,0,-0.0214463,0,-2.00336e-05,
7.25,0,0,-0.0198351,0,9.84692e-06,
7.29167,0,0,-0.0182543,0,3.97097e-05,
7.33333,0,0,-0.0167042,0,6.95464e-05,
7.375,0,0,-0.0151845,0,9.93533e-05,
7.41667,0,0,-0.0136954,0,0.00012912,
7.45833,0,0,-0.012237,0,0.000158833,
7.5,0,0,-0.0108092,0,0.000188475,
7.54167,0,0,-0.00941195,0,0.000218038,
7.58333,0,0,-0.00804528,0,0.000247508,
7.625,0,0,-0.00670898,0,0.000276879,
7.66667,0,0,-0.00540293,0,0.000306146,
7.70833,0,0,-0.00412693,0,0.000335311,
7.75,0,0,-0.00288111,0,0.000364367,
7.79167,0,0,-0.00166526,0,0.000393304,
7.83333,0,0,-0.000479774,0,0.000422096,
7.875,0,0,0.000676518,0,0.000450783,
7.91667,0,0,0.00180802,0,0.000479626,
7.95833,0,0,0.00287759,0,0.000507741,
8,0,0,0.00397524,0,0.000535702,
8.04171,0,0,0.0050721,0,0.000564597,
8.08368,0,0,0.00606605,0,0.000593539,
8.12617,0,0,0.00707835,0,0.000621494,
8.16946,0,0,0.00807439,0,0.000649763,
8.21382,0,0,0.00906059,0,0.000678362,
8.25952,0,0,0.0100451,0,0.000707416,
8.30685,0,0,0.011031,0,0.000737125,
8.35611,0,0,0.0120216,0,0.000767653,
8.40762,0,0,0.0130196,0,0.000799163,
8.46168,0,0,0.0140265,0,0.000831803,
8.51865,0,0,0.0150432,0,0.000865713,
8.57889,0,0,0.0160697,0,0.000901028,
8.64276,0,0,0.0171054,0,0.000937881,
8.71067,0,0,0.0181477,0,0.000976375,
8.78306,0,0,0.0191936,0,0.00101658,
8.86037,0,0,0.0202394,0,0.00105853,
8.94309,0,0,0.0212799,0,0.00110224,
9.03174,0,0,0.022309,0,0.00114769,
9.12689,0,0,0.0233196,0,0.00119483,
9.22912,0,0,0.0243035,0,0.00124364,
9.33908,0,0,0.0252512,0,0.0012941,
9.45746,0,0,0.0261516,0,0.00134618,
9.58501,0,0,0.0269894,0,0.00139973,
9.72253,0,0,0.0277498,0,0.00145444,
9.87088,0,0,0.0284203,0,0.00150997,
10.031,0,0,0.0289927,0,0.00156607,
10.2039,0,0,0.0294472,0,0.00162244,
10.3906,0,0,0.0297652,0,0.00167859,
10.5924,0,0,0.0299453,0,0.0017341,
10.8105,0,0,0.0299717,0,0.00178852,
11.0463,0,0,0.0298354,0,0.00184135,
11.3012,0,0,0.0295324,0,0.0018921,
11.5769,0,0,0.0290651,0,0.00194035,
11.8751,0,0,0.0284356,0,0.0019857,
12.1977,0,0,0.0276465,0,0.00202777,
12.5466,0,0,0.0267128,0,0.00206624,
12.9242,0,0,0.0256542,0,0.00210101,
13.3327,0,0,0.024488,0,0.00213194,
13.7748,0,0,0.0232345,0,0.00215906,
14.2532,0,0,0.0219191,0,0.00218244,
14.7709,0,0,0.0205697,0,0.00220226,
15.3312,0,0,0.0192123,0,0.00221877,
15.9377,0,0,0.017872,0,0.00223225,
16.594,0,0,0.0165735,0,0.00224306,
17.3044,0,0,0.0153364,0,0.00225153,
18.0733,0,0,0.0141785,0,0.00225815,
18.9056,0,0,0.0131102,0,0.00226325,
19.8064,0,0,0.0121381,0,0.00226707,
20.7816,0,0,0.0112621,0,0.00226957,
21.8371,0,0,0.0104797,0,0.00227103,
22.9796,0,0,0.00977983,0,0.00227198,
24.2163,0,0,0.00914577,0,0.00227277,
25.5551,0,0,0.00855823,0,0.00227388,
27.0042,0,0,0.00799306,0,0.0022754,
28.5729,0,0,0.00742861,0,0.00227754,
30.271,0,0,0.00684522,0,0.00228053,
32.1091,0,0,0.0062307,0,0.00228447,
34.0989,0,0,0.00558457,0,0.00228967,
36.2529,0,0,0.00489097,0,0.00229605,
38.5845,0,0,0.00412403,0,0.00230325,
41.1085,0,0,0.00329155,0,0.00231097,
43.8407,0,0,0.00223985,0,0.00231692,
46.7983,0,0,0.0011487,0,0.0023189,
50,0,0,0.00203608,0,0.00233105,

