a526b61f86f7551947b2c5a89c9b503d1aba81f8 
X,Z,x_velocity,cp,uw_b,cf,
1,0,0,-0.241417,0,0,
1,9,0,-0.122196,0,0,
1,8.99969,0.0165061,-0.122196,4.1689e-10,0,
1,8.99934,0.0352317,-0.122196,1.94848e-08,0,
1,8.99894,0.056494,-0.122196,2.68666e-07,0,
1,8.99848,0.0806248,-0.122196,1.96628e-06,0,
1,8.99797,0.107937,-0.122196,9.77738e-06,0,
1,8.99739,0.138561,-0.122196,3.65469e-05,0,
1,8.99672,0.172076,-0.122195,0.000105729,0,
1,8.99597,0.207114,-0.122196,0.000237578,0,
1,8.99512,0.241551,-0.122195,0.000422736,0,
1,8.99416,0.273454,-0.122195,0.000630494,0,
1,8.99306,0.302363,-0.122195,0.000788253,0,
1,8.99182,0.328625,-0.122195,0.000914729,0,
1,8.99041,0.352545,-0.122194,0.00101679,0,
1,8.98881,0.374448,-0.122194,0.00109785,0,
1,8.98699,0.394684,-0.122193,0.00116265,0,
1,8.98494,0.413623,-0.122193,0.00121145,0,
1,8.98261,0.431593,-0.122192,0.0012487,0,
1,8.97996,0.448791,-0.122191,0.001282,0,
1,8.97696,0.465332,-0.12219,0.00131054,0,
1,8.97356,0.481313,-0.122189,0.00133522,0,
1,8.9697,0.496818,-0.122187,0.00135679,0,
1,8.96533,0.511919,-0.122185,0.0013758,0,
1,8.96038,0.526677,-0.122183,0.00139269,0,
1,8.95476,0.541148,-0.122181,0.00140775,0,
1,8.9484,0.555376,-0.122179,0.00142122,0,
1,8.9412,0.569404,-0.122176,0.00143322,0,
1,8.93303,0.583265,-0.122173,0.00144385,0,
1,8.92379,0.596991,-0.122169,0.00145313,0,
1,8.91333,0.610608,-0.122165,0.00146104,0,
1,8.90149,0.624138,-0.122161,0.00146754,0,
1,8.8881,0.637601,-0.122157,0.00147254,0,
1,8.87295,0.651013,-0.122153,0.00147591,0,
1,8.85584,0.664389,-0.122149,0.00147753,0,
1,8.83651,0.67774,-0.122145,0.00147721,0,
1,8.81469,0.691077,-0.122142,0.00147477,0,
1,8.79007,0.704409,-0.12214,0.00147,0,
1,8.76232,0.717744,-0.12214,0.00146264,0,
1,8.73107,0.731091,-0.122142,0.00145245,0,
1,8.69591,0.744459,-0.122147,0.00143911,0,
1,8.6564,0.757857,-0.122158,0.0014223,0,
1,8.61206,0.771295,-0.122175,0.00140163,0,
1,8.56236,0.784785,-0.122199,0.00137663,0,
1,8.50675,0.798336,-0.122235,0.00134725,0,
1,8.44464,0.811962,-0.122285,0.00131414,0,
1,8.3754,0.825698,-0.122353,0.00128474,0,
1,8.29839,0.839741,-0.12245,0.0012556,0,
1,8.21296,0.854629,-0.122577,0.00118824,0,
1,8.11843,0.871005,-0.122741,0.00109348,0,
1,8.01417,0.889237,-0.122955,0.000969125,0,
1,7.89956,0.909311,-0.123228,0.000809969,0,
1,7.77403,0.930627,-0.12356,0.000622425,0,
1,7.63711,0.951793,-0.123992,0.000432695,0,
1,7.48842,0.97083,-0.124504,0.000212768,0,
1,7.32773,0.985107,-0.125109,7.41264e-05,0,
1,7.15495,0.992917,-0.125831,1.55533e-05,0,
1,6.97022,0.995317,-0.126668,1.2147e-06,0,
1,6.77388,0.995087,-0.127635,1.17155e-08,0,
1,6.56652,0.994555,-0.128749,9.49744e-09,0,
1,6.34896,0.994625,-0.130026,1.19874e-08,0,
1,6.12229,0.995217,-0.131479,1.38662e-08,0,
1,5.88784,0.996025,-0.133124,1.51929e-08,0,
1,5.64716,0.996889,-0.134976,1.61435e-08,0,
1,5.40194,0.997798,-0.137049,1.738e-08,0,
1,5.15407,0.998791,-0.139354,1.90659e-08,0,
1,4.90545,0.999893,-0.141899,2.11256e-08,0,
1,4.65805,1.00111,-0.144688,2.33727e-08,0,
1,4.41376,1.00244,-0.147721,2.55464e-08,0,
1,4.17441,1.00384,-0.150992,2.75029e-08,0,
1,3.94163,1.00524,-0.154489,2.9609e-08,0,
1,3.7169,1.0067,-0.158193,3.36132e-08,0,
1,3.50146,1.00845,-0.162082,4.19288e-08,0,
1,3.29629,1.01091,-0.166134,5.41129e-08,0,
1,3.10217,1.0141,-0.170329,7.43032e-08,0,
1,2.91959,1.01693,-0.174633,6.9631e-07,0,
1,2.74885,1.01713,-0.178985,-4.9167e-07,0,
1,2.59002,1.01265,-0.183309,-2.7437e-05,0,
1,2.44299,1.00307,-0.187527,-9.83204e-05,0,
1,2.30752,0.989537,-0.191543,-0.00020827,0,
1,2.18321,0.973672,-0.195364,-0.00031836,0,
1,2.06959,0.956984,-0.198975,-0.000397727,0,
1,1.9661,0.940675,-0.202298,-0.000471716,0,
1,1.87215,0.925475,-0.205357,-0.000535131,0,
1,1.78711,0.911598,-0.208157,-0.000586075,0,
1,1.71033,0.898943,-0.210713,-0.000626788,0,
1,1.64119,0.887286,-0.213038,-0.00066093,0,
1,1.57905,0.876393,-0.215144,-0.000691251,0,
1,1.52332,0.866068,-0.217046,-0.000719562,0,
1,1.47342,0.856168,-0.218758,-0.000747233,0,
1,1.42882,0.846604,-0.220297,-0.000775655,0,
1,1.389,0.837324,-0.221679,-0.000806347,0,
1,1.35351,0.828302,-0.222922,-0.000840947,0,
1,1.3219,0.819538,-0.224046,-0.00087925,0,
1,1.29378,0.811065,-0.22502,-0.000900445,0,
1,1.26878,0.802915,-0.225853,-0.00090907,0,
1,1.24659,0.795093,-0.226599,-0.000916514,0,
1,1.22689,0.787599,-0.227256,-0.00092239,0,
1,1.2092,0.780345,-0.227843,-0.00092657,0,
1,1.1932,0.773267,-0.22837,-0.00093215,0,
1,1.1787,0.766311,-0.228843,-0.000944429,0,
1,1.16554,0.75938,-0.229267,-0.000972246,0,
1,1.15357,0.752293,-0.22965,-0.00103133,0,
1,1.14266,0.744772,-0.230001,-0.00114368,0,
1,1.13268,0.736441,-0.230331,-0.00133512,0,
1,1.12354,0.7269,-0.230649,-0.00162961,0,
1,1.11514,0.715866,-0.230964,-0.00204072,0,
1,1.10739,0.703301,-0.231277,-0.0025636,0,
1,1.10022,0.689428,-0.231588,-0.00317093,0,
1,1.09357,0.674649,-0.231896,-0.00382932,0,
1,1.08738,0.65943,-0.232201,-0.00450389,0,
1,1.0816,0.644201,-0.232502,-0.00516404,0,
1,1.07618,0.629292,-0.232797,-0.00578832,0,
1,1.07107,0.614921,-0.233087,-0.00636471,0,
1,1.06626,0.601211,-0.233371,-0.00688814,0,
1,1.06169,0.588216,-0.233647,-0.00735837,0,
1,1.05735,0.575947,-0.233917,-0.00777788,0,
1,1.05321,0.564381,-0.23418,-0.00815048,0,
1,1.04925,0.553482,-0.234437,-0.00848221,0,
1,1.04544,0.543202,-0.234686,-0.00877611,0,
1,1.04177,0.533482,-0.234926,-0.00903363,0,
1,1.03822,0.52426,-0.235158,-0.00926172,0,
1,1.03478,0.515484,-0.235382,-0.00946402,0,
1,1.03144,0.507105,-0.235599,-0.00964361,0,
1,1.02818,0.499082,-0.23581,-0.00980308,0,
1,1.025,0.491376,-0.236015,-0.00994464,0,
1,1.02188,0.483955,-0.236215,-0.0100702,0,
1,1.01882,0.47679,-0.236409,-0.0101813,0,
1,1.01581,0.469855,-0.2366,-0.0102796,0,
1,1.01284,0.463126,-0.236787,-0.0103651,0,
1,1.00988,0.456512,-0.236973,-0.0104405,0,
1,1.00688,0.449926,-0.23716,-0.0105079,0,
1,1.00384,0.443356,-0.237348,-0.010567,0,
1,1.00076,0.436789,-0.237539,-0.0106177,0,
1,0.997615,0.430209,-0.237734,-0.0106601,0,
1,0.99441,0.423604,-0.237932,-0.0106943,0,
1,0.991131,0.416958,-0.238135,-0.0107201,0,
1,0.987768,0.410254,-0.238345,-0.0107376,0,
1,0.984308,0.403477,-0.238563,-0.0107463,0,
1,0.980739,0.39661,-0.23879,-0.0107467,0,
1,0.977045,0.389633,-0.23902,-0.0107379,0,
1,0.973211,0.382525,-0.239237,-0.0107125,0,
1,0.969219,0.375262,-0.239419,-0.0106924,0,
1,0.965047,0.367798,-0.23955,-0.0106441,0,
1,0.960675,0.360047,-0.239617,-0.0105496,0,
1,0.956077,0.351925,-0.23964,-0.0104511,0,
1,0.951224,0.34337,-0.239651,-0.0103384,0,
1,0.946088,0.334323,-0.239668,-0.0102087,0,
1,0.940633,0.324738,-0.239722,-0.01006,0,
1,0.934823,0.314586,-0.239834,-0.00988792,0,
1,0.928616,0.303875,-0.239999,-0.00968971,0,
1,0.921967,0.292642,-0.240199,-0.00946447,0,
1,0.914826,0.28095,-0.24041,-0.00921349,0,
1,0.907141,0.268863,-0.240614,-0.00893996,0,
1,0.898852,0.256424,-0.240795,-0.00864825,0,
1,0.889898,0.243642,-0.240964,-0.00834095,0,
1,0.880212,0.230503,-0.24115,-0.0080178,0,
1,0.869723,0.216983,-0.241357,-0.00767682,0,
1,0.858358,0.203035,-0.241623,-0.00731621,0,
1,0.846039,0.188513,-0.241987,-0.00686189,0,
1,0.83269,0.173244,-0.242403,-0.0063464,0,
1,0.818232,0.157193,-0.242801,-0.00580678,0,
1,0.802744,0.140595,-0.243171,-0.00524179,0,
1,0.78635,0.123737,-0.243516,-0.00466239,0,
1,0.768969,0.106704,-0.243831,-0.00408038,0,
1,0.75053,0.0896186,-0.244119,-0.00350944,0,
1,0.730977,0.072654,-0.244377,-0.00296473,0,
1,0.710271,0.0560362,-0.244605,-0.00246247,0,
1,0.688397,0.0400482,-0.244798,-0.0020187,0,
1,0.66536,0.0250309,-0.244945,-0.00165558,0,
1,0.641194,0.0112943,-0.245026,-0.00138393,0,
1,0.615961,-0.00105415,-0.245036,-0.00119283,0,
1,0.589754,-0.0121335,-0.244968,-0.00107195,0,
1,0.562692,-0.0221951,-0.244819,-0.000999701,0,
1,0.534925,-0.031502,-0.244598,-0.00096038,0,
1,0.506624,-0.0402476,-0.244312,-0.000939616,0,
1,0.477982,-0.0485451,-0.243975,-0.000927159,0,
1,0.449206,-0.056437,-0.243602,-0.000917989,0,
1,0.420509,-0.0639223,-0.243206,-0.000907653,0,
1,0.392107,-0.0709856,-0.242803,-0.000892831,0,
1,0.364206,-0.0776115,-0.242406,-0.000871289,0,
1,0.337003,-0.0837877,-0.242029,-0.000841739,0,
1,0.310673,-0.089506,-0.241683,-0.00080373,0,
1,0.28537,-0.0947604,-0.241377,-0.000757524,0,
1,0.26122,-0.0995469,-0.241116,-0.000703987,0,
1,0.238324,-0.103863,-0.240901,-0.000644694,0,
1,0.21675,-0.10771,-0.240733,-0.000580943,0,
1,0.196544,-0.111098,-0.240609,-0.000514156,0,
1,0.177724,-0.114042,-0.240528,-0.000445807,0,
1,0.160284,-0.116559,-0.240483,-0.000377203,0,
1,0.144202,-0.118668,-0.240472,-0.000309526,0,
1,0.129436,-0.120386,-0.240487,-0.000243807,0,
1,0.115935,-0.12173,-0.240523,-0.000180916,0,
1,0.103636,-0.122717,-0.240574,-0.000121558,0,
1,0.0924701,-0.123359,-0.240637,-6.62705e-05,0,
1,0.0823633,-0.123666,-0.240707,-1.54443e-05,0,
1,0.0732406,-0.123647,-0.24078,3.06633e-05,0,
1,0.0650269,-0.123304,-0.240853,7.19021e-05,0,
1,0.057648,-0.122638,-0.240925,0.000108204,0,
1,0.0510323,-0.121644,-0.240993,0.000139558,0,
1,0.0451115,-0.12031,-0.241057,0.000165981,0,
1,0.0398209,-0.118618,-0.241115,0.000187492,0,
1,0.0351001,-0.116543,-0.241167,0.000204087,0,
1,0.0308929,-0.114049,-0.241214,0.000215707,0,
1,0.0271475,-0.111089,-0.241254,0.000222199,0,
1,0.0238164,-0.107603,-0.241289,0.000223295,0,
1,0.0208562,-0.103516,-0.241318,0.000218593,0,
1,0.0182274,-0.0987405,-0.241342,0.00020757,0,
1,0.0158944,-0.0931824,-0.241361,0.000189685,0,
1,0.0138249,-0.0867598,-0.241377,0.000164686,0,
1,0.0119898,-0.0794404,-0.241387,0.000133259,0,
1,0.0103632,-0.0713031,-0.241396,9.79897e-05,0,
1,0.00892169,-0.0626043,-0.2414,6.37681e-05,0,
1,0.00764438,-0.0537823,-0.241405,3.60926e-05,0,
1,0.00651264,-0.045337,-0.241406,1.7775e-05,0,
1,0.00550983,-0.037647,-0.241409,7.73765e-06,0,
1,0.00462115,-0.0308802,-0.241408,3.03354e-06,0,
1,0.00383341,-0.0250353,-0.241411,1.08204e-06,0,
1,0.0031349,-0.0200255,-0.24141,3.49798e-07,0,
1,0.00251518,-0.0157385,-0.241413,1.00462e-07,0,
1,0.00196502,-0.0120649,-0.241411,2.46293e-08,0,
1,0.00147619,-0.00890842,-0.241414,4.80094e-09,0,
1,0.00104139,-0.00618703,-0.241411,6.53153e-10,0,
1,0.000654158,-0.00383209,-0.241416,4.76594e-11,0,
1,0.000308731,-0.00178622,-0.241411,1.02266e-12,0,

4,0,0,-0.108173,0,0,
4,9,0,-0.0915469,0,0,
4,8.99969,0.0154211,-0.0915465,3.35944e-10,0,
4,8.99934,0.0328532,-0.0915468,1.55831e-08,0,
4,8.99894,0.052578,-0.0915465,2.12677e-07,0,
4,8.9985,0.0748898,-0.0915467,1.5411e-06,0,
4,8.99799,0.100074,-0.0915464,7.61165e-06,0,
4,8.99742,0.128283,-0.0915466,2.84805e-05,0,
4,8.99677,0.159248,-0.0915464,8.35319e-05,0,
4,8.99605,0.191912,-0.0915464,0.000192871,0,
4,8.99522,0.224456,-0.0915462,0.000354865,0,
4,8.99429,0.255001,-0.0915461,0.000546368,0,
4,8.99324,0.282799,-0.0915457,0.000706973,0,
4,8.99205,0.308071,-0.0915455,0.000830742,0,
4,8.9907,0.331134,-0.0915449,0.000932728,0,
4,8.98919,0.352262,-0.0915445,0.00101522,0,
4,8.98747,0.371765,-0.0915437,0.00108209,0,
4,8.98553,0.389987,-0.091543,0.00113358,0,
4,8.98334,0.407248,-0.091542,0.00117321,0,
4,8.98087,0.423744,-0.091541,0.00120905,0,
4,8.97807,0.439588,-0.0915397,0.0012403,0,
4,8.97491,0.454878,-0.0915382,0.0012679,0,
4,8.97134,0.469698,-0.0915364,0.00129261,0,
4,8.96731,0.48412,-0.0915343,0.001315,0,
4,8.96276,0.498209,-0.0915318,0.00133554,0,
4,8.95762,0.51202,-0.091529,0.00135454,0,
4,8.95182,0.525602,-0.0915258,0.00137224,0,
4,8.94526,0.538996,-0.0915221,0.00138879,0,
4,8.93787,0.552243,-0.0915178,0.00140428,0,
4,8.92952,0.565374,-0.091513,0.00141873,0,
4,8.92011,0.578419,-0.0915076,0.0014321,0,
4,8.90949,0.591404,-0.0915015,0.00144432,0,
4,8.89751,0.604351,-0.0914947,0.00145527,0,
4,8.88402,0.61728,-0.0914873,0.00146478,0,
4,8.86881,0.630206,-0.0914791,0.00147266,0,
4,8.85169,0.643142,-0.0914703,0.00147868,0,
4,8.83242,0.656099,-0.0914608,0.00148259,0,
4,8.81074,0.669086,-0.0914508,0.00148413,0,
4,8.78637,0.682108,-0.0914405,0.00148304,0,
4,8.75901,0.695171,-0.0914301,0.00147903,0,
4,8.7283,0.708278,-0.0914199,0.00147182,0,
4,8.69387,0.721431,-0.0914102,0.00146113,0,
4,8.65533,0.734634,-0.0914018,0.00144667,0,
4,8.61222,0.747887,-0.091395,0.00142814,0,
4,8.56407,0.761192,-0.0913911,0.00140518,0,
4,8.5104,0.774549,-0.0913905,0.00137735,0,
4,8.45065,0.787956,-0.0913954,0.00134451,0,
4,8.38429,0.801418,-0.0914047,0.00130933,0,
4,8.31073,0.815001,-0.0914295,0.00127619,0,
4,8.22941,0.829015,-0.0914686,0.00122456,0,
4,8.13974,0.843955,-0.0915273,0.00116505,0,
4,8.04115,0.860417,-0.0916134,0.00105959,0,
4,7.93313,0.878865,-0.0917202,0.000923923,0,
4,7.81519,0.899214,-0.0918546,0.000757449,0,
4,7.68693,0.920557,-0.0920037,0.000574943,0,
4,7.54803,0.941064,-0.0921927,0.00040047,0,
4,7.39831,0.95848,-0.0923971,0.000233331,0,
4,7.23771,0.970856,-0.0926432,9.81081e-05,0,
4,7.06634,0.977536,-0.0929459,2.80262e-05,0,
4,6.88453,0.979737,-0.0932852,3.82281e-06,0,
4,6.69275,0.979652,-0.0936633,-2.51005e-07,0,
4,6.49173,0.979061,-0.0940786,-1.35232e-07,0,
4,6.28238,0.978765,-0.0945377,1.24924e-08,0,
4,6.06579,0.978834,-0.095046,2.04998e-08,0,
4,5.84328,0.979085,-0.0956069,1.13983e-08,0,
4,5.61626,0.979376,-0.0962222,7.18671e-09,0,
4,5.3863,0.979657,-0.0968919,5.94629e-09,0,
4,5.15502,0.979934,-0.0976153,5.85458e-09,0,
4,4.92406,0.980231,-0.0983898,6.23841e-09,0,
4,4.69507,0.98056,-0.0992116,6.74079e-09,0,
4,4.46961,0.980911,-0.100075,6.96288e-09,0,
4,4.24915,0.981235,-0.100974,6.54307e-09,0,
4,4.03501,0.981457,-0.101899,5.60615e-09,0,
4,3.82836,0.981562,-0.102841,5.37175e-09,0,
4,3.63018,0.981697,-0.103789,8.29309e-09,0,
4,3.44125,0.982205,-0.104733,2.62101e-08,0,
4,3.26217,0.983412,-0.105661,2.54076e-07,0,
4,3.09333,0.985235,-0.106562,1.39366e-06,0,
4,2.93497,0.986927,-0.107426,2.61039e-06,0,
4,2.78715,0.98733,-0.108243,-2.02749e-06,0,
4,2.64979,0.985427,-0.109006,-2.06663e-05,0,
4,2.52268,0.980742,-0.109707,-5.79591e-05,0,
4,2.40551,0.9734,-0.110339,-0.000113326,0,
4,2.29789,0.963939,-0.110898,-0.000182186,0,
4,2.19939,0.953078,-0.111386,-0.00025802,0,
4,2.10949,0.941523,-0.111805,-0.000334295,0,
4,2.02768,0.929861,-0.112161,-0.000405863,0,
4,1.95343,0.918515,-0.112462,-0.000469627,0,
4,1.88618,0.907757,-0.112714,-0.000524456,0,
4,1.82542,0.897728,-0.112924,-0.00057066,0,
4,1.77062,0.888488,-0.113099,-0.000609379,0,
4,1.72128,0.880039,-0.113244,-0.000641715,0,
4,1.67693,0.872353,-0.113365,-0.00066862,0,
4,1.63713,0.865387,-0.113465,-0.000690944,0,
4,1.60144,0.859088,-0.113547,-0.000709303,0,
4,1.56949,0.853401,-0.113612,-0.000723485,0,
4,1.54091,0.848274,-0.113663,-0.000735516,0,
4,1.51537,0.843644,-0.113707,-0.000745662,0,
4,1.49167,0.83931,-0.113749,-0.000751738,0,
4,1.46926,0.835171,-0.113788,-0.0007564,0,
4,1.44801,0.831199,-0.113824,-0.000759935,0,
4,1.42781,0.827373,-0.113857,-0.000762326,0,
4,1.40855,0.823672,-0.113887,-0.000763811,0,
4,1.39015,0.820079,-0.113914,-0.000764656,0,
4,1.37252,0.816576,-0.113938,-0.000765162,0,
4,1.3556,0.813148,-0.11396,-0.000765683,0,
4,1.3393,0.809778,-0.11398,-0.000766634,0,
4,1.32357,0.80645,-0.113997,-0.000768542,0,
4,1.30836,0.803147,-0.114013,-0.000772066,0,
4,1.29362,0.799847,-0.114027,-0.000777877,0,
4,1.2793,0.79653,-0.114039,-0.000786932,0,
4,1.26537,0.793167,-0.114049,-0.000800513,0,
4,1.25179,0.78973,-0.114058,-0.000819902,0,
4,1.23852,0.786178,-0.114066,-0.000846837,0,
4,1.22554,0.782467,-0.114073,-0.000883449,0,
4,1.21282,0.77854,-0.114078,-0.000932274,0,
4,1.20034,0.774332,-0.114082,-0.000996225,0,
4,1.18806,0.769768,-0.114085,-0.0010785,0,
4,1.17599,0.764764,-0.114087,-0.00118236,0,
4,1.16408,0.759237,-0.114087,-0.00131081,0,
4,1.15233,0.75311,-0.114086,-0.00146609,0,
4,1.14073,0.74633,-0.114083,-0.00164937,0,
4,1.12925,0.738872,-0.114079,-0.00186016,0,
4,1.11788,0.730751,-0.114074,-0.00209567,0,
4,1.10661,0.722011,-0.114067,-0.00235159,0,
4,1.09543,0.712722,-0.114059,-0.00262248,0,
4,1.08432,0.702968,-0.11405,-0.0029023,0,
4,1.07328,0.692842,-0.114039,-0.00318502,0,
4,1.0623,0.682433,-0.114028,-0.00346509,0,
4,1.05136,0.671825,-0.114015,-0.00373738,0,
4,1.04044,0.661076,-0.114002,-0.00399763,0,
4,1.0295,0.65024,-0.113985,-0.00424171,0,
4,1.01855,0.639383,-0.113978,-0.00447139,0,
4,1.00757,0.62855,-0.113956,-0.00468547,0,
4,0.996544,0.617712,-0.113893,-0.00486324,0,
4,0.98547,0.606813,-0.113815,-0.0050393,0,
4,0.974334,0.595819,-0.113733,-0.00521337,0,
4,0.963124,0.584686,-0.113651,-0.00538649,0,
4,0.951826,0.573354,-0.113578,-0.00556003,0,
4,0.940428,0.561741,-0.11352,-0.00573207,0,
4,0.928915,0.549744,-0.113484,-0.00590231,0,
4,0.917272,0.537263,-0.113471,-0.00607358,0,
4,0.905481,0.524226,-0.113476,-0.00624963,0,
4,0.893524,0.510607,-0.113494,-0.00643553,0,
4,0.881383,0.496424,-0.113518,-0.00663003,0,
4,0.869035,0.48171,-0.113546,-0.00683137,0,
4,0.856459,0.4665,-0.113575,-0.00703706,0,
4,0.843629,0.450815,-0.113606,-0.00724501,0,
4,0.830518,0.434668,-0.113637,-0.00745336,0,
4,0.817097,0.418068,-0.113669,-0.00766016,0,
4,0.803334,0.40104,-0.113701,-0.00786447,0,
4,0.789195,0.383634,-0.11373,-0.00806645,0,
4,0.774643,0.365921,-0.113755,-0.00826209,0,
4,0.759639,0.347975,-0.113772,-0.00844674,0,
4,0.744138,0.329862,-0.113781,-0.00861637,0,
4,0.728096,0.31163,-0.11378,-0.0087675,0,
4,0.711463,0.293314,-0.113769,-0.00889716,0,
4,0.694189,0.274932,-0.113748,-0.00900285,0,
4,0.676218,0.256492,-0.11372,-0.00908258,0,
4,0.657495,0.237995,-0.113686,-0.00913468,0,
4,0.637962,0.219434,-0.113649,-0.0091577,0,
4,0.617561,0.200794,-0.113607,-0.00915019,0,
4,0.596848,0.182573,-0.113563,-0.00911132,0,
4,0.576557,0.165361,-0.113525,-0.00904417,0,
4,0.556564,0.149031,-0.113493,-0.00895216,0,
4,0.536763,0.133468,-0.113466,-0.00883783,0,
4,0.517057,0.118573,-0.113442,-0.00870297,0,
4,0.497368,0.104246,-0.113416,-0.00854822,0,
4,0.477632,0.0903777,-0.113377,-0.00837236,0,
4,0.457804,0.0768596,-0.113318,-0.00817201,0,
4,0.437857,0.0636097,-0.11324,-0.00794259,0,
4,0.417786,0.0506443,-0.113176,-0.00768221,0,
4,0.397605,0.0381707,-0.113198,-0.00739893,0,
4,0.377348,0.0266251,-0.113417,-0.00711733,0,
4,0.357066,0.0165089,-0.113923,-0.00686985,0,
4,0.336828,0.00801436,-0.11461,-0.00666116,0,
4,0.316717,0.000765112,-0.114847,-0.00632464,0,
4,0.296825,-0.00587509,-0.114563,-0.00578102,0,
4,0.27725,-0.0122386,-0.114238,-0.00539392,0,
4,0.258095,-0.0183188,-0.11392,-0.00501213,0,
4,0.239458,-0.024105,-0.113575,-0.00463595,0,
4,0.221432,-0.029591,-0.11322,-0.00426888,0,
4,0.2041,-0.0347732,-0.112856,-0.00391336,0,
4,0.187537,-0.039651,-0.112489,-0.00357159,0,
4,0.171798,-0.0442269,-0.112124,-0.00324536,0,
4,0.156928,-0.0485052,-0.111766,-0.00293599,0,
4,0.142956,-0.0524927,-0.111418,-0.00264443,0,
4,0.129894,-0.0561976,-0.111086,-0.00237123,0,
4,0.117744,-0.0596291,-0.110771,-0.00211659,0,
4,0.106492,-0.0627977,-0.110476,-0.0018804,0,
4,0.0961173,-0.0657139,-0.110203,-0.0016623,0,
4,0.0865883,-0.0683889,-0.109952,-0.00146171,0,
4,0.0778675,-0.0708335,-0.109724,-0.00127789,0,
4,0.0699123,-0.0730587,-0.109518,-0.00110999,0,
4,0.062677,-0.0750747,-0.109332,-0.000957077,0,
4,0.056114,-0.0768914,-0.109167,-0.000818163,0,
4,0.0501747,-0.0785177,-0.109021,-0.000692257,0,
4,0.0448114,-0.0799619,-0.108893,-0.000578369,0,
4,0.039977,-0.081231,-0.10878,-0.000475538,0,
4,0.0356266,-0.0823308,-0.108681,-0.000382846,0,
4,0.0317171,-0.0832654,-0.108596,-0.000299424,0,
4,0.0282081,-0.0840372,-0.108522,-0.000224467,0,
4,0.0250617,-0.0846462,-0.108459,-0.000157243,0,
4,0.0222427,-0.0850891,-0.108405,-9.70977e-05,0,
4,0.0197189,-0.085359,-0.108359,-4.34696e-05,0,
4,0.0174603,-0.0854432,-0.10832,4.08969e-06,0,
4,0.0154398,-0.0853218,-0.108288,4.58834e-05,0,
4,0.0136326,-0.0849639,-0.108261,8.20123e-05,0,
4,0.0120162,-0.0843229,-0.108239,0.000112273,0,
4,0.0105703,-0.0833289,-0.108221,0.000135987,0,
4,0.00927657,-0.0818781,-0.108207,0.000151751,0,
4,0.00811839,-0.0798208,-0.108196,0.000157215,0,
4,0.0070809,-0.076956,-0.108189,0.000149408,0,
4,0.0061507,-0.0730607,-0.108183,0.000126791,0,
4,0.00531578,-0.0679919,-0.108181,9.30362e-05,0,
4,0.00456537,-0.0618384,-0.108178,5.7826e-05,0,
4,0.00388979,-0.0549587,-0.108178,3.04993e-05,0,
4,0.00328037,-0.0478063,-0.108176,1.3879e-05,0,
4,0.00272934,-0.0407296,-0.108177,5.52172e-06,0,
4,0.0022297,-0.0339189,-0.108175,1.9123e-06,0,
4,0.00177519,-0.02745,-0.108177,5.59564e-07,0,
4,0.00136016,-0.0213372,-0.108175,1.29553e-07,0,
4,0.000979511,-0.0155659,-0.108176,2.08693e-08,0,
4,0.00062865,-0.0101086,-0.108174,1.79075e-09,0,
4,0.000303409,-0.00493229,-0.108176,4.38644e-11,0,

6,0,0,-0.012198,0,0,
6,9,0,-0.0683722,0,0,
6,8.99969,0.0147215,-0.0683719,2.87849e-10,0,
6,8.99934,0.0313197,-0.0683721,1.32816e-08,0,
6,8.99895,0.0500516,-0.0683719,1.79966e-07,0,
6,8.9985,0.0711863,-0.0683721,1.2948e-06,0,
6,8.99801,0.0949882,-0.0683719,6.36171e-06,0,
6,8.99744,0.121616,-0.068372,2.3793e-05,0,
6,8.99681,0.150882,-0.0683718,7.03337e-05,0,
6,8.99609,0.181913,-0.0683718,0.000165255,0,
6,8.99529,0.2131,-0.0683716,0.000311274,0,
6,8.99438,0.24264,-0.0683716,0.00048976,0,
6,8.99336,0.269623,-0.0683713,0.000649902,0,
6,8.9922,0.294184,-0.068371,0.000770382,0,
6,8.9909,0.316637,-0.0683706,0.000871001,0,
6,8.98944,0.337217,-0.0683702,0.000953237,0,
6,8.98779,0.356196,-0.0683696,0.00102035,0,
6,8.98593,0.373886,-0.068369,0.00107366,0,
6,8.98383,0.390609,-0.0683682,0.00111321,0,
6,8.98147,0.40657,-0.0683673,0.00114949,0,
6,8.97881,0.421882,-0.0683661,0.0011813,0,
6,8.97581,0.436639,-0.0683648,0.00120955,0,
6,8.97244,0.450926,-0.0683633,0.00123503,0,
6,8.96863,0.464814,-0.0683614,0.00125833,0,
6,8.96435,0.478366,-0.0683593,0.00127994,0,
6,8.95953,0.491638,-0.0683567,0.00130018,0,
6,8.95409,0.504681,-0.0683538,0.00131933,0,
6,8.94798,0.517538,-0.0683504,0.00133757,0,
6,8.94109,0.530248,-0.0683464,0.00135499,0,
6,8.93334,0.542848,-0.0683418,0.00137165,0,
6,8.92463,0.55537,-0.0683365,0.00138752,0,
6,8.91482,0.567841,-0.0683304,0.00140255,0,
6,8.90379,0.580287,-0.0683235,0.00141662,0,
6,8.89139,0.59273,-0.0683157,0.00142957,0,
6,8.87746,0.605189,-0.0683068,0.00144118,0,
6,8.86181,0.617681,-0.0682968,0.00145122,0,
6,8.84423,0.630219,-0.0682855,0.00145941,0,
6,8.82452,0.642813,-0.068273,0.00146545,0,
6,8.80241,0.655472,-0.068259,0.00146904,0,
6,8.77763,0.6682,-0.0682436,0.00146984,0,
6,8.74989,0.681002,-0.0682265,0.00146756,0,
6,8.71885,0.693878,-0.0682079,0.0014619,0,
6,8.68417,0.706828,-0.0681874,0.0014526,0,
6,8.64545,0.719851,-0.068165,0.00143941,0,
6,8.60229,0.732943,-0.0681404,0.00142202,0,
6,8.55423,0.746096,-0.0681138,0.00140004,0,
6,8.50082,0.759294,-0.0680836,0.0013736,0,
6,8.44155,0.77252,-0.0680517,0.00134216,0,
6,8.37592,0.785767,-0.0680144,0.00130713,0,
6,8.30339,0.799086,-0.0679805,0.00127183,0,
6,8.22344,0.812714,-0.0679426,0.00122264,0,
6,8.13555,0.827074,-0.0679153,0.00115963,0,
6,8.0392,0.842762,-0.0679036,0.00106462,0,
6,7.93391,0.860381,-0.0678828,0.000940349,0,
6,7.81927,0.880081,-0.0678542,0.000790308,0,
6,7.6949,0.901153,-0.0678044,0.000623604,0,
6,7.56054,0.921887,-0.0677273,0.000460555,0,
6,7.41603,0.940083,-0.0676318,0.000314618,0,
6,7.26132,0.953991,-0.0675053,0.00016326,0,
6,7.09653,0.962739,-0.0673533,6.2476e-05,0,
6,6.92195,0.966746,-0.0671757,1.46621e-05,0,
6,6.73802,0.967588,-0.0669644,7.56352e-08,0,
6,6.5454,0.967048,-0.0667133,-1.41968e-06,0,
6,6.34489,0.966307,-0.0664174,-6.29766e-07,0,
6,6.1375,0.965799,-0.0660723,-1.91382e-07,0,
6,5.92439,0.965507,-0.0656736,-6.0451e-08,0,
6,5.70687,0.96529,-0.0652162,-2.51171e-08,0,
6,5.48633,0.96505,-0.0646951,-1.39049e-08,0,
6,5.26426,0.964753,-0.0641052,-1.00326e-08,0,
6,5.04218,0.964409,-0.063442,-8.96009e-09,0,
6,4.82159,0.964035,-0.0627015,-9.03521e-09,0,
6,4.60398,0.963642,-0.0618811,-9.76657e-09,0,
6,4.39071,0.963204,-0.0609795,-1.12475e-08,0,
6,4.18307,0.96266,-0.0599975,-1.36962e-08,0,
6,3.98218,0.961948,-0.0589376,-1.67799e-08,0,
6,3.78902,0.961086,-0.057805,-2.04625e-08,0,
6,3.60438,0.96024,-0.0566068,-3.72657e-08,0,
6,3.42888,0.959705,-0.0553512,-9.87874e-08,0,
6,3.26296,0.959736,-0.054047,-1.45881e-07,0,
6,3.10691,0.960323,-0.0527032,-2.48914e-08,0,
6,2.96084,0.96108,-0.0513312,-4.29362e-07,0,
6,2.82473,0.961359,-0.0499453,-4.09482e-06,0,
6,2.69844,0.960506,-0.0485619,-1.50607e-05,0,
6,2.58172,0.958077,-0.0471977,-3.65492e-05,0,
6,2.47424,0.953933,-0.0458691,-6.95643e-05,0,
6,2.37559,0.948207,-0.0445898,-0.000112919,0,
6,2.28535,0.941207,-0.0433709,-0.000164036,0,
6,2.20301,0.933322,-0.0422202,-0.000220091,0,
6,2.1281,0.924936,-0.0411429,-0.000278537,0,
6,2.06009,0.916397,-0.0401415,-0.000334818,0,
6,1.99849,0.908032,-0.0392156,-0.000386166,0,
6,1.9428,0.900032,-0.0383571,-0.000411975,0,
6,1.89255,0.89245,-0.0375657,-0.000432956,0,
6,1.84728,0.885343,-0.0368428,-0.000452167,0,
6,1.80655,0.878749,-0.0361839,-0.000470044,0,
6,1.76996,0.87269,-0.0355856,-0.000486457,0,
6,1.73712,0.86716,-0.0350438,-0.000501032,0,
6,1.70768,0.862103,-0.0345531,-0.000514581,0,
6,1.67998,0.857282,-0.0340901,-0.000527916,0,
6,1.65329,0.852593,-0.0336403,-0.000540762,0,
6,1.62754,0.848028,-0.0332038,-0.000553133,0,
6,1.60265,0.843576,-0.0327791,-0.00056511,0,
6,1.57854,0.839232,-0.0323656,-0.000576729,0,
6,1.55515,0.834987,-0.0319623,-0.00058802,0,
6,1.53242,0.830834,-0.0315685,-0.000599008,0,
6,1.5103,0.826766,-0.0311834,-0.000609718,0,
6,1.48874,0.822776,-0.0308064,-0.000620165,0,
6,1.46769,0.818858,-0.0304368,-0.000630364,0,
6,1.44712,0.815005,-0.0300739,-0.000640343,0,
6,1.42698,0.811213,-0.0297172,-0.000650153,0,
6,1.40725,0.807477,-0.0293661,-0.000659866,0,
6,1.38788,0.803793,-0.0290202,-0.000669543,0,
6,1.36886,0.800155,-0.028679,-0.000679248,0,
6,1.35015,0.796559,-0.0283423,-0.000689108,0,
6,1.33173,0.792997,-0.0280095,-0.00069933,0,
6,1.31357,0.789461,-0.0276807,-0.000710193,0,
6,1.29566,0.785942,-0.0273556,-0.000722038,0,
6,1.27797,0.782424,-0.0270344,-0.000734945,0,
6,1.26048,0.778885,-0.026717,-0.000749409,0,
6,1.24318,0.775293,-0.0264037,-0.000766302,0,
6,1.22605,0.7716,-0.0260943,-0.000786983,0,
6,1.20907,0.767748,-0.0257883,-0.000813524,0,
6,1.19223,0.763658,-0.0254851,-0.000849034,0,
6,1.17551,0.759234,-0.0251839,-0.00089789,0,
6,1.1589,0.75437,-0.0248856,-0.000964478,0,
6,1.14238,0.748956,-0.0245938,-0.00105182,0,
6,1.12595,0.742898,-0.0243108,-0.00116144,0,
6,1.10959,0.736137,-0.0240371,-0.00129328,0,
6,1.09329,0.728667,-0.0237698,-0.00144605,0,
6,1.07704,0.720525,-0.0235038,-0.0016182,0,
6,1.06081,0.711767,-0.0232334,-0.00180871,0,
6,1.04459,0.702447,-0.0229533,-0.00201754,0,
6,1.02836,0.692607,-0.0226604,-0.00224493,0,
6,1.01211,0.682267,-0.0223554,-0.0024905,0,
6,0.99583,0.67143,-0.0220422,-0.00275256,0,
6,0.97951,0.660089,-0.0217292,-0.00302786,0,
6,0.963136,0.648231,-0.0214256,-0.00331188,0,
6,0.946694,0.635839,-0.0211413,-0.0036,0,
6,0.930172,0.622893,-0.0208792,-0.0038893,0,
6,0.913555,0.609365,-0.0206367,-0.00418092,0,
6,0.896829,0.59523,-0.0204096,-0.00447701,0,
6,0.879979,0.580471,-0.0201972,-0.00477875,0,
6,0.862989,0.565105,-0.0199971,-0.00508938,0,
6,0.845842,0.549176,-0.0198133,-0.00540387,0,
6,0.828521,0.532729,-0.0196481,-0.00571608,0,
6,0.811008,0.515812,-0.019499,-0.00602321,0,
6,0.793282,0.498487,-0.0193632,-0.00632231,0,
6,0.775322,0.480834,-0.0192394,-0.0066104,0,
6,0.757107,0.462956,-0.0191253,-0.00688433,0,
6,0.738612,0.444961,-0.0190192,-0.00714026,0,
6,0.719813,0.426953,-0.0189171,-0.00737347,0,
6,0.700681,0.409013,-0.0188162,-0.00758029,0,
6,0.681188,0.391197,-0.0187138,-0.00775844,0,
6,0.661304,0.37354,-0.0186093,-0.00790652,0,
6,0.640996,0.356058,-0.0185028,-0.00802336,0,
6,0.620228,0.33876,-0.0183951,-0.00810776,0,
6,0.598964,0.321649,-0.0182885,-0.00815855,0,
6,0.577166,0.304734,-0.0181854,-0.00817491,0,
6,0.554791,0.288031,-0.0180898,-0.00815662,0,
6,0.531799,0.271562,-0.0180023,-0.00810393,0,
6,0.508144,0.255329,-0.0179157,-0.00801598,0,
6,0.48378,0.239292,-0.017809,-0.00788762,0,
6,0.459585,0.223914,-0.0176548,-0.007714,0,
6,0.436695,0.209777,-0.0174741,-0.00749974,0,
6,0.414961,0.196807,-0.0173533,-0.00725806,0,
6,0.394252,0.185177,-0.0174605,-0.00702747,0,
6,0.374445,0.175215,-0.0179424,-0.00684982,0,
6,0.355433,0.167082,-0.0188353,-0.00672975,0,
6,0.337122,0.160499,-0.0196404,-0.00663221,0,
6,0.319433,0.154786,-0.0196932,-0.00616469,0,
6,0.3023,0.14946,-0.0193138,-0.00579744,0,
6,0.28567,0.144388,-0.0190062,-0.00548382,0,
6,0.269507,0.13954,-0.0186885,-0.00517581,0,
6,0.253785,0.134893,-0.0183591,-0.00487254,0,
6,0.238493,0.130431,-0.018025,-0.00457487,0,
6,0.223631,0.12614,-0.0176843,-0.00428369,0,
6,0.209207,0.122012,-0.0173403,-0.00400006,0,
6,0.195237,0.11804,-0.0169956,-0.0037249,0,
6,0.181744,0.114219,-0.0166515,-0.00345914,0,
6,0.168754,0.110546,-0.0163123,-0.00320369,0,
6,0.156292,0.10702,-0.015979,-0.00295945,0,
6,0.144384,0.103639,-0.0156554,-0.00272711,0,
6,0.133052,0.100401,-0.0153426,-0.0025072,0,
6,0.122315,0.0973037,-0.0150442,-0.0023001,0,
6,0.112183,0.0943454,-0.0147605,-0.00210608,0,
6,0.102665,0.091523,-0.0144942,-0.00192517,0,
6,0.0937597,0.0888328,-0.014245,-0.00175721,0,
6,0.0854609,0.0862705,-0.0140148,-0.00160194,0,
6,0.077757,0.083831,-0.0138026,-0.00145899,0,
6,0.0706309,0.0815086,-0.0136091,-0.00132785,0,
6,0.0640611,0.079297,-0.0134331,-0.00120791,0,
6,0.0580229,0.0771894,-0.0132747,-0.00109854,0,
6,0.0524888,0.0751785,-0.0131322,-0.000999086,0,
6,0.0474296,0.0732567,-0.0130053,-0.000908849,0,
6,0.042815,0.0714157,-0.0128923,-0.000827116,0,
6,0.0386145,0.0696473,-0.0127925,-0.000753196,0,
6,0.0347975,0.0679426,-0.0127044,-0.000686438,0,
6,0.0313344,0.0662926,-0.0126273,-0.000626191,0,
6,0.0281964,0.0646874,-0.0125597,-0.000571827,0,
6,0.0253561,0.063117,-0.012501,-0.000522746,0,
6,0.0227875,0.0615703,-0.0124499,-0.0004784,0,
6,0.0204662,0.060035,-0.0124058,-0.000438247,0,
6,0.0183694,0.0584975,-0.0123679,-0.000401751,0,
6,0.016476,0.056942,-0.0123354,-0.000368396,0,
6,0.0147664,0.0553501,-0.0123079,-0.000337659,0,
6,0.0132228,0.0536993,-0.0122844,-0.00030898,0,
6,0.0118288,0.0519617,-0.0122652,-0.000281726,0,
6,0.0105693,0.0501026,-0.0122488,-0.000255165,0,
6,0.00943073,0.048078,-0.0122362,-0.000228413,0,
6,0.00840063,0.0458334,-0.0122253,-0.000200427,0,
6,0.00746774,0.0433057,-0.0122181,-0.000170159,0,
6,0.00662185,0.040433,-0.0122114,-0.000137091,0,
6,0.00585371,0.03718,-0.0122084,-0.000102239,0,
6,0.00515491,0.0335788,-0.0122046,-6.8844e-05,0,
6,0.00451788,0.0297557,-0.0122043,-4.12141e-05,0,
6,0.00393573,0.0259017,-0.012202,-2.19223e-05,0,
6,0.00340221,0.0221955,-0.0122029,-1.04613e-05,0,
6,0.00291168,0.0187466,-0.0122009,-4.51879e-06,0,
6,0.00245897,0.0155947,-0.0122025,-1.76477e-06,0,
6,0.00203939,0.0127334,-0.0122001,-6.12716e-07,0,
6,0.00164864,0.0101365,-0.0122023,-1.82093e-07,0,
6,0.00128281,0.00777044,-0.0121995,-4.31805e-08,0,
6,0.000938257,0.00560268,-0.0122022,-7.16161e-09,0,
6,0.000611645,0.00360227,-0.0121988,-6.32725e-10,0,
6,0.000299862,0.00174285,-0.0122022,-1.56849e-11,0,

10,0.000296632,0.00900108,0.0249237,-6.19533e-11,0,
10,0.000596102,0.018084,0.0249168,-2.2957e-09,0,
10,0.000900397,0.0273089,0.0249225,-2.33353e-08,0,
10,0.00121153,0.0367362,0.0249175,-1.25346e-07,0,
10,0.00153158,0.0464265,0.0249217,-4.6851e-07,0,
10,0.00186264,0.0564382,0.024918,-1.39114e-06,0,
10,0.00220692,0.0668248,0.0249207,-3.52325e-06,0,
10,0.00256668,0.0776292,0.0249184,-7.92661e-06,0,
10,0.00294431,0.0888734,0.02492,-1.62195e-05,0,
10,0.00334229,0.100546,0.0249185,-3.05823e-05,0,
10,0.00376326,0.112585,0.0249194,-5.34815e-05,0,
10,0.00421,0.124868,0.0249184,-8.69942e-05,0,
10,0.00468544,0.137215,0.0249187,-0.000131874,0,
10,0.00519274,0.149405,0.024918,-0.000186856,0,
10,0.00573524,0.161215,0.0249178,-0.000248792,0,
10,0.00631651,0.172454,0.0249173,-0.000313581,0,
10,0.00694041,0.182988,0.0249166,-0.00037737,0,
10,0.00761104,0.192746,0.0249158,-0.000437297,0,
10,0.00833284,0.201709,0.0249146,-0.000491707,0,
10,0.00911058,0.209896,0.0249133,-0.000539962,0,
10,0.0099494,0.217355,0.0249115,-0.000582142,0,
10,0.0108548,0.224146,0.0249095,-0.000618786,0,
10,0.0118329,0.230338,0.0249068,-0.000650633,0,
10,0.0128901,0.235997,0.0249039,-0.000678489,0,
10,0.0140333,0.241189,0.0249,-0.00070315,0,
10,0.0152702,0.245973,0.0248959,-0.000725369,0,
10,0.0166089,0.250402,0.0248905,-0.000745813,0,
10,0.0180584,0.254524,0.0248849,-0.000765051,0,
10,0.0196282,0.25838,0.0248779,-0.000783578,0,
10,0.0213288,0.262008,0.0248704,-0.000801844,0,
10,0.0231714,0.265438,0.0248614,-0.000820225,0,
10,0.0251682,0.268699,0.0248515,-0.000839064,0,
10,0.0273326,0.271815,0.0248401,-0.000858663,0,
10,0.0296789,0.274808,0.0248275,-0.000879309,0,
10,0.0322227,0.277696,0.0248131,-0.000901261,0,
10,0.0349809,0.280496,0.0247972,-0.000924795,0,
10,0.0379719,0.283225,0.024779,-0.000950165,0,
10,0.0412155,0.285895,0.024759,-0.000977621,0,
10,0.0447333,0.28852,0.0247362,-0.00100743,0,
10,0.0485489,0.291112,0.0247109,-0.00103989,0,
10,0.0526875,0.293682,0.0246824,-0.00107529,0,
10,0.0571768,0.296242,0.0246505,-0.00111394,0,
10,0.0620466,0.298801,0.0246149,-0.00115616,0,
10,0.0673295,0.301371,0.0245749,-0.00120237,0,
10,0.0730607,0.303962,0.0245308,-0.00125295,0,
10,0.0792784,0.306584,0.0244811,-0.00130832,0,
10,0.0860241,0.30925,0.0244267,-0.00136896,0,
10,0.0933428,0.311969,0.0243655,-0.00143543,0,
10,0.101283,0.314756,0.0242988,-0.00150831,0,
10,0.109899,0.317623,0.0242242,-0.0015882,0,
10,0.119247,0.320583,0.0241428,-0.00167583,0,
10,0.12939,0.323653,0.0240521,-0.00177185,0,
10,0.140395,0.32685,0.0239542,-0.00187717,0,
10,0.152337,0.330192,0.0238461,-0.00199284,0,
10,0.165296,0.333701,0.0237297,-0.00211992,0,
10,0.179357,0.337401,0.0236017,-0.00225949,0,
10,0.194615,0.341319,0.0234635,-0.0024128,0,
10,0.211171,0.345488,0.0233128,-0.00258113,0,
10,0.229138,0.349944,0.0231505,-0.00276588,0,
10,0.248635,0.354729,0.0229754,-0.00296842,0,
10,0.269793,0.359893,0.0227879,-0.00319016,0,
10,0.292753,0.365494,0.0225887,-0.00343237,0,
10,0.317669,0.371602,0.022377,-0.00369525,0,
10,0.344708,0.378297,0.022156,-0.00397843,0,
10,0.372405,0.385261,0.0219412,-0.0042684,0,
10,0.399623,0.392243,0.0217381,-0.00455196,0,
10,0.426397,0.399278,0.0215764,-0.00482133,0,
10,0.452757,0.406413,0.0213941,-0.00509879,0,
10,0.478735,0.413758,0.0214092,-0.00543547,0,
10,0.504358,0.421782,0.0217382,-0.00546155,0,
10,0.529657,0.431033,0.022014,-0.00547516,0,
10,0.554656,0.441534,0.0220717,-0.0054825,0,
10,0.579382,0.452966,0.0219641,-0.00547339,0,
10,0.603859,0.46496,0.0217669,-0.00544214,0,
10,0.628112,0.477286,0.0215488,-0.00539058,0,
10,0.652163,0.489869,0.0213492,-0.00532389,0,
10,0.676035,0.502725,0.0211849,-0.00524574,0,
10,0.699751,0.515901,0.0210558,-0.00515655,0,
10,0.72333,0.529432,0.0209551,-0.0050538,0,
10,0.746795,0.543326,0.0208729,-0.00493345,0,
10,0.770165,0.557569,0.0208008,-0.00479133,0,
10,0.79346,0.572129,0.0207317,-0.00462427,0,
10,0.816699,0.586957,0.0206604,-0.00443088,0,
10,0.839903,0.601975,0.0205827,-0.00421247,0,
10,0.863088,0.617073,0.0204959,-0.00397271,0,
10,0.886275,0.632103,0.0203975,-0.00371652,0,
10,0.909481,0.646893,0.0202863,-0.00344945,0,
10,0.932723,0.661258,0.020161,-0.00317734,0,
10,0.956021,0.675,0.020022,-0.00291851,0,
10,0.97939,0.687976,0.0198725,-0.00266693,0,
10,1.00285,0.700154,0.0197148,-0.00242263,0,
10,1.02641,0.711552,0.0195488,-0.00218814,0,
10,1.0501,0.72219,0.0193741,-0.00196584,0,
10,1.07392,0.732084,0.0191899,-0.00175734,0,
10,1.0979,0.741257,0.0189964,-0.0015636,0,
10,1.12205,0.74975,0.0187943,-0.00138552,0,
10,1.14639,0.757618,0.0185844,-0.00122431,0,
10,1.17093,0.76492,0.0183671,-0.00108147,0,
10,1.19568,0.77171,0.0181427,-0.000958488,0,
10,1.22066,0.778041,0.0179112,-0.000856094,0,
10,1.24589,0.783968,0.0176734,-0.000773506,0,
10,1.27137,0.789558,0.0174296,-0.000708315,0,
10,1.29713,0.794883,0.0171804,-0.000657138,0,
10,1.32317,0.800014,0.016926,-0.000616526,0,
10,1.34951,0.805012,0.0166663,-0.000583548,0,
10,1.37616,0.809925,0.0164011,-0.000555936,0,
10,1.40313,0.814791,0.0161303,-0.000531995,0,
10,1.43043,0.819635,0.0158537,-0.000510473,0,
10,1.45807,0.824476,0.0155711,-0.000490446,0,
10,1.48607,0.829324,0.0152824,-0.000471207,0,
10,1.51444,0.834185,0.0149876,-0.000452291,0,
10,1.54318,0.83906,0.0146864,-0.00043352,0,
10,1.57231,0.843944,0.0143787,-0.000414925,0,
10,1.60184,0.848831,0.0140644,-0.00039656,0,
10,1.63178,0.853712,0.0137432,-0.000378423,0,
10,1.66213,0.85858,0.0134152,-0.000360513,0,
10,1.69292,0.863424,0.0130802,-0.000342843,0,
10,1.72416,0.868232,0.0127381,-0.000325446,0,
10,1.75585,0.872991,0.0123886,-0.000308377,0,
10,1.78802,0.877686,0.0120319,-0.000291712,0,
10,1.82067,0.882299,0.0116675,-0.000275522,0,
10,1.85383,0.886814,0.0112957,-0.000259895,0,
10,1.88751,0.891215,0.0109157,-0.000244896,0,
10,1.92173,0.895482,0.0105283,-0.00023072,0,
10,1.95652,0.899598,0.0101321,-0.000217386,0,
10,1.9919,0.903542,0.00972884,-0.000205187,0,
10,2.02791,0.907293,0.00931582,-0.000194037,0,
10,2.06456,0.91083,0.00889658,-0.000184529,0,
10,2.10268,0.914198,0.00845666,-0.000175879,0,
10,2.1443,0.917533,0.0079808,-0.000167997,0,
10,2.18977,0.920898,0.00745799,-0.000147967,0,
10,2.23946,0.924313,0.00688735,-0.000125177,0,
10,2.29376,0.927658,0.00626641,-0.000100556,0,
10,2.35309,0.930743,0.00558937,-7.56329e-05,0,
10,2.4179,0.933406,0.00485449,-5.29518e-05,0,
10,2.48863,0.935533,0.00405809,-3.40882e-05,0,
10,2.56575,0.937056,0.00319895,-1.96548e-05,0,
10,2.64971,0.937951,0.00227567,-9.65297e-06,0,
10,2.74098,0.938253,0.00128839,-3.66293e-06,0,
10,2.83997,0.938072,0.000238054,-8.62979e-07,0,
10,2.94709,0.937598,-0.000873426,-1.15941e-07,0,
10,3.06269,0.937071,-0.00204313,-2.5591e-07,0,
10,3.18706,0.936732,-0.00326756,-4.6323e-07,0,
10,3.3204,0.936749,-0.0045422,-4.45939e-07,0,
10,3.46281,0.937169,-0.00586168,-2.85786e-07,0,
10,3.61427,0.937917,-0.00721906,-1.37012e-07,0,
10,3.77463,0.938837,-0.00860582,-5.81961e-08,0,
10,3.94358,0.939769,-0.0100117,-2.97393e-08,0,
10,4.12067,0.94061,-0.011425,-2.15064e-08,0,
10,4.30525,0.941332,-0.0128336,-1.90307e-08,0,
10,4.49655,0.941969,-0.0142249,-1.8797e-08,0,
10,4.6936,0.942568,-0.015587,-2.09576e-08,0,
10,4.89531,0.943159,-0.0169086,-2.72852e-08,0,
10,5.10047,0.943746,-0.0181795,-4.18665e-08,0,
10,5.30776,0.94431,-0.019391,-7.32394e-08,0,
10,5.51581,0.944835,-0.0205355,-1.39389e-07,0,
10,5.72323,0.945334,-0.0216078,-2.83401e-07,0,
10,5.92863,0.945862,-0.0226038,-6.18309e-07,0,
10,6.13069,0.946512,-0.023522,-1.38075e-06,0,
10,6.32816,0.947323,-0.0243617,-2.6758e-06,0,
10,6.51991,0.948083,-0.0251258,-2.95383e-06,0,
10,6.70495,0.948102,-0.0258142,4.08545e-06,0,
10,6.88244,0.946168,-0.0264326,3.09063e-05,0,
10,7.0517,0.9409,-0.0269757,9.18576e-05,0,
10,7.21224,0.931393,-0.0274535,0.000196786,0,
10,7.3637,0.917518,-0.0278691,0.000313435,0,
10,7.5059,0.899703,-0.0282079,0.000427406,0,
10,7.63878,0.879308,-0.0284944,0.000561668,0,
10,7.76243,0.858467,-0.0287182,0.000698952,0,
10,7.87701,0.838873,-0.0289018,0.000819753,0,
10,7.9828,0.821247,-0.0290436,0.000918696,0,
10,8.08014,0.805515,-0.0291588,0.000999442,0,
10,8.16941,0.791213,-0.0292514,0.00106819,0,
10,8.25106,0.777809,-0.0293312,0.00112864,0,
10,8.32554,0.764862,-0.0294005,0.00118221,0,
10,8.39331,0.75208,-0.0294624,0.00122987,0,
10,8.45484,0.739316,-0.0295164,0.00127154,0,
10,8.5106,0.726529,-0.0295634,0.00130705,0,
10,8.56104,0.713747,-0.0296035,0.00133653,0,
10,8.60659,0.701027,-0.0296378,0.00136039,0,
10,8.64767,0.688425,-0.0296672,0.00137921,0,
10,8.68467,0.675982,-0.0296927,0.0013935,0,
10,8.71795,0.663691,-0.0297157,0.00139959,0,
10,8.74786,0.65153,-0.029736,0.00140114,0,
10,8.77471,0.639499,-0.029753,0.00139917,0,
10,8.79881,0.627599,-0.0297678,0.00139379,0,
10,8.8204,0.615828,-0.0297804,0.00138564,0,
10,8.83975,0.60418,-0.0297911,0.00137529,0,
10,8.85708,0.592641,-0.0298003,0.00136322,0,
10,8.87259,0.581197,-0.0298081,0.00134983,0,
10,8.88646,0.569829,-0.0298146,0.00133546,0,
10,8.89886,0.558517,-0.0298202,0.00132038,0,
10,8.90995,0.547237,-0.0298249,0.0013048,0,
10,8.91986,0.535964,-0.0298288,0.00128886,0,
10,8.92872,0.52467,-0.0298321,0.00127266,0,
10,8.93663,0.513325,-0.0298349,0.00125625,0,
10,8.94369,0.501899,-0.0298372,0.00123962,0,
10,8.95,0.490357,-0.0298391,0.00122269,0,
10,8.95564,0.478663,-0.0298408,0.0012054,0,
10,8.96067,0.466778,-0.0298421,0.00118757,0,
10,8.96517,0.454661,-0.0298432,0.00116897,0,
10,8.96918,0.442264,-0.0298441,0.00114932,0,
10,8.97276,0.429535,-0.0298449,0.00112826,0,
10,8.97596,0.416416,-0.0298454,0.00110533,0,
10,8.97882,0.40284,-0.0298461,0.00107996,0,
10,8.98137,0.388731,-0.0298463,0.00105144,0,
10,8.98365,0.374002,-0.0298469,0.00101892,0,
10,8.98569,0.358552,-0.029847,0.000983829,0,
10,8.9875,0.342181,-0.0298475,0.000935157,0,
10,8.98913,0.324588,-0.0298474,0.000875121,0,
10,8.99058,0.305495,-0.0298479,0.000801844,0,
10,8.99188,0.284656,-0.0298476,0.000712496,0,
10,8.99304,0.261848,-0.0298481,0.000605673,0,
10,8.99408,0.23677,-0.0298477,0.00046525,0,
10,8.99501,0.209216,-0.0298483,0.000304132,0,
10,8.99583,0.17986,-0.0298478,0.000167853,0,
10,8.99658,0.150265,-0.0298484,7.47264e-05,0,
10,8.99724,0.121956,-0.0298478,2.64308e-05,0,
10,8.99784,0.0958647,-0.0298485,7.35684e-06,0,
10,8.99837,0.0722786,-0.0298478,1.55162e-06,0,
10,8.99885,0.0511165,-0.0298486,2.22728e-07,0,
10,8.99927,0.0321675,-0.0298477,1.69208e-08,0,
10,8.99966,0.0152024,-0.0298488,3.74478e-10,0,
10,0,0,0.0249158,0,0,
10,9,0,-0.0298476,0,0,

0.004,0,0,-0.228692,0,6.60156e-07,
0.00868226,0,0,-0.228719,0,7.5118e-07,
0.014062,0,0,-0.228697,0,1.08256e-06,
0.0201548,0,0,-0.22871,0,3.62335e-06,
0.0269766,0,0,-0.228694,0,7.91892e-06,
0.0345437,0,0,-0.228704,0,1.48886e-05,
0.0428729,0,0,-0.2287,0,2.36575e-05,
0.051981,0,0,-0.22872,0,3.39358e-05,
0.0618853,0,0,-0.228739,0,4.42569e-05,
0.0726036,0,0,-0.228778,0,5.37572e-05,
0.0841536,0,0,-0.22882,0,6.13454e-05,
0.0965535,0,0,-0.228874,0,6.67588e-05,
0.109822,0,0,-0.228931,0,6.98877e-05,
0.123977,0,0,-0.228994,0,7.10569e-05,
0.139037,0,0,-0.229059,0,7.05253e-05,
0.155022,0,0,-0.22913,0,6.85713e-05,
0.171949,0,0,-0.229208,0,6.53077e-05,
0.189839,0,0,-0.229294,0,6.0787e-05,
0.208709,0,0,-0.22939,0,5.50177e-05,
0.228579,0,0,-0.229498,0,4.80701e-05,
0.249467,0,0,-0.229618,0,4.01078e-05,
0.271391,0,0,-0.229752,0,3.14038e-05,
0.29437,0,0,-0.229901,0,2.23096e-05,
0.31842,0,0,-0.230066,0,1.32024e-05,
0.343559,0,0,-0.230249,0,4.41781e-06,
0.369804,0,0,-0.230451,0,-3.81444e-06,
0.39717,0,0,-0.230676,0,-1.14088e-05,
0.425672,0,0,-0.230927,0,-1.84317e-05,
0.455324,0,0,-0.231209,0,-2.50903e-05,
0.48614,0,0,-0.231527,0,-3.17102e-05,
0.518132,0,0,-0.231886,0,-3.87073e-05,
0.551309,0,0,-0.232293,0,-4.65608e-05,
0.585683,0,0,-0.232753,0,-5.57906e-05,
0.621259,0,0,-0.233272,0,-6.69401e-05,
0.658046,0,0,-0.233859,0,-8.05636e-05,
0.696047,0,0,-0.234517,0,-9.72162e-05,
0.735265,0,0,-0.235252,0,-0.000117439,
0.7757,0,0,-0.236068,0,-0.000141746,
0.817352,0,0,-0.236966,0,-0.0001706,
0.860215,0,0,-0.237945,0,-0.000204401,
0.904285,0,0,-0.239002,0,-0.000243469,
0.949552,0,0,-0.240129,0,-0.000288033,
0.996004,0,0,-0.241314,0,-0.00033821,
1.04363,0,0,-0.242542,0,-0.000393992,
1.09241,0,0,-0.24379,0,-0.000455227,
1.14232,0,0,-0.245033,0,-0.000521611,
1.19335,0,0,-0.246238,0,-0.000592673,
1.24546,0,0,-0.247371,0,-0.000667772,
1.29863,0,0,-0.248392,0,-0.000746092,
1.35283,0,0,-0.249259,0,-0.000826663,
1.40802,0,0,-0.249931,0,-0.000908386,
1.46416,0,0,-0.250368,0,-0.000990073,
1.52121,0,0,-0.250531,0,-0.00107051,
1.57913,0,0,-0.250388,0,-0.0011485,
1.63787,0,0,-0.249914,0,-0.00122294,
1.69739,0,0,-0.249092,0,-0.00129288,
1.75761,0,0,-0.247911,0,-0.00135753,
1.81851,0,0,-0.24637,0,-0.00141627,
1.88,0,0,-0.244472,0,-0.00146868,
1.94204,0,0,-0.242231,0,-0.00151448,
2.00457,0,0,-0.239662,0,-0.00155356,
2.06751,0,0,-0.236785,0,-0.00158592,
2.13081,0,0,-0.233626,0,-0.00161164,
2.19439,0,0,-0.23021,0,-0.0016309,
2.25819,0,0,-0.226566,0,-0.00164397,
2.32214,0,0,-0.222725,0,-0.00165119,
2.38617,0,0,-0.218716,0,-0.00165296,
2.4502,0,0,-0.214571,0,-0.00164978,
2.51418,0,0,-0.210319,0,-0.00164215,
2.57803,0,0,-0.205987,0,-0.00163066,
2.64167,0,0,-0.201602,0,-0.00161585,
2.70505,0,0,-0.197186,0,-0.00159828,
2.76808,0,0,-0.192757,0,-0.00157842,
2.83072,0,0,-0.188333,0,-0.00155669,
2.89288,0,0,-0.183927,0,-0.00153343,
2.95451,0,0,-0.179551,0,-0.00150894,
3.01555,0,0,-0.175218,0,-0.00148346,
3.07594,0,0,-0.170935,0,-0.0014572,
3.13561,0,0,-0.16671,0,-0.00143033,
3.19453,0,0,-0.162551,0,-0.00140299,
3.25262,0,0,-0.158463,0,-0.00137529,
3.30985,0,0,-0.154452,0,-0.00134732,
3.36617,0,0,-0.150522,0,-0.00131916,
3.42154,0,0,-0.146678,0,-0.00129088,
3.47591,0,0,-0.142923,0,-0.00126252,
3.52925,0,0,-0.139262,0,-0.00123416,
3.58152,0,0,-0.135695,0,-0.00120585,
3.6327,0,0,-0.132227,0,-0.00117764,
3.68276,0,0,-0.12886,0,-0.0011496,
3.73167,0,0,-0.125594,0,-0.00112178,
3.77941,0,0,-0.122431,0,-0.00109427,
3.82596,0,0,-0.119373,0,-0.00106711,
3.8713,0,0,-0.116419,0,-0.00104041,
3.91543,0,0,-0.113565,0,-0.00101411,
3.95833,0,0,-0.110827,0,-0.000988554,
4,0,0,-0.108173,0,-0.000963449,
4.04167,0,0,-0.105548,0,-0.000938211,
4.08333,0,0,-0.102947,0,-0.000912935,
4.125,0,0,-0.100366,0,-0.000887543,
4.16667,0,0,-0.0978081,0,-0.000862008,
4.20833,0,0,-0.0952711,0,-0.000836321,
4.25,0,0,-0.0927562,0,-0.000810512,
4.29167,0,0,-0.090262,0,-0.00078447,
4.33333,0,0,-0.0877904,0,-0.000758246,
4.375,0,0,-0.0853369,0,-0.000731747,
4.41667,0,0,-0.0829062,0,-0.000704985,
4.45833,0,0,-0.0805017,0,-0.000677808,
4.5,0,0,-0.0781199,0,-0.000650311,
4.54167,0,0,-0.0757607,0,-0.000622341,
4.58333,0,0,-0.0734301,0,-0.000593909,
4.625,0,0,-0.0711431,0,-0.00056509,
4.66667,0,0,-0.0688858,0,-0.000536065,
4.70833,0,0,-0.0666691,0,-0.000506842,
4.75,0,0,-0.0644931,0,-0.000477425,
4.79167,0,0,-0.0623769,0,-0.00044831,
4.83333,0,0,-0.0602994,0,-0.000419551,
4.875,0,0,-0.0582781,0,-0.00039139,
4.91667,0,0,-0.0563049,0,-0.000363709,
4.95833,0,0,-0.0543804,0,-0.000337174,
5,0,0,-0.0524938,0,-0.000311478,
5.04167,0,0,-0.0506537,0,-0.000286874,
5.08333,0,0,-0.0488517,0,-0.000263131,
5.125,0,0,-0.0470544,0,-0.000240369,
5.16667,0,0,-0.0452823,0,-0.000218048,
5.20833,0,0,-0.0435231,0,-0.000196193,
5.25,0,0,-0.0417778,0,-0.000174744,
5.29167,0,0,-0.0399964,0,-0.000152947,
5.33333,0,0,-0.038229,0,-0.000130529,
5.375,0,0,-0.0364509,0,-0.000107205,
5.41667,0,0,-0.0346669,0,-8.32866e-05,
5.45833,0,0,-0.0328576,0,-5.76478e-05,
5.5,0,0,-0.031067,0,-3.07275e-05,
5.54167,0,0,-0.0292826,0,-2.1979e-06,
5.58333,0,0,-0.0275007,0,2.73323e-05,
5.625,0,0,-0.0257545,0,5.83411e-05,
5.66667,0,0,-0.0240406,0,9.00144e-05,
5.70833,0,0,-0.0223694,0,0.000122527,
5.75,0,0,-0.0207287,0,0.000155522,
5.79167,0,0,-0.019178,0,0.000188465,
5.83333,0,0,-0.0176621,0,0.000220926,
5.875,0,0,-0.016205,0,0.000252875,
5.91667,0,0,-0.0147981,0,0.00028457,
5.95833,0,0,-0.0134849,0,0.000314998,
6,0,0,-0.0121982,0,0.00034447,
6.04167,0,0,-0.0109532,0,0.00037274,
6.08333,0,0,-0.00975881,0,0.000400404,
6.125,0,0,-0.00861822,0,0.000426808,
6.16667,0,0,-0.00750093,0,0.000452625,
6.20833,0,0,-0.006398,0,0.000477411,
6.25,0,0,-0.00533291,0,0.00050163,
6.29167,0,0,-0.00427879,0,0.000525216,
6.33333,0,0,-0.00325071,0,0.000548631,
6.375,0,0,-0.002227,0,0.000571472,
6.41667,0,0,-0.00122781,0,0.000593919,
6.45833,0,0,-0.000223528,0,0.000616118,
6.5,0,0,0.000753625,0,0.00063812,
6.54167,0,0,0.00171433,0,0.000659795,
6.58333,0,0,0.00265486,0,0.000681196,
6.625,0,0,0.00359966,0,0.000702278,
6.66667,0,0,0.00451155,0,0.000722919,
6.70833,0,0,0.00538978,0,0.000743206,
6.75,0,0,0.00625261,0,0.000763291,
6.79167,0,0,0.00711963,0,0.000782946,
6.83333,0,0,0.00794104,0,0.000802088,
6.875,0,0,0.00872387,0,0.000821068,
6.91667,0,0,0.00949773,0,0.000839928,
6.95833,0,0,0.0102817,0,0.000858862,
7,0,0,0.0110156,0,0.00087764,
7.04167,0,0,0.0117186,0,0.000897103,
7.08333,0,0,0.0124082,0,0.000916618,
7.125,0,0,0.0130929,0,0.000936942,
7.16667,0,0,0.0137474,0,0.000957469,
7.20833,0,0,0.0143751,0,0.000979311,
7.25,0,0,0.0149731,0,0.00100129,
7.29167,0,0,0.0155211,0,0.00102412,
7.33333,0,0,0.0160682,0,0.00104705,
7.375,0,0,0.0165908,0,0.00107072,
7.41667,0,0,0.0170703,0,0.00109428,
7.45833,0,0,0.0174632,0,0.00111796,
7.5,0,0,0.0178694,0,0.00114144,
7.54167,0,0,0.0182609,0,0.00116433,
7.58333,0,0,0.018613,0,0.00118654,
7.625,0,0,0.0188895,0,0.00120814,
7.66667,0,0,0.0191686,0,0.00122951,
7.70833,0,0,0.0194411,0,0.00124914,
7.75,0,0,0.0197019,0,0.00126761,
7.79167,0,0,0.0199418,0,0.00128526,
7.83333,0,0,0.0201559,0,0.00130274,
7.875,0,0,0.0203677,0,0.0013185,
7.91667,0,0,0.0206104,0,0.00133411,
7.95833,0,0,0.0208202,0,0.00134805,
8,0,0,0.0210964,0,0.00136192,
8.04171,0,0,0.0214275,0,0.00137614,
8.08368,0,0,0.0216595,0,0.0013907,
8.12617,0,0,0.0219844,0,0.00140267,
8.16946,0,0,0.0222952,0,0.00141403,
8.21382,0,0,0.0226416,0,0.00142662,
8.25952,0,0,0.022988,0,0.00144088,
8.30685,0,0,0.0233509,0,0.00145448,
8.35611,0,0,0.0237515,0,0.00146761,
8.40762,0,0,0.0241874,0,0.00148267,
8.46168,0,0,0.0245946,0,0.00149985,
8.51865,0,0,0.024984,0,0.0015167,
8.57889,0,0,0.0254086,0,0.00153354,
8.64276,0,0,0.0257992,0,0.00155132,
8.71067,0,0,0.0261317,0,0.00156997,
8.78306,0,0,0.0264247,0,0.00158887,
8.86037,0,0,0.0266735,0,0.00160797,
8.94309,0,0,0.0268128,0,0.00162659,
9.03174,0,0,0.0268707,0,0.00164436,
9.12689,0,0,0.0268939,0,0.001664,
9.22912,0,0,0.0267626,0,0.00168273,
9.33908,0,0,0.0266053,0,0.00170028,
9.45746,0,0,0.0264076,0,0.00171905,
9.58501,0,0,0.0260308,0,0.00173881,
9.72253,0,0,0.0256134,0,0.001759,
9.87088,0,0,0.0252686,0,0.00177973,
10.031,0,0,0.0248311,0,0.0018029,
10.2039,0,0,0.0243219,0,0.00182716,
10.3906,0,0,0.023818,0,0.00185229,
10.5924,0,0,0.0232123,0,0.00187589,
10.8105,0,0,0.0224549,0,0.00189792,
11.0463,0,0,0.021738,0,0.00191934,
11.3012,0,0,0.0213925,0,0.00194578,
11.5769,0,0,0.0211576,0,0.00197511,
11.8751,0,0,0.0213878,0,0.00201153,
12.1977,0,0,0.0219633,0,0.00205242,
12.5466,0,0,0.0217231,0,0.00208543,
12.9242,0,0,0.0208656,0,0.00211346,
13.3327,0,0,0.0195138,0,0.00213099,
13.7748,0,0,0.0180242,0,0.00214752,
14.2532,0,0,0.0169869,0,0.00217188,
14.7709,0,0,0.0161499,0,0.00219791,
15.3312,0,0,0.0151367,0,0.00222107,
15.9377,0,0,0.0140271,0,0.00224102,
16.594,0,0,0.0130409,0,0.00226025,
17.3044,0,0,0.0122194,0,0.00227919,
18.0733,0,0,0.0116196,0,0.00230075,
18.9056,0,0,0.0111605,0,0.00232273,
19.8064,0,0,0.0108188,0,0.00234536,
20.7816,0,0,0.010594,0,0.00236828,
21.8371,0,0,0.0103544,0,0.00238239,
22.9796,0,0,0.00988143,0,0.00239036,
24.2163,0,0,0.00898579,0,0.00239587,
25.5551,0,0,0.00798088,0,0.00240259,
27.0042,0,0,0.00734276,0,0.0024178,
28.5729,0,0,0.00707299,0,0.00243514,
30.271,0,0,0.00678225,0,0.00244677,
32.1091,0,0,0.0062019,0,0.00245523,
34.0989,0,0,0.0054692,0,0.00246416,
36.2529,0,0,0.00482149,0,0.00247758,
38.5845,0,0,0.00418104,0,0.00249218,
41.1085,0,0,0.00334158,0,0.00250497,
43.8407,0,0,0.00213221,0,0.0025142,
46.7983,0,0,0.00100598,0,0.0025201,
50,0,0,0.0023715,0,0.00253704,

