accf4ce2099f71ac8cb8463033be185c69a46c39 
X,Z,x_velocity,cp,uw_b,cf,
1,0,0,-0.252824,0,0,
1,9,0,-0.118754,0,0,
1,8.99969,0.0160998,-0.118754,3.74535e-10,0,
1,8.99934,0.0343661,-0.118754,1.7507e-08,0,
1,8.99894,0.0551087,-0.118754,2.4145e-07,0,
1,8.99848,0.0786535,-0.118754,1.76828e-06,0,
1,8.99797,0.105313,-0.118754,8.80914e-06,0,
1,8.99739,0.135237,-0.118754,3.30695e-05,0,
1,8.99672,0.168076,-0.118754,9.64234e-05,0,
1,8.99597,0.202583,-0.118754,0.000219051,0,
1,8.99512,0.236755,-0.118754,0.000394019,0,
1,8.99416,0.268681,-0.118753,0.000593344,0,
1,8.99306,0.297773,-0.118753,0.00075101,0,
1,8.99182,0.324302,-0.118753,0.000876114,0,
1,8.99041,0.348553,-0.118752,0.000977889,0,
1,8.98881,0.370816,-0.118752,0.00105928,0,
1,8.98699,0.391404,-0.118751,0.00112481,0,
1,8.98494,0.410656,-0.11875,0.00117506,0,
1,8.98261,0.428884,-0.118749,0.0012135,0,
1,8.97996,0.44629,-0.118748,0.0012472,0,
1,8.97696,0.463,-0.118747,0.0012758,0,
1,8.97356,0.47912,-0.118746,0.00130026,0,
1,8.9697,0.494742,-0.118744,0.00132137,0,
1,8.96533,0.509943,-0.118742,0.0013397,0,
1,8.96038,0.524788,-0.11874,0.00135568,0,
1,8.95476,0.539335,-0.118737,0.00136963,0,
1,8.9484,0.553634,-0.118734,0.00138177,0,
1,8.9412,0.567727,-0.118731,0.00139223,0,
1,8.93303,0.58165,-0.118728,0.0014011,0,
1,8.92379,0.595435,-0.118724,0.00140841,0,
1,8.91333,0.60911,-0.11872,0.00141414,0,
1,8.90149,0.622697,-0.118716,0.00141825,0,
1,8.8881,0.636218,-0.118712,0.00142068,0,
1,8.87295,0.649688,-0.118708,0.00142133,0,
1,8.85584,0.663124,-0.118704,0.00142009,0,
1,8.83651,0.676537,-0.118701,0.00141685,0,
1,8.81469,0.689939,-0.118698,0.00141147,0,
1,8.79007,0.70334,-0.118697,0.00140381,0,
1,8.76232,0.716748,-0.118698,0.00139371,0,
1,8.73107,0.730172,-0.118701,0.00138099,0,
1,8.69591,0.743621,-0.118709,0.00136542,0,
1,8.6564,0.757102,-0.118721,0.00134676,0,
1,8.61206,0.770624,-0.118739,0.00132469,0,
1,8.56236,0.784194,-0.118766,0.00129899,0,
1,8.50675,0.79782,-0.118804,0.00126968,0,
1,8.44464,0.81151,-0.118854,0.00124012,0,
1,8.3754,0.825336,-0.118927,0.00121639,0,
1,8.29839,0.839625,-0.119024,0.00116643,0,
1,8.21296,0.854875,-0.119152,0.00109903,0,
1,8.11843,0.871527,-0.11932,0.00101005,0,
1,8.01417,0.889875,-0.119537,0.000893041,0,
1,7.89956,0.909888,-0.119808,0.00074479,0,
1,7.77403,0.930956,-0.12015,0.000572493,0,
1,7.63711,0.951731,-0.120571,0.00039908,0,
1,7.48842,0.970272,-0.12108,0.00018744,0,
1,7.32773,0.983978,-0.121693,6.43041e-05,0,
1,7.15495,0.991318,-0.122411,1.30929e-05,0,
1,6.97022,0.993475,-0.123248,9.81289e-07,0,
1,6.77388,0.993194,-0.124213,8.73098e-09,0,
1,6.56652,0.99269,-0.125327,9.7843e-09,0,
1,6.34896,0.992792,-0.126604,1.1978e-08,0,
1,6.12229,0.993396,-0.128061,1.37961e-08,0,
1,5.88784,0.994204,-0.129714,1.50891e-08,0,
1,5.64716,0.99507,-0.131579,1.60749e-08,0,
1,5.40194,0.995985,-0.133673,1.73653e-08,0,
1,5.15407,0.996989,-0.136009,1.91053e-08,0,
1,4.90545,0.998107,-0.138596,2.12233e-08,0,
1,4.65805,0.99935,-0.141443,2.3554e-08,0,
1,4.41376,1.00071,-0.144552,2.58596e-08,0,
1,4.17441,1.00215,-0.147919,2.79936e-08,0,
1,3.94163,1.00361,-0.151538,3.02189e-08,0,
1,3.7169,1.00512,-0.15539,3.40839e-08,0,
1,3.50146,1.0069,-0.159456,4.19243e-08,0,
1,3.29629,1.00937,-0.163715,5.37199e-08,0,
1,3.10217,1.01262,-0.168148,7.11754e-08,0,
1,2.91959,1.01571,-0.172723,6.63778e-07,0,
1,2.74885,1.01641,-0.177378,7.86978e-07,0,
1,2.59002,1.01256,-0.182039,-2.5095e-05,0,
1,2.44299,1.00365,-0.186611,-0.000100427,0,
1,2.30752,0.990787,-0.191016,-0.000220688,0,
1,2.18321,0.975568,-0.195242,-0.000318791,0,
1,2.06959,0.959497,-0.199226,-0.00041159,0,
1,1.9661,0.943772,-0.20293,-0.000497049,0,
1,1.87215,0.929067,-0.206367,-0.000569656,0,
1,1.78711,0.91559,-0.209542,-0.000629289,0,
1,1.71033,0.903272,-0.212465,-0.000678238,0,
1,1.64119,0.891924,-0.215144,-0.000719461,0,
1,1.57905,0.881337,-0.217592,-0.000755616,0,
1,1.52332,0.871332,-0.219819,-0.000788692,0,
1,1.47342,0.86178,-0.221839,-0.000820082,0,
1,1.42882,0.852595,-0.223666,-0.000851003,0,
1,1.389,0.843723,-0.225315,-0.000882795,0,
1,1.35351,0.835133,-0.2268,-0.000917011,0,
1,1.3219,0.826825,-0.228151,-0.000955726,0,
1,1.29378,0.81883,-0.22935,-0.000987122,0,
1,1.26878,0.811169,-0.23039,-0.000998154,0,
1,1.24659,0.80383,-0.23132,-0.00100829,0,
1,1.22689,0.796812,-0.232145,-0.00101682,0,
1,1.2092,0.790033,-0.232884,-0.00102313,0,
1,1.1932,0.783432,-0.233551,-0.00103081,0,
1,1.1787,0.776965,-0.234152,-0.00104441,0,
1,1.16554,0.770542,-0.234694,-0.00107268,0,
1,1.15357,0.764015,-0.235184,-0.00112993,0,
1,1.14266,0.757153,-0.235632,-0.00123597,0,
1,1.13268,0.749649,-0.236049,-0.00141443,0,
1,1.12354,0.741152,-0.236447,-0.00168866,0,
1,1.11514,0.731374,-0.236835,-0.00207479,0,
1,1.10739,0.720205,-0.237219,-0.00257358,0,
1,1.10022,0.707777,-0.237601,-0.00316658,0,
1,1.09357,0.694421,-0.237981,-0.0038225,0,
1,1.08738,0.680553,-0.238358,-0.00450455,0,
1,1.0816,0.666561,-0.23873,-0.00518052,0,
1,1.07618,0.652745,-0.239096,-0.00582769,0,
1,1.07107,0.639307,-0.239453,-0.00643283,0,
1,1.06626,0.626367,-0.239802,-0.00698994,0,
1,1.06169,0.613983,-0.240141,-0.00749782,0,
1,1.05735,0.602174,-0.240471,-0.00795806,0,
1,1.05321,0.590933,-0.240791,-0.00837359,0,
1,1.04925,0.580236,-0.241103,-0.00874806,0,
1,1.04544,0.570053,-0.241406,-0.0090852,0,
1,1.04177,0.560349,-0.241702,-0.00938865,0,
1,1.03822,0.551088,-0.24199,-0.00966176,0,
1,1.03478,0.542236,-0.242272,-0.00990905,0,
1,1.03144,0.533757,-0.242547,-0.0101314,0,
1,1.02818,0.525614,-0.242815,-0.0103309,0,
1,1.025,0.517771,-0.243077,-0.0105103,0,
1,1.02188,0.510196,-0.243333,-0.0106721,0,
1,1.01882,0.50286,-0.243583,-0.0108181,0,
1,1.01581,0.495738,-0.243829,-0.0109499,0,
1,1.01284,0.488809,-0.244071,-0.0110678,0,
1,1.00988,0.481978,-0.244311,-0.0111746,0,
1,1.00688,0.475156,-0.244554,-0.0112729,0,
1,1.00384,0.468331,-0.244799,-0.0113621,0,
1,1.00076,0.461487,-0.245047,-0.0114422,0,
1,0.997615,0.454611,-0.245299,-0.0115134,0,
1,0.99441,0.447687,-0.245555,-0.0115756,0,
1,0.991131,0.440698,-0.245816,-0.0116286,0,
1,0.987768,0.433626,-0.246083,-0.0116723,0,
1,0.984308,0.426454,-0.246356,-0.0117063,0,
1,0.980739,0.41916,-0.246638,-0.0117302,0,
1,0.977045,0.411724,-0.246929,-0.0117433,0,
1,0.973211,0.404124,-0.247229,-0.0117449,0,
1,0.969219,0.396336,-0.247542,-0.011734,0,
1,0.965047,0.388335,-0.247869,-0.0117093,0,
1,0.960675,0.380096,-0.248212,-0.0116693,0,
1,0.956077,0.371592,-0.248571,-0.011612,0,
1,0.951224,0.362796,-0.248944,-0.011537,0,
1,0.946088,0.353677,-0.249299,-0.0114266,0,
1,0.940633,0.344202,-0.249582,-0.0113365,0,
1,0.934823,0.334263,-0.249753,-0.0111183,0,
1,0.928616,0.323704,-0.249819,-0.0108652,0,
1,0.921967,0.31244,-0.249807,-0.0105899,0,
1,0.914826,0.300423,-0.249768,-0.010295,0,
1,0.907141,0.287616,-0.249763,-0.00997757,0,
1,0.898852,0.273991,-0.249783,-0.00963642,0,
1,0.889898,0.259525,-0.249828,-0.00927001,0,
1,0.880212,0.244205,-0.249915,-0.00887588,0,
1,0.869723,0.228047,-0.250047,-0.0084547,0,
1,0.858358,0.21111,-0.250228,-0.00800458,0,
1,0.846039,0.193495,-0.250452,-0.00752625,0,
1,0.83269,0.175335,-0.250706,-0.00702388,0,
1,0.818232,0.156772,-0.250971,-0.00650441,0,
1,0.802744,0.138089,-0.251249,-0.00596555,0,
1,0.78635,0.119543,-0.251565,-0.00540856,0,
1,0.768969,0.101186,-0.251931,-0.00485136,0,
1,0.75053,0.0832213,-0.252353,-0.00431695,0,
1,0.730977,0.0660052,-0.252816,-0.00383014,0,
1,0.710271,0.04994,-0.253275,-0.00341029,0,
1,0.688397,0.0353069,-0.253661,-0.00306588,0,
1,0.66536,0.0221595,-0.253927,-0.00279618,0,
1,0.641194,0.0103512,-0.254051,-0.00259212,0,
1,0.615961,-0.000346648,-0.254077,-0.00243565,0,
1,0.589754,-0.0101295,-0.254018,-0.00231414,0,
1,0.562692,-0.0191658,-0.253911,-0.00220275,0,
1,0.534925,-0.0276294,-0.253806,-0.00208565,0,
1,0.506624,-0.0356585,-0.253673,-0.00198505,0,
1,0.477982,-0.0433399,-0.2535,-0.00189779,0,
1,0.449206,-0.0507176,-0.253309,-0.00181622,0,
1,0.420509,-0.0578074,-0.253107,-0.00173539,0,
1,0.392107,-0.0646087,-0.252904,-0.00165268,0,
1,0.364206,-0.0711107,-0.252705,-0.00156659,0,
1,0.337003,-0.0772975,-0.252518,-0.0014766,0,
1,0.310673,-0.0831517,-0.252348,-0.00138286,0,
1,0.28537,-0.0886569,-0.252198,-0.00128597,0,
1,0.26122,-0.0937997,-0.252072,-0.00118681,0,
1,0.238324,-0.0985702,-0.251972,-0.00108636,0,
1,0.21675,-0.102963,-0.251897,-0.000985672,0,
1,0.196544,-0.106977,-0.251848,-0.00088574,0,
1,0.177724,-0.110613,-0.251822,-0.000787496,0,
1,0.160284,-0.113878,-0.251819,-0.000691766,0,
1,0.144202,-0.116779,-0.251834,-0.000599268,0,
1,0.129436,-0.119325,-0.251866,-0.00051061,0,
1,0.115935,-0.121528,-0.251911,-0.000426283,0,
1,0.103636,-0.123399,-0.251965,-0.000346666,0,
1,0.0924701,-0.12495,-0.252027,-0.000272035,0,
1,0.0823633,-0.12619,-0.252093,-0.000202572,0,
1,0.0732406,-0.127129,-0.252162,-0.000138375,0,
1,0.0650269,-0.127776,-0.252231,-7.94722e-05,0,
1,0.057648,-0.128134,-0.252298,-2.58349e-05,0,
1,0.0510323,-0.128206,-0.252364,2.26056e-05,0,
1,0.0451115,-0.12799,-0.252425,6.59419e-05,0,
1,0.0398209,-0.127479,-0.252483,0.000104271,0,
1,0.0351001,-0.126658,-0.252536,0.000137673,0,
1,0.0308929,-0.125505,-0.252584,0.00016618,0,
1,0.0271475,-0.123986,-0.252627,0.00018974,0,
1,0.0238164,-0.122053,-0.252666,0.000208162,0,
1,0.0208562,-0.119636,-0.252698,0.000221047,0,
1,0.0182274,-0.11664,-0.252727,0.000227693,0,
1,0.0158944,-0.112935,-0.252749,0.000226996,0,
1,0.0138249,-0.108358,-0.252769,0.000217443,0,
1,0.0119898,-0.102718,-0.252783,0.000197425,0,
1,0.0103632,-0.0958366,-0.252795,0.000166286,0,
1,0.00892169,-0.0876476,-0.252801,0.000126249,0,
1,0.00764438,-0.0783243,-0.252808,8.38441e-05,0,
1,0.00651264,-0.0683496,-0.252809,4.77598e-05,0,
1,0.00550983,-0.0583812,-0.252813,2.33365e-05,0,
1,0.00462115,-0.04898,-0.252813,9.93774e-06,0,
1,0.00383341,-0.0404502,-0.252816,3.75199e-06,0,
1,0.0031349,-0.0328699,-0.252815,1.26266e-06,0,
1,0.00251518,-0.0261941,-0.252818,3.73883e-07,0,
1,0.00196502,-0.0203313,-0.252816,9.399e-08,0,
1,0.00147619,-0.0151816,-0.25282,1.87251e-08,0,
1,0.00104139,-0.0106517,-0.252817,2.59789e-09,0,
1,0.000654158,-0.00665859,-0.252822,1.92988e-10,0,
1,0.000308731,-0.00312974,-0.252817,4.20974e-12,0,

4,0,0,-0.0850809,0,0,
4,9,0,-0.0869405,0,0,
4,8.99969,0.0149508,-0.0869402,2.96446e-10,0,
4,8.99934,0.0318525,-0.0869404,1.37522e-08,0,
4,8.99894,0.0509784,-0.0869401,1.87728e-07,0,
4,8.9985,0.0726158,-0.0869403,1.36122e-06,0,
4,8.99799,0.0970474,-0.0869401,6.73585e-06,0,
4,8.99742,0.124441,-0.0869403,2.53158e-05,0,
4,8.99677,0.154588,-0.08694,7.48771e-05,0,
4,8.99605,0.186547,-0.0869401,0.000175038,0,
4,8.99522,0.218623,-0.0869398,0.000326543,0,
4,8.99429,0.248992,-0.0869398,0.000507882,0,
4,8.99324,0.276799,-0.0869394,0.000666949,0,
4,8.99205,0.302184,-0.0869391,0.000788444,0,
4,8.9907,0.32544,-0.0869386,0.000889548,0,
4,8.98919,0.346803,-0.0869381,0.000972046,0,
4,8.98747,0.366545,-0.0869374,0.00103955,0,
4,8.98553,0.384985,-0.0869367,0.00109179,0,
4,8.98334,0.402422,-0.0869357,0.00113298,0,
4,8.98087,0.419049,-0.0869346,0.00116946,0,
4,8.97807,0.434991,-0.0869332,0.00120109,0,
4,8.97491,0.450355,-0.0869316,0.00122887,0,
4,8.97134,0.465234,-0.0869298,0.00125361,0,
4,8.96731,0.479706,-0.0869276,0.0012759,0,
4,8.96276,0.493841,-0.086925,0.00129619,0,
4,8.95762,0.507698,-0.086922,0.00131481,0,
4,8.95182,0.52133,-0.0869186,0.00133197,0,
4,8.94526,0.534784,-0.0869147,0.00134782,0,
4,8.93787,0.548099,-0.0869102,0.00136241,0,
4,8.92952,0.561311,-0.0869051,0.00137573,0,
4,8.92011,0.574451,-0.0868993,0.00138775,0,
4,8.90949,0.587544,-0.0868929,0.00139835,0,
4,8.89751,0.600615,-0.0868857,0.00140741,0,
4,8.88402,0.61368,-0.0868777,0.00141474,0,
4,8.86881,0.626757,-0.086869,0.00142018,0,
4,8.85169,0.639856,-0.0868596,0.0014235,0,
4,8.83242,0.652986,-0.0868494,0.0014245,0,
4,8.81074,0.666155,-0.0868386,0.00142299,0,
4,8.78637,0.679366,-0.0868273,0.00141876,0,
4,8.75901,0.69262,-0.0868156,0.00141163,0,
4,8.7283,0.705921,-0.0868038,0.00140143,0,
4,8.69387,0.719267,-0.0867922,0.00138798,0,
4,8.65533,0.732659,-0.0867812,0.00137109,0,
4,8.61222,0.746094,-0.0867712,0.00135049,0,
4,8.56407,0.75957,-0.0867628,0.00132582,0,
4,8.5104,0.773076,-0.0867569,0.00129664,0,
4,8.45065,0.786597,-0.0867536,0.00126431,0,
4,8.38429,0.800136,-0.0867567,0.00123199,0,
4,8.31073,0.813834,-0.0867703,0.001197,0,
4,8.22941,0.828087,-0.0868002,0.00113796,0,
4,8.13974,0.843422,-0.0868496,0.00106167,0,
4,8.04115,0.860286,-0.0869154,0.0009627,0,
4,7.93313,0.878932,-0.0870004,0.000836614,0,
4,7.81519,0.899202,-0.087101,0.000684973,0,
4,7.68693,0.920203,-0.0872118,0.000521633,0,
4,7.54803,0.940205,-0.0873499,0.000367015,0,
4,7.39831,0.95709,-0.0874993,0.000202816,0,
4,7.23771,0.968939,-0.0876765,8.36547e-05,0,
4,7.06634,0.975182,-0.0878906,2.30369e-05,0,
4,6.88453,0.977123,-0.0881316,2.75633e-06,0,
4,6.69275,0.976925,-0.0883959,-3.91679e-07,0,
4,6.49173,0.976286,-0.0886833,-1.70119e-07,0,
4,6.28238,0.975945,-0.0889974,-7.40668e-09,0,
4,6.06579,0.975949,-0.0893418,1.09121e-08,0,
4,5.84328,0.976118,-0.0897181,6.81864e-09,0,
4,5.61626,0.976313,-0.090126,4.26238e-09,0,
4,5.3863,0.976486,-0.0905641,3.37359e-09,0,
4,5.15502,0.976645,-0.0910301,3.18794e-09,0,
4,4.92406,0.976809,-0.0915203,3.31634e-09,0,
4,4.69507,0.976992,-0.0920299,3.51432e-09,0,
4,4.46961,0.977188,-0.092553,3.45151e-09,0,
4,4.24915,0.977352,-0.0930828,2.76592e-09,0,
4,4.03501,0.97741,-0.0936115,1.463e-09,0,
4,3.82836,0.97733,-0.0941309,5.04153e-10,0,
4,3.63018,0.977229,-0.0946327,1.99205e-09,0,
4,3.44125,0.977429,-0.0951089,1.17889e-08,0,
4,3.26217,0.978291,-0.0955518,1.45333e-07,0,
4,3.09333,0.979828,-0.0959521,9.58751e-07,0,
4,2.93497,0.981393,-0.0963024,1.97246e-06,0,
4,2.78715,0.98185,-0.0965991,-2.58753e-06,0,
4,2.64979,0.980137,-0.0968403,-2.27736e-05,0,
4,2.52268,0.975717,-0.097027,-6.59593e-05,0,
4,2.40551,0.968665,-0.097159,-0.000132703,0,
4,2.29789,0.959518,-0.0972394,-0.000216785,0,
4,2.19939,0.949059,-0.0972748,-0.000308189,0,
4,2.10949,0.938051,-0.0972626,-0.000399484,0,
4,2.02768,0.926968,-0.0972298,-0.000463856,0,
4,1.95343,0.916039,-0.0971802,-0.000514325,0,
4,1.88618,0.905492,-0.0970982,-0.00056119,0,
4,1.82542,0.895529,-0.0970015,-0.000604174,0,
4,1.77062,0.886267,-0.0968909,-0.000643366,0,
4,1.72128,0.877756,-0.0967745,-0.000678508,0,
4,1.67693,0.869992,-0.0966553,-0.000709791,0,
4,1.63713,0.86294,-0.0965374,-0.00073761,0,
4,1.60144,0.85655,-0.0964228,-0.000762471,0,
4,1.56949,0.850771,-0.0963135,-0.00078479,0,
4,1.54091,0.845546,-0.0962104,-0.000804937,0,
4,1.51537,0.840807,-0.0961143,-0.00082358,0,
4,1.49167,0.836348,-0.0960214,-0.000841541,0,
4,1.46926,0.832071,-0.0959301,-0.000859191,0,
4,1.44801,0.827958,-0.0958392,-0.000876695,0,
4,1.42781,0.824007,-0.0957472,-0.000894137,0,
4,1.40855,0.820227,-0.0956528,-0.000911568,0,
4,1.39015,0.816633,-0.0955574,-0.000929137,0,
4,1.37252,0.813219,-0.095462,-0.000946446,0,
4,1.3556,0.809929,-0.0953846,-0.000954821,0,
4,1.3393,0.806692,-0.0953189,-0.000961512,0,
4,1.32357,0.803468,-0.0952485,-0.000973886,0,
4,1.30836,0.800236,-0.0951811,-0.000989917,0,
4,1.29362,0.796969,-0.0951139,-0.00101093,0,
4,1.2793,0.793639,-0.0950478,-0.00103844,0,
4,1.26537,0.790213,-0.0949824,-0.00107418,0,
4,1.25179,0.786654,-0.0949175,-0.00112007,0,
4,1.23852,0.78292,-0.094853,-0.00117814,0,
4,1.22554,0.778966,-0.0947886,-0.00125051,0,
4,1.21282,0.774746,-0.0947242,-0.00133921,0,
4,1.20034,0.770213,-0.0946596,-0.00144603,0,
4,1.18806,0.765328,-0.0945946,-0.00157234,0,
4,1.17599,0.760055,-0.0945291,-0.00171885,0,
4,1.16408,0.754372,-0.094463,-0.00188549,0,
4,1.15233,0.74827,-0.0943963,-0.00207132,0,
4,1.14073,0.741753,-0.0943291,-0.00227452,0,
4,1.12925,0.734841,-0.0942616,-0.00249254,0,
4,1.11788,0.727563,-0.0941939,-0.0027223,0,
4,1.10661,0.719955,-0.0941262,-0.00296043,0,
4,1.09543,0.71206,-0.0940587,-0.00320352,0,
4,1.08432,0.70392,-0.0939915,-0.00344827,0,
4,1.07328,0.695577,-0.0939248,-0.00369163,0,
4,1.0623,0.687071,-0.0938587,-0.00393095,0,
4,1.05136,0.678439,-0.093793,-0.00416391,0,
4,1.04044,0.6697,-0.0937281,-0.0043888,0,
4,1.0295,0.660865,-0.0936634,-0.00461307,0,
4,1.01855,0.651927,-0.0935943,-0.00482574,0,
4,1.00757,0.642823,-0.0935195,-0.00502544,0,
4,0.996544,0.633483,-0.0934428,-0.00522885,0,
4,0.98547,0.62386,-0.0933661,-0.00543779,0,
4,0.974334,0.61391,-0.0932905,-0.00565371,0,
4,0.963124,0.603593,-0.0932163,-0.00587786,0,
4,0.951826,0.592869,-0.093144,-0.00611138,0,
4,0.940428,0.581696,-0.0930734,-0.0063553,0,
4,0.928915,0.570034,-0.0930048,-0.00661055,0,
4,0.917272,0.557851,-0.092938,-0.00687807,0,
4,0.905481,0.545126,-0.092873,-0.0071591,0,
4,0.893524,0.531851,-0.0928112,-0.00745517,0,
4,0.881383,0.51802,-0.0927539,-0.00776113,0,
4,0.869035,0.503623,-0.0927016,-0.00807602,0,
4,0.856459,0.488651,-0.0926547,-0.00839856,0,
4,0.843629,0.473102,-0.0926139,-0.00872694,0,
4,0.830518,0.45699,-0.0925795,-0.0090587,0,
4,0.817097,0.440349,-0.0925522,-0.00939067,0,
4,0.803334,0.423233,-0.0925327,-0.00971895,0,
4,0.789195,0.405718,-0.0925214,-0.010039,0,
4,0.774643,0.387889,-0.0925185,-0.0103458,0,
4,0.759639,0.36983,-0.0925234,-0.0106326,0,
4,0.744138,0.351614,-0.0925354,-0.0108935,0,
4,0.728096,0.333293,-0.0925536,-0.0111238,0,
4,0.711463,0.314906,-0.0925776,-0.01132,0,
4,0.694189,0.296484,-0.0926074,-0.0114795,0,
4,0.676218,0.278047,-0.0926434,-0.0116005,0,
4,0.657495,0.259612,-0.0926846,-0.0116818,0,
4,0.637962,0.241175,-0.0927274,-0.0117219,0,
4,0.617561,0.222706,-0.0927626,-0.011719,0,
4,0.596848,0.204661,-0.0927784,-0.0116717,0,
4,0.576557,0.187573,-0.092772,-0.0115826,0,
4,0.556564,0.171268,-0.0927511,-0.011454,0,
4,0.536763,0.155652,-0.0927419,-0.0112874,0,
4,0.517057,0.140763,-0.0928009,-0.0110873,0,
4,0.497368,0.126791,-0.0930087,-0.0108634,0,
4,0.477632,0.114023,-0.0934421,-0.0106315,0,
4,0.457804,0.102671,-0.0941294,-0.0104094,0,
4,0.437857,0.0926547,-0.0947899,-0.0102013,0,
4,0.417786,0.0834599,-0.0948682,-0.00966109,0,
4,0.397605,0.0746258,-0.0945534,-0.00916598,0,
4,0.377348,0.0660202,-0.094271,-0.00872086,0,
4,0.357066,0.0576371,-0.0939537,-0.0082679,0,
4,0.336828,0.0494857,-0.0936091,-0.00781011,0,
4,0.316717,0.0415852,-0.0932466,-0.00735113,0,
4,0.296825,0.0339595,-0.092866,-0.00689172,0,
4,0.27725,0.0266309,-0.0924685,-0.00643487,0,
4,0.258095,0.0196192,-0.0920566,-0.00598364,0,
4,0.239458,0.0129407,-0.091633,-0.00554103,0,
4,0.221432,0.00660749,-0.0912015,-0.00510992,0,
4,0.2041,0.000627051,-0.0907659,-0.00469294,0,
4,0.187537,-0.00499747,-0.0903306,-0.00429237,0,
4,0.171798,-0.0102672,-0.0899001,-0.00391012,0,
4,0.156928,-0.0151872,-0.0894785,-0.00354769,0,
4,0.142956,-0.0197655,-0.0890699,-0.00320612,0,
4,0.129894,-0.024013,-0.088678,-0.00288607,0,
4,0.117744,-0.0279423,-0.0883057,-0.00258777,0,
4,0.106492,-0.0315677,-0.0879555,-0.00231111,0,
4,0.0961173,-0.0349041,-0.0876289,-0.00205568,0,
4,0.0865883,-0.0379669,-0.087327,-0.00182082,0,
4,0.0778675,-0.0407718,-0.0870503,-0.00160569,0,
4,0.0699123,-0.0433339,-0.0867984,-0.00140927,0,
4,0.062677,-0.0456679,-0.0865709,-0.00123049,0,
4,0.056114,-0.0477879,-0.0863667,-0.00106818,0,
4,0.0501747,-0.049707,-0.0861846,-0.000921178,0,
4,0.0448114,-0.0514374,-0.0860231,-0.000788308,0,
4,0.039977,-0.0529902,-0.0858806,-0.00066843,0,
4,0.0356266,-0.0543751,-0.0857556,-0.000560446,0,
4,0.0317171,-0.0556007,-0.0856464,-0.000463315,0,
4,0.0282081,-0.0566739,-0.0855515,-0.000376062,0,
4,0.0250617,-0.0575999,-0.0854695,-0.000297786,0,
4,0.0222427,-0.0583818,-0.0853988,-0.000227665,0,
4,0.0197189,-0.0590201,-0.0853385,-0.000164965,0,
4,0.0174603,-0.059512,-0.0852869,-0.000109046,0,
4,0.0154398,-0.0598503,-0.0852436,-5.93803e-05,0,
4,0.0136326,-0.0600217,-0.0852069,-1.55815e-05,0,
4,0.0120162,-0.0600039,-0.0851771,2.25434e-05,0,
4,0.0105703,-0.0597616,-0.0851519,5.4897e-05,0,
4,0.00927657,-0.0592394,-0.0851327,8.09189e-05,0,
4,0.00811839,-0.0583521,-0.0851166,9.93248e-05,0,
4,0.0070809,-0.0569731,-0.0851059,0.000107878,0,
4,0.0061507,-0.0549295,-0.0850967,0.000103836,0,
4,0.00531578,-0.0520334,-0.0850925,8.63614e-05,0,
4,0.00456537,-0.0481845,-0.085088,6.02042e-05,0,
4,0.00388979,-0.0434992,-0.0850876,3.4743e-05,0,
4,0.00328037,-0.0382967,-0.0850851,1.67939e-05,0,
4,0.00272934,-0.0329201,-0.0850862,6.93137e-06,0,
4,0.0022297,-0.0276027,-0.0850839,2.45474e-06,0,
4,0.00177519,-0.0224618,-0.0850856,7.29058e-07,0,
4,0.00136016,-0.0175414,-0.0850829,1.70687e-07,0,
4,0.000979511,-0.0128491,-0.0850853,2.77473e-08,0,
4,0.00062865,-0.00837464,-0.085082,2.39962e-09,0,
4,0.000303409,-0.0040996,-0.0850852,5.91823e-11,0,

6,0,0,0.00557097,0,0,
6,9,0,-0.0637541,0,0,
6,8.99969,0.0142248,-0.0637538,2.4827e-10,0,
6,8.99934,0.0302633,-0.063754,1.14559e-08,0,
6,8.99895,0.0483644,-0.0637537,1.55255e-07,0,
6,8.9985,0.0687891,-0.0637539,1.1177e-06,0,
6,8.99801,0.0917985,-0.0637537,5.50167e-06,0,
6,8.99744,0.117566,-0.0637538,2.06683e-05,0,
6,8.99681,0.145961,-0.0637536,6.16278e-05,0,
6,8.99609,0.176236,-0.0637537,0.000146708,0,
6,8.99529,0.206927,-0.0637535,0.000280541,0,
6,8.99438,0.23633,-0.0637535,0.000445665,0,
6,8.99336,0.263381,-0.0637532,0.000605524,0,
6,8.9922,0.288098,-0.063753,0.000723694,0,
6,8.9909,0.310778,-0.0637527,0.000823589,0,
6,8.98944,0.331616,-0.0637523,0.000906088,0,
6,8.98779,0.35085,-0.0637518,0.000974108,0,
6,8.98593,0.368777,-0.0637513,0.00102743,0,
6,8.98383,0.385688,-0.0637506,0.00106939,0,
6,8.98147,0.401777,-0.0637498,0.00110669,0,
6,8.97881,0.417171,-0.0637487,0.00113924,0,
6,8.97581,0.431975,-0.0637475,0.00116809,0,
6,8.97244,0.446285,-0.063746,0.00119405,0,
6,8.96863,0.460179,-0.0637443,0.00121777,0,
6,8.96435,0.473729,-0.0637422,0.00123972,0,
6,8.95953,0.486997,-0.0637397,0.00126027,0,
6,8.95409,0.500037,-0.0637367,0.00127966,0,
6,8.94798,0.512899,-0.0637333,0.00129806,0,
6,8.94109,0.525625,-0.0637292,0.00131556,0,
6,8.93334,0.538255,-0.0637245,0.00133218,0,
6,8.92463,0.550822,-0.0637191,0.00134788,0,
6,8.91482,0.563359,-0.0637127,0.00136256,0,
6,8.90379,0.575891,-0.0637055,0.00137608,0,
6,8.89139,0.588442,-0.0636972,0.00138825,0,
6,8.87746,0.601031,-0.0636877,0.00139885,0,
6,8.86181,0.613675,-0.063677,0.0014076,0,
6,8.84423,0.626386,-0.0636648,0.00141422,0,
6,8.82452,0.639173,-0.0636511,0.00141843,0,
6,8.80241,0.65204,-0.0636358,0.00141991,0,
6,8.77763,0.664991,-0.0636186,0.00141837,0,
6,8.74989,0.678024,-0.0635994,0.00141354,0,
6,8.71885,0.691137,-0.063578,0.00140515,0,
6,8.68417,0.704322,-0.0635542,0.00139295,0,
6,8.64545,0.717573,-0.0635276,0.00137667,0,
6,8.60229,0.730879,-0.0634982,0.00135596,0,
6,8.55423,0.744224,-0.0634651,0.00133035,0,
6,8.50082,0.757584,-0.0634284,0.00129941,0,
6,8.44155,0.770926,-0.0633866,0.00126419,0,
6,8.37592,0.78424,-0.0633417,0.00122854,0,
6,8.30339,0.797663,-0.0632986,0.00118317,0,
6,8.22344,0.811541,-0.0632576,0.00112538,0,
6,8.13555,0.826339,-0.0632161,0.00105345,0,
6,8.0392,0.842546,-0.0631719,0.000962839,0,
6,7.93391,0.860533,-0.0631164,0.000849103,0,
6,7.81927,0.880297,-0.0630466,0.000712614,0,
6,7.6949,0.9011,-0.0629447,0.00056235,0,
6,7.56054,0.921317,-0.0628237,0.000416773,0,
6,7.41603,0.938936,-0.0626529,0.000281491,0,
6,7.26132,0.952305,-0.0624497,0.000139458,0,
6,7.09653,0.960565,-0.0622231,5.17975e-05,0,
6,6.92195,0.964211,-0.0619488,1.12223e-05,0,
6,6.73802,0.964852,-0.0616309,-5.65664e-07,0,
6,6.5454,0.964221,-0.0612591,-1.45773e-06,0,
6,6.34489,0.963429,-0.0608287,-6.35159e-07,0,
6,6.1375,0.962868,-0.0603338,-2.05594e-07,0,
6,5.92439,0.962508,-0.0597689,-7.05537e-08,0,
6,5.70687,0.962209,-0.0591278,-3.05041e-08,0,
6,5.48633,0.961877,-0.0584049,-1.70297e-08,0,
6,5.26426,0.961479,-0.0575944,-1.23582e-08,0,
6,5.04218,0.961023,-0.0566919,-1.10841e-08,0,
6,4.82159,0.960529,-0.0556936,-1.11622e-08,0,
6,4.60398,0.960009,-0.0545976,-1.19188e-08,0,
6,4.39071,0.959442,-0.0534037,-1.33516e-08,0,
6,4.18307,0.958775,-0.0521141,-1.56625e-08,0,
6,3.98218,0.957941,-0.0507334,-1.86582e-08,0,
6,3.78902,0.956937,-0.0492693,-2.23575e-08,0,
6,3.60438,0.955903,-0.0477315,-3.98928e-08,0,
6,3.42888,0.955124,-0.0461313,-1.18426e-07,0,
6,3.26296,0.954882,-0.0444804,-2.61612e-07,0,
6,3.10691,0.955232,-0.0427905,-3.54726e-07,0,
6,2.96084,0.955851,-0.041075,-9.09831e-07,0,
6,2.82473,0.956117,-0.0393501,-4.53588e-06,0,
6,2.69844,0.955356,-0.0376349,-1.58615e-05,0,
6,2.58172,0.953082,-0.0359494,-3.93049e-05,0,
6,2.47424,0.949116,-0.0343124,-7.67729e-05,0,
6,2.37559,0.943575,-0.0327411,-0.000126906,0,
6,2.28535,0.936792,-0.0312456,-0.00018544,0,
6,2.20301,0.929227,-0.02984,-0.000246516,0,
6,2.1281,0.921352,-0.0285187,-0.000306214,0,
6,2.06009,0.91348,-0.0272989,-0.000357379,0,
6,1.99849,0.905705,-0.0261806,-0.000387597,0,
6,1.9428,0.898095,-0.025142,-0.000417052,0,
6,1.89255,0.89077,-0.0241944,-0.000445689,0,
6,1.84728,0.883822,-0.0233266,-0.000473321,0,
6,1.80655,0.877317,-0.0225389,-0.000499759,0,
6,1.76996,0.871295,-0.0218232,-0.000524683,0,
6,1.73712,0.865771,-0.0211764,-0.000547759,0,
6,1.70768,0.860702,-0.0205906,-0.00056931,0,
6,1.67998,0.855858,-0.0200386,-0.000590262,0,
6,1.65329,0.851139,-0.0195027,-0.000610637,0,
6,1.62754,0.84654,-0.0189831,-0.000630326,0,
6,1.60265,0.842053,-0.0184778,-0.000649429,0,
6,1.57854,0.837673,-0.0179863,-0.000668005,0,
6,1.55515,0.833392,-0.0175071,-0.000686148,0,
6,1.53242,0.829204,-0.0170394,-0.000703964,0,
6,1.5103,0.825102,-0.0165824,-0.000721583,0,
6,1.48874,0.821079,-0.0161352,-0.00073914,0,
6,1.46769,0.81713,-0.015697,-0.000756751,0,
6,1.44712,0.813245,-0.0152676,-0.000774508,0,
6,1.42698,0.809407,-0.0148465,-0.000792087,0,
6,1.40725,0.80559,-0.0144333,-0.000809784,0,
6,1.38788,0.801771,-0.0140271,-0.000828241,0,
6,1.36886,0.797936,-0.0136266,-0.000848296,0,
6,1.35015,0.794091,-0.0132303,-0.000870847,0,
6,1.33173,0.790265,-0.0128369,-0.000896735,0,
6,1.31357,0.786492,-0.0124453,-0.00092635,0,
6,1.29566,0.782786,-0.012058,-0.000959604,0,
6,1.27797,0.779109,-0.0116747,-0.000995968,0,
6,1.26048,0.775369,-0.0113032,-0.00103121,0,
6,1.24318,0.771457,-0.0109391,-0.00107484,0,
6,1.22605,0.767305,-0.0105748,-0.00113353,0,
6,1.20907,0.762862,-0.0102157,-0.00120621,0,
6,1.19223,0.75808,-0.0098595,-0.00129472,0,
6,1.17551,0.752911,-0.00950743,-0.00140058,0,
6,1.1589,0.747315,-0.00915916,-0.00152481,0,
6,1.14238,0.741265,-0.00881514,-0.00166774,0,
6,1.12595,0.734744,-0.00847551,-0.00182886,0,
6,1.10959,0.727755,-0.00814057,-0.00200684,0,
6,1.09329,0.720313,-0.00781055,-0.00219964,0,
6,1.07704,0.712446,-0.00748567,-0.0024047,0,
6,1.06081,0.704186,-0.00716588,-0.00262099,0,
6,1.04459,0.69556,-0.00685068,-0.00284704,0,
6,1.02836,0.686559,-0.00653897,-0.00307526,0,
6,1.01211,0.677157,-0.00623073,-0.00331199,0,
6,0.99583,0.66733,-0.00592669,-0.00355812,0,
6,0.97951,0.657057,-0.00562727,-0.00381452,0,
6,0.963136,0.646316,-0.00533293,-0.00408194,0,
6,0.946694,0.635078,-0.00504382,-0.00436107,0,
6,0.930172,0.623306,-0.00475985,-0.00465248,0,
6,0.913555,0.610947,-0.00448086,-0.00495676,0,
6,0.896829,0.597942,-0.00420726,-0.00527445,0,
6,0.879979,0.584246,-0.00394067,-0.00560635,0,
6,0.862989,0.569853,-0.00368487,-0.00595429,0,
6,0.845842,0.554817,-0.00344345,-0.00632129,0,
6,0.828521,0.539218,-0.00321684,-0.00669259,0,
6,0.811008,0.523135,-0.00300541,-0.00706309,0,
6,0.793282,0.506657,-0.00281075,-0.00742749,0,
6,0.775322,0.489889,-0.00263492,-0.00778011,0,
6,0.757107,0.472952,-0.00248027,-0.00811489,0,
6,0.738612,0.455971,-0.00234822,-0.00842537,0,
6,0.719813,0.439059,-0.00223819,-0.00870486,0,
6,0.700681,0.422303,-0.00214723,-0.0089483,0,
6,0.681188,0.405752,-0.00206926,-0.00915262,0,
6,0.661304,0.389413,-0.0019945,-0.0093157,0,
6,0.640996,0.373254,-0.00191177,-0.00943542,0,
6,0.620228,0.357226,-0.00181593,-0.00950933,0,
6,0.598964,0.341308,-0.00171991,-0.00953538,0,
6,0.577166,0.325588,-0.00166684,-0.00951437,0,
6,0.554791,0.31033,-0.00173493,-0.0094538,0,
6,0.531799,0.295959,-0.00201178,-0.0093699,0,
6,0.508144,0.282875,-0.00255477,-0.00928376,0,
6,0.48378,0.271119,-0.00311964,-0.00918542,0,
6,0.459585,0.260534,-0.00316941,-0.00870441,0,
6,0.436695,0.251032,-0.00290805,-0.00830246,0,
6,0.414961,0.242353,-0.00271378,-0.00794385,0,
6,0.394252,0.234356,-0.00248217,-0.00758966,0,
6,0.374445,0.226923,-0.002225,-0.00723965,0,
6,0.355433,0.219961,-0.00194995,-0.00689703,0,
6,0.337122,0.213396,-0.00166485,-0.00656216,0,
6,0.319433,0.207176,-0.00137585,-0.00623574,0,
6,0.3023,0.201259,-0.00108454,-0.00591651,0,
6,0.28567,0.195612,-0.0007898,-0.00560373,0,
6,0.269507,0.190207,-0.000491438,-0.00529735,0,
6,0.253785,0.185025,-0.000189512,-0.00499746,0,
6,0.238493,0.180048,0.000115639,-0.00470432,0,
6,0.223631,0.175264,0.000423348,-0.00441834,0,
6,0.209207,0.170665,0.000732626,-0.00414007,0,
6,0.195237,0.166244,0.0010422,-0.00387017,0,
6,0.181744,0.161997,0.00135052,-0.00360933,0,
6,0.168754,0.15792,0.00165583,-0.00335828,0,
6,0.156292,0.154011,0.00195624,-0.00311773,0,
6,0.144384,0.150267,0.00224979,-0.00288833,0,
6,0.133052,0.146686,0.00253456,-0.0026706,0,
6,0.122315,0.143263,0.00280873,-0.00246497,0,
6,0.112183,0.139996,0.00307067,-0.0022717,0,
6,0.102665,0.136878,0.00331902,-0.00209091,0,
6,0.0937597,0.133905,0.00355269,-0.00192258,0,
6,0.0854609,0.13107,0.0037709,-0.00176652,0,
6,0.077757,0.128364,0.00397323,-0.00162244,0,
6,0.0706309,0.125781,0.00415954,-0.00148993,0,
6,0.0640611,0.123312,0.00432995,-0.00136849,0,
6,0.0580229,0.120947,0.00448487,-0.00125754,0,
6,0.0524888,0.118677,0.00462487,-0.00115647,0,
6,0.0474296,0.116491,0.00475069,-0.00106463,0,
6,0.042815,0.11438,0.00486318,-0.000981349,0,
6,0.0386145,0.112333,0.00496326,-0.000905966,0,
6,0.0347975,0.110338,0.00505188,-0.000837817,0,
6,0.0313344,0.108384,0.00513001,-0.000776254,0,
6,0.0281964,0.106458,0.00519857,-0.000720649,0,
6,0.0253561,0.104546,0.00525852,-0.000670394,0,
6,0.0227875,0.102635,0.00531063,-0.000624898,0,
6,0.0204662,0.100707,0.00535585,-0.000583582,0,
6,0.0183694,0.0987429,0.0053947,-0.00054587,0,
6,0.016476,0.0967212,0.00542818,-0.000511176,0,
6,0.0147664,0.0946145,0.00545645,-0.000478875,0,
6,0.0132228,0.0923899,0.00548066,-0.000448272,0,
6,0.0118288,0.0900054,0.00550052,-0.000418547,0,
6,0.0105693,0.0874076,0.00551746,-0.000388687,0,
6,0.00943073,0.0845276,0.00553058,-0.000357396,0,
6,0.00840063,0.0812778,0.00554183,-0.000323037,0,
6,0.00746774,0.077551,0.00554958,-0.000283747,0,
6,0.00662185,0.0732298,0.00555642,-0.000238048,0,
6,0.00585371,0.0682183,0.00556003,-0.000186311,0,
6,0.00515491,0.0625032,0.00556377,-0.000132525,0,
6,0.00451788,0.0562197,0.00556464,-8.39351e-05,0,
6,0.00393573,0.0496486,0.00556676,-4.70005e-05,0,
6,0.00340221,0.0431123,0.00556628,-2.33987e-05,0,
6,0.00291168,0.0368539,0.00556798,-1.04474e-05,0,
6,0.00245897,0.0309966,0.00556689,-4.18761e-06,0,
6,0.00203939,0.02557,0.00556874,-1.48542e-06,0,
6,0.00164864,0.0205526,0.00556721,-4.49864e-07,0,
6,0.00128281,0.0159011,0.00556944,-1.08562e-07,0,
6,0.000938257,0.0115666,0.00556736,-1.83094e-08,0,
6,0.000611645,0.00750087,0.00557016,-1.64434e-09,0,
6,0.000299862,0.00365927,0.00556739,-4.14334e-11,0,

10,0.000296632,0.00984638,0.0260004,-7.64376e-11,0,
10,0.000596102,0.0197835,0.0260009,-2.83273e-09,0,
10,0.000900397,0.0298772,0.0260004,-2.87965e-08,0,
10,0.00121153,0.0401934,0.0260008,-1.54673e-07,0,
10,0.00153158,0.0507978,0.0260003,-5.77921e-07,0,
10,0.00186264,0.0617538,0.0260006,-1.71438e-06,0,
10,0.00220692,0.0731183,0.0260003,-4.33358e-06,0,
10,0.00256668,0.0849347,0.0260005,-9.717e-06,0,
10,0.00294431,0.0972214,0.0260002,-1.97774e-05,0,
10,0.00334229,0.109957,0.0260004,-3.70033e-05,0,
10,0.00376326,0.123063,0.0260001,-6.40457e-05,0,
10,0.00421,0.136397,0.0260002,-0.000102872,0,
10,0.00468544,0.149756,0.0259999,-0.000153762,0,
10,0.00519274,0.162907,0.0259998,-0.000214777,0,
10,0.00573524,0.175623,0.0259994,-0.000282181,0,
10,0.00631651,0.187719,0.0259991,-0.000351605,0,
10,0.00694041,0.199068,0.0259985,-0.000419214,0,
10,0.00761104,0.209605,0.0259979,-0.000482324,0,
10,0.00833284,0.219314,0.0259968,-0.000539462,0,
10,0.00911058,0.228216,0.0259957,-0.000590121,0,
10,0.0099494,0.236356,0.025994,-0.000634444,0,
10,0.0108548,0.243791,0.0259921,-0.000672962,0,
10,0.0118329,0.250587,0.0259897,-0.0007064,0,
10,0.0128901,0.25681,0.0259868,-0.000735555,0,
10,0.0140333,0.262525,0.0259832,-0.00076122,0,
10,0.0152702,0.267791,0.025979,-0.000784137,0,
10,0.0166089,0.272663,0.0259739,-0.000804978,0,
10,0.0180584,0.277192,0.025968,-0.000824341,0,
10,0.0196282,0.281422,0.0259611,-0.000842751,0,
10,0.0213288,0.285391,0.0259531,-0.00086067,0,
10,0.0231714,0.289134,0.0259439,-0.000878505,0,
10,0.0251682,0.292682,0.0259333,-0.00089662,0,
10,0.0273326,0.296061,0.0259213,-0.000915347,0,
10,0.0296789,0.299295,0.0259075,-0.00093499,0,
10,0.0322227,0.302406,0.025892,-0.000955841,0,
10,0.0349809,0.305412,0.0258744,-0.00097818,0,
10,0.0379719,0.308331,0.0258546,-0.00100228,0,
10,0.0412155,0.311179,0.0258324,-0.00102842,0,
10,0.0447333,0.31397,0.0258075,-0.00105689,0,
10,0.0485489,0.316719,0.0257797,-0.00108797,0,
10,0.0526875,0.319437,0.0257487,-0.00112198,0,
10,0.0571768,0.322137,0.0257143,-0.00115924,0,
10,0.0620466,0.324833,0.025676,-0.00120008,0,
10,0.0673295,0.327534,0.0256337,-0.00124488,0,
10,0.0730607,0.330255,0.025587,-0.00129403,0,
10,0.0792784,0.333006,0.0255355,-0.00134795,0,
10,0.0860241,0.335801,0.0254789,-0.00140709,0,
10,0.0933428,0.338652,0.0254168,-0.00147193,0,
10,0.101283,0.341574,0.0253488,-0.001543,0,
10,0.109899,0.344581,0.0252746,-0.00162084,0,
10,0.119247,0.347689,0.0251938,-0.00170607,0,
10,0.12939,0.350915,0.0251062,-0.00179931,0,
10,0.140395,0.354278,0.0250112,-0.00190124,0,
10,0.152337,0.3578,0.0249088,-0.00201257,0,
10,0.165296,0.361503,0.0247985,-0.00213405,0,
10,0.179357,0.365413,0.0246802,-0.00226646,0,
10,0.194615,0.369559,0.0245537,-0.00241059,0,
10,0.211171,0.373974,0.0244189,-0.00256724,0,
10,0.229138,0.378696,0.0242756,-0.0027372,0,
10,0.248635,0.383767,0.0241242,-0.00292121,0,
10,0.269793,0.389235,0.023964,-0.00311995,0,
10,0.292753,0.395155,0.0237966,-0.00333395,0,
10,0.317669,0.401592,0.0236189,-0.0035626,0,
10,0.344708,0.408614,0.0234357,-0.00380586,0,
10,0.372405,0.415874,0.0232552,-0.00405106,0,
10,0.399623,0.423094,0.0230819,-0.00428717,0,
10,0.426397,0.430291,0.0229184,-0.00451412,0,
10,0.452757,0.437487,0.0227671,-0.00473018,0,
10,0.478735,0.444711,0.0226323,-0.00493454,0,
10,0.504358,0.452002,0.0225159,-0.00512423,0,
10,0.529657,0.459397,0.0224175,-0.00530008,0,
10,0.554656,0.466932,0.0223319,-0.00546134,0,
10,0.579382,0.474636,0.0222628,-0.00560677,0,
10,0.603859,0.482539,0.022194,-0.00573824,0,
10,0.628112,0.490677,0.0221473,-0.00593858,0,
10,0.652163,0.499341,0.0222388,-0.00595464,0,
10,0.676035,0.508975,0.0224087,-0.0059203,0,
10,0.699751,0.519736,0.0225099,-0.00587113,0,
10,0.72333,0.531477,0.0225419,-0.00580145,0,
10,0.746795,0.543912,0.0225155,-0.0057054,0,
10,0.770165,0.556777,0.0224569,-0.00557972,0,
10,0.79346,0.569909,0.0223828,-0.00542378,0,
10,0.816699,0.583242,0.0223029,-0.00523869,0,
10,0.839903,0.596752,0.022219,-0.00502698,0,
10,0.863088,0.610409,0.0221289,-0.00479218,0,
10,0.886275,0.624143,0.0220297,-0.00453851,0,
10,0.909481,0.63784,0.0219186,-0.00427087,0,
10,0.932723,0.651345,0.0217957,-0.00399487,0,
10,0.956021,0.664482,0.0216583,-0.00372011,0,
10,0.97939,0.677078,0.0215067,-0.00345785,0,
10,1.00285,0.689026,0.0213468,-0.00320633,0,
10,1.02641,0.700316,0.0211815,-0.00296515,0,
10,1.0501,0.710992,0.0210125,-0.00273463,0,
10,1.07392,0.721115,0.0208397,-0.00251512,0,
10,1.0979,0.73073,0.020662,-0.00230689,0,
10,1.12205,0.739868,0.0204794,-0.00211022,0,
10,1.14639,0.748548,0.0202908,-0.00192536,0,
10,1.17093,0.756789,0.0200984,-0.00175166,0,
10,1.19568,0.764606,0.0199009,-0.00158651,0,
10,1.22066,0.771993,0.019695,-0.00143832,0,
10,1.24589,0.778932,0.0194814,-0.00130627,0,
10,1.27137,0.78543,0.0192601,-0.00119585,0,
10,1.29713,0.791556,0.0190333,-0.00109567,0,
10,1.32317,0.797428,0.0188023,-0.00100536,0,
10,1.34951,0.803123,0.0185665,-0.000926166,0,
10,1.37616,0.808664,0.0183242,-0.000857422,0,
10,1.40313,0.814056,0.0180751,-0.00079806,0,
10,1.43043,0.819315,0.0178194,-0.000746579,0,
10,1.45807,0.824473,0.0175577,-0.000701406,0,
10,1.48607,0.829566,0.0172901,-0.000661205,0,
10,1.51444,0.834616,0.0170166,-0.000624939,0,
10,1.54318,0.839635,0.0167368,-0.000591777,0,
10,1.57231,0.844622,0.0164505,-0.00056102,0,
10,1.60184,0.849576,0.0161577,-0.000532098,0,
10,1.63178,0.854493,0.0158583,-0.000504593,0,
10,1.66213,0.859369,0.0155523,-0.00047823,0,
10,1.69292,0.864195,0.0152396,-0.000452845,0,
10,1.72416,0.86896,0.01492,-0.000428357,0,
10,1.75585,0.873648,0.0145933,-0.000404729,0,
10,1.78802,0.878243,0.0142598,-0.000381964,0,
10,1.82067,0.882728,0.0139189,-0.000360082,0,
10,1.85383,0.887084,0.013571,-0.000339145,0,
10,1.88751,0.891289,0.0132154,-0.000319236,0,
10,1.92173,0.895315,0.0128533,-0.000300509,0,
10,1.95652,0.899134,0.012483,-0.000283039,0,
10,1.9919,0.902728,0.0121076,-0.000266767,0,
10,2.02791,0.906127,0.0117222,-0.000248471,0,
10,2.06456,0.909416,0.0113283,-0.000225665,0,
10,2.10268,0.912707,0.0109183,-0.000203578,0,
10,2.1443,0.91611,0.0104705,-0.000179887,0,
10,2.18977,0.919574,0.00998045,-0.000154588,0,
10,2.23946,0.923002,0.00944529,-0.000128012,0,
10,2.29376,0.926279,0.00886052,-0.000101409,0,
10,2.35309,0.929279,0.00822337,-7.61175e-05,0,
10,2.4179,0.931872,0.00753007,-5.33907e-05,0,
10,2.48863,0.933942,0.00677835,-3.42168e-05,0,
10,2.56575,0.935406,0.00596583,-1.93423e-05,0,
10,2.64971,0.93623,0.00509147,-9.06617e-06,0,
10,2.74098,0.936454,0.00415473,-3.08945e-06,0,
10,2.83997,0.936204,0.00315629,-4.96938e-07,0,
10,2.94709,0.935685,0.00209749,3.1459e-08,0,
10,3.06269,0.935149,0.000980582,-2.206e-07,0,
10,3.18706,0.934835,-0.000191616,-4.41092e-07,0,
10,3.3204,0.934898,-0.00141541,-4.09755e-07,0,
10,3.46281,0.935364,-0.0026861,-2.51575e-07,0,
10,3.61427,0.936136,-0.00399744,-1.16491e-07,0,
10,3.77463,0.937054,-0.00534142,-4.87255e-08,0,
10,3.94358,0.937961,-0.00670828,-2.52193e-08,0,
10,4.12067,0.938768,-0.0080869,-1.8628e-08,0,
10,4.30525,0.939461,-0.00946531,-1.67167e-08,0,
10,4.49655,0.940078,-0.0108313,-1.663e-08,0,
10,4.6936,0.940668,-0.012173,-1.84954e-08,0,
10,4.89531,0.941256,-0.013479,-2.3757e-08,0,
10,5.10047,0.941841,-0.0147389,-3.58113e-08,0,
10,5.30776,0.942405,-0.0159435,-6.18296e-08,0,
10,5.51581,0.942929,-0.0170849,-1.16942e-07,0,
10,5.72323,0.943425,-0.0181572,-2.37147e-07,0,
10,5.92863,0.943946,-0.0191561,-5.16772e-07,0,
10,6.13069,0.944583,-0.0200792,-1.16222e-06,0,
10,6.32816,0.945386,-0.0209259,-2.32046e-06,0,
10,6.51991,0.946178,-0.0216977,-2.85945e-06,0,
10,6.70495,0.946328,-0.0223958,2.43624e-06,0,
10,6.88244,0.944673,-0.0230229,2.48292e-05,0,
10,7.0517,0.939818,-0.0235773,7.86137e-05,0,
10,7.21224,0.93077,-0.0240641,0.000174398,0,
10,7.3637,0.917426,-0.0244843,0.000302758,0,
10,7.5059,0.900287,-0.024839,0.000418633,0,
10,7.63878,0.880478,-0.0251418,0.000548697,0,
10,7.76243,0.859909,-0.0253844,0.000682706,0,
10,7.87701,0.840226,-0.0255851,0.000803518,0,
10,7.9828,0.822248,-0.0257449,0.00090472,0,
10,8.08014,0.806048,-0.0258763,0.000987514,0,
10,8.16941,0.79128,-0.0259843,0.00105637,0,
10,8.25106,0.777477,-0.0260768,0.00111482,0,
10,8.32554,0.764215,-0.0261566,0.00116513,0,
10,8.39331,0.751186,-0.0262264,0.00120955,0,
10,8.45484,0.738212,-0.0262866,0.00124906,0,
10,8.5106,0.725226,-0.0263383,0.00128384,0,
10,8.56104,0.712239,-0.0263822,0.00131375,0,
10,8.60659,0.699306,-0.0264196,0.00133863,0,
10,8.64767,0.686496,-0.0264514,0.00135851,0,
10,8.68467,0.673865,-0.0264792,0.00137362,0,
10,8.71795,0.66141,-0.0265031,0.00137917,0,
10,8.74786,0.649109,-0.0265232,0.00138075,0,
10,8.77471,0.636961,-0.0265406,0.00137867,0,
10,8.79881,0.62497,-0.0265552,0.00137304,0,
10,8.8204,0.613133,-0.0265677,0.00136446,0,
10,8.83975,0.601442,-0.0265781,0.00135349,0,
10,8.85708,0.589884,-0.026587,0.00134067,0,
10,8.87259,0.578443,-0.0265944,0.00132646,0,
10,8.88646,0.567097,-0.0266007,0.00131125,0,
10,8.89886,0.555822,-0.0266059,0.00129537,0,
10,8.90995,0.544592,-0.0266103,0.00127907,0,
10,8.91986,0.533376,-0.0266139,0.00126251,0,
10,8.92872,0.522145,-0.0266169,0.00124582,0,
10,8.93663,0.510864,-0.0266193,0.00122902,0,
10,8.94369,0.499499,-0.0266214,0.00121209,0,
10,8.95,0.488013,-0.0266231,0.001195,0,
10,8.95564,0.476367,-0.0266246,0.00117759,0,
10,8.96067,0.46452,-0.0266257,0.00115968,0,
10,8.96517,0.452425,-0.0266267,0.00114103,0,
10,8.96918,0.440033,-0.0266274,0.00112132,0,
10,8.97276,0.427288,-0.0266282,0.00110016,0,
10,8.97596,0.414127,-0.0266286,0.00107707,0,
10,8.97882,0.400479,-0.0266292,0.00105143,0,
10,8.98137,0.386263,-0.0266294,0.00102249,0,
10,8.98365,0.371382,-0.0266299,0.000989309,0,
10,8.98569,0.355728,-0.0266298,0.000952492,0,
10,8.9875,0.33911,-0.0266303,0.000903712,0,
10,8.98913,0.321253,-0.0266302,0.00084321,0,
10,8.99058,0.301901,-0.0266306,0.000769948,0,
10,8.99188,0.280834,-0.0266303,0.000681311,0,
10,8.99304,0.257862,-0.0266308,0.000576243,0,
10,8.99408,0.232703,-0.0266304,0.000437286,0,
10,8.99501,0.205214,-0.0266309,0.000283727,0,
10,8.99583,0.176144,-0.0266304,0.000154971,0,
10,8.99658,0.147012,-0.026631,6.83556e-05,0,
10,8.99724,0.119257,-0.0266304,2.40246e-05,0,
10,8.99784,0.093726,-0.0266311,6.66466e-06,0,
10,8.99837,0.0706635,-0.0266303,1.40368e-06,0,
10,8.99885,0.0499748,-0.0266312,2.01406e-07,0,
10,8.99927,0.0314498,-0.0266303,1.52999e-08,0,
10,8.99966,0.0148635,-0.0266313,3.38615e-10,0,
10,0,0,0.026001,0,0,
10,9,0,-0.0266302,0,0,

0.004,0,0,-0.23986,0,2.22785e-07,
0.00868226,0,0,-0.23987,0,-7.43856e-08,
0.014062,0,0,-0.239861,0,-2.11476e-07,
0.0201548,0,0,-0.239867,0,2.68998e-07,
0.0269766,0,0,-0.239858,0,1.60933e-06,
0.0345437,0,0,-0.23986,0,4.42882e-06,
0.0428729,0,0,-0.239854,0,8.75326e-06,
0.051981,0,0,-0.239858,0,1.47647e-05,
0.0618853,0,0,-0.239861,0,2.20389e-05,
0.0726036,0,0,-0.239876,0,3.01751e-05,
0.0841536,0,0,-0.239895,0,3.83312e-05,
0.0965535,0,0,-0.239925,0,4.58124e-05,
0.109822,0,0,-0.23996,0,5.18715e-05,
0.123977,0,0,-0.240003,0,5.61418e-05,
0.139037,0,0,-0.240048,0,5.85036e-05,
0.155022,0,0,-0.240095,0,5.92382e-05,
0.171949,0,0,-0.240142,0,5.88373e-05,
0.189839,0,0,-0.240189,0,5.79553e-05,
0.208709,0,0,-0.240238,0,5.721e-05,
0.228579,0,0,-0.24029,0,5.70794e-05,
0.249467,0,0,-0.240349,0,5.78004e-05,
0.271391,0,0,-0.24042,0,5.93706e-05,
0.29437,0,0,-0.240507,0,6.15944e-05,
0.31842,0,0,-0.240614,0,6.41635e-05,
0.343559,0,0,-0.240745,0,6.67017e-05,
0.369804,0,0,-0.240908,0,6.87563e-05,
0.39717,0,0,-0.241108,0,6.9742e-05,
0.425672,0,0,-0.241356,0,6.8879e-05,
0.455324,0,0,-0.241663,0,6.51628e-05,
0.48614,0,0,-0.24204,0,5.73902e-05,
0.518132,0,0,-0.242499,0,4.42563e-05,
0.551309,0,0,-0.24305,0,2.45239e-05,
0.585683,0,0,-0.243698,0,-2.76222e-06,
0.621259,0,0,-0.244443,0,-3.8073e-05,
0.658046,0,0,-0.245277,0,-8.12839e-05,
0.696047,0,0,-0.246185,0,-0.000131705,
0.735265,0,0,-0.247148,0,-0.000188249,
0.7757,0,0,-0.248143,0,-0.000249664,
0.817352,0,0,-0.249146,0,-0.000314754,
0.860215,0,0,-0.250134,0,-0.000382506,
0.904285,0,0,-0.251082,0,-0.00045213,
0.949552,0,0,-0.251967,0,-0.000523028,
0.996004,0,0,-0.252766,0,-0.00059473,
1.04363,0,0,-0.253457,0,-0.000666836,
1.09241,0,0,-0.254018,0,-0.000738973,
1.14232,0,0,-0.254427,0,-0.000810761,
1.19335,0,0,-0.254662,0,-0.000881805,
1.24546,0,0,-0.254702,0,-0.00095169,
1.29863,0,0,-0.254529,0,-0.00101998,
1.35283,0,0,-0.254126,0,-0.00108624,
1.40802,0,0,-0.253475,0,-0.00115003,
1.46416,0,0,-0.252566,0,-0.00121094,
1.52121,0,0,-0.251388,0,-0.00126861,
1.57913,0,0,-0.249935,0,-0.00132269,
1.63787,0,0,-0.248202,0,-0.00137293,
1.69739,0,0,-0.246191,0,-0.0014191,
1.75761,0,0,-0.243902,0,-0.00146101,
1.81851,0,0,-0.241341,0,-0.00149854,
1.88,0,0,-0.238517,0,-0.00153161,
1.94204,0,0,-0.235439,0,-0.00156018,
2.00457,0,0,-0.232118,0,-0.00158424,
2.06751,0,0,-0.228569,0,-0.00160382,
2.13081,0,0,-0.224807,0,-0.001619,
2.19439,0,0,-0.220848,0,-0.0016299,
2.25819,0,0,-0.21671,0,-0.00163665,
2.32214,0,0,-0.212411,0,-0.00163941,
2.38617,0,0,-0.20797,0,-0.00163835,
2.4502,0,0,-0.203405,0,-0.00163361,
2.51418,0,0,-0.198734,0,-0.00162536,
2.57803,0,0,-0.193979,0,-0.0016138,
2.64167,0,0,-0.189157,0,-0.00159914,
2.70505,0,0,-0.184287,0,-0.00158159,
2.76808,0,0,-0.179388,0,-0.00156141,
2.83072,0,0,-0.174475,0,-0.00153881,
2.89288,0,0,-0.169565,0,-0.00151401,
2.95451,0,0,-0.164673,0,-0.00148722,
3.01555,0,0,-0.159814,0,-0.00145863,
3.07594,0,0,-0.154999,0,-0.00142844,
3.13561,0,0,-0.150243,0,-0.00139682,
3.19453,0,0,-0.145555,0,-0.00136399,
3.25262,0,0,-0.140946,0,-0.00133014,
3.30985,0,0,-0.136426,0,-0.00129545,
3.36617,0,0,-0.132001,0,-0.00126013,
3.42154,0,0,-0.127679,0,-0.0012243,
3.47591,0,0,-0.123465,0,-0.00118813,
3.52925,0,0,-0.119365,0,-0.00115173,
3.58152,0,0,-0.115381,0,-0.00111523,
3.6327,0,0,-0.111518,0,-0.00107879,
3.68276,0,0,-0.107778,0,-0.00104251,
3.73167,0,0,-0.104162,0,-0.00100651,
3.77941,0,0,-0.100671,0,-0.000970879,
3.82596,0,0,-0.0973048,0,-0.000935704,
3.8713,0,0,-0.0940639,0,-0.00090106,
3.91543,0,0,-0.0909439,0,-0.000866896,
3.95833,0,0,-0.087962,0,-0.000833583,
4,0,0,-0.0850812,0,-0.000800785,
4.04167,0,0,-0.0822427,0,-0.000767759,
4.08333,0,0,-0.0794429,0,-0.000734577,
4.125,0,0,-0.0766799,0,-0.000701238,
4.16667,0,0,-0.0739549,0,-0.000667719,
4.20833,0,0,-0.0712686,0,-0.000634043,
4.25,0,0,-0.0686216,0,-0.000600238,
4.29167,0,0,-0.0660144,0,-0.000566326,
4.33333,0,0,-0.0634477,0,-0.000532331,
4.375,0,0,-0.0609219,0,-0.000498272,
4.41667,0,0,-0.0584374,0,-0.000464173,
4.45833,0,0,-0.0559945,0,-0.000430051,
4.5,0,0,-0.0535934,0,-0.000395924,
4.54167,0,0,-0.0512344,0,-0.000361808,
4.58333,0,0,-0.0489178,0,-0.000327718,
4.625,0,0,-0.0466437,0,-0.000293671,
4.66667,0,0,-0.0444121,0,-0.000259682,
4.70833,0,0,-0.0422233,0,-0.000225768,
4.75,0,0,-0.0400772,0,-0.000191945,
4.79167,0,0,-0.0379738,0,-0.000158227,
4.83333,0,0,-0.0359131,0,-0.000124629,
4.875,0,0,-0.033895,0,-9.11634e-05,
4.91667,0,0,-0.0319194,0,-5.78444e-05,
4.95833,0,0,-0.0299861,0,-2.46848e-05,
5,0,0,-0.028095,0,8.30293e-06,
5.04167,0,0,-0.0262458,0,4.11057e-05,
5.08333,0,0,-0.0244383,0,7.37103e-05,
5.125,0,0,-0.0226723,0,0.000106104,
5.16667,0,0,-0.0209474,0,0.000138277,
5.20833,0,0,-0.0192632,0,0.000170218,
5.25,0,0,-0.0176195,0,0.000201919,
5.29167,0,0,-0.0160159,0,0.00023337,
5.33333,0,0,-0.0144519,0,0.000264563,
5.375,0,0,-0.0129271,0,0.000295489,
5.41667,0,0,-0.0114411,0,0.000326139,
5.45833,0,0,-0.0099934,0,0.000356506,
5.5,0,0,-0.00858354,0,0.000386584,
5.54167,0,0,-0.00721104,0,0.000416368,
5.58333,0,0,-0.00587538,0,0.000445851,
5.625,0,0,-0.00457606,0,0.000475029,
5.66667,0,0,-0.00331254,0,0.000503896,
5.70833,0,0,-0.00208432,0,0.000532449,
5.75,0,0,-0.000890836,0,0.000560685,
5.79167,0,0,0.000268434,0,0.000588599,
5.83333,0,0,0.00139404,0,0.000616188,
5.875,0,0,0.00248653,0,0.00064345,
5.91667,0,0,0.00354646,0,0.000670381,
5.95833,0,0,0.00457439,0,0.00069698,
6,0,0,0.00557088,0,0.000723243,
6.04167,0,0,0.0065365,0,0.000749169,
6.08333,0,0,0.00747181,0,0.000774754,
6.125,0,0,0.00837741,0,0.000799998,
6.16667,0,0,0.00925387,0,0.000824897,
6.20833,0,0,0.0101018,0,0.000849451,
6.25,0,0,0.0109217,0,0.000873658,
6.29167,0,0,0.0117142,0,0.000897516,
6.33333,0,0,0.01248,0,0.000921025,
6.375,0,0,0.0132196,0,0.000944184,
6.41667,0,0,0.0139335,0,0.000966995,
6.45833,0,0,0.0146225,0,0.000989457,
6.5,0,0,0.015287,0,0.00101157,
6.54167,0,0,0.0159277,0,0.00103334,
6.58333,0,0,0.0165451,0,0.00105477,
6.625,0,0,0.0171397,0,0.00107585,
6.66667,0,0,0.0177122,0,0.0010966,
6.70833,0,0,0.018263,0,0.00111701,
6.75,0,0,0.0187928,0,0.0011371,
6.79167,0,0,0.0193021,0,0.00115686,
6.83333,0,0,0.0197914,0,0.00117631,
6.875,0,0,0.0202613,0,0.00119546,
6.91667,0,0,0.0207122,0,0.00121431,
6.95833,0,0,0.0211446,0,0.00123287,
7,0,0,0.021559,0,0.00125113,
7.04167,0,0,0.0219559,0,0.0012691,
7.08333,0,0,0.0223355,0,0.00128676,
7.125,0,0,0.0226985,0,0.00130413,
7.16667,0,0,0.0230452,0,0.0013212,
7.20833,0,0,0.0233761,0,0.00133797,
7.25,0,0,0.0236916,0,0.00135444,
7.29167,0,0,0.023992,0,0.00137061,
7.33333,0,0,0.0242779,0,0.0013865,
7.375,0,0,0.0245496,0,0.00140209,
7.41667,0,0,0.0248076,0,0.00141741,
7.45833,0,0,0.0250521,0,0.00143244,
7.5,0,0,0.0252836,0,0.00144721,
7.54167,0,0,0.0255024,0,0.00146172,
7.58333,0,0,0.0257088,0,0.00147597,
7.625,0,0,0.0259032,0,0.00148997,
7.66667,0,0,0.0260857,0,0.00150373,
7.70833,0,0,0.0262567,0,0.00151726,
7.75,0,0,0.0264164,0,0.00153057,
7.79167,0,0,0.026565,0,0.00154365,
7.83333,0,0,0.026702,0,0.0015565,
7.875,0,0,0.0268271,0,0.00156917,
7.91667,0,0,0.0269518,0,0.00158236,
7.95833,0,0,0.0269962,0,0.0015944,
8,0,0,0.0271538,0,0.00160689,
8.04171,0,0,0.0273459,0,0.00162041,
8.08368,0,0,0.0273917,0,0.00163373,
8.12617,0,0,0.0274871,0,0.00164499,
8.16946,0,0,0.0275736,0,0.00165622,
8.21382,0,0,0.0276445,0,0.00166741,
8.25952,0,0,0.0277091,0,0.00167853,
8.30685,0,0,0.0277664,0,0.00168977,
8.35611,0,0,0.0278159,0,0.00170121,
8.40762,0,0,0.0278576,0,0.00171292,
8.46168,0,0,0.0278907,0,0.00172495,
8.51865,0,0,0.0279145,0,0.00173733,
8.57889,0,0,0.0279278,0,0.00175009,
8.64276,0,0,0.0279294,0,0.00176325,
8.71067,0,0,0.0279178,0,0.00177684,
8.78306,0,0,0.0278912,0,0.00179085,
8.86037,0,0,0.0278478,0,0.0018053,
8.94309,0,0,0.0277852,0,0.00182019,
9.03174,0,0,0.0277012,0,0.00183551,
9.12689,0,0,0.0275933,0,0.00185125,
9.22912,0,0,0.0274588,0,0.00186739,
9.33908,0,0,0.0272949,0,0.0018839,
9.45746,0,0,0.0270988,0,0.00190076,
9.58501,0,0,0.0268673,0,0.00191792,
9.72253,0,0,0.0265973,0,0.00193534,
9.87088,0,0,0.0262865,0,0.00195296,
10.031,0,0,0.0259324,0,0.00197073,
10.2039,0,0,0.025532,0,0.00198856,
10.3906,0,0,0.0250832,0,0.00200637,
10.5924,0,0,0.0245859,0,0.00202403,
10.8105,0,0,0.0240391,0,0.00204147,
11.0463,0,0,0.0234431,0,0.00205875,
11.3012,0,0,0.0228004,0,0.00207636,
11.5769,0,0,0.022113,0,0.00209501,
11.8751,0,0,0.0213852,0,0.00211504,
12.1977,0,0,0.0206195,0,0.00213673,
12.5466,0,0,0.0198195,0,0.00215929,
12.9242,0,0,0.0189909,0,0.00218125,
13.3327,0,0,0.0181431,0,0.00220141,
13.7748,0,0,0.0172867,0,0.00222015,
14.2532,0,0,0.0164312,0,0.00223828,
14.7709,0,0,0.0155859,0,0.00225658,
15.3312,0,0,0.014758,0,0.00227468,
15.9377,0,0,0.0139577,0,0.00229178,
16.594,0,0,0.0131924,0,0.00230752,
17.3044,0,0,0.0124684,0,0.00232189,
18.0733,0,0,0.0117913,0,0.00233537,
18.9056,0,0,0.0111617,0,0.00234799,
19.8064,0,0,0.0105794,0,0.00235916,
20.7816,0,0,0.0100427,0,0.00236881,
21.8371,0,0,0.00954558,0,0.00237771,
22.9796,0,0,0.00908097,0,0.00238668,
24.2163,0,0,0.00863578,0,0.00239682,
25.5551,0,0,0.00819507,0,0.00240749,
27.0042,0,0,0.00774455,0,0.00241829,
28.5729,0,0,0.00727048,0,0.00242928,
30.271,0,0,0.00675883,0,0.0024406,
32.1091,0,0,0.00619564,0,0.00245212,
34.0989,0,0,0.00557003,0,0.00246261,
36.2529,0,0,0.0048704,0,0.00247211,
38.5845,0,0,0.00408913,0,0.0024823,
41.1085,0,0,0.0032676,0,0.00249558,
43.8407,0,0,0.0022214,0,0.00250754,
46.7983,0,0,0.00114259,0,0.00251541,
50,0,0,0.00244446,0,0.00253464,

