acf9778a8664abb5bcc86a0aded407fc263783c0 
X,Z,x_velocity,cp,uw_b,cf,
1,0,0,-0.246801,0,0,
1,9,0,-0.122934,0,0,
1,8.99969,0.0155861,-0.122934,3.11772e-10,0,
1,8.99934,0.03327,-0.122934,1.45741e-08,0,
1,8.99894,0.0533524,-0.122934,2.01043e-07,0,
1,8.99848,0.0761506,-0.122934,1.47352e-06,0,
1,8.99797,0.101977,-0.122934,7.35865e-06,0,
1,8.99739,0.131016,-0.122934,2.77893e-05,0,
1,8.99672,0.163026,-0.122934,8.19517e-05,0,
1,8.99597,0.196971,-0.122934,0.000189241,0,
1,8.99512,0.231086,-0.122933,0.000346331,0,
1,8.99416,0.263616,-0.122933,0.000524749,0,
1,8.99306,0.293694,-0.122933,0.000684723,0,
1,8.99182,0.321348,-0.122933,0.000808723,0,
1,8.99041,0.346791,-0.122932,0.000912641,0,
1,8.98881,0.370197,-0.122932,0.000998109,0,
1,8.98699,0.391803,-0.122931,0.00106796,0,
1,8.98494,0.411918,-0.122931,0.00112151,0,
1,8.98261,0.430838,-0.12293,0.00116415,0,
1,8.97996,0.448778,-0.122929,0.00120002,0,
1,8.97696,0.465898,-0.122928,0.00123006,0,
1,8.97356,0.482332,-0.122926,0.0012555,0,
1,8.9697,0.498191,-0.122924,0.00127722,0,
1,8.96533,0.513568,-0.122923,0.0012959,0,
1,8.96038,0.528542,-0.12292,0.00131201,0,
1,8.95476,0.543181,-0.122918,0.00132591,0,
1,8.9484,0.557541,-0.122915,0.00133782,0,
1,8.9412,0.57167,-0.122912,0.0013479,0,
1,8.93303,0.585609,-0.122909,0.00135624,0,
1,8.92379,0.599393,-0.122905,0.00136285,0,
1,8.91333,0.613051,-0.122901,0.00136775,0,
1,8.90149,0.62661,-0.122898,0.00137089,0,
1,8.8881,0.64009,-0.122894,0.00137221,0,
1,8.87295,0.653512,-0.12289,0.00137163,0,
1,8.85584,0.66689,-0.122886,0.00136904,0,
1,8.83651,0.680239,-0.122883,0.00136434,0,
1,8.81469,0.693574,-0.122882,0.00135737,0,
1,8.79007,0.706905,-0.122881,0.00134799,0,
1,8.76232,0.720247,-0.122883,0.001336,0,
1,8.73107,0.733614,-0.122888,0.00132118,0,
1,8.69591,0.747019,-0.122897,0.00130324,0,
1,8.6564,0.76048,-0.122911,0.00128185,0,
1,8.61206,0.774018,-0.122933,0.00125665,0,
1,8.56236,0.787658,-0.122964,0.00122765,0,
1,8.50675,0.801439,-0.123007,0.001197,0,
1,8.44464,0.815476,-0.123066,0.00115744,0,
1,8.3754,0.829966,-0.123148,0.00111073,0,
1,8.29839,0.845171,-0.123256,0.00105335,0,
1,8.21296,0.861421,-0.123399,0.000980322,0,
1,8.11843,0.879058,-0.123581,0.000886502,0,
1,8.01417,0.89828,-0.123816,0.000766523,0,
1,7.89956,0.918884,-0.124102,0.000619861,0,
1,7.77403,0.939972,-0.124473,0.000459658,0,
1,7.63711,0.959962,-0.124911,0.000295111,0,
1,7.48842,0.976722,-0.125438,0.000123868,0,
1,7.32773,0.987929,-0.126083,3.66864e-05,0,
1,7.15495,0.993024,-0.12683,5.47462e-06,0,
1,6.97022,0.993949,-0.127701,2.32815e-07,0,
1,6.77388,0.993402,-0.128706,3.0153e-09,0,
1,6.56652,0.993088,-0.129866,1.04157e-08,0,
1,6.34896,0.993402,-0.131195,1.26193e-08,0,
1,6.12229,0.994105,-0.132711,1.45515e-08,0,
1,5.88784,0.994939,-0.134431,1.56831e-08,0,
1,5.64716,0.995819,-0.136371,1.67506e-08,0,
1,5.40194,0.996762,-0.138547,1.82172e-08,0,
1,5.15407,0.997805,-0.140971,2.00833e-08,0,
1,4.90545,0.998966,-0.143652,2.22668e-08,0,
1,4.65805,1.00025,-0.146597,2.46809e-08,0,
1,4.41376,1.00166,-0.149805,2.71829e-08,0,
1,4.17441,1.00316,-0.153271,2.95261e-08,0,
1,3.94163,1.0047,-0.156982,3.17532e-08,0,
1,3.7169,1.00625,-0.160919,3.49283e-08,0,
1,3.50146,1.00796,-0.165056,4.14852e-08,0,
1,3.29629,1.0102,-0.169365,5.29466e-08,0,
1,3.10217,1.01326,-0.173818,6.62811e-08,0,
1,2.91959,1.01662,-0.178386,2.53374e-07,0,
1,2.74885,1.01844,-0.183013,1.7436e-06,0,
1,2.59002,1.01632,-0.18762,-1.083e-05,0,
1,2.44299,1.00904,-0.192118,-6.55569e-05,0,
1,2.30752,0.997243,-0.196427,-0.000165568,0,
1,2.18321,0.982581,-0.200469,-0.000292368,0,
1,2.06959,0.966662,-0.204242,-0.000418238,0,
1,1.9661,0.950687,-0.207751,-0.000507894,0,
1,1.87215,0.93543,-0.210954,-0.000587783,0,
1,1.78711,0.921262,-0.213859,-0.000656667,0,
1,1.71033,0.908248,-0.216489,-0.000715326,0,
1,1.64119,0.896297,-0.218842,-0.000761839,0,
1,1.57905,0.885194,-0.220935,-0.00079182,0,
1,1.52332,0.874712,-0.222805,-0.000821803,0,
1,1.47342,0.864713,-0.224463,-0.000851603,0,
1,1.42882,0.855117,-0.225929,-0.000880168,0,
1,1.389,0.845879,-0.227219,-0.000906966,0,
1,1.35351,0.836973,-0.228352,-0.000931606,0,
1,1.3219,0.828388,-0.229344,-0.00095391,0,
1,1.29378,0.82012,-0.23021,-0.000973754,0,
1,1.26878,0.812175,-0.230965,-0.000990997,0,
1,1.24659,0.804557,-0.231621,-0.00100581,0,
1,1.22689,0.79727,-0.232192,-0.0010181,0,
1,1.2092,0.790234,-0.232693,-0.00102714,0,
1,1.1932,0.783397,-0.233133,-0.00103477,0,
1,1.1787,0.776723,-0.233521,-0.00104472,0,
1,1.16554,0.770144,-0.233862,-0.00106378,0,
1,1.15357,0.763537,-0.234162,-0.00110316,0,
1,1.14266,0.756701,-0.234428,-0.00118006,0,
1,1.13268,0.74934,-0.23467,-0.00131686,0,
1,1.12354,0.741081,-0.234899,-0.00153846,0,
1,1.11514,0.731546,-0.235125,-0.00186641,0,
1,1.10739,0.720493,-0.235357,-0.00231082,0,
1,1.10022,0.707957,-0.2356,-0.00286241,0,
1,1.09357,0.694253,-0.235852,-0.00349181,0,
1,1.08738,0.67985,-0.23611,-0.00415918,0,
1,1.0816,0.665207,-0.236371,-0.00482737,0,
1,1.07618,0.650689,-0.236633,-0.00546955,0,
1,1.07107,0.63654,-0.236893,-0.00607006,0,
1,1.06626,0.622907,-0.23715,-0.00662175,0,
1,1.06169,0.609862,-0.237402,-0.00712302,0,
1,1.05735,0.597428,-0.237649,-0.00757539,0,
1,1.05321,0.585602,-0.237891,-0.00798196,0,
1,1.04925,0.574358,-0.238127,-0.0083465,0,
1,1.04544,0.563664,-0.238358,-0.00867294,0,
1,1.04177,0.553484,-0.238583,-0.00896506,0,
1,1.03822,0.54378,-0.238804,-0.00922632,0,
1,1.03478,0.534515,-0.239021,-0.00946034,0,
1,1.03144,0.525653,-0.239233,-0.00967043,0,
1,1.02818,0.517156,-0.239441,-0.00985765,0,
1,1.025,0.508989,-0.239644,-0.0100245,0,
1,1.02188,0.501115,-0.239843,-0.0101727,0,
1,1.01882,0.493503,-0.240037,-0.0103048,0,
1,1.01581,0.486124,-0.240228,-0.0104226,0,
1,1.01284,0.478954,-0.240415,-0.0105265,0,
1,1.00988,0.471893,-0.240601,-0.010619,0,
1,1.00688,0.46485,-0.240789,-0.0107028,0,
1,1.00384,0.45781,-0.240977,-0.0107772,0,
1,1.00076,0.450758,-0.241168,-0.0108423,0,
1,0.997615,0.443677,-0.241361,-0.0108981,0,
1,0.99441,0.436552,-0.241556,-0.0109447,0,
1,0.991131,0.429363,-0.241755,-0.010982,0,
1,0.987768,0.422093,-0.241957,-0.0110098,0,
1,0.984308,0.414722,-0.242162,-0.0110278,0,
1,0.980739,0.407227,-0.242372,-0.0110356,0,
1,0.977045,0.399585,-0.242587,-0.0110327,0,
1,0.973211,0.391773,-0.242807,-0.0110185,0,
1,0.969219,0.383764,-0.243034,-0.0109922,0,
1,0.965047,0.375528,-0.243267,-0.0109527,0,
1,0.960675,0.367037,-0.243507,-0.0108991,0,
1,0.956077,0.358257,-0.243755,-0.0108298,0,
1,0.951224,0.349155,-0.244011,-0.0107435,0,
1,0.946088,0.339693,-0.244276,-0.0106381,0,
1,0.940633,0.329833,-0.24455,-0.0105117,0,
1,0.934823,0.319535,-0.244833,-0.010362,0,
1,0.928616,0.308754,-0.245125,-0.0101862,0,
1,0.921967,0.297444,-0.245424,-0.0099816,0,
1,0.914826,0.285556,-0.245732,-0.009745,0,
1,0.907141,0.273038,-0.246043,-0.00947255,0,
1,0.898852,0.259832,-0.246352,-0.00915686,0,
1,0.889898,0.245881,-0.246658,-0.00879121,0,
1,0.880212,0.231144,-0.246969,-0.00837153,0,
1,0.869723,0.215611,-0.247291,-0.00789769,0,
1,0.858358,0.199313,-0.247626,-0.00737361,0,
1,0.846039,0.182314,-0.247964,-0.00680147,0,
1,0.83269,0.164716,-0.248296,-0.00618728,0,
1,0.818232,0.146664,-0.24862,-0.00554381,0,
1,0.802744,0.128513,-0.248918,-0.0048913,0,
1,0.78635,0.110653,-0.249194,-0.00424857,0,
1,0.768969,0.0932485,-0.249439,-0.00363329,0,
1,0.75053,0.0764863,-0.249653,-0.00306299,0,
1,0.730977,0.0605683,-0.249832,-0.00255372,0,
1,0.710271,0.0456784,-0.249972,-0.00211824,0,
1,0.688397,0.0319419,-0.250069,-0.00176341,0,
1,0.66536,0.0193891,-0.250117,-0.00148856,0,
1,0.641194,0.00794373,-0.250111,-0.00128587,0,
1,0.615961,-0.00254761,-0.250051,-0.0011435,0,
1,0.589754,-0.0122592,-0.249932,-0.00105115,0,
1,0.562692,-0.0213654,-0.249756,-0.000992103,0,
1,0.534925,-0.0300104,-0.24953,-0.000956541,0,
1,0.506624,-0.0382795,-0.24926,-0.000935107,0,
1,0.477982,-0.0462113,-0.248956,-0.000920704,0,
1,0.449206,-0.0538154,-0.248626,-0.000907152,0,
1,0.420509,-0.061085,-0.248281,-0.000890292,0,
1,0.392107,-0.0679998,-0.247933,-0.000867619,0,
1,0.364206,-0.0745309,-0.247593,-0.000837942,0,
1,0.337003,-0.0806476,-0.247271,-0.000800626,0,
1,0.310673,-0.0863219,-0.246978,-0.000755735,0,
1,0.28537,-0.0915317,-0.246718,-0.000703923,0,
1,0.26122,-0.0962608,-0.246496,-0.000646483,0,
1,0.238324,-0.100501,-0.246313,-0.000584526,0,
1,0.21675,-0.104256,-0.24617,-0.000519328,0,
1,0.196544,-0.107534,-0.246066,-0.000452222,0,
1,0.177724,-0.110349,-0.245998,-0.000384484,0,
1,0.160284,-0.112718,-0.245964,-0.000317311,0,
1,0.144202,-0.114657,-0.245957,-0.000251787,0,
1,0.129436,-0.116183,-0.245973,-0.000188858,0,
1,0.115935,-0.117312,-0.246008,-0.000129305,0,
1,0.103636,-0.118059,-0.246056,-7.37499e-05,0,
1,0.0924701,-0.118436,-0.246113,-2.26538e-05,0,
1,0.0823633,-0.118453,-0.246177,2.36631e-05,0,
1,0.0732406,-0.118115,-0.246242,6.50017e-05,0,
1,0.0650269,-0.117425,-0.246309,0.000101259,0,
1,0.057648,-0.116381,-0.246373,0.000132404,0,
1,0.0510323,-0.114977,-0.246434,0.000158451,0,
1,0.0451115,-0.113197,-0.24649,0.00017943,0,
1,0.0398209,-0.111024,-0.246542,0.000195367,0,
1,0.0351001,-0.108429,-0.246588,0.000206259,0,
1,0.0308929,-0.105377,-0.246629,0.000212059,0,
1,0.0271475,-0.101821,-0.246664,0.000212656,0,
1,0.0238164,-0.0977092,-0.246695,0.000207872,0,
1,0.0208562,-0.0929804,-0.246719,0.000197476,0,
1,0.0182274,-0.0875738,-0.24674,0.000181248,0,
1,0.0158944,-0.0814398,-0.246755,0.000159144,0,
1,0.0138249,-0.0745644,-0.246768,0.000131659,0,
1,0.0119898,-0.0670086,-0.246776,0.000100445,0,
1,0.0103632,-0.0589597,-0.246783,6.88879e-05,0,
1,0.00892169,-0.0507574,-0.246786,4.15482e-05,0,
1,0.00764438,-0.0428346,-0.24679,2.18625e-05,0,
1,0.00651264,-0.0355727,-0.246791,1.01342e-05,0,
1,0.00550983,-0.0291816,-0.246793,4.21901e-06,0,
1,0.00462115,-0.0236959,-0.246793,1.60373e-06,0,
1,0.00383341,-0.019044,-0.246795,5.59784e-07,0,
1,0.0031349,-0.0151148,-0.246794,1.7804e-07,0,
1,0.00251518,-0.0117949,-0.246797,5.04532e-08,0,
1,0.00196502,-0.00898284,-0.246795,1.22242e-08,0,
1,0.00147619,-0.00659278,-0.246798,2.35717e-09,0,
1,0.00104139,-0.00455338,-0.246796,3.17447e-10,0,
1,0.000654158,-0.00280583,-0.2468,2.29425e-11,0,
1,0.000308731,-0.00130173,-0.246796,4.87852e-13,0,

4,0,0,-0.101492,0,0,
4,9,0,-0.0906881,0,0,
4,8.99969,0.0143701,-0.0906878,2.36965e-10,0,
4,8.99934,0.0306166,-0.090688,1.09942e-08,0,
4,8.99894,0.0490034,-0.0906878,1.50123e-07,0,
4,8.9985,0.069809,-0.090688,1.08951e-06,0,
4,8.99799,0.0933149,-0.0906877,5.40509e-06,0,
4,8.99742,0.119718,-0.0906879,2.04394e-05,0,
4,8.99677,0.148909,-0.0906877,6.11769e-05,0,
4,8.99605,0.18016,-0.0906877,0.000145575,0,
4,8.99522,0.212048,-0.0906875,0.000276979,0,
4,8.99429,0.242972,-0.0906874,0.000434125,0,
4,8.99324,0.271823,-0.0906871,0.000591406,0,
4,8.99205,0.298391,-0.0906869,0.00071569,0,
4,8.9907,0.322865,-0.0906864,0.000818751,0,
4,8.98919,0.345407,-0.0906859,0.00090521,0,
4,8.98747,0.366213,-0.0906852,0.00097712,0,
4,8.98553,0.385566,-0.0906844,0.00103296,0,
4,8.98334,0.40374,-0.0906835,0.00107876,0,
4,8.98087,0.42094,-0.0906823,0.00111766,0,
4,8.97807,0.437323,-0.0906809,0.00115092,0,
4,8.97491,0.453025,-0.0906793,0.00117979,0,
4,8.97134,0.468158,-0.0906774,0.00120522,0,
4,8.96731,0.48282,-0.0906752,0.00122791,0,
4,8.96276,0.497091,-0.0906726,0.00124839,0,
4,8.95762,0.511042,-0.0906696,0.00126702,0,
4,8.95182,0.524734,-0.0906662,0.00128406,0,
4,8.94526,0.53822,-0.0906623,0.00129965,0,
4,8.93787,0.551546,-0.0906578,0.00131388,0,
4,8.92952,0.564751,-0.0906527,0.00132675,0,
4,8.92011,0.57787,-0.0906471,0.00133821,0,
4,8.90949,0.590932,-0.0906408,0.00134816,0,
4,8.89751,0.603962,-0.0906338,0.00135644,0,
4,8.88402,0.61698,-0.0906261,0.00136288,0,
4,8.86881,0.630004,-0.0906178,0.00136727,0,
4,8.85169,0.643047,-0.0906088,0.00136938,0,
4,8.83242,0.656118,-0.0905993,0.00136899,0,
4,8.81074,0.669224,-0.0905894,0.00136585,0,
4,8.78637,0.682372,-0.0905792,0.00135974,0,
4,8.75901,0.695564,-0.0905689,0.00135043,0,
4,8.7283,0.708804,-0.0905589,0.00133767,0,
4,8.69387,0.722097,-0.0905497,0.00132122,0,
4,8.65533,0.735446,-0.0905418,0.00130077,0,
4,8.61222,0.748861,-0.0905357,0.00127603,0,
4,8.56407,0.76235,-0.0905329,0.00124694,0,
4,8.5104,0.775943,-0.0905349,0.00121356,0,
4,8.45065,0.789704,-0.0905434,0.00117545,0,
4,8.38429,0.803762,-0.0905607,0.00113135,0,
4,8.31073,0.818324,-0.0905902,0.00107879,0,
4,8.22941,0.833683,-0.0906344,0.00101386,0,
4,8.13974,0.850195,-0.0906971,0.000932466,0,
4,8.04115,0.868191,-0.0907776,0.000829865,0,
4,7.93313,0.887794,-0.090879,0.000703568,0,
4,7.81519,0.908608,-0.0909983,0.000557773,0,
4,7.68693,0.929394,-0.0911348,0.000410386,0,
4,7.54803,0.948188,-0.091302,0.000276941,0,
4,7.39831,0.962989,-0.0914931,0.000139954,0,
4,7.23771,0.972443,-0.0917216,5.08609e-05,0,
4,7.06634,0.97674,-0.0919907,1.11803e-05,0,
4,6.88453,0.977613,-0.092294,6.1826e-07,0,
4,6.69275,0.977123,-0.0926287,-2.94775e-07,0,
4,6.49173,0.976592,-0.0929986,-5.26055e-08,0,
4,6.28238,0.976437,-0.093409,1.37491e-08,0,
4,6.06579,0.976571,-0.0938644,1.21271e-08,0,
4,5.84328,0.976813,-0.0943676,7.24385e-09,0,
4,5.61626,0.977063,-0.0949198,5.33788e-09,0,
4,5.3863,0.977298,-0.0955212,4.83968e-09,0,
4,5.15502,0.977532,-0.0961709,4.91595e-09,0,
4,4.92406,0.977781,-0.0968666,5.28304e-09,0,
4,4.69507,0.978057,-0.0976049,5.76099e-09,0,
4,4.46961,0.978361,-0.0983805,6.10705e-09,0,
4,4.24915,0.978663,-0.0991871,5.9433e-09,0,
4,4.03501,0.978896,-0.100017,5.07456e-09,0,
4,3.82836,0.979003,-0.10086,4.03848e-09,0,
4,3.63018,0.979025,-0.101708,4.65665e-09,0,
4,3.44125,0.979204,-0.102549,1.0689e-08,0,
4,3.26217,0.979915,-0.103374,8.07972e-08,0,
4,3.09333,0.981362,-0.104171,7.00578e-07,0,
4,2.93497,0.983188,-0.104929,2.37835e-06,0,
4,2.78715,0.984429,-0.105639,1.81701e-06,0,
4,2.64979,0.983956,-0.106297,-9.03449e-06,0,
4,2.52268,0.981002,-0.106895,-3.71839e-05,0,
4,2.40551,0.975397,-0.107429,-8.44412e-05,0,
4,2.29789,0.967484,-0.107896,-0.000147628,0,
4,2.19939,0.957889,-0.108295,-0.000220708,0,
4,2.10949,0.947301,-0.10863,-0.000296957,0,
4,2.02768,0.936328,-0.108907,-0.000370718,0,
4,1.95343,0.925437,-0.109132,-0.000438163,0,
4,1.88618,0.914946,-0.109313,-0.000497337,0,
4,1.82542,0.90505,-0.109456,-0.000547784,0,
4,1.77062,0.895846,-0.109567,-0.000590054,0,
4,1.72128,0.887369,-0.109652,-0.00062521,0,
4,1.67693,0.879612,-0.109717,-0.000654444,0,
4,1.63713,0.872544,-0.109765,-0.000678827,0,
4,1.60144,0.866124,-0.109799,-0.000699184,0,
4,1.56949,0.86031,-0.109823,-0.000716083,0,
4,1.54091,0.855056,-0.109839,-0.000730838,0,
4,1.51537,0.850304,-0.109849,-0.000743002,0,
4,1.49167,0.845854,-0.109855,-0.000752222,0,
4,1.46926,0.841606,-0.109857,-0.0007599,0,
4,1.44801,0.837534,-0.109856,-0.000766342,0,
4,1.42781,0.833619,-0.109853,-0.000771549,0,
4,1.40855,0.829843,-0.109848,-0.000775718,0,
4,1.39015,0.826187,-0.109841,-0.000779113,0,
4,1.37252,0.822637,-0.109832,-0.000782013,0,
4,1.3556,0.819177,-0.109821,-0.00078473,0,
4,1.3393,0.81579,-0.109809,-0.000787716,0,
4,1.32357,0.812457,-0.109796,-0.000791479,0,
4,1.30836,0.809161,-0.109782,-0.000796883,0,
4,1.29362,0.80588,-0.109766,-0.000804802,0,
4,1.2793,0.802591,-0.10975,-0.000816302,0,
4,1.26537,0.799264,-0.109734,-0.000832767,0,
4,1.25179,0.795867,-0.109716,-0.000855891,0,
4,1.23852,0.792361,-0.109698,-0.000887694,0,
4,1.22554,0.788699,-0.109678,-0.000930527,0,
4,1.21282,0.784827,-0.109658,-0.000987035,0,
4,1.20034,0.780687,-0.109637,-0.00106007,0,
4,1.18806,0.776213,-0.109615,-0.00115253,0,
4,1.17599,0.771339,-0.109591,-0.0012671,0,
4,1.16408,0.766005,-0.109566,-0.00140601,0,
4,1.15233,0.760157,-0.109539,-0.00157061,0,
4,1.14073,0.753762,-0.109511,-0.00176118,0,
4,1.12925,0.746803,-0.109482,-0.00197671,0,
4,1.11788,0.739287,-0.109452,-0.00221492,0,
4,1.10661,0.731242,-0.109421,-0.00247247,0,
4,1.09543,0.72271,-0.109389,-0.00274521,0,
4,1.08432,0.713745,-0.109358,-0.00302858,0,
4,1.07328,0.704407,-0.109327,-0.00331797,0,
4,1.0623,0.694757,-0.109296,-0.003609,0,
4,1.05136,0.684855,-0.109265,-0.00389771,0,
4,1.04044,0.674736,-0.109235,-0.0041808,0,
4,1.0295,0.664433,-0.109206,-0.00445567,0,
4,1.01855,0.653987,-0.109177,-0.00471977,0,
4,1.00757,0.643434,-0.109148,-0.00497073,0,
4,0.996544,0.632808,-0.109119,-0.00520694,0,
4,0.98547,0.622137,-0.109089,-0.00542653,0,
4,0.974334,0.611444,-0.10906,-0.00562802,0,
4,0.963124,0.600751,-0.109027,-0.00581024,0,
4,0.951826,0.590076,-0.109001,-0.00598284,0,
4,0.940428,0.579394,-0.108951,-0.00614306,0,
4,0.928915,0.568589,-0.108861,-0.00626806,0,
4,0.917272,0.557519,-0.108765,-0.00640311,0,
4,0.905481,0.546088,-0.108668,-0.0065502,0,
4,0.893524,0.534226,-0.108577,-0.0067105,0,
4,0.881383,0.521874,-0.108495,-0.00688467,0,
4,0.869035,0.508986,-0.10842,-0.00707276,0,
4,0.856459,0.495534,-0.108353,-0.00727442,0,
4,0.843629,0.481501,-0.108291,-0.00748887,0,
4,0.830518,0.466884,-0.108231,-0.00771514,0,
4,0.817097,0.45168,-0.108173,-0.00795216,0,
4,0.803334,0.435888,-0.108114,-0.0081988,0,
4,0.789195,0.419499,-0.108057,-0.00845394,0,
4,0.774643,0.402502,-0.108002,-0.00871633,0,
4,0.759639,0.384885,-0.10795,-0.00898447,0,
4,0.744138,0.366645,-0.107906,-0.00925632,0,
4,0.728096,0.347797,-0.107872,-0.00952908,0,
4,0.711463,0.328377,-0.107853,-0.00979875,0,
4,0.694189,0.308446,-0.107851,-0.0100594,0,
4,0.676218,0.288075,-0.107868,-0.0103033,0,
4,0.657495,0.267339,-0.107903,-0.0105235,0,
4,0.637962,0.246301,-0.107958,-0.0107138,0,
4,0.617561,0.225003,-0.108027,-0.010869,0,
4,0.596848,0.204046,-0.108101,-0.0109811,0,
4,0.576557,0.184114,-0.108168,-0.0110461,0,
4,0.556564,0.165036,-0.108224,-0.011066,0,
4,0.536763,0.146674,-0.108272,-0.0110413,0,
4,0.517057,0.128978,-0.108338,-0.0109721,0,
4,0.497368,0.11205,-0.108475,-0.0108598,0,
4,0.477632,0.0961628,-0.108766,-0.0107095,0,
4,0.457804,0.0816954,-0.109305,-0.010532,0,
4,0.437857,0.0689395,-0.110147,-0.0103421,0,
4,0.417786,0.0578636,-0.111108,-0.010151,0,
4,0.397605,0.0479744,-0.111495,-0.00972967,0,
4,0.377348,0.0386954,-0.111357,-0.0091789,0,
4,0.357066,0.0297679,-0.111205,-0.00873283,0,
4,0.336828,0.0211829,-0.111011,-0.0082745,0,
4,0.316717,0.012946,-0.110765,-0.00780687,0,
4,0.296825,0.00506935,-0.110479,-0.00733548,0,
4,0.27725,-0.00243331,-0.110151,-0.00686199,0,
4,0.258095,-0.00955208,-0.109783,-0.00639032,0,
4,0.239458,-0.0162812,-0.109377,-0.00592428,0,
4,0.221432,-0.0226192,-0.108938,-0.0054675,0,
4,0.2041,-0.0285686,-0.108474,-0.00502333,0,
4,0.187537,-0.0341354,-0.10799,-0.00459473,0,
4,0.171798,-0.039329,-0.107495,-0.0041842,0,
4,0.156928,-0.0441608,-0.106997,-0.00379371,0,
4,0.142956,-0.0486443,-0.106504,-0.00342475,0,
4,0.129894,-0.0527939,-0.106023,-0.00307827,0,
4,0.117744,-0.0566252,-0.105561,-0.00275474,0,
4,0.106492,-0.0601536,-0.105122,-0.00245422,0,
4,0.0961173,-0.063395,-0.10471,-0.0021764,0,
4,0.0865883,-0.0663647,-0.104328,-0.00192067,0,
4,0.0778675,-0.0690775,-0.103977,-0.00168616,0,
4,0.0699123,-0.0715477,-0.103657,-0.00147185,0,
4,0.062677,-0.0737887,-0.103368,-0.0012766,0,
4,0.056114,-0.0758131,-0.103109,-0.00109918,0,
4,0.0501747,-0.0776323,-0.102878,-0.000938346,0,
4,0.0448114,-0.0792569,-0.102674,-0.00079284,0,
4,0.039977,-0.0806962,-0.102495,-0.00066144,0,
4,0.0356266,-0.081958,-0.102337,-0.000542965,0,
4,0.0317171,-0.0830489,-0.1022,-0.000436299,0,
4,0.0282081,-0.0839736,-0.102081,-0.000340397,0,
4,0.0250617,-0.0847347,-0.101979,-0.000254294,0,
4,0.0222427,-0.0853325,-0.10189,-0.000177116,0,
4,0.0197189,-0.0857639,-0.101815,-0.000108088,0,
4,0.0174603,-0.0860219,-0.101751,-4.65449e-05,0,
4,0.0154398,-0.0860935,-0.101697,8.04385e-06,0,
4,0.0136326,-0.0859583,-0.101651,5.60385e-05,0,
4,0.0120162,-0.0855841,-0.101614,9.75592e-05,0,
4,0.0105703,-0.084922,-0.101583,0.000132363,0,
4,0.00927657,-0.0838978,-0.101558,0.000159628,0,
4,0.00811839,-0.0823993,-0.101538,0.000177612,0,
4,0.0070809,-0.0802608,-0.101524,0.00018331,0,
4,0.0061507,-0.0772545,-0.101513,0.000172808,0,
4,0.00531578,-0.0731198,-0.101507,0.000144043,0,
4,0.00456537,-0.0676869,-0.101501,0.000102148,0,
4,0.00388979,-0.0610644,-0.1015,6.01745e-05,0,
4,0.00328037,-0.0536768,-0.101497,2.95181e-05,0,
4,0.00272934,-0.0460319,-0.101498,1.2258e-05,0,
4,0.0022297,-0.0384921,-0.101496,4.34011e-06,0,
4,0.00177519,-0.0312385,-0.101498,1.28452e-06,0,
4,0.00136016,-0.0243343,-0.101495,2.9935e-07,0,
4,0.000979511,-0.0177844,-0.101497,4.84367e-08,0,
4,0.00062865,-0.0115676,-0.101493,4.17086e-09,0,
4,0.000303409,-0.00565225,-0.101497,1.02472e-10,0,

6,0,0,0.00576503,0,0,
6,9,0,-0.0667437,0,0,
6,8.99969,0.0136752,-0.0667434,2.0017e-10,0,
6,8.99934,0.0290956,-0.0667436,9.23772e-09,0,
6,8.99895,0.0465015,-0.0667434,1.25229e-07,0,
6,8.9985,0.0661461,-0.0667435,9.02272e-07,0,
6,8.99801,0.0882882,-0.0667434,4.45124e-06,0,
6,8.99744,0.113122,-0.0667435,1.68121e-05,0,
6,8.99681,0.140595,-0.0667433,5.06588e-05,0,
6,8.99609,0.170133,-0.0667433,0.00012256,0,
6,8.99529,0.200508,-0.0667432,0.000238809,0,
6,8.99438,0.230222,-0.0667431,0.000383721,0,
6,8.99336,0.258126,-0.0667429,0.000533497,0,
6,8.9922,0.283874,-0.0667427,0.000657644,0,
6,8.9909,0.307608,-0.0667423,0.000758369,0,
6,8.98944,0.329492,-0.0667419,0.000843789,0,
6,8.98779,0.349694,-0.0667414,0.000915497,0,
6,8.98593,0.36847,-0.0667408,0.000971874,0,
6,8.98383,0.386078,-0.06674,0.0010183,0,
6,8.98147,0.402713,-0.0667391,0.00105791,0,
6,8.97881,0.418532,-0.066738,0.001092,0,
6,8.97581,0.433667,-0.0667367,0.00112185,0,
6,8.97244,0.44823,-0.0667351,0.00114843,0,
6,8.96863,0.462317,-0.0667332,0.00117248,0,
6,8.96435,0.476011,-0.066731,0.00119453,0,
6,8.95953,0.489383,-0.0667284,0.00121501,0,
6,8.95409,0.502496,-0.0667253,0.00123418,0,
6,8.94798,0.515404,-0.0667218,0.00125224,0,
6,8.94109,0.528156,-0.0667176,0.00126928,0,
6,8.93334,0.540795,-0.0667128,0.00128533,0,
6,8.92463,0.553359,-0.0667073,0.00130034,0,
6,8.91482,0.56588,-0.0667009,0.00131423,0,
6,8.90379,0.578388,-0.0666937,0.00132683,0,
6,8.89139,0.590908,-0.0666854,0.00133795,0,
6,8.87746,0.60346,-0.066676,0.00134733,0,
6,8.86181,0.616062,-0.0666655,0.0013547,0,
6,8.84423,0.628726,-0.0666536,0.00135975,0,
6,8.82452,0.641461,-0.0666403,0.00136214,0,
6,8.80241,0.654274,-0.0666254,0.00136155,0,
6,8.77763,0.667167,-0.0666089,0.00135762,0,
6,8.74989,0.680138,-0.0665907,0.00135002,0,
6,8.71885,0.693187,-0.0665705,0.00133843,0,
6,8.68417,0.70631,-0.0665484,0.00132296,0,
6,8.64545,0.719512,-0.0665244,0.00130183,0,
6,8.60229,0.732801,-0.0664984,0.00127621,0,
6,8.55423,0.746176,-0.0664701,0.00124654,0,
6,8.50082,0.759648,-0.0664394,0.00121263,0,
6,8.44155,0.77326,-0.0664065,0.00117404,0,
6,8.37592,0.787113,-0.0663719,0.00112982,0,
6,8.30339,0.801385,-0.0663362,0.00107803,0,
6,8.22344,0.816353,-0.0663,0.00101553,0,
6,8.13555,0.832376,-0.0662618,0.000938854,0,
6,8.0392,0.84983,-0.0662199,0.000843904,0,
6,7.93391,0.868938,-0.0661659,0.00072789,0,
6,7.81927,0.889444,-0.066098,0.00059353,0,
6,7.6949,0.910256,-0.0659988,0.000454836,0,
6,7.56054,0.929509,-0.0658841,0.000325803,0,
6,7.41603,0.945309,-0.065725,0.000204714,0,
6,7.26132,0.95642,-0.0655405,9.18489e-05,0,
6,7.09653,0.962583,-0.0653348,2.90408e-05,0,
6,6.92195,0.964787,-0.0650849,4.06628e-06,0,
6,6.73802,0.964753,-0.0647932,-1.31421e-06,0,
6,6.5454,0.96399,-0.06445,-9.96973e-07,0,
6,6.34489,0.963297,-0.0640508,-3.59144e-07,0,
6,6.1375,0.962857,-0.0635899,-1.12252e-07,0,
6,5.92439,0.962566,-0.0630612,-4.14445e-08,0,
6,5.70687,0.962294,-0.0624583,-2.02421e-08,0,
6,5.48633,0.96197,-0.0617748,-1.31174e-08,0,
6,5.26426,0.96158,-0.0610044,-1.09586e-08,0,
6,5.04218,0.961132,-0.0601415,-1.07865e-08,0,
6,4.82159,0.960642,-0.0591815,-1.13979e-08,0,
6,4.60398,0.960124,-0.0581212,-1.24111e-08,0,
6,4.39071,0.95957,-0.056959,-1.39212e-08,0,
6,4.18307,0.95894,-0.0556959,-1.62478e-08,0,
6,3.98218,0.958168,-0.054335,-1.95559e-08,0,
6,3.78902,0.957215,-0.0528825,-2.34898e-08,0,
6,3.60438,0.956145,-0.0513473,-3.39024e-08,0,
6,3.42888,0.95518,-0.0497405,-9.12332e-08,0,
6,3.26296,0.954621,-0.0480737,-2.52983e-07,0,
6,3.10691,0.95465,-0.046359,-4.38213e-07,0,
6,2.96084,0.955141,-0.0446095,-6.84496e-07,0,
6,2.82473,0.955626,-0.0428411,-2.40202e-06,0,
6,2.69844,0.955475,-0.0410726,-8.9581e-06,0,
6,2.58172,0.954135,-0.0393242,-2.42061e-05,0,
6,2.47424,0.951292,-0.037616,-5.05625e-05,0,
6,2.37559,0.946914,-0.035966,-8.83427e-05,0,
6,2.28535,0.941189,-0.034389,-0.000136091,0,
6,2.20301,0.934437,-0.0328965,-0.000190976,0,
6,2.1281,0.927014,-0.0314961,-0.000249694,0,
6,2.06009,0.919259,-0.0301917,-0.000309171,0,
6,1.99849,0.91145,-0.0289845,-0.000366957,0,
6,1.9428,0.903803,-0.0278729,-0.00042135,0,
6,1.89255,0.896467,-0.0268544,-0.000471357,0,
6,1.84728,0.889541,-0.0259241,-0.000516536,0,
6,1.80655,0.883078,-0.0250784,-0.000556745,0,
6,1.76996,0.877106,-0.0243095,-0.000591809,0,
6,1.73712,0.871635,-0.023616,-0.000623466,0,
6,1.70768,0.866628,-0.0229828,-0.000646366,0,
6,1.67998,0.861843,-0.0223805,-0.00066651,0,
6,1.65329,0.857176,-0.0217968,-0.000685808,0,
6,1.62754,0.852617,-0.0212294,-0.000704305,0,
6,1.60265,0.84816,-0.0206776,-0.000722132,0,
6,1.57854,0.843801,-0.02014,-0.000739383,0,
6,1.55515,0.839534,-0.0196154,-0.000756128,0,
6,1.53242,0.835354,-0.0191029,-0.000772448,0,
6,1.5103,0.831258,-0.0186013,-0.000788436,0,
6,1.48874,0.827242,-0.0181097,-0.000804205,0,
6,1.46769,0.823305,-0.0176272,-0.000819872,0,
6,1.44712,0.819446,-0.0171534,-0.000835522,0,
6,1.42698,0.815663,-0.0166872,-0.000851199,0,
6,1.40725,0.811948,-0.0162317,-0.000866574,0,
6,1.38788,0.808281,-0.0157886,-0.000876049,0,
6,1.36886,0.804644,-0.0153525,-0.00088546,0,
6,1.35015,0.801023,-0.0149217,-0.000894524,0,
6,1.33173,0.797406,-0.0144963,-0.000904242,0,
6,1.31357,0.793775,-0.0140756,-0.000915956,0,
6,1.29566,0.790114,-0.0136593,-0.000930676,0,
6,1.27797,0.786398,-0.0132472,-0.000949629,0,
6,1.26048,0.7826,-0.012839,-0.000974343,0,
6,1.24318,0.778686,-0.0124347,-0.00100663,0,
6,1.22605,0.774614,-0.0120341,-0.00104853,0,
6,1.20907,0.770337,-0.0116372,-0.0011023,0,
6,1.19223,0.765803,-0.0112442,-0.00117015,0,
6,1.17551,0.760957,-0.0108552,-0.00125412,0,
6,1.1589,0.755745,-0.0104703,-0.00135566,0,
6,1.14238,0.750121,-0.0100897,-0.00147532,0,
6,1.12595,0.744051,-0.00971393,-0.00161223,0,
6,1.10959,0.737525,-0.00934217,-0.00176402,0,
6,1.09329,0.730553,-0.00897741,-0.0019299,0,
6,1.07704,0.723147,-0.00860984,-0.00209971,0,
6,1.06081,0.715301,-0.00823752,-0.00227699,0,
6,1.04459,0.707004,-0.00786977,-0.00246401,0,
6,1.02836,0.698254,-0.00750465,-0.00266045,0,
6,1.01211,0.689043,-0.00714373,-0.00286651,0,
6,0.99583,0.679359,-0.00678705,-0.00308287,0,
6,0.97951,0.669185,-0.00643538,-0.00331054,0,
6,0.963136,0.658499,-0.00608941,-0.00355073,0,
6,0.946694,0.647277,-0.00575001,-0.00380464,0,
6,0.930172,0.635493,-0.00541801,-0.00407339,0,
6,0.913555,0.623116,-0.0050941,-0.00435789,0,
6,0.896829,0.610109,-0.00477859,-0.00465879,0,
6,0.879979,0.59644,-0.00447147,-0.00497653,0,
6,0.862989,0.582083,-0.00417269,-0.00531142,0,
6,0.845842,0.567042,-0.00388269,-0.00566409,0,
6,0.828521,0.551365,-0.00360331,-0.00603606,0,
6,0.811008,0.535138,-0.00333755,-0.00642693,0,
6,0.793282,0.51844,-0.00308801,-0.00682305,0,
6,0.775322,0.501324,-0.00285773,-0.0072201,0,
6,0.757107,0.483848,-0.0026509,-0.00761345,0,
6,0.738612,0.466084,-0.00247162,-0.00799767,0,
6,0.719813,0.448129,-0.00232289,-0.00836627,0,
6,0.700681,0.430088,-0.00220473,-0.00871201,0,
6,0.681188,0.412054,-0.0021126,-0.00902763,0,
6,0.661304,0.394086,-0.00203699,-0.00930682,0,
6,0.640996,0.376198,-0.00196522,-0.00954476,0,
6,0.620228,0.358367,-0.00188684,-0.00973732,0,
6,0.598964,0.340577,-0.00180432,-0.00988062,0,
6,0.577166,0.322891,-0.00174723,-0.0099715,0,
6,0.554791,0.305545,-0.00178337,-0.0100094,0,
6,0.531799,0.288995,-0.00202293,-0.00999979,0,
6,0.508144,0.273806,-0.00256877,-0.00995619,0,
6,0.48378,0.260363,-0.00348905,-0.00989507,0,
6,0.459585,0.248981,-0.0043294,-0.00980352,0,
6,0.436695,0.239324,-0.00446754,-0.00923957,0,
6,0.414961,0.230662,-0.00422782,-0.00880516,0,
6,0.394252,0.222744,-0.00404344,-0.00841993,0,
6,0.374445,0.21544,-0.00381059,-0.00803637,0,
6,0.355433,0.208647,-0.00354226,-0.00765892,0,
6,0.337122,0.202285,-0.00325146,-0.00728823,0,
6,0.319433,0.196291,-0.00294399,-0.00692546,0,
6,0.3023,0.190619,-0.00262227,-0.00656945,0,
6,0.28567,0.18523,-0.00228596,-0.00621988,0,
6,0.269507,0.180092,-0.00193569,-0.0058769,0,
6,0.253785,0.175179,-0.00157253,-0.00554084,0,
6,0.238493,0.170472,-0.00119787,-0.00521213,0,
6,0.223631,0.165956,-0.000813577,-0.00489138,0,
6,0.209207,0.161618,-0.000421962,-0.0045793,0,
6,0.195237,0.15745,-2.57048e-05,-0.0042767,0,
6,0.181744,0.153445,0.000372174,-0.00398443,0,
6,0.168754,0.149598,0.000768428,-0.00370334,0,
6,0.156292,0.145906,0.0011597,-0.00343423,0,
6,0.144384,0.142365,0.00154268,-0.00317782,0,
6,0.133052,0.138972,0.00191419,-0.00293471,0,
6,0.122315,0.135723,0.00227139,-0.00270533,0,
6,0.112183,0.132614,0.0026118,-0.00248994,0,
6,0.102665,0.129642,0.00293344,-0.00228865,0,
6,0.0937597,0.126802,0.00323483,-0.00210139,0,
6,0.0854609,0.124088,0.00351501,-0.00192791,0,
6,0.077757,0.121494,0.00377352,-0.00176785,0,
6,0.0706309,0.119014,0.00401035,-0.00162073,0,
6,0.0640611,0.11664,0.0042259,-0.00148596,0,
6,0.0580229,0.114365,0.00442088,-0.00136288,0,
6,0.0524888,0.11218,0.00459624,-0.0012508,0,
6,0.0474296,0.110077,0.00475312,-0.00114897,0,
6,0.042815,0.108047,0.0048928,-0.00105666,0,
6,0.0386145,0.10608,0.0050166,-0.000973109,0,
6,0.0347975,0.104168,0.00512584,-0.000897597,0,
6,0.0313344,0.102298,0.00522187,-0.000829408,0,
6,0.0281964,0.100462,0.00530594,-0.000767853,0,
6,0.0253561,0.0986454,0.00537929,-0.00071227,0,
6,0.0227875,0.0968368,0.00544299,-0.000662022,0,
6,0.0204662,0.0950213,0.00549819,-0.000616494,0,
6,0.0183694,0.0931824,0.00554564,-0.000575082,0,
6,0.016476,0.0913011,0.00558652,-0.000537183,0,
6,0.0147664,0.0893542,0.00562114,-0.000502176,0,
6,0.0132228,0.0873136,0.00565082,-0.000469388,0,
6,0.0118288,0.0851441,0.00567532,-0.000438052,0,
6,0.0105693,0.0828005,0.00569627,-0.000407242,0,
6,0.00943073,0.0802243,0.00571273,-0.000375785,0,
6,0.00840063,0.0773398,0.00572688,-0.000342167,0,
6,0.00746774,0.0740506,0.0057369,-0.000304519,0,
6,0.00662185,0.0702425,0.00574576,-0.000260935,0,
6,0.00585371,0.0658016,0.00575071,-0.000210576,0,
6,0.00515491,0.060662,0.0057557,-0.000155676,0,
6,0.00451788,0.0548798,0.0057571,-0.000102692,0,
6,0.00393573,0.0486755,0.00575987,-5.95537e-05,0,
6,0.00340221,0.0423698,0.0057594,-3.03798e-05,0,
6,0.00291168,0.0362485,0.00576149,-1.37507e-05,0,
6,0.00245897,0.030481,0.00576021,-5.5443e-06,0,
6,0.00203939,0.0251263,0.00576242,-1.96956e-06,0,
6,0.00164864,0.0201769,0.00576059,-5.96088e-07,0,
6,0.00128281,0.0155948,0.00576323,-1.43629e-07,0,
6,0.000938257,0.0113325,0.00576078,-2.41795e-08,0,
6,0.000611645,0.00734193,0.00576408,-2.16748e-09,0,
6,0.000299862,0.0035784,0.00576081,-5.45146e-11,0,

10,0.000296632,0.0105111,0.0282825,-9.86905e-11,0,
10,0.000596102,0.0211185,0.0282829,-3.65718e-09,0,
10,0.000900397,0.0318925,0.0282825,-3.71731e-08,0,
10,0.00121153,0.0429033,0.0282828,-1.9961e-07,0,
10,0.00153158,0.0542203,0.0282825,-7.45363e-07,0,
10,0.00186264,0.0659098,0.0282827,-2.20835e-06,0,
10,0.00220692,0.078029,0.0282824,-5.56959e-06,0,
10,0.00256668,0.0906176,0.0282826,-1.24406e-05,0,
10,0.00294431,0.103683,0.0282823,-2.51683e-05,0,
10,0.00334229,0.117185,0.0282825,-4.6676e-05,0,
10,0.00376326,0.131015,0.0282822,-7.98328e-05,0,
10,0.00421,0.144996,0.0282823,-0.000126358,0,
10,0.00468544,0.158892,0.0282819,-0.000185747,0,
10,0.00519274,0.172451,0.0282818,-0.000255,0,
10,0.00573524,0.185442,0.0282814,-0.000329486,0,
10,0.00631651,0.197693,0.028281,-0.000404395,0,
10,0.00694041,0.2091,0.0282802,-0.000475882,0,
10,0.00761104,0.219619,0.0282795,-0.000541514,0,
10,0.00833284,0.229257,0.0282783,-0.000600143,0,
10,0.00911058,0.238053,0.0282769,-0.00065157,0,
10,0.0099494,0.246067,0.028275,-0.000696191,0,
10,0.0108548,0.253367,0.0282728,-0.000734729,0,
10,0.0118329,0.260026,0.0282699,-0.000768052,0,
10,0.0128901,0.266117,0.0282666,-0.000797057,0,
10,0.0140333,0.271707,0.0282624,-0.000822598,0,
10,0.0152702,0.276857,0.0282576,-0.000845458,0,
10,0.0166089,0.281624,0.0282518,-0.000866332,0,
10,0.0180584,0.286057,0.0282451,-0.000885829,0,
10,0.0196282,0.290199,0.0282373,-0.000904478,0,
10,0.0213288,0.29409,0.0282283,-0.000922743,0,
10,0.0231714,0.297762,0.0282178,-0.00094103,0,
10,0.0251682,0.301245,0.0282059,-0.000959706,0,
10,0.0273326,0.304565,0.0281923,-0.0009791,0,
10,0.0296789,0.307745,0.0281769,-0.000999523,0,
10,0.0322227,0.310805,0.0281594,-0.00102127,0,
10,0.0349809,0.313764,0.0281396,-0.00104462,0,
10,0.0379719,0.316638,0.0281174,-0.00106986,0,
10,0.0412155,0.319442,0.0280924,-0.00109728,0,
10,0.0447333,0.322191,0.0280644,-0.00112717,0,
10,0.0485489,0.324897,0.028033,-0.00115984,0,
10,0.0526875,0.327572,0.0279981,-0.00119561,0,
10,0.0571768,0.330229,0.0279591,-0.00123481,0,
10,0.0620466,0.332878,0.0279159,-0.00127782,0,
10,0.0673295,0.335532,0.0278679,-0.00132501,0,
10,0.0730607,0.338201,0.0278147,-0.0013768,0,
10,0.0792784,0.340898,0.0277561,-0.00143365,0,
10,0.0860241,0.343633,0.0276913,-0.00149604,0,
10,0.0933428,0.34642,0.0276201,-0.00156449,0,
10,0.101283,0.34927,0.027542,-0.00163956,0,
10,0.109899,0.352199,0.0274563,-0.00172185,0,
10,0.119247,0.35522,0.0273628,-0.00181203,0,
10,0.12939,0.358349,0.0272608,-0.00191078,0,
10,0.140395,0.361605,0.02715,-0.00201887,0,
10,0.152337,0.365007,0.0270299,-0.00213709,0,
10,0.165296,0.368576,0.0269002,-0.00226628,0,
10,0.179357,0.372337,0.0267606,-0.00240735,0,
10,0.194615,0.376317,0.0266109,-0.0025612,0,
10,0.211171,0.380549,0.026451,-0.00272879,0,
10,0.229138,0.385067,0.0262808,-0.00291108,0,
10,0.248635,0.389913,0.0261009,-0.00310899,0,
10,0.269793,0.395136,0.0259108,-0.00332338,0,
10,0.292753,0.400791,0.0257125,-0.003555,0,
10,0.317669,0.406943,0.0255037,-0.00380347,0,
10,0.344708,0.413665,0.0252899,-0.00406839,0,
10,0.372405,0.420634,0.0250816,-0.00433583,0,
10,0.399623,0.427589,0.0248853,-0.00459393,0,
10,0.426397,0.434551,0.0247019,-0.00484199,0,
10,0.452757,0.441542,0.0245323,-0.00507935,0,
10,0.478735,0.448586,0.02438,-0.00530462,0,
10,0.504358,0.455716,0.0242471,-0.00551672,0,
10,0.529657,0.462968,0.0241357,-0.00571299,0,
10,0.554656,0.470379,0.0240406,-0.00589385,0,
10,0.579382,0.477985,0.0239693,-0.00605775,0,
10,0.603859,0.485817,0.0238826,-0.00622951,0,
10,0.628112,0.493969,0.0238926,-0.00644549,0,
10,0.652163,0.502841,0.0241007,-0.00642149,0,
10,0.676035,0.512926,0.0243319,-0.00637483,0,
10,0.699751,0.524338,0.0244688,-0.00630436,0,
10,0.72333,0.536883,0.0245177,-0.00620386,0,
10,0.746795,0.550228,0.0245,-0.0060687,0,
10,0.770165,0.564071,0.024445,-0.00589723,0,
10,0.79346,0.578224,0.0243722,-0.00569017,0,
10,0.816699,0.592606,0.0242921,-0.00544945,0,
10,0.839903,0.607182,0.0242069,-0.00517777,0,
10,0.863088,0.621905,0.0241139,-0.00487907,0,
10,0.886275,0.636669,0.0240094,-0.00455918,0,
10,0.909481,0.651287,0.0238873,-0.0042273,0,
10,0.932723,0.665494,0.023744,-0.00390859,0,
10,0.956021,0.679052,0.0235857,-0.00360169,0,
10,0.97939,0.69186,0.0234193,-0.00330574,0,
10,1.00285,0.703929,0.0232479,-0.00302189,0,
10,1.02641,0.715311,0.023072,-0.00275179,0,
10,1.0501,0.726044,0.0228903,-0.00249712,0,
10,1.07392,0.736138,0.0227016,-0.00225961,0,
10,1.0979,0.745582,0.0225053,-0.0020409,0,
10,1.12205,0.754366,0.0223012,-0.00184234,0,
10,1.14639,0.762488,0.0220894,-0.00166476,0,
10,1.17093,0.769974,0.0218701,-0.00150832,0,
10,1.19568,0.776874,0.0216435,-0.00137229,0,
10,1.22066,0.783264,0.0214097,-0.00125507,0,
10,1.24589,0.78924,0.0211693,-0.0011544,0,
10,1.27137,0.794905,0.020923,-0.00106772,0,
10,1.29713,0.800358,0.0206712,-0.0009927,0,
10,1.32317,0.805675,0.0204141,-0.000927406,0,
10,1.34951,0.810903,0.0201515,-0.000870352,0,
10,1.37616,0.816064,0.0198831,-0.000820305,0,
10,1.40313,0.821158,0.0196085,-0.000776133,0,
10,1.43043,0.826185,0.0193276,-0.000736733,0,
10,1.45807,0.831147,0.0190403,-0.00070106,0,
10,1.48607,0.836054,0.0187465,-0.000668194,0,
10,1.51444,0.840919,0.0184464,-0.000637404,0,
10,1.54318,0.845753,0.0181397,-0.000608165,0,
10,1.57231,0.850561,0.0178264,-0.000580127,0,
10,1.60184,0.85534,0.0175063,-0.000553062,0,
10,1.63178,0.860082,0.0171792,-0.000526809,0,
10,1.66213,0.864774,0.0168451,-0.000501245,0,
10,1.69292,0.869406,0.0165037,-0.000476271,0,
10,1.72416,0.873966,0.0161552,-0.000451815,0,
10,1.75585,0.878442,0.0157993,-0.000427839,0,
10,1.78802,0.882821,0.015436,-0.000404344,0,
10,1.82067,0.887091,0.0150652,-0.000381371,0,
10,1.85383,0.891233,0.0146867,-0.000359,0,
10,1.88751,0.895227,0.014301,-0.00033734,0,
10,1.92173,0.899055,0.0139072,-0.000316457,0,
10,1.95652,0.902707,0.0135073,-0.000296264,0,
10,1.9919,0.906204,0.0130989,-0.000272639,0,
10,2.02791,0.909592,0.0126811,-0.000245734,0,
10,2.06456,0.912867,0.012258,-0.00021852,0,
10,2.10268,0.916046,0.011814,-0.000189437,0,
10,2.1443,0.919204,0.0113311,-0.000159726,0,
10,2.18977,0.922279,0.010802,-0.000130395,0,
10,2.23946,0.925181,0.0102252,-0.000102216,0,
10,2.29376,0.927819,0.00959546,-7.6352e-05,0,
10,2.35309,0.930098,0.00891048,-5.37099e-05,0,
10,2.4179,0.931933,0.00816624,-3.49472e-05,0,
10,2.48863,0.933255,0.00736075,-2.04597e-05,0,
10,2.56575,0.934036,0.00649155,-1.03019e-05,0,
10,2.64971,0.934299,0.00555776,-4.11532e-06,0,
10,2.74098,0.934136,0.00455872,-1.12286e-06,0,
10,2.83997,0.933706,0.00349503,-2.44189e-07,0,
10,2.94709,0.933217,0.00236774,-3.50968e-07,0,
10,3.06269,0.932883,0.00117893,-5.91462e-07,0,
10,3.18706,0.93287,-6.87115e-05,-5.9847e-07,0,
10,3.3204,0.933242,-0.00137129,-4.14303e-07,0,
10,3.46281,0.933949,-0.00272359,-2.1369e-07,0,
10,3.61427,0.934857,-0.00411856,-9.13123e-08,0,
10,3.77463,0.935812,-0.00554723,-4.08573e-08,0,
10,3.94358,0.936702,-0.00699886,-2.50792e-08,0,
10,4.12067,0.937482,-0.00846144,-2.03592e-08,0,
10,4.30525,0.938171,-0.00992225,-1.86183e-08,0,
10,4.49655,0.938813,-0.0113684,-1.82359e-08,0,
10,4.6936,0.939448,-0.0127872,-1.92609e-08,0,
10,4.89531,0.940086,-0.0141668,-2.26026e-08,0,
10,5.10047,0.940717,-0.0154961,-3.0633e-08,0,
10,5.30776,0.94132,-0.0167657,-4.84674e-08,0,
10,5.51581,0.941877,-0.0179675,-8.66719e-08,0,
10,5.72323,0.942391,-0.0190951,-1.68982e-07,0,
10,5.92863,0.9429,-0.0201447,-3.56154e-07,0,
10,6.13069,0.943486,-0.0211133,-7.98135e-07,0,
10,6.32816,0.944231,-0.0220014,-1.71852e-06,0,
10,6.51991,0.945079,-0.022809,-2.79708e-06,0,
10,6.70495,0.945615,-0.0235405,-1.07553e-06,0,
10,6.88244,0.944897,-0.0241955,1.17038e-05,0,
10,7.0517,0.941597,-0.0247801,4.85505e-05,0,
10,7.21224,0.934504,-0.0252888,0.000121958,0,
10,7.3637,0.923124,-0.0257341,0.000239093,0,
10,7.5059,0.907664,-0.0261236,0.000350019,0,
10,7.63878,0.888869,-0.0264431,0.000469433,0,
10,7.76243,0.868338,-0.0267136,0.000596881,0,
10,7.87701,0.847887,-0.0269304,0.000720749,0,
10,7.9828,0.828717,-0.0271095,0.000828255,0,
10,8.08014,0.811209,-0.0272536,0.000917492,0,
10,8.16941,0.795201,-0.027374,0.000991134,0,
10,8.25106,0.780317,-0.0274745,0.00105285,0,
10,8.32554,0.766175,-0.027561,0.00110513,0,
10,8.39331,0.752477,-0.0276348,0.00115055,0,
10,8.45484,0.739034,-0.0276984,0.00119055,0,
10,8.5106,0.72575,-0.0277525,0.00122571,0,
10,8.56104,0.712603,-0.0277989,0.0012561,0,
10,8.60659,0.69961,-0.0278383,0.00128169,0,
10,8.64767,0.686797,-0.0278725,0.00130256,0,
10,8.68467,0.674161,-0.0279018,0.00131482,0,
10,8.71795,0.661683,-0.0279265,0.00132288,0,
10,8.74786,0.649366,-0.0279479,0.00132666,0,
10,8.77471,0.637212,-0.027966,0.00132638,0,
10,8.79881,0.625221,-0.0279816,0.00132252,0,
10,8.8204,0.613389,-0.0279947,0.00131559,0,
10,8.83975,0.601708,-0.028006,0.00130611,0,
10,8.85708,0.590163,-0.0280155,0.00129456,0,
10,8.87259,0.578738,-0.0280235,0.00128137,0,
10,8.88646,0.567411,-0.0280302,0.00126693,0,
10,8.89886,0.556159,-0.0280359,0.00125157,0,
10,8.90995,0.544955,-0.0280406,0.00123555,0,
10,8.91986,0.533768,-0.0280445,0.00121907,0,
10,8.92872,0.522566,-0.0280478,0.00120227,0,
10,8.93663,0.511313,-0.0280504,0.00118523,0,
10,8.94369,0.499972,-0.0280527,0.00116792,0,
10,8.95,0.488502,-0.0280545,0.00115034,0,
10,8.95564,0.476859,-0.028056,0.00113238,0,
10,8.96067,0.464995,-0.0280572,0.00111384,0,
10,8.96517,0.452859,-0.0280582,0.00109448,0,
10,8.96918,0.44039,-0.0280589,0.00107396,0,
10,8.97276,0.427523,-0.0280597,0.00105186,0,
10,8.97596,0.414181,-0.0280601,0.00102763,0,
10,8.97882,0.400275,-0.0280607,0.00100056,0,
10,8.98137,0.385705,-0.0280609,0.000969746,0,
10,8.98365,0.37035,-0.0280613,0.000934036,0,
10,8.98569,0.354068,-0.0280613,0.000892328,0,
10,8.9875,0.336681,-0.0280618,0.000841577,0,
10,8.98913,0.317949,-0.0280616,0.000777385,0,
10,8.99058,0.297641,-0.0280621,0.000701228,0,
10,8.99188,0.275599,-0.0280618,0.000611667,0,
10,8.99304,0.251668,-0.0280623,0.000502324,0,
10,8.99408,0.225675,-0.0280619,0.000368727,0,
10,8.99501,0.197835,-0.0280624,0.000236727,0,
10,8.99583,0.169083,-0.0280619,0.000126595,0,
10,8.99658,0.140747,-0.0280625,5.47836e-05,0,
10,8.99724,0.114022,-0.0280619,1.9005e-05,0,
10,8.99784,0.0895613,-0.0280626,5.23559e-06,0,
10,8.99837,0.0675085,-0.0280619,1.0994e-06,0,
10,8.99885,0.0477387,-0.0280627,1.57577e-07,0,
10,8.99927,0.0300406,-0.0280618,1.19662e-08,0,
10,8.99966,0.0141968,-0.0280628,2.64797e-10,0,
10,0,0,0.028283,0,0,
10,9,0,-0.0280617,0,0,

0.004,0,0,-0.235189,0,5.39915e-07,
0.00868226,0,0,-0.235211,0,5.4211e-07,
0.014062,0,0,-0.235193,0,7.06953e-07,
0.0201548,0,0,-0.235203,0,2.61674e-06,
0.0269766,0,0,-0.235189,0,5.99595e-06,
0.0345437,0,0,-0.235197,0,1.16791e-05,
0.0428729,0,0,-0.235192,0,1.90653e-05,
0.051981,0,0,-0.235207,0,2.80234e-05,
0.0618853,0,0,-0.235221,0,3.73804e-05,
0.0726036,0,0,-0.235253,0,4.63632e-05,
0.0841536,0,0,-0.235288,0,5.3899e-05,
0.0965535,0,0,-0.235335,0,5.95762e-05,
0.109822,0,0,-0.235385,0,6.31452e-05,
0.123977,0,0,-0.235441,0,6.48227e-05,
0.139037,0,0,-0.2355,0,6.48588e-05,
0.155022,0,0,-0.235563,0,6.35874e-05,
0.171949,0,0,-0.23563,0,6.12121e-05,
0.189839,0,0,-0.235704,0,5.78562e-05,
0.208709,0,0,-0.235787,0,5.35509e-05,
0.228579,0,0,-0.235879,0,4.83238e-05,
0.249467,0,0,-0.235982,0,4.22395e-05,
0.271391,0,0,-0.236097,0,3.54404e-05,
0.29437,0,0,-0.236226,0,2.815e-05,
0.31842,0,0,-0.236369,0,2.06637e-05,
0.343559,0,0,-0.236527,0,1.33147e-05,
0.369804,0,0,-0.236702,0,6.42257e-06,
0.39717,0,0,-0.236896,0,2.29674e-07,
0.425672,0,0,-0.237113,0,-5.15604e-06,
0.455324,0,0,-0.237357,0,-9.79555e-06,
0.48614,0,0,-0.237632,0,-1.39204e-05,
0.518132,0,0,-0.237944,0,-1.79051e-05,
0.551309,0,0,-0.238298,0,-2.22237e-05,
0.585683,0,0,-0.238701,0,-2.74079e-05,
0.621259,0,0,-0.23916,0,-3.40152e-05,
0.658046,0,0,-0.239682,0,-4.26116e-05,
0.696047,0,0,-0.240272,0,-5.37622e-05,
0.735265,0,0,-0.240937,0,-6.80248e-05,
0.7757,0,0,-0.241683,0,-8.59399e-05,
0.817352,0,0,-0.242514,0,-0.000108016,
0.860215,0,0,-0.243432,0,-0.000134709,
0.904285,0,0,-0.244438,0,-0.000166404,
0.949552,0,0,-0.245529,0,-0.000203391,
0.996004,0,0,-0.246697,0,-0.000245855,
1.04363,0,0,-0.247933,0,-0.000293863,
1.09241,0,0,-0.249222,0,-0.000347357,
1.14232,0,0,-0.250544,0,-0.000406155,
1.19335,0,0,-0.251875,0,-0.000469946,
1.24546,0,0,-0.253189,0,-0.000538293,
1.29863,0,0,-0.254453,0,-0.000610632,
1.35283,0,0,-0.255634,0,-0.000686279,
1.40802,0,0,-0.256694,0,-0.000764448,
1.46416,0,0,-0.257597,0,-0.000844272,
1.52121,0,0,-0.258307,0,-0.000924844,
1.57913,0,0,-0.25879,0,-0.00100525,
1.63787,0,0,-0.259015,0,-0.00108462,
1.69739,0,0,-0.258958,0,-0.00116215,
1.75761,0,0,-0.258596,0,-0.00123715,
1.81851,0,0,-0.257913,0,-0.00130905,
1.88,0,0,-0.256897,0,-0.00137738,
1.94204,0,0,-0.255543,0,-0.0014418,
2.00457,0,0,-0.253847,0,-0.00150202,
2.06751,0,0,-0.251808,0,-0.00155781,
2.13081,0,0,-0.24943,0,-0.00160897,
2.19439,0,0,-0.24672,0,-0.00165532,
2.25819,0,0,-0.243686,0,-0.00169668,
2.32214,0,0,-0.24034,0,-0.00173291,
2.38617,0,0,-0.236696,0,-0.00176386,
2.4502,0,0,-0.232773,0,-0.00178943,
2.51418,0,0,-0.228592,0,-0.00180958,
2.57803,0,0,-0.224175,0,-0.00182432,
2.64167,0,0,-0.219548,0,-0.00183374,
2.70505,0,0,-0.214737,0,-0.00183797,
2.76808,0,0,-0.209769,0,-0.0018372,
2.83072,0,0,-0.204673,0,-0.00183165,
2.89288,0,0,-0.199477,0,-0.0018216,
2.95451,0,0,-0.194206,0,-0.00180735,
3.01555,0,0,-0.188888,0,-0.0017892,
3.07594,0,0,-0.183547,0,-0.00176749,
3.13561,0,0,-0.178206,0,-0.00174255,
3.19453,0,0,-0.172887,0,-0.00171472,
3.25262,0,0,-0.167609,0,-0.00168431,
3.30985,0,0,-0.16239,0,-0.00165164,
3.36617,0,0,-0.157246,0,-0.00161702,
3.42154,0,0,-0.152192,0,-0.00158075,
3.47591,0,0,-0.147239,0,-0.00154311,
3.52925,0,0,-0.1424,0,-0.00150435,
3.58152,0,0,-0.137682,0,-0.00146475,
3.6327,0,0,-0.133093,0,-0.00142453,
3.68276,0,0,-0.12864,0,-0.00138394,
3.73167,0,0,-0.124326,0,-0.00134318,
3.77941,0,0,-0.120156,0,-0.00130244,
3.82596,0,0,-0.116131,0,-0.00126189,
3.8713,0,0,-0.112252,0,-0.00122168,
3.91543,0,0,-0.108516,0,-0.00118179,
3.95833,0,0,-0.104944,0,-0.00114271,
4,0,0,-0.101493,0,-0.00110406,
4.04167,0,0,-0.098092,0,-0.001065,
4.08333,0,0,-0.0947381,0,-0.00102566,
4.125,0,0,-0.0914291,0,-0.00098603,
4.16667,0,0,-0.0881667,0,-0.000946106,
4.20833,0,0,-0.0849519,0,-0.000905925,
4.25,0,0,-0.0817859,0,-0.000865535,
4.29167,0,0,-0.0786694,0,-0.000824977,
4.33333,0,0,-0.0756032,0,-0.000784287,
4.375,0,0,-0.0725878,0,-0.000743498,
4.41667,0,0,-0.0696239,0,-0.000702638,
4.45833,0,0,-0.0667119,0,-0.000661738,
4.5,0,0,-0.0638523,0,-0.000620825,
4.54167,0,0,-0.0610451,0,-0.00057993,
4.58333,0,0,-0.0582908,0,-0.000539077,
4.625,0,0,-0.0555894,0,-0.000498295,
4.66667,0,0,-0.052941,0,-0.000457608,
4.70833,0,0,-0.0503455,0,-0.000417038,
4.75,0,0,-0.0478028,0,-0.000376608,
4.79167,0,0,-0.0453129,0,-0.000336334,
4.83333,0,0,-0.0428755,0,-0.000296236,
4.875,0,0,-0.0404904,0,-0.00025633,
4.91667,0,0,-0.0381573,0,-0.000216632,
4.95833,0,0,-0.0358758,0,-0.000177156,
5,0,0,-0.0336456,0,-0.000137913,
5.04167,0,0,-0.0314664,0,-9.89144e-05,
5.08333,0,0,-0.0293378,0,-6.01731e-05,
5.125,0,0,-0.0272593,0,-2.17029e-05,
5.16667,0,0,-0.0252305,0,1.64836e-05,
5.20833,0,0,-0.0232509,0,5.43752e-05,
5.25,0,0,-0.02132,0,9.19618e-05,
5.29167,0,0,-0.0194374,0,0.000129234,
5.33333,0,0,-0.0176024,0,0.000166181,
5.375,0,0,-0.0158145,0,0.000202796,
5.41667,0,0,-0.0140732,0,0.000239069,
5.45833,0,0,-0.0123779,0,0.000274993,
5.5,0,0,-0.0107279,0,0.000310559,
5.54167,0,0,-0.0091227,0,0.00034576,
5.58333,0,0,-0.00756163,0,0.00038059,
5.625,0,0,-0.00604407,0,0.000415042,
5.66667,0,0,-0.00456938,0,0.000449109,
5.70833,0,0,-0.00313689,0,0.000482787,
5.75,0,0,-0.00174595,0,0.00051607,
5.79167,0,0,-0.000395893,0,0.000548953,
5.83333,0,0,0.000913962,0,0.000581432,
5.875,0,0,0.00218429,0,0.000613505,
5.91667,0,0,0.00341577,0,0.000645167,
5.95833,0,0,0.00460908,0,0.000676417,
6,0,0,0.00576492,0,0.000707251,
6.04167,0,0,0.00688396,0,0.000737669,
6.08333,0,0,0.0079669,0,0.000767667,
6.125,0,0,0.00901442,0,0.000797245,
6.16667,0,0,0.0100272,0,0.000826401,
6.20833,0,0,0.011006,0,0.000855133,
6.25,0,0,0.0119514,0,0.000883439,
6.29167,0,0,0.0128642,0,0.00091132,
6.33333,0,0,0.0137451,0,0.000938772,
6.375,0,0,0.0145947,0,0.000965795,
6.41667,0,0,0.0154138,0,0.000992389,
6.45833,0,0,0.0162031,0,0.00101855,
6.5,0,0,0.0169633,0,0.00104429,
6.54167,0,0,0.0176951,0,0.00106959,
6.58333,0,0,0.0183992,0,0.00109447,
6.625,0,0,0.0190763,0,0.00111893,
6.66667,0,0,0.0197271,0,0.00114295,
6.70833,0,0,0.0203522,0,0.00116656,
6.75,0,0,0.0209524,0,0.00118976,
6.79167,0,0,0.0215282,0,0.00121254,
6.83333,0,0,0.0220804,0,0.00123492,
6.875,0,0,0.0226095,0,0.00125689,
6.91667,0,0,0.0231164,0,0.00127848,
6.95833,0,0,0.0236015,0,0.00129969,
7,0,0,0.0240655,0,0.00132053,
7.04167,0,0,0.0245089,0,0.00134101,
7.08333,0,0,0.0249324,0,0.00136113,
7.125,0,0,0.0253364,0,0.00138088,
7.16667,0,0,0.0257215,0,0.00140028,
7.20833,0,0,0.0260881,0,0.00141931,
7.25,0,0,0.0264369,0,0.00143798,
7.29167,0,0,0.0267682,0,0.0014563,
7.33333,0,0,0.0270826,0,0.00147426,
7.375,0,0,0.0273806,0,0.00149187,
7.41667,0,0,0.0276626,0,0.00150913,
7.45833,0,0,0.0279292,0,0.00152605,
7.5,0,0,0.0281806,0,0.00154265,
7.54167,0,0,0.0284174,0,0.00155892,
7.58333,0,0,0.0286399,0,0.00157488,
7.625,0,0,0.0288485,0,0.00159053,
7.66667,0,0,0.0290435,0,0.00160589,
7.70833,0,0,0.0292252,0,0.00162097,
7.75,0,0,0.029394,0,0.00163578,
7.79167,0,0,0.02955,0,0.00165031,
7.83333,0,0,0.0296928,0,0.00166455,
7.875,0,0,0.0298227,0,0.00167855,
7.91667,0,0,0.0299493,0,0.001693,
7.95833,0,0,0.0299976,0,0.00170635,
8,0,0,0.0301557,0,0.00172028,
8.04171,0,0,0.0303486,0,0.00173498,
8.08368,0,0,0.030396,0,0.00174945,
8.12617,0,0,0.0304877,0,0.00176184,
8.16946,0,0,0.03057,0,0.00177412,
8.21382,0,0,0.0306353,0,0.00178631,
8.25952,0,0,0.0306926,0,0.00179843,
8.30685,0,0,0.0307412,0,0.00181063,
8.35611,0,0,0.0307805,0,0.00182303,
8.40762,0,0,0.0308102,0,0.00183568,
8.46168,0,0,0.0308296,0,0.00184863,
8.51865,0,0,0.0308375,0,0.00186192,
8.57889,0,0,0.0308328,0,0.00187556,
8.64276,0,0,0.0308139,0,0.00188959,
8.71067,0,0,0.030779,0,0.00190401,
8.78306,0,0,0.0307263,0,0.00191883,
8.86037,0,0,0.0306535,0,0.00193405,
8.94309,0,0,0.0305582,0,0.00194966,
9.03174,0,0,0.0304379,0,0.00196566,
9.12689,0,0,0.0302895,0,0.00198204,
9.22912,0,0,0.03011,0,0.00199875,
9.33908,0,0,0.0298961,0,0.00201577,
9.45746,0,0,0.0296447,0,0.00203304,
9.58501,0,0,0.0293526,0,0.00205053,
9.72253,0,0,0.0290164,0,0.00206815,
9.87088,0,0,0.0286326,0,0.00208583,
10.031,0,0,0.0281991,0,0.00210349,
10.2039,0,0,0.0277141,0,0.00212103,
10.3906,0,0,0.0271746,0,0.00213838,
10.5924,0,0,0.0265802,0,0.00215543,
10.8105,0,0,0.0259307,0,0.0021721,
11.0463,0,0,0.0252261,0,0.00218828,
11.3012,0,0,0.0244695,0,0.00220389,
11.5769,0,0,0.0236633,0,0.00221885,
11.8751,0,0,0.0228119,0,0.0022331,
12.1977,0,0,0.0219209,0,0.00224657,
12.5466,0,0,0.0209974,0,0.00225921,
12.9242,0,0,0.02005,0,0.00227097,
13.3327,0,0,0.0190874,0,0.00228186,
13.7748,0,0,0.0181212,0,0.00229213,
14.2532,0,0,0.0171614,0,0.00230241,
14.7709,0,0,0.0162184,0,0.00231313,
15.3312,0,0,0.015302,0,0.00232465,
15.9377,0,0,0.0144196,0,0.00233621,
16.594,0,0,0.0135791,0,0.0023474,
17.3044,0,0,0.012787,0,0.00235758,
18.0733,0,0,0.0120477,0,0.00236551,
18.9056,0,0,0.0113663,0,0.00237164,
19.8064,0,0,0.010743,0,0.00237686,
20.7816,0,0,0.0101733,0,0.00238155,
21.8371,0,0,0.0096515,0,0.00238591,
22.9796,0,0,0.00916786,0,0.00239055,
24.2163,0,0,0.00870841,0,0.00239633,
25.5551,0,0,0.00825932,0,0.00240301,
27.0042,0,0,0.00780467,0,0.00241012,
28.5729,0,0,0.00732925,0,0.0024175,
30.271,0,0,0.0068164,0,0.00242464,
32.1091,0,0,0.00625203,0,0.00243054,
34.0989,0,0,0.00562496,0,0.00243585,
36.2529,0,0,0.00492055,0,0.00244139,
38.5845,0,0,0.00413158,0,0.00244791,
41.1085,0,0,0.00329968,0,0.00245715,
43.8407,0,0,0.0022492,0,0.00246508,
46.7983,0,0,0.00116247,0,0.00246824,
50,0,0,0.00238212,0,0.00248141,

