b393bcb1f9d9db617dc59fc2225113d71d316708 
X,Z,x_velocity,cp,uw_b,cf,
1,0,0,-0.212586,0,0,
1,9,0,-0.13784,0,0,
1,8.99969,0.0156829,-0.137839,3.02447e-10,0,
1,8.99934,0.0334726,-0.137839,1.41347e-08,0,
1,8.99894,0.05367,-0.137839,1.94927e-07,0,
1,8.99848,0.0765927,-0.137839,1.42824e-06,0,
1,8.99797,0.102555,-0.137839,7.13019e-06,0,
1,8.99739,0.131747,-0.137839,2.69209e-05,0,
1,8.99672,0.163949,-0.137839,7.94002e-05,0,
1,8.99597,0.198176,-0.137839,0.00018344,0,
1,8.99512,0.232738,-0.137839,0.000335821,0,
1,8.99416,0.265971,-0.137839,0.000506729,0,
1,8.99306,0.29692,-0.137839,0.000666687,0,
1,8.99182,0.325443,-0.137839,0.000794186,0,
1,8.99041,0.351691,-0.137838,0.000900271,0,
1,8.98881,0.375818,-0.137838,0.000987655,0,
1,8.98699,0.398045,-0.137837,0.00105877,0,
1,8.98494,0.418659,-0.137837,0.00111481,0,
1,8.98261,0.437976,-0.137836,0.00115719,0,
1,8.97996,0.45624,-0.137835,0.0011927,0,
1,8.97696,0.473623,-0.137834,0.00122203,0,
1,8.97356,0.490267,-0.137833,0.00124647,0,
1,8.9697,0.50629,-0.137832,0.00126699,0,
1,8.96533,0.52179,-0.13783,0.00128432,0,
1,8.96038,0.53685,-0.137829,0.001299,0,
1,8.95476,0.55154,-0.137827,0.00131141,0,
1,8.9484,0.565918,-0.137825,0.00132184,0,
1,8.9412,0.580034,-0.137822,0.00133048,0,
1,8.93303,0.593932,-0.13782,0.00133746,0,
1,8.92379,0.607649,-0.137817,0.00134284,0,
1,8.91333,0.621216,-0.137815,0.00134668,0,
1,8.90149,0.634663,-0.137812,0.00134896,0,
1,8.8881,0.648015,-0.137809,0.00134965,0,
1,8.87295,0.661294,-0.137807,0.00134869,0,
1,8.85584,0.674521,-0.137805,0.001346,0,
1,8.83651,0.687718,-0.137804,0.00134149,0,
1,8.81469,0.700905,-0.137804,0.001335,0,
1,8.79007,0.714104,-0.137806,0.0013264,0,
1,8.76232,0.727338,-0.13781,0.00131546,0,
1,8.73107,0.740635,-0.137817,0.00130196,0,
1,8.69591,0.754027,-0.137828,0.00128557,0,
1,8.6564,0.767553,-0.137844,0.00126592,0,
1,8.61206,0.781262,-0.137868,0.00124258,0,
1,8.56236,0.795212,-0.137901,0.00121506,0,
1,8.50675,0.809484,-0.137945,0.00118312,0,
1,8.44464,0.824187,-0.138007,0.00114934,0,
1,8.3754,0.839542,-0.138088,0.0010996,0,
1,8.29839,0.855845,-0.138191,0.00103561,0,
1,8.21296,0.873357,-0.138328,0.000953607,0,
1,8.11843,0.892256,-0.138501,0.000847739,0,
1,8.01417,0.912508,-0.138728,0.000714605,0,
1,7.89956,0.933623,-0.139001,0.000557285,0,
1,7.77403,0.954427,-0.139362,0.000395847,0,
1,7.63711,0.973261,-0.139791,0.000205468,0,
1,7.48842,0.987787,-0.140299,7.37242e-05,0,
1,7.32773,0.996161,-0.140912,1.65837e-05,0,
1,7.15495,0.999022,-0.141622,1.41295e-06,0,
1,6.97022,0.99893,-0.142444,3.61978e-09,0,
1,6.77388,0.998294,-0.143392,2.43582e-09,0,
1,6.56652,0.998194,-0.144477,8.92877e-09,0,
1,6.34896,0.998646,-0.145711,1.19477e-08,0,
1,6.12229,0.999342,-0.147103,1.34094e-08,0,
1,5.88784,1.00009,-0.148663,1.40661e-08,0,
1,5.64716,1.00087,-0.150398,1.48352e-08,0,
1,5.40194,1.0017,-0.152313,1.59385e-08,0,
1,5.15407,1.0026,-0.154407,1.7257e-08,0,
1,4.90545,1.00359,-0.156674,1.87e-08,0,
1,4.65805,1.00466,-0.159105,2.02141e-08,0,
1,4.41376,1.00579,-0.161684,2.17008e-08,0,
1,4.17441,1.00698,-0.16439,2.28916e-08,0,
1,3.94163,1.00816,-0.167197,2.3661e-08,0,
1,3.7169,1.00928,-0.170072,2.46727e-08,0,
1,3.50146,1.01043,-0.172982,2.80035e-08,0,
1,3.29629,1.01192,-0.175892,3.57499e-08,0,
1,3.10217,1.0141,-0.178777,4.57591e-08,0,
1,2.91959,1.01675,-0.181611,7.76828e-08,0,
1,2.74885,1.01838,-0.184363,4.47681e-07,0,
1,2.59002,1.01655,-0.186992,-8.58581e-06,0,
1,2.44299,1.00957,-0.189452,-5.50884e-05,0,
1,2.30752,0.997659,-0.191707,-0.000149356,0,
1,2.18321,0.982343,-0.193732,-0.000277358,0,
1,2.06959,0.9653,-0.195519,-0.000415274,0,
1,1.9661,0.947819,-0.197105,-0.000542068,0,
1,1.87215,0.930767,-0.198522,-0.000631798,0,
1,1.78711,0.914639,-0.199757,-0.000710436,0,
1,1.71033,0.899623,-0.200823,-0.000778417,0,
1,1.64119,0.885706,-0.201728,-0.000822771,0,
1,1.57905,0.872749,-0.202503,-0.000858473,0,
1,1.52332,0.860584,-0.203178,-0.000889932,0,
1,1.47342,0.849089,-0.203758,-0.000917534,0,
1,1.42882,0.838175,-0.20426,-0.000941656,0,
1,1.389,0.827773,-0.204692,-0.000962785,0,
1,1.35351,0.817836,-0.205064,-0.000981284,0,
1,1.3219,0.808327,-0.205384,-0.000997463,0,
1,1.29378,0.799225,-0.20566,-0.00101154,0,
1,1.26878,0.790516,-0.205898,-0.00102371,0,
1,1.24659,0.78219,-0.206103,-0.00103449,0,
1,1.22689,0.774238,-0.20628,-0.00104395,0,
1,1.2092,0.766566,-0.206434,-0.00105116,0,
1,1.1932,0.75912,-0.206569,-0.0010568,0,
1,1.1787,0.751883,-0.206688,-0.00106138,0,
1,1.16554,0.744836,-0.206793,-0.00106547,0,
1,1.15357,0.73795,-0.206884,-0.00107033,0,
1,1.14266,0.731188,-0.206964,-0.00107817,0,
1,1.13268,0.724494,-0.207035,-0.00109192,0,
1,1.12354,0.717793,-0.207097,-0.00111555,0,
1,1.11514,0.710988,-0.207153,-0.00115391,0,
1,1.10739,0.703958,-0.207204,-0.00121247,0,
1,1.10022,0.696564,-0.207254,-0.00129683,0,
1,1.09357,0.688659,-0.207303,-0.00141212,0,
1,1.08738,0.680102,-0.207354,-0.00156196,0,
1,1.0816,0.670785,-0.207408,-0.00174788,0,
1,1.07618,0.660657,-0.207467,-0.00196846,0,
1,1.07107,0.649738,-0.20753,-0.00221907,0,
1,1.06626,0.638118,-0.207599,-0.00249235,0,
1,1.06169,0.625935,-0.207672,-0.00277943,0,
1,1.05735,0.61335,-0.207748,-0.00307125,0,
1,1.05321,0.600522,-0.207828,-0.00335985,0,
1,1.04925,0.587591,-0.20791,-0.00363891,0,
1,1.04544,0.574667,-0.207995,-0.00390395,0,
1,1.04177,0.561837,-0.20808,-0.00415212,0,
1,1.03822,0.54916,-0.208166,-0.00438186,0,
1,1.03478,0.536676,-0.208252,-0.00459257,0,
1,1.03144,0.52441,-0.208339,-0.00478428,0,
1,1.02818,0.512373,-0.208426,-0.00495745,0,
1,1.025,0.500571,-0.208512,-0.00511278,0,
1,1.02188,0.489001,-0.208598,-0.00525113,0,
1,1.01882,0.477657,-0.208684,-0.00537339,0,
1,1.01581,0.466531,-0.208769,-0.00548062,0,
1,1.01284,0.455614,-0.208853,-0.00557335,0,
1,1.00988,0.444777,-0.208938,-0.00565302,0,
1,1.00688,0.433893,-0.209024,-0.00572125,0,
1,1.00384,0.422953,-0.209112,-0.00577802,0,
1,1.00076,0.411946,-0.209201,-0.00582312,0,
1,0.997615,0.400856,-0.209292,-0.00585647,0,
1,0.99441,0.389668,-0.209384,-0.00587794,0,
1,0.991131,0.378366,-0.209478,-0.00588733,0,
1,0.987768,0.366928,-0.209574,-0.00588439,0,
1,0.984308,0.355335,-0.209672,-0.00586878,0,
1,0.980739,0.343562,-0.209772,-0.00584008,0,
1,0.977045,0.331587,-0.209874,-0.00579779,0,
1,0.973211,0.319383,-0.209979,-0.0057413,0,
1,0.969219,0.306925,-0.210086,-0.0056699,0,
1,0.965047,0.294185,-0.210197,-0.0055828,0,
1,0.960675,0.281137,-0.21031,-0.0054791,0,
1,0.956077,0.267756,-0.210427,-0.00535783,0,
1,0.951224,0.254018,-0.210547,-0.00521792,0,
1,0.946088,0.239902,-0.21067,-0.00505836,0,
1,0.940633,0.225393,-0.210796,-0.00487813,0,
1,0.934823,0.210483,-0.210926,-0.00467632,0,
1,0.928616,0.195175,-0.211058,-0.00445225,0,
1,0.921967,0.179485,-0.211194,-0.00420557,0,
1,0.914826,0.163446,-0.211331,-0.00393648,0,
1,0.907141,0.147114,-0.21147,-0.00364592,0,
1,0.898852,0.130575,-0.21161,-0.00333582,0,
1,0.889898,0.113949,-0.211748,-0.00300945,0,
1,0.880212,0.0973972,-0.211885,-0.00267167,0,
1,0.869723,0.08113,-0.212018,-0.00232924,0,
1,0.858358,0.0654069,-0.212146,-0.00199092,0,
1,0.846039,0.0505308,-0.212265,-0.00166718,0,
1,0.83269,0.0368272,-0.212374,-0.0013692,0,
1,0.818232,0.0246055,-0.21247,-0.00110944,0,
1,0.802744,0.0141724,-0.212545,-0.000895985,0,
1,0.78635,0.00562698,-0.212603,-0.000728736,0,
1,0.768969,-0.00122913,-0.212637,-0.000604123,0,
1,0.75053,-0.00668328,-0.212649,-0.000515369,0,
1,0.730977,-0.0110445,-0.212636,-0.000454815,0,
1,0.710271,-0.0145912,-0.212601,-0.000415715,0,
1,0.688397,-0.0175445,-0.212542,-0.000392075,0,
1,0.66536,-0.0200597,-0.212462,-0.000379175,0,
1,0.641194,-0.0222242,-0.212339,-0.000380152,0,
1,0.615961,-0.0240976,-0.212175,-0.0003947,0,
1,0.589754,-0.02575,-0.211994,-0.000408389,0,
1,0.562692,-0.0272437,-0.211804,-0.000421311,0,
1,0.534925,-0.028617,-0.211613,-0.000431067,0,
1,0.506624,-0.0298917,-0.211429,-0.000435391,0,
1,0.477982,-0.0310802,-0.211261,-0.000432807,0,
1,0.449206,-0.0321895,-0.211118,-0.000422534,0,
1,0.420509,-0.0332229,-0.211006,-0.000404568,0,
1,0.392107,-0.0341818,-0.210929,-0.000379614,0,
1,0.364206,-0.0350666,-0.21089,-0.000348943,0,
1,0.337003,-0.0358772,-0.210888,-0.000314168,0,
1,0.310673,-0.0366138,-0.210921,-0.000277034,0,
1,0.28537,-0.0372767,-0.210985,-0.000239201,0,
1,0.26122,-0.0378666,-0.211073,-0.000202092,0,
1,0.238324,-0.0383843,-0.211179,-0.000166805,0,
1,0.21675,-0.0388306,-0.211298,-0.000134085,0,
1,0.196544,-0.0392065,-0.211422,-0.000104358,0,
1,0.177724,-0.0395125,-0.211548,-7.77869e-05,0,
1,0.160284,-0.039749,-0.211671,-5.43418e-05,0,
1,0.144202,-0.0399159,-0.211788,-3.38702e-05,0,
1,0.129436,-0.040013,-0.211897,-1.6151e-05,0,
1,0.115935,-0.0400396,-0.211996,-9.35813e-07,0,
1,0.103636,-0.0399946,-0.212086,1.20248e-05,0,
1,0.0924701,-0.0398765,-0.212166,2.29657e-05,0,
1,0.0823633,-0.0396833,-0.212236,3.20989e-05,0,
1,0.0732406,-0.0394125,-0.212296,3.96114e-05,0,
1,0.0650269,-0.0390607,-0.212349,4.56636e-05,0,
1,0.057648,-0.0386232,-0.212394,5.03902e-05,0,
1,0.0510323,-0.0380939,-0.212433,5.38992e-05,0,
1,0.0451115,-0.0374645,-0.212465,5.62705e-05,0,
1,0.0398209,-0.0367234,-0.212492,5.75514e-05,0,
1,0.0351001,-0.035855,-0.212514,5.77485e-05,0,
1,0.0308929,-0.0348381,-0.212532,5.68164e-05,0,
1,0.0271475,-0.0336441,-0.212546,5.4642e-05,0,
1,0.0238164,-0.0322356,-0.212558,5.10349e-05,0,
1,0.0208562,-0.0305678,-0.212566,4.57542e-05,0,
1,0.0182274,-0.0285955,-0.212573,3.86517e-05,0,
1,0.0158944,-0.0262937,-0.212577,3.00039e-05,0,
1,0.0138249,-0.0236921,-0.21258,2.08531e-05,0,
1,0.0119898,-0.0209028,-0.212581,1.27726e-05,0,
1,0.0103632,-0.0180993,-0.212582,6.91458e-06,0,
1,0.00892169,-0.015447,-0.212583,3.37143e-06,0,
1,0.00764438,-0.0130476,-0.212583,1.51553e-06,0,
1,0.00651264,-0.0109347,-0.212583,6.39253e-07,0,
1,0.00550983,-0.00909858,-0.212584,2.55021e-07,0,
1,0.00462115,-0.00751129,-0.212584,9.60915e-08,0,
1,0.00383341,-0.00614035,-0.212584,3.38786e-08,0,
1,0.0031349,-0.00495491,-0.212584,1.09831e-08,0,
1,0.00251518,-0.00392773,-0.212585,3.18435e-09,0,
1,0.00196502,-0.00303542,-0.212584,7.90163e-10,0,
1,0.00147619,-0.00225817,-0.212585,1.55999e-10,0,
1,0.00104139,-0.0015792,-0.212584,2.14904e-11,0,
1,0.000654158,-0.000984317,-0.212585,1.58691e-12,0,
1,0.000308731,-0.000461457,-0.212584,3.44339e-14,0,

4,0,0,-0.224069,0,0,
4,9,0,-0.110437,0,0,
4,8.99969,0.0146648,-0.110437,2.45536e-10,0,
4,8.99934,0.0312425,-0.110437,1.13902e-08,0,
4,8.99894,0.0500013,-0.110437,1.55495e-07,0,
4,8.9985,0.071224,-0.110437,1.12799e-06,0,
4,8.99799,0.0951961,-0.110437,5.59043e-06,0,
4,8.99742,0.122114,-0.110437,2.10964e-05,0,
4,8.99677,0.151863,-0.110437,6.29111e-05,0,
4,8.99605,0.183699,-0.110437,0.000148908,0,
4,8.99522,0.216199,-0.110437,0.00028158,0,
4,8.99429,0.247799,-0.110437,0.000438635,0,
4,8.99324,0.277459,-0.110436,0.000591589,0,
4,8.99205,0.304848,-0.110436,0.000721829,0,
4,8.9907,0.330061,-0.110436,0.000827214,0,
4,8.98919,0.353269,-0.110435,0.000915698,0,
4,8.98747,0.374666,-0.110434,0.000989072,0,
4,8.98553,0.394525,-0.110434,0.00104688,0,
4,8.98334,0.413133,-0.110433,0.00109302,0,
4,8.98087,0.430712,-0.110432,0.00113197,0,
4,8.97807,0.447431,-0.11043,0.00116494,0,
4,8.97491,0.463432,-0.110429,0.00119322,0,
4,8.97134,0.478832,-0.110427,0.00121781,0,
4,8.96731,0.493732,-0.110425,0.00123945,0,
4,8.96276,0.508215,-0.110423,0.00125868,0,
4,8.95762,0.522352,-0.11042,0.00127587,0,
4,8.95182,0.536205,-0.110417,0.00129131,0,
4,8.94526,0.549825,-0.110413,0.00130518,0,
4,8.93787,0.563259,-0.110409,0.00131756,0,
4,8.92952,0.576543,-0.110405,0.0013285,0,
4,8.92011,0.589712,-0.1104,0.001338,0,
4,8.90949,0.602793,-0.110395,0.001346,0,
4,8.89751,0.615813,-0.110389,0.00135242,0,
4,8.88402,0.62879,-0.110383,0.00135714,0,
4,8.86881,0.641745,-0.110377,0.00136006,0,
4,8.85169,0.654692,-0.110371,0.00136101,0,
4,8.83242,0.667646,-0.110364,0.00135986,0,
4,8.81074,0.680622,-0.110358,0.00135644,0,
4,8.78637,0.693634,-0.110353,0.00135058,0,
4,8.75901,0.706697,-0.110349,0.0013421,0,
4,8.7283,0.719829,-0.110347,0.0013308,0,
4,8.69387,0.733054,-0.110348,0.00131642,0,
4,8.65533,0.746398,-0.110352,0.00129866,0,
4,8.61222,0.759899,-0.110362,0.00127715,0,
4,8.56407,0.773601,-0.110378,0.00125138,0,
4,8.5104,0.787562,-0.110403,0.00122075,0,
4,8.45065,0.801856,-0.110439,0.00118494,0,
4,8.38429,0.816588,-0.110492,0.00114734,0,
4,8.31073,0.831994,-0.110565,0.00109225,0,
4,8.22941,0.84841,-0.11066,0.00102017,0,
4,8.13974,0.866125,-0.110787,0.000927571,0,
4,8.04115,0.885299,-0.110947,0.000809893,0,
4,7.93313,0.905793,-0.11115,0.000667178,0,
4,7.81519,0.926868,-0.11139,0.000510819,0,
4,7.68693,0.946996,-0.111693,0.000358117,0,
4,7.54803,0.964177,-0.11204,0.000214163,0,
4,7.39831,0.976583,-0.112461,9.20331e-05,0,
4,7.23771,0.983487,-0.112972,2.74675e-05,0,
4,7.06634,0.98594,-0.11356,4.42052e-06,0,
4,6.88453,0.986043,-0.114232,1.55319e-07,0,
4,6.69275,0.985594,-0.114991,1.99052e-08,0,
4,6.49173,0.98545,-0.115851,6.10658e-08,0,
4,6.28238,0.985713,-0.116824,3.7574e-08,0,
4,6.06579,0.986209,-0.117924,2.04831e-08,0,
4,5.84328,0.986789,-0.11916,1.45838e-08,0,
4,5.61626,0.987403,-0.120542,1.34141e-08,0,
4,5.3863,0.988056,-0.12208,1.39239e-08,0,
4,5.15502,0.988768,-0.12378,1.51512e-08,0,
4,4.92406,0.989553,-0.125649,1.68118e-08,0,
4,4.69507,0.990423,-0.127691,1.87561e-08,0,
4,4.46961,0.991384,-0.129907,2.0812e-08,0,
4,4.24915,0.992415,-0.132296,2.26114e-08,0,
4,4.03501,0.993458,-0.134854,2.39674e-08,0,
4,3.82836,0.994449,-0.137573,2.53316e-08,0,
4,3.63018,0.99541,-0.140443,2.85523e-08,0,
4,3.44125,0.996552,-0.143449,3.78322e-08,0,
4,3.26217,0.99825,-0.146575,1.23631e-07,0,
4,3.09333,1.00075,-0.149805,1.03902e-06,0,
4,2.93497,1.00373,-0.153119,4.42497e-06,0,
4,2.78715,1.0062,-0.156494,8.09381e-06,0,
4,2.64979,1.00692,-0.159898,4.01793e-06,0,
4,2.52268,1.005,-0.163291,-1.47758e-05,0,
4,2.40551,1.0002,-0.166628,-4.98676e-05,0,
4,2.29789,0.992859,-0.169866,-9.81098e-05,0,
4,2.19939,0.983655,-0.172974,-0.000153895,0,
4,2.10949,0.973333,-0.175926,-0.000211334,0,
4,2.02768,0.962548,-0.178709,-0.000265731,0,
4,1.95343,0.951797,-0.181314,-0.000314172,0,
4,1.88618,0.941414,-0.18374,-0.000355421,0,
4,1.82542,0.931601,-0.185988,-0.000389492,0,
4,1.77062,0.922455,-0.188063,-0.000417142,0,
4,1.72128,0.91401,-0.189969,-0.000439428,0,
4,1.67693,0.906258,-0.191715,-0.000457427,0,
4,1.63713,0.89917,-0.193308,-0.000472064,0,
4,1.60144,0.892704,-0.194757,-0.000484027,0,
4,1.56949,0.886817,-0.196073,-0.000493759,0,
4,1.54091,0.881467,-0.197262,-0.000502506,0,
4,1.51537,0.876596,-0.198338,-0.000510176,0,
4,1.49167,0.872005,-0.199342,-0.000515871,0,
4,1.46926,0.867594,-0.200301,-0.000520859,0,
4,1.44801,0.863338,-0.201216,-0.0005254,0,
4,1.42781,0.859219,-0.202093,-0.000529351,0,
4,1.40855,0.855219,-0.202933,-0.000532786,0,
4,1.39015,0.85132,-0.203741,-0.000535835,0,
4,1.37252,0.847504,-0.20452,-0.000538687,0,
4,1.3556,0.843753,-0.205271,-0.000541625,0,
4,1.3393,0.840048,-0.205997,-0.000545051,0,
4,1.32357,0.836365,-0.2067,-0.000549509,0,
4,1.30836,0.83268,-0.207382,-0.000555796,0,
4,1.29362,0.828962,-0.208045,-0.000564909,0,
4,1.2793,0.825172,-0.208691,-0.000578139,0,
4,1.26537,0.821263,-0.209319,-0.000597147,0,
4,1.25179,0.817178,-0.209932,-0.000623984,0,
4,1.23852,0.812843,-0.21053,-0.0006611,0,
4,1.22554,0.808172,-0.211114,-0.000711306,0,
4,1.21282,0.803061,-0.211683,-0.000777642,0,
4,1.20034,0.797398,-0.212238,-0.000863155,0,
4,1.18806,0.791062,-0.212778,-0.000970546,0,
4,1.17599,0.783944,-0.213304,-0.00110176,0,
4,1.16408,0.775955,-0.213814,-0.00125755,0,
4,1.15233,0.767043,-0.214307,-0.00143716,0,
4,1.14073,0.7572,-0.214784,-0.00163821,0,
4,1.12925,0.746467,-0.215243,-0.00185685,0,
4,1.11788,0.734921,-0.215685,-0.00208821,0,
4,1.10661,0.722669,-0.21611,-0.00232677,0,
4,1.09543,0.709831,-0.216517,-0.00256712,0,
4,1.08432,0.696528,-0.216906,-0.00280432,0,
4,1.07328,0.682874,-0.217278,-0.00303417,0,
4,1.0623,0.66897,-0.217634,-0.00325339,0,
4,1.05136,0.654905,-0.217973,-0.00345947,0,
4,1.04044,0.640728,-0.218296,-0.00365077,0,
4,1.0295,0.626473,-0.218605,-0.00382647,0,
4,1.01855,0.612189,-0.218899,-0.00398594,0,
4,1.00757,0.597909,-0.21918,-0.00412881,0,
4,0.996544,0.583661,-0.219447,-0.00425506,0,
4,0.98547,0.569464,-0.219701,-0.00436491,0,
4,0.974334,0.555329,-0.219943,-0.00445876,0,
4,0.963124,0.541264,-0.220172,-0.00453713,0,
4,0.951826,0.527269,-0.22039,-0.00460062,0,
4,0.940428,0.513345,-0.220596,-0.00464986,0,
4,0.928915,0.499483,-0.220792,-0.00468551,0,
4,0.917272,0.485677,-0.220977,-0.00470821,0,
4,0.905481,0.471916,-0.221152,-0.00471861,0,
4,0.893524,0.458185,-0.221317,-0.00471746,0,
4,0.881383,0.444468,-0.221474,-0.00470511,0,
4,0.869035,0.430746,-0.221622,-0.00468237,0,
4,0.856459,0.416997,-0.221761,-0.00464989,0,
4,0.843629,0.403196,-0.221893,-0.00460833,0,
4,0.830518,0.389319,-0.222017,-0.00455836,0,
4,0.817097,0.375334,-0.222135,-0.00450069,0,
4,0.803334,0.36121,-0.222247,-0.00443609,0,
4,0.789195,0.346911,-0.222353,-0.00436546,0,
4,0.774643,0.332393,-0.222454,-0.00428993,0,
4,0.759639,0.317611,-0.222552,-0.0042109,0,
4,0.744138,0.302508,-0.222647,-0.00413018,0,
4,0.728096,0.287018,-0.222741,-0.00405011,0,
4,0.711463,0.271061,-0.222835,-0.00397373,0,
4,0.694189,0.25454,-0.222933,-0.00390486,0,
4,0.676218,0.237335,-0.223038,-0.0038482,0,
4,0.657495,0.219303,-0.223154,-0.00380883,0,
4,0.637962,0.200277,-0.22329,-0.00378951,0,
4,0.617561,0.18011,-0.223453,-0.00379272,0,
4,0.596848,0.159294,-0.223643,-0.00382361,0,
4,0.576557,0.138609,-0.223923,-0.00388699,0,
4,0.556564,0.117993,-0.224144,-0.00394563,0,
4,0.536763,0.0970869,-0.224207,-0.00393444,0,
4,0.517057,0.075482,-0.224276,-0.00395914,0,
4,0.497368,0.0530276,-0.2244,-0.00401908,0,
4,0.477632,0.02981,-0.224574,-0.00410576,0,
4,0.457804,0.00612688,-0.224802,-0.00420716,0,
4,0.437857,-0.0175889,-0.225071,-0.00430748,0,
4,0.417786,-0.0408944,-0.225366,-0.00438979,0,
4,0.397605,-0.0634342,-0.225666,-0.00443979,0,
4,0.377348,-0.0849377,-0.225955,-0.00444767,0,
4,0.357066,-0.105116,-0.226225,-0.00440989,0,
4,0.336828,-0.123537,-0.226501,-0.00433177,0,
4,0.316717,-0.13965,-0.226813,-0.00422808,0,
4,0.296825,-0.153073,-0.227219,-0.00412132,0,
4,0.27725,-0.16402,-0.227585,-0.0040063,0,
4,0.258095,-0.17338,-0.227733,-0.00367262,0,
4,0.239458,-0.18174,-0.227774,-0.00342513,0,
4,0.221432,-0.189211,-0.227778,-0.00317293,0,
4,0.2041,-0.195886,-0.227712,-0.0029181,0,
4,0.187537,-0.201852,-0.227598,-0.00266479,0,
4,0.171798,-0.207184,-0.227436,-0.00241611,0,
4,0.156928,-0.211952,-0.22724,-0.00217476,0,
4,0.142956,-0.216212,-0.227017,-0.0019428,0,
4,0.129894,-0.220016,-0.226778,-0.00172179,0,
4,0.117744,-0.223406,-0.22653,-0.00151275,0,
4,0.106492,-0.226418,-0.226283,-0.00131635,0,
4,0.0961173,-0.229082,-0.226041,-0.00113284,0,
4,0.0865883,-0.231424,-0.225809,-0.00096222,0,
4,0.0778675,-0.233464,-0.225592,-0.000804257,0,
4,0.0699123,-0.235219,-0.225391,-0.000658543,0,
4,0.062677,-0.236701,-0.225207,-0.000524548,0,
4,0.056114,-0.237918,-0.225042,-0.000401664,0,
4,0.0501747,-0.238878,-0.224894,-0.000289235,0,
4,0.0448114,-0.23958,-0.224763,-0.000186591,0,
4,0.039977,-0.240022,-0.224648,-9.30693e-05,0,
4,0.0356266,-0.240197,-0.224548,-8.03804e-06,0,
4,0.0317171,-0.240091,-0.224461,6.90813e-05,0,
4,0.0282081,-0.239682,-0.224387,0.000138791,0,
4,0.0250617,-0.238941,-0.224324,0.000201488,0,
4,0.0222427,-0.237824,-0.22427,0.000257417,0,
4,0.0197189,-0.23627,-0.224226,0.000306614,0,
4,0.0174603,-0.234195,-0.224189,0.000348807,0,
4,0.0154398,-0.231484,-0.224159,0.000383277,0,
4,0.0136326,-0.227977,-0.224135,0.000408669,0,
4,0.0120162,-0.223462,-0.224116,0.000422797,0,
4,0.0105703,-0.21766,-0.224102,0.000422589,0,
4,0.00927657,-0.210238,-0.224092,0.000404512,0,
4,0.00811839,-0.200849,-0.224084,0.000365889,0,
4,0.0070809,-0.189224,-0.22408,0.000307187,0,
4,0.0061507,-0.175324,-0.224076,0.000234382,0,
4,0.00531578,-0.15946,-0.224075,0.00015918,0,
4,0.00456537,-0.1423,-0.224073,9.48235e-05,0,
4,0.00388979,-0.124676,-0.224073,4.93156e-05,0,
4,0.00328037,-0.10732,-0.224071,2.24513e-05,0,
4,0.00272934,-0.0907048,-0.224072,8.95869e-06,0,
4,0.0022297,-0.0750499,-0.224071,3.10218e-06,0,
4,0.00177519,-0.0604041,-0.224072,9.04137e-07,0,
4,0.00136016,-0.0467281,-0.22407,2.07965e-07,0,
4,0.000979511,-0.0339437,-0.224071,3.32459e-08,0,
4,0.00062865,-0.0219587,-0.224069,2.83096e-09,0,
4,0.000303409,-0.010677,-0.224071,6.88508e-11,0,

6,0,0,-0.0744068,0,0,
6,9,0,-0.0867472,0,0,
6,8.99969,0.0139125,-0.0867469,2.06465e-10,0,
6,8.99934,0.0296014,-0.0867471,9.52866e-09,0,
6,8.99895,0.0473112,-0.0867469,1.29174e-07,0,
6,8.9985,0.0673,-0.086747,9.30555e-07,0,
6,8.99801,0.0898311,-0.0867468,4.58815e-06,0,
6,8.99744,0.115101,-0.086747,1.73039e-05,0,
6,8.99681,0.143055,-0.0867467,5.19909e-05,0,
6,8.99609,0.173108,-0.0867468,0.000125221,0,
6,8.99529,0.204037,-0.0867466,0.000242642,0,
6,8.99438,0.234373,-0.0867466,0.000387588,0,
6,8.99336,0.263037,-0.0867463,0.000533476,0,
6,8.9922,0.289568,-0.0867461,0.000663399,0,
6,8.9909,0.314004,-0.0867456,0.000767514,0,
6,8.98944,0.336517,-0.0867452,0.000855554,0,
6,8.98779,0.35728,-0.0867446,0.000929424,0,
6,8.98593,0.376549,-0.0867439,0.000987773,0,
6,8.98383,0.394589,-0.086743,0.00103555,0,
6,8.98147,0.411609,-0.086742,0.00107602,0,
6,8.97881,0.427775,-0.0867407,0.00111063,0,
6,8.97581,0.443227,-0.0867392,0.00114072,0,
6,8.97244,0.458082,-0.0867375,0.0011673,0,
6,8.96863,0.472441,-0.0867354,0.00119114,0,
6,8.96435,0.48639,-0.086733,0.00121279,0,
6,8.95953,0.499999,-0.0867302,0.00123265,0,
6,8.95409,0.513334,-0.0867269,0.00125102,0,
6,8.94798,0.526447,-0.0867232,0.00126808,0,
6,8.94109,0.539387,-0.0867189,0.00128395,0,
6,8.93334,0.552195,-0.0867141,0.00129865,0,
6,8.92463,0.564906,-0.0867086,0.00131216,0,
6,8.91482,0.577553,-0.0867024,0.00132443,0,
6,8.90379,0.590161,-0.0866954,0.00133532,0,
6,8.89139,0.602754,-0.0866877,0.0013447,0,
6,8.87746,0.615352,-0.0866792,0.00135238,0,
6,8.86181,0.627971,-0.0866699,0.00135816,0,
6,8.84423,0.640624,-0.0866598,0.00136183,0,
6,8.82452,0.653324,-0.086649,0.00136317,0,
6,8.80241,0.666082,-0.0866375,0.00136194,0,
6,8.77763,0.678906,-0.0866253,0.00135794,0,
6,8.74989,0.691807,-0.0866129,0.00135091,0,
6,8.71885,0.704798,-0.0866002,0.00134064,0,
6,8.68417,0.717894,-0.0865878,0.00132686,0,
6,8.64545,0.731116,-0.0865759,0.00130929,0,
6,8.60229,0.74449,-0.0865654,0.00128756,0,
6,8.55423,0.758052,-0.0865564,0.0012612,0,
6,8.50082,0.771846,-0.086551,0.00122957,0,
6,8.44155,0.78593,-0.0865482,0.00119222,0,
6,8.37592,0.800382,-0.0865527,0.00115215,0,
6,8.30339,0.815393,-0.0865666,0.00110009,0,
6,8.22344,0.83129,-0.0865899,0.00103176,0,
6,8.13555,0.84842,-0.0866262,0.000945314,0,
6,8.0392,0.867046,-0.0866741,0.000836511,0,
6,7.93391,0.887149,-0.0867313,0.000704778,0,
6,7.81927,0.908112,-0.0867973,0.000558485,0,
6,7.6949,0.928496,-0.0868657,0.000413571,0,
6,7.56054,0.946355,-0.0869522,0.000283052,0,
6,7.41603,0.960074,-0.0870476,0.000150505,0,
6,7.26132,0.968817,-0.0871602,5.87663e-05,0,
6,7.09653,0.972945,-0.0872928,1.48691e-05,0,
6,6.92195,0.973952,-0.0874372,1.15715e-06,0,
6,6.73802,0.973586,-0.0875924,-6.31127e-07,0,
6,6.5454,0.973036,-0.0877579,-2.41027e-07,0,
6,6.34489,0.972751,-0.0879349,-2.70952e-08,0,
6,6.1375,0.972721,-0.0881245,8.13093e-09,0,
6,5.92439,0.972806,-0.0883266,6.06452e-09,0,
6,5.70687,0.972904,-0.0885405,2.98586e-09,0,
6,5.48633,0.97298,-0.0887643,1.67904e-09,0,
6,5.26426,0.973033,-0.0889954,1.18748e-09,0,
6,5.04218,0.973076,-0.0892305,1.02787e-09,0,
6,4.82159,0.973122,-0.0894654,1.03283e-09,0,
6,4.60398,0.97318,-0.0896954,1.06027e-09,0,
6,4.39071,0.973245,-0.0899152,8.19253e-10,0,
6,4.18307,0.973281,-0.090119,-1.10728e-10,0,
6,3.98218,0.973218,-0.0903009,-1.93711e-09,0,
6,3.78902,0.973003,-0.0904553,-4.10372e-09,0,
6,3.60438,0.972679,-0.0905768,-5.5491e-09,0,
6,3.42888,0.972446,-0.0906611,-4.66358e-09,0,
6,3.26296,0.972608,-0.0907046,6.52641e-08,0,
6,3.10691,0.973371,-0.090704,5.49875e-07,0,
6,2.96084,0.974619,-0.0906574,1.75069e-06,0,
6,2.82473,0.975868,-0.0905664,2.31622e-06,0,
6,2.69844,0.976442,-0.090435,-1.19616e-06,0,
6,2.58172,0.975731,-0.0902679,-1.22205e-05,0,
6,2.47424,0.973383,-0.0900702,-3.23943e-05,0,
6,2.37559,0.969343,-0.0898473,-6.12928e-05,0,
6,2.28535,0.963802,-0.0896053,-9.70655e-05,0,
6,2.20301,0.957096,-0.0893501,-0.000137211,0,
6,2.1281,0.949609,-0.0890874,-0.000179208,0,
6,2.06009,0.941706,-0.0888225,-0.000220923,0,
6,1.99849,0.933691,-0.0885599,-0.00026078,0,
6,1.9428,0.925801,-0.0883035,-0.000297774,0,
6,1.89255,0.9182,-0.0880563,-0.000331395,0,
6,1.84728,0.910999,-0.0878203,-0.000361497,0,
6,1.80655,0.904261,-0.0875973,-0.000388086,0,
6,1.76996,0.898018,-0.087388,-0.000411172,0,
6,1.73712,0.892283,-0.0871932,-0.000432248,0,
6,1.70768,0.887016,-0.0870125,-0.000451359,0,
6,1.67998,0.881976,-0.086838,-0.000467607,0,
6,1.65329,0.877055,-0.086665,-0.0004827,0,
6,1.62754,0.872241,-0.086494,-0.000496953,0,
6,1.60265,0.867529,-0.0863246,-0.000510186,0,
6,1.57854,0.862914,-0.0861568,-0.000522445,0,
6,1.55515,0.858388,-0.0859906,-0.000533782,0,
6,1.53242,0.853945,-0.0858259,-0.000544242,0,
6,1.5103,0.849579,-0.0856625,-0.00055386,0,
6,1.48874,0.845283,-0.0855003,-0.000562663,0,
6,1.46769,0.841051,-0.0853392,-0.000570673,0,
6,1.44712,0.836875,-0.0851792,-0.000577907,0,
6,1.42698,0.832751,-0.0850201,-0.000584381,0,
6,1.40725,0.828671,-0.0848618,-0.000590113,0,
6,1.38788,0.82463,-0.0847043,-0.000595128,0,
6,1.36886,0.82062,-0.0845475,-0.000599473,0,
6,1.35015,0.816635,-0.0843913,-0.000603229,0,
6,1.33173,0.812666,-0.0842357,-0.000606526,0,
6,1.31357,0.808704,-0.0840806,-0.000609558,0,
6,1.29566,0.804737,-0.0839259,-0.000612611,0,
6,1.27797,0.800752,-0.0837716,-0.000616085,0,
6,1.26048,0.796731,-0.0836176,-0.000620533,0,
6,1.24318,0.792653,-0.0834639,-0.000626708,0,
6,1.22605,0.788488,-0.0833104,-0.000635572,0,
6,1.20907,0.784202,-0.083157,-0.000648505,0,
6,1.19223,0.779747,-0.0830036,-0.000667169,0,
6,1.17551,0.775066,-0.0828503,-0.00069367,0,
6,1.1589,0.770083,-0.0826969,-0.00073065,0,
6,1.14238,0.764705,-0.0825434,-0.000781258,0,
6,1.12595,0.758823,-0.08239,-0.000849058,0,
6,1.10959,0.752312,-0.0822365,-0.00093782,0,
6,1.09329,0.745045,-0.0820835,-0.00105114,0,
6,1.07704,0.736902,-0.0819311,-0.0011919,0,
6,1.06081,0.727783,-0.0817801,-0.00136172,0,
6,1.04459,0.717623,-0.0816312,-0.00156064,0,
6,1.02836,0.706409,-0.0814854,-0.00178677,0,
6,1.01211,0.694172,-0.0813437,-0.00203639,0,
6,0.99583,0.680981,-0.0812071,-0.00230441,0,
6,0.97951,0.666931,-0.0810764,-0.00258487,0,
6,0.963136,0.652127,-0.0809524,-0.0028715,0,
6,0.946694,0.63668,-0.0808351,-0.00315798,0,
6,0.930172,0.620698,-0.0807249,-0.00343811,0,
6,0.913555,0.604284,-0.0806211,-0.00370583,0,
6,0.896829,0.587541,-0.0805243,-0.00395448,0,
6,0.879979,0.570573,-0.0804329,-0.00417577,0,
6,0.862989,0.553502,-0.0803484,-0.00436229,0,
6,0.845842,0.536456,-0.0802794,-0.00453523,0,
6,0.828521,0.519362,-0.0801411,-0.00461426,0,
6,0.811008,0.502004,-0.079944,-0.00468407,0,
6,0.793282,0.484264,-0.0797639,-0.00476129,0,
6,0.775322,0.466091,-0.0795866,-0.00484597,0,
6,0.757107,0.44746,-0.0794235,-0.00493833,0,
6,0.738612,0.428358,-0.079271,-0.00503835,0,
6,0.719813,0.408775,-0.0791306,-0.00514559,0,
6,0.700681,0.388706,-0.0790016,-0.00525913,0,
6,0.681188,0.368152,-0.0788837,-0.00537751,0,
6,0.661304,0.347117,-0.0787764,-0.00549875,0,
6,0.640996,0.325608,-0.0786791,-0.00562038,0,
6,0.620228,0.303637,-0.0785913,-0.0057394,0,
6,0.598964,0.281225,-0.0785126,-0.00585227,0,
6,0.577166,0.258409,-0.0784431,-0.00595486,0,
6,0.554791,0.235254,-0.0783836,-0.0060425,0,
6,0.531799,0.21186,-0.0783344,-0.00611018,0,
6,0.508144,0.18836,-0.078296,-0.0061529,0,
6,0.48378,0.164891,-0.0782649,-0.00616611,0,
6,0.459585,0.142331,-0.0782343,-0.00614586,0,
6,0.436695,0.121641,-0.0782001,-0.00609283,0,
6,0.414961,0.102632,-0.0781636,-0.00600912,0,
6,0.394252,0.0851418,-0.07813,-0.00589681,0,
6,0.374445,0.0691142,-0.078124,-0.00575971,0,
6,0.355433,0.0546387,-0.0781891,-0.00560586,0,
6,0.337122,0.0418923,-0.0783535,-0.00544782,0,
6,0.319433,0.0309549,-0.078638,-0.00529957,0,
6,0.3023,0.0215803,-0.0787869,-0.00512273,0,
6,0.28567,0.013225,-0.0787427,-0.00479627,0,
6,0.269507,0.00553095,-0.0786887,-0.00454641,0,
6,0.253785,-0.00157662,-0.0786253,-0.00429626,0,
6,0.238493,-0.00815575,-0.078537,-0.00404539,0,
6,0.223631,-0.0142567,-0.0784301,-0.0037957,0,
6,0.209207,-0.0199215,-0.078302,-0.00354834,0,
6,0.195237,-0.0251864,-0.0781541,-0.00330468,0,
6,0.181744,-0.0300821,-0.0779877,-0.00306596,0,
6,0.168754,-0.0346355,-0.0778047,-0.00283338,0,
6,0.156292,-0.0388702,-0.077608,-0.00260803,0,
6,0.144384,-0.0428069,-0.0774007,-0.00239093,0,
6,0.133052,-0.0464643,-0.0771862,-0.00218291,0,
6,0.122315,-0.0498593,-0.0769684,-0.00198467,0,
6,0.112183,-0.0530072,-0.0767506,-0.00179676,0,
6,0.102665,-0.0559221,-0.0765363,-0.00161953,0,
6,0.0937597,-0.0586169,-0.0763285,-0.00145315,0,
6,0.0854609,-0.0611035,-0.0761294,-0.00129768,0,
6,0.077757,-0.063393,-0.0759412,-0.00115299,0,
6,0.0706309,-0.0654955,-0.0757652,-0.00101886,0,
6,0.0640611,-0.0674204,-0.0756022,-0.000894934,0,
6,0.0580229,-0.0691764,-0.0754527,-0.000780804,0,
6,0.0524888,-0.0707713,-0.0753167,-0.00067599,0,
6,0.0474296,-0.0722123,-0.075194,-0.000579973,0,
6,0.042815,-0.0735055,-0.075084,-0.000492211,0,
6,0.0386145,-0.0746564,-0.074986,-0.000412156,0,
6,0.0347975,-0.0756694,-0.0748992,-0.000339262,0,
6,0.0313344,-0.0765477,-0.0748228,-0.000273001,0,
6,0.0281964,-0.0772933,-0.0747558,-0.000212873,0,
6,0.0253561,-0.0779062,-0.0746974,-0.000158408,0,
6,0.0227875,-0.0783849,-0.0746469,-0.00010918,0,
6,0.0204662,-0.078725,-0.0746032,-6.48178e-05,0,
6,0.0183694,-0.0789187,-0.0745659,-2.50116e-05,0,
6,0.016476,-0.0789537,-0.0745339,1.04629e-05,0,
6,0.0147664,-0.0788117,-0.0745072,4.17181e-05,0,
6,0.0132228,-0.0784656,-0.0744845,6.87092e-05,0,
6,0.0118288,-0.0778768,-0.0744662,9.11642e-05,0,
6,0.0105693,-0.07699,-0.0744508,0.000108488,0,
6,0.00943073,-0.0757284,-0.0744393,0.000119659,0,
6,0.00840063,-0.0739899,-0.0744296,0.000123238,0,
6,0.00746774,-0.0716503,-0.0744235,0.000117749,0,
6,0.00662185,-0.0685866,-0.0744181,0.000102793,0,
6,0.00585371,-0.0647287,-0.0744157,8.05696e-05,0,
6,0.00515491,-0.0601234,-0.0744129,5.60671e-05,0,
6,0.00451788,-0.0549509,-0.0744126,3.46577e-05,0,
6,0.00393573,-0.0494602,-0.0744108,1.92211e-05,0,
6,0.00340221,-0.0438779,-0.0744114,9.67309e-06,0,
6,0.00291168,-0.0383589,-0.0744098,4.43894e-06,0,
6,0.00245897,-0.0329876,-0.0744109,1.84599e-06,0,
6,0.00203939,-0.0277988,-0.0744091,6.81728e-07,0,
6,0.00164864,-0.022798,-0.0744106,2.14934e-07,0,
6,0.00128281,-0.0179742,-0.0744084,5.3904e-08,0,
6,0.000938257,-0.0133081,-0.0744104,9.42677e-09,0,
6,0.000611645,-0.00877529,-0.0744076,8.75944e-10,0,
6,0.000299862,-0.00434897,-0.0744104,2.27904e-11,0,

10,0.000296632,0.00727917,0.0304798,-4.80178e-11,0,
10,0.000596102,0.0146311,0.0304812,-1.78097e-09,0,
10,0.000900397,0.0221047,0.0304797,-1.81228e-08,0,
10,0.00121153,0.0297495,0.0304809,-9.74838e-08,0,
10,0.00153158,0.0376148,0.0304797,-3.65104e-07,0,
10,0.00186264,0.0457492,0.0304806,-1.08735e-06,0,
10,0.00220692,0.0541975,0.0304795,-2.76622e-06,0,
10,0.00256668,0.0629961,0.0304803,-6.26439e-06,0,
10,0.00294431,0.0721649,0.0304794,-1.29366e-05,0,
10,0.00334229,0.0816953,0.0304799,-2.46913e-05,0,
10,0.00376326,0.0915352,0.0304791,-4.3835e-05,0,
10,0.00421,0.101576,0.0304794,-7.25324e-05,0,
10,0.00468544,0.111649,0.0304785,-0.000111895,0,
10,0.00519274,0.121545,0.0304785,-0.000161112,0,
10,0.00573524,0.131048,0.0304772,-0.000217292,0,
10,0.00631651,0.139976,0.0304766,-0.000276309,0,
10,0.00694041,0.148212,0.0304748,-0.00033413,0,
10,0.00761104,0.155708,0.0304733,-0.000387819,0,
10,0.00833284,0.162476,0.0304705,-0.000435847,0,
10,0.00911058,0.168562,0.0304677,-0.000477871,0,
10,0.0099494,0.174036,0.0304635,-0.000514323,0,
10,0.0108548,0.178974,0.030459,-0.000546026,0,
10,0.0118329,0.183448,0.030453,-0.000573933,0,
10,0.0128901,0.187528,0.0304463,-0.000598971,0,
10,0.0140333,0.191273,0.030438,-0.000621976,0,
10,0.0152702,0.194734,0.0304286,-0.00064367,0,
10,0.0166089,0.197957,0.0304174,-0.000664666,0,
10,0.0180584,0.200979,0.0304047,-0.000685489,0,
10,0.0196282,0.203832,0.0303899,-0.000706586,0,
10,0.0213288,0.206543,0.0303732,-0.000728353,0,
10,0.0231714,0.209137,0.0303541,-0.000751144,0,
10,0.0251682,0.211633,0.0303324,-0.000775287,0,
10,0.0273326,0.21405,0.030308,-0.000801093,0,
10,0.0296789,0.216403,0.0302804,-0.000828866,0,
10,0.0322227,0.218707,0.0302494,-0.000858908,0,
10,0.0349809,0.220975,0.0302146,-0.00089153,0,
10,0.0379719,0.223218,0.0301757,-0.000927051,0,
10,0.0412155,0.22545,0.0301323,-0.000965806,0,
10,0.0447333,0.227679,0.0300839,-0.00100815,0,
10,0.0485489,0.229917,0.0300301,-0.00105446,0,
10,0.0526875,0.232175,0.0299704,-0.00110513,0,
10,0.0571768,0.234462,0.0299043,-0.00116062,0,
10,0.0620466,0.23679,0.0298314,-0.00122138,0,
10,0.0673295,0.23917,0.0297509,-0.00128792,0,
10,0.0730607,0.241614,0.0296625,-0.0013608,0,
10,0.0792784,0.244134,0.0295656,-0.0014406,0,
10,0.0860241,0.246744,0.0294598,-0.00152798,0,
10,0.0933428,0.249458,0.0293445,-0.00162361,0,
10,0.101283,0.252295,0.0292194,-0.00172826,0,
10,0.109899,0.255271,0.0290843,-0.0018427,0,
10,0.119247,0.258407,0.028939,-0.00196781,0,
10,0.12939,0.261729,0.0287835,-0.00210447,0,
10,0.140395,0.265262,0.0286182,-0.00225363,0,
10,0.152337,0.26904,0.0284436,-0.00241626,0,
10,0.165296,0.273098,0.0282605,-0.00259334,0,
10,0.179357,0.277482,0.0280702,-0.00278583,0,
10,0.194615,0.282242,0.0278743,-0.00299463,0,
10,0.211171,0.287442,0.027675,-0.0032205,0,
10,0.229138,0.293155,0.0274743,-0.00346397,0,
10,0.248635,0.299474,0.0272762,-0.00372523,0,
10,0.269793,0.306506,0.0270813,-0.00400388,0,
10,0.292753,0.314389,0.0268983,-0.00429877,0,
10,0.317669,0.323285,0.0267174,-0.00460599,0,
10,0.344708,0.33339,0.0265689,-0.00491597,0,
10,0.372405,0.344293,0.0264059,-0.00525799,0,
10,0.399623,0.355791,0.026428,-0.00555176,0,
10,0.426397,0.368407,0.0266826,-0.00564341,0,
10,0.452757,0.382479,0.0268548,-0.0057262,0,
10,0.478735,0.397724,0.0268976,-0.0057899,0,
10,0.504358,0.413651,0.0268514,-0.00582015,0,
10,0.529657,0.429894,0.0267632,-0.00581007,0,
10,0.554656,0.446301,0.0266648,-0.00575869,0,
10,0.579382,0.462859,0.026567,-0.00566801,0,
10,0.603859,0.479607,0.0264688,-0.00554031,0,
10,0.628112,0.496573,0.026364,-0.0053774,0,
10,0.652163,0.513751,0.0262474,-0.00518067,0,
10,0.676035,0.531104,0.026116,-0.00495165,0,
10,0.699751,0.548569,0.0259684,-0.00469258,0,
10,0.72333,0.566053,0.0258034,-0.00440695,0,
10,0.746795,0.583422,0.0256203,-0.00410004,0,
10,0.770165,0.600466,0.0254163,-0.00379063,0,
10,0.79346,0.616944,0.0251924,-0.00348581,0,
10,0.816699,0.63269,0.0249542,-0.00318663,0,
10,0.839903,0.647645,0.024704,-0.00289456,0,
10,0.863088,0.661811,0.0244427,-0.00261265,0,
10,0.886275,0.675192,0.0241694,-0.00234453,0,
10,0.909481,0.687777,0.0238839,-0.00209357,0,
10,0.932723,0.699543,0.0235863,-0.00186246,0,
10,0.956021,0.710474,0.0232773,-0.00165305,0,
10,0.97939,0.72057,0.022958,-0.00146642,0,
10,1.00285,0.729852,0.022629,-0.00130299,0,
10,1.02641,0.738357,0.0222907,-0.00116262,0,
10,1.0501,0.746143,0.0219437,-0.0010444,0,
10,1.07392,0.753284,0.0215884,-0.000946573,0,
10,1.0979,0.759875,0.0212254,-0.000866607,0,
10,1.12205,0.766024,0.0208552,-0.000801527,0,
10,1.14639,0.77184,0.0204783,-0.000748404,0,
10,1.17093,0.77742,0.0200951,-0.000704683,0,
10,1.19568,0.78284,0.0197056,-0.000668276,0,
10,1.22066,0.788156,0.0193098,-0.000637505,0,
10,1.24589,0.793403,0.0189076,-0.000610994,0,
10,1.27137,0.798604,0.018499,-0.000587605,0,
10,1.29713,0.803774,0.0180838,-0.000566429,0,
10,1.32317,0.808922,0.0176619,-0.000546795,0,
10,1.34951,0.814052,0.017233,-0.00052843,0,
10,1.37616,0.81917,0.0167969,-0.000510947,0,
10,1.40313,0.824278,0.0163535,-0.00049397,0,
10,1.43043,0.829378,0.0159028,-0.000477279,0,
10,1.45807,0.834469,0.0154446,-0.000460731,0,
10,1.48607,0.839548,0.0149786,-0.000444232,0,
10,1.51444,0.844611,0.0145047,-0.000427724,0,
10,1.54318,0.849653,0.0140228,-0.000411218,0,
10,1.57231,0.854668,0.0135328,-0.000394799,0,
10,1.60184,0.859647,0.0130347,-0.000378491,0,
10,1.63178,0.864578,0.0125283,-0.000362312,0,
10,1.66213,0.86945,0.0120136,-0.000346295,0,
10,1.69292,0.87425,0.0114904,-0.000330478,0,
10,1.72416,0.878964,0.0109588,-0.000314915,0,
10,1.75585,0.883579,0.0104187,-0.000299671,0,
10,1.78802,0.888079,0.00987017,-0.000284823,0,
10,1.82067,0.892449,0.00931311,-0.00027046,0,
10,1.85383,0.896671,0.00874758,-0.000256682,0,
10,1.88751,0.900726,0.00817368,-0.000243596,0,
10,1.92173,0.904597,0.00759141,-0.000231278,0,
10,1.95652,0.908277,0.00700172,-0.000219648,0,
10,1.9919,0.9118,0.0064065,-0.000199175,0,
10,2.02791,0.915164,0.00580166,-0.000177393,0,
10,2.06456,0.918319,0.00518958,-0.000155266,0,
10,2.10268,0.921297,0.00455287,-0.000133445,0,
10,2.1443,0.924194,0.00386328,-0.000112474,0,
10,2.18977,0.926965,0.00311321,-9.22421e-05,0,
10,2.23946,0.929534,0.00230111,-7.28863e-05,0,
10,2.29376,0.931822,0.00142127,-5.50729e-05,0,
10,2.35309,0.933755,0.000471873,-3.9354e-05,0,
10,2.4179,0.935268,-0.000550806,-2.61999e-05,0,
10,2.48863,0.936317,-0.00164767,-1.59503e-05,0,
10,2.56575,0.936895,-0.00282007,-8.70846e-06,0,
10,2.64971,0.937048,-0.00406707,-4.25674e-06,0,
10,2.74098,0.936881,-0.00538741,-2.05703e-06,0,
10,2.83997,0.936555,-0.00677794,-1.31525e-06,0,
10,2.94709,0.936265,-0.00823494,-1.19297e-06,0,
10,3.06269,0.936197,-0.00975326,-1.08882e-06,0,
10,3.18706,0.936476,-0.0113269,-8.09146e-07,0,
10,3.3204,0.937125,-0.0129486,-4.66758e-07,0,
10,3.46281,0.938062,-0.0146093,-2.14026e-07,0,
10,3.61427,0.939143,-0.0162984,-8.85367e-08,0,
10,3.77463,0.940222,-0.0180032,-4.33509e-08,0,
10,3.94358,0.941206,-0.0197099,-2.97882e-08,0,
10,4.12067,0.942072,-0.0214038,-2.50782e-08,0,
10,4.30525,0.942849,-0.0230704,-2.27798e-08,0,
10,4.49655,0.943583,-0.0246957,-2.15968e-08,0,
10,4.6936,0.944303,-0.026267,-2.14503e-08,0,
10,4.89531,0.945017,-0.0277729,-2.28437e-08,0,
10,5.10047,0.94571,-0.0292038,-2.73435e-08,0,
10,5.30776,0.946364,-0.030552,-3.85294e-08,0,
10,5.51581,0.94696,-0.0318119,-6.34036e-08,0,
10,5.72323,0.947497,-0.0329797,-1.17131e-07,0,
10,5.92863,0.947994,-0.034054,-2.36736e-07,0,
10,6.13069,0.948518,-0.0350348,-5.21613e-07,0,
10,6.32816,0.949165,-0.0359243,-1.18705e-06,0,
10,6.51991,0.949976,-0.0367254,-2.34559e-06,0,
10,6.70495,0.950737,-0.0374434,-2.60307e-06,0,
10,6.88244,0.950753,-0.0380819,3.89124e-06,0,
10,7.0517,0.948815,-0.0386477,2.88327e-05,0,
10,7.21224,0.943555,-0.0391402,8.58687e-05,0,
10,7.3637,0.934087,-0.0395672,0.000184615,0,
10,7.5059,0.920339,-0.0399349,0.000306116,0,
10,7.63878,0.902806,-0.040242,0.000425001,0,
10,7.76243,0.882698,-0.0405012,0.000555242,0,
10,7.87701,0.861861,-0.0407065,0.000686679,0,
10,7.9828,0.841802,-0.0408757,0.000804139,0,
10,8.08014,0.823234,-0.041009,0.000901774,0,
10,8.16941,0.806202,-0.0411199,0.000981202,0,
10,8.25106,0.790422,-0.0412109,0.00104667,0,
10,8.32554,0.775537,-0.0412894,0.00110207,0,
10,8.39331,0.761248,-0.0413566,0.00114991,0,
10,8.45484,0.747351,-0.0414155,0.00119152,0,
10,8.5106,0.733734,-0.0414662,0.00122751,0,
10,8.56104,0.720344,-0.0415103,0.00125822,0,
10,8.60659,0.707166,-0.0415484,0.00128395,0,
10,8.64767,0.694196,-0.0415818,0.00130499,0,
10,8.68467,0.681416,-0.0416113,0.00131888,0,
10,8.71795,0.668804,-0.0416371,0.00132837,0,
10,8.74786,0.656353,-0.0416596,0.00133352,0,
10,8.77471,0.64406,-0.0416792,0.00133468,0,
10,8.79881,0.631921,-0.0416962,0.0013323,0,
10,8.8204,0.61993,-0.041711,0.00132684,0,
10,8.83975,0.608076,-0.0417239,0.00131875,0,
10,8.85708,0.596349,-0.041735,0.00130845,0,
10,8.87259,0.584732,-0.0417446,0.00129633,0,
10,8.88646,0.573208,-0.0417528,0.00128273,0,
10,8.89886,0.561755,-0.0417599,0.00126798,0,
10,8.90995,0.550348,-0.0417659,0.00125233,0,
10,8.91986,0.53896,-0.0417711,0.00123598,0,
10,8.92872,0.527561,-0.0417755,0.00121909,0,
10,8.93663,0.516116,-0.0417792,0.00120176,0,
10,8.94369,0.504588,-0.0417824,0.00118401,0,
10,8.95,0.492938,-0.041785,0.00116582,0,
10,8.95564,0.481122,-0.0417872,0.00114709,0,
10,8.96067,0.469089,-0.041789,0.00112768,0,
10,8.96517,0.456786,-0.0417907,0.00110737,0,
10,8.96918,0.444153,-0.0417919,0.00108582,0,
10,8.97276,0.431119,-0.0417931,0.00106262,0,
10,8.97596,0.417605,-0.0417938,0.00103721,0,
10,8.97882,0.40352,-0.0417947,0.00100886,0,
10,8.98137,0.388753,-0.0417951,0.00097664,0,
10,8.98365,0.373179,-0.0417959,0.000939342,0,
10,8.98569,0.356645,-0.041796,0.0008954,0,
10,8.9875,0.338974,-0.0417966,0.000843449,0,
10,8.98913,0.319931,-0.0417966,0.000777056,0,
10,8.99058,0.29927,-0.0417972,0.000698564,0,
10,8.99188,0.276818,-0.041797,0.000605668,0,
10,8.99304,0.252406,-0.0417975,0.000491223,0,
10,8.99408,0.225973,-0.0417972,0.000362375,0,
10,8.99501,0.197865,-0.0417977,0.000232579,0,
10,8.99583,0.16897,-0.0417973,0.000124255,0,
10,8.99658,0.140573,-0.0417979,5.37097e-05,0,
10,8.99724,0.113837,-0.0417973,1.86141e-05,0,
10,8.99784,0.0893903,-0.041798,5.12406e-06,0,
10,8.99837,0.0673639,-0.0417972,1.07538e-06,0,
10,8.99885,0.0476268,-0.0417981,1.54067e-07,0,
10,8.99927,0.0299649,-0.0417972,1.16953e-08,0,
10,8.99966,0.0141588,-0.0417982,2.58719e-10,0,
10,0,0,0.0304816,0,0,
10,9,0,-0.0417971,0,0,

0.004,0,0,-0.210219,0,3.65547e-08,
0.00868226,0,0,-0.210221,0,-1.2679e-07,
0.014062,0,0,-0.210219,0,-3.10095e-07,
0.0201548,0,0,-0.21022,0,-4.69736e-07,
0.0269766,0,0,-0.210217,0,-4.08252e-07,
0.0345437,0,0,-0.210218,0,7.67776e-08,
0.0428729,0,0,-0.210214,0,1.12257e-06,
0.051981,0,0,-0.210213,0,2.91618e-06,
0.0618853,0,0,-0.210211,0,5.49065e-06,
0.0726036,0,0,-0.210212,0,8.86167e-06,
0.0841536,0,0,-0.210214,0,1.2839e-05,
0.0965535,0,0,-0.210221,0,1.71951e-05,
0.109822,0,0,-0.210231,0,2.15903e-05,
0.123977,0,0,-0.210246,0,2.576e-05,
0.139037,0,0,-0.210264,0,2.94807e-05,
0.155022,0,0,-0.210287,0,3.26646e-05,
0.171949,0,0,-0.210312,0,3.52869e-05,
0.189839,0,0,-0.210341,0,3.73899e-05,
0.208709,0,0,-0.210372,0,3.90084e-05,
0.228579,0,0,-0.210408,0,4.01615e-05,
0.249467,0,0,-0.210447,0,4.08281e-05,
0.271391,0,0,-0.210489,0,4.09634e-05,
0.29437,0,0,-0.210537,0,4.05057e-05,
0.31842,0,0,-0.210588,0,3.9395e-05,
0.343559,0,0,-0.210644,0,3.75835e-05,
0.369804,0,0,-0.210706,0,3.50452e-05,
0.39717,0,0,-0.210771,0,3.1778e-05,
0.425672,0,0,-0.210842,0,2.78021e-05,
0.455324,0,0,-0.210918,0,2.31554e-05,
0.48614,0,0,-0.210998,0,1.78874e-05,
0.518132,0,0,-0.211084,0,1.20541e-05,
0.551309,0,0,-0.211174,0,5.71237e-06,
0.585683,0,0,-0.21127,0,-1.0841e-06,
0.621259,0,0,-0.211371,0,-8.28905e-06,
0.658046,0,0,-0.211477,0,-1.58658e-05,
0.696047,0,0,-0.211589,0,-2.37878e-05,
0.735265,0,0,-0.211707,0,-3.20372e-05,
0.7757,0,0,-0.211831,0,-4.06025e-05,
0.817352,0,0,-0.211963,0,-4.94746e-05,
0.860215,0,0,-0.212102,0,-5.86438e-05,
0.904285,0,0,-0.212249,0,-6.80954e-05,
0.949552,0,0,-0.212405,0,-7.78056e-05,
0.996004,0,0,-0.212571,0,-8.77375e-05,
1.04363,0,0,-0.212747,0,-9.7837e-05,
1.09241,0,0,-0.212935,0,-0.000108028,
1.14232,0,0,-0.213136,0,-0.000118211,
1.19335,0,0,-0.21335,0,-0.000128262,
1.24546,0,0,-0.21358,0,-0.000138041,
1.29863,0,0,-0.213828,0,-0.000147396,
1.35283,0,0,-0.214095,0,-0.000156187,
1.40802,0,0,-0.214384,0,-0.000164302,
1.46416,0,0,-0.214698,0,-0.000171681,
1.52121,0,0,-0.215042,0,-0.000178334,
1.57913,0,0,-0.215418,0,-0.000184355,
1.63787,0,0,-0.215831,0,-0.000189915,
1.69739,0,0,-0.216286,0,-0.000195254,
1.75761,0,0,-0.216788,0,-0.000200651,
1.81851,0,0,-0.217342,0,-0.000206403,
1.88,0,0,-0.217952,0,-0.000212793,
1.94204,0,0,-0.218626,0,-0.000220076,
2.00457,0,0,-0.219367,0,-0.000228467,
2.06751,0,0,-0.220183,0,-0.000238151,
2.13081,0,0,-0.221079,0,-0.000249287,
2.19439,0,0,-0.222064,0,-0.000262033,
2.25819,0,0,-0.223146,0,-0.000276554,
2.32214,0,0,-0.224332,0,-0.000293048,
2.38617,0,0,-0.225634,0,-0.000311758,
2.4502,0,0,-0.227059,0,-0.000332999,
2.51418,0,0,-0.228621,0,-0.000357175,
2.57803,0,0,-0.230329,0,-0.000384812,
2.64167,0,0,-0.232193,0,-0.000416586,
2.70505,0,0,-0.234222,0,-0.000453345,
2.76808,0,0,-0.236421,0,-0.000496148,
2.83072,0,0,-0.238791,0,-0.000546279,
2.89288,0,0,-0.241322,0,-0.000605224,
2.95451,0,0,-0.243994,0,-0.000674587,
3.01555,0,0,-0.246764,0,-0.00075595,
3.07594,0,0,-0.249571,0,-0.000850591,
3.13561,0,0,-0.252324,0,-0.000959125,
3.19453,0,0,-0.254902,0,-0.00108111,
3.25262,0,0,-0.25716,0,-0.00121458,
3.30985,0,0,-0.258941,0,-0.00135579,
3.36617,0,0,-0.26009,0,-0.00149922,
3.42154,0,0,-0.260486,0,-0.00163819,
3.47591,0,0,-0.260067,0,-0.00176603,
3.52925,0,0,-0.258835,0,-0.00187729,
3.58152,0,0,-0.256851,0,-0.00196859,
3.6327,0,0,-0.25422,0,-0.00203868,
3.68276,0,0,-0.251072,0,-0.00208828,
3.73167,0,0,-0.247543,0,-0.00211957,
3.77941,0,0,-0.243759,0,-0.00213551,
3.82596,0,0,-0.239829,0,-0.00213931,
3.8713,0,0,-0.235837,0,-0.00213394,
3.91543,0,0,-0.231847,0,-0.00212175,
3.95833,0,0,-0.227928,0,-0.00210521,
4,0,0,-0.224069,0,-0.00208552,
4.04167,0,0,-0.220212,0,-0.00206312,
4.08333,0,0,-0.216366,0,-0.00203893,
4.125,0,0,-0.21254,0,-0.00201348,
4.16667,0,0,-0.208742,0,-0.00198715,
4.20833,0,0,-0.204978,0,-0.00196027,
4.25,0,0,-0.20125,0,-0.00193306,
4.29167,0,0,-0.197562,0,-0.00190569,
4.33333,0,0,-0.193915,0,-0.00187829,
4.375,0,0,-0.190309,0,-0.00185094,
4.41667,0,0,-0.186744,0,-0.00182373,
4.45833,0,0,-0.183221,0,-0.00179671,
4.5,0,0,-0.179739,0,-0.00176991,
4.54167,0,0,-0.176295,0,-0.00174333,
4.58333,0,0,-0.172891,0,-0.00171698,
4.625,0,0,-0.169523,0,-0.00169086,
4.66667,0,0,-0.166192,0,-0.00166497,
4.70833,0,0,-0.162897,0,-0.0016393,
4.75,0,0,-0.159635,0,-0.00161384,
4.79167,0,0,-0.156407,0,-0.00158855,
4.83333,0,0,-0.15321,0,-0.00156343,
4.875,0,0,-0.150045,0,-0.00153847,
4.91667,0,0,-0.146909,0,-0.00151364,
4.95833,0,0,-0.143803,0,-0.00148893,
5,0,0,-0.140726,0,-0.0014643,
5.04167,0,0,-0.137676,0,-0.00143975,
5.08333,0,0,-0.134653,0,-0.00141525,
5.125,0,0,-0.131657,0,-0.00139079,
5.16667,0,0,-0.128686,0,-0.00136635,
5.20833,0,0,-0.125741,0,-0.00134191,
5.25,0,0,-0.122821,0,-0.00131745,
5.29167,0,0,-0.119926,0,-0.00129295,
5.33333,0,0,-0.117055,0,-0.00126841,
5.375,0,0,-0.114209,0,-0.0012438,
5.41667,0,0,-0.111386,0,-0.00121912,
5.45833,0,0,-0.108587,0,-0.00119434,
5.5,0,0,-0.105812,0,-0.00116945,
5.54167,0,0,-0.103061,0,-0.00114444,
5.58333,0,0,-0.100334,0,-0.00111932,
5.625,0,0,-0.0976311,0,-0.00109406,
5.66667,0,0,-0.0949519,0,-0.00106866,
5.70833,0,0,-0.0922967,0,-0.0010431,
5.75,0,0,-0.089666,0,-0.00101739,
5.79167,0,0,-0.0870598,0,-0.000991502,
5.83333,0,0,-0.0844786,0,-0.000965452,
5.875,0,0,-0.0819224,0,-0.000939238,
5.91667,0,0,-0.0793916,0,-0.000912857,
5.95833,0,0,-0.0768863,0,-0.000886299,
6,0,0,-0.074407,0,-0.00085956,
6.04167,0,0,-0.071954,0,-0.000832636,
6.08333,0,0,-0.0695278,0,-0.000805536,
6.125,0,0,-0.0671287,0,-0.000778266,
6.16667,0,0,-0.0647571,0,-0.000750835,
6.20833,0,0,-0.0624131,0,-0.000723242,
6.25,0,0,-0.0600972,0,-0.000695486,
6.29167,0,0,-0.0578098,0,-0.000667565,
6.33333,0,0,-0.0555512,0,-0.000639484,
6.375,0,0,-0.0533218,0,-0.000611254,
6.41667,0,0,-0.0511222,0,-0.000582886,
6.45833,0,0,-0.0489525,0,-0.000554394,
6.5,0,0,-0.0468129,0,-0.000525781,
6.54167,0,0,-0.0447038,0,-0.000497049,
6.58333,0,0,-0.0426256,0,-0.000468201,
6.625,0,0,-0.0405786,0,-0.000439249,
6.66667,0,0,-0.038563,0,-0.000410205,
6.70833,0,0,-0.0365792,0,-0.000381088,
6.75,0,0,-0.0346274,0,-0.000351909,
6.79167,0,0,-0.0327076,0,-0.000322676,
6.83333,0,0,-0.03082,0,-0.000293391,
6.875,0,0,-0.0289648,0,-0.000264063,
6.91667,0,0,-0.0271423,0,-0.000234705,
6.95833,0,0,-0.0253526,0,-0.00020533,
7,0,0,-0.0235957,0,-0.000175951,
7.04167,0,0,-0.0218716,0,-0.000146577,
7.08333,0,0,-0.0201803,0,-0.00011721,
7.125,0,0,-0.018522,0,-8.78567e-05,
7.16667,0,0,-0.0168966,0,-5.85282e-05,
7.20833,0,0,-0.0153043,0,-2.92424e-05,
7.25,0,0,-0.0137451,0,-1.94214e-08,
7.29167,0,0,-0.0122189,0,2.91387e-05,
7.33333,0,0,-0.0107254,0,5.82144e-05,
7.375,0,0,-0.00926473,0,8.72034e-05,
7.41667,0,0,-0.00783665,0,0.000116098,
7.45833,0,0,-0.00644111,0,0.000144888,
7.5,0,0,-0.005078,0,0.00017356,
7.54167,0,0,-0.00374722,0,0.000202101,
7.58333,0,0,-0.00244844,0,0.000230505,
7.625,0,0,-0.00118145,0,0.000258771,
7.66667,0,0,5.39213e-05,0,0.000286898,
7.70833,0,0,0.00125786,0,0.000314879,
7.75,0,0,0.00243061,0,0.000342709,
7.79167,0,0,0.0035724,0,0.000370379,
7.83333,0,0,0.00468299,0,0.000397874,
7.875,0,0,0.00576328,0,0.000425221,
7.91667,0,0,0.00681942,0,0.000452707,
7.95833,0,0,0.00780976,0,0.000479343,
8,0,0,0.0088324,0,0.000505741,
8.04171,0,0,0.0098533,0,0.000533203,
8.08368,0,0,0.0107683,0,0.000560662,
8.12617,0,0,0.0117038,0,0.000587068,
8.16946,0,0,0.0126205,0,0.000613779,
8.21382,0,0,0.0135254,0,0.000640776,
8.25952,0,0,0.0144262,0,0.00066819,
8.30685,0,0,0.0153251,0,0.000696227,
8.35611,0,0,0.0162248,0,0.000725046,
8.40762,0,0,0.0171272,0,0.000754791,
8.46168,0,0,0.0180332,0,0.00078559,
8.51865,0,0,0.0189432,0,0.000817549,
8.57889,0,0,0.0198566,0,0.000850749,
8.64276,0,0,0.0207722,0,0.000885255,
8.71067,0,0,0.0216883,0,0.000921121,
8.78306,0,0,0.022602,0,0.000958404,
8.86037,0,0,0.0235097,0,0.000997161,
8.94309,0,0,0.0244064,0,0.00103745,
9.03174,0,0,0.0252867,0,0.00107936,
9.12689,0,0,0.0261423,0,0.00112294,
9.22912,0,0,0.0269626,0,0.00116813,
9.33908,0,0,0.0277379,0,0.00121479,
9.45746,0,0,0.0284577,0,0.00126272,
9.58501,0,0,0.0291127,0,0.00131181,
9.72253,0,0,0.0296913,0,0.00136195,
9.87088,0,0,0.0301763,0,0.0014129,
10.031,0,0,0.0305548,0,0.00146432,
10.2039,0,0,0.0308208,0,0.00151594,
10.3906,0,0,0.030958,0,0.00156746,
10.5924,0,0,0.0309545,0,0.00161846,
10.8105,0,0,0.0308054,0,0.00166854,
11.0463,0,0,0.0305039,0,0.00171732,
11.3012,0,0,0.0300466,0,0.00176438,
11.5769,0,0,0.0294369,0,0.00180938,
11.8751,0,0,0.0286779,0,0.00185202,
12.1977,0,0,0.0277753,0,0.00189198,
12.5466,0,0,0.0267452,0,0.00192902,
12.9242,0,0,0.0256037,0,0.00196297,
13.3327,0,0,0.02437,0,0.00199379,
13.7748,0,0,0.0230663,0,0.00202147,
14.2532,0,0,0.021716,0,0.00204608,
14.7709,0,0,0.0203435,0,0.00206772,
15.3312,0,0,0.0189741,0,0.00208658,
15.9377,0,0,0.0176316,0,0.00210287,
16.594,0,0,0.016337,0,0.00211685,
17.3044,0,0,0.0151085,0,0.00212882,
18.0733,0,0,0.01396,0,0.00213903,
18.9056,0,0,0.0129008,0,0.00214778,
19.8064,0,0,0.0119353,0,0.00215515,
20.7816,0,0,0.0110641,0,0.00216118,
21.8371,0,0,0.0102811,0,0.00216623,
22.9796,0,0,0.00957641,0,0.00217091,
24.2163,0,0,0.0089363,0,0.00217558,
25.5551,0,0,0.00834463,0,0.00218051,
27.0042,0,0,0.00778239,0,0.00218593,
28.5729,0,0,0.00723093,0,0.00219208,
30.271,0,0,0.00667111,0,0.00219912,
32.1091,0,0,0.00608434,0,0.00220707,
34.0989,0,0,0.00545806,0,0.00221606,
36.2529,0,0,0.0047728,0,0.0022259,
38.5845,0,0,0.00401229,0,0.00223647,
41.1085,0,0,0.00319801,0,0.00224763,
43.8407,0,0,0.00217832,0,0.00225713,
46.7983,0,0,0.00111668,0,0.00226264,
50,0,0,0.0019535,0,0.00227731,

