b4d44779329023cb1f3e758a261738fe07fe7a2f 
X,Z,x_velocity,cp,uw_b,cf,
1,0,0,-0.214774,0,0,
1,9,0,-0.13816,0,0,
1,8.99969,0.015687,-0.13816,3.02472e-10,0,
1,8.99934,0.0334811,-0.13816,1.41357e-08,0,
1,8.99894,0.0536832,-0.13816,1.94938e-07,0,
1,8.99848,0.0766108,-0.13816,1.42829e-06,0,
1,8.99797,0.102578,-0.13816,7.13026e-06,0,
1,8.99739,0.131775,-0.13816,2.69203e-05,0,
1,8.99672,0.163982,-0.13816,7.93953e-05,0,
1,8.99597,0.198215,-0.13816,0.000183422,0,
1,8.99512,0.232783,-0.13816,0.000335776,0,
1,8.99416,0.266022,-0.13816,0.00050665,0,
1,8.99306,0.296977,-0.138159,0.000666576,0,
1,8.99182,0.325508,-0.138159,0.000793977,0,
1,8.99041,0.351765,-0.138159,0.000900011,0,
1,8.98881,0.375902,-0.138159,0.000987333,0,
1,8.98699,0.398139,-0.138158,0.00105837,0,
1,8.98494,0.418761,-0.138157,0.00111447,0,
1,8.98261,0.438085,-0.138157,0.00115674,0,
1,8.97996,0.456356,-0.138156,0.00119216,0,
1,8.97696,0.473746,-0.138155,0.0012214,0,
1,8.97356,0.490397,-0.138154,0.00124573,0,
1,8.9697,0.506427,-0.138152,0.00126614,0,
1,8.96533,0.521935,-0.138151,0.00128335,0,
1,8.96038,0.537003,-0.138149,0.00129788,0,
1,8.95476,0.551701,-0.138147,0.00131014,0,
1,8.9484,0.566086,-0.138145,0.00132041,0,
1,8.9412,0.58021,-0.138143,0.00132886,0,
1,8.93303,0.594116,-0.138141,0.00133564,0,
1,8.92379,0.60784,-0.138138,0.00134081,0,
1,8.91333,0.621413,-0.138136,0.0013444,0,
1,8.90149,0.634865,-0.138133,0.00134641,0,
1,8.8881,0.648219,-0.13813,0.00134679,0,
1,8.87295,0.661498,-0.138128,0.00134548,0,
1,8.85584,0.674723,-0.138126,0.00134237,0,
1,8.83651,0.687911,-0.138125,0.00133734,0,
1,8.81469,0.701082,-0.138125,0.0013302,0,
1,8.79007,0.714256,-0.138127,0.00132074,0,
1,8.76232,0.727452,-0.13813,0.00130865,0,
1,8.73107,0.740694,-0.138137,0.0012936,0,
1,8.69591,0.754007,-0.138148,0.00127563,0,
1,8.6564,0.767434,-0.138164,0.00125396,0,
1,8.61206,0.781048,-0.138188,0.00122653,0,
1,8.56236,0.794942,-0.138221,0.00119476,0,
1,8.50675,0.809218,-0.138267,0.00115772,0,
1,8.44464,0.82401,-0.138328,0.001114,0,
1,8.3754,0.839488,-0.13841,0.0010615,0,
1,8.29839,0.855864,-0.138514,0.000997068,0,
1,8.21296,0.873378,-0.138652,0.000916256,0,
1,8.11843,0.892235,-0.138824,0.000813562,0,
1,8.01417,0.912446,-0.13905,0.00068481,0,
1,7.89956,0.933558,-0.139319,0.000532475,0,
1,7.77403,0.954377,-0.139675,0.000376228,0,
1,7.63711,0.973164,-0.140088,0.000209844,0,
1,7.48842,0.987691,-0.140579,7.62837e-05,0,
1,7.32773,0.996176,-0.141178,1.74456e-05,0,
1,7.15495,0.999147,-0.141868,1.50881e-06,0,
1,6.97022,0.999098,-0.142669,4.29034e-09,0,
1,6.77388,0.998448,-0.143589,1.37927e-09,0,
1,6.56652,0.998319,-0.144644,8.48997e-09,0,
1,6.34896,0.998745,-0.145842,1.16638e-08,0,
1,6.12229,0.999422,-0.147194,1.31763e-08,0,
1,5.88784,1.00015,-0.148709,1.3821e-08,0,
1,5.64716,1.00091,-0.150394,1.45659e-08,0,
1,5.40194,1.00171,-0.152253,1.56541e-08,0,
1,5.15407,1.00259,-0.154286,1.69676e-08,0,
1,4.90545,1.00355,-0.156489,1.8404e-08,0,
1,4.65805,1.00459,-0.158853,1.99268e-08,0,
1,4.41376,1.0057,-0.161363,2.1432e-08,0,
1,4.17441,1.00685,-0.164001,2.2661e-08,0,
1,3.94163,1.008,-0.166742,2.34683e-08,0,
1,3.7169,1.00909,-0.169556,2.45896e-08,0,
1,3.50146,1.01022,-0.172413,2.82247e-08,0,
1,3.29629,1.0117,-0.175281,3.66739e-08,0,
1,3.10217,1.01389,-0.178134,4.75815e-08,0,
1,2.91959,1.01654,-0.180951,8.38743e-08,0,
1,2.74885,1.01812,-0.1837,4.37269e-07,0,
1,2.59002,1.01616,-0.18634,-8.97717e-06,0,
1,2.44299,1.00899,-0.188822,-5.49326e-05,0,
1,2.30752,0.996879,-0.191107,-0.000145817,0,
1,2.18321,0.981416,-0.193171,-0.000266253,0,
1,2.06959,0.964356,-0.195012,-0.000392435,0,
1,1.9661,0.947029,-0.196639,-0.000505495,0,
1,1.87215,0.930265,-0.198072,-0.000596628,0,
1,1.78711,0.91447,-0.199329,-0.000666255,0,
1,1.71033,0.899749,-0.20043,-0.000719508,0,
1,1.64119,0.886039,-0.201392,-0.000761939,0,
1,1.57905,0.873212,-0.202231,-0.000797461,0,
1,1.52332,0.861138,-0.202962,-0.000828222,0,
1,1.47342,0.849707,-0.203598,-0.000855237,0,
1,1.42882,0.838834,-0.20415,-0.000878993,0,
1,1.389,0.828459,-0.20463,-0.000899798,0,
1,1.35351,0.818538,-0.205046,-0.000917929,0,
1,1.3219,0.809041,-0.205406,-0.000933667,0,
1,1.29378,0.799949,-0.205719,-0.000947276,0,
1,1.26878,0.79125,-0.205991,-0.00095901,0,
1,1.24659,0.782938,-0.206226,-0.000969478,0,
1,1.22689,0.775001,-0.20643,-0.000978847,0,
1,1.2092,0.767345,-0.206609,-0.000986217,0,
1,1.1932,0.759919,-0.206767,-0.000992182,0,
1,1.1787,0.752707,-0.206907,-0.000997012,0,
1,1.16554,0.745694,-0.207031,-0.00100086,0,
1,1.15357,0.738859,-0.207141,-0.00100442,0,
1,1.14266,0.732173,-0.207237,-0.00100907,0,
1,1.13268,0.725591,-0.207323,-0.00101707,0,
1,1.12354,0.719051,-0.207398,-0.00103176,0,
1,1.11514,0.712465,-0.207465,-0.00105746,0,
1,1.10739,0.705719,-0.207526,-0.0010995,0,
1,1.10022,0.698674,-0.207582,-0.00116387,0,
1,1.09357,0.691164,-0.207636,-0.00125668,0,
1,1.08738,0.683022,-0.20769,-0.00138331,0,
1,1.0816,0.674097,-0.207746,-0.00154733,0,
1,1.07618,0.664292,-0.207805,-0.00174941,0,
1,1.07107,0.653589,-0.20787,-0.00198657,0,
1,1.06626,0.64206,-0.207938,-0.00225219,0,
1,1.06169,0.629845,-0.208011,-0.00253712,0,
1,1.05735,0.617126,-0.208088,-0.00283131,0,
1,1.05321,0.604085,-0.208167,-0.00312551,0,
1,1.04925,0.590889,-0.208249,-0.0034122,0,
1,1.04544,0.577671,-0.208332,-0.00368597,0,
1,1.04177,0.564533,-0.208417,-0.00394332,0,
1,1.03822,0.551547,-0.208502,-0.0041823,0,
1,1.03478,0.53876,-0.208588,-0.00440206,0,
1,1.03144,0.526202,-0.208673,-0.00460256,0,
1,1.02818,0.513888,-0.208759,-0.0047842,0,
1,1.025,0.501824,-0.208844,-0.00494771,0,
1,1.02188,0.490007,-0.208929,-0.00509397,0,
1,1.01882,0.478434,-0.209013,-0.00522391,0,
1,1.01581,0.467095,-0.209097,-0.00533866,0,
1,1.01284,0.45598,-0.20918,-0.00543877,0,
1,1.00988,0.444958,-0.209264,-0.0055258,0,
1,1.00688,0.433901,-0.209349,-0.00560157,0,
1,1.00384,0.422799,-0.209435,-0.00566606,0,
1,1.00076,0.411641,-0.209523,-0.00571933,0,
1,0.997615,0.400412,-0.209612,-0.00576144,0,
1,0.99441,0.389095,-0.209703,-0.00579154,0,
1,0.991131,0.377668,-0.209795,-0.00581002,0,
1,0.987768,0.366107,-0.20989,-0.0058167,0,
1,0.984308,0.354388,-0.209986,-0.00581129,0,
1,0.980739,0.342487,-0.210085,-0.00579343,0,
1,0.977045,0.330379,-0.210187,-0.00576286,0,
1,0.973211,0.318038,-0.210291,-0.00571892,0,
1,0.969219,0.305438,-0.210399,-0.00566091,0,
1,0.965047,0.292555,-0.21051,-0.0055881,0,
1,0.960675,0.279363,-0.210625,-0.00549965,0,
1,0.956077,0.26584,-0.210744,-0.00539469,0,
1,0.951224,0.251966,-0.210867,-0.00527227,0,
1,0.946088,0.237725,-0.210995,-0.00513141,0,
1,0.940633,0.22311,-0.211128,-0.00497124,0,
1,0.934823,0.208122,-0.211266,-0.00479102,0,
1,0.928616,0.192778,-0.211409,-0.00459023,0,
1,0.921967,0.177112,-0.211558,-0.00436877,0,
1,0.914826,0.161181,-0.211712,-0.00412713,0,
1,0.907141,0.145072,-0.211871,-0.00386666,0,
1,0.898852,0.128905,-0.212036,-0.00358978,0,
1,0.889898,0.112842,-0.212205,-0.00330031,0,
1,0.880212,0.0970797,-0.212378,-0.0030036,0,
1,0.869723,0.0818511,-0.212553,-0.0027065,0,
1,0.858358,0.067404,-0.212727,-0.00241699,0,
1,0.846039,0.0539754,-0.212898,-0.00214328,0,
1,0.83269,0.0417568,-0.213062,-0.00189249,0,
1,0.818232,0.0308644,-0.213213,-0.00167211,0,
1,0.802744,0.0213984,-0.213342,-0.00148496,0,
1,0.78635,0.0133271,-0.213452,-0.00132885,0,
1,0.768969,0.00644017,-0.213533,-0.00120279,0,
1,0.75053,0.000532781,-0.213588,-0.00110331,0,
1,0.730977,-0.00457363,-0.213613,-0.00102566,0,
1,0.710271,-0.00901348,-0.213611,-0.000966109,0,
1,0.688397,-0.0128586,-0.213562,-0.000930816,0,
1,0.66536,-0.0161597,-0.213457,-0.000924018,0,
1,0.641194,-0.019016,-0.213313,-0.000923132,0,
1,0.615961,-0.0215354,-0.213133,-0.000931357,0,
1,0.589754,-0.0237935,-0.21292,-0.000945376,0,
1,0.562692,-0.0258403,-0.212682,-0.000960799,0,
1,0.534925,-0.0277097,-0.212427,-0.000973354,0,
1,0.506624,-0.029424,-0.212165,-0.000978847,0,
1,0.477982,-0.0309982,-0.211912,-0.000973523,0,
1,0.449206,-0.0324419,-0.211683,-0.000954479,0,
1,0.420509,-0.0337617,-0.211492,-0.000920104,0,
1,0.392107,-0.0349624,-0.211353,-0.00087037,0,
1,0.364206,-0.0360483,-0.211278,-0.000806877,0,
1,0.337003,-0.0370237,-0.21127,-0.000732599,0,
1,0.310673,-0.0378933,-0.211332,-0.00065138,0,
1,0.28537,-0.0386623,-0.211455,-0.000567305,0,
1,0.26122,-0.0393366,-0.211633,-0.000484136,0,
1,0.238324,-0.0399221,-0.211851,-0.000404926,0,
1,0.21675,-0.0404245,-0.212096,-0.000331823,0,
1,0.196544,-0.0408496,-0.212355,-0.000266071,0,
1,0.177724,-0.0412022,-0.212616,-0.000208143,0,
1,0.160284,-0.0414868,-0.212871,-0.000157935,0,
1,0.144202,-0.041707,-0.213112,-0.000114965,0,
1,0.129436,-0.0418658,-0.213336,-7.85414e-05,0,
1,0.115935,-0.0419654,-0.213539,-4.78883e-05,0,
1,0.103636,-0.0420073,-0.213721,-2.22343e-05,0,
1,0.0924701,-0.0419928,-0.213882,-8.59494e-07,0,
1,0.0823633,-0.0419222,-0.214023,1.6877e-05,0,
1,0.0732406,-0.0417954,-0.214146,3.15291e-05,0,
1,0.0650269,-0.0416117,-0.214252,4.3567e-05,0,
1,0.057648,-0.0413698,-0.214343,5.33834e-05,0,
1,0.0510323,-0.0410673,-0.214421,6.13004e-05,0,
1,0.0451115,-0.040701,-0.214487,6.75773e-05,0,
1,0.0398209,-0.0402661,-0.214543,7.24185e-05,0,
1,0.0351001,-0.0397557,-0.21459,7.59764e-05,0,
1,0.0308929,-0.0391604,-0.21463,7.83508e-05,0,
1,0.0271475,-0.0384669,-0.214662,7.95837e-05,0,
1,0.0238164,-0.0376567,-0.214689,7.96465e-05,0,
1,0.0208562,-0.0367036,-0.214711,7.84155e-05,0,
1,0.0182274,-0.0355711,-0.214729,7.56316e-05,0,
1,0.0158944,-0.034209,-0.214742,7.08568e-05,0,
1,0.0138249,-0.0325515,-0.214753,6.34892e-05,0,
1,0.0119898,-0.030525,-0.21476,5.3037e-05,0,
1,0.0103632,-0.0280762,-0.214765,3.98924e-05,0,
1,0.00892169,-0.0252305,-0.214767,2.61213e-05,0,
1,0.00764438,-0.022136,-0.21477,1.46675e-05,0,
1,0.00651264,-0.01902,-0.21477,7.14167e-06,0,
1,0.00550983,-0.0160778,-0.214771,3.09384e-06,0,
1,0.00462115,-0.0134118,-0.214771,1.21927e-06,0,
1,0.00383341,-0.0110468,-0.214772,4.40834e-07,0,
1,0.0031349,-0.00896757,-0.214771,1.45174e-07,0,
1,0.00251518,-0.00714456,-0.214773,4.25658e-08,0,
1,0.00196502,-0.00554596,-0.214772,1.0658e-08,0,
1,0.00147619,-0.00414217,-0.214773,2.12059e-09,0,
1,0.00104139,-0.00290698,-0.214772,2.94166e-10,0,
1,0.000654158,-0.00181768,-0.214774,2.18586e-11,0,
1,0.000308731,-0.000854576,-0.214772,4.77007e-13,0,

4,0,0,-0.206018,0,0,
4,9,0,-0.111304,0,0,
4,8.99969,0.0146785,-0.111303,2.45849e-10,0,
4,8.99934,0.0312711,-0.111304,1.14043e-08,0,
4,8.99894,0.0500461,-0.111303,1.55682e-07,0,
4,8.9985,0.0712864,-0.111304,1.12929e-06,0,
4,8.99799,0.0952772,-0.111303,5.59646e-06,0,
4,8.99742,0.122215,-0.111303,2.11168e-05,0,
4,8.99677,0.151984,-0.111303,6.29619e-05,0,
4,8.99605,0.183839,-0.111303,0.000148999,0,
4,8.99522,0.216359,-0.111303,0.000281696,0,
4,8.99429,0.247977,-0.111303,0.00043874,0,
4,8.99324,0.277655,-0.111303,0.000591667,0,
4,8.99205,0.305064,-0.111302,0.000721718,0,
4,8.9907,0.330299,-0.111302,0.000827022,0,
4,8.98919,0.35353,-0.111302,0.000915401,0,
4,8.98747,0.37495,-0.111301,0.000988638,0,
4,8.98553,0.394827,-0.1113,0.00104654,0,
4,8.98334,0.41345,-0.111299,0.00109246,0,
4,8.98087,0.431043,-0.111298,0.00113124,0,
4,8.97807,0.447777,-0.111297,0.00116402,0,
4,8.97491,0.463792,-0.111295,0.00119209,0,
4,8.97134,0.479206,-0.111294,0.00121644,0,
4,8.96731,0.494119,-0.111291,0.00123783,0,
4,8.96276,0.508615,-0.111289,0.00125677,0,
4,8.95762,0.522765,-0.111286,0.00127365,0,
4,8.95182,0.53663,-0.111283,0.00128876,0,
4,8.94526,0.550261,-0.11128,0.00130225,0,
4,8.93787,0.563705,-0.111276,0.00131423,0,
4,8.92952,0.576998,-0.111272,0.00132473,0,
4,8.92011,0.590174,-0.111267,0.00133373,0,
4,8.90949,0.60326,-0.111262,0.00134119,0,
4,8.89751,0.61628,-0.111256,0.001347,0,
4,8.88402,0.629254,-0.111251,0.00135103,0,
4,8.86881,0.642198,-0.111245,0.00135314,0,
4,8.85169,0.655127,-0.111238,0.00135314,0,
4,8.83242,0.668052,-0.111232,0.00135083,0,
4,8.81074,0.680985,-0.111226,0.00134596,0,
4,8.78637,0.693933,-0.111221,0.00133826,0,
4,8.75901,0.706908,-0.111217,0.00132754,0,
4,8.7283,0.719923,-0.111215,0.00131465,0,
4,8.69387,0.733019,-0.111217,0.00129563,0,
4,8.65533,0.746251,-0.111222,0.00127335,0,
4,8.61222,0.759664,-0.111233,0.00124745,0,
4,8.56407,0.773313,-0.111251,0.00121739,0,
4,8.5104,0.787268,-0.111278,0.00118242,0,
4,8.45065,0.801629,-0.111317,0.00114144,0,
4,8.38429,0.816531,-0.111371,0.0010928,0,
4,8.31073,0.832158,-0.111445,0.0010341,0,
4,8.22941,0.848742,-0.111542,0.000961843,0,
4,8.13974,0.866542,-0.111668,0.000871559,0,
4,8.04115,0.885751,-0.111827,0.000758787,0,
4,7.93313,0.906276,-0.112026,0.00062251,0,
4,7.81519,0.927391,-0.112266,0.00047427,0,
4,7.68693,0.947525,-0.112553,0.000329869,0,
4,7.54803,0.964592,-0.112905,0.000206819,0,
4,7.39831,0.976885,-0.113319,9.4371e-05,0,
4,7.23771,0.983806,-0.113812,2.84212e-05,0,
4,7.06634,0.986327,-0.114389,4.61919e-06,0,
4,6.88453,0.986464,-0.115044,1.66363e-07,0,
4,6.69275,0.986012,-0.115784,1.18809e-08,0,
4,6.49173,0.98585,-0.116621,5.77153e-08,0,
4,6.28238,0.986094,-0.117567,3.68661e-08,0,
4,6.06579,0.986573,-0.118632,2.03512e-08,0,
4,5.84328,0.987137,-0.119827,1.45294e-08,0,
4,5.61626,0.987731,-0.121159,1.33538e-08,0,
4,5.3863,0.988359,-0.122636,1.3859e-08,0,
4,5.15502,0.989041,-0.124264,1.50628e-08,0,
4,4.92406,0.98979,-0.126045,1.66646e-08,0,
4,4.69507,0.990617,-0.127982,1.85561e-08,0,
4,4.46961,0.991527,-0.130074,2.05573e-08,0,
4,4.24915,0.992496,-0.132316,2.23063e-08,0,
4,4.03501,0.993465,-0.134704,2.35255e-08,0,
4,3.82836,0.994368,-0.137225,2.4755e-08,0,
4,3.63018,0.995233,-0.139866,2.80972e-08,0,
4,3.44125,0.996278,-0.142612,3.83415e-08,0,
4,3.26217,0.997882,-0.145446,1.37762e-07,0,
4,3.09333,1.00028,-0.148349,1.17029e-06,0,
4,2.93497,1.00311,-0.1513,4.59446e-06,0,
4,2.78715,1.00537,-0.154278,7.27139e-06,0,
4,2.64979,1.00584,-0.157253,1.68325e-06,0,
4,2.52268,1.00362,-0.160188,-1.71858e-05,0,
4,2.40551,0.998495,-0.163044,-4.97382e-05,0,
4,2.29789,0.990832,-0.165784,-9.28175e-05,0,
4,2.19939,0.981321,-0.168382,-0.000141524,0,
4,2.10949,0.970728,-0.170822,-0.000190977,0,
4,2.02768,0.95972,-0.173094,-0.000237465,0,
4,1.95343,0.948793,-0.175198,-0.000278829,0,
4,1.88618,0.938273,-0.177134,-0.000314275,0,
4,1.82542,0.928347,-0.178909,-0.000343956,0,
4,1.77062,0.919104,-0.18053,-0.00036853,0,
4,1.72128,0.91057,-0.182006,-0.000388832,0,
4,1.67693,0.902731,-0.183344,-0.000405677,0,
4,1.63713,0.895554,-0.184556,-0.000419754,0,
4,1.60144,0.889,-0.185649,-0.000431553,0,
4,1.56949,0.883024,-0.186635,-0.00044137,0,
4,1.54091,0.877587,-0.187519,-0.000450343,0,
4,1.51537,0.87263,-0.188315,-0.000458368,0,
4,1.49167,0.86795,-0.189054,-0.000464564,0,
4,1.46926,0.86345,-0.189756,-0.00047012,0,
4,1.44801,0.859104,-0.190422,-0.000475268,0,
4,1.42781,0.854894,-0.191058,-0.000479838,0,
4,1.40855,0.850804,-0.191665,-0.000483844,0,
4,1.39015,0.846817,-0.192245,-0.000487312,0,
4,1.37252,0.842919,-0.192802,-0.000490285,0,
4,1.3556,0.839094,-0.193338,-0.000492848,0,
4,1.3393,0.835329,-0.193853,-0.000495146,0,
4,1.32357,0.831607,-0.194351,-0.000497416,0,
4,1.30836,0.82791,-0.194833,-0.00050003,0,
4,1.29362,0.824216,-0.195299,-0.000503541,0,
4,1.2793,0.8205,-0.195752,-0.00050874,0,
4,1.26537,0.816728,-0.196192,-0.000516731,0,
4,1.25179,0.812856,-0.196621,-0.000529051,0,
4,1.23852,0.808827,-0.197039,-0.000547676,0,
4,1.22554,0.804566,-0.197446,-0.000575179,0,
4,1.21282,0.799978,-0.197844,-0.000614726,0,
4,1.20034,0.79494,-0.198232,-0.000669999,0,
4,1.18806,0.789309,-0.198611,-0.000744955,0,
4,1.17599,0.782924,-0.19898,-0.000843378,0,
4,1.16408,0.77563,-0.199339,-0.000968242,0,
4,1.15233,0.767294,-0.199688,-0.00112101,0,
4,1.14073,0.75784,-0.200027,-0.00130102,0,
4,1.12925,0.74726,-0.200353,-0.00150527,0,
4,1.11788,0.735618,-0.200667,-0.00172866,0,
4,1.10661,0.723036,-0.200969,-0.00196474,0,
4,1.09543,0.709669,-0.201258,-0.00220658,0,
4,1.08432,0.695686,-0.201534,-0.00244767,0,
4,1.07328,0.681248,-0.201798,-0.00268242,0,
4,1.0623,0.6665,-0.202048,-0.00290651,0,
4,1.05136,0.651562,-0.202287,-0.00311676,0,
4,1.04044,0.636511,-0.202514,-0.00331109,0,
4,1.0295,0.621398,-0.202729,-0.00348856,0,
4,1.01855,0.606284,-0.202934,-0.00364852,0,
4,1.00757,0.591214,-0.203129,-0.0037906,0,
4,0.996544,0.576219,-0.203314,-0.00391488,0,
4,0.98547,0.561322,-0.20349,-0.00402164,0,
4,0.974334,0.546539,-0.203656,-0.00411135,0,
4,0.963124,0.531878,-0.203813,-0.00418455,0,
4,0.951826,0.517341,-0.203963,-0.00424183,0,
4,0.940428,0.50293,-0.204104,-0.00428381,0,
4,0.928915,0.488641,-0.204238,-0.00431167,0,
4,0.917272,0.474464,-0.204364,-0.00432503,0,
4,0.905481,0.460386,-0.204484,-0.00432501,0,
4,0.893524,0.44639,-0.204597,-0.00431243,0,
4,0.881383,0.432456,-0.204704,-0.00428804,0,
4,0.869035,0.418564,-0.204805,-0.00425261,0,
4,0.856459,0.404692,-0.2049,-0.0042069,0,
4,0.843629,0.390815,-0.20499,-0.00415172,0,
4,0.830518,0.376905,-0.205074,-0.00408796,0,
4,0.817097,0.362928,-0.205154,-0.00401643,0,
4,0.803334,0.348848,-0.20523,-0.0039382,0,
4,0.789195,0.334625,-0.205301,-0.00385522,0,
4,0.774643,0.320214,-0.205369,-0.00376884,0,
4,0.759639,0.305562,-0.205434,-0.00368105,0,
4,0.744138,0.290601,-0.205497,-0.0035944,0,
4,0.728096,0.275252,-0.205559,-0.00351203,0,
4,0.711463,0.259413,-0.205622,-0.00343779,0,
4,0.694189,0.24296,-0.205689,-0.00337619,0,
4,0.676218,0.225741,-0.205763,-0.00333218,0,
4,0.657495,0.207579,-0.205847,-0.00331046,0,
4,0.637962,0.18829,-0.20595,-0.00331261,0,
4,0.617561,0.167733,-0.206073,-0.00334153,0,
4,0.596848,0.146427,-0.206218,-0.00339755,0,
4,0.576557,0.12518,-0.206383,-0.00346555,0,
4,0.556564,0.104079,-0.206544,-0.00353145,0,
4,0.536763,0.083236,-0.206738,-0.00359816,0,
4,0.517057,0.0626739,-0.206889,-0.00367156,0,
4,0.497368,0.0421078,-0.206926,-0.00365804,0,
4,0.477632,0.0212695,-0.206943,-0.00366014,0,
4,0.457804,0.000301053,-0.206992,-0.0036707,0,
4,0.437857,-0.0203506,-0.20706,-0.00367648,0,
4,0.417786,-0.0400913,-0.207149,-0.00366867,0,
4,0.397605,-0.058358,-0.207252,-0.00364279,0,
4,0.377348,-0.0748609,-0.207368,-0.0036003,0,
4,0.357066,-0.0898078,-0.207466,-0.00347149,0,
4,0.336828,-0.103482,-0.207543,-0.00333346,0,
4,0.316717,-0.115953,-0.207611,-0.00318559,0,
4,0.296825,-0.127254,-0.207662,-0.00302297,0,
4,0.27725,-0.137435,-0.207697,-0.00284838,0,
4,0.258095,-0.146565,-0.207715,-0.00266502,0,
4,0.239458,-0.15472,-0.207716,-0.00247604,0,
4,0.221432,-0.161984,-0.207697,-0.00228444,0,
4,0.2041,-0.16844,-0.207661,-0.00209298,0,
4,0.187537,-0.17417,-0.207606,-0.00190409,0,
4,0.171798,-0.179251,-0.207536,-0.00171981,0,
4,0.156928,-0.183751,-0.207451,-0.00154179,0,
4,0.142956,-0.187734,-0.207356,-0.00137131,0,
4,0.129894,-0.191253,-0.207253,-0.00120929,0,
4,0.117744,-0.194356,-0.207145,-0.00105635,0,
4,0.106492,-0.197082,-0.207035,-0.000912825,0,
4,0.0961173,-0.199464,-0.206927,-0.000778841,0,
4,0.0865883,-0.20153,-0.206823,-0.000654334,0,
4,0.0778675,-0.203303,-0.206724,-0.000539104,0,
4,0.0699123,-0.204799,-0.206631,-0.000432841,0,
4,0.062677,-0.206031,-0.206546,-0.000335158,0,
4,0.056114,-0.207009,-0.206468,-0.000245619,0,
4,0.0501747,-0.207737,-0.206399,-0.000163764,0,
4,0.0448114,-0.208216,-0.206337,-8.91237e-05,0,
4,0.039977,-0.20844,-0.206283,-2.12457e-05,0,
4,0.0356266,-0.2084,-0.206236,4.0292e-05,0,
4,0.0317171,-0.208079,-0.206195,9.58585e-05,0,
4,0.0282081,-0.207451,-0.20616,0.000145745,0,
4,0.0250617,-0.206478,-0.20613,0.000190131,0,
4,0.0222427,-0.205109,-0.206105,0.000229034,0,
4,0.0197189,-0.203271,-0.206085,0.000262239,0,
4,0.0174603,-0.200866,-0.206068,0.000289194,0,
4,0.0154398,-0.197757,-0.206054,0.00030888,0,
4,0.0136326,-0.193768,-0.206044,0.000319692,0,
4,0.0120162,-0.18867,-0.206036,0.000319448,0,
4,0.0105703,-0.182199,-0.20603,0.000305751,0,
4,0.00927657,-0.17409,-0.206026,0.000276958,0,
4,0.00811839,-0.164157,-0.206023,0.000233708,0,
4,0.0070809,-0.152402,-0.206022,0.000180389,0,
4,0.0061507,-0.1391,-0.206021,0.000125138,0,
4,0.00531578,-0.124792,-0.20602,7.70937e-05,0,
4,0.00456537,-0.110139,-0.20602,4.20597e-05,0,
4,0.00388979,-0.0957327,-0.20602,2.04106e-05,0,
4,0.00328037,-0.0819635,-0.206019,8.85453e-06,0,
4,0.00272934,-0.0690227,-0.206019,3.42703e-06,0,
4,0.0022297,-0.056961,-0.206019,1.16534e-06,0,
4,0.00177519,-0.0457517,-0.206019,3.36062e-07,0,
4,0.00136016,-0.0353324,-0.206019,7.68076e-08,0,
4,0.000979511,-0.025627,-0.206019,1.22273e-08,0,
4,0.00062865,-0.0165558,-0.206019,1.03794e-09,0,
4,0.000303409,-0.00804,-0.206019,2.51777e-11,0,

6,0,0,-0.0884058,0,0,
6,9,0,-0.0880977,0,0,
6,8.99969,0.0139309,-0.0880973,2.06981e-10,0,
6,8.99934,0.0296401,-0.0880976,9.55218e-09,0,
6,8.99895,0.0473723,-0.0880973,1.29488e-07,0,
6,8.9985,0.0673856,-0.0880975,9.32766e-07,0,
6,8.99801,0.0899433,-0.0880972,4.59865e-06,0,
6,8.99744,0.115241,-0.0880974,1.7341e-05,0,
6,8.99681,0.143225,-0.0880972,5.20905e-05,0,
6,8.99609,0.173308,-0.0880973,0.000125422,0,
6,8.99529,0.204264,-0.088097,0.000242949,0,
6,8.99438,0.234626,-0.088097,0.000387956,0,
6,8.99336,0.263313,-0.0880967,0.00053385,0,
6,8.9922,0.289868,-0.0880965,0.000663765,0,
6,8.9909,0.314331,-0.0880961,0.000767644,0,
6,8.98944,0.336873,-0.0880957,0.000855589,0,
6,8.98779,0.357666,-0.088095,0.000929327,0,
6,8.98593,0.37696,-0.0880944,0.000987801,0,
6,8.98383,0.395023,-0.0880935,0.00103534,0,
6,8.98147,0.412064,-0.0880925,0.00107561,0,
6,8.97881,0.428251,-0.0880912,0.00111001,0,
6,8.97581,0.443724,-0.0880897,0.00113985,0,
6,8.97244,0.4586,-0.088088,0.00116616,0,
6,8.96863,0.472979,-0.088086,0.00118968,0,
6,8.96435,0.486946,-0.0880836,0.00121097,0,
6,8.95953,0.500575,-0.0880808,0.00123044,0,
6,8.95409,0.513927,-0.0880776,0.00124838,0,
6,8.94798,0.527057,-0.0880739,0.00126495,0,
6,8.94109,0.540012,-0.0880697,0.00128028,0,
6,8.93334,0.552832,-0.088065,0.00129438,0,
6,8.92463,0.565553,-0.0880596,0.00130724,0,
6,8.91482,0.578206,-0.0880535,0.00131877,0,
6,8.90379,0.590816,-0.0880468,0.00132885,0,
6,8.89139,0.603406,-0.0880393,0.0013373,0,
6,8.87746,0.615992,-0.088031,0.00134394,0,
6,8.86181,0.62859,-0.088022,0.00134854,0,
6,8.84423,0.64121,-0.0880122,0.00135085,0,
6,8.82452,0.653861,-0.0880017,0.00135061,0,
6,8.80241,0.666549,-0.0879906,0.00134756,0,
6,8.77763,0.679281,-0.0879789,0.00134147,0,
6,8.74989,0.692062,-0.0879671,0.00133258,0,
6,8.71885,0.704911,-0.0879552,0.00132063,0,
6,8.68417,0.717872,-0.087944,0.00130231,0,
6,8.64545,0.730991,-0.0879343,0.00128049,0,
6,8.60229,0.744298,-0.0879261,0.00125481,0,
6,8.55423,0.757828,-0.0879204,0.00122482,0,
6,8.50082,0.771633,-0.0879179,0.0011899,0,
6,8.44155,0.785792,-0.0879201,0.00114916,0,
6,8.37592,0.800424,-0.0879285,0.00110124,0,
6,8.30339,0.8157,-0.0879451,0.00104416,0,
6,8.22344,0.831853,-0.0879725,0.000974971,0,
6,8.13555,0.849168,-0.0880112,0.000889757,0,
6,8.0392,0.867906,-0.0880641,0.000784399,0,
6,7.93391,0.888083,-0.0881254,0.00065735,0,
6,7.81927,0.909102,-0.0882003,0.000518088,0,
6,7.6949,0.929514,-0.0882783,0.000379738,0,
6,7.56054,0.947318,-0.088378,0.000257044,0,
6,7.41603,0.960849,-0.0884788,0.000152459,0,
6,7.26132,0.969466,-0.0886066,5.99625e-05,0,
6,7.09653,0.973602,-0.0887644,1.54444e-05,0,
6,6.92195,0.97466,-0.0889329,1.35463e-06,0,
6,6.73802,0.97433,-0.0891175,-5.71596e-07,0,
6,6.5454,0.973798,-0.0893156,-2.22105e-07,0,
6,6.34489,0.973526,-0.0895303,-1.85647e-08,0,
6,6.1375,0.973513,-0.0897628,1.26365e-08,0,
6,5.92439,0.97362,-0.090014,8.44164e-09,0,
6,5.70687,0.973746,-0.0902836,4.40359e-09,0,
6,5.48633,0.973853,-0.0905706,2.76231e-09,0,
6,5.26426,0.973941,-0.0908732,2.21803e-09,0,
6,5.04218,0.974024,-0.0911889,2.13188e-09,0,
6,4.82159,0.974115,-0.0915146,2.28005e-09,0,
6,4.60398,0.974225,-0.0918464,2.49023e-09,0,
6,4.39071,0.974347,-0.0921799,2.43014e-09,0,
6,4.18307,0.974443,-0.0925103,1.62321e-09,0,
6,3.98218,0.974444,-0.0928326,-1.60739e-10,0,
6,3.78902,0.974298,-0.0931416,-2.2333e-09,0,
6,3.60438,0.974057,-0.0934324,-2.88154e-09,0,
6,3.42888,0.973934,-0.0937009,6.00595e-09,0,
6,3.26296,0.974235,-0.093943,1.43719e-07,0,
6,3.10691,0.975151,-0.0941548,9.15209e-07,0,
6,2.96084,0.976534,-0.0943344,2.57865e-06,0,
6,2.82473,0.977877,-0.0944831,3.26808e-06,0,
6,2.69844,0.978501,-0.0946032,-4.172e-07,0,
6,2.58172,0.977806,-0.0946961,-1.0987e-05,0,
6,2.47424,0.975445,-0.0947627,-2.91804e-05,0,
6,2.37559,0.971373,-0.0948048,-5.42587e-05,0,
6,2.28535,0.965792,-0.0948246,-8.4534e-05,0,
6,2.20301,0.959048,-0.0948253,-0.000117914,0,
6,2.1281,0.951535,-0.0948101,-0.000152363,0,
6,2.06009,0.943622,-0.0947824,-0.000186198,0,
6,1.99849,0.935619,-0.0947453,-0.000218214,0,
6,1.9428,0.927759,-0.0947014,-0.000247679,0,
6,1.89255,0.920207,-0.0946532,-0.000274259,0,
6,1.84728,0.913067,-0.0946026,-0.000297907,0,
6,1.80655,0.9064,-0.0945513,-0.000318675,0,
6,1.76996,0.900234,-0.0945004,-0.000336534,0,
6,1.73712,0.89458,-0.0944507,-0.000352835,0,
6,1.70768,0.889391,-0.0944031,-0.000367688,0,
6,1.67998,0.88443,-0.0943558,-0.000380177,0,
6,1.65329,0.87959,-0.0943076,-0.000391746,0,
6,1.62754,0.874859,-0.0942588,-0.000402704,0,
6,1.60265,0.870231,-0.0942095,-0.000412893,0,
6,1.57854,0.865698,-0.0941598,-0.000422354,0,
6,1.55515,0.861254,-0.0941097,-0.000431134,0,
6,1.53242,0.856892,-0.0940594,-0.000439272,0,
6,1.5103,0.852603,-0.0940088,-0.000446801,0,
6,1.48874,0.848382,-0.093958,-0.000453746,0,
6,1.46769,0.844221,-0.093907,-0.000460124,0,
6,1.44712,0.840114,-0.0938559,-0.000465945,0,
6,1.42698,0.836054,-0.0938045,-0.000471213,0,
6,1.40725,0.832035,-0.0937531,-0.000475928,0,
6,1.38788,0.82805,-0.0937015,-0.000480094,0,
6,1.36886,0.824093,-0.0936497,-0.000483717,0,
6,1.35015,0.820158,-0.0935979,-0.000486821,0,
6,1.33173,0.816238,-0.0935459,-0.000489455,0,
6,1.31357,0.812325,-0.0934938,-0.000491709,0,
6,1.29566,0.808411,-0.0934416,-0.000493736,0,
6,1.27797,0.804484,-0.0933893,-0.000495778,0,
6,1.26048,0.800532,-0.0933369,-0.000498199,0,
6,1.24318,0.796536,-0.0932844,-0.00050153,0,
6,1.22605,0.792472,-0.0932319,-0.000506522,0,
6,1.20907,0.788309,-0.0931792,-0.000514213,0,
6,1.19223,0.784005,-0.0931265,-0.000525986,0,
6,1.17551,0.779504,-0.0930736,-0.000543684,0,
6,1.1589,0.774731,-0.0930205,-0.000569628,0,
6,1.14238,0.76959,-0.0929671,-0.000606618,0,
6,1.12595,0.763964,-0.0929134,-0.000657911,0,
6,1.10959,0.757711,-0.0928592,-0.000727005,0,
6,1.09329,0.750675,-0.0928046,-0.000817304,0,
6,1.07704,0.7427,-0.0927496,-0.000931638,0,
6,1.06081,0.733646,-0.0926942,-0.00107169,0,
6,1.04459,0.723414,-0.0926387,-0.00123758,0,
6,1.02836,0.711964,-0.0925834,-0.00142762,0,
6,1.01211,0.699319,-0.0925288,-0.00163834,0,
6,0.99583,0.685552,-0.0924753,-0.00186506,0,
6,0.97951,0.670773,-0.0924235,-0.00210251,0,
6,0.963136,0.655111,-0.0923738,-0.0023456,0,
6,0.946694,0.638693,-0.0923265,-0.00258978,0,
6,0.930172,0.62164,-0.0922818,-0.0028315,0,
6,0.913555,0.60406,-0.09224,-0.00306806,0,
6,0.896829,0.586041,-0.0922012,-0.00329758,0,
6,0.879979,0.567656,-0.0921656,-0.00351872,0,
6,0.862989,0.548964,-0.0921332,-0.00373043,0,
6,0.845842,0.530015,-0.0921042,-0.00393156,0,
6,0.828521,0.510853,-0.0920789,-0.00412053,0,
6,0.811008,0.491522,-0.092057,-0.00429478,0,
6,0.793282,0.472072,-0.0920391,-0.00445075,0,
6,0.775322,0.452564,-0.0920256,-0.00458227,0,
6,0.757107,0.433085,-0.0920124,-0.00468416,0,
6,0.738612,0.413725,-0.0920225,-0.00477918,0,
6,0.719813,0.39435,-0.091941,-0.00478835,0,
6,0.700681,0.374655,-0.0917725,-0.00479087,0,
6,0.681188,0.354442,-0.0916308,-0.00481576,0,
6,0.661304,0.333633,-0.0914959,-0.00486093,0,
6,0.640996,0.312197,-0.0913825,-0.00492422,0,
6,0.620228,0.290131,-0.0912859,-0.00500241,0,
6,0.598964,0.267457,-0.0912089,-0.00509139,0,
6,0.577166,0.244234,-0.0911515,-0.00518616,0,
6,0.554791,0.22057,-0.0911151,-0.0052808,0,
6,0.531799,0.196614,-0.0910986,-0.00536868,0,
6,0.508144,0.172537,-0.0911002,-0.00544244,0,
6,0.48378,0.148492,-0.0911133,-0.00549494,0,
6,0.459585,0.125358,-0.0911296,-0.00551833,0,
6,0.436695,0.104131,-0.0911458,-0.00550873,0,
6,0.414961,0.08471,-0.0911716,-0.0054669,0,
6,0.394252,0.0671038,-0.0912221,-0.00539543,0,
6,0.374445,0.0514478,-0.0913302,-0.00530006,0,
6,0.355433,0.0378996,-0.0915135,-0.00519002,0,
6,0.337122,0.0264317,-0.0917773,-0.00507546,0,
6,0.319433,0.0166495,-0.0919498,-0.0048925,0,
6,0.3023,0.00799432,-0.0920136,-0.00462733,0,
6,0.28567,0.000147663,-0.0920756,-0.00440994,0,
6,0.269507,-0.00699129,-0.092117,-0.00418822,0,
6,0.253785,-0.0135072,-0.0921348,-0.00396333,0,
6,0.238493,-0.0194725,-0.0921273,-0.00373689,0,
6,0.223631,-0.0249491,-0.0920915,-0.0035103,0,
6,0.209207,-0.0299898,-0.092027,-0.00328498,0,
6,0.195237,-0.0346397,-0.091933,-0.0030622,0,
6,0.181744,-0.0389374,-0.0918116,-0.00284324,0,
6,0.168754,-0.042916,-0.0916643,-0.00262927,0,
6,0.156292,-0.0466039,-0.0914951,-0.00242137,0,
6,0.144384,-0.0500253,-0.0913077,-0.00222055,0,
6,0.133052,-0.0532014,-0.0911073,-0.00202767,0,
6,0.122315,-0.0561502,-0.0908986,-0.00184345,0,
6,0.112183,-0.0588872,-0.0906865,-0.00166845,0,
6,0.102665,-0.0614259,-0.0904755,-0.00150307,0,
6,0.0937597,-0.0637781,-0.0902696,-0.00134757,0,
6,0.0854609,-0.065954,-0.0900719,-0.00120202,0,
6,0.077757,-0.0679625,-0.0898849,-0.00106637,0,
6,0.0706309,-0.0698113,-0.0897104,-0.00094045,0,
6,0.0640611,-0.0715076,-0.0895494,-0.00082398,0,
6,0.0580229,-0.0730573,-0.0894023,-0.000716606,0,
6,0.0524888,-0.0744658,-0.0892692,-0.000617899,0,
6,0.0474296,-0.0757379,-0.0891497,-0.000527397,0,
6,0.042815,-0.0768775,-0.0890433,-0.000444615,0,
6,0.0386145,-0.0778879,-0.088949,-0.000369055,0,
6,0.0347975,-0.0787714,-0.0888659,-0.000300215,0,
6,0.0313344,-0.0795294,-0.0887932,-0.000237613,0,
6,0.0281964,-0.080162,-0.0887298,-0.000180789,0,
6,0.0253561,-0.080668,-0.0886748,-0.000129317,0,
6,0.0227875,-0.081044,-0.0886274,-8.28041e-05,0,
6,0.0204662,-0.0812841,-0.0885866,-4.09138e-05,0,
6,0.0183694,-0.0813792,-0.0885519,-3.3728e-06,0,
6,0.016476,-0.0813155,-0.0885222,3.00096e-05,0,
6,0.0147664,-0.0810729,-0.0884975,5.93123e-05,0,
6,0.0132228,-0.0806227,-0.0884766,8.44537e-05,0,
6,0.0118288,-0.0799241,-0.0884598,0.000105122,0,
6,0.0105693,-0.0789196,-0.0884458,0.000120679,0,
6,0.00943073,-0.0775299,-0.0884352,0.000130063,0,
6,0.00840063,-0.0756505,-0.0884264,0.000131802,0,
6,0.00746774,-0.0731559,-0.0884207,0.000124434,0,
6,0.00662185,-0.0699235,-0.0884159,0.000107643,0,
6,0.00585371,-0.0658881,-0.0884136,8.37797e-05,0,
6,0.00515491,-0.0611045,-0.0884112,5.79825e-05,0,
6,0.00451788,-0.055762,-0.0884107,3.56859e-05,0,
6,0.00393573,-0.0501173,-0.0884093,1.97198e-05,0,
6,0.00340221,-0.0444009,-0.0884097,9.89293e-06,0,
6,0.00291168,-0.0387679,-0.0884084,4.52709e-06,0,
6,0.00245897,-0.0333015,-0.0884092,1.87788e-06,0,
6,0.00203939,-0.0280342,-0.0884078,6.91907e-07,0,
6,0.00164864,-0.0229691,-0.0884088,2.17686e-07,0,
6,0.00128281,-0.0180932,-0.0884072,5.44898e-08,0,
6,0.000938257,-0.0133853,-0.0884087,9.51261e-09,0,
6,0.000611645,-0.00881949,-0.0884066,8.82508e-10,0,
6,0.000299862,-0.00436777,-0.0884086,2.29274e-11,0,

10,0.000296632,0.00769258,0.026646,-7.45998e-11,0,
10,0.000596102,0.0154673,0.0266492,-2.76877e-09,0,
10,0.000900397,0.0233761,0.026646,-2.81918e-08,0,
10,0.00121153,0.0314712,0.0266487,-1.51719e-07,0,
10,0.00153158,0.0398047,0.0266459,-5.68324e-07,0,
10,0.00186264,0.0484264,0.0266482,-1.69183e-06,0,
10,0.00220692,0.0573798,0.0266457,-4.29715e-06,0,
10,0.00256668,0.0666943,0.0266477,-9.69628e-06,0,
10,0.00294431,0.0763738,0.0266454,-1.98879e-05,0,
10,0.00334229,0.0863794,0.0266471,-3.75252e-05,0,
10,0.00376326,0.0966123,0.026645,-6.54594e-05,0,
10,0.00421,0.106905,0.0266462,-0.000105708,0,
10,0.00468544,0.117031,0.026644,-0.000158169,0,
10,0.00519274,0.126749,0.0266446,-0.00021998,0,
10,0.00573524,0.135848,0.026642,-0.000286256,0,
10,0.00631651,0.144193,0.0266417,-0.000351819,0,
10,0.00694041,0.151731,0.0266382,-0.000412762,0,
10,0.00761104,0.158479,0.0266365,-0.000467033,0,
10,0.00833284,0.1645,0.0266318,-0.000514184,0,
10,0.00911058,0.169877,0.0266282,-0.000554781,0,
10,0.0099494,0.174697,0.0266218,-0.000589877,0,
10,0.0108548,0.179045,0.0266157,-0.000620657,0,
10,0.0118329,0.182994,0.0266071,-0.000648234,0,
10,0.0128901,0.186608,0.0265982,-0.000673581,0,
10,0.0140333,0.189942,0.0265868,-0.000697515,0,
10,0.0152702,0.193042,0.0265743,-0.000720728,0,
10,0.0166089,0.195944,0.0265594,-0.000743791,0,
10,0.0180584,0.198682,0.0265426,-0.000767188,0,
10,0.0196282,0.201281,0.0265233,-0.00079134,0,
10,0.0213288,0.203765,0.0265013,-0.000816628,0,
10,0.0231714,0.206153,0.0264766,-0.000843399,0,
10,0.0251682,0.208463,0.0264482,-0.000871982,0,
10,0.0273326,0.210708,0.0264167,-0.000902696,0,
10,0.0296789,0.212903,0.0263806,-0.000935866,0,
10,0.0322227,0.215058,0.0263406,-0.000971819,0,
10,0.0349809,0.217185,0.026295,-0.00101089,0,
10,0.0379719,0.219294,0.0262444,-0.00105345,0,
10,0.0412155,0.221394,0.026187,-0.00109985,0,
10,0.0447333,0.223493,0.0261234,-0.00115052,0,
10,0.0485489,0.225601,0.0260513,-0.00120587,0,
10,0.0526875,0.227725,0.0259717,-0.00126639,0,
10,0.0571768,0.229875,0.0258817,-0.00133257,0,
10,0.0620466,0.232057,0.0257826,-0.00140496,0,
10,0.0673295,0.234282,0.0256709,-0.00148416,0,
10,0.0730607,0.236558,0.025548,-0.00157082,0,
10,0.0792784,0.238894,0.0254106,-0.00166563,0,
10,0.0860241,0.241301,0.0252594,-0.00176936,0,
10,0.0933428,0.243789,0.0250917,-0.00188286,0,
10,0.101283,0.24637,0.0249077,-0.00200702,0,
10,0.109899,0.249059,0.0247054,-0.00214282,0,
10,0.119247,0.251869,0.0244845,-0.00229132,0,
10,0.12939,0.254818,0.0242439,-0.00245368,0,
10,0.140395,0.257926,0.0239841,-0.00263109,0,
10,0.152337,0.261215,0.0237059,-0.00282478,0,
10,0.165296,0.264712,0.0234089,-0.00303602,0,
10,0.179357,0.268451,0.0230974,-0.00326614,0,
10,0.194615,0.272469,0.0227719,-0.00351643,0,
10,0.211171,0.276813,0.0224421,-0.00378802,0,
10,0.229138,0.281542,0.0221087,-0.00408186,0,
10,0.248635,0.286729,0.0217879,-0.00439841,0,
10,0.269793,0.292464,0.0214831,-0.00473763,0,
10,0.292753,0.298862,0.0212145,-0.0050983,0,
10,0.317669,0.306072,0.0209945,-0.00547791,0,
10,0.344708,0.314281,0.020807,-0.00593373,0,
10,0.372405,0.323404,0.0210137,-0.00637481,0,
10,0.399623,0.333872,0.0217084,-0.00648443,0,
10,0.426397,0.346483,0.0223307,-0.00658353,0,
10,0.452757,0.36123,0.0226831,-0.00666339,0,
10,0.478735,0.377543,0.0228539,-0.00670462,0,
10,0.504358,0.394758,0.0229156,-0.00669505,0,
10,0.529657,0.412445,0.022937,-0.00663138,0,
10,0.554656,0.430449,0.0229458,-0.00651531,0,
10,0.579382,0.448781,0.02295,-0.0063496,0,
10,0.603859,0.467499,0.0229426,-0.00613659,0,
10,0.628112,0.48663,0.0229149,-0.00587828,0,
10,0.652163,0.506141,0.0228601,-0.00557708,0,
10,0.676035,0.525928,0.0227745,-0.00523665,0,
10,0.699751,0.545811,0.0226583,-0.00486303,0,
10,0.72333,0.565513,0.0225063,-0.00447684,0,
10,0.746795,0.584678,0.0223184,-0.00409906,0,
10,0.770165,0.60302,0.0221081,-0.00373123,0,
10,0.79346,0.620422,0.0218827,-0.00337376,0,
10,0.816699,0.636884,0.0216443,-0.00302935,0,
10,0.839903,0.652427,0.0213911,-0.00270218,0,
10,0.863088,0.667038,0.0211212,-0.00239696,0,
10,0.886275,0.680673,0.0208342,-0.00211812,0,
10,0.909481,0.693282,0.0205314,-0.00186891,0,
10,0.932723,0.704846,0.0202149,-0.00165097,0,
10,0.956021,0.715384,0.0198866,-0.00146417,0,
10,0.97939,0.724952,0.0195481,-0.00130693,0,
10,1.00285,0.733634,0.0192005,-0.00117668,0,
10,1.02641,0.741534,0.0188451,-0.00107015,0,
10,1.0501,0.748763,0.0184824,-0.000983831,0,
10,1.07392,0.755438,0.0181131,-0.000914174,0,
10,1.0979,0.761667,0.0177376,-0.000857915,0,
10,1.12205,0.767552,0.0173561,-0.000812194,0,
10,1.14639,0.773177,0.0169689,-0.000774609,0,
10,1.17093,0.778614,0.016576,-0.000743156,0,
10,1.19568,0.783918,0.0161775,-0.000716178,0,
10,1.22066,0.789131,0.0157733,-0.000692432,0,
10,1.24589,0.794281,0.015363,-0.000671785,0,
10,1.27137,0.799387,0.0149467,-0.000653313,0,
10,1.29713,0.804463,0.0145243,-0.000636239,0,
10,1.32317,0.809526,0.0140959,-0.000620024,0,
10,1.34951,0.814583,0.0136611,-0.000604301,0,
10,1.37616,0.819639,0.0132198,-0.000588821,0,
10,1.40313,0.824695,0.0127718,-0.000573412,0,
10,1.43043,0.829752,0.0123169,-0.000557965,0,
10,1.45807,0.834806,0.0118549,-0.000542413,0,
10,1.48607,0.839855,0.0113857,-0.000526722,0,
10,1.51444,0.844894,0.0109092,-0.000510875,0,
10,1.54318,0.849916,0.0104253,-0.000494865,0,
10,1.57231,0.854915,0.00993374,-0.000478689,0,
10,1.60184,0.859882,0.00943456,-0.000462341,0,
10,1.63178,0.86481,0.00892764,-0.000445829,0,
10,1.66213,0.869686,0.008413,-0.000429272,0,
10,1.69292,0.874498,0.00789063,-0.00041267,0,
10,1.72416,0.879233,0.00736053,-0.00039601,0,
10,1.75585,0.883877,0.00682258,-0.000379287,0,
10,1.78802,0.888416,0.00627726,-0.000362517,0,
10,1.82067,0.892838,0.00572394,-0.000345561,0,
10,1.85383,0.897137,0.00516909,-0.00032442,0,
10,1.88751,0.90131,0.00461217,-0.000296211,0,
10,1.92173,0.905332,0.00404675,-0.000267832,0,
10,1.95652,0.909173,0.00347213,-0.000239906,0,
10,1.9919,0.912816,0.00288948,-0.000213118,0,
10,2.02791,0.916248,0.00229711,-0.00018773,0,
10,2.06456,0.919458,0.00169748,-0.00016369,0,
10,2.10268,0.922493,0.001074,-0.000140465,0,
10,2.1443,0.925448,0.000398938,-0.000118258,0,
10,2.18977,0.928278,-0.000335013,-9.6963e-05,0,
10,2.23946,0.930904,-0.00112921,-7.67221e-05,0,
10,2.29376,0.933247,-0.00198906,-5.8194e-05,0,
10,2.35309,0.935232,-0.00291612,-4.18836e-05,0,
10,2.4179,0.936792,-0.00391378,-2.82069e-05,0,
10,2.48863,0.937883,-0.00498265,-1.74571e-05,0,
10,2.56575,0.938496,-0.00612377,-9.72664e-06,0,
10,2.64971,0.938675,-0.00733595,-4.83977e-06,0,
10,2.74098,0.938519,-0.0086177,-2.32498e-06,0,
10,2.83997,0.938184,-0.00996571,-1.45392e-06,0,
10,2.94709,0.937861,-0.0113761,-1.37411e-06,0,
10,3.06269,0.937738,-0.0128435,-1.35829e-06,0,
10,3.18706,0.93795,-0.0143618,-1.07879e-06,0,
10,3.3204,0.938535,-0.0159235,-6.4539e-07,0,
10,3.46281,0.939422,-0.0175199,-2.98178e-07,0,
10,3.61427,0.940467,-0.0191406,-1.20558e-07,0,
10,3.77463,0.941519,-0.0207739,-5.60795e-08,0,
10,3.94358,0.942479,-0.0224063,-3.65873e-08,0,
10,4.12067,0.943317,-0.0240242,-2.96552e-08,0,
10,4.30525,0.944062,-0.0256139,-2.61353e-08,0,
10,4.49655,0.944761,-0.0271622,-2.42533e-08,0,
10,4.6936,0.945445,-0.0286574,-2.37152e-08,0,
10,4.89531,0.946123,-0.0300889,-2.49113e-08,0,
10,5.10047,0.946782,-0.0314478,-2.93603e-08,0,
10,5.30776,0.947403,-0.0327271,-4.05487e-08,0,
10,5.51581,0.94797,-0.0339219,-6.5625e-08,0,
10,5.72323,0.948478,-0.0350287,-1.19789e-07,0,
10,5.92863,0.948951,-0.0360464,-2.4032e-07,0,
10,6.13069,0.949453,-0.036975,-5.27163e-07,0,
10,6.32816,0.950081,-0.0378169,-1.19411e-06,0,
10,6.51991,0.950869,-0.0385745,-2.33362e-06,0,
10,6.70495,0.951597,-0.0392535,-2.48989e-06,0,
10,6.88244,0.951574,-0.0398566,4.24516e-06,0,
10,7.0517,0.949629,-0.0403912,2.95111e-05,0,
10,7.21224,0.944474,-0.0408557,8.69488e-05,0,
10,7.3637,0.935257,-0.0412597,0.000187328,0,
10,7.5059,0.921722,-0.0416155,0.000292975,0,
10,7.63878,0.904202,-0.0419117,0.000409756,0,
10,7.76243,0.884034,-0.0421598,0.000538414,0,
10,7.87701,0.863088,-0.0423589,0.000668369,0,
10,7.9828,0.842878,-0.042523,0.000786825,0,
10,8.08014,0.824116,-0.0426537,0.000885921,0,
10,8.16941,0.806844,-0.0427632,0.00096712,0,
10,8.25106,0.790796,-0.042854,0.0010343,0,
10,8.32554,0.775653,-0.0429326,0.00109099,0,
10,8.39331,0.761147,-0.0429998,0.00113955,0,
10,8.45484,0.747096,-0.0430584,0.00118141,0,
10,8.5106,0.733389,-0.0431089,0.00121738,0,
10,8.56104,0.719973,-0.0431529,0.00124792,0,
10,8.60659,0.70683,-0.0431913,0.00127345,0,
10,8.64767,0.693948,-0.0432248,0.00129435,0,
10,8.68467,0.681279,-0.0432536,0.00130572,0,
10,8.71795,0.668772,-0.0432787,0.00131483,0,
10,8.74786,0.656412,-0.0433008,0.00132034,0,
10,8.77471,0.644195,-0.0433201,0.00132229,0,
10,8.79881,0.632114,-0.043337,0.00132094,0,
10,8.8204,0.620165,-0.0433516,0.00131661,0,
10,8.83975,0.608339,-0.0433644,0.00130967,0,
10,8.85708,0.596628,-0.0433755,0.00130048,0,
10,8.87259,0.585017,-0.0433852,0.00128939,0,
10,8.88646,0.573491,-0.0433935,0.00127675,0,
10,8.89886,0.56203,-0.0434006,0.00126286,0,
10,8.90995,0.55061,-0.0434068,0.00124798,0,
10,8.91986,0.539205,-0.043412,0.00123232,0,
10,8.92872,0.527786,-0.0434165,0.00121602,0,
10,8.93663,0.51632,-0.0434203,0.0011992,0,
10,8.94369,0.504771,-0.0434235,0.00118189,0,
10,8.95,0.493099,-0.0434262,0.00116407,0,
10,8.95564,0.48126,-0.0434286,0.00114565,0,
10,8.96067,0.469206,-0.0434304,0.0011265,0,
10,8.96517,0.456883,-0.0434321,0.0011064,0,
10,8.96918,0.44423,-0.0434334,0.00108503,0,
10,8.97276,0.431178,-0.0434346,0.00106197,0,
10,8.97596,0.417648,-0.0434355,0.00103666,0,
10,8.97882,0.403546,-0.0434364,0.0010084,0,
10,8.98137,0.388765,-0.0434369,0.000976243,0,
10,8.98365,0.373178,-0.0434376,0.000938993,0,
10,8.98569,0.356633,-0.0434378,0.000895103,0,
10,8.9875,0.338951,-0.0434384,0.000843119,0,
10,8.98913,0.319898,-0.0434384,0.000776725,0,
10,8.99058,0.299228,-0.043439,0.000698257,0,
10,8.99188,0.27677,-0.0434388,0.000605416,0,
10,8.99304,0.252354,-0.0434393,0.00049098,0,
10,8.99408,0.22592,-0.043439,0.000362163,0,
10,8.99501,0.197813,-0.0434396,0.000232416,0,
10,8.99583,0.168921,-0.0434391,0.000124152,0,
10,8.99658,0.14053,-0.0434397,5.3659e-05,0,
10,8.99724,0.1138,-0.0434391,1.85949e-05,0,
10,8.99784,0.0893603,-0.0434398,5.1185e-06,0,
10,8.99837,0.0673406,-0.0434391,1.07418e-06,0,
10,8.99885,0.0476099,-0.0434399,1.53891e-07,0,
10,8.99927,0.029954,-0.0434391,1.16818e-08,0,
10,8.99966,0.0141535,-0.04344,2.58416e-10,0,
10,0,0,0.0266497,0,0,
10,9,0,-0.043439,0,0,

0.004,0,0,-0.211291,0,3.89564e-08,
0.00868226,0,0,-0.211293,0,-3.13259e-07,
0.014062,0,0,-0.211291,0,-7.29301e-07,
0.0201548,0,0,-0.211293,0,-1.17691e-06,
0.0269766,0,0,-0.211288,0,-1.24242e-06,
0.0345437,0,0,-0.211287,0,-5.37971e-07,
0.0428729,0,0,-0.21128,0,1.22532e-06,
0.051981,0,0,-0.211279,0,4.37147e-06,
0.0618853,0,0,-0.211274,0,8.85685e-06,
0.0726036,0,0,-0.211277,0,1.45231e-05,
0.0841536,0,0,-0.211283,0,2.08432e-05,
0.0965535,0,0,-0.211298,0,2.73346e-05,
0.109822,0,0,-0.211318,0,3.34942e-05,
0.123977,0,0,-0.211346,0,3.90757e-05,
0.139037,0,0,-0.211379,0,4.39546e-05,
0.155022,0,0,-0.211419,0,4.81674e-05,
0.171949,0,0,-0.211465,0,5.17483e-05,
0.189839,0,0,-0.211518,0,5.47099e-05,
0.208709,0,0,-0.211579,0,5.69726e-05,
0.228579,0,0,-0.211649,0,5.84012e-05,
0.249467,0,0,-0.211728,0,5.8823e-05,
0.271391,0,0,-0.211815,0,5.80771e-05,
0.29437,0,0,-0.211911,0,5.6037e-05,
0.31842,0,0,-0.212016,0,5.2637e-05,
0.343559,0,0,-0.212128,0,4.78779e-05,
0.369804,0,0,-0.212247,0,4.18297e-05,
0.39717,0,0,-0.21237,0,3.46157e-05,
0.425672,0,0,-0.212498,0,2.63948e-05,
0.455324,0,0,-0.21263,0,1.73369e-05,
0.48614,0,0,-0.212764,0,7.60673e-06,
0.518132,0,0,-0.212899,0,-2.65355e-06,
0.551309,0,0,-0.213036,0,-1.33308e-05,
0.585683,0,0,-0.213175,0,-2.43529e-05,
0.621259,0,0,-0.213316,0,-3.56811e-05,
0.658046,0,0,-0.213458,0,-4.732e-05,
0.696047,0,0,-0.213603,0,-5.93047e-05,
0.735265,0,0,-0.213752,0,-7.17125e-05,
0.7757,0,0,-0.213905,0,-8.46342e-05,
0.817352,0,0,-0.214063,0,-9.8202e-05,
0.860215,0,0,-0.214227,0,-0.000112575,
0.904285,0,0,-0.214397,0,-0.000127926,
0.949552,0,0,-0.214574,0,-0.00014446,
0.996004,0,0,-0.214758,0,-0.000162408,
1.04363,0,0,-0.214951,0,-0.000181952,
1.09241,0,0,-0.21515,0,-0.000203342,
1.14232,0,0,-0.215354,0,-0.000226729,
1.19335,0,0,-0.215564,0,-0.000252148,
1.24546,0,0,-0.215779,0,-0.000279519,
1.29863,0,0,-0.215995,0,-0.000308404,
1.35283,0,0,-0.216206,0,-0.000338308,
1.40802,0,0,-0.216411,0,-0.000368513,
1.46416,0,0,-0.216601,0,-0.00039884,
1.52121,0,0,-0.216769,0,-0.000428864,
1.57913,0,0,-0.216898,0,-0.000458407,
1.63787,0,0,-0.216978,0,-0.000487453,
1.69739,0,0,-0.216995,0,-0.000513689,
1.75761,0,0,-0.216926,0,-0.000535513,
1.81851,0,0,-0.216784,0,-0.000549293,
1.88,0,0,-0.216558,0,-0.000550788,
1.94204,0,0,-0.216344,0,-0.000538027,
2.00457,0,0,-0.216265,0,-0.000513386,
2.06751,0,0,-0.216305,0,-0.000484446,
2.13081,0,0,-0.216428,0,-0.000455562,
2.19439,0,0,-0.216611,0,-0.000427118,
2.25819,0,0,-0.216932,0,-0.000397861,
2.32214,0,0,-0.21754,0,-0.000369583,
2.38617,0,0,-0.218561,0,-0.000349592,
2.4502,0,0,-0.219963,0,-0.000345696,
2.51418,0,0,-0.221646,0,-0.000360958,
2.57803,0,0,-0.22354,0,-0.000394068,
2.64167,0,0,-0.225565,0,-0.000442132,
2.70505,0,0,-0.227657,0,-0.000502062,
2.76808,0,0,-0.229751,0,-0.000571454,
2.83072,0,0,-0.231791,0,-0.000648728,
2.89288,0,0,-0.233716,0,-0.000732876,
2.95451,0,0,-0.235462,0,-0.000823068,
3.01555,0,0,-0.236955,0,-0.00091818,
3.07594,0,0,-0.238114,0,-0.00101632,
3.13561,0,0,-0.238858,0,-0.00111459,
3.19453,0,0,-0.239128,0,-0.00120937,
3.25262,0,0,-0.238891,0,-0.00129694,
3.30985,0,0,-0.238151,0,-0.00137427,
3.36617,0,0,-0.236944,0,-0.00143935,
3.42154,0,0,-0.235329,0,-0.00149146,
3.47591,0,0,-0.233379,0,-0.00153105,
3.52925,0,0,-0.231173,0,-0.00155938,
3.58152,0,0,-0.228785,0,-0.00157821,
3.6327,0,0,-0.226277,0,-0.00158951,
3.68276,0,0,-0.223703,0,-0.00159512,
3.73167,0,0,-0.2211,0,-0.00159666,
3.77941,0,0,-0.218498,0,-0.00159535,
3.82596,0,0,-0.215917,0,-0.00159215,
3.8713,0,0,-0.21337,0,-0.00158769,
3.91543,0,0,-0.210865,0,-0.00158234,
3.95833,0,0,-0.208422,0,-0.00157659,
4,0,0,-0.206019,0,-0.00157046,
4.04167,0,0,-0.203607,0,-0.00156373,
4.08333,0,0,-0.201184,0,-0.00155661,
4.125,0,0,-0.198749,0,-0.00154909,
4.16667,0,0,-0.196304,0,-0.00154119,
4.20833,0,0,-0.19385,0,-0.00153289,
4.25,0,0,-0.191387,0,-0.00152421,
4.29167,0,0,-0.188916,0,-0.00151515,
4.33333,0,0,-0.186439,0,-0.00150572,
4.375,0,0,-0.183956,0,-0.00149593,
4.41667,0,0,-0.181468,0,-0.00148578,
4.45833,0,0,-0.178976,0,-0.0014753,
4.5,0,0,-0.17648,0,-0.00146449,
4.54167,0,0,-0.173983,0,-0.00145336,
4.58333,0,0,-0.171483,0,-0.00144189,
4.625,0,0,-0.168981,0,-0.00143013,
4.66667,0,0,-0.166479,0,-0.00141807,
4.70833,0,0,-0.163976,0,-0.0014057,
4.75,0,0,-0.161474,0,-0.00139299,
4.79167,0,0,-0.158972,0,-0.00138002,
4.83333,0,0,-0.156472,0,-0.00136676,
4.875,0,0,-0.153973,0,-0.00135319,
4.91667,0,0,-0.151475,0,-0.00133929,
4.95833,0,0,-0.148981,0,-0.00132513,
5,0,0,-0.146489,0,-0.00131066,
5.04167,0,0,-0.143999,0,-0.00129587,
5.08333,0,0,-0.141513,0,-0.00128073,
5.125,0,0,-0.139031,0,-0.0012653,
5.16667,0,0,-0.136553,0,-0.00124955,
5.20833,0,0,-0.134079,0,-0.00123347,
5.25,0,0,-0.13161,0,-0.00121705,
5.29167,0,0,-0.129146,0,-0.00120033,
5.33333,0,0,-0.126688,0,-0.00118326,
5.375,0,0,-0.124235,0,-0.00116587,
5.41667,0,0,-0.121788,0,-0.00114814,
5.45833,0,0,-0.119348,0,-0.00113007,
5.5,0,0,-0.116914,0,-0.00111162,
5.54167,0,0,-0.114488,0,-0.00109283,
5.58333,0,0,-0.11207,0,-0.00107371,
5.625,0,0,-0.109659,0,-0.00105423,
5.66667,0,0,-0.107256,0,-0.00103434,
5.70833,0,0,-0.104865,0,-0.00101414,
5.75,0,0,-0.102484,0,-0.000993632,
5.79167,0,0,-0.100108,0,-0.000972758,
5.83333,0,0,-0.0977439,0,-0.000951502,
5.875,0,0,-0.0953941,0,-0.000929935,
5.91667,0,0,-0.0930558,0,-0.000908089,
5.95833,0,0,-0.0907238,0,-0.000885861,
6,0,0,-0.0884061,0,-0.000863276,
6.04167,0,0,-0.0861048,0,-0.000840386,
6.08333,0,0,-0.0838163,0,-0.000817225,
6.125,0,0,-0.0815358,0,-0.000793691,
6.16667,0,0,-0.0792731,0,-0.00076986,
6.20833,0,0,-0.0770278,0,-0.000745747,
6.25,0,0,-0.0747958,0,-0.000721375,
6.29167,0,0,-0.0725751,0,-0.000696643,
6.33333,0,0,-0.0703756,0,-0.000671668,
6.375,0,0,-0.0681929,0,-0.000646396,
6.41667,0,0,-0.0660245,0,-0.000620851,
6.45833,0,0,-0.0638724,0,-0.000594967,
6.5,0,0,-0.0617443,0,-0.000568899,
6.54167,0,0,-0.0596328,0,-0.000542542,
6.58333,0,0,-0.0575375,0,-0.000515935,
6.625,0,0,-0.0554642,0,-0.000489041,
6.66667,0,0,-0.0534159,0,-0.000462001,
6.70833,0,0,-0.0513846,0,-0.00043465,
6.75,0,0,-0.049373,0,-0.000407062,
6.79167,0,0,-0.0473888,0,-0.000379245,
6.83333,0,0,-0.0454294,0,-0.000351311,
6.875,0,0,-0.0434896,0,-0.000323102,
6.91667,0,0,-0.0415743,0,-0.000294728,
6.95833,0,0,-0.0396897,0,-0.000266196,
7,0,0,-0.0378278,0,-0.000237544,
7.04167,0,0,-0.0359898,0,-0.000208642,
7.08333,0,0,-0.0341814,0,-0.000179627,
7.125,0,0,-0.0324057,0,-0.000150517,
7.16667,0,0,-0.0306511,0,-0.000121299,
7.20833,0,0,-0.0289259,0,-9.19336e-05,
7.25,0,0,-0.0272346,0,-6.2532e-05,
7.29167,0,0,-0.025575,0,-3.30704e-05,
7.33333,0,0,-0.0239355,0,-3.46891e-06,
7.375,0,0,-0.0223317,0,2.61614e-05,
7.41667,0,0,-0.0207634,0,5.57507e-05,
7.45833,0,0,-0.0192259,0,8.53397e-05,
7.5,0,0,-0.01771,0,0.00011503,
7.54167,0,0,-0.016234,0,0.000144594,
7.58333,0,0,-0.014792,0,0.000174083,
7.625,0,0,-0.013379,0,0.000203582,
7.66667,0,0,-0.0119899,0,0.000233182,
7.70833,0,0,-0.0106441,0,0.000262535,
7.75,0,0,-0.00932928,0,0.000291764,
7.79167,0,0,-0.00804191,0,0.000320943,
7.83333,0,0,-0.00678221,0,0.000350173,
7.875,0,0,-0.00556489,0,0.000379085,
7.91667,0,0,-0.00436939,0,0.000408157,
7.95833,0,0,-0.00322979,0,0.000436666,
8,0,0,-0.0020709,0,0.00046515,
8.04171,0,0,-0.000926513,0,0.000494212,
8.08368,0,0,0.000127888,0,0.000523366,
8.12617,0,0,0.00120032,0,0.000551689,
8.16946,0,0,0.00225448,0,0.000580466,
8.21382,0,0,0.00329365,0,0.000609416,
8.25952,0,0,0.00434029,0,0.000639018,
8.30685,0,0,0.00539077,0,0.000669368,
8.35611,0,0,0.00644393,0,0.000700683,
8.40762,0,0,0.00750493,0,0.000732912,
8.46168,0,0,0.0085863,0,0.000766509,
8.51865,0,0,0.00967959,0,0.000801377,
8.57889,0,0,0.0107765,0,0.000837679,
8.64276,0,0,0.0119011,0,0.000875516,
8.71067,0,0,0.013043,0,0.000915157,
8.78306,0,0,0.0141972,0,0.000956524,
8.86037,0,0,0.0153514,0,0.000999765,
8.94309,0,0,0.0165484,0,0.00104509,
9.03174,0,0,0.0177467,0,0.00109211,
9.12689,0,0,0.0189419,0,0.00114153,
9.22912,0,0,0.020159,0,0.00119335,
9.33908,0,0,0.021348,0,0.00124695,
9.45746,0,0,0.022543,0,0.0013034,
9.58501,0,0,0.0236886,0,0.00136228,
9.72253,0,0,0.024808,0,0.0014235,
9.87088,0,0,0.0258429,0,0.00148516,
10.031,0,0,0.0268434,0,0.00154938,
10.2039,0,0,0.0277339,0,0.00161504,
10.3906,0,0,0.0284485,0,0.00168147,
10.5924,0,0,0.0289988,0,0.00174748,
10.8105,0,0,0.0293524,0,0.00181241,
11.0463,0,0,0.0294837,0,0.00187534,
11.3012,0,0,0.0293594,0,0.00193525,
11.5769,0,0,0.0290327,0,0.00199314,
11.8751,0,0,0.0284103,0,0.00204494,
12.1977,0,0,0.0276269,0,0.00209176,
12.5466,0,0,0.0267664,0,0.00213398,
12.9242,0,0,0.0257979,0,0.00217215,
13.3327,0,0,0.0248004,0,0.00220689,
13.7748,0,0,0.0237629,0,0.00223775,
14.2532,0,0,0.0225707,0,0.00226466,
14.7709,0,0,0.0212495,0,0.00228635,
15.3312,0,0,0.0198525,0,0.00230335,
15.9377,0,0,0.0184411,0,0.00231617,
16.594,0,0,0.0171391,0,0.00232515,
17.3044,0,0,0.0159277,0,0.00233166,
18.0733,0,0,0.0147254,0,0.00233535,
18.9056,0,0,0.0135566,0,0.00233681,
19.8064,0,0,0.0124933,0,0.00233694,
20.7816,0,0,0.0115516,0,0.00233567,
21.8371,0,0,0.0107222,0,0.00233393,
22.9796,0,0,0.00998807,0,0.00233192,
24.2163,0,0,0.00934527,0,0.00233033,
25.5551,0,0,0.0087784,0,0.00232925,
27.0042,0,0,0.00826825,0,0.00232827,
28.5729,0,0,0.00775549,0,0.00232745,
30.271,0,0,0.00716259,0,0.00232621,
32.1091,0,0,0.0064698,0,0.00232546,
34.0989,0,0,0.00570392,0,0.00232636,
36.2529,0,0,0.00492449,0,0.00232941,
38.5845,0,0,0.00417144,0,0.00233486,
41.1085,0,0,0.00340552,0,0.00234124,
43.8407,0,0,0.00237609,0,0.00234495,
46.7983,0,0,0.00123039,0,0.00234392,
50,0,0,0.00209413,0,0.00235341,

