b5a1c34098dd46c0e3d639ccbd69466520e1e993 
X,Z,x_velocity,cp,uw_b,cf,
1,0,0,-0.237821,0,0,
1,9,0,-0.126504,0,0,
1,8.99969,0.0158128,-0.126504,3.329e-10,0,
1,8.99934,0.0337529,-0.126504,1.55606e-08,0,
1,8.99894,0.0541248,-0.126504,2.14623e-07,0,
1,8.99848,0.0772494,-0.126504,1.57248e-06,0,
1,8.99797,0.10344,-0.126504,7.84497e-06,0,
1,8.99739,0.13287,-0.126504,2.95573e-05,0,
1,8.99672,0.165263,-0.126504,8.67916e-05,0,
1,8.99597,0.199515,-0.126504,0.000199198,0,
1,8.99512,0.233783,-0.126504,0.000362233,0,
1,8.99416,0.266266,-0.126504,0.000547682,0,
1,8.99306,0.296219,-0.126503,0.000705281,0,
1,8.99182,0.323752,-0.126503,0.000829419,0,
1,8.99041,0.349077,-0.126503,0.000932659,0,
1,8.98881,0.372386,-0.126502,0.00101719,0,
1,8.98699,0.393923,-0.126501,0.0010861,0,
1,8.98494,0.41399,-0.126501,0.00113929,0,
1,8.98261,0.432885,-0.1265,0.00118102,0,
1,8.97996,0.450821,-0.126499,0.00121631,0,
1,8.97696,0.467952,-0.126498,0.00124585,0,
1,8.97356,0.484405,-0.126496,0.00127082,0,
1,8.9697,0.500289,-0.126495,0.00129211,0,
1,8.96533,0.515695,-0.126493,0.00131038,0,
1,8.96038,0.530697,-0.126491,0.00132614,0,
1,8.95476,0.545362,-0.126489,0.00133972,0,
1,8.9484,0.559744,-0.126486,0.00135138,0,
1,8.9412,0.573891,-0.126483,0.00136129,0,
1,8.93303,0.587843,-0.12648,0.00136954,0,
1,8.92379,0.601634,-0.126477,0.00137618,0,
1,8.91333,0.615293,-0.126473,0.00138122,0,
1,8.90149,0.628846,-0.12647,0.00138462,0,
1,8.8881,0.642314,-0.126466,0.00138632,0,
1,8.87295,0.655716,-0.126463,0.00138623,0,
1,8.85584,0.669067,-0.12646,0.00138423,0,
1,8.83651,0.682381,-0.126457,0.00138018,0,
1,8.81469,0.69567,-0.126456,0.00137389,0,
1,8.79007,0.708944,-0.126456,0.00136513,0,
1,8.76232,0.722215,-0.126458,0.00135361,0,
1,8.73107,0.735491,-0.126463,0.00133903,0,
1,8.69591,0.748784,-0.126472,0.00132181,0,
1,8.6564,0.762121,-0.126487,0.0012993,0,
1,8.61206,0.775546,-0.12651,0.00127275,0,
1,8.56236,0.789101,-0.126543,0.00124249,0,
1,8.50675,0.802844,-0.126589,0.00120795,0,
1,8.44464,0.816872,-0.12665,0.00116816,0,
1,8.3754,0.831345,-0.126734,0.00112128,0,
1,8.29839,0.846505,-0.126844,0.00106394,0,
1,8.21296,0.86268,-0.126989,0.000991061,0,
1,8.11843,0.880217,-0.127174,0.000897436,0,
1,8.01417,0.899339,-0.12741,0.000777265,0,
1,7.89956,0.919899,-0.127706,0.000628375,0,
1,7.77403,0.941042,-0.128069,0.000463462,0,
1,7.63711,0.961087,-0.128532,0.000304272,0,
1,7.48842,0.977896,-0.129077,0.000135023,0,
1,7.32773,0.989239,-0.129721,4.05062e-05,0,
1,7.15495,0.994493,-0.130486,6.07457e-06,0,
1,6.97022,0.995505,-0.131371,2.66501e-07,0,
1,6.77388,0.994979,-0.132394,4.27754e-09,0,
1,6.56652,0.994658,-0.133572,1.06545e-08,0,
1,6.34896,0.99497,-0.134922,1.29571e-08,0,
1,6.12229,0.99568,-0.136457,1.50153e-08,0,
1,5.88784,0.996524,-0.138195,1.61865e-08,0,
1,5.64716,0.997412,-0.14015,1.72523e-08,0,
1,5.40194,0.998363,-0.142336,1.87242e-08,0,
1,5.15407,0.999408,-0.144763,2.06008e-08,0,
1,4.90545,1.00057,-0.147437,2.27736e-08,0,
1,4.65805,1.00185,-0.150359,2.51657e-08,0,
1,4.41376,1.00324,-0.153525,2.76214e-08,0,
1,4.17441,1.00471,-0.156926,2.98681e-08,0,
1,3.94163,1.00621,-0.160542,3.19384e-08,0,
1,3.7169,1.0077,-0.164349,3.50885e-08,0,
1,3.50146,1.00937,-0.168313,4.20794e-08,0,
1,3.29629,1.01156,-0.172401,5.47468e-08,0,
1,3.10217,1.01455,-0.176582,6.9035e-08,0,
1,2.91959,1.01773,-0.180818,2.73718e-07,0,
1,2.74885,1.01918,-0.18505,1.14676e-06,0,
1,2.59002,1.01648,-0.189199,-1.32768e-05,0,
1,2.44299,1.00847,-0.193177,-6.67465e-05,0,
1,2.30752,0.995908,-0.196906,-0.000159644,0,
1,2.18321,0.980559,-0.200333,-0.000273387,0,
1,2.06959,0.964137,-0.203438,-0.000386132,0,
1,1.9661,0.947855,-0.206221,-0.000483543,0,
1,1.87215,0.932402,-0.208693,-0.000560925,0,
1,1.78711,0.918071,-0.210874,-0.000620389,0,
1,1.71033,0.90488,-0.212785,-0.000667247,0,
1,1.64119,0.892682,-0.21445,-0.000707441,0,
1,1.57905,0.881258,-0.215893,-0.000742178,0,
1,1.52332,0.870412,-0.217138,-0.000773894,0,
1,1.47342,0.860018,-0.218208,-0.000803889,0,
1,1.42882,0.850011,-0.219124,-0.000831617,0,
1,1.389,0.840357,-0.219907,-0.000856661,0,
1,1.35351,0.83104,-0.220576,-0.000878965,0,
1,1.3219,0.822056,-0.221146,-0.000898643,0,
1,1.29378,0.813406,-0.221633,-0.00091585,0,
1,1.26878,0.805095,-0.222048,-0.000930684,0,
1,1.24659,0.797129,-0.222402,-0.000943503,0,
1,1.22689,0.789509,-0.222705,-0.000954198,0,
1,1.2092,0.782156,-0.222968,-0.000961767,0,
1,1.1932,0.775019,-0.223195,-0.000967344,0,
1,1.1787,0.768072,-0.223393,-0.000973356,0,
1,1.16554,0.761258,-0.223563,-0.000985249,0,
1,1.15357,0.754462,-0.22371,-0.00101359,0,
1,1.14266,0.747478,-0.223837,-0.00107576,0,
1,1.13268,0.739975,-0.223953,-0.00119684,0,
1,1.12354,0.731495,-0.224067,-0.00140747,0,
1,1.11514,0.721532,-0.22419,-0.0017374,0,
1,1.10739,0.709727,-0.224331,-0.00220451,0,
1,1.10022,0.696095,-0.224494,-0.00280198,0,
1,1.09357,0.681055,-0.224678,-0.00349446,0,
1,1.08738,0.665226,-0.224878,-0.00423131,0,
1,1.0816,0.649198,-0.22509,-0.00496614,0,
1,1.07618,0.633411,-0.22531,-0.00566726,0,
1,1.07107,0.618142,-0.225534,-0.00631765,0,
1,1.06626,0.603538,-0.22576,-0.00691076,0,
1,1.06169,0.589665,-0.225986,-0.0074461,0,
1,1.05735,0.576531,-0.226211,-0.00792651,0,
1,1.05321,0.564115,-0.226434,-0.00835629,0,
1,1.04925,0.55238,-0.226654,-0.00874018,0,
1,1.04544,0.541279,-0.226872,-0.00908291,0,
1,1.04177,0.530766,-0.227087,-0.00938887,0,
1,1.03822,0.520792,-0.227299,-0.00966262,0,
1,1.03478,0.511312,-0.227509,-0.00990826,0,
1,1.03144,0.502278,-0.227715,-0.0101272,0,
1,1.02818,0.493644,-0.227918,-0.0103223,0,
1,1.025,0.485365,-0.228118,-0.0104964,0,
1,1.02188,0.477402,-0.228315,-0.0106523,0,
1,1.01882,0.46972,-0.228509,-0.010792,0,
1,1.01581,0.462291,-0.228701,-0.010917,0,
1,1.01284,0.455088,-0.228891,-0.0110278,0,
1,1.00988,0.448011,-0.229081,-0.0111272,0,
1,1.00688,0.440968,-0.229275,-0.0112179,0,
1,1.00384,0.433945,-0.229471,-0.0112994,0,
1,1.00076,0.426927,-0.22967,-0.0113716,0,
1,0.997615,0.419899,-0.229874,-0.0114347,0,
1,0.99441,0.412845,-0.230082,-0.0114886,0,
1,0.991131,0.405748,-0.230294,-0.0115333,0,
1,0.987768,0.398592,-0.230513,-0.0115686,0,
1,0.984308,0.391358,-0.230737,-0.0115943,0,
1,0.980739,0.384026,-0.230968,-0.0116099,0,
1,0.977045,0.376577,-0.231206,-0.0116151,0,
1,0.973211,0.368989,-0.231453,-0.0116091,0,
1,0.969219,0.361239,-0.231708,-0.0115911,0,
1,0.965047,0.353302,-0.231972,-0.0115602,0,
1,0.960675,0.345155,-0.232246,-0.0115152,0,
1,0.956077,0.33677,-0.232531,-0.0114546,0,
1,0.951224,0.32812,-0.232827,-0.0113768,0,
1,0.946088,0.319177,-0.233132,-0.0112798,0,
1,0.940633,0.309911,-0.23345,-0.0111613,0,
1,0.934823,0.300291,-0.233776,-0.0110201,0,
1,0.928616,0.290281,-0.234094,-0.0108492,0,
1,0.921967,0.279841,-0.234334,-0.0106846,0,
1,0.914826,0.268833,-0.234417,-0.0103964,0,
1,0.907141,0.257063,-0.234365,-0.0100735,0,
1,0.898852,0.244386,-0.234262,-0.009726,0,
1,0.889898,0.230675,-0.234188,-0.00935252,0,
1,0.880212,0.215823,-0.234169,-0.00894799,0,
1,0.869723,0.199775,-0.234192,-0.00849897,0,
1,0.858358,0.182574,-0.234272,-0.00800431,0,
1,0.846039,0.164458,-0.234424,-0.0074864,0,
1,0.83269,0.145856,-0.234638,-0.00695563,0,
1,0.818232,0.127263,-0.234884,-0.00642444,0,
1,0.802744,0.10928,-0.23514,-0.00591435,0,
1,0.78635,0.0923599,-0.235422,-0.00544028,0,
1,0.768969,0.0765544,-0.235739,-0.00501035,0,
1,0.75053,0.0618131,-0.236088,-0.00463049,0,
1,0.730977,0.0480284,-0.236496,-0.00429919,0,
1,0.710271,0.0350294,-0.236959,-0.0039649,0,
1,0.688397,0.0227202,-0.23741,-0.00368567,0,
1,0.66536,0.0111143,-0.237803,-0.00346586,0,
1,0.641194,0.000238551,-0.238087,-0.00329846,0,
1,0.615961,-0.00987596,-0.238239,-0.00317625,0,
1,0.589754,-0.0191823,-0.238246,-0.00309015,0,
1,0.562692,-0.0276262,-0.238102,-0.00303381,0,
1,0.534925,-0.0351679,-0.237788,-0.00300814,0,
1,0.506624,-0.0418125,-0.237279,-0.00302109,0,
1,0.477982,-0.0476323,-0.236588,-0.00306233,0,
1,0.449206,-0.0527488,-0.23575,-0.00310507,0,
1,0.420509,-0.0573047,-0.234778,-0.00311901,0,
1,0.392107,-0.0615013,-0.233686,-0.00301446,0,
1,0.364206,-0.0655981,-0.232521,-0.00280161,0,
1,0.337003,-0.0697621,-0.231391,-0.00254828,0,
1,0.310673,-0.0737416,-0.230245,-0.00234131,0,
1,0.28537,-0.0769666,-0.229265,-0.00223557,0,
1,0.26122,-0.0793702,-0.228941,-0.00203408,0,
1,0.238324,-0.0814573,-0.229461,-0.0018008,0,
1,0.21675,-0.0834365,-0.230282,-0.00165779,0,
1,0.196544,-0.0853231,-0.230995,-0.00152222,0,
1,0.177724,-0.0871166,-0.231724,-0.00137804,0,
1,0.160284,-0.0888174,-0.232461,-0.00123213,0,
1,0.144202,-0.0904277,-0.233165,-0.00108976,0,
1,0.129436,-0.0919479,-0.233823,-0.00095347,0,
1,0.115935,-0.0933768,-0.234421,-0.000824537,0,
1,0.103636,-0.0947105,-0.234954,-0.000703631,0,
1,0.0924701,-0.0959432,-0.23542,-0.000591087,0,
1,0.0823633,-0.0970674,-0.235824,-0.000487036,0,
1,0.0732406,-0.0980743,-0.23617,-0.000391475,0,
1,0.0650269,-0.0989538,-0.236465,-0.000304265,0,
1,0.057648,-0.0996949,-0.236714,-0.000225172,0,
1,0.0510323,-0.100286,-0.236923,-0.000153904,0,
1,0.0451115,-0.100713,-0.237098,-9.01314e-05,0,
1,0.0398209,-0.10096,-0.237243,-3.3498e-05,0,
1,0.0351001,-0.101011,-0.237364,1.63483e-05,0,
1,0.0308929,-0.100842,-0.237464,5.9724e-05,0,
1,0.0271475,-0.100424,-0.237546,9.68779e-05,0,
1,0.0238164,-0.0997206,-0.237612,0.000127957,0,
1,0.0208562,-0.0986799,-0.237666,0.000152943,0,
1,0.0182274,-0.0972312,-0.237709,0.000171552,0,
1,0.0158944,-0.0952752,-0.237742,0.0001831,0,
1,0.0138249,-0.0926743,-0.237768,0.000186345,0,
1,0.0119898,-0.0892437,-0.237787,0.000179426,0,
1,0.0103632,-0.0847603,-0.2378,0.000160419,0,
1,0.00892169,-0.0790199,-0.237808,0.000129264,0,
1,0.00764438,-0.0719764,-0.237813,9.06783e-05,0,
1,0.00651264,-0.0639026,-0.237816,5.40169e-05,0,
1,0.00550983,-0.0553759,-0.237817,2.72726e-05,0,
1,0.00462115,-0.0470095,-0.237818,1.18842e-05,0,
1,0.00383341,-0.0392068,-0.237819,4.56475e-06,0,
1,0.0031349,-0.032131,-0.237818,1.55851e-06,0,
1,0.00251518,-0.0257974,-0.237819,4.67559e-07,0,
1,0.00196502,-0.0201572,-0.237819,1.18975e-07,0,
1,0.00147619,-0.0151414,-0.23782,2.39708e-08,0,
1,0.00104139,-0.0106802,-0.237819,3.36011e-09,0,
1,0.000654158,-0.00670813,-0.23782,2.51951e-10,0,
1,0.000308731,-0.00316642,-0.237819,5.54232e-12,0,

4,0,0,-0.125248,0,0,
4,9,0,-0.094958,0,0,
4,8.99969,0.0145573,-0.0949576,2.49165e-10,0,
4,8.99934,0.0310153,-0.0949579,1.15599e-08,0,
4,8.99894,0.0496409,-0.0949576,1.57836e-07,0,
4,8.9985,0.0707158,-0.0949578,1.14521e-06,0,
4,8.99799,0.0945234,-0.0949576,5.67755e-06,0,
4,8.99742,0.121256,-0.0949577,2.14346e-05,0,
4,8.99677,0.150788,-0.0949575,6.39532e-05,0,
4,8.99605,0.182352,-0.0949576,0.000151456,0,
4,8.99522,0.214481,-0.0949573,0.000286565,0,
4,8.99429,0.245554,-0.0949573,0.000446885,0,
4,8.99324,0.274465,-0.0949569,0.000607002,0,
4,8.99205,0.301053,-0.0949567,0.000730976,0,
4,8.9907,0.325536,-0.0949562,0.000834431,0,
4,8.98919,0.348079,-0.0949557,0.00092098,0,
4,8.98747,0.368887,-0.094955,0.000992872,0,
4,8.98553,0.388248,-0.0949543,0.00104845,0,
4,8.98334,0.406439,-0.0949533,0.00109416,0,
4,8.98087,0.423661,-0.0949522,0.00113303,0,
4,8.97807,0.440072,-0.0949508,0.0011663,0,
4,8.97491,0.455804,-0.0949492,0.00119521,0,
4,8.97134,0.470969,-0.0949473,0.00122072,0,
4,8.96731,0.485662,-0.0949451,0.00124352,0,
4,8.96276,0.499965,-0.0949426,0.00126414,0,
4,8.95762,0.513947,-0.0949397,0.00128296,0,
4,8.95182,0.527669,-0.0949363,0.00130021,0,
4,8.94526,0.541183,-0.0949325,0.00131607,0,
4,8.93787,0.554533,-0.0949281,0.0013306,0,
4,8.92952,0.567759,-0.0949232,0.0013438,0,
4,8.92011,0.580894,-0.0949176,0.00135561,0,
4,8.90949,0.593966,-0.0949115,0.00136592,0,
4,8.89751,0.606998,-0.0949047,0.00137458,0,
4,8.88402,0.620009,-0.0948972,0.0013814,0,
4,8.86881,0.633013,-0.0948892,0.00138617,0,
4,8.85169,0.64602,-0.0948805,0.00138864,0,
4,8.83242,0.659038,-0.0948714,0.00138857,0,
4,8.81074,0.672071,-0.0948618,0.00138569,0,
4,8.78637,0.68512,-0.0948522,0.00137971,0,
4,8.75901,0.698185,-0.0948426,0.00137047,0,
4,8.7283,0.711267,-0.0948337,0.00135907,0,
4,8.69387,0.724396,-0.0948265,0.00134086,0,
4,8.65533,0.737606,-0.0948213,0.00131927,0,
4,8.61222,0.75091,-0.0948191,0.00129416,0,
4,8.56407,0.764322,-0.0948207,0.00126524,0,
4,8.5104,0.777868,-0.0948276,0.0012321,0,
4,8.45065,0.791607,-0.094842,0.00119405,0,
4,8.38429,0.805651,-0.0948668,0.00114982,0,
4,8.31073,0.820185,-0.0949054,0.00109715,0,
4,8.22941,0.835486,-0.094962,0.00103223,0,
4,8.13974,0.851902,-0.0950392,0.000950728,0,
4,8.04115,0.869783,-0.0951413,0.000847662,0,
4,7.93313,0.889298,-0.0952663,0.000719295,0,
4,7.81519,0.910108,-0.095421,0.000569011,0,
4,7.68693,0.930993,-0.0955965,0.000414823,0,
4,7.54803,0.949902,-0.0958146,0.0002741,0,
4,7.39831,0.964722,-0.0960569,0.000157139,0,
4,7.23771,0.974246,-0.0963529,5.78726e-05,0,
4,7.06634,0.97869,-0.0967114,1.31102e-05,0,
4,6.88453,0.979684,-0.0971121,9.77183e-07,0,
4,6.69275,0.979266,-0.0975605,-2.16118e-07,0,
4,6.49173,0.978789,-0.0980592,-2.17358e-08,0,
4,6.28238,0.978694,-0.0986173,2.7777e-08,0,
4,6.06579,0.978901,-0.0992411,1.85791e-08,0,
4,5.84328,0.979229,-0.0999358,1.09417e-08,0,
4,5.61626,0.979577,-0.100705,8.31657e-09,0,
4,5.3863,0.979922,-0.101551,7.83686e-09,0,
4,5.15502,0.98028,-0.102474,8.20809e-09,0,
4,4.92406,0.980667,-0.103476,8.99542e-09,0,
4,4.69507,0.981097,-0.104552,9.99054e-09,0,
4,4.46961,0.981569,-0.105701,1.09078e-08,0,
4,4.24915,0.98205,-0.106914,1.13199e-08,0,
4,4.03501,0.982472,-0.108185,1.1013e-08,0,
4,3.82836,0.982779,-0.109503,1.0777e-08,0,
4,3.63018,0.983033,-0.110856,1.31015e-08,0,
4,3.44125,0.983495,-0.112231,2.48399e-08,0,
4,3.26217,0.984544,-0.113613,1.73328e-07,0,
4,3.09333,0.986332,-0.114985,1.31039e-06,0,
4,2.93497,0.988412,-0.116332,3.75397e-06,0,
4,2.78715,0.989763,-0.117643,2.99088e-06,0,
4,2.64979,0.989262,-0.118905,-7.41767e-06,0,
4,2.52268,0.986178,-0.120099,-3.07384e-05,0,
4,2.40551,0.980378,-0.121209,-6.63961e-05,0,
4,2.29789,0.972247,-0.122225,-0.000111098,0,
4,2.19939,0.962448,-0.123139,-0.000160375,0,
4,2.10949,0.951694,-0.123952,-0.000209975,0,
4,2.02768,0.940609,-0.124667,-0.000256685,0,
4,1.95343,0.929658,-0.125291,-0.000298578,0,
4,1.88618,0.919156,-0.125833,-0.000334859,0,
4,1.82542,0.909285,-0.126302,-0.000365552,0,
4,1.77062,0.900132,-0.126704,-0.000391167,0,
4,1.72128,0.891721,-0.127051,-0.000412447,0,
4,1.67693,0.884035,-0.127347,-0.000430185,0,
4,1.63713,0.877037,-0.127602,-0.000445093,0,
4,1.60144,0.870681,-0.127819,-0.000457719,0,
4,1.56949,0.86492,-0.128006,-0.000468282,0,
4,1.54091,0.859708,-0.128166,-0.000477856,0,
4,1.51537,0.854983,-0.128303,-0.000486122,0,
4,1.49167,0.850547,-0.128426,-0.000492407,0,
4,1.46926,0.846302,-0.128537,-0.000497835,0,
4,1.44801,0.842223,-0.128639,-0.000502604,0,
4,1.42781,0.838293,-0.128732,-0.000506587,0,
4,1.40855,0.834492,-0.128818,-0.000509819,0,
4,1.39015,0.830806,-0.128896,-0.00051235,0,
4,1.37252,0.827221,-0.128968,-0.000514252,0,
4,1.3556,0.823724,-0.129035,-0.000515637,0,
4,1.3393,0.820302,-0.129096,-0.000516606,0,
4,1.32357,0.816942,-0.129153,-0.000517344,0,
4,1.30836,0.813629,-0.129205,-0.000518126,0,
4,1.29362,0.810348,-0.129254,-0.000519341,0,
4,1.2793,0.807082,-0.129299,-0.000521515,0,
4,1.26537,0.803808,-0.129341,-0.000525337,0,
4,1.25179,0.800503,-0.12938,-0.000531718,0,
4,1.23852,0.797133,-0.129416,-0.000541799,0,
4,1.22554,0.793663,-0.12945,-0.000556968,0,
4,1.21282,0.790044,-0.129481,-0.000578927,0,
4,1.20034,0.786219,-0.129509,-0.000609687,0,
4,1.18806,0.78212,-0.129534,-0.00065155,0,
4,1.17599,0.777669,-0.129556,-0.000707042,0,
4,1.16408,0.772776,-0.129576,-0.000778785,0,
4,1.15233,0.76735,-0.129592,-0.000869316,0,
4,1.14073,0.761301,-0.129606,-0.000980837,0,
4,1.12925,0.75455,-0.129616,-0.00111495,0,
4,1.11788,0.747041,-0.129623,-0.00127241,0,
4,1.10661,0.738742,-0.129628,-0.00145297,0,
4,1.09543,0.729655,-0.129631,-0.00165531,0,
4,1.08432,0.719811,-0.129632,-0.00187714,0,
4,1.07328,0.709265,-0.129632,-0.00211543,0,
4,1.0623,0.69809,-0.129632,-0.00236668,0,
4,1.05136,0.686373,-0.129631,-0.0026272,0,
4,1.04044,0.67418,-0.12963,-0.00289341,0,
4,1.0295,0.661579,-0.12963,-0.00316216,0,
4,1.01855,0.648652,-0.129632,-0.0034304,0,
4,1.00757,0.635476,-0.129634,-0.00369504,0,
4,0.996544,0.622123,-0.129637,-0.00395345,0,
4,0.98547,0.608661,-0.129642,-0.00420332,0,
4,0.974334,0.59515,-0.129648,-0.00444265,0,
4,0.963124,0.581646,-0.129655,-0.00466967,0,
4,0.951826,0.568203,-0.129664,-0.00488276,0,
4,0.940428,0.554871,-0.129674,-0.00508323,0,
4,0.928915,0.541687,-0.129689,-0.00526554,0,
4,0.917272,0.528661,-0.129707,-0.0054278,0,
4,0.905481,0.515794,-0.129729,-0.00556816,0,
4,0.893524,0.503073,-0.129754,-0.00568407,0,
4,0.881383,0.490484,-0.129773,-0.00577275,0,
4,0.869035,0.478004,-0.129801,-0.00584476,0,
4,0.856459,0.465552,-0.129762,-0.00587352,0,
4,0.843629,0.452976,-0.129633,-0.00586572,0,
4,0.830518,0.440155,-0.129492,-0.00586578,0,
4,0.817097,0.427031,-0.129345,-0.00587089,0,
4,0.803334,0.413564,-0.129194,-0.00588254,0,
4,0.789195,0.399712,-0.129045,-0.00590233,0,
4,0.774643,0.385432,-0.128901,-0.00593175,0,
4,0.759639,0.370673,-0.128766,-0.00597225,0,
4,0.744138,0.35538,-0.12864,-0.00602519,0,
4,0.728096,0.339492,-0.128526,-0.0060919,0,
4,0.711463,0.322939,-0.128424,-0.00617373,0,
4,0.694189,0.305643,-0.128337,-0.00627195,0,
4,0.676218,0.287518,-0.128264,-0.00638779,0,
4,0.657495,0.268475,-0.128207,-0.00652227,0,
4,0.637962,0.248434,-0.128171,-0.00667615,0,
4,0.617561,0.227339,-0.128154,-0.00684965,0,
4,0.596848,0.205754,-0.128166,-0.00703635,0,
4,0.576557,0.184454,-0.128217,-0.00722553,0,
4,0.556564,0.163416,-0.1283,-0.00741266,0,
4,0.536763,0.142629,-0.128417,-0.0075919,0,
4,0.517057,0.12207,-0.12856,-0.00775635,0,
4,0.497368,0.101703,-0.128718,-0.00789858,0,
4,0.477632,0.0815021,-0.128885,-0.00801026,0,
4,0.457804,0.0615348,-0.129069,-0.00808232,0,
4,0.437857,0.0420919,-0.129312,-0.00810673,0,
4,0.417786,0.0237823,-0.129704,-0.00808131,0,
4,0.397605,0.00744745,-0.130388,-0.00801467,0,
4,0.377348,-0.00621454,-0.131505,-0.00792689,0,
4,0.357066,-0.017116,-0.133048,-0.007837,0,
4,0.336828,-0.0259088,-0.134196,-0.00763222,0,
4,0.316717,-0.0335384,-0.13466,-0.00707514,0,
4,0.296825,-0.0405024,-0.134953,-0.0067025,0,
4,0.27725,-0.046861,-0.135174,-0.00631919,0,
4,0.258095,-0.0526747,-0.13522,-0.0059181,0,
4,0.239458,-0.0580082,-0.135089,-0.0055055,0,
4,0.221432,-0.0629185,-0.134803,-0.00509246,0,
4,0.2041,-0.06745,-0.134393,-0.0046854,0,
4,0.187537,-0.0716395,-0.133879,-0.00428716,0,
4,0.171798,-0.0755187,-0.133286,-0.00390167,0,
4,0.156928,-0.0791151,-0.132641,-0.00353217,0,
4,0.142956,-0.0824514,-0.131971,-0.00318117,0,
4,0.129894,-0.0855471,-0.131298,-0.00285041,0,
4,0.117744,-0.088418,-0.130641,-0.00254094,0,
4,0.106492,-0.0910773,-0.130014,-0.00225319,0,
4,0.0961173,-0.0935359,-0.129428,-0.0019871,0,
4,0.0865883,-0.0958028,-0.12889,-0.00174218,0,
4,0.0778675,-0.0978855,-0.128401,-0.00151768,0,
4,0.0699123,-0.0997905,-0.127962,-0.00131259,0,
4,0.062677,-0.101523,-0.127573,-0.00112581,0,
4,0.056114,-0.103088,-0.127229,-0.00095611,0,
4,0.0501747,-0.104489,-0.126929,-0.000802279,0,
4,0.0448114,-0.10573,-0.126667,-0.000663088,0,
4,0.039977,-0.106813,-0.12644,-0.000537347,0,
4,0.0356266,-0.107739,-0.126245,-0.000423918,0,
4,0.0317171,-0.10851,-0.126077,-0.000321733,0,
4,0.0282081,-0.109123,-0.125933,-0.000229799,0,
4,0.0250617,-0.109577,-0.12581,-0.000147209,0,
4,0.0222427,-0.109866,-0.125706,-7.31513e-05,0,
4,0.0197189,-0.10998,-0.125617,-6.9183e-06,0,
4,0.0174603,-0.109908,-0.125543,5.20778e-05,0,
4,0.0154398,-0.109627,-0.125481,0.000104277,0,
4,0.0136326,-0.109111,-0.125428,0.000149926,0,
4,0.0120162,-0.108314,-0.125386,0.000188991,0,
4,0.0105703,-0.107174,-0.12535,0.000221013,0,
4,0.00927657,-0.105597,-0.125323,0.000244847,0,
4,0.00811839,-0.103444,-0.1253,0.000258267,0,
4,0.0070809,-0.100513,-0.125284,0.000257569,0,
4,0.0061507,-0.0965279,-0.125271,0.00023797,0,
4,0.00531578,-0.0911753,-0.125264,0.000196775,0,
4,0.00456537,-0.0842447,-0.125258,0.000139779,0,
4,0.00388979,-0.075859,-0.125257,8.288e-05,0,
4,0.00328037,-0.0665371,-0.125253,4.08936e-05,0,
4,0.00272934,-0.0569217,-0.125255,1.70202e-05,0,
4,0.0022297,-0.0474792,-0.125252,6.01917e-06,0,
4,0.00177519,-0.03844,-0.125254,1.77582e-06,0,
4,0.00136016,-0.0298786,-0.12525,4.12219e-07,0,
4,0.000979511,-0.0217931,-0.125253,6.64343e-08,0,
4,0.00062865,-0.0141497,-0.125249,5.69937e-09,0,
4,0.000303409,-0.00690277,-0.125253,1.39557e-10,0,

6,0,0,-0.00846593,0,0,
6,9,0,-0.0706986,0,0,
6,8.99969,0.0138408,-0.0706983,2.10235e-10,0,
6,8.99934,0.0294484,-0.0706985,9.70238e-09,0,
6,8.99895,0.0470658,-0.0706983,1.31526e-07,0,
6,8.9985,0.0669493,-0.0706984,9.47493e-07,0,
6,8.99801,0.0893598,-0.0706982,4.67186e-06,0,
6,8.99744,0.114489,-0.0706983,1.76216e-05,0,
6,8.99681,0.14227,-0.0706982,5.29538e-05,0,
6,8.99609,0.172097,-0.0706982,0.000127565,0,
6,8.99529,0.202701,-0.070698,0.000247265,0,
6,8.99438,0.232561,-0.070698,0.000395342,0,
6,8.99336,0.260524,-0.0706977,0.000547996,0,
6,8.9922,0.286292,-0.0706975,0.00067208,0,
6,8.9909,0.310033,-0.0706971,0.000773312,0,
6,8.98944,0.331916,-0.0706967,0.000858935,0,
6,8.98779,0.35212,-0.0706961,0.000930727,0,
6,8.98593,0.370906,-0.0706955,0.000986924,0,
6,8.98383,0.388533,-0.0706947,0.00103336,0,
6,8.98147,0.405197,-0.0706938,0.00107302,0,
6,8.97881,0.421051,-0.0706926,0.00110719,0,
6,8.97581,0.436225,-0.0706912,0.00113714,0,
6,8.97244,0.450831,-0.0706896,0.00116383,0,
6,8.96863,0.464963,-0.0706876,0.00118799,0,
6,8.96435,0.478702,-0.0706854,0.00121016,0,
6,8.95953,0.492119,-0.0706827,0.00123075,0,
6,8.95409,0.505276,-0.0706796,0.00125004,0,
6,8.94798,0.518226,-0.0706759,0.0012682,0,
6,8.94109,0.531016,-0.0706717,0.00128536,0,
6,8.93334,0.543688,-0.0706668,0.00130153,0,
6,8.92463,0.556278,-0.0706612,0.00131667,0,
6,8.91482,0.568819,-0.0706549,0.0013307,0,
6,8.90379,0.581338,-0.0706476,0.00134346,0,
6,8.89139,0.593858,-0.0706393,0.00135475,0,
6,8.87746,0.606398,-0.07063,0.00136433,0,
6,8.86181,0.618973,-0.0706195,0.00137193,0,
6,8.84423,0.631593,-0.0706077,0.00137725,0,
6,8.82452,0.644265,-0.0705947,0.00137995,0,
6,8.80241,0.656992,-0.07058,0.00137973,0,
6,8.77763,0.669773,-0.0705641,0.00137626,0,
6,8.74989,0.682608,-0.0705463,0.00136933,0,
6,8.71885,0.695494,-0.0705274,0.00136001,0,
6,8.68417,0.708456,-0.0705069,0.00134448,0,
6,8.64545,0.721527,-0.0704844,0.0013237,0,
6,8.60229,0.734715,-0.0704608,0.00129899,0,
6,8.55423,0.748016,-0.0704354,0.00127012,0,
6,8.50082,0.761437,-0.0704085,0.00123679,0,
6,8.44155,0.775015,-0.0703803,0.00119852,0,
6,8.37592,0.788841,-0.0703518,0.00115438,0,
6,8.30339,0.803078,-0.0703238,0.00110258,0,
6,8.22344,0.817981,-0.0702975,0.0010401,0,
6,8.13555,0.833901,-0.0702724,0.000963205,0,
6,8.0392,0.851225,-0.0702469,0.000867549,0,
6,7.93391,0.870218,-0.0702157,0.000749337,0,
6,7.81927,0.890688,-0.0701718,0.000610323,0,
6,7.6949,0.911587,-0.0701118,0.000465555,0,
6,7.56054,0.931012,-0.0700235,0.000328712,0,
6,7.41603,0.946891,-0.0699226,0.000214348,0,
6,7.26132,0.958016,-0.0697957,0.0001045,0,
6,7.09653,0.964277,-0.069649,3.39075e-05,0,
6,6.92195,0.96662,-0.069479,5.31331e-06,0,
6,6.73802,0.966688,-0.0692733,-1.14991e-06,0,
6,6.5454,0.965985,-0.0690277,-9.89198e-07,0,
6,6.34489,0.965338,-0.0687372,-3.50725e-07,0,
6,6.1375,0.964946,-0.0683975,-1.03678e-07,0,
6,5.92439,0.964713,-0.0680033,-3.65788e-08,0,
6,5.70687,0.964506,-0.0675491,-1.78372e-08,0,
6,5.48633,0.964256,-0.0670285,-1.17773e-08,0,
6,5.26426,0.963944,-0.0664354,-1.00574e-08,0,
6,5.04218,0.963582,-0.0657639,-1.0083e-08,0,
6,4.82159,0.963184,-0.0650088,-1.08448e-08,0,
6,4.60398,0.962764,-0.0641657,-1.20894e-08,0,
6,4.39071,0.96231,-0.0632318,-1.40669e-08,0,
6,4.18307,0.961778,-0.062206,-1.72779e-08,0,
6,3.98218,0.9611,-0.0610893,-2.19527e-08,0,
6,3.78902,0.96024,-0.0598856,-2.77377e-08,0,
6,3.60438,0.959283,-0.0586011,-4.27687e-08,0,
6,3.42888,0.958466,-0.057244,-1.20131e-07,0,
6,3.26296,0.95809,-0.0558232,-3.05654e-07,0,
6,3.10691,0.958303,-0.0543481,-3.90626e-07,0,
6,2.96084,0.958928,-0.0528311,-4.88872e-07,0,
6,2.82473,0.959468,-0.0512886,-2.46087e-06,0,
6,2.69844,0.9593,-0.0497384,-9.37277e-06,0,
6,2.58172,0.957892,-0.0481991,-2.36799e-05,0,
6,2.47424,0.954957,-0.0466888,-4.63284e-05,0,
6,2.37559,0.950473,-0.0452245,-7.67483e-05,0,
6,2.28535,0.944636,-0.0438204,-0.000113299,0,
6,2.20301,0.937767,-0.0424876,-0.000153818,0,
6,2.1281,0.930226,-0.0412335,-0.000196085,0,
6,2.06009,0.922352,-0.0400626,-0.000238164,0,
6,1.99849,0.914429,-0.0389764,-0.000278584,0,
6,1.9428,0.906674,-0.0379742,-0.000316363,0,
6,1.89255,0.899239,-0.0370542,-0.000350963,0,
6,1.84728,0.892223,-0.0362126,-0.000382189,0,
6,1.80655,0.885681,-0.0354459,-0.00041001,0,
6,1.76996,0.87964,-0.0347487,-0.000434449,0,
6,1.73712,0.874106,-0.0341176,-0.00045699,0,
6,1.70768,0.869037,-0.0335458,-0.000477518,0,
6,1.67998,0.8642,-0.0330054,-0.000495305,0,
6,1.65329,0.859488,-0.0324798,-0.000512122,0,
6,1.62754,0.854891,-0.0319696,-0.000528302,0,
6,1.60265,0.850403,-0.0314728,-0.000543683,0,
6,1.57854,0.846018,-0.0309889,-0.000558294,0,
6,1.55515,0.84173,-0.0305166,-0.00057215,0,
6,1.53242,0.837534,-0.0300551,-0.00058526,0,
6,1.5103,0.833424,-0.0296035,-0.000597627,0,
6,1.48874,0.829393,-0.0291611,-0.000609245,0,
6,1.46769,0.825436,-0.0287271,-0.000620103,0,
6,1.44712,0.821548,-0.0283009,-0.000630188,0,
6,1.42698,0.817723,-0.0278819,-0.00063949,0,
6,1.40725,0.813955,-0.0274695,-0.000648005,0,
6,1.38788,0.810239,-0.0270632,-0.000655741,0,
6,1.36886,0.806569,-0.0266626,-0.000662728,0,
6,1.35015,0.802938,-0.0262671,-0.000669033,0,
6,1.33173,0.799338,-0.0258766,-0.000674735,0,
6,1.31357,0.79576,-0.0254906,-0.000680017,0,
6,1.29566,0.792194,-0.0251088,-0.000685209,0,
6,1.27797,0.788628,-0.0247307,-0.00069078,0,
6,1.26048,0.785046,-0.024356,-0.000697415,0,
6,1.24318,0.781431,-0.0239845,-0.000706099,0,
6,1.22605,0.777758,-0.0236159,-0.000718179,0,
6,1.20907,0.773997,-0.0232501,-0.000735572,0,
6,1.19223,0.770108,-0.022887,-0.000760896,0,
6,1.17551,0.76604,-0.0225268,-0.000797249,0,
6,1.1589,0.761726,-0.0221697,-0.000848445,0,
6,1.14238,0.757084,-0.0218163,-0.000918851,0,
6,1.12595,0.752017,-0.0214672,-0.0010128,0,
6,1.10959,0.746427,-0.0211232,-0.00113344,0,
6,1.09329,0.740229,-0.0207854,-0.0012814,0,
6,1.07704,0.733374,-0.0204537,-0.00145235,0,
6,1.06081,0.725879,-0.0201301,-0.00163687,0,
6,1.04459,0.71783,-0.0198133,-0.00183477,0,
6,1.02836,0.709249,-0.0194683,-0.00199625,0,
6,1.01211,0.700077,-0.0191028,-0.00216163,0,
6,0.99583,0.69028,-0.0187438,-0.00233483,0,
6,0.97951,0.67984,-0.018386,-0.00251681,0,
6,0.963136,0.668737,-0.0180355,-0.00270942,0,
6,0.946694,0.656951,-0.0176919,-0.00291466,0,
6,0.930172,0.644465,-0.017358,-0.00313457,0,
6,0.913555,0.631266,-0.0170352,-0.00337089,0,
6,0.896829,0.617351,-0.0167251,-0.00362483,0,
6,0.879979,0.602723,-0.0164287,-0.0038971,0,
6,0.862989,0.587393,-0.0161463,-0.00418796,0,
6,0.845842,0.571377,-0.0158772,-0.00449752,0,
6,0.828521,0.554701,-0.0156212,-0.00482617,0,
6,0.811008,0.537402,-0.0153759,-0.00517489,0,
6,0.793282,0.51952,-0.0151481,-0.00554234,0,
6,0.775322,0.501085,-0.0149458,-0.00592048,0,
6,0.757107,0.482123,-0.0147679,-0.00630735,0,
6,0.738612,0.46268,-0.014615,-0.00670004,0,
6,0.719813,0.442833,-0.0144882,-0.00709401,0,
6,0.700681,0.422685,-0.0143898,-0.0074829,0,
6,0.681188,0.40236,-0.0143223,-0.00785885,0,
6,0.661304,0.381991,-0.0142872,-0.00821333,0,
6,0.640996,0.361707,-0.0142844,-0.00853822,0,
6,0.620228,0.341612,-0.01431,-0.0088268,0,
6,0.598964,0.321768,-0.0143542,-0.00907342,0,
6,0.577166,0.302184,-0.014402,-0.00927312,0,
6,0.554791,0.282822,-0.0144407,-0.00942103,0,
6,0.531799,0.263649,-0.0144748,-0.00951204,0,
6,0.508144,0.244728,-0.0145448,-0.00954154,0,
6,0.48378,0.226334,-0.0147494,-0.00950831,0,
6,0.459585,0.209654,-0.0152646,-0.00942464,0,
6,0.436695,0.196015,-0.0162486,-0.00932177,0,
6,0.414961,0.185494,-0.0178802,-0.00922611,0,
6,0.394252,0.177557,-0.0197251,-0.00913483,0,
6,0.374445,0.171209,-0.0205834,-0.00869852,0,
6,0.355433,0.16566,-0.0205226,-0.00813885,0,
6,0.337122,0.160565,-0.0203764,-0.0077537,0,
6,0.319433,0.155842,-0.020189,-0.00737103,0,
6,0.3023,0.151426,-0.0199078,-0.00698939,0,
6,0.28567,0.147267,-0.0195566,-0.00661297,0,
6,0.269507,0.143327,-0.0191482,-0.00624342,0,
6,0.253785,0.139575,-0.0186885,-0.00588057,0,
6,0.238493,0.135986,-0.0181843,-0.00552534,0,
6,0.223631,0.132542,-0.0176437,-0.00517864,0,
6,0.209207,0.129228,-0.0170752,-0.00484146,0,
6,0.195237,0.126031,-0.0164878,-0.0045148,0,
6,0.181744,0.122943,-0.0158907,-0.00419965,0,
6,0.168754,0.119958,-0.015293,-0.00389696,0,
6,0.156292,0.11707,-0.014703,-0.00360761,0,
6,0.144384,0.114276,-0.0141286,-0.00333233,0,
6,0.133052,0.111574,-0.0135762,-0.00307169,0,
6,0.122315,0.108962,-0.0130514,-0.0028261,0,
6,0.112183,0.106438,-0.0125582,-0.00259575,0,
6,0.102665,0.104002,-0.0120994,-0.00238068,0,
6,0.0937597,0.101652,-0.0116766,-0.00218073,0,
6,0.0854609,0.0993853,-0.0112902,-0.00199559,0,
6,0.077757,0.0972014,-0.0109398,-0.00182481,0,
6,0.0706309,0.0950974,-0.0106242,-0.00166782,0,
6,0.0640611,0.0930704,-0.0103418,-0.00152397,0,
6,0.0580229,0.091117,-0.0100904,-0.00139254,0,
6,0.0524888,0.0892332,-0.00986766,-0.00127278,0,
6,0.0474296,0.0874145,-0.00967123,-0.00116389,0,
6,0.042815,0.0856556,-0.00949865,-0.00106509,0,
6,0.0386145,0.0839509,-0.00934755,-0.000975587,0,
6,0.0347975,0.0822941,-0.00921567,-0.000894619,0,
6,0.0313344,0.0806783,-0.00910089,-0.000821441,0,
6,0.0281964,0.079096,-0.00900129,-0.000755339,0,
6,0.0253561,0.0775389,-0.00891506,-0.000695632,0,
6,0.0227875,0.0759976,-0.00884066,-0.000641669,0,
6,0.0204662,0.0744617,-0.00877655,-0.00059283,0,
6,0.0183694,0.0729195,-0.00872164,-0.000548516,0,
6,0.016476,0.0713569,-0.00867452,-0.000508146,0,
6,0.0147664,0.0697576,-0.00863464,-0.000471135,0,
6,0.0132228,0.0681015,-0.00860053,-0.000436881,0,
6,0.0118288,0.0663636,-0.00857226,-0.000404727,0,
6,0.0105693,0.0645123,-0.00854808,-0.000373917,0,
6,0.00943073,0.0625063,-0.0085289,-0.000343531,0,
6,0.00840063,0.0602921,-0.00851237,-0.000312392,0,
6,0.00746774,0.0578,-0.00850039,-0.000279004,0,
6,0.00662185,0.0549431,-0.00848978,-0.000241639,0,
6,0.00585371,0.0516242,-0.00848354,-0.000198936,0,
6,0.00515491,0.0477634,-0.00847738,-0.000151427,0,
6,0.00451788,0.043355,-0.00847535,-0.000103341,0,
6,0.00393573,0.0385268,-0.00847195,-6.18013e-05,0,
6,0.00340221,0.0335278,-0.00847231,-3.21911e-05,0,
6,0.00291168,0.0286218,-0.00846989,-1.47088e-05,0,
6,0.00245897,0.0239861,-0.00847129,-5.9349e-06,0,
6,0.00203939,0.0196941,-0.00846882,-2.09928e-06,0,
6,0.00164864,0.0157495,-0.00847085,-6.31192e-07,0,
6,0.00128281,0.0121232,-0.00846792,-1.50973e-07,0,
6,0.000938257,0.00877477,-0.00847064,-2.52259e-08,0,
6,0.000611645,0.00566308,-0.00846698,-2.24453e-09,0,
6,0.000299862,0.00274991,-0.0084706,-5.60411e-11,0,

10,0.000296632,0.011808,0.0302615,-1.79021e-10,0,
10,0.000596102,0.023726,0.0302621,-6.63474e-09,0,
10,0.000900397,0.0358326,0.0302615,-6.74369e-08,0,
10,0.00121153,0.0482063,0.0302619,-3.61974e-07,0,
10,0.00153158,0.0609233,0.0302614,-1.34998e-06,0,
10,0.00186264,0.0740522,0.0302618,-3.98845e-06,0,
10,0.00220692,0.0876447,0.0302614,-1.00038e-05,0,
10,0.00256668,0.10172,0.0302617,-2.21296e-05,0,
10,0.00294431,0.116243,0.0302612,-4.40782e-05,0,
10,0.00334229,0.131101,0.0302614,-7.98976e-05,0,
10,0.00376326,0.146091,0.030261,-0.000132534,0,
10,0.00421,0.160935,0.030261,-0.000202102,0,
10,0.00468544,0.175326,0.0302605,-0.000285088,0,
10,0.00519274,0.188984,0.0302602,-0.000375321,0,
10,0.00573524,0.201709,0.0302594,-0.00046611,0,
10,0.00631651,0.213394,0.0302587,-0.000552097,0,
10,0.00694041,0.224012,0.0302573,-0.000630007,0,
10,0.00761104,0.2336,0.0302559,-0.000698471,0,
10,0.00833284,0.242233,0.0302538,-0.000757476,0,
10,0.00911058,0.250004,0.0302513,-0.000807809,0,
10,0.0099494,0.25701,0.0302481,-0.000850637,0,
10,0.0108548,0.263348,0.0302444,-0.000887241,0,
10,0.0118329,0.269107,0.0302397,-0.000918855,0,
10,0.0128901,0.274366,0.0302343,-0.000946594,0,
10,0.0140333,0.279194,0.0302277,-0.000971425,0,
10,0.0152702,0.283652,0.0302202,-0.000994175,0,
10,0.0166089,0.287792,0.0302113,-0.00101554,0,
10,0.0180584,0.291657,0.0302011,-0.00103611,0,
10,0.0196282,0.295285,0.0301893,-0.00105638,0,
10,0.0213288,0.29871,0.0301758,-0.0010768,0,
10,0.0231714,0.301959,0.0301604,-0.00109775,0,
10,0.0251682,0.305056,0.0301429,-0.00111958,0,
10,0.0273326,0.308023,0.0301229,-0.00114261,0,
10,0.0296789,0.310877,0.0301004,-0.00116716,0,
10,0.0322227,0.313637,0.0300749,-0.00119353,0,
10,0.0349809,0.316315,0.0300462,-0.00122202,0,
10,0.0379719,0.318925,0.0300138,-0.00125294,0,
10,0.0412155,0.32148,0.0299774,-0.0012866,0,
10,0.0447333,0.32399,0.0299366,-0.00132335,0,
10,0.0485489,0.326466,0.0298909,-0.00136352,0,
10,0.0526875,0.328918,0.0298396,-0.0014075,0,
10,0.0571768,0.331355,0.0297823,-0.0014557,0,
10,0.0620466,0.333785,0.0297182,-0.00150853,0,
10,0.0673295,0.336219,0.0296467,-0.00156647,0,
10,0.0730607,0.338665,0.029567,-0.00163003,0,
10,0.0792784,0.341131,0.0294783,-0.00169977,0,
10,0.0860241,0.343626,0.0293795,-0.00177628,0,
10,0.0933428,0.346161,0.0292698,-0.00186023,0,
10,0.101283,0.348744,0.029148,-0.00195234,0,
10,0.109899,0.351386,0.0290131,-0.00205339,0,
10,0.119247,0.354098,0.0288638,-0.00216425,0,
10,0.12939,0.356891,0.0286991,-0.00228585,0,
10,0.140395,0.359778,0.0285175,-0.00241924,0,
10,0.152337,0.362774,0.028318,-0.00256553,0,
10,0.165296,0.365894,0.0280993,-0.00272594,0,
10,0.179357,0.369156,0.0278606,-0.00290182,0,
10,0.194615,0.372581,0.0276009,-0.00309459,0,
10,0.211171,0.376191,0.0273199,-0.00330579,0,
10,0.229138,0.380013,0.0270174,-0.00353705,0,
10,0.248635,0.38408,0.0266941,-0.00379009,0,
10,0.269793,0.38843,0.0263509,-0.00406663,0,
10,0.292753,0.393107,0.0259913,-0.00436841,0,
10,0.317669,0.398166,0.0256153,-0.00469624,0,
10,0.344708,0.403673,0.0252338,-0.00505034,0,
10,0.372405,0.409372,0.0248701,-0.00541079,0,
10,0.399623,0.415062,0.0245397,-0.00576261,0,
10,0.426397,0.420774,0.0242442,-0.0061052,0,
10,0.452757,0.42654,0.0239866,-0.00643676,0,
10,0.478735,0.432395,0.0237848,-0.00675253,0,
10,0.504358,0.438374,0.0235955,-0.00705507,0,
10,0.529657,0.444517,0.0234788,-0.00750926,0,
10,0.554656,0.451148,0.0238755,-0.00771114,0,
10,0.579382,0.458914,0.0247099,-0.00771045,0,
10,0.603859,0.468338,0.025391,-0.0076985,0,
10,0.628112,0.479481,0.02579,-0.00767283,0,
10,0.652163,0.491996,0.0259703,-0.00761954,0,
10,0.676035,0.50539,0.0260154,-0.00752756,0,
10,0.699751,0.519275,0.0259971,-0.00739146,0,
10,0.72333,0.533474,0.0259605,-0.0072095,0,
10,0.746795,0.54798,0.0259271,-0.00698094,0,
10,0.770165,0.562877,0.0259005,-0.00670485,0,
10,0.79346,0.578257,0.0258734,-0.00638023,0,
10,0.816699,0.594162,0.0258374,-0.00600705,0,
10,0.839903,0.610542,0.0257821,-0.00558756,0,
10,0.863088,0.627218,0.0257056,-0.00512854,0,
10,0.886275,0.643844,0.0255948,-0.0046584,0,
10,0.909481,0.65995,0.0254463,-0.00421453,0,
10,0.932723,0.675176,0.0252819,-0.00378748,0,
10,0.956021,0.689422,0.0251101,-0.00337663,0,
10,0.97939,0.702728,0.0249337,-0.00298653,0,
10,1.00285,0.71513,0.0247497,-0.00262282,0,
10,1.02641,0.726604,0.0245546,-0.00229172,0,
10,1.0501,0.737086,0.0243465,-0.00199884,0,
10,1.07392,0.746534,0.0241253,-0.00174741,0,
10,1.0979,0.754971,0.0238923,-0.00153728,0,
10,1.12205,0.762497,0.0236496,-0.00136508,0,
10,1.14639,0.769266,0.023399,-0.00122542,0,
10,1.17093,0.775449,0.0231418,-0.00111228,0,
10,1.19568,0.781205,0.0228787,-0.00102016,0,
10,1.22066,0.786663,0.0226101,-0.000944535,0,
10,1.24589,0.791918,0.0223357,-0.000881918,0,
10,1.27137,0.797034,0.0220554,-0.00082957,0,
10,1.29713,0.802053,0.0217692,-0.00078527,0,
10,1.32317,0.807001,0.0214768,-0.000747153,0,
10,1.34951,0.811898,0.0211785,-0.000713634,0,
10,1.37616,0.816762,0.0208741,-0.000683367,0,
10,1.40313,0.821606,0.0205636,-0.00065524,0,
10,1.43043,0.826441,0.0202469,-0.000628433,0,
10,1.45807,0.831273,0.0199238,-0.000602524,0,
10,1.48607,0.8361,0.0195936,-0.000577621,0,
10,1.51444,0.840918,0.0192563,-0.000553689,0,
10,1.54318,0.845726,0.018912,-0.000530244,0,
10,1.57231,0.850521,0.0185607,-0.000507024,0,
10,1.60184,0.855298,0.018202,-0.0004839,0,
10,1.63178,0.860051,0.0178359,-0.000460944,0,
10,1.66213,0.864771,0.0174623,-0.000438369,0,
10,1.69292,0.869443,0.0170812,-0.000416144,0,
10,1.72416,0.874054,0.0166924,-0.000394242,0,
10,1.75585,0.878591,0.0162956,-0.000372679,0,
10,1.78802,0.883039,0.015891,-0.000351513,0,
10,1.82067,0.887385,0.0154782,-0.000330829,0,
10,1.85383,0.891614,0.0150574,-0.000310728,0,
10,1.88751,0.895709,0.0146281,-0.000291312,0,
10,1.92173,0.899651,0.0141908,-0.000272693,0,
10,1.95652,0.903422,0.0137447,-0.000254967,0,
10,1.9919,0.907003,0.0132908,-0.000238237,0,
10,2.02791,0.910374,0.0128278,-0.000222558,0,
10,2.06456,0.913525,0.0123578,-0.000207978,0,
10,2.10268,0.916514,0.0118678,-0.00019347,0,
10,2.1443,0.919515,0.0113366,-0.000166684,0,
10,2.18977,0.922513,0.0107562,-0.000138603,0,
10,2.23946,0.925371,0.0101239,-0.000109419,0,
10,2.29376,0.927969,0.0094341,-8.20375e-05,0,
10,2.35309,0.930214,0.00868465,-5.81697e-05,0,
10,2.4179,0.932027,0.00787141,-3.84759e-05,0,
10,2.48863,0.933348,0.00699273,-2.32333e-05,0,
10,2.56575,0.934149,0.00604617,-1.24004e-05,0,
10,2.64971,0.934453,0.00503131,-5.58221e-06,0,
10,2.74098,0.934345,0.0039477,-2.04179e-06,0,
10,2.83997,0.933973,0.00279651,-7.9436e-07,0,
10,2.94709,0.933531,0.00157924,-7.65229e-07,0,
10,3.06269,0.933227,0.000298705,-1.02137e-06,0,
10,3.18706,0.933226,-0.00104167,-1.02272e-06,0,
10,3.3204,0.933606,-0.00243708,-7.27228e-07,0,
10,3.46281,0.93433,-0.00388147,-3.80063e-07,0,
10,3.61427,0.935272,-0.00536697,-1.60356e-07,0,
10,3.77463,0.936275,-0.00688385,-6.8618e-08,0,
10,3.94358,0.937217,-0.00842054,-3.95617e-08,0,
10,4.12067,0.938048,-0.00996424,-3.04177e-08,0,
10,4.30525,0.938781,-0.0115015,-2.66419e-08,0,
10,4.49655,0.93946,-0.0130188,-2.52177e-08,0,
10,4.6936,0.940126,-0.0145032,-2.59934e-08,0,
10,4.89531,0.940791,-0.0159425,-3.00352e-08,0,
10,5.10047,0.941448,-0.0173256,-4.03163e-08,0,
10,5.30776,0.942074,-0.018643,-6.32693e-08,0,
10,5.51581,0.942653,-0.019887,-1.12106e-07,0,
10,5.72323,0.943186,-0.0210515,-2.16321e-07,0,
10,5.92863,0.943715,-0.0221329,-4.50495e-07,0,
10,6.13069,0.944322,-0.0231289,-9.9276e-07,0,
10,6.32816,0.945085,-0.0240399,-2.08149e-06,0,
10,6.51991,0.945929,-0.0248673,-3.22633e-06,0,
10,6.70495,0.946408,-0.0256142,-8.27656e-07,0,
10,6.88244,0.945568,-0.0262836,1.43176e-05,0,
10,7.0517,0.942118,-0.0268773,5.55932e-05,0,
10,7.21224,0.934934,-0.0273972,0.000135352,0,
10,7.3637,0.923522,-0.0278488,0.000252744,0,
10,7.5059,0.907908,-0.0282399,0.000361553,0,
10,7.63878,0.888854,-0.0285714,0.000488331,0,
10,7.76243,0.868189,-0.0288409,0.000621533,0,
10,7.87701,0.847771,-0.0290635,0.000750055,0,
10,7.9828,0.828748,-0.0292423,0.000859817,0,
10,8.08014,0.811417,-0.0293898,0.000949765,0,
10,8.16941,0.79556,-0.0295112,0.00102345,0,
10,8.25106,0.780784,-0.0296146,0.00108481,0,
10,8.32554,0.766712,-0.0297029,0.0011366,0,
10,8.39331,0.753064,-0.0297791,0.00118131,0,
10,8.45484,0.739673,-0.0298445,0.00122023,0,
10,8.5106,0.726467,-0.0299004,0.00125389,0,
10,8.56104,0.713439,-0.0299489,0.00128248,0,
10,8.60659,0.700597,-0.0299895,0.00130538,0,
10,8.64767,0.68792,-0.0300234,0.00131948,0,
10,8.68467,0.675382,-0.0300533,0.0013305,0,
10,8.71795,0.662987,-0.0300784,0.00133727,0,
10,8.74786,0.650737,-0.0301002,0.00134002,0,
10,8.77471,0.638635,-0.0301188,0.00133909,0,
10,8.79881,0.626679,-0.0301348,0.00133487,0,
10,8.8204,0.614867,-0.0301485,0.00132778,0,
10,8.83975,0.603191,-0.0301601,0.00131827,0,
10,8.85708,0.59164,-0.0301701,0.00130674,0,
10,8.87259,0.580199,-0.0301785,0.00129359,0,
10,8.88646,0.568848,-0.0301856,0.0012792,0,
10,8.89886,0.557565,-0.0301917,0.00126386,0,
10,8.90995,0.546325,-0.0301967,0.00124782,0,
10,8.91986,0.535099,-0.0302009,0.00123129,0,
10,8.92872,0.523857,-0.0302045,0.0012144,0,
10,8.93663,0.512564,-0.0302074,0.00119722,0,
10,8.94369,0.501183,-0.0302099,0.00117976,0,
10,8.95,0.489674,-0.0302119,0.00116198,0,
10,8.95564,0.477995,-0.0302136,0.00114381,0,
10,8.96067,0.466097,-0.0302149,0.00112504,0,
10,8.96517,0.45393,-0.0302161,0.00110545,0,
10,8.96918,0.441435,-0.0302169,0.0010847,0,
10,8.97276,0.428545,-0.0302178,0.00106237,0,
10,8.97596,0.415185,-0.0302183,0.00103792,0,
10,8.97882,0.401269,-0.0302189,0.00101066,0,
10,8.98137,0.386695,-0.0302192,0.00097968,0,
10,8.98365,0.371345,-0.0302197,0.000943845,0,
10,8.98569,0.355079,-0.0302197,0.000902025,0,
10,8.9875,0.33772,-0.0302202,0.000851536,0,
10,8.98913,0.319031,-0.0302201,0.000787266,0,
10,8.99058,0.298771,-0.0302205,0.000710989,0,
10,8.99188,0.276775,-0.0302203,0.00062113,0,
10,8.99304,0.252884,-0.0302208,0.00051186,0,
10,8.99408,0.226904,-0.0302204,0.000376291,0,
10,8.99501,0.199016,-0.0302209,0.000242294,0,
10,8.99583,0.17016,-0.0302205,0.000129987,0,
10,8.99658,0.141675,-0.030221,5.64033e-05,0,
10,8.99724,0.114784,-0.0302205,1.9601e-05,0,
10,8.99784,0.0901606,-0.0302211,5.4044e-06,0,
10,8.99837,0.0679583,-0.0302205,1.13519e-06,0,
10,8.99885,0.0480549,-0.0302212,1.62714e-07,0,
10,8.99927,0.0302385,-0.0302204,1.23558e-08,0,
10,8.99966,0.0142899,-0.0302214,2.73401e-10,0,
10,0,0,0.0302622,0,0,
10,9,0,-0.0302203,0,0,

0.004,0,0,-0.228965,0,3.74248e-07,
0.00868226,0,0,-0.228981,0,-1.18644e-06,
0.014062,0,0,-0.228964,0,-2.87484e-06,
0.0201548,0,0,-0.228973,0,-3.56717e-06,
0.0269766,0,0,-0.228946,0,-1.62832e-06,
0.0345437,0,0,-0.228943,0,5.06281e-06,
0.0428729,0,0,-0.228919,0,1.6931e-05,
0.051981,0,0,-0.228926,0,3.39575e-05,
0.0618853,0,0,-0.22894,0,5.37242e-05,
0.0726036,0,0,-0.228992,0,7.40442e-05,
0.0841536,0,0,-0.229061,0,9.26229e-05,
0.0965535,0,0,-0.229159,0,0.000108817,
0.109822,0,0,-0.229273,0,0.000122634,
0.123977,0,0,-0.22941,0,0.000134798,
0.139037,0,0,-0.229569,0,0.000145681,
0.155022,0,0,-0.229757,0,0.000155216,
0.171949,0,0,-0.229978,0,0.000162641,
0.189839,0,0,-0.230236,0,0.00016685,
0.208709,0,0,-0.230533,0,0.000166644,
0.228579,0,0,-0.230868,0,0.000161049,
0.249467,0,0,-0.231238,0,0.000149472,
0.271391,0,0,-0.231636,0,0.000131804,
0.29437,0,0,-0.232056,0,0.000108405,
0.31842,0,0,-0.232488,0,8.0031e-05,
0.343559,0,0,-0.232926,0,4.76675e-05,
0.369804,0,0,-0.23336,0,1.24275e-05,
0.39717,0,0,-0.233784,0,-2.46138e-05,
0.425672,0,0,-0.234192,0,-6.25185e-05,
0.455324,0,0,-0.234582,0,-0.000100597,
0.48614,0,0,-0.234951,0,-0.000138401,
0.518132,0,0,-0.235299,0,-0.000175767,
0.551309,0,0,-0.235627,0,-0.000212752,
0.585683,0,0,-0.235934,0,-0.000249521,
0.621259,0,0,-0.236223,0,-0.000286389,
0.658046,0,0,-0.236492,0,-0.000323665,
0.696047,0,0,-0.236743,0,-0.000361596,
0.735265,0,0,-0.236973,0,-0.000400115,
0.7757,0,0,-0.237183,0,-0.000438971,
0.817352,0,0,-0.237367,0,-0.000477519,
0.860215,0,0,-0.237526,0,-0.000514961,
0.904285,0,0,-0.237657,0,-0.000549715,
0.949552,0,0,-0.23775,0,-0.000580416,
0.996004,0,0,-0.237818,0,-0.000606155,
1.04363,0,0,-0.237849,0,-0.000626222,
1.09241,0,0,-0.237834,0,-0.000640379,
1.14232,0,0,-0.237771,0,-0.000647944,
1.19335,0,0,-0.237643,0,-0.00064875,
1.24546,0,0,-0.237464,0,-0.000641678,
1.29863,0,0,-0.237272,0,-0.000626529,
1.35283,0,0,-0.237152,0,-0.000604981,
1.40802,0,0,-0.237139,0,-0.000579422,
1.46416,0,0,-0.237287,0,-0.000552446,
1.52121,0,0,-0.23768,0,-0.00052614,
1.57913,0,0,-0.23844,0,-0.000505274,
1.63787,0,0,-0.239633,0,-0.000497119,
1.69739,0,0,-0.241234,0,-0.000507502,
1.75761,0,0,-0.243177,0,-0.000538818,
1.81851,0,0,-0.245389,0,-0.000590779,
1.88,0,0,-0.247782,0,-0.000661915,
1.94204,0,0,-0.250263,0,-0.000750519,
2.00457,0,0,-0.252723,0,-0.000854935,
2.06751,0,0,-0.255041,0,-0.000973404,
2.13081,0,0,-0.257071,0,-0.0011036,
2.19439,0,0,-0.258649,0,-0.00124202,
2.25819,0,0,-0.259605,0,-0.00138353,
2.32214,0,0,-0.259794,0,-0.00152174,
2.38617,0,0,-0.259126,0,-0.00165014,
2.4502,0,0,-0.257573,0,-0.00176332,
2.51418,0,0,-0.255168,0,-0.0018577,
2.57803,0,0,-0.252,0,-0.00193184,
2.64167,0,0,-0.248193,0,-0.00198642,
2.70505,0,0,-0.243877,0,-0.00202368,
2.76808,0,0,-0.239172,0,-0.00204668,
2.83072,0,0,-0.234179,0,-0.00205847,
2.89288,0,0,-0.228971,0,-0.00206156,
2.95451,0,0,-0.223606,0,-0.00205769,
3.01555,0,0,-0.218127,0,-0.00204793,
3.07594,0,0,-0.212572,0,-0.00203298,
3.13561,0,0,-0.206976,0,-0.00201334,
3.19453,0,0,-0.201367,0,-0.00198945,
3.25262,0,0,-0.195772,0,-0.00196169,
3.30985,0,0,-0.190219,0,-0.00193045,
3.36617,0,0,-0.18473,0,-0.00189615,
3.42154,0,0,-0.179326,0,-0.00185926,
3.47591,0,0,-0.174025,0,-0.00182018,
3.52925,0,0,-0.168843,0,-0.00177934,
3.58152,0,0,-0.163793,0,-0.00173715,
3.6327,0,0,-0.158884,0,-0.00169402,
3.68276,0,0,-0.154125,0,-0.00165029,
3.73167,0,0,-0.149521,0,-0.00160627,
3.77941,0,0,-0.145075,0,-0.00156226,
3.82596,0,0,-0.14079,0,-0.00151846,
3.8713,0,0,-0.136665,0,-0.00147504,
3.91543,0,0,-0.132697,0,-0.00143202,
3.95833,0,0,-0.128907,0,-0.00138992,
4,0,0,-0.125248,0,-0.00134833,
4.04167,0,0,-0.121647,0,-0.00130634,
4.08333,0,0,-0.1181,0,-0.0012641,
4.125,0,0,-0.114603,0,-0.00122167,
4.16667,0,0,-0.111159,0,-0.00117906,
4.20833,0,0,-0.107767,0,-0.0011363,
4.25,0,0,-0.104428,0,-0.00109342,
4.29167,0,0,-0.101142,0,-0.00105047,
4.33333,0,0,-0.0979109,0,-0.00100749,
4.375,0,0,-0.0947337,0,-0.000964539,
4.41667,0,0,-0.0916104,0,-0.00092164,
4.45833,0,0,-0.0885411,0,-0.000878825,
4.5,0,0,-0.0855258,0,-0.000836113,
4.54167,0,0,-0.0825639,0,-0.000793512,
4.58333,0,0,-0.0796553,0,-0.000751051,
4.625,0,0,-0.0768001,0,-0.000708757,
4.66667,0,0,-0.0739976,0,-0.000666653,
4.70833,0,0,-0.0712472,0,-0.000624744,
4.75,0,0,-0.0685487,0,-0.000583046,
4.79167,0,0,-0.0659017,0,-0.00054158,
4.83333,0,0,-0.0633055,0,-0.000500363,
4.875,0,0,-0.0607594,0,-0.000459403,
4.91667,0,0,-0.058263,0,-0.000418716,
4.95833,0,0,-0.0558154,0,-0.000378308,
5,0,0,-0.0534159,0,-0.000338184,
5.04167,0,0,-0.0510637,0,-0.000298348,
5.08333,0,0,-0.0487584,0,-0.000258809,
5.125,0,0,-0.0464989,0,-0.000219564,
5.16667,0,0,-0.044284,0,-0.000180605,
5.20833,0,0,-0.0421136,0,-0.000141934,
5.25,0,0,-0.039987,0,-0.000103551,
5.29167,0,0,-0.0379032,0,-6.5451e-05,
5.33333,0,0,-0.035861,0,-2.7623e-05,
5.375,0,0,-0.0338605,0,9.9304e-06,
5.41667,0,0,-0.031901,0,4.72128e-05,
5.45833,0,0,-0.0299816,0,8.4235e-05,
5.5,0,0,-0.0281014,0,0.000121008,
5.54167,0,0,-0.0262605,0,0.000157526,
5.58333,0,0,-0.0244584,0,0.000193798,
5.625,0,0,-0.0226942,0,0.000229834,
5.66667,0,0,-0.0209675,0,0.000265637,
5.70833,0,0,-0.0192783,0,0.000301196,
5.75,0,0,-0.017626,0,0.00033652,
5.79167,0,0,-0.0160101,0,0.000371615,
5.83333,0,0,-0.0144302,0,0.000406479,
5.875,0,0,-0.0128865,0,0.000441096,
5.91667,0,0,-0.011378,0,0.000475471,
5.95833,0,0,-0.00990461,0,0.000509609,
6,0,0,-0.00846607,0,0.000543502,
6.04167,0,0,-0.00706219,0,0.000577129,
6.08333,0,0,-0.00569204,0,0.000610492,
6.125,0,0,-0.00435557,0,0.000643588,
6.16667,0,0,-0.00305255,0,0.000676409,
6.20833,0,0,-0.00178245,0,0.00070894,
6.25,0,0,-0.000544356,0,0.000741182,
6.29167,0,0,0.00066174,0,0.000773132,
6.33333,0,0,0.00183606,0,0.000804781,
6.375,0,0,0.00297944,0,0.000836122,
6.41667,0,0,0.00409264,0,0.000867158,
6.45833,0,0,0.00517573,0,0.000897886,
6.5,0,0,0.00622891,0,0.0009283,
6.54167,0,0,0.00725315,0,0.000958399,
6.58333,0,0,0.00824897,0,0.000988184,
6.625,0,0,0.00921656,0,0.00101765,
6.66667,0,0,0.0101561,0,0.0010468,
6.70833,0,0,0.0110687,0,0.00107563,
6.75,0,0,0.0119544,0,0.00110415,
6.79167,0,0,0.0128136,0,0.00113235,
6.83333,0,0,0.0136466,0,0.00116023,
6.875,0,0,0.0144542,0,0.0011878,
6.91667,0,0,0.0152364,0,0.00121505,
6.95833,0,0,0.0159937,0,0.00124197,
7,0,0,0.0167264,0,0.00126857,
7.04167,0,0,0.0174352,0,0.00129486,
7.08333,0,0,0.0181199,0,0.00132082,
7.125,0,0,0.0187813,0,0.00134646,
7.16667,0,0,0.0194199,0,0.00137177,
7.20833,0,0,0.0200361,0,0.00139677,
7.25,0,0,0.0206299,0,0.00142145,
7.29167,0,0,0.021202,0,0.0014458,
7.33333,0,0,0.0217528,0,0.0014698,
7.375,0,0,0.0222828,0,0.00149346,
7.41667,0,0,0.022792,0,0.00151678,
7.45833,0,0,0.023281,0,0.00153974,
7.5,0,0,0.0237505,0,0.00156235,
7.54167,0,0,0.0242005,0,0.00158461,
7.58333,0,0,0.0246315,0,0.00160652,
7.625,0,0,0.0250438,0,0.00162809,
7.66667,0,0,0.0254379,0,0.00164931,
7.70833,0,0,0.0258141,0,0.00167019,
7.75,0,0,0.0261726,0,0.00169075,
7.79167,0,0,0.026514,0,0.00171097,
7.83333,0,0,0.0268379,0,0.0017308,
7.875,0,0,0.0271458,0,0.00175032,
7.91667,0,0,0.0274434,0,0.00177011,
7.95833,0,0,0.0276707,0,0.00178904,
8,0,0,0.0279916,0,0.00180876,
8.04171,0,0,0.0283439,0,0.00182871,
8.08368,0,0,0.0285589,0,0.0018484,
8.12617,0,0,0.0288049,0,0.00186614,
8.16946,0,0,0.0290407,0,0.00188369,
8.21382,0,0,0.0292592,0,0.00190121,
8.25952,0,0,0.0294696,0,0.00191874,
8.30685,0,0,0.0296719,0,0.00193646,
8.35611,0,0,0.0298659,0,0.00195451,
8.40762,0,0,0.0300517,0,0.00197293,
8.46168,0,0,0.0302292,0,0.00199182,
8.51865,0,0,0.0303973,0,0.00201122,
8.57889,0,0,0.0305549,0,0.00203117,
8.64276,0,0,0.0307006,0,0.0020517,
8.71067,0,0,0.030833,0,0.00207285,
8.78306,0,0,0.0309496,0,0.0020946,
8.86037,0,0,0.0310479,0,0.00211696,
8.94309,0,0,0.0311251,0,0.00213993,
9.03174,0,0,0.0311776,0,0.00216347,
9.12689,0,0,0.0312015,0,0.00218755,
9.22912,0,0,0.0311934,0,0.00221211,
9.33908,0,0,0.0311487,0,0.00223709,
9.45746,0,0,0.0310622,0,0.00226242,
9.58501,0,0,0.0309283,0,0.00228793,
9.72253,0,0,0.0307434,0,0.00231346,
9.87088,0,0,0.0305041,0,0.00233887,
10.031,0,0,0.0302042,0,0.00236403,
10.2039,0,0,0.0298381,0,0.00238872,
10.3906,0,0,0.0294053,0,0.00241273,
10.5924,0,0,0.0288996,0,0.00243584,
10.8105,0,0,0.028322,0,0.00245782,
11.0463,0,0,0.0276715,0,0.00247849,
11.3012,0,0,0.026947,0,0.00249763,
11.5769,0,0,0.026153,0,0.00251507,
11.8751,0,0,0.0252921,0,0.00253061,
12.1977,0,0,0.0243691,0,0.00254411,
12.5466,0,0,0.0233949,0,0.00255545,
12.9242,0,0,0.0223782,0,0.00256464,
13.3327,0,0,0.0213271,0,0.00257159,
13.7748,0,0,0.0202562,0,0.00257658,
14.2532,0,0,0.0191785,0,0.0025804,
14.7709,0,0,0.0181082,0,0.00258373,
15.3312,0,0,0.0170558,0,0.00258589,
15.9377,0,0,0.0160335,0,0.00258696,
16.594,0,0,0.0150534,0,0.00258704,
17.3044,0,0,0.0141253,0,0.00258641,
18.0733,0,0,0.0132554,0,0.00258565,
18.9056,0,0,0.012448,0,0.00258401,
19.8064,0,0,0.0117081,0,0.00258091,
20.7816,0,0,0.0110322,0,0.00257682,
21.8371,0,0,0.0104185,0,0.00257258,
22.9796,0,0,0.00985753,0,0.00256857,
24.2163,0,0,0.00933506,0,0.00256466,
25.5551,0,0,0.0088331,0,0.00255994,
27.0042,0,0,0.00832379,0,0.00255513,
28.5729,0,0,0.00778357,0,0.00255077,
30.271,0,0,0.00720359,0,0.00254715,
32.1091,0,0,0.00659267,0,0.00254464,
34.0989,0,0,0.00595033,0,0.0025446,
36.2529,0,0,0.00522514,0,0.0025466,
38.5845,0,0,0.00437432,0,0.0025493,
41.1085,0,0,0.00346432,0,0.00255208,
43.8407,0,0,0.00235384,0,0.0025519,
46.7983,0,0,0.001221,0,0.00254568,
50,0,0,0.00246913,0,0.00255161,

