be1db57916e962e1567dec28d303055138f9457d 
X,Z,x_velocity,cp,uw_b,cf,
1,0,0,-0.234861,0,0,
1,9,0,-0.128412,0,0,
1,8.99969,0.0155022,-0.128412,2.93228e-10,0,
1,8.99934,0.03309,-0.128412,1.37066e-08,0,
1,8.99894,0.0530622,-0.128412,1.89073e-07,0,
1,8.99848,0.0757347,-0.128412,1.38594e-06,0,
1,8.99797,0.101421,-0.128412,6.92476e-06,0,
1,8.99739,0.130317,-0.128412,2.61871e-05,0,
1,8.99672,0.162216,-0.128412,7.7444e-05,0,
1,8.99597,0.19616,-0.128412,0.000179577,0,
1,8.99512,0.230479,-0.128412,0.000330039,0,
1,8.99416,0.263512,-0.128412,0.000499687,0,
1,8.99306,0.294292,-0.128412,0.000658986,0,
1,8.99182,0.322654,-0.128411,0.000787105,0,
1,8.99041,0.348745,-0.128411,0.000893236,0,
1,8.98881,0.372727,-0.12841,0.000980891,0,
1,8.98699,0.394824,-0.12841,0.00105247,0,
1,8.98494,0.415331,-0.128409,0.00110836,0,
1,8.98261,0.43456,-0.128408,0.00115167,0,
1,8.97996,0.452745,-0.128407,0.00118795,0,
1,8.97696,0.470058,-0.128406,0.00121813,0,
1,8.97356,0.486643,-0.128405,0.00124348,0,
1,8.9697,0.502616,-0.128403,0.00126498,0,
1,8.96533,0.518077,-0.128401,0.00128334,0,
1,8.96038,0.533108,-0.128399,0.00129909,0,
1,8.95476,0.54778,-0.128397,0.00131262,0,
1,8.9484,0.56215,-0.128394,0.00132417,0,
1,8.9412,0.57627,-0.128392,0.00133394,0,
1,8.93303,0.590181,-0.128389,0.00134204,0,
1,8.92379,0.603921,-0.128385,0.00134853,0,
1,8.91333,0.617521,-0.128382,0.00135343,0,
1,8.90149,0.631008,-0.128379,0.00135672,0,
1,8.8881,0.644405,-0.128375,0.00135836,0,
1,8.87295,0.657734,-0.128372,0.00135827,0,
1,8.85584,0.671013,-0.128369,0.00135637,0,
1,8.83651,0.684259,-0.128367,0.00135255,0,
1,8.81469,0.697488,-0.128366,0.00134667,0,
1,8.79007,0.710717,-0.128366,0.00133858,0,
1,8.76232,0.723964,-0.128369,0.00132808,0,
1,8.73107,0.737249,-0.128375,0.00131493,0,
1,8.69591,0.750592,-0.128385,0.00129882,0,
1,8.6564,0.764021,-0.1284,0.00127938,0,
1,8.61206,0.777567,-0.128423,0.00125613,0,
1,8.56236,0.791269,-0.128455,0.00122876,0,
1,8.50675,0.80518,-0.128501,0.00119944,0,
1,8.44464,0.819431,-0.128563,0.00116195,0,
1,8.3754,0.834244,-0.128646,0.00111405,0,
1,8.29839,0.849893,-0.128757,0.0010539,0,
1,8.21296,0.866683,-0.128903,0.00097665,0,
1,8.11843,0.884889,-0.129087,0.000876654,0,
1,8.01417,0.904611,-0.129327,0.000749026,0,
1,7.89956,0.925501,-0.129618,0.000594457,0,
1,7.77403,0.946482,-0.13,0.000430848,0,
1,7.63711,0.965893,-0.13045,0.000254932,0,
1,7.48842,0.981513,-0.130989,9.94268e-05,0,
1,7.32773,0.991244,-0.131648,2.60253e-05,0,
1,7.15495,0.995132,-0.132411,3.00324e-06,0,
1,6.97022,0.995483,-0.133299,7.48894e-08,0,
1,6.77388,0.994881,-0.134323,4.4629e-09,0,
1,6.56652,0.994703,-0.135504,1.05064e-08,0,
1,6.34896,0.995129,-0.136855,1.30976e-08,0,
1,6.12229,0.995871,-0.138392,1.49189e-08,0,
1,5.88784,0.996707,-0.140131,1.59285e-08,0,
1,5.64716,0.997584,-0.142088,1.70116e-08,0,
1,5.40194,0.998531,-0.144274,1.85118e-08,0,
1,5.15407,0.999578,-0.1467,2.03572e-08,0,
1,4.90545,1.00074,-0.14937,2.24507e-08,0,
1,4.65805,1.00201,-0.152285,2.475e-08,0,
1,4.41376,1.0034,-0.15544,2.71472e-08,0,
1,4.17441,1.00487,-0.158823,2.93806e-08,0,
1,3.94163,1.00638,-0.162415,3.13389e-08,0,
1,3.7169,1.00788,-0.166188,3.38565e-08,0,
1,3.50146,1.00947,-0.170107,3.92803e-08,0,
1,3.29629,1.01149,-0.174137,4.98466e-08,0,
1,3.10217,1.01426,-0.178241,6.2849e-08,0,
1,2.91959,1.01748,-0.182383,1.38384e-07,0,
1,2.74885,1.01954,-0.186508,1.14818e-06,0,
1,2.59002,1.01802,-0.190544,-6.87507e-06,0,
1,2.44299,1.01136,-0.194406,-5.01465e-05,0,
1,2.30752,0.999871,-0.198017,-0.000136026,0,
1,2.18321,0.985129,-0.201324,-0.000250179,0,
1,2.06959,0.968821,-0.204304,-0.000371115,0,
1,1.9661,0.952222,-0.206955,-0.000481493,0,
1,1.87215,0.936154,-0.209294,-0.000571681,0,
1,1.78711,0.921075,-0.211335,-0.000640309,0,
1,1.71033,0.907128,-0.213101,-0.000692383,0,
1,1.64119,0.894223,-0.214622,-0.000734967,0,
1,1.57905,0.882184,-0.215924,-0.000771291,0,
1,1.52332,0.870839,-0.217034,-0.000803196,0,
1,1.47342,0.86006,-0.217974,-0.000832747,0,
1,1.42882,0.84976,-0.218768,-0.000859869,0,
1,1.389,0.839886,-0.219438,-0.000884476,0,
1,1.35351,0.830402,-0.22,-0.000906543,0,
1,1.3219,0.821289,-0.220473,-0.000926102,0,
1,1.29378,0.812536,-0.220871,-0.000943193,0,
1,1.26878,0.804139,-0.221205,-0.000957809,0,
1,1.24659,0.796102,-0.221486,-0.000970233,0,
1,1.22689,0.788422,-0.221722,-0.000980356,0,
1,1.2092,0.781013,-0.221924,-0.000987347,0,
1,1.1932,0.773821,-0.222097,-0.000992708,0,
1,1.1787,0.766812,-0.222244,-0.000999657,0,
1,1.16554,0.75992,-0.222369,-0.00101443,0,
1,1.15357,0.753017,-0.222475,-0.0010483,0,
1,1.14266,0.745882,-0.222566,-0.00111947,0,
1,1.13268,0.73818,-0.222651,-0.00125308,0,
1,1.12354,0.729471,-0.22274,-0.00147797,0,
1,1.11514,0.719306,-0.222842,-0.0018199,0,
1,1.10739,0.707406,-0.222964,-0.00229043,0,
1,1.10022,0.693825,-0.223109,-0.00287812,0,
1,1.09357,0.678955,-0.223276,-0.00354907,0,
1,1.08738,0.663355,-0.22346,-0.0042577,0,
1,1.0816,0.64756,-0.223658,-0.00496265,0,
1,1.07618,0.631979,-0.223863,-0.00563526,0,
1,1.07107,0.616873,-0.224074,-0.00625975,0,
1,1.06626,0.60239,-0.224288,-0.00682975,0,
1,1.06169,0.588596,-0.224502,-0.00734478,0,
1,1.05735,0.575506,-0.224715,-0.00780728,0,
1,1.05321,0.563102,-0.224927,-0.00822128,0,
1,1.04925,0.551351,-0.225136,-0.00859128,0,
1,1.04544,0.54021,-0.225342,-0.00892176,0,
1,1.04177,0.529636,-0.225545,-0.00921696,0,
1,1.03822,0.519582,-0.225746,-0.00948069,0,
1,1.03478,0.510005,-0.225943,-0.00971638,0,
1,1.03144,0.500866,-0.226138,-0.00992793,0,
1,1.02818,0.492124,-0.226331,-0.0101172,0,
1,1.025,0.483742,-0.22652,-0.0102861,0,
1,1.02188,0.475684,-0.226706,-0.0104369,0,
1,1.01882,0.467913,-0.226889,-0.0105712,0,
1,1.01581,0.4604,-0.22707,-0.0106912,0,
1,1.01284,0.453118,-0.227248,-0.0107973,0,
1,1.00988,0.445964,-0.227426,-0.0108924,0,
1,1.00688,0.438844,-0.227606,-0.0109793,0,
1,1.00384,0.431743,-0.227789,-0.0110573,0,
1,1.00076,0.424646,-0.227975,-0.0111265,0,
1,0.997615,0.417537,-0.228164,-0.0111871,0,
1,0.99441,0.410398,-0.228357,-0.011239,0,
1,0.991131,0.403213,-0.228555,-0.0112824,0,
1,0.987768,0.395963,-0.228757,-0.011317,0,
1,0.984308,0.388629,-0.228966,-0.0113427,0,
1,0.980739,0.381191,-0.229181,-0.0113591,0,
1,0.977045,0.373626,-0.229404,-0.011366,0,
1,0.973211,0.365911,-0.229636,-0.0113626,0,
1,0.969219,0.358024,-0.229876,-0.0113484,0,
1,0.965047,0.349938,-0.230128,-0.0113225,0,
1,0.960675,0.341627,-0.23039,-0.0112838,0,
1,0.956077,0.333062,-0.230666,-0.011231,0,
1,0.951224,0.324214,-0.230954,-0.0111628,0,
1,0.946088,0.315052,-0.231257,-0.0110772,0,
1,0.940633,0.305545,-0.231573,-0.0109721,0,
1,0.934823,0.29566,-0.231904,-0.010845,0,
1,0.928616,0.28536,-0.232249,-0.0106953,0,
1,0.921967,0.274605,-0.232576,-0.0105152,0,
1,0.914826,0.263339,-0.232811,-0.0103327,0,
1,0.907141,0.251395,-0.232895,-0.0100049,0,
1,0.898852,0.238588,-0.232859,-0.00965353,0,
1,0.889898,0.22486,-0.232792,-0.00927554,0,
1,0.880212,0.210251,-0.232761,-0.00887778,0,
1,0.869723,0.194895,-0.232781,-0.00846626,0,
1,0.858358,0.178973,-0.232858,-0.00803947,0,
1,0.846039,0.162638,-0.232985,-0.00758631,0,
1,0.83269,0.145953,-0.233174,-0.00709037,0,
1,0.818232,0.128916,-0.233443,-0.00655155,0,
1,0.802744,0.111712,-0.233758,-0.00598298,0,
1,0.78635,0.0946057,-0.234085,-0.00540315,0,
1,0.768969,0.0776965,-0.234403,-0.00482695,0,
1,0.75053,0.0611459,-0.234696,-0.00426983,0,
1,0.730977,0.0451632,-0.234952,-0.00374452,0,
1,0.710271,0.0299931,-0.23517,-0.00327093,0,
1,0.688397,0.0158802,-0.235352,-0.00286146,0,
1,0.66536,0.00300587,-0.235497,-0.00252367,0,
1,0.641194,-0.00854429,-0.235553,-0.00225462,0,
1,0.615961,-0.0187536,-0.23549,-0.00204957,0,
1,0.589754,-0.0276691,-0.235322,-0.00189764,0,
1,0.562692,-0.0353935,-0.235035,-0.00178687,0,
1,0.534925,-0.0420335,-0.234631,-0.00170957,0,
1,0.506624,-0.0476854,-0.234065,-0.00167222,0,
1,0.477982,-0.0524716,-0.233352,-0.00167812,0,
1,0.449206,-0.0565691,-0.232595,-0.00168031,0,
1,0.420509,-0.0601498,-0.231865,-0.00167707,0,
1,0.392107,-0.0633385,-0.231201,-0.00166305,0,
1,0.364206,-0.0662234,-0.230646,-0.00163317,0,
1,0.337003,-0.0688664,-0.230227,-0.00158456,0,
1,0.310673,-0.0713117,-0.229965,-0.00151745,0,
1,0.28537,-0.0735934,-0.229869,-0.0014308,0,
1,0.26122,-0.075736,-0.229923,-0.00133082,0,
1,0.238324,-0.0777548,-0.230101,-0.00122088,0,
1,0.21675,-0.0796606,-0.230381,-0.00110533,0,
1,0.196544,-0.0814601,-0.230731,-0.000988054,0,
1,0.177724,-0.0831568,-0.231124,-0.00087222,0,
1,0.160284,-0.0847507,-0.231535,-0.000760146,0,
1,0.144202,-0.0862394,-0.231943,-0.000653407,0,
1,0.129436,-0.0876179,-0.232333,-0.00055298,0,
1,0.115935,-0.0888792,-0.232697,-0.000459413,0,
1,0.103636,-0.0900144,-0.233027,-0.000372964,0,
1,0.0924701,-0.0910137,-0.233322,-0.000293705,0,
1,0.0823633,-0.0918662,-0.233581,-0.000221589,0,
1,0.0732406,-0.0925607,-0.233806,-0.000156488,0,
1,0.0650269,-0.093085,-0.233999,-9.82215e-05,0,
1,0.057648,-0.0934267,-0.234164,-4.65649e-05,0,
1,0.0510323,-0.0935723,-0.234303,-1.26604e-06,0,
1,0.0451115,-0.0935065,-0.234418,3.79447e-05,0,
1,0.0398209,-0.0932113,-0.234515,7.13385e-05,0,
1,0.0351001,-0.092665,-0.234594,9.91682e-05,0,
1,0.0308929,-0.0918391,-0.234658,0.000121642,0,
1,0.0271475,-0.0906966,-0.23471,0.000138886,0,
1,0.0238164,-0.0891872,-0.234751,0.000150897,0,
1,0.0208562,-0.0872431,-0.234783,0.000157473,0,
1,0.0182274,-0.084773,-0.234807,0.000158149,0,
1,0.0158944,-0.0816586,-0.234825,0.000152165,0,
1,0.0138249,-0.0777581,-0.234838,0.000138642,0,
1,0.0119898,-0.0729336,-0.234847,0.000117262,0,
1,0.0103632,-0.067118,-0.234852,8.96087e-05,0,
1,0.00892169,-0.0604185,-0.234855,6.01924e-05,0,
1,0.00764438,-0.0531761,-0.234857,3.49784e-05,0,
1,0.00651264,-0.0458741,-0.234858,1.76502e-05,0,
1,0.00550983,-0.0389361,-0.234858,7.87906e-06,0,
1,0.00462115,-0.0326014,-0.234858,3.17346e-06,0,
1,0.00383341,-0.0269422,-0.234859,1.16436e-06,0,
1,0.0031349,-0.0219363,-0.234859,3.87254e-07,0,
1,0.00251518,-0.0175235,-0.23486,1.14345e-07,0,
1,0.00196502,-0.0136352,-0.234859,2.87848e-08,0,
1,0.00147619,-0.0102059,-0.23486,5.75265e-09,0,
1,0.00104139,-0.00717648,-0.234859,8.01071e-10,0,
1,0.000654158,-0.00449521,-0.23486,5.97304e-11,0,
1,0.000308731,-0.00211675,-0.234859,1.30753e-12,0,

4,0,0,-0.129103,0,0,
4,9,0,-0.0970396,0,0,
4,8.99969,0.0143981,-0.0970392,2.32107e-10,0,
4,8.99934,0.0306762,-0.0970395,1.07688e-08,0,
4,8.99894,0.0490988,-0.0970392,1.47044e-07,0,
4,8.9985,0.0699449,-0.0970394,1.06716e-06,0,
4,8.99799,0.0934977,-0.0970391,5.29438e-06,0,
4,8.99742,0.119958,-0.0970393,2.00232e-05,0,
4,8.99677,0.14923,-0.0970391,5.99511e-05,0,
4,8.99605,0.180608,-0.0970391,0.000142741,0,
4,8.99522,0.212712,-0.0970389,0.000271751,0,
4,8.99429,0.243987,-0.0970388,0.000425951,0,
4,8.99324,0.273379,-0.0970385,0.00057711,0,
4,8.99205,0.300521,-0.0970383,0.000707443,0,
4,8.9907,0.325496,-0.0970378,0.000812287,0,
4,8.98919,0.348484,-0.0970374,0.000900598,0,
4,8.98747,0.369677,-0.0970366,0.000974102,0,
4,8.98553,0.389356,-0.0970359,0.00103141,0,
4,8.98334,0.407801,-0.0970349,0.00107827,0,
4,8.98087,0.425225,-0.0970338,0.00111781,0,
4,8.97807,0.441797,-0.0970324,0.00115149,0,
4,8.97491,0.457659,-0.0970308,0.0011806,0,
4,8.97134,0.472929,-0.0970289,0.00120616,0,
4,8.96731,0.487707,-0.0970267,0.00122887,0,
4,8.96276,0.502079,-0.0970241,0.00124929,0,
4,8.95762,0.516116,-0.0970211,0.00126779,0,
4,8.95182,0.529881,-0.0970177,0.00128464,0,
4,8.94526,0.543426,-0.0970138,0.00129999,0,
4,8.93787,0.556798,-0.0970094,0.00131394,0,
4,8.92952,0.570036,-0.0970044,0.00132651,0,
4,8.92011,0.583173,-0.0969989,0.00133767,0,
4,8.90949,0.596238,-0.0969927,0.00134733,0,
4,8.89751,0.609255,-0.096986,0.00135539,0,
4,8.88402,0.622245,-0.0969786,0.0013617,0,
4,8.86881,0.635225,-0.0969707,0.00136611,0,
4,8.85169,0.648207,-0.0969623,0.00136843,0,
4,8.83242,0.661203,-0.0969535,0.0013685,0,
4,8.81074,0.674223,-0.0969444,0.00136611,0,
4,8.78637,0.687275,-0.0969354,0.00136108,0,
4,8.75901,0.700368,-0.0969266,0.0013532,0,
4,8.7283,0.713511,-0.0969186,0.00134222,0,
4,8.69387,0.726716,-0.0969119,0.0013279,0,
4,8.65533,0.739998,-0.0969071,0.00130988,0,
4,8.61222,0.753375,-0.0969054,0.00128774,0,
4,8.56407,0.766872,-0.0969076,0.00126107,0,
4,8.5104,0.780523,-0.0969158,0.00123061,0,
4,8.45065,0.794401,-0.0969326,0.00119559,0,
4,8.38429,0.808662,-0.096961,0.00115157,0,
4,8.31073,0.823545,-0.0970045,0.00109768,0,
4,8.22941,0.839339,-0.0970657,0.00102981,0,
4,8.13974,0.856367,-0.0971492,0.000943206,0,
4,8.04115,0.874892,-0.0972561,0.000832875,0,
4,7.93313,0.894927,-0.0973898,0.000697126,0,
4,7.81519,0.91591,-0.0975495,0.000543215,0,
4,7.68693,0.936429,-0.0977376,0.000389986,0,
4,7.54803,0.954435,-0.0979658,0.000253076,0,
4,7.39831,0.968023,-0.0982331,0.00012057,0,
4,7.23771,0.976174,-0.0985538,3.9942e-05,0,
4,7.06634,0.979493,-0.0989292,7.45307e-06,0,
4,6.88453,0.979909,-0.0993537,2.01798e-07,0,
4,6.69275,0.979379,-0.0998277,-1.55597e-07,0,
4,6.49173,0.978997,-0.100358,8.76266e-09,0,
4,6.28238,0.979011,-0.100954,2.68596e-08,0,
4,6.06579,0.97928,-0.101622,1.5802e-08,0,
4,5.84328,0.979636,-0.102366,9.96038e-09,0,
4,5.61626,0.980001,-0.103192,8.2275e-09,0,
4,5.3863,0.980371,-0.104103,8.09029e-09,0,
4,5.15502,0.980759,-0.105099,8.59262e-09,0,
4,4.92406,0.981181,-0.106181,9.4238e-09,0,
4,4.69507,0.981649,-0.107348,1.04469e-08,0,
4,4.46961,0.982163,-0.108596,1.14633e-08,0,
4,4.24915,0.982701,-0.109919,1.20978e-08,0,
4,4.03501,0.983203,-0.111308,1.2053e-08,0,
4,3.82836,0.983603,-0.112754,1.17426e-08,0,
4,3.63018,0.983918,-0.114242,1.301e-08,0,
4,3.44125,0.984352,-0.11576,1.9888e-08,0,
4,3.26217,0.985266,-0.117291,8.67525e-08,0,
4,3.09333,0.986915,-0.118819,7.47684e-07,0,
4,2.93497,0.989044,-0.120325,2.92464e-06,0,
4,2.78715,0.990776,-0.121794,4.10064e-06,0,
4,2.64979,0.990979,-0.123211,-2.41509e-06,0,
4,2.52268,0.988798,-0.124558,-2.18728e-05,0,
4,2.40551,0.983938,-0.125818,-5.53346e-05,0,
4,2.29789,0.976648,-0.126975,-0.000100325,0,
4,2.19939,0.967507,-0.128021,-0.000152436,0,
4,2.10949,0.957201,-0.128955,-0.000206909,0,
4,2.02768,0.94636,-0.129779,-0.000259763,0,
4,1.95343,0.935482,-0.1305,-0.000308301,0,
4,1.88618,0.924918,-0.131126,-0.000351121,0,
4,1.82542,0.914892,-0.131667,-0.000387854,0,
4,1.77062,0.905523,-0.132133,-0.000418807,0,
4,1.72128,0.896862,-0.132532,-0.000444648,0,
4,1.67693,0.888913,-0.132874,-0.000466179,0,
4,1.63713,0.881651,-0.133167,-0.000484169,0,
4,1.60144,0.875041,-0.133417,-0.00049922,0,
4,1.56949,0.869039,-0.133631,-0.000511707,0,
4,1.54091,0.863604,-0.133813,-0.000522881,0,
4,1.51537,0.858675,-0.13397,-0.00053244,0,
4,1.49167,0.854047,-0.134109,-0.000539714,0,
4,1.46926,0.849621,-0.134235,-0.000545897,0,
4,1.44801,0.845371,-0.13435,-0.000551233,0,
4,1.42781,0.841277,-0.134454,-0.000555612,0,
4,1.40855,0.837324,-0.13455,-0.000559116,0,
4,1.39015,0.833495,-0.134637,-0.000561863,0,
4,1.37252,0.829773,-0.134717,-0.000563945,0,
4,1.3556,0.826146,-0.13479,-0.000565529,0,
4,1.3393,0.822596,-0.134858,-0.000566863,0,
4,1.32357,0.819107,-0.13492,-0.000568293,0,
4,1.30836,0.815662,-0.134977,-0.000570294,0,
4,1.29362,0.81224,-0.13503,-0.000573478,0,
4,1.2793,0.808817,-0.135079,-0.000578669,0,
4,1.26537,0.805365,-0.135124,-0.000586892,0,
4,1.25179,0.801851,-0.135166,-0.000599381,0,
4,1.23852,0.798234,-0.135204,-0.000617665,0,
4,1.22554,0.794465,-0.135239,-0.000643565,0,
4,1.21282,0.790487,-0.13527,-0.000679186,0,
4,1.20034,0.78623,-0.135298,-0.000726883,0,
4,1.18806,0.781619,-0.135323,-0.000789168,0,
4,1.17599,0.77657,-0.135343,-0.00086856,0,
4,1.16408,0.770997,-0.13536,-0.00096737,0,
4,1.15233,0.764824,-0.135374,-0.00108745,0,
4,1.14073,0.757986,-0.135383,-0.00122992,0,
4,1.12925,0.750441,-0.13539,-0.00139495,0,
4,1.11788,0.742173,-0.135393,-0.00158168,0,
4,1.10661,0.733196,-0.135393,-0.00178818,0,
4,1.09543,0.723548,-0.135391,-0.00201168,0,
4,1.08432,0.713287,-0.135386,-0.00224887,0,
4,1.07328,0.702482,-0.135381,-0.00249618,0,
4,1.0623,0.691209,-0.135375,-0.00275015,0,
4,1.05136,0.679542,-0.135368,-0.00300753,0,
4,1.04044,0.667533,-0.135361,-0.00326554,0,
4,1.0295,0.655228,-0.135353,-0.00352202,0,
4,1.01855,0.642684,-0.135346,-0.00377502,0,
4,1.00757,0.629952,-0.13534,-0.00402252,0,
4,0.996544,0.617078,-0.135333,-0.00426292,0,
4,0.98547,0.604102,-0.135327,-0.00449476,0,
4,0.974334,0.591059,-0.135321,-0.00471666,0,
4,0.963124,0.577985,-0.135315,-0.00492717,0,
4,0.951826,0.564909,-0.135309,-0.00512465,0,
4,0.940428,0.551867,-0.135304,-0.0053071,0,
4,0.928915,0.538892,-0.135298,-0.00547435,0,
4,0.917272,0.526015,-0.135292,-0.00562153,0,
4,0.905481,0.51325,-0.135285,-0.00574603,0,
4,0.893524,0.5006,-0.135273,-0.00584559,0,
4,0.881383,0.488059,-0.135258,-0.00591948,0,
4,0.869035,0.475609,-0.135232,-0.00599085,0,
4,0.856459,0.463127,-0.13514,-0.0059941,0,
4,0.843629,0.450446,-0.135,-0.00600011,0,
4,0.830518,0.437487,-0.134855,-0.00601522,0,
4,0.817097,0.424208,-0.134706,-0.00603854,0,
4,0.803334,0.41058,-0.134558,-0.00606976,0,
4,0.789195,0.396574,-0.134412,-0.00610889,0,
4,0.774643,0.382155,-0.134269,-0.00615637,0,
4,0.759639,0.367284,-0.13413,-0.00621297,0,
4,0.744138,0.351911,-0.133995,-0.00627949,0,
4,0.728096,0.335984,-0.133867,-0.00635669,0,
4,0.711463,0.31944,-0.133746,-0.00644519,0,
4,0.694189,0.302213,-0.133634,-0.00654533,0,
4,0.676218,0.284234,-0.133533,-0.00665718,0,
4,0.657495,0.265431,-0.133443,-0.0067805,0,
4,0.637962,0.245744,-0.133368,-0.00691473,0,
4,0.617561,0.225127,-0.133309,-0.00705883,0,
4,0.596848,0.204132,-0.133271,-0.00720633,0,
4,0.576557,0.183493,-0.133262,-0.0073483,0,
4,0.556564,0.163163,-0.133279,-0.00748126,0,
4,0.536763,0.143127,-0.133325,-0.00760099,0,
4,0.517057,0.123405,-0.133399,-0.00770306,0,
4,0.497368,0.104028,-0.133498,-0.007783,0,
4,0.477632,0.0850206,-0.133613,-0.00783622,0,
4,0.457804,0.066379,-0.133731,-0.0078577,0,
4,0.437857,0.048072,-0.133836,-0.00784173,0,
4,0.417786,0.0300925,-0.133931,-0.00778229,0,
4,0.397605,0.0125633,-0.134051,-0.00767515,0,
4,0.377348,-0.00413115,-0.134284,-0.00752386,0,
4,0.357066,-0.0193112,-0.134784,-0.00734603,0,
4,0.336828,-0.0322452,-0.135707,-0.00717256,0,
4,0.316717,-0.0426408,-0.137095,-0.00702792,0,
4,0.296825,-0.0509502,-0.138063,-0.00683326,0,
4,0.27725,-0.0581048,-0.138185,-0.00621127,0,
4,0.258095,-0.0646617,-0.138041,-0.00578891,0,
4,0.239458,-0.0706908,-0.137853,-0.00536772,0,
4,0.221432,-0.0762388,-0.137544,-0.00494955,0,
4,0.2041,-0.0813469,-0.13715,-0.00453866,0,
4,0.187537,-0.0860523,-0.136681,-0.00413907,0,
4,0.171798,-0.0903887,-0.136157,-0.00375448,0,
4,0.156928,-0.094386,-0.135597,-0.0033878,0,
4,0.142956,-0.0980706,-0.13502,-0.00304112,0,
4,0.129894,-0.101465,-0.134442,-0.00271581,0,
4,0.117744,-0.10459,-0.133878,-0.00241254,0,
4,0.106492,-0.107461,-0.133339,-0.00213146,0,
4,0.0961173,-0.110094,-0.132833,-0.00187223,0,
4,0.0865883,-0.112501,-0.132365,-0.00163418,0,
4,0.0778675,-0.114693,-0.131937,-0.00141639,0,
4,0.0699123,-0.116679,-0.131551,-0.00121776,0,
4,0.062677,-0.118469,-0.131206,-0.00103709,0,
4,0.056114,-0.120067,-0.1309,-0.000873131,0,
4,0.0501747,-0.121482,-0.130631,-0.000724623,0,
4,0.0448114,-0.122716,-0.130395,-0.000590332,0,
4,0.039977,-0.123774,-0.13019,-0.000469074,0,
4,0.0356266,-0.124658,-0.130012,-0.000359724,0,
4,0.0317171,-0.125368,-0.129859,-0.000261236,0,
4,0.0282081,-0.125902,-0.129727,-0.000172646,0,
4,0.0250617,-0.126256,-0.129614,-9.30857e-05,0,
4,0.0222427,-0.126422,-0.129518,-2.17875e-05,0,
4,0.0197189,-0.126389,-0.129437,4.18999e-05,0,
4,0.0174603,-0.126137,-0.129368,9.84911e-05,0,
4,0.0154398,-0.125638,-0.129311,0.000148326,0,
4,0.0136326,-0.124854,-0.129263,0.000191507,0,
4,0.0120162,-0.123725,-0.129224,0.000227782,0,
4,0.0105703,-0.122167,-0.129192,0.000256349,0,
4,0.00927657,-0.120055,-0.129168,0.000275539,0,
4,0.00811839,-0.117208,-0.129147,0.000282411,0,
4,0.0070809,-0.11337,-0.129134,0.000272613,0,
4,0.0061507,-0.108223,-0.129122,0.00024177,0,
4,0.00531578,-0.101461,-0.129117,0.000190125,0,
4,0.00456537,-0.0929948,-0.129112,0.000127994,0,
4,0.00388979,-0.0831424,-0.129111,7.24329e-05,0,
4,0.00328037,-0.072554,-0.129108,3.46025e-05,0,
4,0.00272934,-0.0618735,-0.129109,1.41414e-05,0,
4,0.0022297,-0.0515123,-0.129106,4.95647e-06,0,
4,0.00177519,-0.0416546,-0.129109,1.456e-06,0,
4,0.00136016,-0.0323484,-0.129105,3.37174e-07,0,
4,0.000979511,-0.0235773,-0.129108,5.42498e-08,0,
4,0.00062865,-0.0152985,-0.129104,4.64777e-09,0,
4,0.000303409,-0.00745895,-0.129108,1.13672e-10,0,

6,0,0,-0.011133,0,0,
6,9,0,-0.0726781,0,0,
6,8.99969,0.0136777,-0.0726778,1.94756e-10,0,
6,8.99934,0.0291018,-0.0726781,8.98836e-09,0,
6,8.99895,0.0465128,-0.0726778,1.21856e-07,0,
6,8.9985,0.0661645,-0.072678,8.78051e-07,0,
6,8.99801,0.0883175,-0.0726778,4.33246e-06,0,
6,8.99744,0.11317,-0.0726779,1.63689e-05,0,
6,8.99681,0.140683,-0.0726777,4.93556e-05,0,
6,8.99609,0.170306,-0.0726778,0.000119528,0,
6,8.99529,0.200857,-0.0726776,0.000233162,0,
6,8.99438,0.230887,-0.0726775,0.000374836,0,
6,8.99336,0.259305,-0.0726773,0.000518566,0,
6,8.9922,0.285629,-0.0726771,0.000647129,0,
6,8.9909,0.30987,-0.0726767,0.000751063,0,
6,8.98944,0.332193,-0.0726763,0.000838528,0,
6,8.98779,0.352776,-0.0726758,0.000912087,0,
6,8.98593,0.371876,-0.0726752,0.00096983,0,
6,8.98383,0.389755,-0.0726743,0.00101775,0,
6,8.98147,0.406615,-0.0726734,0.0010583,0,
6,8.97881,0.422621,-0.0726722,0.00109311,0,
6,8.97581,0.437915,-0.0726709,0.00112351,0,
6,8.97244,0.452613,-0.0726692,0.00115052,0,
6,8.96863,0.466818,-0.0726673,0.0011749,0,
6,8.96435,0.480614,-0.072665,0.00119723,0,
6,8.95953,0.494077,-0.0726623,0.00121791,0,
6,8.95409,0.50727,-0.0726592,0.00123723,0,
6,8.94798,0.520248,-0.0726555,0.00125539,0,
6,8.94109,0.533061,-0.0726513,0.00127249,0,
6,8.93334,0.545753,-0.0726464,0.00128856,0,
6,8.92463,0.558359,-0.0726407,0.00130357,0,
6,8.91482,0.570913,-0.0726343,0.00131742,0,
6,8.90379,0.583443,-0.072627,0.00132997,0,
6,8.89139,0.595973,-0.0726187,0.00134106,0,
6,8.87746,0.608523,-0.0726094,0.00135044,0,
6,8.86181,0.621108,-0.072599,0.00135788,0,
6,8.84423,0.633742,-0.0725873,0.00136312,0,
6,8.82452,0.646433,-0.0725744,0.00136587,0,
6,8.80241,0.659189,-0.0725601,0.00136585,0,
6,8.77763,0.672013,-0.0725444,0.00136279,0,
6,8.74989,0.68491,-0.0725272,0.0013564,0,
6,8.71885,0.697883,-0.0725086,0.00134639,0,
6,8.68417,0.710936,-0.0724885,0.00133247,0,
6,8.64545,0.724076,-0.072467,0.0013143,0,
6,8.60229,0.737311,-0.0724441,0.00129151,0,
6,8.55423,0.750659,-0.0724199,0.00126392,0,
6,8.50082,0.764146,-0.0723953,0.00123161,0,
6,8.44155,0.777837,-0.0723706,0.00119406,0,
6,8.37592,0.791853,-0.0723466,0.00115006,0,
6,8.30339,0.806394,-0.072324,0.00109741,0,
6,8.22344,0.821738,-0.0723038,0.00103274,0,
6,8.13555,0.838227,-0.0722847,0.000951924,0,
6,8.0392,0.85619,-0.0722659,0.000850484,0,
6,7.93391,0.875758,-0.0722394,0.00072614,0,
6,7.81927,0.89651,-0.0722048,0.000583934,0,
6,7.6949,0.91717,-0.0721467,0.000439741,0,
6,7.56054,0.935783,-0.0720805,0.000306982,0,
6,7.41603,0.950537,-0.0719817,0.000184868,0,
6,7.26132,0.960439,-0.0718696,7.79971e-05,0,
6,7.09653,0.965553,-0.0717473,2.21407e-05,0,
6,6.92195,0.967101,-0.0715933,2.13446e-06,0,
6,6.73802,0.966827,-0.0714093,-1.26557e-06,0,
6,6.5454,0.966095,-0.071187,-7.16476e-07,0,
6,6.34489,0.965533,-0.0709233,-2.22703e-07,0,
6,6.1375,0.965221,-0.0706136,-6.39033e-08,0,
6,5.92439,0.965031,-0.0702528,-2.38974e-08,0,
6,5.70687,0.964844,-0.0698349,-1.2746e-08,0,
6,5.48633,0.964606,-0.0693539,-9.23871e-09,0,
6,5.26426,0.964309,-0.0688033,-8.46659e-09,0,
6,5.04218,0.963964,-0.0681769,-8.80506e-09,0,
6,4.82159,0.963583,-0.0674692,-9.60053e-09,0,
6,4.60398,0.963179,-0.0666753,-1.06851e-08,0,
6,4.39071,0.962747,-0.0657919,-1.2256e-08,0,
6,4.18307,0.962252,-0.0648171,-1.47431e-08,0,
6,3.98218,0.961633,-0.0637515,-1.84542e-08,0,
6,3.78902,0.960836,-0.062598,-2.30597e-08,0,
6,3.60438,0.959903,-0.0613622,-3.11777e-08,0,
6,3.42888,0.959022,-0.060052,-7.23104e-08,0,
6,3.26296,0.958485,-0.0586766,-2.01434e-07,0,
6,3.10691,0.958509,-0.0572456,-3.25196e-07,0,
6,2.96084,0.959033,-0.05577,-3.22246e-07,0,
6,2.82473,0.959662,-0.0542645,-1.22623e-06,0,
6,2.69844,0.959808,-0.0527463,-5.74295e-06,0,
6,2.58172,0.95891,-0.0512338,-1.67903e-05,0,
6,2.47424,0.956607,-0.0497452,-3.60245e-05,0,
6,2.37559,0.9528,-0.0482974,-6.34481e-05,0,
6,2.28535,0.947614,-0.046905,-9.77626e-05,0,
6,2.20301,0.941323,-0.0455795,-0.000136959,0,
6,2.1281,0.934259,-0.0443293,-0.000178832,0,
6,2.06009,0.926756,-0.0431593,-0.000221358,0,
6,1.99849,0.919101,-0.0420719,-0.000262905,0,
6,1.9428,0.911523,-0.0410672,-0.000302303,0,
6,1.89255,0.904191,-0.0401436,-0.000338828,0,
6,1.84728,0.897219,-0.0392979,-0.000372115,0,
6,1.80655,0.890676,-0.0385269,-0.000401995,0,
6,1.76996,0.884602,-0.0378254,-0.000428376,0,
6,1.73712,0.879013,-0.0371902,-0.000452676,0,
6,1.70768,0.873875,-0.0366142,-0.00047487,0,
6,1.67998,0.868956,-0.0360699,-0.000494164,0,
6,1.65329,0.86415,-0.0355404,-0.000512348,0,
6,1.62754,0.85945,-0.0350262,-0.000529734,0,
6,1.60265,0.854851,-0.0345256,-0.00054615,0,
6,1.57854,0.850348,-0.0340378,-0.000561633,0,
6,1.55515,0.845937,-0.0335617,-0.000576224,0,
6,1.53242,0.841612,-0.0330965,-0.000589956,0,
6,1.5103,0.837369,-0.0326412,-0.000602828,0,
6,1.48874,0.833203,-0.0321951,-0.000614825,0,
6,1.46769,0.829108,-0.0317576,-0.000625938,0,
6,1.44712,0.82508,-0.0313278,-0.00063616,0,
6,1.42698,0.821114,-0.0309053,-0.00064549,0,
6,1.40725,0.817205,-0.0304894,-0.000653941,0,
6,1.38788,0.813347,-0.0300797,-0.000661547,0,
6,1.36886,0.809533,-0.0296757,-0.000668376,0,
6,1.35015,0.805758,-0.0292769,-0.000674536,0,
6,1.33173,0.802012,-0.0288831,-0.000680152,0,
6,1.31357,0.798285,-0.0284937,-0.000685534,0,
6,1.29566,0.794565,-0.0281084,-0.000691112,0,
6,1.27797,0.790839,-0.0277268,-0.000697483,0,
6,1.26048,0.78709,-0.0273486,-0.000705486,0,
6,1.24318,0.783296,-0.0269735,-0.000716248,0,
6,1.22605,0.779432,-0.0266013,-0.000731394,0,
6,1.20907,0.775463,-0.0262319,-0.000752759,0,
6,1.19223,0.771344,-0.0258655,-0.000782784,0,
6,1.17551,0.767017,-0.025502,-0.000824545,0,
6,1.1589,0.76241,-0.0251416,-0.00088167,0,
6,1.14238,0.757438,-0.0247849,-0.000958083,0,
6,1.12595,0.752005,-0.024432,-0.00105751,0,
6,1.10959,0.746017,-0.0240839,-0.00118264,0,
6,1.09329,0.739399,-0.0237404,-0.00133406,0,
6,1.07704,0.732105,-0.0234036,-0.00150869,0,
6,1.06081,0.724142,-0.0230699,-0.00169911,0,
6,1.04459,0.715581,-0.0227506,-0.00190232,0,
6,1.02836,0.706479,-0.0224133,-0.00208847,0,
6,1.01211,0.696825,-0.0220534,-0.00227099,0,
6,0.99583,0.686602,-0.021703,-0.00245914,0,
6,0.97951,0.675806,-0.0213539,-0.00265297,0,
6,0.963136,0.664434,-0.0210118,-0.0028532,0,
6,0.946694,0.652475,-0.0206762,-0.00306112,0,
6,0.930172,0.639915,-0.0203487,-0.00327814,0,
6,0.913555,0.626739,-0.0200305,-0.00350565,0,
6,0.896829,0.612936,-0.0197225,-0.00374476,0,
6,0.879979,0.598505,-0.0194252,-0.00399629,0,
6,0.862989,0.583459,-0.0191388,-0.00426091,0,
6,0.845842,0.567831,-0.0188628,-0.00453955,0,
6,0.828521,0.551664,-0.0185994,-0.00483325,0,
6,0.811008,0.534992,-0.0183534,-0.00513497,0,
6,0.793282,0.517833,-0.0181259,-0.005443,0,
6,0.775322,0.500203,-0.0179166,-0.00575555,0,
6,0.757107,0.482124,-0.0177251,-0.00607039,0,
6,0.738612,0.46363,-0.0175516,-0.0063848,0,
6,0.719813,0.44477,-0.0173971,-0.00669547,0,
6,0.700681,0.425605,-0.0172629,-0.00699834,0,
6,0.681188,0.406213,-0.0171501,-0.00728841,0,
6,0.661304,0.386676,-0.0170592,-0.0075598,0,
6,0.640996,0.367078,-0.0169902,-0.00780616,0,
6,0.620228,0.347508,-0.0169437,-0.00802199,0,
6,0.598964,0.328054,-0.0169209,-0.0082028,0,
6,0.577166,0.308801,-0.0169208,-0.00834482,0,
6,0.554791,0.289818,-0.0169376,-0.00844477,0,
6,0.531799,0.271132,-0.0169585,-0.00849932,0,
6,0.508144,0.252713,-0.0169657,-0.00850434,0,
6,0.48378,0.234482,-0.0169481,-0.0084543,0,
6,0.459585,0.217012,-0.0169248,-0.00834852,0,
6,0.436695,0.201146,-0.0169701,-0.00820064,0,
6,0.414961,0.187064,-0.017217,-0.00803065,0,
6,0.394252,0.175092,-0.0178064,-0.00786386,0,
6,0.374445,0.16541,-0.0188401,-0.00772118,0,
6,0.355433,0.157755,-0.020012,-0.00759791,0,
6,0.337122,0.151402,-0.0204417,-0.0072033,0,
6,0.319433,0.145712,-0.0202275,-0.00673658,0,
6,0.3023,0.140407,-0.0200015,-0.0063921,0,
6,0.28567,0.135426,-0.0197546,-0.00605255,0,
6,0.269507,0.130727,-0.0194605,-0.00571686,0,
6,0.253785,0.126274,-0.0191316,-0.00538636,0,
6,0.238493,0.122039,-0.0187704,-0.00506196,0,
6,0.223631,0.118,-0.0183814,-0.00474463,0,
6,0.209207,0.114138,-0.0179696,-0.00443536,0,
6,0.195237,0.110441,-0.0175405,-0.00413513,0,
6,0.181744,0.106896,-0.0171002,-0.00384492,0,
6,0.168754,0.103496,-0.0166548,-0.00356566,0,
6,0.156292,0.100233,-0.0162104,-0.00329821,0,
6,0.144384,0.0971034,-0.0157727,-0.00304331,0,
6,0.133052,0.0941018,-0.0153471,-0.00280157,0,
6,0.122315,0.0912248,-0.014938,-0.00257342,0,
6,0.112183,0.0884689,-0.0145493,-0.00235913,0,
6,0.102665,0.0858309,-0.0141836,-0.00215878,0,
6,0.0937597,0.0833074,-0.0138431,-0.00197228,0,
6,0.0854609,0.0808948,-0.0135288,-0.00179941,0,
6,0.077757,0.0785891,-0.013241,-0.00163978,0,
6,0.0706309,0.0763861,-0.0129796,-0.00149291,0,
6,0.0640611,0.0742811,-0.0127437,-0.00135823,0,
6,0.0580229,0.072269,-0.012532,-0.00123508,0,
6,0.0524888,0.0703443,-0.0123433,-0.00112278,0,
6,0.0474296,0.0685011,-0.0121758,-0.00102061,0,
6,0.042815,0.0667332,-0.0120278,-0.000927856,0,
6,0.0386145,0.0650337,-0.0118976,-0.000843782,0,
6,0.0347975,0.0633957,-0.0117834,-0.000767683,0,
6,0.0313344,0.0618116,-0.0116837,-0.000698872,0,
6,0.0281964,0.0602733,-0.011597,-0.000636686,0,
6,0.0253561,0.0587724,-0.0115216,-0.000580495,0,
6,0.0227875,0.0572995,-0.0114565,-0.000529695,0,
6,0.0204662,0.0558445,-0.0114004,-0.000483711,0,
6,0.0183694,0.0543957,-0.0113523,-0.000441989,0,
6,0.016476,0.0529401,-0.011311,-0.000403991,0,
6,0.0147664,0.0514623,-0.0112761,-0.000369178,0,
6,0.0132228,0.0499439,-0.0112463,-0.000336998,0,
6,0.0118288,0.0483621,-0.0112218,-0.000306851,0,
6,0.0105693,0.0466886,-0.0112008,-0.000278057,0,
6,0.00943073,0.0448871,-0.0111845,-0.000249804,0,
6,0.00840063,0.0429118,-0.0111704,-0.000221108,0,
6,0.00746774,0.0407064,-0.0111605,-0.000190846,0,
6,0.00662185,0.0382077,-0.0111518,-0.000158037,0,
6,0.00585371,0.0353606,-0.011147,-0.000122636,0,
6,0.00515491,0.0321515,-0.0111422,-8.66982e-05,0,
6,0.00451788,0.0286502,-0.0111409,-5.44965e-05,0,
6,0.00393573,0.0250177,-0.0111382,-3.01403e-05,0,
6,0.00340221,0.0214474,-0.0111387,-1.47374e-05,0,
6,0.00291168,0.0180862,-0.0111366,-6.43665e-06,0,
6,0.00245897,0.0150039,-0.0111379,-2.51899e-06,0,
6,0.00203939,0.0122112,-0.0111357,-8.72107e-07,0,
6,0.00164864,0.00968748,-0.0111375,-2.5788e-07,0,
6,0.00128281,0.007401,-0.0111348,-6.07949e-08,0,
6,0.000938257,0.0053183,-0.0111373,-1.00211e-08,0,
6,0.000611645,0.00340837,-0.011134,-8.79862e-10,0,
6,0.000299862,0.00164379,-0.0111373,-2.16787e-11,0,

10,0.000296632,0.0104752,0.0293949,-1.13397e-10,0,
10,0.000596102,0.0210477,0.0293956,-4.2027e-09,0,
10,0.000900397,0.0317875,0.0293948,-4.27232e-08,0,
10,0.00121153,0.0427647,0.0293954,-2.29437e-07,0,
10,0.00153158,0.0540481,0.0293948,-8.56779e-07,0,
10,0.00186264,0.0657026,0.0293953,-2.5382e-06,0,
10,0.00220692,0.0777827,0.0293947,-6.39882e-06,0,
10,0.00256668,0.0903222,0.0293951,-1.42785e-05,0,
10,0.00294431,0.103319,0.0293946,-2.88296e-05,0,
10,0.00334229,0.116713,0.0293949,-5.32854e-05,0,
10,0.00376326,0.130374,0.0293944,-9.06663e-05,0,
10,0.00421,0.144096,0.0293945,-0.000142489,0,
10,0.00468544,0.15762,0.029394,-0.00020763,0,
10,0.00519274,0.170678,0.0293939,-0.000282239,0,
10,0.00573524,0.183044,0.0293931,-0.000360952,0,
10,0.00631651,0.194561,0.0293926,-0.000438573,0,
10,0.00694041,0.205152,0.0293914,-0.000511247,0,
10,0.00761104,0.214805,0.0293903,-0.000576777,0,
10,0.00833284,0.223555,0.0293884,-0.000634373,0,
10,0.00911058,0.231468,0.0293864,-0.000684211,0,
10,0.0099494,0.238623,0.0293836,-0.000727027,0,
10,0.0108548,0.245105,0.0293804,-0.000763817,0,
10,0.0118329,0.250996,0.0293763,-0.000795642,0,
10,0.0128901,0.256373,0.0293715,-0.000823523,0,
10,0.0140333,0.261305,0.0293658,-0.000848385,0,
10,0.0152702,0.265851,0.0293591,-0.000871034,0,
10,0.0166089,0.270067,0.0293511,-0.000892168,0,
10,0.0180584,0.273996,0.029342,-0.00091238,0,
10,0.0196282,0.27768,0.0293314,-0.000932181,0,
10,0.0213288,0.281151,0.0293192,-0.000952017,0,
10,0.0231714,0.284441,0.0293053,-0.000972279,0,
10,0.0251682,0.287573,0.0292894,-0.000993319,0,
10,0.0273326,0.290572,0.0292714,-0.00101547,0,
10,0.0296789,0.293457,0.0292509,-0.00103903,0,
10,0.0322227,0.296244,0.0292278,-0.00106431,0,
10,0.0349809,0.298951,0.0292018,-0.0010916,0,
10,0.0379719,0.301591,0.0291724,-0.00112121,0,
10,0.0412155,0.304177,0.0291395,-0.00115344,0,
10,0.0447333,0.306721,0.0291026,-0.00118862,0,
10,0.0485489,0.309235,0.0290612,-0.00122709,0,
10,0.0526875,0.311728,0.029015,-0.00126921,0,
10,0.0571768,0.314212,0.0289635,-0.00131536,0,
10,0.0620466,0.316697,0.028906,-0.00136596,0,
10,0.0673295,0.319192,0.0288422,-0.00142145,0,
10,0.0730607,0.321708,0.0287712,-0.00148233,0,
10,0.0792784,0.324254,0.0286925,-0.0015491,0,
10,0.0860241,0.326842,0.0286054,-0.00162236,0,
10,0.0933428,0.329481,0.028509,-0.0017027,0,
10,0.101283,0.332184,0.0284028,-0.0017908,0,
10,0.109899,0.334963,0.0282859,-0.0018874,0,
10,0.119247,0.33783,0.0281574,-0.00199329,0,
10,0.12939,0.340802,0.0280167,-0.00210932,0,
10,0.140395,0.343892,0.027863,-0.00223642,0,
10,0.152337,0.34712,0.0276956,-0.0023756,0,
10,0.165296,0.350505,0.027514,-0.00252793,0,
10,0.179357,0.354071,0.0273177,-0.00269455,0,
10,0.194615,0.357842,0.0271067,-0.00287666,0,
10,0.211171,0.361849,0.026881,-0.00307554,0,
10,0.229138,0.366126,0.026641,-0.00329247,0,
10,0.248635,0.370716,0.0263879,-0.00352873,0,
10,0.269793,0.375666,0.0261224,-0.00378554,0,
10,0.292753,0.381034,0.0258482,-0.00406399,0,
10,0.317669,0.386891,0.0255646,-0.00436399,0,
10,0.344708,0.393318,0.0252805,-0.00468411,0,
10,0.372405,0.400019,0.0250128,-0.00500735,0,
10,0.399623,0.406752,0.0247699,-0.00532161,0,
10,0.426397,0.413552,0.0245574,-0.00562258,0,
10,0.452757,0.420453,0.0243841,-0.00590962,0,
10,0.478735,0.4275,0.0242082,-0.00624528,0,
10,0.504358,0.434893,0.0243166,-0.00655829,0,
10,0.529657,0.443167,0.0248108,-0.0065895,0,
10,0.554656,0.452867,0.0252688,-0.00661518,0,
10,0.579382,0.464025,0.0255218,-0.00663558,0,
10,0.603859,0.476293,0.0256136,-0.00663742,0,
10,0.628112,0.489229,0.0256044,-0.00660892,0,
10,0.652163,0.502527,0.0255527,-0.00654373,0,
10,0.676035,0.516075,0.0254931,-0.00643982,0,
10,0.699751,0.529899,0.0254403,-0.00629694,0,
10,0.72333,0.54408,0.0253939,-0.00611517,0,
10,0.746795,0.558693,0.0253471,-0.00589448,0,
10,0.770165,0.573767,0.0252918,-0.00563511,0,
10,0.79346,0.58927,0.0252231,-0.00533802,0,
10,0.816699,0.605107,0.025137,-0.00500578,0,
10,0.839903,0.621115,0.0250328,-0.00464378,0,
10,0.863088,0.63705,0.0249057,-0.0042639,0,
10,0.886275,0.652576,0.0247519,-0.00389974,0,
10,0.909481,0.667397,0.0245815,-0.00354847,0,
10,0.932723,0.6814,0.0244031,-0.00320743,0,
10,0.956021,0.694605,0.0242194,-0.00287869,0,
10,0.97939,0.707051,0.0240292,-0.00256615,0,
10,1.00285,0.718739,0.02383,-0.00227421,0,
10,1.02641,0.729627,0.0236205,-0.00200698,0,
10,1.0501,0.739668,0.0234003,-0.00176757,0,
10,1.07392,0.748844,0.0231702,-0.00155751,0,
10,1.0979,0.757187,0.0229311,-0.00137676,0,
10,1.12205,0.764772,0.0226835,-0.0012239,0,
10,1.14639,0.771703,0.022428,-0.00109641,0,
10,1.17093,0.778102,0.0221653,-0.000991036,0,
10,1.19568,0.784088,0.0218958,-0.000904226,0,
10,1.22066,0.789773,0.0216201,-0.000832613,0,
10,1.24589,0.795243,0.0213383,-0.000773268,0,
10,1.27137,0.800562,0.0210505,-0.000723738,0,
10,1.29713,0.80577,0.0207564,-0.000681965,0,
10,1.32317,0.810895,0.020456,-0.000646189,0,
10,1.34951,0.815955,0.0201493,-0.000614912,0,
10,1.37616,0.820966,0.0198362,-0.000586894,0,
10,1.40313,0.825942,0.0195165,-0.000561154,0,
10,1.43043,0.830891,0.0191903,-0.000536972,0,
10,1.45807,0.835819,0.0188574,-0.00051388,0,
10,1.48607,0.840727,0.0185174,-0.000491603,0,
10,1.51444,0.845615,0.0181704,-0.000469973,0,
10,1.54318,0.850481,0.0178162,-0.000448859,0,
10,1.57231,0.855319,0.0174548,-0.000428158,0,
10,1.60184,0.860123,0.0170859,-0.000407796,0,
10,1.63178,0.864881,0.0167095,-0.000387728,0,
10,1.66213,0.869582,0.0163255,-0.00036794,0,
10,1.69292,0.874214,0.0159338,-0.00034845,0,
10,1.72416,0.878763,0.0155343,-0.000329303,0,
10,1.75585,0.883215,0.0151269,-0.000310564,0,
10,1.78802,0.887558,0.0147115,-0.000292306,0,
10,1.82067,0.891775,0.0142881,-0.000274617,0,
10,1.85383,0.89585,0.0138565,-0.000257585,0,
10,1.88751,0.899765,0.0134169,-0.000241316,0,
10,1.92173,0.903503,0.0129689,-0.000225912,0,
10,1.95652,0.907042,0.0125131,-0.000211499,0,
10,1.9919,0.910363,0.0120486,-0.000198128,0,
10,2.02791,0.91346,0.0115777,-0.00018568,0,
10,2.06456,0.916365,0.011099,-0.000168343,0,
10,2.10268,0.919177,0.0105993,-0.000146075,0,
10,2.1443,0.921971,0.0100577,-0.000122742,0,
10,2.18977,0.924654,0.00946491,-9.90027e-05,0,
10,2.23946,0.927128,0.00882065,-7.64698e-05,0,
10,2.29376,0.929315,0.00811858,-5.62964e-05,0,
10,2.35309,0.931143,0.00735722,-3.90325e-05,0,
10,2.4179,0.932548,0.00653216,-2.5018e-05,0,
10,2.48863,0.93349,0.00564194,-1.4433e-05,0,
10,2.56575,0.933966,0.00468405,-7.21178e-06,0,
10,2.64971,0.934022,0.00365806,-2.98473e-06,0,
10,2.74098,0.933763,0.00256348,-1.08557e-06,0,
10,2.83997,0.933348,0.00140132,-6.45716e-07,0,
10,2.94709,0.932967,0.000173013,-7.93016e-07,0,
10,3.06269,0.932803,-0.00111882,-9.01418e-07,0,
10,3.18706,0.932977,-0.00247079,-7.53763e-07,0,
10,3.3204,0.933515,-0.00387811,-4.66643e-07,0,
10,3.46281,0.934342,-0.00533456,-2.24601e-07,0,
10,3.61427,0.93532,-0.00683192,-9.5303e-08,0,
10,3.77463,0.936307,-0.00836007,-4.61565e-08,0,
10,3.94358,0.937212,-0.00990718,-3.08192e-08,0,
10,4.12067,0.938009,-0.0114603,-2.55024e-08,0,
10,4.30525,0.938725,-0.0130058,-2.30515e-08,0,
10,4.49655,0.939406,-0.0145303,-2.2057e-08,0,
10,4.6936,0.940081,-0.0160206,-2.24679e-08,0,
10,4.89531,0.940758,-0.0174646,-2.50268e-08,0,
10,5.10047,0.941424,-0.0188513,-3.18798e-08,0,
10,5.30776,0.942056,-0.0201711,-4.77455e-08,0,
10,5.51581,0.942638,-0.0214164,-8.23053e-08,0,
10,5.72323,0.943169,-0.0225814,-1.56648e-07,0,
10,5.92863,0.943678,-0.0236623,-3.23252e-07,0,
10,6.13069,0.94424,-0.0246571,-7.16527e-07,0,
10,6.32816,0.944945,-0.0255663,-1.57971e-06,0,
10,6.51991,0.945788,-0.0263908,-2.82362e-06,0,
10,6.70495,0.946452,-0.0271353,-2.15435e-06,0,
10,6.88244,0.946114,-0.0278011,7.77891e-06,0,
10,7.0517,0.943508,-0.0283942,3.9458e-05,0,
10,7.21224,0.937357,-0.0289111,0.000105705,0,
10,7.3637,0.926978,-0.0293616,0.000215059,0,
10,7.5059,0.912386,-0.0297543,0.000328651,0,
10,7.63878,0.894176,-0.0300788,0.00044914,0,
10,7.76243,0.873817,-0.0303521,0.000578853,0,
10,7.87701,0.853174,-0.0305705,0.000707257,0,
10,7.9828,0.833608,-0.0307503,0.00081916,0,
10,8.08014,0.815643,-0.030894,0.000911496,0,
10,8.16941,0.799208,-0.0310134,0.000986844,0,
10,8.25106,0.783968,-0.0311121,0.00104938,0,
10,8.32554,0.769559,-0.0311966,0.0011023,0,
10,8.39331,0.755686,-0.0312685,0.00114813,0,
10,8.45484,0.742149,-0.0313304,0.00118831,0,
10,8.5106,0.72884,-0.0313834,0.0012234,0,
10,8.56104,0.715715,-0.0314289,0.00125362,0,
10,8.60659,0.702769,-0.0314681,0.00127905,0,
10,8.64767,0.689999,-0.0315018,0.00129846,0,
10,8.68467,0.677393,-0.0315307,0.00131136,0,
10,8.71795,0.664939,-0.0315558,0.00132001,0,
10,8.74786,0.652641,-0.0315771,0.00132418,0,
10,8.77471,0.640498,-0.0315956,0.00132429,0,
10,8.79881,0.628511,-0.0316114,0.00132082,0,
10,8.8204,0.616675,-0.031625,0.00131429,0,
10,8.83975,0.604981,-0.0316365,0.00130516,0,
10,8.85708,0.593416,-0.0316464,0.00129391,0,
10,8.87259,0.581966,-0.0316548,0.00128097,0,
10,8.88646,0.57061,-0.0316619,0.00126671,0,
10,8.89886,0.559324,-0.0316679,0.00125147,0,
10,8.90995,0.548082,-0.031673,0.0012355,0,
10,8.91986,0.536855,-0.0316772,0.00121901,0,
10,8.92872,0.52561,-0.0316808,0.00120214,0,
10,8.93663,0.514312,-0.0316837,0.00118497,0,
10,8.94369,0.502924,-0.0316862,0.00116752,0,
10,8.95,0.491403,-0.0316882,0.00114972,0,
10,8.95564,0.479705,-0.0316899,0.00113151,0,
10,8.96067,0.467782,-0.0316912,0.00111268,0,
10,8.96517,0.455578,-0.0316925,0.001093,0,
10,8.96918,0.443034,-0.0316933,0.00107211,0,
10,8.97276,0.430078,-0.0316942,0.00104959,0,
10,8.97596,0.416633,-0.0316947,0.00102487,0,
10,8.97882,0.402606,-0.0316954,0.000997213,0,
10,8.98137,0.387889,-0.0316956,0.000965676,0,
10,8.98365,0.372355,-0.0316962,0.000929044,0,
10,8.98569,0.355853,-0.0316962,0.000885914,0,
10,8.9875,0.338202,-0.0316967,0.000834032,0,
10,8.98913,0.319162,-0.0316966,0.00076826,0,
10,8.99058,0.298501,-0.0316971,0.000690442,0,
10,8.99188,0.276056,-0.0316968,0.000598598,0,
10,8.99304,0.251662,-0.0316974,0.000484921,0,
10,8.99408,0.225261,-0.031697,0.000357166,0,
10,8.99501,0.197206,-0.0316975,0.000228778,0,
10,8.99583,0.16839,-0.031697,0.000121974,0,
10,8.99658,0.14009,-0.0316976,5.26395e-05,0,
10,8.99724,0.113455,-0.031697,1.8227e-05,0,
10,8.99784,0.0891014,-0.0316977,5.01605e-06,0,
10,8.99837,0.0671555,-0.031697,1.05277e-06,0,
10,8.99885,0.0474857,-0.0316978,1.50857e-07,0,
10,8.99927,0.0298797,-0.031697,1.14543e-08,0,
10,8.99966,0.0141201,-0.0316979,2.53442e-10,0,
10,0,0,0.0293958,0,0,
10,9,0,-0.0316969,0,0,

0.004,0,0,-0.226948,0,3.30626e-07,
0.00868226,0,0,-0.226962,0,-5.97628e-07,
0.014062,0,0,-0.226948,0,-1.54925e-06,
0.0201548,0,0,-0.226957,0,-1.63346e-06,
0.0269766,0,0,-0.226938,0,1.40881e-07,
0.0345437,0,0,-0.226938,0,5.09402e-06,
0.0428729,0,0,-0.226921,0,1.36456e-05,
0.051981,0,0,-0.226927,0,2.60351e-05,
0.0618853,0,0,-0.226935,0,4.08859e-05,
0.0726036,0,0,-0.22697,0,5.68009e-05,
0.0841536,0,0,-0.227018,0,7.19038e-05,
0.0965535,0,0,-0.227089,0,8.5291e-05,
0.109822,0,0,-0.227172,0,9.64905e-05,
0.123977,0,0,-0.227271,0,0.000105772,
0.139037,0,0,-0.227383,0,0.000113393,
0.155022,0,0,-0.227513,0,0.000119525,
0.171949,0,0,-0.22766,0,0.00012392,
0.189839,0,0,-0.227828,0,0.000126092,
0.208709,0,0,-0.228019,0,0.000125404,
0.228579,0,0,-0.228231,0,0.00012128,
0.249467,0,0,-0.228466,0,0.000113314,
0.271391,0,0,-0.22872,0,0.000101356,
0.29437,0,0,-0.228991,0,8.55239e-05,
0.31842,0,0,-0.229276,0,6.61768e-05,
0.343559,0,0,-0.229572,0,4.38499e-05,
0.369804,0,0,-0.229875,0,1.91885e-05,
0.39717,0,0,-0.230182,0,-7.12369e-06,
0.425672,0,0,-0.230488,0,-3.44387e-05,
0.455324,0,0,-0.230793,0,-6.22087e-05,
0.48614,0,0,-0.231095,0,-9.00259e-05,
0.518132,0,0,-0.231392,0,-0.000117631,
0.551309,0,0,-0.231686,0,-0.000144897,
0.585683,0,0,-0.231976,0,-0.000171794,
0.621259,0,0,-0.232263,0,-0.000198351,
0.658046,0,0,-0.232548,0,-0.000224612,
0.696047,0,0,-0.232832,0,-0.000250594,
0.735265,0,0,-0.233115,0,-0.000276253,
0.7757,0,0,-0.233399,0,-0.000301436,
0.817352,0,0,-0.233683,0,-0.000325858,
0.860215,0,0,-0.233969,0,-0.000349076,
0.904285,0,0,-0.234256,0,-0.000370502,
0.949552,0,0,-0.234544,0,-0.000389464,
0.996004,0,0,-0.234836,0,-0.000405315,
1.04363,0,0,-0.235132,0,-0.000417574,
1.09241,0,0,-0.235437,0,-0.000426049,
1.14232,0,0,-0.235757,0,-0.000430887,
1.19335,0,0,-0.236102,0,-0.00043252,
1.24546,0,0,-0.236487,0,-0.000431538,
1.29863,0,0,-0.236933,0,-0.00042858,
1.35283,0,0,-0.237469,0,-0.000424343,
1.40802,0,0,-0.238132,0,-0.000419735,
1.46416,0,0,-0.238964,0,-0.000416102,
1.52121,0,0,-0.240009,0,-0.000415362,
1.57913,0,0,-0.241308,0,-0.000419931,
1.63787,0,0,-0.242886,0,-0.000432378,
1.69739,0,0,-0.244756,0,-0.000455034,
1.75761,0,0,-0.246916,0,-0.000489768,
1.81851,0,0,-0.249353,0,-0.000538009,
1.88,0,0,-0.25204,0,-0.000600922,
1.94204,0,0,-0.254938,0,-0.000679549,
2.00457,0,0,-0.257986,0,-0.000774836,
2.06751,0,0,-0.261097,0,-0.000887481,
2.13081,0,0,-0.264149,0,-0.00101761,
2.19439,0,0,-0.266983,0,-0.00116428,
2.25819,0,0,-0.269398,0,-0.00132487,
2.32214,0,0,-0.271162,0,-0.00149443,
2.38617,0,0,-0.27204,0,-0.00166549,
2.4502,0,0,-0.271846,0,-0.0018289,
2.51418,0,0,-0.270483,0,-0.00197576,
2.57803,0,0,-0.267952,0,-0.00209929,
2.64167,0,0,-0.264341,0,-0.00219557,
2.70505,0,0,-0.259811,0,-0.0022638,
2.76808,0,0,-0.254557,0,-0.00230592,
2.83072,0,0,-0.248772,0,-0.00232567,
2.89288,0,0,-0.242629,0,-0.00232749,
2.95451,0,0,-0.23627,0,-0.00231571,
3.01555,0,0,-0.229799,0,-0.00229388,
3.07594,0,0,-0.223299,0,-0.00226473,
3.13561,0,0,-0.216824,0,-0.00223029,
3.19453,0,0,-0.210415,0,-0.00219195,
3.25262,0,0,-0.204103,0,-0.00215069,
3.30985,0,0,-0.197912,0,-0.00210722,
3.36617,0,0,-0.191857,0,-0.00206206,
3.42154,0,0,-0.185954,0,-0.00201562,
3.47591,0,0,-0.180215,0,-0.00196822,
3.52925,0,0,-0.174646,0,-0.00192018,
3.58152,0,0,-0.169257,0,-0.00187179,
3.6327,0,0,-0.164051,0,-0.00182332,
3.68276,0,0,-0.159033,0,-0.00177504,
3.73167,0,0,-0.154203,0,-0.00172719,
3.77941,0,0,-0.149562,0,-0.00167996,
3.82596,0,0,-0.145107,0,-0.00163348,
3.8713,0,0,-0.140837,0,-0.00158788,
3.91543,0,0,-0.136744,0,-0.00154308,
3.95833,0,0,-0.132851,0,-0.00149959,
4,0,0,-0.129103,0,-0.00145697,
4.04167,0,0,-0.125427,0,-0.00141431,
4.08333,0,0,-0.121817,0,-0.00137176,
4.125,0,0,-0.118268,0,-0.00132937,
4.16667,0,0,-0.114782,0,-0.00128713,
4.20833,0,0,-0.111356,0,-0.00124507,
4.25,0,0,-0.107991,0,-0.00120322,
4.29167,0,0,-0.104687,0,-0.00116159,
4.33333,0,0,-0.101442,0,-0.00112024,
4.375,0,0,-0.0982547,0,-0.00107916,
4.41667,0,0,-0.0951251,0,-0.00103838,
4.45833,0,0,-0.0920517,0,-0.000997883,
4.5,0,0,-0.0890337,0,-0.000957659,
4.54167,0,0,-0.0860705,0,-0.000917718,
4.58333,0,0,-0.083161,0,-0.000878066,
4.625,0,0,-0.0803044,0,-0.000838709,
4.66667,0,0,-0.0774996,0,-0.000799638,
4.70833,0,0,-0.0747457,0,-0.000760841,
4.75,0,0,-0.0720421,0,-0.000722314,
4.79167,0,0,-0.0693881,0,-0.000684058,
4.83333,0,0,-0.0667827,0,-0.000646075,
4.875,0,0,-0.0642251,0,-0.000608357,
4.91667,0,0,-0.0617147,0,-0.000570895,
4.95833,0,0,-0.0592507,0,-0.00053368,
5,0,0,-0.0568325,0,-0.000496712,
5.04167,0,0,-0.0544595,0,-0.000459991,
5.08333,0,0,-0.052131,0,-0.000423511,
5.125,0,0,-0.0498462,0,-0.000387261,
5.16667,0,0,-0.0476047,0,-0.000351238,
5.20833,0,0,-0.045406,0,-0.000315439,
5.25,0,0,-0.0432495,0,-0.000279863,
5.29167,0,0,-0.0411347,0,-0.000244505,
5.33333,0,0,-0.0390609,0,-0.000209358,
5.375,0,0,-0.0370278,0,-0.000174417,
5.41667,0,0,-0.035035,0,-0.000139681,
5.45833,0,0,-0.033082,0,-0.000105148,
5.5,0,0,-0.0311683,0,-7.08168e-05,
5.54167,0,0,-0.0292936,0,-3.66866e-05,
5.58333,0,0,-0.0274575,0,-2.75876e-06,
5.625,0,0,-0.0256595,0,3.09639e-05,
5.66667,0,0,-0.0238995,0,6.44773e-05,
5.70833,0,0,-0.0221768,0,9.7781e-05,
5.75,0,0,-0.0204911,0,0.000130875,
5.79167,0,0,-0.018842,0,0.000163757,
5.83333,0,0,-0.0172293,0,0.000196423,
5.875,0,0,-0.0156525,0,0.000228869,
5.91667,0,0,-0.014111,0,0.000261096,
5.95833,0,0,-0.0126047,0,0.000293102,
6,0,0,-0.0111331,0,0.000324884,
6.04167,0,0,-0.00969593,0,0.000356439,
6.08333,0,0,-0.00829266,0,0.000387761,
6.125,0,0,-0.00692292,0,0.000418851,
6.16667,0,0,-0.00558645,0,0.000449703,
6.20833,0,0,-0.00428277,0,0.000480316,
6.25,0,0,-0.00301152,0,0.000510684,
6.29167,0,0,-0.00177226,0,0.000540802,
6.33333,0,0,-0.000564674,0,0.000570667,
6.375,0,0,0.000611721,0,0.000600278,
6.41667,0,0,0.00175731,0,0.00062963,
6.45833,0,0,0.00287254,0,0.000658718,
6.5,0,0,0.00395772,0,0.000687535,
6.54167,0,0,0.0050134,0,0.000716081,
6.58333,0,0,0.00603997,0,0.000744354,
6.625,0,0,0.00703791,0,0.000772348,
6.66667,0,0,0.00800758,0,0.00080006,
6.70833,0,0,0.00894948,0,0.000827487,
6.75,0,0,0.00986404,0,0.000854626,
6.79167,0,0,0.0107517,0,0.000881475,
6.83333,0,0,0.011613,0,0.00090803,
6.875,0,0,0.0124483,0,0.000934294,
6.91667,0,0,0.0132581,0,0.000960264,
6.95833,0,0,0.0140428,0,0.000985934,
7,0,0,0.0148027,0,0.0010113,
7.04167,0,0,0.0155385,0,0.00103638,
7.08333,0,0,0.0162504,0,0.00106116,
7.125,0,0,0.0169389,0,0.00108564,
7.16667,0,0,0.0176043,0,0.00110983,
7.20833,0,0,0.0182471,0,0.00113373,
7.25,0,0,0.0188675,0,0.00115735,
7.29167,0,0,0.0194661,0,0.00118068,
7.33333,0,0,0.0200431,0,0.00120373,
7.375,0,0,0.0205991,0,0.0012265,
7.41667,0,0,0.0211342,0,0.00124899,
7.45833,0,0,0.0216487,0,0.00127118,
7.5,0,0,0.0221431,0,0.00129307,
7.54167,0,0,0.0226178,0,0.00131466,
7.58333,0,0,0.0230729,0,0.00133594,
7.625,0,0,0.0235088,0,0.00135692,
7.66667,0,0,0.0239261,0,0.00137759,
7.70833,0,0,0.0243251,0,0.00139796,
7.75,0,0,0.0247058,0,0.00141803,
7.79167,0,0,0.025069,0,0.00143778,
7.83333,0,0,0.025414,0,0.00145719,
7.875,0,0,0.0257426,0,0.00147632,
7.91667,0,0,0.0260614,0,0.00149575,
7.95833,0,0,0.0263081,0,0.00151418,
8,0,0,0.0266456,0,0.00153308,
8.04171,0,0,0.0270106,0,0.00155258,
8.08368,0,0,0.0272403,0,0.00157191,
8.12617,0,0,0.0275046,0,0.00158942,
8.16946,0,0,0.027757,0,0.00160687,
8.21382,0,0,0.0279926,0,0.00162434,
8.25952,0,0,0.0282199,0,0.00164185,
8.30685,0,0,0.0284391,0,0.00165958,
8.35611,0,0,0.0286503,0,0.00167762,
8.40762,0,0,0.028854,0,0.00169607,
8.46168,0,0,0.0290494,0,0.00171498,
8.51865,0,0,0.029236,0,0.0017344,
8.57889,0,0,0.0294128,0,0.00175439,
8.64276,0,0,0.0295784,0,0.001775,
8.71067,0,0,0.0297303,0,0.00179628,
8.78306,0,0,0.0298662,0,0.00181824,
8.86037,0,0,0.0299841,0,0.00184089,
8.94309,0,0,0.0300813,0,0.00186423,
9.03174,0,0,0.0301539,0,0.00188823,
9.12689,0,0,0.0301987,0,0.00191286,
9.22912,0,0,0.0302119,0,0.00193811,
9.33908,0,0,0.0301876,0,0.00196394,
9.45746,0,0,0.030121,0,0.00199025,
9.58501,0,0,0.0300079,0,0.00201693,
9.72253,0,0,0.0298446,0,0.00204391,
9.87088,0,0,0.0296242,0,0.00207103,
10.031,0,0,0.029341,0,0.00209813,
10.2039,0,0,0.0289945,0,0.00212505,
10.3906,0,0,0.028578,0,0.00215163,
10.5924,0,0,0.0280882,0,0.0021777,
10.8105,0,0,0.0275243,0,0.00220303,
11.0463,0,0,0.0268853,0,0.00222741,
11.3012,0,0,0.0261706,0,0.00225066,
11.5769,0,0,0.0253856,0,0.00227262,
11.8751,0,0,0.024532,0,0.0022931,
12.1977,0,0,0.0236146,0,0.00231194,
12.5466,0,0,0.0226426,0,0.00232901,
12.9242,0,0,0.0216267,0,0.00234431,
13.3327,0,0,0.0205749,0,0.00235768,
13.7748,0,0,0.0195,0,0.00236912,
14.2532,0,0,0.0184158,0,0.00237865,
14.7709,0,0,0.0173393,0,0.0023864,
15.3312,0,0,0.0162823,0,0.00239245,
15.9377,0,0,0.015257,0,0.00239698,
16.594,0,0,0.0142765,0,0.00240018,
17.3044,0,0,0.0133509,0,0.00240224,
18.0733,0,0,0.0124896,0,0.00240352,
18.9056,0,0,0.0116971,0,0.00240417,
19.8064,0,0,0.0109775,0,0.00240425,
20.7816,0,0,0.010327,0,0.00240363,
21.8371,0,0,0.00974556,0,0.00240299,
22.9796,0,0,0.00922097,0,0.00240299,
24.2163,0,0,0.00873824,0,0.00240418,
25.5551,0,0,0.00827963,0,0.00240532,
27.0042,0,0,0.00781962,0,0.00240625,
28.5729,0,0,0.00733447,0,0.00240733,
30.271,0,0,0.00679787,0,0.00240864,
32.1091,0,0,0.00619731,0,0.00241054,
34.0989,0,0,0.0055399,0,0.00241357,
36.2529,0,0,0.00484018,0,0.00241798,
38.5845,0,0,0.00409972,0,0.00242443,
41.1085,0,0,0.00331317,0,0.00243294,
43.8407,0,0,0.00227067,0,0.00243718,
46.7983,0,0,0.00116869,0,0.00243558,
50,0,0,0.00232113,0,0.00244614,

