c998c5d1e1f92d4b15703b1b849d2eea7a86386d 
X,Z,x_velocity,cp,uw_b,cf,
1,0,0,-0.236401,0,0,
1,9,0,-0.124239,0,0,
1,8.99969,0.016179,-0.124239,3.76226e-10,0,
1,8.99934,0.0345343,-0.124239,1.75852e-08,0,
1,8.99894,0.0553771,-0.124239,2.42512e-07,0,
1,8.99848,0.0790342,-0.124239,1.77582e-06,0,
1,8.99797,0.105819,-0.124239,8.84425e-06,0,
1,8.99739,0.135883,-0.124239,3.31835e-05,0,
1,8.99672,0.168875,-0.124239,9.66715e-05,0,
1,8.99597,0.203552,-0.124239,0.000219364,0,
1,8.99512,0.23792,-0.124238,0.000394099,0,
1,8.99416,0.270089,-0.124238,0.00059233,0,
1,8.99306,0.299465,-0.124238,0.000750188,0,
1,8.99182,0.326296,-0.124238,0.0008756,0,
1,8.99041,0.350857,-0.124237,0.000977872,0,
1,8.98881,0.373421,-0.124237,0.00105995,0,
1,8.98699,0.394291,-0.124236,0.00112633,0,
1,8.98494,0.413797,-0.124235,0.00117695,0,
1,8.98261,0.432245,-0.124235,0.00121646,0,
1,8.97996,0.449831,-0.124234,0.00125065,0,
1,8.97696,0.466691,-0.124232,0.00127958,0,
1,8.97356,0.482934,-0.124231,0.00130427,0,
1,8.9697,0.498656,-0.124229,0.00132555,0,
1,8.96533,0.513937,-0.124228,0.00134402,0,
1,8.96038,0.528846,-0.124225,0.00136015,0,
1,8.95476,0.543443,-0.124223,0.00137426,0,
1,8.9484,0.557776,-0.12422,0.00138659,0,
1,8.9412,0.571891,-0.124217,0.0013973,0,
1,8.93303,0.585824,-0.124214,0.00140649,0,
1,8.92379,0.599607,-0.124211,0.00141421,0,
1,8.91333,0.613269,-0.124207,0.00142046,0,
1,8.90149,0.626833,-0.124203,0.00142521,0,
1,8.8881,0.64032,-0.124199,0.00142843,0,
1,8.87295,0.653748,-0.124196,0.00143004,0,
1,8.85584,0.667131,-0.124192,0.00142993,0,
1,8.83651,0.680484,-0.124189,0.00142802,0,
1,8.81469,0.693817,-0.124187,0.00142416,0,
1,8.79007,0.707143,-0.124186,0.00141822,0,
1,8.76232,0.720472,-0.124187,0.00140999,0,
1,8.73107,0.733814,-0.124191,0.00139927,0,
1,8.69591,0.747179,-0.124198,0.00138575,0,
1,8.6564,0.760579,-0.124211,0.00136911,0,
1,8.61206,0.774027,-0.12423,0.00134895,0,
1,8.56236,0.787536,-0.124258,0.00132484,0,
1,8.50675,0.801123,-0.124298,0.0012965,0,
1,8.44464,0.814812,-0.12435,0.00126564,0,
1,8.3754,0.828674,-0.124428,0.0012403,0,
1,8.29839,0.843033,-0.124531,0.00119118,0,
1,8.21296,0.858413,-0.124664,0.00111848,0,
1,8.11843,0.875261,-0.124842,0.00102324,0,
1,8.01417,0.893836,-0.125069,0.000898621,0,
1,7.89956,0.914067,-0.125358,0.000741137,0,
1,7.77403,0.935262,-0.125713,0.00055998,0,
1,7.63711,0.955934,-0.126169,0.000380173,0,
1,7.48842,0.974033,-0.126709,0.000176848,0,
1,7.32773,0.98704,-0.12735,5.80967e-05,0,
1,7.15495,0.993695,-0.128112,1.0702e-05,0,
1,6.97022,0.995437,-0.128996,6.72345e-07,0,
1,6.77388,0.995053,-0.130017,8.16552e-09,0,
1,6.56652,0.994619,-0.131194,1.10815e-08,0,
1,6.34896,0.994817,-0.132543,1.28131e-08,0,
1,6.12229,0.995487,-0.134079,1.48087e-08,0,
1,5.88784,0.996337,-0.13582,1.61106e-08,0,
1,5.64716,0.997239,-0.13778,1.71579e-08,0,
1,5.40194,0.998197,-0.139975,1.85548e-08,0,
1,5.15407,0.999249,-0.142416,2.03984e-08,0,
1,4.90545,1.00042,-0.14511,2.26067e-08,0,
1,4.65805,1.00171,-0.148062,2.50208e-08,0,
1,4.41376,1.00312,-0.151269,2.74055e-08,0,
1,4.17441,1.0046,-0.154723,2.95749e-08,0,
1,3.94163,1.00611,-0.158409,3.17461e-08,0,
1,3.7169,1.00764,-0.162302,3.54752e-08,0,
1,3.50146,1.00941,-0.166374,4.34011e-08,0,
1,3.29629,1.01183,-0.170595,5.60338e-08,0,
1,3.10217,1.01501,-0.174935,7.14456e-08,0,
1,2.91959,1.01809,-0.179357,4.84423e-07,0,
1,2.74885,1.01889,-0.183795,6.30832e-07,0,
1,2.59002,1.01517,-0.188164,-2.04221e-05,0,
1,2.44299,1.00625,-0.192376,-8.31102e-05,0,
1,2.30752,0.993178,-0.196354,-0.000184272,0,
1,2.18321,0.977629,-0.200028,-0.000304923,0,
1,2.06959,0.961148,-0.203409,-0.000420435,0,
1,1.9661,0.944879,-0.206516,-0.000492783,0,
1,1.87215,0.929532,-0.209306,-0.000556149,0,
1,1.78711,0.9154,-0.21179,-0.000612907,0,
1,1.71033,0.902445,-0.21399,-0.000663291,0,
1,1.64119,0.890474,-0.21593,-0.000708644,0,
1,1.57905,0.879267,-0.21763,-0.000750426,0,
1,1.52332,0.868643,-0.219118,-0.000789962,0,
1,1.47342,0.858471,-0.220397,-0.000818909,0,
1,1.42882,0.848667,-0.221486,-0.000841205,0,
1,1.389,0.839186,-0.222429,-0.000862626,0,
1,1.35351,0.830009,-0.223237,-0.000882362,0,
1,1.3219,0.821133,-0.22393,-0.00089999,0,
1,1.29378,0.81256,-0.224522,-0.000915419,0,
1,1.26878,0.804298,-0.225028,-0.000928484,0,
1,1.24659,0.796357,-0.225459,-0.000939514,0,
1,1.22689,0.788739,-0.225828,-0.000948863,0,
1,1.2092,0.781357,-0.226146,-0.00095635,0,
1,1.1932,0.77415,-0.226423,-0.000965453,0,
1,1.1787,0.767065,-0.226663,-0.000981806,0,
1,1.16554,0.75999,-0.22687,-0.00101552,0,
1,1.15357,0.752712,-0.227051,-0.00108635,0,
1,1.14266,0.744881,-0.227215,-0.00122271,0,
1,1.13268,0.736023,-0.227374,-0.0014584,0,
1,1.12354,0.725642,-0.227542,-0.00182436,0,
1,1.11514,0.713434,-0.227727,-0.00233571,0,
1,1.10739,0.699466,-0.227932,-0.002978,0,
1,1.10022,0.684162,-0.228154,-0.00371089,0,
1,1.09357,0.668122,-0.22839,-0.00448456,0,
1,1.08738,0.65193,-0.228636,-0.00525241,0,
1,1.0816,0.63603,-0.228888,-0.00598175,0,
1,1.07618,0.620705,-0.229143,-0.00665457,0,
1,1.07107,0.606113,-0.229399,-0.00726404,0,
1,1.06626,0.592318,-0.229653,-0.00780978,0,
1,1.06169,0.579327,-0.229904,-0.00829519,0,
1,1.05735,0.567115,-0.230152,-0.00872528,0,
1,1.05321,0.555636,-0.230396,-0.00910556,0,
1,1.04925,0.544838,-0.230636,-0.00944166,0,
1,1.04544,0.534667,-0.230872,-0.0097408,0,
1,1.04177,0.525063,-0.231102,-0.0100035,0,
1,1.03822,0.515963,-0.231325,-0.0102343,0,
1,1.03478,0.507311,-0.231543,-0.0104388,0,
1,1.03144,0.499056,-0.231755,-0.01062,0,
1,1.02818,0.491156,-0.231963,-0.0107807,0,
1,1.025,0.483572,-0.232166,-0.0109232,0,
1,1.02188,0.476271,-0.232366,-0.0110493,0,
1,1.01882,0.469225,-0.232563,-0.0111607,0,
1,1.01581,0.462407,-0.232757,-0.0112589,0,
1,1.01284,0.455795,-0.232949,-0.0113439,0,
1,1.00988,0.449299,-0.233141,-0.0114183,0,
1,1.00688,0.442834,-0.233336,-0.0114846,0,
1,1.00384,0.436388,-0.233534,-0.0115419,0,
1,1.00076,0.429948,-0.233736,-0.0115902,0,
1,0.997615,0.423502,-0.233943,-0.0116296,0,
1,0.99441,0.417036,-0.234155,-0.0116599,0,
1,0.991131,0.410536,-0.234374,-0.0116811,0,
1,0.987768,0.403986,-0.234599,-0.0116929,0,
1,0.984308,0.397372,-0.234833,-0.0116949,0,
1,0.980739,0.390676,-0.235078,-0.0116865,0,
1,0.977045,0.383882,-0.235331,-0.0116668,0,
1,0.973211,0.376973,-0.235591,-0.0116385,0,
1,0.969219,0.369923,-0.23583,-0.0115853,0,
1,0.965047,0.362708,-0.236006,-0.0115477,0,
1,0.960675,0.355264,-0.236082,-0.0114567,0,
1,0.956077,0.347467,-0.236051,-0.0113039,0,
1,0.951224,0.339205,-0.235922,-0.0111477,0,
1,0.946088,0.33039,-0.235737,-0.0109848,0,
1,0.940633,0.320935,-0.235576,-0.010811,0,
1,0.934823,0.310757,-0.235478,-0.0106224,0,
1,0.928616,0.299797,-0.235452,-0.0104152,0,
1,0.921967,0.28804,-0.235493,-0.0101848,0,
1,0.914826,0.275508,-0.235589,-0.00992707,0,
1,0.907141,0.262259,-0.235729,-0.00963815,0,
1,0.898852,0.248371,-0.235905,-0.00931628,0,
1,0.889898,0.233939,-0.236118,-0.00896582,0,
1,0.880212,0.219072,-0.236375,-0.00858614,0,
1,0.869723,0.203882,-0.236673,-0.0081787,0,
1,0.858358,0.188483,-0.237002,-0.00774853,0,
1,0.846039,0.172968,-0.237348,-0.00730302,0,
1,0.83269,0.157384,-0.237691,-0.00684964,0,
1,0.818232,0.141686,-0.238007,-0.00638026,0,
1,0.802744,0.125894,-0.238287,-0.00589285,0,
1,0.78635,0.110018,-0.238528,-0.00539186,0,
1,0.768969,0.0938905,-0.238719,-0.0048761,0,
1,0.75053,0.0774197,-0.238855,-0.00434742,0,
1,0.730977,0.0606181,-0.238948,-0.00381263,0,
1,0.710271,0.0436682,-0.239018,-0.00328596,0,
1,0.688397,0.0270005,-0.239074,-0.00279248,0,
1,0.66536,0.0113045,-0.239103,-0.00236884,0,
1,0.641194,-0.00265096,-0.239054,-0.00205352,0,
1,0.615961,-0.0143963,-0.238895,-0.00186295,0,
1,0.589754,-0.0240374,-0.238655,-0.00176642,0,
1,0.562692,-0.0321135,-0.238458,-0.00169304,0,
1,0.534925,-0.0391652,-0.23823,-0.00163581,0,
1,0.506624,-0.0454346,-0.237815,-0.00166192,0,
1,0.477982,-0.0510964,-0.237244,-0.00169211,0,
1,0.449206,-0.0563445,-0.236577,-0.00172481,0,
1,0.420509,-0.0612916,-0.235853,-0.00175118,0,
1,0.392107,-0.0659991,-0.235123,-0.00176335,0,
1,0.364206,-0.0705015,-0.234433,-0.00175585,0,
1,0.337003,-0.0748166,-0.233826,-0.00172488,0,
1,0.310673,-0.07895,-0.233339,-0.0016687,0,
1,0.28537,-0.0828993,-0.232995,-0.00158766,0,
1,0.26122,-0.0866573,-0.232803,-0.00148394,0,
1,0.238324,-0.0902142,-0.232762,-0.00136131,0,
1,0.21675,-0.0935579,-0.232855,-0.00122451,0,
1,0.196544,-0.0966744,-0.233058,-0.00107879,0,
1,0.177724,-0.0995482,-0.233341,-0.000929324,0,
1,0.160284,-0.102162,-0.233672,-0.000780824,0,
1,0.144202,-0.104497,-0.234025,-0.000637304,0,
1,0.129436,-0.106532,-0.234375,-0.000501952,0,
1,0.115935,-0.108246,-0.234707,-0.000377116,0,
1,0.103636,-0.109617,-0.235009,-0.000264372,0,
1,0.0924701,-0.110624,-0.235274,-0.000164679,0,
1,0.0823633,-0.111247,-0.235502,-7.84077e-05,0,
1,0.0732406,-0.11147,-0.235693,-5.43968e-06,0,
1,0.0650269,-0.111282,-0.235851,5.47282e-05,0,
1,0.057648,-0.110676,-0.235979,0.000102893,0,
1,0.0510323,-0.10965,-0.236081,0.000140061,0,
1,0.0451115,-0.108203,-0.236163,0.000167353,0,
1,0.0398209,-0.106336,-0.236226,0.00018591,0,
1,0.0351001,-0.104049,-0.236276,0.000196816,0,
1,0.0308929,-0.101333,-0.236313,0.000201039,0,
1,0.0271475,-0.0981747,-0.236341,0.000199397,0,
1,0.0238164,-0.0945468,-0.236362,0.000192507,0,
1,0.0208562,-0.0904082,-0.236376,0.000180768,0,
1,0.0182274,-0.0857037,-0.236386,0.000164359,0,
1,0.0158944,-0.0803695,-0.236393,0.000143359,0,
1,0.0138249,-0.0743544,-0.236397,0.000118104,0,
1,0.0119898,-0.0676615,-0.236399,8.98867e-05,0,
1,0.0103632,-0.0604106,-0.2364,6.15758e-05,0,
1,0.00892169,-0.0528792,-0.236401,3.71851e-05,0,
1,0.00764438,-0.0454553,-0.236401,1.96882e-05,0,
1,0.00651264,-0.0384988,-0.236401,9.24549e-06,0,
1,0.00550983,-0.0322242,-0.236401,3.92481e-06,0,
1,0.00462115,-0.0266921,-0.236401,1.5284e-06,0,
1,0.00383341,-0.0218667,-0.236402,5.47932e-07,0,
1,0.0031349,-0.0176726,-0.236401,1.79152e-07,0,
1,0.00251518,-0.014027,-0.236402,5.21845e-08,0,
1,0.00196502,-0.0108528,-0.236401,1.29872e-08,0,
1,0.00147619,-0.00808227,-0.236401,2.56965e-09,0,
1,0.00104139,-0.00565759,-0.236401,3.54653e-10,0,
1,0.000654158,-0.00352948,-0.236401,2.62326e-11,0,
1,0.000308731,-0.001656,-0.236401,5.70102e-13,0,

4,0,0,-0.108537,0,0,
4,9,0,-0.0927166,0,0,
4,8.99969,0.0150593,-0.0927162,3.00761e-10,0,
4,8.99934,0.0320838,-0.0927165,1.39525e-08,0,
4,8.99894,0.0513492,-0.0927162,1.90461e-07,0,
4,8.9985,0.0731446,-0.0927164,1.38091e-06,0,
4,8.99799,0.0977548,-0.0927161,6.8312e-06,0,
4,8.99742,0.125348,-0.0927163,2.56547e-05,0,
4,8.99677,0.155712,-0.0927161,7.57708e-05,0,
4,8.99605,0.187898,-0.0927161,0.000176753,0,
4,8.99522,0.220212,-0.0927159,0.000328936,0,
4,8.99429,0.250849,-0.0927158,0.000510058,0,
4,8.99324,0.278951,-0.0927154,0.000669613,0,
4,8.99205,0.304647,-0.0927152,0.00079177,0,
4,8.9907,0.32822,-0.0927147,0.000893661,0,
4,8.98919,0.349894,-0.0927142,0.000977079,0,
4,8.98747,0.369931,-0.0927135,0.00104573,0,
4,8.98553,0.388649,-0.0927127,0.00109825,0,
4,8.98334,0.406333,-0.0927117,0.00114101,0,
4,8.98087,0.423168,-0.0927106,0.00117831,0,
4,8.97807,0.439287,-0.0927092,0.00121058,0,
4,8.97491,0.454802,-0.0927076,0.0012389,0,
4,8.97134,0.469809,-0.0927057,0.0012641,0,
4,8.96731,0.48439,-0.0927035,0.00128681,0,
4,8.96276,0.498617,-0.092701,0.00130751,0,
4,8.95762,0.512552,-0.092698,0.00132653,0,
4,8.95182,0.526247,-0.0926946,0.00134412,0,
4,8.94526,0.53975,-0.0926907,0.00136043,0,
4,8.93787,0.553101,-0.0926862,0.00137553,0,
4,8.92952,0.566336,-0.0926811,0.00138944,0,
4,8.92011,0.579485,-0.0926754,0.00140213,0,
4,8.90949,0.592575,-0.0926691,0.00141351,0,
4,8.89751,0.605627,-0.092662,0.00142347,0,
4,8.88402,0.618661,-0.0926543,0.00143186,0,
4,8.86881,0.631691,-0.0926458,0.00143851,0,
4,8.85169,0.64473,-0.0926367,0.00144321,0,
4,8.83242,0.657785,-0.0926269,0.00144578,0,
4,8.81074,0.670864,-0.0926167,0.001446,0,
4,8.78637,0.683972,-0.0926062,0.00144367,0,
4,8.75901,0.697111,-0.0925955,0.00143855,0,
4,8.7283,0.710285,-0.0925852,0.00143043,0,
4,8.69387,0.723497,-0.0925754,0.00141908,0,
4,8.65533,0.736748,-0.0925671,0.00140424,0,
4,8.61222,0.750045,-0.0925605,0.00138559,0,
4,8.56407,0.763392,-0.0925571,0.00136276,0,
4,8.5104,0.776795,-0.092557,0.0013353,0,
4,8.45065,0.790257,-0.0925633,0.00130332,0,
4,8.38429,0.803795,-0.0925752,0.00127027,0,
4,8.31073,0.817513,-0.0926032,0.00123788,0,
4,8.22941,0.831791,-0.0926503,0.00118242,0,
4,8.13974,0.847207,-0.0927167,0.00110036,0,
4,8.04115,0.864244,-0.0928101,0.000993441,0,
4,7.93313,0.883129,-0.0929266,0.000856669,0,
4,7.81519,0.903643,-0.0930712,0.000692023,0,
4,7.68693,0.924778,-0.0932321,0.000517313,0,
4,7.54803,0.944627,-0.0934338,0.000352231,0,
4,7.39831,0.960976,-0.0936555,0.000201003,0,
4,7.23771,0.972142,-0.0939248,8.0233e-05,0,
4,7.06634,0.977831,-0.0942538,2.09579e-05,0,
4,6.88453,0.97947,-0.0946225,2.31887e-06,0,
4,6.69275,0.979212,-0.0950342,-2.65635e-07,0,
4,6.49173,0.978661,-0.0954893,-7.61598e-08,0,
4,6.28238,0.978454,-0.0959958,2.29088e-08,0,
4,6.06579,0.978587,-0.0965597,2.03205e-08,0,
4,5.84328,0.978875,-0.0971854,1.12954e-08,0,
4,5.61626,0.979193,-0.0978757,7.69663e-09,0,
4,5.3863,0.979504,-0.0986317,6.76205e-09,0,
4,5.15502,0.979819,-0.0994534,6.85388e-09,0,
4,4.92406,0.980157,-0.10034,7.41477e-09,0,
4,4.69507,0.980533,-0.101287,8.12538e-09,0,
4,4.46961,0.980941,-0.102291,8.62377e-09,0,
4,4.24915,0.981337,-0.103344,8.50315e-09,0,
4,4.03501,0.98165,-0.104437,7.75076e-09,0,
4,3.82836,0.981841,-0.10556,7.39589e-09,0,
4,3.63018,0.982018,-0.106701,9.93563e-09,0,
4,3.44125,0.982491,-0.107847,2.41841e-08,0,
4,3.26217,0.983623,-0.108984,2.11852e-07,0,
4,3.09333,0.98544,-0.110097,1.34267e-06,0,
4,2.93497,0.987321,-0.11117,3.10711e-06,0,
4,2.78715,0.988155,-0.112194,3.45035e-07,0,
4,2.64979,0.986876,-0.113156,-1.41199e-05,0,
4,2.52268,0.982907,-0.114044,-4.40952e-05,0,
4,2.40551,0.97627,-0.114847,-8.88197e-05,0,
4,2.29789,0.967437,-0.115558,-0.00014433,0,
4,2.19939,0.957096,-0.116174,-0.000205302,0,
4,2.10949,0.945942,-0.1167,-0.000266629,0,
4,2.02768,0.934565,-0.117141,-0.000324383,0,
4,1.95343,0.923403,-0.117506,-0.000376139,0,
4,1.88618,0.912745,-0.117803,-0.000420867,0,
4,1.82542,0.902758,-0.118042,-0.000458593,0,
4,1.77062,0.893517,-0.118232,-0.000490015,0,
4,1.72128,0.885038,-0.11838,-0.000516148,0,
4,1.67693,0.877302,-0.118495,-0.000538065,0,
4,1.63713,0.87027,-0.118581,-0.000556422,0,
4,1.60144,0.863894,-0.118645,-0.000571679,0,
4,1.56949,0.858126,-0.118691,-0.000584104,0,
4,1.54091,0.852916,-0.118724,-0.000594977,0,
4,1.51537,0.848201,-0.118746,-0.000603808,0,
4,1.49167,0.84378,-0.118759,-0.000610102,0,
4,1.46926,0.839555,-0.118767,-0.000615196,0,
4,1.44801,0.835499,-0.118769,-0.000619307,0,
4,1.42781,0.831593,-0.118766,-0.000622363,0,
4,1.40855,0.827818,-0.118759,-0.000624487,0,
4,1.39015,0.824158,-0.118748,-0.000625819,0,
4,1.37252,0.820598,-0.118733,-0.00062653,0,
4,1.3556,0.817122,-0.118715,-0.000626833,0,
4,1.3393,0.813718,-0.118694,-0.000627028,0,
4,1.32357,0.810369,-0.11867,-0.000627384,0,
4,1.30836,0.807062,-0.118644,-0.000628296,0,
4,1.29362,0.803778,-0.118615,-0.000630289,0,
4,1.2793,0.800496,-0.118584,-0.000634012,0,
4,1.26537,0.797194,-0.118551,-0.000640383,0,
4,1.25179,0.793844,-0.118517,-0.00065051,0,
4,1.23852,0.790412,-0.11848,-0.00066576,0,
4,1.22554,0.786857,-0.118441,-0.000687903,0,
4,1.21282,0.783127,-0.118401,-0.000719143,0,
4,1.20034,0.77916,-0.118358,-0.000762171,0,
4,1.18806,0.77488,-0.118313,-0.000820172,0,
4,1.17599,0.770202,-0.118266,-0.000896745,0,
4,1.16408,0.765028,-0.118216,-0.000995682,0,
4,1.15233,0.759261,-0.118164,-0.00112072,0,
4,1.14073,0.752817,-0.118109,-0.0012749,0,
4,1.12925,0.745633,-0.118052,-0.00145987,0,
4,1.11788,0.737677,-0.117994,-0.00167559,0,
4,1.10661,0.728957,-0.117933,-0.0019201,0,
4,1.09543,0.719514,-0.117873,-0.00218963,0,
4,1.08432,0.709416,-0.117812,-0.00247898,0,
4,1.07328,0.698752,-0.117753,-0.00278213,0,
4,1.0623,0.687617,-0.117694,-0.00309281,0,
4,1.05136,0.676108,-0.117637,-0.00340486,0,
4,1.04044,0.6643,-0.117581,-0.00371275,0,
4,1.0295,0.652257,-0.117526,-0.00401167,0,
4,1.01855,0.640056,-0.117472,-0.00429744,0,
4,1.00757,0.627769,-0.117418,-0.00456561,0,
4,0.996544,0.615455,-0.117364,-0.00481279,0,
4,0.98547,0.603171,-0.117308,-0.00503608,0,
4,0.974334,0.590962,-0.117249,-0.00523312,0,
4,0.963124,0.578869,-0.117189,-0.00540206,0,
4,0.951826,0.566927,-0.117121,-0.00554264,0,
4,0.940428,0.555158,-0.117059,-0.00567467,0,
4,0.928915,0.543486,-0.116959,-0.00576263,0,
4,0.917272,0.53173,-0.116806,-0.00582097,0,
4,0.905481,0.519751,-0.116649,-0.00588987,0,
4,0.893524,0.507491,-0.116488,-0.00596854,0,
4,0.881383,0.494925,-0.116328,-0.00605638,0,
4,0.869035,0.482045,-0.116168,-0.00615308,0,
4,0.856459,0.468846,-0.116009,-0.00625837,0,
4,0.843629,0.45532,-0.115849,-0.00637208,0,
4,0.830518,0.441457,-0.11569,-0.00649406,0,
4,0.817097,0.427237,-0.115532,-0.00662419,0,
4,0.803334,0.412637,-0.115375,-0.00676227,0,
4,0.789195,0.39763,-0.11522,-0.00690798,0,
4,0.774643,0.382196,-0.115069,-0.00706085,0,
4,0.759639,0.366325,-0.114923,-0.00722042,0,
4,0.744138,0.350023,-0.114784,-0.00738544,0,
4,0.728096,0.333304,-0.114649,-0.00755271,0,
4,0.711463,0.316179,-0.114519,-0.00771875,0,
4,0.694189,0.298651,-0.114393,-0.00788073,0,
4,0.676218,0.280711,-0.114272,-0.00803625,0,
4,0.657495,0.262337,-0.114157,-0.00818319,0,
4,0.637962,0.243503,-0.114053,-0.00831966,0,
4,0.617561,0.224176,-0.113961,-0.00844352,0,
4,0.596848,0.20486,-0.113889,-0.00854917,0,
4,0.576557,0.18619,-0.113842,-0.00863201,0,
4,0.556564,0.168052,-0.113819,-0.00869229,0,
4,0.536763,0.150357,-0.11382,-0.0087294,0,
4,0.517057,0.13305,-0.113847,-0.00874266,0,
4,0.497368,0.116109,-0.113902,-0.0087315,0,
4,0.477632,0.0995374,-0.113983,-0.00869544,0,
4,0.457804,0.0833481,-0.114084,-0.00863351,0,
4,0.437857,0.0675285,-0.114185,-0.00854307,0,
4,0.417786,0.052023,-0.114258,-0.00841871,0,
4,0.397605,0.0367472,-0.114286,-0.00825266,0,
4,0.377348,0.0216729,-0.114292,-0.00803871,0,
4,0.357066,0.00699447,-0.114381,-0.00778212,0,
4,0.336828,-0.00670046,-0.114772,-0.00751336,0,
4,0.316717,-0.0185251,-0.115759,-0.00728512,0,
4,0.296825,-0.0278703,-0.117597,-0.00712281,0,
4,0.27725,-0.0349656,-0.119641,-0.0069984,0,
4,0.258095,-0.0407459,-0.120301,-0.0064564,0,
4,0.239458,-0.045939,-0.119751,-0.00584787,0,
4,0.221432,-0.0508135,-0.119115,-0.00538627,0,
4,0.2041,-0.0553905,-0.118447,-0.00493579,0,
4,0.187537,-0.0596844,-0.117711,-0.00449781,0,
4,0.171798,-0.0637096,-0.116946,-0.00407775,0,
4,0.156928,-0.0674793,-0.116172,-0.00367872,0,
4,0.142956,-0.0710052,-0.115408,-0.00330296,0,
4,0.129894,-0.074298,-0.11467,-0.00295183,0,
4,0.117744,-0.0773672,-0.113971,-0.00262587,0,
4,0.106492,-0.0802214,-0.113318,-0.00232499,0,
4,0.0961173,-0.0828685,-0.112718,-0.00204862,0,
4,0.0865883,-0.0853157,-0.112172,-0.00179579,0,
4,0.0778675,-0.0875696,-0.111681,-0.00156532,0,
4,0.0699123,-0.0896364,-0.111243,-0.00135583,0,
4,0.062677,-0.0915218,-0.110855,-0.00116589,0,
4,0.056114,-0.0932312,-0.110513,-0.000994035,0,
4,0.0501747,-0.0947694,-0.110215,-0.000838806,0,
4,0.0448114,-0.0961408,-0.109954,-0.000698803,0,
4,0.039977,-0.0973491,-0.109729,-0.000572689,0,
4,0.0356266,-0.0983968,-0.109534,-0.000459211,0,
4,0.0317171,-0.0992859,-0.109366,-0.000357205,0,
4,0.0282081,-0.100016,-0.109223,-0.000265606,0,
4,0.0250617,-0.100587,-0.1091,-0.000183447,0,
4,0.0222427,-0.100992,-0.108995,-0.000109871,0,
4,0.0197189,-0.101226,-0.108907,-4.41314e-05,0,
4,0.0174603,-0.101275,-0.108832,1.43901e-05,0,
4,0.0154398,-0.101121,-0.108769,6.61592e-05,0,
4,0.0136326,-0.100735,-0.108717,0.000111444,0,
4,0.0120162,-0.100075,-0.108674,0.00015023,0,
4,0.0105703,-0.0990798,-0.108638,0.00018207,0,
4,0.00927657,-0.0976554,-0.108611,0.000205829,0,
4,0.00811839,-0.0956639,-0.108588,0.000219308,0,
4,0.0070809,-0.0929059,-0.108573,0.000218944,0,
4,0.0061507,-0.0891158,-0.10856,0.000200516,0,
4,0.00531578,-0.08401,-0.108553,0.000162684,0,
4,0.00456537,-0.0774401,-0.108547,0.000112595,0,
4,0.00388979,-0.0695923,-0.108546,6.50652e-05,0,
4,0.00328037,-0.0609812,-0.108543,3.15049e-05,0,
4,0.00272934,-0.0521713,-0.108544,1.29799e-05,0,
4,0.0022297,-0.0435456,-0.108541,4.57333e-06,0,
4,0.00177519,-0.0352872,-0.108543,1.34895e-06,0,
4,0.00136016,-0.0274538,-0.10854,3.13516e-07,0,
4,0.000979511,-0.0200422,-0.108543,5.06109e-08,0,
4,0.00062865,-0.0130235,-0.108538,4.34913e-09,0,
4,0.000303409,-0.0063581,-0.108543,1.06657e-10,0,

6,0,0,-0.00276563,0,0,
6,9,0,-0.0687001,0,0,
6,8.99969,0.0142792,-0.0686997,2.47478e-10,0,
6,8.99934,0.03038,-0.0687,1.14201e-08,0,
6,8.99895,0.0485527,-0.0686997,1.5478e-07,0,
6,8.9985,0.0690601,-0.0686999,1.11433e-06,0,
6,8.99801,0.092165,-0.0686997,5.48491e-06,0,
6,8.99744,0.118044,-0.0686998,2.06014e-05,0,
6,8.99681,0.146571,-0.0686996,6.1401e-05,0,
6,8.99609,0.177008,-0.0686997,0.000146054,0,
6,8.99529,0.207916,-0.0686995,0.00027896,0,
6,8.99438,0.237625,-0.0686994,0.000441627,0,
6,8.99336,0.265036,-0.0686992,0.000602702,0,
6,8.9922,0.290112,-0.068699,0.000722551,0,
6,8.9909,0.313142,-0.0686986,0.00082361,0,
6,8.98944,0.334314,-0.0686983,0.00090743,0,
6,8.98779,0.35386,-0.0686977,0.000976967,0,
6,8.98593,0.372077,-0.0686972,0.00103067,0,
6,8.98383,0.389244,-0.0686964,0.00107458,0,
6,8.98147,0.405547,-0.0686956,0.00111297,0,
6,8.97881,0.421118,-0.0686945,0.00114642,0,
6,8.97581,0.436073,-0.0686932,0.00117603,0,
6,8.97244,0.450508,-0.0686917,0.00120269,0,
6,8.96863,0.46451,-0.0686898,0.00122705,0,
6,8.96435,0.478151,-0.0686876,0.00124963,0,
6,8.95953,0.491496,-0.0686851,0.00127079,0,
6,8.95409,0.5046,-0.068682,0.0012908,0,
6,8.94798,0.517515,-0.0686784,0.00130983,0,
6,8.94109,0.530284,-0.0686743,0.00132799,0,
6,8.93334,0.542947,-0.0686694,0.00134528,0,
6,8.92463,0.555536,-0.0686638,0.00136169,0,
6,8.91482,0.568084,-0.0686574,0.00137711,0,
6,8.90379,0.580616,-0.06865,0.00139141,0,
6,8.89139,0.593154,-0.0686416,0.00140441,0,
6,8.87746,0.605717,-0.068632,0.00141589,0,
6,8.86181,0.618319,-0.0686212,0.00142559,0,
6,8.84423,0.630973,-0.0686091,0.00143326,0,
6,8.82452,0.643686,-0.0685955,0.00143861,0,
6,8.80241,0.656463,-0.0685803,0.00144135,0,
6,8.77763,0.669306,-0.0685635,0.00144119,0,
6,8.74989,0.682216,-0.0685448,0.00143787,0,
6,8.71885,0.695191,-0.0685243,0.0014311,0,
6,8.68417,0.708228,-0.0685017,0.00142063,0,
6,8.64545,0.721324,-0.0684771,0.00140621,0,
6,8.60229,0.734477,-0.0684501,0.00138752,0,
6,8.55423,0.747683,-0.0684207,0.00136417,0,
6,8.50082,0.760935,-0.0683883,0.00133563,0,
6,8.44155,0.774222,-0.0683533,0.00130201,0,
6,8.37592,0.787536,-0.0683144,0.00126583,0,
6,8.30339,0.800946,-0.0682772,0.00122991,0,
6,8.22344,0.814773,-0.0682471,0.00117312,0,
6,8.13555,0.829561,-0.0682213,0.0010974,0,
6,8.0392,0.845856,-0.0681969,0.00100043,0,
6,7.93391,0.864037,-0.0681664,0.000877536,0,
6,7.81927,0.884052,-0.0681223,0.000729299,0,
6,7.6949,0.905047,-0.0680571,0.000568473,0,
6,7.56054,0.925245,-0.067963,0.000412813,0,
6,7.41603,0.942499,-0.0678487,0.00027667,0,
6,7.26132,0.955262,-0.0677048,0.000138509,0,
6,7.09653,0.962953,-0.0675346,4.97484e-05,0,
6,6.92195,0.966217,-0.0673354,1.0084e-05,0,
6,6.73802,0.966688,-0.0670986,-7.39616e-07,0,
6,6.5454,0.966045,-0.0668175,-1.31784e-06,0,
6,6.34489,0.96532,-0.0664868,-5.30243e-07,0,
6,6.1375,0.964842,-0.0661014,-1.6194e-07,0,
6,5.92439,0.964554,-0.0656558,-5.46072e-08,0,
6,5.70687,0.964317,-0.0651439,-2.43469e-08,0,
6,5.48633,0.964042,-0.0645593,-1.43869e-08,0,
6,5.26426,0.963704,-0.0638956,-1.10885e-08,0,
6,5.04218,0.963311,-0.0631468,-1.04173e-08,0,
6,4.82159,0.962883,-0.0623075,-1.08334e-08,0,
6,4.60398,0.962428,-0.0613736,-1.18723e-08,0,
6,4.39071,0.96193,-0.0603427,-1.36594e-08,0,
6,4.18307,0.961334,-0.0592141,-1.65293e-08,0,
6,3.98218,0.960572,-0.05799,-2.04222e-08,0,
6,3.78902,0.959635,-0.056675,-2.51092e-08,0,
6,3.60438,0.95865,-0.0552767,-4.2579e-08,0,
6,3.42888,0.957893,-0.0538042,-1.23366e-07,0,
6,3.26296,0.957646,-0.0522678,-2.76201e-07,0,
6,3.10691,0.957981,-0.050678,-3.53528e-07,0,
6,2.96084,0.95861,-0.0490485,-7.83426e-07,0,
6,2.82473,0.958954,-0.0473962,-3.7887e-06,0,
6,2.69844,0.958372,-0.0457407,-1.28043e-05,0,
6,2.58172,0.956384,-0.0441023,-3.05976e-05,0,
6,2.47424,0.952784,-0.0425009,-5.80674e-05,0,
6,2.37559,0.947637,-0.040954,-9.42799e-05,0,
6,2.28535,0.941197,-0.0394759,-0.000137102,0,
6,2.20301,0.933817,-0.0380773,-0.000183946,0,
6,2.1281,0.925863,-0.0367651,-0.000232487,0,
6,2.06009,0.917668,-0.0355431,-0.000280976,0,
6,1.99849,0.909503,-0.0344124,-0.000327557,0,
6,1.9428,0.901572,-0.0333717,-0.000371,0,
6,1.89255,0.894011,-0.0324184,-0.000410634,0,
6,1.84728,0.886909,-0.0315482,-0.000446258,0,
6,1.80655,0.880308,-0.0307566,-0.000477797,0,
6,1.76996,0.874229,-0.0300388,-0.000505088,0,
6,1.73712,0.868679,-0.0293878,-0.000530108,0,
6,1.70768,0.863611,-0.0287869,-0.00054192,0,
6,1.67998,0.85878,-0.0282149,-0.000552839,0,
6,1.65329,0.85408,-0.027661,-0.000563063,0,
6,1.62754,0.849499,-0.0271227,-0.000572733,0,
6,1.60265,0.845029,-0.0265992,-0.000582009,0,
6,1.57854,0.840665,-0.0260894,-0.000590952,0,
6,1.55515,0.836401,-0.0255923,-0.000599608,0,
6,1.53242,0.83223,-0.0251068,-0.000608014,0,
6,1.5103,0.828147,-0.024632,-0.000616206,0,
6,1.48874,0.824144,-0.0241672,-0.000624215,0,
6,1.46769,0.820217,-0.0237116,-0.000632079,0,
6,1.44712,0.81636,-0.0232643,-0.000639835,0,
6,1.42698,0.812566,-0.0228247,-0.000647525,0,
6,1.40725,0.808831,-0.0223922,-0.0006552,0,
6,1.38788,0.805149,-0.0219662,-0.00066293,0,
6,1.36886,0.801515,-0.0215461,-0.000670808,0,
6,1.35015,0.797923,-0.0211315,-0.000678963,0,
6,1.33173,0.794367,-0.0207219,-0.000687514,0,
6,1.31357,0.790837,-0.020317,-0.000696628,0,
6,1.29566,0.787322,-0.0199166,-0.000706544,0,
6,1.27797,0.783805,-0.0195205,-0.000717594,0,
6,1.26048,0.780263,-0.0191288,-0.000730259,0,
6,1.24318,0.776667,-0.0187413,-0.000744781,0,
6,1.22605,0.772979,-0.0183579,-0.000762294,0,
6,1.20907,0.769158,-0.0179779,-0.000784325,0,
6,1.19223,0.765156,-0.0176008,-0.000812697,0,
6,1.17551,0.760915,-0.0172258,-0.000849968,0,
6,1.1589,0.756366,-0.0168527,-0.000899238,0,
6,1.14238,0.751425,-0.0164814,-0.000964065,0,
6,1.12595,0.746007,-0.0161122,-0.00104803,0,
6,1.10959,0.740032,-0.0157457,-0.00115392,0,
6,1.09329,0.733446,-0.0153824,-0.00128295,0,
6,1.07704,0.726221,-0.0150233,-0.00143444,0,
6,1.06081,0.718351,-0.0146686,-0.00160619,0,
6,1.04459,0.709844,-0.0143189,-0.00179536,0,
6,1.02836,0.700718,-0.0139745,-0.00199912,0,
6,1.01211,0.690988,-0.0136358,-0.00221539,0,
6,0.99583,0.680663,-0.0133031,-0.00244303,0,
6,0.97951,0.669744,-0.0129767,-0.00268175,0,
6,0.963136,0.658226,-0.0126574,-0.00293186,0,
6,0.946694,0.646103,-0.0123458,-0.003194,0,
6,0.930172,0.633365,-0.0120429,-0.00346882,0,
6,0.913555,0.619997,-0.0117495,-0.00375671,0,
6,0.896829,0.605985,-0.0114663,-0.00405763,0,
6,0.879979,0.591324,-0.0111935,-0.00437103,0,
6,0.862989,0.576027,-0.0109313,-0.00469647,0,
6,0.845842,0.560151,-0.0106801,-0.00503537,0,
6,0.828521,0.543789,-0.0104426,-0.0053883,0,
6,0.811008,0.527019,-0.0102212,-0.00574231,0,
6,0.793282,0.509888,-0.0100167,-0.00609411,0,
6,0.775322,0.492431,-0.0098314,-0.00644049,0,
6,0.757107,0.474699,-0.00966677,-0.00677788,0,
6,0.738612,0.456756,-0.009524,-0.007102,0,
6,0.719813,0.438681,-0.00940275,-0.00740761,0,
6,0.700681,0.420551,-0.00930103,-0.00768881,0,
6,0.681188,0.402431,-0.00921631,-0.00794063,0,
6,0.661304,0.384376,-0.00914662,-0.0081595,0,
6,0.640996,0.366428,-0.00909078,-0.00834263,0,
6,0.620228,0.348627,-0.0090488,-0.00848781,0,
6,0.598964,0.331017,-0.00902209,-0.00859344,0,
6,0.577166,0.313648,-0.00901249,-0.00865864,0,
6,0.554791,0.296571,-0.00901919,-0.00868304,0,
6,0.531799,0.279819,-0.0090341,-0.00866602,0,
6,0.508144,0.263376,-0.00903675,-0.00860523,0,
6,0.48378,0.247158,-0.00900112,-0.00849485,0,
6,0.459585,0.231601,-0.00891477,-0.00833278,0,
6,0.436695,0.21731,-0.00882999,-0.00812974,0,
6,0.414961,0.20429,-0.00886937,-0.0079021,0,
6,0.394252,0.192806,-0.00920236,-0.00768041,0,
6,0.374445,0.183219,-0.010004,-0.00750171,0,
6,0.355433,0.175629,-0.0112866,-0.00737631,0,
6,0.337122,0.169652,-0.0123103,-0.00727116,0,
6,0.319433,0.164518,-0.012359,-0.00667297,0,
6,0.3023,0.159742,-0.011917,-0.0062752,0,
6,0.28567,0.155219,-0.0115447,-0.005925,0,
6,0.269507,0.150912,-0.0111498,-0.00558566,0,
6,0.253785,0.146796,-0.0107285,-0.0052551,0,
6,0.238493,0.142846,-0.0102908,-0.00493348,0,
6,0.223631,0.139048,-0.00983969,-0.00462096,0,
6,0.209207,0.135389,-0.00937956,-0.00431804,0,
6,0.195237,0.131858,-0.00891527,-0.00402533,0,
6,0.181744,0.12845,-0.00845167,-0.0037435,0,
6,0.168754,0.12516,-0.00799358,-0.00347322,0,
6,0.156292,0.121983,-0.00754561,-0.00321513,0,
6,0.144384,0.118918,-0.00711197,-0.00296978,0,
6,0.133052,0.115963,-0.00669635,-0.0027376,0,
6,0.122315,0.113116,-0.0063018,-0.0025189,0,
6,0.112183,0.110376,-0.00593069,-0.00231382,0,
6,0.102665,0.107741,-0.00558465,-0.00212236,0,
6,0.0937597,0.105209,-0.00526463,-0.00194438,0,
6,0.0854609,0.102776,-0.00497095,-0.00177958,0,
6,0.077757,0.100441,-0.00470333,-0.00162758,0,
6,0.0706309,0.0981991,-0.00446108,-0.00148787,0,
6,0.0640611,0.0960458,-0.00424309,-0.00135987,0,
6,0.0580229,0.0939764,-0.00404801,-0.00124294,0,
6,0.0524888,0.0919852,-0.00387431,-0.0011364,0,
6,0.0474296,0.0900663,-0.00372035,-0.00103956,0,
6,0.042815,0.0882128,-0.00358445,-0.000951714,0,
6,0.0386145,0.0864176,-0.00346496,-0.00087215,0,
6,0.0347975,0.084673,-0.00336028,-0.000800182,0,
6,0.0313344,0.0829706,-0.00326886,-0.000735141,0,
6,0.0281964,0.0813012,-0.00318933,-0.000676382,0,
6,0.0253561,0.079655,-0.0031203,-0.000623286,0,
6,0.0227875,0.078021,-0.00306068,-0.00057526,0,
6,0.0204662,0.0763868,-0.00300924,-0.000531731,0,
6,0.0183694,0.0747382,-0.00296521,-0.000492142,0,
6,0.016476,0.0730587,-0.00292743,-0.000455935,0,
6,0.0147664,0.0713284,-0.00289557,-0.000422543,0,
6,0.0132228,0.069523,-0.00286834,-0.000391355,0,
6,0.0118288,0.067612,-0.00284599,-0.000361684,0,
6,0.0105693,0.0655566,-0.00282691,-0.000332708,0,
6,0.00943073,0.0633067,-0.00281206,-0.000303407,0,
6,0.00840063,0.0607983,-0.00279929,-0.000272498,0,
6,0.00746774,0.0579518,-0.00279041,-0.000238478,0,
6,0.00662185,0.0546771,-0.00278252,-0.000200016,0,
6,0.00585371,0.0508942,-0.00277828,-0.000157036,0,
6,0.00515491,0.0465787,-0.00277392,-0.000112268,0,
6,0.00451788,0.0418186,-0.00277284,-7.1406e-05,0,
6,0.00393573,0.0368252,-0.00277038,-4.00186e-05,0,
6,0.00340221,0.0318568,-0.0027709,-1.98583e-05,0,
6,0.00291168,0.027115,-0.00276896,-8.81037e-06,0,
6,0.00245897,0.0227026,-0.00277019,-3.50343e-06,0,
6,0.00203939,0.018644,-0.00276811,-1.23228e-06,0,
6,0.00164864,0.0149204,-0.00276984,-3.70092e-07,0,
6,0.00128281,0.0114953,-0.00276734,-8.8593e-08,0,
6,0.000938257,0.00832816,-0.00276967,-1.48256e-08,0,
6,0.000611645,0.00537989,-0.00276653,-1.32144e-09,0,
6,0.000299862,0.00261478,-0.00276964,-3.30524e-11,0,

10,0.000296632,0.0103154,0.0286969,-1.00843e-10,0,
10,0.000596102,0.0207264,0.0286976,-3.73731e-09,0,
10,0.000900397,0.0313018,0.0286969,-3.79918e-08,0,
10,0.00121153,0.0421106,0.0286974,-2.04036e-07,0,
10,0.00153158,0.0532211,0.0286969,-7.62045e-07,0,
10,0.00186264,0.0646979,0.0286973,-2.25843e-06,0,
10,0.00220692,0.0765968,0.0286968,-5.69805e-06,0,
10,0.00256668,0.0889552,0.0286971,-1.27334e-05,0,
10,0.00294431,0.101778,0.0286967,-2.57733e-05,0,
10,0.00334229,0.115019,0.028697,-4.78166e-05,0,
10,0.00376326,0.128565,0.0286966,-8.1793e-05,0,
10,0.00421,0.14223,0.0286967,-0.000129417,0,
10,0.00468544,0.155771,0.0286962,-0.00019007,0,
10,0.00519274,0.168931,0.0286961,-0.000260544,0,
10,0.00573524,0.18148,0.0286955,-0.000335976,0,
10,0.00631651,0.193248,0.0286951,-0.00041139,0,
10,0.00694041,0.20414,0.0286941,-0.000482883,0,
10,0.00761104,0.214126,0.0286932,-0.000548058,0,
10,0.00833284,0.223224,0.0286917,-0.000605876,0,
10,0.00911058,0.231485,0.02869,-0.000656274,0,
10,0.0099494,0.238978,0.0286877,-0.000699786,0,
10,0.0108548,0.245781,0.028685,-0.00073726,0,
10,0.0118329,0.251972,0.0286816,-0.000769657,0,
10,0.0128901,0.257625,0.0286776,-0.000797937,0,
10,0.0140333,0.262808,0.0286727,-0.000822991,0,
10,0.0152702,0.267584,0.028667,-0.000845616,0,
10,0.0166089,0.272006,0.0286602,-0.000866507,0,
10,0.0180584,0.276122,0.0286523,-0.000886267,0,
10,0.0196282,0.279973,0.0286432,-0.000905411,0,
10,0.0213288,0.283597,0.0286327,-0.000924392,0,
10,0.0231714,0.287023,0.0286206,-0.000943605,0,
10,0.0251682,0.290279,0.0286069,-0.000963407,0,
10,0.0273326,0.293388,0.0285912,-0.000984123,0,
10,0.0296789,0.296373,0.0285734,-0.00100606,0,
10,0.0322227,0.299251,0.0285532,-0.00102951,0,
10,0.0349809,0.30204,0.0285305,-0.00105476,0,
10,0.0379719,0.304753,0.0285048,-0.00108211,0,
10,0.0412155,0.307406,0.028476,-0.00111184,0,
10,0.0447333,0.31001,0.0284437,-0.00114426,0,
10,0.0485489,0.312577,0.0284075,-0.0011797,0,
10,0.0526875,0.315119,0.0283671,-0.00121849,0,
10,0.0571768,0.317647,0.0283219,-0.00126099,0,
10,0.0620466,0.32017,0.0282716,-0.00130758,0,
10,0.0673295,0.322698,0.0282156,-0.00135869,0,
10,0.0730607,0.325243,0.0281534,-0.00141477,0,
10,0.0792784,0.327815,0.0280845,-0.00147629,0,
10,0.0860241,0.330423,0.0280081,-0.00154378,0,
10,0.0933428,0.333079,0.0279237,-0.00161781,0,
10,0.101283,0.335795,0.0278306,-0.00169901,0,
10,0.109899,0.338582,0.027728,-0.00178805,0,
10,0.119247,0.341454,0.0276153,-0.00188564,0,
10,0.12939,0.344425,0.0274917,-0.00199259,0,
10,0.140395,0.347511,0.0273566,-0.00210975,0,
10,0.152337,0.350728,0.0272092,-0.00223805,0,
10,0.165296,0.354097,0.027049,-0.00237846,0,
10,0.179357,0.357637,0.0268755,-0.00253205,0,
10,0.194615,0.361375,0.0266882,-0.00269995,0,
10,0.211171,0.365338,0.0264871,-0.00288333,0,
10,0.229138,0.369559,0.026272,-0.00308342,0,
10,0.248635,0.374075,0.0260436,-0.00330145,0,
10,0.269793,0.378931,0.0258019,-0.00353866,0,
10,0.292753,0.384179,0.0255496,-0.00379616,0,
10,0.317669,0.389881,0.0252852,-0.00407406,0,
10,0.344708,0.39611,0.0250157,-0.00437204,0,
10,0.372405,0.402572,0.0247576,-0.00467406,0,
10,0.399623,0.409033,0.0245155,-0.00496793,0,
10,0.426397,0.41552,0.0243051,-0.00525383,0,
10,0.452757,0.422073,0.0241126,-0.00552398,0,
10,0.478735,0.428738,0.0239602,-0.00590069,0,
10,0.504358,0.435839,0.0241597,-0.00607703,0,
10,0.529657,0.443945,0.0246433,-0.00611411,0,
10,0.554656,0.453369,0.024984,-0.00616377,0,
10,0.579382,0.46394,0.0251363,-0.00621759,0,
10,0.603859,0.475253,0.025155,-0.00625675,0,
10,0.628112,0.486958,0.0251081,-0.00626761,0,
10,0.652163,0.498894,0.0250449,-0.00624427,0,
10,0.676035,0.511057,0.0249895,-0.00618595,0,
10,0.699751,0.523526,0.024946,-0.00609356,0,
10,0.72333,0.536387,0.0249084,-0.0059678,0,
10,0.746795,0.549699,0.0248682,-0.00580861,0,
10,0.770165,0.563483,0.0248192,-0.00561539,0,
10,0.79346,0.577721,0.0247586,-0.00538758,0,
10,0.816699,0.592368,0.0246849,-0.00512542,0,
10,0.839903,0.607347,0.0245981,-0.00483073,0,
10,0.863088,0.622542,0.0244967,-0.00450748,0,
10,0.886275,0.637781,0.0243809,-0.00416241,0,
10,0.909481,0.652818,0.0242453,-0.00380867,0,
10,0.932723,0.667342,0.0240885,-0.00347397,0,
10,0.956021,0.681114,0.0239212,-0.00315042,0,
10,0.97939,0.694067,0.0237482,-0.0028371,0,
10,1.00285,0.706226,0.0235706,-0.00253746,0,
10,1.02641,0.717615,0.0233867,-0.00225538,0,
10,1.0501,0.728224,0.0231949,-0.00199416,0,
10,1.07392,0.738031,0.0229945,-0.00175612,0,
10,1.0979,0.747036,0.0227856,-0.00154244,0,
10,1.12205,0.755275,0.0225687,-0.00135332,0,
10,1.14639,0.762819,0.0223439,-0.0011885,0,
10,1.17093,0.769754,0.022111,-0.00104803,0,
10,1.19568,0.776172,0.0218703,-0.000931189,0,
10,1.22066,0.782161,0.0216222,-0.000836124,0,
10,1.24589,0.787811,0.0213677,-0.000759947,0,
10,1.27137,0.7932,0.0211072,-0.000699192,0,
10,1.29713,0.798397,0.0208411,-0.000650442,0,
10,1.32317,0.803455,0.0205694,-0.000610729,0,
10,1.34951,0.808415,0.0202918,-0.000577649,0,
10,1.37616,0.813312,0.0200083,-0.000549315,0,
10,1.40313,0.81817,0.0197189,-0.000524288,0,
10,1.43043,0.82301,0.0194234,-0.000501519,0,
10,1.45807,0.827844,0.0191216,-0.000480285,0,
10,1.48607,0.832679,0.0188135,-0.000459984,0,
10,1.51444,0.837516,0.0184989,-0.000440221,0,
10,1.54318,0.842355,0.0181775,-0.000420857,0,
10,1.57231,0.847192,0.0178493,-0.000401868,0,
10,1.60184,0.85202,0.0175141,-0.000383207,0,
10,1.63178,0.856833,0.0171718,-0.00036481,0,
10,1.66213,0.861622,0.0168223,-0.000346644,0,
10,1.69292,0.866374,0.0164654,-0.000328701,0,
10,1.72416,0.871076,0.0161012,-0.00031101,0,
10,1.75585,0.875713,0.0157292,-0.000293622,0,
10,1.78802,0.880271,0.0153497,-0.000276628,0,
10,1.82067,0.884735,0.0149621,-0.000260114,0,
10,1.85383,0.889089,0.0145669,-0.00024421,0,
10,1.88751,0.893318,0.0141632,-0.000229009,0,
10,1.92173,0.897404,0.0137518,-0.000214679,0,
10,1.95652,0.901329,0.0133314,-0.000201304,0,
10,1.9919,0.905073,0.0129036,-0.000189131,0,
10,2.02791,0.908614,0.012466,-0.000178196,0,
10,2.06456,0.911933,0.012022,-0.000168814,0,
10,2.10268,0.915073,0.0115566,-0.000160511,0,
10,2.1443,0.91816,0.0110533,-0.000152665,0,
10,2.18977,0.92125,0.010502,-0.000132935,0,
10,2.23946,0.92434,0.00990057,-0.000110513,0,
10,2.29376,0.927294,0.00924598,-8.67016e-05,0,
10,2.35309,0.929938,0.00853279,-6.36108e-05,0,
10,2.4179,0.93215,0.00775892,-4.35153e-05,0,
10,2.48863,0.933852,0.00692084,-2.73567e-05,0,
10,2.56575,0.934999,0.00601724,-1.53221e-05,0,
10,2.64971,0.935587,0.00504661,-7.25569e-06,0,
10,2.74098,0.93567,0.00400903,-2.67477e-06,0,
10,2.83997,0.935378,0.0029052,-7.3916e-07,0,
10,2.94709,0.934904,0.00173689,-3.75504e-07,0,
10,3.06269,0.934476,0.00050673,-5.70501e-07,0,
10,3.18706,0.934299,-0.0007819,-6.80348e-07,0,
10,3.3204,0.934497,-0.00212454,-5.46507e-07,0,
10,3.46281,0.935076,-0.00351561,-3.15242e-07,0,
10,3.61427,0.935934,-0.00494781,-1.41867e-07,0,
10,3.77463,0.936912,-0.00641203,-6.01675e-08,0,
10,3.94358,0.937864,-0.00789734,-3.26532e-08,0,
10,4.12067,0.938712,-0.00939143,-2.46008e-08,0,
10,4.30525,0.939448,-0.0108813,-2.18857e-08,0,
10,4.49655,0.940114,-0.0123537,-2.13749e-08,0,
10,4.6936,0.940754,-0.0137959,-2.3163e-08,0,
10,4.89531,0.941392,-0.0151958,-2.88164e-08,0,
10,5.10047,0.942023,-0.0165426,-4.20869e-08,0,
10,5.30776,0.942628,-0.0178269,-7.0886e-08,0,
10,5.51581,0.943189,-0.0190406,-1.31659e-07,0,
10,5.72323,0.943714,-0.0201779,-2.62513e-07,0,
10,5.92863,0.944253,-0.0212345,-5.62065e-07,0,
10,6.13069,0.944895,-0.0222087,-1.24989e-06,0,
10,6.32816,0.945699,-0.0230998,-2.51347e-06,0,
10,6.51991,0.946515,-0.0239101,-3.29063e-06,0,
10,6.70495,0.946753,-0.024641,1.60674e-06,0,
10,6.88244,0.945303,-0.0252969,2.34228e-05,0,
10,7.0517,0.9408,-0.0258755,7.62886e-05,0,
10,7.21224,0.932229,-0.0263831,0.000171076,0,
10,7.3637,0.919318,-0.0268227,0.000291424,0,
10,7.5059,0.902375,-0.0271909,0.000409908,0,
10,7.63878,0.88253,-0.0275034,0.000544602,0,
10,7.76243,0.861777,-0.0277519,0.00068332,0,
10,7.87701,0.841886,-0.0279571,0.000808951,0,
10,7.9828,0.823774,-0.0281177,0.00091266,0,
10,8.08014,0.807531,-0.0282494,0.000996309,0,
10,8.16941,0.792786,-0.0283559,0.00106533,0,
10,8.25106,0.779043,-0.0284472,0.00112413,0,
10,8.32554,0.765853,-0.0285258,0.00117516,0,
10,8.39331,0.752902,-0.0285949,0.00122035,0,
10,8.45484,0.740018,-0.0286546,0.00126033,0,
10,8.5106,0.727143,-0.028706,0.00129511,0,
10,8.56104,0.714295,-0.0287496,0.00132456,0,
10,8.60659,0.701521,-0.0287869,0.00134873,0,
10,8.64767,0.688873,-0.0288189,0.00136787,0,
10,8.68467,0.676367,-0.0288468,0.00137939,0,
10,8.71795,0.663996,-0.0288708,0.00138494,0,
10,8.74786,0.65176,-0.0288913,0.0013865,0,
10,8.77471,0.639667,-0.0289089,0.001384,0,
10,8.79881,0.627721,-0.0289238,0.00137804,0,
10,8.8204,0.615917,-0.0289365,0.00136921,0,
10,8.83975,0.60425,-0.0289473,0.00135806,0,
10,8.85708,0.592706,-0.0289565,0.00134509,0,
10,8.87259,0.581271,-0.0289642,0.00133074,0,
10,8.88646,0.569923,-0.0289708,0.00131539,0,
10,8.89886,0.558639,-0.0289762,0.00129934,0,
10,8.90995,0.547394,-0.0289809,0.00128285,0,
10,8.91986,0.536159,-0.0289847,0.00126607,0,
10,8.92872,0.524904,-0.028988,0.00124914,0,
10,8.93663,0.513595,-0.0289906,0.00123208,0,
10,8.94369,0.502197,-0.0289929,0.00121488,0,
10,8.95,0.490672,-0.0289948,0.00119748,0,
10,8.95564,0.478982,-0.0289964,0.00117977,0,
10,8.96067,0.467083,-0.0289976,0.00116155,0,
10,8.96517,0.454928,-0.0289988,0.00114258,0,
10,8.96918,0.442465,-0.0289997,0.00112253,0,
10,8.97276,0.429636,-0.0290006,0.001101,0,
10,8.97596,0.416376,-0.0290011,0.00107749,0,
10,8.97882,0.40261,-0.0290018,0.00105136,0,
10,8.98137,0.388251,-0.0290021,0.00102181,0,
10,8.98365,0.373201,-0.0290027,0.000987855,0,
10,8.98569,0.357342,-0.0290028,0.000949632,0,
10,8.9875,0.34049,-0.0290033,0.000900404,0,
10,8.98913,0.322382,-0.0290032,0.00083885,0,
10,8.99058,0.302765,-0.0290038,0.000764726,0,
10,8.99188,0.28143,-0.0290035,0.000675446,0,
10,8.99304,0.258203,-0.0290041,0.000570072,0,
10,8.99408,0.232803,-0.0290037,0.000430029,0,
10,8.99501,0.205126,-0.0290043,0.000279292,0,
10,8.99583,0.175966,-0.0290037,0.00015238,0,
10,8.99658,0.146811,-0.0290044,6.71353e-05,0,
10,8.99724,0.119069,-0.0290037,2.35756e-05,0,
10,8.99784,0.0935674,-0.0290045,6.53673e-06,0,
10,8.99837,0.0705384,-0.0290037,1.37635e-06,0,
10,8.99885,0.0498833,-0.0290046,1.97452e-07,0,
10,8.99927,0.0313906,-0.0290036,1.49978e-08,0,
10,8.99966,0.0148349,-0.0290047,3.31898e-10,0,
10,0,0,0.0286977,0,0,
10,9,0,-0.0290035,0,0,

0.004,0,0,-0.227587,0,4.32756e-07,
0.00868226,0,0,-0.227605,0,-3.86276e-07,
0.014062,0,0,-0.227589,0,-1.09276e-06,
0.0201548,0,0,-0.227599,0,-5.24871e-07,
0.0269766,0,0,-0.227578,0,2.16333e-06,
0.0345437,0,0,-0.227581,0,8.38217e-06,
0.0428729,0,0,-0.227567,0,1.82398e-05,
0.051981,0,0,-0.227578,0,3.18383e-05,
0.0618853,0,0,-0.227591,0,4.75674e-05,
0.0726036,0,0,-0.227634,0,6.39301e-05,
0.0841536,0,0,-0.227689,0,7.90094e-05,
0.0965535,0,0,-0.227767,0,9.2002e-05,
0.109822,0,0,-0.227855,0,0.000102568,
0.123977,0,0,-0.227958,0,0.000111132,
0.139037,0,0,-0.228071,0,0.000118032,
0.155022,0,0,-0.228201,0,0.000123443,
0.171949,0,0,-0.228348,0,0.000127054,
0.189839,0,0,-0.228515,0,0.000128292,
0.208709,0,0,-0.228704,0,0.000126448,
0.228579,0,0,-0.228914,0,0.000120906,
0.249467,0,0,-0.229147,0,0.000111245,
0.271391,0,0,-0.229401,0,9.73238e-05,
0.29437,0,0,-0.229675,0,7.92766e-05,
0.31842,0,0,-0.229966,0,5.74927e-05,
0.343559,0,0,-0.230272,0,3.25581e-05,
0.369804,0,0,-0.23059,0,5.18019e-06,
0.39717,0,0,-0.230917,0,-2.391e-05,
0.425672,0,0,-0.23125,0,-5.40546e-05,
0.455324,0,0,-0.231588,0,-8.47358e-05,
0.48614,0,0,-0.231928,0,-0.000115555,
0.518132,0,0,-0.232269,0,-0.000146149,
0.551309,0,0,-0.232608,0,-0.000176133,
0.585683,0,0,-0.232943,0,-0.000205065,
0.621259,0,0,-0.233272,0,-0.000232407,
0.658046,0,0,-0.233595,0,-0.00025752,
0.696047,0,0,-0.233908,0,-0.000279698,
0.735265,0,0,-0.234214,0,-0.000298246,
0.7757,0,0,-0.234516,0,-0.000312582,
0.817352,0,0,-0.234819,0,-0.000322323,
0.860215,0,0,-0.235134,0,-0.000327364,
0.904285,0,0,-0.235478,0,-0.000327938,
0.949552,0,0,-0.235875,0,-0.000324653,
0.996004,0,0,-0.236352,0,-0.000318524,
1.04363,0,0,-0.236944,0,-0.000311036,
1.09241,0,0,-0.237688,0,-0.00030421,
1.14232,0,0,-0.23862,0,-0.000300598,
1.19335,0,0,-0.23977,0,-0.000303077,
1.24546,0,0,-0.241151,0,-0.00031446,
1.29863,0,0,-0.242763,0,-0.000336992,
1.35283,0,0,-0.244585,0,-0.000372002,
1.40802,0,0,-0.246591,0,-0.000419941,
1.46416,0,0,-0.24874,0,-0.000480616,
1.52121,0,0,-0.25098,0,-0.000553287,
1.57913,0,0,-0.253247,0,-0.000636696,
1.63787,0,0,-0.25547,0,-0.000729153,
1.69739,0,0,-0.257572,0,-0.000828653,
1.75761,0,0,-0.259475,0,-0.000933014,
1.81851,0,0,-0.261107,0,-0.00104,
1.88,0,0,-0.262401,0,-0.00114748,
1.94204,0,0,-0.263301,0,-0.00125349,
2.00457,0,0,-0.263765,0,-0.0013564,
2.06751,0,0,-0.263763,0,-0.00145494,
2.13081,0,0,-0.263277,0,-0.00154828,
2.19439,0,0,-0.2623,0,-0.00163588,
2.25819,0,0,-0.260829,0,-0.00171746,
2.32214,0,0,-0.258867,0,-0.00179282,
2.38617,0,0,-0.256421,0,-0.00186179,
2.4502,0,0,-0.2535,0,-0.00192419,
2.51418,0,0,-0.250117,0,-0.00197978,
2.57803,0,0,-0.24629,0,-0.00202832,
2.64167,0,0,-0.242038,0,-0.00206955,
2.70505,0,0,-0.237385,0,-0.00210319,
2.76808,0,0,-0.232361,0,-0.00212898,
2.83072,0,0,-0.226996,0,-0.00214659,
2.89288,0,0,-0.221327,0,-0.0021557,
2.95451,0,0,-0.215396,0,-0.00215595,
3.01555,0,0,-0.209255,0,-0.0021471,
3.07594,0,0,-0.202961,0,-0.00212923,
3.13561,0,0,-0.196579,0,-0.00210286,
3.19453,0,0,-0.190171,0,-0.00206889,
3.25262,0,0,-0.183796,0,-0.00202856,
3.30985,0,0,-0.177501,0,-0.00198317,
3.36617,0,0,-0.171325,0,-0.00193393,
3.42154,0,0,-0.165299,0,-0.0018819,
3.47591,0,0,-0.159443,0,-0.00182791,
3.52925,0,0,-0.153777,0,-0.00177266,
3.58152,0,0,-0.148311,0,-0.00171677,
3.6327,0,0,-0.143052,0,-0.0016607,
3.68276,0,0,-0.138005,0,-0.00160485,
3.73167,0,0,-0.133172,0,-0.00154954,
3.77941,0,0,-0.128552,0,-0.00149503,
3.82596,0,0,-0.124144,0,-0.00144155,
3.8713,0,0,-0.119943,0,-0.00138932,
3.91543,0,0,-0.115943,0,-0.00133844,
3.95833,0,0,-0.112159,0,-0.00128948,
4,0,0,-0.108537,0,-0.00124195,
4.04167,0,0,-0.105002,0,-0.00119481,
4.08333,0,0,-0.101548,0,-0.00114811,
4.125,0,0,-0.0981685,0,-0.00110186,
4.16667,0,0,-0.0948647,0,-0.00105606,
4.20833,0,0,-0.0916347,0,-0.00101076,
4.25,0,0,-0.0884765,0,-0.000966001,
4.29167,0,0,-0.0853886,0,-0.000921777,
4.33333,0,0,-0.0823693,0,-0.000878088,
4.375,0,0,-0.0794173,0,-0.000834942,
4.41667,0,0,-0.0765309,0,-0.00079236,
4.45833,0,0,-0.0737082,0,-0.000750346,
4.5,0,0,-0.0709475,0,-0.000708884,
4.54167,0,0,-0.0682472,0,-0.000667957,
4.58333,0,0,-0.0656059,0,-0.000627561,
4.625,0,0,-0.063022,0,-0.0005877,
4.66667,0,0,-0.0604939,0,-0.000548362,
4.70833,0,0,-0.0580198,0,-0.000509521,
4.75,0,0,-0.0555987,0,-0.000471156,
4.79167,0,0,-0.0532294,0,-0.000433263,
4.83333,0,0,-0.0509104,0,-0.00039584,
4.875,0,0,-0.0486403,0,-0.000358865,
4.91667,0,0,-0.0464179,0,-0.000322312,
4.95833,0,0,-0.0442422,0,-0.000286159,
5,0,0,-0.0421123,0,-0.000250402,
5.04167,0,0,-0.0400271,0,-0.00021503,
5.08333,0,0,-0.0379854,0,-0.000180021,
5.125,0,0,-0.0359865,0,-0.000145349,
5.16667,0,0,-0.0340297,0,-0.000111004,
5.20833,0,0,-0.0321142,0,-7.69829e-05,
5.25,0,0,-0.0302394,0,-4.32817e-05,
5.29167,0,0,-0.0284043,0,-9.88793e-06,
5.33333,0,0,-0.0266084,0,2.32105e-05,
5.375,0,0,-0.0248511,0,5.6021e-05,
5.41667,0,0,-0.0231318,0,8.85486e-05,
5.45833,0,0,-0.0214498,0,0.000120801,
5.5,0,0,-0.0198046,0,0.000152788,
5.54167,0,0,-0.0181958,0,0.000184513,
5.58333,0,0,-0.0166229,0,0.000215978,
5.625,0,0,-0.0150854,0,0.000247185,
5.66667,0,0,-0.0135827,0,0.000278139,
5.70833,0,0,-0.0121145,0,0.000308842,
5.75,0,0,-0.0106803,0,0.000339295,
5.79167,0,0,-0.00927968,0,0.000369499,
5.83333,0,0,-0.0079122,0,0.000399455,
5.875,0,0,-0.00657748,0,0.000429166,
5.91667,0,0,-0.00527512,0,0.00045863,
5.95833,0,0,-0.00400467,0,0.000487843,
6,0,0,-0.00276575,0,0.000516803,
6.04167,0,0,-0.00155791,0,0.000545511,
6.08333,0,0,-0.000380761,0,0.000573964,
6.125,0,0,0.000766122,0,0.000602159,
6.16667,0,0,0.00188314,0,0.000630095,
6.20833,0,0,0.00297075,0,0.000657771,
6.25,0,0,0.00402934,0,0.000685186,
6.29167,0,0,0.00505932,0,0.000712339,
6.33333,0,0,0.00606111,0,0.000739226,
6.375,0,0,0.00703511,0,0.000765845,
6.41667,0,0,0.00798174,0,0.000792195,
6.45833,0,0,0.00890143,0,0.000818273,
6.5,0,0,0.00979456,0,0.000844078,
6.54167,0,0,0.0106616,0,0.000869607,
6.58333,0,0,0.0115029,0,0.000894857,
6.625,0,0,0.0123189,0,0.000919825,
6.66667,0,0,0.01311,0,0.000944508,
6.70833,0,0,0.0138767,0,0.000968906,
6.75,0,0,0.0146194,0,0.000993016,
6.79167,0,0,0.0153385,0,0.00101683,
6.83333,0,0,0.0160344,0,0.00104036,
6.875,0,0,0.0167076,0,0.00106359,
6.91667,0,0,0.0173584,0,0.00108654,
6.95833,0,0,0.0179873,0,0.00110919,
7,0,0,0.0185946,0,0.00113154,
7.04167,0,0,0.0191809,0,0.00115361,
7.08333,0,0,0.0197465,0,0.0011754,
7.125,0,0,0.0202919,0,0.00119691,
7.16667,0,0,0.0208173,0,0.00121814,
7.20833,0,0,0.0213233,0,0.00123909,
7.25,0,0,0.0218101,0,0.00125976,
7.29167,0,0,0.0222781,0,0.00128015,
7.33333,0,0,0.0227277,0,0.00130025,
7.375,0,0,0.0231592,0,0.00132005,
7.41667,0,0,0.0235729,0,0.00133957,
7.45833,0,0,0.0239692,0,0.00135879,
7.5,0,0,0.0243485,0,0.00137772,
7.54167,0,0,0.024711,0,0.00139635,
7.58333,0,0,0.0250572,0,0.0014147,
7.625,0,0,0.0253873,0,0.00143276,
7.66667,0,0,0.0257016,0,0.00145055,
7.70833,0,0,0.0260004,0,0.00146806,
7.75,0,0,0.026284,0,0.0014853,
7.79167,0,0,0.0265528,0,0.00150228,
7.83333,0,0,0.0268061,0,0.00151895,
7.875,0,0,0.027045,0,0.00153538,
7.91667,0,0,0.0272775,0,0.00155217,
7.95833,0,0,0.0274359,0,0.00156794,
8,0,0,0.0276936,0,0.0015842,
8.04171,0,0,0.0279821,0,0.00160117,
8.08368,0,0,0.0281321,0,0.00161795,
8.12617,0,0,0.0283217,0,0.00163282,
8.16946,0,0,0.0285009,0,0.00164762,
8.21382,0,0,0.0286638,0,0.00166241,
8.25952,0,0,0.0288193,0,0.0016772,
8.30685,0,0,0.0289669,0,0.00169219,
8.35611,0,0,0.0291064,0,0.00170747,
8.40762,0,0,0.0292379,0,0.00172311,
8.46168,0,0,0.029361,0,0.00173916,
8.51865,0,0,0.0294751,0,0.00175567,
8.57889,0,0,0.0295791,0,0.00177266,
8.64276,0,0,0.0296717,0,0.00179018,
8.71067,0,0,0.0297513,0,0.00180824,
8.78306,0,0,0.0298159,0,0.00182688,
8.86037,0,0,0.0298628,0,0.00184612,
8.94309,0,0,0.0298887,0,0.00186597,
9.03174,0,0,0.0298909,0,0.00188641,
9.12689,0,0,0.0298664,0,0.0019074,
9.22912,0,0,0.0298118,0,0.0019289,
9.33908,0,0,0.0297244,0,0.00195087,
9.45746,0,0,0.0295992,0,0.00197327,
9.58501,0,0,0.0294306,0,0.00199603,
9.72253,0,0,0.029216,0,0.00201903,
9.87088,0,0,0.0289534,0,0.00204222,
10.031,0,0,0.0286363,0,0.00206549,
10.2039,0,0,0.0282603,0,0.00208871,
10.3906,0,0,0.0278251,0,0.00211172,
10.5924,0,0,0.0273269,0,0.00213439,
10.8105,0,0,0.0267666,0,0.00215658,
11.0463,0,0,0.0261413,0,0.00217813,
11.3012,0,0,0.025452,0,0.00219884,
11.5769,0,0,0.0247022,0,0.00221857,
11.8751,0,0,0.0238952,0,0.00223743,
12.1977,0,0,0.0230398,0,0.00225633,
12.5466,0,0,0.0221394,0,0.00227662,
12.9242,0,0,0.0211991,0,0.00229777,
13.3327,0,0,0.0202303,0,0.00231726,
13.7748,0,0,0.0192432,0,0.00233486,
14.2532,0,0,0.0182491,0,0.00235151,
14.7709,0,0,0.0172602,0,0.00236784,
15.3312,0,0,0.0162881,0,0.0023837,
15.9377,0,0,0.0153435,0,0.00239846,
16.594,0,0,0.0144367,0,0.00241131,
17.3044,0,0,0.0135763,0,0.00242183,
18.0733,0,0,0.0127705,0,0.00243058,
18.9056,0,0,0.0120223,0,0.00243773,
19.8064,0,0,0.0113318,0,0.00244281,
20.7816,0,0,0.0106971,0,0.00244667,
21.8371,0,0,0.0101122,0,0.00244998,
22.9796,0,0,0.00956907,0,0.00245295,
24.2163,0,0,0.00905337,0,0.00245636,
25.5551,0,0,0.00855005,0,0.00246068,
27.0042,0,0,0.00804239,0,0.00246539,
28.5729,0,0,0.00751486,0,0.00247046,
30.271,0,0,0.00695285,0,0.00247616,
32.1091,0,0,0.00634664,0,0.00248261,
34.0989,0,0,0.00569387,0,0.00248958,
36.2529,0,0,0.00497703,0,0.00249501,
38.5845,0,0,0.00417137,0,0.0025,
41.1085,0,0,0.00331359,0,0.00250585,
43.8407,0,0,0.00223842,0,0.00251286,
46.7983,0,0,0.0011466,0,0.00251697,
50,0,0,0.00240102,0,0.00253281,

