f0eeddc33f537285fb7aa31e5d3b9d09404933c5 
X,Z,x_velocity,cp,uw_b,cf,
1,0,0,-0.213752,0,0,
1,9,0,-0.136842,0,0,
1,8.99969,0.0157074,-0.136841,3.0391e-10,0,
1,8.99934,0.0335245,-0.136841,1.42028e-08,0,
1,8.99894,0.0537525,-0.136841,1.9586e-07,0,
1,8.99848,0.0767094,-0.136841,1.435e-06,0,
1,8.99797,0.102709,-0.136841,7.1631e-06,0,
1,8.99739,0.131942,-0.136841,2.70389e-05,0,
1,8.99672,0.164185,-0.136841,7.97166e-05,0,
1,8.99597,0.19845,-0.136841,0.00018407,0,
1,8.99512,0.233042,-0.136841,0.000336774,0,
1,8.99416,0.266297,-0.136841,0.000507908,0,
1,8.99306,0.297261,-0.13684,0.00066799,0,
1,8.99182,0.325797,-0.13684,0.000795503,0,
1,8.99041,0.352053,-0.13684,0.000901629,0,
1,8.98881,0.376186,-0.13684,0.000989034,0,
1,8.98699,0.398416,-0.136839,0.00106016,0,
1,8.98494,0.419032,-0.136839,0.00111616,0,
1,8.98261,0.438349,-0.136838,0.00115856,0,
1,8.97996,0.456612,-0.136837,0.00119409,0,
1,8.97696,0.473992,-0.136836,0.00122344,0,
1,8.97356,0.490632,-0.136835,0.00124792,0,
1,8.9697,0.506648,-0.136834,0.00126851,0,
1,8.96533,0.522141,-0.136832,0.00128593,0,
1,8.96038,0.537191,-0.136831,0.00130072,0,
1,8.95476,0.551869,-0.136829,0.00131328,0,
1,8.9484,0.566234,-0.136827,0.0013239,0,
1,8.9412,0.580337,-0.136825,0.00133277,0,
1,8.93303,0.594219,-0.136822,0.00134002,0,
1,8.92379,0.607919,-0.13682,0.00134574,0,
1,8.91333,0.621469,-0.136817,0.00134996,0,
1,8.90149,0.634897,-0.136814,0.00135268,0,
1,8.8881,0.648228,-0.136812,0.00135388,0,
1,8.87295,0.661487,-0.136809,0.00135348,0,
1,8.85584,0.674693,-0.136807,0.00135142,0,
1,8.83651,0.687868,-0.136806,0.00134759,0,
1,8.81469,0.701033,-0.136806,0.00134184,0,
1,8.79007,0.714209,-0.136807,0.00133401,0,
1,8.76232,0.727419,-0.13681,0.00132388,0,
1,8.73107,0.740692,-0.136816,0.0013112,0,
1,8.69591,0.754059,-0.136826,0.00129562,0,
1,8.6564,0.767557,-0.136841,0.00127672,0,
1,8.61206,0.781234,-0.136863,0.00125396,0,
1,8.56236,0.795147,-0.136892,0.0012269,0,
1,8.50675,0.809376,-0.136935,0.00119678,0,
1,8.44464,0.824063,-0.136991,0.00115915,0,
1,8.3754,0.839445,-0.137066,0.00110797,0,
1,8.29839,0.855783,-0.137165,0.00104351,0,
1,8.21296,0.873322,-0.137295,0.000960853,0,
1,8.11843,0.892241,-0.13746,0.000854067,0,
1,8.01417,0.912515,-0.137677,0.000719299,0,
1,7.89956,0.933657,-0.137937,0.00055913,0,
1,7.77403,0.954472,-0.138285,0.000394542,0,
1,7.63711,0.973263,-0.138693,0.000209269,0,
1,7.48842,0.987722,-0.139178,7.49712e-05,0,
1,7.32773,0.99604,-0.139766,1.67101e-05,0,
1,7.15495,0.998857,-0.140446,1.37017e-06,0,
1,6.97022,0.998735,-0.141236,-3.66153e-09,0,
1,6.77388,0.998077,-0.142146,1.08977e-09,0,
1,6.56652,0.997959,-0.143192,8.35186e-09,0,
1,6.34896,0.998388,-0.144382,1.14977e-08,0,
1,6.12229,0.999058,-0.145727,1.2969e-08,0,
1,5.88784,0.999779,-0.147238,1.36249e-08,0,
1,5.64716,1.00052,-0.148923,1.44071e-08,0,
1,5.40194,1.00132,-0.150787,1.55417e-08,0,
1,5.15407,1.0022,-0.152831,1.69108e-08,0,
1,4.90545,1.00316,-0.155053,1.84281e-08,0,
1,4.65805,1.0042,-0.157445,2.0044e-08,0,
1,4.41376,1.00533,-0.159993,2.1665e-08,0,
1,4.17441,1.0065,-0.16268,2.30184e-08,0,
1,3.94163,1.00768,-0.165483,2.3974e-08,0,
1,3.7169,1.0088,-0.168371,2.52079e-08,0,
1,3.50146,1.00996,-0.171315,2.88798e-08,0,
1,3.29629,1.01147,-0.17428,3.72832e-08,0,
1,3.10217,1.01368,-0.177241,4.83501e-08,0,
1,2.91959,1.01638,-0.180174,8.101e-08,0,
1,2.74885,1.01811,-0.183045,4.9627e-07,0,
1,2.59002,1.01644,-0.185809,-7.37251e-06,0,
1,2.44299,1.00964,-0.188416,-4.93433e-05,0,
1,2.30752,0.997867,-0.19082,-0.000135065,0,
1,2.18321,0.982636,-0.192995,-0.000251497,0,
1,2.06959,0.965659,-0.194933,-0.000376679,0,
1,1.9661,0.948251,-0.196643,-0.000491793,0,
1,1.87215,0.931277,-0.198141,-0.000585951,0,
1,1.78711,0.915234,-0.199445,-0.000657481,0,
1,1.71033,0.90029,-0.200578,-0.000711341,0,
1,1.64119,0.886398,-0.201559,-0.000753721,0,
1,1.57905,0.873432,-0.202406,-0.000788832,0,
1,1.52332,0.861257,-0.203135,-0.000818985,0,
1,1.47342,0.849757,-0.203763,-0.000845416,0,
1,1.42882,0.83884,-0.204302,-0.000868801,0,
1,1.389,0.828437,-0.204765,-0.000889537,0,
1,1.35351,0.818496,-0.205162,-0.000907888,0,
1,1.3219,0.808985,-0.205504,-0.000924059,0,
1,1.29378,0.799878,-0.205797,-0.000938215,0,
1,1.26878,0.791164,-0.206049,-0.000950512,0,
1,1.24659,0.782835,-0.206266,-0.000961471,0,
1,1.22689,0.77488,-0.206453,-0.000971173,0,
1,1.2092,0.767205,-0.206616,-0.00097872,0,
1,1.1932,0.759757,-0.206759,-0.000984746,0,
1,1.1787,0.75252,-0.206884,-0.000989647,0,
1,1.16554,0.745477,-0.206995,-0.000993828,0,
1,1.15357,0.738603,-0.207092,-0.000998345,0,
1,1.14266,0.731862,-0.207177,-0.00100504,0,
1,1.13268,0.725201,-0.207252,-0.00101681,0,
1,1.12354,0.718548,-0.207318,-0.00103743,0,
1,1.11514,0.711805,-0.207378,-0.00107182,0,
1,1.10739,0.704846,-0.207432,-0.00112567,0,
1,1.10022,0.697524,-0.207484,-0.00120507,0,
1,1.09357,0.689675,-0.207534,-0.00131582,0,
1,1.08738,0.681144,-0.207587,-0.00146226,0,
1,1.0816,0.671802,-0.207641,-0.00164652,0,
1,1.07618,0.661585,-0.2077,-0.00186768,0,
1,1.07107,0.650508,-0.207764,-0.00212124,0,
1,1.06626,0.638667,-0.207832,-0.00239952,0,
1,1.06169,0.626216,-0.207905,-0.00269296,0,
1,1.05735,0.613337,-0.207981,-0.00299175,0,
1,1.05321,0.600209,-0.20806,-0.00328719,0,
1,1.04925,0.586986,-0.208141,-0.00357248,0,
1,1.04544,0.573793,-0.208224,-0.00384285,0,
1,1.04177,0.560721,-0.208308,-0.00409537,0,
1,1.03822,0.547836,-0.208393,-0.00432849,0,
1,1.03478,0.535178,-0.208478,-0.00454171,0,
1,1.03144,0.522771,-0.208563,-0.0047352,0,
1,1.02818,0.510628,-0.208647,-0.00490956,0,
1,1.025,0.498751,-0.208732,-0.00506561,0,
1,1.02188,0.487137,-0.208816,-0.00520436,0,
1,1.01882,0.475779,-0.208899,-0.0053268,0,
1,1.01581,0.464666,-0.208982,-0.00543407,0,
1,1.01284,0.453788,-0.209063,-0.00552675,0,
1,1.00988,0.443016,-0.209146,-0.00560639,0,
1,1.00688,0.432224,-0.20923,-0.0056748,0,
1,1.00384,0.421403,-0.209315,-0.00573192,0,
1,1.00076,0.410543,-0.209401,-0.00577807,0,
1,0.997615,0.399628,-0.209488,-0.00581282,0,
1,0.99441,0.38864,-0.209577,-0.00583567,0,
1,0.991131,0.377557,-0.209668,-0.00584696,0,
1,0.987768,0.366354,-0.209759,-0.00584655,0,
1,0.984308,0.355007,-0.209853,-0.00583417,0,
1,0.980739,0.343488,-0.209949,-0.00580946,0,
1,0.977045,0.331772,-0.210047,-0.00577196,0,
1,0.973211,0.319828,-0.210148,-0.00572109,0,
1,0.969219,0.307629,-0.210251,-0.00565619,0,
1,0.965047,0.295146,-0.210358,-0.00557673,0,
1,0.960675,0.282354,-0.210467,-0.00548167,0,
1,0.956077,0.269226,-0.21058,-0.00537008,0,
1,0.951224,0.255738,-0.210697,-0.00524089,0,
1,0.946088,0.241867,-0.210817,-0.00509309,0,
1,0.940633,0.227599,-0.21094,-0.00492567,0,
1,0.934823,0.212922,-0.211068,-0.0047377,0,
1,0.928616,0.197837,-0.211199,-0.00452845,0,
1,0.921967,0.182357,-0.211334,-0.00429748,0,
1,0.914826,0.16651,-0.211472,-0.00404483,0,
1,0.907141,0.150349,-0.211613,-0.00377119,0,
1,0.898852,0.133952,-0.211755,-0.00347819,0,
1,0.889898,0.117432,-0.211899,-0.00316865,0,
1,0.880212,0.100944,-0.212044,-0.00284687,0,
1,0.869723,0.0846884,-0.212188,-0.00251891,0,
1,0.858358,0.0689147,-0.212329,-0.00219272,0,
1,0.846039,0.0539145,-0.212466,-0.00187792,0,
1,0.83269,0.0400012,-0.212596,-0.00158486,0,
1,0.818232,0.0274734,-0.212715,-0.00132569,0,
1,0.802744,0.0166403,-0.212815,-0.00110875,0,
1,0.78635,0.00762075,-0.212898,-0.000934879,0,
1,0.768969,0.00024611,-0.212956,-0.000802549,0,
1,0.75053,-0.00573216,-0.212987,-0.000706999,0,
1,0.730977,-0.0105884,-0.212989,-0.000642133,0,
1,0.710271,-0.0145788,-0.21296,-0.000602205,0,
1,0.688397,-0.0179154,-0.212898,-0.000581097,0,
1,0.66536,-0.0207447,-0.212804,-0.000574915,0,
1,0.641194,-0.0231401,-0.212631,-0.00059608,0,
1,0.615961,-0.025166,-0.212384,-0.000637721,0,
1,0.589754,-0.0269099,-0.212097,-0.000682244,0,
1,0.562692,-0.0284459,-0.211774,-0.000728838,0,
1,0.534925,-0.0298208,-0.211429,-0.000772275,0,
1,0.506624,-0.0310631,-0.211079,-0.000806771,0,
1,0.477982,-0.0321913,-0.210747,-0.000827224,0,
1,0.449206,-0.033217,-0.210455,-0.000829647,0,
1,0.420509,-0.034148,-0.210226,-0.000811927,0,
1,0.392107,-0.0349901,-0.210077,-0.000774188,0,
1,0.364206,-0.0357478,-0.210017,-0.000718869,0,
1,0.337003,-0.0364255,-0.210049,-0.000650253,0,
1,0.310673,-0.0370279,-0.210166,-0.000573965,0,
1,0.28537,-0.0375614,-0.210353,-0.000495558,0,
1,0.26122,-0.0380329,-0.210587,-0.000419494,0,
1,0.238324,-0.0384451,-0.210854,-0.000346173,0,
1,0.21675,-0.0387973,-0.211145,-0.000277385,0,
1,0.196544,-0.0390907,-0.211444,-0.000215833,0,
1,0.177724,-0.039328,-0.211736,-0.000162622,0,
1,0.160284,-0.0395113,-0.212011,-0.000117645,0,
1,0.144202,-0.0396425,-0.212265,-8.02698e-05,0,
1,0.129436,-0.0397231,-0.212492,-4.95595e-05,0,
1,0.115935,-0.0397535,-0.212692,-2.45083e-05,0,
1,0.103636,-0.0397337,-0.212867,-4.14809e-06,0,
1,0.0924701,-0.0396627,-0.213017,1.23688e-05,0,
1,0.0823633,-0.0395392,-0.213145,2.57514e-05,0,
1,0.0732406,-0.0393608,-0.213254,3.65707e-05,0,
1,0.0650269,-0.0391245,-0.213346,4.52755e-05,0,
1,0.057648,-0.0388264,-0.213423,5.22117e-05,0,
1,0.0510323,-0.0384617,-0.213488,5.76416e-05,0,
1,0.0451115,-0.038024,-0.213542,6.17594e-05,0,
1,0.0398209,-0.037505,-0.213586,6.46997e-05,0,
1,0.0351001,-0.0368937,-0.213623,6.65427e-05,0,
1,0.0308929,-0.0361753,-0.213654,6.73119e-05,0,
1,0.0271475,-0.0353297,-0.213678,6.69674e-05,0,
1,0.0238164,-0.0343292,-0.213698,6.53818e-05,0,
1,0.0208562,-0.0331365,-0.213713,6.23169e-05,0,
1,0.0182274,-0.0317024,-0.213725,5.74077e-05,0,
1,0.0158944,-0.029968,-0.213733,5.02427e-05,0,
1,0.0138249,-0.0278776,-0.21374,4.06949e-05,0,
1,0.0119898,-0.0254138,-0.213743,2.9551e-05,0,
1,0.0103632,-0.0226451,-0.213746,1.87508e-05,0,
1,0.00892169,-0.0197397,-0.213747,1.0338e-05,0,
1,0.00764438,-0.0169007,-0.213749,5.03412e-06,0,
1,0.00651264,-0.0142773,-0.213748,2.22142e-06,0,
1,0.00550983,-0.0119362,-0.21375,9.06921e-07,0,
1,0.00462115,-0.00988328,-0.213749,3.45636e-07,0,
1,0.00383341,-0.00809621,-0.21375,1.22562e-07,0,
1,0.0031349,-0.00654357,-0.21375,3.98628e-08,0,
1,0.00251518,-0.00519371,-0.213751,1.15825e-08,0,
1,0.00196502,-0.00401819,-0.21375,2.87892e-09,0,
1,0.00147619,-0.0029921,-0.213751,5.69213e-10,0,
1,0.00104139,-0.00209426,-0.21375,7.85273e-11,0,
1,0.000654158,-0.0013063,-0.213752,5.80714e-12,0,
1,0.000308731,-0.000612821,-0.21375,1.26185e-13,0,

4,0,0,-0.203982,0,0,
4,9,0,-0.110211,0,0,
4,8.99969,0.0147491,-0.11021,2.49835e-10,0,
4,8.99934,0.031421,-0.110211,1.15889e-08,0,
4,8.99894,0.0502852,-0.11021,1.58193e-07,0,
4,8.9985,0.0716255,-0.11021,1.14737e-06,0,
4,8.99799,0.0957278,-0.11021,5.68447e-06,0,
4,8.99742,0.122787,-0.11021,2.14357e-05,0,
4,8.99677,0.152681,-0.11021,6.38403e-05,0,
4,8.99605,0.184655,-0.11021,0.000150826,0,
4,8.99522,0.217272,-0.11021,0.000284606,0,
4,8.99429,0.248964,-0.11021,0.000442502,0,
4,8.99324,0.278696,-0.110209,0.000595957,0,
4,8.99205,0.306148,-0.110209,0.000726182,0,
4,8.9907,0.331415,-0.110209,0.000831707,0,
4,8.98919,0.354669,-0.110208,0.000920231,0,
4,8.98747,0.376105,-0.110208,0.000993577,0,
4,8.98553,0.395996,-0.110207,0.00105136,0,
4,8.98334,0.41463,-0.110206,0.00109735,0,
4,8.98087,0.43223,-0.110205,0.00113619,0,
4,8.97807,0.448966,-0.110204,0.00116902,0,
4,8.97491,0.46498,-0.110202,0.00119717,0,
4,8.97134,0.480388,-0.110201,0.00122165,0,
4,8.96731,0.495292,-0.110199,0.00124318,0,
4,8.96276,0.509773,-0.110197,0.00126232,0,
4,8.95762,0.523905,-0.110194,0.00127947,0,
4,8.95182,0.537747,-0.110191,0.0012949,0,
4,8.94526,0.551353,-0.110188,0.00130881,0,
4,8.93787,0.564766,-0.110184,0.00132129,0,
4,8.92952,0.578027,-0.11018,0.0013324,0,
4,8.92011,0.591167,-0.110175,0.00134214,0,
4,8.90949,0.604216,-0.11017,0.00135047,0,
4,8.89751,0.617198,-0.110165,0.00135731,0,
4,8.88402,0.630136,-0.110159,0.00136256,0,
4,8.86881,0.643046,-0.110153,0.00136609,0,
4,8.85169,0.655946,-0.110147,0.00136778,0,
4,8.83242,0.668851,-0.11014,0.00136746,0,
4,8.81074,0.681774,-0.110134,0.00136498,0,
4,8.78637,0.694731,-0.110129,0.00136014,0,
4,8.75901,0.707736,-0.110124,0.00135274,0,
4,8.7283,0.720808,-0.110121,0.00134256,0,
4,8.69387,0.733969,-0.11012,0.0013293,0,
4,8.65533,0.747245,-0.110122,0.0013126,0,
4,8.61222,0.760672,-0.110129,0.00129203,0,
4,8.56407,0.774293,-0.110141,0.001267,0,
4,8.5104,0.788162,-0.110161,0.00123706,0,
4,8.45065,0.802355,-0.110193,0.00120468,0,
4,8.38429,0.817043,-0.110239,0.00115959,0,
4,8.31073,0.832484,-0.110302,0.0011022,0,
4,8.22941,0.848947,-0.110388,0.00102913,0,
4,8.13974,0.866686,-0.110501,0.000935139,0,
4,8.04115,0.885866,-0.110644,0.000815507,0,
4,7.93313,0.906367,-0.110826,0.000669848,0,
4,7.81519,0.927451,-0.111041,0.00051057,0,
4,7.68693,0.947555,-0.111308,0.000354421,0,
4,7.54803,0.964614,-0.111618,0.000219141,0,
4,7.39831,0.976861,-0.111991,9.35485e-05,0,
4,7.23771,0.983645,-0.112446,2.74419e-05,0,
4,7.06634,0.986016,-0.112969,4.15449e-06,0,
4,6.88453,0.986056,-0.113567,3.09859e-08,0,
4,6.69275,0.985557,-0.114241,-2.43891e-08,0,
4,6.49173,0.985361,-0.115005,4.46064e-08,0,
4,6.28238,0.985563,-0.115869,3.11056e-08,0,
4,6.06579,0.985986,-0.116845,1.74083e-08,0,
4,5.84328,0.986483,-0.117941,1.24864e-08,0,
4,5.61626,0.987001,-0.119165,1.14865e-08,0,
4,5.3863,0.987547,-0.120524,1.19143e-08,0,
4,5.15502,0.98814,-0.122025,1.29713e-08,0,
4,4.92406,0.988793,-0.123672,1.44194e-08,0,
4,4.69507,0.989519,-0.125467,1.61331e-08,0,
4,4.46961,0.990321,-0.127412,1.79434e-08,0,
4,4.24915,0.99118,-0.129504,1.94779e-08,0,
4,4.03501,0.992039,-0.131738,2.05204e-08,0,
4,3.82836,0.992833,-0.134107,2.15398e-08,0,
4,3.63018,0.993584,-0.136599,2.44844e-08,0,
4,3.44125,0.994501,-0.1392,3.36395e-08,0,
4,3.26217,0.995953,-0.141896,1.11832e-07,0,
4,3.09333,0.998188,-0.14467,9.47743e-07,0,
4,2.93497,1.00091,-0.147501,3.93628e-06,0,
4,2.78715,1.00316,-0.150369,6.63469e-06,0,
4,2.64979,1.00373,-0.153246,1.96309e-06,0,
4,2.52268,1.00172,-0.156099,-1.54198e-05,0,
4,2.40551,0.996865,-0.158888,-4.63844e-05,0,
4,2.29789,0.989466,-0.161579,-8.81554e-05,0,
4,2.19939,0.980176,-0.164143,-0.000136091,0,
4,2.10949,0.969732,-0.166563,-0.000185366,0,
4,2.02768,0.958794,-0.168829,-0.000232138,0,
4,1.95343,0.947871,-0.170937,-0.000274003,0,
4,1.88618,0.937305,-0.172887,-0.000309921,0,
4,1.82542,0.927306,-0.174683,-0.000339861,0,
4,1.77062,0.917978,-0.176331,-0.000364397,0,
4,1.72128,0.909359,-0.177838,-0.000384355,0,
4,1.67693,0.901445,-0.179212,-0.000400591,0,
4,1.63713,0.894207,-0.180462,-0.000413859,0,
4,1.60144,0.887605,-0.181595,-0.000424724,0,
4,1.56949,0.881596,-0.18262,-0.00043354,0,
4,1.54091,0.876138,-0.183545,-0.000441497,0,
4,1.51537,0.871169,-0.18438,-0.000448527,0,
4,1.49167,0.866489,-0.185159,-0.000453759,0,
4,1.46926,0.861995,-0.185901,-0.000458378,0,
4,1.44801,0.857663,-0.18661,-0.000462631,0,
4,1.42781,0.853474,-0.187287,-0.000466369,0,
4,1.40855,0.84941,-0.187937,-0.000469622,0,
4,1.39015,0.845456,-0.188561,-0.000472428,0,
4,1.37252,0.841595,-0.189162,-0.000474828,0,
4,1.3556,0.837815,-0.189743,-0.000476887,0,
4,1.3393,0.834099,-0.190304,-0.000478708,0,
4,1.32357,0.830434,-0.190847,-0.000480443,0,
4,1.30836,0.826805,-0.191375,-0.000482317,0,
4,1.29362,0.823193,-0.191889,-0.000484653,0,
4,1.2793,0.81958,-0.19239,-0.000487895,0,
4,1.26537,0.815941,-0.192878,-0.000492638,0,
4,1.25179,0.812248,-0.193356,-0.000499655,0,
4,1.23852,0.808467,-0.193824,-0.000509961,0,
4,1.22554,0.804552,-0.194282,-0.000524822,0,
4,1.21282,0.800449,-0.194731,-0.000545784,0,
4,1.20034,0.796089,-0.195173,-0.000574708,0,
4,1.18806,0.791386,-0.195606,-0.000613738,0,
4,1.17599,0.78624,-0.196031,-0.00066521,0,
4,1.16408,0.780537,-0.196447,-0.000731497,0,
4,1.15233,0.774151,-0.196856,-0.000814749,0,
4,1.14073,0.766962,-0.197255,-0.000916584,0,
4,1.12925,0.758866,-0.197645,-0.00103773,0,
4,1.11788,0.74979,-0.198024,-0.00117775,0,
4,1.10661,0.739706,-0.198393,-0.00133496,0,
4,1.09543,0.728637,-0.198749,-0.00150639,0,
4,1.08432,0.716651,-0.199094,-0.0016882,0,
4,1.07328,0.703848,-0.199425,-0.00187608,0,
4,1.0623,0.690351,-0.199743,-0.0020657,0,
4,1.05136,0.676288,-0.200048,-0.00225301,0,
4,1.04044,0.661758,-0.20034,-0.00243459,0,
4,1.0295,0.64685,-0.200619,-0.00260791,0,
4,1.01855,0.631657,-0.200886,-0.00277094,0,
4,1.00757,0.616261,-0.201142,-0.00292202,0,
4,0.996544,0.600729,-0.201385,-0.00306008,0,
4,0.98547,0.585114,-0.201617,-0.00318444,0,
4,0.974334,0.569457,-0.201838,-0.00329476,0,
4,0.963124,0.553791,-0.202049,-0.00339092,0,
4,0.951826,0.53814,-0.202249,-0.00347307,0,
4,0.940428,0.52252,-0.20244,-0.00354142,0,
4,0.928915,0.506943,-0.202621,-0.00359627,0,
4,0.917272,0.491418,-0.202794,-0.00363817,0,
4,0.905481,0.475946,-0.202957,-0.00366798,0,
4,0.893524,0.460521,-0.203114,-0.00368562,0,
4,0.881383,0.445126,-0.203263,-0.00369154,0,
4,0.869035,0.429735,-0.203405,-0.00368677,0,
4,0.856459,0.414321,-0.203541,-0.00367225,0,
4,0.843629,0.398852,-0.203672,-0.00364888,0,
4,0.830518,0.383289,-0.203797,-0.00361757,0,
4,0.817097,0.367591,-0.203917,-0.00357927,0,
4,0.803334,0.351711,-0.204034,-0.00353487,0,
4,0.789195,0.335596,-0.204147,-0.00348533,0,
4,0.774643,0.319188,-0.204258,-0.00343197,0,
4,0.759639,0.302429,-0.204366,-0.00337612,0,
4,0.744138,0.285257,-0.20447,-0.00331934,0,
4,0.728096,0.26761,-0.204572,-0.00326325,0,
4,0.711463,0.249423,-0.204673,-0.00320914,0,
4,0.694189,0.230629,-0.204772,-0.00315842,0,
4,0.676218,0.211163,-0.204872,-0.00311247,0,
4,0.657495,0.190972,-0.204973,-0.00307239,0,
4,0.637962,0.170027,-0.205079,-0.00303739,0,
4,0.617561,0.148357,-0.205188,-0.0030096,0,
4,0.596848,0.126616,-0.205294,-0.00299361,0,
4,0.576557,0.105607,-0.205395,-0.00298382,0,
4,0.556564,0.0853058,-0.205486,-0.00297478,0,
4,0.536763,0.0656591,-0.205566,-0.00296725,0,
4,0.517057,0.046621,-0.205634,-0.00295952,0,
4,0.497368,0.0281559,-0.205688,-0.00294994,0,
4,0.477632,0.0102431,-0.205728,-0.00293679,0,
4,0.457804,-0.0071195,-0.205753,-0.00291795,0,
4,0.437857,-0.0239116,-0.205764,-0.00289136,0,
4,0.417786,-0.0400851,-0.205765,-0.00285527,0,
4,0.397605,-0.0555613,-0.205756,-0.0028085,0,
4,0.377348,-0.07024,-0.205743,-0.00275041,0,
4,0.357066,-0.0840217,-0.205726,-0.00267959,0,
4,0.336828,-0.0968321,-0.205702,-0.00259442,0,
4,0.316717,-0.108631,-0.205671,-0.00249517,0,
4,0.296825,-0.119408,-0.205634,-0.00238335,0,
4,0.27725,-0.129179,-0.205591,-0.00226079,0,
4,0.258095,-0.137981,-0.205543,-0.0021296,0,
4,0.239458,-0.145867,-0.205488,-0.00199207,0,
4,0.221432,-0.152905,-0.205428,-0.00185047,0,
4,0.2041,-0.159165,-0.20536,-0.00170694,0,
4,0.187537,-0.164721,-0.205286,-0.00156339,0,
4,0.171798,-0.169644,-0.205206,-0.00142148,0,
4,0.156928,-0.173999,-0.205121,-0.00128259,0,
4,0.142956,-0.177845,-0.205033,-0.00114782,0,
4,0.129894,-0.181236,-0.204942,-0.00101806,0,
4,0.117744,-0.184217,-0.204851,-0.000893962,0,
4,0.106492,-0.186826,-0.204761,-0.000776005,0,
4,0.0961173,-0.189096,-0.204674,-0.000664492,0,
4,0.0865883,-0.191055,-0.204591,-0.000559596,0,
4,0.0778675,-0.192724,-0.204514,-0.00046138,0,
4,0.0699123,-0.194121,-0.204442,-0.000369804,0,
4,0.062677,-0.19526,-0.204376,-0.000284737,0,
4,0.056114,-0.196149,-0.204317,-0.000205999,0,
4,0.0501747,-0.196795,-0.204265,-0.000133369,0,
4,0.0448114,-0.197198,-0.204218,-6.65937e-05,0,
4,0.039977,-0.197356,-0.204177,-5.40434e-06,0,
4,0.0356266,-0.197261,-0.204142,5.04559e-05,0,
4,0.0317171,-0.196897,-0.204112,0.000101209,0,
4,0.0282081,-0.196243,-0.204086,0.000147035,0,
4,0.0250617,-0.195267,-0.204064,0.000188027,0,
4,0.0222427,-0.193922,-0.204045,0.00022415,0,
4,0.0197189,-0.192145,-0.20403,0.000255169,0,
4,0.0174603,-0.189847,-0.204018,0.000280557,0,
4,0.0154398,-0.18691,-0.204008,0.000299363,0,
4,0.0136326,-0.183171,-0.204,0.000310088,0,
4,0.0120162,-0.178424,-0.203995,0.000310628,0,
4,0.0105703,-0.17242,-0.20399,0.000298542,0,
4,0.00927657,-0.164895,-0.203988,0.000271837,0,
4,0.00811839,-0.15565,-0.203985,0.00023064,0,
4,0.0070809,-0.144644,-0.203985,0.000178841,0,
4,0.0061507,-0.132109,-0.203983,0.000124433,0,
4,0.00531578,-0.118549,-0.203984,7.67182e-05,0,
4,0.00456537,-0.104614,-0.203983,4.18145e-05,0,
4,0.00388979,-0.0908902,-0.203984,2.0254e-05,0,
4,0.00328037,-0.0777712,-0.203983,8.76886e-06,0,
4,0.00272934,-0.0654499,-0.203984,3.38796e-06,0,
4,0.0022297,-0.0539767,-0.203983,1.15047e-06,0,
4,0.00177519,-0.0433268,-0.203984,3.31396e-07,0,
4,0.00136016,-0.0334392,-0.203983,7.56644e-08,0,
4,0.000979511,-0.0242401,-0.203984,1.20335e-08,0,
4,0.00062865,-0.0156514,-0.203982,1.02047e-09,0,
4,0.000303409,-0.00759699,-0.203984,2.47264e-11,0,

6,0,0,-0.0728466,0,0,
6,9,0,-0.087416,0,0,
6,8.99969,0.0140569,-0.087415,2.13135e-10,0,
6,8.99934,0.0299072,-0.0874158,9.83561e-09,0,
6,8.99895,0.0477977,-0.087415,1.33317e-07,0,
6,8.9985,0.067988,-0.0874157,9.60151e-07,0,
6,8.99801,0.0907425,-0.087415,4.73141e-06,0,
6,8.99744,0.116255,-0.0874156,1.78232e-05,0,
6,8.99681,0.144463,-0.087415,5.3437e-05,0,
6,8.99609,0.174761,-0.0874154,0.000128295,0,
6,8.99529,0.205901,-0.0874149,0.000247667,0,
6,8.99438,0.236409,-0.0874151,0.000394214,0,
6,8.99336,0.265207,-0.0874146,0.000541072,0,
6,8.9922,0.291848,-0.0874147,0.000671531,0,
6,8.9909,0.316385,-0.0874141,0.00077549,0,
6,8.98944,0.33899,-0.0874139,0.000863656,0,
6,8.98779,0.359836,-0.0874131,0.000937516,0,
6,8.98593,0.379175,-0.0874126,0.000995949,0,
6,8.98383,0.397276,-0.0874117,0.00104346,0,
6,8.98147,0.41435,-0.0874109,0.00108369,0,
6,8.97881,0.430563,-0.0874096,0.00111804,0,
6,8.97581,0.446057,-0.0874083,0.00114785,0,
6,8.97244,0.460948,-0.0874067,0.00117413,0,
6,8.96863,0.475336,-0.0874048,0.00119766,0,
6,8.96435,0.489306,-0.0874026,0.00121899,0,
6,8.95953,0.502931,-0.0874,0.00123855,0,
6,8.95409,0.516273,-0.087397,0.00125663,0,
6,8.94798,0.529387,-0.0873936,0.00127344,0,
6,8.94109,0.54232,-0.0873896,0.00128908,0,
6,8.93334,0.555113,-0.0873851,0.00130361,0,
6,8.92463,0.567802,-0.08738,0.00131702,0,
6,8.91482,0.580418,-0.0873742,0.00132926,0,
6,8.90379,0.592988,-0.0873677,0.00134022,0,
6,8.89139,0.605536,-0.0873605,0.00134976,0,
6,8.87746,0.618081,-0.0873525,0.00135772,0,
6,8.86181,0.63064,-0.0873437,0.00136391,0,
6,8.84423,0.643227,-0.087334,0.00136811,0,
6,8.82452,0.655854,-0.0873236,0.00137012,0,
6,8.80241,0.668532,-0.0873125,0.00136969,0,
6,8.77763,0.681272,-0.0873007,0.00136658,0,
6,8.74989,0.694083,-0.0872883,0.00136056,0,
6,8.71885,0.706979,-0.0872757,0.00135134,0,
6,8.68417,0.719974,-0.0872629,0.00133863,0,
6,8.64545,0.733089,-0.0872505,0.00132205,0,
6,8.60229,0.746348,-0.0872389,0.00130118,0,
6,8.55423,0.759784,-0.0872288,0.00127547,0,
6,8.50082,0.77344,-0.0872207,0.00124463,0,
6,8.44155,0.78738,-0.0872163,0.0012107,0,
6,8.37592,0.801744,-0.0872182,0.00116542,0,
6,8.30339,0.816763,-0.0872276,0.00110985,0,
6,8.22344,0.832708,-0.087246,0.00104032,0,
6,8.13555,0.849879,-0.087274,0.000952199,0,
6,8.0392,0.868524,-0.0873131,0.0008412,0,
6,7.93391,0.888636,-0.0873575,0.000706333,0,
6,7.81927,0.909593,-0.0874102,0.000557539,0,
6,7.6949,0.929933,-0.08746,0.000409558,0,
6,7.56054,0.947664,-0.0875257,0.000277104,0,
6,7.41603,0.96116,-0.0875909,0.000152175,0,
6,7.26132,0.969695,-0.0876709,5.87271e-05,0,
6,7.09653,0.973685,-0.087769,1.44309e-05,0,
6,6.92195,0.974611,-0.0878711,8.82496e-07,0,
6,6.73802,0.9742,-0.0879786,-7.35381e-07,0,
6,6.5454,0.97362,-0.0880889,-2.81834e-07,0,
6,6.34489,0.973305,-0.0882027,-4.63547e-08,0,
6,6.1375,0.973236,-0.0883198,-1.24822e-09,0,
6,5.92439,0.973269,-0.0884388,1.36518e-09,0,
6,5.70687,0.973306,-0.0885573,2.01757e-10,0,
6,5.48633,0.97331,-0.0886725,-4.88484e-10,0,
6,5.26426,0.973281,-0.0887803,-9.17406e-10,0,
6,5.04218,0.973231,-0.0888765,-1.26014e-09,0,
6,4.82159,0.973171,-0.088956,-1.56027e-09,0,
6,4.60398,0.973111,-0.0890138,-1.91544e-09,0,
6,4.39071,0.973044,-0.0890447,-2.61933e-09,0,
6,4.18307,0.972933,-0.0890434,-4.11524e-09,0,
6,3.98218,0.97271,-0.0890052,-6.6515e-09,0,
6,3.78902,0.972323,-0.0889262,-9.68441e-09,0,
6,3.60438,0.971818,-0.0888037,-1.29096e-08,0,
6,3.42888,0.971401,-0.088636,-2.32782e-08,0,
6,3.26296,0.971372,-0.0884222,-6.89482e-09,0,
6,3.10691,0.971929,-0.0881614,3.20179e-07,0,
6,2.96084,0.972957,-0.0878551,1.14361e-06,0,
6,2.82473,0.973979,-0.0875079,1.0063e-06,0,
6,2.69844,0.974334,-0.087127,-3.21849e-06,0,
6,2.58172,0.973427,-0.0867203,-1.4277e-05,0,
6,2.47424,0.970905,-0.086296,-3.32861e-05,0,
6,2.37559,0.966706,-0.0858625,-5.97201e-05,0,
6,2.28535,0.961013,-0.0854279,-9.19511e-05,0,
6,2.20301,0.954157,-0.0849993,-0.000127851,0,
6,2.1281,0.946518,-0.0845828,-0.000165291,0,
6,2.06009,0.938463,-0.0841828,-0.000202458,0,
6,1.99849,0.930298,-0.083803,-0.000238,0,
6,1.9428,0.922262,-0.0834453,-0.000271047,0,
6,1.89255,0.914522,-0.0831114,-0.000301139,0,
6,1.84728,0.90719,-0.0828012,-0.000328133,0,
6,1.80655,0.900329,-0.0825152,-0.00035201,0,
6,1.76996,0.893975,-0.0822521,-0.000372709,0,
6,1.73712,0.888139,-0.0820119,-0.00039162,0,
6,1.70768,0.882778,-0.0817927,-0.000408846,0,
6,1.67998,0.877649,-0.0815838,-0.000423463,0,
6,1.65329,0.872641,-0.0813795,-0.000437043,0,
6,1.62754,0.867743,-0.0811801,-0.000449899,0,
6,1.60265,0.862949,-0.0809851,-0.000461863,0,
6,1.57854,0.858253,-0.0807942,-0.000472976,0,
6,1.55515,0.853649,-0.0806072,-0.000483291,0,
6,1.53242,0.849129,-0.0804238,-0.000492854,0,
6,1.5103,0.844687,-0.0802438,-0.000501708,0,
6,1.48874,0.840315,-0.080067,-0.000509885,0,
6,1.46769,0.836007,-0.0798931,-0.000517413,0,
6,1.44712,0.831757,-0.079722,-0.000524312,0,
6,1.42698,0.827557,-0.0795535,-0.0005306,0,
6,1.40725,0.823402,-0.0793873,-0.000536285,0,
6,1.38788,0.819285,-0.0792235,-0.000541374,0,
6,1.36886,0.815201,-0.0790617,-0.000545876,0,
6,1.35015,0.811143,-0.0789019,-0.000549799,0,
6,1.33173,0.807105,-0.078744,-0.00055316,0,
6,1.31357,0.803081,-0.0785879,-0.00055599,0,
6,1.29566,0.799063,-0.0784333,-0.000558346,0,
6,1.27797,0.795044,-0.0782805,-0.000560314,0,
6,1.26048,0.791016,-0.0781291,-0.000562031,0,
6,1.24318,0.786967,-0.0779792,-0.000563701,0,
6,1.22605,0.782885,-0.0778306,-0.000565617,0,
6,1.20907,0.778754,-0.0776835,-0.000568193,0,
6,1.19223,0.774553,-0.0775376,-0.000571999,0,
6,1.17551,0.770256,-0.0773931,-0.000577813,0,
6,1.1589,0.765828,-0.0772498,-0.000586677,0,
6,1.14238,0.761225,-0.077108,-0.000599955,0,
6,1.12595,0.756387,-0.0769674,-0.000619413,0,
6,1.10959,0.75124,-0.0768283,-0.000647339,0,
6,1.09329,0.745688,-0.0766907,-0.000686438,0,
6,1.07704,0.739613,-0.0765548,-0.000739957,0,
6,1.06081,0.732874,-0.0764209,-0.000811469,0,
6,1.04459,0.725312,-0.0762895,-0.000904639,0,
6,1.02836,0.716769,-0.0761616,-0.00102278,0,
6,1.01211,0.707106,-0.0760384,-0.00116817,0,
6,0.99583,0.696223,-0.0759216,-0.00134157,0,
6,0.97951,0.684069,-0.0758131,-0.00154196,0,
6,0.963136,0.670651,-0.0757148,-0.00176653,0,
6,0.946694,0.656027,-0.075629,-0.00201108,0,
6,0.930172,0.640288,-0.0755568,-0.00227065,0,
6,0.913555,0.623549,-0.0754998,-0.00254013,0,
6,0.896829,0.605928,-0.0754585,-0.00281482,0,
6,0.879979,0.587536,-0.0754331,-0.00309064,0,
6,0.862989,0.568474,-0.0754226,-0.00336429,0,
6,0.845842,0.548826,-0.0754261,-0.00363268,0,
6,0.828521,0.528667,-0.0754427,-0.00389265,0,
6,0.811008,0.50807,-0.0754713,-0.00414056,0,
6,0.793282,0.487119,-0.0755164,-0.00437253,0,
6,0.775322,0.465922,-0.0755798,-0.00458437,0,
6,0.757107,0.444617,-0.0756847,-0.00477829,0,
6,0.738612,0.423332,-0.0758226,-0.00497589,0,
6,0.719813,0.401988,-0.0758072,-0.00506618,0,
6,0.700681,0.380357,-0.0756729,-0.0051236,0,
6,0.681188,0.358288,-0.0755806,-0.00519458,0,
6,0.661304,0.335739,-0.0755092,-0.00527677,0,
6,0.640996,0.31272,-0.075466,-0.00536699,0,
6,0.620228,0.289276,-0.0754542,-0.00546273,0,
6,0.598964,0.265508,-0.075477,-0.00556085,0,
6,0.577166,0.241583,-0.0755388,-0.00565761,0,
6,0.554791,0.217726,-0.0756427,-0.00574856,0,
6,0.531799,0.194199,-0.075789,-0.00582866,0,
6,0.508144,0.171253,-0.0759744,-0.00589277,0,
6,0.48378,0.149075,-0.076194,-0.00593692,0,
6,0.459585,0.128462,-0.0764286,-0.00595681,0,
6,0.436695,0.110187,-0.0766526,-0.00595074,0,
6,0.414961,0.0939167,-0.076864,-0.00592039,0,
6,0.394252,0.0792929,-0.0770394,-0.00586641,0,
6,0.374445,0.0659848,-0.077172,-0.00578817,0,
6,0.355433,0.0537487,-0.0772694,-0.00568458,0,
6,0.337122,0.0424926,-0.0773675,-0.00555695,0,
6,0.319433,0.0323176,-0.077533,-0.00541217,0,
6,0.3023,0.0234536,-0.0778399,-0.00526409,0,
6,0.28567,0.0160475,-0.0783356,-0.00512891,0,
6,0.269507,0.00992042,-0.0787641,-0.00499919,0,
6,0.253785,0.00452633,-0.0788302,-0.00462819,0,
6,0.238493,-0.000489719,-0.078755,-0.00438428,0,
6,0.223631,-0.00517648,-0.0786523,-0.0041386,0,
6,0.209207,-0.00957025,-0.0784895,-0.00389107,0,
6,0.195237,-0.0137011,-0.0782702,-0.00364348,0,
6,0.181744,-0.0175928,-0.0780176,-0.00339754,0,
6,0.168754,-0.0212652,-0.0777212,-0.00315497,0,
6,0.156292,-0.0247338,-0.0774036,-0.00291719,0,
6,0.144384,-0.0280114,-0.0770651,-0.00268572,0,
6,0.133052,-0.0311081,-0.0767212,-0.00246215,0,
6,0.122315,-0.034033,-0.0763742,-0.00224769,0,
6,0.112183,-0.0367931,-0.0760339,-0.00204317,0,
6,0.102665,-0.0393947,-0.0757052,-0.00184932,0,
6,0.0937597,-0.0418429,-0.0753928,-0.00166672,0,
6,0.0854609,-0.0441427,-0.0751004,-0.00149566,0,
6,0.077757,-0.0462983,-0.0748288,-0.00133611,0,
6,0.0706309,-0.0483138,-0.074581,-0.00118798,0,
6,0.0640611,-0.050193,-0.0743553,-0.00105101,0,
6,0.0580229,-0.0519394,-0.0741532,-0.000924818,0,
6,0.0524888,-0.0535567,-0.0739719,-0.000808917,0,
6,0.0474296,-0.0550482,-0.0738119,-0.000702771,0,
6,0.042815,-0.0564171,-0.0736699,-0.000605787,0,
6,0.0386145,-0.0576661,-0.0735462,-0.000517373,0,
6,0.0347975,-0.058798,-0.0734374,-0.000436932,0,
6,0.0313344,-0.0598147,-0.0733436,-0.000363871,0,
6,0.0281964,-0.0607176,-0.0732616,-0.000297601,0,
6,0.0253561,-0.0615069,-0.0731914,-0.000237586,0,
6,0.0227875,-0.0621819,-0.0731308,-0.000183335,0,
6,0.0204662,-0.0627399,-0.0730791,-0.000134394,0,
6,0.0183694,-0.063176,-0.0730351,-9.03543e-05,0,
6,0.016476,-0.0634822,-0.0729975,-5.08926e-05,0,
6,0.0147664,-0.063646,-0.0729666,-1.5788e-05,0,
6,0.0132228,-0.0636486,-0.0729398,1.5064e-05,0,
6,0.0118288,-0.0634627,-0.0729191,4.1597e-05,0,
6,0.0105693,-0.0630482,-0.0729005,6.34676e-05,0,
6,0.00943073,-0.0623478,-0.0728879,7.99637e-05,0,
6,0.00840063,-0.061282,-0.0728755,8.99324e-05,0,
6,0.00746774,-0.0597474,-0.0728694,9.1949e-05,0,
6,0.00662185,-0.0576274,-0.0728615,8.50269e-05,0,
6,0.00585371,-0.0548293,-0.0728601,7.00937e-05,0,
6,0.00515491,-0.0513423,-0.072855,5.08965e-05,0,
6,0.00451788,-0.0472771,-0.0728565,3.25224e-05,0,
6,0.00393573,-0.0428315,-0.0728524,1.84759e-05,0,
6,0.00340221,-0.0382097,-0.0728553,9.45629e-06,0,
6,0.00291168,-0.0335646,-0.0728511,4.39268e-06,0,
6,0.00245897,-0.0289864,-0.072855,1.84404e-06,0,
6,0.00203939,-0.0245194,-0.07285,6.86382e-07,0,
6,0.00164864,-0.0201776,-0.072855,2.17916e-07,0,
6,0.00128281,-0.0159585,-0.072849,5.50033e-08,0,
6,0.000938257,-0.01185,-0.0728552,9.67634e-09,0,
6,0.000611645,-0.00783527,-0.0728478,9.04183e-10,0,
6,0.000299862,-0.003893,-0.0728556,2.3652e-11,0,

10,0.000296632,0.00624347,0.0122232,-3.59228e-11,0,
10,0.000596102,0.0125528,0.0122174,-1.33314e-09,0,
10,0.000900397,0.0189696,0.0122225,-1.35731e-08,0,
10,0.00121153,0.0255381,0.0122176,-7.30541e-08,0,
10,0.00153158,0.0323005,0.0122217,-2.73816e-07,0,
10,0.00186264,0.0393011,0.0122177,-8.16609e-07,0,
10,0.00220692,0.0465798,0.0122209,-2.0823e-06,0,
10,0.00256668,0.0541727,0.0122178,-4.73333e-06,0,
10,0.00294431,0.0621019,0.01222,-9.83182e-06,0,
10,0.00334229,0.0703694,0.0122177,-1.89258e-05,0,
10,0.00376326,0.0789409,0.012219,-3.39949e-05,0,
10,0.00421,0.0877361,0.0122174,-5.70945e-05,0,
10,0.00468544,0.096617,0.012218,-8.96352e-05,0,
10,0.00519274,0.105404,0.0122167,-0.000131515,0,
10,0.00573524,0.113898,0.0122166,-0.000180705,0,
10,0.00631651,0.121924,0.0122152,-0.000233705,0,
10,0.00694041,0.129361,0.0122142,-0.00028677,0,
10,0.00761104,0.136153,0.0122125,-0.000336989,0,
10,0.00833284,0.142302,0.0122105,-0.00038272,0,
10,0.00911058,0.147851,0.012208,-0.000423477,0,
10,0.0099494,0.152859,0.0122046,-0.000459568,0,
10,0.0108548,0.157396,0.0122011,-0.000491797,0,
10,0.0118329,0.161531,0.0121961,-0.000521052,0,
10,0.0128901,0.165326,0.0121911,-0.00054818,0,
10,0.0140333,0.168835,0.0121842,-0.000573938,0,
10,0.0152702,0.172104,0.0121772,-0.000599039,0,
10,0.0166089,0.175174,0.012168,-0.000624046,0,
10,0.0180584,0.178079,0.0121583,-0.000649469,0,
10,0.0196282,0.180848,0.0121466,-0.000675689,0,
10,0.0213288,0.183503,0.0121336,-0.000703089,0,
10,0.0231714,0.186067,0.0121187,-0.000731991,0,
10,0.0251682,0.188557,0.0121017,-0.000762764,0,
10,0.0273326,0.190989,0.0120828,-0.000795696,0,
10,0.0296789,0.193378,0.012061,-0.000831043,0,
10,0.0322227,0.195734,0.0120375,-0.000869078,0,
10,0.0349809,0.19807,0.0120098,-0.000910212,0,
10,0.0379719,0.200396,0.0119803,-0.000954761,0,
10,0.0412155,0.202722,0.0119458,-0.00100296,0,
10,0.0447333,0.205057,0.011909,-0.00105516,0,
10,0.0485489,0.207409,0.0118657,-0.00111189,0,
10,0.0526875,0.209789,0.0118198,-0.00117354,0,
10,0.0571768,0.212204,0.0117662,-0.00124042,0,
10,0.0620466,0.214663,0.0117086,-0.00131299,0,
10,0.0673295,0.217175,0.0116418,-0.00139194,0,
10,0.0730607,0.219751,0.0115699,-0.00147781,0,
10,0.0792784,0.222399,0.0114871,-0.00157104,0,
10,0.0860241,0.225131,0.0113971,-0.0016723,0,
10,0.0933428,0.227957,0.0112947,-0.0017824,0,
10,0.101283,0.23089,0.0111824,-0.00190213,0,
10,0.109899,0.233944,0.0110565,-0.00203212,0,
10,0.119247,0.237133,0.0109176,-0.0021733,0,
10,0.12939,0.240474,0.0107634,-0.0023267,0,
10,0.140395,0.243986,0.0105919,-0.00249338,0,
10,0.152337,0.247691,0.0104079,-0.00267413,0,
10,0.165296,0.251611,0.0102017,-0.00286992,0,
10,0.179357,0.255775,0.00998286,-0.00308178,0,
10,0.194615,0.260214,0.00973909,-0.00331071,0,
10,0.211171,0.264965,0.00948502,-0.00355771,0,
10,0.229138,0.270073,0.00920571,-0.00382353,0,
10,0.248635,0.275591,0.00892267,-0.0041085,0,
10,0.269793,0.281586,0.00862214,-0.00441262,0,
10,0.292753,0.28814,0.00833412,-0.00473537,0,
10,0.317669,0.295356,0.00804776,-0.00507402,0,
10,0.344708,0.303366,0.00779912,-0.0054226,0,
10,0.372405,0.311835,0.00759376,-0.00586384,0,
10,0.399623,0.320799,0.00777088,-0.00616326,0,
10,0.426397,0.330983,0.00829859,-0.00626061,0,
10,0.452757,0.342878,0.00872896,-0.00636666,0,
10,0.478735,0.356327,0.00897737,-0.0064717,0,
10,0.504358,0.370836,0.0090898,-0.00655633,0,
10,0.529657,0.385951,0.00912847,-0.00660772,0,
10,0.554656,0.401427,0.0091344,-0.00662117,0,
10,0.579382,0.417199,0.00912807,-0.00659694,0,
10,0.603859,0.433285,0.00911018,-0.00653652,0,
10,0.628112,0.449712,0.00908009,-0.00644105,0,
10,0.652163,0.466485,0.00903133,-0.00631098,0,
10,0.676035,0.483577,0.00896556,-0.00614643,0,
10,0.699751,0.500949,0.00888064,-0.00594758,0,
10,0.72333,0.51856,0.00878126,-0.00571505,0,
10,0.746795,0.536371,0.00866562,-0.00545008,0,
10,0.770165,0.554338,0.00853673,-0.00515486,0,
10,0.79346,0.572396,0.00839057,-0.00483271,0,
10,0.816699,0.590439,0.00822954,-0.00448844,0,
10,0.839903,0.60828,0.00804566,-0.00413804,0,
10,0.863088,0.625674,0.0078405,-0.00379359,0,
10,0.886275,0.642422,0.00762371,-0.00345415,0,
10,0.909481,0.658424,0.00739929,-0.00312246,0,
10,0.932723,0.673631,0.00716611,-0.00280381,0,
10,0.956021,0.688001,0.00692353,-0.00250339,0,
10,0.97939,0.701481,0.00667031,-0.00222514,0,
10,1.00285,0.714031,0.00640813,-0.00197163,0,
10,1.02641,0.725635,0.00613725,-0.00174416,0,
10,1.0501,0.736308,0.00585957,-0.00154309,0,
10,1.07392,0.746091,0.00557501,-0.00136811,0,
10,1.0979,0.75504,0.00528507,-0.00121833,0,
10,1.12205,0.763228,0.00498951,-0.00109229,0,
10,1.14639,0.770738,0.00468994,-0.000987882,0,
10,1.17093,0.777665,0.00438583,-0.000902439,0,
10,1.19568,0.784111,0.00407877,-0.000832987,0,
10,1.22066,0.790173,0.00376794,-0.000776562,0,
10,1.24589,0.795943,0.00345422,-0.000730455,0,
10,1.27137,0.801501,0.00313667,-0.00069234,0,
10,1.29713,0.80691,0.00281596,-0.000660294,0,
10,1.32317,0.812221,0.00249125,-0.000632773,0,
10,1.34951,0.817467,0.00216295,-0.000608553,0,
10,1.37616,0.822673,0.00183045,-0.000586722,0,
10,1.40313,0.827849,0.00149386,-0.00056676,0,
10,1.43043,0.833004,0.00115287,-0.000548212,0,
10,1.45807,0.838141,0.000807516,-0.000530524,0,
10,1.48607,0.843264,0.000457657,-0.000513331,0,
10,1.51444,0.848376,0.000103049,-0.000496371,0,
10,1.54318,0.853475,-0.000256061,-0.000479494,0,
10,1.57231,0.858556,-0.000620352,-0.0004626,0,
10,1.60184,0.86361,-0.000989412,-0.000445693,0,
10,1.63178,0.868627,-0.00136405,-0.000428799,0,
10,1.66213,0.873596,-0.00174366,-0.000411868,0,
10,1.69292,0.878507,-0.00212915,-0.000394856,0,
10,1.72416,0.883348,-0.00251957,-0.000377781,0,
10,1.75585,0.888106,-0.00291629,-0.000360687,0,
10,1.78802,0.892764,-0.00331785,-0.000343663,0,
10,1.82067,0.897307,-0.00372644,-0.000326717,0,
10,1.85383,0.901723,-0.00413896,-0.000309926,0,
10,1.88751,0.906018,-0.00455761,-0.00028532,0,
10,1.92173,0.910183,-0.00498202,-0.0002589,0,
10,1.95652,0.914186,-0.00541295,-0.000232195,0,
10,1.9919,0.917997,-0.00585008,-0.000206036,0,
10,2.02791,0.921595,-0.00629483,-0.000181053,0,
10,2.06456,0.924967,-0.00674509,-0.000157395,0,
10,2.10268,0.92816,-0.00721437,-0.00013446,0,
10,2.1443,0.931274,-0.00772281,-0.000112526,0,
10,2.18977,0.934259,-0.00827709,-9.15901e-05,0,
10,2.23946,0.93703,-0.00887805,-7.1703e-05,0,
10,2.29376,0.9395,-0.00953116,-5.3495e-05,0,
10,2.35309,0.941587,-0.0102377,-3.74307e-05,0,
10,2.4179,0.943211,-0.0110018,-2.39534e-05,0,
10,2.48863,0.944317,-0.0118244,-1.34259e-05,0,
10,2.56575,0.944886,-0.0127082,-6.0101e-06,0,
10,2.64971,0.944952,-0.0136528,-1.56385e-06,0,
10,2.74098,0.944615,-0.0146589,4.06458e-07,0,
10,2.83997,0.944039,-0.0157246,6.9436e-07,0,
10,2.94709,0.943431,-0.0168486,2.17155e-07,0,
10,3.06269,0.942998,-0.0180269,-2.70362e-07,0,
10,3.18706,0.942895,-0.0192563,-4.26701e-07,0,
10,3.3204,0.943173,-0.0205305,-3.21854e-07,0,
10,3.46281,0.943772,-0.021844,-1.6561e-07,0,
10,3.61427,0.94455,-0.0231876,-7.06618e-08,0,
10,3.77463,0.945356,-0.0245522,-3.38901e-08,0,
10,3.94358,0.946084,-0.025926,-2.25629e-08,0,
10,4.12067,0.946703,-0.0272976,-1.85469e-08,0,
10,4.30525,0.947238,-0.028654,-1.663e-08,0,
10,4.49655,0.947737,-0.0299839,-1.57745e-08,0,
10,4.6936,0.948233,-0.0312753,-1.57691e-08,0,
10,4.89531,0.948736,-0.0325184,-1.68283e-08,0,
10,5.10047,0.949236,-0.0337036,-1.99779e-08,0,
10,5.30776,0.949712,-0.034824,-2.77206e-08,0,
10,5.51581,0.950147,-0.0358735,-4.50569e-08,0,
10,5.72323,0.950535,-0.0368484,-8.29547e-08,0,
10,5.92863,0.950895,-0.0377463,-1.69989e-07,0,
10,6.13069,0.951288,-0.0385666,-3.90097e-07,0,
10,6.32816,0.951811,-0.0393106,-9.41493e-07,0,
10,6.51991,0.952511,-0.0399798,-1.95247e-06,0,
10,6.70495,0.953193,-0.0405789,-2.12911e-06,0,
10,6.88244,0.953189,-0.0411101,4.26185e-06,0,
10,7.0517,0.951319,-0.04158,2.8997e-05,0,
10,7.21224,0.946241,-0.0419875,8.60723e-05,0,
10,7.3637,0.937053,-0.0423412,0.000186161,0,
10,7.5059,0.923569,-0.0426491,0.000303258,0,
10,7.63878,0.906188,-0.0429045,0.000425395,0,
10,7.76243,0.886151,-0.0431209,0.000559788,0,
10,7.87701,0.865321,-0.0432924,0.000695177,0,
10,7.9828,0.845233,-0.0434347,0.000817213,0,
10,8.08014,0.826627,-0.0435464,0.000918082,0,
10,8.16941,0.809566,-0.0436402,0.000999558,0,
10,8.25106,0.793784,-0.0437174,0.00106604,0,
10,8.32554,0.778945,-0.0437846,0.00112159,0,
10,8.39331,0.764756,-0.0438424,0.0011689,0,
10,8.45484,0.75101,-0.0438936,0.0012096,0,
10,8.5106,0.737576,-0.0439383,0.00124457,0,
10,8.56104,0.724388,-0.0439777,0.0012743,0,
10,8.60659,0.711406,-0.0440123,0.0012985,0,
10,8.64767,0.698604,-0.0440428,0.00131648,0,
10,8.68467,0.685963,-0.0440696,0.00132978,0,
10,8.71795,0.673476,-0.044093,0.00133846,0,
10,8.74786,0.661138,-0.0441136,0.00134295,0,
10,8.77471,0.648944,-0.0441316,0.00134369,0,
10,8.79881,0.636889,-0.0441473,0.00134111,0,
10,8.8204,0.624966,-0.044161,0.00133563,0,
10,8.83975,0.613166,-0.044173,0.00132766,0,
10,8.85708,0.601478,-0.0441834,0.00131759,0,
10,8.87259,0.589886,-0.0441925,0.00130578,0,
10,8.88646,0.578373,-0.0442003,0.00129258,0,
10,8.89886,0.566918,-0.044207,0.00127825,0,
10,8.90995,0.555497,-0.0442128,0.00126306,0,
10,8.91986,0.544085,-0.0442177,0.00124718,0,
10,8.92872,0.53265,-0.044222,0.00123076,0,
10,8.93663,0.521161,-0.0442256,0.00121387,0,
10,8.94369,0.509582,-0.0442286,0.00119655,0,
10,8.95,0.497872,-0.0442312,0.00117875,0,
10,8.95564,0.485989,-0.0442334,0.00116039,0,
10,8.96067,0.473884,-0.0442352,0.00114131,0,
10,8.96517,0.461504,-0.0442368,0.00112129,0,
10,8.96918,0.448788,-0.0442381,0.00109999,0,
10,8.97276,0.435667,-0.0442392,0.001077,0,
10,8.97596,0.422062,-0.0442401,0.00105175,0,
10,8.97882,0.407882,-0.0442408,0.00102353,0,
10,8.98137,0.393017,-0.0442414,0.000991392,0,
10,8.98365,0.377339,-0.044242,0.000954127,0,
10,8.98569,0.360699,-0.0442423,0.000910217,0,
10,8.9875,0.342914,-0.0442427,0.000858051,0,
10,8.98913,0.323746,-0.044243,0.000791358,0,
10,8.99058,0.302947,-0.0442432,0.000712413,0,
10,8.99188,0.280348,-0.0442434,0.000619364,0,
10,8.99304,0.255771,-0.0442436,0.000503904,0,
10,8.99408,0.22914,-0.0442436,0.000373404,0,
10,8.99501,0.200779,-0.0442438,0.000241032,0,
10,8.99583,0.171566,-0.0442437,0.000129567,0,
10,8.99658,0.142796,-0.0442439,5.63047e-05,0,
10,8.99724,0.115666,-0.0442438,1.95843e-05,0,
10,8.99784,0.0908386,-0.044244,5.40183e-06,0,
10,8.99837,0.0684602,-0.0442438,1.13469e-06,0,
10,8.99885,0.0484042,-0.044244,1.62622e-07,0,
10,8.99927,0.0304551,-0.0442438,1.23465e-08,0,
10,8.99966,0.0143909,-0.0442441,2.73146e-10,0,
10,0,0,0.0122174,0,0,
10,9,0,-0.0442437,0,0,

0.004,0,0,-0.209985,0,-1.09404e-07,
0.00868226,0,0,-0.209987,0,-2.47894e-07,
0.014062,0,0,-0.209985,0,-5.32874e-07,
0.0201548,0,0,-0.209987,0,-8.33459e-07,
0.0269766,0,0,-0.209982,0,-8.22907e-07,
0.0345437,0,0,-0.209982,0,-1.77575e-07,
0.0428729,0,0,-0.209977,0,1.34049e-06,
0.051981,0,0,-0.209976,0,4.01631e-06,
0.0618853,0,0,-0.209972,0,7.88641e-06,
0.0726036,0,0,-0.209975,0,1.28946e-05,
0.0841536,0,0,-0.209979,0,1.86433e-05,
0.0965535,0,0,-0.209992,0,2.47049e-05,
0.109822,0,0,-0.210009,0,3.05776e-05,
0.123977,0,0,-0.210033,0,3.59829e-05,
0.139037,0,0,-0.210061,0,4.07805e-05,
0.155022,0,0,-0.210095,0,4.50422e-05,
0.171949,0,0,-0.210134,0,4.88754e-05,
0.189839,0,0,-0.210178,0,5.24037e-05,
0.208709,0,0,-0.210229,0,5.56395e-05,
0.228579,0,0,-0.210288,0,5.8501e-05,
0.249467,0,0,-0.210356,0,6.07869e-05,
0.271391,0,0,-0.210434,0,6.22683e-05,
0.29437,0,0,-0.210522,0,6.27049e-05,
0.31842,0,0,-0.21062,0,6.19118e-05,
0.343559,0,0,-0.210729,0,5.97473e-05,
0.369804,0,0,-0.210847,0,5.6178e-05,
0.39717,0,0,-0.210975,0,5.12279e-05,
0.425672,0,0,-0.211111,0,4.50121e-05,
0.455324,0,0,-0.211253,0,3.76571e-05,
0.48614,0,0,-0.211402,0,2.93705e-05,
0.518132,0,0,-0.211557,0,2.03399e-05,
0.551309,0,0,-0.211716,0,1.07689e-05,
0.585683,0,0,-0.211878,0,7.75935e-07,
0.621259,0,0,-0.212044,0,-9.49425e-06,
0.658046,0,0,-0.212214,0,-1.99714e-05,
0.696047,0,0,-0.212387,0,-3.06093e-05,
0.735265,0,0,-0.212564,0,-4.14603e-05,
0.7757,0,0,-0.212746,0,-5.25583e-05,
0.817352,0,0,-0.212934,0,-6.40231e-05,
0.860215,0,0,-0.213125,0,-7.59604e-05,
0.904285,0,0,-0.213322,0,-8.85317e-05,
0.949552,0,0,-0.213525,0,-0.000101913,
0.996004,0,0,-0.213734,0,-0.000116334,
1.04363,0,0,-0.213945,0,-0.000131879,
1.09241,0,0,-0.214161,0,-0.000148842,
1.14232,0,0,-0.214377,0,-0.000167441,
1.19335,0,0,-0.214594,0,-0.000188036,
1.24546,0,0,-0.214803,0,-0.00021041,
1.29863,0,0,-0.215003,0,-0.000234931,
1.35283,0,0,-0.215186,0,-0.000261501,
1.40802,0,0,-0.215346,0,-0.000290029,
1.46416,0,0,-0.215481,0,-0.000319041,
1.52121,0,0,-0.215599,0,-0.000347093,
1.57913,0,0,-0.215727,0,-0.000372394,
1.63787,0,0,-0.215906,0,-0.000394255,
1.69739,0,0,-0.21612,0,-0.00041391,
1.75761,0,0,-0.216318,0,-0.000428533,
1.81851,0,0,-0.216565,0,-0.000435184,
1.88,0,0,-0.216956,0,-0.000432732,
1.94204,0,0,-0.21743,0,-0.000424979,
2.00457,0,0,-0.218,0,-0.000410478,
2.06751,0,0,-0.218728,0,-0.00038966,
2.13081,0,0,-0.219749,0,-0.000366633,
2.19439,0,0,-0.221064,0,-0.000350738,
2.25819,0,0,-0.222604,0,-0.000349052,
2.32214,0,0,-0.224258,0,-0.000364412,
2.38617,0,0,-0.225943,0,-0.000396846,
2.4502,0,0,-0.227581,0,-0.00044116,
2.51418,0,0,-0.229112,0,-0.000497458,
2.57803,0,0,-0.230482,0,-0.00056276,
2.64167,0,0,-0.231657,0,-0.000635466,
2.70505,0,0,-0.232611,0,-0.000709853,
2.76808,0,0,-0.233324,0,-0.000784557,
2.83072,0,0,-0.233781,0,-0.000857819,
2.89288,0,0,-0.23398,0,-0.000928374,
2.95451,0,0,-0.23393,0,-0.000994858,
3.01555,0,0,-0.233646,0,-0.00105532,
3.07594,0,0,-0.233138,0,-0.00111012,
3.13561,0,0,-0.232425,0,-0.00116066,
3.19453,0,0,-0.231529,0,-0.00120552,
3.25262,0,0,-0.230468,0,-0.00124504,
3.30985,0,0,-0.229261,0,-0.001279,
3.36617,0,0,-0.227921,0,-0.00130973,
3.42154,0,0,-0.226466,0,-0.00133682,
3.47591,0,0,-0.224906,0,-0.00136045,
3.52925,0,0,-0.223258,0,-0.00138063,
3.58152,0,0,-0.221533,0,-0.00139858,
3.6327,0,0,-0.219739,0,-0.00141445,
3.68276,0,0,-0.217883,0,-0.00142831,
3.73167,0,0,-0.21598,0,-0.00144028,
3.77941,0,0,-0.214038,0,-0.00145065,
3.82596,0,0,-0.212062,0,-0.00145971,
3.8713,0,0,-0.210058,0,-0.00146744,
3.91543,0,0,-0.208038,0,-0.00147401,
3.95833,0,0,-0.20602,0,-0.00147944,
4,0,0,-0.203983,0,-0.00148396,
4.04167,0,0,-0.201889,0,-0.00148744,
4.08333,0,0,-0.199742,0,-0.00149029,
4.125,0,0,-0.197538,0,-0.00149208,
4.16667,0,0,-0.195275,0,-0.00149306,
4.20833,0,0,-0.192956,0,-0.00149319,
4.25,0,0,-0.190588,0,-0.00149272,
4.29167,0,0,-0.188169,0,-0.00149105,
4.33333,0,0,-0.185701,0,-0.00148851,
4.375,0,0,-0.183185,0,-0.00148509,
4.41667,0,0,-0.180627,0,-0.00148105,
4.45833,0,0,-0.178024,0,-0.00147578,
4.5,0,0,-0.175387,0,-0.00146962,
4.54167,0,0,-0.172716,0,-0.00146258,
4.58333,0,0,-0.170009,0,-0.00145484,
4.625,0,0,-0.16727,0,-0.00144601,
4.66667,0,0,-0.164511,0,-0.00143637,
4.70833,0,0,-0.161731,0,-0.00142587,
4.75,0,0,-0.158928,0,-0.00141465,
4.79167,0,0,-0.156106,0,-0.00140258,
4.83333,0,0,-0.153272,0,-0.00138984,
4.875,0,0,-0.150429,0,-0.00137636,
4.91667,0,0,-0.147572,0,-0.00136214,
4.95833,0,0,-0.144707,0,-0.00134728,
5,0,0,-0.141836,0,-0.00133179,
5.04167,0,0,-0.138959,0,-0.00131562,
5.08333,0,0,-0.136076,0,-0.00129875,
5.125,0,0,-0.133184,0,-0.00128119,
5.16667,0,0,-0.13029,0,-0.00126289,
5.20833,0,0,-0.12739,0,-0.00124384,
5.25,0,0,-0.124488,0,-0.00122412,
5.29167,0,0,-0.121576,0,-0.00120358,
5.33333,0,0,-0.118665,0,-0.0011823,
5.375,0,0,-0.115753,0,-0.00116031,
5.41667,0,0,-0.112843,0,-0.0011378,
5.45833,0,0,-0.109927,0,-0.00111454,
5.5,0,0,-0.10702,0,-0.00109072,
5.54167,0,0,-0.104118,0,-0.00106634,
5.58333,0,0,-0.101222,0,-0.00104161,
5.625,0,0,-0.0983284,0,-0.00101625,
5.66667,0,0,-0.0954492,0,-0.000990497,
5.70833,0,0,-0.0925778,0,-0.000964302,
5.75,0,0,-0.0897167,0,-0.000937785,
5.79167,0,0,-0.086865,0,-0.000910696,
5.83333,0,0,-0.0840336,0,-0.00088329,
5.875,0,0,-0.0812101,0,-0.000855465,
5.91667,0,0,-0.0783964,0,-0.000827284,
5.95833,0,0,-0.0756084,0,-0.000798524,
6,0,0,-0.0728469,0,-0.00076948,
6.04167,0,0,-0.0700922,0,-0.000740014,
6.08333,0,0,-0.0673516,0,-0.000710184,
6.125,0,0,-0.0646571,0,-0.000679844,
6.16667,0,0,-0.0619931,0,-0.000649237,
6.20833,0,0,-0.0593386,0,-0.000618215,
6.25,0,0,-0.0567059,0,-0.000586905,
6.29167,0,0,-0.0541402,0,-0.000555205,
6.33333,0,0,-0.0516,0,-0.000523212,
6.375,0,0,-0.0490822,0,-0.000490909,
6.41667,0,0,-0.0466002,0,-0.000458523,
6.45833,0,0,-0.0441999,0,-0.000425925,
6.5,0,0,-0.0418155,0,-0.000392942,
6.54167,0,0,-0.0394714,0,-0.000359816,
6.58333,0,0,-0.0371788,0,-0.000326809,
6.625,0,0,-0.0349794,0,-0.000293693,
6.66667,0,0,-0.0327867,0,-0.000260156,
6.70833,0,0,-0.0306535,0,-0.00022681,
6.75,0,0,-0.0285869,0,-0.000193765,
6.79167,0,0,-0.0266134,0,-0.000160655,
6.83333,0,0,-0.0246412,0,-0.000127075,
6.875,0,0,-0.0227477,0,-9.40709e-05,
6.91667,0,0,-0.020927,0,-6.15531e-05,
6.95833,0,0,-0.0191995,0,-2.8996e-05,
7,0,0,-0.0174683,0,4.04189e-06,
7.04167,0,0,-0.0158333,0,3.60107e-05,
7.08333,0,0,-0.0142677,0,6.73851e-05,
7.125,0,0,-0.0127896,0,9.88361e-05,
7.16667,0,0,-0.0113127,0,0.000130785,
7.20833,0,0,-0.00994358,0,0.000161204,
7.25,0,0,-0.00863158,0,0.00019099,
7.29167,0,0,-0.00739676,0,0.000220879,
7.33333,0,0,-0.00617282,0,0.000251268,
7.375,0,0,-0.00506374,0,0.000279749,
7.41667,0,0,-0.00399392,0,0.000307622,
7.45833,0,0,-0.00298837,0,0.000335606,
7.5,0,0,-0.00200675,0,0.000364043,
7.54167,0,0,-0.00114057,0,0.000390312,
7.58333,0,0,-0.000290542,0,0.000416066,
7.625,0,0,0.000506883,0,0.000441891,
7.66667,0,0,0.00126302,0,0.000468111,
7.70833,0,0,0.00191212,0,0.000492088,
7.75,0,0,0.00256769,0,0.000515685,
7.79167,0,0,0.00318255,0,0.00053926,
7.83333,0,0,0.00374173,0,0.000563133,
7.875,0,0,0.00420723,0,0.000584914,
7.91667,0,0,0.00470289,0,0.000606775,
7.95833,0,0,0.00512562,0,0.000627889,
8,0,0,0.0055497,0,0.000649281,
8.04171,0,0,0.00593381,0,0.000669949,
8.08368,0,0,0.00626199,0,0.000690723,
8.12617,0,0,0.00659446,0,0.000710261,
8.16946,0,0,0.00686772,0,0.000730171,
8.21382,0,0,0.00710902,0,0.000748984,
8.25952,0,0,0.00737792,0,0.000768294,
8.30685,0,0,0.00761504,0,0.000787495,
8.35611,0,0,0.00779556,0,0.000806884,
8.40762,0,0,0.00797747,0,0.000825868,
8.46168,0,0,0.00818474,0,0.00084569,
8.51865,0,0,0.00836265,0,0.000865374,
8.57889,0,0,0.00846971,0,0.000885162,
8.64276,0,0,0.00863309,0,0.000905199,
8.71067,0,0,0.0087985,0,0.000926105,
8.78306,0,0,0.00894319,0,0.00094717,
8.86037,0,0,0.00902228,0,0.000968598,
8.94309,0,0,0.00922943,0,0.000989978,
9.03174,0,0,0.00940246,0,0.00100825,
9.12689,0,0,0.0096088,0,0.00103227,
9.22912,0,0,0.00989349,0,0.00105771,
9.33908,0,0,0.0101315,0,0.00108248,
9.45746,0,0,0.0105187,0,0.00111236,
9.58501,0,0,0.0109049,0,0.00114525,
9.72253,0,0,0.0114046,0,0.00118139,
9.87088,0,0,0.0118016,0,0.00121243,
10.031,0,0,0.0123173,0,0.00125584,
10.2039,0,0,0.0127384,0,0.00130522,
10.3906,0,0,0.0130813,0,0.00135978,
10.5924,0,0,0.01316,0,0.00140917,
10.8105,0,0,0.0128944,0,0.00146793,
11.0463,0,0,0.0123442,0,0.00153086,
11.3012,0,0,0.0122302,0,0.00160177,
11.5769,0,0,0.0115523,0,0.00166759,
11.8751,0,0,0.0106986,0,0.00173417,
12.1977,0,0,0.0109337,0,0.00180499,
12.5466,0,0,0.0126137,0,0.00188746,
12.9242,0,0,0.0144104,0,0.00197976,
13.3327,0,0,0.0168555,0,0.00205016,
13.7748,0,0,0.0202125,0,0.00210496,
14.2532,0,0,0.0222728,0,0.00212681,
14.7709,0,0,0.0240362,0,0.00215203,
15.3312,0,0,0.023732,0,0.00215163,
15.9377,0,0,0.0202162,0,0.00213511,
16.594,0,0,0.0150265,0,0.00212403,
17.3044,0,0,0.0098962,0,0.00210043,
18.0733,0,0,0.00737752,0,0.00211941,
18.9056,0,0,0.00817131,0,0.00216384,
19.8064,0,0,0.0105523,0,0.00222035,
20.7816,0,0,0.0118951,0,0.00227731,
21.8371,0,0,0.0122453,0,0.00232629,
22.9796,0,0,0.0132668,0,0.00236617,
24.2163,0,0,0.0151302,0,0.00237048,
25.5551,0,0,0.0155196,0,0.00235275,
27.0042,0,0,0.0114833,0,0.00232026,
28.5729,0,0,0.00589263,0,0.00231411,
30.271,0,0,0.00557649,0,0.00239357,
32.1091,0,0,0.0117041,0,0.00249499,
34.0989,0,0,0.0164774,0,0.00248076,
36.2529,0,0,0.0122988,0,0.00236412,
38.5845,0,0,0.00164467,0,0.00223017,
41.1085,0,0,-0.00473913,0,0.0021704,
43.8407,0,0,-0.0031995,0,0.00222888,
46.7983,0,0,-0.000148613,0,0.00230182,
50,0,0,0.00171706,0,0.00235177,

