feb0b60a3a4bd8f1567994ff57e333597e499e6a 
X,Z,x_velocity,cp,uw_b,cf,
1,0,0,-0.24695,0,0,
1,9,0,-0.122499,0,0,
1,8.99969,0.0158105,-0.122498,3.36925e-10,0,
1,8.99934,0.0337484,-0.122498,1.57492e-08,0,
1,8.99894,0.0541185,-0.122498,2.17231e-07,0,
1,8.99848,0.0772418,-0.122498,1.59161e-06,0,
1,8.99797,0.103431,-0.122498,7.94016e-06,0,
1,8.99739,0.132857,-0.122498,2.99107e-05,0,
1,8.99672,0.165234,-0.122498,8.77931e-05,0,
1,8.99597,0.199442,-0.122498,0.000201364,0,
1,8.99512,0.233614,-0.122498,0.000365921,0,
1,8.99416,0.265927,-0.122498,0.000553548,0,
1,8.99306,0.29566,-0.122498,0.000710945,0,
1,8.99182,0.322956,-0.122497,0.000834986,0,
1,8.99041,0.348044,-0.122497,0.000937609,0,
1,8.98881,0.371134,-0.122496,0.00102145,0,
1,8.98699,0.392477,-0.122496,0.00108981,0,
1,8.98494,0.412383,-0.122495,0.00114223,0,
1,8.98261,0.431146,-0.122494,0.00118373,0,
1,8.97996,0.448973,-0.122493,0.00121893,0,
1,8.97696,0.466012,-0.122492,0.0012485,0,
1,8.97356,0.482389,-0.12249,0.00127359,0,
1,8.9697,0.498208,-0.122489,0.00129507,0,
1,8.96533,0.513558,-0.122487,0.0013136,0,
1,8.96038,0.528515,-0.122485,0.00132965,0,
1,8.95476,0.543141,-0.122482,0.00134358,0,
1,8.9484,0.557492,-0.12248,0.00135562,0,
1,8.9412,0.571614,-0.122477,0.00136593,0,
1,8.93303,0.585547,-0.122473,0.00137461,0,
1,8.92379,0.599326,-0.12247,0.0013817,0,
1,8.91333,0.61298,-0.122466,0.00138719,0,
1,8.90149,0.626534,-0.122462,0.00139106,0,
1,8.8881,0.640011,-0.122458,0.00139325,0,
1,8.87295,0.653428,-0.122454,0.00139368,0,
1,8.85584,0.666803,-0.122451,0.00139224,0,
1,8.83651,0.680151,-0.122448,0.00138883,0,
1,8.81469,0.693484,-0.122446,0.00138332,0,
1,8.79007,0.706816,-0.122445,0.00137559,0,
1,8.76232,0.72016,-0.122447,0.00136545,0,
1,8.73107,0.73353,-0.122451,0.00135274,0,
1,8.69591,0.746941,-0.122459,0.00133722,0,
1,8.6564,0.760411,-0.122473,0.00131861,0,
1,8.61206,0.773959,-0.122493,0.00129656,0,
1,8.56236,0.787607,-0.122522,0.00127067,0,
1,8.50675,0.801382,-0.122562,0.00124087,0,
1,8.44464,0.815316,-0.122618,0.00121037,0,
1,8.3754,0.829516,-0.122693,0.00118226,0,
1,8.29839,0.84432,-0.122791,0.00112767,0,
1,8.21296,0.860192,-0.122927,0.00105571,0,
1,8.11843,0.877519,-0.1231,0.000960303,0,
1,8.01417,0.896509,-0.123327,0.000835684,0,
1,7.89956,0.916975,-0.123604,0.00068097,0,
1,7.77403,0.938078,-0.123965,0.000508639,0,
1,7.63711,0.958319,-0.124395,0.000327277,0,
1,7.48842,0.975583,-0.124913,0.000140337,0,
1,7.32773,0.987394,-0.125547,4.28862e-05,0,
1,7.15495,0.99296,-0.126282,6.84314e-06,0,
1,6.97022,0.994104,-0.127139,3.2554e-07,0,
1,6.77388,0.993583,-0.128127,1.78606e-09,0,
1,6.56652,0.993218,-0.129268,1.01872e-08,0,
1,6.34896,0.993487,-0.130575,1.23538e-08,0,
1,6.12229,0.994169,-0.132066,1.42951e-08,0,
1,5.88784,0.994993,-0.133756,1.54421e-08,0,
1,5.64716,0.995861,-0.135662,1.64617e-08,0,
1,5.40194,0.99679,-0.1378,1.78617e-08,0,
1,5.15407,0.997814,-0.140181,1.96762e-08,0,
1,4.90545,0.998953,-0.142815,2.18306e-08,0,
1,4.65805,1.00022,-0.145706,2.42059e-08,0,
1,4.41376,1.0016,-0.148856,2.66264e-08,0,
1,4.17441,1.00307,-0.152261,2.88779e-08,0,
1,3.94163,1.00457,-0.155907,3.10526e-08,0,
1,3.7169,1.0061,-0.159777,3.43345e-08,0,
1,3.50146,1.0078,-0.163845,4.11701e-08,0,
1,3.29629,1.01006,-0.168086,5.27839e-08,0,
1,3.10217,1.01314,-0.172476,6.61554e-08,0,
1,2.91959,1.01642,-0.176985,2.98686e-07,0,
1,2.74885,1.018,-0.181558,1.58627e-06,0,
1,2.59002,1.01551,-0.186115,-1.26771e-05,0,
1,2.44299,1.0079,-0.190575,-6.82485e-05,0,
1,2.30752,0.995909,-0.194851,-0.000167198,0,
1,2.18321,0.981119,-0.198877,-0.00029212,0,
1,2.06959,0.965091,-0.202672,-0.000392967,0,
1,1.9661,0.949047,-0.206204,-0.000474715,0,
1,1.87215,0.933793,-0.20943,-0.00054652,0,
1,1.78711,0.919681,-0.212376,-0.000606385,0,
1,1.71033,0.906718,-0.215052,-0.00065591,0,
1,1.64119,0.894753,-0.217473,-0.000697845,0,
1,1.57905,0.883593,-0.219654,-0.000735176,0,
1,1.52332,0.873067,-0.221612,-0.000769972,0,
1,1.47342,0.863047,-0.223364,-0.000803933,0,
1,1.42882,0.853444,-0.224928,-0.000838156,0,
1,1.389,0.844207,-0.226304,-0.000863292,0,
1,1.35351,0.835315,-0.227506,-0.000881769,0,
1,1.3219,0.826753,-0.228569,-0.000898456,0,
1,1.29378,0.818516,-0.229505,-0.000913382,0,
1,1.26878,0.810603,-0.230327,-0.000926402,0,
1,1.24659,0.803016,-0.231047,-0.00093782,0,
1,1.22689,0.795756,-0.231678,-0.000947596,0,
1,1.2092,0.788738,-0.232235,-0.000955126,0,
1,1.1932,0.781906,-0.232731,-0.000962809,0,
1,1.1787,0.775221,-0.233172,-0.000974687,0,
1,1.16554,0.768605,-0.233562,-0.000998149,0,
1,1.15357,0.761912,-0.233908,-0.00104652,0,
1,1.14266,0.754901,-0.23422,-0.00114022,0,
1,1.13268,0.747225,-0.234508,-0.00130494,0,
1,1.12354,0.738474,-0.234783,-0.00156756,0,
1,1.11514,0.72828,-0.235056,-0.00194837,0,
1,1.10739,0.716487,-0.235333,-0.00245071,0,
1,1.10022,0.703237,-0.235616,-0.00305545,0,
1,1.09357,0.688926,-0.235903,-0.00372768,0,
1,1.08738,0.674058,-0.236192,-0.0044257,0,
1,1.0816,0.659091,-0.236481,-0.00511366,0,
1,1.07618,0.644368,-0.236768,-0.0057672,0,
1,1.07107,0.630112,-0.237051,-0.006373,0,
1,1.06626,0.616449,-0.237328,-0.00692575,0,
1,1.06169,0.603434,-0.237599,-0.00742528,0,
1,1.05735,0.591079,-0.237864,-0.00787395,0,
1,1.05321,0.579366,-0.238122,-0.00827559,0,
1,1.04925,0.568265,-0.238373,-0.00863444,0,
1,1.04544,0.557738,-0.238619,-0.00895478,0,
1,1.04177,0.547741,-0.238858,-0.00924062,0,
1,1.03822,0.538234,-0.239092,-0.00949594,0,
1,1.03478,0.529176,-0.239321,-0.00972498,0,
1,1.03144,0.520524,-0.239544,-0.00992876,0,
1,1.02818,0.512237,-0.239762,-0.0101099,0,
1,1.025,0.504276,-0.239975,-0.0102712,0,
1,1.02188,0.496603,-0.240183,-0.0104151,0,
1,1.01882,0.48919,-0.240386,-0.0105435,0,
1,1.01581,0.482007,-0.240586,-0.0106579,0,
1,1.01284,0.475032,-0.240782,-0.0107587,0,
1,1.00988,0.468168,-0.240976,-0.0108485,0,
1,1.00688,0.461326,-0.241172,-0.0109297,0,
1,1.00384,0.454491,-0.24137,-0.011002,0,
1,1.00076,0.447651,-0.241569,-0.0110652,0,
1,0.997615,0.440788,-0.241771,-0.0111194,0,
1,0.99441,0.433888,-0.241975,-0.0111648,0,
1,0.991131,0.426934,-0.242182,-0.0112012,0,
1,0.987768,0.419907,-0.242393,-0.0112284,0,
1,0.984308,0.412789,-0.242607,-0.0112464,0,
1,0.980739,0.405559,-0.242826,-0.0112547,0,
1,0.977045,0.398196,-0.24305,-0.011253,0,
1,0.973211,0.390676,-0.24328,-0.0112407,0,
1,0.969219,0.382975,-0.243516,-0.0112173,0,
1,0.965047,0.375066,-0.243759,-0.0111819,0,
1,0.960675,0.366921,-0.244009,-0.0111337,0,
1,0.956077,0.358508,-0.244268,-0.0110718,0,
1,0.951224,0.349797,-0.244536,-0.0109951,0,
1,0.946088,0.340753,-0.244814,-0.0109024,0,
1,0.940633,0.331339,-0.245104,-0.0107927,0,
1,0.934823,0.321516,-0.245406,-0.0106671,0,
1,0.928616,0.311237,-0.245691,-0.0105148,0,
1,0.921967,0.300452,-0.245919,-0.0103321,0,
1,0.914826,0.289117,-0.246082,-0.0101154,0,
1,0.907141,0.2772,-0.246204,-0.0098569,0,
1,0.898852,0.264669,-0.246316,-0.00955003,0,
1,0.889898,0.251494,-0.246454,-0.00918942,0,
1,0.880212,0.237636,-0.24666,-0.00877116,0,
1,0.869723,0.223054,-0.246977,-0.00829829,0,
1,0.858358,0.207709,-0.247365,-0.00777056,0,
1,0.846039,0.191599,-0.247763,-0.00720476,0,
1,0.83269,0.174764,-0.248161,-0.00660262,0,
1,0.818232,0.157281,-0.248548,-0.00597107,0,
1,0.802744,0.139433,-0.248916,-0.00532446,0,
1,0.78635,0.121544,-0.249262,-0.00467732,0,
1,0.768969,0.103724,-0.249579,-0.00404269,0,
1,0.75053,0.0861282,-0.249868,-0.00343617,0,
1,0.730977,0.0689632,-0.250127,-0.00287466,0,
1,0.710271,0.0524875,-0.250352,-0.00237568,0,
1,0.688397,0.036981,-0.250534,-0.00195497,0,
1,0.66536,0.0226796,-0.25066,-0.00162183,0,
1,0.641194,0.00969049,-0.250715,-0.00137472,0,
1,0.615961,-0.00204726,-0.250693,-0.00120167,0,
1,0.589754,-0.0127029,-0.25059,-0.00109215,0,
1,0.562692,-0.0225008,-0.250413,-0.00102371,0,
1,0.534925,-0.0316516,-0.250171,-0.000983958,0,
1,0.506624,-0.0402941,-0.249877,-0.000961446,0,
1,0.477982,-0.0485108,-0.249544,-0.000945749,0,
1,0.449206,-0.0563405,-0.249182,-0.00093157,0,
1,0.420509,-0.0637873,-0.248802,-0.000915042,0,
1,0.392107,-0.0708371,-0.248417,-0.000893405,0,
1,0.364206,-0.0774697,-0.24804,-0.000864997,0,
1,0.337003,-0.083665,-0.247681,-0.000829033,0,
1,0.310673,-0.0894055,-0.24735,-0.000785458,0,
1,0.28537,-0.0946774,-0.247054,-0.000734867,0,
1,0.26122,-0.0994713,-0.246798,-0.00067849,0,
1,0.238324,-0.103785,-0.246583,-0.000617273,0,
1,0.21675,-0.107625,-0.246412,-0.000552535,0,
1,0.196544,-0.111001,-0.246283,-0.00048559,0,
1,0.177724,-0.113927,-0.246194,-0.000417702,0,
1,0.160284,-0.11642,-0.24614,-0.000350054,0,
1,0.144202,-0.118496,-0.246117,-0.000283716,0,
1,0.129436,-0.120171,-0.24612,-0.000219618,0,
1,0.115935,-0.121463,-0.246144,-0.000158538,0,
1,0.103636,-0.122386,-0.246184,-0.000101096,0,
1,0.0924701,-0.122951,-0.246235,-4.77674e-05,0,
1,0.0823633,-0.123169,-0.246295,1.10769e-06,0,
1,0.0732406,-0.123047,-0.246358,4.53022e-05,0,
1,0.0650269,-0.122588,-0.246424,8.46813e-05,0,
1,0.057648,-0.12179,-0.246488,0.000119179,0,
1,0.0510323,-0.120646,-0.24655,0.000148774,0,
1,0.0451115,-0.119146,-0.246609,0.000173466,0,
1,0.0398209,-0.117269,-0.246663,0.000193251,0,
1,0.0351001,-0.114989,-0.246712,0.000208094,0,
1,0.0308929,-0.112268,-0.246756,0.000217899,0,
1,0.0271475,-0.109057,-0.246794,0.00022249,0,
1,0.0238164,-0.105298,-0.246827,0.00022159,0,
1,0.0208562,-0.100916,-0.246854,0.000214817,0,
1,0.0182274,-0.0958318,-0.246878,0.000201724,0,
1,0.0158944,-0.0899652,-0.246895,0.000181931,0,
1,0.0138249,-0.0832584,-0.24691,0.000155463,0,
1,0.0119898,-0.0757152,-0.24692,0.000123398,0,
1,0.0103632,-0.0674599,-0.246929,8.86992e-05,0,
1,0.00892169,-0.0587892,-0.246933,5.62975e-05,0,
1,0.00764438,-0.0501532,-0.246937,3.10932e-05,0,
1,0.00651264,-0.0420204,-0.246938,1.49944e-05,0,
1,0.00550983,-0.0347126,-0.246941,6.42254e-06,0,
1,0.00462115,-0.0283469,-0.246941,2.48843e-06,0,
1,0.00383341,-0.0228915,-0.246944,8.79867e-07,0,
1,0.0031349,-0.0182457,-0.246942,2.8247e-07,0,
1,0.00251518,-0.0142931,-0.246946,8.06459e-08,0,
1,0.00196502,-0.0109241,-0.246943,1.96661e-08,0,
1,0.00147619,-0.00804379,-0.246947,3.81455e-09,0,
1,0.00104139,-0.00557232,-0.246944,5.16552e-10,0,
1,0.000654158,-0.00344329,-0.246949,3.7527e-11,0,
1,0.000308731,-0.00160156,-0.246944,8.01925e-13,0,

4,0,0,-0.101053,0,0,
4,9,0,-0.0907059,0,0,
4,8.99969,0.0145643,-0.0907055,2.52208e-10,0,
4,8.99934,0.0310298,-0.0907058,1.17009e-08,0,
4,8.99894,0.0496636,-0.0907055,1.59756e-07,0,
4,8.9985,0.0707472,-0.0907057,1.15909e-06,0,
4,8.99799,0.0945634,-0.0907055,5.74573e-06,0,
4,8.99742,0.121302,-0.0907056,2.16868e-05,0,
4,8.99677,0.150831,-0.0907054,6.46759e-05,0,
4,8.99605,0.182369,-0.0907054,0.000153059,0,
4,8.99522,0.21443,-0.0907052,0.000289369,0,
4,8.99429,0.245372,-0.0907052,0.000451101,0,
4,8.99324,0.274085,-0.0907049,0.000612655,0,
4,8.99205,0.300444,-0.0907047,0.000735691,0,
4,8.9907,0.324698,-0.0907042,0.000838697,0,
4,8.98919,0.347018,-0.0907038,0.00092468,0,
4,8.98747,0.367621,-0.0907032,0.000996106,0,
4,8.98553,0.386807,-0.0907025,0.00105061,0,
4,8.98334,0.404852,-0.0907016,0.0010962,0,
4,8.98087,0.421947,-0.0907006,0.001135,0,
4,8.97807,0.438247,-0.0906993,0.00116834,0,
4,8.97491,0.453882,-0.0906978,0.00119743,0,
4,8.97134,0.468962,-0.090696,0.0012232,0,
4,8.96731,0.483581,-0.0906938,0.00124635,0,
4,8.96276,0.497818,-0.0906913,0.00126738,0,
4,8.95762,0.511744,-0.0906884,0.00128665,0,
4,8.95182,0.525418,-0.0906851,0.0013044,0,
4,8.94526,0.538891,-0.0906812,0.00132078,0,
4,8.93787,0.552209,-0.0906767,0.00133585,0,
4,8.92952,0.56541,-0.0906716,0.00134962,0,
4,8.92011,0.578526,-0.0906659,0.00136203,0,
4,8.90949,0.591588,-0.0906595,0.00137298,0,
4,8.89751,0.604619,-0.0906523,0.00138232,0,
4,8.88402,0.617638,-0.0906444,0.00138989,0,
4,8.86881,0.630661,-0.0906358,0.0013955,0,
4,8.85169,0.643702,-0.0906264,0.00139897,0,
4,8.83242,0.65677,-0.0906164,0.00140008,0,
4,8.81074,0.669873,-0.0906059,0.00139866,0,
4,8.78637,0.683016,-0.090595,0.00139452,0,
4,8.75901,0.696206,-0.0905839,0.00138748,0,
4,8.7283,0.709447,-0.0905729,0.0013774,0,
4,8.69387,0.722746,-0.0905626,0.00136408,0,
4,8.65533,0.736108,-0.0905531,0.00134733,0,
4,8.61222,0.749544,-0.0905455,0.00132685,0,
4,8.56407,0.763061,-0.0905401,0.00130222,0,
4,8.5104,0.77667,-0.0905386,0.00127289,0,
4,8.45065,0.790375,-0.0905411,0.00123934,0,
4,8.38429,0.804201,-0.090552,0.00120631,0,
4,8.31073,0.818311,-0.0905749,0.00116748,0,
4,8.22941,0.833108,-0.0906143,0.00110478,0,
4,8.13974,0.849091,-0.0906751,0.00102334,0,
4,8.04115,0.866651,-0.0907538,0.000917534,0,
4,7.93313,0.885934,-0.0908555,0.000784132,0,
4,7.81519,0.906598,-0.0909741,0.000626978,0,
4,7.68693,0.927488,-0.0911114,0.000465003,0,
4,7.54803,0.946688,-0.0912762,0.000315051,0,
4,7.39831,0.962103,-0.0914649,0.000160295,0,
4,7.23771,0.972168,-0.0916925,5.98612e-05,0,
4,7.06634,0.976897,-0.0919602,1.3869e-05,0,
4,6.88453,0.977979,-0.0922634,9.8323e-07,0,
4,6.69275,0.977536,-0.0925977,-3.25808e-07,0,
4,6.49173,0.976983,-0.0929667,-6.81298e-08,0,
4,6.28238,0.976799,-0.0933756,1.35849e-08,0,
4,6.06579,0.97692,-0.0938292,1.31804e-08,0,
4,5.84328,0.977161,-0.0943299,7.67182e-09,0,
4,5.61626,0.977412,-0.094879,5.45903e-09,0,
4,5.3863,0.977649,-0.0954764,4.85611e-09,0,
4,5.15502,0.977883,-0.0961208,4.89525e-09,0,
4,4.92406,0.978132,-0.0968098,5.24728e-09,0,
4,4.69507,0.978408,-0.0975395,5.70637e-09,0,
4,4.46961,0.978711,-0.0983045,6.00452e-09,0,
4,4.24915,0.979006,-0.0990981,5.76241e-09,0,
4,4.03501,0.979226,-0.0999121,4.8305e-09,0,
4,3.82836,0.979316,-0.100737,3.8596e-09,0,
4,3.63018,0.979338,-0.101564,4.77599e-09,0,
4,3.44125,0.979552,-0.102381,1.16826e-08,0,
4,3.26217,0.980331,-0.10318,9.31469e-08,0,
4,3.09333,0.981834,-0.103948,7.45984e-07,0,
4,2.93497,0.983632,-0.104675,2.30263e-06,0,
4,2.78715,0.984728,-0.105354,1.18219e-06,0,
4,2.64979,0.984016,-0.105979,-1.05624e-05,0,
4,2.52268,0.980781,-0.106544,-3.9568e-05,0,
4,2.40551,0.9749,-0.107045,-8.73406e-05,0,
4,2.29789,0.966743,-0.10748,-0.000150621,0,
4,2.19939,0.956946,-0.107849,-0.000223452,0,
4,2.10949,0.946195,-0.108156,-0.000299313,0,
4,2.02768,0.935096,-0.108405,-0.000372673,0,
4,1.95343,0.924108,-0.108606,-0.000439752,0,
4,1.88618,0.913546,-0.108763,-0.000498593,0,
4,1.82542,0.903597,-0.108886,-0.000548745,0,
4,1.77062,0.894353,-0.108979,-0.0005908,0,
4,1.72128,0.885845,-0.109049,-0.000625862,0,
4,1.67693,0.878061,-0.1091,-0.000655122,0,
4,1.63713,0.870974,-0.109136,-0.000679682,0,
4,1.60144,0.864542,-0.10916,-0.000700075,0,
4,1.56949,0.858721,-0.109176,-0.000716705,0,
4,1.54091,0.853464,-0.109185,-0.000731002,0,
4,1.51537,0.848713,-0.109189,-0.000742499,0,
4,1.49167,0.844264,-0.10919,-0.00075092,0,
4,1.46926,0.840017,-0.109188,-0.000757679,0,
4,1.44801,0.835947,-0.109184,-0.000763139,0,
4,1.42781,0.832033,-0.109178,-0.000767314,0,
4,1.40855,0.828256,-0.10917,-0.000770428,0,
4,1.39015,0.824598,-0.109161,-0.000772738,0,
4,1.37252,0.821043,-0.10915,-0.000774575,0,
4,1.3556,0.817576,-0.109137,-0.000776303,0,
4,1.3393,0.814181,-0.109124,-0.000778327,0,
4,1.32357,0.810839,-0.109109,-0.000781181,0,
4,1.30836,0.807532,-0.109094,-0.000785576,0,
4,1.29362,0.804239,-0.109077,-0.000792525,0,
4,1.2793,0.800934,-0.10906,-0.00080303,0,
4,1.26537,0.79759,-0.109043,-0.000818462,0,
4,1.25179,0.794172,-0.109024,-0.000840533,0,
4,1.23852,0.790639,-0.109005,-0.000871335,0,
4,1.22554,0.786942,-0.108986,-0.000913336,0,
4,1.21282,0.783023,-0.108965,-0.000969376,0,
4,1.20034,0.778818,-0.108944,-0.00104253,0,
4,1.18806,0.774255,-0.108922,-0.00113593,0,
4,1.17599,0.769265,-0.108899,-0.00125249,0,
4,1.16408,0.763782,-0.108874,-0.00139454,0,
4,1.15233,0.757752,-0.108848,-0.00156344,0,
4,1.14073,0.751142,-0.108821,-0.00175923,0,
4,1.12925,0.743945,-0.108793,-0.00198048,0,
4,1.11788,0.736178,-0.108764,-0.00222432,0,
4,1.10661,0.727877,-0.108735,-0.00248674,0,
4,1.09543,0.719099,-0.108706,-0.00276298,0,
4,1.08432,0.709906,-0.108676,-0.00304798,0,
4,1.07328,0.700367,-0.108648,-0.00333677,0,
4,1.0623,0.690549,-0.10862,-0.00362482,0,
4,1.05136,0.680512,-0.108592,-0.00390806,0,
4,1.04044,0.670296,-0.108565,-0.00418324,0,
4,1.0295,0.659933,-0.108539,-0.00444783,0,
4,1.01855,0.649465,-0.108513,-0.00469935,0,
4,1.00757,0.638928,-0.108488,-0.00493549,0,
4,0.996544,0.628354,-0.108463,-0.00515424,0,
4,0.98547,0.617773,-0.108436,-0.00535401,0,
4,0.974334,0.607212,-0.108417,-0.0055459,0,
4,0.963124,0.596645,-0.108375,-0.00571532,0,
4,0.951826,0.585969,-0.1083,-0.00585911,0,
4,0.940428,0.575074,-0.10822,-0.00600915,0,
4,0.928915,0.563887,-0.108139,-0.00616698,0,
4,0.917272,0.552346,-0.10806,-0.00633386,0,
4,0.905481,0.540394,-0.107986,-0.00651096,0,
4,0.893524,0.527979,-0.107918,-0.0066991,0,
4,0.881383,0.515056,-0.107856,-0.00689875,0,
4,0.869035,0.50159,-0.107801,-0.0071099,0,
4,0.856459,0.48756,-0.107751,-0.00733211,0,
4,0.843629,0.472954,-0.107705,-0.00756451,0,
4,0.830518,0.457769,-0.107661,-0.00780594,0,
4,0.817097,0.442005,-0.107619,-0.00805493,0,
4,0.803334,0.425671,-0.107579,-0.00830977,0,
4,0.789195,0.408778,-0.107542,-0.00856836,0,
4,0.774643,0.391351,-0.10751,-0.00882818,0,
4,0.759639,0.37343,-0.107484,-0.00908609,0,
4,0.744138,0.355068,-0.107466,-0.00933832,0,
4,0.728096,0.336329,-0.107457,-0.00957917,0,
4,0.711463,0.31727,-0.107457,-0.00980234,0,
4,0.694189,0.297939,-0.107463,-0.0100025,0,
4,0.676218,0.278379,-0.107477,-0.010175,0,
4,0.657495,0.258625,-0.107498,-0.0103163,0,
4,0.637962,0.238709,-0.107527,-0.0104232,0,
4,0.617561,0.218652,-0.107563,-0.010493,0,
4,0.596848,0.199024,-0.107604,-0.0105222,0,
4,0.576557,0.180479,-0.107645,-0.0105115,0,
4,0.556564,0.16286,-0.107683,-0.0104642,0,
4,0.536763,0.146004,-0.107707,-0.0103821,0,
4,0.517057,0.12975,-0.107711,-0.0102648,0,
4,0.497368,0.113979,-0.107701,-0.0101107,0,
4,0.477632,0.0986615,-0.107702,-0.00991877,0,
4,0.457804,0.0839299,-0.107772,-0.00969216,0,
4,0.437857,0.070105,-0.107999,-0.00944266,0,
4,0.417786,0.0576129,-0.108467,-0.0091915,0,
4,0.397605,0.0467479,-0.109221,-0.00896361,0,
4,0.377348,0.0373938,-0.109881,-0.00876075,0,
4,0.357066,0.0289008,-0.109913,-0.00814604,0,
4,0.336828,0.0207848,-0.1096,-0.00767154,0,
4,0.316717,0.0129796,-0.109334,-0.0072255,0,
4,0.296825,0.00549598,-0.109027,-0.00677952,0,
4,0.27725,-0.00165239,-0.10869,-0.00633424,0,
4,0.258095,-0.00845431,-0.108324,-0.00589262,0,
4,0.239458,-0.0149019,-0.107932,-0.00545777,0,
4,0.221432,-0.0209911,-0.107519,-0.00503277,0,
4,0.2041,-0.0267214,-0.107088,-0.00462044,0,
4,0.187537,-0.0320957,-0.106647,-0.00422333,0,
4,0.171798,-0.0371199,-0.106202,-0.00384358,0,
4,0.156928,-0.0418028,-0.10576,-0.00348286,0,
4,0.142956,-0.0461548,-0.105326,-0.0031424,0,
4,0.129894,-0.0501882,-0.104907,-0.002823,0,
4,0.117744,-0.0539162,-0.104506,-0.00252499,0,
4,0.106492,-0.0573525,-0.104127,-0.00224835,0,
4,0.0961173,-0.0605114,-0.103774,-0.00199275,0,
4,0.0865883,-0.063407,-0.103447,-0.00175757,0,
4,0.0778675,-0.066053,-0.103147,-0.00154199,0,
4,0.0699123,-0.0684628,-0.102875,-0.00134505,0,
4,0.062677,-0.0706492,-0.10263,-0.00116566,0,
4,0.056114,-0.0726242,-0.102411,-0.0010027,0,
4,0.0501747,-0.0743988,-0.102215,-0.000854994,0,
4,0.0448114,-0.075983,-0.102043,-0.000721398,0,
4,0.039977,-0.0773858,-0.101891,-0.000600776,0,
4,0.0356266,-0.0786147,-0.101758,-0.000492043,0,
4,0.0317171,-0.0796759,-0.101643,-0.000394173,0,
4,0.0282081,-0.0805737,-0.101543,-0.000306205,0,
4,0.0250617,-0.0813103,-0.101456,-0.000227258,0,
4,0.0222427,-0.0818854,-0.101382,-0.000156534,0,
4,0.0197189,-0.0822953,-0.101319,-9.33314e-05,0,
4,0.0174603,-0.082532,-0.101265,-3.70563e-05,0,
4,0.0154398,-0.0825815,-0.10122,1.27517e-05,0,
4,0.0136326,-0.0824212,-0.101182,5.63788e-05,0,
4,0.0120162,-0.0820165,-0.101151,9.38599e-05,0,
4,0.0105703,-0.0813144,-0.101125,0.000124845,0,
4,0.00927657,-0.0802348,-0.101105,0.000148371,0,
4,0.00811839,-0.0786578,-0.101089,0.000162538,0,
4,0.0070809,-0.0764099,-0.101078,0.000164314,0,
4,0.0061507,-0.0732642,-0.101069,0.000150373,0,
4,0.00531578,-0.0689917,-0.101064,0.000120445,0,
4,0.00456537,-0.0635023,-0.10106,8.16462e-05,0,
4,0.00388979,-0.056998,-0.101059,4.6182e-05,0,
4,0.00328037,-0.0499227,-0.101057,2.2009e-05,0,
4,0.00272934,-0.0427215,-0.101058,8.98844e-06,0,
4,0.0022297,-0.0356817,-0.101056,3.15619e-06,0,
4,0.00177519,-0.0289376,-0.101057,9.30533e-07,0,
4,0.00136016,-0.0225314,-0.101055,2.16453e-07,0,
4,0.000979511,-0.0164607,-0.101057,3.49865e-08,0,
4,0.00062865,-0.0107032,-0.101054,3.01045e-09,0,
4,0.000303409,-0.00522839,-0.101057,7.39177e-11,0,

6,0,0,0.000440704,0,0,
6,9,0,-0.0669713,0,0,
6,8.99969,0.0138768,-0.0669711,2.13659e-10,0,
6,8.99934,0.0295241,-0.0669713,9.85982e-09,0,
6,8.99895,0.0471853,-0.0669711,1.3365e-07,0,
6,8.9985,0.0671169,-0.0669712,9.62691e-07,0,
6,8.99801,0.0895792,-0.066971,4.74581e-06,0,
6,8.99744,0.114762,-0.0669711,1.7893e-05,0,
6,8.99681,0.142592,-0.066971,5.37287e-05,0,
6,8.99609,0.17245,-0.066971,0.000129283,0,
6,8.99529,0.203049,-0.0669708,0.000250257,0,
6,8.99438,0.232849,-0.0669708,0.000399655,0,
6,8.99336,0.260687,-0.0669705,0.000554112,0,
6,8.9922,0.286295,-0.0669703,0.000677425,0,
6,8.9909,0.309869,-0.06697,0.000778412,0,
6,8.98944,0.331586,-0.0669696,0.000863431,0,
6,8.98779,0.351634,-0.0669691,0.000934558,0,
6,8.98593,0.370279,-0.0669685,0.000990264,0,
6,8.98383,0.387785,-0.0669677,0.00103598,0,
6,8.98147,0.404345,-0.0669668,0.00107524,0,
6,8.97881,0.420109,-0.0669657,0.00110913,0,
6,8.97581,0.435203,-0.0669644,0.00113889,0,
6,8.97244,0.449736,-0.0669629,0.00116548,0,
6,8.96863,0.4638,-0.0669611,0.0011896,0,
6,8.96435,0.477476,-0.0669589,0.00121182,0,
6,8.95953,0.490832,-0.0669564,0.00123254,0,
6,8.95409,0.503929,-0.0669534,0.00125204,0,
6,8.94798,0.516823,-0.0669499,0.00127053,0,
6,8.94109,0.529559,-0.0669459,0.0012881,0,
6,8.93334,0.542181,-0.0669412,0.00130481,0,
6,8.92463,0.554725,-0.0669359,0.00132063,0,
6,8.91482,0.567226,-0.0669297,0.00133546,0,
6,8.90379,0.579713,-0.0669226,0.00134917,0,
6,8.89139,0.59221,-0.0669145,0.00136157,0,
6,8.87746,0.60474,-0.0669053,0.00137241,0,
6,8.86181,0.617319,-0.0668949,0.00138143,0,
6,8.84423,0.629962,-0.0668832,0.00138833,0,
6,8.82452,0.642678,-0.0668701,0.00139279,0,
6,8.80241,0.655474,-0.0668554,0.00139451,0,
6,8.77763,0.668355,-0.0668391,0.00139319,0,
6,8.74989,0.681321,-0.066821,0.00138854,0,
6,8.71885,0.694372,-0.066801,0.00138029,0,
6,8.68417,0.707508,-0.066779,0.00136818,0,
6,8.64545,0.720728,-0.0667547,0.00135195,0,
6,8.60229,0.73403,-0.0667281,0.00133126,0,
6,8.55423,0.747412,-0.0666988,0.00130564,0,
6,8.50082,0.760869,-0.0666668,0.0012745,0,
6,8.44155,0.77439,-0.066631,0.0012383,0,
6,8.37592,0.78798,-0.0665935,0.00120195,0,
6,8.30339,0.801784,-0.0665579,0.00115618,0,
6,8.22344,0.816157,-0.0665251,0.00109555,0,
6,8.13555,0.831568,-0.0664929,0.00101949,0,
6,8.0392,0.848473,-0.0664586,0.000923121,0,
6,7.93391,0.867153,-0.0664141,0.000802751,0,
6,7.81927,0.887421,-0.0663564,0.000660648,0,
6,7.6949,0.908265,-0.0662682,0.000510543,0,
6,7.56054,0.927856,-0.0661661,0.000368325,0,
6,7.41603,0.944231,-0.0660188,0.00023288,0,
6,7.26132,0.955985,-0.0658461,0.000107199,0,
6,7.09653,0.962679,-0.0656543,3.53493e-05,0,
6,6.92195,0.96521,-0.0654202,5.68414e-06,0,
6,6.73802,0.965315,-0.0651467,-1.2397e-06,0,
6,6.5454,0.964579,-0.0648242,-1.11019e-06,0,
6,6.34489,0.963877,-0.0644484,-4.08275e-07,0,
6,6.1375,0.963429,-0.0640141,-1.25172e-07,0,
6,5.92439,0.963144,-0.0635156,-4.45341e-08,0,
6,5.70687,0.962887,-0.062947,-2.09694e-08,0,
6,5.48633,0.962584,-0.0623024,-1.30859e-08,0,
6,5.26426,0.962216,-0.0615758,-1.05922e-08,0,
6,5.04218,0.961793,-0.0607621,-1.02267e-08,0,
6,4.82159,0.961332,-0.0598571,-1.06999e-08,0,
6,4.60398,0.960846,-0.0588579,-1.16073e-08,0,
6,4.39071,0.960325,-0.0577632,-1.30462e-08,0,
6,4.18307,0.959724,-0.0565741,-1.53234e-08,0,
6,3.98218,0.958977,-0.0552938,-1.85137e-08,0,
6,3.78902,0.958052,-0.0539285,-2.22071e-08,0,
6,3.60438,0.957034,-0.0524866,-3.27174e-08,0,
6,3.42888,0.956159,-0.0509786,-8.7645e-08,0,
6,3.26296,0.955723,-0.0494157,-2.23126e-07,0,
6,3.10691,0.955879,-0.047809,-3.33638e-07,0,
6,2.96084,0.956451,-0.0461711,-5.2016e-07,0,
6,2.82473,0.956939,-0.0445171,-2.34061e-06,0,
6,2.69844,0.956705,-0.0428648,-9.2135e-06,0,
6,2.58172,0.955214,-0.0412333,-2.48608e-05,0,
6,2.47424,0.952185,-0.0396413,-5.13934e-05,0,
6,2.37559,0.947614,-0.0381054,-8.86597e-05,0,
6,2.28535,0.94171,-0.0366392,-0.000134695,0,
6,2.20301,0.934801,-0.0352527,-0.000186566,0,
6,2.1281,0.927247,-0.0339525,-0.000241172,0,
6,2.06009,0.919383,-0.0327418,-0.000295832,0,
6,1.99849,0.911484,-0.0316214,-0.000348386,0,
6,1.9428,0.903767,-0.0305899,-0.000396352,0,
6,1.89255,0.896421,-0.0296441,-0.000438821,0,
6,1.84728,0.88953,-0.0287744,-0.000460824,0,
6,1.80655,0.883093,-0.0279798,-0.000480713,0,
6,1.76996,0.877141,-0.0272581,-0.000498874,0,
6,1.73712,0.87168,-0.0266042,-0.000515139,0,
6,1.70768,0.866664,-0.0260121,-0.000530303,0,
6,1.67998,0.861862,-0.0254533,-0.000545,0,
6,1.65329,0.857174,-0.0249104,-0.000559327,0,
6,1.62754,0.852593,-0.0243835,-0.000573203,0,
6,1.60265,0.848114,-0.0238708,-0.000586704,0,
6,1.57854,0.843731,-0.0233715,-0.000599845,0,
6,1.55515,0.83944,-0.0228846,-0.000612665,0,
6,1.53242,0.835234,-0.022409,-0.000625204,0,
6,1.5103,0.831107,-0.0219439,-0.000637528,0,
6,1.48874,0.827052,-0.0214885,-0.000649716,0,
6,1.46769,0.823064,-0.0210419,-0.000661874,0,
6,1.44712,0.819135,-0.0206035,-0.000674129,0,
6,1.42698,0.81526,-0.0201723,-0.000686638,0,
6,1.40725,0.811437,-0.0197477,-0.000699584,0,
6,1.38788,0.807663,-0.019329,-0.000713159,0,
6,1.36886,0.80394,-0.0189158,-0.000727495,0,
6,1.35015,0.800267,-0.0185073,-0.000742954,0,
6,1.33173,0.796643,-0.0181035,-0.000759601,0,
6,1.31357,0.793057,-0.0177043,-0.000777607,0,
6,1.29566,0.789484,-0.0173102,-0.000797374,0,
6,1.27797,0.785887,-0.0169217,-0.000819617,0,
6,1.26048,0.782221,-0.0165385,-0.000845462,0,
6,1.24318,0.778437,-0.0161603,-0.000876479,0,
6,1.22605,0.774479,-0.015786,-0.000914689,0,
6,1.20907,0.77029,-0.0154148,-0.000962538,0,
6,1.19223,0.76581,-0.0150462,-0.00102282,0,
6,1.17551,0.760976,-0.0146799,-0.00109842,0,
6,1.1589,0.755726,-0.0143162,-0.00119194,0,
6,1.14238,0.750009,-0.0139555,-0.00130515,0,
6,1.12595,0.74379,-0.0135984,-0.00143854,0,
6,1.10959,0.737051,-0.0132454,-0.00159118,0,
6,1.09329,0.729794,-0.0128969,-0.00176102,0,
6,1.07704,0.722032,-0.0125531,-0.00194545,0,
6,1.06081,0.713778,-0.0122138,-0.00214202,0,
6,1.04459,0.705045,-0.0118787,-0.00234885,0,
6,1.02836,0.695844,-0.0115479,-0.00256475,0,
6,1.01211,0.686178,-0.0112212,-0.0027893,0,
6,0.99583,0.676042,-0.010899,-0.00302273,0,
6,0.97951,0.665426,-0.0105817,-0.00326573,0,
6,0.963136,0.654315,-0.0102698,-0.00351919,0,
6,0.946694,0.642687,-0.00996401,-0.00378408,0,
6,0.930172,0.630519,-0.0096649,-0.00406123,0,
6,0.913555,0.617777,-0.00937286,-0.00435128,0,
6,0.896829,0.604425,-0.00908816,-0.00465458,0,
6,0.879979,0.590436,-0.00881123,-0.00497129,0,
6,0.862989,0.575806,-0.00854297,-0.00530183,0,
6,0.845842,0.560577,-0.00828553,-0.00564785,0,
6,0.828521,0.544825,-0.00804093,-0.00600746,0,
6,0.811008,0.528621,-0.00781006,-0.00636945,0,
6,0.793282,0.512016,-0.00759443,-0.00672998,0,
6,0.775322,0.495056,-0.00739613,-0.00708516,0,
6,0.757107,0.477794,-0.00721736,-0.00743075,0,
6,0.738612,0.460301,-0.00705999,-0.00776186,0,
6,0.719813,0.442658,-0.00692487,-0.00807279,0,
6,0.700681,0.424952,-0.00681148,-0.00835723,0,
6,0.681188,0.407267,-0.00671871,-0.00860916,0,
6,0.661304,0.389677,-0.00664582,-0.00882435,0,
6,0.640996,0.372251,-0.00659166,-0.00899997,0,
6,0.620228,0.35504,-0.00655252,-0.00913399,0,
6,0.598964,0.338073,-0.00652005,-0.00922455,0,
6,0.577166,0.321345,-0.00648133,-0.00926927,0,
6,0.554791,0.304817,-0.00642446,-0.00926486,0,
6,0.531799,0.288455,-0.00635294,-0.00920777,0,
6,0.508144,0.272291,-0.00630282,-0.00909657,0,
6,0.48378,0.256515,-0.00636449,-0.00893682,0,
6,0.459585,0.242066,-0.00668331,-0.0087546,0,
6,0.436695,0.229967,-0.00735371,-0.0085898,0,
6,0.414961,0.220133,-0.00824431,-0.00845357,0,
6,0.394252,0.21194,-0.00855452,-0.00811747,0,
6,0.374445,0.204652,-0.00830918,-0.00761524,0,
6,0.355433,0.197884,-0.00806776,-0.00725874,0,
6,0.337122,0.19155,-0.00781447,-0.00690757,0,
6,0.319433,0.18558,-0.00752867,-0.00656137,0,
6,0.3023,0.179926,-0.00722832,-0.00622232,0,
6,0.28567,0.174548,-0.00691555,-0.00589015,0,
6,0.269507,0.169416,-0.00659054,-0.00556439,0,
6,0.253785,0.164506,-0.00625442,-0.00524534,0,
6,0.238493,0.159797,-0.00590854,-0.0049334,0,
6,0.223631,0.155277,-0.00555464,-0.00462908,0,
6,0.209207,0.150933,-0.00519482,-0.00433302,0,
6,0.195237,0.146758,-0.00483147,-0.00404594,0,
6,0.181744,0.142745,-0.00446729,-0.0037686,0,
6,0.168754,0.138891,-0.00410515,-0.00350179,0,
6,0.156292,0.135191,-0.00374803,-0.00324625,0,
6,0.144384,0.131643,-0.00339885,-0.00300265,0,
6,0.133052,0.128245,-0.00306039,-0.00277154,0,
6,0.122315,0.124993,-0.00273517,-0.00255335,0,
6,0.112183,0.121884,-0.00242537,-0.00234834,0,
6,0.102665,0.118913,-0.00213272,-0.00215661,0,
6,0.0937597,0.116077,-0.00185853,-0.00197811,0,
6,0.0854609,0.11337,-0.00160365,-0.00181264,0,
6,0.077757,0.110786,-0.00136847,-0.00165986,0,
6,0.0706309,0.108319,-0.00115298,-0.00151933,0,
6,0.0640611,0.105961,-0.000956833,-0.0013905,0,
6,0.0580229,0.103705,-0.000779383,-0.00127277,0,
6,0.0524888,0.101542,-0.000619763,-0.00116548,0,
6,0.0474296,0.0994652,-0.000476938,-0.00106795,0,
6,0.042815,0.0974642,-0.000349772,-0.000979467,0,
6,0.0386145,0.0955303,-0.000237061,-0.000899339,0,
6,0.0347975,0.0936537,-0.000137604,-0.00082687,0,
6,0.0313344,0.0918241,-5.01832e-05,-0.000761388,0,
6,0.0281964,0.0900307,2.63206e-05,-0.000702238,0,
6,0.0253561,0.0882617,9.30632e-05,-0.000648794,0,
6,0.0227875,0.0865046,0.000150974,-0.000600449,0,
6,0.0204662,0.0847451,0.000201145,-0.000556618,0,
6,0.0183694,0.0829671,0.00024422,-0.000516726,0,
6,0.016476,0.0811518,0.0002813,-0.000480195,0,
6,0.0147664,0.0792768,0.000312632,-0.000446431,0,
6,0.0132228,0.0773148,0.000339467,-0.000414787,0,
6,0.0118288,0.0752313,0.000361513,-0.000384525,0,
6,0.0105693,0.0729827,0.000380355,-0.000354755,0,
6,0.00943073,0.0705126,0.000395013,-0.000324358,0,
6,0.00840063,0.0677491,0.000407609,-0.000291928,0,
6,0.00746774,0.0646033,0.000416359,-0.000255826,0,
6,0.00662185,0.0609752,0.000424109,-0.000214643,0,
6,0.00585371,0.0567784,0.000428262,-0.000168408,0,
6,0.00515491,0.0519901,0.00043254,-0.000120245,0,
6,0.00451788,0.0467122,0.000433582,-7.64006e-05,0,
6,0.00393573,0.0411796,0.000435994,-4.28182e-05,0,
6,0.00340221,0.0356736,0.000435475,-2.12753e-05,0,
6,0.00291168,0.0304117,0.000437385,-9.4609e-06,0,
6,0.00245897,0.0255049,0.000436178,-3.77282e-06,0,
6,0.00203939,0.0209797,0.000438235,-1.33103e-06,0,
6,0.00164864,0.0168163,0.000436526,-4.00948e-07,0,
6,0.00128281,0.0129759,0.000439003,-9.62594e-08,0,
6,0.000938257,0.00941473,0.000436703,-1.61541e-08,0,
6,0.000611645,0.00609047,0.000439808,-1.44384e-09,0,
6,0.000299862,0.00296422,0.000436731,-3.62119e-11,0,

10,0.000296632,0.0100817,0.0272166,-8.77547e-11,0,
10,0.000596102,0.0202564,0.0272172,-3.25216e-09,0,
10,0.000900397,0.0305915,0.0272166,-3.30597e-08,0,
10,0.00121153,0.0411545,0.027217,-1.77558e-07,0,
10,0.00153158,0.0520123,0.0272166,-6.63286e-07,0,
10,0.00186264,0.0632291,0.0272169,-1.96668e-06,0,
10,0.00220692,0.0748612,0.0272165,-4.96675e-06,0,
10,0.00256668,0.0869494,0.0272168,-1.11185e-05,0,
10,0.00294431,0.099506,0.0272165,-2.2569e-05,0,
10,0.00334229,0.112498,0.0272167,-4.20545e-05,0,
10,0.00376326,0.12583,0.0272163,-7.23745e-05,0,
10,0.00421,0.13934,0.0272164,-0.000115403,0,
10,0.00468544,0.152804,0.027216,-0.000171019,0,
10,0.00519274,0.165975,0.027216,-0.000236683,0,
10,0.00573524,0.178625,0.0272154,-0.000308107,0,
10,0.00631651,0.190573,0.0272151,-0.0003806,0,
10,0.00694041,0.201709,0.0272143,-0.000450265,0,
10,0.00761104,0.211982,0.0272135,-0.000514535,0,
10,0.00833284,0.221394,0.0272122,-0.000572135,0,
10,0.00911058,0.229981,0.0272109,-0.000622766,0,
10,0.0099494,0.237798,0.0272089,-0.000666759,0,
10,0.0108548,0.244916,0.0272066,-0.000704802,0,
10,0.0118329,0.251406,0.0272037,-0.000737741,0,
10,0.0128901,0.257339,0.0272002,-0.000766461,0,
10,0.0140333,0.262781,0.027196,-0.000791808,0,
10,0.0152702,0.267796,0.0271911,-0.00081456,0,
10,0.0166089,0.272436,0.0271851,-0.000835403,0,
10,0.0180584,0.276753,0.0271783,-0.000854941,0,
10,0.0196282,0.280788,0.0271703,-0.000873698,0,
10,0.0213288,0.284579,0.027161,-0.000892132,0,
10,0.0231714,0.288159,0.0271504,-0.000910646,0,
10,0.0251682,0.291558,0.0271383,-0.0009296,0,
10,0.0273326,0.2948,0.0271244,-0.000949324,0,
10,0.0296789,0.297908,0.0271087,-0.000970123,0,
10,0.0322227,0.300902,0.0270909,-0.000992289,0,
10,0.0349809,0.3038,0.0270708,-0.00101611,0,
10,0.0379719,0.306618,0.0270481,-0.00104186,0,
10,0.0412155,0.30937,0.0270227,-0.00106984,0,
10,0.0447333,0.312072,0.0269943,-0.00110033,0,
10,0.0485489,0.314734,0.0269624,-0.00113364,0,
10,0.0526875,0.31737,0.026927,-0.0011701,0,
10,0.0571768,0.319992,0.0268875,-0.00121004,0,
10,0.0620466,0.32261,0.0268436,-0.00125384,0,
10,0.0673295,0.325235,0.0267949,-0.00130188,0,
10,0.0730607,0.32788,0.0267411,-0.00135458,0,
10,0.0792784,0.330556,0.0266816,-0.0014124,0,
10,0.0860241,0.333274,0.0266161,-0.00147581,0,
10,0.0933428,0.336046,0.026544,-0.00154535,0,
10,0.101283,0.338887,0.0264649,-0.00162159,0,
10,0.109899,0.341809,0.0263783,-0.00170512,0,
10,0.119247,0.344827,0.0262838,-0.00179661,0,
10,0.12939,0.347958,0.0261808,-0.00189677,0,
10,0.140395,0.351219,0.0260689,-0.00200634,0,
10,0.152337,0.35463,0.0259477,-0.00212613,0,
10,0.165296,0.358214,0.0258169,-0.00225698,0,
10,0.179357,0.361994,0.0256762,-0.00239979,0,
10,0.194615,0.365998,0.0255253,-0.00255548,0,
10,0.211171,0.370259,0.0253643,-0.00272501,0,
10,0.229138,0.374812,0.0251929,-0.00290931,0,
10,0.248635,0.379699,0.0250118,-0.00310932,0,
10,0.269793,0.384969,0.0248205,-0.00332589,0,
10,0.292753,0.390676,0.0246211,-0.00355973,0,
10,0.317669,0.396886,0.0244109,-0.00381046,0,
10,0.344708,0.403672,0.0241957,-0.00407769,0,
10,0.372405,0.410706,0.0239861,-0.0043474,0,
10,0.399623,0.417723,0.0237881,-0.00460855,0,
10,0.426397,0.424747,0.0236056,-0.00485909,0,
10,0.452757,0.431806,0.0234424,-0.00509755,0,
10,0.478735,0.438936,0.0233017,-0.00532204,0,
10,0.504358,0.446177,0.0231845,-0.0055308,0,
10,0.529657,0.453566,0.0230899,-0.00572475,0,
10,0.554656,0.461139,0.0229903,-0.00597226,0,
10,0.579382,0.469114,0.0230727,-0.00613242,0,
10,0.603859,0.477951,0.0233564,-0.00613323,0,
10,0.628112,0.487987,0.0235757,-0.00612673,0,
10,0.652163,0.499153,0.0236802,-0.00610879,0,
10,0.676035,0.511142,0.0236914,-0.0060696,0,
10,0.699751,0.523637,0.023648,-0.00600184,0,
10,0.72333,0.536446,0.0235828,-0.00590192,0,
10,0.746795,0.549511,0.023514,-0.00576896,0,
10,0.770165,0.562861,0.0234477,-0.00560313,0,
10,0.79346,0.576543,0.0233812,-0.00540501,0,
10,0.816699,0.590575,0.0233092,-0.00517574,0,
10,0.839903,0.604922,0.0232262,-0.00491775,0,
10,0.863088,0.619486,0.0231295,-0.00463502,0,
10,0.886275,0.634114,0.0230169,-0.00433309,0,
10,0.909481,0.648606,0.0228899,-0.00401897,0,
10,0.932723,0.662726,0.0227457,-0.00371,0,
10,0.956021,0.676244,0.022586,-0.00341442,0,
10,0.97939,0.689041,0.0224187,-0.00312936,0,
10,1.00285,0.701107,0.022246,-0.00285532,0,
10,1.02641,0.712485,0.022069,-0.00259396,0,
10,1.0501,0.723211,0.0218866,-0.00234695,0,
10,1.07392,0.733298,0.0216979,-0.00211574,0,
10,1.0979,0.742746,0.0215022,-0.0019015,0,
10,1.12205,0.75156,0.0212995,-0.00170503,0,
10,1.14639,0.759764,0.0210897,-0.00152678,0,
10,1.17093,0.767401,0.0208729,-0.00136677,0,
10,1.19568,0.774534,0.0206491,-0.0012247,0,
10,1.22066,0.781238,0.0204186,-0.0010999,0,
10,1.24589,0.787585,0.0201815,-0.0009915,0,
10,1.27137,0.793638,0.0199381,-0.000898613,0,
10,1.29713,0.799442,0.0196882,-0.000820168,0,
10,1.32317,0.80503,0.0194319,-0.000754619,0,
10,1.34951,0.810429,0.0191693,-0.000700006,0,
10,1.37616,0.815668,0.0189004,-0.000654184,0,
10,1.40313,0.820782,0.0186254,-0.000615108,0,
10,1.43043,0.825808,0.0183443,-0.000581079,0,
10,1.45807,0.830774,0.0180569,-0.000550822,0,
10,1.48607,0.835702,0.0177632,-0.000523341,0,
10,1.51444,0.840604,0.0174631,-0.000497892,0,
10,1.54318,0.845483,0.0171564,-0.000473934,0,
10,1.57231,0.850339,0.0168429,-0.000451099,0,
10,1.60184,0.855167,0.0165227,-0.000429155,0,
10,1.63178,0.859961,0.0161956,-0.000407969,0,
10,1.66213,0.864712,0.0158615,-0.000387462,0,
10,1.69292,0.869408,0.0155203,-0.000367585,0,
10,1.72416,0.874038,0.015172,-0.000348304,0,
10,1.75585,0.878586,0.0148163,-0.000329599,0,
10,1.78802,0.883037,0.0144533,-0.000311465,0,
10,1.82067,0.887377,0.0140828,-0.000293916,0,
10,1.85383,0.891588,0.0137047,-0.000276986,0,
10,1.88751,0.895652,0.0133191,-0.00026074,0,
10,1.92173,0.899551,0.0129256,-0.000245257,0,
10,1.95652,0.903263,0.0125248,-0.000230656,0,
10,1.9919,0.90677,0.0121157,-0.000216977,0,
10,2.02791,0.910068,0.0117005,-0.000204124,0,
10,2.06456,0.913201,0.0112768,-0.00018637,0,
10,2.10268,0.916283,0.0108332,-0.000165477,0,
10,2.1443,0.919423,0.0103519,-0.000143284,0,
10,2.18977,0.922535,0.00982423,-0.00011957,0,
10,2.23946,0.925503,0.00924967,-9.55295e-05,0,
10,2.29376,0.92822,0.00862235,-7.2777e-05,0,
10,2.35309,0.930589,0.00794041,-5.23413e-05,0,
10,2.4179,0.932525,0.00719974,-3.49495e-05,0,
10,2.48863,0.933958,0.00639845,-2.10981e-05,0,
10,2.56575,0.934848,0.00553412,-1.10351e-05,0,
10,2.64971,0.935207,0.00460592,-4.6438e-06,0,
10,2.74098,0.935113,0.00361334,-1.36595e-06,0,
10,2.83997,0.934713,0.00255711,-2.66677e-07,0,
10,2.94709,0.934214,0.0014385,-2.69813e-07,0,
10,3.06269,0.933836,0.000259771,-5.03757e-07,0,
10,3.18706,0.933758,-0.000976204,-5.47838e-07,0,
10,3.3204,0.934063,-0.00226543,-3.98011e-07,0,
10,3.46281,0.934717,-0.00360268,-2.12829e-07,0,
10,3.61427,0.935596,-0.00498094,-9.30612e-08,0,
10,3.77463,0.936545,-0.00639138,-4.15693e-08,0,
10,3.94358,0.93744,-0.00782343,-2.50233e-08,0,
10,4.12067,0.938226,-0.00926524,-2.0065e-08,0,
10,4.30525,0.938915,-0.0107043,-1.82816e-08,0,
10,4.49655,0.939549,-0.0121279,-1.79482e-08,0,
10,4.6936,0.940171,-0.0135237,-1.9176e-08,0,
10,4.89531,0.940794,-0.0148799,-2.3023e-08,0,
10,5.10047,0.941412,-0.0161861,-3.21492e-08,0,
10,5.30776,0.942003,-0.0174327,-5.22663e-08,0,
10,5.51581,0.942549,-0.0186121,-9.52273e-08,0,
10,5.72323,0.943053,-0.0197182,-1.88051e-07,0,
10,5.92863,0.943559,-0.020747,-4.00903e-07,0,
10,6.13069,0.94415,-0.021696,-9.04925e-07,0,
10,6.32816,0.944904,-0.0225656,-1.92847e-06,0,
10,6.51991,0.945742,-0.023356,-2.97171e-06,0,
10,6.70495,0.946194,-0.0240712,-4.01263e-07,0,
10,6.88244,0.945253,-0.0247116,1.51364e-05,0,
10,7.0517,0.941552,-0.0252818,5.72927e-05,0,
10,7.21224,0.93391,-0.0257781,0.00013788,0,
10,7.3637,0.921934,-0.0262092,0.00026337,0,
10,7.5059,0.905921,-0.0265825,0.000373664,0,
10,7.63878,0.886755,-0.0268896,0.000500187,0,
10,7.76243,0.866193,-0.0271452,0.000633114,0,
10,7.87701,0.846035,-0.0273508,0.000758319,0,
10,7.9828,0.827373,-0.027518,0.000864466,0,
10,8.08014,0.810477,-0.0276525,0.000951132,0,
10,8.16941,0.795093,-0.027764,0.00102246,0,
10,8.25106,0.780784,-0.0278575,0.00108264,0,
10,8.32554,0.767125,-0.0279383,0.0011342,0,
10,8.39331,0.753798,-0.0280083,0.00117945,0,
10,8.45484,0.740615,-0.0280689,0.00121952,0,
10,8.5106,0.727496,-0.0281208,0.00125465,0,
10,8.56104,0.714441,-0.0281651,0.00128474,0,
10,8.60659,0.701489,-0.0282029,0.00130974,0,
10,8.64767,0.688693,-0.0282354,0.00132974,0,
10,8.68467,0.676084,-0.0282633,0.00134427,0,
10,8.71795,0.66365,-0.0282875,0.00135001,0,
10,8.74786,0.651368,-0.0283084,0.00135264,0,
10,8.77471,0.639243,-0.028326,0.00135117,0,
10,8.79881,0.627277,-0.0283412,0.00134613,0,
10,8.8204,0.615465,-0.0283541,0.0013381,0,
10,8.83975,0.603798,-0.0283651,0.00132763,0,
10,8.85708,0.592263,-0.0283743,0.00131521,0,
10,8.87259,0.580842,-0.0283822,0.00130128,0,
10,8.88646,0.569515,-0.0283887,0.00128623,0,
10,8.89886,0.558258,-0.0283943,0.00127035,0,
10,8.90995,0.547043,-0.0283989,0.00125392,0,
10,8.91986,0.535842,-0.0284027,0.0012371,0,
10,8.92872,0.524622,-0.0284059,0.00122003,0,
10,8.93663,0.513349,-0.0284085,0.00120276,0,
10,8.94369,0.501986,-0.0284107,0.00118528,0,
10,8.95,0.490494,-0.0284124,0.00116756,0,
10,8.95564,0.478829,-0.0284139,0.00114949,0,
10,8.96067,0.466946,-0.0284151,0.00113087,0,
10,8.96517,0.454793,-0.0284161,0.00111146,0,
10,8.96918,0.442313,-0.0284168,0.00109092,0,
10,8.97276,0.42944,-0.0284176,0.00106884,0,
10,8.97596,0.416102,-0.028418,0.00104467,0,
10,8.97882,0.402214,-0.0284185,0.00101773,0,
10,8.98137,0.387676,-0.0284187,0.000987127,0,
10,8.98365,0.372374,-0.0284192,0.000951748,0,
10,8.98569,0.356171,-0.0284192,0.000910703,0,
10,8.9875,0.338889,-0.0284196,0.000860466,0,
10,8.98913,0.320284,-0.0284195,0.000796751,0,
10,8.99058,0.300112,-0.0284199,0.000720883,0,
10,8.99188,0.2782,-0.0284196,0.000631019,0,
10,8.99304,0.254384,-0.0284201,0.000522499,0,
10,8.99408,0.228442,-0.0284197,0.000384644,0,
10,8.99501,0.200512,-0.0284203,0.000248502,0,
10,8.99583,0.171538,-0.0284198,0.000133815,0,
10,8.99658,0.142879,-0.0284204,5.82539e-05,0,
10,8.99724,0.115786,-0.0284198,2.02896e-05,0,
10,8.99784,0.0909589,-0.0284204,5.60122e-06,0,
10,8.99837,0.0685653,-0.0284198,1.17723e-06,0,
10,8.99885,0.0484869,-0.0284205,1.68785e-07,0,
10,8.99927,0.0305118,-0.0284197,1.28185e-08,0,
10,8.99966,0.0144196,-0.0284207,2.83664e-10,0,
10,0,0,0.0272173,0,0,
10,9,0,-0.0284196,0,0,

0.004,0,0,-0.234218,0,5.09232e-07,
0.00868226,0,0,-0.234238,0,5.00039e-07,
0.014062,0,0,-0.234221,0,6.41163e-07,
0.0201548,0,0,-0.234232,0,2.41921e-06,
0.0269766,0,0,-0.234218,0,5.5959e-06,
0.0345437,0,0,-0.234225,0,1.09701e-05,
0.0428729,0,0,-0.234221,0,1.79954e-05,
0.051981,0,0,-0.234234,0,2.65688e-05,
0.0618853,0,0,-0.234247,0,3.55969e-05,
0.0726036,0,0,-0.234276,0,4.43468e-05,
0.0841536,0,0,-0.23431,0,5.17727e-05,
0.0965535,0,0,-0.234354,0,5.74445e-05,
0.109822,0,0,-0.234402,0,6.10887e-05,
0.123977,0,0,-0.234455,0,6.29034e-05,
0.139037,0,0,-0.234511,0,6.31436e-05,
0.155022,0,0,-0.23457,0,6.21716e-05,
0.171949,0,0,-0.234634,0,6.02386e-05,
0.189839,0,0,-0.234704,0,5.75233e-05,
0.208709,0,0,-0.234782,0,5.41048e-05,
0.228579,0,0,-0.234869,0,5.00409e-05,
0.249467,0,0,-0.234968,0,4.54051e-05,
0.271391,0,0,-0.23508,0,4.03295e-05,
0.29437,0,0,-0.235206,0,3.50051e-05,
0.31842,0,0,-0.235349,0,2.96599e-05,
0.343559,0,0,-0.23551,0,2.45142e-05,
0.369804,0,0,-0.235693,0,1.97286e-05,
0.39717,0,0,-0.235901,0,1.53564e-05,
0.425672,0,0,-0.236138,0,1.13142e-05,
0.455324,0,0,-0.236408,0,7.37818e-06,
0.48614,0,0,-0.236718,0,3.20135e-06,
0.518132,0,0,-0.237073,0,-1.65751e-06,
0.551309,0,0,-0.23748,0,-7.70309e-06,
0.585683,0,0,-0.237944,0,-1.5479e-05,
0.621259,0,0,-0.238473,0,-2.55505e-05,
0.658046,0,0,-0.239073,0,-3.84909e-05,
0.696047,0,0,-0.239751,0,-5.48668e-05,
0.735265,0,0,-0.240512,0,-7.52197e-05,
0.7757,0,0,-0.241359,0,-0.000100045,
0.817352,0,0,-0.242295,0,-0.000129767,
0.860215,0,0,-0.243317,0,-0.000164722,
0.904285,0,0,-0.244422,0,-0.000205136,
0.949552,0,0,-0.245601,0,-0.000251118,
0.996004,0,0,-0.246842,0,-0.00030266,
1.04363,0,0,-0.248129,0,-0.000359631,
1.09241,0,0,-0.24944,0,-0.000421785,
1.14232,0,0,-0.250749,0,-0.000488752,
1.19335,0,0,-0.252029,0,-0.000560046,
1.24546,0,0,-0.253244,0,-0.000635054,
1.29863,0,0,-0.254359,0,-0.000713042,
1.35283,0,0,-0.255337,0,-0.00079317,
1.40802,0,0,-0.25614,0,-0.000874512,
1.46416,0,0,-0.25673,0,-0.000956097,
1.52121,0,0,-0.257074,0,-0.00103695,
1.57913,0,0,-0.257141,0,-0.00111612,
1.63787,0,0,-0.256906,0,-0.00119276,
1.69739,0,0,-0.256349,0,-0.00126612,
1.75761,0,0,-0.255456,0,-0.00133555,
1.81851,0,0,-0.254218,0,-0.00140055,
1.88,0,0,-0.252633,0,-0.00146072,
1.94204,0,0,-0.250701,0,-0.00151577,
2.00457,0,0,-0.24843,0,-0.00156547,
2.06751,0,0,-0.245828,0,-0.00160969,
2.13081,0,0,-0.242909,0,-0.00164836,
2.19439,0,0,-0.239688,0,-0.00168145,
2.25819,0,0,-0.236184,0,-0.00170895,
2.32214,0,0,-0.232417,0,-0.00173092,
2.38617,0,0,-0.228411,0,-0.00174748,
2.4502,0,0,-0.224189,0,-0.00175878,
2.51418,0,0,-0.219777,0,-0.00176503,
2.57803,0,0,-0.215201,0,-0.00176647,
2.64167,0,0,-0.210486,0,-0.00176337,
2.70505,0,0,-0.205659,0,-0.00175601,
2.76808,0,0,-0.200744,0,-0.0017447,
2.83072,0,0,-0.195766,0,-0.00172975,
2.89288,0,0,-0.190748,0,-0.0017115,
2.95451,0,0,-0.185712,0,-0.00169026,
3.01555,0,0,-0.180676,0,-0.00166636,
3.07594,0,0,-0.175661,0,-0.00164009,
3.13561,0,0,-0.170682,0,-0.00161175,
3.19453,0,0,-0.165754,0,-0.00158159,
3.25262,0,0,-0.160893,0,-0.00154989,
3.30985,0,0,-0.156108,0,-0.00151689,
3.36617,0,0,-0.151413,0,-0.00148281,
3.42154,0,0,-0.146814,0,-0.00144788,
3.47591,0,0,-0.142321,0,-0.00141228,
3.52925,0,0,-0.137941,0,-0.00137621,
3.58152,0,0,-0.133678,0,-0.00133983,
3.6327,0,0,-0.129538,0,-0.00130332,
3.68276,0,0,-0.125524,0,-0.00126681,
3.73167,0,0,-0.121638,0,-0.00123046,
3.77941,0,0,-0.117881,0,-0.00119438,
3.82596,0,0,-0.114256,0,-0.00115869,
3.8713,0,0,-0.110761,0,-0.00112348,
3.91543,0,0,-0.107392,0,-0.0010887,
3.95833,0,0,-0.10417,0,-0.00105475,
4,0,0,-0.101053,0,-0.00102127,
4.04167,0,0,-0.0979787,0,-0.000987518,
4.08333,0,0,-0.0949432,0,-0.00095358,
4.125,0,0,-0.0919442,0,-0.000919459,
4.16667,0,0,-0.088983,0,-0.000885136,
4.20833,0,0,-0.0860602,0,-0.000850633,
4.25,0,0,-0.0831764,0,-0.000815973,
4.29167,0,0,-0.0803322,0,-0.000781172,
4.33333,0,0,-0.0775281,0,-0.000746246,
4.375,0,0,-0.0747646,0,-0.000711214,
4.41667,0,0,-0.0720423,0,-0.000676097,
4.45833,0,0,-0.0693616,0,-0.000640922,
4.5,0,0,-0.0667228,0,-0.000605709,
4.54167,0,0,-0.064126,0,-0.000570474,
4.58333,0,0,-0.0615714,0,-0.000535226,
4.625,0,0,-0.0590592,0,-0.000499974,
4.66667,0,0,-0.0565897,0,-0.000464729,
4.70833,0,0,-0.054163,0,-0.000429507,
4.75,0,0,-0.0517794,0,-0.000394328,
4.79167,0,0,-0.0494387,0,-0.000359208,
4.83333,0,0,-0.0471411,0,-0.000324161,
4.875,0,0,-0.0448865,0,-0.000289196,
4.91667,0,0,-0.0426748,0,-0.000254323,
4.95833,0,0,-0.0405061,0,-0.000219555,
5,0,0,-0.0383802,0,-0.000184901,
5.04167,0,0,-0.036297,0,-0.000150374,
5.08333,0,0,-0.0342564,0,-0.000115983,
5.125,0,0,-0.0322583,0,-8.17386e-05,
5.16667,0,0,-0.0303024,0,-4.7654e-05,
5.20833,0,0,-0.0283886,0,-1.37423e-05,
5.25,0,0,-0.0265167,0,1.9985e-05,
5.29167,0,0,-0.0246862,0,5.35183e-05,
5.33333,0,0,-0.022897,0,8.68489e-05,
5.375,0,0,-0.0211487,0,0.000119967,
5.41667,0,0,-0.019441,0,0.000152862,
5.45833,0,0,-0.0177735,0,0.000185525,
5.5,0,0,-0.0161458,0,0.000217948,
5.54167,0,0,-0.0145575,0,0.000250123,
5.58333,0,0,-0.0130083,0,0.000282045,
5.625,0,0,-0.0114976,0,0.000313705,
5.66667,0,0,-0.010025,0,0.000345095,
5.70833,0,0,-0.00859014,0,0.000376209,
5.75,0,0,-0.00719241,0,0.000407043,
5.79167,0,0,-0.00583139,0,0.000437592,
5.83333,0,0,-0.00450658,0,0.000467849,
5.875,0,0,-0.0032175,0,0.00049781,
5.91667,0,0,-0.00196362,0,0.000527469,
5.95833,0,0,-0.000744431,0,0.000556822,
6,0,0,0.000440589,0,0.000585867,
6.04167,0,0,0.00159196,0,0.000614598,
6.08333,0,0,0.0027102,0,0.000643011,
6.125,0,0,0.00379585,0,0.000671103,
6.16667,0,0,0.00484947,0,0.000698868,
6.20833,0,0,0.00587158,0,0.000726306,
6.25,0,0,0.00686274,0,0.000753413,
6.29167,0,0,0.0078235,0,0.000780188,
6.33333,0,0,0.00875438,0,0.000806627,
6.375,0,0,0.00965595,0,0.000832729,
6.41667,0,0,0.0105287,0,0.000858494,
6.45833,0,0,0.0113733,0,0.00088392,
6.5,0,0,0.0121902,0,0.000909007,
6.54167,0,0,0.0129799,0,0.000933755,
6.58333,0,0,0.013743,0,0.000958163,
6.625,0,0,0.01448,0,0.000982228,
6.66667,0,0,0.0151915,0,0.00100595,
6.70833,0,0,0.0158779,0,0.00102934,
6.75,0,0,0.0165398,0,0.00105238,
6.79167,0,0,0.0171777,0,0.00107508,
6.83333,0,0,0.0177921,0,0.00109745,
6.875,0,0,0.0183835,0,0.00111947,
6.91667,0,0,0.0189525,0,0.00114115,
6.95833,0,0,0.0194997,0,0.00116251,
7,0,0,0.0200255,0,0.00118353,
7.04167,0,0,0.0205305,0,0.00120424,
7.08333,0,0,0.0210152,0,0.00122463,
7.125,0,0,0.0214801,0,0.0012447,
7.16667,0,0,0.0219257,0,0.00126445,
7.20833,0,0,0.0223524,0,0.00128388,
7.25,0,0,0.0227607,0,0.00130298,
7.29167,0,0,0.0231511,0,0.00132176,
7.33333,0,0,0.0235242,0,0.0013402,
7.375,0,0,0.0238802,0,0.00135833,
7.41667,0,0,0.0242197,0,0.00137612,
7.45833,0,0,0.0245432,0,0.0013936,
7.5,0,0,0.024851,0,0.00141077,
7.54167,0,0,0.0251435,0,0.00142762,
7.58333,0,0,0.0254212,0,0.00144418,
7.625,0,0,0.0256844,0,0.00146044,
7.66667,0,0,0.0259335,0,0.00147643,
7.70833,0,0,0.0261687,0,0.00149214,
7.75,0,0,0.0263903,0,0.00150759,
7.79167,0,0,0.0265987,0,0.00152278,
7.83333,0,0,0.0267933,0,0.00153769,
7.875,0,0,0.0269745,0,0.00155237,
7.91667,0,0,0.0271521,0,0.00156749,
7.95833,0,0,0.0272525,0,0.00158152,
8,0,0,0.0274586,0,0.00159601,
8.04171,0,0,0.0276972,0,0.00161136,
8.08368,0,0,0.0277936,0,0.00162652,
8.12617,0,0,0.0279342,0,0.00163969,
8.16946,0,0,0.0280649,0,0.00165281,
8.21382,0,0,0.0281794,0,0.0016659,
8.25952,0,0,0.0282866,0,0.00167895,
8.30685,0,0,0.0283859,0,0.00169215,
8.35611,0,0,0.028477,0,0.00170559,
8.40762,0,0,0.0285597,0,0.00171933,
8.46168,0,0,0.0286336,0,0.00173343,
8.51865,0,0,0.0286978,0,0.00174791,
8.57889,0,0,0.0287512,0,0.00176282,
8.64276,0,0,0.0287925,0,0.00177817,
8.71067,0,0,0.02882,0,0.00179399,
8.78306,0,0,0.028832,0,0.00181029,
8.86037,0,0,0.028826,0,0.00182708,
8.94309,0,0,0.0287999,0,0.00184436,
9.03174,0,0,0.028751,0,0.00186214,
9.12689,0,0,0.0286762,0,0.00188039,
9.22912,0,0,0.0285727,0,0.0018991,
9.33908,0,0,0.0284369,0,0.00191825,
9.45746,0,0,0.0282649,0,0.00193777,
9.58501,0,0,0.0280533,0,0.0019576,
9.72253,0,0,0.0277993,0,0.00197766,
9.87088,0,0,0.0274996,0,0.0019979,
10.031,0,0,0.0271496,0,0.00201823,
10.2039,0,0,0.0267476,0,0.00203853,
10.3906,0,0,0.026292,0,0.00205872,
10.5924,0,0,0.0257788,0,0.00207868,
10.8105,0,0,0.0252094,0,0.0020983,
11.0463,0,0,0.0245837,0,0.00211747,
11.3012,0,0,0.0239017,0,0.00213608,
11.5769,0,0,0.0231661,0,0.002154,
11.8751,0,0,0.0223815,0,0.00217113,
12.1977,0,0,0.0215523,0,0.00218735,
12.5466,0,0,0.0206854,0,0.00220261,
12.9242,0,0,0.0197901,0,0.00221716,
13.3327,0,0,0.0188736,0,0.00223167,
13.7748,0,0,0.0179478,0,0.00224668,
14.2532,0,0,0.0170212,0,0.00226268,
14.7709,0,0,0.0161009,0,0.00227879,
15.3312,0,0,0.0151981,0,0.00229413,
15.9377,0,0,0.014324,0,0.00230767,
16.594,0,0,0.0134874,0,0.00231881,
17.3044,0,0,0.0126968,0,0.00232822,
18.0733,0,0,0.0119598,0,0.00233626,
18.9056,0,0,0.0112799,0,0.00234327,
19.8064,0,0,0.0106557,0,0.00234989,
20.7816,0,0,0.0100834,0,0.00235685,
21.8371,0,0,0.0095581,0,0.00236396,
22.9796,0,0,0.00906943,0,0.00237116,
24.2163,0,0,0.00860428,0,0.0023785,
25.5551,0,0,0.00814977,0,0.00238605,
27.0042,0,0,0.00769103,0,0.00239343,
28.5729,0,0,0.00721509,0,0.00239951,
30.271,0,0,0.00670731,0,0.00240506,
32.1091,0,0,0.00615241,0,0.00241085,
34.0989,0,0,0.00553695,0,0.00241781,
36.2529,0,0,0.00484347,0,0.00242765,
38.5845,0,0,0.00406241,0,0.00243898,
41.1085,0,0,0.00323814,0,0.00245083,
43.8407,0,0,0.00219899,0,0.00245943,
46.7983,0,0,0.00113132,0,0.00246113,
50,0,0,0.00236984,0,0.00247338,

