33649d1a6b3f917ab67108d9622aa1aacb2daf95 
X,Z,x_velocity,cp,uw_b,cf,
1,0,0,-0.227756,0,0,
1,9,0,-0.129388,0,0,
1,8.99969,0.01538,-0.129387,2.84558e-10,0,
1,8.99934,0.0328289,-0.129387,1.33011e-08,0,
1,8.99894,0.052643,-0.129387,1.83483e-07,0,
1,8.99848,0.0751359,-0.129387,1.34514e-06,0,
1,8.99797,0.10062,-0.129387,6.72389e-06,0,
1,8.99739,0.129292,-0.129387,2.54559e-05,0,
1,8.99672,0.160961,-0.129387,7.54433e-05,0,
1,8.99597,0.194693,-0.129387,0.000175492,0,
1,8.99512,0.22884,-0.129387,0.000323676,0,
1,8.99416,0.261748,-0.129387,0.000491578,0,
1,8.99306,0.292438,-0.129387,0.00064977,0,
1,8.99182,0.320733,-0.129386,0.000777281,0,
1,8.99041,0.346772,-0.129386,0.00088282,0,
1,8.98881,0.370715,-0.129386,0.000970005,0,
1,8.98699,0.392779,-0.129385,0.00104117,0,
1,8.98494,0.413253,-0.129384,0.00109709,0,
1,8.98261,0.432447,-0.129383,0.00113995,0,
1,8.97996,0.4506,-0.129382,0.00117586,0,
1,8.97696,0.467884,-0.129381,0.00120563,0,
1,8.97356,0.484441,-0.12938,0.00123054,0,
1,8.9697,0.500389,-0.129378,0.00125154,0,
1,8.96533,0.515827,-0.129376,0.00126936,0,
1,8.96038,0.530838,-0.129374,0.0012845,0,
1,8.95476,0.545491,-0.129372,0.00129733,0,
1,8.9484,0.559846,-0.12937,0.00130811,0,
1,8.9412,0.573953,-0.129367,0.00131701,0,
1,8.93303,0.587855,-0.129364,0.00132414,0,
1,8.92379,0.60159,-0.129361,0.00132955,0,
1,8.91333,0.615189,-0.129357,0.00133324,0,
1,8.90149,0.628679,-0.129354,0.00133519,0,
1,8.8881,0.642086,-0.129351,0.00133534,0,
1,8.87295,0.65543,-0.129348,0.00133362,0,
1,8.85584,0.668732,-0.129345,0.00132993,0,
1,8.83651,0.682011,-0.129344,0.00132415,0,
1,8.81469,0.695286,-0.129343,0.00131617,0,
1,8.79007,0.708577,-0.129345,0.00130581,0,
1,8.76232,0.721904,-0.129348,0.0012929,0,
1,8.73107,0.735294,-0.129355,0.00127721,0,
1,8.69591,0.748776,-0.129367,0.00125846,0,
1,8.6564,0.762387,-0.129385,0.00123631,0,
1,8.61206,0.776171,-0.12941,0.00121033,0,
1,8.56236,0.790186,-0.129445,0.0011802,0,
1,8.50675,0.804508,-0.129494,0.00114692,0,
1,8.44464,0.819274,-0.129559,0.00110705,0,
1,8.3754,0.834703,-0.129645,0.00105559,0,
1,8.29839,0.851045,-0.129758,0.000992422,0,
1,8.21296,0.868546,-0.129905,0.000913057,0,
1,8.11843,0.8874,-0.13009,0.000812251,0,
1,8.01417,0.907603,-0.130329,0.000686569,0,
1,7.89956,0.928712,-0.130618,0.000539481,0,
1,7.77403,0.949601,-0.130994,0.000389467,0,
1,7.63711,0.968658,-0.131444,0.000205547,0,
1,7.48842,0.983557,-0.131977,7.62985e-05,0,
1,7.32773,0.992363,-0.132616,1.83278e-05,0,
1,7.15495,0.995557,-0.133359,1.82331e-06,0,
1,6.97022,0.995619,-0.134221,2.43864e-08,0,
1,6.77388,0.995002,-0.135216,3.81246e-09,0,
1,6.56652,0.994886,-0.136361,9.79454e-09,0,
1,6.34896,0.995341,-0.137669,1.2526e-08,0,
1,6.12229,0.996071,-0.139155,1.41278e-08,0,
1,5.88784,0.996874,-0.140832,1.4984e-08,0,
1,5.64716,0.997713,-0.142714,1.59651e-08,0,
1,5.40194,0.99862,-0.144811,1.73308e-08,0,
1,5.15407,0.999621,-0.147131,1.90707e-08,0,
1,4.90545,1.00073,-0.149676,2.09033e-08,0,
1,4.65805,1.00194,-0.152445,2.28581e-08,0,
1,4.41376,1.00325,-0.15543,2.49063e-08,0,
1,4.17441,1.00464,-0.158619,2.68194e-08,0,
1,3.94163,1.00607,-0.161992,2.84321e-08,0,
1,3.7169,1.00747,-0.165522,3.03513e-08,0,
1,3.50146,1.00893,-0.169177,3.45236e-08,0,
1,3.29629,1.01075,-0.172923,4.29784e-08,0,
1,3.10217,1.0133,-0.176729,5.3908e-08,0,
1,2.91959,1.01639,-0.180564,9.81205e-08,0,
1,2.74885,1.01858,-0.184386,9.81072e-07,0,
1,2.59002,1.01746,-0.18813,-5.90348e-06,0,
1,2.44299,1.01131,-0.191729,-5.14987e-05,0,
1,2.30752,1.00031,-0.195117,-0.000148686,0,
1,2.18321,0.985921,-0.198232,-0.000283765,0,
1,2.06959,0.969712,-0.201105,-0.000400776,0,
1,1.9661,0.952958,-0.203716,-0.000502213,0,
1,1.87215,0.93659,-0.206029,-0.00059688,0,
1,1.78711,0.921118,-0.208082,-0.000680276,0,
1,1.71033,0.906702,-0.209892,-0.000752311,0,
1,1.64119,0.89331,-0.21148,-0.000814508,0,
1,1.57905,0.880832,-0.212868,-0.000869062,0,
1,1.52332,0.869137,-0.214077,-0.00091804,0,
1,1.47342,0.858117,-0.215134,-0.000963728,0,
1,1.42882,0.847686,-0.216036,-0.000998366,0,
1,1.389,0.837766,-0.216798,-0.00102293,0,
1,1.35351,0.828289,-0.217457,-0.0010459,0,
1,1.3219,0.819219,-0.21802,-0.00106657,0,
1,1.29378,0.810537,-0.218504,-0.00108465,0,
1,1.26878,0.802231,-0.218917,-0.00110016,0,
1,1.24659,0.794297,-0.219271,-0.00111344,0,
1,1.22689,0.786729,-0.219574,-0.00112457,0,
1,1.2092,0.77944,-0.219836,-0.00113252,0,
1,1.1932,0.772379,-0.220063,-0.001138,0,
1,1.1787,0.765532,-0.220261,-0.00114177,0,
1,1.16554,0.758876,-0.220433,-0.0011449,0,
1,1.15357,0.752378,-0.220582,-0.00114968,0,
1,1.14266,0.745986,-0.220711,-0.00115983,0,
1,1.13268,0.739626,-0.220823,-0.0011803,0,
1,1.12354,0.733191,-0.220921,-0.00121785,0,
1,1.11514,0.726546,-0.221009,-0.00128061,0,
1,1.10739,0.719521,-0.22109,-0.00137748,0,
1,1.10022,0.71193,-0.22117,-0.00151709,0,
1,1.09357,0.703594,-0.22125,-0.00170622,0,
1,1.08738,0.694379,-0.221336,-0.001948,0,
1,1.0816,0.684238,-0.221427,-0.00224036,0,
1,1.07618,0.673231,-0.221526,-0.00257546,0,
1,1.07107,0.661504,-0.221631,-0.00294101,0,
1,1.06626,0.649257,-0.221742,-0.00332277,0,
1,1.06169,0.6367,-0.221857,-0.00370729,0,
1,1.05735,0.624019,-0.221975,-0.00408365,0,
1,1.05321,0.611363,-0.222095,-0.00444404,0,
1,1.04925,0.598842,-0.222216,-0.00478353,0,
1,1.04544,0.586531,-0.222337,-0.00509945,0,
1,1.04177,0.574477,-0.222458,-0.00539075,0,
1,1.03822,0.562707,-0.222578,-0.00565745,0,
1,1.03478,0.551233,-0.222698,-0.00590022,0,
1,1.03144,0.540056,-0.222817,-0.00612015,0,
1,1.02818,0.529171,-0.222935,-0.00631846,0,
1,1.025,0.518569,-0.223051,-0.00649648,0,
1,1.02188,0.508237,-0.223166,-0.00665551,0,
1,1.01882,0.498162,-0.22328,-0.0067968,0,
1,1.01581,0.488332,-0.223393,-0.00692166,0,
1,1.01284,0.478731,-0.223505,-0.00703065,0,
1,1.00988,0.469244,-0.223617,-0.00712587,0,
1,1.00688,0.459759,-0.223731,-0.00720988,0,
1,1.00384,0.450266,-0.223845,-0.00728182,0,
1,1.00076,0.440749,-0.223962,-0.00734163,0,
1,0.997615,0.43119,-0.224079,-0.00738927,0,
1,0.99441,0.421565,-0.224197,-0.00742462,0,
1,0.991131,0.411852,-0.224317,-0.00744789,0,
1,0.987768,0.402022,-0.224438,-0.00745886,0,
1,0.984308,0.392047,-0.22456,-0.00745724,0,
1,0.980739,0.381897,-0.224685,-0.00744256,0,
1,0.977045,0.371537,-0.224811,-0.00741425,0,
1,0.973211,0.360931,-0.22494,-0.00737154,0,
1,0.969219,0.350038,-0.225071,-0.0073135,0,
1,0.965047,0.338815,-0.225204,-0.00723899,0,
1,0.960675,0.327212,-0.22534,-0.00714667,0,
1,0.956077,0.315176,-0.225478,-0.00703421,0,
1,0.951224,0.302647,-0.22562,-0.00689998,0,
1,0.946088,0.289566,-0.225764,-0.00674175,0,
1,0.940633,0.275877,-0.225913,-0.006557,0,
1,0.934823,0.261531,-0.226065,-0.0063445,0,
1,0.928616,0.246488,-0.226222,-0.00610117,0,
1,0.921967,0.230717,-0.226382,-0.00582412,0,
1,0.914826,0.214197,-0.226545,-0.00551099,0,
1,0.907141,0.196921,-0.226711,-0.00515984,0,
1,0.898852,0.178906,-0.226879,-0.0047695,0,
1,0.889898,0.160199,-0.227048,-0.00433998,0,
1,0.880212,0.140898,-0.227218,-0.0038732,0,
1,0.869723,0.121173,-0.227387,-0.00337394,0,
1,0.858358,0.101302,-0.227557,-0.00285156,0,
1,0.846039,0.0817255,-0.227729,-0.00232264,0,
1,0.83269,0.0630969,-0.227906,-0.00181386,0,
1,0.818232,0.0462708,-0.228089,-0.00136423,0,
1,0.802744,0.0321836,-0.22827,-0.00100731,0,
1,0.78635,0.0212349,-0.228455,-0.000747778,0,
1,0.768969,0.0130106,-0.228635,-0.000572203,0,
1,0.75053,0.00676212,-0.228808,-0.000462007,0,
1,0.730977,0.00176313,-0.228962,-0.000398865,0,
1,0.710271,-0.00252993,-0.229097,-0.000366934,0,
1,0.688397,-0.00647083,-0.22921,-0.000354204,0,
1,0.66536,-0.0102701,-0.229304,-0.00035333,0,
1,0.641194,-0.0140584,-0.22938,-0.000356443,0,
1,0.615961,-0.0179147,-0.229436,-0.000359706,0,
1,0.589754,-0.0218718,-0.229474,-0.000360231,0,
1,0.562692,-0.0259266,-0.229492,-0.000356414,0,
1,0.534925,-0.0300491,-0.229488,-0.000347593,0,
1,0.506624,-0.0341909,-0.229461,-0.000333718,0,
1,0.477982,-0.0382918,-0.22941,-0.000315132,0,
1,0.449206,-0.0422869,-0.229334,-0.000292398,0,
1,0.420509,-0.0461097,-0.229235,-0.000266195,0,
1,0.392107,-0.0496961,-0.229113,-0.000237259,0,
1,0.364206,-0.0529853,-0.228974,-0.000206326,0,
1,0.337003,-0.0559209,-0.22882,-0.000174102,0,
1,0.310673,-0.0584515,-0.228656,-0.000141227,0,
1,0.28537,-0.06053,-0.228489,-0.000108246,0,
1,0.26122,-0.0621135,-0.228324,-7.56232e-05,0,
1,0.238324,-0.0631625,-0.228166,-4.37513e-05,0,
1,0.21675,-0.0636416,-0.22802,-1.29824e-05,0,
1,0.196544,-0.0635205,-0.227889,1.63225e-05,0,
1,0.177724,-0.062776,-0.227778,4.37436e-05,0,
1,0.160284,-0.0613967,-0.227688,6.87756e-05,0,
1,0.144202,-0.0593868,-0.227619,9.08425e-05,0,
1,0.129436,-0.0567716,-0.227572,0.000109357,0,
1,0.115935,-0.0535996,-0.227543,0.000123813,0,
1,0.103636,-0.049943,-0.227531,0.000133864,0,
1,0.0924701,-0.0458941,-0.227532,0.000139382,0,
1,0.0823633,-0.0415588,-0.227544,0.000140492,0,
1,0.0732406,-0.0370488,-0.227563,0.000137558,0,
1,0.0650269,-0.0324726,-0.227586,0.000131115,0,
1,0.057648,-0.0279277,-0.227611,0.000121798,0,
1,0.0510323,-0.0234952,-0.227636,0.000110268,0,
1,0.0451115,-0.019236,-0.227659,9.71625e-05,0,
1,0.0398209,-0.0151913,-0.227681,8.30573e-05,0,
1,0.0351001,-0.0113855,-0.227699,6.84669e-05,0,
1,0.0308929,-0.00783286,-0.227715,5.38759e-05,0,
1,0.0271475,-0.00454782,-0.227727,3.98267e-05,0,
1,0.0238164,-0.00155837,-0.227737,2.70428e-05,0,
1,0.0208562,0.00108048,-0.227743,1.65068e-05,0,
1,0.0182274,0.00328905,-0.227748,8.74683e-06,0,
1,0.0158944,0.00499015,-0.227751,3.8995e-06,0,
1,0.0138249,0.00614866,-0.227752,1.41378e-06,0,
1,0.0119898,0.00679607,-0.227753,3.75738e-07,0,
1,0.0103632,0.00701693,-0.227754,3.14772e-08,0,
1,0.00892169,0.00691459,-0.227755,-4.62153e-08,0,
1,0.00764438,0.00658496,-0.227755,-4.39732e-08,0,
1,0.00651264,0.00610551,-0.227755,-2.74607e-08,0,
1,0.00550983,0.00553482,-0.227756,-1.43036e-08,0,
1,0.00462115,0.0049155,-0.227756,-6.58555e-09,0,
1,0.00383341,0.00427798,-0.227756,-2.72012e-09,0,
1,0.0031349,0.0036434,-0.227756,-1.00306e-09,0,
1,0.00251518,0.00302616,-0.227756,-3.23627e-10,0,
1,0.00196502,0.00243555,-0.227756,-8.78659e-11,0,
1,0.00147619,0.00187724,-0.227756,-1.8728e-11,0,
1,0.00104139,0.00135416,-0.227756,-2.75541e-12,0,
1,0.000654158,0.000867358,-0.227756,-2.15386e-13,0,
1,0.000308731,0.00041648,-0.227756,-4.91067e-15,0,

4,0,0,-0.156674,0,0,
4,9,0,-0.0987412,0,0,
4,8.99969,0.0142505,-0.0987408,2.23315e-10,0,
4,8.99934,0.0303615,-0.0987411,1.03608e-08,0,
4,8.99894,0.0485948,-0.0987408,1.41477e-07,0,
4,8.9985,0.0692266,-0.098741,1.02691e-06,0,
4,8.99799,0.0925383,-0.0987408,5.09718e-06,0,
4,8.99742,0.118733,-0.0987409,1.93012e-05,0,
4,8.99677,0.147726,-0.0987407,5.79301e-05,0,
4,8.99605,0.178841,-0.0987408,0.000138445,0,
4,8.99522,0.210725,-0.0987405,0.000264743,0,
4,8.99429,0.241837,-0.0987405,0.000416678,0,
4,8.99324,0.271111,-0.0987401,0.000566334,0,
4,8.99205,0.298165,-0.0987399,0.000695842,0,
4,8.9907,0.323076,-0.0987394,0.0007999,0,
4,8.98919,0.346017,-0.098739,0.000887594,0,
4,8.98747,0.367174,-0.0987382,0.000960553,0,
4,8.98553,0.386817,-0.0987375,0.00101796,0,
4,8.98334,0.405226,-0.0987365,0.00106425,0,
4,8.98087,0.422617,-0.0987353,0.00110334,0,
4,8.97807,0.43916,-0.0987339,0.00113652,0,
4,8.97491,0.454997,-0.0987323,0.0011651,0,
4,8.97134,0.470245,-0.0987304,0.00119004,0,
4,8.96731,0.485005,-0.0987281,0.00121207,0,
4,8.96276,0.499362,-0.0987255,0.00123171,0,
4,8.95762,0.513389,-0.0987225,0.00124934,0,
4,8.95182,0.527147,-0.0987191,0.0012652,0,
4,8.94526,0.54069,-0.0987152,0.00127945,0,
4,8.93787,0.554064,-0.0987109,0.00129216,0,
4,8.92952,0.567308,-0.098706,0.00130333,0,
4,8.92011,0.580458,-0.0987005,0.00131292,0,
4,8.90949,0.593541,-0.0986945,0.00132083,0,
4,8.89751,0.606582,-0.0986879,0.00132695,0,
4,8.88402,0.619604,-0.0986808,0.0013311,0,
4,8.86881,0.632623,-0.0986732,0.00133314,0,
4,8.85169,0.645655,-0.0986655,0.00133286,0,
4,8.83242,0.658713,-0.0986576,0.00133009,0,
4,8.81074,0.671808,-0.0986497,0.00132464,0,
4,8.78637,0.684952,-0.0986421,0.00131632,0,
4,8.75901,0.698157,-0.0986352,0.00130496,0,
4,8.7283,0.711439,-0.0986295,0.00129035,0,
4,8.69387,0.724816,-0.0986255,0.00127229,0,
4,8.65533,0.738311,-0.0986244,0.00125054,0,
4,8.61222,0.751957,-0.0986268,0.00122478,0,
4,8.56407,0.765793,-0.0986345,0.00119462,0,
4,8.5104,0.779875,-0.0986483,0.00115979,0,
4,8.45065,0.794275,-0.0986719,0.00112204,0,
4,8.38429,0.809147,-0.098708,0.00107491,0,
4,8.31073,0.824727,-0.0987583,0.0010176,0,
4,8.22941,0.84128,-0.0988275,0.00094732,0,
4,8.13974,0.859071,-0.0989183,0.000859692,0,
4,8.04115,0.878276,-0.0990331,0.000751088,0,
4,7.93313,0.898783,-0.0991772,0.000621782,0,
4,7.81519,0.91989,-0.099343,0.000480876,0,
4,7.68693,0.940132,-0.0995546,0.000345807,0,
4,7.54803,0.957613,-0.0997942,0.000203951,0,
4,7.39831,0.97044,-0.10008,8.97637e-05,0,
4,7.23771,0.977726,-0.100428,2.77428e-05,0,
4,7.06634,0.980411,-0.100827,4.56809e-06,0,
4,6.88453,0.980555,-0.10128,-1.02962e-08,0,
4,6.69275,0.980004,-0.101788,-9.77532e-08,0,
4,6.49173,0.979692,-0.10236,2.01843e-08,0,
4,6.28238,0.979773,-0.103003,2.44041e-08,0,
4,6.06579,0.980085,-0.103726,1.40752e-08,0,
4,5.84328,0.980471,-0.104534,9.47996e-09,0,
4,5.61626,0.980867,-0.105434,8.26204e-09,0,
4,5.3863,0.981274,-0.106428,8.32822e-09,0,
4,5.15502,0.981709,-0.107522,8.91367e-09,0,
4,4.92406,0.982184,-0.108716,9.76978e-09,0,
4,4.69507,0.982711,-0.11001,1.07967e-08,0,
4,4.46961,0.983294,-0.111404,1.18492e-08,0,
4,4.24915,0.983916,-0.112894,1.26134e-08,0,
4,4.03501,0.984521,-0.114474,1.28142e-08,0,
4,3.82836,0.985042,-0.116137,1.27082e-08,0,
4,3.63018,0.985481,-0.117872,1.36865e-08,0,
4,3.44125,0.986017,-0.119666,1.86836e-08,0,
4,3.26217,0.987009,-0.121509,6.41016e-08,0,
4,3.09333,0.98875,-0.123386,5.66236e-07,0,
4,2.93497,0.99106,-0.12528,2.64851e-06,0,
4,2.78715,0.993088,-0.127176,5.11892e-06,0,
4,2.64979,0.993657,-0.129055,4.78482e-07,0,
4,2.52268,0.991838,-0.130895,-2.10596e-05,0,
4,2.40551,0.987305,-0.132675,-6.46739e-05,0,
4,2.29789,0.980304,-0.134374,-0.000128956,0,
4,2.19939,0.971424,-0.135977,-0.00020777,0,
4,2.10949,0.961359,-0.137476,-0.000293224,0,
4,2.02768,0.950737,-0.138866,-0.000377796,0,
4,1.95343,0.94007,-0.140148,-0.000455338,0,
4,1.88618,0.929735,-0.141321,-0.000523283,0,
4,1.82542,0.919927,-0.142398,-0.000572589,0,
4,1.77062,0.910703,-0.143382,-0.000611672,0,
4,1.72128,0.902109,-0.14427,-0.000646824,0,
4,1.67693,0.894174,-0.145074,-0.000678144,0,
4,1.63713,0.886898,-0.145798,-0.000705997,0,
4,1.60144,0.880261,-0.146451,-0.000730751,0,
4,1.56949,0.874231,-0.147037,-0.000752807,0,
4,1.54091,0.86877,-0.147563,-0.000772647,0,
4,1.51537,0.863825,-0.148035,-0.000790607,0,
4,1.49167,0.8592,-0.148472,-0.000807148,0,
4,1.46926,0.854805,-0.148886,-0.000822774,0,
4,1.44801,0.85061,-0.149286,-0.00083533,0,
4,1.42781,0.846575,-0.149674,-0.000841863,0,
4,1.40855,0.842671,-0.150043,-0.000848302,0,
4,1.39015,0.838883,-0.150399,-0.000853421,0,
4,1.37252,0.835195,-0.15074,-0.000857572,0,
4,1.3556,0.831592,-0.15107,-0.000861263,0,
4,1.3393,0.828056,-0.151388,-0.000865057,0,
4,1.32357,0.824569,-0.151696,-0.000869882,0,
4,1.30836,0.82111,-0.151995,-0.000876486,0,
4,1.29362,0.817659,-0.152286,-0.000885916,0,
4,1.2793,0.814187,-0.15257,-0.00089949,0,
4,1.26537,0.810664,-0.152846,-0.000918838,0,
4,1.25179,0.807052,-0.153117,-0.000945939,0,
4,1.23852,0.803306,-0.153381,-0.000983142,0,
4,1.22554,0.799374,-0.15364,-0.00103316,0,
4,1.21282,0.795196,-0.153894,-0.00109905,0,
4,1.20034,0.790702,-0.154142,-0.00118403,0,
4,1.18806,0.785819,-0.154385,-0.00129134,0,
4,1.17599,0.780473,-0.154624,-0.00142389,0,
4,1.16408,0.774596,-0.154857,-0.00158388,0,
4,1.15233,0.768131,-0.155084,-0.0017724,0,
4,1.14073,0.761044,-0.155307,-0.00198917,0,
4,1.12925,0.753325,-0.155525,-0.00223233,0,
4,1.11788,0.744988,-0.155738,-0.00249858,0,
4,1.10661,0.736071,-0.155946,-0.00278347,0,
4,1.09543,0.726629,-0.156149,-0.00308181,0,
4,1.08432,0.716726,-0.156348,-0.0033882,0,
4,1.07328,0.706431,-0.156544,-0.00369734,0,
4,1.0623,0.695813,-0.156735,-0.00400445,0,
4,1.05136,0.684935,-0.156922,-0.00430527,0,
4,1.04044,0.673837,-0.157106,-0.00459643,0,
4,1.0295,0.66255,-0.157287,-0.00487531,0,
4,1.01855,0.651119,-0.157465,-0.00513942,0,
4,1.00757,0.63958,-0.15764,-0.00538646,0,
4,0.996544,0.627966,-0.157813,-0.00561494,0,
4,0.98547,0.616307,-0.157981,-0.00582293,0,
4,0.974334,0.604626,-0.158148,-0.00600918,0,
4,0.963124,0.592944,-0.15831,-0.00617249,0,
4,0.951826,0.581282,-0.158475,-0.00631854,0,
4,0.940428,0.56963,-0.158621,-0.00646024,0,
4,0.928915,0.557867,-0.158728,-0.00654692,0,
4,0.917272,0.545835,-0.158824,-0.0066403,0,
4,0.905481,0.533446,-0.158915,-0.00674119,0,
4,0.893524,0.520648,-0.159005,-0.00684993,0,
4,0.881383,0.507399,-0.159097,-0.00696665,0,
4,0.869035,0.493663,-0.159192,-0.00709122,0,
4,0.856459,0.479408,-0.159291,-0.00722331,0,
4,0.843629,0.464604,-0.159393,-0.0073624,0,
4,0.830518,0.449226,-0.159499,-0.00750782,0,
4,0.817097,0.433253,-0.159608,-0.00765874,0,
4,0.803334,0.416668,-0.159719,-0.0078142,0,
4,0.789195,0.399458,-0.159831,-0.00797311,0,
4,0.774643,0.381614,-0.159944,-0.00813414,0,
4,0.759639,0.363132,-0.160057,-0.00829571,0,
4,0.744138,0.344015,-0.160171,-0.00845586,0,
4,0.728096,0.324279,-0.160286,-0.0086121,0,
4,0.711463,0.303956,-0.160403,-0.00876146,0,
4,0.694189,0.283095,-0.160523,-0.00890015,0,
4,0.676218,0.261757,-0.160646,-0.00902313,0,
4,0.657495,0.240006,-0.160772,-0.00912511,0,
4,0.637962,0.217901,-0.1609,-0.0092013,0,
4,0.617561,0.195481,-0.161023,-0.00924786,0,
4,0.596848,0.173381,-0.161134,-0.00926076,0,
4,0.576557,0.152343,-0.16123,-0.00923925,0,
4,0.556564,0.132235,-0.161311,-0.00918499,0,
4,0.536763,0.112963,-0.161385,-0.00909899,0,
4,0.517057,0.0945043,-0.16147,-0.00898203,0,
4,0.497368,0.0769251,-0.161594,-0.00883593,0,
4,0.477632,0.0603652,-0.161787,-0.00866472,0,
4,0.457804,0.0449655,-0.162051,-0.00847596,0,
4,0.437857,0.030737,-0.16236,-0.0082804,0,
4,0.417786,0.017398,-0.162388,-0.00797606,0,
4,0.397605,0.0045498,-0.162189,-0.00759291,0,
4,0.377348,-0.00798551,-0.162035,-0.00726103,0,
4,0.357066,-0.0201903,-0.161866,-0.0069114,0,
4,0.336828,-0.0320285,-0.161686,-0.00655567,0,
4,0.316717,-0.0434402,-0.161494,-0.00619582,0,
4,0.296825,-0.0543615,-0.161292,-0.00583129,0,
4,0.27725,-0.0647392,-0.161081,-0.00546361,0,
4,0.258095,-0.0745338,-0.160861,-0.00509518,0,
4,0.239458,-0.0837198,-0.160635,-0.00472874,0,
4,0.221432,-0.0922842,-0.160403,-0.00436709,0,
4,0.2041,-0.100226,-0.160167,-0.00401291,0,
4,0.187537,-0.107553,-0.159928,-0.00366868,0,
4,0.171798,-0.114282,-0.159688,-0.00333657,0,
4,0.156928,-0.120436,-0.15945,-0.00301841,0,
4,0.142956,-0.126041,-0.159215,-0.00271564,0,
4,0.129894,-0.131127,-0.158986,-0.00242931,0,
4,0.117744,-0.135725,-0.158764,-0.0021601,0,
4,0.106492,-0.139868,-0.158552,-0.00190835,0,
4,0.0961173,-0.143584,-0.15835,-0.00167408,0,
4,0.0865883,-0.146904,-0.15816,-0.00145705,0,
4,0.0778675,-0.149855,-0.157984,-0.00125682,0,
4,0.0699123,-0.152462,-0.157821,-0.00107275,0,
4,0.062677,-0.154747,-0.157671,-0.000904105,0,
4,0.056114,-0.156731,-0.157536,-0.000750036,0,
4,0.0501747,-0.15843,-0.157414,-0.000609657,0,
4,0.0448114,-0.159858,-0.157304,-0.000482055,0,
4,0.039977,-0.161026,-0.157207,-0.000366321,0,
4,0.0356266,-0.161941,-0.157122,-0.000261573,0,
4,0.0317171,-0.162606,-0.157047,-0.000166972,0,
4,0.0282081,-0.163022,-0.156982,-8.17397e-05,0,
4,0.0250617,-0.16318,-0.156925,-5.18128e-06,0,
4,0.0222427,-0.163067,-0.156877,6.32965e-05,0,
4,0.0197189,-0.16266,-0.156836,0.000124152,0,
4,0.0174603,-0.161926,-0.156801,0.00017766,0,
4,0.0154398,-0.160812,-0.156772,0.000223837,0,
4,0.0136326,-0.159245,-0.156748,0.00026231,0,
4,0.0120162,-0.157115,-0.156728,0.000292118,0,
4,0.0105703,-0.154269,-0.156713,0.000311425,0,
4,0.00927657,-0.150488,-0.156701,0.000317237,0,
4,0.00811839,-0.145485,-0.156692,0.00030553,0,
4,0.0070809,-0.138922,-0.156686,0.000272765,0,
4,0.0061507,-0.130508,-0.156682,0.000219672,0,
4,0.00531578,-0.120182,-0.15668,0.000155207,0,
4,0.00456537,-0.108288,-0.156678,9.44934e-05,0,
4,0.00388979,-0.0955109,-0.156678,4.94861e-05,0,
4,0.00328037,-0.0825758,-0.156677,2.25021e-05,0,
4,0.00272934,-0.0699994,-0.156677,8.95017e-06,0,
4,0.0022297,-0.0580447,-0.156676,3.09293e-06,0,
4,0.00177519,-0.046799,-0.156677,9.01307e-07,0,
4,0.00136016,-0.0362569,-0.156675,2.07579e-07,0,
4,0.000979511,-0.0263717,-0.156677,3.32511e-08,0,
4,0.00062865,-0.0170801,-0.156675,2.83774e-09,0,
4,0.000303409,-0.00831373,-0.156677,6.91643e-11,0,

6,0,0,-0.0178735,0,0,
6,9,0,-0.0746912,0,0,
6,8.99969,0.0135055,-0.0746909,1.8605e-10,0,
6,8.99934,0.0287355,-0.0746912,8.58668e-09,0,
6,8.99895,0.0459277,-0.0746909,1.16417e-07,0,
6,8.9985,0.065333,-0.0746911,8.39015e-07,0,
6,8.99801,0.0872097,-0.0746909,4.14214e-06,0,
6,8.99744,0.111758,-0.074691,1.5671e-05,0,
6,8.99681,0.13895,-0.0746908,4.73766e-05,0,
6,8.99609,0.168263,-0.0746909,0.000115215,0,
6,8.99529,0.198547,-0.0746907,0.000225902,0,
6,8.99438,0.228373,-0.0746906,0.000364973,0,
6,8.99336,0.25664,-0.0746903,0.000506932,0,
6,8.9922,0.28285,-0.0746902,0.000634414,0,
6,8.9909,0.307003,-0.0746898,0.000737689,0,
6,8.98944,0.329258,-0.0746894,0.000824502,0,
6,8.98779,0.349786,-0.0746888,0.000897523,0,
6,8.98593,0.368836,-0.0746882,0.000955339,0,
6,8.98383,0.386665,-0.0746873,0.0010028,0,
6,8.98147,0.403482,-0.0746864,0.00104299,0,
6,8.97881,0.41945,-0.0746851,0.00107742,0,
6,8.97581,0.43471,-0.0746837,0.00110739,0,
6,8.97244,0.449381,-0.074682,0.00113393,0,
6,8.96863,0.463563,-0.0746801,0.00115778,0,
6,8.96435,0.477342,-0.0746777,0.0011795,0,
6,8.95953,0.490792,-0.0746749,0.00119949,0,
6,8.95409,0.503978,-0.0746717,0.00121803,0,
6,8.94798,0.516955,-0.074668,0.00123528,0,
6,8.94109,0.529773,-0.0746637,0.00125135,0,
6,8.93334,0.542475,-0.0746587,0.00126625,0,
6,8.92463,0.5551,-0.074653,0.00127993,0,
6,8.91482,0.567679,-0.0746466,0.00129227,0,
6,8.90379,0.580242,-0.0746392,0.00130314,0,
6,8.89139,0.592813,-0.074631,0.00131233,0,
6,8.87746,0.605414,-0.0746217,0.0013196,0,
6,8.86181,0.618061,-0.0746115,0.0013247,0,
6,8.84423,0.630769,-0.0746003,0.00132736,0,
6,8.82452,0.643548,-0.074588,0.0013273,0,
6,8.80241,0.656408,-0.0745745,0.00132424,0,
6,8.77763,0.669356,-0.07456,0.00131792,0,
6,8.74989,0.6824,-0.0745443,0.00130809,0,
6,8.71885,0.695549,-0.0745275,0.00129451,0,
6,8.68417,0.708812,-0.0745098,0.00127693,0,
6,8.64545,0.722206,-0.0744912,0.00125512,0,
6,8.60229,0.735752,-0.0744719,0.00122877,0,
6,8.55423,0.749479,-0.0744523,0.00119758,0,
6,8.50082,0.763428,-0.0744322,0.00116163,0,
6,8.44155,0.777664,-0.0744132,0.00112101,0,
6,8.37592,0.792311,-0.0743959,0.00107341,0,
6,8.30339,0.807569,-0.0743807,0.00101746,0,
6,8.22344,0.823703,-0.0743673,0.000950285,0,
6,8.13555,0.841014,-0.0743566,0.000868115,0,
6,8.0392,0.859753,-0.0743441,0.000767516,0,
6,7.93391,0.879912,-0.0743298,0.000648238,0,
6,7.81927,0.900906,-0.0743023,0.000516786,0,
6,7.6949,0.921359,-0.0742676,0.00038823,0,
6,7.56054,0.939432,-0.074215,0.000272296,0,
6,7.41603,0.953514,-0.0741499,0.00014057,0,
6,7.26132,0.962619,-0.0740786,5.58764e-05,0,
6,7.09653,0.966991,-0.0739883,1.42875e-05,0,
6,6.92195,0.968084,-0.0738802,7.80173e-07,0,
6,6.73802,0.967655,-0.0737467,-1.0146e-06,0,
6,6.5454,0.966946,-0.073585,-4.75062e-07,0,
6,6.34489,0.966461,-0.0733913,-1.32619e-07,0,
6,6.1375,0.966219,-0.0731624,-3.54879e-08,0,
6,5.92439,0.966083,-0.072894,-1.33999e-08,0,
6,5.70687,0.965944,-0.0725815,-7.67993e-09,0,
6,5.48633,0.965758,-0.0722197,-6.01812e-09,0,
6,5.26426,0.965521,-0.0718035,-5.78084e-09,0,
6,5.04218,0.965243,-0.0713276,-6.09846e-09,0,
6,4.82159,0.964937,-0.0707871,-6.61566e-09,0,
6,4.60398,0.964614,-0.0701778,-7.25122e-09,0,
6,4.39071,0.964273,-0.0694963,-8.16537e-09,0,
6,4.18307,0.963884,-0.0687406,-9.68269e-09,0,
6,3.98218,0.963385,-0.0679099,-1.20344e-08,0,
6,3.78902,0.962718,-0.0670056,-1.48955e-08,0,
6,3.60438,0.961905,-0.0660311,-1.90513e-08,0,
6,3.42888,0.961118,-0.0649915,-3.96877e-08,0,
6,3.26296,0.960645,-0.0638934,-1.03032e-07,0,
6,3.10691,0.96073,-0.0627436,-1.22786e-07,0,
6,2.96084,0.961356,-0.0615495,7.08678e-08,0,
6,2.82473,0.962146,-0.060321,-2.50918e-07,0,
6,2.69844,0.962478,-0.0590705,-3.9636e-06,0,
6,2.58172,0.961741,-0.057813,-1.54612e-05,0,
6,2.47424,0.959535,-0.0565643,-3.84597e-05,0,
6,2.37559,0.955751,-0.0553395,-7.44173e-05,0,
6,2.28535,0.95053,-0.0541517,-0.000122412,0,
6,2.20301,0.944168,-0.0530121,-0.000179702,0,
6,2.1281,0.937021,-0.051929,-0.000242623,0,
6,2.06009,0.929438,-0.0509085,-0.000307283,0,
6,1.99849,0.921728,-0.0499528,-0.000369921,0,
6,1.9428,0.914148,-0.0490656,-0.000427331,0,
6,1.89255,0.906893,-0.0482419,-0.000478435,0,
6,1.84728,0.900061,-0.0474876,-0.000522085,0,
6,1.80655,0.893656,-0.0468019,-0.000552602,0,
6,1.76996,0.887672,-0.0461707,-0.000580523,0,
6,1.73712,0.882126,-0.0455974,-0.000606078,0,
6,1.70768,0.87699,-0.0450736,-0.000629717,0,
6,1.67998,0.872037,-0.0445771,-0.000652651,0,
6,1.65329,0.867169,-0.0440919,-0.000675062,0,
6,1.62754,0.862386,-0.0436187,-0.000696904,0,
6,1.60265,0.857686,-0.0431559,-0.000718261,0,
6,1.57854,0.853068,-0.0427031,-0.000739079,0,
6,1.55515,0.848531,-0.0422595,-0.000759387,0,
6,1.53242,0.844071,-0.0418247,-0.000779199,0,
6,1.5103,0.839682,-0.0413979,-0.000798498,0,
6,1.48874,0.835351,-0.040979,-0.000817283,0,
6,1.46769,0.83106,-0.0405671,-0.000835691,0,
6,1.44712,0.8268,-0.040161,-0.000854099,0,
6,1.42698,0.822583,-0.0397583,-0.000873127,0,
6,1.40725,0.818447,-0.0393575,-0.000893246,0,
6,1.38788,0.814442,-0.0389578,-0.000914597,0,
6,1.36886,0.810584,-0.038564,-0.000935851,0,
6,1.35015,0.806807,-0.0381835,-0.000940028,0,
6,1.33173,0.80304,-0.0378093,-0.000949027,0,
6,1.31357,0.799259,-0.037436,-0.000960337,0,
6,1.29566,0.795448,-0.0370666,-0.000973657,0,
6,1.27797,0.791586,-0.0366994,-0.000990075,0,
6,1.26048,0.787646,-0.0363349,-0.00101084,0,
6,1.24318,0.783597,-0.0359727,-0.00103753,0,
6,1.22605,0.7794,-0.0356127,-0.00107201,0,
6,1.20907,0.775012,-0.0352547,-0.00111643,0,
6,1.19223,0.77038,-0.0348986,-0.00117315,0,
6,1.17551,0.765446,-0.0345445,-0.00124461,0,
6,1.1589,0.760147,-0.0341923,-0.0013332,0,
6,1.14238,0.754422,-0.033842,-0.00144097,0,
6,1.12595,0.748213,-0.0334937,-0.00156938,0,
6,1.10959,0.741474,-0.0331478,-0.001719,0,
6,1.09329,0.734175,-0.0328046,-0.00188934,0,
6,1.07704,0.726303,-0.0324642,-0.00207873,0,
6,1.06081,0.717865,-0.0321267,-0.00228437,0,
6,1.04459,0.708882,-0.0317925,-0.00250263,0,
6,1.02836,0.699397,-0.0314614,-0.0027292,0,
6,1.01211,0.689463,-0.0311344,-0.00295937,0,
6,0.99583,0.679139,-0.0308103,-0.00318857,0,
6,0.97951,0.668486,-0.0304923,-0.00341644,0,
6,0.963136,0.65754,-0.0301731,-0.00364291,0,
6,0.946694,0.646246,-0.0298484,-0.00385252,0,
6,0.930172,0.634509,-0.0295262,-0.0040676,0,
6,0.913555,0.622263,-0.0292071,-0.00429062,0,
6,0.896829,0.609455,-0.0288928,-0.00452336,0,
6,0.879979,0.596044,-0.0285837,-0.00476709,0,
6,0.862989,0.582004,-0.0282802,-0.00502276,0,
6,0.845842,0.567327,-0.0279831,-0.00529107,0,
6,0.828521,0.552028,-0.0276932,-0.00557268,0,
6,0.811008,0.536131,-0.0274125,-0.00586434,0,
6,0.793282,0.519653,-0.027143,-0.00616221,0,
6,0.775322,0.502607,-0.0268857,-0.00646405,0,
6,0.757107,0.485011,-0.0266418,-0.0067672,0,
6,0.738612,0.466893,-0.0264123,-0.00706843,0,
6,0.719813,0.448292,-0.0261987,-0.00736396,0,
6,0.700681,0.429264,-0.0260016,-0.00764952,0,
6,0.681188,0.409869,-0.0258204,-0.00792042,0,
6,0.661304,0.390165,-0.0256527,-0.00817164,0,
6,0.640996,0.370198,-0.0254939,-0.00839779,0,
6,0.620228,0.350006,-0.0253414,-0.00859298,0,
6,0.598964,0.329646,-0.0252004,-0.00875076,0,
6,0.577166,0.309252,-0.0250911,-0.00886507,0,
6,0.554791,0.289098,-0.0250552,-0.00893239,0,
6,0.531799,0.269606,-0.0251335,-0.00895284,0,
6,0.508144,0.251206,-0.0253503,-0.00893324,0,
6,0.48378,0.234028,-0.0255886,-0.00886967,0,
6,0.459585,0.218198,-0.0255148,-0.00852482,0,
6,0.436695,0.20389,-0.02528,-0.00821923,0,
6,0.414961,0.190812,-0.0251149,-0.00792607,0,
6,0.394252,0.178785,-0.0249266,-0.007624,0,
6,0.374445,0.167662,-0.0247438,-0.00731985,0,
6,0.355433,0.157328,-0.0245612,-0.0070148,0,
6,0.337122,0.147689,-0.0243775,-0.00670847,0,
6,0.319433,0.138665,-0.0241908,-0.00640162,0,
6,0.3023,0.130189,-0.0239995,-0.0060949,0,
6,0.28567,0.122206,-0.0238023,-0.00578891,0,
6,0.269507,0.114672,-0.0235981,-0.00548427,0,
6,0.253785,0.107549,-0.0233861,-0.00518169,0,
6,0.238493,0.100809,-0.0231656,-0.00488198,0,
6,0.223631,0.0944292,-0.0229365,-0.00458604,0,
6,0.209207,0.0883909,-0.0226989,-0.00429492,0,
6,0.195237,0.0826794,-0.0224533,-0.0040097,0,
6,0.181744,0.0772826,-0.0222007,-0.00373155,0,
6,0.168754,0.0721896,-0.0219426,-0.00346161,0,
6,0.156292,0.0673905,-0.0216805,-0.00320101,0,
6,0.144384,0.0628755,-0.0214167,-0.00295076,0,
6,0.133052,0.0586346,-0.0211533,-0.00271176,0,
6,0.122315,0.0546573,-0.0208927,-0.00248475,0,
6,0.112183,0.0509327,-0.0206372,-0.00227026,0,
6,0.102665,0.0474492,-0.0203892,-0.00206867,0,
6,0.0937597,0.0441948,-0.0201505,-0.00188013,0,
6,0.0854609,0.041157,-0.0199231,-0.00170463,0,
6,0.077757,0.0383233,-0.0197083,-0.00154197,0,
6,0.0706309,0.035681,-0.0195071,-0.00139181,0,
6,0.0640611,0.0332173,-0.0193201,-0.00125372,0,
6,0.0580229,0.03092,-0.0191478,-0.00112713,0,
6,0.0524888,0.0287766,-0.0189901,-0.00101143,0,
6,0.0474296,0.0267755,-0.0188468,-0.000905954,0,
6,0.042815,0.0249053,-0.0187174,-0.000810022,0,
6,0.0386145,0.0231548,-0.0186012,-0.000722933,0,
6,0.0347975,0.0215136,-0.0184975,-0.000643997,0,
6,0.0313344,0.0199716,-0.0184053,-0.000572541,0,
6,0.0281964,0.0185189,-0.018324,-0.000507916,0,
6,0.0253561,0.0171461,-0.0182524,-0.000449502,0,
6,0.0227875,0.0158442,-0.0181899,-0.000396714,0,
6,0.0204662,0.0146041,-0.0181354,-0.000348999,0,
6,0.0183694,0.0134171,-0.0180884,-0.000305837,0,
6,0.016476,0.0122741,-0.0180477,-0.000266742,0,
6,0.0147664,0.0111661,-0.0180133,-0.000231251,0,
6,0.0132228,0.0100835,-0.0179837,-0.000198927,0,
6,0.0118288,0.00901634,-0.0179594,-0.000169349,0,
6,0.0105693,0.00795411,-0.0179386,-0.000142112,0,
6,0.00943073,0.00688593,-0.0179225,-0.000116836,0,
6,0.00840063,0.00580176,-0.0179087,-9.32063e-05,0,
6,0.00746774,0.00469504,-0.0178993,-7.1078e-05,0,
6,0.00662185,0.00356849,-0.017891,-5.06859e-05,0,
6,0.00585371,0.00244319,-0.0178868,-3.28471e-05,0,
6,0.00515491,0.00136601,-0.0178823,-1.87781e-05,0,
6,0.00451788,0.000403409,-0.0178815,-9.26027e-06,0,
6,0.00393573,-0.000383983,-0.0178789,-3.89079e-06,0,
6,0.00340221,-0.000966349,-0.0178796,-1.37355e-06,0,
6,0.00291168,-0.0013475,-0.0178774,-3.88964e-07,0,
6,0.00245897,-0.00155093,-0.0178788,-7.35228e-08,0,
6,0.00203939,-0.00160576,-0.0178764,1.29232e-09,0,
6,0.00164864,-0.00153904,-0.0178784,8.26529e-09,0,
6,0.00128281,-0.00137308,-0.0178755,3.81488e-09,0,
6,0.000938257,-0.00112516,-0.0178782,9.39267e-10,0,
6,0.000611645,-0.000808117,-0.0178745,1.10103e-10,0,
6,0.000299862,-0.000430981,-0.0178781,3.40465e-12,0,

10,0.000296632,0.00842437,0.0296719,-4.87286e-11,0,
10,0.000596102,0.016926,0.0296726,-1.80582e-09,0,
10,0.000900397,0.0255613,0.0296719,-1.8359e-08,0,
10,0.00121153,0.0343869,0.0296724,-9.86472e-08,0,
10,0.00153158,0.0434594,0.0296719,-3.68943e-07,0,
10,0.00186264,0.0528345,0.0296723,-1.09669e-06,0,
10,0.00220692,0.0625642,0.0296718,-2.78277e-06,0,
10,0.00256668,0.0726922,0.0296721,-6.28016e-06,0,
10,0.00294431,0.0832458,0.0296717,-1.29129e-05,0,
10,0.00334229,0.0942249,0.0296719,-2.4522e-05,0,
10,0.00376326,0.105588,0.0296715,-4.33077e-05,0,
10,0.00421,0.117238,0.0296717,-7.13384e-05,0,
10,0.00468544,0.129021,0.0296712,-0.000109758,0,
10,0.00519274,0.14074,0.0296712,-0.000158046,0,
10,0.00573524,0.152178,0.0296707,-0.000213851,0,
10,0.00631651,0.163143,0.0296704,-0.000273624,0,
10,0.00694041,0.173485,0.0296695,-0.000333671,0,
10,0.00761104,0.183114,0.0296688,-0.00039101,0,
10,0.00833284,0.191992,0.0296675,-0.000443732,0,
10,0.00911058,0.200124,0.0296661,-0.000490942,0,
10,0.0099494,0.207547,0.029664,-0.000532509,0,
10,0.0108548,0.214312,0.0296617,-0.000568795,0,
10,0.0118329,0.220482,0.0296587,-0.000600432,0,
10,0.0128901,0.226121,0.0296551,-0.000628168,0,
10,0.0140333,0.231292,0.0296507,-0.000652768,0,
10,0.0152702,0.236054,0.0296455,-0.000674957,0,
10,0.0166089,0.240461,0.0296393,-0.000695395,0,
10,0.0180584,0.24456,0.0296321,-0.000714666,0,
10,0.0196282,0.248394,0.0296237,-0.000733284,0,
10,0.0213288,0.252,0.0296141,-0.000751701,0,
10,0.0231714,0.255411,0.0296029,-0.000770314,0,
10,0.0251682,0.258656,0.0295902,-0.000789484,0,
10,0.0273326,0.26176,0.0295757,-0.000809538,0,
10,0.0296789,0.264746,0.0295593,-0.000830784,0,
10,0.0322227,0.267634,0.0295408,-0.000853514,0,
10,0.0349809,0.270442,0.02952,-0.000878017,0,
10,0.0379719,0.273187,0.0294966,-0.000904578,0,
10,0.0412155,0.275884,0.0294705,-0.00093349,0,
10,0.0447333,0.278548,0.0294414,-0.000965053,0,
10,0.0485489,0.281193,0.029409,-0.000999578,0,
10,0.0526875,0.283832,0.0293731,-0.0010374,0,
10,0.0571768,0.286478,0.0293334,-0.00107886,0,
10,0.0620466,0.289145,0.0292897,-0.00112433,0,
10,0.0673295,0.291845,0.0292415,-0.00117421,0,
10,0.0730607,0.294594,0.0291888,-0.00122892,0,
10,0.0792784,0.297404,0.0291312,-0.00128892,0,
10,0.0860241,0.300292,0.0290683,-0.00135469,0,
10,0.0933428,0.303274,0.0290001,-0.00142675,0,
10,0.101283,0.306368,0.0289262,-0.00150565,0,
10,0.109899,0.309593,0.0288465,-0.00159199,0,
10,0.119247,0.312972,0.0287607,-0.00168637,0,
10,0.12939,0.316527,0.0286689,-0.00178945,0,
10,0.140395,0.320286,0.028571,-0.00190189,0,
10,0.152337,0.32428,0.028467,-0.00202439,0,
10,0.165296,0.328544,0.0283569,-0.00215764,0,
10,0.179357,0.333117,0.028241,-0.0023023,0,
10,0.194615,0.338045,0.0281193,-0.00245901,0,
10,0.211171,0.34338,0.0279924,-0.00262833,0,
10,0.229138,0.349183,0.0278602,-0.00281069,0,
10,0.248635,0.355524,0.0277237,-0.00300633,0,
10,0.269793,0.362484,0.0275818,-0.00321522,0,
10,0.292753,0.370156,0.0274369,-0.00343693,0,
10,0.317669,0.378648,0.027285,-0.0036692,0,
10,0.344708,0.388079,0.0271317,-0.0039087,0,
10,0.372405,0.397999,0.026982,-0.00414439,0,
10,0.399623,0.40802,0.0268383,-0.00436492,0,
10,0.426397,0.418144,0.0267014,-0.00456727,0,
10,0.452757,0.428375,0.0265698,-0.00475258,0,
10,0.478735,0.438722,0.0264457,-0.00491861,0,
10,0.504358,0.449203,0.0263293,-0.0050642,0,
10,0.529657,0.459841,0.0262217,-0.00518766,0,
10,0.554656,0.470655,0.0261161,-0.00528958,0,
10,0.579382,0.48166,0.0260204,-0.00536945,0,
10,0.603859,0.492863,0.0259094,-0.00545511,0,
10,0.628112,0.504391,0.0258517,-0.00550626,0,
10,0.652163,0.516589,0.0258715,-0.00543697,0,
10,0.676035,0.529729,0.02587,-0.00533891,0,
10,0.699751,0.54374,0.0258297,-0.00521051,0,
10,0.72333,0.558349,0.0257476,-0.0050516,0,
10,0.746795,0.573247,0.0256355,-0.00486491,0,
10,0.770165,0.588182,0.0255029,-0.00465481,0,
10,0.79346,0.60299,0.0253574,-0.0044262,0,
10,0.816699,0.617568,0.0252016,-0.00418388,0,
10,0.839903,0.631832,0.0250366,-0.00393267,0,
10,0.863088,0.645682,0.0248595,-0.00368079,0,
10,0.886275,0.659002,0.0246689,-0.00343695,0,
10,0.909481,0.6717,0.0244682,-0.00320171,0,
10,0.932723,0.683747,0.0242594,-0.0029755,0,
10,0.956021,0.69516,0.0240444,-0.00275896,0,
10,0.97939,0.705976,0.0238231,-0.0025527,0,
10,1.00285,0.71623,0.0235956,-0.00235726,0,
10,1.02641,0.72595,0.023361,-0.00217314,0,
10,1.0501,0.735157,0.02312,-0.00200071,0,
10,1.07392,0.743873,0.0228716,-0.00184021,0,
10,1.0979,0.752124,0.0226185,-0.00169039,0,
10,1.12205,0.759941,0.0223596,-0.00154891,0,
10,1.14639,0.767334,0.0220921,-0.00142205,0,
10,1.17093,0.774301,0.0218166,-0.00130854,0,
10,1.19568,0.78086,0.0215333,-0.00120912,0,
10,1.22066,0.78704,0.0212422,-0.00112375,0,
10,1.24589,0.792885,0.0209445,-0.00105171,0,
10,1.27137,0.798444,0.0206388,-0.000991823,0,
10,1.29713,0.803773,0.0203286,-0.000946589,0,
10,1.32317,0.80897,0.0200126,-0.000902775,0,
10,1.34951,0.814167,0.0196902,-0.0008583,0,
10,1.37616,0.819431,0.0193639,-0.000817144,0,
10,1.40313,0.824729,0.0190297,-0.000779351,0,
10,1.43043,0.82999,0.0186878,-0.000744661,0,
10,1.45807,0.835166,0.0183376,-0.000712441,0,
10,1.48607,0.84025,0.0179802,-0.000681952,0,
10,1.51444,0.845264,0.0176156,-0.000652635,0,
10,1.54318,0.850225,0.0172442,-0.000624222,0,
10,1.57231,0.855132,0.0168652,-0.000596646,0,
10,1.60184,0.859967,0.0164789,-0.000569913,0,
10,1.63178,0.864704,0.0160846,-0.000544034,0,
10,1.66213,0.869316,0.0156832,-0.000519014,0,
10,1.69292,0.873785,0.0152738,-0.000494786,0,
10,1.72416,0.878108,0.0148581,-0.000471118,0,
10,1.75585,0.882314,0.014433,-0.000445064,0,
10,1.78802,0.886454,0.0139994,-0.000416627,0,
10,1.82067,0.890547,0.0135592,-0.000388787,0,
10,1.85383,0.894575,0.0131103,-0.000359865,0,
10,1.88751,0.898516,0.0126533,-0.000330003,0,
10,1.92173,0.902344,0.0121881,-0.000299569,0,
10,1.95652,0.906037,0.0117139,-0.000268996,0,
10,1.9919,0.909568,0.0112316,-0.000238769,0,
10,2.02791,0.912914,0.0107397,-0.000209439,0,
10,2.06456,0.916056,0.0102404,-0.000181242,0,
10,2.10268,0.919032,0.00971895,-0.000153771,0,
10,2.1443,0.921931,0.0091526,-0.0001274,0,
10,2.18977,0.924702,0.0085342,-0.000102266,0,
10,2.23946,0.927262,0.00786203,-7.86747e-05,0,
10,2.29376,0.929527,0.00713064,-5.74401e-05,0,
10,2.35309,0.931416,0.00633781,-3.92392e-05,0,
10,2.4179,0.93286,0.00547954,-2.45714e-05,0,
10,2.48863,0.933814,0.00455413,-1.36921e-05,0,
10,2.56575,0.934278,0.00355942,-6.51133e-06,0,
10,2.64971,0.934306,0.00249506,-2.53162e-06,0,
10,2.74098,0.934019,0.00136088,-8.94696e-07,0,
10,2.83997,0.933594,0.000158223,-5.73244e-07,0,
10,2.94709,0.933237,-0.00111121,-6.72728e-07,0,
10,3.06269,0.933129,-0.00244451,-6.86336e-07,0,
10,3.18706,0.933381,-0.00383802,-5.21899e-07,0,
10,3.3204,0.933995,-0.00528659,-3.02301e-07,0,
10,3.46281,0.934878,-0.00678347,-1.40891e-07,0,
10,3.61427,0.935886,-0.00831984,-6.03449e-08,0,
10,3.77463,0.936881,-0.00988496,-3.09016e-08,0,
10,3.94358,0.937783,-0.0114664,-2.20233e-08,0,
10,4.12067,0.938579,-0.0130509,-1.90596e-08,0,
10,4.30525,0.939301,-0.0146245,-1.77483e-08,0,
10,4.49655,0.939993,-0.0161736,-1.72861e-08,0,
10,4.6936,0.940682,-0.017685,-1.76531e-08,0,
10,4.89531,0.941371,-0.0191466,-1.93474e-08,0,
10,5.10047,0.942046,-0.0205476,-2.38262e-08,0,
10,5.30776,0.942685,-0.0218788,-3.43304e-08,0,
10,5.51581,0.943273,-0.0231327,-5.75608e-08,0,
10,5.72323,0.943807,-0.0243041,-1.07927e-07,0,
10,5.92863,0.94431,-0.0253895,-2.20705e-07,0,
10,6.13069,0.944849,-0.0263874,-4.88771e-07,0,
10,6.32816,0.94552,-0.0272984,-1.10658e-06,0,
10,6.51991,0.946355,-0.0281246,-2.15501e-06,0,
10,6.70495,0.947123,-0.0288695,-2.3239e-06,0,
10,6.88244,0.947108,-0.0295366,3.74669e-06,0,
10,7.0517,0.945083,-0.03013,2.69576e-05,0,
10,7.21224,0.939661,-0.03065,8.06037e-05,0,
10,7.3637,0.929958,-0.0311023,0.000173868,0,
10,7.5059,0.916019,-0.031491,0.000297404,0,
10,7.63878,0.898435,-0.0318202,0.000405088,0,
10,7.76243,0.878311,-0.0320996,0.00052412,0,
10,7.87701,0.857415,-0.0323238,0.00064571,0,
10,7.9828,0.837203,-0.0325092,0.000756021,0,
10,8.08014,0.818384,-0.032658,0.00085005,0,
10,8.16941,0.801043,-0.0327813,0.000928297,0,
10,8.25106,0.784933,-0.0328829,0.000993921,0,
10,8.32554,0.769726,-0.0329692,0.00105015,0,
10,8.39331,0.755144,-0.0330424,0.00109923,0,
10,8.45484,0.740987,-0.0331052,0.00114244,0,
10,8.5106,0.727135,-0.0331588,0.00118038,0,
10,8.56104,0.713528,-0.0332048,0.00121327,0,
10,8.60659,0.700151,-0.0332442,0.0012412,0,
10,8.64767,0.68701,-0.0332783,0.00126429,0,
10,8.68467,0.674111,-0.0333078,0.00128239,0,
10,8.71795,0.661428,-0.0333334,0.00129217,0,
10,8.74786,0.648933,-0.0333556,0.00129845,0,
10,8.77471,0.636622,-0.0333747,0.00130044,0,
10,8.79881,0.624491,-0.0333912,0.0012986,0,
10,8.8204,0.612533,-0.0334052,0.00129344,0,
10,8.83975,0.600736,-0.0334173,0.00128547,0,
10,8.85708,0.589088,-0.0334276,0.00127518,0,
10,8.87259,0.57757,-0.0334366,0.00126303,0,
10,8.88646,0.56616,-0.0334442,0.00124942,0,
10,8.89886,0.554834,-0.0334506,0.00123469,0,
10,8.90995,0.543565,-0.033456,0.00121912,0,
10,8.91986,0.532322,-0.0334605,0.00120293,0,
10,8.92872,0.521072,-0.0334643,0.00118629,0,
10,8.93663,0.50978,-0.0334674,0.00116929,0,
10,8.94369,0.498405,-0.0334701,0.00115195,0,
10,8.95,0.486907,-0.0334722,0.00113422,0,
10,8.95564,0.475241,-0.0334741,0.00111605,0,
10,8.96067,0.463355,-0.0334755,0.00109725,0,
10,8.96517,0.451196,-0.0334768,0.00107758,0,
10,8.96918,0.438703,-0.0334777,0.0010567,0,
10,8.97276,0.425806,-0.0334787,0.00103419,0,
10,8.97596,0.412424,-0.0334792,0.00100948,0,
10,8.97882,0.398466,-0.0334799,0.000981848,0,
10,8.98137,0.383824,-0.0334802,0.000950358,0,
10,8.98365,0.368371,-0.0334808,0.0009138,0,
10,8.98569,0.351956,-0.0334808,0.000870788,0,
10,8.9875,0.334397,-0.0334813,0.000818997,0,
10,8.98913,0.31546,-0.0334812,0.000753593,0,
10,8.99058,0.294916,-0.0334817,0.000676311,0,
10,8.99188,0.272603,-0.0334815,0.0005848,0,
10,8.99304,0.248362,-0.033482,0.00047219,0,
10,8.99408,0.222152,-0.0334816,0.000346175,0,
10,8.99501,0.194344,-0.0334822,0.000220442,0,
10,8.99583,0.165843,-0.0334817,0.0001168,0,
10,8.99658,0.137912,-0.0334823,5.01401e-05,0,
10,8.99724,0.111664,-0.0334817,1.72999e-05,0,
10,8.99784,0.0876855,-0.0334824,4.75184e-06,0,
10,8.99837,0.0660847,-0.0334816,9.96477e-07,0,
10,8.99885,0.046727,-0.0334825,1.42745e-07,0,
10,8.99927,0.0294016,-0.0334816,1.08371e-08,0,
10,8.99966,0.0138938,-0.0334826,2.39773e-10,0,
10,0,0,0.0296728,0,0,
10,9,0,-0.0334815,0,0,

0.004,0,0,-0.226119,0,-8.86198e-08,
0.00868226,0,0,-0.226116,0,-1.92492e-07,
0.014062,0,0,-0.226118,0,-3.21097e-07,
0.0201548,0,0,-0.226117,0,-7.63989e-07,
0.0269766,0,0,-0.226118,0,-1.30736e-06,
0.0345437,0,0,-0.226117,0,-2.00916e-06,
0.0428729,0,0,-0.226116,0,-2.69002e-06,
0.051981,0,0,-0.226115,0,-3.26834e-06,
0.0618853,0,0,-0.226112,0,-3.54173e-06,
0.0726036,0,0,-0.226109,0,-3.33156e-06,
0.0841536,0,0,-0.226104,0,-2.4163e-06,
0.0965535,0,0,-0.2261,0,-6.15254e-07,
0.109822,0,0,-0.226096,0,2.19369e-06,
0.123977,0,0,-0.226094,0,6.02203e-06,
0.139037,0,0,-0.226094,0,1.07463e-05,
0.155022,0,0,-0.226099,0,1.61177e-05,
0.171949,0,0,-0.226109,0,2.17846e-05,
0.189839,0,0,-0.226125,0,2.73559e-05,
0.208709,0,0,-0.226146,0,3.24458e-05,
0.228579,0,0,-0.226171,0,3.67335e-05,
0.249467,0,0,-0.2262,0,3.99855e-05,
0.271391,0,0,-0.226231,0,4.20798e-05,
0.29437,0,0,-0.226262,0,4.30007e-05,
0.31842,0,0,-0.226293,0,4.28356e-05,
0.343559,0,0,-0.22632,0,4.17537e-05,
0.369804,0,0,-0.226345,0,3.99915e-05,
0.39717,0,0,-0.226367,0,3.78276e-05,
0.425672,0,0,-0.226385,0,3.55694e-05,
0.455324,0,0,-0.226401,0,3.35322e-05,
0.48614,0,0,-0.226414,0,3.20343e-05,
0.518132,0,0,-0.226427,0,3.13781e-05,
0.551309,0,0,-0.226442,0,3.17895e-05,
0.585683,0,0,-0.226461,0,3.33763e-05,
0.621259,0,0,-0.226487,0,3.61224e-05,
0.658046,0,0,-0.226523,0,3.99085e-05,
0.696047,0,0,-0.226574,0,4.4548e-05,
0.735265,0,0,-0.226641,0,4.98295e-05,
0.7757,0,0,-0.22673,0,5.55637e-05,
0.817352,0,0,-0.226844,0,6.15657e-05,
0.860215,0,0,-0.226989,0,6.75781e-05,
0.904285,0,0,-0.227175,0,7.32054e-05,
0.949552,0,0,-0.227413,0,7.77637e-05,
0.996004,0,0,-0.227723,0,8.0083e-05,
1.04363,0,0,-0.228125,0,7.84825e-05,
1.09241,0,0,-0.228642,0,7.09174e-05,
1.14232,0,0,-0.229294,0,5.528e-05,
1.19335,0,0,-0.230093,0,2.98852e-05,
1.24546,0,0,-0.231034,0,-5.98675e-06,
1.29863,0,0,-0.232098,0,-5.17664e-05,
1.35283,0,0,-0.233256,0,-0.000105718,
1.40802,0,0,-0.234475,0,-0.000165481,
1.46416,0,0,-0.235719,0,-0.000228737,
1.52121,0,0,-0.236959,0,-0.000293702,
1.57913,0,0,-0.23817,0,-0.000359279,
1.63787,0,0,-0.23933,0,-0.00042494,
1.69739,0,0,-0.240422,0,-0.000490494,
1.75761,0,0,-0.241427,0,-0.00055589,
1.81851,0,0,-0.242331,0,-0.000621092,
1.88,0,0,-0.243118,0,-0.000686033,
1.94204,0,0,-0.243774,0,-0.000750611,
2.00457,0,0,-0.244284,0,-0.000814694,
2.06751,0,0,-0.244636,0,-0.000878131,
2.13081,0,0,-0.244816,0,-0.000940755,
2.19439,0,0,-0.244813,0,-0.00100239,
2.25819,0,0,-0.244615,0,-0.00106285,
2.32214,0,0,-0.244214,0,-0.00112193,
2.38617,0,0,-0.243601,0,-0.00117944,
2.4502,0,0,-0.242768,0,-0.00123517,
2.51418,0,0,-0.24171,0,-0.0012889,
2.57803,0,0,-0.240425,0,-0.00134043,
2.64167,0,0,-0.238909,0,-0.00138955,
2.70505,0,0,-0.237163,0,-0.00143603,
2.76808,0,0,-0.235189,0,-0.00147966,
2.83072,0,0,-0.232991,0,-0.00152021,
2.89288,0,0,-0.230577,0,-0.00155749,
2.95451,0,0,-0.227955,0,-0.00159132,
3.01555,0,0,-0.225137,0,-0.00162157,
3.07594,0,0,-0.222137,0,-0.00164815,
3.13561,0,0,-0.218971,0,-0.00167105,
3.19453,0,0,-0.215656,0,-0.00169027,
3.25262,0,0,-0.21221,0,-0.0017059,
3.30985,0,0,-0.208652,0,-0.00171803,
3.36617,0,0,-0.205001,0,-0.00172681,
3.42154,0,0,-0.201276,0,-0.00173239,
3.47591,0,0,-0.197496,0,-0.00173496,
3.52925,0,0,-0.193678,0,-0.00173472,
3.58152,0,0,-0.18984,0,-0.00173187,
3.6327,0,0,-0.185998,0,-0.00172663,
3.68276,0,0,-0.182167,0,-0.00171921,
3.73167,0,0,-0.17836,0,-0.00170983,
3.77941,0,0,-0.174592,0,-0.00169871,
3.82596,0,0,-0.170873,0,-0.00168605,
3.8713,0,0,-0.167213,0,-0.00167206,
3.91543,0,0,-0.163619,0,-0.0016568,
3.95833,0,0,-0.160116,0,-0.00164079,
4,0,0,-0.156675,0,-0.00162391,
4.04167,0,0,-0.153228,0,-0.00160575,
4.08333,0,0,-0.14977,0,-0.00158651,
4.125,0,0,-0.146305,0,-0.00156619,
4.16667,0,0,-0.142836,0,-0.00154482,
4.20833,0,0,-0.139366,0,-0.00152243,
4.25,0,0,-0.135898,0,-0.00149906,
4.29167,0,0,-0.132436,0,-0.00147478,
4.33333,0,0,-0.128981,0,-0.00144961,
4.375,0,0,-0.125538,0,-0.00142359,
4.41667,0,0,-0.122108,0,-0.00139678,
4.45833,0,0,-0.118694,0,-0.0013692,
4.5,0,0,-0.115298,0,-0.00134089,
4.54167,0,0,-0.111923,0,-0.0013119,
4.58333,0,0,-0.108571,0,-0.00128224,
4.625,0,0,-0.105244,0,-0.00125196,
4.66667,0,0,-0.101944,0,-0.00122109,
4.70833,0,0,-0.0986721,0,-0.00118966,
4.75,0,0,-0.0954313,0,-0.00115769,
4.79167,0,0,-0.0922227,0,-0.00112523,
4.83333,0,0,-0.089048,0,-0.0010923,
4.875,0,0,-0.0859087,0,-0.00105894,
4.91667,0,0,-0.0828061,0,-0.00102517,
4.95833,0,0,-0.0797416,0,-0.000991031,
5,0,0,-0.0767163,0,-0.000956543,
5.04167,0,0,-0.0737314,0,-0.000921734,
5.08333,0,0,-0.0707878,0,-0.000886631,
5.125,0,0,-0.0678866,0,-0.000851254,
5.16667,0,0,-0.0650285,0,-0.000815627,
5.20833,0,0,-0.0622145,0,-0.00077977,
5.25,0,0,-0.0594453,0,-0.000743705,
5.29167,0,0,-0.0567216,0,-0.000707455,
5.33333,0,0,-0.054044,0,-0.000671043,
5.375,0,0,-0.0514133,0,-0.000634492,
5.41667,0,0,-0.0488299,0,-0.000597827,
5.45833,0,0,-0.0462944,0,-0.000561073,
5.5,0,0,-0.043807,0,-0.000524253,
5.54167,0,0,-0.0413683,0,-0.000487388,
5.58333,0,0,-0.0389785,0,-0.000450497,
5.625,0,0,-0.0366379,0,-0.000413596,
5.66667,0,0,-0.0343468,0,-0.000376696,
5.70833,0,0,-0.0321057,0,-0.000339807,
5.75,0,0,-0.0299152,0,-0.000302943,
5.79167,0,0,-0.0277758,0,-0.000266126,
5.83333,0,0,-0.0256885,0,-0.000229397,
5.875,0,0,-0.0236542,0,-0.000192835,
5.91667,0,0,-0.0216739,0,-0.000156545,
5.95833,0,0,-0.0197473,0,-0.000120638,
6,0,0,-0.0178736,0,-8.51854e-05,
6.04167,0,0,-0.0160517,0,-5.02074e-05,
6.08333,0,0,-0.0142803,0,-1.5692e-05,
6.125,0,0,-0.0125584,0,1.83801e-05,
6.16667,0,0,-0.0108848,0,5.20235e-05,
6.20833,0,0,-0.00925867,0,8.5247e-05,
6.25,0,0,-0.007679,0,0.000118055,
6.29167,0,0,-0.00614492,0,0.000150452,
6.33333,0,0,-0.00465553,0,0.000182439,
6.375,0,0,-0.00320999,0,0.000214019,
6.41667,0,0,-0.00180743,0,0.000245193,
6.45833,0,0,-0.000447038,0,0.000275963,
6.5,0,0,0.000872025,0,0.000306329,
6.54167,0,0,0.00215058,0,0.000336292,
6.58333,0,0,0.00338943,0,0.000365853,
6.625,0,0,0.00458939,0,0.000395014,
6.66667,0,0,0.00575124,0,0.000423777,
6.70833,0,0,0.00687577,0,0.000452142,
6.75,0,0,0.00796376,0,0.000480112,
6.79167,0,0,0.00901597,0,0.000507688,
6.83333,0,0,0.0100332,0,0.00053487,
6.875,0,0,0.0110161,0,0.000561662,
6.91667,0,0,0.0119655,0,0.000588063,
6.95833,0,0,0.0128821,0,0.000614075,
7,0,0,0.0137666,0,0.000639701,
7.04167,0,0,0.0146199,0,0.000664942,
7.08333,0,0,0.0154425,0,0.000689799,
7.125,0,0,0.0162352,0,0.000714275,
7.16667,0,0,0.0169987,0,0.000738371,
7.20833,0,0,0.0177337,0,0.000762091,
7.25,0,0,0.0184409,0,0.000785435,
7.29167,0,0,0.0191209,0,0.00080841,
7.33333,0,0,0.0197744,0,0.000831017,
7.375,0,0,0.020402,0,0.000853262,
7.41667,0,0,0.0210044,0,0.000875152,
7.45833,0,0,0.0215822,0,0.000896694,
7.5,0,0,0.0221362,0,0.000917903,
7.54167,0,0,0.0226668,0,0.000938787,
7.58333,0,0,0.0231746,0,0.000959354,
7.625,0,0,0.0236602,0,0.000979605,
7.66667,0,0,0.024124,0,0.000999544,
7.70833,0,0,0.0245665,0,0.00101917,
7.75,0,0,0.0249882,0,0.0010385,
7.79167,0,0,0.0253894,0,0.00105751,
7.83333,0,0,0.0257701,0,0.00107622,
7.875,0,0,0.0261302,0,0.00109466,
7.91667,0,0,0.0264808,0,0.00111341,
7.95833,0,0,0.026753,0,0.00113097,
8,0,0,0.0271095,0,0.00114849,
8.04171,0,0,0.027485,0,0.00116703,
8.08368,0,0,0.0277274,0,0.00118534,
8.12617,0,0,0.02801,0,0.0012019,
8.16946,0,0,0.0282764,0,0.00121855,
8.21382,0,0,0.028526,0,0.0012352,
8.25952,0,0,0.0287665,0,0.00125188,
8.30685,0,0,0.0289974,0,0.00126876,
8.35611,0,0,0.0292188,0,0.00128594,
8.40762,0,0,0.0294307,0,0.00130349,
8.46168,0,0,0.0296327,0,0.00132148,
8.51865,0,0,0.0298238,0,0.00133996,
8.57889,0,0,0.0300027,0,0.00135898,
8.64276,0,0,0.0301678,0,0.00137858,
8.71067,0,0,0.0303171,0,0.0013988,
8.78306,0,0,0.030448,0,0.00141965,
8.86037,0,0,0.0305577,0,0.00144115,
8.94309,0,0,0.030643,0,0.00146331,
9.03174,0,0,0.0307001,0,0.00148613,
9.12689,0,0,0.030725,0,0.00150959,
9.22912,0,0,0.0307134,0,0.00153366,
9.33908,0,0,0.0306607,0,0.00155832,
9.45746,0,0,0.0305619,0,0.00158351,
9.58501,0,0,0.0304124,0,0.00160917,
9.72253,0,0,0.030207,0,0.00163526,
9.87088,0,0,0.0299405,0,0.00166167,
10.031,0,0,0.0296085,0,0.00168833,
10.2039,0,0,0.029207,0,0.00171512,
10.3906,0,0,0.0287329,0,0.00174193,
10.5924,0,0,0.0281831,0,0.00176866,
10.8105,0,0,0.0275562,0,0.00179516,
11.0463,0,0,0.0268535,0,0.00182132,
11.3012,0,0,0.026076,0,0.00184703,
11.5769,0,0,0.0252264,0,0.00187219,
11.8751,0,0,0.0243107,0,0.00189668,
12.1977,0,0,0.0233356,0,0.00192043,
12.5466,0,0,0.0223105,0,0.00194336,
12.9242,0,0,0.0212456,0,0.00196542,
13.3327,0,0,0.0201529,0,0.00198657,
13.7748,0,0,0.0190459,0,0.0020068,
14.2532,0,0,0.0179385,0,0.0020261,
14.7709,0,0,0.0168451,0,0.00204449,
15.3312,0,0,0.0157792,0,0.002062,
15.9377,0,0,0.0147543,0,0.00207869,
16.594,0,0,0.0137814,0,0.00209462,
17.3044,0,0,0.0128701,0,0.00210986,
18.0733,0,0,0.0120267,0,0.00212445,
18.9056,0,0,0.0112541,0,0.00213832,
19.8064,0,0,0.0105534,0,0.00215138,
20.7816,0,0,0.00992153,0,0.00216384,
21.8371,0,0,0.0093516,0,0.00217602,
22.9796,0,0,0.00883395,0,0.0021881,
24.2163,0,0,0.00835535,0,0.00220018,
25.5551,0,0,0.00790126,0,0.00221233,
27.0042,0,0,0.00745501,0,0.00222463,
28.5729,0,0,0.00699912,0,0.00223715,
30.271,0,0,0.00651529,0,0.00224989,
32.1091,0,0,0.00598586,0,0.00226277,
34.0989,0,0,0.00539584,0,0.0022757,
36.2529,0,0,0.00472749,0,0.00228871,
38.5845,0,0,0.00397256,0,0.00230173,
41.1085,0,0,0.00316958,0,0.00231457,
43.8407,0,0,0.00216093,0,0.00232502,
46.7983,0,0,0.00111327,0,0.00233099,
50,0,0,0.00211297,0,0.00234693,

