4ba38f76ee1b8fe2c799c437550f44d3fcd0a5f1 
X,Z,x_velocity,cp,uw_b,cf,
1,0,0,-0.228873,0,0,
1,9,0,-0.12894,0,0,
1,8.99969,0.0153648,-0.12894,2.83684e-10,0,
1,8.99934,0.0327967,-0.12894,1.32604e-08,0,
1,8.99894,0.0525917,-0.12894,1.82924e-07,0,
1,8.99848,0.0750631,-0.12894,1.34108e-06,0,
1,8.99797,0.100523,-0.12894,6.70401e-06,0,
1,8.99739,0.12917,-0.12894,2.5384e-05,0,
1,8.99672,0.160812,-0.12894,7.52486e-05,0,
1,8.99597,0.194518,-0.12894,0.000175099,0,
1,8.99512,0.228645,-0.12894,0.000323073,0,
1,8.99416,0.261536,-0.12894,0.000490823,0,
1,8.99306,0.292213,-0.12894,0.000648925,0,
1,8.99182,0.320496,-0.128939,0.000776437,0,
1,8.99041,0.346525,-0.128939,0.000881948,0,
1,8.98881,0.370458,-0.128938,0.000969124,0,
1,8.98699,0.392514,-0.128938,0.00104029,0,
1,8.98494,0.412981,-0.128937,0.00109621,0,
1,8.98261,0.432168,-0.128936,0.00113909,0,
1,8.97996,0.450315,-0.128935,0.00117502,0,
1,8.97696,0.467593,-0.128934,0.00120482,0,
1,8.97356,0.484146,-0.128933,0.00122975,0,
1,8.9697,0.50009,-0.128931,0.00125079,0,
1,8.96533,0.515524,-0.128929,0.00126863,0,
1,8.96038,0.530532,-0.128927,0.0012838,0,
1,8.95476,0.545183,-0.128925,0.00129666,0,
1,8.9484,0.559536,-0.128922,0.00130747,0,
1,8.9412,0.573643,-0.12892,0.0013164,0,
1,8.93303,0.587545,-0.128917,0.00132355,0,
1,8.92379,0.60128,-0.128913,0.00132897,0,
1,8.91333,0.614879,-0.12891,0.00133267,0,
1,8.90149,0.628371,-0.128907,0.00133462,0,
1,8.8881,0.64178,-0.128904,0.00133477,0,
1,8.87295,0.655127,-0.128901,0.00133303,0,
1,8.85584,0.668432,-0.128898,0.00132931,0,
1,8.83651,0.681715,-0.128896,0.0013235,0,
1,8.81469,0.694993,-0.128896,0.00131547,0,
1,8.79007,0.708286,-0.128897,0.00130505,0,
1,8.76232,0.721617,-0.128901,0.00129206,0,
1,8.73107,0.73501,-0.128908,0.00127627,0,
1,8.69591,0.748494,-0.128919,0.00125742,0,
1,8.6564,0.762105,-0.128937,0.00123515,0,
1,8.61206,0.775889,-0.128962,0.00120907,0,
1,8.56236,0.789903,-0.128997,0.00117883,0,
1,8.50675,0.804222,-0.129046,0.00114578,0,
1,8.44464,0.818992,-0.129111,0.00110462,0,
1,8.3754,0.83443,-0.129198,0.00105309,0,
1,8.29839,0.850777,-0.129311,0.000989963,0,
1,8.21296,0.868278,-0.129458,0.000910756,0,
1,8.11843,0.887127,-0.129643,0.000810252,0,
1,8.01417,0.907327,-0.129883,0.000684982,0,
1,7.89956,0.928436,-0.130172,0.000538322,0,
1,7.77403,0.94933,-0.130549,0.000388707,0,
1,7.63711,0.968399,-0.130999,0.000205941,0,
1,7.48842,0.983321,-0.131532,7.66134e-05,0,
1,7.32773,0.992157,-0.132172,1.84688e-05,0,
1,7.15495,0.995375,-0.132916,1.85139e-06,0,
1,6.97022,0.995447,-0.133778,2.57807e-08,0,
1,6.77388,0.994831,-0.134775,3.83437e-09,0,
1,6.56652,0.994713,-0.135922,9.82043e-09,0,
1,6.34896,0.995167,-0.137232,1.25443e-08,0,
1,6.12229,0.995898,-0.13872,1.4156e-08,0,
1,5.88784,0.996702,-0.140401,1.50224e-08,0,
1,5.64716,0.997544,-0.142289,1.60133e-08,0,
1,5.40194,0.998454,-0.144393,1.73915e-08,0,
1,5.15407,0.999459,-0.146722,1.91457e-08,0,
1,4.90545,1.00057,-0.149279,2.10006e-08,0,
1,4.65805,1.00178,-0.152062,2.2984e-08,0,
1,4.41376,1.0031,-0.155066,2.50658e-08,0,
1,4.17441,1.00451,-0.158277,2.70188e-08,0,
1,3.94163,1.00594,-0.161677,2.868e-08,0,
1,3.7169,1.00736,-0.165239,3.06563e-08,0,
1,3.50146,1.00883,-0.168931,3.48879e-08,0,
1,3.29629,1.01067,-0.17272,4.34186e-08,0,
1,3.10217,1.01324,-0.176574,5.44478e-08,0,
1,2.91959,1.01636,-0.180462,9.96763e-08,0,
1,2.74885,1.01858,-0.184342,1.01249e-06,0,
1,2.59002,1.01749,-0.188147,-5.74215e-06,0,
1,2.44299,1.01137,-0.191811,-5.1112e-05,0,
1,2.30752,1.00042,-0.195264,-0.000147972,0,
1,2.18321,0.986069,-0.198444,-0.000282637,0,
1,2.06959,0.969906,-0.20138,-0.000399684,0,
1,1.9661,0.953198,-0.204051,-0.000501092,0,
1,1.87215,0.936874,-0.206422,-0.000595697,0,
1,1.78711,0.921445,-0.20853,-0.000679004,0,
1,1.71033,0.907068,-0.21039,-0.000750951,0,
1,1.64119,0.893716,-0.212025,-0.00081308,0,
1,1.57905,0.881276,-0.213457,-0.000867568,0,
1,1.52332,0.869622,-0.214706,-0.000916593,0,
1,1.47342,0.858643,-0.215798,-0.000962313,0,
1,1.42882,0.84825,-0.216732,-0.000995418,0,
1,1.389,0.838361,-0.217523,-0.00102052,0,
1,1.35351,0.828911,-0.218209,-0.00104395,0,
1,1.3219,0.819866,-0.218797,-0.00106496,0,
1,1.29378,0.811206,-0.219302,-0.00108327,0,
1,1.26878,0.802921,-0.219735,-0.00109893,0,
1,1.24659,0.795008,-0.220105,-0.00111231,0,
1,1.22689,0.787462,-0.220423,-0.00112348,0,
1,1.2092,0.780193,-0.220699,-0.00113142,0,
1,1.1932,0.773154,-0.220939,-0.00113685,0,
1,1.1787,0.766329,-0.221148,-0.00114054,0,
1,1.16554,0.759694,-0.22133,-0.00114366,0,
1,1.15357,0.753216,-0.221488,-0.00114865,0,
1,1.14266,0.74684,-0.221625,-0.00115947,0,
1,1.13268,0.740486,-0.221744,-0.00118139,0,
1,1.12354,0.734046,-0.221849,-0.00122162,0,
1,1.11514,0.727372,-0.221943,-0.00128881,0,
1,1.10739,0.72029,-0.22203,-0.00139235,0,
1,1.10022,0.712604,-0.222115,-0.00154122,0,
1,1.09357,0.704132,-0.222203,-0.00174225,0,
1,1.08738,0.694748,-0.222295,-0.00199813,0,
1,1.0816,0.68442,-0.222394,-0.00230576,0,
1,1.07618,0.673228,-0.2225,-0.00265603,0,
1,1.07107,0.661339,-0.222612,-0.0030354,0,
1,1.06626,0.648969,-0.22273,-0.00342881,0,
1,1.06169,0.63633,-0.222851,-0.00382254,0,
1,1.05735,0.62361,-0.222975,-0.00420581,0,
1,1.05321,0.610951,-0.223101,-0.00457117,0,
1,1.04925,0.598459,-0.223227,-0.00491407,0,
1,1.04544,0.586203,-0.223354,-0.00523223,0,
1,1.04177,0.574224,-0.22348,-0.0055249,0,
1,1.03822,0.562546,-0.223605,-0.00579235,0,
1,1.03478,0.551176,-0.223729,-0.00603544,0,
1,1.03144,0.540113,-0.223852,-0.00625539,0,
1,1.02818,0.52935,-0.223974,-0.00645354,0,
1,1.025,0.518876,-0.224094,-0.00663128,0,
1,1.02188,0.508677,-0.224213,-0.00678996,0,
1,1.01882,0.49874,-0.224331,-0.00693088,0,
1,1.01581,0.48905,-0.224447,-0.00705536,0,
1,1.01284,0.479592,-0.224563,-0.00716396,0,
1,1.00988,0.470252,-0.224678,-0.00725914,0,
1,1.00688,0.46092,-0.224795,-0.00734285,0,
1,1.00384,0.451582,-0.224914,-0.00741457,0,
1,1.00076,0.442224,-0.225033,-0.00747427,0,
1,0.997615,0.432825,-0.225153,-0.00752186,0,
1,0.99441,0.423363,-0.225275,-0.00755742,0,
1,0.991131,0.413814,-0.225397,-0.00758105,0,
1,0.987768,0.404149,-0.225522,-0.00759256,0,
1,0.984308,0.394343,-0.225648,-0.00759163,0,
1,0.980739,0.384362,-0.225775,-0.00757783,0,
1,0.977045,0.374174,-0.225905,-0.00755057,0,
1,0.973211,0.363741,-0.226037,-0.00750909,0,
1,0.969219,0.353024,-0.226171,-0.00745247,0,
1,0.965047,0.341978,-0.226308,-0.00737956,0,
1,0.960675,0.330555,-0.226448,-0.007289,0,
1,0.956077,0.318698,-0.22659,-0.00717852,0,
1,0.951224,0.30635,-0.226736,-0.00704643,0,
1,0.946088,0.29345,-0.226885,-0.00689045,0,
1,0.940633,0.279939,-0.227037,-0.00670805,0,
1,0.934823,0.265765,-0.227194,-0.0064973,0,
1,0.928616,0.250884,-0.227356,-0.00625601,0,
1,0.921967,0.235264,-0.227521,-0.00598075,0,
1,0.914826,0.21888,-0.227691,-0.00566901,0,
1,0.907141,0.201724,-0.227864,-0.0053187,0,
1,0.898852,0.183809,-0.228039,-0.00492846,0,
1,0.889898,0.165179,-0.228216,-0.0044981,0,
1,0.880212,0.145927,-0.228394,-0.00402929,0,
1,0.869723,0.126215,-0.228573,-0.00352652,0,
1,0.858358,0.106312,-0.228754,-0.00299879,0,
1,0.846039,0.08664,-0.228937,-0.00246205,0,
1,0.83269,0.0678233,-0.229125,-0.00194199,0,
1,0.818232,0.0506855,-0.229321,-0.00147689,0,
1,0.802744,0.036165,-0.229513,-0.0011019,0,
1,0.78635,0.0247225,-0.229708,-0.000825393,0,
1,0.768969,0.0160236,-0.229896,-0.000635962,0,
1,0.75053,0.00936644,-0.230075,-0.000515193,0,
1,0.730977,0.00403078,-0.230233,-0.000444619,0,
1,0.710271,-0.000540704,-0.230371,-0.000407932,0,
1,0.688397,-0.00471845,-0.230484,-0.000392304,0,
1,0.66536,-0.00872459,-0.230578,-0.000390378,0,
1,0.641194,-0.012698,-0.230652,-0.000393128,0,
1,0.615961,-0.0167261,-0.230705,-0.00039643,0,
1,0.589754,-0.0208483,-0.23074,-0.000397065,0,
1,0.562692,-0.0250665,-0.230754,-0.000393192,0,
1,0.534925,-0.0293541,-0.230747,-0.00038402,0,
1,0.506624,-0.0336643,-0.230716,-0.000369439,0,
1,0.477982,-0.0379386,-0.230662,-0.000349778,0,
1,0.449206,-0.0421126,-0.230582,-0.000325622,0,
1,0.420509,-0.046121,-0.230479,-0.000297696,0,
1,0.392107,-0.049901,-0.230355,-0.000266793,0,
1,0.364206,-0.0533937,-0.230211,-0.000233722,0,
1,0.337003,-0.0565456,-0.230053,-0.000199267,0,
1,0.310673,-0.0593089,-0.229886,-0.000164149,0,
1,0.28537,-0.061641,-0.229714,-0.000128999,0,
1,0.26122,-0.0635043,-0.229543,-9.43407e-05,0,
1,0.238324,-0.0648653,-0.229378,-6.06098e-05,0,
1,0.21675,-0.0656942,-0.229225,-2.81623e-05,0,
1,0.196544,-0.0659645,-0.229085,2.68727e-06,0,
1,0.177724,-0.0656542,-0.228964,3.16169e-05,0,
1,0.160284,-0.0647482,-0.228863,5.82518e-05,0,
1,0.144202,-0.0632408,-0.228782,8.21442e-05,0,
1,0.129436,-0.0611403,-0.228723,0.000102793,0,
1,0.115935,-0.0584728,-0.228683,0.000119701,0,
1,0.103636,-0.0552841,-0.228661,0.00013246,0,
1,0.0924701,-0.0516399,-0.228653,0.000140816,0,
1,0.0823633,-0.047623,-0.228658,0.000144711,0,
1,0.0732406,-0.0433277,-0.228671,0.000144329,0,
1,0.0650269,-0.0388535,-0.228691,0.000140057,0,
1,0.057648,-0.0342978,-0.228714,0.000132432,0,
1,0.0510323,-0.0297493,-0.228738,0.000122073,0,
1,0.0451115,-0.0252826,-0.228762,0.000109617,0,
1,0.0398209,-0.0209559,-0.228784,9.56726e-05,0,
1,0.0351001,-0.0168107,-0.228804,8.07993e-05,0,
1,0.0308929,-0.0128756,-0.228822,6.55145e-05,0,
1,0.0271475,-0.00917357,-0.228836,5.03508e-05,0,
1,0.0238164,-0.00573459,-0.228847,3.5969e-05,0,
1,0.0208562,-0.00261011,-0.228856,2.32665e-05,0,
1,0.0182274,0.000118269,-0.228861,1.32728e-05,0,
1,0.0158944,0.00235317,-0.228865,6.52246e-06,0,
1,0.0138249,0.00402486,-0.228867,2.70566e-06,0,
1,0.0119898,0.00513016,-0.228869,9.23605e-07,0,
1,0.0103632,0.00573429,-0.22887,2.35242e-07,0,
1,0.00892169,0.00593909,-0.22887,2.04109e-08,0,
1,0.00764438,0.00584959,-0.228871,-2.55123e-08,0,
1,0.00651264,0.00555548,-0.228871,-2.37759e-08,0,
1,0.00550983,0.00512688,-0.228872,-1.42966e-08,0,
1,0.00462115,0.00461598,-0.228872,-7.08965e-09,0,
1,0.00383341,0.00406084,-0.228872,-3.06383e-09,0,
1,0.0031349,0.00348854,-0.228872,-1.16459e-09,0,
1,0.00251518,0.00291809,-0.228873,-3.83969e-10,0,
1,0.00196502,0.00236235,-0.228872,-1.05949e-10,0,
1,0.00147619,0.00182975,-0.228873,-2.28659e-11,0,
1,0.00104139,0.00132537,-0.228872,-3.39762e-12,0,
1,0.000654158,0.000851922,-0.228873,-2.67717e-13,0,
1,0.000308731,0.000410305,-0.228872,-6.144e-15,0,

4,0,0,-0.152414,0,0,
4,9,0,-0.0981515,0,0,
4,8.99969,0.0142316,-0.0981511,2.22337e-10,0,
4,8.99934,0.0303215,-0.0981514,1.03155e-08,0,
4,8.99894,0.0485308,-0.0981511,1.4086e-07,0,
4,8.9985,0.0691357,-0.0981513,1.02246e-06,0,
4,8.99799,0.0924174,-0.0981511,5.07542e-06,0,
4,8.99742,0.118579,-0.0981512,1.92218e-05,0,
4,8.99677,0.147538,-0.098151,5.77085e-05,0,
4,8.99605,0.178619,-0.0981511,0.000137976,0,
4,8.99522,0.210474,-0.0981508,0.000263982,0,
4,8.99429,0.241563,-0.0981508,0.000415681,0,
4,8.99324,0.270819,-0.0981504,0.000565182,0,
4,8.99205,0.297858,-0.0981502,0.000694656,0,
4,8.9907,0.322754,-0.0981497,0.000798652,0,
4,8.98919,0.345683,-0.0981493,0.000886309,0,
4,8.98747,0.366828,-0.0981485,0.00095925,0,
4,8.98553,0.386461,-0.0981478,0.00101663,0,
4,8.98334,0.404859,-0.0981468,0.00106293,0,
4,8.98087,0.422241,-0.0981456,0.00110204,0,
4,8.97807,0.438776,-0.0981442,0.00113523,0,
4,8.97491,0.454604,-0.0981426,0.00116382,0,
4,8.97134,0.469844,-0.0981407,0.00118878,0,
4,8.96731,0.484597,-0.0981385,0.00121084,0,
4,8.96276,0.498948,-0.0981359,0.00123052,0,
4,8.95762,0.512968,-0.0981329,0.00124818,0,
4,8.95182,0.526721,-0.0981295,0.00126407,0,
4,8.94526,0.540259,-0.0981256,0.00127836,0,
4,8.93787,0.553629,-0.0981212,0.0012911,0,
4,8.92952,0.566871,-0.0981163,0.00130231,0,
4,8.92011,0.580018,-0.0981109,0.00131193,0,
4,8.90949,0.5931,-0.0981049,0.00131987,0,
4,8.89751,0.606141,-0.0980983,0.00132601,0,
4,8.88402,0.619164,-0.0980912,0.00133018,0,
4,8.86881,0.632185,-0.0980837,0.00133221,0,
4,8.85169,0.645219,-0.0980758,0.00133193,0,
4,8.83242,0.658279,-0.0980676,0.00132913,0,
4,8.81074,0.671378,-0.0980594,0.00132364,0,
4,8.78637,0.684526,-0.0980517,0.00131526,0,
4,8.75901,0.697736,-0.0980446,0.00130381,0,
4,8.7283,0.711022,-0.0980386,0.00128909,0,
4,8.69387,0.724402,-0.0980344,0.0012709,0,
4,8.65533,0.737899,-0.0980328,0.00124897,0,
4,8.61222,0.751546,-0.0980349,0.00122298,0,
4,8.56407,0.76538,-0.0980418,0.00119259,0,
4,8.5104,0.779457,-0.0980554,0.00115789,0,
4,8.45065,0.79386,-0.0980778,0.00111947,0,
4,8.38429,0.808745,-0.0981125,0.00107153,0,
4,8.31073,0.82434,-0.0981619,0.00101417,0,
4,8.22941,0.840904,-0.0982291,0.000943938,0,
4,8.13974,0.858699,-0.098318,0.000856533,0,
4,8.04115,0.877903,-0.09843,0.000748321,0,
4,7.93313,0.898411,-0.0985708,0.000619522,0,
4,7.81519,0.919522,-0.0987324,0.000479129,0,
4,7.68693,0.939774,-0.0989389,0.000344537,0,
4,7.54803,0.95727,-0.0991718,0.000203975,0,
4,7.39831,0.970119,-0.0994497,8.98849e-05,0,
4,7.23771,0.97743,-0.0997888,2.78336e-05,0,
4,7.06634,0.980133,-0.100177,4.58963e-06,0,
4,6.88453,0.980281,-0.100618,-1.86057e-08,0,
4,6.69275,0.979725,-0.101112,-1.05022e-07,0,
4,6.49173,0.979403,-0.101666,1.7482e-08,0,
4,6.28238,0.979473,-0.102291,2.35304e-08,0,
4,6.06579,0.979775,-0.102992,1.36857e-08,0,
4,5.84328,0.980149,-0.103776,9.19653e-09,0,
4,5.61626,0.980533,-0.104647,7.98523e-09,0,
4,5.3863,0.980926,-0.10561,8.02965e-09,0,
4,5.15502,0.981344,-0.106668,8.58304e-09,0,
4,4.92406,0.981801,-0.107822,9.39632e-09,0,
4,4.69507,0.982308,-0.109072,1.03762e-08,0,
4,4.46961,0.982868,-0.110417,1.138e-08,0,
4,4.24915,0.983465,-0.111853,1.21079e-08,0,
4,4.03501,0.984044,-0.113374,1.22656e-08,0,
4,3.82836,0.984535,-0.114972,1.20934e-08,0,
4,3.63018,0.984943,-0.116638,1.29758e-08,0,
4,3.44125,0.985443,-0.118358,1.77998e-08,0,
4,3.26217,0.986394,-0.120122,6.17076e-08,0,
4,3.09333,0.988091,-0.121916,5.48427e-07,0,
4,2.93497,0.990358,-0.123722,2.57115e-06,0,
4,2.78715,0.992354,-0.125527,4.93789e-06,0,
4,2.64979,0.992904,-0.127312,2.02334e-07,0,
4,2.52268,0.991082,-0.129057,-2.13252e-05,0,
4,2.40551,0.986557,-0.130742,-6.47519e-05,0,
4,2.29789,0.979569,-0.132347,-0.000128663,0,
4,2.19939,0.970702,-0.133859,-0.000207024,0,
4,2.10949,0.960644,-0.135268,-0.000292073,0,
4,2.02768,0.950025,-0.136574,-0.000376278,0,
4,1.95343,0.93936,-0.137775,-0.000453492,0,
4,1.88618,0.929028,-0.138873,-0.000521416,0,
4,1.82542,0.919214,-0.139879,-0.000569008,0,
4,1.77062,0.909977,-0.140797,-0.000608102,0,
4,1.72128,0.901367,-0.141623,-0.000643335,0,
4,1.67693,0.893417,-0.14237,-0.000674799,0,
4,1.63713,0.886127,-0.143042,-0.000702837,0,
4,1.60144,0.879476,-0.143646,-0.000727801,0,
4,1.56949,0.873434,-0.144188,-0.000750084,0,
4,1.54091,0.867961,-0.144674,-0.000770153,0,
4,1.51537,0.863004,-0.14511,-0.000788365,0,
4,1.49167,0.858364,-0.145513,-0.000805138,0,
4,1.46926,0.853955,-0.145894,-0.000821028,0,
4,1.44801,0.849755,-0.146259,-0.000836377,0,
4,1.42781,0.845723,-0.146615,-0.000842563,0,
4,1.40855,0.841824,-0.146956,-0.000849213,0,
4,1.39015,0.838039,-0.147283,-0.000854706,0,
4,1.37252,0.834355,-0.147597,-0.00085917,0,
4,1.3556,0.830756,-0.1479,-0.000863121,0,
4,1.3393,0.827224,-0.148193,-0.000867189,0,
4,1.32357,0.823741,-0.148476,-0.000872221,0,
4,1.30836,0.820289,-0.14875,-0.000878998,0,
4,1.29362,0.816843,-0.149017,-0.000888586,0,
4,1.2793,0.813379,-0.149278,-0.000902321,0,
4,1.26537,0.809863,-0.149531,-0.000921853,0,
4,1.25179,0.80626,-0.149779,-0.000949179,0,
4,1.23852,0.802524,-0.150021,-0.00098666,0,
4,1.22554,0.798604,-0.150258,-0.00103702,0,
4,1.21282,0.794438,-0.150491,-0.0011033,0,
4,1.20034,0.78996,-0.150718,-0.0011887,0,
4,1.18806,0.785097,-0.15094,-0.00129642,0,
4,1.17599,0.779776,-0.151158,-0.00142928,0,
4,1.16408,0.773931,-0.151371,-0.0015894,0,
4,1.15233,0.767508,-0.151579,-0.00177778,0,
4,1.14073,0.760474,-0.151782,-0.00199402,0,
4,1.12925,0.752821,-0.15198,-0.00223622,0,
4,1.11788,0.744564,-0.152173,-0.00250103,0,
4,1.10661,0.735742,-0.152363,-0.00278402,0,
4,1.09543,0.726406,-0.152547,-0.00308007,0,
4,1.08432,0.716622,-0.152728,-0.00338385,0,
4,1.07328,0.706457,-0.152905,-0.00369018,0,
4,1.0623,0.695977,-0.153078,-0.00399435,0,
4,1.05136,0.685243,-0.153248,-0.00429225,0,
4,1.04044,0.674296,-0.153415,-0.00458054,0,
4,1.0295,0.663165,-0.153578,-0.00485671,0,
4,1.01855,0.651891,-0.153739,-0.00511831,0,
4,1.00757,0.640513,-0.153898,-0.00536311,0,
4,0.996544,0.629061,-0.154053,-0.00558962,0,
4,0.98547,0.617564,-0.154206,-0.00579605,0,
4,0.974334,0.606045,-0.154356,-0.00598112,0,
4,0.963124,0.594525,-0.154502,-0.00614383,0,
4,0.951826,0.583022,-0.154651,-0.00629613,0,
4,0.940428,0.571504,-0.154777,-0.00642976,0,
4,0.928915,0.559842,-0.154868,-0.00652408,0,
4,0.917272,0.547892,-0.15495,-0.00662557,0,
4,0.905481,0.535573,-0.155029,-0.00673497,0,
4,0.893524,0.522833,-0.155109,-0.00685267,0,
4,0.881383,0.509629,-0.155191,-0.0069788,0,
4,0.869035,0.495927,-0.155277,-0.00711325,0,
4,0.856459,0.481694,-0.155365,-0.00725572,0,
4,0.843629,0.466901,-0.155458,-0.00740569,0,
4,0.830518,0.451523,-0.155554,-0.00756249,0,
4,0.817097,0.435541,-0.155653,-0.00772527,0,
4,0.803334,0.418936,-0.155755,-0.00789308,0,
4,0.789195,0.401698,-0.155857,-0.00806477,0,
4,0.774643,0.383817,-0.155961,-0.00823901,0,
4,0.759639,0.365292,-0.156064,-0.00841415,0,
4,0.744138,0.346127,-0.156169,-0.00858812,0,
4,0.728096,0.326343,-0.156275,-0.00875832,0,
4,0.711463,0.305974,-0.156384,-0.00892156,0,
4,0.694189,0.285075,-0.156496,-0.00907384,0,
4,0.676218,0.263713,-0.156613,-0.00920979,0,
4,0.657495,0.241952,-0.156733,-0.00932386,0,
4,0.637962,0.219853,-0.156856,-0.00941104,0,
4,0.617561,0.197453,-0.156976,-0.00946728,0,
4,0.596848,0.175386,-0.157083,-0.00948821,0,
4,0.576557,0.154388,-0.157176,-0.00947281,0,
4,0.556564,0.134331,-0.157255,-0.00942286,0,
4,0.536763,0.115125,-0.157332,-0.00933942,0,
4,0.517057,0.0967638,-0.157427,-0.00922342,0,
4,0.497368,0.0793287,-0.157571,-0.00907706,0,
4,0.477632,0.0629719,-0.157796,-0.00890483,0,
4,0.457804,0.0478319,-0.158103,-0.00871488,0,
4,0.437857,0.0338946,-0.158445,-0.00851764,0,
4,0.417786,0.0208328,-0.158467,-0.00818583,0,
4,0.397605,0.0082366,-0.158246,-0.0077914,0,
4,0.377348,-0.00405246,-0.158078,-0.00745082,0,
4,0.357066,-0.0160103,-0.157895,-0.0070911,0,
4,0.336828,-0.0276088,-0.157702,-0.00672229,0,
4,0.316717,-0.0387978,-0.157499,-0.00634999,0,
4,0.296825,-0.0495178,-0.157285,-0.00597394,0,
4,0.27725,-0.0597159,-0.157063,-0.00559537,0,
4,0.258095,-0.0693523,-0.156832,-0.00521659,0,
4,0.239458,-0.0784003,-0.156593,-0.00484034,0,
4,0.221432,-0.0868457,-0.156349,-0.00446941,0,
4,0.2041,-0.094686,-0.156101,-0.00410652,0,
4,0.187537,-0.101928,-0.155849,-0.00375415,0,
4,0.171798,-0.108587,-0.155597,-0.00341448,0,
4,0.156928,-0.114683,-0.155345,-0.00308934,0,
4,0.142956,-0.120243,-0.155098,-0.00278015,0,
4,0.129894,-0.125295,-0.154856,-0.00248796,0,
4,0.117744,-0.129868,-0.154622,-0.00221341,0,
4,0.106492,-0.133993,-0.154397,-0.00195683,0,
4,0.0961173,-0.1377,-0.154185,-0.0017182,0,
4,0.0865883,-0.141016,-0.153985,-0.00149726,0,
4,0.0778675,-0.14397,-0.153798,-0.00129352,0,
4,0.0699123,-0.146584,-0.153626,-0.00110632,0,
4,0.062677,-0.148882,-0.153469,-0.000934875,0,
4,0.056114,-0.150883,-0.153326,-0.000778321,0,
4,0.0501747,-0.152604,-0.153197,-0.000635735,0,
4,0.0448114,-0.154058,-0.153082,-0.000506174,0,
4,0.039977,-0.155258,-0.15298,-0.000388702,0,
4,0.0356266,-0.156209,-0.152889,-0.00028241,0,
4,0.0317171,-0.156917,-0.15281,-0.000186432,0,
4,0.0282081,-0.157381,-0.152741,-9.99654e-05,0,
4,0.0250617,-0.157596,-0.152682,-2.22896e-05,0,
4,0.0222427,-0.15755,-0.152631,4.72169e-05,0,
4,0.0197189,-0.157222,-0.152587,0.000109045,0,
4,0.0174603,-0.156581,-0.15255,0.000163512,0,
4,0.0154398,-0.15558,-0.152519,0.000210688,0,
4,0.0136326,-0.15415,-0.152494,0.000250281,0,
4,0.0120162,-0.152192,-0.152473,0.000281442,0,
4,0.0105703,-0.149561,-0.152456,0.000302487,0,
4,0.00927657,-0.146054,-0.152444,0.000310582,0,
4,0.00811839,-0.141395,-0.152434,0.000301747,0,
4,0.0070809,-0.135252,-0.152428,0.000272128,0,
4,0.0061507,-0.127317,-0.152423,0.000221628,0,
4,0.00531578,-0.117488,-0.152421,0.000158319,0,
4,0.00456537,-0.106054,-0.152418,9.72714e-05,0,
4,0.00388979,-0.0936681,-0.152418,5.1264e-05,0,
4,0.00328037,-0.0810583,-0.152417,2.33976e-05,0,
4,0.00272934,-0.0687566,-0.152418,9.32511e-06,0,
4,0.0022297,-0.0570401,-0.152416,3.22616e-06,0,
4,0.00177519,-0.0460055,-0.152417,9.40844e-07,0,
4,0.00136016,-0.0356529,-0.152416,2.16817e-07,0,
4,0.000979511,-0.0259393,-0.152417,3.47499e-08,0,
4,0.00062865,-0.0168041,-0.152415,2.96711e-09,0,
4,0.000303409,-0.00818112,-0.152417,7.23497e-11,0,

6,0,0,-0.0155754,0,0,
6,9,0,-0.0741044,0,0,
6,8.99969,0.0134886,-0.0741041,1.85226e-10,0,
6,8.99934,0.0286997,-0.0741043,8.54868e-09,0,
6,8.99895,0.0458704,-0.0741041,1.15902e-07,0,
6,8.9985,0.0652514,-0.0741042,8.35318e-07,0,
6,8.99801,0.0871008,-0.074104,4.1241e-06,0,
6,8.99744,0.111619,-0.0741041,1.56047e-05,0,
6,8.99681,0.138779,-0.074104,4.71883e-05,0,
6,8.99609,0.168061,-0.074104,0.000114803,0,
6,8.99529,0.198318,-0.0741038,0.000225207,0,
6,8.99438,0.228121,-0.0741038,0.000364027,0,
6,8.99336,0.256371,-0.0741035,0.000505816,0,
6,8.9922,0.282568,-0.0741033,0.000633191,0,
6,8.9909,0.306709,-0.0741029,0.000736429,0,
6,8.98944,0.328953,-0.0741026,0.000823187,0,
6,8.98779,0.34947,-0.074102,0.000896172,0,
6,8.98593,0.36851,-0.0741013,0.000953961,0,
6,8.98383,0.38633,-0.0741005,0.0010014,0,
6,8.98147,0.403137,-0.0740996,0.00104159,0,
6,8.97881,0.419096,-0.0740983,0.001076,0,
6,8.97581,0.434347,-0.074097,0.00110598,0,
6,8.97244,0.449009,-0.0740953,0.00113252,0,
6,8.96863,0.463182,-0.0740933,0.00115638,0,
6,8.96435,0.476952,-0.0740909,0.00117811,0,
6,8.95953,0.490394,-0.0740882,0.00119811,0,
6,8.95409,0.503572,-0.074085,0.00121667,0,
6,8.94798,0.516542,-0.0740813,0.00123395,0,
6,8.94109,0.529353,-0.074077,0.00125005,0,
6,8.93334,0.542049,-0.0740721,0.00126497,0,
6,8.92463,0.554667,-0.0740664,0.00127868,0,
6,8.91482,0.567242,-0.07406,0.00129107,0,
6,8.90379,0.579801,-0.0740527,0.00130197,0,
6,8.89139,0.592369,-0.0740445,0.00131119,0,
6,8.87746,0.604968,-0.0740353,0.00131849,0,
6,8.86181,0.617614,-0.074025,0.00132361,0,
6,8.84423,0.630322,-0.0740136,0.00132628,0,
6,8.82452,0.643102,-0.0740011,0.00132622,0,
6,8.80241,0.655963,-0.0739874,0.00132314,0,
6,8.77763,0.668914,-0.0739727,0.00131678,0,
6,8.74989,0.68196,-0.0739568,0.00130688,0,
6,8.71885,0.695111,-0.0739398,0.0012932,0,
6,8.68417,0.708377,-0.0739218,0.00127549,0,
6,8.64545,0.721772,-0.0739026,0.00125352,0,
6,8.60229,0.735318,-0.0738831,0.00122674,0,
6,8.55423,0.749043,-0.0738632,0.00119538,0,
6,8.50082,0.762987,-0.073843,0.00115937,0,
6,8.44155,0.777226,-0.0738234,0.00111807,0,
6,8.37592,0.791888,-0.0738048,0.00107035,0,
6,8.30339,0.807166,-0.0737879,0.00101432,0,
6,8.22344,0.823316,-0.0737725,0.000947137,0,
6,8.13555,0.840637,-0.0737592,0.000865099,0,
6,8.0392,0.859379,-0.0737437,0.000764784,0,
6,7.93391,0.87954,-0.0737257,0.000645902,0,
6,7.81927,0.900538,-0.0736939,0.00051489,0,
6,7.6949,0.921002,-0.0736526,0.000386746,0,
6,7.56054,0.939088,-0.0735947,0.000271223,0,
6,7.41603,0.953187,-0.0735223,0.00014058,0,
6,7.26132,0.962312,-0.0734411,5.59403e-05,0,
6,7.09653,0.966702,-0.0733401,1.43212e-05,0,
6,6.92195,0.967804,-0.0732196,7.73704e-07,0,
6,6.73802,0.967374,-0.0730722,-1.03258e-06,0,
6,6.5454,0.966657,-0.0728946,-4.87231e-07,0,
6,6.34489,0.966162,-0.0726829,-1.38226e-07,0,
6,6.1375,0.965909,-0.0724338,-3.78033e-08,0,
6,5.92439,0.965763,-0.0721427,-1.44213e-08,0,
6,5.70687,0.965612,-0.0718048,-8.22651e-09,0,
6,5.48633,0.965413,-0.0714148,-6.40146e-09,0,
6,5.26426,0.965163,-0.0709674,-6.12281e-09,0,
6,5.04218,0.964869,-0.0704573,-6.44446e-09,0,
6,4.82159,0.964547,-0.0698797,-6.98205e-09,0,
6,4.60398,0.964206,-0.0692302,-7.64863e-09,0,
6,4.39071,0.963846,-0.0685057,-8.60534e-09,0,
6,4.18307,0.963436,-0.0677042,-1.0187e-08,0,
6,3.98218,0.962916,-0.0668255,-1.26158e-08,0,
6,3.78902,0.962228,-0.0658711,-1.55657e-08,0,
6,3.60438,0.961393,-0.0648449,-1.98725e-08,0,
6,3.42888,0.96058,-0.0637526,-4.13168e-08,0,
6,3.26296,0.960079,-0.0626011,-1.09382e-07,0,
6,3.10691,0.960134,-0.061398,-1.45895e-07,0,
6,2.96084,0.960731,-0.060151,1.19822e-08,0,
6,2.82473,0.961497,-0.0588704,-3.54685e-07,0,
6,2.69844,0.961816,-0.0575692,-4.09538e-06,0,
6,2.58172,0.961078,-0.0562629,-1.559e-05,0,
6,2.47424,0.958881,-0.0549676,-3.85515e-05,0,
6,2.37559,0.955116,-0.0536989,-7.44532e-05,0,
6,2.28535,0.94992,-0.0524703,-0.00012235,0,
6,2.20301,0.943584,-0.0512931,-0.000179493,0,
6,2.1281,0.936462,-0.0501755,-0.00024223,0,
6,2.06009,0.928903,-0.0491236,-0.000306675,0,
6,1.99849,0.921215,-0.0481397,-0.000369095,0,
6,1.9428,0.913655,-0.0472269,-0.00042634,0,
6,1.89255,0.906417,-0.0463804,-0.000477319,0,
6,1.84728,0.899601,-0.0456053,-0.000521827,0,
6,1.80655,0.893211,-0.0449013,-0.000552265,0,
6,1.76996,0.887239,-0.0442543,-0.000580098,0,
6,1.73712,0.881702,-0.0436665,-0.000605609,0,
6,1.70768,0.876571,-0.0431299,-0.000629231,0,
6,1.67998,0.871622,-0.0426214,-0.000652193,0,
6,1.65329,0.866757,-0.0421249,-0.000674652,0,
6,1.62754,0.861975,-0.0416407,-0.000696562,0,
6,1.60265,0.857275,-0.0411674,-0.000718015,0,
6,1.57854,0.852657,-0.0407045,-0.000738968,0,
6,1.55515,0.848121,-0.0402513,-0.000759439,0,
6,1.53242,0.843662,-0.039807,-0.000779443,0,
6,1.5103,0.839275,-0.0393712,-0.000798951,0,
6,1.48874,0.834946,-0.0389436,-0.000817941,0,
6,1.46769,0.830657,-0.0385233,-0.000836538,0,
6,1.44712,0.826396,-0.0381093,-0.000855139,0,
6,1.42698,0.822174,-0.037699,-0.000874429,0,
6,1.40725,0.818032,-0.0372909,-0.000894935,0,
6,1.38788,0.814025,-0.0368835,-0.000916805,0,
6,1.36886,0.810169,-0.0364835,-0.000938603,0,
6,1.35015,0.806394,-0.0360965,-0.000941721,0,
6,1.33173,0.802629,-0.0357145,-0.000950943,0,
6,1.31357,0.798851,-0.0353344,-0.000962355,0,
6,1.29566,0.795043,-0.0349581,-0.000975904,0,
6,1.27797,0.791184,-0.0345842,-0.000992691,0,
6,1.26048,0.787246,-0.0342132,-0.00101398,0,
6,1.24318,0.783198,-0.0338445,-0.00104136,0,
6,1.22605,0.779002,-0.0334782,-0.00107672,0,
6,1.20907,0.774612,-0.033114,-0.0011222,0,
6,1.19223,0.769977,-0.032752,-0.00118013,0,
6,1.17551,0.765038,-0.0323921,-0.00125292,0,
6,1.1589,0.759734,-0.0320342,-0.00134291,0,
6,1.14238,0.754006,-0.0316786,-0.00145205,0,
6,1.12595,0.747796,-0.0313253,-0.00158172,0,
6,1.10959,0.741062,-0.0309745,-0.00173241,0,
6,1.09329,0.733774,-0.0306265,-0.00190353,0,
6,1.07704,0.725924,-0.0302815,-0.0020934,0,
6,1.06081,0.717517,-0.0299396,-0.00229921,0,
6,1.04459,0.708576,-0.0296012,-0.00251741,0,
6,1.02836,0.699143,-0.0292661,-0.0027438,0,
6,1.01211,0.68927,-0.0289353,-0.00297385,0,
6,0.99583,0.679014,-0.0286075,-0.00320314,0,
6,0.97951,0.668433,-0.0282859,-0.00343159,0,
6,0.963136,0.65756,-0.0279634,-0.00365909,0,
6,0.946694,0.64634,-0.0276357,-0.00387043,0,
6,0.930172,0.634677,-0.0273106,-0.00408779,0,
6,0.913555,0.622502,-0.0269888,-0.00431369,0,
6,0.896829,0.609762,-0.026672,-0.00454988,0,
6,0.879979,0.596415,-0.0263605,-0.00479763,0,
6,0.862989,0.58243,-0.0260549,-0.00505787,0,
6,0.845842,0.5678,-0.0257558,-0.00533126,0,
6,0.828521,0.552538,-0.0254641,-0.00561839,0,
6,0.811008,0.536669,-0.0251818,-0.00591697,0,
6,0.793282,0.520216,-0.0249108,-0.00622212,0,
6,0.775322,0.503196,-0.0246523,-0.00653146,0,
6,0.757107,0.485629,-0.0244077,-0.00684218,0,
6,0.738612,0.467545,-0.0241786,-0.00715092,0,
6,0.719813,0.448988,-0.023966,-0.00745375,0,
6,0.700681,0.430012,-0.0237705,-0.00774622,0,
6,0.681188,0.410678,-0.0235908,-0.00802348,0,
6,0.661304,0.391041,-0.0234234,-0.00828034,0,
6,0.640996,0.371141,-0.0232641,-0.00851119,0,
6,0.620228,0.351019,-0.0231121,-0.00870987,0,
6,0.598964,0.330753,-0.0229779,-0.00886967,0,
6,0.577166,0.310521,-0.0228894,-0.00898454,0,
6,0.554791,0.290657,-0.0228983,-0.00905122,0,
6,0.531799,0.271613,-0.0230418,-0.00907068,0,
6,0.508144,0.253768,-0.0233465,-0.00905046,0,
6,0.48378,0.237101,-0.0234721,-0.00895265,0,
6,0.459585,0.221646,-0.0232968,-0.00856739,0,
6,0.436695,0.20762,-0.0231057,-0.00827436,0,
6,0.414961,0.194807,-0.0229364,-0.00797404,0,
6,0.394252,0.183026,-0.0227479,-0.00766576,0,
6,0.374445,0.172131,-0.0225613,-0.00735604,0,
6,0.355433,0.162008,-0.0223737,-0.00704636,0,
6,0.337122,0.152565,-0.0221842,-0.00673594,0,
6,0.319433,0.143721,-0.0219909,-0.00642547,0,
6,0.3023,0.135413,-0.0217925,-0.00611555,0,
6,0.28567,0.127585,-0.0215879,-0.00580674,0,
6,0.269507,0.120194,-0.0213762,-0.00549965,0,
6,0.253785,0.113203,-0.0211564,-0.00519495,0,
6,0.238493,0.106584,-0.0209282,-0.00489343,0,
6,0.223631,0.100316,-0.0206914,-0.004596,0,
6,0.209207,0.0943786,-0.0204463,-0.00430367,0,
6,0.195237,0.088759,-0.0201936,-0.00401753,0,
6,0.181744,0.0834449,-0.0199342,-0.00373871,0,
6,0.168754,0.078426,-0.0196698,-0.00346835,0,
6,0.156292,0.0736924,-0.019402,-0.00320754,0,
6,0.144384,0.069235,-0.019133,-0.00295728,0,
6,0.133052,0.065044,-0.0188651,-0.00271844,0,
6,0.122315,0.0611094,-0.0186007,-0.00249174,0,
6,0.112183,0.0574206,-0.018342,-0.00227769,0,
6,0.102665,0.0539665,-0.0180914,-0.00207663,0,
6,0.0937597,0.0507356,-0.0178508,-0.0018887,0,
6,0.0854609,0.0477156,-0.0176219,-0.00171385,0,
6,0.077757,0.0448944,-0.017406,-0.00155188,0,
6,0.0706309,0.0422596,-0.0172042,-0.00140244,0,
6,0.0640611,0.0397988,-0.0170169,-0.00126506,0,
6,0.0580229,0.0374998,-0.0168445,-0.00113918,0,
6,0.0524888,0.0353506,-0.0166869,-0.00102417,0,
6,0.0474296,0.0333395,-0.0165438,-0.000919367,0,
6,0.042815,0.0314551,-0.0164147,-0.000824074,0,
6,0.0386145,0.0296865,-0.0162989,-0.000737592,0,
6,0.0347975,0.0280231,-0.0161957,-0.000659228,0,
6,0.0313344,0.0264545,-0.016104,-0.000588307,0,
6,0.0281964,0.024971,-0.0160231,-0.000524178,0,
6,0.0253561,0.0235627,-0.015952,-0.000466219,0,
6,0.0227875,0.0222201,-0.0158899,-0.000413841,0,
6,0.0204662,0.0209338,-0.0158357,-0.000366489,0,
6,0.0183694,0.019694,-0.015789,-0.000323636,0,
6,0.016476,0.0184909,-0.0157486,-0.000284787,0,
6,0.0147664,0.0173141,-0.0157144,-0.000249467,0,
6,0.0132228,0.0161522,-0.015685,-0.000217216,0,
6,0.0118288,0.0149927,-0.0156609,-0.000187582,0,
6,0.0105693,0.0138219,-0.0156402,-0.000160112,0,
6,0.00943073,0.0126242,-0.0156242,-0.000134349,0,
6,0.00840063,0.0113833,-0.0156105,-0.000109869,0,
6,0.00746774,0.0100842,-0.0156011,-8.63823e-05,0,
6,0.00662185,0.00871989,-0.0155928,-6.39864e-05,0,
6,0.00585371,0.00730192,-0.0155886,-4.3494e-05,0,
6,0.00515491,0.0058735,-0.0155842,-2.64135e-05,0,
6,0.00451788,0.00450901,-0.0155833,-1.40816e-05,0,
6,0.00393573,0.00328863,-0.0155807,-6.57157e-06,0,
6,0.00340221,0.00226495,-0.0155814,-2.70238e-06,0,
6,0.00291168,0.00145136,-0.0155793,-9.83055e-07,0,
6,0.00245897,0.000833578,-0.0155807,-3.13199e-07,0,
6,0.00203939,0.000385673,-0.0155783,-8.45693e-08,0,
6,0.00164864,8.04204e-05,-0.0155803,-1.8042e-08,0,
6,0.00128281,-0.000106251,-0.0155774,-2.61188e-09,0,
6,0.000938257,-0.000194021,-0.01558,-1.57982e-10,0,
6,0.000611645,-0.000198283,-0.0155764,1.03746e-11,0,
6,0.000299862,-0.000130669,-0.01558,8.62525e-13,0,

10,0.000296632,0.00853825,0.0294828,-5.05325e-11,0,
10,0.000596102,0.0171548,0.0294834,-1.87266e-09,0,
10,0.000900397,0.0259067,0.0294828,-1.90381e-08,0,
10,0.00121153,0.0348513,0.0294833,-1.02293e-07,0,
10,0.00153158,0.0440462,0.0294827,-3.82546e-07,0,
10,0.00186264,0.0535475,0.0294831,-1.13695e-06,0,
10,0.00220692,0.0634077,0.0294826,-2.88407e-06,0,
10,0.00256668,0.0736705,0.029483,-6.50561e-06,0,
10,0.00294431,0.084363,0.0294825,-1.33663e-05,0,
10,0.00334229,0.0954837,0.0294828,-2.53545e-05,0,
10,0.00376326,0.106988,0.0294824,-4.47092e-05,0,
10,0.00421,0.118777,0.0294825,-7.35038e-05,0,
10,0.00468544,0.130692,0.0294821,-0.000112834,0,
10,0.00519274,0.142532,0.0294821,-0.00016208,0,
10,0.00573524,0.154082,0.0294815,-0.000218784,0,
10,0.00631651,0.165146,0.0294812,-0.000279326,0,
10,0.00694041,0.175578,0.0294804,-0.000339988,0,
10,0.00761104,0.185288,0.0294797,-0.000397805,0,
10,0.00833284,0.194242,0.0294784,-0.0004509,0,
10,0.00911058,0.202445,0.029477,-0.000498408,0,
10,0.0099494,0.209933,0.029475,-0.000540217,0,
10,0.0108548,0.21676,0.0294727,-0.000576703,0,
10,0.0118329,0.222987,0.0294697,-0.000608505,0,
10,0.0128901,0.22868,0.0294662,-0.000636373,0,
10,0.0140333,0.233901,0.0294618,-0.000661075,0,
10,0.0152702,0.238709,0.0294567,-0.000683338,0,
10,0.0166089,0.243158,0.0294506,-0.000703823,0,
10,0.0180584,0.247297,0.0294436,-0.000723115,0,
10,0.0196282,0.251167,0.0294352,-0.000741731,0,
10,0.0213288,0.254807,0.0294257,-0.000760123,0,
10,0.0231714,0.258249,0.0294147,-0.000778692,0,
10,0.0251682,0.261522,0.0294022,-0.000797796,0,
10,0.0273326,0.264651,0.0293878,-0.000817766,0,
10,0.0296789,0.267661,0.0293716,-0.000838909,0,
10,0.0322227,0.27057,0.0293533,-0.000861519,0,
10,0.0349809,0.273398,0.0293327,-0.000885883,0,
10,0.0379719,0.27616,0.0293096,-0.000912289,0,
10,0.0412155,0.278873,0.0292837,-0.000941026,0,
10,0.0447333,0.281551,0.0292549,-0.000972394,0,
10,0.0485489,0.284208,0.0292229,-0.00100671,0,
10,0.0526875,0.286858,0.0291873,-0.00104429,0,
10,0.0571768,0.289513,0.029148,-0.00108549,0,
10,0.0620466,0.292186,0.0291046,-0.00113068,0,
10,0.0673295,0.294892,0.0290569,-0.00118026,0,
10,0.0730607,0.297643,0.0290046,-0.00123464,0,
10,0.0792784,0.300455,0.0289473,-0.00129427,0,
10,0.0860241,0.303342,0.0288849,-0.00135966,0,
10,0.0933428,0.30632,0.0288171,-0.0014313,0,
10,0.101283,0.309407,0.0287435,-0.00150975,0,
10,0.109899,0.312623,0.0286642,-0.0015956,0,
10,0.119247,0.315988,0.0285788,-0.00168946,0,
10,0.12939,0.319526,0.0284872,-0.00179199,0,
10,0.140395,0.323264,0.0283895,-0.00190385,0,
10,0.152337,0.327232,0.0282855,-0.00202574,0,
10,0.165296,0.331464,0.0281754,-0.00215835,0,
10,0.179357,0.335998,0.0280594,-0.00230236,0,
10,0.194615,0.340879,0.0279375,-0.00245842,0,
10,0.211171,0.346159,0.0278101,-0.00262711,0,
10,0.229138,0.351895,0.0276773,-0.00280888,0,
10,0.248635,0.358157,0.0275399,-0.00300401,0,
10,0.269793,0.365023,0.027397,-0.00321251,0,
10,0.292753,0.372583,0.027251,-0.00343404,0,
10,0.317669,0.380943,0.0270979,-0.00366643,0,
10,0.344708,0.390217,0.0269431,-0.00390658,0,
10,0.372405,0.399962,0.0267921,-0.00414332,0,
10,0.399623,0.409799,0.0266472,-0.00436533,0,
10,0.426397,0.419728,0.0265093,-0.00456966,0,
10,0.452757,0.429755,0.0263769,-0.00475753,0,
10,0.478735,0.43989,0.0262523,-0.0049267,0,
10,0.504358,0.450152,0.0261356,-0.00507627,0,
10,0.529657,0.460564,0.0260284,-0.00520404,0,
10,0.554656,0.471149,0.0259242,-0.00531079,0,
10,0.579382,0.481923,0.0258302,-0.00539589,0,
10,0.603859,0.492896,0.025722,-0.00547513,0,
10,0.628112,0.504144,0.0256556,-0.00555905,0,
10,0.652163,0.515997,0.025673,-0.00549469,0,
10,0.676035,0.528801,0.0256867,-0.00540153,0,
10,0.699751,0.542545,0.0256592,-0.00527794,0,
10,0.72333,0.556981,0.0255899,-0.00512301,0,
10,0.746795,0.571794,0.0254867,-0.004939,0,
10,0.770165,0.586707,0.0253612,-0.00473018,0,
10,0.79346,0.601529,0.025221,-0.00450169,0,
10,0.816699,0.61614,0.0250701,-0.00425857,0,
10,0.839903,0.630449,0.0249098,-0.00400579,0,
10,0.863088,0.644363,0.0247378,-0.00374989,0,
10,0.886275,0.657766,0.0245523,-0.00350226,0,
10,0.909481,0.670557,0.0243561,-0.00326348,0,
10,0.932723,0.682697,0.0241518,-0.00303388,0,
10,0.956021,0.694199,0.023941,-0.00281402,0,
10,0.97939,0.7051,0.0237242,-0.0026045,0,
10,1.00285,0.715437,0.0235012,-0.00240583,0,
10,1.02641,0.72524,0.0232714,-0.00221848,0,
10,1.0501,0.734531,0.023035,-0.00204281,0,
10,1.07392,0.743332,0.0227916,-0.0018791,0,
10,1.0979,0.751665,0.0225428,-0.00172707,0,
10,1.12205,0.759564,0.0222888,-0.00158196,0,
10,1.14639,0.767041,0.0220269,-0.00145161,0,
10,1.17093,0.774095,0.0217565,-0.00133456,0,
10,1.19568,0.780736,0.0214786,-0.00123157,0,
10,1.22066,0.786992,0.0211926,-0.00114279,0,
10,1.24589,0.792904,0.0209,-0.00106761,0,
10,1.27137,0.79852,0.0205995,-0.00100484,0,
10,1.29713,0.803894,0.0202941,-0.000955122,0,
10,1.32317,0.809102,0.0199818,-0.000914109,0,
10,1.34951,0.814275,0.0196641,-0.000868897,0,
10,1.37616,0.819512,0.0193429,-0.000826918,0,
10,1.40313,0.824799,0.0190141,-0.000788258,0,
10,1.43043,0.83007,0.0186778,-0.000752755,0,
10,1.45807,0.835264,0.018333,-0.000719873,0,
10,1.48607,0.840365,0.0179809,-0.000688894,0,
10,1.51444,0.845388,0.0176216,-0.000659217,0,
10,1.54318,0.85035,0.0172555,-0.000630513,0,
10,1.57231,0.855253,0.016882,-0.000602693,0,
10,1.60184,0.860081,0.0165012,-0.000575779,0,
10,1.63178,0.864804,0.0161127,-0.00054981,0,
10,1.66213,0.869394,0.0157171,-0.000524778,0,
10,1.69292,0.873834,0.0153136,-0.00050057,0,
10,1.72416,0.878131,0.0149034,-0.0004768,0,
10,1.75585,0.88233,0.0144841,-0.000448613,0,
10,1.78802,0.886476,0.0140568,-0.000420595,0,
10,1.82067,0.890573,0.0136225,-0.000392342,0,
10,1.85383,0.894601,0.0131797,-0.000362981,0,
10,1.88751,0.898539,0.0127288,-0.00033275,0,
10,1.92173,0.902363,0.0122696,-0.000302013,0,
10,1.95652,0.906049,0.0118016,-0.000271197,0,
10,1.9919,0.909572,0.0113256,-0.000240764,0,
10,2.02791,0.91291,0.01084,-0.000211252,0,
10,2.06456,0.916045,0.0103469,-0.000182879,0,
10,2.10268,0.919013,0.00983203,-0.000155225,0,
10,2.1443,0.921905,0.00927263,-0.000128658,0,
10,2.18977,0.924667,0.00866176,-0.00010331,0,
10,2.23946,0.92722,0.00799766,-7.94865e-05,0,
10,2.29376,0.929479,0.00727493,-5.80138e-05,0,
10,2.35309,0.931363,0.0064913,-3.95899e-05,0,
10,2.4179,0.932803,0.00564281,-2.47403e-05,0,
10,2.48863,0.933754,0.00472773,-1.37373e-05,0,
10,2.56575,0.934213,0.00374386,-6.48941e-06,0,
10,2.64971,0.934237,0.00269082,-2.48715e-06,0,
10,2.74098,0.933945,0.00156837,-8.53997e-07,0,
10,2.83997,0.933516,0.000377757,-5.45337e-07,0,
10,2.94709,0.933154,-0.000879392,-6.56154e-07,0,
10,3.06269,0.933042,-0.00220027,-6.7681e-07,0,
10,3.18706,0.933289,-0.00358134,-5.16453e-07,0,
10,3.3204,0.933898,-0.00501757,-2.9952e-07,0,
10,3.46281,0.934776,-0.00650234,-1.39849e-07,0,
10,3.61427,0.935778,-0.00802695,-6.01612e-08,0,
10,3.77463,0.936767,-0.0095808,-3.09363e-08,0,
10,3.94358,0.937664,-0.0111516,-2.20487e-08,0,
10,4.12067,0.938455,-0.0127262,-1.90454e-08,0,
10,4.30525,0.939172,-0.0142907,-1.77054e-08,0,
10,4.49655,0.93986,-0.0158315,-1.72273e-08,0,
10,4.6936,0.940545,-0.0173356,-1.75891e-08,0,
10,4.89531,0.941231,-0.0187908,-1.92813e-08,0,
10,5.10047,0.941903,-0.0201863,-2.37508e-08,0,
10,5.30776,0.94254,-0.0215129,-3.42253e-08,0,
10,5.51581,0.943126,-0.022763,-5.73874e-08,0,
10,5.72323,0.943657,-0.0239312,-1.07621e-07,0,
10,5.92863,0.944159,-0.0250141,-2.20171e-07,0,
10,6.13069,0.944698,-0.0260101,-4.87834e-07,0,
10,6.32816,0.94537,-0.0269197,-1.10451e-06,0,
10,6.51991,0.946205,-0.0277448,-2.14885e-06,0,
10,6.70495,0.946971,-0.028489,-2.30681e-06,0,
10,6.88244,0.94695,-0.0291556,3.7821e-06,0,
10,7.0517,0.944915,-0.0297487,2.70119e-05,0,
10,7.21224,0.939482,-0.0302686,8.06715e-05,0,
10,7.3637,0.929769,-0.0307209,0.00017394,0,
10,7.5059,0.915822,-0.0311098,0.000297051,0,
10,7.63878,0.898228,-0.0314392,0.000404504,0,
10,7.76243,0.878095,-0.0317188,0.000523334,0,
10,7.87701,0.857191,-0.0319433,0.000644754,0,
10,7.9828,0.83697,-0.0321291,0.000754983,0,
10,8.08014,0.818142,-0.0322781,0.000849015,0,
10,8.16941,0.800788,-0.0324017,0.000927318,0,
10,8.25106,0.784662,-0.0325036,0.000993013,0,
10,8.32554,0.76944,-0.0325902,0.0010493,0,
10,8.39331,0.754844,-0.0326635,0.00109842,0,
10,8.45484,0.740678,-0.0327264,0.00114164,0,
10,8.5106,0.72682,-0.03278,0.00117958,0,
10,8.56104,0.713212,-0.032826,0.00121246,0,
10,8.60659,0.699835,-0.0328654,0.00124039,0,
10,8.64767,0.686697,-0.0328996,0.00126347,0,
10,8.68467,0.673802,-0.0329291,0.00128132,0,
10,8.71795,0.661122,-0.0329546,0.00129112,0,
10,8.74786,0.64863,-0.0329768,0.00129737,0,
10,8.77471,0.636324,-0.0329958,0.00129933,0,
10,8.79881,0.624199,-0.0330123,0.00129745,0,
10,8.8204,0.612246,-0.0330264,0.00129225,0,
10,8.83975,0.600457,-0.0330386,0.00128425,0,
10,8.85708,0.588816,-0.0330489,0.00127394,0,
10,8.87259,0.577305,-0.0330577,0.00126177,0,
10,8.88646,0.565903,-0.0330652,0.00124813,0,
10,8.89886,0.554586,-0.0330715,0.00123339,0,
10,8.90995,0.543325,-0.0330768,0.00121782,0,
10,8.91986,0.53209,-0.0330812,0.00120164,0,
10,8.92872,0.520848,-0.033085,0.00118501,0,
10,8.93663,0.509564,-0.033088,0.00116802,0,
10,8.94369,0.498197,-0.0330906,0.0011507,0,
10,8.95,0.486706,-0.0330927,0.001133,0,
10,8.95564,0.475046,-0.0330946,0.00111485,0,
10,8.96067,0.463167,-0.033096,0.00109609,0,
10,8.96517,0.451015,-0.0330972,0.00107644,0,
10,8.96918,0.438528,-0.0330981,0.0010556,0,
10,8.97276,0.425636,-0.0330991,0.00103312,0,
10,8.97596,0.412259,-0.0330996,0.00100845,0,
10,8.97882,0.398306,-0.0331003,0.000980856,0,
10,8.98137,0.383668,-0.0331006,0.000949401,0,
10,8.98365,0.368219,-0.0331011,0.000912878,0,
10,8.98569,0.351808,-0.0331012,0.000869909,0,
10,8.9875,0.334253,-0.0331017,0.000818122,0,
10,8.98913,0.315319,-0.0331016,0.00075276,0,
10,8.99058,0.294777,-0.0331021,0.000675525,0,
10,8.99188,0.272469,-0.0331018,0.000584075,0,
10,8.99304,0.248233,-0.0331023,0.000471532,0,
10,8.99408,0.22203,-0.0331019,0.00034562,0,
10,8.99501,0.194232,-0.0331025,0.00022003,0,
10,8.99583,0.165743,-0.033102,0.00011655,0,
10,8.99658,0.137827,-0.0331026,5.00214e-05,0,
10,8.99724,0.111596,-0.033102,1.72565e-05,0,
10,8.99784,0.0876318,-0.0331027,4.7396e-06,0,
10,8.99837,0.0660445,-0.033102,9.93888e-07,0,
10,8.99885,0.0466989,-0.0331028,1.42374e-07,0,
10,8.99927,0.029384,-0.0331019,1.0809e-08,0,
10,8.99966,0.0138856,-0.0331029,2.39154e-10,0,
10,0,0,0.0294836,0,0,
10,9,0,-0.0331018,0,0,

0.004,0,0,-0.227001,0,-8.7526e-08,
0.00868226,0,0,-0.226998,0,-1.97695e-07,
0.014062,0,0,-0.227,0,-3.33872e-07,
0.0201548,0,0,-0.226999,0,-7.84245e-07,
0.0269766,0,0,-0.227,0,-1.32694e-06,
0.0345437,0,0,-0.226999,0,-2.01166e-06,
0.0428729,0,0,-0.226998,0,-2.65127e-06,
0.051981,0,0,-0.226996,0,-3.1541e-06,
0.0618853,0,0,-0.226994,0,-3.31152e-06,
0.0726036,0,0,-0.22699,0,-2.94019e-06,
0.0841536,0,0,-0.226986,0,-1.82335e-06,
0.0965535,0,0,-0.226982,0,2.07399e-07,
0.109822,0,0,-0.226978,0,3.25005e-06,
0.123977,0,0,-0.226977,0,7.28695e-06,
0.139037,0,0,-0.226978,0,1.21632e-05,
0.155022,0,0,-0.226985,0,1.76059e-05,
0.171949,0,0,-0.226996,0,2.325e-05,
0.189839,0,0,-0.227013,0,2.87057e-05,
0.208709,0,0,-0.227035,0,3.36009e-05,
0.228579,0,0,-0.227061,0,3.76385e-05,
0.249467,0,0,-0.227091,0,4.0614e-05,
0.271391,0,0,-0.227122,0,4.24368e-05,
0.29437,0,0,-0.227153,0,4.31211e-05,
0.31842,0,0,-0.227182,0,4.27806e-05,
0.343559,0,0,-0.22721,0,4.16062e-05,
0.369804,0,0,-0.227234,0,3.98478e-05,
0.39717,0,0,-0.227256,0,3.77915e-05,
0.425672,0,0,-0.227274,0,3.57448e-05,
0.455324,0,0,-0.22729,0,3.40179e-05,
0.48614,0,0,-0.227305,0,3.29211e-05,
0.518132,0,0,-0.227321,0,3.27322e-05,
0.551309,0,0,-0.227339,0,3.36356e-05,
0.585683,0,0,-0.227362,0,3.56979e-05,
0.621259,0,0,-0.227394,0,3.88684e-05,
0.658046,0,0,-0.227439,0,4.30003e-05,
0.696047,0,0,-0.227499,0,4.78906e-05,
0.735265,0,0,-0.227578,0,5.33269e-05,
0.7757,0,0,-0.227681,0,5.91207e-05,
0.817352,0,0,-0.227812,0,6.50802e-05,
0.860215,0,0,-0.22798,0,7.08698e-05,
0.904285,0,0,-0.228195,0,7.58707e-05,
0.949552,0,0,-0.228474,0,7.91163e-05,
0.996004,0,0,-0.228834,0,7.91836e-05,
1.04363,0,0,-0.2293,0,7.41736e-05,
1.09241,0,0,-0.229891,0,6.19653e-05,
1.14232,0,0,-0.230623,0,4.06605e-05,
1.19335,0,0,-0.231499,0,9.10513e-06,
1.24546,0,0,-0.232507,0,-3.26802e-05,
1.29863,0,0,-0.23362,0,-8.34277e-05,
1.35283,0,0,-0.234808,0,-0.000141002,
1.40802,0,0,-0.236036,0,-0.000203041,
1.46416,0,0,-0.237272,0,-0.00026753,
1.52121,0,0,-0.238489,0,-0.000333101,
1.57913,0,0,-0.239665,0,-0.000399011,
1.63787,0,0,-0.240779,0,-0.000464947,
1.69739,0,0,-0.241814,0,-0.000530808,
1.75761,0,0,-0.242754,0,-0.000596553,
1.81851,0,0,-0.243582,0,-0.000662126,
1.88,0,0,-0.244284,0,-0.000727433,
1.94204,0,0,-0.244844,0,-0.000792348,
2.00457,0,0,-0.245249,0,-0.000856722,
2.06751,0,0,-0.245485,0,-0.000920385,
2.13081,0,0,-0.245538,0,-0.000983158,
2.19439,0,0,-0.245398,0,-0.00104485,
2.25819,0,0,-0.245053,0,-0.00110525,
2.32214,0,0,-0.244494,0,-0.00116415,
2.38617,0,0,-0.243712,0,-0.00122132,
2.4502,0,0,-0.242701,0,-0.00127655,
2.51418,0,0,-0.241456,0,-0.00132959,
2.57803,0,0,-0.239974,0,-0.00138022,
2.64167,0,0,-0.238254,0,-0.0014282,
2.70505,0,0,-0.236298,0,-0.00147328,
2.76808,0,0,-0.234108,0,-0.00151522,
2.83072,0,0,-0.231691,0,-0.00155381,
2.89288,0,0,-0.229056,0,-0.00158885,
2.95451,0,0,-0.226215,0,-0.00162018,
3.01555,0,0,-0.22318,0,-0.00164772,
3.07594,0,0,-0.21997,0,-0.00167142,
3.13561,0,0,-0.216599,0,-0.00169129,
3.19453,0,0,-0.213089,0,-0.00170742,
3.25262,0,0,-0.209457,0,-0.0017199,
3.30985,0,0,-0.205723,0,-0.00172888,
3.36617,0,0,-0.201907,0,-0.00173453,
3.42154,0,0,-0.198029,0,-0.00173701,
3.47591,0,0,-0.194106,0,-0.00173652,
3.52925,0,0,-0.190158,0,-0.00173328,
3.58152,0,0,-0.186201,0,-0.0017275,
3.6327,0,0,-0.182251,0,-0.00171942,
3.68276,0,0,-0.178323,0,-0.00170927,
3.73167,0,0,-0.174431,0,-0.00169726,
3.77941,0,0,-0.170586,0,-0.00168362,
3.82596,0,0,-0.1668,0,-0.00166857,
3.8713,0,0,-0.163082,0,-0.0016523,
3.91543,0,0,-0.159437,0,-0.00163488,
3.95833,0,0,-0.155892,0,-0.00161683,
4,0,0,-0.152415,0,-0.00159801,
4.04167,0,0,-0.148937,0,-0.00157797,
4.08333,0,0,-0.145455,0,-0.00155692,
4.125,0,0,-0.14197,0,-0.00153485,
4.16667,0,0,-0.138485,0,-0.00151178,
4.20833,0,0,-0.135005,0,-0.00148775,
4.25,0,0,-0.131531,0,-0.0014628,
4.29167,0,0,-0.128067,0,-0.00143698,
4.33333,0,0,-0.124616,0,-0.00141032,
4.375,0,0,-0.121179,0,-0.00138288,
4.41667,0,0,-0.11776,0,-0.00135468,
4.45833,0,0,-0.114361,0,-0.00132577,
4.5,0,0,-0.110985,0,-0.00129618,
4.54167,0,0,-0.107632,0,-0.00126597,
4.58333,0,0,-0.104306,0,-0.00123515,
4.625,0,0,-0.101008,0,-0.00120376,
4.66667,0,0,-0.0977393,0,-0.00117184,
4.70833,0,0,-0.0945026,0,-0.0011394,
4.75,0,0,-0.0912992,0,-0.00110649,
4.79167,0,0,-0.0881306,0,-0.00107313,
4.83333,0,0,-0.0849981,0,-0.00103934,
4.875,0,0,-0.0819032,0,-0.00100516,
4.91667,0,0,-0.0788472,0,-0.000970611,
4.95833,0,0,-0.0758313,0,-0.000935724,
5,0,0,-0.0728565,0,-0.000900527,
5.04167,0,0,-0.0699239,0,-0.000865048,
5.08333,0,0,-0.0670345,0,-0.000829314,
5.125,0,0,-0.064189,0,-0.000793351,
5.16667,0,0,-0.0613882,0,-0.000757182,
5.20833,0,0,-0.0586329,0,-0.000720833,
5.25,0,0,-0.0559237,0,-0.000684325,
5.29167,0,0,-0.0532611,0,-0.00064768,
5.33333,0,0,-0.0506457,0,-0.000610919,
5.375,0,0,-0.0480779,0,-0.000574062,
5.41667,0,0,-0.0455582,0,-0.000537129,
5.45833,0,0,-0.043087,0,-0.00050014,
5.5,0,0,-0.0406647,0,-0.000463115,
5.54167,0,0,-0.0382916,0,-0.000426069,
5.58333,0,0,-0.0359681,0,-0.00038902,
5.625,0,0,-0.0336947,0,-0.00035198,
5.66667,0,0,-0.0314717,0,-0.000314965,
5.70833,0,0,-0.0292998,0,-0.000277993,
5.75,0,0,-0.0271797,0,-0.0002411,
5.79167,0,0,-0.0251126,0,-0.000204349,
5.83333,0,0,-0.023099,0,-0.000167835,
5.875,0,0,-0.0211394,0,-0.000131666,
5.91667,0,0,-0.019233,0,-9.59252e-05,
5.95833,0,0,-0.0173788,0,-6.06477e-05,
6,0,0,-0.0155755,0,-2.58297e-05,
6.04167,0,0,-0.0138222,0,8.54562e-06,
6.08333,0,0,-0.0121177,0,4.2493e-05,
6.125,0,0,-0.010461,0,7.60218e-05,
6.16667,0,0,-0.00885128,0,0.000109137,
6.20833,0,0,-0.00728762,0,0.000141842,
6.25,0,0,-0.00576913,0,0.000174138,
6.29167,0,0,-0.00429495,0,0.000206028,
6.33333,0,0,-0.00286424,0,0.000237511,
6.375,0,0,-0.00147617,0,0.000268589,
6.41667,0,0,-0.000129902,0,0.000299263,
6.45833,0,0,0.00117538,0,0.000329534,
6.5,0,0,0.00244048,0,0.000359402,
6.54167,0,0,0.00366621,0,0.00038887,
6.58333,0,0,0.00485335,0,0.000417937,
6.625,0,0,0.0060027,0,0.000446604,
6.66667,0,0,0.00711503,0,0.000474875,
6.70833,0,0,0.00819112,0,0.000502749,
6.75,0,0,0.00923173,0,0.000530228,
6.79167,0,0,0.0102376,0,0.000557314,
6.83333,0,0,0.0112095,0,0.000584008,
6.875,0,0,0.0121482,0,0.000610312,
6.91667,0,0,0.0130543,0,0.000636227,
6.95833,0,0,0.0139287,0,0.000661754,
7,0,0,0.014772,0,0.000686895,
7.04167,0,0,0.0155849,0,0.000711653,
7.08333,0,0,0.0163683,0,0.000736029,
7.125,0,0,0.0171226,0,0.000760025,
7.16667,0,0,0.0178488,0,0.000783644,
7.20833,0,0,0.0185473,0,0.000806888,
7.25,0,0,0.0192189,0,0.000829761,
7.29167,0,0,0.0198643,0,0.000852267,
7.33333,0,0,0.020484,0,0.00087441,
7.375,0,0,0.0210788,0,0.000896196,
7.41667,0,0,0.0216492,0,0.000917635,
7.45833,0,0,0.022196,0,0.000938739,
7.5,0,0,0.0227197,0,0.000959517,
7.54167,0,0,0.0232209,0,0.000979976,
7.58333,0,0,0.0237001,0,0.00100012,
7.625,0,0,0.0241578,0,0.00101994,
7.66667,0,0,0.0245945,0,0.00103945,
7.70833,0,0,0.0250106,0,0.00105865,
7.75,0,0,0.0254066,0,0.00107755,
7.79167,0,0,0.0257829,0,0.00109613,
7.83333,0,0,0.0261394,0,0.00111441,
7.875,0,0,0.026476,0,0.00113242,
7.91667,0,0,0.0268039,0,0.00115076,
7.95833,0,0,0.0270532,0,0.0011679,
8,0,0,0.0273891,0,0.00118504,
8.04171,0,0,0.0277452,0,0.00120319,
8.08368,0,0,0.0279672,0,0.00122112,
8.12617,0,0,0.0282302,0,0.00123728,
8.16946,0,0,0.0284775,0,0.00125351,
8.21382,0,0,0.028708,0,0.00126974,
8.25952,0,0,0.0289296,0,0.001286,
8.30685,0,0,0.0291416,0,0.00130244,
8.35611,0,0,0.0293441,0,0.00131918,
8.40762,0,0,0.0295371,0,0.00133627,
8.46168,0,0,0.0297201,0,0.0013538,
8.51865,0,0,0.0298921,0,0.0013718,
8.57889,0,0,0.0300519,0,0.00139033,
8.64276,0,0,0.0301978,0,0.00140943,
8.71067,0,0,0.0303277,0,0.00142912,
8.78306,0,0,0.0304393,0,0.00144943,
8.86037,0,0,0.0305298,0,0.00147037,
8.94309,0,0,0.0305959,0,0.00149195,
9.03174,0,0,0.0306341,0,0.00151416,
9.12689,0,0,0.0306404,0,0.001537,
9.22912,0,0,0.0306107,0,0.00156043,
9.33908,0,0,0.0305406,0,0.00158442,
9.45746,0,0,0.0304254,0,0.00160894,
9.58501,0,0,0.0302603,0,0.00163392,
9.72253,0,0,0.0300402,0,0.0016593,
9.87088,0,0,0.0297606,0,0.00168501,
10.031,0,0,0.0294171,0,0.00171094,
10.2039,0,0,0.0290061,0,0.00173701,
10.3906,0,0,0.028524,0,0.00176312,
10.5924,0,0,0.027968,0,0.00178913,
10.8105,0,0,0.0273378,0,0.00181492,
11.0463,0,0,0.0266338,0,0.0018404,
11.3012,0,0,0.0258566,0,0.00186545,
11.5769,0,0,0.0250103,0,0.00188996,
11.8751,0,0,0.0240999,0,0.00191383,
12.1977,0,0,0.0231318,0,0.00193699,
12.5466,0,0,0.0221157,0,0.00195935,
12.9242,0,0,0.0210613,0,0.00198088,
13.3327,0,0,0.0199807,0,0.00200153,
13.7748,0,0,0.018887,0,0.00202128,
14.2532,0,0,0.0177937,0,0.00204015,
14.7709,0,0,0.0167149,0,0.00205813,
15.3312,0,0,0.0156637,0,0.00207527,
15.9377,0,0,0.0146535,0,0.00209161,
16.594,0,0,0.013695,0,0.00210723,
17.3044,0,0,0.0127968,0,0.00212217,
18.0733,0,0,0.0119658,0,0.00213649,
18.9056,0,0,0.0112046,0,0.0021501,
19.8064,0,0,0.0105141,0,0.00216291,
20.7816,0,0,0.00989112,0,0.00217513,
21.8371,0,0,0.00932862,0,0.00218709,
22.9796,0,0,0.00881706,0,0.00219894,
24.2163,0,0,0.00834356,0,0.00221077,
25.5551,0,0,0.0078935,0,0.00222268,
27.0042,0,0,0.00745051,0,0.00223475,
28.5729,0,0,0.00699684,0,0.00224703,
30.271,0,0,0.00651443,0,0.00225952,
32.1091,0,0,0.00598595,0,0.00227213,
34.0989,0,0,0.00539636,0,0.00228477,
36.2529,0,0,0.00472811,0,0.00229751,
38.5845,0,0,0.0039732,0,0.00231026,
41.1085,0,0,0.00317069,0,0.00232285,
43.8407,0,0,0.00216144,0,0.00233304,
46.7983,0,0,0.00111357,0,0.00233873,
50,0,0,0.00213067,0,0.00235459,

