db5ae7bcacc6958399f9ccd7d02d52c67b9ae808 
X,Z,x_velocity,cp,uw_b,cf,
1,0,0,-0.226985,0,0,
1,9,0,-0.129723,0,0,
1,8.99969,0.0153878,-0.129723,2.84983e-10,0,
1,8.99934,0.0328455,-0.129723,1.3321e-08,0,
1,8.99894,0.0526695,-0.129723,1.83755e-07,0,
1,8.99848,0.0751734,-0.129723,1.34711e-06,0,
1,8.99797,0.10067,-0.129723,6.73352e-06,0,
1,8.99739,0.129355,-0.129723,2.54906e-05,0,
1,8.99672,0.161038,-0.129723,7.55371e-05,0,
1,8.99597,0.194782,-0.129723,0.00017568,0,
1,8.99512,0.228941,-0.129723,0.000323963,0,
1,8.99416,0.261858,-0.129723,0.000491934,0,
1,8.99306,0.292555,-0.129723,0.000650165,0,
1,8.99182,0.320857,-0.129722,0.000777662,0,
1,8.99041,0.346903,-0.129722,0.000883207,0,
1,8.98881,0.370852,-0.129721,0.000970389,0,
1,8.98699,0.392922,-0.129721,0.00104154,0,
1,8.98494,0.413401,-0.12972,0.00109748,0,
1,8.98261,0.432599,-0.129719,0.0011403,0,
1,8.97996,0.450756,-0.129718,0.00117618,0,
1,8.97696,0.468044,-0.129717,0.00120593,0,
1,8.97356,0.484605,-0.129716,0.0012308,0,
1,8.9697,0.500557,-0.129714,0.00125177,0,
1,8.96533,0.515998,-0.129712,0.00126954,0,
1,8.96038,0.531012,-0.12971,0.00128464,0,
1,8.95476,0.545667,-0.129708,0.00129742,0,
1,8.9484,0.560025,-0.129706,0.00130815,0,
1,8.9412,0.574134,-0.129703,0.001317,0,
1,8.93303,0.588038,-0.1297,0.00132408,0,
1,8.92379,0.601774,-0.129697,0.00132943,0,
1,8.91333,0.615374,-0.129694,0.00133306,0,
1,8.90149,0.628865,-0.12969,0.00133495,0,
1,8.8881,0.642271,-0.129687,0.00133504,0,
1,8.87295,0.655616,-0.129684,0.00133325,0,
1,8.85584,0.668918,-0.129682,0.0013295,0,
1,8.83651,0.682196,-0.12968,0.00132366,0,
1,8.81469,0.69547,-0.129679,0.00131561,0,
1,8.79007,0.708758,-0.129681,0.00130518,0,
1,8.76232,0.722084,-0.129685,0.00129219,0,
1,8.73107,0.735472,-0.129692,0.00127642,0,
1,8.69591,0.748951,-0.129704,0.00125759,0,
1,8.6564,0.762558,-0.129721,0.00123535,0,
1,8.61206,0.776338,-0.129747,0.00120929,0,
1,8.56236,0.790348,-0.129782,0.00117908,0,
1,8.50675,0.804665,-0.129831,0.00114596,0,
1,8.44464,0.819431,-0.129896,0.00110514,0,
1,8.3754,0.834865,-0.129983,0.0010536,0,
1,8.29839,0.85121,-0.130096,0.000990418,0,
1,8.21296,0.868711,-0.130243,0.000911106,0,
1,8.11843,0.887562,-0.130428,0.000810439,0,
1,8.01417,0.907761,-0.130668,0.000684964,0,
1,7.89956,0.928866,-0.130957,0.000538112,0,
1,7.77403,0.94975,-0.131334,0.000388371,0,
1,7.63711,0.968802,-0.131784,0.000205124,0,
1,7.48842,0.983696,-0.132317,7.61103e-05,0,
1,7.32773,0.9925,-0.132957,1.82679e-05,0,
1,7.15495,0.995694,-0.1337,1.81481e-06,0,
1,6.97022,0.995756,-0.134562,2.42833e-08,0,
1,6.77388,0.995139,-0.135557,3.79321e-09,0,
1,6.56652,0.995023,-0.136703,9.77198e-09,0,
1,6.34896,0.995478,-0.138011,1.25183e-08,0,
1,6.12229,0.996208,-0.139495,1.41209e-08,0,
1,5.88784,0.99701,-0.141171,1.49723e-08,0,
1,5.64716,0.997849,-0.143051,1.59464e-08,0,
1,5.40194,0.998755,-0.145146,1.73028e-08,0,
1,5.15407,0.999754,-0.147461,1.90307e-08,0,
1,4.90545,1.00086,-0.15,2.08482e-08,0,
1,4.65805,1.00206,-0.15276,2.27843e-08,0,
1,4.41376,1.00337,-0.155735,2.48086e-08,0,
1,4.17441,1.00476,-0.15891,2.6692e-08,0,
1,3.94163,1.00617,-0.162265,2.82716e-08,0,
1,3.7169,1.00757,-0.165774,3.01585e-08,0,
1,3.50146,1.00901,-0.169404,3.42944e-08,0,
1,3.29629,1.01083,-0.173121,4.27099e-08,0,
1,3.10217,1.01337,-0.176893,5.35656e-08,0,
1,2.91959,1.01644,-0.18069,9.79344e-08,0,
1,2.74885,1.0186,-0.18447,9.65606e-07,0,
1,2.59002,1.01744,-0.188169,-6.15052e-06,0,
1,2.44299,1.01123,-0.191721,-5.2306e-05,0,
1,2.30752,1.00017,-0.19506,-0.000150211,0,
1,2.18321,0.985734,-0.198126,-0.000285972,0,
1,2.06959,0.969489,-0.200951,-0.000403502,0,
1,1.9661,0.952709,-0.203515,-0.000505457,0,
1,1.87215,0.93632,-0.205784,-0.00060059,0,
1,1.78711,0.920832,-0.207795,-0.000684381,0,
1,1.71033,0.906402,-0.209566,-0.000756751,0,
1,1.64119,0.892998,-0.211118,-0.000819226,0,
1,1.57905,0.880508,-0.212473,-0.00087398,0,
1,1.52332,0.868805,-0.213652,-0.000923195,0,
1,1.47342,0.857778,-0.21468,-0.000969045,0,
1,1.42882,0.847338,-0.215556,-0.00100204,0,
1,1.389,0.837404,-0.216295,-0.00102697,0,
1,1.35351,0.82791,-0.216934,-0.00105019,0,
1,1.3219,0.818822,-0.21748,-0.00107098,0,
1,1.29378,0.810121,-0.217947,-0.00108908,0,
1,1.26878,0.801797,-0.218347,-0.00110456,0,
1,1.24659,0.793845,-0.218688,-0.0011178,0,
1,1.22689,0.78626,-0.218979,-0.00112889,0,
1,1.2092,0.778953,-0.219231,-0.0011368,0,
1,1.1932,0.771876,-0.21945,-0.00114227,0,
1,1.1787,0.765013,-0.21964,-0.00114597,0,
1,1.16554,0.758343,-0.219804,-0.00114896,0,
1,1.15357,0.751832,-0.219946,-0.00115329,0,
1,1.14266,0.745432,-0.220069,-0.00116266,0,
1,1.13268,0.73907,-0.220176,-0.00118172,0,
1,1.12354,0.732645,-0.220269,-0.00121696,0,
1,1.11514,0.726023,-0.220352,-0.00127622,0,
1,1.10739,0.719042,-0.220428,-0.00136815,0,
1,1.10022,0.711518,-0.220503,-0.00150122,0,
1,1.09357,0.703271,-0.220578,-0.00168228,0,
1,1.08738,0.694165,-0.220659,-0.00191483,0,
1,1.0816,0.684142,-0.220745,-0.00219738,0,
1,1.07618,0.673248,-0.220839,-0.0025229,0,
1,1.07107,0.661619,-0.220939,-0.00287977,0,
1,1.06626,0.649446,-0.221046,-0.00325422,0,
1,1.06169,0.636937,-0.221156,-0.0036329,0,
1,1.05735,0.624278,-0.22127,-0.00400482,0,
1,1.05321,0.611621,-0.221386,-0.00436195,0,
1,1.04925,0.599079,-0.221503,-0.00469912,0,
1,1.04544,0.586732,-0.221621,-0.00501344,0,
1,1.04177,0.574629,-0.221739,-0.00530366,0,
1,1.03822,0.5628,-0.221856,-0.00556967,0,
1,1.03478,0.551258,-0.221973,-0.00581204,0,
1,1.03144,0.540007,-0.222089,-0.00603176,0,
1,1.02818,0.529042,-0.222204,-0.00622999,0,
1,1.025,0.518356,-0.222318,-0.00640803,0,
1,1.02188,0.507937,-0.222431,-0.00656713,0,
1,1.01882,0.497772,-0.222542,-0.00670852,0,
1,1.01581,0.487848,-0.222653,-0.0068335,0,
1,1.01284,0.478151,-0.222762,-0.00694262,0,
1,1.00988,0.468565,-0.222872,-0.00703783,0,
1,1.00688,0.458978,-0.222983,-0.00712187,0,
1,1.00384,0.449379,-0.223096,-0.00719385,0,
1,1.00076,0.439753,-0.22321,-0.00725363,0,
1,0.997615,0.430083,-0.223325,-0.00730119,0,
1,0.99441,0.420346,-0.223441,-0.00733633,0,
1,0.991131,0.410517,-0.223558,-0.00735927,0,
1,0.987768,0.40057,-0.223677,-0.00736983,0,
1,0.984308,0.390476,-0.223798,-0.00736767,0,
1,0.980739,0.380203,-0.22392,-0.00735235,0,
1,0.977045,0.369719,-0.224044,-0.00732327,0,
1,0.973211,0.358987,-0.22417,-0.00727966,0,
1,0.969219,0.347965,-0.224299,-0.00722059,0,
1,0.965047,0.336611,-0.224429,-0.00714492,0,
1,0.960675,0.324875,-0.224563,-0.00705129,0,
1,0.956077,0.312702,-0.224698,-0.00693732,0,
1,0.951224,0.300036,-0.224837,-0.00680148,0,
1,0.946088,0.286817,-0.224978,-0.00664152,0,
1,0.940633,0.272991,-0.225123,-0.00645504,0,
1,0.934823,0.258512,-0.225272,-0.00624125,0,
1,0.928616,0.243343,-0.225425,-0.00599641,0,
1,0.921967,0.227454,-0.225581,-0.00571801,0,
1,0.914826,0.210824,-0.22574,-0.00540379,0,
1,0.907141,0.193449,-0.225901,-0.00505191,0,
1,0.898852,0.175347,-0.226063,-0.00466135,0,
1,0.889898,0.156569,-0.226226,-0.00423227,0,
1,0.880212,0.137216,-0.226389,-0.00376675,0,
1,0.869723,0.117462,-0.226551,-0.00326981,0,
1,0.858358,0.0975946,-0.226714,-0.00275105,0,
1,0.846039,0.0780695,-0.226878,-0.00222756,0,
1,0.83269,0.0595633,-0.227046,-0.00172683,0,
1,0.818232,0.0429567,-0.227222,-0.00128846,0,
1,0.802744,0.029183,-0.227394,-0.000944558,0,
1,0.78635,0.0185902,-0.227574,-0.000696861,0,
1,0.768969,0.0107024,-0.227749,-0.000530766,0,
1,0.75053,0.00473875,-0.227918,-0.000427659,0,
1,0.730977,-2.84153e-05,-0.228069,-0.000369329,0,
1,0.710271,-0.00413095,-0.228203,-0.000340348,0,
1,0.688397,-0.00790981,-0.228316,-0.000329248,0,
1,0.66536,-0.0115668,-0.22841,-0.000328759,0,
1,0.641194,-0.0152261,-0.228487,-0.000331777,0,
1,0.615961,-0.0189608,-0.228545,-0.000334673,0,
1,0.589754,-0.0227988,-0.228585,-0.000334795,0,
1,0.562692,-0.0267336,-0.228605,-0.000330702,0,
1,0.534925,-0.0307329,-0.228603,-0.000321825,0,
1,0.506624,-0.0347464,-0.228579,-0.000308172,0,
1,0.477982,-0.0387134,-0.22853,-0.0002901,0,
1,0.449206,-0.0425674,-0.228456,-0.000268168,0,
1,0.420509,-0.0462413,-0.228359,-0.000243032,0,
1,0.392107,-0.0496692,-0.22824,-0.000215383,0,
1,0.364206,-0.0527881,-0.228103,-0.000185903,0,
1,0.337003,-0.055539,-0.227952,-0.00015523,0,
1,0.310673,-0.0578666,-0.227792,-0.000123927,0,
1,0.28537,-0.0597193,-0.227629,-9.24735e-05,0,
1,0.26122,-0.061049,-0.227468,-6.12831e-05,0,
1,0.238324,-0.0618113,-0.227316,-3.0725e-05,0,
1,0.21675,-0.0619664,-0.227176,-1.16897e-06,0,
1,0.196544,-0.061482,-0.227054,2.69603e-05,0,
1,0.177724,-0.0603373,-0.226952,5.31422e-05,0,
1,0.160284,-0.0585285,-0.226872,7.6761e-05,0,
1,0.144202,-0.0560738,-0.226814,9.71569e-05,0,
1,0.129436,-0.053018,-0.226776,0.000113716,0,
1,0.115935,-0.0494332,-0.226757,0.000125973,0,
1,0.103636,-0.045416,-0.226753,0.000133681,0,
1,0.0924701,-0.0410802,-0.226761,0.000136852,0,
1,0.0823633,-0.0365476,-0.226778,0.000135771,0,
1,0.0732406,-0.0319384,-0.2268,0.000130935,0,
1,0.0650269,-0.0273614,-0.226825,0.000122973,0,
1,0.057648,-0.0229074,-0.226851,0.000112566,0,
1,0.0510323,-0.0186448,-0.226876,0.000100383,0,
1,0.0451115,-0.0146194,-0.226899,8.70347e-05,0,
1,0.0398209,-0.0108562,-0.226919,7.30609e-05,0,
1,0.0351001,-0.00736595,-0.226937,5.89417e-05,0,
1,0.0308929,-0.00415313,-0.226951,4.51563e-05,0,
1,0.0271475,-0.00122767,-0.226961,3.22989e-05,0,
1,0.0238164,0.00138165,-0.226969,2.11542e-05,0,
1,0.0208562,0.00362041,-0.226975,1.22428e-05,0,
1,0.0182274,0.00541744,-0.226978,6.0256e-06,0,
1,0.0158944,0.00671299,-0.226981,2.42575e-06,0,
1,0.0138249,0.00749751,-0.226982,7.36464e-07,0,
1,0.0119898,0.00782378,-0.226983,1.08006e-07,0,
1,0.0103632,0.00778436,-0.226983,-6.01571e-08,0,
1,0.00892169,0.00747895,-0.226984,-7.25623e-08,0,
1,0.00764438,0.00699437,-0.226984,-4.94058e-08,0,
1,0.00651264,0.00639825,-0.226984,-2.74497e-08,0,
1,0.00550983,0.00574055,-0.226984,-1.34719e-08,0,
1,0.00462115,0.00505696,-0.226984,-5.98411e-09,0,
1,0.00383341,0.0043725,-0.226985,-2.4134e-09,0,
1,0.0031349,0.00370416,-0.226984,-8.75009e-10,0,
1,0.00251518,0.00306313,-0.226985,-2.7878e-10,0,
1,0.00196502,0.00245626,-0.226984,-7.49604e-11,0,
1,0.00147619,0.00188734,-0.226985,-1.58556e-11,0,
1,0.00104139,0.00135786,-0.226984,-2.31845e-12,0,
1,0.000654158,0.000867761,-0.226985,-1.80314e-13,0,
1,0.000308731,0.000415861,-0.226984,-4.09381e-15,0,

4,0,0,-0.1602,0,0,
4,9,0,-0.0991635,0,0,
4,8.99969,0.0142582,-0.0991632,2.23705e-10,0,
4,8.99934,0.0303781,-0.0991634,1.03789e-08,0,
4,8.99894,0.0486212,-0.0991631,1.41723e-07,0,
4,8.9985,0.0692641,-0.0991633,1.02869e-06,0,
4,8.99799,0.0925883,-0.0991631,5.10586e-06,0,
4,8.99742,0.118796,-0.0991632,1.93329e-05,0,
4,8.99677,0.147804,-0.099163,5.80182e-05,0,
4,8.99605,0.178933,-0.0991631,0.000138631,0,
4,8.99522,0.210829,-0.0991628,0.000265043,0,
4,8.99429,0.24195,-0.0991628,0.00041707,0,
4,8.99324,0.271233,-0.0991625,0.000566786,0,
4,8.99205,0.298295,-0.0991622,0.000696297,0,
4,8.9907,0.323213,-0.0991617,0.000800375,0,
4,8.98919,0.346161,-0.0991613,0.000888077,0,
4,8.98747,0.367325,-0.0991605,0.000961035,0,
4,8.98553,0.386974,-0.0991598,0.00101846,0,
4,8.98334,0.405388,-0.0991588,0.00106473,0,
4,8.98087,0.422785,-0.0991576,0.00110381,0,
4,8.97807,0.439334,-0.0991562,0.00113697,0,
4,8.97491,0.455176,-0.0991546,0.00116552,0,
4,8.97134,0.47043,-0.0991527,0.00119043,0,
4,8.96731,0.485196,-0.0991505,0.00121242,0,
4,8.96276,0.499558,-0.0991479,0.00123202,0,
4,8.95762,0.51359,-0.0991449,0.0012496,0,
4,8.95182,0.527353,-0.0991415,0.00126541,0,
4,8.94526,0.540901,-0.0991376,0.0012796,0,
4,8.93787,0.554279,-0.0991333,0.00129224,0,
4,8.92952,0.567528,-0.0991284,0.00130334,0,
4,8.92011,0.580681,-0.099123,0.00131285,0,
4,8.90949,0.593768,-0.099117,0.00132068,0,
4,8.89751,0.606812,-0.0991105,0.0013267,0,
4,8.88402,0.619837,-0.0991035,0.00133076,0,
4,8.86881,0.632858,-0.0990961,0.0013327,0,
4,8.85169,0.645891,-0.0990883,0.00133232,0,
4,8.83242,0.658949,-0.0990803,0.00132945,0,
4,8.81074,0.672044,-0.0990725,0.00132389,0,
4,8.78637,0.685188,-0.099065,0.00131547,0,
4,8.75901,0.698392,-0.0990583,0.001304,0,
4,8.7283,0.711672,-0.0990528,0.00128928,0,
4,8.69387,0.725045,-0.0990491,0.00127111,0,
4,8.65533,0.738537,-0.0990483,0.00124922,0,
4,8.61222,0.752177,-0.0990512,0.00122331,0,
4,8.56407,0.766007,-0.0990593,0.00119301,0,
4,8.5104,0.780081,-0.0990742,0.00115827,0,
4,8.45065,0.794478,-0.0990982,0.00112034,0,
4,8.38429,0.809356,-0.0991348,0.00107243,0,
4,8.31073,0.824945,-0.0991868,0.00101505,0,
4,8.22941,0.841506,-0.0992573,0.000944759,0,
4,8.13974,0.859301,-0.0993501,0.000857207,0,
4,8.04115,0.878506,-0.099467,0.000748773,0,
4,7.93313,0.899013,-0.0996139,0.00061971,0,
4,7.81519,0.920117,-0.0997831,0.000479103,0,
4,7.68693,0.940354,-0.099999,0.00034436,0,
4,7.54803,0.957827,-0.100243,0.000203296,0,
4,7.39831,0.970644,-0.100535,8.94408e-05,0,
4,7.23771,0.977925,-0.100891,2.76425e-05,0,
4,7.06634,0.98061,-0.101298,4.5619e-06,0,
4,6.88453,0.980757,-0.101761,5.10934e-10,0,
4,6.69275,0.98021,-0.102281,-9.2103e-08,0,
4,6.49173,0.979904,-0.102865,2.20048e-08,0,
4,6.28238,0.979992,-0.103523,2.50086e-08,0,
4,6.06579,0.980312,-0.104263,1.43706e-08,0,
4,5.84328,0.980707,-0.105091,9.70462e-09,0,
4,5.61626,0.981113,-0.106013,8.48244e-09,0,
4,5.3863,0.981532,-0.107033,8.56805e-09,0,
4,5.15502,0.981979,-0.108155,9.1832e-09,0,
4,4.92406,0.982469,-0.109381,1.00703e-08,0,
4,4.69507,0.983012,-0.110711,1.11341e-08,0,
4,4.46961,0.983613,-0.112144,1.22315e-08,0,
4,4.24915,0.984255,-0.113678,1.30621e-08,0,
4,4.03501,0.984881,-0.115306,1.33341e-08,0,
4,3.82836,0.985424,-0.117021,1.33018e-08,0,
4,3.63018,0.985888,-0.118812,1.43735e-08,0,
4,3.44125,0.986455,-0.120668,1.9514e-08,0,
4,3.26217,0.987482,-0.122575,6.6909e-08,0,
4,3.09333,0.989264,-0.124521,5.89196e-07,0,
4,2.93497,0.99161,-0.126487,2.7414e-06,0,
4,2.78715,0.993662,-0.128458,5.29705e-06,0,
4,2.64979,0.994235,-0.130415,6.4706e-07,0,
4,2.52268,0.992405,-0.132334,-2.09863e-05,0,
4,2.40551,0.987853,-0.134194,-6.46531e-05,0,
4,2.29789,0.98083,-0.135972,-0.000128804,0,
4,2.19939,0.971935,-0.137652,-0.000207258,0,
4,2.10949,0.96186,-0.139225,-0.00029215,0,
4,2.02768,0.951237,-0.140686,-0.000375942,0,
4,1.95343,0.940578,-0.142035,-0.000452549,0,
4,1.88618,0.930261,-0.143273,-0.000519735,0,
4,1.82542,0.920467,-0.144411,-0.000566537,0,
4,1.77062,0.911254,-0.14545,-0.000605128,0,
4,1.72128,0.902673,-0.14639,-0.000639842,0,
4,1.67693,0.894754,-0.147242,-0.000670772,0,
4,1.63713,0.887494,-0.14801,-0.000698288,0,
4,1.60144,0.880872,-0.148703,-0.000722755,0,
4,1.56949,0.874857,-0.149327,-0.00074457,0,
4,1.54091,0.869411,-0.149886,-0.000764216,0,
4,1.51537,0.864477,-0.150389,-0.000782025,0,
4,1.49167,0.859862,-0.150855,-0.000798414,0,
4,1.46926,0.855475,-0.151297,-0.000813929,0,
4,1.44801,0.851289,-0.151723,-0.000827155,0,
4,1.42781,0.847264,-0.152136,-0.000833481,0,
4,1.40855,0.843368,-0.152531,-0.000839931,0,
4,1.39015,0.839587,-0.15291,-0.000845103,0,
4,1.37252,0.835905,-0.153274,-0.000849304,0,
4,1.3556,0.832306,-0.153626,-0.000853038,0,
4,1.3393,0.828773,-0.153966,-0.000856898,0,
4,1.32357,0.825289,-0.154296,-0.000861764,0,
4,1.30836,0.821832,-0.154616,-0.000868395,0,
4,1.29362,0.818382,-0.154927,-0.000877836,0,
4,1.2793,0.81491,-0.15523,-0.000891407,0,
4,1.26537,0.811386,-0.155527,-0.00091074,0,
4,1.25179,0.807771,-0.155816,-0.000937818,0,
4,1.23852,0.804022,-0.156099,-0.000974999,0,
4,1.22554,0.800084,-0.156376,-0.00102502,0,
4,1.21282,0.795897,-0.156648,-0.00109093,0,
4,1.20034,0.791391,-0.156914,-0.00117603,0,
4,1.18806,0.786491,-0.157175,-0.00128355,0,
4,1.17599,0.781122,-0.157431,-0.00141647,0,
4,1.16408,0.775215,-0.157681,-0.00157701,0,
4,1.15233,0.768712,-0.157926,-0.0017663,0,
4,1.14073,0.761579,-0.158165,-0.00198405,0,
4,1.12925,0.753804,-0.158399,-0.0022284,0,
4,1.11788,0.745403,-0.158629,-0.002496,0,
4,1.10661,0.736414,-0.158853,-0.00278233,0,
4,1.09543,0.726893,-0.159072,-0.00308215,0,
4,1.08432,0.716906,-0.159287,-0.00338998,0,
4,1.07328,0.706524,-0.159497,-0.00370047,0,
4,1.0623,0.695814,-0.159703,-0.00400876,0,
4,1.05136,0.684843,-0.159905,-0.00431059,0,
4,1.04044,0.67365,-0.160104,-0.00460252,0,
4,1.0295,0.662268,-0.160299,-0.00488193,0,
4,1.01855,0.650741,-0.160491,-0.00514631,0,
4,1.00757,0.639106,-0.16068,-0.0053934,0,
4,0.996544,0.627397,-0.160865,-0.00562168,0,
4,0.98547,0.615643,-0.161047,-0.00582931,0,
4,0.974334,0.603867,-0.161227,-0.0060151,0,
4,0.963124,0.592092,-0.161402,-0.00617787,0,
4,0.951826,0.580336,-0.161578,-0.00631762,0,
4,0.940428,0.568612,-0.161744,-0.00646709,0,
4,0.928915,0.556808,-0.161873,-0.00654517,0,
4,0.917272,0.544753,-0.161978,-0.00662978,0,
4,0.905481,0.532355,-0.162078,-0.006722,0,
4,0.893524,0.519556,-0.162176,-0.00682207,0,
4,0.881383,0.506311,-0.162277,-0.00693002,0,
4,0.869035,0.492581,-0.16238,-0.00704568,0,
4,0.856459,0.478334,-0.162488,-0.00716868,0,
4,0.843629,0.46354,-0.1626,-0.00729848,0,
4,0.830518,0.448173,-0.162716,-0.00743441,0,
4,0.817097,0.432213,-0.162834,-0.00757565,0,
4,0.803334,0.415644,-0.162954,-0.00772127,0,
4,0.789195,0.398454,-0.163075,-0.0078702,0,
4,0.774643,0.380633,-0.163197,-0.00802123,0,
4,0.759639,0.362174,-0.163318,-0.00817291,0,
4,0.744138,0.343079,-0.16344,-0.00832345,0,
4,0.728096,0.323358,-0.163562,-0.00847054,0,
4,0.711463,0.303038,-0.163687,-0.00861145,0,
4,0.694189,0.282162,-0.163813,-0.00874268,0,
4,0.676218,0.260785,-0.163943,-0.00885946,0,
4,0.657495,0.23897,-0.164076,-0.00895664,0,
4,0.637962,0.216774,-0.16421,-0.0090295,0,
4,0.617561,0.194239,-0.164341,-0.00907418,0,
4,0.596848,0.17201,-0.164459,-0.00908669,0,
4,0.576557,0.150835,-0.164561,-0.00906612,0,
4,0.556564,0.130584,-0.164648,-0.00901395,0,
4,0.536763,0.111162,-0.164727,-0.00893108,0,
4,0.517057,0.0925372,-0.164814,-0.00881805,0,
4,0.497368,0.0747669,-0.164934,-0.00867624,0,
4,0.477632,0.0579813,-0.165116,-0.00850917,0,
4,0.457804,0.0423239,-0.165367,-0.00832379,0,
4,0.437857,0.0278334,-0.165675,-0.00813149,0,
4,0.417786,0.0142872,-0.165727,-0.00786727,0,
4,0.397605,0.00128237,-0.165545,-0.00748007,0,
4,0.377348,-0.0114049,-0.165396,-0.00715072,0,
4,0.357066,-0.0237614,-0.165238,-0.00680822,0,
4,0.336828,-0.0357422,-0.165063,-0.00646076,0,
4,0.316717,-0.0472818,-0.164878,-0.00610837,0,
4,0.296825,-0.0583159,-0.164681,-0.00575066,0,
4,0.27725,-0.0687923,-0.164476,-0.0053894,0,
4,0.258095,-0.0786729,-0.164262,-0.00502705,0,
4,0.239458,-0.0879332,-0.164042,-0.00466634,0,
4,0.221432,-0.0965614,-0.163816,-0.00431006,0,
4,0.2041,-0.104557,-0.163586,-0.00396088,0,
4,0.187537,-0.11193,-0.163354,-0.00362128,0,
4,0.171798,-0.118696,-0.163121,-0.00329343,0,
4,0.156928,-0.12488,-0.162889,-0.00297915,0,
4,0.142956,-0.130509,-0.162662,-0.00267991,0,
4,0.129894,-0.135613,-0.162439,-0.00239676,0,
4,0.117744,-0.140224,-0.162224,-0.00213041,0,
4,0.106492,-0.144374,-0.162018,-0.00188121,0,
4,0.0961173,-0.148094,-0.161822,-0.0016492,0,
4,0.0865883,-0.151414,-0.161638,-0.00143418,0,
4,0.0778675,-0.154361,-0.161467,-0.00123571,0,
4,0.0699123,-0.156961,-0.161309,-0.00105319,0,
4,0.062677,-0.159236,-0.161164,-0.000885896,0,
4,0.056114,-0.161206,-0.161033,-0.00073301,0,
4,0.0501747,-0.162887,-0.160915,-0.000593662,0,
4,0.0448114,-0.164295,-0.160809,-0.00046696,0,
4,0.039977,-0.16544,-0.160715,-0.000352011,0,
4,0.0356266,-0.166327,-0.160632,-0.000247949,0,
4,0.0317171,-0.166962,-0.160559,-0.000153951,0,
4,0.0282081,-0.16734,-0.160496,-6.9255e-05,0,
4,0.0250617,-0.167456,-0.160442,6.81903e-06,0,
4,0.0222427,-0.167295,-0.160395,7.48468e-05,0,
4,0.0197189,-0.166831,-0.160355,0.000135266,0,
4,0.0174603,-0.166029,-0.160321,0.000188326,0,
4,0.0154398,-0.164834,-0.160294,0.000234006,0,
4,0.0136326,-0.163168,-0.16027,0.000271882,0,
4,0.0120162,-0.160917,-0.160252,0.000300922,0,
4,0.0105703,-0.157918,-0.160237,0.000319191,0,
4,0.00927657,-0.153947,-0.160226,0.0003236,0,
4,0.00811839,-0.148707,-0.160217,0.000310101,0,
4,0.0070809,-0.141857,-0.160212,0.000275345,0,
4,0.0061507,-0.133115,-0.160208,0.000220515,0,
4,0.00531578,-0.122446,-0.160206,0.00015502,0,
4,0.00456537,-0.110222,-0.160204,9.40199e-05,0,
4,0.00388979,-0.0971457,-0.160204,4.91205e-05,0,
4,0.00328037,-0.0839457,-0.160203,2.23071e-05,0,
4,0.00272934,-0.0711341,-0.160203,8.86662e-06,0,
4,0.0022297,-0.0589685,-0.160202,3.06272e-06,0,
4,0.00177519,-0.0475325,-0.160203,8.92168e-07,0,
4,0.00136016,-0.0368177,-0.160201,2.05399e-07,0,
4,0.000979511,-0.0267747,-0.160203,3.28903e-08,0,
4,0.00062865,-0.0173383,-0.160201,2.806e-09,0,
4,0.000303409,-0.00843813,-0.160203,6.83698e-11,0,

6,0,0,-0.0193776,0,0,
6,9,0,-0.075097,0,0,
6,8.99969,0.0135104,-0.0750967,1.86303e-10,0,
6,8.99934,0.028746,-0.075097,8.59838e-09,0,
6,8.99895,0.0459445,-0.0750967,1.16576e-07,0,
6,8.9985,0.065357,-0.0750969,8.40158e-07,0,
6,8.99801,0.0872418,-0.0750967,4.14773e-06,0,
6,8.99744,0.111799,-0.0750968,1.56916e-05,0,
6,8.99681,0.139001,-0.0750966,4.74353e-05,0,
6,8.99609,0.168324,-0.0750967,0.000115344,0,
6,8.99529,0.198616,-0.0750964,0.00022612,0,
6,8.99438,0.228449,-0.0750964,0.000365271,0,
6,8.99336,0.256721,-0.0750961,0.000507286,0,
6,8.9922,0.282937,-0.075096,0.000634804,0,
6,8.9909,0.307094,-0.0750956,0.00073809,0,
6,8.98944,0.329354,-0.0750952,0.00082492,0,
6,8.98779,0.349886,-0.0750946,0.000897953,0,
6,8.98593,0.36894,-0.0750939,0.000955787,0,
6,8.98383,0.386774,-0.0750931,0.00100325,0,
6,8.98147,0.403595,-0.0750921,0.00104344,0,
6,8.97881,0.419568,-0.0750909,0.00107787,0,
6,8.97581,0.434834,-0.0750895,0.00110784,0,
6,8.97244,0.44951,-0.0750878,0.00113437,0,
6,8.96863,0.463697,-0.0750858,0.00115821,0,
6,8.96435,0.477482,-0.0750834,0.00117991,0,
6,8.95953,0.490937,-0.0750807,0.00119987,0,
6,8.95409,0.504129,-0.0750775,0.00121837,0,
6,8.94798,0.517112,-0.0750737,0.00123559,0,
6,8.94109,0.529937,-0.0750694,0.00125162,0,
6,8.93334,0.542645,-0.0750645,0.00126646,0,
6,8.92463,0.555275,-0.0750588,0.00128007,0,
6,8.91482,0.56786,-0.0750524,0.00129235,0,
6,8.90379,0.580429,-0.0750451,0.00130313,0,
6,8.89139,0.593005,-0.0750369,0.00131222,0,
6,8.87746,0.605611,-0.0750277,0.0013194,0,
6,8.86181,0.618262,-0.0750174,0.00132439,0,
6,8.84423,0.630974,-0.0750061,0.00132694,0,
6,8.82452,0.643756,-0.0749938,0.00132676,0,
6,8.80241,0.656618,-0.0749804,0.00132358,0,
6,8.77763,0.669568,-0.0749659,0.00131714,0,
6,8.74989,0.682612,-0.0749503,0.00130718,0,
6,8.71885,0.69576,-0.0749337,0.00129346,0,
6,8.68417,0.709022,-0.0749162,0.00127576,0,
6,8.64545,0.722413,-0.0748978,0.0012538,0,
6,8.60229,0.735954,-0.0748789,0.00122731,0,
6,8.55423,0.749675,-0.0748597,0.00119597,0,
6,8.50082,0.763617,-0.0748405,0.00116015,0,
6,8.44155,0.77785,-0.0748224,0.00111892,0,
6,8.37592,0.792503,-0.0748059,0.00107123,0,
6,8.30339,0.807772,-0.0747917,0.00101522,0,
6,8.22344,0.823917,-0.0747795,0.000948002,0,
6,8.13555,0.841236,-0.0747703,0.000865853,0,
6,8.0392,0.859978,-0.0747597,0.000765353,0,
6,7.93391,0.880138,-0.0747478,0.00064624,0,
6,7.81927,0.901132,-0.0747234,0.000515023,0,
6,7.6949,0.921581,-0.0746918,0.000386739,0,
6,7.56054,0.939647,-0.0746442,0.000271125,0,
6,7.41603,0.953719,-0.0745847,0.000140103,0,
6,7.26132,0.962815,-0.0745196,5.56762e-05,0,
6,7.09653,0.967183,-0.0744367,1.42442e-05,0,
6,6.92195,0.968277,-0.0743371,7.94814e-07,0,
6,6.73802,0.967852,-0.0742135,-9.9587e-07,0,
6,6.5454,0.967147,-0.0740628,-4.65169e-07,0,
6,6.34489,0.966668,-0.0738817,-1.28555e-07,0,
6,6.1375,0.966432,-0.0736669,-3.38563e-08,0,
6,5.92439,0.966304,-0.0734144,-1.26781e-08,0,
6,5.70687,0.966172,-0.0731197,-7.2952e-09,0,
6,5.48633,0.965995,-0.0727776,-5.75291e-09,0,
6,5.26426,0.965768,-0.0723832,-5.55127e-09,0,
6,5.04218,0.9655,-0.0719311,-5.86867e-09,0,
6,4.82159,0.965206,-0.0714166,-6.36938e-09,0,
6,4.60398,0.964896,-0.0708352,-6.98622e-09,0,
6,4.39071,0.964568,-0.0701837,-7.88954e-09,0,
6,4.18307,0.964193,-0.0694596,-9.41747e-09,0,
6,3.98218,0.963707,-0.0686622,-1.1788e-08,0,
6,3.78902,0.963054,-0.0677924,-1.46592e-08,0,
6,3.60438,0.962256,-0.0668534,-1.87679e-08,0,
6,3.42888,0.961486,-0.0658499,-3.89293e-08,0,
6,3.26296,0.961035,-0.0647881,-9.92612e-08,0,
6,3.10691,0.961145,-0.0636744,-1.06715e-07,0,
6,2.96084,0.961794,-0.0625159,1.12819e-07,0,
6,2.82473,0.962598,-0.061322,-1.92763e-07,0,
6,2.69844,0.962933,-0.0601051,-3.95326e-06,0,
6,2.58172,0.962187,-0.0588798,-1.56085e-05,0,
6,2.47424,0.959961,-0.0576617,-3.8866e-05,0,
6,2.37559,0.956152,-0.0564654,-7.51507e-05,0,
6,2.28535,0.950904,-0.0553043,-0.000123459,0,
6,2.20301,0.944517,-0.0541893,-0.000180979,0,
6,2.1281,0.937346,-0.0531287,-0.000244007,0,
6,2.06009,0.929743,-0.0521286,-0.000308624,0,
6,1.99849,0.922019,-0.0511913,-0.000371056,0,
6,1.9428,0.914431,-0.0503208,-0.000428165,0,
6,1.89255,0.907173,-0.0495117,-0.000479056,0,
6,1.84728,0.900337,-0.0487708,-0.000522303,0,
6,1.80655,0.893925,-0.0480973,-0.000552649,0,
6,1.76996,0.887934,-0.0474768,-0.00058044,0,
6,1.73712,0.882381,-0.0469131,-0.000605893,0,
6,1.70768,0.877239,-0.0463976,-0.00062946,0,
6,1.67998,0.872279,-0.0459088,-0.00065234,0,
6,1.65329,0.867407,-0.045431,-0.000674707,0,
6,1.62754,0.862619,-0.0449647,-0.000696515,0,
6,1.60265,0.857915,-0.0445086,-0.000717847,0,
6,1.57854,0.853293,-0.0440622,-0.000738646,0,
6,1.55515,0.848753,-0.0436247,-0.00075895,0,
6,1.53242,0.844292,-0.0431957,-0.000778773,0,
6,1.5103,0.839901,-0.0427745,-0.000798098,0,
6,1.48874,0.835569,-0.0423609,-0.000816914,0,
6,1.46769,0.831279,-0.0419541,-0.000835346,0,
6,1.44712,0.82702,-0.0415531,-0.00085376,0,
6,1.42698,0.822801,-0.0411553,-0.000872783,0,
6,1.40725,0.818663,-0.0407592,-0.000892904,0,
6,1.38788,0.814656,-0.0403636,-0.000914285,0,
6,1.36886,0.810796,-0.0399744,-0.000935586,0,
6,1.35015,0.807018,-0.0395984,-0.000939115,0,
6,1.33173,0.803249,-0.039228,-0.000947929,0,
6,1.31357,0.799468,-0.0388587,-0.000958927,0,
6,1.29566,0.795657,-0.038493,-0.000971904,0,
6,1.27797,0.791796,-0.0381296,-0.000987929,0,
6,1.26048,0.787859,-0.0377687,-0.00100823,0,
6,1.24318,0.783815,-0.03741,-0.00103439,0,
6,1.22605,0.779625,-0.0370533,-0.00106826,0,
6,1.20907,0.775244,-0.0366986,-0.00111199,0,
6,1.19223,0.770621,-0.0363457,-0.00116792,0,
6,1.17551,0.765697,-0.0359947,-0.00123854,0,
6,1.1589,0.76041,-0.0356454,-0.00132626,0,
6,1.14238,0.754697,-0.0352979,-0.00143317,0,
6,1.12595,0.748499,-0.0349525,-0.00156078,0,
6,1.10959,0.741769,-0.0346091,-0.00170975,0,
6,1.09329,0.734474,-0.0342682,-0.00187964,0,
6,1.07704,0.726601,-0.03393,-0.00206881,0,
6,1.06081,0.718155,-0.0335946,-0.00227453,0,
6,1.04459,0.709157,-0.0332622,-0.00249315,0,
6,1.02836,0.699649,-0.0329329,-0.00272036,0,
6,1.01211,0.689683,-0.0326076,-0.00295144,0,
6,0.99583,0.67932,-0.032285,-0.00318167,0,
6,0.97951,0.668621,-0.0319685,-0.00340832,0,
6,0.963136,0.657636,-0.0316517,-0.00363871,0,
6,0.946694,0.646319,-0.0313295,-0.00384586,0,
6,0.930172,0.634567,-0.0310087,-0.00405795,0,
6,0.913555,0.622309,-0.0306907,-0.00427771,0,
6,0.896829,0.609494,-0.0303768,-0.00450698,0,
6,0.879979,0.59608,-0.0300679,-0.0047471,0,
6,0.862989,0.582041,-0.0297645,-0.00499907,0,
6,0.845842,0.567368,-0.0294676,-0.00526366,0,
6,0.828521,0.552073,-0.0291778,-0.00554152,0,
6,0.811008,0.536177,-0.028897,-0.00582934,0,
6,0.793282,0.519692,-0.0286273,-0.00612373,0,
6,0.775322,0.502631,-0.0283698,-0.0064226,0,
6,0.757107,0.485008,-0.0281255,-0.00672339,0,
6,0.738612,0.466851,-0.0278955,-0.00702298,0,
6,0.719813,0.448198,-0.0276809,-0.00731766,0,
6,0.700681,0.429102,-0.0274825,-0.00760325,0,
6,0.681188,0.40962,-0.0272998,-0.00787513,0,
6,0.661304,0.389806,-0.0271302,-0.00812838,0,
6,0.640996,0.369705,-0.0269696,-0.00835768,0,
6,0.620228,0.349353,-0.0268157,-0.00855717,0,
6,0.598964,0.32881,-0.0266744,-0.00872038,0,
6,0.577166,0.308216,-0.0265662,-0.0088409,0,
6,0.554791,0.287854,-0.0265326,-0.00891464,0,
6,0.531799,0.268153,-0.0266128,-0.00894108,0,
6,0.508144,0.249544,-0.0268312,-0.00892656,0,
6,0.48378,0.23215,-0.0270531,-0.0088669,0,
6,0.459585,0.216096,-0.0269694,-0.00852083,0,
6,0.436695,0.20157,-0.0267414,-0.0082216,0,
6,0.414961,0.18829,-0.0265791,-0.00793167,0,
6,0.394252,0.176077,-0.0263942,-0.00763219,0,
6,0.374445,0.164782,-0.026215,-0.00733025,0,
6,0.355433,0.15429,-0.0260361,-0.00702694,0,
6,0.337122,0.144504,-0.0258561,-0.00672198,0,
6,0.319433,0.135345,-0.0256731,-0.00641619,0,
6,0.3023,0.126745,-0.0254856,-0.00611022,0,
6,0.28567,0.118647,-0.0252923,-0.00580472,0,
6,0.269507,0.111006,-0.025092,-0.00550032,0,
6,0.253785,0.103785,-0.0248838,-0.00519776,0,
6,0.238493,0.0969546,-0.0246671,-0.00489785,0,
6,0.223631,0.090492,-0.0244416,-0.00460154,0,
6,0.209207,0.0843783,-0.0242075,-0.00430986,0,
6,0.195237,0.0785985,-0.0239651,-0.00402393,0,
6,0.181744,0.0731401,-0.0237155,-0.00374494,0,
6,0.168754,0.0679921,-0.0234599,-0.00347404,0,
6,0.156292,0.0631441,-0.0232,-0.00321237,0,
6,0.144384,0.0585862,-0.0229379,-0.00296098,0,
6,0.133052,0.054308,-0.0226758,-0.00272077,0,
6,0.122315,0.0502987,-0.0224161,-0.0024925,0,
6,0.112183,0.0465471,-0.0221611,-0.00227674,0,
6,0.102665,0.0430413,-0.0219131,-0.00207385,0,
6,0.0937597,0.0397689,-0.0216742,-0.00188403,0,
6,0.0854609,0.0367174,-0.0214462,-0.00170726,0,
6,0.077757,0.0338737,-0.0212305,-0.00154336,0,
6,0.0706309,0.031225,-0.0210283,-0.00139202,0,
6,0.0640611,0.0287584,-0.0208402,-0.00125277,0,
6,0.0580229,0.0264613,-0.0206667,-0.00112509,0,
6,0.0524888,0.0243213,-0.0205077,-0.00100836,0,
6,0.0474296,0.0223265,-0.0203631,-0.000901921,0,
6,0.042815,0.0204655,-0.0202324,-0.000805079,0,
6,0.0386145,0.0187272,-0.020115,-0.000717143,0,
6,0.0347975,0.0171011,-0.0200102,-0.000637422,0,
6,0.0313344,0.015577,-0.019917,-0.000565241,0,
6,0.0281964,0.0141455,-0.0198346,-0.000499949,0,
6,0.0253561,0.0127972,-0.0197621,-0.000440928,0,
6,0.0227875,0.0115234,-0.0196988,-0.000387589,0,
6,0.0204662,0.0103154,-0.0196436,-0.000339382,0,
6,0.0183694,0.00916493,-0.0195959,-0.00029579,0,
6,0.016476,0.00806373,-0.0195546,-0.000256327,0,
6,0.0147664,0.00700363,-0.0195197,-0.000220541,0,
6,0.0132228,0.00597638,-0.0194896,-0.000188005,0,
6,0.0118288,0.0049737,-0.0194649,-0.000158321,0,
6,0.0105693,0.00398735,-0.0194438,-0.000131115,0,
6,0.00943073,0.00300969,-0.0194275,-0.000106057,0,
6,0.00840063,0.00203494,-0.0194134,-8.29045e-05,0,
6,0.00746774,0.00106205,-0.0194039,-6.16037e-05,0,
6,0.00662185,0.000100103,-0.0193954,-4.24665e-05,0,
6,0.00585371,-0.000824281,-0.0193912,-2.62912e-05,0,
6,0.00515491,-0.00166278,-0.0193866,-1.40889e-05,0,
6,0.00451788,-0.00235495,-0.0193857,-6.29558e-06,0,
6,0.00393573,-0.00285292,-0.0193831,-2.23186e-06,0,
6,0.00340221,-0.00314107,-0.0193838,-5.42638e-07,0,
6,0.00291168,-0.00323379,-0.0193816,-1.27911e-08,0,
6,0.00245897,-0.00316029,-0.019383,8.02426e-08,0,
6,0.00203939,-0.00295171,-0.0193806,5.7085e-08,0,
6,0.00164864,-0.00263502,-0.0193826,2.55666e-08,0,
6,0.00128281,-0.00223146,-0.0193797,8.08919e-09,0,
6,0.000938257,-0.00175682,-0.0193824,1.67669e-09,0,
6,0.000611645,-0.00122225,-0.0193787,1.77786e-10,0,
6,0.000299862,-0.000635129,-0.0193824,5.14586e-12,0,

10,0.000296632,0.00839236,0.0299648,-4.84233e-11,0,
10,0.000596102,0.0168617,0.0299655,-1.79451e-09,0,
10,0.000900397,0.0254642,0.0299648,-1.8244e-08,0,
10,0.00121153,0.0342562,0.0299653,-9.80298e-08,0,
10,0.00153158,0.0432942,0.0299648,-3.6664e-07,0,
10,0.00186264,0.0526336,0.0299652,-1.08989e-06,0,
10,0.00220692,0.0623264,0.0299647,-2.76569e-06,0,
10,0.00256668,0.0724159,0.029965,-6.24231e-06,0,
10,0.00294431,0.0829297,0.0299646,-1.28373e-05,0,
10,0.00334229,0.0938675,0.0299648,-2.43844e-05,0,
10,0.00376326,0.105188,0.0299644,-4.30784e-05,0,
10,0.00421,0.116795,0.0299646,-7.09885e-05,0,
10,0.00468544,0.128535,0.0299641,-0.000109267,0,
10,0.00519274,0.14021,0.0299641,-0.000157408,0,
10,0.00573524,0.151605,0.0299635,-0.000213072,0,
10,0.00631651,0.162527,0.0299632,-0.000272716,0,
10,0.00694041,0.172826,0.0299624,-0.000332643,0,
10,0.00761104,0.182411,0.0299616,-0.000389867,0,
10,0.00833284,0.191246,0.0299603,-0.000442475,0,
10,0.00911058,0.199337,0.0299589,-0.000489571,0,
10,0.0099494,0.206719,0.0299568,-0.000531026,0,
10,0.0108548,0.213445,0.0299545,-0.000567207,0,
10,0.0118329,0.219578,0.0299514,-0.000598749,0,
10,0.0128901,0.225182,0.0299478,-0.000626406,0,
10,0.0140333,0.230321,0.0299432,-0.000650944,0,
10,0.0152702,0.235054,0.029938,-0.00067309,0,
10,0.0166089,0.239433,0.0299317,-0.000693504,0,
10,0.0180584,0.243507,0.0299244,-0.00071277,0,
10,0.0196282,0.247318,0.0299159,-0.000731401,0,
10,0.0213288,0.250903,0.0299061,-0.000749848,0,
10,0.0231714,0.254295,0.0298948,-0.00076851,0,
10,0.0251682,0.257523,0.029882,-0.000787743,0,
10,0.0273326,0.260611,0.0298673,-0.000807877,0,
10,0.0296789,0.263582,0.0298507,-0.000829218,0,
10,0.0322227,0.266457,0.029832,-0.00085206,0,
10,0.0349809,0.269253,0.0298109,-0.00087669,0,
10,0.0379719,0.271988,0.0297872,-0.000903395,0,
10,0.0412155,0.274675,0.0297608,-0.000932468,0,
10,0.0447333,0.277331,0.0297314,-0.00096421,0,
10,0.0485489,0.279969,0.0296987,-0.000998934,0,
10,0.0526875,0.282602,0.0296624,-0.00103697,0,
10,0.0571768,0.285243,0.0296223,-0.00107867,0,
10,0.0620466,0.287906,0.0295781,-0.00112441,0,
10,0.0673295,0.290603,0.0295296,-0.00117457,0,
10,0.0730607,0.29335,0.0294763,-0.0012296,0,
10,0.0792784,0.29616,0.0294182,-0.00128994,0,
10,0.0860241,0.299049,0.0293548,-0.00135609,0,
10,0.0933428,0.302034,0.029286,-0.00142856,0,
10,0.101283,0.305131,0.0292115,-0.0015079,0,
10,0.109899,0.308362,0.0291312,-0.00159472,0,
10,0.119247,0.311748,0.0290449,-0.00168961,0,
10,0.12939,0.315313,0.0289525,-0.00179325,0,
10,0.140395,0.319084,0.028854,-0.00190629,0,
10,0.152337,0.323094,0.0287494,-0.00202942,0,
10,0.165296,0.327376,0.0286389,-0.00216333,0,
10,0.179357,0.331971,0.0285225,-0.00230869,0,
10,0.194615,0.336926,0.0284004,-0.00246613,0,
10,0.211171,0.342293,0.0282732,-0.00263619,0,
10,0.229138,0.348135,0.0281407,-0.00281929,0,
10,0.248635,0.354521,0.0280038,-0.00301565,0,
10,0.269793,0.361535,0.0278618,-0.0032252,0,
10,0.292753,0.369272,0.0277168,-0.00344747,0,
10,0.317669,0.377841,0.0275648,-0.00368014,0,
10,0.344708,0.387362,0.0274114,-0.00391973,0,
10,0.372405,0.397383,0.0272615,-0.00415525,0,
10,0.399623,0.407511,0.0271175,-0.00437534,0,
10,0.426397,0.417748,0.0269802,-0.00457684,0,
10,0.452757,0.428096,0.026848,-0.00476104,0,
10,0.478735,0.438565,0.0267231,-0.00492562,0,
10,0.504358,0.449172,0.0266054,-0.00506935,0,
10,0.529657,0.459938,0.0264963,-0.00519086,0,
10,0.554656,0.470883,0.0263884,-0.00529067,0,
10,0.579382,0.482018,0.0262903,-0.00536818,0,
10,0.603859,0.493352,0.0261762,-0.00544271,0,
10,0.628112,0.504974,0.0261083,-0.00550644,0,
10,0.652163,0.517213,0.0261196,-0.00543471,0,
10,0.676035,0.530377,0.0261171,-0.00533372,0,
10,0.699751,0.544418,0.0260753,-0.00520219,0,
10,0.72333,0.559072,0.0259925,-0.00504006,0,
10,0.746795,0.574023,0.0258784,-0.00485018,0,
10,0.770165,0.589007,0.0257432,-0.00463707,0,
10,0.79346,0.603849,0.0255942,-0.00440581,0,
10,0.816699,0.61844,0.0254345,-0.00416137,0,
10,0.839903,0.632693,0.0252653,-0.00390871,0,
10,0.863088,0.646506,0.025084,-0.00365745,0,
10,0.886275,0.659766,0.0248897,-0.0034144,0,
10,0.909481,0.672393,0.0246856,-0.00318005,0,
10,0.932723,0.684367,0.0244735,-0.0029549,0,
10,0.956021,0.69571,0.0242552,-0.00273958,0,
10,0.97939,0.70646,0.0240304,-0.00253469,0,
10,1.00285,0.716652,0.0237993,-0.00234076,0,
10,1.02641,0.726312,0.0235611,-0.00215825,0,
10,1.0501,0.735461,0.0233164,-0.00198752,0,
10,1.07392,0.744122,0.0230642,-0.00182876,0,
10,1.0979,0.752325,0.0228078,-0.00167957,0,
10,1.12205,0.760097,0.0225453,-0.00154022,0,
10,1.14639,0.767444,0.0222736,-0.00141502,0,
10,1.17093,0.774368,0.0219942,-0.00130326,0,
10,1.19568,0.780886,0.021707,-0.00120557,0,
10,1.22066,0.787031,0.0214119,-0.00112185,0,
10,1.24589,0.792846,0.0211102,-0.00105127,0,
10,1.27137,0.798383,0.0208005,-0.00099259,0,
10,1.29713,0.803694,0.0204863,-0.000947491,0,
10,1.32317,0.808868,0.0201658,-0.000906594,0,
10,1.34951,0.814037,0.0198392,-0.000862912,0,
10,1.37616,0.819279,0.019509,-0.000822273,0,
10,1.40313,0.824567,0.0191707,-0.000784809,0,
10,1.43043,0.829829,0.0188248,-0.000750331,0,
10,1.45807,0.83501,0.0184704,-0.000718254,0,
10,1.48607,0.840101,0.0181087,-0.000687859,0,
10,1.51444,0.845121,0.0177398,-0.000658595,0,
10,1.54318,0.850087,0.0173639,-0.000630199,0,
10,1.57231,0.854998,0.0169805,-0.000602623,0,
10,1.60184,0.859835,0.0165896,-0.000575901,0,
10,1.63178,0.864568,0.016191,-0.00055007,0,
10,1.66213,0.869171,0.015785,-0.00052513,0,
10,1.69292,0.873625,0.0153711,-0.000500982,0,
10,1.72416,0.877936,0.0149506,-0.000477272,0,
10,1.75585,0.882145,0.0145208,-0.000449483,0,
10,1.78802,0.886298,0.0140826,-0.000421371,0,
10,1.82067,0.890403,0.0136375,-0.00039319,0,
10,1.85383,0.894441,0.0131837,-0.000363892,0,
10,1.88751,0.898389,0.0127217,-0.000333701,0,
10,1.92173,0.902224,0.0122513,-0.000302981,0,
10,1.95652,0.905921,0.0117721,-0.00027216,0,
10,1.9919,0.909457,0.0112847,-0.000241706,0,
10,2.02791,0.912808,0.0107876,-0.000212161,0,
10,2.06456,0.915955,0.0102829,-0.000183745,0,
10,2.10268,0.918937,0.00975606,-0.000156044,0,
10,2.1443,0.921843,0.0091838,-0.000129422,0,
10,2.18977,0.924622,0.00855903,-0.000104012,0,
10,2.23946,0.927191,0.00788,-8.01221e-05,0,
10,2.29376,0.929468,0.00714123,-5.8578e-05,0,
10,2.35309,0.93137,0.00634046,-4.00768e-05,0,
10,2.4179,0.932828,0.0054737,-2.51441e-05,0,
10,2.48863,0.933796,0.00453928,-1.40547e-05,0,
10,2.56575,0.934271,0.00353502,-6.72248e-06,0,
10,2.64971,0.93431,0.00246063,-2.64521e-06,0,
10,2.74098,0.93403,0.00131599,-9.53066e-07,0,
10,2.83997,0.93361,0.000102485,-6.04279e-07,0,
10,2.94709,0.933255,-0.0011781,-6.91169e-07,0,
10,3.06269,0.93315,-0.00252276,-6.98069e-07,0,
10,3.18706,0.933403,-0.00392777,-5.28944e-07,0,
10,3.3204,0.93402,-0.00538786,-3.06026e-07,0,
10,3.46281,0.934908,-0.00689622,-1.427e-07,0,
10,3.61427,0.935921,-0.00844389,-6.12561e-08,0,
10,3.77463,0.936923,-0.01002,-3.13999e-08,0,
10,3.94358,0.937831,-0.0116121,-2.23372e-08,0,
10,4.12067,0.938633,-0.0132067,-1.92824e-08,0,
10,4.30525,0.93936,-0.0147898,-1.79134e-08,0,
10,4.49655,0.940056,-0.0163478,-1.74124e-08,0,
10,4.6936,0.940749,-0.0178673,-1.77569e-08,0,
10,4.89531,0.941441,-0.0193363,-1.94392e-08,0,
10,5.10047,0.942119,-0.0207439,-2.39101e-08,0,
10,5.30776,0.942761,-0.022081,-3.44061e-08,0,
10,5.51581,0.943352,-0.0233401,-5.7626e-08,0,
10,5.72323,0.943888,-0.024516,-1.07971e-07,0,
10,5.92863,0.944393,-0.0256053,-2.20656e-07,0,
10,6.13069,0.944934,-0.0266067,-4.88323e-07,0,
10,6.32816,0.945607,-0.0275205,-1.10492e-06,0,
10,6.51991,0.946443,-0.0283491,-2.15171e-06,0,
10,6.70495,0.947211,-0.0290961,-2.32442e-06,0,
10,6.88244,0.947198,-0.0297649,3.72165e-06,0,
10,7.0517,0.945176,-0.0303597,2.68727e-05,0,
10,7.21224,0.939758,-0.030881,8.04301e-05,0,
10,7.3637,0.930062,-0.0313343,0.000173598,0,
10,7.5059,0.91613,-0.031724,0.000296955,0,
10,7.63878,0.898549,-0.032054,0.000404466,0,
10,7.76243,0.878426,-0.0323341,0.000523364,0,
10,7.87701,0.857527,-0.0325589,0.00064487,0,
10,7.9828,0.83731,-0.0327449,0.000755182,0,
10,8.08014,0.818486,-0.0328941,0.000849268,0,
10,8.16941,0.801137,-0.0330178,0.000927594,0,
10,8.25106,0.785017,-0.0331198,0.000993291,0,
10,8.32554,0.769802,-0.0332064,0.00104957,0,
10,8.39331,0.755212,-0.0332799,0.00109869,0,
10,8.45484,0.741051,-0.0333429,0.00114192,0,
10,8.5106,0.727197,-0.0333967,0.00117987,0,
10,8.56104,0.71359,-0.0334429,0.00121279,0,
10,8.60659,0.700212,-0.0334824,0.00124077,0,
10,8.64767,0.68707,-0.0335167,0.00126391,0,
10,8.68467,0.674169,-0.0335463,0.00128196,0,
10,8.71795,0.661481,-0.033572,0.00129188,0,
10,8.74786,0.648981,-0.0335943,0.00129827,0,
10,8.77471,0.636664,-0.0336135,0.00130036,0,
10,8.79881,0.624527,-0.0336301,0.0012986,0,
10,8.8204,0.612562,-0.0336443,0.00129353,0,
10,8.83975,0.600759,-0.0336566,0.00128563,0,
10,8.85708,0.589104,-0.0336671,0.00127541,0,
10,8.87259,0.577578,-0.033676,0.0012633,0,
10,8.88646,0.566162,-0.0336836,0.00124973,0,
10,8.89886,0.55483,-0.03369,0.00123502,0,
10,8.90995,0.543555,-0.0336954,0.00121946,0,
10,8.91986,0.532306,-0.0336999,0.00120328,0,
10,8.92872,0.521051,-0.0337037,0.00118664,0,
10,8.93663,0.509754,-0.0337069,0.00116963,0,
10,8.94369,0.498376,-0.0337095,0.00115227,0,
10,8.95,0.486874,-0.0337117,0.00113453,0,
10,8.95564,0.475204,-0.0337135,0.00111633,0,
10,8.96067,0.463316,-0.033715,0.00109751,0,
10,8.96517,0.451156,-0.0337163,0.00107781,0,
10,8.96918,0.438661,-0.0337172,0.00105691,0,
10,8.97276,0.425762,-0.0337182,0.00103437,0,
10,8.97596,0.41238,-0.0337187,0.00100963,0,
10,8.97882,0.398422,-0.0337194,0.000981978,0,
10,8.98137,0.38378,-0.0337197,0.000950466,0,
10,8.98365,0.368327,-0.0337203,0.000913886,0,
10,8.98569,0.351913,-0.0337204,0.000870846,0,
10,8.9875,0.334356,-0.0337209,0.000819061,0,
10,8.98913,0.315421,-0.0337208,0.00075364,0,
10,8.99058,0.294879,-0.0337213,0.000676344,0,
10,8.99188,0.272569,-0.033721,0.000584801,0,
10,8.99304,0.24833,-0.0337215,0.000472184,0,
10,8.99408,0.222122,-0.0337212,0.000346162,0,
10,8.99501,0.194318,-0.0337217,0.000220427,0,
10,8.99583,0.165819,-0.0337212,0.000116788,0,
10,8.99658,0.137891,-0.0337218,5.01331e-05,0,
10,8.99724,0.111647,-0.0337212,1.72969e-05,0,
10,8.99784,0.0876712,-0.0337219,4.75092e-06,0,
10,8.99837,0.0660735,-0.0337212,9.96268e-07,0,
10,8.99885,0.0467189,-0.033722,1.42713e-07,0,
10,8.99927,0.0293964,-0.0337211,1.08346e-08,0,
10,8.99966,0.0138913,-0.0337221,2.39716e-10,0,
10,0,0,0.0299657,0,0,
10,9,0,-0.033721,0,0,

0.004,0,0,-0.225519,0,-9.0403e-08,
0.00868226,0,0,-0.225516,0,-1.8988e-07,
0.014062,0,0,-0.225518,0,-3.13176e-07,
0.0201548,0,0,-0.225517,0,-7.5368e-07,
0.0269766,0,0,-0.225518,0,-1.30239e-06,
0.0345437,0,0,-0.225517,0,-2.02478e-06,
0.0428729,0,0,-0.225517,0,-2.74641e-06,
0.051981,0,0,-0.225515,0,-3.39352e-06,
0.0618853,0,0,-0.225512,0,-3.76721e-06,
0.0726036,0,0,-0.225509,0,-3.69137e-06,
0.0841536,0,0,-0.225505,0,-2.93854e-06,
0.0965535,0,0,-0.2255,0,-1.31608e-06,
0.109822,0,0,-0.225496,0,1.31962e-06,
0.123977,0,0,-0.225493,0,5.00494e-06,
0.139037,0,0,-0.225492,0,9.64199e-06,
0.155022,0,0,-0.225496,0,1.5e-05,
0.171949,0,0,-0.225505,0,2.07348e-05,
0.189839,0,0,-0.22552,0,2.64497e-05,
0.208709,0,0,-0.22554,0,3.17421e-05,
0.228579,0,0,-0.225566,0,3.62664e-05,
0.249467,0,0,-0.225594,0,3.97608e-05,
0.271391,0,0,-0.225625,0,4.20747e-05,
0.29437,0,0,-0.225657,0,4.31662e-05,
0.31842,0,0,-0.225688,0,4.31018e-05,
0.343559,0,0,-0.225716,0,4.20365e-05,
0.369804,0,0,-0.225741,0,4.01997e-05,
0.39717,0,0,-0.225762,0,3.7872e-05,
0.425672,0,0,-0.22578,0,3.53682e-05,
0.455324,0,0,-0.225795,0,3.30196e-05,
0.48614,0,0,-0.225807,0,3.11589e-05,
0.518132,0,0,-0.225818,0,3.01076e-05,
0.551309,0,0,-0.225829,0,3.0128e-05,
0.585683,0,0,-0.225844,0,3.13598e-05,
0.621259,0,0,-0.225865,0,3.38024e-05,
0.658046,0,0,-0.225896,0,3.73412e-05,
0.696047,0,0,-0.225939,0,4.17909e-05,
0.735265,0,0,-0.225998,0,4.69409e-05,
0.7757,0,0,-0.226075,0,5.2596e-05,
0.817352,0,0,-0.226176,0,5.85843e-05,
0.860215,0,0,-0.226306,0,6.471e-05,
0.904285,0,0,-0.226471,0,7.06933e-05,
0.949552,0,0,-0.226682,0,7.60276e-05,
0.996004,0,0,-0.226955,0,7.97712e-05,
1.04363,0,0,-0.22731,0,8.04743e-05,
1.09241,0,0,-0.22777,0,7.62407e-05,
1.14232,0,0,-0.228358,0,6.49165e-05,
1.19335,0,0,-0.22909,0,4.45091e-05,
1.24546,0,0,-0.229969,0,1.37537e-05,
1.29863,0,0,-0.230983,0,-2.741e-05,
1.35283,0,0,-0.232106,0,-7.77263e-05,
1.40802,0,0,-0.233305,0,-0.000134994,
1.46416,0,0,-0.234545,0,-0.000196738,
1.52121,0,0,-0.235793,0,-0.000260835,
1.57913,0,0,-0.237023,0,-0.000325839,
1.63787,0,0,-0.23821,0,-0.000390976,
1.69739,0,0,-0.239337,0,-0.000455936,
1.75761,0,0,-0.240386,0,-0.000520641,
1.81851,0,0,-0.241341,0,-0.000585079,
1.88,0,0,-0.24219,0,-0.000649224,
1.94204,0,0,-0.242916,0,-0.000713013,
2.00457,0,0,-0.243508,0,-0.000776352,
2.06751,0,0,-0.243951,0,-0.000839125,
2.13081,0,0,-0.244235,0,-0.000901201,
2.19439,0,0,-0.244347,0,-0.000962433,
2.25819,0,0,-0.244277,0,-0.00102267,
2.32214,0,0,-0.244014,0,-0.00108173,
2.38617,0,0,-0.24355,0,-0.00113945,
2.4502,0,0,-0.242877,0,-0.00119565,
2.51418,0,0,-0.241989,0,-0.00125012,
2.57803,0,0,-0.240882,0,-0.00130267,
2.64167,0,0,-0.239552,0,-0.0013531,
2.70505,0,0,-0.237997,0,-0.00140119,
2.76808,0,0,-0.236218,0,-0.00144672,
2.83072,0,0,-0.234216,0,-0.00148945,
2.89288,0,0,-0.231998,0,-0.00152917,
2.95451,0,0,-0.229569,0,-0.00156568,
3.01555,0,0,-0.22694,0,-0.00159879,
3.07594,0,0,-0.224122,0,-0.00162838,
3.13561,0,0,-0.221129,0,-0.00165436,
3.19453,0,0,-0.217978,0,-0.00167672,
3.25262,0,0,-0.214686,0,-0.00169547,
3.30985,0,0,-0.21127,0,-0.00171069,
3.36617,0,0,-0.20775,0,-0.00172248,
3.42154,0,0,-0.204144,0,-0.001731,
3.47591,0,0,-0.200471,0,-0.0017364,
3.52925,0,0,-0.196749,0,-0.00173887,
3.58152,0,0,-0.192996,0,-0.00173862,
3.6327,0,0,-0.189229,0,-0.00173585,
3.68276,0,0,-0.185463,0,-0.00173077,
3.73167,0,0,-0.181712,0,-0.0017236,
3.77941,0,0,-0.17799,0,-0.00171455,
3.82596,0,0,-0.17431,0,-0.00170384,
3.8713,0,0,-0.170682,0,-0.00169165,
3.91543,0,0,-0.167112,0,-0.00167808,
3.95833,0,0,-0.163628,0,-0.00166363,
4,0,0,-0.160201,0,-0.00164821,
4.04167,0,0,-0.156763,0,-0.00163143,
4.08333,0,0,-0.15331,0,-0.00161351,
4.125,0,0,-0.149846,0,-0.00159445,
4.16667,0,0,-0.146373,0,-0.00157427,
4.20833,0,0,-0.142896,0,-0.00155302,
4.25,0,0,-0.139417,0,-0.00153075,
4.29167,0,0,-0.135941,0,-0.00150749,
4.33333,0,0,-0.132468,0,-0.0014833,
4.375,0,0,-0.129004,0,-0.00145822,
4.41667,0,0,-0.12555,0,-0.00143227,
4.45833,0,0,-0.122109,0,-0.00140552,
4.5,0,0,-0.118684,0,-0.00137798,
4.54167,0,0,-0.115277,0,-0.00134971,
4.58333,0,0,-0.111891,0,-0.00132072,
4.625,0,0,-0.108527,0,-0.00129107,
4.66667,0,0,-0.105188,0,-0.00126077,
4.70833,0,0,-0.101876,0,-0.00122988,
4.75,0,0,-0.0985926,0,-0.00119841,
4.79167,0,0,-0.0953398,0,-0.00116641,
4.83333,0,0,-0.0921194,0,-0.0011339,
4.875,0,0,-0.0889329,0,-0.00110093,
4.91667,0,0,-0.0857818,0,-0.00106751,
4.95833,0,0,-0.0826674,0,-0.00103369,
5,0,0,-0.0795911,0,-0.000999489,
5.04167,0,0,-0.0765541,0,-0.000964931,
5.08333,0,0,-0.0735575,0,-0.000930042,
5.125,0,0,-0.0706023,0,-0.000894846,
5.16667,0,0,-0.0676895,0,-0.000859363,
5.20833,0,0,-0.0648201,0,-0.000823617,
5.25,0,0,-0.061995,0,-0.000787631,
5.29167,0,0,-0.0592149,0,-0.000751428,
5.33333,0,0,-0.0564807,0,-0.000715034,
5.375,0,0,-0.0537929,0,-0.000678473,
5.41667,0,0,-0.0511523,0,-0.000641771,
5.45833,0,0,-0.0485594,0,-0.000604954,
5.5,0,0,-0.0460146,0,-0.000568047,
5.54167,0,0,-0.0435183,0,-0.000531073,
5.58333,0,0,-0.0410709,0,-0.000494053,
5.625,0,0,-0.0386727,0,-0.000457004,
5.66667,0,0,-0.036324,0,-0.000419941,
5.70833,0,0,-0.0340251,0,-0.000382876,
5.75,0,0,-0.0317765,0,-0.00034582,
5.79167,0,0,-0.0295787,0,-0.000308786,
5.83333,0,0,-0.0274322,0,-0.000271796,
5.875,0,0,-0.0253381,0,-0.000234889,
5.91667,0,0,-0.0232972,0,-0.000198138,
5.95833,0,0,-0.0213104,0,-0.000161649,
6,0,0,-0.0193778,0,-0.000125534,
6.04167,0,0,-0.0174985,0,-8.98749e-05,
6.08333,0,0,-0.0156714,0,-5.46968e-05,
6.125,0,0,-0.0138953,0,-1.99912e-05,
6.16667,0,0,-0.0121689,0,1.42619e-05,
6.20833,0,0,-0.0104912,0,4.80787e-05,
6.25,0,0,-0.00886123,0,8.14696e-05,
6.29167,0,0,-0.00727798,0,0.000114441,
6.33333,0,0,-0.00574055,0,0.000146998,
6.375,0,0,-0.00424805,0,0.000179145,
6.41667,0,0,-0.00279963,0,0.000210882,
6.45833,0,0,-0.00139443,0,0.000242213,
6.5,0,0,-3.16069e-05,0,0.000273139,
6.54167,0,0,0.00128966,0,0.000303659,
6.58333,0,0,0.00257019,0,0.000333777,
6.625,0,0,0.00381079,0,0.000363491,
6.66667,0,0,0.00501228,0,0.000392805,
6.70833,0,0,0.00617543,0,0.000421719,
6.75,0,0,0.00730104,0,0.000450235,
6.79167,0,0,0.00838987,0,0.000478354,
6.83333,0,0,0.0094427,0,0.000506076,
6.875,0,0,0.0104603,0,0.000533402,
6.91667,0,0,0.0114434,0,0.000560335,
6.95833,0,0,0.0123927,0,0.000586874,
7,0,0,0.0133091,0,0.000613023,
7.04167,0,0,0.0141932,0,0.000638781,
7.08333,0,0,0.0150458,0,0.000664151,
7.125,0,0,0.0158676,0,0.000689135,
7.16667,0,0,0.0166593,0,0.000713734,
7.20833,0,0,0.0174216,0,0.000737949,
7.25,0,0,0.0181552,0,0.000761784,
7.29167,0,0,0.0188608,0,0.00078524,
7.33333,0,0,0.0195391,0,0.000808323,
7.375,0,0,0.0201907,0,0.000831036,
7.41667,0,0,0.0208163,0,0.000853385,
7.45833,0,0,0.0214165,0,0.000875376,
7.5,0,0,0.021992,0,0.000897019,
7.54167,0,0,0.0225434,0,0.000918328,
7.58333,0,0,0.0230713,0,0.000939311,
7.625,0,0,0.0235763,0,0.000959975,
7.66667,0,0,0.0240589,0,0.000980322,
7.70833,0,0,0.0245195,0,0.00100036,
7.75,0,0,0.0249586,0,0.00102008,
7.79167,0,0,0.0253766,0,0.00103949,
7.83333,0,0,0.0257734,0,0.00105859,
7.875,0,0,0.0261491,0,0.00107742,
7.91667,0,0,0.0265145,0,0.00109654,
7.95833,0,0,0.0268016,0,0.00111447,
8,0,0,0.0271715,0,0.00113235,
8.04171,0,0,0.0275596,0,0.00115123,
8.08368,0,0,0.0278149,0,0.00116988,
8.12617,0,0,0.0281098,0,0.00118679,
8.16946,0,0,0.028388,0,0.00120379,
8.21382,0,0,0.0286492,0,0.00122078,
8.25952,0,0,0.028901,0,0.00123782,
8.30685,0,0,0.0291431,0,0.00125505,
8.35611,0,0,0.0293755,0,0.00127259,
8.40762,0,0,0.0295983,0,0.0012905,
8.46168,0,0,0.029811,0,0.00130885,
8.51865,0,0,0.0300127,0,0.0013277,
8.57889,0,0,0.030202,0,0.0013471,
8.64276,0,0,0.0303773,0,0.00136708,
8.71067,0,0,0.0305366,0,0.00138768,
8.78306,0,0,0.0306773,0,0.00140892,
8.86037,0,0,0.0307964,0,0.00143081,
8.94309,0,0,0.0308906,0,0.00145338,
9.03174,0,0,0.0309562,0,0.0014766,
9.12689,0,0,0.030989,0,0.00150046,
9.22912,0,0,0.0309846,0,0.00152495,
9.33908,0,0,0.0309382,0,0.00155002,
9.45746,0,0,0.0308449,0,0.00157561,
9.58501,0,0,0.0306998,0,0.00160169,
9.72253,0,0,0.0304976,0,0.00162817,
9.87088,0,0,0.0302331,0,0.00165498,
10.031,0,0,0.0299015,0,0.00168201,
10.2039,0,0,0.0294991,0,0.00170915,
10.3906,0,0,0.0290225,0,0.00173631,
10.5924,0,0,0.0284682,0,0.00176335,
10.8105,0,0,0.0278357,0,0.00179014,
11.0463,0,0,0.0271256,0,0.00181656,
11.3012,0,0,0.0263385,0,0.00184251,
11.5769,0,0,0.0254786,0,0.00186786,
11.8751,0,0,0.0245511,0,0.00189253,
12.1977,0,0,0.0235627,0,0.00191641,
12.5466,0,0,0.0225232,0,0.00193945,
12.9242,0,0,0.021443,0,0.00196159,
13.3327,0,0,0.0203346,0,0.0019828,
13.7748,0,0,0.0192115,0,0.00200305,
14.2532,0,0,0.0180879,0,0.00202235,
14.7709,0,0,0.0169785,0,0.00204072,
15.3312,0,0,0.0158971,0,0.0020582,
15.9377,0,0,0.0148575,0,0.00207484,
16.594,0,0,0.0138709,0,0.00209071,
17.3044,0,0,0.0129463,0,0.00210589,
18.0733,0,0,0.0120909,0,0.00212041,
18.9056,0,0,0.0113078,0,0.0021342,
19.8064,0,0,0.0105978,0,0.0021472,
20.7816,0,0,0.0099582,0,0.00215961,
21.8371,0,0,0.00938159,0,0.00217176,
22.9796,0,0,0.00885837,0,0.00218384,
24.2163,0,0,0.00837536,0,0.00219593,
25.5551,0,0,0.00791785,0,0.00220812,
27.0042,0,0,0.00746889,0,0.00222048,
28.5729,0,0,0.00701068,0,0.00223307,
30.271,0,0,0.0065251,0,0.0022459,
32.1091,0,0,0.00599432,0,0.00225889,
34.0989,0,0,0.00540323,0,0.00227194,
36.2529,0,0,0.00473405,0,0.00228508,
38.5845,0,0,0.00397829,0,0.00229821,
41.1085,0,0,0.00317404,0,0.00231116,
43.8407,0,0,0.00216418,0,0.00232171,
46.7983,0,0,0.00111481,0,0.00232778,
50,0,0,0.00210358,0,0.00234372,

