dbd08584b74f50c5c3f0f681b99146fb8e0dddae 
X,Z,x_velocity,cp,uw_b,cf,
1,0,0,-0.232811,0,0,
1,9,0,-0.127511,0,0,
1,8.99969,0.0153293,-0.127511,2.81725e-10,0,
1,8.99934,0.0327212,-0.127511,1.31692e-08,0,
1,8.99894,0.0524714,-0.127511,1.81672e-07,0,
1,8.99848,0.0748925,-0.127511,1.33199e-06,0,
1,8.99797,0.100297,-0.127511,6.65958e-06,0,
1,8.99739,0.128883,-0.127511,2.52237e-05,0,
1,8.99672,0.160463,-0.127511,7.48151e-05,0,
1,8.99597,0.194111,-0.127511,0.000174226,0,
1,8.99512,0.228188,-0.127511,0.000321738,0,
1,8.99416,0.26104,-0.12751,0.000489161,0,
1,8.99306,0.291684,-0.12751,0.000647073,0,
1,8.99182,0.319938,-0.12751,0.000774626,0,
1,8.99041,0.345938,-0.127509,0.000880095,0,
1,8.98881,0.369846,-0.127509,0.000967272,0,
1,8.98699,0.391879,-0.127508,0.00103847,0,
1,8.98494,0.412325,-0.127508,0.00109437,0,
1,8.98261,0.431495,-0.127507,0.00113735,0,
1,8.97996,0.449626,-0.127506,0.00117337,0,
1,8.97696,0.46689,-0.127505,0.00120327,0,
1,8.97356,0.483429,-0.127503,0.00122832,0,
1,8.9697,0.499361,-0.127502,0.00124947,0,
1,8.96533,0.514785,-0.1275,0.00126744,0,
1,8.96038,0.529784,-0.127498,0.00128274,0,
1,8.95476,0.544428,-0.127495,0.00129574,0,
1,8.9484,0.558776,-0.127493,0.00130669,0,
1,8.9412,0.572878,-0.12749,0.00131577,0,
1,8.93303,0.586777,-0.127487,0.00132306,0,
1,8.92379,0.600512,-0.127484,0.00132862,0,
1,8.91333,0.614112,-0.12748,0.00133245,0,
1,8.90149,0.627606,-0.127477,0.00133452,0,
1,8.8881,0.641019,-0.127473,0.00133477,0,
1,8.87295,0.654371,-0.12747,0.00133313,0,
1,8.85584,0.667682,-0.127468,0.00132949,0,
1,8.83651,0.680971,-0.127466,0.00132374,0,
1,8.81469,0.694256,-0.127465,0.00131575,0,
1,8.79007,0.707557,-0.127466,0.00130536,0,
1,8.76232,0.720894,-0.127469,0.00129239,0,
1,8.73107,0.734292,-0.127476,0.00127662,0,
1,8.69591,0.747781,-0.127487,0.00125777,0,
1,8.6564,0.761395,-0.127504,0.00123551,0,
1,8.61206,0.775179,-0.127529,0.00120943,0,
1,8.56236,0.789188,-0.127564,0.00117922,0,
1,8.50675,0.803497,-0.127612,0.00114634,0,
1,8.44464,0.818249,-0.127678,0.00110502,0,
1,8.3754,0.833662,-0.127763,0.00105371,0,
1,8.29839,0.849977,-0.127876,0.000990826,0,
1,8.21296,0.867441,-0.128023,0.000911924,0,
1,8.11843,0.886256,-0.128208,0.000811817,0,
1,8.01417,0.90643,-0.128447,0.000686969,0,
1,7.89956,0.927532,-0.128736,0.000540574,0,
1,7.77403,0.948445,-0.129112,0.000390904,0,
1,7.63711,0.967562,-0.129562,0.000208847,0,
1,7.48842,0.982568,-0.130094,7.82103e-05,0,
1,7.32773,0.991502,-0.130733,1.90731e-05,0,
1,7.15495,0.994792,-0.131477,1.95664e-06,0,
1,6.97022,0.994894,-0.13234,2.98196e-08,0,
1,6.77388,0.994278,-0.133336,3.82438e-09,0,
1,6.56652,0.994151,-0.134484,9.88765e-09,0,
1,6.34896,0.994601,-0.135797,1.25686e-08,0,
1,6.12229,0.995332,-0.13729,1.42004e-08,0,
1,5.88784,0.99614,-0.138978,1.50934e-08,0,
1,5.64716,0.996986,-0.140875,1.61108e-08,0,
1,5.40194,0.997902,-0.142994,1.75239e-08,0,
1,5.15407,0.998915,-0.145344,1.93145e-08,0,
1,4.90545,1.00004,-0.147929,2.12341e-08,0,
1,4.65805,1.00127,-0.150749,2.33031e-08,0,
1,4.41376,1.00261,-0.153801,2.54873e-08,0,
1,4.17441,1.00404,-0.157072,2.7562e-08,0,
1,3.94163,1.0055,-0.160547,2.93672e-08,0,
1,3.7169,1.00696,-0.164199,3.15108e-08,0,
1,3.50146,1.00847,-0.167999,3.59374e-08,0,
1,3.29629,1.01036,-0.171914,4.47054e-08,0,
1,3.10217,1.013,-0.175911,5.60528e-08,0,
1,2.91959,1.01618,-0.179962,1.03857e-07,0,
1,2.74885,1.01849,-0.184021,1.10338e-06,0,
1,2.59002,1.01752,-0.18802,-5.12448e-06,0,
1,2.44299,1.01155,-0.191888,-4.93226e-05,0,
1,2.30752,1.00075,-0.195552,-0.000144471,0,
1,2.18321,0.986549,-0.198944,-0.000277175,0,
1,2.06959,0.970531,-0.20209,-0.000392147,0,
1,1.9661,0.953964,-0.204964,-0.000492182,0,
1,1.87215,0.937775,-0.20753,-0.000585381,0,
1,1.78711,0.922477,-0.209823,-0.00066734,0,
1,1.71033,0.908227,-0.211858,-0.000738067,0,
1,1.64119,0.894997,-0.213657,-0.000799153,0,
1,1.57905,0.882676,-0.21524,-0.000852814,0,
1,1.52332,0.871134,-0.216628,-0.000901163,0,
1,1.47342,0.860262,-0.217848,-0.000946419,0,
1,1.42882,0.84997,-0.2189,-0.000980998,0,
1,1.389,0.840179,-0.219797,-0.00100623,0,
1,1.35351,0.830822,-0.220579,-0.0010299,0,
1,1.3219,0.821867,-0.221253,-0.00105123,0,
1,1.29378,0.813293,-0.221835,-0.00106992,0,
1,1.26878,0.805091,-0.222337,-0.00108595,0,
1,1.24659,0.797258,-0.22277,-0.00109961,0,
1,1.22689,0.789788,-0.223143,-0.00111094,0,
1,1.2092,0.782596,-0.223468,-0.00111891,0,
1,1.1932,0.775632,-0.223752,-0.00112429,0,
1,1.1787,0.768879,-0.224001,-0.00112805,0,
1,1.16554,0.762312,-0.224219,-0.00113175,0,
1,1.15357,0.755888,-0.224409,-0.0011387,0,
1,1.14266,0.749544,-0.224576,-0.00115366,0,
1,1.13268,0.743182,-0.224722,-0.00118347,0,
1,1.12354,0.73667,-0.224852,-0.0012371,0,
1,1.11514,0.729831,-0.22497,-0.00132507,0,
1,1.10739,0.72246,-0.225082,-0.00145841,0,
1,1.10022,0.714342,-0.225192,-0.00164681,0,
1,1.09357,0.705301,-0.225305,-0.0018963,0,
1,1.08738,0.695251,-0.225425,-0.00220673,0,
1,1.0816,0.684235,-0.225551,-0.00257044,0,
1,1.07618,0.672411,-0.225683,-0.00297329,0,
1,1.07107,0.660011,-0.225821,-0.00339789,0,
1,1.06626,0.64728,-0.225963,-0.00382741,0,
1,1.06169,0.634437,-0.226108,-0.0042482,0,
1,1.05735,0.621652,-0.226253,-0.00465066,0,
1,1.05321,0.609051,-0.226399,-0.00502893,0,
1,1.04925,0.596713,-0.226545,-0.00538001,0,
1,1.04544,0.584688,-0.226689,-0.0057029,0,
1,1.04177,0.573001,-0.226832,-0.00599786,0,
1,1.03822,0.56166,-0.226973,-0.00626593,0,
1,1.03478,0.550663,-0.227112,-0.00650855,0,
1,1.03144,0.54,-0.22725,-0.00672732,0,
1,1.02818,0.529658,-0.227385,-0.00692389,0,
1,1.025,0.51962,-0.227519,-0.00709985,0,
1,1.02188,0.509871,-0.227651,-0.00725673,0,
1,1.01882,0.500393,-0.227782,-0.00739591,0,
1,1.01581,0.49117,-0.227911,-0.00751881,0,
1,1.01284,0.482185,-0.228039,-0.00762651,0,
1,1.00988,0.473328,-0.228166,-0.00772072,0,
1,1.00688,0.464489,-0.228295,-0.00780352,0,
1,1.00384,0.455653,-0.228424,-0.00787474,0,
1,1.00076,0.446802,-0.228555,-0.00793436,0,
1,0.997615,0.437916,-0.228687,-0.00798236,0,
1,0.99441,0.428972,-0.22882,-0.00801905,0,
1,0.991131,0.419945,-0.228954,-0.00804436,0,
1,0.987768,0.410811,-0.22909,-0.00805813,0,
1,0.984308,0.40154,-0.229227,-0.00806005,0,
1,0.980739,0.392103,-0.229367,-0.00804971,0,
1,0.977045,0.382467,-0.229509,-0.00802653,0,
1,0.973211,0.372596,-0.229654,-0.00798979,0,
1,0.969219,0.36245,-0.229802,-0.00793857,0,
1,0.965047,0.351986,-0.229953,-0.00787174,0,
1,0.960675,0.341155,-0.230107,-0.00778796,0,
1,0.956077,0.329905,-0.230265,-0.00768528,0,
1,0.951224,0.318176,-0.230426,-0.00756156,0,
1,0.946088,0.305905,-0.230592,-0.00741472,0,
1,0.940633,0.293031,-0.230763,-0.00724207,0,
1,0.934823,0.27949,-0.230939,-0.00704066,0,
1,0.928616,0.265228,-0.231121,-0.00680809,0,
1,0.921967,0.250204,-0.231309,-0.00654219,0,
1,0.914826,0.234387,-0.231503,-0.00623914,0,
1,0.907141,0.217762,-0.231703,-0.00589634,0,
1,0.898852,0.200332,-0.231908,-0.00551183,0,
1,0.889898,0.18213,-0.232118,-0.00508475,0,
1,0.880212,0.163234,-0.232333,-0.00461595,0,
1,0.869723,0.143782,-0.232552,-0.00410893,0,
1,0.858358,0.124002,-0.232775,-0.00357124,0,
1,0.846039,0.104248,-0.233003,-0.00301644,0,
1,0.83269,0.0850326,-0.233238,-0.00246617,0,
1,0.818232,0.0670401,-0.233481,-0.00195428,0,
1,0.802744,0.0511445,-0.233719,-0.00151733,0,
1,0.78635,0.0379451,-0.233956,-0.00117442,0,
1,0.768969,0.0273912,-0.234177,-0.000925698,0,
1,0.75053,0.0190345,-0.234381,-0.000757305,0,
1,0.730977,0.0122581,-0.234557,-0.000651334,0,
1,0.710271,0.00649292,-0.234703,-0.000590544,0,
1,0.688397,0.00131323,-0.23482,-0.00055943,0,
1,0.66536,-0.00355456,-0.234907,-0.000549267,0,
1,0.641194,-0.00827915,-0.234967,-0.000548984,0,
1,0.615961,-0.0129786,-0.235006,-0.000551315,0,
1,0.589754,-0.0177243,-0.235023,-0.000551854,0,
1,0.562692,-0.022541,-0.235019,-0.000547601,0,
1,0.534925,-0.0274174,-0.234994,-0.000537139,0,
1,0.506624,-0.0323155,-0.234947,-0.000520036,0,
1,0.477982,-0.037182,-0.234876,-0.000496531,0,
1,0.449206,-0.0419556,-0.234783,-0.000467261,0,
1,0.420509,-0.0465741,-0.234667,-0.000433086,0,
1,0.392107,-0.0509778,-0.234532,-0.000394976,0,
1,0.364206,-0.0551123,-0.234379,-0.000353941,0,
1,0.337003,-0.0589297,-0.234214,-0.000310984,0,
1,0.310673,-0.0623898,-0.234041,-0.00026706,0,
1,0.28537,-0.0654597,-0.233863,-0.000223044,0,
1,0.26122,-0.0681137,-0.233687,-0.000179703,0,
1,0.238324,-0.0703325,-0.233516,-0.000137672,0,
1,0.21675,-0.0721022,-0.233354,-9.74622e-05,0,
1,0.196544,-0.0734129,-0.233204,-5.94676e-05,0,
1,0.177724,-0.0742578,-0.23307,-2.39697e-05,0,
1,0.160284,-0.0746321,-0.232952,8.83584e-06,0,
1,0.144202,-0.0745321,-0.232852,3.88049e-05,0,
1,0.129436,-0.0739556,-0.232771,6.58057e-05,0,
1,0.115935,-0.0729018,-0.232707,8.96848e-05,0,
1,0.103636,-0.0713732,-0.232661,0.000110251,0,
1,0.0924701,-0.0693765,-0.23263,0.000127282,0,
1,0.0823633,-0.0669251,-0.232614,0.000140551,0,
1,0.0732406,-0.0640404,-0.232609,0.000149871,0,
1,0.0650269,-0.0607528,-0.232613,0.000155129,0,
1,0.057648,-0.0571016,-0.232625,0.000156319,0,
1,0.0510323,-0.0531338,-0.232642,0.000153583,0,
1,0.0451115,-0.0489023,-0.232662,0.000147195,0,
1,0.0398209,-0.0444637,-0.232684,0.000137539,0,
1,0.0351001,-0.0398748,-0.232705,0.000125076,0,
1,0.0308929,-0.0351907,-0.232726,0.000110312,0,
1,0.0271475,-0.030464,-0.232744,9.37844e-05,0,
1,0.0238164,-0.0257476,-0.23276,7.60975e-05,0,
1,0.0208562,-0.021103,-0.232773,5.80298e-05,0,
1,0.0182274,-0.0166147,-0.232784,4.07024e-05,0,
1,0.0158944,-0.0124051,-0.232791,2.5611e-05,0,
1,0.0138249,-0.00863034,-0.232797,1.41622e-05,0,
1,0.0119898,-0.00544016,-0.2328,6.83367e-06,0,
1,0.0103632,-0.00291703,-0.232803,2.90015e-06,0,
1,0.00892169,-0.00104812,-0.232804,1.09763e-06,0,
1,0.00764438,0.000251447,-0.232805,3.73352e-07,0,
1,0.00651264,0.00109407,-0.232805,1.12792e-07,0,
1,0.00550983,0.00158823,-0.232807,2.87754e-08,0,
1,0.00462115,0.00182502,-0.232807,5.19152e-09,0,
1,0.00383341,0.00187637,-0.232808,-2.33141e-11,0,
1,0.0031349,0.00179721,-0.232807,-5.67225e-10,0,
1,0.00251518,0.00162897,-0.232809,-3.15355e-10,0,
1,0.00196502,0.0014024,-0.232808,-1.12988e-10,0,
1,0.00147619,0.00114019,-0.23281,-2.86524e-11,0,
1,0.00104139,0.00085877,-0.232808,-4.75409e-12,0,
1,0.000654158,0.000569941,-0.23281,-4.05953e-13,0,
1,0.000308731,0.000281875,-0.232808,-9.90321e-15,0,

4,0,0,-0.138505,0,0,
4,9,0,-0.0963325,0,0,
4,8.99969,0.0141908,-0.0963321,2.20261e-10,0,
4,8.99934,0.0302347,-0.0963324,1.02193e-08,0,
4,8.99894,0.0483921,-0.0963321,1.39549e-07,0,
4,8.9985,0.0689387,-0.0963323,1.013e-06,0,
4,8.99799,0.0921551,-0.0963321,5.0292e-06,0,
4,8.99742,0.118245,-0.0963322,1.90531e-05,0,
4,8.99677,0.147128,-0.096332,5.7238e-05,0,
4,8.99605,0.178138,-0.0963321,0.00013698,0,
4,8.99522,0.20993,-0.0963318,0.000262369,0,
4,8.99429,0.240968,-0.0963318,0.000413566,0,
4,8.99324,0.270183,-0.0963314,0.000562741,0,
4,8.99205,0.297185,-0.0963312,0.000692166,0,
4,8.9907,0.322047,-0.0963307,0.000796039,0,
4,8.98919,0.344943,-0.0963303,0.000883631,0,
4,8.98747,0.366059,-0.0963295,0.000956551,0,
4,8.98553,0.385665,-0.0963288,0.00101386,0,
4,8.98334,0.404038,-0.0963278,0.00106022,0,
4,8.98087,0.421396,-0.0963267,0.00109937,0,
4,8.97807,0.437907,-0.0963253,0.00113263,0,
4,8.97491,0.453712,-0.0963236,0.0011613,0,
4,8.97134,0.468931,-0.0963217,0.00118636,0,
4,8.96731,0.483663,-0.0963195,0.00120853,0,
4,8.96276,0.497994,-0.0963169,0.00122833,0,
4,8.95762,0.511996,-0.0963139,0.00124614,0,
4,8.95182,0.525731,-0.0963105,0.0012622,0,
4,8.94526,0.539254,-0.0963066,0.00127667,0,
4,8.93787,0.55261,-0.0963021,0.0012896,0,
4,8.92952,0.56584,-0.0962972,0.00130101,0,
4,8.92011,0.578977,-0.0962917,0.00131084,0,
4,8.90949,0.592051,-0.0962856,0.001319,0,
4,8.89751,0.605087,-0.0962789,0.00132535,0,
4,8.88402,0.618106,-0.0962717,0.00132974,0,
4,8.86881,0.631126,-0.096264,0.00133197,0,
4,8.85169,0.644162,-0.0962558,0.00133188,0,
4,8.83242,0.657226,-0.0962473,0.00132925,0,
4,8.81074,0.67033,-0.0962388,0.0013239,0,
4,8.78637,0.683485,-0.0962304,0.00131564,0,
4,8.75901,0.696703,-0.0962225,0.00130429,0,
4,8.7283,0.709997,-0.0962158,0.00128963,0,
4,8.69387,0.723384,-0.0962105,0.00127147,0,
4,8.65533,0.736888,-0.0962076,0.00124953,0,
4,8.61222,0.750537,-0.0962081,0.00122351,0,
4,8.56407,0.764371,-0.096213,0.00119305,0,
4,8.5104,0.778441,-0.096224,0.0011584,0,
4,8.45065,0.792832,-0.0962435,0.0011196,0,
4,8.38429,0.8077,-0.0962744,0.00107176,0,
4,8.31073,0.823271,-0.0963191,0.00101457,0,
4,8.22941,0.839802,-0.0963805,0.000944606,0,
4,8.13974,0.85756,-0.0964623,0.000857571,0,
4,8.04115,0.876729,-0.0965652,0.000749803,0,
4,7.93313,0.897214,-0.0966952,0.000621425,0,
4,7.81519,0.918328,-0.0968431,0.000481183,0,
4,7.68693,0.938614,-0.0970328,0.000346512,0,
4,7.54803,0.956175,-0.0972447,0.00020657,0,
4,7.39831,0.969116,-0.0974976,9.14677e-05,0,
4,7.23771,0.976518,-0.0978074,2.85083e-05,0,
4,7.06634,0.979277,-0.0981612,4.72355e-06,0,
4,6.88453,0.97944,-0.0985622,-4.67334e-08,0,
4,6.69275,0.978866,-0.0990099,-1.30372e-07,0,
4,6.49173,0.978513,-0.0995116,8.83414e-09,0,
4,6.28238,0.97855,-0.100075,2.08874e-08,0,
4,6.06579,0.978817,-0.100706,1.24897e-08,0,
4,5.84328,0.979155,-0.10141,8.29684e-09,0,
4,5.61626,0.979499,-0.102191,7.09564e-09,0,
4,5.3863,0.979845,-0.103052,7.06188e-09,0,
4,5.15502,0.980211,-0.103994,7.50214e-09,0,
4,4.92406,0.980609,-0.105019,8.18175e-09,0,
4,4.69507,0.98105,-0.106125,9.0097e-09,0,
4,4.46961,0.981538,-0.107309,9.84307e-09,0,
4,4.24915,0.982055,-0.108568,1.0381e-08,0,
4,4.03501,0.982546,-0.109896,1.03242e-08,0,
4,3.82836,0.982944,-0.111283,9.89823e-09,0,
4,3.63018,0.983247,-0.11272,1.04542e-08,0,
4,3.44125,0.983631,-0.114196,1.47609e-08,0,
4,3.26217,0.984447,-0.115699,5.32934e-08,0,
4,3.09333,0.985996,-0.117216,4.83652e-07,0,
4,2.93497,0.988122,-0.118733,2.28816e-06,0,
4,2.78715,0.990008,-0.120236,4.29465e-06,0,
4,2.64979,0.990497,-0.12171,-6.92927e-07,0,
4,2.52268,0.988664,-0.123139,-2.21898e-05,0,
4,2.40551,0.984162,-0.124508,-6.53577e-05,0,
4,2.29789,0.977211,-0.1258,-0.000128984,0,
4,2.19939,0.968378,-0.127008,-0.000207267,0,
4,2.10949,0.95834,-0.128123,-0.000292584,0,
4,2.02768,0.947724,-0.129147,-0.000377321,0,
4,1.95343,0.937051,-0.130081,-0.000455256,0,
4,1.88618,0.926704,-0.130928,-0.00052425,0,
4,1.82542,0.916863,-0.131699,-0.000571684,0,
4,1.77062,0.907587,-0.132398,-0.000611439,0,
4,1.72128,0.898932,-0.133022,-0.000647386,0,
4,1.67693,0.890935,-0.133581,-0.000679596,0,
4,1.63713,0.883597,-0.134081,-0.000708377,0,
4,1.60144,0.876901,-0.134527,-0.000734058,0,
4,1.56949,0.870816,-0.134926,-0.000757025,0,
4,1.54091,0.865304,-0.135281,-0.000777716,0,
4,1.51537,0.860308,-0.135598,-0.000796528,0,
4,1.49167,0.855629,-0.135889,-0.000813971,0,
4,1.46926,0.851182,-0.136164,-0.000830473,0,
4,1.44801,0.846954,-0.136421,-0.000846264,0,
4,1.42781,0.842913,-0.136674,-0.000856739,0,
4,1.40855,0.839016,-0.136922,-0.000862844,0,
4,1.39015,0.835235,-0.137156,-0.000868944,0,
4,1.37252,0.831555,-0.137381,-0.000874009,0,
4,1.3556,0.82796,-0.137597,-0.000878477,0,
4,1.3393,0.824434,-0.137806,-0.00088312,0,
4,1.32357,0.820958,-0.138008,-0.00088871,0,
4,1.30836,0.817513,-0.138203,-0.000896095,0,
4,1.29362,0.814076,-0.138392,-0.000906393,0,
4,1.2793,0.81062,-0.138576,-0.000920991,0,
4,1.26537,0.807114,-0.138755,-0.000941587,0,
4,1.25179,0.80352,-0.13893,-0.000970208,0,
4,1.23852,0.799795,-0.139101,-0.00100923,0,
4,1.22554,0.795888,-0.139268,-0.00106134,0,
4,1.21282,0.791739,-0.139431,-0.0011295,0,
4,1.20034,0.787284,-0.13959,-0.00121677,0,
4,1.18806,0.782455,-0.139745,-0.00132611,0,
4,1.17599,0.777186,-0.139896,-0.00146004,0,
4,1.16408,0.771416,-0.140043,-0.00162035,0,
4,1.15233,0.7651,-0.140186,-0.00180771,0,
4,1.14073,0.758211,-0.140325,-0.00202145,0,
4,1.12925,0.750745,-0.140461,-0.00225951,0,
4,1.11788,0.74272,-0.140592,-0.00251855,0,
4,1.10661,0.734172,-0.14072,-0.0027943,0,
4,1.09543,0.725153,-0.140844,-0.00308192,0,
4,1.08432,0.715721,-0.140966,-0.00337643,0,
4,1.07328,0.705939,-0.141084,-0.00367302,0,
4,1.0623,0.695868,-0.1412,-0.00396737,0,
4,1.05136,0.685564,-0.141313,-0.00425567,0,
4,1.04044,0.67506,-0.141424,-0.00453489,0,
4,1.0295,0.664385,-0.141533,-0.0048027,0,
4,1.01855,0.653577,-0.14164,-0.00505688,0,
4,1.00757,0.642669,-0.141745,-0.00529536,0,
4,0.996544,0.631689,-0.141848,-0.0055165,0,
4,0.98547,0.620665,-0.141949,-0.00571908,0,
4,0.974334,0.609617,-0.142047,-0.0059016,0,
4,0.963124,0.598564,-0.142147,-0.00606922,0,
4,0.951826,0.587501,-0.142233,-0.0062343,0,
4,0.940428,0.576317,-0.142289,-0.00635018,0,
4,0.928915,0.564866,-0.142335,-0.00647285,0,
4,0.917272,0.553063,-0.142378,-0.00660363,0,
4,0.905481,0.540855,-0.142421,-0.00674326,0,
4,0.893524,0.5282,-0.142465,-0.00689219,0,
4,0.881383,0.51506,-0.142513,-0.00705058,0,
4,0.869035,0.501401,-0.142563,-0.00721836,0,
4,0.856459,0.487191,-0.142618,-0.00739528,0,
4,0.843629,0.472401,-0.142677,-0.00758089,0,
4,0.830518,0.457004,-0.142739,-0.00777455,0,
4,0.817097,0.440981,-0.142805,-0.00797542,0,
4,0.803334,0.424313,-0.142873,-0.00818243,0,
4,0.789195,0.406992,-0.142943,-0.00839427,0,
4,0.774643,0.389011,-0.143015,-0.00860931,0,
4,0.759639,0.370376,-0.143089,-0.00882545,0,
4,0.744138,0.351104,-0.143165,-0.00904007,0,
4,0.728096,0.331233,-0.143244,-0.00924987,0,
4,0.711463,0.310819,-0.143328,-0.00945083,0,
4,0.694189,0.289936,-0.143418,-0.00963781,0,
4,0.676218,0.268663,-0.143514,-0.00980448,0,
4,0.657495,0.247074,-0.143615,-0.00994476,0,
4,0.637962,0.225222,-0.14372,-0.0100535,0,
4,0.617561,0.203135,-0.143821,-0.0101265,0,
4,0.596848,0.181423,-0.143909,-0.010159,0,
4,0.576557,0.160801,-0.143984,-0.0101501,0,
4,0.556564,0.14114,-0.144051,-0.0101018,0,
4,0.536763,0.122372,-0.144128,-0.0100157,0,
4,0.517057,0.104524,-0.144248,-0.00989326,0,
4,0.497368,0.0877238,-0.144452,-0.0097385,0,
4,0.477632,0.0721476,-0.144767,-0.00955829,0,
4,0.457804,0.0579103,-0.145191,-0.00936436,0,
4,0.437857,0.0449073,-0.14557,-0.0091633,0,
4,0.417786,0.0326714,-0.145541,-0.00872217,0,
4,0.397605,0.0207939,-0.14527,-0.00831249,0,
4,0.377348,0.00919928,-0.145067,-0.00793793,0,
4,0.357066,-0.00206817,-0.144841,-0.00755321,0,
4,0.336828,-0.0129773,-0.144611,-0.00715461,0,
4,0.316717,-0.0235019,-0.144373,-0.00674826,0,
4,0.296825,-0.0336053,-0.144124,-0.00634036,0,
4,0.27725,-0.0432446,-0.143865,-0.00593252,0,
4,0.258095,-0.0523816,-0.143597,-0.00552642,0,
4,0.239458,-0.0609886,-0.143322,-0.00512455,0,
4,0.221432,-0.069049,-0.143039,-0.00472966,0,
4,0.2041,-0.0765571,-0.142751,-0.00434445,0,
4,0.187537,-0.0835159,-0.14246,-0.00397141,0,
4,0.171798,-0.0899367,-0.142168,-0.0036127,0,
4,0.156928,-0.0958364,-0.141877,-0.00327013,0,
4,0.142956,-0.101237,-0.141591,-0.00294507,0,
4,0.129894,-0.106162,-0.141312,-0.0026385,0,
4,0.117744,-0.110639,-0.141041,-0.002351,0,
4,0.106492,-0.114694,-0.140783,-0.0020828,0,
4,0.0961173,-0.118355,-0.140538,-0.00183378,0,
4,0.0865883,-0.121646,-0.140308,-0.0016036,0,
4,0.0778675,-0.124594,-0.140094,-0.00139166,0,
4,0.0699123,-0.127219,-0.139897,-0.00119722,0,
4,0.062677,-0.129545,-0.139717,-0.00101939,0,
4,0.056114,-0.131588,-0.139553,-0.000857221,0,
4,0.0501747,-0.133366,-0.139406,-0.0007097,0,
4,0.0448114,-0.134893,-0.139274,-0.00057581,0,
4,0.039977,-0.13618,-0.139158,-0.00045454,0,
4,0.0356266,-0.137235,-0.139055,-0.000344909,0,
4,0.0317171,-0.138065,-0.138964,-0.000245985,0,
4,0.0282081,-0.13867,-0.138886,-0.000156903,0,
4,0.0250617,-0.139049,-0.138817,-7.68724e-05,0,
4,0.0222427,-0.139194,-0.138759,-5.20126e-06,0,
4,0.0197189,-0.139091,-0.138709,5.86849e-05,0,
4,0.0174603,-0.138716,-0.138666,0.000115209,0,
4,0.0154398,-0.138034,-0.13863,0.000164584,0,
4,0.0136326,-0.136992,-0.1386,0.000206723,0,
4,0.0120162,-0.135511,-0.138576,0.000241082,0,
4,0.0105703,-0.133478,-0.138556,0.000266402,0,
4,0.00927657,-0.130727,-0.138542,0.000280374,0,
4,0.00811839,-0.127024,-0.13853,0.000279399,0,
4,0.0070809,-0.12207,-0.138522,0.000259214,0,
4,0.0061507,-0.11554,-0.138515,0.000217801,0,
4,0.00531578,-0.10724,-0.138513,0.000160469,0,
4,0.00456537,-0.097313,-0.13851,0.000101178,0,
4,0.00388979,-0.0862976,-0.13851,5.4289e-05,0,
4,0.00328037,-0.0748925,-0.138508,2.50397e-05,0,
4,0.00272934,-0.0636514,-0.138509,1.00356e-05,0,
4,0.0022297,-0.0528809,-0.138507,3.483e-06,0,
4,0.00177519,-0.0426996,-0.138508,1.018e-06,0,
4,0.00136016,-0.0331229,-0.138506,2.35038e-07,0,
4,0.000979511,-0.024119,-0.138508,3.77346e-08,0,
4,0.00062865,-0.0156368,-0.138505,3.22702e-09,0,
4,0.000303409,-0.00761807,-0.138508,7.87995e-11,0,

6,0,0,-0.00951856,0,0,
6,9,0,-0.0723328,0,0,
6,8.99969,0.0134572,-0.0723325,1.8366e-10,0,
6,8.99934,0.0286327,-0.0723327,8.47632e-09,0,
6,8.99895,0.045763,-0.0723325,1.14921e-07,0,
6,8.9985,0.0650984,-0.0723326,8.28263e-07,0,
6,8.99801,0.0868964,-0.0723324,4.08963e-06,0,
6,8.99744,0.111357,-0.0723325,1.54779e-05,0,
6,8.99681,0.138457,-0.0723324,4.68273e-05,0,
6,8.99609,0.167679,-0.0723324,0.000114012,0,
6,8.99529,0.197883,-0.0723322,0.000223868,0,
6,8.99438,0.227645,-0.0723322,0.000362199,0,
6,8.99336,0.255862,-0.0723319,0.000503654,0,
6,8.9922,0.282031,-0.0723317,0.000630814,0,
6,8.9909,0.306147,-0.0723313,0.000733976,0,
6,8.98944,0.328366,-0.072331,0.000820628,0,
6,8.98779,0.348861,-0.0723304,0.00089354,0,
6,8.98593,0.367878,-0.0723298,0.000951255,0,
6,8.98383,0.385677,-0.072329,0.000998676,0,
6,8.98147,0.402461,-0.072328,0.00103884,0,
6,8.97881,0.418398,-0.0723269,0.00107325,0,
6,8.97581,0.433627,-0.0723255,0.00110323,0,
6,8.97244,0.448266,-0.0723238,0.00112979,0,
6,8.96863,0.462416,-0.0723219,0.00115368,0,
6,8.96435,0.476163,-0.0723196,0.00117546,0,
6,8.95953,0.489582,-0.0723169,0.00119554,0,
6,8.95409,0.502737,-0.0723137,0.00121419,0,
6,8.94798,0.515685,-0.07231,0.00123159,0,
6,8.94109,0.528474,-0.0723058,0.00124783,0,
6,8.93334,0.541149,-0.0723009,0.00126292,0,
6,8.92463,0.553748,-0.0722952,0.00127681,0,
6,8.91482,0.566304,-0.0722888,0.0012894,0,
6,8.90379,0.578847,-0.0722815,0.00130052,0,
6,8.89139,0.591401,-0.0722733,0.00130998,0,
6,8.87746,0.603987,-0.0722641,0.00131753,0,
6,8.86181,0.616623,-0.0722537,0.0013229,0,
6,8.84423,0.629324,-0.0722422,0.00132582,0,
6,8.82452,0.642099,-0.0722296,0.001326,0,
6,8.80241,0.654958,-0.0722156,0.00132314,0,
6,8.77763,0.667908,-0.0722003,0.00131697,0,
6,8.74989,0.680956,-0.0721839,0.00130723,0,
6,8.71885,0.694109,-0.0721662,0.00129365,0,
6,8.68417,0.707378,-0.0721472,0.00127599,0,
6,8.64545,0.720774,-0.0721271,0.00125399,0,
6,8.60229,0.73432,-0.0721063,0.00122686,0,
6,8.55423,0.748043,-0.0720847,0.00119548,0,
6,8.50082,0.761982,-0.0720624,0.00115947,0,
6,8.44155,0.776212,-0.0720399,0.0011182,0,
6,8.37592,0.790859,-0.0720176,0.00107054,0,
6,8.30339,0.806115,-0.0719962,0.00101465,0,
6,8.22344,0.822236,-0.0719752,0.000947672,0,
6,8.13555,0.839521,-0.0719551,0.000865949,0,
6,8.0392,0.858227,-0.0719312,0.000766031,0,
6,7.93391,0.87836,-0.0719025,0.000647538,0,
6,7.81927,0.899354,-0.0718583,0.000516711,0,
6,7.6949,0.919844,-0.0718003,0.000388516,0,
6,7.56054,0.937988,-0.0717246,0.000272831,0,
6,7.41603,0.952166,-0.0716301,0.000142518,0,
6,7.26132,0.961378,-0.0715211,5.69832e-05,0,
6,7.09653,0.965837,-0.0713891,1.46742e-05,0,
6,6.92195,0.966971,-0.0712326,7.79756e-07,0,
6,6.73802,0.96654,-0.0710444,-1.10114e-06,0,
6,6.5454,0.965801,-0.0708205,-5.31509e-07,0,
6,6.34489,0.965277,-0.0705566,-1.57196e-07,0,
6,6.1375,0.964993,-0.0702486,-4.52754e-08,0,
6,5.92439,0.964816,-0.0698915,-1.76373e-08,0,
6,5.70687,0.964632,-0.0694799,-9.90629e-09,0,
6,5.48633,0.964397,-0.0690084,-7.54202e-09,0,
6,5.26426,0.964106,-0.0684711,-7.1078e-09,0,
6,5.04218,0.963769,-0.0678628,-7.4249e-09,0,
6,4.82159,0.963399,-0.0671785,-8.01807e-09,0,
6,4.60398,0.963007,-0.0664144,-8.76419e-09,0,
6,4.39071,0.962592,-0.0655675,-9.80854e-09,0,
6,4.18307,0.962126,-0.0646368,-1.14796e-08,0,
6,3.98218,0.961548,-0.0636227,-1.40035e-08,0,
6,3.78902,0.9608,-0.0625281,-1.70748e-08,0,
6,3.60438,0.959904,-0.0613583,-2.17186e-08,0,
6,3.42888,0.959023,-0.0601205,-4.53519e-08,0,
6,3.26296,0.958444,-0.0588231,-1.25552e-07,0,
6,3.10691,0.958415,-0.0574749,-2.0624e-07,0,
6,2.96084,0.958931,-0.0560855,-1.43882e-07,0,
6,2.82473,0.959634,-0.054666,-6.14106e-07,0,
6,2.69844,0.959921,-0.053231,-4.3475e-06,0,
6,2.58172,0.959188,-0.0517967,-1.56228e-05,0,
6,2.47424,0.95703,-0.0503806,-3.81525e-05,0,
6,2.37559,0.953327,-0.0489989,-7.347e-05,0,
6,2.28535,0.948207,-0.0476659,-0.000120727,0,
6,2.20301,0.941951,-0.046393,-0.000177277,0,
6,2.1281,0.934906,-0.0451884,-0.000239524,0,
6,2.06009,0.927416,-0.0440581,-0.000303593,0,
6,1.99849,0.919792,-0.0430037,-0.000365755,0,
6,1.9428,0.912288,-0.0420279,-0.000422863,0,
6,1.89255,0.905099,-0.0411256,-0.000473743,0,
6,1.84728,0.898328,-0.0403002,-0.000519,0,
6,1.80655,0.89198,-0.0395514,-0.000549429,0,
6,1.76996,0.886045,-0.0388653,-0.000577229,0,
6,1.73712,0.880537,-0.0382428,-0.00060274,0,
6,1.70768,0.87543,-0.0376755,-0.000626371,0,
6,1.67998,0.870501,-0.0371386,-0.000649383,0,
6,1.65329,0.865653,-0.036615,-0.000671914,0,
6,1.62754,0.860886,-0.0361053,-0.000693912,0,
6,1.60265,0.856199,-0.0356076,-0.000715474,0,
6,1.57854,0.851592,-0.0351215,-0.0007366,0,
6,1.55515,0.847065,-0.034646,-0.000757281,0,
6,1.53242,0.842617,-0.0341805,-0.000777528,0,
6,1.5103,0.838242,-0.0337243,-0.000797299,0,
6,1.48874,0.833924,-0.0332772,-0.000816541,0,
6,1.46769,0.829645,-0.0328383,-0.000835362,0,
6,1.44712,0.825389,-0.0324067,-0.000854182,0,
6,1.42698,0.821164,-0.0319798,-0.000873769,0,
6,1.40725,0.817013,-0.031556,-0.00089479,0,
6,1.38788,0.812998,-0.031134,-0.000917508,0,
6,1.36886,0.809142,-0.0307176,-0.000940449,0,
6,1.35015,0.805378,-0.0303145,-0.000944486,0,
6,1.33173,0.801624,-0.0299185,-0.000954038,0,
6,1.31357,0.797856,-0.0295238,-0.000966376,0,
6,1.29566,0.794056,-0.0291336,-0.000981173,0,
6,1.27797,0.7902,-0.0287463,-0.000999623,0,
6,1.26048,0.786261,-0.0283621,-0.00102306,0,
6,1.24318,0.782204,-0.0279807,-0.00105314,0,
6,1.22605,0.777992,-0.0276021,-0.00109176,0,
6,1.20907,0.773577,-0.0272261,-0.00114108,0,
6,1.19223,0.768908,-0.0268526,-0.00120335,0,
6,1.17551,0.763928,-0.0264818,-0.0012809,0,
6,1.1589,0.758579,-0.0261136,-0.00137582,0,
6,1.14238,0.752805,-0.0257481,-0.00148986,0,
6,1.12595,0.746556,-0.0253856,-0.00162405,0,
6,1.10959,0.739796,-0.0250263,-0.00177857,0,
6,1.09329,0.732503,-0.0246703,-0.00195258,0,
6,1.07704,0.724674,-0.024318,-0.0021442,0,
6,1.06081,0.71632,-0.0239693,-0.00235062,0,
6,1.04459,0.707467,-0.0236246,-0.00256839,0,
6,1.02836,0.698155,-0.0232839,-0.00279363,0,
6,1.01211,0.688434,-0.0229477,-0.0030222,0,
6,0.99583,0.678357,-0.0226153,-0.00325034,0,
6,0.97951,0.667976,-0.0222888,-0.00348408,0,
6,0.963136,0.657284,-0.0219607,-0.00370541,0,
6,0.946694,0.646205,-0.0216288,-0.00392525,0,
6,0.930172,0.634664,-0.0213007,-0.00415316,0,
6,0.913555,0.622602,-0.0209767,-0.00439119,0,
6,0.896829,0.609967,-0.0206585,-0.00464083,0,
6,0.879979,0.59671,-0.0203464,-0.00490323,0,
6,0.862989,0.582796,-0.0200408,-0.00517917,0,
6,0.845842,0.56821,-0.0197424,-0.00546922,0,
6,0.828521,0.552969,-0.0194522,-0.00577389,0,
6,0.811008,0.537109,-0.0191721,-0.0060925,0,
6,0.793282,0.520672,-0.0189039,-0.00641749,0,
6,0.775322,0.503687,-0.0186488,-0.00674585,0,
6,0.757107,0.486188,-0.018409,-0.00707423,0,
6,0.738612,0.468213,-0.0181863,-0.00739878,0,
6,0.719813,0.449817,-0.0179817,-0.00771509,0,
6,0.700681,0.43106,-0.0177949,-0.00801831,0,
6,0.681188,0.412,-0.0176229,-0.0083032,0,
6,0.661304,0.392687,-0.0174608,-0.00856414,0,
6,0.640996,0.373156,-0.0173053,-0.00879509,0,
6,0.620228,0.353465,-0.0171618,-0.00898955,0,
6,0.598964,0.333742,-0.0170519,-0.00914119,0,
6,0.577166,0.314262,-0.0170201,-0.00924585,0,
6,0.554791,0.29545,-0.0171199,-0.00930244,0,
6,0.531799,0.277762,-0.0173814,-0.00931451,0,
6,0.508144,0.261391,-0.0177317,-0.00928174,0,
6,0.48378,0.245953,-0.0177402,-0.00898507,0,
6,0.459585,0.231463,-0.0174942,-0.0086485,0,
6,0.436695,0.218314,-0.017327,-0.00834557,0,
6,0.414961,0.20631,-0.0171335,-0.00802812,0,
6,0.394252,0.195272,-0.0169309,-0.00770578,0,
6,0.374445,0.18506,-0.0167252,-0.00738308,0,
6,0.355433,0.175565,-0.0165184,-0.00706267,0,
6,0.337122,0.1667,-0.0163093,-0.00674324,0,
6,0.319433,0.158391,-0.0160962,-0.00642531,0,
6,0.3023,0.150574,-0.0158781,-0.00610934,0,
6,0.28567,0.1432,-0.0156537,-0.00579579,0,
6,0.269507,0.136226,-0.0154224,-0.00548513,0,
6,0.253785,0.129619,-0.0151836,-0.00517797,0,
6,0.238493,0.123351,-0.014937,-0.00487498,0,
6,0.223631,0.117403,-0.0146827,-0.004577,0,
6,0.209207,0.111756,-0.0144212,-0.00428495,0,
6,0.195237,0.106399,-0.0141534,-0.00399982,0,
6,0.181744,0.101321,-0.0138805,-0.00372266,0,
6,0.168754,0.0965114,-0.0136042,-0.00345453,0,
6,0.156292,0.0919626,-0.0133263,-0.00319642,0,
6,0.144384,0.0876664,-0.013049,-0.00294923,0,
6,0.133052,0.0836143,-0.0127746,-0.00271376,0,
6,0.122315,0.0797976,-0.0125054,-0.00249061,0,
6,0.112183,0.0762071,-0.0122436,-0.00228025,0,
6,0.102665,0.0728327,-0.0119912,-0.00208294,0,
6,0.0937597,0.0696641,-0.0117501,-0.00189874,0,
6,0.0854609,0.0666904,-0.0115218,-0.00172757,0,
6,0.077757,0.0639003,-0.0113074,-0.00156918,0,
6,0.0706309,0.0612824,-0.0111076,-0.00142318,0,
6,0.0640611,0.0588251,-0.0109228,-0.00128909,0,
6,0.0580229,0.0565168,-0.0107533,-0.00116633,0,
6,0.0524888,0.054346,-0.0105988,-0.00105427,0,
6,0.0474296,0.0523015,-0.0104588,-0.000952237,0,
6,0.042815,0.050372,-0.0103327,-0.000859529,0,
6,0.0386145,0.0485466,-0.0102199,-0.000775453,0,
6,0.0347975,0.0468147,-0.0101194,-0.000699319,0,
6,0.0313344,0.0451655,-0.0100303,-0.000630454,0,
6,0.0281964,0.0435886,-0.00995184,-0.000568209,0,
6,0.0253561,0.0420733,-0.0098829,-0.000511965,0,
6,0.0227875,0.0406091,-0.00982275,-0.000461129,0,
6,0.0204662,0.0391847,-0.00977036,-0.00041514,0,
6,0.0183694,0.0377884,-0.00972521,-0.000373459,0,
6,0.016476,0.0364074,-0.00968618,-0.000335569,0,
6,0.0147664,0.0350276,-0.00965314,-0.000300959,0,
6,0.0132228,0.0336324,-0.00962474,-0.000269113,0,
6,0.0118288,0.0322026,-0.00960143,-0.000239494,0,
6,0.0105693,0.0307149,-0.00958146,-0.000211511,0,
6,0.00943073,0.0291409,-0.00956601,-0.000184504,0,
6,0.00840063,0.0274468,-0.00955272,-0.000157743,0,
6,0.00746774,0.0255949,-0.00954363,-0.000130542,0,
6,0.00662185,0.0235505,-0.00953556,-0.000102611,0,
6,0.00585371,0.0212987,-0.00953142,-7.47098e-05,0,
6,0.00515491,0.0188709,-0.00952706,-4.90876e-05,0,
6,0.00451788,0.0163607,-0.00952616,-2.86065e-05,0,
6,0.00393573,0.0139011,-0.00952366,-1.47586e-05,0,
6,0.00340221,0.011609,-0.0095243,-6.80617e-06,0,
6,0.00291168,0.00954871,-0.00952224,-2.83321e-06,0,
6,0.00245897,0.00773408,-0.00952357,-1.06424e-06,0,
6,0.00203939,0.00614961,-0.00952132,-3.549e-07,0,
6,0.00164864,0.00476824,-0.00952319,-1.01189e-07,0,
6,0.00128281,0.00356109,-0.00952046,-2.2992e-08,0,
6,0.000938257,0.00250173,-0.00952299,-3.648e-09,0,
6,0.000611645,0.00156735,-0.00951956,-3.07722e-10,0,
6,0.000299862,0.000738867,-0.00952295,-7.26738e-12,0,

10,0.000296632,0.00881511,0.0286952,-5.49781e-11,0,
10,0.000596102,0.017711,0.0286958,-2.03739e-09,0,
10,0.000900397,0.0267466,0.0286951,-2.07122e-08,0,
10,0.00121153,0.0359811,0.0286956,-1.11279e-07,0,
10,0.00153158,0.0454737,0.0286951,-4.16072e-07,0,
10,0.00186264,0.0552822,0.0286955,-1.23611e-06,0,
10,0.00220692,0.0654603,0.028695,-3.13343e-06,0,
10,0.00256668,0.076052,0.0286953,-7.05975e-06,0,
10,0.00294431,0.087083,0.0286949,-1.4478e-05,0,
10,0.00334229,0.0985487,0.0286952,-2.73891e-05,0,
10,0.00376326,0.110399,0.0286948,-4.81195e-05,0,
10,0.00421,0.122526,0.0286949,-7.87449e-05,0,
10,0.00468544,0.134765,0.0286945,-0.000120233,0,
10,0.00519274,0.146906,0.0286945,-0.000171731,0,
10,0.00573524,0.158731,0.028694,-0.000230533,0,
10,0.00631651,0.170046,0.0286937,-0.000292861,0,
10,0.00694041,0.180709,0.0286929,-0.000354959,0,
10,0.00761104,0.190633,0.0286922,-0.000413908,0,
10,0.00833284,0.199787,0.028691,-0.000467906,0,
10,0.00911058,0.208178,0.0286897,-0.000516152,0,
10,0.0099494,0.215843,0.0286877,-0.000558581,0,
10,0.0108548,0.222837,0.0286856,-0.00059559,0,
10,0.0118329,0.229221,0.0286827,-0.000627829,0,
10,0.0128901,0.235061,0.0286794,-0.000656054,0,
10,0.0140333,0.240418,0.0286752,-0.000681033,0,
10,0.0152702,0.245353,0.0286703,-0.000703495,0,
10,0.0166089,0.249919,0.0286645,-0.000724104,0,
10,0.0180584,0.254165,0.0286577,-0.000743448,0,
10,0.0196282,0.258135,0.0286497,-0.000762047,0,
10,0.0213288,0.261866,0.0286406,-0.000780358,0,
10,0.0231714,0.265391,0.02863,-0.000798783,0,
10,0.0251682,0.268741,0.028618,-0.000817685,0,
10,0.0273326,0.271941,0.0286042,-0.000837396,0,
10,0.0296789,0.275015,0.0285886,-0.000858223,0,
10,0.0322227,0.277982,0.028571,-0.000880462,0,
10,0.0349809,0.280863,0.0285511,-0.000904399,0,
10,0.0379719,0.283673,0.0285288,-0.00093032,0,
10,0.0412155,0.286428,0.0285039,-0.000958513,0,
10,0.0447333,0.289144,0.028476,-0.000989277,0,
10,0.0485489,0.291833,0.028445,-0.00102292,0,
10,0.0526875,0.29451,0.0284105,-0.00105977,0,
10,0.0571768,0.297188,0.0283724,-0.00110016,0,
10,0.0620466,0.29988,0.0283303,-0.00114446,0,
10,0.0673295,0.302598,0.0282839,-0.00119307,0,
10,0.0730607,0.305356,0.028233,-0.0012464,0,
10,0.0792784,0.308169,0.0281772,-0.00130489,0,
10,0.0860241,0.311051,0.0281163,-0.00136902,0,
10,0.0933428,0.314018,0.0280499,-0.00143932,0,
10,0.101283,0.317086,0.0279779,-0.00151631,0,
10,0.109899,0.320274,0.0279,-0.00160059,0,
10,0.119247,0.323603,0.027816,-0.00169276,0,
10,0.12939,0.327094,0.0277258,-0.00179348,0,
10,0.140395,0.330774,0.0276292,-0.00190341,0,
10,0.152337,0.334669,0.0275262,-0.00202327,0,
10,0.165296,0.338813,0.0274168,-0.00215374,0,
10,0.179357,0.343241,0.0273011,-0.00229554,0,
10,0.194615,0.347995,0.0271793,-0.00244935,0,
10,0.211171,0.353123,0.0270516,-0.00261578,0,
10,0.229138,0.358679,0.026918,-0.00279536,0,
10,0.248635,0.364726,0.0267793,-0.00298846,0,
10,0.269793,0.371337,0.0266349,-0.00319525,0,
10,0.292753,0.378596,0.0264868,-0.00341552,0,
10,0.317669,0.3866,0.0263313,-0.00364745,0,
10,0.344708,0.395453,0.0261739,-0.00388848,0,
10,0.372405,0.40473,0.0260203,-0.00412718,0,
10,0.399623,0.414071,0.0258733,-0.00435225,0,
10,0.426397,0.42348,0.0257338,-0.00456107,0,
10,0.452757,0.432964,0.0256003,-0.00475487,0,
10,0.478735,0.442534,0.0254753,-0.00493152,0,
10,0.504358,0.452211,0.0253592,-0.00509021,0,
10,0.529657,0.462021,0.0252535,-0.00522909,0,
10,0.554656,0.471991,0.025155,-0.00534754,0,
10,0.579382,0.482142,0.0250648,-0.00544528,0,
10,0.603859,0.492491,0.0249724,-0.00552388,0,
10,0.628112,0.503057,0.024889,-0.0056479,0,
10,0.652163,0.514126,0.024891,-0.00561695,0,
10,0.676035,0.52612,0.0249395,-0.00553839,0,
10,0.699751,0.539154,0.0249446,-0.0054304,0,
10,0.72333,0.553056,0.0249071,-0.00529066,0,
10,0.746795,0.567518,0.0248282,-0.00511953,0,
10,0.770165,0.582235,0.0247228,-0.0049204,0,
10,0.79346,0.596975,0.0245989,-0.00469824,0,
10,0.816699,0.611586,0.024463,-0.00445829,0,
10,0.839903,0.625967,0.0243167,-0.00420561,0,
10,0.863088,0.640029,0.024161,-0.00394529,0,
10,0.886275,0.653663,0.0239928,-0.00368757,0,
10,0.909481,0.666747,0.0238114,-0.00343916,0,
10,0.932723,0.679201,0.0236207,-0.00320016,0,
10,0.956021,0.691011,0.0234228,-0.00297087,0,
10,0.97939,0.702201,0.0232191,-0.00275179,0,
10,1.00285,0.712815,0.0230097,-0.00254342,0,
10,1.02641,0.722888,0.0227943,-0.00234621,0,
10,1.0501,0.732448,0.0225721,-0.00216051,0,
10,1.07392,0.741514,0.0223439,-0.00198664,0,
10,1.0979,0.750108,0.0221086,-0.00182474,0,
10,1.12205,0.758259,0.0218693,-0.00167156,0,
10,1.14639,0.765989,0.0216239,-0.00152964,0,
10,1.17093,0.773296,0.0213693,-0.00140186,0,
10,1.19568,0.780182,0.0211073,-0.00128807,0,
10,1.22066,0.786663,0.0208372,-0.00118893,0,
10,1.24589,0.792774,0.0205599,-0.00110426,0,
10,1.27137,0.798558,0.0202753,-0.00103315,0,
10,1.29713,0.804067,0.0199843,-0.000974662,0,
10,1.32317,0.809362,0.019687,-0.000931518,0,
10,1.34951,0.814565,0.019385,-0.000882915,0,
10,1.37616,0.819802,0.0190786,-0.000837972,0,
10,1.40313,0.825089,0.0187659,-0.000796719,0,
10,1.43043,0.830373,0.0184457,-0.000758975,0,
10,1.45807,0.835591,0.0181175,-0.000724289,0,
10,1.48607,0.840712,0.0177818,-0.000691954,0,
10,1.51444,0.845743,0.0174389,-0.000661288,0,
10,1.54318,0.850703,0.0170893,-0.000631838,0,
10,1.57231,0.855598,0.0167327,-0.000603423,0,
10,1.60184,0.860414,0.016369,-0.000576023,0,
10,1.63178,0.865124,0.0159978,-0.000549669,0,
10,1.66213,0.869699,0.0156196,-0.000524346,0,
10,1.69292,0.874121,0.0152338,-0.000499926,0,
10,1.72416,0.878398,0.0148414,-0.000476001,0,
10,1.75585,0.882578,0.0144402,-0.00044745,0,
10,1.78802,0.886706,0.0140312,-0.000419438,0,
10,1.82067,0.890784,0.0136154,-0.000391149,0,
10,1.85383,0.894792,0.0131912,-0.000361802,0,
10,1.88751,0.89871,0.0127592,-0.000331624,0,
10,1.92173,0.902515,0.012319,-0.000300957,0,
10,1.95652,0.906181,0.0118703,-0.000270217,0,
10,1.9919,0.909687,0.0114137,-0.000239857,0,
10,2.02791,0.913007,0.0109477,-0.000210406,0,
10,2.06456,0.916125,0.0104744,-0.00018208,0,
10,2.10268,0.919077,0.00998002,-0.000154461,0,
10,2.1443,0.921951,0.0094426,-0.000127921,0,
10,2.18977,0.924695,0.00885549,-0.0001026,0,
10,2.23946,0.927229,0.00821694,-7.88086e-05,0,
10,2.29376,0.929469,0.00752165,-5.73761e-05,0,
10,2.35309,0.931333,0.00676736,-3.9007e-05,0,
10,2.4179,0.932752,0.00595015,-2.42309e-05,0,
10,2.48863,0.933682,0.00506823,-1.33159e-05,0,
10,2.56575,0.934122,0.00411933,-6.16272e-06,0,
10,2.64971,0.934127,0.00310293,-2.25122e-06,0,
10,2.74098,0.933818,0.00201864,-6.95054e-07,0,
10,2.83997,0.933373,0.000867449,-4.44154e-07,0,
10,2.94709,0.932996,-0.000349272,-5.9421e-07,0,
10,3.06269,0.93287,-0.00162903,-6.40375e-07,0,
10,3.18706,0.933101,-0.0029686,-4.96607e-07,0,
10,3.3204,0.933693,-0.00436331,-2.89997e-07,0,
10,3.46281,0.934551,-0.00580695,-1.35925e-07,0,
10,3.61427,0.935532,-0.00729122,-5.86677e-08,0,
10,3.77463,0.936501,-0.00880595,-3.02538e-08,0,
10,3.94358,0.937379,-0.0103393,-2.15834e-08,0,
10,4.12067,0.938151,-0.0118784,-1.86488e-08,0,
10,4.30525,0.938852,-0.0134098,-1.7353e-08,0,
10,4.49655,0.939525,-0.0149201,-1.69147e-08,0,
10,4.6936,0.940197,-0.0163965,-1.73146e-08,0,
10,4.89531,0.94087,-0.0178269,-1.90466e-08,0,
10,5.10047,0.941531,-0.0192004,-2.35642e-08,0,
10,5.30776,0.942158,-0.0205076,-3.41079e-08,0,
10,5.51581,0.942735,-0.0217411,-5.73901e-08,0,
10,5.72323,0.94326,-0.0228951,-1.079e-07,0,
10,5.92863,0.943756,-0.023966,-2.21294e-07,0,
10,6.13069,0.944292,-0.0249519,-4.91559e-07,0,
10,6.32816,0.944963,-0.0258531,-1.11359e-06,0,
10,6.51991,0.945796,-0.0266714,-2.15751e-06,0,
10,6.70495,0.946554,-0.0274101,-2.2681e-06,0,
10,6.88244,0.946511,-0.0280722,3.99619e-06,0,
10,7.0517,0.944433,-0.0286617,2.75975e-05,0,
10,7.21224,0.938939,-0.0291785,8.18065e-05,0,
10,7.3637,0.929165,-0.0296285,0.000175709,0,
10,7.5059,0.915165,-0.0300158,0.000298367,0,
10,7.63878,0.897528,-0.0303434,0.000405973,0,
10,7.76243,0.877373,-0.0306217,0.000524891,0,
10,7.87701,0.856473,-0.0308451,0.000646253,0,
10,7.9828,0.836277,-0.0310302,0.000756281,0,
10,8.08014,0.81748,-0.0311787,0.000850095,0,
10,8.16941,0.800159,-0.0313019,0.000928222,0,
10,8.25106,0.784062,-0.0314034,0.000993795,0,
10,8.32554,0.768864,-0.0314897,0.00104997,0,
10,8.39331,0.754288,-0.0315627,0.001099,0,
10,8.45484,0.740137,-0.0316253,0.00114213,0,
10,8.5106,0.726291,-0.0316786,0.00117998,0,
10,8.56104,0.712693,-0.0317244,0.00121277,0,
10,8.60659,0.699327,-0.0317634,0.00124058,0,
10,8.64767,0.686203,-0.0317974,0.00126351,0,
10,8.68467,0.673323,-0.0318266,0.00128104,0,
10,8.71795,0.66066,-0.0318518,0.00129056,0,
10,8.74786,0.648187,-0.0318738,0.00129654,0,
10,8.77471,0.635902,-0.0318926,0.00129824,0,
10,8.79881,0.623798,-0.0319089,0.0012961,0,
10,8.8204,0.61187,-0.0319228,0.00129068,0,
10,8.83975,0.600104,-0.0319347,0.00128248,0,
10,8.85708,0.588488,-0.0319447,0.00127199,0,
10,8.87259,0.577003,-0.0319533,0.00125968,0,
10,8.88646,0.565626,-0.0319606,0.00124595,0,
10,8.89886,0.554334,-0.0319667,0.00123113,0,
10,8.90995,0.543097,-0.0319718,0.00121553,0,
10,8.91986,0.531885,-0.0319761,0.00119934,0,
10,8.92872,0.520665,-0.0319798,0.00118273,0,
10,8.93663,0.5094,-0.0319827,0.00116578,0,
10,8.94369,0.498052,-0.0319852,0.00114852,0,
10,8.95,0.486579,-0.0319872,0.00113089,0,
10,8.95564,0.474934,-0.031989,0.00111284,0,
10,8.96067,0.463068,-0.0319903,0.00109417,0,
10,8.96517,0.450928,-0.0319915,0.00107463,0,
10,8.96918,0.438451,-0.0319924,0.00105389,0,
10,8.97276,0.425567,-0.0319933,0.00103152,0,
10,8.97596,0.412198,-0.0319938,0.00100695,0,
10,8.97882,0.398251,-0.0319944,0.000979452,0,
10,8.98137,0.383617,-0.0319947,0.000948095,0,
10,8.98365,0.368171,-0.0319952,0.000911667,0,
10,8.98569,0.351762,-0.0319953,0.000868816,0,
10,8.9875,0.334207,-0.0319958,0.000817018,0,
10,8.98913,0.31527,-0.0319957,0.000751745,0,
10,8.99058,0.294726,-0.0319961,0.000674598,0,
10,8.99188,0.272415,-0.0319959,0.000583295,0,
10,8.99304,0.248179,-0.0319964,0.000470845,0,
10,8.99408,0.221977,-0.031996,0.000345062,0,
10,8.99501,0.194183,-0.0319965,0.00021963,0,
10,8.99583,0.1657,-0.0319961,0.000116315,0,
10,8.99658,0.137792,-0.0319966,4.99132e-05,0,
10,8.99724,0.111569,-0.031996,1.72179e-05,0,
10,8.99784,0.0876123,-0.0319967,4.72895e-06,0,
10,8.99837,0.0660311,-0.031996,9.91676e-07,0,
10,8.99885,0.0466903,-0.0319968,1.42062e-07,0,
10,8.99927,0.0293791,-0.031996,1.07857e-08,0,
10,8.99966,0.0138835,-0.0319969,2.38644e-10,0,
10,0,0,0.0286959,0,0,
10,9,0,-0.0319959,0,0,

0.004,0,0,-0.229775,0,-7.93398e-08,
0.00868226,0,0,-0.229772,0,-2.15323e-07,
0.014062,0,0,-0.229774,0,-3.81495e-07,
0.0201548,0,0,-0.229773,0,-8.49508e-07,
0.0269766,0,0,-0.229773,0,-1.36621e-06,
0.0345437,0,0,-0.229772,0,-1.94104e-06,
0.0428729,0,0,-0.229771,0,-2.35774e-06,
0.051981,0,0,-0.229769,0,-2.48444e-06,
0.0618853,0,0,-0.229765,0,-2.09766e-06,
0.0726036,0,0,-0.229762,0,-1.00802e-06,
0.0841536,0,0,-0.229758,0,9.61295e-07,
0.0965535,0,0,-0.229756,0,3.91084e-06,
0.109822,0,0,-0.229754,0,7.82823e-06,
0.123977,0,0,-0.229757,0,1.25797e-05,
0.139037,0,0,-0.229762,0,1.78994e-05,
0.155022,0,0,-0.229774,0,2.34468e-05,
0.171949,0,0,-0.22979,0,2.88369e-05,
0.189839,0,0,-0.229812,0,3.37176e-05,
0.208709,0,0,-0.229837,0,3.77958e-05,
0.228579,0,0,-0.229866,0,4.08828e-05,
0.249467,0,0,-0.229897,0,4.28918e-05,
0.271391,0,0,-0.229929,0,4.38457e-05,
0.29437,0,0,-0.22996,0,4.3855e-05,
0.31842,0,0,-0.229989,0,4.31047e-05,
0.343559,0,0,-0.230016,0,4.18293e-05,
0.369804,0,0,-0.230041,0,4.03019e-05,
0.39717,0,0,-0.230064,0,3.88207e-05,
0.425672,0,0,-0.230086,0,3.77089e-05,
0.455324,0,0,-0.230108,0,3.72811e-05,
0.48614,0,0,-0.230132,0,3.77873e-05,
0.518132,0,0,-0.230161,0,3.93705e-05,
0.551309,0,0,-0.230198,0,4.20439e-05,
0.585683,0,0,-0.230247,0,4.56995e-05,
0.621259,0,0,-0.230312,0,5.01465e-05,
0.658046,0,0,-0.230396,0,5.51642e-05,
0.696047,0,0,-0.230503,0,6.05311e-05,
0.735265,0,0,-0.230639,0,6.60007e-05,
0.7757,0,0,-0.230813,0,7.11735e-05,
0.817352,0,0,-0.231036,0,7.53663e-05,
0.860215,0,0,-0.231321,0,7.75604e-05,
0.904285,0,0,-0.231688,0,7.63145e-05,
0.949552,0,0,-0.232159,0,6.9789e-05,
0.996004,0,0,-0.23275,0,5.60145e-05,
1.04363,0,0,-0.233475,0,3.33011e-05,
1.09241,0,0,-0.234336,0,6.98237e-07,
1.14232,0,0,-0.23532,0,-4.16619e-05,
1.19335,0,0,-0.236403,0,-9.25473e-05,
1.24546,0,0,-0.237557,0,-0.000149996,
1.29863,0,0,-0.238749,0,-0.000211877,
1.35283,0,0,-0.23995,0,-0.000276384,
1.40802,0,0,-0.241133,0,-0.000342272,
1.46416,0,0,-0.242276,0,-0.000408838,
1.52121,0,0,-0.243358,0,-0.00047575,
1.57913,0,0,-0.244361,0,-0.000542866,
1.63787,0,0,-0.245266,0,-0.000610103,
1.69739,0,0,-0.246057,0,-0.000677362,
1.75761,0,0,-0.246716,0,-0.000744515,
1.81851,0,0,-0.247226,0,-0.0008114,
1.88,0,0,-0.247572,0,-0.000877824,
1.94204,0,0,-0.247738,0,-0.000943576,
2.00457,0,0,-0.247709,0,-0.00100842,
2.06751,0,0,-0.24747,0,-0.00107212,
2.13081,0,0,-0.24701,0,-0.00113439,
2.19439,0,0,-0.246316,0,-0.00119498,
2.25819,0,0,-0.24538,0,-0.00125359,
2.32214,0,0,-0.244193,0,-0.00130993,
2.38617,0,0,-0.24275,0,-0.00136372,
2.4502,0,0,-0.241049,0,-0.00141466,
2.51418,0,0,-0.239089,0,-0.00146247,
2.57803,0,0,-0.236872,0,-0.00150688,
2.64167,0,0,-0.234405,0,-0.00154765,
2.70505,0,0,-0.231695,0,-0.00158457,
2.76808,0,0,-0.228754,0,-0.0016175,
2.83072,0,0,-0.225596,0,-0.00164631,
2.89288,0,0,-0.222236,0,-0.00167097,
2.95451,0,0,-0.218693,0,-0.00169148,
3.01555,0,0,-0.214985,0,-0.00170787,
3.07594,0,0,-0.211134,0,-0.00172024,
3.13561,0,0,-0.207159,0,-0.00172872,
3.19453,0,0,-0.203083,0,-0.00173348,
3.25262,0,0,-0.198927,0,-0.00173471,
3.30985,0,0,-0.194711,0,-0.00173262,
3.36617,0,0,-0.190455,0,-0.00172745,
3.42154,0,0,-0.186179,0,-0.00171942,
3.47591,0,0,-0.181901,0,-0.0017088,
3.52925,0,0,-0.177638,0,-0.00169582,
3.58152,0,0,-0.173405,0,-0.00168074,
3.6327,0,0,-0.169215,0,-0.00166381,
3.68276,0,0,-0.165082,0,-0.00164527,
3.73167,0,0,-0.161018,0,-0.00162535,
3.77941,0,0,-0.15703,0,-0.00160427,
3.82596,0,0,-0.153129,0,-0.00158225,
3.8713,0,0,-0.14932,0,-0.00155945,
3.91543,0,0,-0.145606,0,-0.00153593,
3.95833,0,0,-0.142013,0,-0.00151219,
4,0,0,-0.138505,0,-0.00148803,
4.04167,0,0,-0.135012,0,-0.00146289,
4.08333,0,0,-0.131529,0,-0.00143695,
4.125,0,0,-0.128058,0,-0.0014102,
4.16667,0,0,-0.124602,0,-0.00138264,
4.20833,0,0,-0.121163,0,-0.00135432,
4.25,0,0,-0.117743,0,-0.00132527,
4.29167,0,0,-0.114344,0,-0.00129555,
4.33333,0,0,-0.11097,0,-0.00126518,
4.375,0,0,-0.107621,0,-0.00123421,
4.41667,0,0,-0.1043,0,-0.00120266,
4.45833,0,0,-0.101009,0,-0.00117058,
4.5,0,0,-0.0977487,0,-0.00113799,
4.54167,0,0,-0.0945213,0,-0.00110491,
4.58333,0,0,-0.0913282,0,-0.00107139,
4.625,0,0,-0.088171,0,-0.00103744,
4.66667,0,0,-0.085051,0,-0.0010031,
4.70833,0,0,-0.0819696,0,-0.000968383,
4.75,0,0,-0.0789279,0,-0.000933331,
4.79167,0,0,-0.0759271,0,-0.000897967,
4.83333,0,0,-0.0729683,0,-0.000862319,
4.875,0,0,-0.0700525,0,-0.000826416,
4.91667,0,0,-0.0671806,0,-0.000790286,
4.95833,0,0,-0.0643534,0,-0.000753959,
5,0,0,-0.0615716,0,-0.000717463,
5.04167,0,0,-0.0588359,0,-0.000680824,
5.08333,0,0,-0.0561469,0,-0.000644066,
5.125,0,0,-0.053505,0,-0.000607213,
5.16667,0,0,-0.0509107,0,-0.000570286,
5.20833,0,0,-0.0483644,0,-0.000533306,
5.25,0,0,-0.0458664,0,-0.000496291,
5.29167,0,0,-0.043417,0,-0.000459258,
5.33333,0,0,-0.0410166,0,-0.000422222,
5.375,0,0,-0.0386656,0,-0.000385195,
5.41667,0,0,-0.0363642,0,-0.000348188,
5.45833,0,0,-0.0341131,0,-0.000311215,
5.5,0,0,-0.0319127,0,-0.000274295,
5.54167,0,0,-0.0297638,0,-0.000237463,
5.58333,0,0,-0.0276672,0,-0.000200777,
5.625,0,0,-0.0256236,0,-0.000164325,
5.66667,0,0,-0.0236331,0,-0.000128201,
5.70833,0,0,-0.0216952,0,-9.24729e-05,
5.75,0,0,-0.0198088,0,-5.71696e-05,
5.79167,0,0,-0.0179729,0,-2.22901e-05,
5.83333,0,0,-0.0161866,0,1.2176e-05,
5.875,0,0,-0.0144488,0,4.62379e-05,
5.91667,0,0,-0.0127588,0,7.99003e-05,
5.95833,0,0,-0.0111158,0,0.000113165,
6,0,0,-0.00951872,0,0.000146031,
6.04167,0,0,-0.0079669,0,0.000178499,
6.08333,0,0,-0.00645948,0,0.000210567,
6.125,0,0,-0.00499565,0,0.000242237,
6.16667,0,0,-0.00357459,0,0.000273508,
6.20833,0,0,-0.0021955,0,0.000304381,
6.25,0,0,-0.000857598,0,0.000334855,
6.29167,0,0,0.000439912,0,0.000364931,
6.33333,0,0,0.00169782,0,0.000394609,
6.375,0,0,0.0029169,0,0.000423888,
6.41667,0,0,0.00409794,0,0.00045277,
6.45833,0,0,0.00524171,0,0.000481255,
6.5,0,0,0.00634897,0,0.000509345,
6.54167,0,0,0.00742048,0,0.000537041,
6.58333,0,0,0.00845699,0,0.000564344,
6.625,0,0,0.00945924,0,0.000591254,
6.66667,0,0,0.010428,0,0.000617774,
6.70833,0,0,0.0113639,0,0.000643905,
6.75,0,0,0.0122678,0,0.000669648,
6.79167,0,0,0.0131404,0,0.000695006,
6.83333,0,0,0.0139823,0,0.000719981,
6.875,0,0,0.0147943,0,0.000744575,
6.91667,0,0,0.0155771,0,0.00076879,
6.95833,0,0,0.0163314,0,0.000792628,
7,0,0,0.0170577,0,0.000816091,
7.04167,0,0,0.0177569,0,0.000839183,
7.08333,0,0,0.0184295,0,0.000861907,
7.125,0,0,0.0190763,0,0.000884266,
7.16667,0,0,0.0196977,0,0.000906264,
7.20833,0,0,0.0202946,0,0.000927905,
7.25,0,0,0.0208674,0,0.000949195,
7.29167,0,0,0.0214168,0,0.000970144,
7.33333,0,0,0.0219436,0,0.000990762,
7.375,0,0,0.0224482,0,0.00101106,
7.41667,0,0,0.0229312,0,0.00103104,
7.45833,0,0,0.0233932,0,0.00105071,
7.5,0,0,0.0238346,0,0.00107006,
7.54167,0,0,0.0242559,0,0.0010891,
7.58333,0,0,0.0246576,0,0.00110783,
7.625,0,0,0.0250403,0,0.00112624,
7.66667,0,0,0.0254042,0,0.00114435,
7.70833,0,0,0.0257499,0,0.00116215,
7.75,0,0,0.0260778,0,0.00117966,
7.79167,0,0,0.0263883,0,0.00119689,
7.83333,0,0,0.026681,0,0.00121381,
7.875,0,0,0.026956,0,0.00123049,
7.91667,0,0,0.0272244,0,0.00124754,
7.95833,0,0,0.0274139,0,0.00126341,
8,0,0,0.0276965,0,0.00127937,
8.04171,0,0,0.0280028,0,0.00129635,
8.08368,0,0,0.0281721,0,0.00131311,
8.12617,0,0,0.0283848,0,0.00132804,
8.16946,0,0,0.0285835,0,0.00134302,
8.21382,0,0,0.0287656,0,0.00135799,
8.25952,0,0,0.0289393,0,0.00137297,
8.30685,0,0,0.029104,0,0.00138812,
8.35611,0,0,0.0292595,0,0.00140353,
8.40762,0,0,0.0294056,0,0.00141929,
8.46168,0,0,0.0295419,0,0.00143545,
8.51865,0,0,0.0296672,0,0.00145206,
8.57889,0,0,0.0297805,0,0.00146917,
8.64276,0,0,0.0298801,0,0.0014868,
8.71067,0,0,0.029964,0,0.00150499,
8.78306,0,0,0.03003,0,0.00152375,
8.86037,0,0,0.0300755,0,0.00154311,
8.94309,0,0,0.0300976,0,0.00156305,
9.03174,0,0,0.030093,0,0.00158359,
9.12689,0,0,0.0300582,0,0.00160471,
9.22912,0,0,0.0299894,0,0.00162639,
9.33908,0,0,0.0298824,0,0.0016486,
9.45746,0,0,0.029733,0,0.0016713,
9.58501,0,0,0.0295368,0,0.00169445,
9.72253,0,0,0.0292896,0,0.00171797,
9.87088,0,0,0.0289873,0,0.00174181,
10.031,0,0,0.028626,0,0.0017659,
10.2039,0,0,0.028202,0,0.00179013,
10.3906,0,0,0.027712,0,0.00181441,
10.5924,0,0,0.0271546,0,0.00183863,
10.8105,0,0,0.0265293,0,0.00186269,
11.0463,0,0,0.0258354,0,0.00188648,
11.3012,0,0,0.025075,0,0.00190989,
11.5769,0,0,0.0242518,0,0.00193284,
11.8751,0,0,0.0233693,0,0.00195522,
12.1977,0,0,0.0224354,0,0.00197695,
12.5466,0,0,0.021458,0,0.00199798,
12.9242,0,0,0.020446,0,0.00201826,
13.3327,0,0,0.0194111,0,0.00203774,
13.7748,0,0,0.0183654,0,0.0020564,
14.2532,0,0,0.0173213,0,0.00207425,
14.7709,0,0,0.0162923,0,0.00209129,
15.3312,0,0,0.0152906,0,0.00210755,
15.9377,0,0,0.014328,0,0.00212307,
16.594,0,0,0.0134151,0,0.00213792,
17.3044,0,0,0.0125593,0,0.00215214,
18.0733,0,0,0.0117672,0,0.00216577,
18.9056,0,0,0.0110415,0,0.00217873,
19.8064,0,0,0.0103818,0,0.00219091,
20.7816,0,0,0.00978563,0,0.0022025,
21.8371,0,0,0.009246,0,0.00221386,
22.9796,0,0,0.00875345,0,0.00222507,
24.2163,0,0,0.00829578,0,0.00223624,
25.5551,0,0,0.00785806,0,0.00224752,
27.0042,0,0,0.00742438,0,0.00225897,
28.5729,0,0,0.00697727,0,0.00227058,
30.271,0,0,0.00649941,0,0.00228235,
32.1091,0,0,0.00597388,0,0.0022942,
34.0989,0,0,0.00538619,0,0.00230609,
36.2529,0,0,0.0047191,0,0.00231811,
38.5845,0,0,0.00396478,0,0.00233017,
41.1085,0,0,0.00316402,0,0.00234211,
43.8407,0,0,0.00215506,0,0.00235167,
46.7983,0,0,0.00111046,0,0.00235668,
50,0,0,0.00217813,0,0.00237243,

