f43e3322e619fb14548bfd34389f84d862c8d46b 
X,Z,x_velocity,cp,uw_b,cf,
1,0,0,-0.227017,0,0,
1,9,0,-0.129766,0,0,
1,8.99969,0.015392,-0.129766,2.85227e-10,0,
1,8.99934,0.0328543,-0.129766,1.33323e-08,0,
1,8.99894,0.0526835,-0.129766,1.83911e-07,0,
1,8.99848,0.0751933,-0.129766,1.34825e-06,0,
1,8.99797,0.100696,-0.129766,6.73906e-06,0,
1,8.99739,0.129389,-0.129766,2.55106e-05,0,
1,8.99672,0.161079,-0.129766,7.55913e-05,0,
1,8.99597,0.19483,-0.129766,0.00017579,0,
1,8.99512,0.228994,-0.129766,0.000324131,0,
1,8.99416,0.261915,-0.129766,0.000492145,0,
1,8.99306,0.292616,-0.129766,0.000650401,0,
1,8.99182,0.320921,-0.129765,0.000777902,0,
1,8.99041,0.346969,-0.129765,0.000883456,0,
1,8.98881,0.37092,-0.129764,0.000970642,0,
1,8.98699,0.392992,-0.129764,0.00104179,0,
1,8.98494,0.413472,-0.129763,0.00109773,0,
1,8.98261,0.432671,-0.129762,0.00114055,0,
1,8.97996,0.450829,-0.129761,0.00117643,0,
1,8.97696,0.468118,-0.12976,0.00120618,0,
1,8.97356,0.484679,-0.129759,0.00123105,0,
1,8.9697,0.500631,-0.129757,0.00125202,0,
1,8.96533,0.516072,-0.129755,0.0012698,0,
1,8.96038,0.531086,-0.129753,0.00128489,0,
1,8.95476,0.545741,-0.129751,0.00129768,0,
1,8.9484,0.560098,-0.129749,0.00130842,0,
1,8.9412,0.574207,-0.129746,0.00131729,0,
1,8.93303,0.58811,-0.129743,0.00132438,0,
1,8.92379,0.601845,-0.12974,0.00132974,0,
1,8.91333,0.615443,-0.129736,0.0013334,0,
1,8.90149,0.628933,-0.129733,0.00133531,0,
1,8.8881,0.642338,-0.12973,0.00133543,0,
1,8.87295,0.655681,-0.129727,0.00133368,0,
1,8.85584,0.668981,-0.129724,0.00132997,0,
1,8.83651,0.682258,-0.129723,0.00132418,0,
1,8.81469,0.69553,-0.129722,0.00131618,0,
1,8.79007,0.708818,-0.129724,0.00130582,0,
1,8.76232,0.722143,-0.129728,0.0012929,0,
1,8.73107,0.73553,-0.129735,0.00127721,0,
1,8.69591,0.749009,-0.129747,0.00125846,0,
1,8.6564,0.762617,-0.129764,0.00123631,0,
1,8.61206,0.776398,-0.12979,0.00121034,0,
1,8.56236,0.790411,-0.129824,0.0011802,0,
1,8.50675,0.804731,-0.129873,0.00114692,0,
1,8.44464,0.819495,-0.129938,0.00110705,0,
1,8.3754,0.834923,-0.130024,0.00105556,0,
1,8.29839,0.851265,-0.130137,0.000992358,0,
1,8.21296,0.868767,-0.130283,0.00091294,0,
1,8.11843,0.88762,-0.130468,0.000812063,0,
1,8.01417,0.907824,-0.130707,0.000686299,0,
1,7.89956,0.92893,-0.130995,0.000539143,0,
1,7.77403,0.949812,-0.131371,0.000389104,0,
1,7.63711,0.96886,-0.13182,0.000205066,0,
1,7.48842,0.983743,-0.132352,7.60143e-05,0,
1,7.32773,0.992531,-0.132989,1.82155e-05,0,
1,7.15495,0.995713,-0.133731,1.80262e-06,0,
1,6.97022,0.995768,-0.13459,2.33144e-08,0,
1,6.77388,0.99515,-0.135583,3.7198e-09,0,
1,6.56652,0.995034,-0.136725,9.73943e-09,0,
1,6.34896,0.995489,-0.138029,1.2488e-08,0,
1,6.12229,0.996217,-0.13951,1.4084e-08,0,
1,5.88784,0.997017,-0.141181,1.49301e-08,0,
1,5.64716,0.997853,-0.143056,1.58998e-08,0,
1,5.40194,0.998756,-0.145143,1.72507e-08,0,
1,5.15407,0.999752,-0.147452,1.8949e-08,0,
1,4.90545,1.00085,-0.149983,2.07607e-08,0,
1,4.65805,1.00205,-0.152734,2.27011e-08,0,
1,4.41376,1.00336,-0.155699,2.47262e-08,0,
1,4.17441,1.00474,-0.158864,2.66049e-08,0,
1,3.94163,1.00615,-0.162209,2.81763e-08,0,
1,3.7169,1.00754,-0.165707,3.00511e-08,0,
1,3.50146,1.00898,-0.169325,3.41819e-08,0,
1,3.29629,1.01079,-0.173031,4.25869e-08,0,
1,3.10217,1.01332,-0.176793,5.34434e-08,0,
1,2.91959,1.01639,-0.180581,9.72572e-08,0,
1,2.74885,1.01856,-0.184353,9.58915e-07,0,
1,2.59002,1.0174,-0.188046,-6.09761e-06,0,
1,2.44299,1.0112,-0.191595,-5.20644e-05,0,
1,2.30752,1.00016,-0.194932,-0.000149733,0,
1,2.18321,0.985729,-0.198,-0.000285284,0,
1,2.06959,0.969486,-0.200829,-0.000402562,0,
1,1.9661,0.952704,-0.203399,-0.000504192,0,
1,1.87215,0.936311,-0.205677,-0.000599006,0,
1,1.78711,0.92082,-0.207698,-0.000682496,0,
1,1.71033,0.906386,-0.20948,-0.000754571,0,
1,1.64119,0.892978,-0.211045,-0.000816761,0,
1,1.57905,0.880484,-0.212413,-0.000871265,0,
1,1.52332,0.868776,-0.213606,-0.000920175,0,
1,1.47342,0.857742,-0.214649,-0.000965771,0,
1,1.42882,0.8473,-0.21554,-0.000999963,0,
1,1.389,0.837367,-0.216293,-0.00102442,0,
1,1.35351,0.827877,-0.216945,-0.00104727,0,
1,1.3219,0.818796,-0.217504,-0.00106782,0,
1,1.29378,0.810101,-0.217984,-0.00108579,0,
1,1.26878,0.801783,-0.218395,-0.00110123,0,
1,1.24659,0.793837,-0.218746,-0.00111448,0,
1,1.22689,0.786257,-0.219048,-0.00112563,0,
1,1.2092,0.778955,-0.219309,-0.00113367,0,
1,1.1932,0.771881,-0.219537,-0.00113929,0,
1,1.1787,0.76502,-0.219735,-0.00114318,0,
1,1.16554,0.758353,-0.219907,-0.00114631,0,
1,1.15357,0.751845,-0.220057,-0.00115064,0,
1,1.14266,0.745451,-0.220187,-0.00115965,0,
1,1.13268,0.739102,-0.2203,-0.00117776,0,
1,1.12354,0.732699,-0.220399,-0.00121108,0,
1,1.11514,0.726117,-0.220487,-0.00126703,0,
1,1.10739,0.719201,-0.220569,-0.00135381,0,
1,1.10022,0.711773,-0.220647,-0.00147952,0,
1,1.09357,0.703659,-0.220726,-0.00165086,0,
1,1.08738,0.69472,-0.220808,-0.00187154,0,
1,1.0816,0.684887,-0.220896,-0.00214075,0,
1,1.07618,0.674189,-0.22099,-0.00245247,0,
1,1.07107,0.662743,-0.22109,-0.00279618,0,
1,1.06626,0.650728,-0.221196,-0.00315894,0,
1,1.06169,0.638341,-0.221306,-0.00352785,0,
1,1.05735,0.625767,-0.221419,-0.00389196,0,
1,1.05321,0.61316,-0.221534,-0.00424306,0,
1,1.04925,0.600639,-0.22165,-0.00457569,0,
1,1.04544,0.588285,-0.221767,-0.00488665,0,
1,1.04177,0.576154,-0.221883,-0.00517444,0,
1,1.03822,0.564279,-0.222,-0.00543871,0,
1,1.03478,0.552677,-0.222115,-0.00567987,0,
1,1.03144,0.541354,-0.22223,-0.00589875,0,
1,1.02818,0.530307,-0.222344,-0.00609646,0,
1,1.025,0.519531,-0.222456,-0.00627416,0,
1,1.02188,0.509016,-0.222568,-0.00643307,0,
1,1.01882,0.498748,-0.222678,-0.00657438,0,
1,1.01581,0.488717,-0.222787,-0.00669934,0,
1,1.01284,0.478909,-0.222895,-0.00680851,0,
1,1.00988,0.469207,-0.223004,-0.00690377,0,
1,1.00688,0.459496,-0.223114,-0.00698755,0,
1,1.00384,0.449769,-0.223225,-0.00705957,0,
1,1.00076,0.440011,-0.223337,-0.00711936,0,
1,0.997615,0.430205,-0.223451,-0.00716692,0,
1,0.99441,0.420329,-0.223566,-0.0072019,0,
1,0.991131,0.41036,-0.223682,-0.00722459,0,
1,0.987768,0.400269,-0.2238,-0.00723481,0,
1,0.984308,0.390031,-0.223919,-0.00723222,0,
1,0.980739,0.379613,-0.22404,-0.00721639,0,
1,0.977045,0.368982,-0.224163,-0.0071867,0,
1,0.973211,0.358103,-0.224288,-0.00714241,0,
1,0.969219,0.346936,-0.224415,-0.00708259,0,
1,0.965047,0.335438,-0.224545,-0.00700613,0,
1,0.960675,0.323563,-0.224678,-0.0069117,0,
1,0.956077,0.311258,-0.224813,-0.00679705,0,
1,0.951224,0.298467,-0.224951,-0.00666049,0,
1,0.946088,0.285137,-0.225092,-0.00649995,0,
1,0.940633,0.271217,-0.225237,-0.00631355,0,
1,0.934823,0.256667,-0.225385,-0.00609996,0,
1,0.928616,0.241456,-0.225538,-0.00585589,0,
1,0.921967,0.225559,-0.225694,-0.00557911,0,
1,0.914826,0.208963,-0.225853,-0.00526766,0,
1,0.907141,0.191675,-0.226015,-0.00492008,0,
1,0.898852,0.173724,-0.226179,-0.00453579,0,
1,0.889898,0.155177,-0.226344,-0.00411551,0,
1,0.880212,0.136151,-0.226509,-0.003662,0,
1,0.869723,0.116839,-0.226675,-0.00318102,0,
1,0.858358,0.0975411,-0.226841,-0.00268285,0,
1,0.846039,0.0787064,-0.22701,-0.00218445,0,
1,0.83269,0.0609606,-0.227183,-0.00171104,0,
1,0.818232,0.0450652,-0.227363,-0.00129664,0,
1,0.802744,0.0317992,-0.227539,-0.000968257,0,
1,0.78635,0.0214397,-0.227718,-0.000728552,0,
1,0.768969,0.0135672,-0.227891,-0.000565667,0,
1,0.75053,0.00750128,-0.228054,-0.000462742,0,
1,0.730977,0.00259014,-0.228199,-0.000403185,0,
1,0.710271,-0.00165886,-0.228325,-0.000372671,0,
1,0.688397,-0.0055711,-0.228429,-0.000360236,0,
1,0.66536,-0.00934192,-0.228515,-0.000359504,0,
1,0.641194,-0.0130958,-0.228584,-0.000362613,0,
1,0.615961,-0.0169122,-0.228634,-0.000365934,0,
1,0.589754,-0.0208263,-0.228666,-0.000366598,0,
1,0.562692,-0.0248386,-0.22868,-0.000362982,0,
1,0.534925,-0.0289225,-0.228674,-0.000354394,0,
1,0.506624,-0.033032,-0.228646,-0.000340754,0,
1,0.477982,-0.0371096,-0.228596,-0.000322374,0,
1,0.449206,-0.0410919,-0.228523,-0.000299801,0,
1,0.420509,-0.0449144,-0.228428,-0.000273704,0,
1,0.392107,-0.0485141,-0.228313,-0.000244814,0,
1,0.364206,-0.0518317,-0.228181,-0.000213874,0,
1,0.337003,-0.0548128,-0.228036,-0.000181604,0,
1,0.310673,-0.0574076,-0.227882,-0.000148664,0,
1,0.28537,-0.0595716,-0.227725,-0.00011563,0,
1,0.26122,-0.0612647,-0.227569,-8.2988e-05,0,
1,0.238324,-0.0624506,-0.227419,-5.11506e-05,0,
1,0.21675,-0.0630969,-0.22728,-2.04748e-05,0,
1,0.196544,-0.0631753,-0.227156,8.69857e-06,0,
1,0.177724,-0.0626635,-0.227049,3.59991e-05,0,
1,0.160284,-0.0615477,-0.226962,6.09917e-05,0,
1,0.144202,-0.0598269,-0.226894,8.31752e-05,0,
1,0.129436,-0.057517,-0.226846,0.000102022,0,
1,0.115935,-0.0546542,-0.226816,0.000117051,0,
1,0.103636,-0.0512963,-0.226802,0.000127907,0,
1,0.0924701,-0.0475212,-0.226801,0.000134421,0,
1,0.0823633,-0.0434222,-0.226811,0.000136641,0,
1,0.0732406,-0.0391015,-0.226827,0.000134849,0,
1,0.0650269,-0.0346621,-0.226849,0.000129506,0,
1,0.057648,-0.030201,-0.226872,0.000121192,0,
1,0.0510323,-0.0258021,-0.226896,0.000110536,0,
1,0.0451115,-0.0215327,-0.226919,9.81578e-05,0,
1,0.0398209,-0.0174415,-0.22694,8.46326e-05,0,
1,0.0351001,-0.0135608,-0.226958,7.04776e-05,0,
1,0.0308929,-0.00991137,-0.226974,5.6173e-05,0,
1,0.0271475,-0.00651142,-0.226987,4.22311e-05,0,
1,0.0238164,-0.00338941,-0.226996,2.9307e-05,0,
1,0.0208562,-0.000597975,-0.227003,1.82717e-05,0,
1,0.0182274,0.00178314,-0.227008,9.92041e-06,0,
1,0.0158944,0.00366851,-0.227011,4.58709e-06,0,
1,0.0138249,0.00501032,-0.227013,1.76522e-06,0,
1,0.0119898,0.00582873,-0.227014,5.36137e-07,0,
1,0.0103632,0.00620187,-0.227015,9.87452e-08,0,
1,0.00892169,0.00623146,-0.227015,-1.9702e-08,0,
1,0.00764438,0.00601471,-0.227016,-3.40346e-08,0,
1,0.00651264,0.00563142,-0.227016,-2.39097e-08,0,
1,0.00550983,0.00514267,-0.227016,-1.31004e-08,0,
1,0.00462115,0.00459331,-0.227016,-6.20311e-09,0,
1,0.00383341,0.00401568,-0.227017,-2.60802e-09,0,
1,0.0031349,0.00343253,-0.227017,-9.73516e-10,0,
1,0.00251518,0.00285957,-0.227017,-3.16885e-10,0,
1,0.00196502,0.00230722,-0.227017,-8.66124e-11,0,
1,0.00147619,0.00178205,-0.227017,-1.85572e-11,0,
1,0.00104139,0.00128778,-0.227017,-2.74164e-12,0,
1,0.000654158,0.000826097,-0.227017,-2.15034e-13,0,
1,0.000308731,0.000397184,-0.227017,-4.91634e-15,0,

4,0,0,-0.160314,0,0,
4,9,0,-0.0992711,0,0,
4,8.99969,0.0142657,-0.0992708,2.24084e-10,0,
4,8.99934,0.030394,-0.099271,1.03964e-08,0,
4,8.99894,0.0486465,-0.0992707,1.41962e-07,0,
4,8.9985,0.0693,-0.0992709,1.03041e-06,0,
4,8.99799,0.092636,-0.0992707,5.11424e-06,0,
4,8.99742,0.118857,-0.0992708,1.93634e-05,0,
4,8.99677,0.147878,-0.0992706,5.81031e-05,0,
4,8.99605,0.17902,-0.0992707,0.00013881,0,
4,8.99522,0.210927,-0.0992704,0.000265333,0,
4,8.99429,0.242057,-0.0992704,0.000417449,0,
4,8.99324,0.271346,-0.0992701,0.000567221,0,
4,8.99205,0.298414,-0.0992698,0.000696744,0,
4,8.9907,0.323337,-0.0992693,0.000800844,0,
4,8.98919,0.34629,-0.0992689,0.000888559,0,
4,8.98747,0.367458,-0.0992682,0.000961524,0,
4,8.98553,0.38711,-0.0992674,0.00101895,0,
4,8.98334,0.405527,-0.0992664,0.00106522,0,
4,8.98087,0.422927,-0.0992653,0.00110429,0,
4,8.97807,0.439478,-0.0992638,0.00113745,0,
4,8.97491,0.455322,-0.0992622,0.001166,0,
4,8.97134,0.470577,-0.0992603,0.0011909,0,
4,8.96731,0.485344,-0.0992581,0.00121289,0,
4,8.96276,0.499708,-0.0992555,0.00123249,0,
4,8.95762,0.51374,-0.0992525,0.00125007,0,
4,8.95182,0.527503,-0.0992491,0.00126588,0,
4,8.94526,0.541051,-0.0992452,0.00128008,0,
4,8.93787,0.554429,-0.0992409,0.00129272,0,
4,8.92952,0.567677,-0.099236,0.00130384,0,
4,8.92011,0.580828,-0.0992305,0.00131336,0,
4,8.90949,0.593913,-0.0992245,0.00132122,0,
4,8.89751,0.606956,-0.099218,0.00132727,0,
4,8.88402,0.619978,-0.0992109,0.00133137,0,
4,8.86881,0.632997,-0.0992035,0.00133335,0,
4,8.85169,0.646027,-0.0991958,0.00133303,0,
4,8.83242,0.659083,-0.099188,0.00133022,0,
4,8.81074,0.672175,-0.0991802,0.00132473,0,
4,8.78637,0.685316,-0.0991728,0.00131639,0,
4,8.75901,0.698518,-0.099166,0.00130501,0,
4,8.7283,0.711795,-0.0991606,0.00129039,0,
4,8.69387,0.725168,-0.0991569,0.00127234,0,
4,8.65533,0.738659,-0.0991561,0.00125059,0,
4,8.61222,0.7523,-0.0991589,0.00122485,0,
4,8.56407,0.766133,-0.0991672,0.0011947,0,
4,8.5104,0.78021,-0.0991817,0.00115989,0,
4,8.45065,0.794608,-0.099206,0.00112216,0,
4,8.38429,0.809477,-0.0992431,0.00107502,0,
4,8.31073,0.825055,-0.0992946,0.00101769,0,
4,8.22941,0.841608,-0.0993653,0.000947358,0,
4,8.13974,0.8594,-0.099458,0.000859651,0,
4,8.04115,0.878606,-0.0995751,0.000750943,0,
4,7.93313,0.899113,-0.099722,0.000621523,0,
4,7.81519,0.920215,-0.0998914,0.000480541,0,
4,7.68693,0.940448,-0.100107,0.000345436,0,
4,7.54803,0.957915,-0.100352,0.000203506,0,
4,7.39831,0.970722,-0.100645,8.9484e-05,0,
4,7.23771,0.97799,-0.101,2.76236e-05,0,
4,7.06634,0.980665,-0.101408,4.5476e-06,0,
4,6.88453,0.980807,-0.101872,-1.9427e-09,0,
4,6.69275,0.980261,-0.102392,-9.1592e-08,0,
4,6.49173,0.979956,-0.102977,2.22922e-08,0,
4,6.28238,0.980045,-0.103636,2.50702e-08,0,
4,6.06579,0.980367,-0.104376,1.43852e-08,0,
4,5.84328,0.980762,-0.105205,9.71566e-09,0,
4,5.61626,0.981168,-0.106128,8.49364e-09,0,
4,5.3863,0.981587,-0.107148,8.57453e-09,0,
4,5.15502,0.982035,-0.108271,9.18394e-09,0,
4,4.92406,0.982525,-0.109497,1.0074e-08,0,
4,4.69507,0.983069,-0.110827,1.11397e-08,0,
4,4.46961,0.98367,-0.11226,1.22332e-08,0,
4,4.24915,0.984312,-0.113793,1.3033e-08,0,
4,4.03501,0.984938,-0.11542,1.32744e-08,0,
4,3.82836,0.985481,-0.117133,1.32244e-08,0,
4,3.63018,0.985946,-0.118922,1.42859e-08,0,
4,3.44125,0.986512,-0.120774,1.94426e-08,0,
4,3.26217,0.987538,-0.122678,6.65467e-08,0,
4,3.09333,0.989317,-0.124619,5.85876e-07,0,
4,2.93497,0.991662,-0.126581,2.72853e-06,0,
4,2.78715,0.993712,-0.128546,5.27662e-06,0,
4,2.64979,0.994285,-0.130497,6.35889e-07,0,
4,2.52268,0.992454,-0.13241,-2.10402e-05,0,
4,2.40551,0.987899,-0.134263,-6.48971e-05,0,
4,2.29789,0.980872,-0.136035,-0.000129444,0,
4,2.19939,0.97197,-0.137709,-0.000208457,0,
4,2.10949,0.961889,-0.139275,-0.000293979,0,
4,2.02768,0.951259,-0.140731,-0.000378476,0,
4,1.95343,0.94059,-0.142075,-0.000455826,0,
4,1.88618,0.930259,-0.143308,-0.000523514,0,
4,1.82542,0.920457,-0.144441,-0.000572233,0,
4,1.77062,0.911241,-0.145476,-0.000611154,0,
4,1.72128,0.902658,-0.146412,-0.000646128,0,
4,1.67693,0.894736,-0.147261,-0.000677254,0,
4,1.63713,0.887473,-0.148026,-0.00070491,0,
4,1.60144,0.880849,-0.148717,-0.00072947,0,
4,1.56949,0.874831,-0.149338,-0.000751337,0,
4,1.54091,0.869383,-0.149895,-0.000771,0,
4,1.51537,0.864448,-0.150397,-0.000788788,0,
4,1.49167,0.859833,-0.150861,-0.000805159,0,
4,1.46926,0.855446,-0.151301,-0.000820625,0,
4,1.44801,0.851255,-0.151727,-0.000832622,0,
4,1.42781,0.847223,-0.15214,-0.000839315,0,
4,1.40855,0.84332,-0.152533,-0.000845712,0,
4,1.39015,0.839532,-0.152911,-0.000850748,0,
4,1.37252,0.835845,-0.153274,-0.000854786,0,
4,1.3556,0.832243,-0.153625,-0.000858335,0,
4,1.3393,0.828708,-0.153964,-0.000861873,0,
4,1.32357,0.825222,-0.154293,-0.000866338,0,
4,1.30836,0.821767,-0.154612,-0.00087245,0,
4,1.29362,0.81832,-0.154922,-0.000881182,0,
4,1.2793,0.814856,-0.155225,-0.000893785,0,
4,1.26537,0.811345,-0.15552,-0.000911814,0,
4,1.25179,0.807749,-0.155808,-0.000937171,0,
4,1.23852,0.804026,-0.156091,-0.000972134,0,
4,1.22554,0.800124,-0.156367,-0.00101937,0,
4,1.21282,0.795983,-0.156638,-0.00108189,0,
4,1.20034,0.791536,-0.156904,-0.00116297,0,
4,1.18806,0.786707,-0.157165,-0.00126594,0,
4,1.17599,0.78142,-0.15742,-0.00139393,0,
4,1.16408,0.775602,-0.157671,-0.00154943,0,
4,1.15233,0.769192,-0.157916,-0.00173393,0,
4,1.14073,0.762147,-0.158155,-0.00194752,0,
4,1.12925,0.754451,-0.15839,-0.00218873,0,
4,1.11788,0.746113,-0.15862,-0.00245454,0,
4,1.10661,0.737167,-0.158845,-0.00274063,0,
4,1.09543,0.727666,-0.159065,-0.00304183,0,
4,1.08432,0.717674,-0.159281,-0.00335258,0,
4,1.07328,0.707263,-0.159493,-0.00366741,0,
4,1.0623,0.696503,-0.159701,-0.00398124,0,
4,1.05136,0.685462,-0.159905,-0.00428959,0,
4,1.04044,0.674181,-0.160105,-0.00458879,0,
4,1.0295,0.662695,-0.160302,-0.00487602,0,
4,1.01855,0.65105,-0.160496,-0.00514857,0,
4,1.00757,0.639287,-0.160688,-0.00540396,0,
4,0.996544,0.627439,-0.160875,-0.00564055,0,
4,0.98547,0.615537,-0.16106,-0.00585629,0,
4,0.974334,0.603608,-0.161242,-0.00604984,0,
4,0.963124,0.591674,-0.161421,-0.0062199,0,
4,0.951826,0.579755,-0.161596,-0.00636565,0,
4,0.940428,0.567867,-0.161773,-0.00651377,0,
4,0.928915,0.555928,-0.161915,-0.00660723,0,
4,0.917272,0.543777,-0.162018,-0.0066898,0,
4,0.905481,0.531302,-0.162117,-0.00677954,0,
4,0.893524,0.518436,-0.162212,-0.00687678,0,
4,0.881383,0.505131,-0.16231,-0.00698163,0,
4,0.869035,0.491351,-0.162411,-0.00709401,0,
4,0.856459,0.47706,-0.162515,-0.00721366,0,
4,0.843629,0.462229,-0.162624,-0.00734012,0,
4,0.830518,0.446832,-0.162736,-0.00747275,0,
4,0.817097,0.430846,-0.162852,-0.00761074,0,
4,0.803334,0.414252,-0.162971,-0.0077531,0,
4,0.789195,0.397035,-0.163091,-0.0078987,0,
4,0.774643,0.379184,-0.163213,-0.0080462,0,
4,0.759639,0.360695,-0.163336,-0.00819402,0,
4,0.744138,0.34157,-0.163459,-0.00834019,0,
4,0.728096,0.321823,-0.163584,-0.0084823,0,
4,0.711463,0.301484,-0.16371,-0.00861755,0,
4,0.694189,0.2806,-0.163839,-0.00874243,0,
4,0.676218,0.259228,-0.163969,-0.00885226,0,
4,0.657495,0.237431,-0.164102,-0.00894213,0,
4,0.637962,0.215266,-0.164235,-0.00900756,0,
4,0.617561,0.192774,-0.164364,-0.00904496,0,
4,0.596848,0.170595,-0.16448,-0.00905077,0,
4,0.576557,0.149473,-0.164581,-0.00902448,0,
4,0.556564,0.129273,-0.164665,-0.00896764,0,
4,0.536763,0.109893,-0.164739,-0.00888112,0,
4,0.517057,0.0912905,-0.164816,-0.00876537,0,
4,0.497368,0.0735123,-0.16492,-0.00862144,0,
4,0.477632,0.0566836,-0.165079,-0.00845254,0,
4,0.457804,0.0409579,-0.165301,-0.00826521,0,
4,0.437857,0.0264094,-0.165586,-0.00807136,0,
4,0.417786,0.0128864,-0.165681,-0.00784628,0,
4,0.397605,-1.90333e-05,-0.165542,-0.00744473,0,
4,0.377348,-0.0125721,-0.165393,-0.00711448,0,
4,0.357066,-0.0247622,-0.165248,-0.00677515,0,
4,0.336828,-0.0365463,-0.165081,-0.00642967,0,
4,0.316717,-0.0478691,-0.164905,-0.00607829,0,
4,0.296825,-0.0586774,-0.164716,-0.00572133,0,
4,0.27725,-0.0689284,-0.164517,-0.00536087,0,
4,0.258095,-0.0785909,-0.164309,-0.00499947,0,
4,0.239458,-0.0876454,-0.164094,-0.00463988,0,
4,0.221432,-0.0960833,-0.163872,-0.0042849,0,
4,0.2041,-0.103906,-0.163645,-0.00393717,0,
4,0.187537,-0.111123,-0.163416,-0.00359912,0,
4,0.171798,-0.117752,-0.163186,-0.00327291,0,
4,0.156928,-0.123816,-0.162957,-0.00296031,0,
4,0.142956,-0.129341,-0.162731,-0.00266274,0,
4,0.129894,-0.134355,-0.162511,-0.00238125,0,
4,0.117744,-0.13889,-0.162298,-0.00211649,0,
4,0.106492,-0.142976,-0.162095,-0.00186882,0,
4,0.0961173,-0.146642,-0.161902,-0.00163826,0,
4,0.0865883,-0.149916,-0.161721,-0.0014246,0,
4,0.0778675,-0.152825,-0.161552,-0.0012274,0,
4,0.0699123,-0.155393,-0.161397,-0.00104606,0,
4,0.062677,-0.157642,-0.161255,-0.000879857,0,
4,0.056114,-0.159591,-0.161126,-0.000727978,0,
4,0.0501747,-0.161256,-0.16101,-0.000589557,0,
4,0.0448114,-0.16265,-0.160907,-0.000463708,0,
4,0.039977,-0.163784,-0.160815,-0.000349543,0,
4,0.0356266,-0.164664,-0.160734,-0.000246202,0,
4,0.0317171,-0.165293,-0.160663,-0.000152868,0,
4,0.0282081,-0.165669,-0.160602,-6.87821e-05,0,
4,0.0250617,-0.165784,-0.160549,6.73023e-06,0,
4,0.0222427,-0.165624,-0.160503,7.42414e-05,0,
4,0.0197189,-0.165164,-0.160464,0.000134187,0,
4,0.0174603,-0.164369,-0.160432,0.000186815,0,
4,0.0154398,-0.163184,-0.160405,0.000232107,0,
4,0.0136326,-0.161532,-0.160382,0.000269644,0,
4,0.0120162,-0.1593,-0.160364,0.000298404,0,
4,0.0105703,-0.156328,-0.16035,0.000316471,0,
4,0.00927657,-0.152392,-0.160339,0.000320781,0,
4,0.00811839,-0.147198,-0.16033,0.000307317,0,
4,0.0070809,-0.140409,-0.160325,0.000272754,0,
4,0.0061507,-0.131745,-0.160321,0.000218283,0,
4,0.00531578,-0.121171,-0.160319,0.000153289,0,
4,0.00456537,-0.10906,-0.160318,9.28507e-05,0,
4,0.00388979,-0.096108,-0.160317,4.8448e-05,0,
4,0.00328037,-0.083039,-0.160316,2.19785e-05,0,
4,0.00272934,-0.0703586,-0.160317,8.72934e-06,0,
4,0.0022297,-0.0583208,-0.160316,3.01377e-06,0,
4,0.00177519,-0.047007,-0.160317,8.7762e-07,0,
4,0.00136016,-0.0364083,-0.160315,2.02006e-07,0,
4,0.000979511,-0.0264754,-0.160316,3.2342e-08,0,
4,0.00062865,-0.0171436,-0.160315,2.75891e-09,0,
4,0.000303409,-0.00834298,-0.160316,6.72155e-11,0,

6,0,0,-0.020677,0,0,
6,9,0,-0.0752399,0,0,
6,8.99969,0.0135192,-0.0752396,1.86706e-10,0,
6,8.99934,0.0287647,-0.0752398,8.61696e-09,0,
6,8.99895,0.0459743,-0.0752396,1.16827e-07,0,
6,8.9985,0.0653992,-0.0752397,8.41959e-07,0,
6,8.99801,0.087298,-0.0752395,4.1565e-06,0,
6,8.99744,0.11187,-0.0752396,1.57237e-05,0,
6,8.99681,0.139088,-0.0752395,4.75262e-05,0,
6,8.99609,0.168427,-0.0752395,0.000115541,0,
6,8.99529,0.198733,-0.0752393,0.000226451,0,
6,8.99438,0.228577,-0.0752393,0.000365719,0,
6,8.99336,0.256858,-0.075239,0.000507811,0,
6,8.9922,0.28308,-0.0752388,0.000635375,0,
6,8.9909,0.307244,-0.0752384,0.00073867,0,
6,8.98944,0.329509,-0.075238,0.00082552,0,
6,8.98779,0.350046,-0.0752374,0.000898565,0,
6,8.98593,0.369105,-0.0752368,0.000956409,0,
6,8.98383,0.386943,-0.075236,0.00100387,0,
6,8.98147,0.403768,-0.075235,0.00104406,0,
6,8.97881,0.419744,-0.0752338,0.00107848,0,
6,8.97581,0.435013,-0.0752324,0.00110845,0,
6,8.97244,0.449692,-0.0752307,0.00113498,0,
6,8.96863,0.463882,-0.0752287,0.00115881,0,
6,8.96435,0.477669,-0.0752263,0.0011805,0,
6,8.95953,0.491127,-0.0752235,0.00120046,0,
6,8.95409,0.50432,-0.0752203,0.00121896,0,
6,8.94798,0.517304,-0.0752166,0.00123618,0,
6,8.94109,0.530129,-0.0752123,0.0012522,0,
6,8.93334,0.542838,-0.0752073,0.00126704,0,
6,8.92463,0.555468,-0.0752016,0.00128066,0,
6,8.91482,0.568052,-0.0751951,0.00129295,0,
6,8.90379,0.580619,-0.0751878,0.00130374,0,
6,8.89139,0.593194,-0.0751796,0.00131286,0,
6,8.87746,0.605798,-0.0751703,0.00132006,0,
6,8.86181,0.618447,-0.0751602,0.0013251,0,
6,8.84423,0.631155,-0.0751491,0.00132769,0,
6,8.82452,0.643935,-0.0751368,0.00132757,0,
6,8.80241,0.656794,-0.0751235,0.00132447,0,
6,8.77763,0.66974,-0.0751091,0.0013181,0,
6,8.74989,0.682781,-0.0750936,0.00130824,0,
6,8.71885,0.695927,-0.075077,0.00129463,0,
6,8.68417,0.709186,-0.0750596,0.00127705,0,
6,8.64545,0.722576,-0.0750414,0.00125524,0,
6,8.60229,0.736118,-0.0750226,0.0012289,0,
6,8.55423,0.749841,-0.0750035,0.00119772,0,
6,8.50082,0.763785,-0.0749842,0.00116178,0,
6,8.44155,0.778017,-0.0749661,0.0011212,0,
6,8.37592,0.792661,-0.07495,0.00107359,0,
6,8.30339,0.807917,-0.0749362,0.00101763,0,
6,8.22344,0.824051,-0.0749246,0.000950408,0,
6,8.13555,0.841362,-0.0749161,0.000868165,0,
6,8.0392,0.860102,-0.0749064,0.000767464,0,
6,7.93391,0.880261,-0.0748956,0.000648069,0,
6,7.81927,0.901253,-0.0748723,0.000516527,0,
6,7.6949,0.921697,-0.0748429,0.000387924,0,
6,7.56054,0.939757,-0.0747965,0.000271982,0,
6,7.41603,0.953821,-0.0747388,0.000140258,0,
6,7.26132,0.962907,-0.0746765,5.57105e-05,0,
6,7.09653,0.967266,-0.0745966,1.42404e-05,0,
6,6.92195,0.968354,-0.0745005,7.92339e-07,0,
6,6.73802,0.967928,-0.0743807,-9.93263e-07,0,
6,6.5454,0.967226,-0.0742346,-4.62264e-07,0,
6,6.34489,0.96675,-0.0740586,-1.26997e-07,0,
6,6.1375,0.966518,-0.0738498,-3.31834e-08,0,
6,5.92439,0.966393,-0.0736041,-1.23775e-08,0,
6,5.70687,0.966265,-0.073317,-7.13126e-09,0,
6,5.48633,0.966092,-0.0729836,-5.63288e-09,0,
6,5.26426,0.965869,-0.0725989,-5.43633e-09,0,
6,5.04218,0.965607,-0.0721578,-5.74805e-09,0,
6,4.82159,0.965319,-0.0716556,-6.24153e-09,0,
6,4.60398,0.965015,-0.0710879,-6.84404e-09,0,
6,4.39071,0.964694,-0.0704514,-7.71936e-09,0,
6,4.18307,0.964327,-0.0697439,-9.18973e-09,0,
6,3.98218,0.96385,-0.0689645,-1.14895e-08,0,
6,3.78902,0.963206,-0.0681143,-1.4287e-08,0,
6,3.60438,0.962418,-0.0671961,-1.83112e-08,0,
6,3.42888,0.961659,-0.0662149,-3.81461e-08,0,
6,3.26296,0.961219,-0.0651765,-9.63305e-08,0,
6,3.10691,0.961341,-0.0640872,-9.58827e-08,0,
6,2.96084,0.962003,-0.0629541,1.42528e-07,0,
6,2.82473,0.962819,-0.0617863,-1.30448e-07,0,
6,2.69844,0.963166,-0.0605959,-3.8459e-06,0,
6,2.58172,0.962428,-0.0593971,-1.54488e-05,0,
6,2.47424,0.960207,-0.0582053,-3.86699e-05,0,
6,2.37559,0.9564,-0.0570348,-7.49434e-05,0,
6,2.28535,0.951152,-0.0558987,-0.000123311,0,
6,2.20301,0.944762,-0.0548074,-0.000180975,0,
6,2.1281,0.937589,-0.0537694,-0.000244218,0,
6,2.06009,0.929984,-0.0527904,-0.000309098,0,
6,1.99849,0.922257,-0.051873,-0.000371771,0,
6,1.9428,0.914668,-0.0510209,-0.000429021,0,
6,1.89255,0.907411,-0.0502289,-0.000480096,0,
6,1.84728,0.900575,-0.0495037,-0.000521931,0,
6,1.80655,0.894158,-0.0488444,-0.000552432,0,
6,1.76996,0.888164,-0.0482366,-0.00058038,0,
6,1.73712,0.882609,-0.0476844,-0.000605956,0,
6,1.70768,0.877468,-0.0471796,-0.000629615,0,
6,1.67998,0.872511,-0.0467008,-0.000652541,0,
6,1.65329,0.867641,-0.0462329,-0.000674934,0,
6,1.62754,0.862856,-0.0457762,-0.000696746,0,
6,1.60265,0.858156,-0.0453295,-0.000718058,0,
6,1.57854,0.853539,-0.0448923,-0.000738808,0,
6,1.55515,0.849002,-0.0444639,-0.000759037,0,
6,1.53242,0.844543,-0.0440437,-0.000778764,0,
6,1.5103,0.840156,-0.0436312,-0.000797982,0,
6,1.48874,0.835827,-0.0432261,-0.00081669,0,
6,1.46769,0.831542,-0.0428277,-0.000835006,0,
6,1.44712,0.82729,-0.0424348,-0.00085325,0,
6,1.42698,0.823078,-0.0420455,-0.000871988,0,
6,1.40725,0.81894,-0.0416575,-0.000891726,0,
6,1.38788,0.814926,-0.0412714,-0.000912688,0,
6,1.36886,0.811059,-0.0408876,-0.000933706,0,
6,1.35015,0.807281,-0.0405177,-0.000940151,0,
6,1.33173,0.803519,-0.0401568,-0.000948211,0,
6,1.31357,0.799744,-0.0397948,-0.000959226,0,
6,1.29566,0.79594,-0.0394373,-0.000972106,0,
6,1.27797,0.792086,-0.0390816,-0.000987909,0,
6,1.26048,0.788156,-0.0387285,-0.00100787,0,
6,1.24318,0.784121,-0.0383775,-0.00103355,0,
6,1.22605,0.779941,-0.0380286,-0.00106681,0,
6,1.20907,0.775573,-0.0376815,-0.00110982,0,
6,1.19223,0.770965,-0.0373363,-0.00116495,0,
6,1.17551,0.766057,-0.0369929,-0.00123472,0,
6,1.1589,0.760787,-0.0366512,-0.00132161,0,
6,1.14238,0.75509,-0.0363112,-0.0014278,0,
6,1.12595,0.748906,-0.0359731,-0.0015549,0,
6,1.10959,0.742186,-0.035637,-0.00170362,0,
6,1.09329,0.734896,-0.0353035,-0.0018736,0,
6,1.07704,0.727021,-0.0349726,-0.00206322,0,
6,1.06081,0.718565,-0.0346445,-0.0022697,0,
6,1.04459,0.709549,-0.0343194,-0.00248931,0,
6,1.02836,0.700016,-0.0339972,-0.00271758,0,
6,1.01211,0.69002,-0.033679,-0.00294962,0,
6,0.99583,0.679624,-0.0333634,-0.00318056,0,
6,0.97951,0.66889,-0.033054,-0.00340911,0,
6,0.963136,0.657861,-0.0327433,-0.00363735,0,
6,0.946694,0.646487,-0.0324265,-0.00384615,0,
6,0.930172,0.634669,-0.0321119,-0.00405988,0,
6,0.913555,0.62234,-0.0318001,-0.0042811,0,
6,0.896829,0.60945,-0.0314929,-0.00451159,0,
6,0.879979,0.595957,-0.0311904,-0.00475268,0,
6,0.862989,0.581836,-0.0308934,-0.00500535,0,
6,0.845842,0.567083,-0.0306027,-0.00527036,0,
6,0.828521,0.551712,-0.0303191,-0.00554839,0,
6,0.811008,0.535743,-0.0300445,-0.00583549,0,
6,0.793282,0.51919,-0.0297811,-0.00612858,0,
6,0.775322,0.502065,-0.0295297,-0.00642552,0,
6,0.757107,0.484386,-0.0292913,-0.00672369,0,
6,0.738612,0.466181,-0.0290668,-0.00701992,0,
6,0.719813,0.447488,-0.0288574,-0.00731049,0,
6,0.700681,0.428361,-0.0286639,-0.0075912,0,
6,0.681188,0.408859,-0.0284859,-0.0078575,0,
6,0.661304,0.38904,-0.0283212,-0.00810452,0,
6,0.640996,0.368951,-0.0281658,-0.00832705,0,
6,0.620228,0.348629,-0.0280165,-0.00851947,0,
6,0.598964,0.328126,-0.027877,-0.00867558,0,
6,0.577166,0.30756,-0.0277647,-0.00878937,0,
6,0.554791,0.287181,-0.0277174,-0.00885695,0,
6,0.531799,0.267386,-0.0277769,-0.00887772,0,
6,0.508144,0.248599,-0.0279662,-0.00885698,0,
6,0.48378,0.230988,-0.0282027,-0.00879282,0,
6,0.459585,0.214752,-0.0281403,-0.00847644,0,
6,0.436695,0.200085,-0.0279086,-0.00817064,0,
6,0.414961,0.186672,-0.0277491,-0.00788299,0,
6,0.394252,0.174337,-0.0275674,-0.00758549,0,
6,0.374445,0.162935,-0.0273923,-0.00728563,0,
6,0.355433,0.152351,-0.0272174,-0.0069834,0,
6,0.337122,0.142486,-0.0270412,-0.00667938,0,
6,0.319433,0.133259,-0.026862,-0.00637447,0,
6,0.3023,0.1246,-0.0266781,-0.00606938,0,
6,0.28567,0.116453,-0.0264883,-0.0057648,0,
6,0.269507,0.10877,-0.0262915,-0.0054614,0,
6,0.253785,0.101514,-0.0260868,-0.00515991,0,
6,0.238493,0.0946544,-0.0258737,-0.00486118,0,
6,0.223631,0.0881678,-0.0256519,-0.00456614,0,
6,0.209207,0.0820347,-0.0254215,-0.00427583,0,
6,0.195237,0.0762396,-0.025183,-0.00399136,0,
6,0.181744,0.0707693,-0.0249373,-0.00371389,0,
6,0.168754,0.0656125,-0.0246858,-0.00344457,0,
6,0.156292,0.0607583,-0.0244302,-0.0031845,0,
6,0.144384,0.0561964,-0.0241724,-0.00293472,0,
6,0.133052,0.0519162,-0.0239147,-0.00269611,0,
6,0.122315,0.0479065,-0.0236593,-0.00246941,0,
6,0.112183,0.0441559,-0.0234087,-0.00225515,0,
6,0.102665,0.0406523,-0.023165,-0.0020537,0,
6,0.0937597,0.0373832,-0.0229303,-0.00186523,0,
6,0.0854609,0.0343358,-0.0227063,-0.00168972,0,
6,0.077757,0.0314971,-0.0224945,-0.00152699,0,
6,0.0706309,0.0288542,-0.0222959,-0.0013767,0,
6,0.0640611,0.0263941,-0.0221112,-0.00123842,0,
6,0.0580229,0.0241042,-0.0219409,-0.0011116,0,
6,0.0524888,0.0219722,-0.0217848,-0.000995643,0,
6,0.0474296,0.0199862,-0.0216429,-0.000889885,0,
6,0.042815,0.0181347,-0.0215147,-0.000793649,0,
6,0.0386145,0.0164067,-0.0213995,-0.000706246,0,
6,0.0347975,0.0147919,-0.0212966,-0.000626993,0,
6,0.0313344,0.0132801,-0.0212052,-0.000555221,0,
6,0.0281964,0.011862,-0.0211244,-0.000490289,0,
6,0.0253561,0.0105284,-0.0210534,-0.000431584,0,
6,0.0227875,0.00927061,-0.0209913,-0.000378524,0,
6,0.0204662,0.00808039,-0.0209371,-0.000330566,0,
6,0.0183694,0.00694964,-0.0208904,-0.000287199,0,
6,0.016476,0.00587049,-0.0208499,-0.000247946,0,
6,0.0147664,0.00483526,-0.0208157,-0.000212363,0,
6,0.0132228,0.00383636,-0.0207863,-0.000180036,0,
6,0.0118288,0.0028664,-0.0207622,-0.000150579,0,
6,0.0105693,0.00191841,-0.0207415,-0.000123641,0,
6,0.00943073,0.000986443,-0.0207256,-9.89249e-05,0,
6,0.00840063,6.71333e-05,-0.0207118,-7.62341e-05,0,
6,0.00746774,-0.000837336,-0.0207026,-5.55718e-05,0,
6,0.00662185,-0.00171396,-0.0206943,-3.73077e-05,0,
6,0.00585371,-0.00253239,-0.0206902,-2.22376e-05,0,
6,0.00515491,-0.00324296,-0.0206858,-1.12505e-05,0,
6,0.00451788,-0.00378871,-0.020685,-4.55586e-06,0,
6,0.00393573,-0.0041298,-0.0206824,-1.29653e-06,0,
6,0.00340221,-0.00425949,-0.0206832,-9.48672e-08,0,
6,0.00291168,-0.00419847,-0.020681,1.80723e-07,0,
6,0.00245897,-0.00397902,-0.0206824,1.55847e-07,0,
6,0.00203939,-0.00363311,-0.02068,8.33639e-08,0,
6,0.00164864,-0.0031874,-0.020682,3.33917e-08,0,
6,0.00128281,-0.00266231,-0.0206791,9.94955e-09,0,
6,0.000938257,-0.00207264,-0.0206818,1.98612e-09,0,
6,0.000611645,-0.00142857,-0.0206781,2.05208e-10,0,
6,0.000299862,-0.000736488,-0.0206817,5.82788e-12,0,

10,0.000296632,0.00830269,0.0298406,-4.69058e-11,0,
10,0.000596102,0.0166817,0.0298412,-1.7383e-09,0,
10,0.000900397,0.0251924,0.0298405,-1.76728e-08,0,
10,0.00121153,0.0338908,0.0298411,-9.49644e-08,0,
10,0.00153158,0.0428327,0.0298405,-3.552e-07,0,
10,0.00186264,0.0520732,0.0298409,-1.05603e-06,0,
10,0.00220692,0.0616636,0.0298404,-2.6804e-06,0,
10,0.00256668,0.0716475,0.0298408,-6.05224e-06,0,
10,0.00294431,0.0820528,0.0298403,-1.24542e-05,0,
10,0.00334229,0.0928805,0.0298406,-2.36787e-05,0,
10,0.00376326,0.104091,0.0298402,-4.18854e-05,0,
10,0.00421,0.115592,0.0298403,-6.91361e-05,0,
10,0.00468544,0.127233,0.0298399,-0.000106623,0,
10,0.00519274,0.138819,0.0298399,-0.000153923,0,
10,0.00573524,0.150136,0.0298393,-0.000208794,0,
10,0.00631651,0.16099,0.029839,-0.000267765,0,
10,0.00694041,0.171232,0.0298381,-0.000327163,0,
10,0.00761104,0.180768,0.0298374,-0.000383991,0,
10,0.00833284,0.18956,0.029836,-0.000436309,0,
10,0.00911058,0.197612,0.0298346,-0.000483191,0,
10,0.0099494,0.204959,0.0298326,-0.000524486,0,
10,0.0108548,0.211653,0.0298302,-0.000560544,0,
10,0.0118329,0.217756,0.0298271,-0.000591991,0,
10,0.0128901,0.223333,0.0298235,-0.000619572,0,
10,0.0140333,0.228447,0.029819,-0.00064405,0,
10,0.0152702,0.233156,0.0298137,-0.000666151,0,
10,0.0166089,0.237513,0.0298074,-0.00068653,0,
10,0.0180584,0.241567,0.0298002,-0.000705771,0,
10,0.0196282,0.245359,0.0297916,-0.000724387,0,
10,0.0213288,0.248927,0.0297818,-0.000742826,0,
10,0.0231714,0.252303,0.0297705,-0.000761485,0,
10,0.0251682,0.255515,0.0297576,-0.000780723,0,
10,0.0273326,0.258589,0.029743,-0.000800865,0,
10,0.0296789,0.261548,0.0297263,-0.000822219,0,
10,0.0322227,0.264411,0.0297076,-0.000845077,0,
10,0.0349809,0.267196,0.0296865,-0.000869727,0,
10,0.0379719,0.26992,0.0296629,-0.000896456,0,
10,0.0412155,0.272599,0.0296364,-0.000925554,0,
10,0.0447333,0.275247,0.029607,-0.000957323,0,
10,0.0485489,0.277877,0.0295743,-0.000992076,0,
10,0.0526875,0.280503,0.029538,-0.00103014,0,
10,0.0571768,0.283139,0.0294979,-0.00107188,0,
10,0.0620466,0.285797,0.0294538,-0.00111764,0,
10,0.0673295,0.288491,0.0294052,-0.00116785,0,
10,0.0730607,0.291235,0.0293521,-0.00122291,0,
10,0.0792784,0.294043,0.029294,-0.00128329,0,
10,0.0860241,0.296932,0.0292307,-0.00134947,0,
10,0.0933428,0.299917,0.0291621,-0.00142197,0,
10,0.101283,0.303017,0.0290878,-0.00150135,0,
10,0.109899,0.306251,0.0290077,-0.00158819,0,
10,0.119247,0.309643,0.0289217,-0.00168311,0,
10,0.12939,0.313216,0.0288297,-0.00178676,0,
10,0.140395,0.316998,0.0287317,-0.0018998,0,
10,0.152337,0.321021,0.0286277,-0.00202293,0,
10,0.165296,0.32532,0.0285178,-0.00215681,0,
10,0.179357,0.329936,0.0284023,-0.00230212,0,
10,0.194615,0.334917,0.0282812,-0.00245947,0,
10,0.211171,0.340316,0.0281552,-0.00262938,0,
10,0.229138,0.346197,0.0280241,-0.00281227,0,
10,0.248635,0.352631,0.0278889,-0.00300831,0,
10,0.269793,0.359703,0.0277486,-0.00321742,0,
10,0.292753,0.36751,0.0276057,-0.00343906,0,
10,0.317669,0.376165,0.0274559,-0.00367085,0,
10,0.344708,0.38579,0.0273049,-0.00390916,0,
10,0.372405,0.39593,0.0271574,-0.00414311,0,
10,0.399623,0.406186,0.0270157,-0.00436143,0,
10,0.426397,0.416562,0.0268806,-0.00456066,0,
10,0.452757,0.427057,0.02675,-0.00474249,0,
10,0.478735,0.437679,0.0266261,-0.00490442,0,
10,0.504358,0.448444,0.0265089,-0.00504511,0,
10,0.529657,0.459371,0.0263993,-0.00516361,0,
10,0.554656,0.470477,0.0262902,-0.00526027,0,
10,0.579382,0.481772,0.0261904,-0.00533459,0,
10,0.603859,0.493262,0.0260741,-0.00540645,0,
10,0.628112,0.505039,0.0260038,-0.0054629,0,
10,0.652163,0.517428,0.0260096,-0.00539023,0,
10,0.676035,0.530714,0.0259991,-0.00528876,0,
10,0.699751,0.544837,0.0259507,-0.00515734,0,
10,0.72333,0.559533,0.0258626,-0.00499609,0,
10,0.746795,0.574492,0.0257447,-0.00480778,0,
10,0.770165,0.589466,0.0256068,-0.00459675,0,
10,0.79346,0.604291,0.0254559,-0.00436784,0,
10,0.816699,0.618863,0.0252947,-0.00412582,0,
10,0.839903,0.633098,0.0251241,-0.00387554,0,
10,0.863088,0.646894,0.0249413,-0.00362696,0,
10,0.886275,0.660134,0.0247456,-0.00338616,0,
10,0.909481,0.672742,0.0245401,-0.00315373,0,
10,0.932723,0.684698,0.0243269,-0.00293023,0,
10,0.956021,0.696024,0.0241073,-0.00271634,0,
10,0.97939,0.706756,0.0238813,-0.00251273,0,
10,1.00285,0.716929,0.023649,-0.00231999,0,
10,1.02641,0.726566,0.0234095,-0.00213861,0,
10,1.0501,0.735689,0.0231634,-0.00196898,0,
10,1.07392,0.744321,0.0229099,-0.00181133,0,
10,1.0979,0.752491,0.0226519,-0.00166341,0,
10,1.12205,0.760227,0.0223879,-0.00152549,0,
10,1.14639,0.767536,0.0221147,-0.00140179,0,
10,1.17093,0.774422,0.0218339,-0.00129156,0,
10,1.19568,0.780903,0.0215452,-0.00119539,0,
10,1.22066,0.787014,0.0212488,-0.0011131,0,
10,1.24589,0.7928,0.0209458,-0.00104387,0,
10,1.27137,0.798311,0.0206352,-0.000986495,0,
10,1.29713,0.803602,0.0203195,-0.000944925,0,
10,1.32317,0.808789,0.0199987,-0.000899029,0,
10,1.34951,0.814002,0.0196719,-0.000855255,0,
10,1.37616,0.819283,0.01934,-0.00081485,0,
10,1.40313,0.824584,0.0190004,-0.000777775,0,
10,1.43043,0.829838,0.018653,-0.000743687,0,
10,1.45807,0.835003,0.0182974,-0.000711904,0,
10,1.48607,0.840081,0.0179346,-0.000681703,0,
10,1.51444,0.845096,0.0175647,-0.000652574,0,
10,1.54318,0.850064,0.0171877,-0.000624298,0,
10,1.57231,0.85498,0.0168033,-0.000596822,0,
10,1.60184,0.859826,0.0164113,-0.000570148,0,
10,1.63178,0.864576,0.0160115,-0.000544277,0,
10,1.66213,0.869205,0.0156043,-0.000519218,0,
10,1.69292,0.873694,0.0151892,-0.000494936,0,
10,1.72416,0.878035,0.0147675,-0.000471267,0,
10,1.75585,0.882249,0.0143369,-0.000446278,0,
10,1.78802,0.886388,0.0138975,-0.000417558,0,
10,1.82067,0.890477,0.0134512,-0.000389782,0,
10,1.85383,0.894504,0.0129965,-0.00036106,0,
10,1.88751,0.898446,0.0125334,-0.000331362,0,
10,1.92173,0.902278,0.0120622,-0.000301038,0,
10,1.95652,0.905976,0.0115819,-0.000270517,0,
10,1.9919,0.909515,0.0110936,-0.000240289,0,
10,2.02791,0.91287,0.0105956,-0.000210913,0,
10,2.06456,0.916022,0.0100901,-0.000182635,0,
10,2.10268,0.91901,0.00956236,-0.000155055,0,
10,2.1443,0.921922,0.00898924,-0.000128551,0,
10,2.18977,0.924706,0.00836356,-0.00010327,0,
10,2.23946,0.92728,0.0076836,-7.95216e-05,0,
10,2.29376,0.929561,0.0069439,-5.81304e-05,0,
10,2.35309,0.931465,0.00614222,-3.9779e-05,0,
10,2.4179,0.932924,0.00527458,-2.49726e-05,0,
10,2.48863,0.933893,0.00433933,-1.39717e-05,0,
10,2.56575,0.934368,0.00333431,-6.69124e-06,0,
10,2.64971,0.934406,0.00225925,-2.63728e-06,0,
10,2.74098,0.934127,0.00111407,-9.52042e-07,0,
10,2.83997,0.933707,-9.98076e-05,-6.04337e-07,0,
10,2.94709,0.933352,-0.00138057,-6.91965e-07,0,
10,3.06269,0.933246,-0.0027252,-6.99935e-07,0,
10,3.18706,0.933499,-0.00412991,-5.3113e-07,0,
10,3.3204,0.934116,-0.00558943,-3.0748e-07,0,
10,3.46281,0.935003,-0.00709691,-1.43116e-07,0,
10,3.61427,0.936015,-0.00864339,-6.10653e-08,0,
10,3.77463,0.937016,-0.010218,-3.11265e-08,0,
10,3.94358,0.937924,-0.0118083,-2.21396e-08,0,
10,4.12067,0.938724,-0.0134008,-1.91592e-08,0,
10,4.30525,0.93945,-0.0149815,-1.7843e-08,0,
10,4.49655,0.940145,-0.0165368,-1.73742e-08,0,
10,4.6936,0.940837,-0.0180536,-1.77321e-08,0,
10,4.89531,0.941528,-0.0195197,-1.94164e-08,0,
10,5.10047,0.942205,-0.0209243,-2.38874e-08,0,
10,5.30776,0.942846,-0.0222583,-3.43862e-08,0,
10,5.51581,0.943435,-0.0235144,-5.76064e-08,0,
10,5.72323,0.943969,-0.0246874,-1.07934e-07,0,
10,5.92863,0.944473,-0.0257738,-2.20574e-07,0,
10,6.13069,0.945012,-0.0267723,-4.88228e-07,0,
10,6.32816,0.945683,-0.0276836,-1.10528e-06,0,
10,6.51991,0.946517,-0.0285098,-2.15412e-06,0,
10,6.70495,0.947286,-0.0292545,-2.33066e-06,0,
10,6.88244,0.947275,-0.0299212,3.71443e-06,0,
10,7.0517,0.945258,-0.0305141,2.68747e-05,0,
10,7.21224,0.939848,-0.0310337,8.04496e-05,0,
10,7.3637,0.930159,-0.0314855,0.000173642,0,
10,7.5059,0.916233,-0.0318738,0.000297152,0,
10,7.63878,0.898659,-0.0322025,0.000404865,0,
10,7.76243,0.878542,-0.0324815,0.000523942,0,
10,7.87701,0.857648,-0.0327054,0.000645598,0,
10,7.9828,0.837436,-0.0328906,0.000755988,0,
10,8.08014,0.818619,-0.0330391,0.000850084,0,
10,8.16941,0.801278,-0.0331621,0.000928377,0,
10,8.25106,0.785169,-0.0332636,0.000994031,0,
10,8.32554,0.769965,-0.0333498,0.00105027,0,
10,8.39331,0.755385,-0.0334229,0.00109937,0,
10,8.45484,0.741231,-0.0334857,0.00114259,0,
10,8.5106,0.727381,-0.0335392,0.00118054,0,
10,8.56104,0.713777,-0.0335853,0.00121344,0,
10,8.60659,0.700402,-0.0336247,0.0012414,0,
10,8.64767,0.687261,-0.0336588,0.00126453,0,
10,8.68467,0.674361,-0.0336883,0.00128274,0,
10,8.71795,0.661677,-0.033714,0.00129257,0,
10,8.74786,0.649179,-0.0337363,0.00129892,0,
10,8.77471,0.636865,-0.0337554,0.00130098,0,
10,8.79881,0.624729,-0.0337719,0.00129921,0,
10,8.8204,0.612766,-0.0337861,0.00129412,0,
10,8.83975,0.600964,-0.0337982,0.00128622,0,
10,8.85708,0.589309,-0.0338086,0.001276,0,
10,8.87259,0.577783,-0.0338176,0.0012639,0,
10,8.88646,0.566366,-0.0338252,0.00125032,0,
10,8.89886,0.555032,-0.0338317,0.00123562,0,
10,8.90995,0.543756,-0.0338371,0.00122008,0,
10,8.91986,0.532505,-0.0338417,0.00120391,0,
10,8.92872,0.521248,-0.0338455,0.00118727,0,
10,8.93663,0.509948,-0.0338487,0.00117026,0,
10,8.94369,0.498567,-0.0338514,0.00115292,0,
10,8.95,0.487062,-0.0338535,0.00113518,0,
10,8.95564,0.475389,-0.0338554,0.00111698,0,
10,8.96067,0.463497,-0.0338568,0.00109816,0,
10,8.96517,0.451333,-0.0338581,0.00107846,0,
10,8.96918,0.438835,-0.0338591,0.00105756,0,
10,8.97276,0.425933,-0.03386,0.00103502,0,
10,8.97596,0.412547,-0.0338606,0.00101028,0,
10,8.97882,0.398585,-0.0338613,0.000982624,0,
10,8.98137,0.383939,-0.0338616,0.000951106,0,
10,8.98365,0.368482,-0.0338622,0.000914519,0,
10,8.98569,0.352064,-0.0338622,0.000871471,0,
10,8.9875,0.334503,-0.0338628,0.000819675,0,
10,8.98913,0.315563,-0.0338627,0.000754237,0,
10,8.99058,0.295016,-0.0338631,0.000676916,0,
10,8.99188,0.272701,-0.0338629,0.000585356,0,
10,8.99304,0.248456,-0.0338634,0.000472693,0,
10,8.99408,0.222241,-0.033863,0.000346598,0,
10,8.99501,0.194426,-0.0338636,0.000220755,0,
10,8.99583,0.165915,-0.0338631,0.00011699,0,
10,8.99658,0.137973,-0.0338637,5.02301e-05,0,
10,8.99724,0.111714,-0.0338631,1.73327e-05,0,
10,8.99784,0.0877244,-0.0338638,4.76108e-06,0,
10,8.99837,0.0661137,-0.0338631,9.98428e-07,0,
10,8.99885,0.0467473,-0.0338639,1.43024e-07,0,
10,8.99927,0.0294142,-0.033863,1.08582e-08,0,
10,8.99966,0.0138997,-0.033864,2.40238e-10,0,
10,0,0,0.0298414,0,0,
10,9,0,-0.0338629,0,0,

0.004,0,0,-0.225303,0,-7.81959e-08,
0.00868226,0,0,-0.2253,0,-1.78239e-07,
0.014062,0,0,-0.225302,0,-3.01731e-07,
0.0201548,0,0,-0.225301,0,-7.06821e-07,
0.0269766,0,0,-0.225301,0,-1.19235e-06,
0.0345437,0,0,-0.225301,0,-1.80097e-06,
0.0428729,0,0,-0.2253,0,-2.36279e-06,
0.051981,0,0,-0.225298,0,-2.79411e-06,
0.0618853,0,0,-0.225296,0,-2.90792e-06,
0.0726036,0,0,-0.225293,0,-2.54107e-06,
0.0841536,0,0,-0.225289,0,-1.50198e-06,
0.0965535,0,0,-0.225285,0,3.58315e-07,
0.109822,0,0,-0.225282,0,3.12721e-06,
0.123977,0,0,-0.225281,0,6.79235e-06,
0.139037,0,0,-0.225282,0,1.12214e-05,
0.155022,0,0,-0.225288,0,1.61789e-05,
0.171949,0,0,-0.225298,0,2.13463e-05,
0.189839,0,0,-0.225313,0,2.63809e-05,
0.208709,0,0,-0.225332,0,3.09515e-05,
0.228579,0,0,-0.225356,0,3.47904e-05,
0.249467,0,0,-0.225383,0,3.7709e-05,
0.271391,0,0,-0.225411,0,3.96186e-05,
0.29437,0,0,-0.22544,0,4.05225e-05,
0.31842,0,0,-0.225468,0,4.05121e-05,
0.343559,0,0,-0.225494,0,3.97467e-05,
0.369804,0,0,-0.225518,0,3.84374e-05,
0.39717,0,0,-0.22554,0,3.68254e-05,
0.425672,0,0,-0.22556,0,3.51685e-05,
0.455324,0,0,-0.225577,0,3.37267e-05,
0.48614,0,0,-0.225594,0,3.27633e-05,
0.518132,0,0,-0.22561,0,3.25241e-05,
0.551309,0,0,-0.22563,0,3.31894e-05,
0.585683,0,0,-0.225653,0,3.48532e-05,
0.621259,0,0,-0.225685,0,3.75158e-05,
0.658046,0,0,-0.225727,0,4.10913e-05,
0.696047,0,0,-0.225782,0,4.5433e-05,
0.735265,0,0,-0.225856,0,5.03637e-05,
0.7757,0,0,-0.22595,0,5.57055e-05,
0.817352,0,0,-0.22607,0,6.12583e-05,
0.860215,0,0,-0.226221,0,6.67529e-05,
0.904285,0,0,-0.226415,0,7.17409e-05,
0.949552,0,0,-0.226663,0,7.54092e-05,
0.996004,0,0,-0.226983,0,7.65064e-05,
1.04363,0,0,-0.227394,0,7.33875e-05,
1.09241,0,0,-0.227917,0,6.41351e-05,
1.14232,0,0,-0.228569,0,4.68737e-05,
1.19335,0,0,-0.229355,0,2.02617e-05,
1.24546,0,0,-0.230269,0,-1.60489e-05,
1.29863,0,0,-0.231291,0,-6.12297e-05,
1.35283,0,0,-0.232393,0,-0.000113498,
1.40802,0,0,-0.233544,0,-0.00017065,
1.46416,0,0,-0.234713,0,-0.000230644,
1.52121,0,0,-0.235875,0,-0.000291968,
1.57913,0,0,-0.237008,0,-0.00035373,
1.63787,0,0,-0.238092,0,-0.000415514,
1.69739,0,0,-0.239111,0,-0.00047718,
1.75761,0,0,-0.240052,0,-0.000538694,
1.81851,0,0,-0.240899,0,-0.000600034,
1.88,0,0,-0.241641,0,-0.00066115,
1.94204,0,0,-0.242264,0,-0.000721966,
2.00457,0,0,-0.242755,0,-0.000782382,
2.06751,0,0,-0.243104,0,-0.000842283,
2.13081,0,0,-0.243299,0,-0.000901543,
2.19439,0,0,-0.243329,0,-0.000960029,
2.25819,0,0,-0.243185,0,-0.0010176,
2.32214,0,0,-0.242858,0,-0.00107411,
2.38617,0,0,-0.242339,0,-0.00112939,
2.4502,0,0,-0.241622,0,-0.00118327,
2.51418,0,0,-0.2407,0,-0.00123559,
2.57803,0,0,-0.23957,0,-0.00128615,
2.64167,0,0,-0.238227,0,-0.00133476,
2.70505,0,0,-0.236671,0,-0.00138122,
2.76808,0,0,-0.234901,0,-0.00142531,
2.83072,0,0,-0.23292,0,-0.00146681,
2.89288,0,0,-0.230731,0,-0.0015055,
2.95451,0,0,-0.22834,0,-0.00154118,
3.01555,0,0,-0.225756,0,-0.00157364,
3.07594,0,0,-0.22299,0,-0.00160275,
3.13561,0,0,-0.220055,0,-0.0016284,
3.19453,0,0,-0.216966,0,-0.00165056,
3.25262,0,0,-0.213741,0,-0.00166924,
3.30985,0,0,-0.210395,0,-0.00168451,
3.36617,0,0,-0.206947,0,-0.00169646,
3.42154,0,0,-0.203416,0,-0.00170522,
3.47591,0,0,-0.199818,0,-0.00171096,
3.52925,0,0,-0.196173,0,-0.00171385,
3.58152,0,0,-0.192496,0,-0.00171408,
3.6327,0,0,-0.188804,0,-0.00171184,
3.68276,0,0,-0.185112,0,-0.00170735,
3.73167,0,0,-0.181434,0,-0.00170081,
3.77941,0,0,-0.177783,0,-0.00169241,
3.82596,0,0,-0.174172,0,-0.00168238,
3.8713,0,0,-0.170611,0,-0.0016709,
3.91543,0,0,-0.167105,0,-0.00165804,
3.95833,0,0,-0.163683,0,-0.00164432,
4,0,0,-0.160314,0,-0.00162962,
4.04167,0,0,-0.156935,0,-0.00161358,
4.08333,0,0,-0.153539,0,-0.00159642,
4.125,0,0,-0.15013,0,-0.00157813,
4.16667,0,0,-0.146712,0,-0.00155874,
4.20833,0,0,-0.143287,0,-0.00153827,
4.25,0,0,-0.13986,0,-0.00151679,
4.29167,0,0,-0.136432,0,-0.00149432,
4.33333,0,0,-0.133008,0,-0.00147091,
4.375,0,0,-0.129591,0,-0.00144661,
4.41667,0,0,-0.126182,0,-0.00142145,
4.45833,0,0,-0.122784,0,-0.00139547,
4.5,0,0,-0.119401,0,-0.00136871,
4.54167,0,0,-0.116035,0,-0.00134121,
4.58333,0,0,-0.112687,0,-0.00131301,
4.625,0,0,-0.109361,0,-0.00128415,
4.66667,0,0,-0.106058,0,-0.00125465,
4.70833,0,0,-0.10278,0,-0.00122454,
4.75,0,0,-0.0995295,0,-0.00119387,
4.79167,0,0,-0.0963079,0,-0.00116267,
4.83333,0,0,-0.0931171,0,-0.00113096,
4.875,0,0,-0.0899585,0,-0.00109877,
4.91667,0,0,-0.0868339,0,-0.00106614,
4.95833,0,0,-0.0837446,0,-0.0010331,
5,0,0,-0.080692,0,-0.000999668,
5.04167,0,0,-0.0776773,0,-0.000965879,
5.08333,0,0,-0.0747017,0,-0.000931758,
5.125,0,0,-0.0717663,0,-0.000897331,
5.16667,0,0,-0.0688723,0,-0.000862624,
5.20833,0,0,-0.0660204,0,-0.000827662,
5.25,0,0,-0.0632116,0,-0.00079247,
5.29167,0,0,-0.0604468,0,-0.000757073,
5.33333,0,0,-0.0577266,0,-0.000721494,
5.375,0,0,-0.0550517,0,-0.000685759,
5.41667,0,0,-0.0524227,0,-0.000649891,
5.45833,0,0,-0.0498402,0,-0.000613911,
5.5,0,0,-0.0473047,0,-0.000577842,
5.54167,0,0,-0.0448166,0,-0.000541706,
5.58333,0,0,-0.0423763,0,-0.000505525,
5.625,0,0,-0.039984,0,-0.000469316,
5.66667,0,0,-0.0376402,0,-0.000433098,
5.70833,0,0,-0.0353452,0,-0.00039689,
5.75,0,0,-0.0330992,0,-0.000360708,
5.79167,0,0,-0.0309026,0,-0.000324567,
5.83333,0,0,-0.0287558,0,-0.000288487,
5.875,0,0,-0.0266593,0,-0.000252493,
5.91667,0,0,-0.0246137,0,-0.000216627,
5.95833,0,0,-0.0226196,0,-0.000180958,
6,0,0,-0.0206772,0,-0.000145568,
6.04167,0,0,-0.0187864,0,-0.000110533,
6.08333,0,0,-0.0169463,0,-7.5897e-05,
6.125,0,0,-0.0151559,0,-4.16697e-05,
6.16667,0,0,-0.0134141,0,-7.84339e-06,
6.20833,0,0,-0.0117202,0,2.5592e-05,
6.25,0,0,-0.0100732,0,5.86436e-05,
6.29167,0,0,-0.00847229,0,9.13152e-05,
6.33333,0,0,-0.00691666,0,0.000123609,
6.375,0,0,-0.00540551,0,0.000155525,
6.41667,0,0,-0.00393808,0,0.000187063,
6.45833,0,0,-0.00251359,0,0.000218221,
6.5,0,0,-0.00113127,0,0.000248998,
6.54167,0,0,0.00020965,0,0.000279392,
6.58333,0,0,0.00150994,0,0.000309404,
6.625,0,0,0.00277037,0,0.000339032,
6.66667,0,0,0.00399169,0,0.000368278,
6.70833,0,0,0.00517465,0,0.000397139,
6.75,0,0,0.00632001,0,0.000425617,
6.79167,0,0,0.00742851,0,0.000453709,
6.83333,0,0,0.0085009,0,0.000481417,
6.875,0,0,0.00953792,0,0.000508741,
6.91667,0,0,0.0105403,0,0.00053568,
6.95833,0,0,0.0115088,0,0.000562236,
7,0,0,0.0124441,0,0.000588409,
7.04167,0,0,0.013347,0,0.000614201,
7.08333,0,0,0.0142181,0,0.000639612,
7.125,0,0,0.0150582,0,0.000664643,
7.16667,0,0,0.015868,0,0.000689295,
7.20833,0,0,0.0166482,0,0.000713569,
7.25,0,0,0.0173994,0,0.000737468,
7.29167,0,0,0.0181224,0,0.000760994,
7.33333,0,0,0.0188178,0,0.000784151,
7.375,0,0,0.0194863,0,0.000806942,
7.41667,0,0,0.0201285,0,0.000829372,
7.45833,0,0,0.020745,0,0.000851445,
7.5,0,0,0.0213366,0,0.000873171,
7.54167,0,0,0.0219038,0,0.000894562,
7.58333,0,0,0.0224472,0,0.000915629,
7.625,0,0,0.0229675,0,0.000936379,
7.66667,0,0,0.0234651,0,0.000956817,
7.70833,0,0,0.0239404,0,0.000976946,
7.75,0,0,0.024394,0,0.000996769,
7.79167,0,0,0.0248262,0,0.00101628,
7.83333,0,0,0.025237,0,0.00103549,
7.875,0,0,0.0256265,0,0.00105443,
7.91667,0,0,0.0260054,0,0.00107365,
7.95833,0,0,0.026306,0,0.00109169,
8,0,0,0.0266883,0,0.00110966,
8.04171,0,0,0.0270882,0,0.00112865,
8.08368,0,0,0.027356,0,0.00114741,
8.12617,0,0,0.027663,0,0.00116444,
8.16946,0,0,0.0279532,0,0.00118155,
8.21382,0,0,0.0282265,0,0.00119868,
8.25952,0,0,0.0284905,0,0.00121584,
8.30685,0,0,0.0287449,0,0.00123321,
8.35611,0,0,0.0289897,0,0.00125089,
8.40762,0,0,0.0292252,0,0.00126894,
8.46168,0,0,0.0294507,0,0.00128744,
8.51865,0,0,0.0296655,0,0.00130645,
8.57889,0,0,0.0298682,0,0.00132601,
8.64276,0,0,0.0300573,0,0.00134616,
8.71067,0,0,0.0302305,0,0.00136694,
8.78306,0,0,0.0303855,0,0.00138836,
8.86037,0,0,0.0305193,0,0.00141045,
8.94309,0,0,0.0306285,0,0.00143321,
9.03174,0,0,0.0307094,0,0.00145664,
9.12689,0,0,0.0307578,0,0.00148072,
9.22912,0,0,0.0307692,0,0.00150544,
9.33908,0,0,0.0307387,0,0.00153075,
9.45746,0,0,0.0306614,0,0.00155661,
9.58501,0,0,0.0305322,0,0.00158296,
9.72253,0,0,0.0303457,0,0.00160972,
9.87088,0,0,0.0300967,0,0.00163682,
10.031,0,0,0.0297802,0,0.00166415,
10.2039,0,0,0.0293922,0,0.0016916,
10.3906,0,0,0.0289294,0,0.00171906,
10.5924,0,0,0.0283884,0,0.0017464,
10.8105,0,0,0.0277683,0,0.0017735,
11.0463,0,0,0.0270696,0,0.00180022,
11.3012,0,0,0.0262929,0,0.00182647,
11.5769,0,0,0.0254421,0,0.00185211,
11.8751,0,0,0.0245226,0,0.00187706,
12.1977,0,0,0.0235411,0,0.00190122,
12.5466,0,0,0.0225072,0,0.00192453,
12.9242,0,0,0.0214314,0,0.00194692,
13.3327,0,0,0.0203262,0,0.00196836,
13.7748,0,0,0.0192055,0,0.00198883,
14.2532,0,0,0.0180832,0,0.00200834,
14.7709,0,0,0.0169742,0,0.00202691,
15.3312,0,0,0.0158925,0,0.00204458,
15.9377,0,0,0.0148517,0,0.00206139,
16.594,0,0,0.0138635,0,0.00207742,
17.3044,0,0,0.0129369,0,0.00209274,
18.0733,0,0,0.0120794,0,0.00210739,
18.9056,0,0,0.0112942,0,0.00212131,
19.8064,0,0,0.0105821,0,0.00213444,
20.7816,0,0,0.00994038,0,0.00214697,
21.8371,0,0,0.00936224,0,0.00215924,
22.9796,0,0,0.00883792,0,0.00217147,
24.2163,0,0,0.0083542,0,0.00218374,
25.5551,0,0,0.0078963,0,0.0021961,
27.0042,0,0,0.00744743,0,0.00220865,
28.5729,0,0,0.00698984,0,0.00222146,
30.271,0,0,0.00650544,0,0.00223453,
32.1091,0,0,0.00597646,0,0.00224781,
34.0989,0,0,0.00538754,0,0.00226119,
36.2529,0,0,0.00472101,0,0.00227467,
38.5845,0,0,0.00396817,0,0.00228815,
41.1085,0,0,0.00316625,0,0.00230146,
43.8407,0,0,0.00215908,0,0.00231236,
46.7983,0,0,0.00111192,0,0.00231876,
50,0,0,0.00208775,0,0.00233493,

