06a87cc905b5c7c5205408bc58e973dae114e40d 
X,Z,x_velocity,cp,uw_b,cf,
1,0,0,-0.240267,0,0,
1,9,0,-0.127401,0,0,
1,1.01284,0.478294,-0.232695,-0.0102426,0,
1,0.000308731,0.000510282,-0.240265,-2.0285e-14,0,
1,0.000654158,0.00105645,-0.240266,-8.78662e-13,0,
1,0.00104139,0.00163778,-0.240265,-1.10649e-11,0,
1,0.00147619,0.00225122,-0.240266,-7.36957e-11,0,
1,0.00196502,0.0028907,-0.240265,-3.36616e-10,0,
1,0.00251518,0.00354615,-0.240265,-1.19532e-09,0,
1,0.0031349,0.00420179,-0.240264,-3.51684e-09,0,
1,0.00383341,0.00483418,-0.240265,-8.81454e-09,0,
1,0.00462115,0.00540912,-0.240264,-1.8729e-08,0,
1,0.00550983,0.00587806,-0.240264,-3.15774e-08,0,
1,0.00651264,0.00617287,-0.240263,-2.93673e-08,0,
1,0.00764438,0.00620083,-0.240263,6.15813e-08,0,
1,0.00892169,0.00584161,-0.240261,4.70505e-07,0,
1,0.0103632,0.00495543,-0.24026,1.7787e-06,0,
1,0.0119898,0.00341263,-0.240258,5.14409e-06,0,
1,0.0138248,0.00114544,-0.240255,1.21888e-05,0,
1,0.0158944,-0.00181362,-0.240249,2.43095e-05,0,
1,0.0182274,-0.00535006,-0.24024,4.17013e-05,0,
1,0.0208562,-0.00933656,-0.240227,6.30187e-05,0,
1,0.0238164,-0.0136843,-0.24021,8.66437e-05,0,
1,0.0271475,-0.0183492,-0.240188,0.00011133,0,
1,0.0308929,-0.0233127,-0.240163,0.000136184,0,
1,0.0351001,-0.0285603,-0.240132,0.000160419,0,
1,0.0398209,-0.0340658,-0.240099,0.000183194,0,
1,0.0451115,-0.0397809,-0.240063,0.000203534,0,
1,0.0510323,-0.0456302,-0.240027,0.000220333,0,
1,0.057648,-0.05151,-0.239991,0.000232393,0,
1,0.0650269,-0.057292,-0.239959,0.000238521,0,
1,0.0732406,-0.0628303,-0.239934,0.00023784,0,
1,0.0823632,-0.0679787,-0.239919,0.000229339,0,
1,0.0924701,-0.0726092,-0.23992,0.000212772,0,
1,0.103636,-0.0766169,-0.239941,0.000188877,0,
1,0.115935,-0.0799243,-0.239985,0.000158183,0,
1,0.129436,-0.0824843,-0.240058,0.000121577,0,
1,0.144202,-0.0842781,-0.240161,8.01601e-05,0,
1,0.160284,-0.0853121,-0.240295,3.50426e-05,0,
1,0.177724,-0.0856103,-0.240461,-1.28615e-05,0,
1,0.196544,-0.0852077,-0.240654,-6.28884e-05,0,
1,0.21675,-0.0841442,-0.240873,-0.00011458,0,
1,0.238323,-0.0824614,-0.241112,-0.000167576,0,
1,0.26122,-0.0802006,-0.241367,-0.000221492,0,
1,0.28537,-0.077403,-0.24163,-0.000275849,0,
1,0.310673,-0.0741107,-0.241895,-0.000329999,0,
1,0.337003,-0.0703673,-0.242155,-0.000383108,0,
1,0.364206,-0.0662194,-0.242403,-0.000434184,0,
1,0.392107,-0.0617169,-0.242634,-0.000482114,0,
1,0.420509,-0.0569136,-0.24284,-0.000525721,0,
1,0.449206,-0.0518667,-0.243019,-0.000563792,0,
1,0.477982,-0.0466362,-0.243165,-0.000595158,0,
1,0.506624,-0.041282,-0.243278,-0.000618782,0,
1,0.534925,-0.0358593,-0.243355,-0.000634084,0,
1,0.562692,-0.0304072,-0.243398,-0.000641323,0,
1,0.589754,-0.0249324,-0.243404,-0.00064263,0,
1,0.615961,-0.0193817,-0.243371,-0.000642769,0,
1,0.641193,-0.0136206,-0.243293,-0.00064915,0,
1,0.665359,-0.00743426,-0.243162,-0.000685568,0,
1,0.688396,-0.000466699,-0.242973,-0.000765359,0,
1,0.710271,0.00785703,-0.242723,-0.00091695,0,
1,0.730976,0.0182799,-0.242425,-0.00117101,0,
1,0.750529,0.0315167,-0.242093,-0.00155253,0,
1,0.768969,0.0478959,-0.241742,-0.00207795,0,
1,0.78635,0.0670643,-0.241378,-0.0027429,0,
1,0.802743,0.0881572,-0.241011,-0.0035037,0,
1,0.818232,0.110263,-0.240651,-0.00430366,0,
1,0.832689,0.1324,-0.240292,-0.00509468,0,
1,0.846039,0.153853,-0.239943,-0.00584062,0,
1,0.858357,0.174324,-0.239601,-0.00652416,0,
1,0.869723,0.193666,-0.239268,-0.00714044,0,
1,0.880212,0.211817,-0.238942,-0.00769039,0,
1,0.889898,0.228775,-0.238625,-0.0081787,0,
1,0.898852,0.2446,-0.238316,-0.00860541,0,
1,0.907141,0.259398,-0.238012,-0.00897234,0,
1,0.914826,0.273287,-0.237713,-0.00928989,0,
1,0.921966,0.286367,-0.237421,-0.00956521,0,
1,0.928616,0.298725,-0.237137,-0.00980274,0,
1,0.934823,0.310435,-0.236861,-0.0100065,0,
1,0.940633,0.321563,-0.236594,-0.01018,0,
1,0.946088,0.332168,-0.236335,-0.0103264,0,
1,0.951224,0.342304,-0.236085,-0.0104486,0,
1,0.956076,0.352021,-0.235843,-0.010549,0,
1,0.960675,0.361363,-0.235609,-0.0106297,0,
1,0.965047,0.370372,-0.235382,-0.0106926,0,
1,0.969219,0.379086,-0.235162,-0.0107393,0,
1,0.973211,0.38754,-0.234948,-0.010771,0,
1,0.977045,0.395765,-0.23474,-0.0107889,0,
1,0.980739,0.403793,-0.234536,-0.0107941,0,
1,0.984308,0.41165,-0.234338,-0.0107871,0,
1,0.987768,0.419361,-0.234144,-0.0107686,0,
1,0.991131,0.42695,-0.233954,-0.0107391,0,
1,0.99441,0.434439,-0.233767,-0.010699,0,
1,0.997615,0.441848,-0.233583,-0.0106485,0,
1,1.00076,0.449194,-0.233401,-0.0105877,0,
1,1.00384,0.456496,-0.233222,-0.0105167,0,
1,1.00688,0.46377,-0.233045,-0.0104354,0,
1,1.00988,0.471032,-0.232869,-0.0103439,0,
1,1.01581,0.485652,-0.232521,-0.010129,0,
1,1.01882,0.493205,-0.232343,-0.0100006,0,
1,1.02188,0.500975,-0.232163,-0.00985673,0,
1,1.025,0.508987,-0.231979,-0.00969586,0,
1,1.02818,0.517269,-0.231792,-0.0095162,0,
1,1.03144,0.525855,-0.2316,-0.00931566,0,
1,1.03478,0.534779,-0.231405,-0.0090911,0,
1,1.03822,0.54408,-0.231205,-0.00883861,0,
1,1.04177,0.553797,-0.231003,-0.00855791,0,
1,1.04544,0.563959,-0.230798,-0.00824664,0,
1,1.04925,0.574591,-0.230592,-0.00790066,0,
1,1.05321,0.585715,-0.230383,-0.00751713,0,
1,1.05735,0.59734,-0.230174,-0.00709351,0,
1,1.06169,0.609463,-0.229963,-0.0066282,0,
1,1.06626,0.622055,-0.229754,-0.00612092,0,
1,1.07108,0.635047,-0.229546,-0.00557419,0,
1,1.07618,0.648325,-0.229342,-0.00499461,0,
1,1.0816,0.661704,-0.229145,-0.00439462,0,
1,1.08738,0.674933,-0.228956,-0.00379359,0,
1,1.09357,0.687703,-0.228778,-0.00321721,0,
1,1.10022,0.699697,-0.228615,-0.0026936,0,
1,1.10739,0.710671,-0.228465,-0.00224672,0,
1,1.11514,0.720523,-0.228328,-0.00189054,0,
1,1.12354,0.729324,-0.2282,-0.0016269,0,
1,1.13268,0.737275,-0.228073,-0.0014456,0,
1,1.14266,0.744642,-0.227939,-0.00132992,0,
1,1.15357,0.751681,-0.227789,-0.00126144,0,
1,1.16554,0.758598,-0.227617,-0.00122333,0,
1,1.1787,0.765544,-0.227416,-0.0012031,0,
1,1.1932,0.772615,-0.227181,-0.00119194,0,
1,1.2092,0.779869,-0.226907,-0.00118469,0,
1,1.22689,0.787341,-0.226589,-0.00117827,0,
1,1.24659,0.795091,-0.226215,-0.0011698,0,
1,1.26879,0.803208,-0.225774,-0.00116028,0,
1,1.29378,0.811697,-0.225255,-0.00115273,0,
1,1.3219,0.820604,-0.224601,-0.00110737,0,
1,1.35351,0.829912,-0.223829,-0.00105912,0,
1,1.389,0.839555,-0.222959,-0.00101603,0,
1,1.42882,0.849529,-0.22195,-0.000974758,0,
1,1.47342,0.859881,-0.220786,-0.000934035,0,
1,1.52332,0.870686,-0.219444,-0.000891491,0,
1,1.57905,0.882065,-0.217901,-0.000845052,0,
1,1.64119,0.894189,-0.216136,-0.000792476,0,
1,1.71033,0.907269,-0.214129,-0.000731214,0,
1,1.78711,0.921508,-0.211858,-0.000658655,0,
1,1.87215,0.936994,-0.209304,-0.00057347,0,
1,1.9661,0.953554,-0.206446,-0.000476958,0,
1,2.06959,0.970572,-0.203273,-0.000374254,0,
1,2.18321,0.986914,-0.199779,-0.000272463,0,
1,2.30752,1.00116,-0.196043,-0.000138046,0,
1,2.44299,1.01175,-0.192069,-4.46322e-05,0,
1,2.59002,1.01738,-0.187898,-3.68583e-06,0,
1,2.74885,1.01803,-0.183634,1.17425e-06,0,
1,2.91959,1.01551,-0.179348,1.0523e-07,0,
1,3.10217,1.01227,-0.175103,5.71355e-08,0,
1,3.2963,1.00964,-0.170946,4.50305e-08,0,
1,3.50146,1.00777,-0.166908,3.59942e-08,0,
1,3.7169,1.00625,-0.163023,3.13591e-08,0,
1,3.94163,1.0048,-0.159321,2.90083e-08,0,
1,4.17441,1.00336,-0.15583,2.69749e-08,0,
1,4.41376,1.00196,-0.152568,2.47247e-08,0,
1,4.65805,1.00067,-0.149549,2.23676e-08,0,
1,4.90545,0.999489,-0.146779,2.01592e-08,0,
1,5.15407,0.998425,-0.144256,1.81623e-08,0,
1,5.40194,0.99747,-0.141978,1.64227e-08,0,
1,5.64716,0.996614,-0.139936,1.49995e-08,0,
1,5.88785,0.995829,-0.138117,1.39826e-08,0,
1,6.12229,0.995081,-0.136507,1.31314e-08,0,
1,6.34896,0.9944,-0.135091,1.16219e-08,0,
1,6.56652,0.99398,-0.133852,8.95252e-09,0,
1,6.77388,0.994122,-0.132773,1.02123e-09,0,
1,6.97022,0.994779,-0.131836,6.71676e-09,0,
1,7.15495,0.994793,-0.131021,1.8459e-06,0,
1,7.32773,0.991649,-0.130321,1.93114e-05,0,
1,7.48842,0.982731,-0.129724,8.16512e-05,0,
1,7.63711,0.967481,-0.129238,0.000223273,0,
1,7.77403,0.947889,-0.128826,0.000424135,0,
1,7.89956,0.926347,-0.128479,0.000598163,0,
1,8.01417,0.904608,-0.128217,0.000774322,0,
1,8.11843,0.884021,-0.127995,0.00092861,0,
1,8.21296,0.86514,-0.127825,0.00105356,0,
1,8.29839,0.847906,-0.127689,0.00115084,0,
1,8.3754,0.831954,-0.127588,0.00122508,0,
1,8.44464,0.816855,-0.127512,0.00128171,0,
1,8.50675,0.80226,-0.127457,0.0013267,0,
1,8.56236,0.787947,-0.127419,0.00136382,0,
1,8.61206,0.773804,-0.127391,0.00139519,0,
1,8.6564,0.759775,-0.127372,0.00142207,0,
1,8.69591,0.745805,-0.12736,0.00144039,0,
1,8.73107,0.731856,-0.127353,0.00145726,0,
1,8.76232,0.717932,-0.12735,0.00147148,0,
1,8.79007,0.704038,-0.127348,0.00148272,0,
1,8.81469,0.690176,-0.127349,0.00149121,0,
1,8.83651,0.676342,-0.127351,0.00149715,0,
1,8.85584,0.66253,-0.127354,0.00150075,0,
1,8.87295,0.648732,-0.127358,0.00150217,0,
1,8.8881,0.634936,-0.127361,0.00150159,0,
1,8.90149,0.62113,-0.127365,0.00149914,0,
1,8.91333,0.607299,-0.127369,0.00149495,0,
1,8.92379,0.593423,-0.127372,0.00148912,0,
1,8.93303,0.579481,-0.127376,0.00148174,0,
1,8.9412,0.565451,-0.127379,0.00147284,0,
1,8.9484,0.551304,-0.127382,0.00146243,0,
1,8.95476,0.537009,-0.127385,0.00145046,0,
1,8.96038,0.522533,-0.127387,0.00143684,0,
1,8.96533,0.507837,-0.127389,0.0014214,0,
1,8.9697,0.492876,-0.127391,0.0014039,0,
1,8.97356,0.477603,-0.127392,0.00138401,0,
1,8.97696,0.461961,-0.127394,0.00136127,0,
1,8.97996,0.445888,-0.127395,0.00133513,0,
1,8.98261,0.429312,-0.127396,0.00130522,0,
1,8.98494,0.412145,-0.127397,0.00127481,0,
1,8.98699,0.394142,-0.127398,0.00122561,0,
1,8.98881,0.374911,-0.127398,0.00116446,0,
1,8.99041,0.354082,-0.127399,0.00108681,0,
1,8.99182,0.331276,-0.1274,0.000987649,0,
1,8.99306,0.306126,-0.1274,0.0008627,0,
1,8.99416,0.27831,-0.1274,0.000710602,0,
1,8.99512,0.247382,-0.1274,0.00049828,0,
1,8.99597,0.213339,-0.127401,0.000281577,0,
1,8.99672,0.177875,-0.127401,0.000127491,0,
1,8.99739,0.143482,-0.127401,4.466e-05,0,
1,8.99797,0.111848,-0.127401,1.20366e-05,0,
1,8.99848,0.0835642,-0.127401,2.42819e-06,0,
1,8.99894,0.0585573,-0.127401,3.32117e-07,0,
1,8.99934,0.0365194,-0.127401,2.40926e-08,0,
1,8.99969,0.0171099,-0.127401,5.15514e-10,0,

4,0,0,-0.108419,0,0,
4,9,0,-0.0963877,0,0,
4,1.05136,0.674048,-0.116381,-0.0042303,0,
4,0.000303409,-0.00579354,-0.108423,7.04631e-11,0,
4,0.00062865,-0.0118677,-0.10842,2.87355e-09,0,
4,0.000979511,-0.0182645,-0.108423,3.34449e-08,0,
4,0.00136016,-0.0250202,-0.108421,2.07263e-07,0,
4,0.00177519,-0.0321634,-0.108423,8.92846e-07,0,
4,0.0022297,-0.0397032,-0.108422,3.03709e-06,0,
4,0.00272934,-0.0476056,-0.108424,8.69141e-06,0,
4,0.00328037,-0.0557458,-0.108423,2.14759e-05,0,
4,0.00388979,-0.0638413,-0.108425,4.58024e-05,0,
4,0.00456537,-0.0714263,-0.108425,8.30353e-05,0,
4,0.00531578,-0.0779848,-0.10843,0.000126463,0,
4,0.0061507,-0.0832146,-0.108434,0.000163257,0,
4,0.0070809,-0.0871442,-0.108443,0.000184043,0,
4,0.00811839,-0.0900017,-0.108453,0.000187495,0,
4,0.00927657,-0.0920452,-0.108469,0.000176748,0,
4,0.0105703,-0.0934831,-0.108488,0.000155273,0,
4,0.0120162,-0.0944638,-0.108514,0.000125442,0,
4,0.0136326,-0.0950878,-0.108544,8.85557e-05,0,
4,0.0154398,-0.0954221,-0.108582,4.51775e-05,0,
4,0.0174603,-0.095511,-0.108626,-4.59748e-06,0,
4,0.0197189,-0.0953832,-0.108679,-6.09751e-05,0,
4,0.0222427,-0.095057,-0.108741,-0.000124366,0,
4,0.0250617,-0.0945429,-0.108814,-0.000195332,0,
4,0.0282081,-0.0938459,-0.108898,-0.000274556,0,
4,0.0317171,-0.0929668,-0.108995,-0.00036282,0,
4,0.0356266,-0.0919028,-0.109106,-0.000460997,0,
4,0.039977,-0.0906483,-0.109232,-0.00057004,0,
4,0.0448114,-0.0891953,-0.109376,-0.000690971,0,
4,0.0501747,-0.0875335,-0.109538,-0.000824871,0,
4,0.056114,-0.0856506,-0.10972,-0.000972866,0,
4,0.062677,-0.0835326,-0.109922,-0.00113611,0,
4,0.0699123,-0.0811635,-0.110146,-0.00131575,0,
4,0.0778675,-0.0785259,-0.110391,-0.00151291,0,
4,0.0865883,-0.0756009,-0.110659,-0.00172866,0,
4,0.0961173,-0.0723684,-0.110948,-0.00196395,0,
4,0.106492,-0.0688075,-0.111258,-0.00221959,0,
4,0.117744,-0.064897,-0.111587,-0.00249616,0,
4,0.129894,-0.0606156,-0.111933,-0.00279401,0,
4,0.142956,-0.0559436,-0.112293,-0.00311316,0,
4,0.156928,-0.050863,-0.112666,-0.00345327,0,
4,0.171798,-0.0453592,-0.113046,-0.00381362,0,
4,0.187537,-0.0394227,-0.113432,-0.00419313,0,
4,0.2041,-0.0330504,-0.113819,-0.00459041,0,
4,0.221432,-0.026247,-0.114205,-0.005004,0,
4,0.239458,-0.0190249,-0.114586,-0.0054326,0,
4,0.258095,-0.0114011,-0.114958,-0.00587425,0,
4,0.27725,-0.00339044,-0.115321,-0.00632338,0,
4,0.296825,0.0049949,-0.115676,-0.00677391,0,
4,0.316717,0.0137337,-0.116019,-0.00722698,0,
4,0.336828,0.0227878,-0.116347,-0.00768471,0,
4,0.357066,0.0321144,-0.116649,-0.00814195,0,
4,0.377348,0.0416822,-0.116908,-0.00859484,0,
4,0.397605,0.0514784,-0.117195,-0.00909048,0,
4,0.417786,0.0616214,-0.11716,-0.00962828,0,
4,0.437857,0.0725701,-0.116667,-0.00985927,0,
4,0.457804,0.0848001,-0.116191,-0.0101002,0,
4,0.477632,0.0983106,-0.115926,-0.0103419,0,
4,0.497368,0.112825,-0.115832,-0.0105679,0,
4,0.517057,0.128036,-0.115841,-0.0107661,0,
4,0.536763,0.143761,-0.115888,-0.0109309,0,
4,0.556564,0.159973,-0.115932,-0.011061,0,
4,0.576557,0.176762,-0.115958,-0.0111569,0,
4,0.596848,0.194279,-0.115967,-0.0112185,0,
4,0.617561,0.212698,-0.115965,-0.0112439,0,
4,0.637962,0.231438,-0.115956,-0.0112314,0,
4,0.657495,0.25,-0.115948,-0.0111828,0,
4,0.676218,0.268392,-0.115944,-0.0111005,0,
4,0.694189,0.286613,-0.115943,-0.0109864,0,
4,0.711463,0.304662,-0.115946,-0.0108425,0,
4,0.728096,0.322542,-0.115952,-0.0106708,0,
4,0.744138,0.34026,-0.115959,-0.0104732,0,
4,0.759639,0.357819,-0.115968,-0.0102518,0,
4,0.774643,0.375219,-0.115979,-0.0100091,0,
4,0.789195,0.392444,-0.115991,-0.00974803,0,
4,0.803334,0.409467,-0.116006,-0.00947211,0,
4,0.817097,0.426246,-0.116023,-0.00918562,0,
4,0.830518,0.442732,-0.116043,-0.00889312,0,
4,0.843629,0.458876,-0.116064,-0.00859705,0,
4,0.856459,0.474642,-0.116088,-0.00829966,0,
4,0.869035,0.490008,-0.116112,-0.00800271,0,
4,0.881383,0.504963,-0.116136,-0.00770745,0,
4,0.893524,0.519503,-0.11616,-0.00741476,0,
4,0.905481,0.533622,-0.116183,-0.00712533,0,
4,0.917272,0.547299,-0.116203,-0.00684294,0,
4,0.928915,0.560499,-0.116218,-0.00657068,0,
4,0.940428,0.573186,-0.11623,-0.00630842,0,
4,0.951826,0.585334,-0.116238,-0.00605751,0,
4,0.963124,0.596936,-0.116246,-0.00581817,0,
4,0.974334,0.608003,-0.116255,-0.0055896,0,
4,0.98547,0.618568,-0.116266,-0.00537155,0,
4,0.996544,0.628672,-0.11628,-0.00516342,0,
4,1.00757,0.638367,-0.116297,-0.00496425,0,
4,1.01855,0.647704,-0.116317,-0.00477282,0,
4,1.0295,0.656733,-0.116338,-0.00458772,0,
4,1.04044,0.6655,-0.11636,-0.00440743,0,
4,1.0623,0.682432,-0.116399,-0.00405433,0,
4,1.07328,0.690716,-0.116412,-0.00386553,0,
4,1.08432,0.698934,-0.11642,-0.0036692,0,
4,1.09543,0.707074,-0.116425,-0.00346916,0,
4,1.10661,0.715099,-0.116429,-0.00326251,0,
4,1.11788,0.722969,-0.11643,-0.00305159,0,
4,1.12925,0.730642,-0.116428,-0.00283922,0,
4,1.14073,0.738072,-0.116424,-0.00262855,0,
4,1.15233,0.745217,-0.116418,-0.00242294,0,
4,1.16408,0.75204,-0.116409,-0.00222576,0,
4,1.17599,0.758509,-0.116396,-0.0020402,0,
4,1.18806,0.764604,-0.116381,-0.00186898,0,
4,1.20034,0.770318,-0.116363,-0.00171415,0,
4,1.21282,0.775659,-0.116342,-0.00157698,0,
4,1.22554,0.780646,-0.116319,-0.00145788,0,
4,1.23852,0.785311,-0.116292,-0.00135648,0,
4,1.25179,0.789691,-0.116263,-0.00127178,0,
4,1.26537,0.793832,-0.116232,-0.00120228,0,
4,1.2793,0.797775,-0.116198,-0.00114621,0,
4,1.29362,0.801565,-0.116161,-0.00110169,0,
4,1.30836,0.805243,-0.116123,-0.00106673,0,
4,1.32357,0.808844,-0.116082,-0.00103993,0,
4,1.3393,0.812405,-0.116038,-0.00102592,0,
4,1.3556,0.816,-0.116008,-0.00100032,0,
4,1.37252,0.819718,-0.115987,-0.000976335,0,
4,1.39015,0.823605,-0.115961,-0.000953366,0,
4,1.40855,0.827666,-0.115927,-0.000930956,0,
4,1.42781,0.83189,-0.115885,-0.000908957,0,
4,1.44801,0.836267,-0.115835,-0.000887228,0,
4,1.46926,0.840797,-0.115778,-0.000865843,0,
4,1.49167,0.845495,-0.115716,-0.000844518,0,
4,1.51537,0.850389,-0.115648,-0.000822854,0,
4,1.54091,0.855589,-0.11557,-0.00080058,0,
4,1.56949,0.861318,-0.115481,-0.000776832,0,
4,1.60144,0.867643,-0.115376,-0.000751039,0,
4,1.63713,0.874615,-0.115252,-0.000722754,0,
4,1.67693,0.882268,-0.115107,-0.000691558,0,
4,1.72128,0.890628,-0.114934,-0.000657072,0,
4,1.77062,0.899687,-0.114732,-0.00061896,0,
4,1.82542,0.909391,-0.11449,-0.000577397,0,
4,1.88618,0.91962,-0.114211,-0.000532308,0,
4,1.95343,0.930202,-0.113874,-0.000483471,0,
4,2.02768,0.941003,-0.113508,-0.00040409,0,
4,2.10949,0.951814,-0.113104,-0.000312371,0,
4,2.19939,0.962133,-0.112636,-0.000220103,0,
4,2.29789,0.971224,-0.112115,-0.000136009,0,
4,2.40551,0.97835,-0.111536,-6.92403e-05,0,
4,2.52268,0.982975,-0.110906,-2.51593e-05,0,
4,2.64979,0.984964,-0.11023,-3.40968e-06,0,
4,2.78715,0.984736,-0.109517,2.32161e-06,0,
4,2.93497,0.983224,-0.108772,1.4149e-06,0,
4,3.09333,0.981531,-0.108004,2.83476e-07,0,
4,3.26217,0.980409,-0.107224,2.67766e-08,0,
4,3.44125,0.979992,-0.106441,4.83902e-09,0,
4,3.63018,0.97999,-0.105664,1.6565e-09,0,
4,3.82836,0.980056,-0.104898,1.77765e-09,0,
4,4.03501,0.980015,-0.104152,2.83148e-09,0,
4,4.24915,0.979865,-0.10343,3.50996e-09,0,
4,4.46961,0.979669,-0.102739,3.57958e-09,0,
4,4.69507,0.97948,-0.102081,3.31034e-09,0,
4,4.92406,0.979315,-0.101461,3.00066e-09,0,
4,5.15502,0.97917,-0.100881,2.78624e-09,0,
4,5.3863,0.979033,-0.100342,2.73324e-09,0,
4,5.61626,0.978892,-0.0998437,2.94746e-09,0,
4,5.84328,0.978731,-0.0993875,3.70286e-09,0,
4,6.06579,0.978554,-0.0989723,5.57626e-09,0,
4,6.28238,0.978427,-0.0985968,6.3941e-09,0,
4,6.49173,0.978512,-0.098259,-2.73183e-08,0,
4,6.69275,0.978977,-0.097956,-2.28968e-07,0,
4,6.88453,0.979662,-0.0976841,-3.13794e-07,0,
4,7.06634,0.979618,-0.0974389,4.23936e-06,0,
4,7.23771,0.976981,-0.0972217,2.86056e-05,0,
4,7.39831,0.969667,-0.0970286,9.51936e-05,0,
4,7.54803,0.956706,-0.0968732,0.000220608,0,
4,7.68693,0.938934,-0.0967418,0.000378703,0,
4,7.81519,0.918224,-0.0966172,0.000535005,0,
4,7.93313,0.896583,-0.0965226,0.000702159,0,
4,8.04115,0.875672,-0.0964349,0.000858873,0,
4,8.13974,0.856341,-0.0963647,0.000992301,0,
4,8.22941,0.838723,-0.0963085,0.0010998,0,
4,8.31073,0.822547,-0.0962681,0.0011846,0,
4,8.38429,0.807399,-0.0962424,0.00125056,0,
4,8.45065,0.792885,-0.0962291,0.00130245,0,
4,8.5104,0.778714,-0.0962249,0.00134476,0,
4,8.56407,0.764711,-0.0962266,0.00138018,0,
4,8.61222,0.750791,-0.0962318,0.00141026,0,
4,8.65533,0.736929,-0.0962393,0.00143592,0,
4,8.69387,0.723123,-0.0962482,0.00145772,0,
4,8.7283,0.709368,-0.0962589,0.00147404,0,
4,8.75901,0.695651,-0.0962704,0.0014853,0,
4,8.78637,0.681976,-0.0962815,0.00149382,0,
4,8.81074,0.668358,-0.0962922,0.00149881,0,
4,8.83242,0.654804,-0.0963023,0.00150058,0,
4,8.85169,0.641318,-0.0963119,0.00149947,0,
4,8.86881,0.627896,-0.0963207,0.00149579,0,
4,8.88402,0.614532,-0.0963289,0.00148982,0,
4,8.89751,0.601216,-0.0963364,0.00148183,0,
4,8.90949,0.587932,-0.0963431,0.00147206,0,
4,8.92011,0.574663,-0.0963492,0.00146072,0,
4,8.92952,0.561387,-0.0963546,0.00144799,0,
4,8.93787,0.54808,-0.0963593,0.00143401,0,
4,8.94526,0.534713,-0.0963635,0.00141886,0,
4,8.95182,0.521254,-0.0963672,0.00140257,0,
4,8.95762,0.507667,-0.0963704,0.00138512,0,
4,8.96276,0.493913,-0.0963731,0.0013664,0,
4,8.96731,0.479947,-0.0963755,0.00134625,0,
4,8.97134,0.465721,-0.0963775,0.00132439,0,
4,8.97491,0.45118,-0.0963792,0.00130047,0,
4,8.97807,0.436263,-0.0963806,0.00127401,0,
4,8.98087,0.420901,-0.0963819,0.00124437,0,
4,8.98334,0.405018,-0.0963828,0.00121095,0,
4,8.98553,0.388519,-0.0963838,0.00117762,0,
4,8.98747,0.371157,-0.0963844,0.00112465,0,
4,8.98919,0.352529,-0.0963852,0.00105985,0,
4,8.9907,0.332279,-0.0963856,0.000978999,0,
4,8.99205,0.310065,-0.0963862,0.000877849,0,
4,8.99324,0.285566,-0.0963864,0.000753442,0,
4,8.99429,0.258444,-0.0963868,0.000594597,0,
4,8.99522,0.228359,-0.0963868,0.000391754,0,
4,8.99605,0.19584,-0.0963871,0.000214894,0,
4,8.99677,0.162807,-0.096387,9.40986e-05,0,
4,8.99742,0.13127,-0.0963873,3.23339e-05,0,
4,8.99799,0.102441,-0.0963871,8.67749e-06,0,
4,8.9985,0.0766709,-0.0963874,1.75995e-06,0,
4,8.99894,0.0538309,-0.0963871,2.43022e-07,0,
4,8.99934,0.0336368,-0.0963875,1.78096e-08,0,
4,8.99969,0.0157891,-0.0963871,3.83961e-10,0,

6,0,0,0.00575533,0,0,
6,9,0,-0.0732954,0,0,
6,1.07704,0.702457,-0.0079193,-0.00250265,0,
6,0.000299862,0.00332521,0.00574836,-4.42885e-11,0,
6,0.000611645,0.00683809,0.00575397,-1.76842e-09,0,
6,0.000938257,0.0105782,0.00574852,-1.9804e-08,0,
6,0.00128281,0.0145881,0.00575277,-1.18044e-07,0,
6,0.00164864,0.0189135,0.00574844,-4.91452e-07,0,
6,0.00203939,0.0236006,0.00575166,-1.62889e-06,0,
6,0.00245897,0.0286879,0.0057481,-4.6022e-06,0,
6,0.00291168,0.0341888,0.00575047,-1.14753e-05,0,
6,0.00340221,0.0400596,0.00574726,-2.55712e-05,0,
6,0.00393573,0.0461576,0.00574859,-5.07901e-05,0,
6,0.00451788,0.0522249,0.00574484,-8.91193e-05,0,
6,0.00515491,0.0579487,0.00574403,-0.000137705,0,
6,0.00585371,0.0630876,0.00573802,-0.00018949,0,
6,0.00662185,0.0675532,0.00573319,-0.000237826,0,
6,0.00746774,0.0713875,0.00572301,-0.0002798,0,
6,0.00840063,0.0746936,0.00571239,-0.000315734,0,
6,0.00943073,0.0775828,0.0056964,-0.000347303,0,
6,0.0105693,0.080152,0.00567846,-0.000376302,0,
6,0.0118288,0.0824787,0.00565499,-0.000404226,0,
6,0.0132228,0.0846229,0.00562801,-0.000432233,0,
6,0.0147664,0.0866311,0.00559499,-0.00046123,0,
6,0.016476,0.0885397,0.0055568,-0.000491952,0,
6,0.0183694,0.0903775,0.00551161,-0.00052503,0,
6,0.0204662,0.0921682,0.00545943,-0.000561038,0,
6,0.0227875,0.0939315,0.00539883,-0.000600523,0,
6,0.0253561,0.0956842,0.00532924,-0.000644023,0,
6,0.0281964,0.0974412,0.00524938,-0.000692085,0,
6,0.0313344,0.0992158,0.0051583,-0.00074527,0,
6,0.0347975,0.10102,0.00505476,-0.000804158,0,
6,0.0386145,0.102866,0.00493763,-0.000869349,0,
6,0.042815,0.104765,0.00480565,-0.000941465,0,
6,0.0474296,0.106726,0.00465766,-0.00102114,0,
6,0.0524888,0.10876,0.00449249,-0.00110902,0,
6,0.0580229,0.110878,0.00430912,-0.00120576,0,
6,0.0640611,0.113088,0.00410664,-0.00131197,0,
6,0.0706309,0.1154,0.00388432,-0.00142828,0,
6,0.077757,0.117822,0.00364173,-0.00155523,0,
6,0.0854609,0.120364,0.00337869,-0.00169333,0,
6,0.0937597,0.123033,0.00309538,-0.00184299,0,
6,0.102665,0.125836,0.00279237,-0.00200454,0,
6,0.112183,0.12878,0.00247058,-0.00217816,0,
6,0.122315,0.131871,0.00213134,-0.00236394,0,
6,0.133052,0.135114,0.00177632,-0.0025618,0,
6,0.144384,0.138513,0.00140748,-0.00277154,0,
6,0.156292,0.14207,0.00102703,-0.00299281,0,
6,0.168754,0.14579,0.000637287,-0.00322517,0,
6,0.181744,0.149675,0.000240633,-0.00346805,0,
6,0.195237,0.153726,-0.000160622,-0.00372086,0,
6,0.209207,0.157948,-0.000564318,-0.00398296,0,
6,0.223631,0.162345,-0.000968532,-0.00425375,0,
6,0.238493,0.166923,-0.00137163,-0.00453267,0,
6,0.253785,0.171691,-0.00177236,-0.00481929,0,
6,0.269507,0.176661,-0.00216978,-0.00511327,0,
6,0.28567,0.18185,-0.00256322,-0.00541446,0,
6,0.3023,0.187277,-0.00295408,-0.00572353,0,
6,0.319433,0.192972,-0.0033376,-0.00604281,0,
6,0.337122,0.198975,-0.00369642,-0.00636739,0,
6,0.355433,0.205345,-0.00402093,-0.00669745,0,
6,0.374445,0.212156,-0.00431131,-0.00703442,0,
6,0.394252,0.219494,-0.00455445,-0.00737753,0,
6,0.414961,0.227464,-0.00483309,-0.00773755,0,
6,0.436695,0.236209,-0.00494893,-0.00826245,0,
6,0.459585,0.246244,-0.00442445,-0.00840014,0,
6,0.48378,0.258321,-0.00348954,-0.0085092,0,
6,0.508144,0.272177,-0.00288958,-0.00864343,0,
6,0.531799,0.287116,-0.00264855,-0.00877697,0,
6,0.554791,0.30274,-0.00262502,-0.00888398,0,
6,0.577166,0.318719,-0.00270239,-0.00894919,0,
6,0.598964,0.334877,-0.00279873,-0.00896697,0,
6,0.620228,0.351168,-0.00288085,-0.00893784,0,
6,0.640996,0.367609,-0.00294426,-0.00886431,0,
6,0.661304,0.384225,-0.00299794,-0.0087487,0,
6,0.681188,0.401029,-0.00305269,-0.0085927,0,
6,0.700681,0.418002,-0.00311627,-0.00839776,0,
6,0.719813,0.435098,-0.00319294,-0.00816603,0,
6,0.738612,0.452245,-0.00328491,-0.00790129,0,
6,0.757107,0.469343,-0.00339338,-0.00760957,0,
6,0.775322,0.486274,-0.00351859,-0.0072978,0,
6,0.793282,0.502916,-0.00365985,-0.00697225,0,
6,0.811008,0.519155,-0.00381601,-0.00663871,0,
6,0.828521,0.534896,-0.00398644,-0.00630253,0,
6,0.845842,0.55006,-0.00417026,-0.00596865,0,
6,0.862989,0.564578,-0.00436933,-0.00564609,0,
6,0.879979,0.5784,-0.00458327,-0.00533971,0,
6,0.896829,0.59152,-0.00480861,-0.00504726,0,
6,0.913555,0.603979,-0.00504415,-0.00476746,0,
6,0.930172,0.615839,-0.00528929,-0.00449938,0,
6,0.946694,0.627164,-0.00554404,-0.00424228,0,
6,0.963136,0.638005,-0.00580827,-0.00399548,0,
6,0.97951,0.648397,-0.00608165,-0.0037584,0,
6,0.99583,0.658363,-0.00636381,-0.00353047,0,
6,1.01211,0.667923,-0.00665438,-0.0033111,0,
6,1.02836,0.677093,-0.00695411,-0.00309962,0,
6,1.04459,0.685893,-0.00726261,-0.00289537,0,
6,1.06081,0.694343,-0.00758542,-0.00269566,0,
6,1.09329,0.710228,-0.00825755,-0.00232061,0,
6,1.10959,0.717641,-0.00860384,-0.00214943,0,
6,1.12595,0.72468,-0.00895459,-0.00199004,0,
6,1.14238,0.731342,-0.00930877,-0.00184124,0,
6,1.1589,0.737625,-0.00966894,-0.00170705,0,
6,1.17551,0.743524,-0.0100346,-0.00158871,0,
6,1.19223,0.749045,-0.0104056,-0.00148641,0,
6,1.20907,0.754215,-0.0107829,-0.00139916,0,
6,1.22605,0.759087,-0.011168,-0.00132486,0,
6,1.24318,0.763734,-0.0115628,-0.00126076,0,
6,1.26048,0.768233,-0.0119679,-0.00120437,0,
6,1.27797,0.772655,-0.0123827,-0.00115399,0,
6,1.29566,0.777046,-0.0128053,-0.00110873,0,
6,1.31357,0.781428,-0.013234,-0.00106818,0,
6,1.33173,0.785804,-0.0136679,-0.00103199,0,
6,1.35015,0.790164,-0.0141069,-0.000999621,0,
6,1.36886,0.794502,-0.0145519,-0.000970308,0,
6,1.38788,0.798819,-0.0150043,-0.000943427,0,
6,1.40725,0.803128,-0.0154655,-0.000918114,0,
6,1.42698,0.807448,-0.015937,-0.000893555,0,
6,1.44712,0.811801,-0.0164195,-0.000869226,0,
6,1.46769,0.816208,-0.0169135,-0.00084488,0,
6,1.48874,0.820681,-0.0174196,-0.00082043,0,
6,1.5103,0.825228,-0.0179383,-0.000795856,0,
6,1.53242,0.829854,-0.0184703,-0.00077116,0,
6,1.55515,0.834559,-0.0190166,-0.000746318,0,
6,1.57854,0.839346,-0.0195786,-0.000721299,0,
6,1.60265,0.844218,-0.0201574,-0.000696091,0,
6,1.62754,0.849178,-0.0207545,-0.000670688,0,
6,1.65329,0.854227,-0.0213711,-0.000645109,0,
6,1.67998,0.859367,-0.0220094,-0.000619327,0,
6,1.70768,0.864597,-0.0226693,-0.000593585,0,
6,1.73712,0.870017,-0.0233716,-0.000567716,0,
6,1.76996,0.875861,-0.0241494,-0.000540513,0,
6,1.80655,0.882156,-0.0250147,-0.000512023,0,
6,1.84728,0.888864,-0.0259693,-0.000482868,0,
6,1.89255,0.895924,-0.0270269,-0.00045335,0,
6,1.9428,0.903266,-0.0281812,-0.000423868,0,
6,1.99849,0.910864,-0.0294561,-0.000380981,0,
6,2.06009,0.918721,-0.0308556,-0.000320396,0,
6,2.1281,0.926645,-0.032369,-0.00025764,0,
6,2.20301,0.934231,-0.0340073,-0.000193937,0,
6,2.28535,0.941054,-0.0357618,-0.000134809,0,
6,2.37559,0.94673,-0.0376255,-8.48057e-05,0,
6,2.47424,0.950971,-0.039584,-4.69188e-05,0,
6,2.58172,0.953662,-0.0416179,-2.20628e-05,0,
6,2.69844,0.954936,-0.043704,-8.67347e-06,0,
6,2.82473,0.955197,-0.0458165,-3.10002e-06,0,
6,2.96084,0.955036,-0.0479305,-1.28725e-06,0,
6,3.10691,0.955036,-0.0500233,-6.07758e-07,0,
6,3.26296,0.955547,-0.0520757,-2.33818e-07,0,
6,3.42888,0.956583,-0.0540707,-7.2548e-08,0,
6,3.60438,0.95791,-0.0559914,-3.3628e-08,0,
6,3.78902,0.959244,-0.0578212,-2.67288e-08,0,
6,3.98218,0.960409,-0.0595452,-2.26549e-08,0,
6,4.18307,0.961372,-0.0611515,-1.91654e-08,0,
6,4.39071,0.962183,-0.0626324,-1.65735e-08,0,
6,4.60398,0.962904,-0.063984,-1.46447e-08,0,
6,4.82159,0.963566,-0.0652061,-1.31001e-08,0,
6,5.04218,0.964171,-0.0663014,-1.1836e-08,0,
6,5.26426,0.964711,-0.0672751,-1.10818e-08,0,
6,5.48633,0.965175,-0.0681342,-1.15168e-08,0,
6,5.70687,0.965557,-0.0688871,-1.48053e-08,0,
6,5.92439,0.965863,-0.0695428,-2.55792e-08,0,
6,6.1375,0.966138,-0.0701107,-6.05495e-08,0,
6,6.34489,0.966498,-0.0705999,-1.87942e-07,0,
6,6.5454,0.967084,-0.0710192,-6.00834e-07,0,
6,6.73802,0.967887,-0.0713763,-1.29377e-06,0,
6,6.92195,0.968409,-0.0716786,3.06029e-07,0,
6,7.09653,0.967408,-0.0719324,1.40779e-05,0,
6,7.26132,0.963107,-0.0721472,5.77147e-05,0,
6,7.41603,0.954014,-0.0723257,0.00014848,0,
6,7.56054,0.939837,-0.0724776,0.00029083,0,
6,7.6949,0.921514,-0.072599,0.000422088,0,
6,7.81927,0.900659,-0.0726933,0.000571282,0,
6,7.93391,0.87923,-0.0727665,0.000727626,0,
6,8.0392,0.858774,-0.0728167,0.000871977,0,
6,8.13555,0.839995,-0.0728562,0.000994966,0,
6,8.22344,0.82291,-0.0728872,0.00109524,0,
6,8.30339,0.807187,-0.0729172,0.00117594,0,
6,8.37592,0.792403,-0.0729472,0.00124026,0,
6,8.44155,0.778182,-0.0729783,0.00129213,0,
6,8.50082,0.764248,-0.0730091,0.00133519,0,
6,8.55423,0.750439,-0.0730385,0.00137162,0,
6,8.60229,0.736681,-0.0730657,0.00140264,0,
6,8.64545,0.722962,-0.0730903,0.0014289,0,
6,8.68417,0.709304,-0.0731126,0.0014508,0,
6,8.71885,0.695741,-0.0731328,0.00146865,0,
6,8.74989,0.682289,-0.0731517,0.0014821,0,
6,8.77763,0.668927,-0.0731696,0.00148686,0,
6,8.80241,0.655638,-0.0731855,0.00148959,0,
6,8.82452,0.642438,-0.0731996,0.0014888,0,
6,8.84423,0.629335,-0.0732121,0.00148474,0,
6,8.86181,0.61633,-0.0732231,0.0014779,0,
6,8.87746,0.60342,-0.0732328,0.00146871,0,
6,8.89139,0.590592,-0.0732414,0.00145758,0,
6,8.90379,0.577833,-0.073249,0.00144485,0,
6,8.91482,0.565123,-0.0732556,0.0014308,0,
6,8.92463,0.552438,-0.0732614,0.00141568,0,
6,8.93334,0.539753,-0.0732664,0.00139965,0,
6,8.94109,0.527038,-0.0732707,0.00138283,0,
6,8.94798,0.514261,-0.0732745,0.00136528,0,
6,8.95409,0.501388,-0.0732777,0.00134697,0,
6,8.95953,0.488379,-0.0732805,0.00132785,0,
6,8.96435,0.475194,-0.0732829,0.00130776,0,
6,8.96863,0.461788,-0.0732849,0.00128648,0,
6,8.97244,0.448111,-0.0732866,0.0012637,0,
6,8.97581,0.434108,-0.0732881,0.00123903,0,
6,8.97881,0.419719,-0.0732893,0.00121195,0,
6,8.98147,0.404877,-0.0732904,0.00118183,0,
6,8.98383,0.389505,-0.0732912,0.00114895,0,
6,8.98593,0.373486,-0.073292,0.0011127,0,
6,8.98779,0.356557,-0.0732926,0.00105901,0,
6,8.98944,0.338341,-0.0732933,0.000993505,0,
6,8.9909,0.318508,-0.0732936,0.000912261,0,
6,8.9922,0.296747,-0.0732941,0.000811622,0,
6,8.99336,0.272774,-0.0732943,0.000689496,0,
6,8.99438,0.246243,-0.0732947,0.000528065,0,
6,8.99529,0.21691,-0.0732946,0.000337875,0,
6,8.99609,0.185573,-0.0732949,0.000181423,0,
6,8.99681,0.154127,-0.0732948,7.79877e-05,0,
6,8.99744,0.124317,-0.0732951,2.65578e-05,0,
6,8.99801,0.0971251,-0.0732948,7.12544e-06,0,
6,8.9985,0.072796,-0.0732952,1.45233e-06,0,
6,8.99895,0.051186,-0.0732949,2.01964e-07,0,
6,8.99934,0.0320305,-0.0732953,1.49075e-08,0,
6,8.99969,0.0150561,-0.0732948,3.23109e-10,0,

10,0,0,-0.0223009,0,0,
10,0.000296632,0.00712198,-0.0222884,-3.2213e-11,0,
10,0.000596102,0.0142739,-0.0222997,-1.18794e-09,0,
10,0.000900397,0.0215035,-0.0222894,-1.20207e-08,0,
10,0.00121153,0.0288588,-0.0222987,-6.43091e-08,0,
10,0.00153158,0.0363866,-0.0222903,-2.39613e-07,0,
10,0.00186264,0.0441334,-0.0222979,-7.10286e-07,0,
10,0.00220692,0.0521424,-0.022291,-1.80019e-06,0,
10,0.00256668,0.0604518,-0.0222972,-4.06779e-06,0,
10,0.00294431,0.0690888,-0.0222915,-8.40325e-06,0,
10,0.00334229,0.078062,-0.0222966,-1.6105e-05,0,
10,0.00376326,0.0873498,-0.0222919,-2.88575e-05,0,
10,0.00421,0.096889,-0.0222961,-4.84931e-05,0,
10,0.00468544,0.106566,-0.0222921,-7.64612e-05,0,
10,0.00519274,0.116221,-0.0222957,-0.000113121,0,
10,0.00573524,0.125664,-0.0222922,-0.000157247,0,
10,0.00631651,0.134713,-0.022295,-0.000206169,0,
10,0.00694041,0.143217,-0.0222919,-0.000256557,0,
10,0.00761104,0.151084,-0.022294,-0.000305378,0,
10,0.00833284,0.158277,-0.0222912,-0.000350525,0,
10,0.00911058,0.164807,-0.0222925,-0.000390955,0,
10,0.0099494,0.170716,-0.0222898,-0.000426492,0,
10,0.0108548,0.176065,-0.0222902,-0.000457527,0,
10,0.0118329,0.18092,-0.0222874,-0.000484742,0,
10,0.0128901,0.185347,-0.022287,-0.00050892,0,
10,0.0140333,0.189407,-0.022284,-0.000530829,0,
10,0.0152702,0.193155,-0.0222825,-0.000551165,0,
10,0.0166089,0.196639,-0.0222791,-0.000570538,0,
10,0.0180584,0.199901,-0.0222765,-0.000589472,0,
10,0.0196282,0.202977,-0.0222725,-0.000608416,0,
10,0.0213288,0.205897,-0.0222688,-0.000627759,0,
10,0.0231714,0.208689,-0.0222639,-0.000647846,0,
10,0.0251682,0.211375,-0.022259,-0.000668988,0,
10,0.0273326,0.213976,-0.022253,-0.000691474,0,
10,0.0296789,0.21651,-0.0222467,-0.000715578,0,
10,0.0322227,0.218992,-0.0222394,-0.000741569,0,
10,0.0349809,0.221439,-0.0222314,-0.000769717,0,
10,0.0379719,0.223862,-0.0222225,-0.000800293,0,
10,0.0412155,0.226275,-0.0222127,-0.00083358,0,
10,0.0447333,0.22869,-0.0222019,-0.000869873,0,
10,0.0485489,0.231119,-0.02219,-0.000909482,0,
10,0.0526875,0.233573,-0.022177,-0.000952739,0,
10,0.0571768,0.236063,-0.0221628,-0.000999994,0,
10,0.0620466,0.238601,-0.0221473,-0.00105163,0,
10,0.0673295,0.241199,-0.0221304,-0.00110804,0,
10,0.0730607,0.243868,-0.0221122,-0.00116966,0,
10,0.0792784,0.246621,-0.0220924,-0.00123697,0,
10,0.0860241,0.249472,-0.0220712,-0.00131045,0,
10,0.0933428,0.252434,-0.0220485,-0.00139065,0,
10,0.101283,0.255522,-0.0220244,-0.00147813,0,
10,0.109899,0.258753,-0.0219988,-0.00157351,0,
10,0.119247,0.262143,-0.0219719,-0.00167744,0,
10,0.12939,0.265712,-0.021944,-0.0017906,0,
10,0.140395,0.26948,-0.0219151,-0.00191371,0,
10,0.152337,0.273469,-0.0218858,-0.00204753,0,
10,0.165296,0.277703,-0.0218566,-0.00219285,0,
10,0.179357,0.282209,-0.021828,-0.00235048,0,
10,0.194615,0.287016,-0.021801,-0.00252123,0,
10,0.211171,0.292155,-0.0217765,-0.00270594,0,
10,0.229138,0.297661,-0.0217559,-0.00290542,0,
10,0.248635,0.303574,-0.0217409,-0.00312047,0,
10,0.269793,0.309934,-0.0217326,-0.00335186,0,
10,0.292753,0.316788,-0.0217346,-0.0036003,0,
10,0.317669,0.324188,-0.0217453,-0.00386555,0,
10,0.344708,0.332185,-0.0217752,-0.00414966,0,
10,0.372405,0.340359,-0.0217915,-0.00444694,0,
10,0.399623,0.348416,-0.021885,-0.00479374,0,
10,0.426397,0.356633,-0.0222726,-0.004977,0,
10,0.452757,0.365351,-0.0229005,-0.00513432,0,
10,0.478735,0.374668,-0.0235618,-0.00530289,0,
10,0.504358,0.384505,-0.0241927,-0.00547771,0,
10,0.529657,0.394702,-0.0247938,-0.00565058,0,
10,0.554656,0.40509,-0.0253734,-0.00581406,0,
10,0.579382,0.415525,-0.0259456,-0.00596283,0,
10,0.603859,0.425911,-0.0265179,-0.00609396,0,
10,0.628112,0.436194,-0.0270943,-0.00620625,0,
10,0.652163,0.446356,-0.0276743,-0.00629968,0,
10,0.676035,0.456404,-0.0282544,-0.00637479,0,
10,0.699751,0.466365,-0.0288296,-0.00643231,0,
10,0.72333,0.476276,-0.0293937,-0.00647296,0,
10,0.746795,0.486184,-0.0299402,-0.00649727,0,
10,0.770165,0.49614,-0.0304629,-0.00650552,0,
10,0.79346,0.506201,-0.0309561,-0.00649765,0,
10,0.816699,0.516425,-0.0314148,-0.00647326,0,
10,0.839903,0.526874,-0.0318354,-0.00643165,0,
10,0.863088,0.53761,-0.0322153,-0.00637179,0,
10,0.886275,0.548696,-0.0325536,-0.00629243,0,
10,0.909481,0.560196,-0.0328506,-0.00619221,0,
10,0.932723,0.572173,-0.0331083,-0.00606973,0,
10,0.956021,0.584687,-0.0333293,-0.00592364,0,
10,0.97939,0.597796,-0.0335168,-0.0057527,0,
10,1.00285,0.611549,-0.0336739,-0.00555585,0,
10,1.02641,0.625986,-0.0338029,-0.00533236,0,
10,1.0501,0.64112,-0.0339047,-0.00508225,0,
10,1.07392,0.656922,-0.033979,-0.00480713,0,
10,1.0979,0.67329,-0.0340244,-0.00451222,0,
10,1.12205,0.690039,-0.0340377,-0.00420355,0,
10,1.14639,0.7069,-0.0340155,-0.00388792,0,
10,1.17093,0.723557,-0.0339555,-0.00357264,0,
10,1.19568,0.739678,-0.0338578,-0.00326512,0,
10,1.22066,0.754961,-0.0337255,-0.00297607,0,
10,1.24589,0.769194,-0.0335608,-0.00270923,0,
10,1.27137,0.782317,-0.0333633,-0.00246135,0,
10,1.29713,0.794393,-0.0331335,-0.00223119,0,
10,1.32317,0.805543,-0.0328742,-0.00201652,0,
10,1.34951,0.815901,-0.0325875,-0.00181478,0,
10,1.37616,0.825596,-0.0322764,-0.0016238,0,
10,1.40313,0.83476,-0.0319363,-0.00143044,0,
10,1.43043,0.84345,-0.0315804,-0.00124422,0,
10,1.45807,0.851601,-0.0312182,-0.00107558,0,
10,1.48607,0.859154,-0.0308557,-0.000930655,0,
10,1.51444,0.866207,-0.0304818,-0.00078976,0,
10,1.54318,0.872906,-0.0300935,-0.000666235,0,
10,1.57231,0.879274,-0.0297054,-0.000560498,0,
10,1.60184,0.885272,-0.0293201,-0.000473961,0,
10,1.63178,0.89087,-0.028942,-0.000406641,0,
10,1.66213,0.896092,-0.028569,-0.000356052,0,
10,1.69292,0.901008,-0.0282011,-0.000318198,0,
10,1.72416,0.905689,-0.0278372,-0.000289082,0,
10,1.75585,0.910184,-0.0274784,-0.000265561,0,
10,1.78802,0.914514,-0.027125,-0.000245529,0,
10,1.82067,0.918679,-0.0267779,-0.000227715,0,
10,1.85383,0.922668,-0.0264376,-0.000211382,0,
10,1.88751,0.926465,-0.0261047,-0.000196095,0,
10,1.92173,0.930053,-0.0257802,-0.000181602,0,
10,1.95652,0.933417,-0.0254639,-0.00016782,0,
10,1.9919,0.936551,-0.0251576,-0.000154868,0,
10,2.02791,0.939468,-0.0248587,-0.000143301,0,
10,2.06456,0.942227,-0.0245659,-0.00012863,0,
10,2.10268,0.944943,-0.0242753,-0.000112505,0,
10,2.1443,0.94772,-0.0239747,-9.55426e-05,0,
10,2.18977,0.950484,-0.0236685,-7.67312e-05,0,
10,2.23946,0.95311,-0.0233585,-5.66259e-05,0,
10,2.29376,0.955451,-0.0230498,-3.67979e-05,0,
10,2.35309,0.957356,-0.0227474,-1.89334e-05,0,
10,2.4179,0.958692,-0.0224586,-4.46203e-06,0,
10,2.48863,0.959364,-0.0221915,5.70393e-06,0,
10,2.56575,0.959334,-0.0219556,1.13145e-05,0,
10,2.64971,0.958636,-0.0217609,1.28131e-05,0,
10,2.74098,0.957386,-0.0216177,1.12474e-05,0,
10,2.83997,0.955781,-0.0215354,8.07184e-06,0,
10,2.94709,0.954074,-0.021522,4.7518e-06,0,
10,3.06269,0.952524,-0.021584,2.26637e-06,0,
10,3.18706,0.951325,-0.0217255,8.6384e-07,0,
10,3.3204,0.950554,-0.021949,2.63152e-07,0,
10,3.46281,0.950161,-0.0222547,6.73427e-08,0,
10,3.61427,0.950011,-0.0226411,1.74419e-08,0,
10,3.77463,0.949952,-0.0231044,6.59479e-09,0,
10,3.94358,0.94988,-0.0236389,4.30411e-09,0,
10,4.12067,0.949761,-0.0242366,3.55309e-09,0,
10,4.30525,0.94962,-0.0248876,2.7118e-09,0,
10,4.49655,0.949503,-0.0255806,1.56112e-09,0,
10,4.6936,0.949445,-0.0263029,2.76075e-10,0,
10,4.89531,0.949453,-0.0270417,-1.0207e-09,0,
10,5.10047,0.949513,-0.0277843,-2.50301e-09,0,
10,5.30776,0.949602,-0.0285187,-4.83396e-09,0,
10,5.51581,0.949697,-0.0292342,-9.58031e-09,0,
10,5.72323,0.94979,-0.0299215,-2.10634e-08,0,
10,5.92863,0.949897,-0.030573,-5.54811e-08,0,
10,6.13069,0.950079,-0.0311827,-1.73693e-07,0,
10,6.32816,0.95043,-0.0317467,-5.33259e-07,0,
10,6.51991,0.950986,-0.0322625,-1.2156e-06,0,
10,6.70495,0.951531,-0.03273,-9.84003e-07,0,
10,6.88244,0.951364,-0.0331487,5.53176e-06,0,
10,7.0517,0.949253,-0.0335214,2.969e-05,0,
10,7.21224,0.94378,-0.0338465,8.5888e-05,0,
10,7.3637,0.934017,-0.0341302,0.000185325,0,
10,7.5059,0.919951,-0.034376,0.000317063,0,
10,7.63878,0.902114,-0.034584,0.00043834,0,
10,7.76243,0.881617,-0.0347646,0.000575976,0,
10,7.87701,0.860327,-0.0349074,0.000720695,0,
10,7.9828,0.839835,-0.0350273,0.000854493,0,
10,8.08014,0.820946,-0.035122,0.000969537,0,
10,8.16941,0.803771,-0.0352013,0.00106529,0,
10,8.25106,0.788034,-0.0352674,0.00114478,0,
10,8.32554,0.773331,-0.0353263,0.0012103,0,
10,8.39331,0.759273,-0.0353787,0.00126454,0,
10,8.45484,0.745564,-0.0354264,0.00131015,0,
10,8.5106,0.732016,-0.0354689,0.00134902,0,
10,8.56104,0.71854,-0.0355065,0.00138194,0,
10,8.60659,0.705118,-0.0355393,0.00140918,0,
10,8.64767,0.691786,-0.0355678,0.00143089,0,
10,8.68467,0.678605,-0.0355926,0.00144727,0,
10,8.71795,0.66564,-0.0356142,0.00145875,0,
10,8.74786,0.652925,-0.0356337,0.00146589,0,
10,8.77471,0.640418,-0.0356514,0.00146175,0,
10,8.79881,0.628055,-0.0356667,0.00145493,0,
10,8.8204,0.615825,-0.03568,0.00144652,0,
10,8.83975,0.603734,-0.0356914,0.00143549,0,
10,8.85708,0.591781,-0.0357011,0.00142232,0,
10,8.87259,0.579957,-0.0357095,0.00140749,0,
10,8.88646,0.568248,-0.0357167,0.00139141,0,
10,8.89886,0.556635,-0.0357227,0.00137445,0,
10,8.90995,0.545096,-0.035728,0.00135689,0,
10,8.91986,0.533606,-0.0357324,0.00133893,0,
10,8.92872,0.522137,-0.0357362,0.00132075,0,
10,8.93663,0.51066,-0.0357393,0.00130242,0,
10,8.94369,0.499143,-0.0357421,0.00128397,0,
10,8.95,0.487553,-0.0357443,0.00126538,0,
10,8.95564,0.475854,-0.0357463,0.00124657,0,
10,8.96067,0.46401,-0.0357478,0.00122743,0,
10,8.96517,0.45198,-0.0357493,0.00120774,0,
10,8.96918,0.439722,-0.0357503,0.00118725,0,
10,8.97276,0.42719,-0.0357514,0.00116562,0,
10,8.97596,0.414333,-0.0357521,0.00114246,0,
10,8.97882,0.401095,-0.035753,0.00111727,0,
10,8.98137,0.387413,-0.0357534,0.00108943,0,
10,8.98365,0.373218,-0.0357541,0.00105918,0,
10,8.98569,0.358401,-0.0357543,0.00102582,0,
10,8.9875,0.342718,-0.0357549,0.000976841,0,
10,8.98913,0.325826,-0.035755,0.000917565,0,
10,8.99058,0.307426,-0.0357555,0.000844603,0,
10,8.99188,0.287236,-0.0357554,0.000754766,0,
10,8.99304,0.264991,-0.0357559,0.000646104,0,
10,8.99408,0.240364,-0.0357557,0.000504722,0,
10,8.99501,0.213051,-0.0357563,0.000332829,0,
10,8.99583,0.18359,-0.0357558,0.000185702,0,
10,8.99658,0.153609,-0.0357564,8.35449e-05,0,
10,8.99724,0.124763,-0.0357558,2.97665e-05,0,
10,8.99784,0.0981003,-0.0357565,8.31764e-06,0,
10,8.99837,0.0739711,-0.0357558,1.75711e-06,0,
10,8.99885,0.0523149,-0.0357566,2.52359e-07,0,
10,8.99927,0.0329222,-0.0357558,1.91745e-08,0,
10,8.99966,0.0155593,-0.0357567,4.24373e-10,0,
10,9,0,-0.0357557,0,0,

0.0416667,0,0,-0.236416,0,3.36781e-06,
0.0833333,0,0,-0.236589,0,5.82027e-06,
0.125,0,0,-0.236524,0,7.69587e-06,
0.166667,0,0,-0.23658,0,1.26157e-05,
0.208333,0,0,-0.236594,0,1.75482e-05,
0.25,0,0,-0.236648,0,2.27918e-05,
0.291667,0,0,-0.2367,0,2.74263e-05,
0.333333,0,0,-0.236771,0,3.1555e-05,
0.375,0,0,-0.236846,0,3.52152e-05,
0.416667,0,0,-0.236932,0,3.89042e-05,
0.458333,0,0,-0.237029,0,4.31051e-05,
0.5,0,0,-0.237138,0,4.82983e-05,
0.541667,0,0,-0.237266,0,5.47655e-05,
0.583333,0,0,-0.237416,0,6.25153e-05,
0.625,0,0,-0.23759,0,7.12208e-05,
0.666667,0,0,-0.23779,0,8.02288e-05,
0.708333,0,0,-0.238014,0,8.86817e-05,
0.75,0,0,-0.238257,0,9.56987e-05,
0.791667,0,0,-0.238516,0,0.000100729,
0.833333,0,0,-0.238787,0,0.000103808,
0.875,0,0,-0.239081,0,0.000105208,
0.916667,0,0,-0.23941,0,0.00010507,
0.958333,0,0,-0.239796,0,0.0001031,
1,0,0,-0.240267,0,9.79523e-05,
1.04167,0,0,-0.240851,0,8.71177e-05,
1.08333,0,0,-0.241576,0,6.73166e-05,
1.125,0,0,-0.24246,0,3.51288e-05,
1.16667,0,0,-0.243508,0,-1.20871e-05,
1.20833,0,0,-0.244703,0,-7.52209e-05,
1.25,0,0,-0.246006,0,-0.000152798,
1.29167,0,0,-0.247364,0,-0.000241217,
1.33333,0,0,-0.248721,0,-0.000335809,
1.375,0,0,-0.250029,0,-0.000432148,
1.41667,0,0,-0.251247,0,-0.000526968,
1.45833,0,0,-0.252349,0,-0.000618402,
1.5,0,0,-0.253315,0,-0.000705704,
1.54167,0,0,-0.254133,0,-0.000788782,
1.58333,0,0,-0.254794,0,-0.000867809,
1.625,0,0,-0.255293,0,-0.000943008,
1.66667,0,0,-0.255627,0,-0.00101456,
1.70833,0,0,-0.255792,0,-0.00108261,
1.75,0,0,-0.255788,0,-0.00114724,
1.79167,0,0,-0.255614,0,-0.00120852,
1.83333,0,0,-0.25527,0,-0.0012665,
1.875,0,0,-0.254757,0,-0.00132121,
1.91667,0,0,-0.254077,0,-0.0013727,
1.95833,0,0,-0.253233,0,-0.001421,
2,0,0,-0.252227,0,-0.00146617,
2.04167,0,0,-0.251063,0,-0.00150825,
2.08333,0,0,-0.249745,0,-0.00154727,
2.125,0,0,-0.248276,0,-0.0015833,
2.16667,0,0,-0.246661,0,-0.00161638,
2.20833,0,0,-0.244905,0,-0.00164658,
2.25,0,0,-0.243013,0,-0.00167396,
2.29167,0,0,-0.240989,0,-0.00169859,
2.33333,0,0,-0.238839,0,-0.00172053,
2.375,0,0,-0.236567,0,-0.00173984,
2.41667,0,0,-0.234179,0,-0.00175656,
2.45833,0,0,-0.23168,0,-0.00177075,
2.5,0,0,-0.229075,0,-0.00178246,
2.54167,0,0,-0.226372,0,-0.00179175,
2.58333,0,0,-0.223574,0,-0.00179868,
2.625,0,0,-0.220688,0,-0.00180333,
2.66667,0,0,-0.21772,0,-0.00180576,
2.70833,0,0,-0.214676,0,-0.00180605,
2.75,0,0,-0.211561,0,-0.00180428,
2.79167,0,0,-0.208381,0,-0.0018005,
2.83333,0,0,-0.205142,0,-0.00179481,
2.875,0,0,-0.201849,0,-0.00178726,
2.91667,0,0,-0.198509,0,-0.00177794,
2.95833,0,0,-0.195125,0,-0.00176692,
3,0,0,-0.191704,0,-0.00175427,
3.04167,0,0,-0.18825,0,-0.00174009,
3.08333,0,0,-0.184769,0,-0.00172444,
3.125,0,0,-0.181264,0,-0.00170739,
3.16667,0,0,-0.177741,0,-0.00168902,
3.20833,0,0,-0.174203,0,-0.00166939,
3.25,0,0,-0.170656,0,-0.00164857,
3.29167,0,0,-0.167101,0,-0.00162664,
3.33333,0,0,-0.163544,0,-0.00160366,
3.375,0,0,-0.159988,0,-0.00157972,
3.41667,0,0,-0.156434,0,-0.00155487,
3.45833,0,0,-0.152887,0,-0.00152917,
3.5,0,0,-0.149349,0,-0.00150265,
3.54167,0,0,-0.145822,0,-0.00147534,
3.58333,0,0,-0.142309,0,-0.00144727,
3.625,0,0,-0.138812,0,-0.00141847,
3.66667,0,0,-0.135334,0,-0.00138897,
3.70833,0,0,-0.131876,0,-0.0013588,
3.75,0,0,-0.128441,0,-0.00132799,
3.79167,0,0,-0.125032,0,-0.00129658,
3.83333,0,0,-0.121649,0,-0.00126458,
3.875,0,0,-0.118295,0,-0.00123205,
3.91667,0,0,-0.114971,0,-0.00119902,
3.95833,0,0,-0.111678,0,-0.00116556,
4,0,0,-0.108419,0,-0.0011317,
4.04167,0,0,-0.105193,0,-0.0010975,
4.08333,0,0,-0.102001,0,-0.00106299,
4.125,0,0,-0.0988443,0,-0.00102821,
4.16667,0,0,-0.0957225,0,-0.000993194,
4.20833,0,0,-0.0926359,0,-0.000957953,
4.25,0,0,-0.0895847,0,-0.00092251,
4.29167,0,0,-0.0865688,0,-0.000886877,
4.33333,0,0,-0.0835882,0,-0.000851062,
4.375,0,0,-0.080643,0,-0.000815065,
4.41667,0,0,-0.0777329,0,-0.000778884,
4.45833,0,0,-0.074858,0,-0.000742519,
4.5,0,0,-0.0720183,0,-0.00070597,
4.54167,0,0,-0.0692136,0,-0.000669241,
4.58333,0,0,-0.0664438,0,-0.000632332,
4.625,0,0,-0.0637088,0,-0.000595243,
4.66667,0,0,-0.0610084,0,-0.000557967,
4.70833,0,0,-0.0583426,0,-0.000520493,
4.75,0,0,-0.0557113,0,-0.000482802,
4.79167,0,0,-0.0531148,0,-0.000444876,
4.83333,0,0,-0.0505534,0,-0.000406696,
4.875,0,0,-0.0480277,0,-0.000368247,
4.91667,0,0,-0.0455384,0,-0.000329521,
4.95833,0,0,-0.0430867,0,-0.000290529,
5,0,0,-0.0406745,0,-0.000251317,
5.04167,0,0,-0.0383036,0,-0.000211987,
5.08333,0,0,-0.0359761,0,-0.000172698,
5.125,0,0,-0.0336923,0,-0.000133607,
5.16667,0,0,-0.031451,0,-9.47976e-05,
5.20833,0,0,-0.0292503,0,-5.62644e-05,
5.25,0,0,-0.0270888,0,-1.79577e-05,
5.29167,0,0,-0.0249651,0,2.01744e-05,
5.33333,0,0,-0.0228783,0,5.81698e-05,
5.375,0,0,-0.0208276,0,9.60556e-05,
5.41667,0,0,-0.0188123,0,0.000133853,
5.45833,0,0,-0.016832,0,0.00017158,
5.5,0,0,-0.0148863,0,0.00020925,
5.54167,0,0,-0.012975,0,0.000246871,
5.58333,0,0,-0.0110979,0,0.000284451,
5.625,0,0,-0.00925506,0,0.000321994,
5.66667,0,0,-0.00744648,0,0.0003595,
5.70833,0,0,-0.00567232,0,0.000396965,
5.75,0,0,-0.00393281,0,0.000434385,
5.79167,0,0,-0.00222826,0,0.000471752,
5.83333,0,0,-0.000559054,0,0.000509054,
5.875,0,0,0.00107438,0,0.000546278,
5.91667,0,0,0.00267158,0,0.000583405,
5.95833,0,0,0.00423203,0,0.000620419,
6,0,0,0.00575518,0,0.000657295,
6.04167,0,0,0.00724042,0,0.000694011,
6.08333,0,0,0.00868713,0,0.000730539,
6.125,0,0,0.0100947,0,0.000766849,
6.16667,0,0,0.0114624,0,0.000802912,
6.20833,0,0,0.0127896,0,0.000838693,
6.25,0,0,0.0140756,0,0.000874158,
6.29167,0,0,0.0153198,0,0.000909272,
6.33333,0,0,0.0165216,0,0.000943998,
6.375,0,0,0.0176805,0,0.000978299,
6.41667,0,0,0.0187958,0,0.00101214,
6.45833,0,0,0.0198672,0,0.00104549,
6.5,0,0,0.0208942,0,0.0010783,
6.54167,0,0,0.0218763,0,0.00111056,
6.58333,0,0,0.0228132,0,0.00114221,
6.625,0,0,0.0237047,0,0.00117325,
6.66667,0,0,0.0245503,0,0.00120363,
6.70833,0,0,0.0253499,0,0.00123333,
6.75,0,0,0.0261032,0,0.00126232,
6.79167,0,0,0.02681,0,0.00129059,
6.83333,0,0,0.0274702,0,0.00131812,
6.875,0,0,0.0280838,0,0.00134488,
6.91667,0,0,0.0286505,0,0.00137086,
6.95833,0,0,0.0291705,0,0.00139605,
7,0,0,0.0296439,0,0.00142042,
7.04167,0,0,0.0300708,0,0.00144397,
7.08333,0,0,0.0304511,0,0.00146665,
7.125,0,0,0.0307851,0,0.00148846,
7.16667,0,0,0.0310726,0,0.00150936,
7.20833,0,0,0.0313141,0,0.00152935,
7.25,0,0,0.0315096,0,0.00154839,
7.29167,0,0,0.0316595,0,0.00156649,
7.33333,0,0,0.0317642,0,0.00158363,
7.375,0,0,0.0318242,0,0.00159982,
7.41667,0,0,0.0318398,0,0.00161505,
7.45833,0,0,0.0318117,0,0.00162932,
7.5,0,0,0.0317402,0,0.00164264,
7.54167,0,0,0.0316258,0,0.001655,
7.58333,0,0,0.031469,0,0.0016664,
7.625,0,0,0.0312703,0,0.00167685,
7.66667,0,0,0.0310302,0,0.00168636,
7.70833,0,0,0.0307491,0,0.00169493,
7.75,0,0,0.0304274,0,0.00170256,
7.79167,0,0,0.0300657,0,0.00170928,
7.83333,0,0,0.0296635,0,0.00171505,
7.875,0,0,0.029221,0,0.00171997,
7.91667,0,0,0.0287504,0,0.00172477,
7.95833,0,0,0.0281683,0,0.00172767,
8,0,0,0.0276786,0,0.00173028,
8.04171,0,0,0.027197,0,0.00173297,
8.08368,0,0,0.0265354,0,0.00173453,
8.12617,0,0,0.0258863,0,0.00173302,
8.16946,0,0,0.0251872,0,0.00173041,
8.21382,0,0,0.0244245,0,0.00172664,
8.25952,0,0,0.0236005,0,0.00172159,
8.30685,0,0,0.0227068,0,0.00171534,
8.35611,0,0,0.0217343,0,0.00170785,
8.40762,0,0,0.0206734,0,0.00169905,
8.46168,0,0,0.0195131,0,0.00168885,
8.51865,0,0,0.0182414,0,0.00167714,
8.57889,0,0,0.0168453,0,0.00166386,
8.64276,0,0,0.0153109,0,0.00164895,
8.71067,0,0,0.0136235,0,0.00163242,
8.78306,0,0,0.0117681,0,0.00161435,
8.86037,0,0,0.00972989,0,0.00159493,
8.94309,0,0,0.00749531,0,0.00157447,
9.03174,0,0,0.0050528,0,0.00155346,
9.12689,0,0,0.00239324,0,0.00153248,
9.22912,0,0,-0.0004901,0,0.00151221,
9.33908,0,0,-0.003603,0,0.00149336,
9.45746,0,0,-0.00695703,0,0.00147644,
9.58501,0,0,-0.0105774,0,0.00146151,
9.72253,0,0,-0.0144966,0,0.00144792,
9.87088,0,0,-0.0187193,0,0.00143443,
10.031,0,0,-0.0231607,0,0.0014198,
10.2039,0,0,-0.0275568,0,0.00140383,
10.3906,0,0,-0.0313755,0,0.00138884,
10.5924,0,0,-0.0337874,0,0.00138092,
10.8105,0,0,-0.0337839,0,0.00138989,
11.0463,0,0,-0.0305121,0,0.00142681,
11.3012,0,0,-0.0237282,0,0.00149899,
11.5769,0,0,-0.0141236,0,0.00160493,
11.8751,0,0,-0.00321904,0,0.00173357,
12.1977,0,0,0.00721065,0,0.00186973,
12.5466,0,0,0.015795,0,0.00200098,
12.9242,0,0,0.0218735,0,0.00211665,
13.3327,0,0,0.0254023,0,0.00221015,
13.7748,0,0,0.026712,0,0.00227687,
14.2532,0,0,0.0263096,0,0.00231924,
14.7709,0,0,0.0247465,0,0.00234553,
15.3312,0,0,0.0225368,0,0.00236095,
15.9377,0,0,0.0201003,0,0.00236972,
16.594,0,0,0.0177216,0,0.00237545,
17.3044,0,0,0.0155528,0,0.00238025,
18.0733,0,0,0.0136625,0,0.00238459,
18.9056,0,0,0.012082,0,0.00238882,
19.8064,0,0,0.0108208,0,0.00239376,
20.7816,0,0,0.00985847,0,0.00240019,
21.8371,0,0,0.00913743,0,0.00240812,
22.9796,0,0,0.00857885,0,0.00241642,
24.2163,0,0,0.00810823,0,0.0024255,
25.5551,0,0,0.00767086,0,0.00243566,
27.0042,0,0,0.00723617,0,0.00244716,
28.5729,0,0,0.00679111,0,0.00245859,
30.271,0,0,0.00632747,0,0.00246944,
32.1091,0,0,0.00583405,0,0.00248002,
34.0989,0,0,0.00529626,0,0.00249096,
36.2529,0,0,0.00469023,0,0.00250223,
38.5845,0,0,0.00399601,0,0.00251193,
41.1085,0,0,0.0032318,0,0.00252007,
43.8407,0,0,0.00221648,0,0.0025272,
46.7983,0,0,0.00117501,0,0.00253352,
50,0,0,0.00231752,0,0.00254974,

