f5979e891993793c6ce6451dc7a05cdb4844b1b9 
X,Z,x_velocity,cp,uw_b,cf,
1,0,0,-0.236774,0,0,
1,9,0,-0.127511,0,0,
1,1.01284,0.47549,-0.228749,-0.00972037,0,
1,0.000308731,0.000557584,-0.236773,-1.39538e-14,0,
1,0.000654158,0.00116019,-0.236774,-6.11009e-13,0,
1,0.00104139,0.00180929,-0.236773,-7.79891e-12,0,
1,0.00147619,0.00250455,-0.236774,-5.28414e-11,0,
1,0.00196502,0.00324336,-0.236773,-2.46822e-10,0,
1,0.00251518,0.00402007,-0.236774,-9.03345e-10,0,
1,0.0031349,0.00482461,-0.236773,-2.77378e-09,0,
1,0.00383341,0.0056409,-0.236773,-7.41463e-09,0,
1,0.00462115,0.00644444,-0.236773,-1.75368e-08,0,
1,0.00550983,0.00719926,-0.236773,-3.65497e-08,0,
1,0.00651264,0.00785356,-0.236772,-6.4547e-08,0,
1,0.00764438,0.00833459,-0.236772,-8.26728e-08,0,
1,0.00892169,0.00854315,-0.236771,-5.92561e-09,0,
1,0.0103632,0.00835288,-0.23677,4.32448e-07,0,
1,0.0119898,0.0076226,-0.236768,1.88969e-06,0,
1,0.0138248,0.00623325,-0.236766,5.59451e-06,0,
1,0.0158944,0.00413827,-0.236763,1.30878e-05,0,
1,0.0182274,0.00138509,-0.236757,2.52925e-05,0,
1,0.0208562,-0.00192157,-0.236748,4.20543e-05,0,
1,0.0238164,-0.00567797,-0.236735,6.24355e-05,0,
1,0.0271475,-0.00982027,-0.236719,8.49136e-05,0,
1,0.0308929,-0.0143237,-0.236699,0.000108429,0,
1,0.0351001,-0.0191828,-0.236674,0.00013219,0,
1,0.0398209,-0.0243916,-0.236647,0.000155445,0,
1,0.0451115,-0.0299282,-0.236617,0.000177336,0,
1,0.0510323,-0.0357441,-0.236586,0.000196848,0,
1,0.057648,-0.0417574,-0.236554,0.00021281,0,
1,0.0650269,-0.0478508,-0.236525,0.000223981,0,
1,0.0732406,-0.0538763,-0.236502,0.000229153,0,
1,0.0823632,-0.0596652,-0.236487,0.000227247,0,
1,0.0924701,-0.0650449,-0.236485,0.000217507,0,
1,0.103636,-0.0698573,-0.236499,0.00019964,0,
1,0.115935,-0.0739741,-0.236534,0.000173899,0,
1,0.129436,-0.0773075,-0.236592,0.000141043,0,
1,0.144202,-0.0798125,-0.236677,0.000102192,0,
1,0.160284,-0.0814819,-0.236788,5.86105e-05,0,
1,0.177724,-0.0823372,-0.236926,1.15071e-05,0,
1,0.196544,-0.082418,-0.237089,-3.80954e-05,0,
1,0.21675,-0.0817729,-0.237275,-8.93838e-05,0,
1,0.238323,-0.0804532,-0.237479,-0.000141701,0,
1,0.26122,-0.0785097,-0.237698,-0.00019446,0,
1,0.28537,-0.0759917,-0.237926,-0.000247077,0,
1,0.310673,-0.0729476,-0.238158,-0.000298898,0,
1,0.337003,-0.069426,-0.238386,-0.000349157,0,
1,0.364206,-0.0654773,-0.238604,-0.000396992,0,
1,0.392107,-0.0611543,-0.238808,-0.000441468,0,
1,0.420509,-0.0565138,-0.23899,-0.000481612,0,
1,0.449206,-0.051616,-0.239146,-0.000516435,0,
1,0.477982,-0.0465242,-0.239272,-0.000544988,0,
1,0.506624,-0.0413024,-0.239365,-0.000566432,0,
1,0.534925,-0.0360102,-0.239425,-0.000580337,0,
1,0.562692,-0.0306907,-0.239452,-0.000586987,0,
1,0.589754,-0.0253528,-0.239444,-0.000588454,0,
1,0.615961,-0.019942,-0.2394,-0.000589155,0,
1,0.641193,-0.0143206,-0.239313,-0.000596036,0,
1,0.665359,-0.00826932,-0.239174,-0.000631232,0,
1,0.688396,-0.00143317,-0.238983,-0.000707325,0,
1,0.710271,0.00671914,-0.23874,-0.000850365,0,
1,0.730976,0.0168107,-0.238455,-0.00108638,0,
1,0.750529,0.029373,-0.23814,-0.00143631,0,
1,0.768969,0.0445999,-0.237808,-0.00191074,0,
1,0.78635,0.0622027,-0.237466,-0.00250238,0,
1,0.802743,0.0815561,-0.237119,-0.00317925,0,
1,0.818232,0.101992,-0.236775,-0.00389958,0,
1,0.832689,0.122703,-0.236428,-0.00462487,0,
1,0.846039,0.14305,-0.236087,-0.00532189,0,
1,0.858357,0.162741,-0.23575,-0.00597255,0,
1,0.869723,0.1816,-0.235418,-0.00656983,0,
1,0.880212,0.199528,-0.235093,-0.00710989,0,
1,0.889898,0.216475,-0.234776,-0.00759261,0,
1,0.898852,0.232433,-0.234469,-0.00802356,0,
1,0.907141,0.247429,-0.234171,-0.00840167,0,
1,0.914826,0.26153,-0.233879,-0.00873129,0,
1,0.921966,0.274821,-0.233592,-0.00901607,0,
1,0.928616,0.287392,-0.23331,-0.00926129,0,
1,0.934823,0.299324,-0.233033,-0.00947279,0,
1,0.940633,0.310686,-0.232764,-0.00965396,0,
1,0.946088,0.321539,-0.232501,-0.00980785,0,
1,0.951224,0.33194,-0.232246,-0.00993713,0,
1,0.956076,0.341938,-0.231998,-0.0100441,0,
1,0.960675,0.351578,-0.231757,-0.0101309,0,
1,0.965047,0.360902,-0.231523,-0.0101992,0,
1,0.969219,0.369949,-0.231295,-0.0102506,0,
1,0.973211,0.378754,-0.231074,-0.0102863,0,
1,0.977045,0.38735,-0.230858,-0.0103074,0,
1,0.980739,0.395767,-0.230648,-0.0103148,0,
1,0.984308,0.404034,-0.230442,-0.0103092,0,
1,0.987768,0.412177,-0.230241,-0.010291,0,
1,0.991131,0.420219,-0.230043,-0.0102608,0,
1,0.99441,0.428185,-0.22985,-0.0102187,0,
1,0.997615,0.436095,-0.22966,-0.010165,0,
1,1.00076,0.44397,-0.229473,-0.0100996,0,
1,1.00384,0.451829,-0.229288,-0.0100225,0,
1,1.00688,0.459691,-0.229106,-0.00993365,0,
1,1.00988,0.467572,-0.228927,-0.00983279,0,
1,1.01581,0.48355,-0.228572,-0.00959344,0,
1,1.01882,0.491863,-0.228393,-0.00944854,0,
1,1.02188,0.500461,-0.228212,-0.00928424,0,
1,1.025,0.509374,-0.228029,-0.00909877,0,
1,1.02818,0.518635,-0.227844,-0.00888992,0,
1,1.03144,0.52827,-0.227659,-0.00865755,0,
1,1.03478,0.538308,-0.227472,-0.00839772,0,
1,1.03822,0.548772,-0.227286,-0.00810784,0,
1,1.04177,0.559689,-0.227098,-0.00778519,0,
1,1.04544,0.571078,-0.226911,-0.00742699,0,
1,1.04925,0.582953,-0.226724,-0.00703067,0,
1,1.05321,0.595314,-0.226539,-0.00659414,0,
1,1.05735,0.608141,-0.226355,-0.00611645,0,
1,1.06169,0.621383,-0.226176,-0.00559853,0,
1,1.06626,0.634943,-0.226001,-0.00504465,0,
1,1.07108,0.648664,-0.225833,-0.00446394,0,
1,1.07618,0.662315,-0.225675,-0.00387203,0,
1,1.0816,0.675592,-0.225529,-0.00329158,0,
1,1.08738,0.688156,-0.225397,-0.00275018,0,
1,1.09357,0.699694,-0.225281,-0.0022748,0,
1,1.10022,0.71002,-0.225181,-0.00188444,0,
1,1.10739,0.719125,-0.225094,-0.00158694,0,
1,1.11514,0.727174,-0.225017,-0.00137704,0,
1,1.12354,0.734436,-0.224941,-0.00124014,0,
1,1.13268,0.741198,-0.224859,-0.00115794,0,
1,1.14266,0.74771,-0.224764,-0.00111247,0,
1,1.15357,0.754157,-0.224651,-0.00109009,0,
1,1.16554,0.760662,-0.224515,-0.00108042,0,
1,1.1787,0.767302,-0.224351,-0.00107619,0,
1,1.1932,0.774126,-0.224154,-0.00107331,0,
1,1.2092,0.781163,-0.22392,-0.00106933,0,
1,1.22689,0.788434,-0.223642,-0.00106337,0,
1,1.24659,0.795991,-0.223314,-0.00105446,0,
1,1.26879,0.803919,-0.222917,-0.00104429,0,
1,1.29378,0.812231,-0.222454,-0.00103544,0,
1,1.3219,0.820975,-0.221861,-0.000999542,0,
1,1.35351,0.830159,-0.221145,-0.000951172,0,
1,1.389,0.839736,-0.220336,-0.000909774,0,
1,1.42882,0.849704,-0.219396,-0.000871944,0,
1,1.47342,0.860117,-0.218307,-0.000835152,0,
1,1.52332,0.871049,-0.217047,-0.000797097,0,
1,1.57905,0.882602,-0.215595,-0.000756007,0,
1,1.64119,0.894908,-0.213929,-0.000710544,0,
1,1.71033,0.908123,-0.212027,-0.000658947,0,
1,1.78711,0.922392,-0.209867,-0.000598055,0,
1,1.87215,0.93777,-0.20743,-0.000525916,0,
1,1.9661,0.954093,-0.204699,-0.000442647,0,
1,2.06959,0.970806,-0.20166,-0.000351564,0,
1,2.18321,0.986874,-0.198317,-0.000258754,0,
1,2.30752,1.00094,-0.194734,-0.000131659,0,
1,2.44299,1.01148,-0.190909,-4.33895e-05,0,
1,2.59002,1.01716,-0.186887,-3.90906e-06,0,
1,2.74885,1.0179,-0.182766,1.08729e-06,0,
1,2.91959,1.01547,-0.178612,1.02012e-07,0,
1,3.10217,1.01229,-0.174489,5.58707e-08,0,
1,3.2963,1.0097,-0.170443,4.40877e-08,0,
1,3.50146,1.00786,-0.166505,3.52319e-08,0,
1,3.7169,1.00637,-0.162708,3.07198e-08,0,
1,3.94163,1.00495,-0.159083,2.84755e-08,0,
1,4.17441,1.00353,-0.155658,2.65442e-08,0,
1,4.41376,1.00216,-0.152452,2.43825e-08,0,
1,4.65805,1.00088,-0.149479,2.20998e-08,0,
1,4.90545,0.999715,-0.146747,1.99514e-08,0,
1,5.15407,0.99866,-0.144256,1.80039e-08,0,
1,5.40194,0.997713,-0.142003,1.63052e-08,0,
1,5.64716,0.996863,-0.13998,1.4915e-08,0,
1,5.88785,0.996082,-0.138176,1.39251e-08,0,
1,6.12229,0.995336,-0.136578,1.30953e-08,0,
1,6.34896,0.994656,-0.135171,1.15962e-08,0,
1,6.56652,0.994236,-0.133938,8.91078e-09,0,
1,6.77388,0.994376,-0.132864,1.08897e-09,0,
1,6.97022,0.995031,-0.13193,6.99173e-09,0,
1,7.15495,0.995044,-0.131119,1.82189e-06,0,
1,7.32773,0.991908,-0.13042,1.90637e-05,0,
1,7.48842,0.98303,-0.129826,8.03549e-05,0,
1,7.63711,0.967894,-0.12934,0.000218141,0,
1,7.77403,0.948576,-0.128928,0.000419762,0,
1,7.89956,0.927512,-0.128584,0.00058654,0,
1,8.01417,0.90631,-0.128322,0.00075056,0,
1,8.11843,0.886111,-0.128105,0.000890831,0,
1,8.21296,0.867395,-0.127938,0.00100232,0,
1,8.29839,0.850172,-0.127807,0.00108766,0,
1,8.3754,0.834216,-0.12771,0.00115227,0,
1,8.44464,0.819187,-0.127635,0.00119923,0,
1,8.50675,0.804694,-0.127578,0.00122468,0,
1,8.56236,0.790479,-0.12754,0.00125374,0,
1,8.61206,0.776475,-0.12751,0.0012799,0,
1,8.6564,0.762645,-0.127491,0.00130229,0,
1,8.69591,0.748953,-0.127477,0.00132122,0,
1,8.73107,0.735371,-0.127469,0.00133703,0,
1,8.76232,0.721872,-0.127464,0.00135002,0,
1,8.79007,0.708432,-0.127462,0.00136042,0,
1,8.81469,0.695031,-0.127463,0.00136842,0,
1,8.83651,0.681651,-0.127464,0.00137417,0,
1,8.85584,0.668274,-0.127467,0.00137784,0,
1,8.87295,0.654882,-0.12747,0.00137953,0,
1,8.8881,0.641458,-0.127474,0.00137938,0,
1,8.90149,0.627981,-0.127477,0.00137746,0,
1,8.91333,0.614431,-0.127481,0.00137386,0,
1,8.92379,0.600784,-0.127484,0.00136863,0,
1,8.93303,0.587012,-0.127488,0.0013618,0,
1,8.9412,0.573085,-0.127491,0.00135336,0,
1,8.9484,0.558965,-0.127494,0.00134326,0,
1,8.95476,0.544612,-0.127496,0.0013314,0,
1,8.96038,0.529977,-0.127498,0.00131761,0,
1,8.96533,0.515004,-0.1275,0.00130165,0,
1,8.9697,0.499625,-0.127502,0.00128316,0,
1,8.97356,0.483763,-0.127504,0.00126165,0,
1,8.97696,0.467324,-0.127505,0.00123646,0,
1,8.97996,0.450199,-0.127506,0.00120666,0,
1,8.98261,0.432256,-0.127507,0.00117108,0,
1,8.98494,0.413335,-0.127508,0.00112881,0,
1,8.98699,0.393223,-0.127508,0.00107552,0,
1,8.98881,0.371624,-0.127509,0.00100601,0,
1,8.99041,0.348227,-0.127509,0.00092086,0,
1,8.99182,0.322793,-0.12751,0.000817143,0,
1,8.99306,0.295145,-0.12751,0.000693047,0,
1,8.99416,0.265068,-0.12751,0.000533894,0,
1,8.99512,0.23251,-0.12751,0.000352871,0,
1,8.99597,0.198292,-0.12751,0.000193396,0,
1,8.99672,0.164181,-0.12751,8.39947e-05,0,
1,8.99739,0.131975,-0.127511,2.85422e-05,0,
1,8.99797,0.102736,-0.12751,7.56702e-06,0,
1,8.99848,0.0767229,-0.127511,1.51609e-06,0,
1,8.99894,0.0537562,-0.12751,2.069e-07,0,
1,8.99934,0.0335234,-0.127511,1.50004e-08,0,
1,8.99969,0.0157058,-0.12751,3.20922e-10,0,

4,0,0,-0.115719,0,0,
4,9,0,-0.096912,0,0,
4,1.05136,0.674698,-0.123472,-0.00422156,0,
4,0.000303409,-0.00606111,-0.115723,6.24558e-11,0,
4,0.00062865,-0.0124268,-0.11572,2.55165e-09,0,
4,0.000979511,-0.0191434,-0.115723,2.97592e-08,0,
4,0.00136016,-0.0262526,-0.115721,1.84854e-07,0,
4,0.00177519,-0.0337891,-0.115723,7.9856e-07,0,
4,0.0022297,-0.0417707,-0.115722,2.72664e-06,0,
4,0.00272934,-0.0501761,-0.115724,7.84876e-06,0,
4,0.00328037,-0.0589002,-0.115723,1.95897e-05,0,
4,0.00388979,-0.0676866,-0.115725,4.25045e-05,0,
4,0.00456537,-0.0760823,-0.115725,7.91119e-05,0,
4,0.00531578,-0.0835309,-0.115728,0.000124642,0,
4,0.0061507,-0.0896319,-0.115731,0.000166865,0,
4,0.0070809,-0.0943224,-0.115738,0.000194637,0,
4,0.00811839,-0.0977975,-0.115747,0.000204562,0,
4,0.00927657,-0.100328,-0.11576,0.000198994,0,
4,0.0105703,-0.102149,-0.115776,0.000181561,0,
4,0.0120162,-0.103437,-0.115798,0.000155031,0,
4,0.0136326,-0.104312,-0.115824,0.000121048,0,
4,0.0154398,-0.104856,-0.115856,8.04171e-05,0,
4,0.0174603,-0.105124,-0.115894,3.33957e-05,0,
4,0.0197189,-0.105152,-0.115939,-2.01065e-05,0,
4,0.0222427,-0.104963,-0.115992,-8.04138e-05,0,
4,0.0250617,-0.104573,-0.116055,-0.000148018,0,
4,0.0282081,-0.103988,-0.116128,-0.000223537,0,
4,0.0317171,-0.103213,-0.116212,-0.000307699,0,
4,0.0356266,-0.102247,-0.116308,-0.000401317,0,
4,0.039977,-0.101085,-0.116418,-0.000505289,0,
4,0.0448114,-0.0997212,-0.116544,-0.00062058,0,
4,0.0501747,-0.0981461,-0.116685,-0.000748214,0,
4,0.056114,-0.0963489,-0.116845,-0.000889259,0,
4,0.062677,-0.0943167,-0.117023,-0.00104481,0,
4,0.0699123,-0.0920347,-0.11722,-0.00121597,0,
4,0.0778675,-0.0894867,-0.117438,-0.00140382,0,
4,0.0865883,-0.086655,-0.117675,-0.00160938,0,
4,0.0961173,-0.0835208,-0.117934,-0.00183358,0,
4,0.106492,-0.0800645,-0.118211,-0.00207721,0,
4,0.117744,-0.0762657,-0.118507,-0.00234087,0,
4,0.129894,-0.0721043,-0.11882,-0.00262493,0,
4,0.142956,-0.0675608,-0.119148,-0.00292946,0,
4,0.156928,-0.0626169,-0.119488,-0.0032542,0,
4,0.171798,-0.0572571,-0.119837,-0.00359853,0,
4,0.187537,-0.051469,-0.120193,-0.00396141,0,
4,0.2041,-0.045245,-0.120552,-0.00434143,0,
4,0.221432,-0.0385838,-0.120911,-0.00473684,0,
4,0.239458,-0.0314911,-0.121267,-0.00514567,0,
4,0.258095,-0.0239804,-0.121618,-0.00556597,0,
4,0.27725,-0.0160724,-0.12196,-0.00599591,0,
4,0.296825,-0.0077901,-0.122292,-0.00643227,0,
4,0.316717,0.000845902,-0.122616,-0.00686886,0,
4,0.336828,0.00981491,-0.122923,-0.00730189,0,
4,0.357066,0.0190845,-0.123234,-0.00773386,0,
4,0.377348,0.0286163,-0.123541,-0.00831094,0,
4,0.397605,0.0387149,-0.123483,-0.00866245,0,
4,0.417786,0.0499241,-0.123102,-0.00891462,0,
4,0.437857,0.062462,-0.122855,-0.00918309,0,
4,0.457804,0.0761294,-0.12278,-0.00944861,0,
4,0.477632,0.090578,-0.122826,-0.00969367,0,
4,0.497368,0.105535,-0.122927,-0.00990872,0,
4,0.517057,0.120888,-0.123035,-0.0100913,0,
4,0.536763,0.136665,-0.123128,-0.0102424,0,
4,0.556564,0.152979,-0.123202,-0.0103636,0,
4,0.576557,0.16998,-0.12326,-0.010455,0,
4,0.596848,0.18783,-0.123309,-0.0105154,0,
4,0.617561,0.206688,-0.123355,-0.0105414,0,
4,0.637962,0.225945,-0.123395,-0.0105304,0,
4,0.657495,0.245077,-0.123429,-0.0104835,0,
4,0.676218,0.264093,-0.123458,-0.0104024,0,
4,0.694189,0.282995,-0.123483,-0.0102887,0,
4,0.711463,0.301784,-0.123502,-0.0101442,0,
4,0.728096,0.320459,-0.123515,-0.00997084,0,
4,0.744138,0.339011,-0.123524,-0.0097713,0,
4,0.759639,0.357418,-0.123528,-0.00954886,0,
4,0.774643,0.375635,-0.123531,-0.00930775,0,
4,0.789195,0.393597,-0.123532,-0.00905335,0,
4,0.803334,0.411221,-0.123533,-0.00879082,0,
4,0.817097,0.428428,-0.123536,-0.00852376,0,
4,0.830518,0.445149,-0.123539,-0.0082555,0,
4,0.843629,0.461337,-0.123542,-0.00798885,0,
4,0.856459,0.476965,-0.123546,-0.00772609,0,
4,0.869035,0.492025,-0.12355,-0.00746898,0,
4,0.881383,0.506523,-0.123554,-0.00721881,0,
4,0.893524,0.520478,-0.123558,-0.00697642,0,
4,0.905481,0.533916,-0.123563,-0.00674229,0,
4,0.917272,0.546865,-0.123568,-0.00651654,0,
4,0.928915,0.559357,-0.123574,-0.00629902,0,
4,0.940428,0.571422,-0.123579,-0.00608942,0,
4,0.951826,0.583084,-0.123583,-0.00588938,0,
4,0.963124,0.594362,-0.123586,-0.0056976,0,
4,0.974334,0.605278,-0.123586,-0.00551295,0,
4,0.98547,0.615858,-0.123585,-0.00533434,0,
4,0.996544,0.626131,-0.123582,-0.00516065,0,
4,1.00757,0.636134,-0.123575,-0.00499055,0,
4,1.01855,0.645918,-0.123563,-0.00482251,0,
4,1.0295,0.655562,-0.12354,-0.00463796,0,
4,1.04044,0.665149,-0.123507,-0.00443156,0,
4,1.0623,0.684188,-0.123435,-0.00399738,0,
4,1.07328,0.693594,-0.123396,-0.00376096,0,
4,1.08432,0.702868,-0.123354,-0.00351507,0,
4,1.09543,0.711959,-0.12331,-0.00326294,0,
4,1.10661,0.72081,-0.123264,-0.00300831,0,
4,1.11788,0.729361,-0.123215,-0.00275539,0,
4,1.12925,0.737553,-0.123163,-0.00250867,0,
4,1.14073,0.745331,-0.123107,-0.00227271,0,
4,1.15233,0.752649,-0.123049,-0.0020518,0,
4,1.16408,0.759475,-0.122987,-0.00184959,0,
4,1.17599,0.765796,-0.122921,-0.00166878,0,
4,1.18806,0.771621,-0.122852,-0.00151089,0,
4,1.20034,0.776976,-0.122779,-0.00137621,0,
4,1.21282,0.781905,-0.122703,-0.00126391,0,
4,1.22554,0.786462,-0.122624,-0.00117229,0,
4,1.23852,0.790708,-0.122541,-0.00109909,0,
4,1.25179,0.794702,-0.122456,-0.00104177,0,
4,1.26537,0.798501,-0.122368,-0.000997723,0,
4,1.2793,0.802155,-0.122277,-0.000964485,0,
4,1.29362,0.80571,-0.122183,-0.000939774,0,
4,1.30836,0.809204,-0.122085,-0.000921628,0,
4,1.32357,0.81267,-0.121986,-0.000908215,0,
4,1.3393,0.816136,-0.121878,-0.000900131,0,
4,1.3556,0.81964,-0.121774,-0.000895227,0,
4,1.37252,0.823258,-0.121682,-0.00087862,0,
4,1.39015,0.82706,-0.121585,-0.000861787,0,
4,1.40855,0.83106,-0.12148,-0.000844486,0,
4,1.42781,0.835243,-0.121365,-0.000826696,0,
4,1.44801,0.839592,-0.12124,-0.000808748,0,
4,1.46926,0.844101,-0.121106,-0.000790987,0,
4,1.49167,0.848779,-0.120962,-0.000773576,0,
4,1.51537,0.853647,-0.120808,-0.0007563,0,
4,1.54091,0.858812,-0.120641,-0.000738644,0,
4,1.56949,0.864488,-0.120452,-0.000719928,0,
4,1.60144,0.870743,-0.120239,-0.000699211,0,
4,1.63713,0.877617,-0.119998,-0.000676073,0,
4,1.67693,0.885144,-0.119726,-0.000650025,0,
4,1.72128,0.893343,-0.119419,-0.000620402,0,
4,1.77062,0.902209,-0.119071,-0.000586847,0,
4,1.82542,0.911694,-0.118681,-0.000549286,0,
4,1.88618,0.921698,-0.118235,-0.000507723,0,
4,1.95343,0.932102,-0.117748,-0.000455716,0,
4,2.02768,0.942803,-0.11722,-0.000376863,0,
4,2.10949,0.953528,-0.116633,-0.00029211,0,
4,2.19939,0.963727,-0.115988,-0.000206119,0,
4,2.29789,0.972699,-0.115286,-0.000127824,0,
4,2.40551,0.979751,-0.114528,-6.53276e-05,0,
4,2.52268,0.984352,-0.113723,-2.36764e-05,0,
4,2.64979,0.986342,-0.112877,-2.96147e-06,0,
4,2.78715,0.986107,-0.112001,2.45994e-06,0,
4,2.93497,0.984562,-0.111103,1.47168e-06,0,
4,3.09333,0.982806,-0.110191,3.01768e-07,0,
4,3.26217,0.981608,-0.109276,3.04159e-08,0,
4,3.44125,0.981118,-0.108368,6.40054e-09,0,
4,3.63018,0.981054,-0.107474,2.93202e-09,0,
4,3.82836,0.981067,-0.106599,2.88887e-09,0,
4,4.03501,0.98098,-0.105751,3.84874e-09,0,
4,4.24915,0.980783,-0.104934,4.46691e-09,0,
4,4.46961,0.980542,-0.104153,4.4848e-09,0,
4,4.69507,0.980309,-0.103411,4.16328e-09,0,
4,4.92406,0.980101,-0.102713,3.80327e-09,0,
4,5.15502,0.979915,-0.102059,3.5434e-09,0,
4,5.3863,0.97974,-0.101451,3.45692e-09,0,
4,5.61626,0.979564,-0.100889,3.6667e-09,0,
4,5.84328,0.97937,-0.100373,4.51059e-09,0,
4,6.06579,0.979162,-0.0999034,6.79742e-09,0,
4,6.28238,0.979006,-0.0994776,9.14497e-09,0,
4,6.49173,0.979065,-0.0990938,-1.94393e-08,0,
4,6.69275,0.979505,-0.098749,-2.0629e-07,0,
4,6.88453,0.980167,-0.098439,-2.60171e-07,0,
4,7.06634,0.980106,-0.0981599,4.31652e-06,0,
4,7.23771,0.977458,-0.0979116,2.85498e-05,0,
4,7.39831,0.97015,-0.097693,9.44081e-05,0,
4,7.54803,0.957229,-0.0975128,0.00021731,0,
4,7.68693,0.939601,-0.0973595,0.00037909,0,
4,7.81519,0.91923,-0.0972197,0.000531505,0,
4,7.93313,0.898064,-0.0971105,0.000690081,0,
4,8.04115,0.877604,-0.0970131,0.00083545,0,
4,8.13974,0.858589,-0.0969346,0.000956541,0,
4,8.22941,0.841152,-0.0968739,0.00105205,0,
4,8.31073,0.825099,-0.0968288,0.00112582,0,
4,8.38429,0.810077,-0.0968001,0.00118255,0,
4,8.45065,0.79565,-0.0967847,0.00121515,0,
4,8.5104,0.781501,-0.0967775,0.00124655,0,
4,8.56407,0.767529,-0.0967758,0.00127694,0,
4,8.61222,0.753715,-0.0967774,0.00130278,0,
4,8.65533,0.740044,-0.096782,0.00132425,0,
4,8.69387,0.726497,-0.0967884,0.0013418,0,
4,8.7283,0.71306,-0.0967962,0.0013558,0,
4,8.75901,0.699717,-0.0968047,0.00136651,0,
4,8.78637,0.686457,-0.0968137,0.00137413,0,
4,8.81074,0.673267,-0.0968227,0.00137886,0,
4,8.83242,0.660138,-0.0968316,0.00138088,0,
4,8.85169,0.647058,-0.0968401,0.0013804,0,
4,8.86881,0.634016,-0.0968481,0.00137761,0,
4,8.88402,0.620997,-0.0968556,0.00137274,0,
4,8.89751,0.607986,-0.0968625,0.00136597,0,
4,8.90949,0.594963,-0.0968688,0.0013575,0,
4,8.92011,0.581906,-0.0968745,0.00134748,0,
4,8.92952,0.568788,-0.0968797,0.00133606,0,
4,8.93787,0.555579,-0.0968843,0.00132332,0,
4,8.94526,0.542243,-0.0968883,0.00130929,0,
4,8.95182,0.52874,-0.0968919,0.00129395,0,
4,8.95762,0.515024,-0.096895,0.00127721,0,
4,8.96276,0.501042,-0.0968977,0.00125892,0,
4,8.96731,0.486733,-0.0969001,0.00123879,0,
4,8.97134,0.472028,-0.0969021,0.00121644,0,
4,8.97491,0.456843,-0.0969038,0.00119136,0,
4,8.97807,0.441084,-0.0969053,0.00116283,0,
4,8.98087,0.424637,-0.0969066,0.00112988,0,
4,8.98334,0.407369,-0.0969076,0.00109127,0,
4,8.98553,0.389121,-0.0969085,0.00104581,0,
4,8.98747,0.369687,-0.0969092,0.000989957,0,
4,8.98919,0.348788,-0.0969099,0.000918097,0,
4,8.9907,0.326142,-0.0969102,0.000831516,0,
4,8.99205,0.301548,-0.0969107,0.000728059,0,
4,8.99324,0.274849,-0.0969109,0.000603966,0,
4,8.99429,0.245841,-0.0969112,0.000444872,0,
4,8.99522,0.2147,-0.0969113,0.000285239,0,
4,8.99605,0.182525,-0.0969115,0.000150731,0,
4,8.99677,0.150931,-0.0969114,6.36425e-05,0,
4,8.99742,0.121375,-0.0969117,2.13312e-05,0,
4,8.99799,0.0946206,-0.0969115,5.65074e-06,0,
4,8.9985,0.0707922,-0.0969118,1.13994e-06,0,
4,8.99894,0.0496969,-0.0969115,1.57125e-07,0,
4,8.99934,0.0310515,-0.0969119,1.15088e-08,0,
4,8.99969,0.0145749,-0.0969115,2.48082e-10,0,

6,0,0,0.00514865,0,0,
6,9,0,-0.0739676,0,0,
6,1.07704,0.702723,-0.00746182,-0.00234621,0,
6,0.000299862,0.00276832,0.0051416,-3.31396e-11,0,
6,0.000611645,0.00570733,0.00514724,-1.32975e-09,0,
6,0.000938257,0.00885164,0.00514174,-1.49636e-08,0,
6,0.00128281,0.0122388,0.00514601,-8.96265e-08,0,
6,0.00164864,0.0159099,0.00514164,-3.75021e-07,0,
6,0.00203939,0.0199074,0.00514487,-1.24986e-06,0,
6,0.00245897,0.0242691,0.00514128,-3.55458e-06,0,
6,0.00291168,0.0290142,0.00514366,-8.9392e-06,0,
6,0.00340221,0.0341172,0.00514044,-2.01546e-05,0,
6,0.00393573,0.0394706,0.00514178,-4.06691e-05,0,
6,0.00451788,0.0448626,0.00513806,-7.27643e-05,0,
6,0.00515491,0.0500166,0.0051373,-0.000114817,0,
6,0.00585371,0.0546983,0.00513133,-0.000161109,0,
6,0.00662185,0.058802,0.00512652,-0.000205497,0,
6,0.00746774,0.0623459,0.00511626,-0.000244818,0,
6,0.00840063,0.065413,0.00510551,-0.000278962,0,
6,0.00943073,0.0681008,0.00508925,-0.000309271,0,
6,0.0105693,0.0704969,0.00507095,-0.000337334,0,
6,0.0118288,0.072672,0.00504696,-0.000364516,0,
6,0.0132228,0.0746819,0.00501936,-0.000391897,0,
6,0.0147664,0.0765695,0.00498554,-0.00042033,0,
6,0.016476,0.0783688,0.0049464,-0.000450512,0,
6,0.0183694,0.0801067,0.00490007,-0.000483045,0,
6,0.0204662,0.0818055,0.00484658,-0.000518482,0,
6,0.0227875,0.0834836,0.00478446,-0.000557348,0,
6,0.0253561,0.0851571,0.00471314,-0.000600168,0,
6,0.0281964,0.08684,0.00463132,-0.000647472,0,
6,0.0313344,0.0885452,0.00453808,-0.000699808,0,
6,0.0347975,0.0902846,0.00443216,-0.000757744,0,
6,0.0386145,0.0920693,0.00431246,-0.000821867,0,
6,0.042815,0.0939101,0.00417776,-0.000892787,0,
6,0.0474296,0.0958174,0.00402694,-0.000971131,0,
6,0.0524888,0.0978013,0.00385892,-0.00105753,0,
6,0.0580229,0.0998718,0.00367276,-0.00115263,0,
6,0.0640611,0.102039,0.00346769,-0.00125704,0,
6,0.0706309,0.104311,0.00324317,-0.00137137,0,
6,0.077757,0.106699,0.00299894,-0.00149616,0,
6,0.0854609,0.109211,0.00273508,-0.00163193,0,
6,0.0937597,0.111855,0.00245205,-0.00177907,0,
6,0.102665,0.11464,0.00215069,-0.00193791,0,
6,0.112183,0.117573,0.00183227,-0.00210864,0,
6,0.122315,0.120661,0.00149844,-0.00229134,0,
6,0.133052,0.123909,0.00115119,-0.00248593,0,
6,0.144384,0.127323,0.000792787,-0.0026922,0,
6,0.156292,0.130907,0.000425715,-0.00290983,0,
6,0.168754,0.134666,5.25343e-05,-0.00313834,0,
6,0.181744,0.138603,-0.000324198,-0.00337718,0,
6,0.195237,0.142723,-0.000702037,-0.00362576,0,
6,0.209207,0.147029,-0.00107874,-0.00388343,0,
6,0.223631,0.151529,-0.00145236,-0.00414957,0,
6,0.238493,0.156229,-0.00182125,-0.00442363,0,
6,0.253785,0.16114,-0.00218415,-0.00470514,0,
6,0.269507,0.166277,-0.00254018,-0.00499377,0,
6,0.28567,0.171657,-0.00288862,-0.00528934,0,
6,0.3023,0.177306,-0.0032303,-0.00559215,0,
6,0.319433,0.183252,-0.00356279,-0.00590437,0,
6,0.337122,0.189541,-0.00387417,-0.00622405,0,
6,0.355433,0.196234,-0.00414743,-0.0065477,0,
6,0.374445,0.203413,-0.00437155,-0.00687703,0,
6,0.394252,0.211177,-0.00464989,-0.00723827,0,
6,0.414961,0.219699,-0.00461115,-0.00771754,0,
6,0.436695,0.229506,-0.00387575,-0.00780269,0,
6,0.459585,0.241301,-0.00295742,-0.00790712,0,
6,0.48378,0.255357,-0.00239295,-0.00806582,0,
6,0.508144,0.270827,-0.00218832,-0.00824501,0,
6,0.531799,0.286802,-0.00217465,-0.00839809,0,
6,0.554791,0.303027,-0.00221417,-0.00850473,0,
6,0.577166,0.319402,-0.00224359,-0.00856078,0,
6,0.598964,0.335913,-0.00224703,-0.00856933,0,
6,0.620228,0.352569,-0.00223467,-0.0085347,0,
6,0.640996,0.369369,-0.00222096,-0.00845989,0,
6,0.661304,0.386288,-0.00221633,-0.00834668,0,
6,0.681188,0.403281,-0.00222618,-0.00819663,0,
6,0.700681,0.420286,-0.00225328,-0.00801227,0,
6,0.719813,0.437231,-0.0022998,-0.00779779,0,
6,0.738612,0.454032,-0.00236751,-0.00755857,0,
6,0.757107,0.470607,-0.00245704,-0.00729964,0,
6,0.775322,0.486882,-0.00256803,-0.00702547,0,
6,0.793282,0.502796,-0.00269977,-0.0067401,0,
6,0.811008,0.518303,-0.00285156,-0.00644726,0,
6,0.828521,0.533369,-0.00302273,-0.00615039,0,
6,0.845842,0.547961,-0.00321275,-0.00585273,0,
6,0.862989,0.562047,-0.00342052,-0.00555744,0,
6,0.879979,0.575584,-0.00364588,-0.005273,0,
6,0.896829,0.588541,-0.00388732,-0.00499949,0,
6,0.913555,0.600919,-0.0041422,-0.00473577,0,
6,0.930172,0.612751,-0.0044097,-0.00448112,0,
6,0.946694,0.62409,-0.00469025,-0.00423466,0,
6,0.963136,0.634994,-0.00498507,-0.00399502,0,
6,0.97951,0.645532,-0.00529656,-0.00375986,0,
6,0.99583,0.655787,-0.0056293,-0.00351132,0,
6,1.01211,0.665798,-0.0059763,-0.00327117,0,
6,1.02836,0.675537,-0.00633208,-0.00303266,0,
6,1.04459,0.684965,-0.00669898,-0.00279707,0,
6,1.06081,0.694042,-0.00707553,-0.00256725,0,
6,1.09329,0.710971,-0.00785718,-0.00213709,0,
6,1.10959,0.718755,-0.00826123,-0.00194292,0,
6,1.12595,0.726048,-0.00867321,-0.00176632,0,
6,1.14238,0.732839,-0.00909232,-0.00160916,0,
6,1.1589,0.739133,-0.00951787,-0.00147238,0,
6,1.17551,0.744954,-0.00994908,-0.00135586,0,
6,1.19223,0.750338,-0.0103856,-0.00125868,0,
6,1.20907,0.755336,-0.0108265,-0.00118059,0,
6,1.22605,0.760018,-0.0112747,-0.00111513,0,
6,1.24318,0.764471,-0.0117339,-0.00106157,0,
6,1.26048,0.768787,-0.0122054,-0.00101607,0,
6,1.27797,0.773054,-0.0126885,-0.000975945,0,
6,1.29566,0.777344,-0.0131801,-0.000940039,0,
6,1.31357,0.781691,-0.0136768,-0.000908185,0,
6,1.33173,0.786092,-0.0141761,-0.000880389,0,
6,1.35015,0.790521,-0.0146775,-0.000856314,0,
6,1.36886,0.794946,-0.0151827,-0.000835074,0,
6,1.38788,0.799351,-0.0156936,-0.000815921,0,
6,1.40725,0.803738,-0.0162126,-0.000797823,0,
6,1.42698,0.808123,-0.0167416,-0.000779936,0,
6,1.44712,0.812529,-0.0172819,-0.000761877,0,
6,1.46769,0.816977,-0.0178336,-0.000743909,0,
6,1.48874,0.821477,-0.0183972,-0.000726042,0,
6,1.5103,0.826039,-0.0189733,-0.000708209,0,
6,1.53242,0.830667,-0.019563,-0.000690327,0,
6,1.55515,0.835368,-0.020167,-0.000672318,0,
6,1.57854,0.840146,-0.0207868,-0.000654127,0,
6,1.60265,0.845004,-0.0214234,-0.000635717,0,
6,1.62754,0.849946,-0.0220785,-0.000617054,0,
6,1.65329,0.854974,-0.0227529,-0.000598102,0,
6,1.67998,0.86009,-0.0234492,-0.000578785,0,
6,1.70768,0.865295,-0.0241671,-0.00055932,0,
6,1.73712,0.870691,-0.0249286,-0.000539945,0,
6,1.76996,0.876511,-0.0257701,-0.000519648,0,
6,1.80655,0.882788,-0.0267015,-0.000497443,0,
6,1.84728,0.889494,-0.0277275,-0.000473773,0,
6,1.89255,0.896576,-0.0288554,-0.000448448,0,
6,1.9428,0.903993,-0.0300912,-0.000419569,0,
6,1.99849,0.911751,-0.0314481,-0.000367165,0,
6,2.06009,0.919768,-0.0329248,-0.000310979,0,
6,2.1281,0.927781,-0.0345198,-0.000250451,0,
6,2.20301,0.935422,-0.0362349,-0.000189336,0,
6,2.28535,0.942303,-0.0380619,-0.000132473,0,
6,2.37559,0.948055,-0.0399913,-8.40269e-05,0,
6,2.47424,0.952389,-0.0420059,-4.69333e-05,0,
6,2.58172,0.955176,-0.0440847,-2.22798e-05,0,
6,2.69844,0.956529,-0.0462018,-8.80007e-06,0,
6,2.82473,0.956836,-0.0483302,-3.10147e-06,0,
6,2.96084,0.956682,-0.0504436,-1.24038e-06,0,
6,3.10691,0.956655,-0.052519,-5.73147e-07,0,
6,3.26296,0.957119,-0.0545373,-2.20511e-07,0,
6,3.42888,0.958099,-0.056482,-6.89632e-08,0,
6,3.60438,0.959367,-0.0583376,-3.21189e-08,0,
6,3.78902,0.960641,-0.0600893,-2.53603e-08,0,
6,3.98218,0.961742,-0.0617244,-2.12234e-08,0,
6,4.18307,0.962637,-0.0632339,-1.76793e-08,0,
6,4.39071,0.963377,-0.0646124,-1.5065e-08,0,
6,4.60398,0.964024,-0.0658587,-1.31552e-08,0,
6,4.82159,0.964612,-0.066975,-1.16552e-08,0,
6,5.04218,0.965146,-0.0679659,-1.04347e-08,0,
6,5.26426,0.965619,-0.0688385,-9.66864e-09,0,
6,5.48633,0.966021,-0.0696012,-9.9213e-09,0,
6,5.70687,0.966345,-0.0702632,-1.25614e-08,0,
6,5.92439,0.966597,-0.0708342,-2.14499e-08,0,
6,6.1375,0.966824,-0.0713241,-5.14569e-08,0,
6,6.34489,0.96714,-0.0717419,-1.66917e-07,0,
6,6.5454,0.967687,-0.0720962,-5.53859e-07,0,
6,6.73802,0.968454,-0.0723945,-1.19443e-06,0,
6,6.92195,0.968942,-0.0726438,5.05418e-07,0,
6,7.09653,0.967908,-0.0728498,1.44207e-05,0,
6,7.26132,0.963573,-0.073023,5.8085e-05,0,
6,7.41603,0.95445,-0.0731607,0.000148027,0,
6,7.56054,0.940285,-0.073284,0.000289678,0,
6,7.6949,0.922115,-0.0733849,0.000422347,0,
6,7.81927,0.901605,-0.0734511,0.00056588,0,
6,7.93391,0.880621,-0.0735072,0.000712701,0,
6,8.0392,0.860586,-0.0735425,0.000845328,0,
6,8.13555,0.842128,-0.0735715,0.000956216,0,
6,8.22344,0.825265,-0.0735947,0.00104486,0,
6,8.30339,0.809703,-0.0736182,0.00111501,0,
6,8.37592,0.795046,-0.0736427,0.00117072,0,
6,8.44155,0.780903,-0.0736698,0.00121226,0,
6,8.50082,0.766989,-0.0736982,0.00124611,0,
6,8.55423,0.753204,-0.0737252,0.00127883,0,
6,8.60229,0.739547,-0.0737496,0.00130603,0,
6,8.64545,0.72602,-0.0737723,0.00132799,0,
6,8.68417,0.712621,-0.073793,0.0013453,0,
6,8.71885,0.699344,-0.0738121,0.00135843,0,
6,8.74989,0.686183,-0.0738296,0.00136775,0,
6,8.77763,0.673133,-0.0738455,0.00137356,0,
6,8.80241,0.660186,-0.07386,0.00137612,0,
6,8.82452,0.647337,-0.0738732,0.00137573,0,
6,8.84423,0.634575,-0.073885,0.00137267,0,
6,8.86181,0.62189,-0.0738957,0.00136721,0,
6,8.87746,0.609269,-0.0739052,0.00135966,0,
6,8.89139,0.596697,-0.0739136,0.00135027,0,
6,8.90379,0.584153,-0.0739212,0.0013393,0,
6,8.91482,0.571615,-0.0739278,0.00132694,0,
6,8.92463,0.559058,-0.0739336,0.00131339,0,
6,8.93334,0.546451,-0.0739387,0.00129876,0,
6,8.94109,0.533761,-0.0739431,0.00128314,0,
6,8.94798,0.52095,-0.0739469,0.00126655,0,
6,8.95409,0.507975,-0.0739502,0.00124894,0,
6,8.95953,0.494789,-0.0739531,0.0012302,0,
6,8.96435,0.481338,-0.0739555,0.00121014,0,
6,8.96863,0.467558,-0.0739576,0.00118847,0,
6,8.97244,0.453379,-0.0739594,0.00116478,0,
6,8.97581,0.438719,-0.0739609,0.00113851,0,
6,8.97881,0.423482,-0.0739621,0.00110893,0,
6,8.98147,0.407556,-0.0739632,0.00107506,0,
6,8.98383,0.390811,-0.073964,0.00103564,0,
6,8.98593,0.37309,-0.0739648,0.00098945,0,
6,8.98779,0.354193,-0.0739653,0.000932846,0,
6,8.98944,0.333856,-0.0739659,0.000860999,0,
6,8.9909,0.311825,-0.0739662,0.000775201,0,
6,8.9922,0.287923,-0.0739666,0.000673733,0,
6,8.99336,0.261992,-0.0739667,0.000549488,0,
6,8.99438,0.233869,-0.073967,0.000397167,0,
6,8.99529,0.20386,-0.073967,0.000248836,0,
6,8.99609,0.173105,-0.0739672,0.000128608,0,
6,8.99681,0.143124,-0.0739671,5.3471e-05,0,
6,8.99744,0.115189,-0.0739674,1.78136e-05,0,
6,8.99801,0.0899154,-0.0739672,4.72597e-06,0,
6,8.9985,0.067371,-0.0739674,9.58823e-07,0,
6,8.99895,0.0473655,-0.0739672,1.33127e-07,0,
6,8.99934,0.0296377,-0.0739675,9.82188e-09,0,
6,8.99969,0.0139305,-0.0739672,2.12848e-10,0,

10,0,0,-0.034151,0,0,
10,0.000296632,0.00589336,-0.0341579,-2.49396e-11,0,
10,0.000596102,0.0118266,-0.0341513,-9.22115e-10,0,
10,0.000900397,0.0178402,-0.0341573,-9.35578e-09,0,
10,0.00121153,0.0239749,-0.0341519,-5.01937e-08,0,
10,0.00153158,0.0302712,-0.0341568,-1.876e-07,0,
10,0.00186264,0.0367692,-0.0341523,-5.58092e-07,0,
10,0.00220692,0.0435075,-0.0341564,-1.42055e-06,0,
10,0.00256668,0.0505204,-0.0341527,-3.22708e-06,0,
10,0.00294431,0.0578341,-0.0341562,-6.71154e-06,0,
10,0.00334229,0.0654593,-0.034153,-1.29724e-05,0,
10,0.00376326,0.073382,-0.034156,-2.34886e-05,0,
10,0.00421,0.081551,-0.0341533,-3.99608e-05,0,
10,0.00468544,0.0898694,-0.0341559,-6.3877e-05,0,
10,0.00519274,0.098194,-0.0341536,-9.58432e-05,0,
10,0.00573524,0.106352,-0.0341558,-0.000135007,0,
10,0.00631651,0.114168,-0.0341538,-0.000179033,0,
10,0.00694041,0.121503,-0.0341557,-0.000224786,0,
10,0.00761104,0.128269,-0.034154,-0.000269308,0,
10,0.00833284,0.134435,-0.0341556,-0.000310528,0,
10,0.00911058,0.140015,-0.0341542,-0.00034745,0,
10,0.0099494,0.145054,-0.0341555,-0.000379951,0,
10,0.0108548,0.14961,-0.0341544,-0.000408459,0,
10,0.0118329,0.153748,-0.0341555,-0.000433661,0,
10,0.0128901,0.157526,-0.0341547,-0.000456311,0,
10,0.0140333,0.161001,-0.0341557,-0.000477126,0,
10,0.0152702,0.164221,-0.0341552,-0.00049674,0,
10,0.0166089,0.167227,-0.0341561,-0.000515698,0,
10,0.0180584,0.170055,-0.0341561,-0.000534463,0,
10,0.0196282,0.172736,-0.034157,-0.000553428,0,
10,0.0213288,0.175295,-0.0341574,-0.000572935,0,
10,0.0231714,0.177755,-0.0341585,-0.000593285,0,
10,0.0251682,0.180136,-0.0341594,-0.000614753,0,
10,0.0273326,0.182455,-0.0341609,-0.000637592,0,
10,0.0296789,0.184727,-0.0341625,-0.000662047,0,
10,0.0322227,0.186966,-0.0341647,-0.000688356,0,
10,0.0349809,0.189184,-0.0341672,-0.000716757,0,
10,0.0379719,0.191394,-0.0341703,-0.00074749,0,
10,0.0412155,0.193606,-0.034174,-0.000780802,0,
10,0.0447333,0.195833,-0.0341786,-0.000816949,0,
10,0.0485489,0.198083,-0.034184,-0.000856196,0,
10,0.0526875,0.200367,-0.0341905,-0.000898823,0,
10,0.0571768,0.202697,-0.0341982,-0.00094512,0,
10,0.0620466,0.205082,-0.0342075,-0.000995392,0,
10,0.0673295,0.207534,-0.0342186,-0.00104996,0,
10,0.0730607,0.210065,-0.0342318,-0.00110915,0,
10,0.0792784,0.212686,-0.0342475,-0.00117332,0,
10,0.0860241,0.215411,-0.0342661,-0.00124283,0,
10,0.0933428,0.218253,-0.0342883,-0.00131802,0,
10,0.101283,0.221227,-0.0343146,-0.00139929,0,
10,0.109899,0.224348,-0.0343459,-0.001487,0,
10,0.119247,0.227635,-0.034383,-0.00158151,0,
10,0.12939,0.231105,-0.0344271,-0.00168315,0,
10,0.140395,0.234779,-0.0344794,-0.00179225,0,
10,0.152337,0.238678,-0.0345414,-0.00190907,0,
10,0.165296,0.242827,-0.0346151,-0.00203377,0,
10,0.179357,0.247251,-0.0347025,-0.00216646,0,
10,0.194615,0.251979,-0.0348062,-0.00230706,0,
10,0.211171,0.25704,-0.0349293,-0.00245533,0,
10,0.229138,0.262468,-0.0350751,-0.00261077,0,
10,0.248635,0.268298,-0.0352485,-0.00277251,0,
10,0.269793,0.274567,-0.0354532,-0.00293927,0,
10,0.292753,0.281315,-0.0356971,-0.00310999,0,
10,0.317669,0.288585,-0.0359838,-0.00337668,0,
10,0.344708,0.296819,-0.0363755,-0.00348283,0,
10,0.372405,0.306207,-0.0368628,-0.00361531,0,
10,0.399623,0.316618,-0.0373508,-0.003763,0,
10,0.426397,0.328022,-0.0378448,-0.00391244,0,
10,0.452757,0.340229,-0.0383377,-0.00405653,0,
10,0.478735,0.352975,-0.0388345,-0.00419101,0,
10,0.504358,0.366001,-0.0393362,-0.00431415,0,
10,0.529657,0.379094,-0.0398439,-0.00442562,0,
10,0.554656,0.392116,-0.0403557,-0.00452646,0,
10,0.579382,0.404994,-0.0408683,-0.00461668,0,
10,0.603859,0.41771,-0.0413774,-0.00469684,0,
10,0.628112,0.430284,-0.0418775,-0.0047675,0,
10,0.652163,0.442755,-0.0423622,-0.00482892,0,
10,0.676035,0.455175,-0.0428248,-0.00488105,0,
10,0.699751,0.467603,-0.0432585,-0.00492347,0,
10,0.72333,0.480104,-0.0436566,-0.00495548,0,
10,0.746795,0.492745,-0.0440129,-0.00497606,0,
10,0.770165,0.505596,-0.0443221,-0.0049839,0,
10,0.79346,0.518727,-0.0445794,-0.00497741,0,
10,0.816699,0.532207,-0.0447813,-0.00495478,0,
10,0.839903,0.546106,-0.0449252,-0.00491396,0,
10,0.863088,0.560486,-0.0450094,-0.00485278,0,
10,0.886275,0.575398,-0.0450334,-0.00476906,0,
10,0.909481,0.590879,-0.0449977,-0.00466075,0,
10,0.932723,0.606933,-0.0449032,-0.00452638,0,
10,0.956021,0.623521,-0.0447518,-0.00436587,0,
10,0.97939,0.640544,-0.0445463,-0.00418077,0,
10,1.00285,0.657839,-0.044291,-0.00397367,0,
10,1.02641,0.675184,-0.043991,-0.0037481,0,
10,1.0501,0.692321,-0.043652,-0.00350834,0,
10,1.07392,0.708986,-0.0432786,-0.00325869,0,
10,1.0979,0.724929,-0.0428748,-0.00300905,0,
10,1.12205,0.739952,-0.0424464,-0.00276434,0,
10,1.14639,0.753952,-0.0419993,-0.00252752,0,
10,1.17093,0.766918,-0.0415378,-0.00230198,0,
10,1.19568,0.778909,-0.0410642,-0.00208982,0,
10,1.22066,0.790025,-0.0405788,-0.00189167,0,
10,1.24589,0.80038,-0.0400819,-0.00170681,0,
10,1.27137,0.810082,-0.039573,-0.0015337,0,
10,1.29713,0.819222,-0.0390523,-0.00137041,0,
10,1.32317,0.827861,-0.0385198,-0.00121479,0,
10,1.34951,0.836023,-0.0379755,-0.00106683,0,
10,1.37616,0.843711,-0.0374275,-0.000928731,0,
10,1.40313,0.850941,-0.0368762,-0.000801768,0,
10,1.43043,0.857744,-0.0363205,-0.000688444,0,
10,1.45807,0.864137,-0.0357637,-0.000590145,0,
10,1.48607,0.870121,-0.0352076,-0.000507949,0,
10,1.51444,0.87571,-0.0346554,-0.000442043,0,
10,1.54318,0.880944,-0.0341084,-0.000391146,0,
10,1.57231,0.885892,-0.0335677,-0.000352634,0,
10,1.60184,0.890628,-0.033034,-0.000323303,0,
10,1.63178,0.895206,-0.0325078,-0.000300188,0,
10,1.66213,0.899656,-0.0319897,-0.000281038,0,
10,1.69292,0.90399,-0.0314802,-0.000264364,0,
10,1.72416,0.908204,-0.0309799,-0.00024925,0,
10,1.75585,0.912293,-0.030489,-0.000235136,0,
10,1.78802,0.916243,-0.0300082,-0.000221681,0,
10,1.82067,0.920042,-0.0295378,-0.000208694,0,
10,1.85383,0.923681,-0.0290787,-0.000196092,0,
10,1.88751,0.927152,-0.0286308,-0.000183878,0,
10,1.92173,0.930454,-0.0281954,-0.000172116,0,
10,1.95652,0.933594,-0.0277713,-0.000161047,0,
10,1.9919,0.936599,-0.027361,-0.000148872,0,
10,2.02791,0.939509,-0.0269639,-0.000133943,0,
10,2.06456,0.942327,-0.026578,-0.000118747,0,
10,2.10268,0.945066,-0.0261983,-0.000101693,0,
10,2.1443,0.94778,-0.0258067,-8.35234e-05,0,
10,2.18977,0.950395,-0.0254073,-6.47583e-05,0,
10,2.23946,0.952804,-0.0250032,-4.60256e-05,0,
10,2.29376,0.954889,-0.0245997,-2.85318e-05,0,
10,2.35309,0.956536,-0.024203,-1.3369e-05,0,
10,2.4179,0.957643,-0.0238209,-1.41047e-06,0,
10,2.48863,0.958134,-0.0234624,6.79109e-06,0,
10,2.56575,0.957978,-0.0231376,1.111e-05,0,
10,2.64971,0.95721,-0.022857,1.19452e-05,0,
10,2.74098,0.955942,-0.022631,1.02048e-05,0,
10,2.83997,0.954366,-0.0224694,7.17719e-06,0,
10,2.94709,0.952725,-0.0223807,4.14544e-06,0,
10,3.06269,0.951264,-0.0223716,1.93553e-06,0,
10,3.18706,0.950162,-0.0224471,7.17344e-07,0,
10,3.3204,0.949484,-0.02261,2.09334e-07,0,
10,3.46281,0.949175,-0.0228607,4.99348e-08,0,
10,3.61427,0.949097,-0.0231979,1.17236e-08,0,
10,3.77463,0.949103,-0.0236178,4.08817e-09,0,
10,3.94358,0.949093,-0.0241145,2.58618e-09,0,
10,4.12067,0.949034,-0.0246795,2.04176e-09,0,
10,4.30525,0.948952,-0.0253025,1.30066e-09,0,
10,4.49655,0.948893,-0.0259712,2.2687e-10,0,
10,4.6936,0.948889,-0.0266728,-1.01995e-09,0,
10,4.89531,0.948949,-0.0273938,-2.37147e-09,0,
10,5.10047,0.949056,-0.0281213,-4.11304e-09,0,
10,5.30776,0.949187,-0.028843,-7.13309e-09,0,
10,5.51581,0.949321,-0.0295477,-1.34703e-08,0,
10,5.72323,0.949449,-0.030226,-2.84538e-08,0,
10,5.92863,0.949589,-0.0308698,-7.05845e-08,0,
10,6.13069,0.949802,-0.0314733,-2.05861e-07,0,
10,6.32816,0.950182,-0.0320321,-5.9961e-07,0,
10,6.51991,0.950764,-0.0325439,-1.32704e-06,0,
10,6.70495,0.951324,-0.033008,-1.08134e-06,0,
10,6.88244,0.951148,-0.0334246,5.65679e-06,0,
10,7.0517,0.948994,-0.0337953,3.03007e-05,0,
10,7.21224,0.943445,-0.0341192,8.68572e-05,0,
10,7.3637,0.933584,-0.0344014,0.000185313,0,
10,7.5059,0.919459,-0.0346443,0.000317163,0,
10,7.63878,0.901706,-0.0348498,0.000434993,0,
10,7.76243,0.881473,-0.0350273,0.000565469,0,
10,7.87701,0.860573,-0.0351674,0.000699066,0,
10,7.9828,0.840504,-0.035284,0.000819435,0,
10,8.08014,0.821995,-0.0353763,0.000920726,0,
10,8.16941,0.805116,-0.0354532,0.00100363,0,
10,8.25106,0.789578,-0.0355173,0.00107176,0,
10,8.32554,0.774981,-0.0355738,0.00112829,0,
10,8.39331,0.760963,-0.0356238,0.00117597,0,
10,8.45484,0.747263,-0.0356689,0.00121705,0,
10,8.5106,0.733737,-0.0357087,0.00125262,0,
10,8.56104,0.720332,-0.0357437,0.00128304,0,
10,8.60659,0.707058,-0.0357743,0.00130841,0,
10,8.64767,0.69395,-0.035801,0.00132885,0,
10,8.68467,0.681041,-0.0358248,0.0013446,0,
10,8.71795,0.668324,-0.0358463,0.00135163,0,
10,8.74786,0.655778,-0.0358651,0.00135516,0,
10,8.77471,0.643405,-0.0358816,0.00135462,0,
10,8.79881,0.631202,-0.0358961,0.00135047,0,
10,8.8204,0.619164,-0.0359088,0.00134326,0,
10,8.83975,0.607281,-0.0359198,0.00133349,0,
10,8.85708,0.595539,-0.0359294,0.00132164,0,
10,8.87259,0.58392,-0.0359377,0.00130814,0,
10,8.88646,0.572404,-0.0359449,0.00129337,0,
10,8.89886,0.560967,-0.0359511,0.00127763,0,
10,8.90995,0.549582,-0.0359565,0.00126118,0,
10,8.91986,0.538221,-0.035961,0.00124423,0,
10,8.92872,0.52685,-0.0359649,0.0012269,0,
10,8.93663,0.515437,-0.0359682,0.00120927,0,
10,8.94369,0.503942,-0.0359711,0.00119136,0,
10,8.95,0.492327,-0.0359734,0.00117313,0,
10,8.95564,0.480546,-0.0359754,0.00115445,0,
10,8.96067,0.468552,-0.0359771,0.00113521,0,
10,8.96517,0.456292,-0.0359785,0.00111514,0,
10,8.96918,0.443708,-0.0359796,0.00109391,0,
10,8.97276,0.430732,-0.0359807,0.0010711,0,
10,8.97596,0.417288,-0.0359814,0.00104617,0,
10,8.97882,0.403288,-0.0359822,0.00101842,0,
10,8.98137,0.388629,-0.0359827,0.000986943,0,
10,8.98365,0.373191,-0.0359833,0.000950582,0,
10,8.98569,0.356832,-0.0359835,0.000908161,0,
10,8.9875,0.339374,-0.035984,0.000857089,0,
10,8.98913,0.320577,-0.035984,0.000792179,0,
10,8.99058,0.300202,-0.0359845,0.000715211,0,
10,8.99188,0.278082,-0.0359843,0.000624662,0,
10,8.99304,0.254057,-0.0359848,0.000514419,0,
10,8.99408,0.227944,-0.0359845,0.000378897,0,
10,8.99501,0.199935,-0.035985,0.000244359,0,
10,8.99583,0.170957,-0.0359846,0.000131309,0,
10,8.99658,0.142348,-0.0359852,5.70555e-05,0,
10,8.99724,0.115333,-0.0359847,1.98457e-05,0,
10,8.99784,0.090594,-0.0359852,5.47449e-06,0,
10,8.99837,0.068286,-0.0359847,1.15015e-06,0,
10,8.99885,0.0482875,-0.0359854,1.64871e-07,0,
10,8.99927,0.0303854,-0.0359846,1.25201e-08,0,
10,8.99966,0.0143596,-0.0359855,2.77046e-10,0,
10,9,0,-0.0359845,0,0,

0.0416667,0,0,-0.233079,0,3.22816e-06,
0.0833333,0,0,-0.233246,0,5.5007e-06,
0.125,0,0,-0.233182,0,7.20059e-06,
0.166667,0,0,-0.233236,0,1.18361e-05,
0.208333,0,0,-0.233248,0,1.65162e-05,
0.25,0,0,-0.2333,0,2.15378e-05,
0.291667,0,0,-0.233349,0,2.59792e-05,
0.333333,0,0,-0.233416,0,2.99014e-05,
0.375,0,0,-0.233488,0,3.32829e-05,
0.416667,0,0,-0.23357,0,3.65704e-05,
0.458333,0,0,-0.233661,0,4.02099e-05,
0.5,0,0,-0.233764,0,4.46761e-05,
0.541667,0,0,-0.233885,0,5.02864e-05,
0.583333,0,0,-0.234025,0,5.71605e-05,
0.625,0,0,-0.23419,0,6.51755e-05,
0.666667,0,0,-0.234381,0,7.39684e-05,
0.708333,0,0,-0.2346,0,8.29832e-05,
0.75,0,0,-0.234843,0,9.15419e-05,
0.791667,0,0,-0.235109,0,9.89589e-05,
0.833333,0,0,-0.235392,0,0.000104699,
0.875,0,0,-0.235692,0,0.000108519,
0.916667,0,0,-0.236013,0,0.000110325,
0.958333,0,0,-0.236367,0,0.000109985,
1,0,0,-0.236774,0,0.000107032,
1.04167,0,0,-0.237268,0,0.000100151,
1.08333,0,0,-0.237879,0,8.70403e-05,
1.125,0,0,-0.238634,0,6.4765e-05,
1.16667,0,0,-0.239548,0,3.04007e-05,
1.20833,0,0,-0.240615,0,-1.80222e-05,
1.25,0,0,-0.241811,0,-8.06992e-05,
1.29167,0,0,-0.243096,0,-0.000155805,
1.33333,0,0,-0.244423,0,-0.000239965,
1.375,0,0,-0.245744,0,-0.000329215,
1.41667,0,0,-0.247017,0,-0.000419987,
1.45833,0,0,-0.248209,0,-0.000509703,
1.5,0,0,-0.249295,0,-0.000596886,
1.54167,0,0,-0.250258,0,-0.000680902,
1.58333,0,0,-0.251085,0,-0.000761613,
1.625,0,0,-0.251767,0,-0.00083909,
1.66667,0,0,-0.252297,0,-0.000913441,
1.70833,0,0,-0.252669,0,-0.000984748,
1.75,0,0,-0.252878,0,-0.00105304,
1.79167,0,0,-0.252922,0,-0.0011183,
1.83333,0,0,-0.252796,0,-0.0011805,
1.875,0,0,-0.2525,0,-0.00123956,
1.91667,0,0,-0.252033,0,-0.00129543,
1.95833,0,0,-0.251395,0,-0.00134805,
2,0,0,-0.250588,0,-0.00139737,
2.04167,0,0,-0.249615,0,-0.00144337,
2.08333,0,0,-0.24848,0,-0.00148605,
2.125,0,0,-0.247187,0,-0.00152543,
2.16667,0,0,-0.24574,0,-0.00156155,
2.20833,0,0,-0.244146,0,-0.00159447,
2.25,0,0,-0.24241,0,-0.00162424,
2.29167,0,0,-0.240538,0,-0.00165095,
2.33333,0,0,-0.238537,0,-0.00167469,
2.375,0,0,-0.236413,0,-0.00169552,
2.41667,0,0,-0.234172,0,-0.00171353,
2.45833,0,0,-0.231822,0,-0.0017288,
2.5,0,0,-0.229369,0,-0.00174142,
2.54167,0,0,-0.226819,0,-0.00175149,
2.58333,0,0,-0.224179,0,-0.00175911,
2.625,0,0,-0.221456,0,-0.0017644,
2.66667,0,0,-0.218655,0,-0.00176748,
2.70833,0,0,-0.215785,0,-0.00176845,
2.75,0,0,-0.212849,0,-0.00176741,
2.79167,0,0,-0.209854,0,-0.00176446,
2.83333,0,0,-0.206806,0,-0.0017597,
2.875,0,0,-0.20371,0,-0.00175319,
2.91667,0,0,-0.20057,0,-0.00174504,
2.95833,0,0,-0.197394,0,-0.00173533,
3,0,0,-0.194184,0,-0.00172416,
3.04167,0,0,-0.190946,0,-0.00171161,
3.08333,0,0,-0.187684,0,-0.00169778,
3.125,0,0,-0.184401,0,-0.00168274,
3.16667,0,0,-0.181103,0,-0.00166655,
3.20833,0,0,-0.177791,0,-0.00164929,
3.25,0,0,-0.17447,0,-0.001631,
3.29167,0,0,-0.171142,0,-0.00161174,
3.33333,0,0,-0.167811,0,-0.00159158,
3.375,0,0,-0.16448,0,-0.00157058,
3.41667,0,0,-0.161151,0,-0.00154881,
3.45833,0,0,-0.157825,0,-0.0015263,
3.5,0,0,-0.154506,0,-0.00150313,
3.54167,0,0,-0.151195,0,-0.00147931,
3.58333,0,0,-0.147894,0,-0.00145489,
3.625,0,0,-0.144605,0,-0.00142989,
3.66667,0,0,-0.141328,0,-0.00140434,
3.70833,0,0,-0.138066,0,-0.00137829,
3.75,0,0,-0.13482,0,-0.00135176,
3.79167,0,0,-0.13159,0,-0.00132478,
3.83333,0,0,-0.128378,0,-0.00129738,
3.875,0,0,-0.125185,0,-0.00126958,
3.91667,0,0,-0.12201,0,-0.00124141,
3.95833,0,0,-0.118855,0,-0.00121287,
4,0,0,-0.115719,0,-0.00118398,
4.04167,0,0,-0.112604,0,-0.00115475,
4.08333,0,0,-0.10951,0,-0.00112518,
4.125,0,0,-0.106437,0,-0.0010953,
4.16667,0,0,-0.103385,0,-0.0010651,
4.20833,0,0,-0.100354,0,-0.00103458,
4.25,0,0,-0.0973442,0,-0.00100375,
4.29167,0,0,-0.0943563,0,-0.000972616,
4.33333,0,0,-0.09139,0,-0.00094117,
4.375,0,0,-0.0884455,0,-0.000909416,
4.41667,0,0,-0.0855228,0,-0.000877355,
4.45833,0,0,-0.0826218,0,-0.000844987,
4.5,0,0,-0.0797427,0,-0.000812308,
4.54167,0,0,-0.0768855,0,-0.000779313,
4.58333,0,0,-0.0740501,0,-0.000745996,
4.625,0,0,-0.0712366,0,-0.000712351,
4.66667,0,0,-0.0684451,0,-0.000678372,
4.70833,0,0,-0.0656757,0,-0.000644056,
4.75,0,0,-0.0629285,0,-0.000609401,
4.79167,0,0,-0.0602036,0,-0.000574404,
4.83333,0,0,-0.0575012,0,-0.000539057,
4.875,0,0,-0.0548213,0,-0.000503345,
4.91667,0,0,-0.0521645,0,-0.000467248,
4.95833,0,0,-0.0495313,0,-0.000430743,
5,0,0,-0.0469225,0,-0.00039381,
5.04167,0,0,-0.0443392,0,-0.000356439,
5.08333,0,0,-0.041783,0,-0.000318635,
5.125,0,0,-0.0392554,0,-0.000280422,
5.16667,0,0,-0.0367586,0,-0.000241857,
5.20833,0,0,-0.0342949,0,-0.00020303,
5.25,0,0,-0.0318658,0,-0.000164047,
5.29167,0,0,-0.0294722,0,-0.000124982,
5.33333,0,0,-0.0271139,0,-8.58554e-05,
5.375,0,0,-0.0247912,0,-4.66483e-05,
5.41667,0,0,-0.0225044,0,-7.33787e-06,
5.45833,0,0,-0.0202542,0,3.20896e-05,
5.5,0,0,-0.0180416,0,7.16314e-05,
5.54167,0,0,-0.0158676,0,0.000111279,
5.58333,0,0,-0.0137331,0,0.000151019,
5.625,0,0,-0.0116395,0,0.000190832,
5.66667,0,0,-0.00958802,0,0.000230694,
5.70833,0,0,-0.00757999,0,0.000270575,
5.75,0,0,-0.00561671,0,0.000310446,
5.79167,0,0,-0.00369955,0,0.00035027,
5.83333,0,0,-0.00182987,0,0.000390008,
5.875,0,0,-8.96276e-06,0,0.000429617,
5.91667,0,0,0.00176187,0,0.000469055,
5.95833,0,0,0.0034814,0,0.000508274,
6,0,0,0.00514849,0,0.000547226,
6.04167,0,0,0.00676206,0,0.000585863,
6.08333,0,0,0.00832115,0,0.000624136,
6.125,0,0,0.00982493,0,0.000661995,
6.16667,0,0,0.0112726,0,0.000699391,
6.20833,0,0,0.0126636,0,0.000736277,
6.25,0,0,0.0139973,0,0.000772608,
6.29167,0,0,0.0152732,0,0.00080834,
6.33333,0,0,0.0164909,0,0.000843433,
6.375,0,0,0.0176503,0,0.000877846,
6.41667,0,0,0.018751,0,0.000911545,
6.45833,0,0,0.0197931,0,0.000944493,
6.5,0,0,0.0207765,0,0.000976658,
6.54167,0,0,0.0217014,0,0.00100801,
6.58333,0,0,0.0225679,0,0.00103852,
6.625,0,0,0.0233764,0,0.00106817,
6.66667,0,0,0.0241272,0,0.00109693,
6.70833,0,0,0.0248206,0,0.00112477,
6.75,0,0,0.0254571,0,0.00115169,
6.79167,0,0,0.0260371,0,0.00117767,
6.83333,0,0,0.0265612,0,0.00120269,
6.875,0,0,0.0270298,0,0.00122675,
6.91667,0,0,0.0274436,0,0.00124983,
6.95833,0,0,0.0278033,0,0.00127191,
7,0,0,0.0281096,0,0.001293,
7.04167,0,0,0.0283631,0,0.00131307,
7.08333,0,0,0.0285645,0,0.00133212,
7.125,0,0,0.0287143,0,0.00135011,
7.16667,0,0,0.0288132,0,0.00136705,
7.20833,0,0,0.028862,0,0.00138293,
7.25,0,0,0.0288613,0,0.00139774,
7.29167,0,0,0.0288121,0,0.00141149,
7.33333,0,0,0.0287149,0,0.00142418,
7.375,0,0,0.0285704,0,0.00143582,
7.41667,0,0,0.0283794,0,0.00144641,
7.45833,0,0,0.0281425,0,0.00145596,
7.5,0,0,0.0278601,0,0.00146447,
7.54167,0,0,0.0275329,0,0.00147196,
7.58333,0,0,0.0271613,0,0.00147842,
7.625,0,0,0.0267459,0,0.00148387,
7.66667,0,0,0.026287,0,0.00148832,
7.70833,0,0,0.0257851,0,0.00149179,
7.75,0,0,0.0252405,0,0.0014943,
7.79167,0,0,0.0246536,0,0.00149586,
7.83333,0,0,0.0240242,0,0.00149648,
7.875,0,0,0.023352,0,0.00149626,
7.91667,0,0,0.0226504,0,0.00149592,
7.95833,0,0,0.0218346,0,0.00149357,
8,0,0,0.0211066,0,0.00149064,
8.04171,0,0,0.0203796,0,0.00148805,
8.08368,0,0,0.019474,0,0.00148443,
8.12617,0,0,0.0185763,0,0.00147793,
8.16946,0,0,0.0176208,0,0.00147051,
8.21382,0,0,0.0165948,0,0.00146208,
8.25952,0,0,0.0154993,0,0.00145257,
8.30685,0,0,0.0143246,0,0.00144212,
8.35611,0,0,0.0130615,0,0.00143079,
8.40762,0,0,0.0117001,0,0.00141863,
8.46168,0,0,0.0102298,0,0.00140573,
8.51865,0,0,0.0086396,0,0.00139219,
8.57889,0,0,0.0069179,0,0.00137816,
8.64276,0,0,0.00505306,0,0.00136384,
8.71067,0,0,0.00303326,0,0.00134947,
8.78306,0,0,0.000846389,0,0.0013353,
8.86037,0,0,-0.00152028,0,0.00132161,
8.94309,0,0,-0.00408104,0,0.00130861,
9.03174,0,0,-0.00685452,0,0.00129639,
9.12689,0,0,-0.00986561,0,0.00128477,
9.22912,0,0,-0.0131407,0,0.00127324,
9.33908,0,0,-0.0166974,0,0.00126091,
9.45746,0,0,-0.0205245,0,0.0012467,
9.58501,0,0,-0.0245407,0,0.00122966,
9.72253,0,0,-0.028527,0,0.0012099,
9.87088,0,0,-0.0320827,0,0.00118973,
10.031,0,0,-0.0346475,0,0.00117415,
10.2039,0,0,-0.0355847,0,0.00117036,
10.3906,0,0,-0.0343166,0,0.0011864,
10.5924,0,0,-0.0304768,0,0.00122918,
10.8105,0,0,-0.0240669,0,0.00130227,
11.0463,0,0,-0.0155695,0,0.00140392,
11.3012,0,0,-0.00591945,0,0.00152647,
11.5769,0,0,0.00372567,0,0.00165799,
11.8751,0,0,0.0123312,0,0.00178582,
12.1977,0,0,0.0192331,0,0.00190006,
12.5466,0,0,0.0241598,0,0.00199497,
12.9242,0,0,0.0271295,0,0.00206847,
13.3327,0,0,0.0283413,0,0.00212116,
13.7748,0,0,0.0280967,0,0.00215546,
14.2532,0,0,0.0267554,0,0.00217542,
14.7709,0,0,0.024694,0,0.002186,
15.3312,0,0,0.0222624,0,0.00219059,
15.9377,0,0,0.0197467,0,0.00219223,
16.594,0,0,0.0173495,0,0.00219354,
17.3044,0,0,0.0151988,0,0.00219621,
18.0733,0,0,0.0133708,0,0.00220039,
18.9056,0,0,0.0119007,0,0.00220527,
19.8064,0,0,0.0107667,0,0.00220997,
20.7816,0,0,0.00989136,0,0.00221404,
21.8371,0,0,0.00918416,0,0.00221724,
22.9796,0,0,0.00858357,0,0.00221953,
24.2163,0,0,0.00806064,0,0.00222221,
25.5551,0,0,0.00759186,0,0.00222615,
27.0042,0,0,0.00714726,0,0.00223151,
28.5729,0,0,0.00669969,0,0.0022384,
30.271,0,0,0.00622874,0,0.00224755,
32.1091,0,0,0.00571874,0,0.00225791,
34.0989,0,0,0.00515629,0,0.00226895,
36.2529,0,0,0.00452333,0,0.00227973,
38.5845,0,0,0.00380972,0,0.00228892,
41.1085,0,0,0.00304865,0,0.00229768,
43.8407,0,0,0.00207768,0,0.00230518,
46.7983,0,0,0.00108009,0,0.00231202,
50,0,0,0.00214488,0,0.0023294,

