23f5a76d79097cc4e542b5fbaa7114db9ac7c069 
X,Z,x_velocity,cp,uw_b,cf,
1,0,0,-0.227696,0,0,
1,9,0,-0.12946,0,0,
1,8.99969,0.0153801,-0.129459,2.84535e-10,0,
1,8.99934,0.0328291,-0.12946,1.33001e-08,0,
1,8.99894,0.0526433,-0.129459,1.83468e-07,0,
1,8.99848,0.0751363,-0.129459,1.34503e-06,0,
1,8.99797,0.10062,-0.129459,6.72331e-06,0,
1,8.99739,0.129293,-0.129459,2.54536e-05,0,
1,8.99672,0.160962,-0.129459,7.5437e-05,0,
1,8.99597,0.194693,-0.129459,0.000175478,0,
1,8.99512,0.228841,-0.129459,0.000323652,0,
1,8.99416,0.261749,-0.129459,0.000491545,0,
1,8.99306,0.29244,-0.129459,0.00064973,0,
1,8.99182,0.320736,-0.129458,0.000777227,0,
1,8.99041,0.346776,-0.129458,0.000882758,0,
1,8.98881,0.37072,-0.129458,0.000969934,0,
1,8.98699,0.392786,-0.129457,0.00104108,0,
1,8.98494,0.413261,-0.129456,0.00109702,0,
1,8.98261,0.432456,-0.129455,0.00113986,0,
1,8.97996,0.450609,-0.129454,0.00117575,0,
1,8.97696,0.467894,-0.129453,0.00120551,0,
1,8.97356,0.484452,-0.129452,0.0012304,0,
1,8.9697,0.500402,-0.12945,0.00125138,0,
1,8.96533,0.515841,-0.129449,0.00126917,0,
1,8.96038,0.530853,-0.129447,0.00128429,0,
1,8.95476,0.545507,-0.129444,0.00129709,0,
1,8.9484,0.559863,-0.129442,0.00130784,0,
1,8.9412,0.573972,-0.129439,0.00131671,0,
1,8.93303,0.587875,-0.129436,0.0013238,0,
1,8.92379,0.601611,-0.129433,0.00132916,0,
1,8.91333,0.615211,-0.12943,0.0013328,0,
1,8.90149,0.628702,-0.129426,0.0013347,0,
1,8.8881,0.64211,-0.129423,0.00133479,0,
1,8.87295,0.655455,-0.12942,0.00133301,0,
1,8.85584,0.668759,-0.129418,0.00132925,0,
1,8.83651,0.682038,-0.129416,0.0013234,0,
1,8.81469,0.695313,-0.129416,0.00131533,0,
1,8.79007,0.708604,-0.129417,0.00130488,0,
1,8.76232,0.721931,-0.129421,0.00129186,0,
1,8.73107,0.73532,-0.129428,0.00127605,0,
1,8.69591,0.7488,-0.129439,0.00125717,0,
1,8.6564,0.762408,-0.129457,0.00123488,0,
1,8.61206,0.776188,-0.129482,0.00120877,0,
1,8.56236,0.790197,-0.129517,0.00117853,0,
1,8.50675,0.804514,-0.129566,0.00114551,0,
1,8.44464,0.819282,-0.129632,0.00110411,0,
1,8.3754,0.834719,-0.129718,0.00105254,0,
1,8.29839,0.851067,-0.129831,0.000989359,0,
1,8.21296,0.868569,-0.129978,0.000910102,0,
1,8.11843,0.887419,-0.130163,0.00080955,0,
1,8.01417,0.907617,-0.130403,0.000684238,0,
1,7.89956,0.928723,-0.130692,0.000537563,0,
1,7.77403,0.949609,-0.131068,0.000387997,0,
1,7.63711,0.968666,-0.131518,0.000205269,0,
1,7.48842,0.983569,-0.13205,7.62352e-05,0,
1,7.32773,0.992384,-0.132689,1.83238e-05,0,
1,7.15495,0.995588,-0.133432,1.82567e-06,0,
1,6.97022,0.995653,-0.134293,2.46577e-08,0,
1,6.77388,0.995037,-0.135288,3.76076e-09,0,
1,6.56652,0.994918,-0.136432,9.76715e-09,0,
1,6.34896,0.995373,-0.13774,1.25119e-08,0,
1,6.12229,0.996102,-0.139224,1.4118e-08,0,
1,5.88784,0.996904,-0.1409,1.49731e-08,0,
1,5.64716,0.997743,-0.14278,1.59508e-08,0,
1,5.40194,0.998649,-0.144875,1.73119e-08,0,
1,5.15407,0.999649,-0.147192,1.90304e-08,0,
1,4.90545,1.00075,-0.149734,2.08589e-08,0,
1,4.65805,1.00196,-0.152499,2.28163e-08,0,
1,4.41376,1.00327,-0.155479,2.4863e-08,0,
1,4.17441,1.00466,-0.158662,2.67697e-08,0,
1,3.94163,1.00608,-0.162029,2.8376e-08,0,
1,3.7169,1.00748,-0.165552,3.02932e-08,0,
1,3.50146,1.00894,-0.169199,3.44643e-08,0,
1,3.29629,1.01076,-0.172937,4.29233e-08,0,
1,3.10217,1.01331,-0.176734,5.38426e-08,0,
1,2.91959,1.01639,-0.18056,9.8637e-08,0,
1,2.74885,1.01857,-0.184372,9.82844e-07,0,
1,2.59002,1.01743,-0.188107,-6.03355e-06,0,
1,2.44299,1.01125,-0.191697,-5.2e-05,0,
1,2.30752,1.00022,-0.195077,-0.000149655,0,
1,2.18321,0.985814,-0.198185,-0.000285121,0,
1,2.06959,0.969599,-0.201052,-0.000402775,0,
1,1.9661,0.952849,-0.203659,-0.000504647,0,
1,1.87215,0.936488,-0.205969,-0.000599663,0,
1,1.78711,0.921027,-0.208021,-0.000683307,0,
1,1.71033,0.906622,-0.209831,-0.000755519,0,
1,1.64119,0.893244,-0.211421,-0.00081784,0,
1,1.57905,0.88078,-0.212812,-0.000872444,0,
1,1.52332,0.869102,-0.214024,-0.000921573,0,
1,1.47342,0.858102,-0.215084,-0.000967324,0,
1,1.42882,0.847688,-0.215989,-0.000999323,0,
1,1.389,0.837776,-0.216755,-0.00102447,0,
1,1.35351,0.828303,-0.21742,-0.00104788,0,
1,1.3219,0.819234,-0.217989,-0.0010688,0,
1,1.29378,0.81055,-0.218478,-0.00108701,0,
1,1.26878,0.802243,-0.218896,-0.00110257,0,
1,1.24659,0.794308,-0.219255,-0.00111587,0,
1,1.22689,0.786739,-0.219562,-0.00112703,0,
1,1.2092,0.779448,-0.219829,-0.00113502,0,
1,1.1932,0.772387,-0.220061,-0.00114055,0,
1,1.1787,0.765539,-0.220263,-0.00114431,0,
1,1.16554,0.758884,-0.220439,-0.00114734,0,
1,1.15357,0.75239,-0.220591,-0.00115168,0,
1,1.14266,0.746006,-0.220724,-0.00116102,0,
1,1.13268,0.739661,-0.220839,-0.00118,0,
1,1.12354,0.733254,-0.22094,-0.00121507,0,
1,1.11514,0.726652,-0.22103,-0.00127407,0,
1,1.10739,0.719692,-0.221114,-0.0013656,0,
1,1.10022,0.712192,-0.221194,-0.00149813,0,
1,1.09357,0.703973,-0.221275,-0.00167852,0,
1,1.08738,0.694897,-0.221361,-0.00191025,0,
1,1.0816,0.684907,-0.221452,-0.00219188,0,
1,1.07618,0.674046,-0.22155,-0.00251642,0,
1,1.07107,0.662449,-0.221655,-0.00287232,0,
1,1.06626,0.650309,-0.221764,-0.00324582,0,
1,1.06169,0.637831,-0.221878,-0.00362364,0,
1,1.05735,0.6252,-0.221995,-0.00399478,0,
1,1.05321,0.612569,-0.222114,-0.00435122,0,
1,1.04925,0.600052,-0.222233,-0.00468778,0,
1,1.04544,0.587726,-0.222353,-0.00500157,0,
1,1.04177,0.575643,-0.222473,-0.00529134,0,
1,1.03822,0.563831,-0.222593,-0.00555696,0,
1,1.03478,0.552306,-0.222711,-0.005799,0,
1,1.03144,0.541069,-0.222829,-0.00601843,0,
1,1.02818,0.530118,-0.222945,-0.00621643,0,
1,1.025,0.519443,-0.22306,-0.00639428,0,
1,1.02188,0.509035,-0.223175,-0.00655322,0,
1,1.01882,0.498879,-0.223287,-0.0066945,0,
1,1.01581,0.488963,-0.223399,-0.00681938,0,
1,1.01284,0.479274,-0.22351,-0.00692845,0,
1,1.00988,0.469694,-0.223621,-0.00702362,0,
1,1.00688,0.460113,-0.223733,-0.00710764,0,
1,1.00384,0.450518,-0.223847,-0.00717964,0,
1,1.00076,0.440897,-0.223961,-0.00723946,0,
1,0.997615,0.431231,-0.224077,-0.00728708,0,
1,0.99441,0.421497,-0.224195,-0.00732231,0,
1,0.991131,0.411671,-0.224313,-0.00734537,0,
1,0.987768,0.401727,-0.224433,-0.00735608,0,
1,0.984308,0.391636,-0.224554,-0.00735409,0,
1,0.980739,0.381367,-0.224677,-0.00733898,0,
1,0.977045,0.370887,-0.224803,-0.00731013,0,
1,0.973211,0.360159,-0.22493,-0.0072668,0,
1,0.969219,0.349145,-0.22506,-0.00720806,0,
1,0.965047,0.337799,-0.225192,-0.00713277,0,
1,0.960675,0.326074,-0.225327,-0.00703961,0,
1,0.956077,0.313918,-0.225464,-0.00692627,0,
1,0.951224,0.301272,-0.225605,-0.00679111,0,
1,0.946088,0.28808,-0.225748,-0.00663196,0,
1,0.940633,0.274288,-0.225895,-0.00644649,0,
1,0.934823,0.259852,-0.226047,-0.00623391,0,
1,0.928616,0.244737,-0.226202,-0.00599058,0,
1,0.921967,0.228916,-0.226362,-0.00571404,0,
1,0.914826,0.212373,-0.226524,-0.00540215,0,
1,0.907141,0.195106,-0.22669,-0.00505322,0,
1,0.898852,0.177141,-0.226857,-0.00466639,0,
1,0.889898,0.158537,-0.227025,-0.00424207,0,
1,0.880212,0.139402,-0.227195,-0.00378265,0,
1,0.869723,0.11992,-0.227365,-0.0032935,0,
1,0.858358,0.100384,-0.227535,-0.00278453,0,
1,0.846039,0.0812359,-0.227709,-0.00227253,0,
1,0.83269,0.0631095,-0.227887,-0.00178318,0,
1,0.818232,0.0467953,-0.228073,-0.00135226,0,
1,0.802744,0.033129,-0.228255,-0.00100939,0,
1,0.78635,0.0224405,-0.22844,-0.000758637,0,
1,0.768969,0.0143252,-0.228619,-0.000587944,0,
1,0.75053,0.00808704,-0.228788,-0.000479855,0,
1,0.730977,0.00304996,-0.228938,-0.000417155,0,
1,0.710271,-0.00129821,-0.229068,-0.000384886,0,
1,0.688397,-0.00529522,-0.229176,-0.000371574,0,
1,0.66536,-0.00914361,-0.229265,-0.000370463,0,
1,0.641194,-0.0129719,-0.229336,-0.000373426,0,
1,0.615961,-0.0168612,-0.229387,-0.000376673,0,
1,0.589754,-0.020848,-0.229421,-0.000377229,0,
1,0.562692,-0.0249326,-0.229435,-0.000373411,0,
1,0.534925,-0.0290883,-0.229429,-0.000364502,0,
1,0.506624,-0.0332687,-0.229401,-0.000350418,0,
1,0.477982,-0.0374158,-0.229349,-0.000331483,0,
1,0.449206,-0.0414657,-0.229275,-0.00030826,0,
1,0.420509,-0.0453534,-0.229177,-0.000281445,0,
1,0.392107,-0.049016,-0.229058,-0.000251792,0,
1,0.364206,-0.0523941,-0.228922,-0.000220068,0,
1,0.337003,-0.0554334,-0.228772,-0.000187015,0,
1,0.310673,-0.0580845,-0.228613,-0.000153313,0,
1,0.28537,-0.0603034,-0.228451,-0.000119553,0,
1,0.26122,-0.0620504,-0.228289,-8.62291e-05,0,
1,0.238324,-0.0632898,-0.228134,-5.37572e-05,0,
1,0.21675,-0.0639896,-0.227989,-2.24886e-05,0,
1,0.196544,-0.0641217,-0.22786,7.24795e-06,0,
1,0.177724,-0.0636634,-0.227748,3.5098e-05,0,
1,0.160284,-0.0626002,-0.227655,6.06427e-05,0,
1,0.144202,-0.0609293,-0.227583,8.3392e-05,0,
1,0.129436,-0.0586644,-0.227532,0.00010282,0,
1,0.115935,-0.0558386,-0.227498,0.000118433,0,
1,0.103636,-0.0525067,-0.227482,0.000129853,0,
1,0.0924701,-0.0487436,-0.227479,0.000136877,0,
1,0.0823633,-0.0446403,-0.227487,0.000139526,0,
1,0.0732406,-0.0402976,-0.227503,0.000138058,0,
1,0.0650269,-0.0358189,-0.227524,0.000132922,0,
1,0.057648,-0.0313023,-0.227547,0.000124692,0,
1,0.0510323,-0.026834,-0.227571,0.000114001,0,
1,0.0451115,-0.022484,-0.227594,0.000101482,0,
1,0.0398209,-0.0183043,-0.227616,8.77226e-05,0,
1,0.0351001,-0.01433,-0.227635,7.32566e-05,0,
1,0.0308929,-0.0105841,-0.227651,5.85785e-05,0,
1,0.0271475,-0.00708658,-0.227664,4.42137e-05,0,
1,0.0238164,-0.00386719,-0.227674,3.08348e-05,0,
1,0.0208562,-0.000979454,-0.227681,1.93383e-05,0,
1,0.0182274,0.00149479,-0.227686,1.06313e-05,0,
1,0.0158944,0.00346685,-0.227689,4.98521e-06,0,
1,0.0138249,0.00488519,-0.227691,1.95183e-06,0,
1,0.0119898,0.00576606,-0.227692,6.09481e-07,0,
1,0.0103632,0.00618613,-0.227693,1.2275e-07,0,
1,0.00892169,0.00624839,-0.227694,-1.36549e-08,0,
1,0.00764438,0.00605259,-0.227694,-3.33651e-08,0,
1,0.00651264,0.00568134,-0.227695,-2.43796e-08,0,
1,0.00550983,0.00519809,-0.227695,-1.35614e-08,0,
1,0.00462115,0.00464956,-0.227695,-6.47268e-09,0,
1,0.00383341,0.0040695,-0.227695,-2.73465e-09,0,
1,0.0031349,0.00348173,-0.227695,-1.02413e-09,0,
1,0.00251518,0.00290273,-0.227696,-3.34142e-10,0,
1,0.00196502,0.0023435,-0.227695,-9.14892e-11,0,
1,0.00147619,0.00181101,-0.227696,-1.96287e-11,0,
1,0.00104139,0.00130928,-0.227695,-2.90305e-12,0,
1,0.000654158,0.000840204,-0.227696,-2.27891e-13,0,
1,0.000308731,0.000404096,-0.227695,-5.21402e-15,0,

4,0,0,-0.157581,0,0,
4,9,0,-0.098846,0,0,
4,8.99969,0.0142498,-0.0988456,2.23254e-10,0,
4,8.99934,0.0303601,-0.0988459,1.0358e-08,0,
4,8.99894,0.0485924,-0.0988456,1.41438e-07,0,
4,8.9985,0.0692231,-0.0988458,1.02663e-06,0,
4,8.99799,0.0925337,-0.0988456,5.09579e-06,0,
4,8.99742,0.118727,-0.0988457,1.92961e-05,0,
4,8.99677,0.147719,-0.0988455,5.79155e-05,0,
4,8.99605,0.178832,-0.0988455,0.000138413,0,
4,8.99522,0.210715,-0.0988453,0.00026469,0,
4,8.99429,0.241827,-0.0988453,0.000416606,0,
4,8.99324,0.271101,-0.0988449,0.000566248,0,
4,8.99205,0.298156,-0.0988447,0.00069574,0,
4,8.9907,0.323067,-0.0988442,0.000799787,0,
4,8.98919,0.346009,-0.0988438,0.000887471,0,
4,8.98747,0.367168,-0.098843,0.000960418,0,
4,8.98553,0.386812,-0.0988423,0.00101783,0,
4,8.98334,0.405222,-0.0988413,0.00106411,0,
4,8.98087,0.422614,-0.0988401,0.00110319,0,
4,8.97807,0.439159,-0.0988387,0.00113635,0,
4,8.97491,0.454996,-0.0988371,0.0011649,0,
4,8.97134,0.470246,-0.0988352,0.00118982,0,
4,8.96731,0.485008,-0.098833,0.00121183,0,
4,8.96276,0.499367,-0.0988304,0.00123145,0,
4,8.95762,0.513395,-0.0988274,0.00124904,0,
4,8.95182,0.527155,-0.098824,0.00126487,0,
4,8.94526,0.5407,-0.0988201,0.00127908,0,
4,8.93787,0.554076,-0.0988158,0.00129174,0,
4,8.92952,0.567322,-0.0988109,0.00130286,0,
4,8.92011,0.580474,-0.0988055,0.00131239,0,
4,8.90949,0.593559,-0.0987995,0.00132024,0,
4,8.89751,0.606603,-0.098793,0.00132628,0,
4,8.88402,0.619626,-0.0987861,0.00133036,0,
4,8.86881,0.632648,-0.0987786,0.00133231,0,
4,8.85169,0.645681,-0.0987708,0.00133194,0,
4,8.83242,0.65874,-0.0987628,0.00132906,0,
4,8.81074,0.671836,-0.0987548,0.0013235,0,
4,8.78637,0.684981,-0.0987471,0.00131506,0,
4,8.75901,0.698187,-0.0987403,0.00130356,0,
4,8.7283,0.711468,-0.0987346,0.0012888,0,
4,8.69387,0.724843,-0.0987308,0.00127057,0,
4,8.65533,0.738335,-0.0987297,0.00124861,0,
4,8.61222,0.751976,-0.0987323,0.0012226,0,
4,8.56407,0.765805,-0.09874,0.00119218,0,
4,8.5104,0.779876,-0.0987545,0.00115753,0,
4,8.45065,0.794275,-0.0987781,0.00111893,0,
4,8.38429,0.809159,-0.0988142,0.00107095,0,
4,8.31073,0.824756,-0.0988653,0.00101354,0,
4,8.22941,0.841321,-0.0989347,0.000943251,0,
4,8.13974,0.859118,-0.0990262,0.00085578,0,
4,8.04115,0.878324,-0.0991414,0.0007475,0,
4,7.93313,0.898831,-0.0992863,0.000618644,0,
4,7.81519,0.919938,-0.0994529,0.000478257,0,
4,7.68693,0.940179,-0.0996655,0.000343727,0,
4,7.54803,0.957657,-0.099906,0.000203278,0,
4,7.39831,0.970482,-0.100193,8.94737e-05,0,
4,7.23771,0.977772,-0.100543,2.76693e-05,0,
4,7.06634,0.980463,-0.100944,4.56471e-06,0,
4,6.88453,0.98061,-0.101399,-5.95919e-09,0,
4,6.69275,0.980061,-0.10191,-9.63606e-08,0,
4,6.49173,0.979749,-0.102484,2.0427e-08,0,
4,6.28238,0.979831,-0.10313,2.44732e-08,0,
4,6.06579,0.980145,-0.103857,1.41266e-08,0,
4,5.84328,0.980532,-0.104669,9.52908e-09,0,
4,5.61626,0.980931,-0.105573,8.31179e-09,0,
4,5.3863,0.98134,-0.106574,8.3818e-09,0,
4,5.15502,0.981777,-0.107673,8.97387e-09,0,
4,4.92406,0.982256,-0.108873,9.83445e-09,0,
4,4.69507,0.982786,-0.110175,1.08691e-08,0,
4,4.46961,0.983373,-0.111577,1.19342e-08,0,
4,4.24915,0.983999,-0.113076,1.27288e-08,0,
4,4.03501,0.984608,-0.114665,1.29609e-08,0,
4,3.82836,0.985133,-0.116338,1.28829e-08,0,
4,3.63018,0.985577,-0.118084,1.38917e-08,0,
4,3.44125,0.98612,-0.11989,1.89283e-08,0,
4,3.26217,0.987121,-0.121746,6.52757e-08,0,
4,3.09333,0.988874,-0.123635,5.77028e-07,0,
4,2.93497,0.991193,-0.125544,2.68975e-06,0,
4,2.78715,0.993223,-0.127454,5.17704e-06,0,
4,2.64979,0.993783,-0.129347,4.57245e-07,0,
4,2.52268,0.991949,-0.131203,-2.12239e-05,0,
4,2.40551,0.987397,-0.132999,-6.49086e-05,0,
4,2.29789,0.980379,-0.134713,-0.000129061,0,
4,2.19939,0.971486,-0.136332,-0.000207538,0,
4,2.10949,0.961412,-0.137846,-0.00029252,0,
4,2.02768,0.950786,-0.13925,-0.000376471,0,
4,1.95343,0.940123,-0.140546,-0.00045329,0,
4,1.88618,0.929799,-0.141733,-0.000520752,0,
4,1.82542,0.919997,-0.142823,-0.000567507,0,
4,1.77062,0.910775,-0.143819,-0.00060632,0,
4,1.72128,0.902185,-0.144718,-0.000641262,0,
4,1.67693,0.894256,-0.145532,-0.000672428,0,
4,1.63713,0.886986,-0.146265,-0.000700176,0,
4,1.60144,0.880356,-0.146926,-0.000724865,0,
4,1.56949,0.874334,-0.147521,-0.000746888,0,
4,1.54091,0.86888,-0.148054,-0.000766723,0,
4,1.51537,0.86394,-0.148533,-0.000784711,0,
4,1.49167,0.859318,-0.148977,-0.000801263,0,
4,1.46926,0.854924,-0.149397,-0.000816937,0,
4,1.44801,0.850733,-0.149801,-0.000831265,0,
4,1.42781,0.846706,-0.150194,-0.000837511,0,
4,1.40855,0.842809,-0.15057,-0.000844129,0,
4,1.39015,0.839027,-0.15093,-0.000849477,0,
4,1.37252,0.835345,-0.151277,-0.00085379,0,
4,1.3556,0.831747,-0.151612,-0.000857581,0,
4,1.3393,0.828217,-0.151935,-0.000861394,0,
4,1.32357,0.824736,-0.152249,-0.00086612,0,
4,1.30836,0.821285,-0.152553,-0.000872486,0,
4,1.29362,0.817843,-0.152848,-0.000881508,0,
4,1.2793,0.814383,-0.153136,-0.000894465,0,
4,1.26537,0.810875,-0.153417,-0.000912951,0,
4,1.25179,0.807282,-0.153692,-0.000938903,0,
4,1.23852,0.80356,-0.153961,-0.000974634,0,
4,1.22554,0.799658,-0.154224,-0.00102284,0,
4,1.21282,0.795515,-0.154482,-0.00108655,0,
4,1.20034,0.791064,-0.154735,-0.00116905,0,
4,1.18806,0.786231,-0.154983,-0.00127362,0,
4,1.17599,0.780939,-0.155225,-0.00140331,0,
4,1.16408,0.775119,-0.155463,-0.00156049,0,
4,1.15233,0.768711,-0.155695,-0.00174648,0,
4,1.14073,0.761677,-0.155923,-0.00196121,0,
4,1.12925,0.754002,-0.156145,-0.00220305,0,
4,1.11788,0.745698,-0.156363,-0.00246883,0,
4,1.10661,0.736801,-0.156576,-0.00275419,0,
4,1.09543,0.727364,-0.156784,-0.00305395,0,
4,1.08432,0.717452,-0.156988,-0.00336262,0,
4,1.07328,0.707133,-0.157188,-0.0036748,0,
4,1.0623,0.696478,-0.157384,-0.00398556,0,
4,1.05136,0.685551,-0.157576,-0.00429053,0,
4,1.04044,0.674395,-0.157765,-0.00458616,0,
4,1.0295,0.663041,-0.157951,-0.00486975,0,
4,1.01855,0.651533,-0.158134,-0.0051387,0,
4,1.00757,0.639912,-0.158314,-0.00539063,0,
4,0.996544,0.628209,-0.158491,-0.005624,0,
4,0.98547,0.616456,-0.158664,-0.00583688,0,
4,0.974334,0.604676,-0.158835,-0.00602802,0,
4,0.963124,0.592892,-0.159002,-0.0061962,0,
4,0.951826,0.581121,-0.159169,-0.00634093,0,
4,0.940428,0.56938,-0.159331,-0.00649426,0,
4,0.928915,0.557565,-0.159457,-0.00658013,0,
4,0.917272,0.545507,-0.159553,-0.006668,0,
4,0.905481,0.533108,-0.159644,-0.00676359,0,
4,0.893524,0.520309,-0.159734,-0.00686718,0,
4,0.881383,0.507062,-0.159826,-0.00697888,0,
4,0.869035,0.493328,-0.159921,-0.00709856,0,
4,0.856459,0.479075,-0.160021,-0.00722591,0,
4,0.843629,0.464271,-0.160124,-0.00736044,0,
4,0.830518,0.44889,-0.160232,-0.00750149,0,
4,0.817097,0.432911,-0.160343,-0.00764823,0,
4,0.803334,0.416316,-0.160456,-0.00779969,0,
4,0.789195,0.399091,-0.160571,-0.00795473,0,
4,0.774643,0.381227,-0.160687,-0.00811204,0,
4,0.759639,0.362719,-0.160804,-0.00827002,0,
4,0.744138,0.343572,-0.160921,-0.00842671,0,
4,0.728096,0.3238,-0.16104,-0.00857967,0,
4,0.711463,0.303434,-0.161161,-0.00872595,0,
4,0.694189,0.282523,-0.161284,-0.00886193,0,
4,0.676218,0.261127,-0.161411,-0.00898271,0,
4,0.657495,0.23931,-0.16154,-0.00908308,0,
4,0.637962,0.21713,-0.161671,-0.00915832,0,
4,0.617561,0.194629,-0.161798,-0.00920462,0,
4,0.596848,0.172446,-0.161912,-0.00921798,0,
4,0.576557,0.151324,-0.162012,-0.0091976,0,
4,0.556564,0.131132,-0.162096,-0.00914509,0,
4,0.536763,0.111775,-0.162173,-0.00906136,0,
4,0.517057,0.0932245,-0.16226,-0.008947,0,
4,0.497368,0.0755428,-0.162382,-0.00880342,0,
4,0.477632,0.0588668,-0.162571,-0.00863419,0,
4,0.457804,0.0433448,-0.162833,-0.00844631,0,
4,0.437857,0.0290172,-0.163154,-0.00825144,0,
4,0.417786,0.015662,-0.163216,-0.0079865,0,
4,0.397605,0.00286909,-0.163037,-0.0075884,0,
4,0.377348,-0.00958936,-0.162887,-0.00725459,0,
4,0.357066,-0.0216985,-0.162729,-0.00690686,0,
4,0.336828,-0.03342,-0.162553,-0.00655253,0,
4,0.316717,-0.0446987,-0.162368,-0.00619301,0,
4,0.296825,-0.0554785,-0.16217,-0.00582836,0,
4,0.27725,-0.0657131,-0.161963,-0.00546047,0,
4,0.258095,-0.0753684,-0.161746,-0.00509186,0,
4,0.239458,-0.0844225,-0.161522,-0.00472531,0,
4,0.221432,-0.092865,-0.161292,-0.00436362,0,
4,0.2041,-0.100696,-0.161056,-0.00400949,0,
4,0.187537,-0.107924,-0.160818,-0.00366538,0,
4,0.171798,-0.114566,-0.160579,-0.00333343,0,
4,0.156928,-0.120644,-0.160341,-0.00301546,0,
4,0.142956,-0.126183,-0.160106,-0.0027129,0,
4,0.129894,-0.131213,-0.159877,-0.00242678,0,
4,0.117744,-0.135764,-0.159656,-0.00215777,0,
4,0.106492,-0.139867,-0.159444,-0.0019062,0,
4,0.0961173,-0.14355,-0.159243,-0.0016721,0,
4,0.0865883,-0.146841,-0.159054,-0.00145522,0,
4,0.0778675,-0.149769,-0.158878,-0.00125511,0,
4,0.0699123,-0.152356,-0.158716,-0.00107115,0,
4,0.062677,-0.154625,-0.158568,-0.000902585,0,
4,0.056114,-0.156594,-0.158433,-0.000748588,0,
4,0.0501747,-0.158281,-0.158312,-0.00060827,0,
4,0.0448114,-0.159699,-0.158204,-0.00048072,0,
4,0.039977,-0.160858,-0.158108,-0.000365032,0,
4,0.0356266,-0.161766,-0.158023,-0.000260325,0,
4,0.0317171,-0.162425,-0.157949,-0.000165762,0,
4,0.0282081,-0.162835,-0.157884,-8.0567e-05,0,
4,0.0250617,-0.162988,-0.157829,-4.04498e-06,0,
4,0.0222427,-0.162871,-0.157781,6.43964e-05,0,
4,0.0197189,-0.162462,-0.15774,0.000125216,0,
4,0.0174603,-0.161725,-0.157706,0.000178689,0,
4,0.0154398,-0.160611,-0.157677,0.000224835,0,
4,0.0136326,-0.159045,-0.157653,0.000263286,0,
4,0.0120162,-0.156919,-0.157634,0.000293089,0,
4,0.0105703,-0.15408,-0.157619,0.00031242,0,
4,0.00927657,-0.15031,-0.157607,0.000318297,0,
4,0.00811839,-0.145325,-0.157598,0.000306698,0,
4,0.0070809,-0.138786,-0.157593,0.000274042,0,
4,0.0061507,-0.130399,-0.157588,0.000220964,0,
4,0.00531578,-0.1201,-0.157586,0.000156329,0,
4,0.00456537,-0.108227,-0.157584,9.52907e-05,0,
4,0.00388979,-0.0954621,-0.157584,4.99456e-05,0,
4,0.00328037,-0.0825336,-0.157583,2.27211e-05,0,
4,0.00272934,-0.0699611,-0.157584,9.03864e-06,0,
4,0.0022297,-0.05801,-0.157582,3.12346e-06,0,
4,0.00177519,-0.0467684,-0.157583,9.10128e-07,0,
4,0.00136016,-0.0362314,-0.157582,2.09589e-07,0,
4,0.000979511,-0.0263518,-0.157583,3.35697e-08,0,
4,0.00062865,-0.0170665,-0.157581,2.86466e-09,0,
4,0.000303409,-0.00830675,-0.157583,6.98145e-11,0,

6,0,0,-0.0186009,0,0,
6,9,0,-0.0748025,0,0,
6,8.99969,0.0135038,-0.0748021,1.85964e-10,0,
6,8.99934,0.028732,-0.0748024,8.58272e-09,0,
6,8.99895,0.0459221,-0.0748021,1.16363e-07,0,
6,8.9985,0.0653249,-0.0748023,8.3863e-07,0,
6,8.99801,0.087199,-0.0748021,4.14027e-06,0,
6,8.99744,0.111744,-0.0748022,1.56641e-05,0,
6,8.99681,0.138933,-0.074802,4.73571e-05,0,
6,8.99609,0.168244,-0.0748021,0.000115172,0,
6,8.99529,0.198525,-0.0748019,0.000225829,0,
6,8.99438,0.228349,-0.0748018,0.000364874,0,
6,8.99336,0.256615,-0.0748016,0.000506815,0,
6,8.9922,0.282825,-0.0748014,0.000634286,0,
6,8.9909,0.306978,-0.074801,0.000737549,0,
6,8.98944,0.329233,-0.0748006,0.000824353,0,
6,8.98779,0.349761,-0.0748,0.000897367,0,
6,8.98593,0.368811,-0.0747994,0.00095519,0,
6,8.98383,0.386641,-0.0747985,0.00100264,0,
6,8.98147,0.403458,-0.0747976,0.00104283,0,
6,8.97881,0.419427,-0.0747964,0.00107724,0,
6,8.97581,0.434689,-0.074795,0.00110721,0,
6,8.97244,0.449361,-0.0747933,0.00113373,0,
6,8.96863,0.463544,-0.0747913,0.00115757,0,
6,8.96435,0.477324,-0.0747889,0.00117927,0,
6,8.95953,0.490776,-0.0747862,0.00119924,0,
6,8.95409,0.503963,-0.074783,0.00121775,0,
6,8.94798,0.516943,-0.0747793,0.00123497,0,
6,8.94109,0.529763,-0.074775,0.00125101,0,
6,8.93334,0.542468,-0.07477,0.00126586,0,
6,8.92463,0.555094,-0.0747644,0.00127949,0,
6,8.91482,0.567676,-0.074758,0.00129179,0,
6,8.90379,0.580242,-0.0747507,0.00130259,0,
6,8.89139,0.592816,-0.0747425,0.00131171,0,
6,8.87746,0.60542,-0.0747334,0.0013189,0,
6,8.86181,0.618069,-0.0747232,0.00132392,0,
6,8.84423,0.63078,-0.0747119,0.00132648,0,
6,8.82452,0.643561,-0.0746995,0.00132631,0,
6,8.80241,0.656423,-0.0746859,0.00132314,0,
6,8.77763,0.669372,-0.0746712,0.00131668,0,
6,8.74989,0.682417,-0.0746556,0.00130671,0,
6,8.71885,0.695565,-0.0746388,0.00129296,0,
6,8.68417,0.708827,-0.0746211,0.00127519,0,
6,8.64545,0.722217,-0.0746024,0.00125317,0,
6,8.60229,0.735758,-0.0745835,0.00122635,0,
6,8.55423,0.749477,-0.0745643,0.00119496,0,
6,8.50082,0.763416,-0.0745451,0.00115893,0,
6,8.44155,0.777651,-0.0745267,0.00111761,0,
6,8.37592,0.792311,-0.0745095,0.00106987,0,
6,8.30339,0.80759,-0.0744945,0.00101381,0,
6,8.22344,0.823742,-0.0744813,0.000946568,0,
6,8.13555,0.841065,-0.0744709,0.00086446,0,
6,8.0392,0.85981,-0.0744588,0.000764067,0,
6,7.93391,0.879972,-0.074445,0.000645112,0,
6,7.81927,0.900968,-0.0744185,0.00051408,0,
6,7.6949,0.921422,-0.0743837,0.000385977,0,
6,7.56054,0.939492,-0.0743335,0.000270549,0,
6,7.41603,0.953569,-0.0742705,0.000140077,0,
6,7.26132,0.962672,-0.0742003,5.56859e-05,0,
6,7.09653,0.967046,-0.0741123,1.42504e-05,0,
6,6.92195,0.968142,-0.0740067,7.88645e-07,0,
6,6.73802,0.967716,-0.0738762,-1.00485e-06,0,
6,6.5454,0.967008,-0.0737179,-4.70853e-07,0,
6,6.34489,0.966524,-0.0735281,-1.31141e-07,0,
6,6.1375,0.966283,-0.0733036,-3.49255e-08,0,
6,5.92439,0.96615,-0.0730403,-1.31509e-08,0,
6,5.70687,0.966013,-0.0727335,-7.54872e-09,0,
6,5.48633,0.96583,-0.0723782,-5.93038e-09,0,
6,5.26426,0.965596,-0.0719691,-5.70761e-09,0,
6,5.04218,0.965322,-0.0715012,-6.02528e-09,0,
6,4.82159,0.96502,-0.0709696,-6.53481e-09,0,
6,4.60398,0.964702,-0.07037,-7.16385e-09,0,
6,4.39071,0.964366,-0.0696992,-8.08055e-09,0,
6,4.18307,0.963981,-0.0689549,-9.62334e-09,0,
6,3.98218,0.963487,-0.0681366,-1.20137e-08,0,
6,3.78902,0.962825,-0.0672454,-1.49144e-08,0,
6,3.60438,0.962019,-0.0662847,-1.9084e-08,0,
6,3.42888,0.961239,-0.0652596,-3.96057e-08,0,
6,3.26296,0.960776,-0.0641764,-1.01916e-07,0,
6,3.10691,0.960874,-0.0630418,-1.15858e-07,0,
6,2.96084,0.961511,-0.0618632,9.13283e-08,0,
6,2.82473,0.962307,-0.0606501,-2.27189e-07,0,
6,2.69844,0.96264,-0.059415,-3.99396e-06,0,
6,2.58172,0.961895,-0.0581727,-1.56542e-05,0,
6,2.47424,0.959677,-0.056939,-3.89335e-05,0,
6,2.37559,0.955879,-0.0557286,-7.52543e-05,0,
6,2.28535,0.950645,-0.0545548,-0.000123597,0,
6,2.20301,0.944271,-0.0534286,-0.000181152,0,
6,2.1281,0.937114,-0.0523581,-0.000244219,0,
6,2.06009,0.929523,-0.0513495,-0.000308874,0,
6,1.99849,0.921811,-0.0504048,-0.000371324,0,
6,1.9428,0.914234,-0.0495279,-0.00042843,0,
6,1.89255,0.906987,-0.0487133,-0.000479357,0,
6,1.84728,0.900161,-0.0479677,-0.000522419,0,
6,1.80655,0.893756,-0.0472903,-0.000552815,0,
6,1.76996,0.88777,-0.0466664,-0.000580664,0,
6,1.73712,0.882221,-0.0460997,-0.00060618,0,
6,1.70768,0.877082,-0.0455818,-0.000629812,0,
6,1.67998,0.872126,-0.0450907,-0.000652765,0,
6,1.65329,0.867256,-0.0446109,-0.000675206,0,
6,1.62754,0.862471,-0.0441428,-0.000697089,0,
6,1.60265,0.857769,-0.043685,-0.000718501,0,
6,1.57854,0.853151,-0.0432371,-0.000739391,0,
6,1.55515,0.848613,-0.0427982,-0.000759787,0,
6,1.53242,0.844154,-0.0423679,-0.000779709,0,
6,1.5103,0.839767,-0.0419456,-0.000799136,0,
6,1.48874,0.835439,-0.041531,-0.000818051,0,
6,1.46769,0.831153,-0.0411233,-0.000836568,0,
6,1.44712,0.826897,-0.0407216,-0.00085504,0,
6,1.42698,0.822681,-0.0403234,-0.000874102,0,
6,1.40725,0.818541,-0.039927,-0.000894284,0,
6,1.38788,0.814532,-0.0395316,-0.000915803,0,
6,1.36886,0.810672,-0.0391413,-0.00093731,0,
6,1.35015,0.806897,-0.0387642,-0.000941341,0,
6,1.33173,0.803134,-0.0383939,-0.000950012,0,
6,1.31357,0.799359,-0.0380243,-0.000961041,0,
6,1.29566,0.795555,-0.0376585,-0.000974043,0,
6,1.27797,0.791701,-0.0372949,-0.0009901,0,
6,1.26048,0.787772,-0.036934,-0.00101045,0,
6,1.24318,0.783736,-0.0365752,-0.00103668,0,
6,1.22605,0.779554,-0.0362186,-0.00107064,0,
6,1.20907,0.775183,-0.035864,-0.00111449,0,
6,1.19223,0.77057,-0.0355114,-0.0011706,0,
6,1.17551,0.765657,-0.0351606,-0.00124146,0,
6,1.1589,0.760381,-0.0348117,-0.00132947,0,
6,1.14238,0.75468,-0.0344648,-0.00143675,0,
6,1.12595,0.748495,-0.0341199,-0.00156482,0,
6,1.10959,0.741778,-0.0337774,-0.00171432,0,
6,1.09329,0.734497,-0.0334373,-0.00188483,0,
6,1.07704,0.72664,-0.0331,-0.0020747,0,
6,1.06081,0.71821,-0.0327656,-0.00228117,0,
6,1.04459,0.709229,-0.0324344,-0.0025006,0,
6,1.02836,0.69974,-0.0321063,-0.00272865,0,
6,1.01211,0.689795,-0.0317822,-0.00296058,0,
6,0.99583,0.679453,-0.031461,-0.00319169,0,
6,0.97951,0.668777,-0.0311459,-0.00341988,0,
6,0.963136,0.657812,-0.0308302,-0.00365053,0,
6,0.946694,0.646509,-0.0305088,-0.00385966,0,
6,0.930172,0.634767,-0.0301893,-0.00407404,0,
6,0.913555,0.622515,-0.0298727,-0.00429633,0,
6,0.896829,0.609701,-0.0295605,-0.00452838,0,
6,0.879979,0.596284,-0.0292532,-0.00477152,0,
6,0.862989,0.582235,-0.0289516,-0.00502671,0,
6,0.845842,0.567547,-0.0286565,-0.0052947,0,
6,0.828521,0.552233,-0.0283685,-0.00557612,0,
6,0.811008,0.536316,-0.0280897,-0.00586779,0,
6,0.793282,0.519811,-0.0278221,-0.00616593,0,
6,0.775322,0.502733,-0.0275668,-0.00646832,0,
6,0.757107,0.485098,-0.027325,-0.00677229,0,
6,0.738612,0.466937,-0.0270977,-0.00707459,0,
6,0.719813,0.44829,-0.0268863,-0.00737141,0,
6,0.700681,0.429212,-0.0266911,-0.00765845,0,
6,0.681188,0.409759,-0.0265114,-0.00793102,0,
6,0.661304,0.389987,-0.0263443,-0.00818413,0,
6,0.640996,0.369936,-0.0261856,-0.00841238,0,
6,0.620228,0.349647,-0.0260339,-0.00860987,0,
6,0.598964,0.329185,-0.0258972,-0.00877008,0,
6,0.577166,0.308708,-0.0257987,-0.00888674,0,
6,0.554791,0.288516,-0.0257841,-0.00895604,0,
6,0.531799,0.269042,-0.0258893,-0.00897807,0,
6,0.508144,0.250685,-0.0261434,-0.00896042,0,
6,0.48378,0.233511,-0.0263053,-0.00889802,0,
6,0.459585,0.217597,-0.0261706,-0.00851773,0,
6,0.436695,0.203156,-0.0259638,-0.00822699,0,
6,0.414961,0.189957,-0.0258008,-0.00793331,0,
6,0.394252,0.177821,-0.0256175,-0.00763092,0,
6,0.374445,0.166601,-0.0254386,-0.00732686,0,
6,0.355433,0.156183,-0.0252593,-0.0070214,0,
6,0.337122,0.146469,-0.0250782,-0.00671454,0,
6,0.319433,0.13738,-0.0248937,-0.00640708,0,
6,0.3023,0.128847,-0.0247043,-0.00609969,0,
6,0.28567,0.120815,-0.0245087,-0.00579301,0,
6,0.269507,0.113237,-0.024306,-0.00548768,0,
6,0.253785,0.106076,-0.0240953,-0.00518443,0,
6,0.238493,0.0993033,-0.023876,-0.00488409,0,
6,0.223631,0.092895,-0.0236481,-0.00458758,0,
6,0.209207,0.0868325,-0.0234115,-0.00429593,0,
6,0.195237,0.0811005,-0.023167,-0.00401025,0,
6,0.181744,0.0756864,-0.0229155,-0.00373169,0,
6,0.168754,0.0705791,-0.0226583,-0.00346141,0,
6,0.156292,0.0657683,-0.0223972,-0.0032005,0,
6,0.144384,0.0612439,-0.0221343,-0.00294999,0,
6,0.133052,0.0569957,-0.0218718,-0.00271076,0,
6,0.122315,0.0530129,-0.021612,-0.00248355,0,
6,0.112183,0.0492844,-0.0213574,-0.00226889,0,
6,0.102665,0.0457984,-0.0211101,-0.00206713,0,
6,0.0937597,0.0425428,-0.0208722,-0.00187843,0,
6,0.0854609,0.0395049,-0.0206454,-0.00170277,0,
6,0.077757,0.0366722,-0.0204312,-0.00153995,0,
6,0.0706309,0.0340317,-0.0202305,-0.00138964,0,
6,0.0640611,0.0315708,-0.0200441,-0.00125139,0,
6,0.0580229,0.0292769,-0.0198722,-0.00112464,0,
6,0.0524888,0.027138,-0.0197149,-0.00100879,0,
6,0.0474296,0.025142,-0.019572,-0.000903157,0,
6,0.042815,0.0232777,-0.0194428,-0.000807069,0,
6,0.0386145,0.021534,-0.0193269,-0.000719827,0,
6,0.0347975,0.0199004,-0.0192235,-0.000640742,0,
6,0.0313344,0.0183668,-0.0191316,-0.000569143,0,
6,0.0281964,0.0169235,-0.0190504,-0.000504381,0,
6,0.0253561,0.0155612,-0.018979,-0.000445838,0,
6,0.0227875,0.014271,-0.0189167,-0.00039293,0,
6,0.0204662,0.0130439,-0.0188623,-0.000345107,0,
6,0.0183694,0.0118714,-0.0188154,-0.00030185,0,
6,0.016476,0.0107448,-0.0187748,-0.000262675,0,
6,0.0147664,0.00965524,-0.0187404,-0.000227124,0,
6,0.0132228,0.00859378,-0.0187108,-0.000194764,0,
6,0.0118288,0.00755102,-0.0186866,-0.000165184,0,
6,0.0105693,0.00651726,-0.0186658,-0.000137991,0,
6,0.00943073,0.00548284,-0.0186498,-0.000112823,0,
6,0.00840063,0.00443922,-0.018636,-8.93922e-05,0,
6,0.00746774,0.00338186,-0.0186267,-6.75863e-05,0,
6,0.00662185,0.00231577,-0.0186184,-4.76677e-05,0,
6,0.00585371,0.00126399,-0.0186142,-3.04466e-05,0,
6,0.00515491,0.000273892,-0.0186097,-1.70654e-05,0,
6,0.00451788,-0.000590299,-0.0186089,-8.18056e-06,0,
6,0.00393573,-0.0012726,-0.0186063,-3.28814e-06,0,
6,0.00340221,-0.00174836,-0.018607,-1.0724e-06,0,
6,0.00291168,-0.00202521,-0.0186048,-2.52933e-07,0,
6,0.00245897,-0.00212868,-0.0186062,-1.8035e-08,0,
6,0.00203939,-0.00208859,-0.0186038,2.13865e-08,0,
6,0.00164864,-0.00193193,-0.0186058,1.44854e-08,0,
6,0.00128281,-0.00168059,-0.0186029,5.34902e-09,0,
6,0.000938257,-0.00135132,-0.0186056,1.20354e-09,0,
6,0.000611645,-0.000956311,-0.018602,1.34325e-10,0,
6,0.000299862,-0.000503995,-0.0186056,4.02696e-12,0,

10,0.000296632,0.00840566,0.0297643,-4.84783e-11,0,
10,0.000596102,0.0168885,0.029765,-1.79655e-09,0,
10,0.000900397,0.0255046,0.0297643,-1.82647e-08,0,
10,0.00121153,0.0343105,0.0297648,-9.81412e-08,0,
10,0.00153158,0.0433629,0.0297642,-3.67054e-07,0,
10,0.00186264,0.0527172,0.0297647,-1.09111e-06,0,
10,0.00220692,0.0624254,0.0297642,-2.76871e-06,0,
10,0.00256668,0.0725311,0.0297645,-6.2489e-06,0,
10,0.00294431,0.0830617,0.0297641,-1.28501e-05,0,
10,0.00334229,0.0940172,0.0297643,-2.44068e-05,0,
10,0.00376326,0.105356,0.0297639,-4.31141e-05,0,
10,0.00421,0.116982,0.0297641,-7.10397e-05,0,
10,0.00468544,0.128743,0.0297636,-0.000109335,0,
10,0.00519274,0.140439,0.0297636,-0.000157491,0,
10,0.00573524,0.151857,0.029763,-0.00021317,0,
10,0.00631651,0.162802,0.0297628,-0.000272834,0,
10,0.00694041,0.173125,0.0297619,-0.000332788,0,
10,0.00761104,0.182735,0.0297612,-0.00039005,0,
10,0.00833284,0.191596,0.0297598,-0.000442705,0,
10,0.00911058,0.199712,0.0297585,-0.000489856,0,
10,0.0099494,0.207118,0.0297564,-0.000531369,0,
10,0.0108548,0.213868,0.0297541,-0.000567607,0,
10,0.0118329,0.220024,0.029751,-0.000599201,0,
10,0.0128901,0.22565,0.0297474,-0.0006269,0,
10,0.0140333,0.230808,0.029743,-0.00065147,0,
10,0.0152702,0.235559,0.0297378,-0.000673635,0,
10,0.0166089,0.239954,0.0297316,-0.000694056,0,
10,0.0180584,0.244044,0.0297244,-0.000713316,0,
10,0.0196282,0.247869,0.0297159,-0.00073193,0,
10,0.0213288,0.251466,0.0297062,-0.000750348,0,
10,0.0231714,0.25487,0.029695,-0.000768968,0,
10,0.0251682,0.258108,0.0296823,-0.00078815,0,
10,0.0273326,0.261205,0.0296677,-0.00080822,0,
10,0.0296789,0.264185,0.0296513,-0.000829487,0,
10,0.0322227,0.267067,0.0296327,-0.000852243,0,
10,0.0349809,0.26987,0.0296118,-0.000876776,0,
10,0.0379719,0.272611,0.0295883,-0.000903373,0,
10,0.0412155,0.275304,0.0295621,-0.000932324,0,
10,0.0447333,0.277964,0.0295329,-0.000963931,0,
10,0.0485489,0.280606,0.0295004,-0.000998507,0,
10,0.0526875,0.283242,0.0294644,-0.00103638,0,
10,0.0571768,0.285886,0.0294246,-0.0010779,0,
10,0.0620466,0.288551,0.0293807,-0.00112344,0,
10,0.0673295,0.29125,0.0293325,-0.00117339,0,
10,0.0730607,0.293997,0.0292796,-0.00122818,0,
10,0.0792784,0.296807,0.0292219,-0.00128827,0,
10,0.0860241,0.299695,0.0291589,-0.00135414,0,
10,0.0933428,0.302678,0.0290905,-0.0014263,0,
10,0.101283,0.305773,0.0290165,-0.00150531,0,
10,0.109899,0.309,0.0289367,-0.00159177,0,
10,0.119247,0.312381,0.0288509,-0.00168628,0,
10,0.12939,0.315941,0.028759,-0.00178949,0,
10,0.140395,0.319705,0.028661,-0.00190208,0,
10,0.152337,0.323706,0.028557,-0.00202472,0,
10,0.165296,0.327978,0.0284469,-0.00215811,0,
10,0.179357,0.332562,0.0283311,-0.00230292,0,
10,0.194615,0.337503,0.0282096,-0.00245978,0,
10,0.211171,0.342855,0.028083,-0.00262922,0,
10,0.229138,0.348678,0.0279511,-0.00281168,0,
10,0.248635,0.355043,0.027815,-0.00300738,0,
10,0.269793,0.362032,0.0276736,-0.00321627,0,
10,0.292753,0.369741,0.0275294,-0.00343788,0,
10,0.317669,0.378278,0.0273781,-0.00366992,0,
10,0.344708,0.387764,0.0272255,-0.00390895,0,
10,0.372405,0.397746,0.0270765,-0.00414401,0,
10,0.399623,0.407836,0.0269334,-0.00436379,0,
10,0.426397,0.418035,0.0267971,-0.00456501,0,
10,0.452757,0.428344,0.0266656,-0.00474925,0,
10,0.478735,0.438774,0.0265413,-0.00491409,0,
10,0.504358,0.449339,0.0264241,-0.00505841,0,
10,0.529657,0.460062,0.0263153,-0.00518069,0,
10,0.554656,0.470962,0.0262081,-0.00528155,0,
10,0.579382,0.48205,0.0261098,-0.00536033,0,
10,0.603859,0.493336,0.0259982,-0.00542971,0,
10,0.628112,0.504879,0.0259218,-0.00550848,0,
10,0.652163,0.516998,0.0259244,-0.00543946,0,
10,0.676035,0.530033,0.0259269,-0.00534137,0,
10,0.699751,0.543963,0.0258892,-0.00521292,0,
10,0.72333,0.558541,0.0258113,-0.00505376,0,
10,0.746795,0.573449,0.0257006,-0.00486646,0,
10,0.770165,0.588419,0.0255682,-0.00465538,0,
10,0.79346,0.603265,0.0254214,-0.00442563,0,
10,0.816699,0.617869,0.0252639,-0.00418218,0,
10,0.839903,0.632143,0.0250969,-0.00393004,0,
10,0.863088,0.645987,0.024918,-0.00367823,0,
10,0.886275,0.659286,0.024726,-0.00343449,0,
10,0.909481,0.671957,0.024524,-0.00319938,0,
10,0.932723,0.683974,0.0243141,-0.00297339,0,
10,0.956021,0.695358,0.0240979,-0.00275714,0,
10,0.97939,0.706147,0.0238753,-0.00255127,0,
10,1.00285,0.716375,0.0236464,-0.00235632,0,
10,1.02641,0.72607,0.0234105,-0.00217276,0,
10,1.0501,0.735253,0.023168,-0.00200096,0,
10,1.07392,0.743945,0.0229182,-0.00184114,0,
10,1.0979,0.752175,0.0226636,-0.00169193,0,
10,1.12205,0.759973,0.0224034,-0.00155122,0,
10,1.14639,0.767347,0.0221344,-0.00142503,0,
10,1.17093,0.774298,0.0218575,-0.00131217,0,
10,1.19568,0.780842,0.0215729,-0.00121331,0,
10,1.22066,0.787012,0.0212804,-0.00112843,0,
10,1.24589,0.792848,0.0209813,-0.00105677,0,
10,1.27137,0.798402,0.0206742,-0.000997109,0,
10,1.29713,0.803726,0.0203626,-0.000951007,0,
10,1.32317,0.808907,0.0200446,-0.0009098,0,
10,1.34951,0.814077,0.0197205,-0.000865764,0,
10,1.37616,0.819318,0.0193929,-0.000824813,0,
10,1.40313,0.824607,0.0190573,-0.00078706,0,
10,1.43043,0.829871,0.0187142,-0.000752324,0,
10,1.45807,0.835057,0.0183626,-0.000720038,0,
10,1.48607,0.840152,0.0180038,-0.000689484,0,
10,1.51444,0.845174,0.0176377,-0.0006601,0,
10,1.54318,0.850141,0.0172647,-0.000631607,0,
10,1.57231,0.855054,0.0168843,-0.000603945,0,
10,1.60184,0.859892,0.0164965,-0.000577146,0,
10,1.63178,0.864626,0.0161008,-0.000551251,0,
10,1.66213,0.86923,0.015698,-0.000526261,0,
10,1.69292,0.873684,0.0152872,-0.00050208,0,
10,1.72416,0.877993,0.0148699,-0.000478359,0,
10,1.75585,0.882198,0.0144433,-0.000450659,0,
10,1.78802,0.886347,0.0140084,-0.000422488,0,
10,1.82067,0.890447,0.0135666,-0.000394317,0,
10,1.85383,0.89448,0.0131162,-0.00036503,0,
10,1.88751,0.898424,0.0126576,-0.000334841,0,
10,1.92173,0.902256,0.0121907,-0.000304112,0,
10,1.95652,0.90595,0.011715,-0.000273269,0,
10,1.9919,0.909483,0.0112311,-0.000242776,0,
10,2.02791,0.912832,0.0107376,-0.000213174,0,
10,2.06456,0.915977,0.0102366,-0.000184686,0,
10,2.10268,0.918958,0.00971354,-0.000156894,0,
10,2.1443,0.921863,0.00914534,-0.000130167,0,
10,2.18977,0.92464,0.00852498,-0.000104639,0,
10,2.23946,0.927209,0.0078507,-8.06203e-05,0,
10,2.29376,0.929485,0.00711704,-5.89441e-05,0,
10,2.35309,0.931387,0.00632177,-4.03181e-05,0,
10,2.4179,0.932844,0.00546089,-2.52797e-05,0,
10,2.48863,0.933812,0.00453273,-1.41106e-05,0,
10,2.56575,0.934287,0.0035351,-6.72783e-06,0,
10,2.64971,0.934324,0.0024677,-2.62687e-06,0,
10,2.74098,0.934042,0.00133038,-9.30495e-07,0,
10,2.83997,0.933619,0.000124491,-5.87364e-07,0,
10,2.94709,0.933261,-0.00114821,-6.81744e-07,0,
10,3.06269,0.933152,-0.00248478,-6.9389e-07,0,
10,3.18706,0.933401,-0.00388153,-5.27336e-07,0,
10,3.3204,0.934015,-0.00533329,-3.05411e-07,0,
10,3.46281,0.934898,-0.00683328,-1.42452e-07,0,
10,3.61427,0.935907,-0.00837264,-6.1151e-08,0,
10,3.77463,0.936905,-0.00994062,-3.13425e-08,0,
10,3.94358,0.937809,-0.0115248,-2.22877e-08,0,
10,4.12067,0.938607,-0.0131117,-1.92312e-08,0,
10,4.30525,0.93933,-0.0146876,-1.78616e-08,0,
10,4.49655,0.940023,-0.0162387,-1.73614e-08,0,
10,4.6936,0.940713,-0.017752,-1.77062e-08,0,
10,4.89531,0.941403,-0.0192152,-1.9385e-08,0,
10,5.10047,0.942078,-0.0206176,-2.38434e-08,0,
10,5.30776,0.942718,-0.0219499,-3.43071e-08,0,
10,5.51581,0.943306,-0.0232049,-5.7454e-08,0,
10,5.72323,0.94384,-0.0243771,-1.07646e-07,0,
10,5.92863,0.944344,-0.0254631,-2.20032e-07,0,
10,6.13069,0.944884,-0.0264617,-4.87133e-07,0,
10,6.32816,0.945555,-0.0273731,-1.10258e-06,0,
10,6.51991,0.946391,-0.0281997,-2.14685e-06,0,
10,6.70495,0.947158,-0.0289449,-2.31506e-06,0,
10,6.88244,0.947143,-0.0296123,3.73525e-06,0,
10,7.0517,0.945118,-0.0302058,2.68837e-05,0,
10,7.21224,0.939698,-0.030726,8.04257e-05,0,
10,7.3637,0.930002,-0.0311785,0.000173568,0,
10,7.5059,0.91607,-0.0315676,0.000296632,0,
10,7.63878,0.898487,-0.0318972,0.000404049,0,
10,7.76243,0.878361,-0.0321769,0.000522869,0,
10,7.87701,0.857458,-0.0324014,0.000644316,0,
10,7.9828,0.837237,-0.0325872,0.000754611,0,
10,8.08014,0.818407,-0.0327362,0.000848714,0,
10,8.16941,0.801051,-0.0328598,0.000927078,0,
10,8.25106,0.784923,-0.0329617,0.000992818,0,
10,8.32554,0.769701,-0.0330483,0.00104913,0,
10,8.39331,0.755106,-0.0331217,0.00109827,0,
10,8.45484,0.740941,-0.0331847,0.00114151,0,
10,8.5106,0.727085,-0.0332383,0.00117947,0,
10,8.56104,0.713477,-0.0332845,0.00121239,0,
10,8.60659,0.700101,-0.033324,0.00124037,0,
10,8.64767,0.686962,-0.0333583,0.00126351,0,
10,8.68467,0.674064,-0.0333878,0.00128148,0,
10,8.71795,0.66138,-0.0334134,0.00129138,0,
10,8.74786,0.648884,-0.0334357,0.00129774,0,
10,8.77471,0.636571,-0.0334549,0.00129981,0,
10,8.79881,0.624439,-0.0334715,0.00129804,0,
10,8.8204,0.612478,-0.0334857,0.00129295,0,
10,8.83975,0.60068,-0.033498,0.00128504,0,
10,8.85708,0.589029,-0.0335083,0.00127481,0,
10,8.87259,0.577508,-0.0335172,0.00126271,0,
10,8.88646,0.566096,-0.0335247,0.00124913,0,
10,8.89886,0.554768,-0.0335311,0.00123442,0,
10,8.90995,0.543498,-0.0335364,0.00121888,0,
10,8.91986,0.532253,-0.0335409,0.00120271,0,
10,8.92872,0.521002,-0.0335447,0.00118608,0,
10,8.93663,0.509708,-0.0335478,0.00116909,0,
10,8.94369,0.498333,-0.0335505,0.00115175,0,
10,8.95,0.486835,-0.0335526,0.00113403,0,
10,8.95564,0.475167,-0.0335544,0.00111586,0,
10,8.96067,0.463282,-0.0335559,0.00109706,0,
10,8.96517,0.451123,-0.0335572,0.00107738,0,
10,8.96918,0.438631,-0.0335581,0.0010565,0,
10,8.97276,0.425734,-0.033559,0.00103399,0,
10,8.97596,0.412353,-0.0335596,0.00100927,0,
10,8.97882,0.398396,-0.0335603,0.00098164,0,
10,8.98137,0.383755,-0.0335605,0.000950147,0,
10,8.98365,0.368302,-0.0335611,0.000913587,0,
10,8.98569,0.351889,-0.0335612,0.000870572,0,
10,8.9875,0.334332,-0.0335617,0.000818783,0,
10,8.98913,0.315397,-0.0335616,0.000753382,0,
10,8.99058,0.294855,-0.0335621,0.000676105,0,
10,8.99188,0.272544,-0.0335618,0.000584593,0,
10,8.99304,0.248306,-0.0335623,0.000471998,0,
10,8.99408,0.222099,-0.033562,0.000346008,0,
10,8.99501,0.194296,-0.0335625,0.000220315,0,
10,8.99583,0.1658,-0.033562,0.000116721,0,
10,8.99658,0.137875,-0.0335626,5.01018e-05,0,
10,8.99724,0.111634,-0.033562,1.72856e-05,0,
10,8.99784,0.0876614,-0.0335627,4.74777e-06,0,
10,8.99837,0.0660664,-0.033562,9.95606e-07,0,
10,8.99885,0.046714,-0.0335628,1.42619e-07,0,
10,8.99927,0.0293934,-0.0335619,1.08275e-08,0,
10,8.99966,0.0138899,-0.0335629,2.3956e-10,0,
10,0,0,0.0297652,0,0,
10,9,0,-0.0335618,0,0,

0.004,0,0,-0.225941,0,-8.20487e-08,
0.00868226,0,0,-0.225938,0,-1.85617e-07,
0.014062,0,0,-0.22594,0,-3.13558e-07,
0.0201548,0,0,-0.225939,0,-7.36217e-07,
0.0269766,0,0,-0.22594,0,-1.24479e-06,
0.0345437,0,0,-0.225939,0,-1.88546e-06,
0.0428729,0,0,-0.225938,0,-2.48201e-06,
0.051981,0,0,-0.225937,0,-2.94839e-06,
0.0618853,0,0,-0.225934,0,-3.08934e-06,
0.0726036,0,0,-0.225931,0,-2.73399e-06,
0.0841536,0,0,-0.225927,0,-1.68018e-06,
0.0965535,0,0,-0.225923,0,2.29923e-07,
0.109822,0,0,-0.22592,0,3.09005e-06,
0.123977,0,0,-0.225918,0,6.88825e-06,
0.139037,0,0,-0.22592,0,1.14858e-05,
0.155022,0,0,-0.225925,0,1.66344e-05,
0.171949,0,0,-0.225936,0,2.19978e-05,
0.189839,0,0,-0.225951,0,2.72142e-05,
0.208709,0,0,-0.225972,0,3.19345e-05,
0.228579,0,0,-0.225997,0,3.58768e-05,
0.249467,0,0,-0.226024,0,3.88434e-05,
0.271391,0,0,-0.226054,0,4.07417e-05,
0.29437,0,0,-0.226084,0,4.15771e-05,
0.31842,0,0,-0.226112,0,4.14482e-05,
0.343559,0,0,-0.226139,0,4.0526e-05,
0.369804,0,0,-0.226164,0,3.90376e-05,
0.39717,0,0,-0.226185,0,3.72426e-05,
0.425672,0,0,-0.226204,0,3.54195e-05,
0.455324,0,0,-0.226221,0,3.38469e-05,
0.48614,0,0,-0.226237,0,3.28039e-05,
0.518132,0,0,-0.226253,0,3.25497e-05,
0.551309,0,0,-0.226271,0,3.32692e-05,
0.585683,0,0,-0.226295,0,3.50498e-05,
0.621259,0,0,-0.226326,0,3.78773e-05,
0.658046,0,0,-0.226368,0,4.16482e-05,
0.696047,0,0,-0.226425,0,4.6199e-05,
0.735265,0,0,-0.226499,0,5.1339e-05,
0.7757,0,0,-0.226596,0,5.68833e-05,
0.817352,0,0,-0.226719,0,6.26206e-05,
0.860215,0,0,-0.226875,0,6.82572e-05,
0.904285,0,0,-0.227074,0,7.33198e-05,
0.949552,0,0,-0.22733,0,7.69628e-05,
0.996004,0,0,-0.22766,0,7.78703e-05,
1.04363,0,0,-0.228087,0,7.43103e-05,
1.09241,0,0,-0.228629,0,6.42897e-05,
1.14232,0,0,-0.229305,0,4.58982e-05,
1.19335,0,0,-0.230119,0,1.78193e-05,
1.24546,0,0,-0.231064,0,-2.02073e-05,
1.29863,0,0,-0.232117,0,-6.72226e-05,
1.35283,0,0,-0.233248,0,-0.000121314,
1.40802,0,0,-0.234426,0,-0.000180192,
1.46416,0,0,-0.23562,0,-0.000241786,
1.52121,0,0,-0.236802,0,-0.000304606,
1.57913,0,0,-0.23795,0,-0.000367795,
1.63787,0,0,-0.239046,0,-0.00043097,
1.69739,0,0,-0.240072,0,-0.000494009,
1.75761,0,0,-0.241014,0,-0.000556887,
1.81851,0,0,-0.241857,0,-0.000619576,
1.88,0,0,-0.242588,0,-0.000682022,
1.94204,0,0,-0.243194,0,-0.00074414,
2.00457,0,0,-0.24366,0,-0.000805821,
2.06751,0,0,-0.243977,0,-0.000866941,
2.13081,0,0,-0.244131,0,-0.000927363,
2.19439,0,0,-0.244111,0,-0.000986942,
2.25819,0,0,-0.243909,0,-0.00104552,
2.32214,0,0,-0.243513,0,-0.00110294,
2.38617,0,0,-0.242917,0,-0.00115903,
2.4502,0,0,-0.242112,0,-0.00121359,
2.51418,0,0,-0.241093,0,-0.00126643,
2.57803,0,0,-0.239856,0,-0.00131735,
2.64167,0,0,-0.238398,0,-0.00136614,
2.70505,0,0,-0.236718,0,-0.00141257,
2.76808,0,0,-0.234815,0,-0.0014564,
2.83072,0,0,-0.232694,0,-0.00149742,
2.89288,0,0,-0.23036,0,-0.00153537,
2.95451,0,0,-0.227819,0,-0.00157006,
3.01555,0,0,-0.225082,0,-0.0016013,
3.07594,0,0,-0.222163,0,-0.00162898,
3.13561,0,0,-0.219076,0,-0.00165302,
3.19453,0,0,-0.215837,0,-0.00167344,
3.25262,0,0,-0.212464,0,-0.00169027,
3.30985,0,0,-0.208976,0,-0.0017036,
3.36617,0,0,-0.205391,0,-0.00171356,
3.42154,0,0,-0.201728,0,-0.00172031,
3.47591,0,0,-0.198005,0,-0.00172402,
3.52925,0,0,-0.194241,0,-0.00172487,
3.58152,0,0,-0.190453,0,-0.00172308,
3.6327,0,0,-0.186658,0,-0.00171886,
3.68276,0,0,-0.182869,0,-0.00171241,
3.73167,0,0,-0.179101,0,-0.00170396,
3.77941,0,0,-0.175368,0,-0.00169371,
3.82596,0,0,-0.171681,0,-0.00168187,
3.8713,0,0,-0.16805,0,-0.00166865,
3.91543,0,0,-0.164481,0,-0.00165412,
3.95833,0,0,-0.161002,0,-0.00163879,
4,0,0,-0.157581,0,-0.00162255,
4.04167,0,0,-0.154153,0,-0.00160499,
4.08333,0,0,-0.150713,0,-0.00158634,
4.125,0,0,-0.147264,0,-0.0015666,
4.16667,0,0,-0.143809,0,-0.00154577,
4.20833,0,0,-0.140351,0,-0.0015239,
4.25,0,0,-0.136894,0,-0.00150104,
4.29167,0,0,-0.133441,0,-0.00147723,
4.33333,0,0,-0.129995,0,-0.00145252,
4.375,0,0,-0.126558,0,-0.00142694,
4.41667,0,0,-0.123133,0,-0.00140053,
4.45833,0,0,-0.119724,0,-0.00137334,
4.5,0,0,-0.116331,0,-0.00134541,
4.54167,0,0,-0.112959,0,-0.00131677,
4.58333,0,0,-0.109608,0,-0.00128746,
4.625,0,0,-0.106281,0,-0.00125751,
4.66667,0,0,-0.10298,0,-0.00122697,
4.70833,0,0,-0.0997072,0,-0.00119586,
4.75,0,0,-0.096464,0,-0.0011642,
4.79167,0,0,-0.0932522,0,-0.00113205,
4.83333,0,0,-0.0900735,0,-0.00109941,
4.875,0,0,-0.0869295,0,-0.00106634,
4.91667,0,0,-0.0838215,0,-0.00103284,
4.95833,0,0,-0.0807509,0,-0.000998968,
5,0,0,-0.077719,0,-0.000964738,
5.04167,0,0,-0.0747269,0,-0.000930181,
5.08333,0,0,-0.0717758,0,-0.000895325,
5.125,0,0,-0.0688665,0,-0.000860193,
5.16667,0,0,-0.066,0,-0.00082481,
5.20833,0,0,-0.0631771,0,-0.000789198,
5.25,0,0,-0.0603988,0,-0.000753381,
5.29167,0,0,-0.0576656,0,-0.00071738,
5.33333,0,0,-0.0549784,0,-0.000681221,
5.375,0,0,-0.0523376,0,-0.000644926,
5.41667,0,0,-0.049744,0,-0.000608519,
5.45833,0,0,-0.0471978,0,-0.000572024,
5.5,0,0,-0.0446997,0,-0.000535466,
5.54167,0,0,-0.04225,0,-0.000498865,
5.58333,0,0,-0.0398489,0,-0.000462241,
5.625,0,0,-0.0374969,0,-0.000425612,
5.66667,0,0,-0.0351941,0,-0.000388993,
5.70833,0,0,-0.032941,0,-0.000352399,
5.75,0,0,-0.0307379,0,-0.000315844,
5.79167,0,0,-0.0285854,0,-0.000279348,
5.83333,0,0,-0.026484,0,-0.000242944,
5.875,0,0,-0.0244345,0,-0.000206686,
5.91667,0,0,-0.0224375,0,-0.000170653,
5.95833,0,0,-0.0204932,0,-0.000134939,
6,0,0,-0.0186011,0,-9.96163e-05,
6.04167,0,0,-0.0167601,0,-6.47189e-05,
6.08333,0,0,-0.0149692,0,-3.02478e-05,
6.125,0,0,-0.0132275,0,3.80854e-06,
6.16667,0,0,-0.0115339,0,3.74613e-05,
6.20833,0,0,-0.00988763,0,7.07172e-05,
6.25,0,0,-0.00828771,0,0.00010358,
6.29167,0,0,-0.00673335,0,0.000136051,
6.33333,0,0,-0.00522371,0,0.000168133,
6.375,0,0,-0.003758,0,0.000199825,
6.41667,0,0,-0.00233541,0,0.000231128,
6.45833,0,0,-0.000955161,0,0.00026204,
6.5,0,0,0.000383547,0,0.000292561,
6.54167,0,0,0.0016815,0,0.000322691,
6.58333,0,0,0.00293947,0,0.00035243,
6.625,0,0,0.00415824,0,0.000381777,
6.66667,0,0,0.00533858,0,0.000410733,
6.70833,0,0,0.00648125,0,0.000439299,
6.75,0,0,0.007587,0,0.000467475,
6.79167,0,0,0.0086566,0,0.000495261,
6.83333,0,0,0.00969078,0,0.000522658,
6.875,0,0,0.0106903,0,0.000549665,
6.91667,0,0,0.0116559,0,0.000576284,
6.95833,0,0,0.0125883,0,0.000602516,
7,0,0,0.0134882,0,0.000628362,
7.04167,0,0,0.0143564,0,0.000653824,
7.08333,0,0,0.0151936,0,0.000678902,
7.125,0,0,0.0160004,0,0.000703598,
7.16667,0,0,0.0167776,0,0.000727913,
7.20833,0,0,0.0175259,0,0.000751848,
7.25,0,0,0.018246,0,0.000775408,
7.29167,0,0,0.0189385,0,0.000798594,
7.33333,0,0,0.0196041,0,0.00082141,
7.375,0,0,0.0202434,0,0.000843862,
7.41667,0,0,0.0208571,0,0.000865953,
7.45833,0,0,0.0214459,0,0.000887693,
7.5,0,0,0.0220104,0,0.000909092,
7.54167,0,0,0.0225512,0,0.000930162,
7.58333,0,0,0.0230688,0,0.00095091,
7.625,0,0,0.0235639,0,0.00097134,
7.66667,0,0,0.0240369,0,0.000991455,
7.70833,0,0,0.0244882,0,0.00101126,
7.75,0,0,0.0249184,0,0.00103075,
7.79167,0,0,0.0253278,0,0.00104994,
7.83333,0,0,0.0257163,0,0.00106881,
7.875,0,0,0.0260841,0,0.00108741,
7.91667,0,0,0.0264419,0,0.00110631,
7.95833,0,0,0.0267213,0,0.00112403,
8,0,0,0.0270843,0,0.0011417,
8.04171,0,0,0.027466,0,0.00116038,
8.08368,0,0,0.0277147,0,0.00117882,
8.12617,0,0,0.0280032,0,0.00119553,
8.16946,0,0,0.0282754,0,0.00121231,
8.21382,0,0,0.0285306,0,0.0012291,
8.25952,0,0,0.0287766,0,0.00124592,
8.30685,0,0,0.0290129,0,0.00126293,
8.35611,0,0,0.0292396,0,0.00128024,
8.40762,0,0,0.0294568,0,0.00129793,
8.46168,0,0,0.029664,0,0.00131605,
8.51865,0,0,0.0298602,0,0.00133466,
8.57889,0,0,0.0300442,0,0.00135381,
8.64276,0,0,0.0302143,0,0.00137354,
8.71067,0,0,0.0303685,0,0.00139388,
8.78306,0,0,0.0305043,0,0.00141486,
8.86037,0,0,0.0306187,0,0.00143648,
8.94309,0,0,0.0307085,0,0.00145876,
9.03174,0,0,0.0307699,0,0.00148169,
9.12689,0,0,0.0307989,0,0.00150526,
9.22912,0,0,0.0307912,0,0.00152944,
9.33908,0,0,0.030742,0,0.00155419,
9.45746,0,0,0.0306466,0,0.00157947,
9.58501,0,0,0.0304999,0,0.00160523,
9.72253,0,0,0.0302967,0,0.0016314,
9.87088,0,0,0.030032,0,0.00165789,
10.031,0,0,0.0297011,0,0.0016846,
10.2039,0,0,0.0293003,0,0.00171144,
10.3906,0,0,0.0288259,0,0.00173829,
10.5924,0,0,0.028275,0,0.00176502,
10.8105,0,0,0.0276471,0,0.00179151,
11.0463,0,0,0.0269424,0,0.00181765,
11.3012,0,0,0.0261616,0,0.00184333,
11.5769,0,0,0.0253088,0,0.00186842,
11.8751,0,0,0.0243891,0,0.00189285,
12.1977,0,0,0.0234095,0,0.00191651,
12.5466,0,0,0.0223793,0,0.00193935,
12.9242,0,0,0.0213088,0,0.00196131,
13.3327,0,0,0.0202104,0,0.00198235,
13.7748,0,0,0.0190974,0,0.00200245,
14.2532,0,0,0.0179839,0,0.00202163,
14.7709,0,0,0.0168845,0,0.00203989,
15.3312,0,0,0.0158128,0,0.00205727,
15.9377,0,0,0.0147823,0,0.00207383,
16.594,0,0,0.0138043,0,0.00208964,
17.3044,0,0,0.0128877,0,0.00210477,
18.0733,0,0,0.0120397,0,0.00211926,
18.9056,0,0,0.0112633,0,0.00213302,
19.8064,0,0,0.0105592,0,0.002146,
20.7816,0,0,0.00992466,0,0.00215841,
21.8371,0,0,0.00935256,0,0.00217056,
22.9796,0,0,0.00883331,0,0.00218265,
24.2163,0,0,0.00835376,0,0.00219477,
25.5551,0,0,0.00789908,0,0.00220698,
27.0042,0,0,0.00745255,0,0.00221936,
28.5729,0,0,0.00699649,0,0.00223199,
30.271,0,0,0.00651288,0,0.00224485,
32.1091,0,0,0.00598395,0,0.00225788,
34.0989,0,0,0.0053946,0,0.00227097,
36.2529,0,0,0.00472705,0,0.00228415,
38.5845,0,0,0.00397286,0,0.00229733,
41.1085,0,0,0.00317023,0,0.00231033,
43.8407,0,0,0.00216174,0,0.00232092,
46.7983,0,0,0.00111359,0,0.00232701,
50,0,0,0.00210464,0,0.00234303,

