2e8bccbaeb58794da3c56c435822a53fe5dad967 
X,Z,x_velocity,cp,uw_b,cf,
1,0,0,-0.241555,0,0,
1,9,0,-0.12502,0,0,
1,8.99969,0.0153443,-0.125019,2.83226e-10,0,
1,8.99934,0.0327536,-0.125019,1.32396e-08,0,
1,8.99894,0.052524,-0.125019,1.82647e-07,0,
1,8.99848,0.0749686,-0.125019,1.33915e-06,0,
1,8.99797,0.1004,-0.125019,6.69511e-06,0,
1,8.99739,0.129016,-0.125019,2.53546e-05,0,
1,8.99672,0.160627,-0.125019,7.51788e-05,0,
1,8.99597,0.194303,-0.125019,0.000174985,0,
1,8.99512,0.2284,-0.125019,0.000322949,0,
1,8.99416,0.261261,-0.125019,0.000490745,0,
1,8.99306,0.291907,-0.125019,0.000648908,0,
1,8.99182,0.320154,-0.125018,0.000776757,0,
1,8.99041,0.346142,-0.125018,0.000882424,0,
1,8.98881,0.370034,-0.125018,0.000969801,0,
1,8.98699,0.392049,-0.125017,0.00104123,0,
1,8.98494,0.412481,-0.125016,0.00109701,0,
1,8.98261,0.431639,-0.125015,0.00114031,0,
1,8.97996,0.449758,-0.125014,0.0011766,0,
1,8.97696,0.467009,-0.125013,0.00120679,0,
1,8.97356,0.483534,-0.125012,0.00123217,0,
1,8.9697,0.499451,-0.12501,0.0012537,0,
1,8.96533,0.51486,-0.125008,0.0012721,0,
1,8.96038,0.529843,-0.125006,0.00128788,0,
1,8.95476,0.544471,-0.125003,0.00130141,0,
1,8.9484,0.558802,-0.125,0.00131295,0,
1,8.9412,0.572887,-0.124997,0.00132268,0,
1,8.93303,0.586769,-0.124994,0.00133069,0,
1,8.92379,0.600486,-0.124991,0.00133703,0,
1,8.91333,0.614069,-0.124987,0.00134171,0,
1,8.90149,0.627546,-0.124984,0.00134471,0,
1,8.8881,0.640942,-0.12498,0.00134596,0,
1,8.87295,0.654277,-0.124976,0.00134538,0,
1,8.85584,0.667572,-0.124973,0.00134289,0,
1,8.83651,0.680845,-0.124971,0.00133837,0,
1,8.81469,0.694114,-0.12497,0.0013317,0,
1,8.79007,0.707399,-0.12497,0.00132272,0,
1,8.76232,0.720721,-0.124973,0.00131128,0,
1,8.73107,0.734103,-0.124978,0.00129718,0,
1,8.69591,0.747574,-0.124988,0.00128018,0,
1,8.6564,0.761168,-0.125003,0.00125999,0,
1,8.61206,0.77493,-0.125026,0.00123628,0,
1,8.56236,0.788914,-0.125058,0.00120865,0,
1,8.50675,0.803188,-0.125103,0.00117664,0,
1,8.44464,0.817841,-0.125162,0.00114014,0,
1,8.3754,0.832994,-0.125244,0.00110374,0,
1,8.29839,0.848933,-0.125351,0.00104817,0,
1,8.21296,0.866052,-0.125487,0.000969666,0,
1,8.11843,0.884621,-0.125664,0.000867554,0,
1,8.01417,0.904641,-0.125892,0.000738062,0,
1,7.89956,0.925669,-0.12617,0.000584263,0,
1,7.77403,0.946621,-0.126534,0.000423681,0,
1,7.63711,0.965926,-0.126973,0.000224487,0,
1,7.48842,0.981205,-0.127494,8.47786e-05,0,
1,7.32773,0.990377,-0.128118,2.10403e-05,0,
1,7.15495,0.993807,-0.128846,2.22973e-06,0,
1,6.97022,0.99395,-0.129691,3.45164e-08,0,
1,6.77388,0.993323,-0.130667,3.00903e-09,0,
1,6.56652,0.993172,-0.131794,9.77595e-09,0,
1,6.34896,0.993603,-0.133084,1.23659e-08,0,
1,6.12229,0.994322,-0.134553,1.3998e-08,0,
1,5.88784,0.99512,-0.136217,1.49046e-08,0,
1,5.64716,0.995956,-0.138092,1.59268e-08,0,
1,5.40194,0.996863,-0.140191,1.73506e-08,0,
1,5.15407,0.997869,-0.142525,1.91574e-08,0,
1,4.90545,0.998985,-0.145102,2.1162e-08,0,
1,4.65805,1.00022,-0.147925,2.33399e-08,0,
1,4.41376,1.00156,-0.150991,2.56549e-08,0,
1,4.17441,1.003,-0.154295,2.78439e-08,0,
1,3.94163,1.00449,-0.157824,2.982e-08,0,
1,3.7169,1.00598,-0.161555,3.21897e-08,0,
1,3.50146,1.00754,-0.165463,3.69726e-08,0,
1,3.29629,1.00948,-0.169518,4.61423e-08,0,
1,3.10217,1.01218,-0.173692,5.79896e-08,0,
1,2.91959,1.01545,-0.177957,1.07939e-07,0,
1,2.74885,1.01788,-0.182268,1.18662e-06,0,
1,2.59002,1.01714,-0.186556,-3.74923e-06,0,
1,2.44299,1.01151,-0.190746,-4.34499e-05,0,
1,2.30752,1.00108,-0.194754,-0.00013144,0,
1,2.18321,0.987204,-0.19852,-0.000256882,0,
1,2.06959,0.971414,-0.202053,-0.000354669,0,
1,1.9661,0.95503,-0.205305,-0.000446091,0,
1,1.87215,0.939031,-0.208254,-0.000529919,0,
1,1.78711,0.923938,-0.210919,-0.000602007,0,
1,1.71033,0.909905,-0.213315,-0.000662522,0,
1,1.64119,0.896889,-0.215458,-0.000713543,0,
1,1.57905,0.884767,-0.217367,-0.000757685,0,
1,1.52332,0.873402,-0.21906,-0.000797315,0,
1,1.47342,0.862676,-0.220557,-0.000834371,0,
1,1.42882,0.852492,-0.221877,-0.000870668,0,
1,1.389,0.842778,-0.223039,-0.000907288,0,
1,1.35351,0.83349,-0.224072,-0.000946613,0,
1,1.3219,0.824623,-0.224965,-0.00097943,0,
1,1.29378,0.816168,-0.225716,-0.000992854,0,
1,1.26878,0.808096,-0.226373,-0.00100507,0,
1,1.24659,0.800397,-0.226943,-0.00101567,0,
1,1.22689,0.793064,-0.227437,-0.0010243,0,
1,1.2092,0.786009,-0.227871,-0.0010302,0,
1,1.1932,0.779178,-0.228253,-0.00103434,0,
1,1.1787,0.772547,-0.228591,-0.00103879,0,
1,1.16554,0.766076,-0.228889,-0.00104629,0,
1,1.15357,0.759703,-0.229151,-0.00106214,0,
1,1.14266,0.753321,-0.229383,-0.0010946,0,
1,1.13268,0.746774,-0.229591,-0.0011555,0,
1,1.12354,0.739849,-0.22978,-0.00125944,0,
1,1.11514,0.732288,-0.229958,-0.00142197,0,
1,1.10739,0.723827,-0.230134,-0.00165673,0,
1,1.10022,0.714265,-0.23031,-0.00197142,0,
1,1.09357,0.703532,-0.230489,-0.00236333,0,
1,1.08738,0.691725,-0.230674,-0.00282033,0,
1,1.0816,0.679083,-0.230863,-0.00332158,0,
1,1.07618,0.665916,-0.231056,-0.00384315,0,
1,1.07107,0.652527,-0.23125,-0.00436337,0,
1,1.06626,0.639164,-0.231446,-0.00486599,0,
1,1.06169,0.62601,-0.23164,-0.00534059,0,
1,1.05735,0.613185,-0.231833,-0.0057816,0,
1,1.05321,0.600761,-0.232024,-0.00618692,0,
1,1.04925,0.588772,-0.232212,-0.0065566,0,
1,1.04544,0.57723,-0.232397,-0.00689209,0,
1,1.04177,0.566127,-0.232579,-0.00719539,0,
1,1.03822,0.555451,-0.232758,-0.00746885,0,
1,1.03478,0.54518,-0.232933,-0.00771487,0,
1,1.03144,0.535291,-0.233106,-0.00793576,0,
1,1.02818,0.52576,-0.233276,-0.00813367,0,
1,1.025,0.516562,-0.233443,-0.00831059,0,
1,1.02188,0.507676,-0.233609,-0.0084683,0,
1,1.01882,0.499078,-0.233772,-0.00860871,0,
1,1.01581,0.490748,-0.233932,-0.00873352,0,
1,1.01284,0.482666,-0.234091,-0.00884252,0,
1,1.00988,0.474723,-0.234249,-0.00893848,0,
1,1.00688,0.466817,-0.234409,-0.00902405,0,
1,1.00384,0.458932,-0.234569,-0.0090989,0,
1,1.00076,0.451051,-0.234732,-0.00916291,0,
1,0.997615,0.443152,-0.234895,-0.00921652,0,
1,0.99441,0.435217,-0.235061,-0.00925984,0,
1,0.991131,0.427223,-0.235229,-0.00929284,0,
1,0.987768,0.419148,-0.2354,-0.00931542,0,
1,0.984308,0.410967,-0.235574,-0.00932735,0,
1,0.980739,0.402653,-0.235751,-0.00932828,0,
1,0.977045,0.394178,-0.235932,-0.00931773,0,
1,0.973211,0.385512,-0.236118,-0.00929508,0,
1,0.969219,0.376619,-0.236309,-0.00925953,0,
1,0.965047,0.367465,-0.236505,-0.00921009,0,
1,0.960675,0.358009,-0.236707,-0.00914557,0,
1,0.956077,0.348207,-0.236917,-0.00906451,0,
1,0.951224,0.338011,-0.237133,-0.0089652,0,
1,0.946088,0.327368,-0.237358,-0.0088456,0,
1,0.940633,0.316221,-0.237592,-0.00870285,0,
1,0.934823,0.304506,-0.237836,-0.00853417,0,
1,0.928616,0.292159,-0.23809,-0.00833652,0,
1,0.921967,0.279114,-0.238356,-0.00810628,0,
1,0.914826,0.265311,-0.238635,-0.00783957,0,
1,0.907141,0.2507,-0.238926,-0.00753248,0,
1,0.898852,0.235253,-0.239231,-0.00718359,0,
1,0.889898,0.21897,-0.239548,-0.00679039,0,
1,0.880212,0.201884,-0.239879,-0.006351,0,
1,0.869723,0.184065,-0.240223,-0.00586605,0,
1,0.858358,0.165635,-0.240579,-0.00533902,0,
1,0.846039,0.146776,-0.240947,-0.00477718,0,
1,0.83269,0.127752,-0.241325,-0.00419235,0,
1,0.818232,0.108918,-0.241712,-0.00360586,0,
1,0.802744,0.0908656,-0.242093,-0.00304622,0,
1,0.78635,0.0741754,-0.242467,-0.00253855,0,
1,0.768969,0.0591206,-0.242816,-0.00210463,0,
1,0.75053,0.0458465,-0.243131,-0.00175663,0,
1,0.730977,0.0343146,-0.243399,-0.00149561,0,
1,0.710271,0.0243077,-0.243612,-0.00131222,0,
1,0.688397,0.0155016,-0.243762,-0.00119122,0,
1,0.66536,0.00755746,-0.243853,-0.00111479,0,
1,0.641194,0.000206227,-0.243882,-0.00106974,0,
1,0.615961,-0.00671872,-0.24386,-0.00105464,0,
1,0.589754,-0.013368,-0.243803,-0.00104174,0,
1,0.562692,-0.0198752,-0.243717,-0.00102827,0,
1,0.534925,-0.0263032,-0.24361,-0.0010102,0,
1,0.506624,-0.032659,-0.243484,-0.000985025,0,
1,0.477982,-0.0389173,-0.243341,-0.000951985,0,
1,0.449206,-0.0450356,-0.243182,-0.000911241,0,
1,0.420509,-0.0509651,-0.24301,-0.000863538,0,
1,0.392107,-0.056657,-0.242829,-0.000809887,0,
1,0.364206,-0.0620658,-0.242642,-0.000751446,0,
1,0.337003,-0.0671525,-0.242452,-0.000689423,0,
1,0.310673,-0.0718848,-0.242266,-0.000625029,0,
1,0.28537,-0.0762382,-0.242087,-0.000559428,0,
1,0.26122,-0.0801957,-0.24192,-0.000493699,0,
1,0.238324,-0.0837472,-0.241766,-0.000428806,0,
1,0.21675,-0.0868889,-0.241629,-0.000365577,0,
1,0.196544,-0.0896223,-0.241511,-0.000304687,0,
1,0.177724,-0.0919529,-0.241412,-0.000246672,0,
1,0.160284,-0.0938895,-0.241333,-0.000191939,0,
1,0.144202,-0.0954427,-0.241272,-0.000140774,0,
1,0.129436,-0.0966241,-0.241228,-9.33607e-05,0,
1,0.115935,-0.0974453,-0.2412,-4.97946e-05,0,
1,0.103636,-0.0979176,-0.241186,-1.01088e-05,0,
1,0.0924701,-0.0980508,-0.241184,2.57087e-05,0,
1,0.0823633,-0.0978524,-0.241191,5.76991e-05,0,
1,0.0732406,-0.0973277,-0.241206,8.59154e-05,0,
1,0.0650269,-0.0964785,-0.241228,0.000110409,0,
1,0.057648,-0.0953032,-0.241254,0.000131217,0,
1,0.0510323,-0.0937956,-0.241282,0.000148352,0,
1,0.0451115,-0.0919448,-0.241312,0.000161795,0,
1,0.0398209,-0.0897345,-0.241343,0.000171483,0,
1,0.0351001,-0.0871421,-0.241373,0.000177302,0,
1,0.0308929,-0.0841388,-0.241402,0.000179083,0,
1,0.0271475,-0.080689,-0.241428,0.00017661,0,
1,0.0238164,-0.0767517,-0.241453,0.000169628,0,
1,0.0208562,-0.0722835,-0.241473,0.000157886,0,
1,0.0182274,-0.0672459,-0.241492,0.000141233,0,
1,0.0158944,-0.0616208,-0.241506,0.000119846,0,
1,0.0138249,-0.0554375,-0.241519,9.46691e-05,0,
1,0.0119898,-0.048814,-0.241527,6.7954e-05,0,
1,0.0103632,-0.0419919,-0.241534,4.32701e-05,0,
1,0.00892169,-0.0353195,-0.241537,2.40987e-05,0,
1,0.00764438,-0.0291508,-0.241542,1.17779e-05,0,
1,0.00651264,-0.0237209,-0.241542,5.14078e-06,0,
1,0.00550983,-0.0191021,-0.241545,2.04504e-06,0,
1,0.00462115,-0.015248,-0.241545,7.51133e-07,0,
1,0.00383341,-0.0120591,-0.241548,2.55059e-07,0,
1,0.0031349,-0.00942614,-0.241546,7.91979e-08,0,
1,0.00251518,-0.00724987,-0.24155,2.19483e-08,0,
1,0.00196502,-0.00544603,-0.241547,5.20481e-09,0,
1,0.00147619,-0.0039454,-0.241551,9.82757e-10,0,
1,0.00104139,-0.00269179,-0.241548,1.29646e-10,0,
1,0.000654158,-0.00163977,-0.241553,9.18183e-12,0,
1,0.000308731,-0.000752648,-0.241548,1.9142e-13,0,

4,0,0,-0.114329,0,0,
4,9,0,-0.0935981,0,0,
4,8.99969,0.0142359,-0.0935978,2.22818e-10,0,
4,8.99934,0.0303307,-0.093598,1.03378e-08,0,
4,8.99894,0.0485454,-0.0935978,1.41164e-07,0,
4,8.9985,0.0691564,-0.0935979,1.02465e-06,0,
4,8.99799,0.0924448,-0.0935977,5.08621e-06,0,
4,8.99742,0.118613,-0.0935978,1.92616e-05,0,
4,8.99677,0.147579,-0.0935976,5.78217e-05,0,
4,8.99605,0.178665,-0.0935977,0.000138223,0,
4,8.99522,0.21052,-0.0935975,0.000264399,0,
4,8.99429,0.241604,-0.0935974,0.000416253,0,
4,8.99324,0.270849,-0.0935971,0.000565857,0,
4,8.99205,0.297869,-0.0935969,0.000695542,0,
4,8.9907,0.32274,-0.0935964,0.000799647,0,
4,8.98919,0.345637,-0.093596,0.00088743,0,
4,8.98747,0.366749,-0.0935952,0.000960536,0,
4,8.98553,0.38635,-0.0935945,0.0010177,0,
4,8.98334,0.404719,-0.0935935,0.00106428,0,
4,8.98087,0.422068,-0.0935924,0.0011036,0,
4,8.97807,0.438568,-0.093591,0.00113706,0,
4,8.97491,0.454359,-0.0935894,0.00116597,0,
4,8.97134,0.46956,-0.0935875,0.00119132,0,
4,8.96731,0.484271,-0.0935852,0.00121383,0,
4,8.96276,0.498577,-0.0935826,0.00123404,0,
4,8.95762,0.512552,-0.0935796,0.00125233,0,
4,8.95182,0.526257,-0.093576,0.00126894,0,
4,8.94526,0.539747,-0.0935719,0.00128404,0,
4,8.93787,0.553067,-0.0935675,0.00129771,0,
4,8.92952,0.566259,-0.0935626,0.00130996,0,
4,8.92011,0.579356,-0.093557,0.00132074,0,
4,8.90949,0.592388,-0.0935509,0.00132997,0,
4,8.89751,0.605381,-0.0935442,0.0013375,0,
4,8.88402,0.618357,-0.0935368,0.00134319,0,
4,8.86881,0.631334,-0.0935289,0.00134687,0,
4,8.85169,0.644326,-0.0935204,0.00134833,0,
4,8.83242,0.657349,-0.0935115,0.00134739,0,
4,8.81074,0.670413,-0.0935023,0.00134387,0,
4,8.78637,0.68353,-0.0934931,0.00133756,0,
4,8.75901,0.696713,-0.093484,0.00132831,0,
4,8.7283,0.709976,-0.0934757,0.00131593,0,
4,8.69387,0.723336,-0.0934684,0.00130024,0,
4,8.65533,0.736817,-0.0934629,0.00128105,0,
4,8.61222,0.750448,-0.09346,0.0012581,0,
4,8.56407,0.764268,-0.0934608,0.00123105,0,
4,8.5104,0.778325,-0.0934665,0.00119938,0,
4,8.45065,0.792677,-0.0934786,0.00116251,0,
4,8.38429,0.807397,-0.0934988,0.00112169,0,
4,8.31073,0.822614,-0.0935318,0.00107762,0,
4,8.22941,0.838633,-0.0935806,0.00101577,0,
4,8.13974,0.855889,-0.0936475,0.000928321,0,
4,8.04115,0.874679,-0.0937353,0.00081712,0,
4,7.93313,0.894925,-0.0938456,0.000681993,0,
4,7.81519,0.915952,-0.0939709,0.000531654,0,
4,7.68693,0.936348,-0.0941312,0.000384544,0,
4,7.54803,0.954207,-0.0943083,0.000226452,0,
4,7.39831,0.967495,-0.0945182,0.00010109,0,
4,7.23771,0.975161,-0.0947759,3.18238e-05,0,
4,7.06634,0.978057,-0.0950706,5.32202e-06,0,
4,6.88453,0.978248,-0.0954023,-1.00656e-07,0,
4,6.69275,0.977644,-0.0957702,-1.87265e-07,0,
4,6.49173,0.977238,-0.0961795,-7.56366e-09,0,
4,6.28238,0.977219,-0.0966364,1.65725e-08,0,
4,6.06579,0.977429,-0.0971455,1.05327e-08,0,
4,5.84328,0.977705,-0.0977099,6.75496e-09,0,
4,5.61626,0.977978,-0.0983314,5.54303e-09,0,
4,5.3863,0.978244,-0.0990111,5.35317e-09,0,
4,5.15502,0.978519,-0.0997486,5.5856e-09,0,
4,4.92406,0.978814,-0.100543,6.03598e-09,0,
4,4.69507,0.97914,-0.10139,6.59405e-09,0,
4,4.46961,0.979499,-0.102286,7.10853e-09,0,
4,4.24915,0.979874,-0.103226,7.26385e-09,0,
4,4.03501,0.98021,-0.104202,6.78687e-09,0,
4,3.82836,0.980439,-0.105205,5.90343e-09,0,
4,3.63018,0.98056,-0.106225,5.90766e-09,0,
4,3.44125,0.980741,-0.107252,9.32539e-09,0,
4,3.26217,0.981325,-0.108275,3.73423e-08,0,
4,3.09333,0.982611,-0.109285,3.50349e-07,0,
4,2.93497,0.984466,-0.110269,1.68416e-06,0,
4,2.78715,0.986129,-0.111217,2.97682e-06,0,
4,2.64979,0.986494,-0.112121,-2.16287e-06,0,
4,2.52268,0.984638,-0.112971,-2.27264e-05,0,
4,2.40551,0.980183,-0.11376,-6.41701e-05,0,
4,2.29789,0.973296,-0.114481,-0.000126087,0,
4,2.19939,0.964501,-0.115132,-0.000203496,0,
4,2.10949,0.954458,-0.115711,-0.000288886,0,
4,2.02768,0.943819,-0.116224,-0.000373776,0,
4,1.95343,0.93314,-0.11667,-0.000451875,0,
4,1.88618,0.922779,-0.117067,-0.0005165,0,
4,1.82542,0.912876,-0.117419,-0.000560252,0,
4,1.77062,0.903498,-0.117718,-0.000599958,0,
4,1.72128,0.894724,-0.117979,-0.000635726,0,
4,1.67693,0.886597,-0.118202,-0.000667858,0,
4,1.63713,0.879125,-0.118395,-0.000696515,0,
4,1.60144,0.872295,-0.118561,-0.000722083,0,
4,1.56949,0.86608,-0.118705,-0.000744949,0,
4,1.54091,0.860442,-0.118828,-0.000765537,0,
4,1.51537,0.855318,-0.118936,-0.000784428,0,
4,1.49167,0.8505,-0.119033,-0.000802342,0,
4,1.46926,0.845895,-0.11912,-0.000819595,0,
4,1.44801,0.841498,-0.119198,-0.000836282,0,
4,1.42781,0.837312,-0.119268,-0.000852422,0,
4,1.40855,0.833339,-0.119329,-0.000867994,0,
4,1.39015,0.829553,-0.119395,-0.00088106,0,
4,1.37252,0.825896,-0.119467,-0.000883528,0,
4,1.3556,0.822321,-0.119533,-0.000889184,0,
4,1.3393,0.818811,-0.119596,-0.000895169,0,
4,1.32357,0.815347,-0.119656,-0.00090232,0,
4,1.30836,0.811908,-0.119714,-0.000911506,0,
4,1.29362,0.808471,-0.119769,-0.000923849,0,
4,1.2793,0.805009,-0.119822,-0.00094076,0,
4,1.26537,0.80149,-0.119873,-0.000963931,0,
4,1.25179,0.797876,-0.119922,-0.000995367,0,
4,1.23852,0.794123,-0.119969,-0.00103738,0,
4,1.22554,0.790181,-0.120015,-0.00109255,0,
4,1.21282,0.785991,-0.120059,-0.00116369,0,
4,1.20034,0.781493,-0.1201,-0.00125363,0,
4,1.18806,0.776624,-0.12014,-0.00136504,0,
4,1.17599,0.771322,-0.120178,-0.00150014,0,
4,1.16408,0.765536,-0.120213,-0.00166034,0,
4,1.15233,0.75923,-0.120246,-0.00184597,0,
4,1.14073,0.752386,-0.120277,-0.0020561,0,
4,1.12925,0.745008,-0.120305,-0.00228847,0,
4,1.11788,0.73712,-0.120331,-0.00253973,0,
4,1.10661,0.728764,-0.120356,-0.00280569,0,
4,1.09543,0.71999,-0.12038,-0.00308172,0,
4,1.08432,0.710856,-0.120402,-0.00336314,0,
4,1.07328,0.701422,-0.120424,-0.00364544,0,
4,1.0623,0.691745,-0.120444,-0.00392458,0,
4,1.05136,0.681879,-0.120464,-0.00419697,0,
4,1.04044,0.671855,-0.120484,-0.00445975,0,
4,1.0295,0.661698,-0.120502,-0.00471068,0,
4,1.01855,0.651445,-0.120521,-0.00494757,0,
4,1.00757,0.641129,-0.120539,-0.00516841,0,
4,0.996544,0.630778,-0.120558,-0.00537611,0,
4,0.98547,0.620399,-0.12057,-0.00558246,0,
4,0.974334,0.609905,-0.120564,-0.00574546,0,
4,0.963124,0.599173,-0.120548,-0.00591284,0,
4,0.951826,0.588138,-0.120529,-0.00608637,0,
4,0.940428,0.576763,-0.120508,-0.00626698,0,
4,0.928915,0.565017,-0.120488,-0.00645423,0,
4,0.917272,0.552873,-0.12047,-0.00664869,0,
4,0.905481,0.540304,-0.120453,-0.00685079,0,
4,0.893524,0.527284,-0.120438,-0.00706083,0,
4,0.881383,0.513789,-0.120426,-0.00727891,0,
4,0.869035,0.499792,-0.120416,-0.00750491,0,
4,0.856459,0.485271,-0.120409,-0.0077385,0,
4,0.843629,0.470202,-0.120405,-0.00797903,0,
4,0.830518,0.454565,-0.120405,-0.00822555,0,
4,0.817097,0.438344,-0.120408,-0.00847666,0,
4,0.803334,0.421533,-0.120416,-0.00873053,0,
4,0.789195,0.404134,-0.120428,-0.00898474,0,
4,0.774643,0.386168,-0.120445,-0.00923629,0,
4,0.759639,0.367679,-0.120468,-0.0094815,0,
4,0.744138,0.348728,-0.120496,-0.00971607,0,
4,0.728096,0.329396,-0.12053,-0.00993505,0,
4,0.711463,0.309768,-0.120569,-0.0101321,0,
4,0.694189,0.289925,-0.120611,-0.0103012,0,
4,0.676218,0.269935,-0.120656,-0.0104375,0,
4,0.657495,0.249847,-0.120702,-0.0105375,0,
4,0.637962,0.229692,-0.120749,-0.0105987,0,
4,0.617561,0.209472,-0.120789,-0.0106192,0,
4,0.596848,0.189715,-0.120816,-0.0105973,0,
4,0.576557,0.171031,-0.120826,-0.0105354,0,
4,0.556564,0.153236,-0.120819,-0.0104363,0,
4,0.536763,0.136195,-0.120805,-0.0103014,0,
4,0.517057,0.119867,-0.120809,-0.0101322,0,
4,0.497368,0.10434,-0.12088,-0.00993285,0,
4,0.477632,0.0898225,-0.121075,-0.00971236,0,
4,0.457804,0.0765456,-0.121429,-0.0094849,0,
4,0.437857,0.0645778,-0.121882,-0.00926566,0,
4,0.417786,0.0536259,-0.121968,-0.00893463,0,
4,0.397605,0.0431758,-0.121704,-0.00842276,0,
4,0.377348,0.0329558,-0.121464,-0.00802431,0,
4,0.357066,0.0229943,-0.121222,-0.0076183,0,
4,0.336828,0.0133304,-0.120961,-0.00720571,0,
4,0.316717,0.0040039,-0.12069,-0.00679002,0,
4,0.296825,-0.00495157,-0.120407,-0.00637144,0,
4,0.27725,-0.0135128,-0.120115,-0.00595123,0,
4,0.258095,-0.0216607,-0.119812,-0.00553486,0,
4,0.239458,-0.0293759,-0.119501,-0.00512598,0,
4,0.221432,-0.0366421,-0.119183,-0.0047267,0,
4,0.2041,-0.0434496,-0.11886,-0.00433912,0,
4,0.187537,-0.0497963,-0.118536,-0.0039654,0,
4,0.171798,-0.0556872,-0.118212,-0.00360746,0,
4,0.156928,-0.0611328,-0.117893,-0.00326687,0,
4,0.142956,-0.0661483,-0.11758,-0.00294481,0,
4,0.129894,-0.0707518,-0.117276,-0.00264208,0,
4,0.117744,-0.0749637,-0.116985,-0.00235907,0,
4,0.106492,-0.0788054,-0.116708,-0.00209584,0,
4,0.0961173,-0.0822986,-0.116446,-0.00185216,0,
4,0.0865883,-0.0854649,-0.116203,-0.00162752,0,
4,0.0778675,-0.088325,-0.115977,-0.00142122,0,
4,0.0699123,-0.0908986,-0.11577,-0.00123243,0,
4,0.062677,-0.093204,-0.115582,-0.00106018,0,
4,0.056114,-0.0952579,-0.115412,-0.000903451,0,
4,0.0501747,-0.0970756,-0.11526,-0.000761193,0,
4,0.0448114,-0.0986701,-0.115124,-0.000632346,0,
4,0.039977,-0.100053,-0.115003,-0.000515867,0,
4,0.0356266,-0.101233,-0.114897,-0.000410756,0,
4,0.0317171,-0.102217,-0.114804,-0.000316061,0,
4,0.0282081,-0.10301,-0.114723,-0.000230897,0,
4,0.0250617,-0.103612,-0.114653,-0.000154452,0,
4,0.0222427,-0.10402,-0.114593,-8.6005e-05,0,
4,0.0197189,-0.104226,-0.114542,-2.4935e-05,0,
4,0.0174603,-0.104217,-0.114498,2.92522e-05,0,
4,0.0154398,-0.10397,-0.114461,7.6886e-05,0,
4,0.0136326,-0.103447,-0.114431,0.000118066,0,
4,0.0120162,-0.102596,-0.114406,0.000152545,0,
4,0.0105703,-0.101336,-0.114385,0.000179539,0,
4,0.00927657,-0.0995478,-0.114369,0.000197428,0,
4,0.00811839,-0.0970583,-0.114356,0.000203473,0,
4,0.0070809,-0.0936334,-0.114348,0.000194053,0,
4,0.0061507,-0.0890035,-0.114341,0.000166756,0,
4,0.00531578,-0.0829712,-0.114338,0.000124846,0,
4,0.00456537,-0.0755932,-0.114335,7.93937e-05,0,
4,0.00388979,-0.0672644,-0.114335,4.27098e-05,0,
4,0.00328037,-0.0585392,-0.114333,1.96965e-05,0,
4,0.00272934,-0.0498713,-0.114334,7.89306e-06,0,
4,0.0022297,-0.0415184,-0.114332,2.74203e-06,0,
4,0.00177519,-0.0335859,-0.114333,8.0303e-07,0,
4,0.00136016,-0.0260955,-0.114331,1.85883e-07,0,
4,0.000979511,-0.0190295,-0.114333,2.99251e-08,0,
4,0.00062865,-0.0123534,-0.11433,2.56599e-09,0,
4,0.000303409,-0.00602557,-0.114333,6.28112e-11,0,

6,0,0,-0.00597051,0,0,
6,9,0,-0.0699324,0,0,
6,8.99969,0.0135342,-0.0699321,1.87104e-10,0,
6,8.99934,0.028796,-0.0699323,8.63487e-09,0,
6,8.99895,0.0460229,-0.0699321,1.17063e-07,0,
6,8.9985,0.0654661,-0.0699322,8.4359e-07,0,
6,8.99801,0.0873839,-0.069932,4.16412e-06,0,
6,8.99744,0.111976,-0.0699321,1.57502e-05,0,
6,8.99681,0.139212,-0.069932,4.75966e-05,0,
6,8.99609,0.168567,-0.069932,0.000115683,0,
6,8.99529,0.198886,-0.0699318,0.000226667,0,
6,8.99438,0.228737,-0.0699318,0.000365978,0,
6,8.99336,0.257021,-0.0699315,0.000508071,0,
6,8.9922,0.283242,-0.0699314,0.000635601,0,
6,8.9909,0.307399,-0.069931,0.000738873,0,
6,8.98944,0.329651,-0.0699307,0.000825705,0,
6,8.98779,0.350171,-0.0699301,0.000898744,0,
6,8.98593,0.369209,-0.0699295,0.000956407,0,
6,8.98383,0.387023,-0.0699287,0.00100388,0,
6,8.98147,0.403819,-0.0699278,0.00104408,0,
6,8.97881,0.419763,-0.0699267,0.00107853,0,
6,8.97581,0.434993,-0.0699253,0.00110857,0,
6,8.97244,0.449629,-0.0699237,0.00113521,0,
6,8.96863,0.463771,-0.0699218,0.00115922,0,
6,8.96435,0.477505,-0.0699195,0.00118117,0,
6,8.95953,0.490905,-0.0699169,0.00120145,0,
6,8.95409,0.504036,-0.0699137,0.00122038,0,
6,8.94798,0.516954,-0.06991,0.00123813,0,
6,8.94109,0.529709,-0.0699057,0.0012548,0,
6,8.93334,0.542344,-0.069901,0.00127042,0,
6,8.92463,0.554898,-0.0698955,0.00128496,0,
6,8.91482,0.567405,-0.0698893,0.00129832,0,
6,8.90379,0.579894,-0.0698822,0.00131035,0,
6,8.89139,0.592391,-0.0698742,0.00132086,0,
6,8.87746,0.604918,-0.0698651,0.00132962,0,
6,8.86181,0.617492,-0.0698549,0.00133637,0,
6,8.84423,0.63013,-0.0698435,0.00134083,0,
6,8.82452,0.642843,-0.0698308,0.00134273,0,
6,8.80241,0.655641,-0.0698168,0.00134177,0,
6,8.77763,0.668534,-0.0698014,0.00133769,0,
6,8.74989,0.681528,-0.0697845,0.00133023,0,
6,8.71885,0.694634,-0.0697661,0.00131916,0,
6,8.68417,0.707862,-0.0697462,0.00130426,0,
6,8.64545,0.721227,-0.0697247,0.00128531,0,
6,8.60229,0.734749,-0.0697016,0.00126206,0,
6,8.55423,0.748455,-0.069677,0.00123418,0,
6,8.50082,0.762379,-0.0696506,0.00120117,0,
6,8.44155,0.776563,-0.0696226,0.00116245,0,
6,8.37592,0.791053,-0.0695922,0.00111907,0,
6,8.30339,0.805945,-0.0695624,0.00107368,0,
6,8.22344,0.821523,-0.0695349,0.00100988,0,
6,8.13555,0.838225,-0.0695091,0.000928479,0,
6,8.0392,0.856431,-0.069478,0.000826834,0,
6,7.93391,0.876215,-0.0694411,0.00070408,0,
6,7.81927,0.897046,-0.0693841,0.000565788,0,
6,7.6949,0.917585,-0.0693144,0.000427962,0,
6,7.56054,0.935982,-0.0692144,0.000300475,0,
6,7.41603,0.950522,-0.0690911,0.000157414,0,
6,7.26132,0.960066,-0.0689528,6.3759e-05,0,
6,7.09653,0.964741,-0.0687832,1.67317e-05,0,
6,6.92195,0.965971,-0.0685843,9.71043e-07,0,
6,6.73802,0.965553,-0.0683475,-1.26569e-06,0,
6,6.5454,0.964788,-0.0680687,-6.32374e-07,0,
6,6.34489,0.964227,-0.0677428,-1.94013e-07,0,
6,6.1375,0.963908,-0.0673654,-5.78797e-08,0,
6,5.92439,0.963695,-0.066931,-2.25936e-08,0,
6,5.70687,0.963474,-0.0664342,-1.22718e-08,0,
6,5.48633,0.963199,-0.065869,-8.96585e-09,0,
6,5.26426,0.962865,-0.0652299,-8.19525e-09,0,
6,5.04218,0.962482,-0.0645119,-8.43605e-09,0,
6,4.82159,0.962061,-0.0637106,-9.06254e-09,0,
6,4.60398,0.961617,-0.0628229,-9.86128e-09,0,
6,4.39071,0.961147,-0.0618472,-1.09396e-08,0,
6,4.18307,0.960625,-0.0607836,-1.2586e-08,0,
6,3.98218,0.959992,-0.0596346,-1.50527e-08,0,
6,3.78902,0.959192,-0.0584047,-1.80569e-08,0,
6,3.60438,0.958247,-0.0571013,-2.27055e-08,0,
6,3.42888,0.957316,-0.0557336,-4.63549e-08,0,
6,3.26296,0.956677,-0.0543119,-1.29152e-07,0,
6,3.10691,0.956575,-0.0528469,-2.35742e-07,0,
6,2.96084,0.957013,-0.0513494,-2.44256e-07,0,
6,2.82473,0.957659,-0.0498319,-7.1856e-07,0,
6,2.69844,0.957937,-0.0483093,-4.05719e-06,0,
6,2.58172,0.957254,-0.0467982,-1.41522e-05,0,
6,2.47424,0.955203,-0.0453159,-3.45006e-05,0,
6,2.37559,0.951645,-0.0438785,-6.65707e-05,0,
6,2.28535,0.946684,-0.0424994,-0.000109559,0,
6,2.20301,0.940578,-0.0411893,-0.000160978,0,
6,2.1281,0.933665,-0.0399555,-0.000217325,0,
6,2.06009,0.9263,-0.0388016,-0.000274469,0,
6,1.99849,0.918824,-0.0377316,-0.000328467,0,
6,1.9428,0.911522,-0.0367395,-0.000378047,0,
6,1.89255,0.904523,-0.0358319,-0.000413931,0,
6,1.84728,0.897849,-0.0350053,-0.000441551,0,
6,1.80655,0.89153,-0.0342469,-0.000467269,0,
6,1.76996,0.885614,-0.0335581,-0.000491141,0,
6,1.73712,0.880129,-0.0329327,-0.00051322,0,
6,1.70768,0.875046,-0.0323655,-0.000533637,0,
6,1.67998,0.870141,-0.0318294,-0.000553434,0,
6,1.65329,0.865317,-0.0313081,-0.000572827,0,
6,1.62754,0.860572,-0.0308016,-0.000591733,0,
6,1.60265,0.855904,-0.0303081,-0.000610233,0,
6,1.57854,0.851312,-0.0298271,-0.00062831,0,
6,1.55515,0.846795,-0.0293576,-0.000645955,0,
6,1.53242,0.842351,-0.0288986,-0.000663211,0,
6,1.5103,0.837977,-0.0284494,-0.000680123,0,
6,1.48874,0.83367,-0.0280093,-0.000696716,0,
6,1.46769,0.829423,-0.0275778,-0.000713005,0,
6,1.44712,0.825221,-0.0271544,-0.000729045,0,
6,1.42698,0.821047,-0.0267387,-0.000745135,0,
6,1.40725,0.816881,-0.0263298,-0.000761738,0,
6,1.38788,0.812714,-0.0259267,-0.00077919,0,
6,1.36886,0.808552,-0.0255277,-0.000797955,0,
6,1.35015,0.804428,-0.0251315,-0.000818617,0,
6,1.33173,0.800388,-0.0247362,-0.000841551,0,
6,1.31357,0.796471,-0.0243443,-0.000866744,0,
6,1.29566,0.792665,-0.0239548,-0.000893287,0,
6,1.27797,0.788886,-0.0235796,-0.000913573,0,
6,1.26048,0.785027,-0.0232137,-0.000937074,0,
6,1.24318,0.781025,-0.0228459,-0.000970894,0,
6,1.22605,0.776836,-0.0224834,-0.00101399,0,
6,1.20907,0.772408,-0.0221228,-0.00106867,0,
6,1.19223,0.767687,-0.0217657,-0.00113736,0,
6,1.17551,0.762609,-0.0214114,-0.00122246,0,
6,1.1589,0.757117,-0.0210597,-0.00132602,0,
6,1.14238,0.751156,-0.0207118,-0.00144953,0,
6,1.12595,0.744685,-0.0203676,-0.00159361,0,
6,1.10959,0.737679,-0.0200273,-0.0017578,0,
6,1.09329,0.730135,-0.0196911,-0.00194049,0,
6,1.07704,0.722068,-0.0193592,-0.00213906,0,
6,1.06081,0.713509,-0.0190319,-0.00235009,0,
6,1.04459,0.704499,-0.0187091,-0.00256972,0,
6,1.02836,0.695091,-0.0183913,-0.00279423,0,
6,1.01211,0.685342,-0.0180778,-0.00302834,0,
6,0.99583,0.675249,-0.0177651,-0.00325212,0,
6,0.97951,0.664765,-0.0174539,-0.00348118,0,
6,0.963136,0.653854,-0.0171464,-0.00371702,0,
6,0.946694,0.642483,-0.0168431,-0.00396089,0,
6,0.930172,0.630613,-0.0165448,-0.00421387,0,
6,0.913555,0.618201,-0.0162518,-0.00447688,0,
6,0.896829,0.605198,-0.0159647,-0.00475064,0,
6,0.879979,0.591564,-0.015684,-0.00503566,0,
6,0.862989,0.577275,-0.0154109,-0.00533237,0,
6,0.845842,0.562346,-0.0151474,-0.0056415,0,
6,0.828521,0.546831,-0.014895,-0.00596283,0,
6,0.811008,0.53079,-0.0146539,-0.00628677,0,
6,0.793282,0.514272,-0.0144245,-0.00660976,0,
6,0.775322,0.497322,-0.0142079,-0.00692808,0,
6,0.757107,0.479988,-0.014005,-0.00723782,0,
6,0.738612,0.46233,-0.0138178,-0.00753475,0,
6,0.719813,0.444425,-0.0136482,-0.00781435,0,
6,0.700681,0.426362,-0.0134981,-0.00807188,0,
6,0.681188,0.408242,-0.0133677,-0.0083023,0,
6,0.661304,0.390148,-0.0132539,-0.00850038,0,
6,0.640996,0.372139,-0.0131499,-0.00866144,0,
6,0.620228,0.354232,-0.0130464,-0.00878167,0,
6,0.598964,0.336415,-0.0129359,-0.00885764,0,
6,0.577166,0.318684,-0.0128229,-0.00888622,0,
6,0.554791,0.301109,-0.0127327,-0.00886612,0,
6,0.531799,0.283909,-0.0127238,-0.00880144,0,
6,0.508144,0.267465,-0.0128557,-0.00870372,0,
6,0.48378,0.252172,-0.0131937,-0.0085919,0,
6,0.459585,0.238631,-0.0135483,-0.00846902,0,
6,0.436695,0.22686,-0.0135046,-0.00804949,0,
6,0.414961,0.216197,-0.0132434,-0.00768503,0,
6,0.394252,0.206378,-0.0130451,-0.00735798,0,
6,0.374445,0.197275,-0.0128278,-0.00703393,0,
6,0.355433,0.188789,-0.012611,-0.00671527,0,
6,0.337122,0.180843,-0.0123929,-0.00640085,0,
6,0.319433,0.17337,-0.0121715,-0.00609032,0,
6,0.3023,0.166318,-0.0119458,-0.00578381,0,
6,0.28567,0.159641,-0.011715,-0.00548148,0,
6,0.269507,0.153302,-0.0114785,-0.00518357,0,
6,0.253785,0.147274,-0.0112361,-0.00489042,0,
6,0.238493,0.141532,-0.0109878,-0.00460251,0,
6,0.223631,0.13606,-0.0107339,-0.00432045,0,
6,0.209207,0.130842,-0.0104751,-0.00404496,0,
6,0.195237,0.12587,-0.0102125,-0.00377683,0,
6,0.181744,0.121135,-0.00994728,-0.0035169,0,
6,0.168754,0.116629,-0.00968112,-0.00326604,0,
6,0.156292,0.112346,-0.00941581,-0.00302506,0,
6,0.144384,0.108281,-0.00915329,-0.0027947,0,
6,0.133052,0.104428,-0.00889559,-0.00257561,0,
6,0.122315,0.10078,-0.00864467,-0.00236828,0,
6,0.112183,0.0973294,-0.00840239,-0.00217305,0,
6,0.102665,0.0940691,-0.00817041,-0.00199011,0,
6,0.0937597,0.0909904,-0.00795015,-0.0018195,0,
6,0.0854609,0.0880842,-0.00774271,-0.00166107,0,
6,0.077757,0.0853408,-0.00754888,-0.00151457,0,
6,0.0706309,0.0827503,-0.00736914,-0.00137963,0,
6,0.0640611,0.0803021,-0.00720368,-0.00125577,0,
6,0.0580229,0.0779858,-0.00705239,-0.00114244,0,
6,0.0524888,0.0757907,-0.00691497,-0.00103904,0,
6,0.0474296,0.073706,-0.00679088,-0.000944948,0,
6,0.042815,0.071721,-0.00667949,-0.000859501,0,
6,0.0386145,0.0698247,-0.00658001,-0.000782045,0,
6,0.0347975,0.0680064,-0.00649165,-0.000711933,0,
6,0.0313344,0.0662549,-0.00641352,-0.000648531,0,
6,0.0281964,0.064559,-0.00634479,-0.000591226,0,
6,0.0253561,0.0629071,-0.00628456,-0.000539426,0,
6,0.0227875,0.0612868,-0.00623212,-0.000492566,0,
6,0.0204662,0.0596848,-0.00618653,-0.000450098,0,
6,0.0183694,0.0580867,-0.00614734,-0.00041149,0,
6,0.016476,0.0564758,-0.00611351,-0.000376213,0,
6,0.0147664,0.0548328,-0.00608497,-0.000343729,0,
6,0.0132228,0.0531347,-0.0060605,-0.000313465,0,
6,0.0118288,0.0513531,-0.0060405,-0.000284783,0,
6,0.0105693,0.0494526,-0.0060234,-0.000256938,0,
6,0.00943073,0.0473891,-0.00601027,-0.000229035,0,
6,0.00840063,0.045108,-0.005999,-0.000200034,0,
6,0.00746774,0.0425471,-0.00599139,-0.000168917,0,
6,0.00662185,0.0396467,-0.00598466,-0.000135237,0,
6,0.00585371,0.0363761,-0.00598128,-0.000100116,0,
6,0.00515491,0.0327738,-0.00597767,-6.6869e-05,0,
6,0.00451788,0.0289718,-0.00597699,-3.97075e-05,0,
6,0.00393573,0.0251615,-0.00597489,-2.09675e-05,0,
6,0.00340221,0.0215163,-0.00597547,-9.94535e-06,0,
6,0.00291168,0.018139,-0.0059737,-4.27508e-06,0,
6,0.00245897,0.0150635,-0.00597486,-1.6629e-06,0,
6,0.00203939,0.0122807,-0.0059729,-5.75357e-07,0,
6,0.00164864,0.00976188,-0.00597453,-1.70473e-07,0,
6,0.00128281,0.00747316,-0.00597216,-4.03148e-08,0,
6,0.000938257,0.00538116,-0.00597436,-6.66901e-09,0,
6,0.000611645,0.00345563,-0.00597138,-5.87738e-10,0,
6,0.000299862,0.00166988,-0.00597433,-1.45365e-11,0,

10,0.000296632,0.00879957,0.0259099,-5.37686e-11,0,
10,0.000596102,0.0176803,0.0259105,-1.99268e-09,0,
10,0.000900397,0.026701,0.0259099,-2.0259e-08,0,
10,0.00121153,0.0359209,0.0259104,-1.08851e-07,0,
10,0.00153158,0.0453991,0.0259098,-4.07027e-07,0,
10,0.00186264,0.0551935,0.0259102,-1.20937e-06,0,
10,0.00220692,0.0653579,0.0259098,-3.06607e-06,0,
10,0.00256668,0.0759368,0.0259101,-6.90949e-06,0,
10,0.00294431,0.0869569,0.0259097,-1.41745e-05,0,
10,0.00334229,0.098415,0.0259099,-2.68282e-05,0,
10,0.00376326,0.110263,0.0259096,-4.71675e-05,0,
10,0.00421,0.122397,0.0259097,-7.72613e-05,0,
10,0.00468544,0.134655,0.0259093,-0.00011811,0,
10,0.00519274,0.14683,0.0259093,-0.000168936,0,
10,0.00573524,0.158706,0.0259088,-0.000227125,0,
10,0.00631651,0.170089,0.0259086,-0.000288973,0,
10,0.00694041,0.180834,0.0259079,-0.000350763,0,
10,0.00761104,0.190851,0.0259073,-0.000409574,0,
10,0.00833284,0.200105,0.0259061,-0.000463575,0,
10,0.00911058,0.208602,0.025905,-0.000511928,0,
10,0.0099494,0.216373,0.0259032,-0.000554523,0,
10,0.0108548,0.223471,0.0259012,-0.000591717,0,
10,0.0118329,0.229955,0.0258986,-0.000624128,0,
10,0.0128901,0.235888,0.0258956,-0.000652483,0,
10,0.0140333,0.241333,0.0258918,-0.000677533,0,
10,0.0152702,0.246348,0.0258873,-0.000699994,0,
10,0.0166089,0.250988,0.025882,-0.00072052,0,
10,0.0180584,0.2553,0.0258758,-0.000739698,0,
10,0.0196282,0.259329,0.0258685,-0.000758043,0,
10,0.0213288,0.263113,0.0258601,-0.000776009,0,
10,0.0231714,0.266684,0.0258504,-0.000793998,0,
10,0.0251682,0.270075,0.0258393,-0.000812371,0,
10,0.0273326,0.273309,0.0258266,-0.000831454,0,
10,0.0296789,0.276412,0.0258121,-0.000851553,0,
10,0.0322227,0.279404,0.0257958,-0.000872957,0,
10,0.0349809,0.282303,0.0257774,-0.000895946,0,
10,0.0379719,0.285127,0.0257568,-0.000920799,0,
10,0.0412155,0.287892,0.0257336,-0.000947796,0,
10,0.0447333,0.290613,0.0257077,-0.000977225,0,
10,0.0485489,0.293302,0.0256788,-0.00100938,0,
10,0.0526875,0.295974,0.0256468,-0.00104459,0,
10,0.0571768,0.298642,0.0256112,-0.00108316,0,
10,0.0620466,0.301318,0.0255719,-0.00112546,0,
10,0.0673295,0.304015,0.0255285,-0.00117186,0,
10,0.0730607,0.306746,0.0254808,-0.00122276,0,
10,0.0792784,0.309525,0.0254285,-0.00127859,0,
10,0.0860241,0.312366,0.0253713,-0.00133981,0,
10,0.0933428,0.315284,0.0253089,-0.00140691,0,
10,0.101283,0.318294,0.025241,-0.00148042,0,
10,0.109899,0.321415,0.0251674,-0.00156092,0,
10,0.119247,0.324665,0.0250878,-0.00164898,0,
10,0.12939,0.328066,0.0250022,-0.00174526,0,
10,0.140395,0.331641,0.0249102,-0.0018504,0,
10,0.152337,0.335416,0.024812,-0.00196511,0,
10,0.165296,0.339421,0.0247073,-0.0020901,0,
10,0.179357,0.34369,0.0245962,-0.00222609,0,
10,0.194615,0.34826,0.0244789,-0.00237379,0,
10,0.211171,0.353177,0.0243555,-0.00253388,0,
10,0.229138,0.358491,0.024226,-0.00270698,0,
10,0.248635,0.364259,0.0240912,-0.00289359,0,
10,0.269793,0.370549,0.0239504,-0.00309404,0,
10,0.292753,0.377438,0.0238057,-0.00330839,0,
10,0.317669,0.385017,0.0236537,-0.00353523,0,
10,0.344708,0.393384,0.0234996,-0.00377258,0,
10,0.372405,0.402138,0.0233496,-0.00400914,0,
10,0.399623,0.410939,0.0232067,-0.00423386,0,
10,0.426397,0.419798,0.0230717,-0.00444528,0,
10,0.452757,0.428727,0.0229451,-0.00464262,0,
10,0.478735,0.437747,0.0228289,-0.00482453,0,
10,0.504358,0.446888,0.0227252,-0.00498995,0,
10,0.529657,0.456184,0.0226326,-0.0051362,0,
10,0.554656,0.46567,0.0225538,-0.00526308,0,
10,0.579382,0.475372,0.0224742,-0.00537278,0,
10,0.603859,0.485319,0.02241,-0.0055298,0,
10,0.628112,0.495797,0.0224404,-0.00552597,0,
10,0.652163,0.507205,0.0225135,-0.00548415,0,
10,0.676035,0.519615,0.0225336,-0.00542281,0,
10,0.699751,0.532829,0.0225069,-0.00533716,0,
10,0.72333,0.546562,0.0224399,-0.00522388,0,
10,0.746795,0.560577,0.0223512,-0.0050824,0,
10,0.770165,0.574729,0.0222499,-0.00491463,0,
10,0.79346,0.588941,0.0221416,-0.0047235,0,
10,0.816699,0.603166,0.0220266,-0.00451233,0,
10,0.839903,0.617347,0.0219039,-0.00428463,0,
10,0.863088,0.631404,0.0217714,-0.00404424,0,
10,0.886275,0.645226,0.0216286,-0.00379551,0,
10,0.909481,0.658681,0.0214732,-0.00354625,0,
10,0.932723,0.67163,0.0213051,-0.0033048,0,
10,0.956021,0.68398,0.0211284,-0.00307102,0,
10,0.97939,0.69571,0.0209453,-0.00284528,0,
10,1.00285,0.706845,0.0207571,-0.00262826,0,
10,1.02641,0.717426,0.020564,-0.00242062,0,
10,1.0501,0.727489,0.0203651,-0.00222282,0,
10,1.07392,0.737061,0.020161,-0.00203523,0,
10,1.0979,0.746168,0.0199504,-0.00185808,0,
10,1.12205,0.754836,0.0197362,-0.00168811,0,
10,1.14639,0.763078,0.0195159,-0.00152916,0,
10,1.17093,0.770876,0.0192867,-0.00138489,0,
10,1.19568,0.778213,0.0190496,-0.001256,0,
10,1.22066,0.785097,0.018805,-0.00114652,0,
10,1.24589,0.79159,0.0185536,-0.00105191,0,
10,1.27137,0.797818,0.0182971,-0.000963399,0,
10,1.29713,0.803885,0.0180364,-0.000885332,0,
10,1.32317,0.809809,0.0177689,-0.000817378,0,
10,1.34951,0.815563,0.0174941,-0.000758907,0,
10,1.37616,0.82113,0.0172116,-0.00070867,0,
10,1.40313,0.826532,0.0169224,-0.000665061,0,
10,1.43043,0.831811,0.0166266,-0.000626591,0,
10,1.45807,0.837007,0.0163247,-0.000592119,0,
10,1.48607,0.842142,0.0160161,-0.000560814,0,
10,1.51444,0.847217,0.0157007,-0.000532024,0,
10,1.54318,0.852222,0.0153785,-0.000505205,0,
10,1.57231,0.857152,0.0150492,-0.000479902,0,
10,1.60184,0.862001,0.0147129,-0.000455768,0,
10,1.63178,0.866768,0.0143696,-0.000432557,0,
10,1.66213,0.871445,0.0140193,-0.000410114,0,
10,1.69292,0.876025,0.0136618,-0.000388364,0,
10,1.72416,0.880492,0.0132971,-0.000367308,0,
10,1.75585,0.884824,0.0129252,-0.000347015,0,
10,1.78802,0.888996,0.0125464,-0.000327602,0,
10,1.82067,0.892986,0.0121604,-0.000309086,0,
10,1.85383,0.896794,0.0117676,-0.0002912,0,
10,1.88751,0.900476,0.0113659,-0.000267551,0,
10,1.92173,0.904079,0.0109571,-0.000245332,0,
10,1.95652,0.907593,0.0105408,-0.000222806,0,
10,1.9919,0.910985,0.0101168,-0.000199654,0,
10,2.02791,0.914222,0.00968434,-0.000176379,0,
10,2.06456,0.917273,0.00924482,-0.000153409,0,
10,2.10268,0.920168,0.00878577,-0.000130562,0,
10,2.1443,0.922985,0.0082865,-0.000108399,0,
10,2.18977,0.925671,0.00774103,-8.7164e-05,0,
10,2.23946,0.92814,0.00714756,-6.71278e-05,0,
10,2.29376,0.930312,0.00650117,-4.90215e-05,0,
10,2.35309,0.932108,0.00579968,-3.34132e-05,0,
10,2.4179,0.933464,0.00503934,-2.07527e-05,0,
10,2.48863,0.93434,0.00421838,-1.13158e-05,0,
10,2.56575,0.934736,0.00333451,-5.0913e-06,0,
10,2.64971,0.934706,0.00238708,-1.6951e-06,0,
10,2.74098,0.934369,0.00137551,-3.87094e-07,0,
10,2.83997,0.933898,0.000300543,-2.42362e-07,0,
10,2.94709,0.933494,-0.000836772,-4.4442e-07,0,
10,3.06269,0.933334,-0.00203432,-5.32981e-07,0,
10,3.18706,0.933525,-0.00328932,-4.30462e-07,0,
10,3.3204,0.93407,-0.00459761,-2.56512e-07,0,
10,3.46281,0.934878,-0.00595358,-1.21696e-07,0,
10,3.61427,0.93581,-0.00734966,-5.31784e-08,0,
10,3.77463,0.936734,-0.00877649,-2.78404e-08,0,
10,3.94358,0.937569,-0.0102231,-2.00674e-08,0,
10,4.12067,0.938302,-0.0116774,-1.74309e-08,0,
10,4.30525,0.938965,-0.0131269,-1.63072e-08,0,
10,4.49655,0.9396,-0.0145588,-1.5986e-08,0,
10,4.6936,0.940235,-0.0159609,-1.64906e-08,0,
10,4.89531,0.940874,-0.0173215,-1.83611e-08,0,
10,5.10047,0.941503,-0.0186301,-2.31398e-08,0,
10,5.30776,0.942101,-0.0198775,-3.42567e-08,0,
10,5.51581,0.942651,-0.0210562,-5.86802e-08,0,
10,5.72323,0.943151,-0.0221605,-1.11717e-07,0,
10,5.92863,0.943627,-0.0231866,-2.3177e-07,0,
10,6.13069,0.944146,-0.0241322,-5.21562e-07,0,
10,6.32816,0.944805,-0.0249975,-1.19141e-06,0,
10,6.51991,0.945626,-0.0257836,-2.28818e-06,0,
10,6.70495,0.946354,-0.026494,-2.22579e-06,0,
10,6.88244,0.946233,-0.0271307,5.03273e-06,0,
10,7.0517,0.943995,-0.0276983,3.11229e-05,0,
10,7.21224,0.93825,-0.0281949,8.93468e-05,0,
10,7.3637,0.928165,-0.0286276,0.000188178,0,
10,7.5059,0.913851,-0.0289992,0.000311828,0,
10,7.63878,0.895984,-0.0293091,0.00042461,0,
10,7.76243,0.875802,-0.0295731,0.000547925,0,
10,7.87701,0.85512,-0.0297827,0.000671629,0,
10,7.9828,0.835348,-0.0299564,0.000781286,0,
10,8.08014,0.817098,-0.0300943,0.000873181,0,
10,8.16941,0.800352,-0.0302087,0.000949196,0,
10,8.25106,0.784783,-0.0303028,0.0010132,0,
10,8.32554,0.770014,-0.0303833,0.0010683,0,
10,8.39331,0.755749,-0.0304517,0.00111657,0,
10,8.45484,0.741802,-0.0305108,0.00115906,0,
10,8.5106,0.728085,-0.0305609,0.00119612,0,
10,8.56104,0.714572,-0.0306039,0.00122787,0,
10,8.60659,0.70127,-0.0306404,0.00125445,0,
10,8.64767,0.688201,-0.0306717,0.00127606,0,
10,8.68467,0.67538,-0.0306991,0.00129299,0,
10,8.71795,0.662794,-0.030723,0.00130276,0,
10,8.74786,0.650409,-0.0307437,0.0013069,0,
10,8.77471,0.638207,-0.0307616,0.00130756,0,
10,8.79881,0.626181,-0.0307768,0.00130448,0,
10,8.8204,0.614325,-0.0307898,0.00129822,0,
10,8.83975,0.602627,-0.0308009,0.00128931,0,
10,8.85708,0.59107,-0.0308104,0.00127826,0,
10,8.87259,0.579636,-0.0308185,0.00126554,0,
10,8.88646,0.568304,-0.0308252,0.00125152,0,
10,8.89886,0.557047,-0.030831,0.00123654,0,
10,8.90995,0.545838,-0.0308358,0.00122087,0,
10,8.91986,0.534645,-0.0308398,0.0012047,0,
10,8.92872,0.523437,-0.0308431,0.00118818,0,
10,8.93663,0.512175,-0.030846,0.00117137,0,
10,8.94369,0.500823,-0.0308484,0.00115428,0,
10,8.95,0.489339,-0.0308504,0.00113686,0,
10,8.95564,0.477676,-0.0308521,0.00111902,0,
10,8.96067,0.465788,-0.0308534,0.00110057,0,
10,8.96517,0.453618,-0.0308546,0.00108124,0,
10,8.96918,0.441107,-0.0308554,0.00106071,0,
10,8.97276,0.428185,-0.0308563,0.00103853,0,
10,8.97596,0.414772,-0.0308567,0.00101414,0,
10,8.97882,0.400777,-0.0308574,0.000986797,0,
10,8.98137,0.386092,-0.0308576,0.000955569,0,
10,8.98365,0.370589,-0.0308581,0.00091924,0,
10,8.98569,0.354121,-0.0308582,0.00087652,0,
10,8.9875,0.336499,-0.0308587,0.000824552,0,
10,8.98913,0.317486,-0.0308585,0.000759197,0,
10,8.99058,0.296857,-0.030859,0.000681856,0,
10,8.99188,0.274456,-0.0308587,0.000590594,0,
10,8.99304,0.250122,-0.0308592,0.000477607,0,
10,8.99408,0.223801,-0.0308589,0.000350937,0,
10,8.99501,0.195858,-0.0308594,0.000224109,0,
10,8.99583,0.167189,-0.0308589,0.000119104,0,
10,8.99658,0.139067,-0.0308595,5.12641e-05,0,
10,8.99724,0.112618,-0.0308589,1.77201e-05,0,
10,8.99784,0.0884445,-0.0308596,4.87238e-06,0,
10,8.99837,0.066662,-0.0308589,1.02229e-06,0,
10,8.99885,0.0471383,-0.0308597,1.46481e-07,0,
10,8.99927,0.0296621,-0.0308588,1.11224e-08,0,
10,8.99966,0.0140176,-0.0308598,2.4611e-10,0,
10,0,0,0.0259106,0,0,
10,9,0,-0.0308587,0,0,

0.004,0,0,-0.234142,0,-3.69068e-08,
0.00868226,0,0,-0.234141,0,-2.48107e-07,
0.014062,0,0,-0.234142,0,-4.93018e-07,
0.0201548,0,0,-0.234142,0,-9.39723e-07,
0.0269766,0,0,-0.23414,0,-1.2527e-06,
0.0345437,0,0,-0.234139,0,-1.29412e-06,
0.0428729,0,0,-0.234136,0,-7.8731e-07,
0.051981,0,0,-0.234134,0,4.96412e-07,
0.0618853,0,0,-0.23413,0,2.7491e-06,
0.0726036,0,0,-0.234129,0,6.10185e-06,
0.0841536,0,0,-0.234128,0,1.05236e-05,
0.0965535,0,0,-0.234132,0,1.58738e-05,
0.109822,0,0,-0.23414,0,2.18275e-05,
0.123977,0,0,-0.234154,0,2.79984e-05,
0.139037,0,0,-0.234173,0,3.39252e-05,
0.155022,0,0,-0.234199,0,3.92061e-05,
0.171949,0,0,-0.234228,0,4.34985e-05,
0.189839,0,0,-0.234262,0,4.66045e-05,
0.208709,0,0,-0.234298,0,4.84541e-05,
0.228579,0,0,-0.234335,0,4.91366e-05,
0.249467,0,0,-0.234371,0,4.88666e-05,
0.271391,0,0,-0.234406,0,4.79737e-05,
0.29437,0,0,-0.234439,0,4.68549e-05,
0.31842,0,0,-0.234472,0,4.59294e-05,
0.343559,0,0,-0.234506,0,4.55722e-05,
0.369804,0,0,-0.234543,0,4.606e-05,
0.39717,0,0,-0.234587,0,4.75285e-05,
0.425672,0,0,-0.23464,0,4.99645e-05,
0.455324,0,0,-0.234707,0,5.32306e-05,
0.48614,0,0,-0.234792,0,5.71119e-05,
0.518132,0,0,-0.234898,0,6.13621e-05,
0.551309,0,0,-0.235032,0,6.56897e-05,
0.585683,0,0,-0.235199,0,6.97075e-05,
0.621259,0,0,-0.235412,0,7.28276e-05,
0.658046,0,0,-0.235682,0,7.41388e-05,
0.696047,0,0,-0.236024,0,7.23931e-05,
0.735265,0,0,-0.236456,0,6.60429e-05,
0.7757,0,0,-0.236995,0,5.33703e-05,
0.817352,0,0,-0.237655,0,3.27755e-05,
0.860215,0,0,-0.23844,0,3.13091e-06,
0.904285,0,0,-0.239346,0,-3.59154e-05,
0.949552,0,0,-0.24036,0,-8.3825e-05,
0.996004,0,0,-0.241458,0,-0.000139325,
1.04363,0,0,-0.242614,0,-0.000200764,
1.09241,0,0,-0.243799,0,-0.000266514,
1.14232,0,0,-0.244985,0,-0.000335237,
1.19335,0,0,-0.246145,0,-0.000405986,
1.24546,0,0,-0.247255,0,-0.000478144,
1.29863,0,0,-0.248289,0,-0.000551301,
1.35283,0,0,-0.249223,0,-0.000625142,
1.40802,0,0,-0.250034,0,-0.000699362,
1.46416,0,0,-0.250697,0,-0.000773628,
1.52121,0,0,-0.251188,0,-0.000847565,
1.57913,0,0,-0.251486,0,-0.000920754,
1.63787,0,0,-0.251567,0,-0.000992742,
1.69739,0,0,-0.251411,0,-0.00106305,
1.75761,0,0,-0.251001,0,-0.0011312,
1.81851,0,0,-0.250321,0,-0.0011967,
1.88,0,0,-0.249359,0,-0.0012591,
1.94204,0,0,-0.248107,0,-0.00131798,
2.00457,0,0,-0.246561,0,-0.00137294,
2.06751,0,0,-0.24472,0,-0.00142367,
2.13081,0,0,-0.242589,0,-0.00146992,
2.19439,0,0,-0.240174,0,-0.0015115,
2.25819,0,0,-0.237487,0,-0.00154829,
2.32214,0,0,-0.234541,0,-0.00158027,
2.38617,0,0,-0.231351,0,-0.00160744,
2.4502,0,0,-0.227937,0,-0.00162988,
2.51418,0,0,-0.224318,0,-0.00164771,
2.57803,0,0,-0.220513,0,-0.00166111,
2.64167,0,0,-0.216545,0,-0.00167027,
2.70505,0,0,-0.212435,0,-0.00167543,
2.76808,0,0,-0.208204,0,-0.00167681,
2.83072,0,0,-0.203873,0,-0.00167463,
2.89288,0,0,-0.199462,0,-0.00166915,
2.95451,0,0,-0.194992,0,-0.00166059,
3.01555,0,0,-0.190482,0,-0.00164921,
3.07594,0,0,-0.185949,0,-0.00163526,
3.13561,0,0,-0.181412,0,-0.00161899,
3.19453,0,0,-0.176885,0,-0.00160062,
3.25262,0,0,-0.172383,0,-0.00158037,
3.30985,0,0,-0.16792,0,-0.00155845,
3.36617,0,0,-0.163508,0,-0.00153507,
3.42154,0,0,-0.159159,0,-0.00151045,
3.47591,0,0,-0.154882,0,-0.00148479,
3.52925,0,0,-0.150686,0,-0.0014583,
3.58152,0,0,-0.146578,0,-0.00143112,
3.6327,0,0,-0.142564,0,-0.00140339,
3.68276,0,0,-0.13865,0,-0.00137526,
3.73167,0,0,-0.13484,0,-0.00134686,
3.77941,0,0,-0.131139,0,-0.00131831,
3.82596,0,0,-0.127549,0,-0.00128974,
3.8713,0,0,-0.124072,0,-0.00126126,
3.91543,0,0,-0.120706,0,-0.00123282,
3.95833,0,0,-0.117471,0,-0.00120482,
4,0,0,-0.11433,0,-0.00117698,
4.04167,0,0,-0.11122,0,-0.00114866,
4.08333,0,0,-0.108137,0,-0.00111998,
4.125,0,0,-0.105079,0,-0.00109092,
4.16667,0,0,-0.102049,0,-0.00106146,
4.20833,0,0,-0.0990468,0,-0.00103163,
4.25,0,0,-0.0960744,0,-0.00100146,
4.29167,0,0,-0.0931328,0,-0.000970958,
4.33333,0,0,-0.0902229,0,-0.000940152,
4.375,0,0,-0.0873456,0,-0.000909059,
4.41667,0,0,-0.0845019,0,-0.000877695,
4.45833,0,0,-0.0816928,0,-0.000846081,
4.5,0,0,-0.0789191,0,-0.00081424,
4.54167,0,0,-0.0761815,0,-0.000782192,
4.58333,0,0,-0.0734807,0,-0.000749961,
4.625,0,0,-0.0708174,0,-0.000717564,
4.66667,0,0,-0.0681921,0,-0.00068502,
4.70833,0,0,-0.0656054,0,-0.000652348,
4.75,0,0,-0.0630578,0,-0.000619563,
4.79167,0,0,-0.0605496,0,-0.000586682,
4.83333,0,0,-0.0580813,0,-0.00055372,
4.875,0,0,-0.0556532,0,-0.00052069,
4.91667,0,0,-0.0532657,0,-0.000487604,
4.95833,0,0,-0.0509192,0,-0.000454475,
5,0,0,-0.0486139,0,-0.000421318,
5.04167,0,0,-0.0463502,0,-0.000388145,
5.08333,0,0,-0.0441285,0,-0.000354972,
5.125,0,0,-0.041949,0,-0.000321811,
5.16667,0,0,-0.0398121,0,-0.000288677,
5.20833,0,0,-0.0377182,0,-0.000255589,
5.25,0,0,-0.0356678,0,-0.000222575,
5.29167,0,0,-0.0336615,0,-0.000189678,
5.33333,0,0,-0.0316995,0,-0.000156954,
5.375,0,0,-0.0297818,0,-0.000124458,
5.41667,0,0,-0.027908,0,-9.22254e-05,
5.45833,0,0,-0.0260775,0,-6.02711e-05,
5.5,0,0,-0.0242897,0,-2.85961e-05,
5.54167,0,0,-0.0225441,0,2.80356e-06,
5.58333,0,0,-0.02084,0,3.39312e-05,
5.625,0,0,-0.0191769,0,6.47883e-05,
5.66667,0,0,-0.0175543,0,9.53747e-05,
5.70833,0,0,-0.0159717,0,0.000125689,
5.75,0,0,-0.0144286,0,0.000155729,
5.79167,0,0,-0.0129244,0,0.000185491,
5.83333,0,0,-0.0114587,0,0.000214973,
5.875,0,0,-0.010031,0,0.000244171,
5.91667,0,0,-0.00864076,0,0.000273084,
5.95833,0,0,-0.00728747,0,0.00030171,
6,0,0,-0.00597064,0,0.000330045,
6.04167,0,0,-0.00468976,0,0.000358087,
6.08333,0,0,-0.00344434,0,0.000385834,
6.125,0,0,-0.00223385,0,0.000413281,
6.16667,0,0,-0.00105779,0,0.000440425,
6.20833,0,0,8.43764e-05,0,0.000467263,
6.25,0,0,0.00119318,0,0.000493788,
6.29167,0,0,0.00226915,0,0.000519999,
6.33333,0,0,0.00331287,0,0.000545891,
6.375,0,0,0.00432489,0,0.00057146,
6.41667,0,0,0.00530579,0,0.000596705,
6.45833,0,0,0.00625613,0,0.000621622,
6.5,0,0,0.0071765,0,0.000646208,
6.54167,0,0,0.00806751,0,0.000670462,
6.58333,0,0,0.00892973,0,0.000694383,
6.625,0,0,0.00976377,0,0.00071797,
6.66667,0,0,0.0105702,0,0.000741223,
6.70833,0,0,0.0113497,0,0.000764144,
6.75,0,0,0.0121027,0,0.000786732,
6.79167,0,0,0.0128299,0,0.000808988,
6.83333,0,0,0.0135318,0,0.000830913,
6.875,0,0,0.0142091,0,0.00085251,
6.91667,0,0,0.0148622,0,0.000873781,
6.95833,0,0,0.0154917,0,0.000894728,
7,0,0,0.0160982,0,0.000915354,
7.04167,0,0,0.0166823,0,0.000935662,
7.08333,0,0,0.0172443,0,0.000955656,
7.125,0,0,0.0177851,0,0.000975346,
7.16667,0,0,0.018305,0,0.000994739,
7.20833,0,0,0.0188046,0,0.00101384,
7.25,0,0,0.0192843,0,0.00103267,
7.29167,0,0,0.0197447,0,0.0010512,
7.33333,0,0,0.0201862,0,0.00106946,
7.375,0,0,0.0206093,0,0.00108742,
7.41667,0,0,0.0210143,0,0.0011051,
7.45833,0,0,0.0214017,0,0.00112249,
7.5,0,0,0.021772,0,0.0011396,
7.54167,0,0,0.0221256,0,0.00115642,
7.58333,0,0,0.0224628,0,0.00117295,
7.625,0,0,0.022784,0,0.00118921,
7.66667,0,0,0.0230897,0,0.0012052,
7.70833,0,0,0.0233802,0,0.00122093,
7.75,0,0,0.0236557,0,0.00123641,
7.79167,0,0,0.0239166,0,0.00125165,
7.83333,0,0,0.0241625,0,0.00126662,
7.875,0,0,0.0243933,0,0.0012814,
7.91667,0,0,0.0246205,0,0.00129661,
7.95833,0,0,0.024769,0,0.00131066,
8,0,0,0.0250168,0,0.00132487,
8.04171,0,0,0.0252911,0,0.00134018,
8.08368,0,0,0.0254271,0,0.00135529,
8.12617,0,0,0.0256097,0,0.00136853,
8.16946,0,0,0.0257802,0,0.00138181,
8.21382,0,0,0.0259354,0,0.00139509,
8.25952,0,0,0.0260838,0,0.00140835,
8.30685,0,0,0.0262245,0,0.00142177,
8.35611,0,0,0.0263575,0,0.00143545,
8.40762,0,0,0.0264827,0,0.00144945,
8.46168,0,0,0.0265997,0,0.00146383,
8.51865,0,0,0.0267076,0,0.00147864,
8.57889,0,0,0.0268053,0,0.00149391,
8.64276,0,0,0.0268916,0,0.00150967,
8.71067,0,0,0.0269648,0,0.00152596,
8.78306,0,0,0.0270228,0,0.00154278,
8.86037,0,0,0.0270636,0,0.00156015,
8.94309,0,0,0.0270846,0,0.00157807,
9.03174,0,0,0.0270831,0,0.00159656,
9.12689,0,0,0.0270561,0,0.0016156,
9.22912,0,0,0.0270001,0,0.00163519,
9.33908,0,0,0.0269118,0,0.0016553,
9.45746,0,0,0.0267873,0,0.00167592,
9.58501,0,0,0.0266226,0,0.00169699,
9.72253,0,0,0.026414,0,0.00171848,
9.87088,0,0,0.026158,0,0.0017403,
10.031,0,0,0.0258513,0,0.00176241,
10.2039,0,0,0.0254906,0,0.00178474,
10.3906,0,0,0.0250727,0,0.0018072,
10.5924,0,0,0.0245965,0,0.00182971,
10.8105,0,0,0.0240611,0,0.00185219,
11.0463,0,0,0.023465,0,0.00187454,
11.3012,0,0,0.02281,0,0.00189666,
11.5769,0,0,0.0220994,0,0.00191847,
11.8751,0,0,0.0213356,0,0.00193988,
12.1977,0,0,0.0205249,0,0.00196081,
12.5466,0,0,0.0196738,0,0.0019812,
12.9242,0,0,0.0187905,0,0.00200097,
13.3327,0,0,0.0178845,0,0.00202009,
13.7748,0,0,0.0169662,0,0.00203851,
14.2532,0,0,0.016047,0,0.00205623,
14.7709,0,0,0.0151385,0,0.00207323,
15.3312,0,0,0.0142517,0,0.00208953,
15.9377,0,0,0.0133967,0,0.00210515,
16.594,0,0,0.0125837,0,0.00212012,
17.3044,0,0,0.01182,0,0.00213451,
18.0733,0,0,0.0111114,0,0.00214836,
18.9056,0,0,0.0104599,0,0.00216165,
19.8064,0,0,0.00986489,0,0.00217421,
20.7816,0,0,0.00932506,0,0.00218612,
21.8371,0,0,0.00883453,0,0.00219772,
22.9796,0,0,0.00838457,0,0.00220921,
24.2163,0,0,0.00796407,0,0.00222067,
25.5551,0,0,0.00755857,0,0.00223222,
27.0042,0,0,0.00715343,0,0.00224396,
28.5729,0,0,0.00673278,0,0.00225589,
30.271,0,0,0.00628012,0,0.00226804,
32.1091,0,0,0.00577924,0,0.00228038,
34.0989,0,0,0.00521568,0,0.00229281,
36.2529,0,0,0.00457308,0,0.00230548,
38.5845,0,0,0.00384407,0,0.00231834,
41.1085,0,0,0.00307119,0,0.0023313,
43.8407,0,0,0.00209155,0,0.00234201,
46.7983,0,0,0.00107946,0,0.0023481,
50,0,0,0.00221046,0,0.00236523,

