348b47de384c478d2e92ae8dee4d0a86a518d1e8 
X,Z,x_velocity,cp,uw_b,cf,
1,0,0,-0.221613,0,0,
1,9,0,-0.132229,0,0,
1,8.99969,0.0154635,-0.132229,2.89276e-10,0,
1,8.99934,0.0330063,-0.132229,1.35209e-08,0,
1,8.99894,0.0529259,-0.132229,1.86499e-07,0,
1,8.99848,0.075537,-0.132229,1.36704e-06,0,
1,8.99797,0.101152,-0.132229,6.83092e-06,0,
1,8.99739,0.129967,-0.132229,2.58419e-05,0,
1,8.99672,0.161783,-0.132229,7.64867e-05,0,
1,8.99597,0.195652,-0.132229,0.00017759,0,
1,8.99512,0.229915,-0.132229,0.000326881,0,
1,8.99416,0.262915,-0.132228,0.000495571,0,
1,8.99306,0.29368,-0.132228,0.000654219,0,
1,8.99182,0.322043,-0.132228,0.00078166,0,
1,8.99041,0.348147,-0.132228,0.000887312,0,
1,8.98881,0.372148,-0.132227,0.000974507,0,
1,8.98699,0.394264,-0.132227,0.0010456,0,
1,8.98494,0.414784,-0.132226,0.00110158,0,
1,8.98261,0.434017,-0.132225,0.00114422,0,
1,8.97996,0.452207,-0.132224,0.00117994,0,
1,8.97696,0.469524,-0.132223,0.0012095,0,
1,8.97356,0.486112,-0.132222,0.00123418,0,
1,8.9697,0.502088,-0.13222,0.00125493,0,
1,8.96533,0.51755,-0.132218,0.00127247,0,
1,8.96038,0.532582,-0.132216,0.00128732,0,
1,8.95476,0.547252,-0.132214,0.00129986,0,
1,8.9484,0.561621,-0.132212,0.00131034,0,
1,8.9412,0.575739,-0.132209,0.00131895,0,
1,8.93303,0.589648,-0.132206,0.00132578,0,
1,8.92379,0.603385,-0.132203,0.0013309,0,
1,8.91333,0.616984,-0.1322,0.00133432,0,
1,8.90149,0.63047,-0.132197,0.00133601,0,
1,8.8881,0.643869,-0.132194,0.00133593,0,
1,8.87295,0.657203,-0.132191,0.00133401,0,
1,8.85584,0.670493,-0.132189,0.00133015,0,
1,8.83651,0.683756,-0.132188,0.00132425,0,
1,8.81469,0.697014,-0.132188,0.00131616,0,
1,8.79007,0.710285,-0.13219,0.00130574,0,
1,8.76232,0.723593,-0.132194,0.00129279,0,
1,8.73107,0.736963,-0.132201,0.0012771,0,
1,8.69591,0.750425,-0.132214,0.00125837,0,
1,8.6564,0.764016,-0.132231,0.00123625,0,
1,8.61206,0.777781,-0.132257,0.00121033,0,
1,8.56236,0.791779,-0.132293,0.00118024,0,
1,8.50675,0.806086,-0.132342,0.00114691,0,
1,8.44464,0.820837,-0.132407,0.00110754,0,
1,8.3754,0.836252,-0.132493,0.00105599,0,
1,8.29839,0.852585,-0.132606,0.000992649,0,
1,8.21296,0.870082,-0.132752,0.000912998,0,
1,8.11843,0.888932,-0.132936,0.000811783,0,
1,8.01417,0.909127,-0.133175,0.00068561,0,
1,7.89956,0.930216,-0.133462,0.00053809,0,
1,7.77403,0.951067,-0.133837,0.000387858,0,
1,7.63711,0.970067,-0.134285,0.000202939,0,
1,7.48842,0.984883,-0.134815,7.47066e-05,0,
1,7.32773,0.993596,-0.135451,1.76944e-05,0,
1,7.15495,0.996721,-0.136189,1.70898e-06,0,
1,6.97022,0.996752,-0.137045,1.94464e-08,0,
1,6.77388,0.996131,-0.138032,3.47518e-09,0,
1,6.56652,0.996018,-0.139166,9.54071e-09,0,
1,6.34896,0.996473,-0.14046,1.23658e-08,0,
1,6.12229,0.997196,-0.141925,1.39356e-08,0,
1,5.88784,0.997987,-0.143575,1.47318e-08,0,
1,5.64716,0.998811,-0.145421,1.56421e-08,0,
1,5.40194,0.999698,-0.147472,1.69181e-08,0,
1,5.15407,1.00067,-0.14973,1.85539e-08,0,
1,4.90545,1.00175,-0.152197,2.02395e-08,0,
1,4.65805,1.00291,-0.154868,2.20112e-08,0,
1,4.41376,1.00418,-0.157731,2.38389e-08,0,
1,4.17441,1.00551,-0.160772,2.54877e-08,0,
1,3.94163,1.00685,-0.163966,2.67987e-08,0,
1,3.7169,1.00816,-0.167287,2.83993e-08,0,
1,3.50146,1.00952,-0.170699,3.22412e-08,0,
1,3.29629,1.01124,-0.174168,4.03082e-08,0,
1,3.10217,1.01368,-0.177665,5.06228e-08,0,
1,2.91959,1.01662,-0.181161,9.26078e-08,0,
1,2.74885,1.01859,-0.184615,8.12253e-07,0,
1,2.59002,1.01715,-0.187969,-7.53314e-06,0,
1,2.44299,1.01063,-0.191167,-5.63293e-05,0,
1,2.30752,0.99926,-0.194149,-0.000157674,0,
1,2.18321,0.984533,-0.196865,-0.000296909,0,
1,2.06959,0.968035,-0.199353,-0.00041601,0,
1,1.9661,0.951034,-0.201596,-0.000519574,0,
1,1.87215,0.934453,-0.203564,-0.000616187,0,
1,1.78711,0.918796,-0.205296,-0.000701276,0,
1,1.71033,0.904209,-0.206809,-0.000774726,0,
1,1.64119,0.890655,-0.208125,-0.000838044,0,
1,1.57905,0.87802,-0.209266,-0.000893382,0,
1,1.52332,0.866174,-0.210252,-0.00094298,0,
1,1.47342,0.855007,-0.211106,-0.000989016,0,
1,1.42882,0.844434,-0.211824,-0.00102076,0,
1,1.389,0.83437,-0.212423,-0.00104508,0,
1,1.35351,0.824751,-0.212938,-0.00106761,0,
1,1.3219,0.815541,-0.213373,-0.00108767,0,
1,1.29378,0.806722,-0.213742,-0.00110509,0,
1,1.26878,0.798283,-0.214055,-0.00111996,0,
1,1.24659,0.790218,-0.214319,-0.00113272,0,
1,1.22689,0.782522,-0.214543,-0.00114351,0,
1,1.2092,0.775105,-0.214734,-0.00115133,0,
1,1.1932,0.767916,-0.214899,-0.00115689,0,
1,1.1787,0.760941,-0.21504,-0.00116077,0,
1,1.16554,0.754161,-0.215161,-0.00116368,0,
1,1.15357,0.747549,-0.215265,-0.00116713,0,
1,1.14266,0.741063,-0.215353,-0.00117379,0,
1,1.13268,0.734647,-0.215428,-0.00118717,0,
1,1.12354,0.72822,-0.215493,-0.00121194,0,
1,1.11514,0.72168,-0.215549,-0.00125394,0,
1,1.10739,0.714897,-0.2156,-0.00131971,0,
1,1.10022,0.707722,-0.215648,-0.00141601,0,
1,1.09357,0.699997,-0.215697,-0.0015489,0,
1,1.08738,0.69158,-0.215748,-0.00172271,0,
1,1.0816,0.682369,-0.215805,-0.00193879,0,
1,1.07618,0.672333,-0.215868,-0.00219468,0,
1,1.07107,0.66152,-0.215938,-0.00248398,0,
1,1.06626,0.650047,-0.216014,-0.00279727,0,
1,1.06169,0.63807,-0.216095,-0.00312384,0,
1,1.05735,0.62576,-0.216181,-0.0034534,0,
1,1.05321,0.613274,-0.21627,-0.00377733,0,
1,1.04925,0.60074,-0.216362,-0.00408918,0,
1,1.04544,0.58826,-0.216456,-0.0043846,0,
1,1.04177,0.575908,-0.216551,-0.00466097,0,
1,1.03822,0.563732,-0.216647,-0.00491698,0,
1,1.03478,0.551764,-0.216743,-0.00515226,0,
1,1.03144,0.540021,-0.216839,-0.00536703,0,
1,1.02818,0.528511,-0.216934,-0.00556192,0,
1,1.025,0.517234,-0.21703,-0.00573774,0,
1,1.02188,0.506187,-0.217124,-0.00589544,0,
1,1.01882,0.495361,-0.217218,-0.00603597,0,
1,1.01581,0.484748,-0.217312,-0.00616044,0,
1,1.01284,0.474338,-0.217405,-0.00626942,0,
1,1.00988,0.464007,-0.217498,-0.00636454,0,
1,1.00688,0.453635,-0.217593,-0.00644764,0,
1,1.00384,0.443214,-0.217689,-0.00651862,0,
1,1.00076,0.432732,-0.217787,-0.0065776,0,
1,0.997615,0.422176,-0.217886,-0.0066243,0,
1,0.99441,0.411528,-0.217986,-0.0066583,0,
1,0.991131,0.400765,-0.218088,-0.00667908,0,
1,0.987768,0.389862,-0.218191,-0.00668677,0,
1,0.984308,0.37879,-0.218296,-0.00668101,0,
1,0.980739,0.367519,-0.218402,-0.00666131,0,
1,0.977045,0.356015,-0.21851,-0.00662702,0,
1,0.973211,0.344243,-0.21862,-0.00657736,0,
1,0.969219,0.332165,-0.218732,-0.00651139,0,
1,0.965047,0.319739,-0.218847,-0.00642798,0,
1,0.960675,0.306921,-0.218963,-0.0063257,0,
1,0.956077,0.293663,-0.219082,-0.0062023,0,
1,0.951224,0.279916,-0.219202,-0.00605661,0,
1,0.946088,0.26564,-0.219326,-0.00588786,0,
1,0.940633,0.250797,-0.219452,-0.00569328,0,
1,0.934823,0.235354,-0.21958,-0.00547085,0,
1,0.928616,0.219283,-0.21971,-0.00521861,0,
1,0.921967,0.202563,-0.219841,-0.00493474,0,
1,0.914826,0.185184,-0.219973,-0.00461776,0,
1,0.907141,0.167156,-0.220104,-0.00426673,0,
1,0.898852,0.148511,-0.220233,-0.00388158,0,
1,0.889898,0.129319,-0.220359,-0.00346352,0,
1,0.880212,0.109706,-0.220482,-0.00301575,0,
1,0.869723,0.0898881,-0.2206,-0.00254457,0,
1,0.858358,0.0702295,-0.220717,-0.00206184,0,
1,0.846039,0.0513286,-0.220832,-0.00158932,0,
1,0.83269,0.0340815,-0.220953,-0.00116249,0,
1,0.818232,0.0195205,-0.221076,-0.000819658,0,
1,0.802744,0.00834571,-0.221206,-0.000569065,0,
1,0.78635,0.000380134,-0.221348,-0.000399561,0,
1,0.768969,-0.0052155,-0.221492,-0.000295153,0,
1,0.75053,-0.00931926,-0.221634,-0.000236146,0,
1,0.730977,-0.0125993,-0.221765,-0.000206488,0,
1,0.710271,-0.0154826,-0.221883,-0.000194474,0,
1,0.688397,-0.0182167,-0.221988,-0.000192673,0,
1,0.66536,-0.0209411,-0.222078,-0.000195002,0,
1,0.641194,-0.0237329,-0.222154,-0.000198105,0,
1,0.615961,-0.0266223,-0.222216,-0.000199728,0,
1,0.589754,-0.0296038,-0.222262,-0.000198572,0,
1,0.562692,-0.0326457,-0.222292,-0.00019408,0,
1,0.534925,-0.035696,-0.222304,-0.000186168,0,
1,0.506624,-0.0386891,-0.222294,-0.000175031,0,
1,0.477982,-0.0415494,-0.222264,-0.000160995,0,
1,0.449206,-0.044195,-0.222213,-0.000144419,0,
1,0.420509,-0.0465394,-0.222142,-0.000125648,0,
1,0.392107,-0.048493,-0.222055,-0.000104992,0,
1,0.364206,-0.0499653,-0.221956,-8.27541e-05,0,
1,0.337003,-0.0508675,-0.22185,-5.92491e-05,0,
1,0.310673,-0.0511178,-0.221744,-3.48624e-05,0,
1,0.28537,-0.0506484,-0.221644,-1.01064e-05,0,
1,0.26122,-0.0494149,-0.221554,1.43385e-05,0,
1,0.238324,-0.0474064,-0.221481,3.76293e-05,0,
1,0.21675,-0.0446547,-0.221426,5.88237e-05,0,
1,0.196544,-0.0412379,-0.22139,7.69965e-05,0,
1,0.177724,-0.0372779,-0.221372,9.13784e-05,0,
1,0.160284,-0.0329299,-0.22137,0.000101467,0,
1,0.144202,-0.0283666,-0.221381,0.00010712,0,
1,0.129436,-0.0237597,-0.2214,0.000108539,0,
1,0.115935,-0.0192621,-0.221425,0.000106194,0,
1,0.103636,-0.014996,-0.221452,0.000100722,0,
1,0.0924701,-0.011046,-0.221479,9.28388e-05,0,
1,0.0823633,-0.0074597,-0.221504,8.32616e-05,0,
1,0.0732406,-0.00425397,-0.221528,7.2707e-05,0,
1,0.0650269,-0.00142262,-0.221548,6.19744e-05,0,
1,0.057648,0.00105477,-0.221565,5.16798e-05,0,
1,0.0510323,0.00320761,-0.221579,4.17058e-05,0,
1,0.0451115,0.00507071,-0.22159,3.23742e-05,0,
1,0.0398209,0.00667426,-0.221598,2.37965e-05,0,
1,0.0351001,0.00803786,-0.221604,1.61805e-05,0,
1,0.0308929,0.0091631,-0.221608,9.80115e-06,0,
1,0.0271475,0.010029,-0.221611,4.9602e-06,0,
1,0.0238164,0.0105987,-0.221612,1.82967e-06,0,
1,0.0208562,0.0108419,-0.221613,2.25338e-07,0,
1,0.0182274,0.010761,-0.221613,-3.47585e-07,0,
1,0.0158944,0.0104001,-0.221614,-4.10897e-07,0,
1,0.0138249,0.00982888,-0.221614,-3.07265e-07,0,
1,0.0119898,0.00911961,-0.221614,-1.9099e-07,0,
1,0.0103632,0.00833297,-0.221614,-1.06664e-07,0,
1,0.00892169,0.00751418,-0.221614,-5.52734e-08,0,
1,0.00764438,0.0066949,-0.221614,-2.6953e-08,0,
1,0.00651264,0.00589637,-0.221614,-1.2426e-08,0,
1,0.00550983,0.00513236,-0.221613,-5.40953e-09,0,
1,0.00462115,0.00441123,-0.221614,-2.21039e-09,0,
1,0.00383341,0.00373754,-0.221613,-8.3842e-10,0,
1,0.0031349,0.00311313,-0.221613,-2.90076e-10,0,
1,0.00251518,0.00253797,-0.221613,-8.90833e-11,0,
1,0.00196502,0.0020107,-0.221613,-2.32572e-11,0,
1,0.00147619,0.00152909,-0.221613,-4.80231e-12,0,
1,0.00104139,0.00109038,-0.221613,-6.8835e-13,0,
1,0.000654158,0.000691493,-0.221613,-5.2649e-14,0,
1,0.000308731,0.000329186,-0.221613,-1.17856e-15,0,

4,0,0,-0.185264,0,0,
4,9,0,-0.102504,0,0,
4,8.99969,0.0143497,-0.102504,2.28415e-10,0,
4,8.99934,0.0305725,-0.102504,1.05971e-08,0,
4,8.99894,0.0489316,-0.102504,1.44695e-07,0,
4,8.9985,0.0697049,-0.102504,1.05012e-06,0,
4,8.99799,0.0931749,-0.102504,5.21052e-06,0,
4,8.99742,0.119543,-0.102504,1.97144e-05,0,
4,8.99677,0.148718,-0.102504,5.90798e-05,0,
4,8.99605,0.180008,-0.102504,0.00014087,0,
4,8.99522,0.212042,-0.102503,0.00026866,0,
4,8.99429,0.243276,-0.102503,0.000421798,0,
4,8.99324,0.272648,-0.102503,0.000572231,0,
4,8.99205,0.29979,-0.102503,0.000701854,0,
4,8.9907,0.324783,-0.102502,0.000806202,0,
4,8.98919,0.347799,-0.102502,0.000894048,0,
4,8.98747,0.369026,-0.102501,0.000967056,0,
4,8.98553,0.388731,-0.1025,0.00102461,0,
4,8.98334,0.407198,-0.102499,0.00107078,0,
4,8.98087,0.424645,-0.102498,0.00110976,0,
4,8.97807,0.441243,-0.102497,0.0011428,0,
4,8.97491,0.457131,-0.102495,0.00117119,0,
4,8.97134,0.472429,-0.102493,0.00119591,0,
4,8.96731,0.487236,-0.102491,0.00121768,0,
4,8.96276,0.501638,-0.102488,0.00123703,0,
4,8.95762,0.515707,-0.102485,0.00125433,0,
4,8.95182,0.529503,-0.102482,0.00126984,0,
4,8.94526,0.54308,-0.102478,0.0012837,0,
4,8.93787,0.556485,-0.102474,0.00129599,0,
4,8.92952,0.569755,-0.102469,0.00130673,0,
4,8.92011,0.582926,-0.102464,0.00131587,0,
4,8.90949,0.596025,-0.102458,0.00132334,0,
4,8.89751,0.609078,-0.102452,0.001329,0,
4,8.88402,0.622105,-0.102445,0.00133272,0,
4,8.86881,0.635125,-0.102438,0.00133435,0,
4,8.85169,0.648152,-0.102431,0.0013337,0,
4,8.83242,0.661199,-0.102424,0.0013306,0,
4,8.81074,0.674279,-0.102417,0.00132487,0,
4,8.78637,0.687405,-0.10241,0.00131635,0,
4,8.75901,0.700588,-0.102405,0.00130484,0,
4,8.7283,0.713845,-0.102401,0.00129016,0,
4,8.69387,0.727196,-0.102399,0.0012721,0,
4,8.65533,0.740665,-0.1024,0.00125042,0,
4,8.61222,0.754284,-0.102406,0.00122479,0,
4,8.56407,0.768096,-0.102418,0.00119479,0,
4,8.5104,0.782156,-0.102437,0.0011601,0,
4,8.45065,0.796537,-0.102466,0.00112225,0,
4,8.38429,0.811388,-0.10251,0.00107636,0,
4,8.31073,0.826946,-0.102569,0.001019,0,
4,8.22941,0.843487,-0.10265,0.000948499,0,
4,8.13974,0.861275,-0.102756,0.000860442,0,
4,8.04115,0.880478,-0.102888,0.000751221,0,
4,7.93313,0.900977,-0.103055,0.000621213,0,
4,7.81519,0.922055,-0.103248,0.000479798,0,
4,7.68693,0.942244,-0.103494,0.000344436,0,
4,7.54803,0.959646,-0.103776,0.000201504,0,
4,7.39831,0.972373,-0.104113,8.8232e-05,0,
4,7.23771,0.979565,-0.10452,2.71142e-05,0,
4,7.06634,0.982198,-0.10499,4.49357e-06,0,
4,6.88453,0.982342,-0.105524,6.20211e-08,0,
4,6.69275,0.981829,-0.106126,-5.24814e-08,0,
4,6.49173,0.981573,-0.106805,3.5715e-08,0,
4,6.28238,0.981718,-0.107572,2.94939e-08,0,
4,6.06579,0.982097,-0.108436,1.6485e-08,0,
4,5.84328,0.982556,-0.109406,1.13053e-08,0,
4,5.61626,0.983035,-0.110488,1.00642e-08,0,
4,5.3863,0.983536,-0.11169,1.02854e-08,0,
4,5.15502,0.984076,-0.113016,1.10974e-08,0,
4,4.92406,0.98467,-0.11447,1.22174e-08,0,
4,4.69507,0.98533,-0.116054,1.35446e-08,0,
4,4.46961,0.98606,-0.117768,1.49328e-08,0,
4,4.24915,0.986842,-0.119611,1.60808e-08,0,
4,4.03501,0.987619,-0.121577,1.67124e-08,0,
4,3.82836,0.988325,-0.123659,1.71318e-08,0,
4,3.63018,0.988969,-0.125847,1.88201e-08,0,
4,3.44125,0.989746,-0.128127,2.50014e-08,0,
4,3.26217,0.991022,-0.130486,8.47408e-08,0,
4,3.09333,0.993076,-0.132909,7.32166e-07,0,
4,2.93497,0.995669,-0.135377,3.32639e-06,0,
4,2.78715,0.997884,-0.13787,6.47933e-06,0,
4,2.64979,0.998505,-0.140366,1.97858e-06,0,
4,2.52268,0.996619,-0.142833,-2.02394e-05,0,
4,2.40551,0.991947,-0.145242,-6.49984e-05,0,
4,2.29789,0.984791,-0.147563,-0.000130276,0,
4,2.19939,0.975783,-0.149775,-0.000209388,0,
4,2.10949,0.965639,-0.151863,-0.000294106,0,
4,2.02768,0.954994,-0.153818,-0.000376924,0,
4,1.95343,0.944352,-0.155638,-0.000452007,0,
4,1.88618,0.934075,-0.157322,-0.000517072,0,
4,1.82542,0.924344,-0.158879,-0.000563533,0,
4,1.77062,0.915217,-0.16031,-0.000600799,0,
4,1.72128,0.906735,-0.161615,-0.00063408,0,
4,1.67693,0.89892,-0.162806,-0.000663505,0,
4,1.63713,0.891764,-0.163887,-0.000689527,0,
4,1.60144,0.885245,-0.164868,-0.000712548,0,
4,1.56949,0.879327,-0.165756,-0.000732991,0,
4,1.54091,0.873971,-0.166556,-0.000751341,0,
4,1.51537,0.869127,-0.16728,-0.000767966,0,
4,1.49167,0.864596,-0.167953,-0.000783328,0,
4,1.46926,0.860273,-0.168602,-0.0007946,0,
4,1.44801,0.856118,-0.169227,-0.000801818,0,
4,1.42781,0.852105,-0.169824,-0.000808325,0,
4,1.40855,0.848219,-0.170398,-0.000813384,0,
4,1.39015,0.844445,-0.17095,-0.000817371,0,
4,1.37252,0.840766,-0.171482,-0.000820733,0,
4,1.3556,0.837166,-0.171997,-0.000823957,0,
4,1.3393,0.833626,-0.172496,-0.000827593,0,
4,1.32357,0.830126,-0.17298,-0.000832528,0,
4,1.30836,0.826648,-0.173451,-0.000839497,0,
4,1.29362,0.823165,-0.17391,-0.000849521,0,
4,1.2793,0.819651,-0.174358,-0.000863891,0,
4,1.26537,0.816072,-0.174796,-0.000884214,0,
4,1.25179,0.812389,-0.175224,-0.000912442,0,
4,1.23852,0.808554,-0.175645,-0.00095091,0,
4,1.22554,0.804512,-0.176057,-0.00100234,0,
4,1.21282,0.800197,-0.176462,-0.0010698,0,
4,1.20034,0.795535,-0.176859,-0.00115661,0,
4,1.18806,0.790446,-0.17725,-0.00126611,0,
4,1.17599,0.784848,-0.177634,-0.00140137,0,
4,1.16408,0.778664,-0.178011,-0.0015648,0,
4,1.15233,0.771832,-0.178381,-0.00175771,0,
4,1.14073,0.764312,-0.178745,-0.00198,0,
4,1.12925,0.756089,-0.179101,-0.00222992,0,
4,1.11788,0.74718,-0.179452,-0.0025042,0,
4,1.10661,0.737625,-0.179796,-0.00279831,0,
4,1.09543,0.727484,-0.180134,-0.00310693,0,
4,1.08432,0.716828,-0.180465,-0.00342441,0,
4,1.07328,0.705734,-0.180791,-0.00374524,0,
4,1.0623,0.694276,-0.181111,-0.00406436,0,
4,1.05136,0.682526,-0.181425,-0.00437731,0,
4,1.04044,0.670527,-0.181733,-0.00468046,0,
4,1.0295,0.658314,-0.182037,-0.00497101,0,
4,1.01855,0.645936,-0.182337,-0.00524624,0,
4,1.00757,0.633432,-0.182632,-0.00550388,0,
4,0.996544,0.620841,-0.182922,-0.00574185,0,
4,0.98547,0.608192,-0.183208,-0.00595834,0,
4,0.974334,0.595513,-0.18349,-0.00615187,0,
4,0.963124,0.582827,-0.183767,-0.00632103,0,
4,0.951826,0.570154,-0.184041,-0.00646448,0,
4,0.940428,0.557515,-0.184307,-0.00658107,0,
4,0.928915,0.544926,-0.18458,-0.00668739,0,
4,0.917272,0.53234,-0.184814,-0.00676171,0,
4,0.905481,0.519603,-0.184993,-0.00679697,0,
4,0.893524,0.506567,-0.185163,-0.00683874,0,
4,0.881383,0.493154,-0.185328,-0.0068867,0,
4,0.869035,0.479314,-0.185495,-0.00694054,0,
4,0.856459,0.465011,-0.185664,-0.00699989,0,
4,0.843629,0.450214,-0.185837,-0.00706421,0,
4,0.830518,0.434896,-0.186014,-0.00713277,0,
4,0.817097,0.419034,-0.186195,-0.0072047,0,
4,0.803334,0.402608,-0.186378,-0.00727898,0,
4,0.789195,0.385602,-0.186563,-0.00735455,0,
4,0.774643,0.368002,-0.18675,-0.0074302,0,
4,0.759639,0.349796,-0.186937,-0.00750461,0,
4,0.744138,0.330976,-0.187123,-0.00757622,0,
4,0.728096,0.311541,-0.187309,-0.00764315,0,
4,0.711463,0.2915,-0.187495,-0.00770362,0,
4,0.694189,0.270875,-0.187681,-0.0077549,0,
4,0.676218,0.249702,-0.187866,-0.00779349,0,
4,0.657495,0.228026,-0.188048,-0.0078158,0,
4,0.637962,0.205897,-0.188226,-0.00781849,0,
4,0.617561,0.183357,-0.188395,-0.0077991,0,
4,0.596848,0.161053,-0.188544,-0.00775645,0,
4,0.576557,0.139734,-0.188672,-0.00769177,0,
4,0.556564,0.119268,-0.188775,-0.00760633,0,
4,0.536763,0.0995345,-0.188858,-0.00750131,0,
4,0.517057,0.0804546,-0.188929,-0.00737745,0,
4,0.497368,0.0620113,-0.188997,-0.00723559,0,
4,0.477632,0.0442569,-0.18908,-0.00707767,0,
4,0.457804,0.027289,-0.189181,-0.00690728,0,
4,0.437857,0.0111863,-0.189311,-0.00673199,0,
4,0.417786,-0.00410733,-0.189352,-0.00655015,0,
4,0.397605,-0.0188735,-0.189262,-0.00624189,0,
4,0.377348,-0.0332893,-0.189145,-0.00598047,0,
4,0.357066,-0.0472775,-0.189018,-0.00571796,0,
4,0.336828,-0.0607433,-0.18887,-0.00544607,0,
4,0.316717,-0.0736119,-0.188711,-0.00516523,0,
4,0.296825,-0.0858255,-0.188542,-0.00487652,0,
4,0.27725,-0.0973416,-0.188365,-0.0045819,0,
4,0.258095,-0.108132,-0.188184,-0.00428356,0,
4,0.239458,-0.118181,-0.188001,-0.00398394,0,
4,0.221432,-0.127487,-0.187817,-0.00368554,0,
4,0.2041,-0.136057,-0.187633,-0.00339084,0,
4,0.187537,-0.14391,-0.187452,-0.00310216,0,
4,0.171798,-0.151072,-0.187275,-0.00282162,0,
4,0.156928,-0.157575,-0.187102,-0.00255103,0,
4,0.142956,-0.163453,-0.186934,-0.00229191,0,
4,0.129894,-0.168746,-0.186774,-0.00204542,0,
4,0.117744,-0.173492,-0.18662,-0.0018124,0,
4,0.106492,-0.177729,-0.186475,-0.00159337,0,
4,0.0961173,-0.181493,-0.186339,-0.00138857,0,
4,0.0865883,-0.184818,-0.186212,-0.00119799,0,
4,0.0778675,-0.187736,-0.186094,-0.00102141,0,
4,0.0699123,-0.190275,-0.185986,-0.000858457,0,
4,0.062677,-0.192458,-0.185888,-0.000708603,0,
4,0.056114,-0.194308,-0.1858,-0.000571242,0,
4,0.0501747,-0.19584,-0.18572,-0.000445699,0,
4,0.0448114,-0.197068,-0.18565,-0.00033127,0,
4,0.039977,-0.198001,-0.185587,-0.000227243,0,
4,0.0356266,-0.198641,-0.185533,-0.000132921,0,
4,0.0317171,-0.198986,-0.185485,-4.76485e-05,0,
4,0.0282081,-0.199029,-0.185444,2.91692e-05,0,
4,0.0250617,-0.198751,-0.185408,9.80361e-05,0,
4,0.0222427,-0.198124,-0.185378,0.000159331,0,
4,0.0197189,-0.197106,-0.185353,0.000213252,0,
4,0.0174603,-0.195635,-0.185332,0.000259742,0,
4,0.0154398,-0.193623,-0.185315,0.000298361,0,
4,0.0136326,-0.190945,-0.185301,0.00032811,0,
4,0.0120162,-0.187429,-0.18529,0.000347216,0,
4,0.0105703,-0.182843,-0.185282,0.000352969,0,
4,0.00927657,-0.17689,-0.185276,0.00034195,0,
4,0.00811839,-0.169244,-0.185272,0.00031122,0,
4,0.0070809,-0.159625,-0.185269,0.000260854,0,
4,0.0061507,-0.147959,-0.185267,0.000196817,0,
4,0.00531578,-0.134517,-0.185266,0.000131029,0,
4,0.00456537,-0.119925,-0.185266,7.61475e-05,0,
4,0.00388979,-0.104954,-0.185266,3.86615e-05,0,
4,0.00328037,-0.0902524,-0.185265,1.72636e-05,0,
4,0.00272934,-0.0762178,-0.185265,6.79683e-06,0,
4,0.0022297,-0.0630215,-0.185265,2.33405e-06,0,
4,0.00177519,-0.0506945,-0.185265,6.77002e-07,0,
4,0.00136016,-0.0391972,-0.185265,1.55302e-07,0,
4,0.000979511,-0.0284603,-0.185265,2.47881e-08,0,
4,0.00062865,-0.0184037,-0.185265,2.10856e-09,0,
4,0.000303409,-0.00894505,-0.185265,5.12397e-11,0,

6,0,0,-0.0340242,0,0,
6,9,0,-0.0784381,0,0,
6,8.99969,0.0135878,-0.0784377,1.9012e-10,0,
6,8.99934,0.0289109,-0.078438,8.7746e-09,0,
6,8.99895,0.0462083,-0.0784377,1.18964e-07,0,
6,8.9985,0.0657325,-0.0784379,8.5731e-07,0,
6,8.99801,0.087743,-0.0784377,4.23143e-06,0,
6,8.99744,0.112439,-0.0784378,1.59988e-05,0,
6,8.99681,0.139788,-0.0784376,4.83075e-05,0,
6,8.99609,0.169255,-0.0784377,0.000117247,0,
6,8.99529,0.199674,-0.0784374,0.000229325,0,
6,8.99438,0.229608,-0.0784374,0.000369627,0,
6,8.99336,0.257961,-0.0784371,0.000512419,0,
6,8.9922,0.284242,-0.0784369,0.000640428,0,
6,8.9909,0.30846,-0.0784365,0.000743864,0,
6,8.98944,0.330776,-0.0784361,0.000830931,0,
6,8.98779,0.351362,-0.0784355,0.000904119,0,
6,8.98593,0.370466,-0.0784348,0.00096211,0,
6,8.98383,0.388349,-0.078434,0.0010096,0,
6,8.98147,0.405219,-0.078433,0.00104983,0,
6,8.97881,0.421241,-0.0784317,0.00108426,0,
6,8.97581,0.436555,-0.0784303,0.00111421,0,
6,8.97244,0.45128,-0.0784285,0.00114068,0,
6,8.96863,0.465516,-0.0784265,0.00116444,0,
6,8.96435,0.479348,-0.078424,0.00118602,0,
6,8.95953,0.492851,-0.0784212,0.00120583,0,
6,8.95409,0.506089,-0.0784179,0.00122414,0,
6,8.94798,0.519117,-0.0784141,0.00124113,0,
6,8.94109,0.531983,-0.0784098,0.00125689,0,
6,8.93334,0.544731,-0.0784048,0.00127142,0,
6,8.92463,0.557399,-0.0783991,0.00128469,0,
6,8.91482,0.570017,-0.0783926,0.0012966,0,
6,8.90379,0.582615,-0.0783853,0.00130698,0,
6,8.89139,0.595216,-0.0783772,0.00131567,0,
6,8.87746,0.607842,-0.0783681,0.00132242,0,
6,8.86181,0.620508,-0.0783581,0.00132701,0,
6,8.84423,0.633228,-0.0783473,0.00132916,0,
6,8.82452,0.646014,-0.0783355,0.00132862,0,
6,8.80241,0.658875,-0.0783227,0.00132513,0,
6,8.77763,0.671818,-0.078309,0.00131844,0,
6,8.74989,0.684851,-0.0782944,0.00130832,0,
6,8.71885,0.697984,-0.0782792,0.00129453,0,
6,8.68417,0.71123,-0.0782634,0.00127685,0,
6,8.64545,0.724603,-0.0782473,0.00125505,0,
6,8.60229,0.738128,-0.0782311,0.00122883,0,
6,8.55423,0.751835,-0.0782155,0.00119785,0,
6,8.50082,0.765766,-0.0782003,0.00116185,0,
6,8.44155,0.77998,-0.0781873,0.00112227,0,
6,8.37592,0.794598,-0.0781778,0.00107511,0,
6,8.30339,0.80983,-0.0781723,0.00101919,0,
6,8.22344,0.825946,-0.0781713,0.000951874,0,
6,8.13555,0.843248,-0.078176,0.00086936,0,
6,8.0392,0.861983,-0.0781824,0.000768211,0,
6,7.93391,0.882136,-0.0781918,0.000648274,0,
6,7.81927,0.903108,-0.0781927,0.000516291,0,
6,7.6949,0.923512,-0.0781946,0.00038742,0,
6,7.56054,0.941513,-0.0781828,0.00027032,0,
6,7.41603,0.955506,-0.078168,0.000138871,0,
6,7.26132,0.964519,-0.0781585,5.49871e-05,0,
6,7.09653,0.968825,-0.0781384,1.40642e-05,0,
6,6.92195,0.969897,-0.0781113,8.85432e-07,0,
6,6.73802,0.96949,-0.0780702,-8.71284e-07,0,
6,6.5454,0.968829,-0.0780135,-3.92116e-07,0,
6,6.34489,0.968404,-0.0779387,-9.65527e-08,0,
6,6.1375,0.968228,-0.0778443,-2.07221e-08,0,
6,5.92439,0.968162,-0.0777272,-6.82683e-09,0,
6,5.70687,0.968099,-0.0775841,-4.12408e-09,0,
6,5.48633,0.967997,-0.0774111,-3.50404e-09,0,
6,5.26426,0.967853,-0.0772039,-3.53948e-09,0,
6,5.04218,0.967679,-0.0769578,-3.82194e-09,0,
6,4.82159,0.967486,-0.0766684,-4.17665e-09,0,
6,4.60398,0.967286,-0.0763313,-4.60208e-09,0,
6,4.39071,0.967076,-0.0759425,-5.30016e-09,0,
6,4.18307,0.966823,-0.0754988,-6.62255e-09,0,
6,3.98218,0.966464,-0.0749979,-8.77616e-09,0,
6,3.78902,0.96594,-0.0744386,-1.13617e-08,0,
6,3.60438,0.965282,-0.0738215,-1.46892e-08,0,
6,3.42888,0.964672,-0.0731485,-2.94963e-08,0,
6,3.26296,0.964408,-0.0724226,-5.78081e-08,0,
6,3.10691,0.964723,-0.071647,5.3537e-08,0,
6,2.96084,0.965566,-0.0708258,5.22918e-07,0,
6,2.82473,0.966513,-0.0699653,4.65678e-07,0,
6,2.69844,0.96691,-0.0690749,-3.36889e-06,0,
6,2.58172,0.966136,-0.068166,-1.56842e-05,0,
6,2.47424,0.963807,-0.0672512,-4.01967e-05,0,
6,2.37559,0.959845,-0.0663427,-7.80875e-05,0,
6,2.28535,0.95442,-0.0654516,-0.000128011,0,
6,2.20301,0.947853,-0.0645873,-0.000186925,0,
6,2.1281,0.940518,-0.0637577,-0.000251003,0,
6,2.06009,0.932772,-0.0629688,-0.000316283,0,
6,1.99849,0.924929,-0.0622238,-0.000378929,0,
6,1.9428,0.917247,-0.0615272,-0.000435858,0,
6,1.89255,0.909915,-0.060875,-0.000486718,0,
6,1.84728,0.903012,-0.0602757,-0.000526426,0,
6,1.80655,0.896532,-0.0597291,-0.000556703,0,
6,1.76996,0.890485,-0.0592219,-0.000584467,0,
6,1.73712,0.884891,-0.0587592,-0.000609859,0,
6,1.70768,0.879718,-0.0583343,-0.000633341,0,
6,1.67998,0.874737,-0.0579297,-0.000656042,0,
6,1.65329,0.869848,-0.0575328,-0.000678184,0,
6,1.62754,0.865049,-0.057144,-0.000699741,0,
6,1.60265,0.860338,-0.0567625,-0.000720709,0,
6,1.57854,0.855713,-0.0563879,-0.000741086,0,
6,1.55515,0.851171,-0.0560197,-0.000760909,0,
6,1.53242,0.846706,-0.0556576,-0.0007802,0,
6,1.5103,0.84231,-0.0553012,-0.000798978,0,
6,1.48874,0.837972,-0.0549501,-0.000817298,0,
6,1.46769,0.83368,-0.0546034,-0.000835326,0,
6,1.44712,0.829433,-0.05426,-0.000853394,0,
6,1.42698,0.825246,-0.0539171,-0.000871953,0,
6,1.40725,0.821156,-0.053575,-0.000891227,0,
6,1.38788,0.817196,-0.0532304,-0.000910925,0,
6,1.36886,0.813353,-0.0528989,-0.000927227,0,
6,1.35015,0.809563,-0.0525793,-0.000931281,0,
6,1.33173,0.805774,-0.052258,-0.00094022,0,
6,1.31357,0.801969,-0.0519402,-0.000950421,0,
6,1.29566,0.798133,-0.0516238,-0.000962287,0,
6,1.27797,0.794246,-0.0513092,-0.000976759,0,
6,1.26048,0.790284,-0.0509962,-0.00099503,0,
6,1.24318,0.786216,-0.0506845,-0.00101863,0,
6,1.22605,0.782005,-0.0503741,-0.00104939,0,
6,1.20907,0.777606,-0.0500647,-0.0010895,0,
6,1.19223,0.772967,-0.0497562,-0.00114141,0,
6,1.17551,0.768027,-0.0494486,-0.00120777,0,
6,1.1589,0.762718,-0.0491418,-0.00129126,0,
6,1.14238,0.756971,-0.0488357,-0.00139437,0,
6,1.12595,0.750718,-0.0485304,-0.00151902,0,
6,1.10959,0.7439,-0.0482258,-0.0016663,0,
6,1.09329,0.736475,-0.0479222,-0.00183612,0,
6,1.07704,0.728421,-0.04762,-0.00202708,0,
6,1.06081,0.719735,-0.0473194,-0.00223636,0,
6,1.04459,0.710437,-0.0470206,-0.00246001,0,
6,1.02836,0.70057,-0.0467239,-0.00269315,0,
6,1.01211,0.690193,-0.0464294,-0.00293028,0,
6,0.99583,0.679374,-0.046138,-0.00316578,0,
6,0.97951,0.668185,-0.0458486,-0.00339441,0,
6,0.963136,0.6567,-0.0455641,-0.00362229,0,
6,0.946694,0.644916,-0.0452745,-0.00382984,0,
6,0.930172,0.632745,-0.0449769,-0.00402701,0,
6,0.913555,0.620098,-0.0446816,-0.00422846,0,
6,0.896829,0.606918,-0.0443883,-0.0044365,0,
6,0.879979,0.593173,-0.0440991,-0.00465276,0,
6,0.862989,0.578844,-0.0438138,-0.00487855,0,
6,0.845842,0.563931,-0.0435338,-0.00511494,0,
6,0.828521,0.548433,-0.0432611,-0.00535875,0,
6,0.811008,0.532348,-0.0429972,-0.00560914,0,
6,0.793282,0.515672,-0.0427427,-0.00586507,0,
6,0.775322,0.49841,-0.042498,-0.006125,0,
6,0.757107,0.480575,-0.0422635,-0.00638685,0,
6,0.738612,0.462188,-0.0420398,-0.00664807,0,
6,0.719813,0.443277,-0.0418278,-0.00690562,0,
6,0.700681,0.423884,-0.0416282,-0.0071561,0,
6,0.681188,0.404052,-0.0414417,-0.00739576,0,
6,0.661304,0.383831,-0.0412677,-0.00762062,0,
6,0.640996,0.363261,-0.0411039,-0.00782644,0,
6,0.620228,0.342374,-0.0409472,-0.00800861,0,
6,0.598964,0.321199,-0.0407954,-0.00816198,0,
6,0.577166,0.299791,-0.0406548,-0.0082807,0,
6,0.554791,0.27829,-0.0405421,-0.00835889,0,
6,0.531799,0.256978,-0.0404981,-0.00839285,0,
6,0.508144,0.236261,-0.0405419,-0.00838255,0,
6,0.48378,0.216505,-0.0407145,-0.00833423,0,
6,0.459585,0.198374,-0.040725,-0.00821439,0,
6,0.436695,0.182124,-0.0405339,-0.00788763,0,
6,0.414961,0.167214,-0.0403703,-0.00762852,0,
6,0.394252,0.153458,-0.0402187,-0.00736338,0,
6,0.374445,0.140716,-0.0400677,-0.00709161,0,
6,0.355433,0.128867,-0.0399218,-0.00681447,0,
6,0.337122,0.117808,-0.0397766,-0.00653284,0,
6,0.319433,0.107452,-0.0396313,-0.00624776,0,
6,0.3023,0.0977286,-0.039484,-0.00596004,0,
6,0.28567,0.0885763,-0.0393333,-0.00567045,0,
6,0.269507,0.0799468,-0.0391778,-0.00537981,0,
6,0.253785,0.0718008,-0.039016,-0.00508898,0,
6,0.238493,0.0641073,-0.0388471,-0.00479892,0,
6,0.223631,0.0568414,-0.0386701,-0.00451073,0,
6,0.209207,0.0499835,-0.0384843,-0.0042256,0,
6,0.195237,0.0435173,-0.0382897,-0.00394479,0,
6,0.181744,0.0374292,-0.0380863,-0.00366966,0,
6,0.168754,0.031707,-0.0378747,-0.00340152,0,
6,0.156292,0.026339,-0.0376558,-0.0031417,0,
6,0.144384,0.0213139,-0.0374311,-0.00289139,0,
6,0.133052,0.0166198,-0.0372022,-0.00265168,0,
6,0.122315,0.0122449,-0.0369712,-0.00242345,0,
6,0.112183,0.00817676,-0.0367404,-0.00220741,0,
6,0.102665,0.0044028,-0.0365123,-0.00200408,0,
6,0.0937597,0.000909527,-0.0362895,-0.00181365,0,
6,0.0854609,-0.00231833,-0.0360744,-0.00163575,0,
6,0.077757,-0.00529767,-0.0358687,-0.00147009,0,
6,0.0706309,-0.0080451,-0.0356739,-0.0013168,0,
6,0.0640611,-0.0105758,-0.0354912,-0.00117553,0,
6,0.0580229,-0.0129039,-0.0353214,-0.00104569,0,
6,0.0524888,-0.0150433,-0.0351648,-0.000926685,0,
6,0.0474296,-0.017007,-0.0350214,-0.000817887,0,
6,0.042815,-0.0188077,-0.0348911,-0.000718654,0,
6,0.0386145,-0.0204572,-0.0347733,-0.000628329,0,
6,0.0347975,-0.0219662,-0.0346677,-0.000546258,0,
6,0.0313344,-0.0233448,-0.0345733,-0.000471796,0,
6,0.0281964,-0.0246017,-0.0344897,-0.000404322,0,
6,0.0253561,-0.0257447,-0.0344159,-0.000343245,0,
6,0.0227875,-0.0267803,-0.0343512,-0.00028801,0,
6,0.0204662,-0.0277139,-0.0342946,-0.000238106,0,
6,0.0183694,-0.0285491,-0.0342458,-0.000193064,0,
6,0.016476,-0.0292877,-0.0342034,-0.00015247,0,
6,0.0147664,-0.0299294,-0.0341676,-0.00011597,0,
6,0.0132228,-0.0304704,-0.0341368,-8.32847e-05,0,
6,0.0118288,-0.0309028,-0.0341116,-5.4236e-05,0,
6,0.0105693,-0.0312124,-0.03409,-2.87883e-05,0,
6,0.00943073,-0.031376,-0.0340736,-7.1171e-06,0,
6,0.00840063,-0.0313575,-0.0340594,1.03059e-05,0,
6,0.00746774,-0.0311047,-0.03405,2.26776e-05,0,
6,0.00662185,-0.0305487,-0.0340417,2.90791e-05,0,
6,0.00585371,-0.029616,-0.0340376,2.92017e-05,0,
6,0.00515491,-0.0282583,-0.0340332,2.42995e-05,0,
6,0.00451788,-0.026488,-0.0340325,1.71374e-05,0,
6,0.00393573,-0.024385,-0.0340299,1.04629e-05,0,
6,0.00340221,-0.0220599,-0.0340307,5.64642e-06,0,
6,0.00291168,-0.0196131,-0.0340284,2.72931e-06,0,
6,0.00245897,-0.0171154,-0.0340299,1.18174e-06,0,
6,0.00203939,-0.0146098,-0.0340274,4.50948e-07,0,
6,0.00164864,-0.0121192,-0.0340295,1.46147e-07,0,
6,0.00128281,-0.0096536,-0.0340264,3.7535e-08,0,
6,0.000938257,-0.00721449,-0.0340293,6.70266e-09,0,
6,0.000611645,-0.00479805,-0.0340254,6.34483e-10,0,
6,0.000299862,-0.00239669,-0.0340292,1.67846e-11,0,

10,0.000296632,0.00784197,0.0314749,-4.06809e-11,0,
10,0.000596102,0.0157561,0.0314756,-1.50764e-09,0,
10,0.000900397,0.0237949,0.0314749,-1.53287e-08,0,
10,0.00121153,0.0320111,0.0314755,-8.23794e-08,0,
10,0.00153158,0.0404578,0.0314748,-3.08221e-07,0,
10,0.00186264,0.0491871,0.0314753,-9.16906e-07,0,
10,0.00220692,0.0582484,0.0314747,-2.32984e-06,0,
10,0.00256668,0.0676843,0.0314751,-5.27037e-06,0,
10,0.00294431,0.0775239,0.0314746,-1.08767e-05,0,
10,0.00334229,0.0877725,0.0314749,-2.07676e-05,0,
10,0.00376326,0.0983987,0.0314744,-3.69514e-05,0,
10,0.00421,0.109322,0.0314746,-6.14484e-05,0,
10,0.00468544,0.120405,0.0314741,-9.56008e-05,0,
10,0.00519274,0.131465,0.0314741,-0.00013932,0,
10,0.00573524,0.142294,0.0314735,-0.000190758,0,
10,0.00631651,0.152699,0.0314732,-0.000246727,0,
10,0.00694041,0.162525,0.0314722,-0.000303655,0,
10,0.00761104,0.171675,0.0314714,-0.000358493,0,
10,0.00833284,0.180104,0.03147,-0.000409194,0,
10,0.00911058,0.187814,0.0314684,-0.000454732,0,
10,0.0099494,0.19484,0.0314661,-0.000494887,0,
10,0.0108548,0.201232,0.0314636,-0.000529976,0,
10,0.0118329,0.207053,0.0314602,-0.000560609,0,
10,0.0128901,0.212367,0.0314562,-0.000587528,0,
10,0.0140333,0.217237,0.0314513,-0.000611493,0,
10,0.0152702,0.22172,0.0314456,-0.000633224,0,
10,0.0166089,0.22587,0.0314388,-0.000653375,0,
10,0.0180584,0.229732,0.0314309,-0.000672519,0,
10,0.0196282,0.233349,0.0314217,-0.000691162,0,
10,0.0213288,0.236755,0.0314111,-0.000709745,0,
10,0.0231714,0.239984,0.0313989,-0.000728659,0,
10,0.0251682,0.243061,0.031385,-0.000748255,0,
10,0.0273326,0.246012,0.0313693,-0.000768857,0,
10,0.0296789,0.248858,0.0313515,-0.000790769,0,
10,0.0322227,0.251619,0.0313314,-0.000814282,0,
10,0.0349809,0.254312,0.0313089,-0.000839684,0,
10,0.0379719,0.256953,0.0312836,-0.000867264,0,
10,0.0412155,0.259557,0.0312555,-0.000897316,0,
10,0.0447333,0.262139,0.0312242,-0.000930144,0,
10,0.0485489,0.264712,0.0311894,-0.000966068,0,
10,0.0526875,0.26729,0.031151,-0.00100542,0,
10,0.0571768,0.269886,0.0311087,-0.00104856,0,
10,0.0620466,0.272513,0.0310621,-0.00109587,0,
10,0.0673295,0.275186,0.0310111,-0.00114776,0,
10,0.0730607,0.277918,0.0309553,-0.00120465,0,
10,0.0792784,0.280725,0.0308945,-0.00126701,0,
10,0.0860241,0.283624,0.0308285,-0.00133533,0,
10,0.0933428,0.286631,0.0307571,-0.00141016,0,
10,0.101283,0.289767,0.0306801,-0.00149203,0,
10,0.109899,0.293053,0.0305975,-0.00158155,0,
10,0.119247,0.296512,0.030509,-0.00167933,0,
10,0.12939,0.300173,0.0304148,-0.00178602,0,
10,0.140395,0.304064,0.0303148,-0.00190228,0,
10,0.152337,0.308222,0.0302093,-0.00202876,0,
10,0.165296,0.312686,0.0300983,-0.00216612,0,
10,0.179357,0.317501,0.0299822,-0.00231496,0,
10,0.194615,0.322721,0.0298612,-0.00247583,0,
10,0.211171,0.328407,0.0297359,-0.00264914,0,
10,0.229138,0.334629,0.0296061,-0.00283514,0,
10,0.248635,0.34147,0.0294729,-0.00303383,0,
10,0.269793,0.349026,0.0293352,-0.00324481,0,
10,0.292753,0.357408,0.0291953,-0.0034672,0,
10,0.317669,0.366744,0.0290486,-0.00369797,0,
10,0.344708,0.377176,0.0289007,-0.00393251,0,
10,0.372405,0.388212,0.0287558,-0.00416045,0,
10,0.399623,0.399422,0.0286155,-0.00437048,0,
10,0.426397,0.410798,0.0284809,-0.0045584,0,
10,0.452757,0.422338,0.0283491,-0.00472607,0,
10,0.478735,0.434041,0.0282217,-0.00487111,0,
10,0.504358,0.445913,0.0280976,-0.00499197,0,
10,0.529657,0.457962,0.0279768,-0.00508955,0,
10,0.554656,0.470189,0.0278533,-0.0051633,0,
10,0.579382,0.482593,0.0277361,-0.00521301,0,
10,0.603859,0.495172,0.0276014,-0.00526074,0,
10,0.628112,0.508031,0.0275093,-0.00527151,0,
10,0.652163,0.521463,0.0274792,-0.00517774,0,
10,0.676035,0.535653,0.0274246,-0.00505524,0,
10,0.699751,0.550466,0.0273355,-0.00490438,0,
10,0.72333,0.565617,0.02721,-0.00472687,0,
10,0.746795,0.580824,0.0270598,-0.0045264,0,
10,0.770165,0.595887,0.026893,-0.00430751,0,
10,0.79346,0.610679,0.0267148,-0.00407491,0,
10,0.816699,0.625116,0.0265269,-0.00383338,0,
10,0.839903,0.639101,0.0263273,-0.00359197,0,
10,0.863088,0.65253,0.0261148,-0.00335722,0,
10,0.886275,0.665325,0.025892,-0.00313013,0,
10,0.909481,0.677462,0.0256606,-0.00291142,0,
10,0.932723,0.688957,0.0254221,-0.0027019,0,
10,0.956021,0.699843,0.0251766,-0.00250232,0,
10,0.97939,0.710152,0.0249241,-0.00231334,0,
10,1.00285,0.719908,0.024664,-0.00213555,0,
10,1.02641,0.729132,0.0243969,-0.00196939,0,
10,1.0501,0.737848,0.024122,-0.00181512,0,
10,1.07392,0.746087,0.023842,-0.00167123,0,
10,1.0979,0.753883,0.0235558,-0.00153582,0,
10,1.12205,0.761249,0.0232607,-0.00141461,0,
10,1.14639,0.768189,0.0229576,-0.00130626,0,
10,1.17093,0.774722,0.0226465,-0.00121138,0,
10,1.19568,0.780882,0.0223276,-0.00112986,0,
10,1.22066,0.786711,0.0220018,-0.00106098,0,
10,1.24589,0.792259,0.0216683,-0.00100352,0,
10,1.27137,0.797578,0.0213291,-0.000957216,0,
10,1.29713,0.802732,0.020983,-0.000922565,0,
10,1.32317,0.807849,0.0206314,-0.000880399,0,
10,1.34951,0.813048,0.0202758,-0.000840785,0,
10,1.37616,0.818328,0.0199127,-0.00080407,0,
10,1.40313,0.823619,0.0195419,-0.000770229,0,
10,1.43043,0.82885,0.0191625,-0.000738802,0,
10,1.45807,0.833995,0.0187752,-0.000709074,0,
10,1.48607,0.839065,0.0183803,-0.000680409,0,
10,1.51444,0.844087,0.0179781,-0.00065246,0,
10,1.54318,0.849072,0.0175684,-0.000625142,0,
10,1.57231,0.854013,0.0171507,-0.000598482,0,
10,1.60184,0.858885,0.0167251,-0.000572508,0,
10,1.63178,0.863665,0.0162913,-0.00054723,0,
10,1.66213,0.868326,0.0158498,-0.00052267,0,
10,1.69292,0.872852,0.0154001,-0.000498813,0,
10,1.72416,0.877232,0.0149433,-0.000475515,0,
10,1.75585,0.881486,0.0144774,-0.000451092,0,
10,1.78802,0.885664,0.0140023,-0.000422533,0,
10,1.82067,0.889795,0.0135197,-0.000394896,0,
10,1.85383,0.893866,0.0130285,-0.000366273,0,
10,1.88751,0.897852,0.0125284,-0.000336592,0,
10,1.92173,0.901731,0.0120199,-0.000306223,0,
10,1.95652,0.905475,0.011502,-0.000275613,0,
10,1.9919,0.90906,0.0109758,-0.000245266,0,
10,2.02791,0.912462,0.0104394,-0.000215749,0,
10,2.06456,0.915661,0.00989524,-0.00018731,0,
10,2.10268,0.918697,0.00932774,-0.000159536,0,
10,2.1443,0.921661,0.00871167,-0.000132799,0,
10,2.18977,0.924502,0.00803964,-0.000107225,0,
10,2.23946,0.927137,0.00730988,-8.31072e-05,0,
10,2.29376,0.929483,0.00651672,-6.12675e-05,0,
10,2.35309,0.931457,0.00565791,-4.23971e-05,0,
10,2.4179,0.932988,0.00472942,-2.70305e-05,0,
10,2.48863,0.934028,0.00372971,-1.54785e-05,0,
10,2.56575,0.93457,0.00265677,-7.71005e-06,0,
10,2.64971,0.934666,0.00151065,-3.27163e-06,0,
10,2.74098,0.934432,0.00029163,-1.32051e-06,0,
10,2.83997,0.934045,-0.000998357,-8.12508e-07,0,
10,2.94709,0.933712,-0.00235692,-8.13243e-07,0,
10,3.06269,0.933623,-0.00378037,-7.7348e-07,0,
10,3.18706,0.933893,-0.00526427,-5.74301e-07,0,
10,3.3204,0.934533,-0.00680262,-3.29973e-07,0,
10,3.46281,0.935451,-0.00838782,-1.53227e-07,0,
10,3.61427,0.9365,-0.0100101,-6.52633e-08,0,
10,3.77463,0.937542,-0.0116579,-3.30428e-08,0,
10,3.94358,0.93849,-0.0133178,-2.33096e-08,0,
10,4.12067,0.939326,-0.0149757,-2.0049e-08,0,
10,4.30525,0.940084,-0.0166171,-1.85651e-08,0,
10,4.49655,0.940806,-0.0182278,-1.79769e-08,0,
10,4.6936,0.941522,-0.0197944,-1.82575e-08,0,
10,4.89531,0.942235,-0.0213048,-1.98998e-08,0,
10,5.10047,0.94293,-0.0227482,-2.43612e-08,0,
10,5.30776,0.943589,-0.0241158,-3.48965e-08,0,
10,5.51581,0.944193,-0.0254005,-5.82383e-08,0,
10,5.72323,0.94474,-0.0265975,-1.08809e-07,0,
10,5.92863,0.945253,-0.027704,-2.21689e-07,0,
10,6.13069,0.945799,-0.028719,-4.88992e-07,0,
10,6.32816,0.946475,-0.0296435,-1.10481e-06,0,
10,6.51991,0.947313,-0.0304804,-2.15811e-06,0,
10,6.70495,0.94809,-0.0312334,-2.37214e-06,0,
10,6.88244,0.948096,-0.0319068,3.55717e-06,0,
10,7.0517,0.946109,-0.0325046,2.65029e-05,0,
10,7.21224,0.940739,-0.0330282,7.98051e-05,0,
10,7.3637,0.93109,-0.0334829,0.000172728,0,
10,7.5059,0.917198,-0.0338732,0.00029694,0,
10,7.63878,0.899658,-0.0342039,0.000404738,0,
10,7.76243,0.87957,-0.0344841,0.00052392,0,
10,7.87701,0.858696,-0.0347089,0.000645732,0,
10,7.9828,0.838498,-0.0348945,0.000756286,0,
10,8.08014,0.819695,-0.0350435,0.000850486,0,
10,8.16941,0.802373,-0.0351667,0.000928812,0,
10,8.25106,0.786284,-0.0352685,0.00099445,0,
10,8.32554,0.771101,-0.035355,0.00105066,0,
10,8.39331,0.75654,-0.0354285,0.00109973,0,
10,8.45484,0.742401,-0.0354918,0.00114296,0,
10,8.5106,0.728562,-0.0355458,0.00118094,0,
10,8.56104,0.714963,-0.0355923,0.00121394,0,
10,8.60659,0.701585,-0.0356322,0.00124205,0,
10,8.64767,0.688434,-0.0356667,0.00126539,0,
10,8.68467,0.675516,-0.0356968,0.00128406,0,
10,8.71795,0.662807,-0.035723,0.00129439,0,
10,8.74786,0.65028,-0.0357457,0.00130119,0,
10,8.77471,0.637931,-0.0357654,0.00130372,0,
10,8.79881,0.625758,-0.0357823,0.00130239,0,
10,8.8204,0.613753,-0.0357969,0.00129772,0,
10,8.83975,0.601906,-0.0358094,0.00129019,0,
10,8.85708,0.590205,-0.0358202,0.00128028,0,
10,8.87259,0.578632,-0.0358295,0.00126845,0,
10,8.88646,0.567166,-0.0358374,0.00125507,0,
10,8.89886,0.555785,-0.0358442,0.00124051,0,
10,8.90995,0.544462,-0.0358499,0.00122504,0,
10,8.91986,0.533166,-0.0358547,0.0012089,0,
10,8.92872,0.521866,-0.0358588,0.00119224,0,
10,8.93663,0.510525,-0.0358622,0.00117518,0,
10,8.94369,0.499105,-0.035865,0.00115773,0,
10,8.95,0.487566,-0.0358673,0.00113987,0,
10,8.95564,0.47586,-0.0358693,0.00112152,0,
10,8.96067,0.463939,-0.0358709,0.00110253,0,
10,8.96517,0.451749,-0.0358723,0.00108265,0,
10,8.96918,0.439226,-0.0358733,0.00106156,0,
10,8.97276,0.426303,-0.0358744,0.00103883,0,
10,8.97596,0.412899,-0.035875,0.00101391,0,
10,8.97882,0.398921,-0.0358758,0.000986059,0,
10,8.98137,0.384261,-0.0358761,0.000954358,0,
10,8.98365,0.368793,-0.0358767,0.000917592,0,
10,8.98569,0.352366,-0.0358768,0.000874321,0,
10,8.9875,0.334799,-0.0358773,0.000822531,0,
10,8.98913,0.315858,-0.0358773,0.00075691,0,
10,8.99058,0.295309,-0.0358778,0.000679397,0,
10,8.99188,0.272989,-0.0358775,0.000587548,0,
10,8.99304,0.248736,-0.0358781,0.000474656,0,
10,8.99408,0.222508,-0.0358777,0.000348229,0,
10,8.99501,0.194674,-0.0358782,0.000221946,0,
10,8.99583,0.166134,-0.0358778,0.000117704,0,
10,8.99658,0.138157,-0.0358784,5.05651e-05,0,
10,8.99724,0.111861,-0.0358778,1.7454e-05,0,
10,8.99784,0.0878372,-0.0358785,4.79499e-06,0,
10,8.99837,0.0661964,-0.0358777,1.00555e-06,0,
10,8.99885,0.0468043,-0.0358786,1.44038e-07,0,
10,8.99927,0.0294492,-0.0358777,1.09346e-08,0,
10,8.99966,0.0139159,-0.0358787,2.41915e-10,0,
10,0,0,0.0314759,0,0,
10,9,0,-0.0358776,0,0,

0.004,0,0,-0.220877,0,-9.55518e-08,
0.00868226,0,0,-0.220874,0,-1.70899e-07,
0.014062,0,0,-0.220877,0,-2.63985e-07,
0.0201548,0,0,-0.220875,0,-6.75506e-07,
0.0269766,0,0,-0.220877,0,-1.22517e-06,
0.0345437,0,0,-0.220876,0,-2.01132e-06,
0.0428729,0,0,-0.220876,0,-2.88916e-06,
0.051981,0,0,-0.220874,0,-3.82776e-06,
0.0618853,0,0,-0.220872,0,-4.65898e-06,
0.0726036,0,0,-0.220869,0,-5.23594e-06,
0.0841536,0,0,-0.220865,0,-5.32539e-06,
0.0965535,0,0,-0.22086,0,-4.69619e-06,
0.109822,0,0,-0.220854,0,-3.11044e-06,
0.123977,0,0,-0.220848,0,-4.01421e-07,
0.139037,0,0,-0.220843,0,3.48846e-06,
0.155022,0,0,-0.220842,0,8.46536e-06,
0.171949,0,0,-0.220845,0,1.42791e-05,
0.189839,0,0,-0.220854,0,2.05557e-05,
0.208709,0,0,-0.220869,0,2.68478e-05,
0.228579,0,0,-0.220891,0,3.2706e-05,
0.249467,0,0,-0.220918,0,3.77297e-05,
0.271391,0,0,-0.22095,0,4.16139e-05,
0.29437,0,0,-0.220984,0,4.41642e-05,
0.31842,0,0,-0.221019,0,4.53066e-05,
0.343559,0,0,-0.221051,0,4.50763e-05,
0.369804,0,0,-0.221081,0,4.3608e-05,
0.39717,0,0,-0.221106,0,4.11142e-05,
0.425672,0,0,-0.221126,0,3.78664e-05,
0.455324,0,0,-0.221141,0,3.41725e-05,
0.48614,0,0,-0.221151,0,3.03567e-05,
0.518132,0,0,-0.221157,0,2.67557e-05,
0.551309,0,0,-0.221159,0,2.37225e-05,
0.585683,0,0,-0.221159,0,2.16371e-05,
0.621259,0,0,-0.221158,0,2.08771e-05,
0.658046,0,0,-0.221158,0,2.17049e-05,
0.696047,0,0,-0.221163,0,2.41601e-05,
0.735265,0,0,-0.221178,0,2.8029e-05,
0.7757,0,0,-0.221205,0,3.29317e-05,
0.817352,0,0,-0.221247,0,3.846e-05,
0.860215,0,0,-0.221305,0,4.42941e-05,
0.904285,0,0,-0.221381,0,5.02777e-05,
0.949552,0,0,-0.221477,0,5.63891e-05,
0.996004,0,0,-0.2216,0,6.26589e-05,
1.04363,0,0,-0.221755,0,6.90153e-05,
1.09241,0,0,-0.221956,0,7.50495e-05,
1.14232,0,0,-0.222216,0,7.99117e-05,
1.19335,0,0,-0.222555,0,8.22821e-05,
1.24546,0,0,-0.222996,0,8.03362e-05,
1.29863,0,0,-0.223564,0,7.18615e-05,
1.35283,0,0,-0.22428,0,5.46551e-05,
1.40802,0,0,-0.225149,0,2.71502e-05,
1.46416,0,0,-0.226162,0,-1.10129e-05,
1.52121,0,0,-0.227294,0,-5.87659e-05,
1.57913,0,0,-0.22851,0,-0.000113898,
1.63787,0,0,-0.229772,0,-0.000173742,
1.69739,0,0,-0.231048,0,-0.000235907,
1.75761,0,0,-0.232307,0,-0.000298712,
1.81851,0,0,-0.233528,0,-0.000361244,
1.88,0,0,-0.234693,0,-0.000423149,
1.94204,0,0,-0.235786,0,-0.000484361,
2.00457,0,0,-0.236794,0,-0.000544903,
2.06751,0,0,-0.237706,0,-0.00060479,
2.13081,0,0,-0.238512,0,-0.000664,
2.19439,0,0,-0.239201,0,-0.000722487,
2.25819,0,0,-0.239765,0,-0.000780192,
2.32214,0,0,-0.240196,0,-0.000837054,
2.38617,0,0,-0.240486,0,-0.000893014,
2.4502,0,0,-0.240628,0,-0.000948014,
2.51418,0,0,-0.240617,0,-0.00100199,
2.57803,0,0,-0.240446,0,-0.00105486,
2.64167,0,0,-0.24011,0,-0.00110655,
2.70505,0,0,-0.239606,0,-0.00115695,
2.76808,0,0,-0.238929,0,-0.00120596,
2.83072,0,0,-0.238079,0,-0.00125346,
2.89288,0,0,-0.237053,0,-0.00129934,
2.95451,0,0,-0.235852,0,-0.0013435,
3.01555,0,0,-0.234477,0,-0.00138583,
3.07594,0,0,-0.23293,0,-0.00142622,
3.13561,0,0,-0.231215,0,-0.00146454,
3.19453,0,0,-0.229337,0,-0.00150069,
3.25262,0,0,-0.227302,0,-0.00153455,
3.30985,0,0,-0.225117,0,-0.00156603,
3.36617,0,0,-0.222792,0,-0.00159503,
3.42154,0,0,-0.220336,0,-0.00162148,
3.47591,0,0,-0.21776,0,-0.00164534,
3.52925,0,0,-0.215076,0,-0.00166659,
3.58152,0,0,-0.212298,0,-0.00168522,
3.6327,0,0,-0.209438,0,-0.00170126,
3.68276,0,0,-0.206511,0,-0.00171476,
3.73167,0,0,-0.20353,0,-0.00172582,
3.77941,0,0,-0.200509,0,-0.00173451,
3.82596,0,0,-0.197462,0,-0.00174097,
3.8713,0,0,-0.194402,0,-0.00174532,
3.91543,0,0,-0.191339,0,-0.0017476,
3.95833,0,0,-0.188299,0,-0.00174824,
4,0,0,-0.185265,0,-0.00174722,
4.04167,0,0,-0.182178,0,-0.00174441,
4.08333,0,0,-0.179034,0,-0.00174005,
4.125,0,0,-0.175838,0,-0.00173415,
4.16667,0,0,-0.172593,0,-0.00172671,
4.20833,0,0,-0.169305,0,-0.00171777,
4.25,0,0,-0.165978,0,-0.00170735,
4.29167,0,0,-0.162616,0,-0.0016955,
4.33333,0,0,-0.159223,0,-0.00168225,
4.375,0,0,-0.155803,0,-0.00166766,
4.41667,0,0,-0.152361,0,-0.00165175,
4.45833,0,0,-0.1489,0,-0.00163457,
4.5,0,0,-0.145425,0,-0.00161617,
4.54167,0,0,-0.141939,0,-0.00159659,
4.58333,0,0,-0.138446,0,-0.00157587,
4.625,0,0,-0.13495,0,-0.00155406,
4.66667,0,0,-0.131454,0,-0.0015312,
4.70833,0,0,-0.127962,0,-0.00150734,
4.75,0,0,-0.124476,0,-0.00148252,
4.79167,0,0,-0.121,0,-0.00145678,
4.83333,0,0,-0.117536,0,-0.00143017,
4.875,0,0,-0.114089,0,-0.00140272,
4.91667,0,0,-0.11066,0,-0.00137448,
4.95833,0,0,-0.107251,0,-0.00134549,
5,0,0,-0.103866,0,-0.00131579,
5.04167,0,0,-0.100507,0,-0.00128541,
5.08333,0,0,-0.0971759,0,-0.0012544,
5.125,0,0,-0.0938746,0,-0.00122278,
5.16667,0,0,-0.0906052,0,-0.00119059,
5.20833,0,0,-0.0873695,0,-0.00115788,
5.25,0,0,-0.0841694,0,-0.00112465,
5.29167,0,0,-0.0810063,0,-0.00109096,
5.33333,0,0,-0.0778819,0,-0.00105683,
5.375,0,0,-0.0747976,0,-0.00102229,
5.41667,0,0,-0.0717546,0,-0.000987374,
5.45833,0,0,-0.0687542,0,-0.000952103,
5.5,0,0,-0.0657974,0,-0.000916505,
5.54167,0,0,-0.0628855,0,-0.000880609,
5.58333,0,0,-0.0600193,0,-0.000844441,
5.625,0,0,-0.0571997,0,-0.000808029,
5.66667,0,0,-0.0544275,0,-0.000771402,
5.70833,0,0,-0.0517035,0,-0.000734585,
5.75,0,0,-0.0490282,0,-0.000697606,
5.79167,0,0,-0.0464021,0,-0.00066049,
5.83333,0,0,-0.0438258,0,-0.000623263,
5.875,0,0,-0.0412996,0,-0.00058595,
5.91667,0,0,-0.0388238,0,-0.000548573,
5.95833,0,0,-0.0363987,0,-0.000511151,
6,0,0,-0.0340245,0,-0.000473702,
6.04167,0,0,-0.0317014,0,-0.000436238,
6.08333,0,0,-0.0294297,0,-0.000398771,
6.125,0,0,-0.0272097,0,-0.000361311,
6.16667,0,0,-0.0250419,0,-0.000323868,
6.20833,0,0,-0.0229269,0,-0.000286455,
6.25,0,0,-0.0208655,0,-0.000249106,
6.29167,0,0,-0.0188589,0,-0.000211887,
6.33333,0,0,-0.0169084,0,-0.000174913,
6.375,0,0,-0.0150144,0,-0.000138325,
6.41667,0,0,-0.0131762,0,-0.000102245,
6.45833,0,0,-0.0113925,0,-6.67268e-05,
6.5,0,0,-0.0096616,0,-3.17686e-05,
6.54167,0,0,-0.00798216,0,2.65883e-06,
6.58333,0,0,-0.00635278,0,3.65851e-05,
6.625,0,0,-0.00477225,0,7.00313e-05,
6.66667,0,0,-0.00323944,0,0.000103011,
6.70833,0,0,-0.00175326,0,0.000135533,
6.75,0,0,-0.000312687,0,0.000167607,
6.79167,0,0,0.00108328,0,0.000199239,
6.83333,0,0,0.00243559,0,0.000230435,
6.875,0,0,0.00374517,0,0.000261201,
6.91667,0,0,0.00501293,0,0.00029154,
6.95833,0,0,0.00623974,0,0.000321456,
7,0,0,0.00742649,0,0.000350951,
7.04167,0,0,0.00857402,0,0.000380027,
7.08333,0,0,0.00968318,0,0.000408687,
7.125,0,0,0.0107548,0,0.000436933,
7.16667,0,0,0.0117897,0,0.000464768,
7.20833,0,0,0.0127887,0,0.000492193,
7.25,0,0,0.0137526,0,0.000519211,
7.29167,0,0,0.0146822,0,0.000545824,
7.33333,0,0,0.0155782,0,0.000572034,
7.375,0,0,0.0164415,0,0.000597842,
7.41667,0,0,0.0172727,0,0.000623251,
7.45833,0,0,0.0180727,0,0.000648263,
7.5,0,0,0.0188422,0,0.000672881,
7.54167,0,0,0.0195819,0,0.00069711,
7.58333,0,0,0.0202924,0,0.000720955,
7.625,0,0,0.0209745,0,0.000744424,
7.66667,0,0,0.0216289,0,0.000767526,
7.70833,0,0,0.022256,0,0.000790274,
7.75,0,0,0.0228567,0,0.000812685,
7.79167,0,0,0.0234314,0,0.000834774,
7.83333,0,0,0.0239803,0,0.000856543,
7.875,0,0,0.0245034,0,0.000878042,
7.91667,0,0,0.0250112,0,0.00089976,
7.95833,0,0,0.0254407,0,0.000920299,
8,0,0,0.0259397,0,0.000940635,
8.04171,0,0,0.0264497,0,0.000962003,
8.08368,0,0,0.0268317,0,0.000983124,
8.12617,0,0,0.0272479,0,0.00100262,
8.16946,0,0,0.027644,0,0.00102221,
8.21382,0,0,0.0280224,0,0.00104181,
8.25952,0,0,0.0283903,0,0.00106149,
8.30685,0,0,0.0287476,0,0.00108139,
8.35611,0,0,0.0290949,0,0.00110164,
8.40762,0,0,0.0294324,0,0.00112231,
8.46168,0,0,0.0297598,0,0.00114348,
8.51865,0,0,0.0300763,0,0.00116521,
8.57889,0,0,0.0303806,0,0.00118757,
8.64276,0,0,0.0306707,0,0.0012106,
8.71067,0,0,0.0309445,0,0.00123434,
8.78306,0,0,0.031199,0,0.00125881,
8.86037,0,0,0.0314309,0,0.00128404,
8.94309,0,0,0.0316363,0,0.00131004,
9.03174,0,0,0.0318106,0,0.00133679,
9.12689,0,0,0.0319491,0,0.00136429,
9.22912,0,0,0.0320462,0,0.00139249,
9.33908,0,0,0.0320962,0,0.00142135,
9.45746,0,0,0.0320929,0,0.00145081,
9.58501,0,0,0.0320301,0,0.00148078,
9.72253,0,0,0.0319014,0,0.00151118,
9.87088,0,0,0.0317007,0,0.00154189,
10.031,0,0,0.0314219,0,0.00157279,
10.2039,0,0,0.0310602,0,0.00160374,
10.3906,0,0,0.0306116,0,0.0016346,
10.5924,0,0,0.0300721,0,0.00166524,
10.8105,0,0,0.0294404,0,0.0016955,
11.0463,0,0,0.0287166,0,0.00172524,
11.3012,0,0,0.0279017,0,0.00175433,
11.5769,0,0,0.0270003,0,0.00178263,
11.8751,0,0,0.026018,0,0.00181005,
12.1977,0,0,0.0249636,0,0.00183648,
12.5466,0,0,0.0238471,0,0.00186186,
12.9242,0,0,0.0226809,0,0.00188613,
13.3327,0,0,0.0214795,0,0.00190927,
13.7748,0,0,0.0202581,0,0.00193127,
14.2532,0,0,0.0190332,0,0.00195214,
14.7709,0,0,0.0178211,0,0.00197193,
15.3312,0,0,0.0166385,0,0.00199067,
15.9377,0,0,0.0155,0,0.00200845,
16.594,0,0,0.014419,0,0.00202535,
17.3044,0,0,0.0134063,0,0.00204146,
18.0733,0,0,0.0124693,0,0.00205683,
18.9056,0,0,0.0116129,0,0.00207139,
19.8064,0,0,0.0108377,0,0.00208513,
20.7816,0,0,0.0101413,0,0.00209825,
21.8371,0,0,0.00951679,0,0.00211109,
22.9796,0,0,0.00895332,0,0.00212392,
24.2163,0,0,0.00843759,0,0.00213684,
25.5551,0,0,0.00795378,0,0.00214985,
27.0042,0,0,0.0074846,0,0.00216308,
28.5729,0,0,0.00701144,0,0.00217662,
30.271,0,0,0.00651515,0,0.00219049,
32.1091,0,0,0.00597771,0,0.00220465,
34.0989,0,0,0.0053833,0,0.00221906,
36.2529,0,0,0.00471383,0,0.00223359,
38.5845,0,0,0.00396044,0,0.00224817,
41.1085,0,0,0.0031574,0,0.00226263,
43.8407,0,0,0.00215303,0,0.00227481,
46.7983,0,0,0.00110793,0,0.00228269,
50,0,0,0.00200706,0,0.00229937,

