bb534684add2c5eeb3def641a815c7a46ac4e9d6 
X,Z,x_velocity,cp,uw_b,cf,
1,0,0,-0.221794,0,0,
1,9,0,-0.129962,0,0,
1,1.01284,0.481252,-0.204729,-0.00455603,0,
1,0.000308731,0.000314822,-0.221794,-2.17925e-15,0,
1,0.000654158,0.000656173,-0.221794,-9.5804e-14,0,
1,0.00104139,0.00102559,-0.221794,-1.22972e-12,0,
1,0.00147619,0.00142391,-0.221794,-8.39843e-12,0,
1,0.00196502,0.00185124,-0.221794,-3.96752e-11,0,
1,0.00251518,0.00230666,-0.221794,-1.47584e-10,0,
1,0.0031349,0.00278778,-0.221794,-4.63995e-10,0,
1,0.00383341,0.00329027,-0.221794,-1.28467e-09,0,
1,0.00462115,0.00380696,-0.221794,-3.20772e-09,0,
1,0.00550983,0.00432685,-0.221794,-7.30707e-09,0,
1,0.00651264,0.00483344,-0.221794,-1.51832e-08,0,
1,0.00764438,0.00530264,-0.221794,-2.82855e-08,0,
1,0.00892169,0.00569974,-0.221794,-4.46474e-08,0,
1,0.0103632,0.00597606,-0.221794,-4.81244e-08,0,
1,0.0119898,0.00606609,-0.221794,2.05879e-08,0,
1,0.0138248,0.00588869,-0.221793,3.2706e-07,0,
1,0.0158944,0.00535793,-0.221793,1.23998e-06,0,
1,0.0182274,0.00440766,-0.221792,3.3822e-06,0,
1,0.0208562,0.00301969,-0.22179,7.45345e-06,0,
1,0.0238164,0.00122982,-0.221787,1.37975e-05,0,
1,0.0271475,-0.000898152,-0.221783,2.2238e-05,0,
1,0.0308929,-0.00330593,-0.221777,3.23471e-05,0,
1,0.0351001,-0.0059609,-0.221768,4.34352e-05,0,
1,0.0398209,-0.00885463,-0.221757,5.50302e-05,0,
1,0.0451115,-0.0119897,-0.221743,6.67533e-05,0,
1,0.0510323,-0.0153683,-0.221727,7.82281e-05,0,
1,0.057648,-0.0189824,-0.221709,8.90215e-05,0,
1,0.0650269,-0.0228074,-0.22169,9.86214e-05,0,
1,0.0732406,-0.0267971,-0.221669,0.000106443,0,
1,0.0823632,-0.030882,-0.221649,0.000111863,0,
1,0.0924701,-0.0349709,-0.221631,0.000114265,0,
1,0.103636,-0.0389557,-0.221616,0.000113138,0,
1,0.115935,-0.04272,-0.221606,0.000108103,0,
1,0.129436,-0.0461501,-0.221604,9.89875e-05,0,
1,0.144202,-0.0491454,-0.221612,8.58533e-05,0,
1,0.160284,-0.0516268,-0.221632,6.89875e-05,0,
1,0.177724,-0.0535402,-0.221666,4.88539e-05,0,
1,0.196544,-0.0548575,-0.221713,2.60219e-05,0,
1,0.21675,-0.0555725,-0.221773,1.09706e-06,0,
1,0.238323,-0.055697,-0.221846,-2.53272e-05,0,
1,0.26122,-0.0552556,-0.221929,-5.269e-05,0,
1,0.28537,-0.0542823,-0.22202,-8.04598e-05,0,
1,0.310673,-0.0528173,-0.222116,-0.000108122,0,
1,0.337003,-0.050906,-0.222212,-0.00013517,0,
1,0.364206,-0.0485978,-0.222306,-0.000161106,0,
1,0.392107,-0.0459463,-0.222393,-0.000185455,0,
1,0.420509,-0.0430085,-0.222469,-0.000207751,0,
1,0.449206,-0.0398445,-0.222532,-0.000227558,0,
1,0.477982,-0.0365163,-0.222577,-0.000244496,0,
1,0.506624,-0.0330863,-0.222601,-0.000258266,0,
1,0.534925,-0.0296146,-0.222601,-0.000268698,0,
1,0.562692,-0.0261545,-0.222573,-0.000275824,0,
1,0.589754,-0.0227469,-0.222512,-0.000280011,0,
1,0.615961,-0.0194122,-0.222412,-0.000282138,0,
1,0.641193,-0.0161411,-0.222264,-0.000283895,0,
1,0.665359,-0.0128843,-0.222057,-0.000287913,0,
1,0.688396,-0.00954101,-0.22178,-0.000297937,0,
1,0.710271,-0.00595165,-0.221428,-0.0003212,0,
1,0.730976,-0.00185231,-0.220988,-0.000363726,0,
1,0.750529,0.00318186,-0.220461,-0.000436562,0,
1,0.768969,0.00974009,-0.219856,-0.000552643,0,
1,0.78635,0.0184916,-0.219194,-0.000728558,0,
1,0.802743,0.0299346,-0.218497,-0.00098971,0,
1,0.818232,0.0441429,-0.217795,-0.00135281,0,
1,0.832689,0.0605927,-0.217108,-0.00181093,0,
1,0.846039,0.0784657,-0.216458,-0.00233214,0,
1,0.858357,0.0970332,-0.21585,-0.00287519,0,
1,0.869723,0.115692,-0.215271,-0.00340077,0,
1,0.880212,0.134015,-0.214715,-0.00388414,0,
1,0.889898,0.151739,-0.214172,-0.00431338,0,
1,0.898852,0.168732,-0.213639,-0.00468639,0,
1,0.907141,0.184955,-0.213115,-0.005007,0,
1,0.914826,0.200427,-0.2126,-0.00528141,0,
1,0.921966,0.215199,-0.212091,-0.00551702,0,
1,0.928616,0.229342,-0.211573,-0.00571413,0,
1,0.934823,0.242948,-0.21103,-0.00587244,0,
1,0.940633,0.25612,-0.210458,-0.00599483,0,
1,0.946088,0.268952,-0.209864,-0.0060846,0,
1,0.951224,0.281525,-0.209263,-0.00614459,0,
1,0.956076,0.293901,-0.208671,-0.00617877,0,
1,0.960675,0.306128,-0.208102,-0.00618947,0,
1,0.965047,0.318241,-0.207564,-0.00617861,0,
1,0.969219,0.330268,-0.207065,-0.00614816,0,
1,0.973211,0.34223,-0.206608,-0.00609965,0,
1,0.977045,0.354139,-0.206198,-0.00603448,0,
1,0.980739,0.366004,-0.205836,-0.00595395,0,
1,0.984308,0.377828,-0.205524,-0.00585931,0,
1,0.987768,0.389607,-0.20526,-0.00575171,0,
1,0.991131,0.401339,-0.205046,-0.00563228,0,
1,0.99441,0.413014,-0.204877,-0.00550214,0,
1,0.997615,0.424622,-0.204754,-0.00536237,0,
1,1.00076,0.436154,-0.204673,-0.00521402,0,
1,1.00384,0.447596,-0.204632,-0.00505817,0,
1,1.00688,0.458935,-0.20463,-0.00489584,0,
1,1.00988,0.470158,-0.204662,-0.00472822,0,
1,1.01581,0.492326,-0.204828,-0.00437806,0,
1,1.01882,0.503482,-0.204959,-0.00419401,0,
1,1.02188,0.514707,-0.205124,-0.00400487,0,
1,1.025,0.525985,-0.20532,-0.00381158,0,
1,1.02818,0.537296,-0.205548,-0.00361545,0,
1,1.03144,0.548622,-0.205808,-0.00341805,0,
1,1.03478,0.559939,-0.206098,-0.00322123,0,
1,1.03822,0.57122,-0.206418,-0.00302712,0,
1,1.04177,0.582432,-0.206765,-0.00283816,0,
1,1.04544,0.593537,-0.207137,-0.002657,0,
1,1.04925,0.604487,-0.207531,-0.00248697,0,
1,1.05321,0.615233,-0.207943,-0.00233105,0,
1,1.05735,0.625752,-0.208371,-0.00218331,0,
1,1.06169,0.636035,-0.20881,-0.00204497,0,
1,1.06626,0.646062,-0.209258,-0.0019154,0,
1,1.07108,0.655811,-0.209711,-0.00179463,0,
1,1.07618,0.665256,-0.210169,-0.00168313,0,
1,1.0816,0.67438,-0.210628,-0.00158194,0,
1,1.08738,0.683168,-0.211085,-0.00149372,0,
1,1.09357,0.691614,-0.211538,-0.0014211,0,
1,1.10022,0.699733,-0.211985,-0.00136374,0,
1,1.10739,0.707571,-0.212422,-0.00132017,0,
1,1.11514,0.71519,-0.212848,-0.00128826,0,
1,1.12354,0.72266,-0.213259,-0.00126524,0,
1,1.13268,0.730041,-0.213649,-0.00124824,0,
1,1.14266,0.73739,-0.214012,-0.00123464,0,
1,1.15357,0.744752,-0.214341,-0.00122226,0,
1,1.16554,0.752163,-0.214629,-0.00120947,0,
1,1.1787,0.759651,-0.214865,-0.0011952,0,
1,1.1932,0.767239,-0.215043,-0.00117892,0,
1,1.2092,0.774945,-0.215154,-0.00116065,0,
1,1.22689,0.782789,-0.215191,-0.00114039,0,
1,1.24659,0.790827,-0.215142,-0.00111787,0,
1,1.26879,0.799159,-0.21501,-0.00109438,0,
1,1.29378,0.807794,-0.214775,-0.00107062,0,
1,1.3219,0.81675,-0.214448,-0.00104748,0,
1,1.35351,0.826066,-0.21399,-0.00101228,0,
1,1.389,0.835777,-0.213409,-0.000967972,0,
1,1.42882,0.845903,-0.212726,-0.000929275,0,
1,1.47342,0.856501,-0.211923,-0.000892157,0,
1,1.52332,0.867659,-0.210989,-0.000854273,0,
1,1.57905,0.879474,-0.209912,-0.000813243,0,
1,1.64119,0.892065,-0.208675,-0.000766769,0,
1,1.71033,0.905557,-0.207261,-0.000712469,0,
1,1.78711,0.920064,-0.205648,-0.0006477,0,
1,1.87215,0.93563,-0.203816,-0.000570486,0,
1,1.9661,0.952111,-0.201745,-0.000481378,0,
1,2.06959,0.969,-0.199401,-0.000385355,0,
1,2.18321,0.985341,-0.196805,-0.000280195,0,
1,2.30752,0.999841,-0.193986,-0.000146944,0,
1,2.44299,1.01094,-0.190912,-5.137e-05,0,
1,2.59002,1.01719,-0.187627,-6.25732e-06,0,
1,2.74885,1.01839,-0.184202,8.91306e-07,0,
1,2.91959,1.01625,-0.180691,9.47512e-08,0,
1,3.10217,1.01325,-0.177144,5.17846e-08,0,
1,3.2963,1.01079,-0.173599,4.1044e-08,0,
1,3.50146,1.00906,-0.170082,3.29145e-08,0,
1,3.7169,1.00767,-0.166625,2.90159e-08,0,
1,3.94163,1.00632,-0.163259,2.73099e-08,0,
1,4.17441,1.00495,-0.160014,2.5848e-08,0,
1,4.41376,1.0036,-0.156915,2.40677e-08,0,
1,4.65805,1.00233,-0.153981,2.20927e-08,0,
1,4.90545,1.00116,-0.151229,2.01801e-08,0,
1,5.15407,1.00009,-0.148669,1.84091e-08,0,
1,5.40194,0.999112,-0.146309,1.68312e-08,0,
1,5.64716,0.99823,-0.144152,1.55202e-08,0,
1,5.88785,0.997415,-0.142197,1.45776e-08,0,
1,6.12229,0.996634,-0.14044,1.37791e-08,0,
1,6.34896,0.995919,-0.138872,1.23048e-08,0,
1,6.56652,0.995461,-0.137485,9.74018e-09,0,
1,6.77388,0.995563,-0.136263,3.5421e-09,0,
1,6.97022,0.996187,-0.135194,1.64625e-08,0,
1,7.15495,0.996187,-0.13426,1.76879e-06,0,
1,7.32773,0.993078,-0.133451,1.84228e-05,0,
1,7.48842,0.984287,-0.132763,7.77693e-05,0,
1,7.63711,0.969302,-0.132195,0.000210836,0,
1,7.77403,0.950183,-0.131714,0.000406339,0,
1,7.89956,0.929337,-0.131313,0.000562841,0,
1,8.01417,0.90831,-0.131003,0.000715009,0,
1,8.11843,0.888188,-0.130746,0.000844733,0,
1,8.21296,0.869437,-0.130546,0.000948037,0,
1,8.29839,0.852086,-0.13039,0.00102826,0,
1,8.3754,0.835918,-0.130267,0.00108781,0,
1,8.44464,0.820586,-0.130171,0.00112806,0,
1,8.50675,0.805815,-0.130101,0.0011661,0,
1,8.56236,0.791464,-0.130046,0.00119925,0,
1,8.61206,0.777433,-0.130007,0.00122774,0,
1,8.6564,0.763645,-0.129978,0.00125213,0,
1,8.69591,0.75004,-0.129957,0.00127287,0,
1,8.73107,0.736571,-0.129943,0.00129036,0,
1,8.76232,0.723199,-0.129934,0.00130493,0,
1,8.79007,0.709893,-0.129929,0.00131685,0,
1,8.81469,0.696626,-0.129926,0.00132632,0,
1,8.83651,0.683376,-0.129925,0.00133352,0,
1,8.85584,0.670121,-0.129926,0.00133859,0,
1,8.87295,0.656843,-0.129927,0.00134167,0,
1,8.8881,0.643521,-0.12993,0.00134286,0,
1,8.90149,0.630136,-0.129932,0.00134225,0,
1,8.91333,0.616664,-0.129935,0.00133991,0,
1,8.92379,0.603081,-0.129938,0.00133589,0,
1,8.93303,0.58936,-0.12994,0.00133021,0,
1,8.9412,0.575467,-0.129943,0.00132287,0,
1,8.9484,0.561367,-0.129945,0.00131379,0,
1,8.95476,0.547015,-0.129948,0.00130289,0,
1,8.96038,0.532361,-0.12995,0.00128997,0,
1,8.96533,0.517347,-0.129952,0.00127478,0,
1,8.9697,0.501901,-0.129953,0.00125694,0,
1,8.97356,0.485942,-0.129955,0.00123593,0,
1,8.97696,0.46937,-0.129956,0.00121104,0,
1,8.97996,0.452067,-0.129957,0.00118129,0,
1,8.98261,0.433892,-0.129958,0.0011454,0,
1,8.98494,0.414672,-0.129959,0.00110257,0,
1,8.98699,0.394168,-0.129959,0.00104666,0,
1,8.98881,0.372069,-0.12996,0.000975438,0,
1,8.99041,0.348085,-0.12996,0.000888133,0,
1,8.99182,0.321997,-0.129961,0.000782384,0,
1,8.99306,0.293647,-0.129961,0.000654765,0,
1,8.99416,0.262891,-0.129961,0.000496009,0,
1,8.99512,0.229899,-0.129961,0.000327186,0,
1,8.99597,0.195642,-0.129961,0.000177768,0,
1,8.99672,0.161777,-0.129961,7.65697e-05,0,
1,8.99739,0.129963,-0.129961,2.58715e-05,0,
1,8.99797,0.101148,-0.129961,6.83889e-06,0,
1,8.99848,0.075533,-0.129962,1.36862e-06,0,
1,8.99894,0.0529226,-0.129961,1.86711e-07,0,
1,8.99934,0.0330041,-0.129962,1.35359e-08,0,
1,8.99969,0.0154627,-0.129961,2.89597e-10,0,

4,0,0,-0.171428,0,0,
4,9,0,-0.100075,0,0,
4,1.05136,0.691672,-0.172208,-0.00395287,0,
4,0.000303409,-0.00848826,-0.171429,6.30508e-11,0,
4,0.00062865,-0.0174513,-0.171428,2.59065e-09,0,
4,0.000979511,-0.0269655,-0.171429,3.04018e-08,0,
4,0.00136016,-0.0371039,-0.171428,1.90092e-07,0,
4,0.00177519,-0.047935,-0.171429,8.26766e-07,0,
4,0.0022297,-0.059513,-0.171429,2.84252e-06,0,
4,0.00272934,-0.0718541,-0.171429,8.24586e-06,0,
4,0.00328037,-0.0848887,-0.171429,2.08117e-05,0,
4,0.00388979,-0.0983818,-0.17143,4.60765e-05,0,
4,0.00456537,-0.111851,-0.17143,8.8969e-05,0,
4,0.00531578,-0.124582,-0.171431,0.000148527,0,
4,0.0061507,-0.135847,-0.171433,0.00021448,0,
4,0.0070809,-0.145203,-0.171436,0.000272031,0,
4,0.00811839,-0.152618,-0.17144,0.000310848,0,
4,0.00927657,-0.158339,-0.171447,0.000328561,0,
4,0.0105703,-0.162702,-0.171456,0.000327893,0,
4,0.0120162,-0.166016,-0.171468,0.00031281,0,
4,0.0136326,-0.168522,-0.171483,0.000286566,0,
4,0.0154398,-0.170399,-0.171502,0.000251296,0,
4,0.0174603,-0.17177,-0.171525,0.000208201,0,
4,0.0197189,-0.172724,-0.171553,0.000157834,0,
4,0.0222427,-0.173321,-0.171587,0.000100315,0,
4,0.0250617,-0.173603,-0.171627,3.54725e-05,0,
4,0.0282081,-0.173597,-0.171673,-3.70619e-05,0,
4,0.0317171,-0.173321,-0.171727,-0.000117802,0,
4,0.0356266,-0.172785,-0.171789,-0.000207368,0,
4,0.039977,-0.171994,-0.171861,-0.000306463,0,
4,0.0448114,-0.170945,-0.171943,-0.000415851,0,
4,0.0501747,-0.169634,-0.172035,-0.000536341,0,
4,0.056114,-0.168051,-0.17214,-0.000668766,0,
4,0.062677,-0.166184,-0.172257,-0.000813961,0,
4,0.0699123,-0.164017,-0.172387,-0.00097274,0,
4,0.0778675,-0.161533,-0.172531,-0.00114587,0,
4,0.0865883,-0.158711,-0.172688,-0.00133403,0,
4,0.0961173,-0.155527,-0.172859,-0.00153779,0,
4,0.106492,-0.151955,-0.173044,-0.00175756,0,
4,0.117744,-0.147969,-0.173242,-0.00199353,0,
4,0.129894,-0.143539,-0.173453,-0.00224567,0,
4,0.142956,-0.138637,-0.173676,-0.00251366,0,
4,0.156928,-0.133234,-0.17391,-0.00279685,0,
4,0.171798,-0.127302,-0.174153,-0.00309427,0,
4,0.187537,-0.120815,-0.174406,-0.00340455,0,
4,0.2041,-0.113754,-0.174666,-0.00372601,0,
4,0.221432,-0.106104,-0.174932,-0.00405659,0,
4,0.239458,-0.0978559,-0.175204,-0.00439399,0,
4,0.258095,-0.0890116,-0.175479,-0.00473564,0,
4,0.27725,-0.0795819,-0.175758,-0.00507885,0,
4,0.296825,-0.0695888,-0.176037,-0.0054209,0,
4,0.316717,-0.0590654,-0.176316,-0.00575911,0,
4,0.336828,-0.0480567,-0.176596,-0.00609129,0,
4,0.357066,-0.0366178,-0.176862,-0.00641539,0,
4,0.377348,-0.0248146,-0.177159,-0.00674724,0,
4,0.397605,-0.0126606,-0.17736,-0.00714355,0,
4,0.417786,0.000166054,-0.177365,-0.00734251,0,
4,0.437857,0.0140768,-0.177339,-0.00754882,0,
4,0.457804,0.0291163,-0.177359,-0.00775116,0,
4,0.477632,0.0451371,-0.177414,-0.00793782,0,
4,0.497368,0.0619589,-0.177493,-0.00810245,0,
4,0.517057,0.0794606,-0.177575,-0.00824186,0,
4,0.536763,0.0976087,-0.17765,-0.00835484,0,
4,0.556564,0.116444,-0.177711,-0.00844017,0,
4,0.576557,0.136055,-0.177756,-0.00849557,0,
4,0.596848,0.156557,-0.177778,-0.00851768,0,
4,0.617561,0.17808,-0.177777,-0.00850296,0,
4,0.637962,0.199914,-0.177731,-0.0084525,0,
4,0.657495,0.22149,-0.177641,-0.00837352,0,
4,0.676218,0.242862,-0.177513,-0.00827466,0,
4,0.694189,0.264096,-0.177355,-0.00816582,0,
4,0.711463,0.285249,-0.17719,-0.00805601,0,
4,0.728096,0.306335,-0.177039,-0.00795166,0,
4,0.744138,0.327302,-0.176924,-0.00785601,0,
4,0.759639,0.348022,-0.176855,-0.00776852,0,
4,0.774643,0.368322,-0.176827,-0.00768495,0,
4,0.789195,0.388024,-0.176825,-0.00759693,0,
4,0.803334,0.406987,-0.176833,-0.0075015,0,
4,0.817097,0.425116,-0.176835,-0.00739788,0,
4,0.830518,0.442366,-0.176818,-0.00728659,0,
4,0.843629,0.458751,-0.176763,-0.00716818,0,
4,0.856459,0.474329,-0.17666,-0.00704278,0,
4,0.869035,0.489196,-0.176506,-0.00691403,0,
4,0.881383,0.503454,-0.17631,-0.0067856,0,
4,0.893524,0.517198,-0.176083,-0.00666072,0,
4,0.905481,0.530507,-0.175837,-0.00654184,0,
4,0.917272,0.543444,-0.175583,-0.00643059,0,
4,0.928915,0.556061,-0.175329,-0.00632781,0,
4,0.940428,0.568421,-0.175072,-0.0062337,0,
4,0.951826,0.580627,-0.174817,-0.00613201,0,
4,0.963124,0.592852,-0.174548,-0.00596746,0,
4,0.974334,0.605187,-0.174265,-0.00580275,0,
4,0.98547,0.617606,-0.173982,-0.00560943,0,
4,0.996544,0.630077,-0.173693,-0.00538868,0,
4,1.00757,0.642564,-0.173402,-0.00514259,0,
4,1.01855,0.655021,-0.173108,-0.00487314,0,
4,1.0295,0.6674,-0.17281,-0.00458279,0,
4,1.04044,0.67964,-0.17251,-0.0042748,0,
4,1.0623,0.703436,-0.171903,-0.00362108,0,
4,1.07328,0.714858,-0.171593,-0.00328473,0,
4,1.08432,0.725837,-0.171279,-0.00295028,0,
4,1.09543,0.736266,-0.170961,-0.00262492,0,
4,1.10661,0.746044,-0.170636,-0.00231621,0,
4,1.11788,0.755085,-0.170306,-0.00203134,0,
4,1.12925,0.763331,-0.169969,-0.00177625,0,
4,1.14073,0.770763,-0.169625,-0.00155492,0,
4,1.15233,0.777404,-0.169273,-0.00136887,0,
4,1.16408,0.783317,-0.168913,-0.00121725,0,
4,1.17599,0.788595,-0.168546,-0.00109721,0,
4,1.18806,0.793341,-0.168171,-0.00100471,0,
4,1.20034,0.797661,-0.167788,-0.000935212,0,
4,1.21282,0.801652,-0.167399,-0.000884192,0,
4,1.22554,0.805394,-0.167002,-0.000847564,0,
4,1.23852,0.808956,-0.166597,-0.000821855,0,
4,1.25179,0.812392,-0.166185,-0.000804195,0,
4,1.26537,0.815743,-0.165765,-0.000792463,0,
4,1.2793,0.819044,-0.165335,-0.000784988,0,
4,1.29362,0.822322,-0.164897,-0.000780053,0,
4,1.30836,0.8256,-0.164448,-0.000776671,0,
4,1.32357,0.828899,-0.163987,-0.000774128,0,
4,1.3393,0.832235,-0.163513,-0.000773579,0,
4,1.3556,0.83564,-0.163033,-0.000767942,0,
4,1.37252,0.839147,-0.162544,-0.000760141,0,
4,1.39015,0.842776,-0.162034,-0.000752322,0,
4,1.40855,0.846533,-0.161504,-0.000744108,0,
4,1.42781,0.850423,-0.160952,-0.00073543,0,
4,1.44801,0.854459,-0.160378,-0.000726278,0,
4,1.46926,0.858655,-0.159779,-0.000716591,0,
4,1.49167,0.863031,-0.159154,-0.000706293,0,
4,1.51537,0.867609,-0.158501,-0.000695164,0,
4,1.54091,0.872485,-0.157802,-0.000682787,0,
4,1.56949,0.877861,-0.157032,-0.000668937,0,
4,1.60144,0.883794,-0.156181,-0.000653232,0,
4,1.63713,0.890321,-0.155246,-0.000635066,0,
4,1.67693,0.897469,-0.154219,-0.000613992,0,
4,1.72128,0.905255,-0.153095,-0.000589557,0,
4,1.77062,0.913681,-0.151869,-0.000561207,0,
4,1.82542,0.922719,-0.150535,-0.000528591,0,
4,1.88618,0.932317,-0.149089,-0.000491356,0,
4,1.95343,0.942428,-0.147537,-0.000430095,0,
4,2.02768,0.952908,-0.145878,-0.000358956,0,
4,2.10949,0.963397,-0.144106,-0.00027952,0,
4,2.19939,0.973361,-0.142229,-0.000197748,0,
4,2.29789,0.982151,-0.140255,-0.000121876,0,
4,2.40551,0.989071,-0.138201,-6.00799e-05,0,
4,2.52268,0.993531,-0.136086,-1.85487e-05,0,
4,2.64979,0.995285,-0.133935,1.52805e-06,0,
4,2.78715,0.994658,-0.131776,5.42243e-06,0,
4,2.93497,0.992562,-0.12963,2.7171e-06,0,
4,3.09333,0.99016,-0.127518,5.83982e-07,0,
4,3.26217,0.988309,-0.125455,6.83279e-08,0,
4,3.44125,0.987218,-0.123452,2.04407e-08,0,
4,3.63018,0.986613,-0.121519,1.47513e-08,0,
4,3.82836,0.986136,-0.119663,1.33226e-08,0,
4,4.03501,0.985593,-0.11789,1.31625e-08,0,
4,4.24915,0.984974,-0.116206,1.28095e-08,0,
4,4.46961,0.984344,-0.114613,1.19513e-08,0,
4,4.69507,0.983755,-0.113116,1.08099e-08,0,
4,4.92406,0.983227,-0.111713,9.70706e-09,0,
4,5.15502,0.982753,-0.110407,8.79419e-09,0,
4,5.3863,0.982322,-0.109196,8.18813e-09,0,
4,5.61626,0.981919,-0.108081,8.09978e-09,0,
4,5.84328,0.981527,-0.107058,9.19852e-09,0,
4,6.06579,0.981144,-0.106127,1.34441e-08,0,
4,6.28238,0.980835,-0.105283,2.30962e-08,0,
4,6.49173,0.98076,-0.104524,1.80728e-08,0,
4,6.69275,0.981082,-0.103844,-1.02515e-07,0,
4,6.88453,0.981643,-0.103236,-2.29012e-08,0,
4,7.06634,0.981503,-0.102693,4.63299e-06,0,
4,7.23771,0.978812,-0.102215,2.84077e-05,0,
4,7.39831,0.971516,-0.101797,9.24363e-05,0,
4,7.54803,0.958671,-0.101447,0.00021104,0,
4,7.68693,0.941182,-0.10115,0.000368026,0,
4,7.81519,0.920993,-0.100893,0.000511787,0,
4,7.93313,0.899992,-0.100686,0.000659828,0,
4,8.04115,0.879625,-0.100511,0.000794613,0,
4,8.13974,0.860615,-0.100369,0.000906616,0,
4,8.22941,0.843091,-0.100259,0.000995475,0,
4,8.31073,0.826815,-0.100172,0.00105936,0,
4,8.38429,0.811385,-0.100107,0.0011051,0,
4,8.45065,0.796519,-0.100063,0.00114859,0,
4,8.5104,0.782083,-0.100029,0.00118645,0,
4,8.56407,0.767986,-0.100007,0.00121906,0,
4,8.61222,0.754152,-0.0999926,0.00124703,0,
4,8.65533,0.740524,-0.0999848,0.00127084,0,
4,8.69387,0.727057,-0.0999814,0.00129085,0,
4,8.7283,0.713717,-0.0999817,0.00130733,0,
4,8.75901,0.700477,-0.0999844,0.00132052,0,
4,8.78637,0.687316,-0.0999889,0.00133062,0,
4,8.81074,0.674219,-0.0999944,0.00133782,0,
4,8.83242,0.66117,-0.100001,0.00134229,0,
4,8.85169,0.648157,-0.100007,0.00134422,0,
4,8.86881,0.635166,-0.100014,0.00134379,0,
4,8.88402,0.622184,-0.10002,0.00134118,0,
4,8.89751,0.609194,-0.100026,0.00133656,0,
4,8.90949,0.596178,-0.100032,0.00133009,0,
4,8.92011,0.583115,-0.100037,0.0013219,0,
4,8.92952,0.569979,-0.100042,0.00131213,0,
4,8.93787,0.556742,-0.100047,0.00130083,0,
4,8.94526,0.543369,-0.100051,0.00128806,0,
4,8.95182,0.52982,-0.100054,0.00127379,0,
4,8.95762,0.51605,-0.100057,0.00125794,0,
4,8.96276,0.502006,-0.10006,0.00124035,0,
4,8.96731,0.487625,-0.100063,0.00122076,0,
4,8.97134,0.472836,-0.100065,0.00119879,0,
4,8.97491,0.457553,-0.100066,0.00117392,0,
4,8.97807,0.441678,-0.100068,0.0011454,0,
4,8.98087,0.425091,-0.100069,0.00111227,0,
4,8.98334,0.407651,-0.10007,0.0010732,0,
4,8.98553,0.389189,-0.100071,0.00102693,0,
4,8.98747,0.369488,-0.100072,0.00096949,0,
4,8.98919,0.348265,-0.100073,0.000896386,0,
4,8.9907,0.325248,-0.100073,0.000808438,0,
4,8.99205,0.30025,-0.100074,0.000703962,0,
4,8.99324,0.273095,-0.100074,0.000574199,0,
4,8.99429,0.243703,-0.100074,0.00042351,0,
4,8.99522,0.21244,-0.100074,0.000269966,0,
4,8.99605,0.180363,-0.100074,0.000141678,0,
4,8.99677,0.149023,-0.100074,5.9463e-05,0,
4,8.99742,0.119793,-0.100074,1.98522e-05,0,
4,8.99799,0.0933718,-0.100075,5.24836e-06,0,
4,8.9985,0.0698531,-0.100074,1.05788e-06,0,
4,8.99894,0.049036,-0.100075,1.45771e-07,0,
4,8.99934,0.030638,-0.100075,1.06761e-08,0,
4,8.99969,0.0143805,-0.100075,2.30123e-10,0,

6,0,0,-0.0150969,0,0,
6,9,0,-0.0763748,0,0,
6,1.07704,0.726093,-0.0294765,-0.00156553,0,
6,0.000299862,-0.000606854,-0.0151041,4.78529e-12,0,
6,0.000611645,-0.00115409,-0.0150984,1.60695e-10,0,
6,0.000938257,-0.00163631,-0.0151039,1.45791e-09,0,
6,0.00128281,-0.00204514,-0.0150996,6.6396e-09,0,
6,0.00164864,-0.00236827,-0.0151041,1.90018e-08,0,
6,0.00203939,-0.00258874,-0.0151008,3.38255e-08,0,
6,0.00245897,-0.00268437,-0.0151044,1.09642e-08,0,
6,0.00291168,-0.0026279,-0.015102,-1.93071e-07,0,
6,0.00340221,-0.00238944,-0.0151052,-9.596e-07,0,
6,0.00393573,-0.00194368,-0.0151037,-3.09017e-06,0,
6,0.00451788,-0.00128375,-0.0151072,-7.8538e-06,0,
6,0.00515491,-0.000435716,-0.0151077,-1.65556e-05,0,
6,0.00585371,0.000542284,-0.0151132,-2.96863e-05,0,
6,0.00662185,0.0015835,-0.0151174,-4.65649e-05,0,
6,0.00746774,0.00263839,-0.0151272,-6.60098e-05,0,
6,0.00840063,0.00368249,-0.0151374,-8.71747e-05,0,
6,0.00943073,0.00471,-0.0151532,-0.000109774,0,
6,0.0105693,0.00572512,-0.015171,-0.000133902,0,
6,0.0118288,0.00673611,-0.0151946,-0.000159836,0,
6,0.0132228,0.00775248,-0.0152218,-0.000187922,0,
6,0.0147664,0.00878374,-0.0152552,-0.000218536,0,
6,0.016476,0.00983904,-0.0152937,-0.00025207,0,
6,0.0183694,0.0109271,-0.0153395,-0.000288933,0,
6,0.0204662,0.0120565,-0.0153922,-0.000329555,0,
6,0.0227875,0.0132355,-0.0154534,-0.000374391,0,
6,0.0253561,0.0144724,-0.0155234,-0.000423928,0,
6,0.0281964,0.0157756,-0.0156036,-0.00047868,0,
6,0.0313344,0.0171536,-0.0156947,-0.000539195,0,
6,0.0347975,0.0186152,-0.0157978,-0.000606054,0,
6,0.0386145,0.0201698,-0.0159138,-0.000679862,0,
6,0.042815,0.0218267,-0.0160436,-0.000761254,0,
6,0.0474296,0.0235961,-0.016188,-0.000850878,0,
6,0.0524888,0.0254882,-0.0163478,-0.000949391,0,
6,0.0580229,0.027514,-0.0165234,-0.00105744,0,
6,0.0640611,0.0296848,-0.016715,-0.00117567,0,
6,0.0706309,0.0320121,-0.0169225,-0.00130466,0,
6,0.077757,0.0345079,-0.0171454,-0.00144493,0,
6,0.0854609,0.0371845,-0.0173829,-0.00159695,0,
6,0.0937597,0.0400543,-0.0176337,-0.00176104,0,
6,0.102665,0.0431296,-0.0178961,-0.0019374,0,
6,0.112183,0.0464226,-0.018168,-0.0021261,0,
6,0.122315,0.0499456,-0.0184468,-0.00232701,0,
6,0.133052,0.0537102,-0.01873,-0.00253983,0,
6,0.144384,0.0577278,-0.0190146,-0.00276409,0,
6,0.156292,0.0620095,-0.0192979,-0.00299914,0,
6,0.168754,0.0665661,-0.0195771,-0.00324418,0,
6,0.181744,0.0714084,-0.0198498,-0.00349829,0,
6,0.195237,0.0765478,-0.0201136,-0.00376048,0,
6,0.209207,0.0819966,-0.020367,-0.00402969,0,
6,0.223631,0.0877688,-0.0206085,-0.00430488,0,
6,0.238493,0.0938812,-0.0208373,-0.00458505,0,
6,0.253785,0.100354,-0.021053,-0.00486929,0,
6,0.269507,0.107214,-0.0212555,-0.00515679,0,
6,0.28567,0.114493,-0.0214452,-0.00544685,0,
6,0.3023,0.12223,-0.0216227,-0.0057389,0,
6,0.319433,0.130476,-0.0217889,-0.00603248,0,
6,0.337122,0.139292,-0.0219451,-0.00632715,0,
6,0.355433,0.148751,-0.0220925,-0.00662307,0,
6,0.374445,0.158945,-0.0222361,-0.00692067,0,
6,0.394252,0.169988,-0.0223536,-0.0072163,0,
6,0.414961,0.182023,-0.0225248,-0.00752648,0,
6,0.436695,0.19528,-0.0225574,-0.00790179,0,
6,0.459585,0.210337,-0.0222699,-0.00801039,0,
6,0.48378,0.227844,-0.0219217,-0.00811336,0,
6,0.508144,0.247012,-0.0217712,-0.00820281,0,
6,0.531799,0.26683,-0.021748,-0.00825144,0,
6,0.554791,0.286968,-0.0217826,-0.00824906,0,
6,0.577166,0.307251,-0.021826,-0.00819552,0,
6,0.598964,0.327623,-0.0218676,-0.0080967,0,
6,0.620228,0.348057,-0.0219212,-0.00796016,0,
6,0.640996,0.368495,-0.0220065,-0.0077928,0,
6,0.661304,0.388824,-0.0221353,-0.00759977,0,
6,0.681188,0.408902,-0.0223072,-0.00738415,0,
6,0.700681,0.428592,-0.0225117,-0.00714786,0,
6,0.719813,0.447801,-0.0227345,-0.00689295,0,
6,0.738612,0.466482,-0.0229637,-0.00662237,0,
6,0.757107,0.484625,-0.023193,-0.00634005,0,
6,0.775322,0.502238,-0.0234229,-0.00605069,0,
6,0.793282,0.519327,-0.023659,-0.0057591,0,
6,0.811008,0.535882,-0.0239078,-0.00546963,0,
6,0.828521,0.551871,-0.0241745,-0.00518578,0,
6,0.845842,0.567245,-0.0244606,-0.00491446,0,
6,0.862989,0.581959,-0.0247644,-0.00465491,0,
6,0.879979,0.596005,-0.0250827,-0.00440574,0,
6,0.896829,0.609414,-0.0254128,-0.0041653,0,
6,0.913555,0.622246,-0.0257513,-0.00393154,0,
6,0.930172,0.634591,-0.0260971,-0.00370156,0,
6,0.946694,0.646571,-0.0264438,-0.00344947,0,
6,0.963136,0.658254,-0.0267951,-0.00319638,0,
6,0.97951,0.669593,-0.0271569,-0.00294022,0,
6,0.99583,0.680506,-0.0275259,-0.00268204,0,
6,1.01211,0.690913,-0.0279032,-0.00242766,0,
6,1.02836,0.700731,-0.0282874,-0.00218326,0,
6,1.04459,0.709895,-0.0286784,-0.00195485,0,
6,1.06081,0.718355,-0.0290749,-0.00174768,0,
6,1.09329,0.733126,-0.0298823,-0.00141037,0,
6,1.10959,0.7395,-0.0302919,-0.0012823,0,
6,1.12595,0.745287,-0.0307047,-0.00117975,0,
6,1.14238,0.750568,-0.0311201,-0.00109989,0,
6,1.1589,0.755433,-0.031538,-0.00103928,0,
6,1.17551,0.759965,-0.0319577,-0.000994273,0,
6,1.19223,0.764237,-0.0323798,-0.000961847,0,
6,1.20907,0.768316,-0.0328026,-0.000944871,0,
6,1.22605,0.772315,-0.0332345,-0.000918185,0,
6,1.24318,0.776355,-0.0336778,-0.000894262,0,
6,1.26048,0.780472,-0.0341236,-0.000873775,0,
6,1.27797,0.784637,-0.0345708,-0.00085676,0,
6,1.29566,0.788803,-0.0350173,-0.000842596,0,
6,1.31357,0.79294,-0.0354646,-0.000830091,0,
6,1.33173,0.797049,-0.0359141,-0.000818338,0,
6,1.35015,0.80115,-0.0363679,-0.000806933,0,
6,1.36886,0.805261,-0.036827,-0.000795723,0,
6,1.38788,0.809396,-0.037292,-0.000784642,0,
6,1.40725,0.813562,-0.0377629,-0.000773567,0,
6,1.42698,0.817766,-0.0382398,-0.000762279,0,
6,1.44712,0.822011,-0.038723,-0.000750561,0,
6,1.46769,0.826307,-0.0392129,-0.000738245,0,
6,1.48874,0.830659,-0.0397101,-0.000725221,0,
6,1.5103,0.835077,-0.0402152,-0.000711494,0,
6,1.53242,0.839564,-0.0407291,-0.000697114,0,
6,1.55515,0.844127,-0.0412523,-0.000682053,0,
6,1.57854,0.848769,-0.0417858,-0.00066629,0,
6,1.60265,0.853495,-0.0423303,-0.000649815,0,
6,1.62754,0.858306,-0.042887,-0.000632626,0,
6,1.65329,0.863205,-0.0434565,-0.000614721,0,
6,1.67998,0.868196,-0.0440405,-0.000596068,0,
6,1.70768,0.87328,-0.0446389,-0.00057687,0,
6,1.73712,0.878559,-0.0452688,-0.000557136,0,
6,1.76996,0.884266,-0.0459604,-0.000535619,0,
6,1.80655,0.890436,-0.0467187,-0.000511944,0,
6,1.84728,0.897045,-0.0475491,-0.000486151,0,
6,1.89255,0.904052,-0.048449,-0.000457832,0,
6,1.9428,0.911442,-0.0494314,-0.000417701,0,
6,1.99849,0.91919,-0.0504984,-0.00036531,0,
6,2.06009,0.927144,-0.0516404,-0.000307336,0,
6,2.1281,0.935018,-0.0528617,-0.000245667,0,
6,2.20301,0.942478,-0.0541547,-0.000184511,0,
6,2.28535,0.949165,-0.0555133,-0.000128023,0,
6,2.37559,0.954719,-0.0569259,-7.99085e-05,0,
6,2.47424,0.958839,-0.0583782,-4.30867e-05,0,
6,2.58172,0.961376,-0.0598526,-1.88552e-05,0,
6,2.69844,0.962422,-0.0613293,-6.10701e-06,0,
6,2.82473,0.962362,-0.0627881,-1.36439e-06,0,
6,2.96084,0.961795,-0.0642101,-3.80264e-07,0,
6,3.10691,0.961338,-0.0655798,-2.60822e-07,0,
6,3.26296,0.961383,-0.0668852,-1.35925e-07,0,
6,3.42888,0.961968,-0.068117,-4.73101e-08,0,
6,3.60438,0.962867,-0.069267,-2.21835e-08,0,
6,3.78902,0.963792,-0.0703272,-1.72853e-08,0,
6,3.98218,0.964564,-0.0712912,-1.39969e-08,0,
6,4.18307,0.96515,-0.0721553,-1.12216e-08,0,
6,4.39071,0.965606,-0.0729185,-9.32988e-09,0,
6,4.60398,0.965995,-0.0735825,-8.09614e-09,0,
6,4.82159,0.966354,-0.0741513,-7.19985e-09,0,
6,5.04218,0.966685,-0.0746306,-6.46829e-09,0,
6,5.26426,0.966979,-0.0750276,-5.979e-09,0,
6,5.48633,0.967225,-0.0753504,-6.06027e-09,0,
6,5.70687,0.967414,-0.0756077,-7.493e-09,0,
6,5.92439,0.967552,-0.0758084,-1.27058e-08,0,
6,6.1375,0.967682,-0.0759614,-3.33839e-08,0,
6,6.34489,0.967917,-0.0760746,-1.27235e-07,0,
6,6.5454,0.968396,-0.0761551,-4.66703e-07,0,
6,6.73802,0.969102,-0.0762085,-1.01066e-06,0,
6,6.92195,0.96953,-0.0762403,8.32155e-07,0,
6,7.09653,0.968435,-0.0762545,1.47761e-05,0,
6,7.26132,0.964054,-0.07626,5.79089e-05,0,
6,7.41603,0.95492,-0.0762525,0.000145944,0,
6,7.56054,0.940798,-0.0762528,0.000282947,0,
6,7.6949,0.922737,-0.076251,0.000412354,0,
6,7.81927,0.902383,-0.0762304,0.00054795,0,
6,7.93391,0.881541,-0.0762156,0.000685316,0,
6,8.0392,0.861592,-0.0761927,0.000808662,0,
6,8.13555,0.843138,-0.0761742,0.00091153,0,
6,8.22344,0.826169,-0.0761604,0.000994222,0,
6,8.30339,0.810333,-0.0761538,0.00105575,0,
6,8.37592,0.795219,-0.0761544,0.00110346,0,
6,8.44155,0.780577,-0.0761612,0.00114891,0,
6,8.50082,0.766309,-0.0761693,0.00118833,0,
6,8.55423,0.752343,-0.0761803,0.00122211,0,
6,8.60229,0.738621,-0.0761922,0.00125087,0,
6,8.64545,0.725099,-0.0762054,0.00127509,0,
6,8.68417,0.711742,-0.0762187,0.00129506,0,
6,8.71885,0.698523,-0.0762323,0.00131106,0,
6,8.74989,0.685425,-0.0762455,0.00132328,0,
6,8.77763,0.672434,-0.0762584,0.00133196,0,
6,8.80241,0.659538,-0.0762706,0.0013373,0,
6,8.82452,0.646727,-0.0762821,0.00133955,0,
6,8.84423,0.633993,-0.0762928,0.00133897,0,
6,8.86181,0.621325,-0.0763027,0.00133581,0,
6,8.87746,0.608711,-0.0763117,0.00133033,0,
6,8.89139,0.596136,-0.0763198,0.00132279,0,
6,8.90379,0.583582,-0.0763272,0.00131344,0,
6,8.91482,0.571029,-0.0763338,0.00130248,0,
6,8.92463,0.558452,-0.0763396,0.0012901,0,
6,8.93334,0.545822,-0.0763448,0.00127644,0,
6,8.94109,0.533106,-0.0763493,0.00126159,0,
6,8.94798,0.520268,-0.0763533,0.0012456,0,
6,8.95409,0.507264,-0.0763568,0.00122844,0,
6,8.95953,0.494046,-0.0763597,0.00121,0,
6,8.96435,0.480557,-0.0763623,0.00119011,0,
6,8.96863,0.466735,-0.0763645,0.00116848,0,
6,8.97244,0.452504,-0.0763664,0.00114471,0,
6,8.97581,0.437781,-0.076368,0.00111824,0,
6,8.97881,0.422463,-0.0763693,0.00108831,0,
6,8.98147,0.406433,-0.0763704,0.00105391,0,
6,8.98383,0.389551,-0.0763714,0.0010137,0,
6,8.98593,0.371652,-0.0763721,0.000966229,0,
6,8.98779,0.352527,-0.0763728,0.000908282,0,
6,8.98944,0.331916,-0.0763733,0.000835031,0,
6,8.9909,0.309568,-0.0763737,0.000747852,0,
6,8.9922,0.285312,-0.076374,0.000644389,0,
6,8.99336,0.258985,-0.0763743,0.0005161,0,
6,8.99438,0.230572,-0.0763744,0.000372802,0,
6,8.99529,0.200559,-0.0763746,0.000231699,0,
6,8.99609,0.17004,-0.0763746,0.000118677,0,
6,8.99681,0.140458,-0.0763748,4.89711e-05,0,
6,8.99744,0.112988,-0.0763747,1.62351e-05,0,
6,8.99801,0.0881765,-0.0763749,4.2963e-06,0,
6,8.9985,0.06606,-0.0763748,8.70688e-07,0,
6,8.99895,0.0464401,-0.0763749,1.20836e-07,0,
6,8.99934,0.0290567,-0.0763748,8.91331e-09,0,
6,8.99969,0.0136567,-0.076375,1.93135e-10,0,

10,0,0,0.00794156,0,0,
10,0.000296632,0.00679704,0.00793511,-3.05587e-11,0,
10,0.000596102,0.0136573,0.00794097,-1.13263e-09,0,
10,0.000900397,0.0206265,0.00793555,-1.15175e-08,0,
10,0.00121153,0.0277507,0.00794038,-6.19157e-08,0,
10,0.00153158,0.0350762,0.00793589,-2.31795e-07,0,
10,0.00186264,0.042649,0.00793987,-6.9035e-07,0,
10,0.00220692,0.0505131,0.00793613,-1.75781e-06,0,
10,0.00256668,0.0587077,0.00793941,-3.99018e-06,0,
10,0.00294431,0.0672618,0.00793628,-8.27965e-06,0,
10,0.00334229,0.0761857,0.00793899,-1.5936e-05,0,
10,0.00376326,0.0854603,0.0079363,-2.86692e-05,0,
10,0.00421,0.095024,0.00793854,-4.83541e-05,0,
10,0.00468544,0.104764,0.00793617,-7.64947e-05,0,
10,0.00519274,0.114521,0.00793795,-0.000113506,0,
10,0.00573524,0.124102,0.00793577,-0.000158208,0,
10,0.00631651,0.13332,0.00793705,-0.000207951,0,
10,0.00694041,0.142021,0.00793487,-0.000259402,0,
10,0.00761104,0.150102,0.00793553,-0.000309494,0,
10,0.00833284,0.157521,0.00793318,-0.000356057,0,
10,0.00911058,0.164279,0.00793304,-0.000397964,0,
10,0.0099494,0.170412,0.00793029,-0.000434954,0,
10,0.0108548,0.175975,0.00792916,-0.000467341,0,
10,0.0118329,0.181031,0.00792577,-0.000495753,0,
10,0.0128901,0.185642,0.00792342,-0.000520938,0,
10,0.0140333,0.189871,0.0079191,-0.000543646,0,
10,0.0152702,0.193771,0.00791529,-0.000564573,0,
10,0.0166089,0.197392,0.00790974,-0.000584336,0,
10,0.0180584,0.200774,0.00790419,-0.000603469,0,
10,0.0196282,0.203957,0.00789703,-0.000622435,0,
10,0.0213288,0.20697,0.00788942,-0.000641636,0,
10,0.0231714,0.209842,0.00788024,-0.00066143,0,
10,0.0251682,0.212598,0.00787018,-0.000682137,0,
10,0.0273326,0.215257,0.00785849,-0.000704053,0,
10,0.0296789,0.21784,0.00784551,-0.000727462,0,
10,0.0322227,0.220362,0.00783073,-0.000752637,0,
10,0.0349809,0.22284,0.00781428,-0.000779848,0,
10,0.0379719,0.225287,0.00779577,-0.000809371,0,
10,0.0412155,0.227718,0.00777517,-0.000841487,0,
10,0.0447333,0.230145,0.00775217,-0.00087649,0,
10,0.0485489,0.23258,0.00772665,-0.000914686,0,
10,0.0526875,0.235035,0.00769831,-0.0009564,0,
10,0.0571768,0.237524,0.00766697,-0.00100198,0,
10,0.0620466,0.240058,0.00763234,-0.00105178,0,
10,0.0673295,0.242651,0.00759418,-0.0011062,0,
10,0.0730607,0.245316,0.00755218,-0.00116566,0,
10,0.0792784,0.248068,0.00750607,-0.0012306,0,
10,0.0860241,0.250923,0.00745554,-0.00130149,0,
10,0.0933428,0.253897,0.00740025,-0.00137885,0,
10,0.101283,0.257009,0.00733989,-0.00146319,0,
10,0.109899,0.260279,0.00727408,-0.00155509,0,
10,0.119247,0.263731,0.00720248,-0.00165515,0,
10,0.12939,0.267391,0.00712469,-0.00176397,0,
10,0.140395,0.271286,0.00704028,-0.00188219,0,
10,0.152337,0.27545,0.00694882,-0.00201047,0,
10,0.165296,0.279919,0.00684979,-0.00214944,0,
10,0.179357,0.284738,0.00674269,-0.00229973,0,
10,0.194615,0.289953,0.00662679,-0.00246193,0,
10,0.211171,0.295622,0.00650152,-0.00263654,0,
10,0.229138,0.301809,0.00636571,-0.00282393,0,
10,0.248635,0.308588,0.00621888,-0.00302429,0,
10,0.269793,0.316046,0.00605875,-0.00323753,0,
10,0.292753,0.324282,0.0058858,-0.00346315,0,
10,0.317669,0.33341,0.00569465,-0.00369875,0,
10,0.344708,0.343553,0.00548869,-0.00394087,0,
10,0.372405,0.354223,0.00527337,-0.00417862,0,
10,0.399623,0.364998,0.0050605,-0.00440066,0,
10,0.426397,0.375875,0.00484298,-0.00460357,0,
10,0.452757,0.386852,0.00463858,-0.00480471,0,
10,0.478735,0.397999,0.00442991,-0.00499506,0,
10,0.504358,0.409569,0.00418868,-0.00509565,0,
10,0.529657,0.42178,0.00394216,-0.00518482,0,
10,0.554656,0.434623,0.00370014,-0.00525814,0,
10,0.579382,0.447982,0.00346993,-0.00530933,0,
10,0.603859,0.461733,0.00325537,-0.00533489,0,
10,0.628112,0.47579,0.00305795,-0.00533343,0,
10,0.652163,0.490108,0.00287751,-0.00530481,0,
10,0.676035,0.50468,0.00271321,-0.00524932,0,
10,0.699751,0.519512,0.00256382,-0.00516737,0,
10,0.72333,0.534605,0.00242803,-0.00505963,0,
10,0.746795,0.549947,0.00230454,-0.00492716,0,
10,0.770165,0.565501,0.00219223,-0.00477139,0,
10,0.79346,0.581205,0.00209009,-0.00459412,0,
10,0.816699,0.596979,0.00199736,-0.00439761,0,
10,0.839903,0.612722,0.00191321,-0.0041846,0,
10,0.863088,0.628322,0.00183707,-0.0039584,0,
10,0.886275,0.643651,0.00176803,-0.00372282,0,
10,0.909481,0.658573,0.00170552,-0.00348235,0,
10,0.932723,0.672941,0.00164826,-0.00324746,0,
10,0.956021,0.686629,0.00159516,-0.00301911,0,
10,0.97939,0.699579,0.00154642,-0.00279854,0,
10,1.00285,0.71179,0.00150128,-0.0025869,0,
10,1.02641,0.723295,0.00145934,-0.00238482,0,
10,1.0501,0.734142,0.00141922,-0.00219234,0,
10,1.07392,0.744383,0.00138081,-0.0020091,0,
10,1.0979,0.75407,0.0013427,-0.00183452,0,
10,1.12205,0.763254,0.00130704,-0.00166702,0,
10,1.14639,0.771978,0.00127372,-0.00150122,0,
10,1.17093,0.780232,0.00123879,-0.0013488,0,
10,1.19568,0.787975,0.00119971,-0.00120893,0,
10,1.22066,0.795188,0.00115862,-0.00108646,0,
10,1.24589,0.801903,0.00111076,-0.000981042,0,
10,1.27137,0.808228,0.00105666,-0.000886492,0,
10,1.29713,0.814281,0.00100093,-0.00080601,0,
10,1.32317,0.82012,0.000941036,-0.000737885,0,
10,1.34951,0.82576,0.000876765,-0.000680662,0,
10,1.37616,0.831206,0.000806593,-0.000632945,0,
10,1.40313,0.83647,0.000730555,-0.000593211,0,
10,1.43043,0.841589,0.000648627,-0.000559833,0,
10,1.45807,0.846602,0.000561001,-0.000531229,0,
10,1.48607,0.851542,0.000467463,-0.000506037,0,
10,1.51444,0.856425,0.000367666,-0.000483214,0,
10,1.54318,0.861254,0.000261257,-0.00046203,0,
10,1.57231,0.866027,0.000147979,-0.000441998,0,
10,1.60184,0.870739,2.76996e-05,-0.000422787,0,
10,1.63178,0.875382,-9.97669e-05,-0.000404159,0,
10,1.66213,0.87995,-0.000234508,-0.000385945,0,
10,1.69292,0.884431,-0.000376805,-0.00036803,0,
10,1.72416,0.88881,-0.000526608,-0.000350358,0,
10,1.75585,0.89307,-0.000684372,-0.000332927,0,
10,1.78802,0.897187,-0.000849649,-0.000315794,0,
10,1.82067,0.901142,-0.00102367,-0.00029907,0,
10,1.85383,0.904928,-0.00120495,-0.000282877,0,
10,1.88751,0.908579,-0.00139729,-0.000263222,0,
10,1.92173,0.912142,-0.00159929,-0.000242178,0,
10,1.95652,0.915625,-0.00180934,-0.000221212,0,
10,1.9919,0.919,-0.00202902,-0.000199286,0,
10,2.02791,0.922232,-0.00225851,-0.000176827,0,
10,2.06456,0.925293,-0.0024971,-0.000154199,0,
10,2.10268,0.928207,-0.0027525,-0.000131279,0,
10,2.1443,0.931053,-0.00303639,-0.000108696,0,
10,2.18977,0.933774,-0.00335468,-8.67084e-05,0,
10,2.23946,0.93628,-0.00370978,-6.57185e-05,0,
10,2.29376,0.93848,-0.00410723,-4.66226e-05,0,
10,2.35309,0.940286,-0.00455059,-3.01655e-05,0,
10,2.4179,0.941619,-0.00504515,-1.69161e-05,0,
10,2.48863,0.942425,-0.00559489,-7.21829e-06,0,
10,2.56575,0.942692,-0.00620449,-1.08921e-06,0,
10,2.64971,0.942463,-0.00687741,1.86844e-06,0,
10,2.74098,0.941856,-0.00761701,2.46901e-06,0,
10,2.83997,0.941048,-0.00842529,1.78046e-06,0,
10,2.94709,0.940258,-0.00930353,7.97871e-07,0,
10,3.06269,0.939692,-0.0102516,1.19886e-07,0,
10,3.18706,0.939484,-0.0112681,-1.37439e-07,0,
10,3.3204,0.939661,-0.01235,-1.42201e-07,0,
10,3.46281,0.940145,-0.0134925,-8.07663e-08,0,
10,3.61427,0.940795,-0.0146883,-3.7374e-08,0,
10,3.77463,0.941469,-0.0159283,-1.95116e-08,0,
10,3.94358,0.942078,-0.0172009,-1.39145e-08,0,
10,4.12067,0.942599,-0.0184936,-1.20828e-08,0,
10,4.30525,0.943061,-0.0197923,-1.1435e-08,0,
10,4.49655,0.943509,-0.021083,-1.14626e-08,0,
10,4.6936,0.943972,-0.0223518,-1.20922e-08,0,
10,4.89531,0.944455,-0.0235856,-1.36302e-08,0,
10,5.10047,0.944946,-0.0247725,-1.71536e-08,0,
10,5.30776,0.94542,-0.0259023,-2.51609e-08,0,
10,5.51581,0.945861,-0.0269671,-4.286e-08,0,
10,5.72323,0.946263,-0.0279605,-8.18918e-08,0,
10,5.92863,0.946649,-0.0288788,-1.72888e-07,0,
10,6.13069,0.947083,-0.0297201,-4.02839e-07,0,
10,6.32816,0.947662,-0.0304846,-9.63102e-07,0,
10,6.51991,0.948417,-0.0311743,-1.93307e-06,0,
10,6.70495,0.949116,-0.0317925,-1.94993e-06,0,
10,6.88244,0.949038,-0.0323428,4.55499e-06,0,
10,7.0517,0.946942,-0.0328294,2.88071e-05,0,
10,7.21224,0.941431,-0.0332531,8.42217e-05,0,
10,7.3637,0.931616,-0.0336195,0.000179783,0,
10,7.5059,0.91757,-0.033932,0.000307074,0,
10,7.63878,0.899949,-0.0341943,0.000418998,0,
10,7.76243,0.879898,-0.0344167,0.000541766,0,
10,7.87701,0.859181,-0.0345925,0.000666041,0,
10,7.9828,0.839238,-0.0347369,0.000777253,0,
10,8.08014,0.820744,-0.0348513,0.000870894,0,
10,8.16941,0.803729,-0.0349456,0.000948306,0,
10,8.25106,0.787895,-0.0350236,0.00101326,0,
10,8.32554,0.772879,-0.0350908,0.00106914,0,
10,8.39331,0.758397,-0.0351487,0.00111799,0,
10,8.45484,0.744277,-0.0351991,0.00116077,0,
10,8.5106,0.73043,-0.0352426,0.00119794,0,
10,8.56104,0.716823,-0.03528,0.00122981,0,
10,8.60659,0.70345,-0.0353123,0.00125661,0,
10,8.64767,0.690313,-0.0353405,0.00127862,0,
10,8.68467,0.677413,-0.0353656,0.00129608,0,
10,8.71795,0.664723,-0.0353882,0.00130547,0,
10,8.74786,0.652218,-0.0354078,0.0013113,0,
10,8.77471,0.639892,-0.035425,0.00131289,0,
10,8.79881,0.62774,-0.0354399,0.00131072,0,
10,8.8204,0.615756,-0.0354529,0.00130532,0,
10,8.83975,0.603927,-0.0354641,0.0012972,0,
10,8.85708,0.592241,-0.0354738,0.00128683,0,
10,8.87259,0.580679,-0.0354822,0.00127464,0,
10,8.88646,0.56922,-0.0354894,0.00126102,0,
10,8.89886,0.557841,-0.0354955,0.00124629,0,
10,8.90995,0.546515,-0.0355008,0.00123073,0,
10,8.91986,0.535212,-0.0355052,0.00121454,0,
10,8.92872,0.5239,-0.035509,0.00119788,0,
10,8.93663,0.512543,-0.0355122,0.00118083,0,
10,8.94369,0.501104,-0.0355149,0.00116342,0,
10,8.95,0.489542,-0.0355171,0.00114561,0,
10,8.95564,0.47781,-0.035519,0.0011273,0,
10,8.96067,0.46586,-0.0355206,0.00110836,0,
10,8.96517,0.453638,-0.0355219,0.00108852,0,
10,8.96918,0.441082,-0.035523,0.00106747,0,
10,8.97276,0.428122,-0.0355239,0.00104476,0,
10,8.97596,0.41468,-0.0355246,0.00101985,0,
10,8.97882,0.400663,-0.0355253,0.000992006,0,
10,8.98137,0.385962,-0.0355257,0.000960291,0,
10,8.98365,0.370451,-0.0355263,0.000923496,0,
10,8.98569,0.35398,-0.0355265,0.000880213,0,
10,8.9875,0.336365,-0.0355269,0.000828238,0,
10,8.98913,0.317371,-0.035527,0.000762482,0,
10,8.99058,0.296766,-0.0355273,0.000684761,0,
10,8.99188,0.274385,-0.0355272,0.000592845,0,
10,8.99304,0.250066,-0.0355276,0.000479522,0,
10,8.99408,0.223759,-0.0355274,0.000352424,0,
10,8.99501,0.195824,-0.0355278,0.000225126,0,
10,8.99583,0.167158,-0.0355275,0.000119677,0,
10,8.99658,0.139035,-0.0355279,5.15183e-05,0,
10,8.99724,0.112585,-0.0355275,1.78079e-05,0,
10,8.99784,0.0884123,-0.035528,4.89602e-06,0,
10,8.99837,0.0666333,-0.0355275,1.02712e-06,0,
10,8.99885,0.0471153,-0.035528,1.47154e-07,0,
10,8.99927,0.0296461,-0.0355275,1.11723e-08,0,
10,8.99966,0.0140095,-0.0355281,2.47192e-10,0,
10,9,0,-0.0355274,0,0,

0.0416667,0,0,-0.219582,0,1.95526e-06,
0.0833333,0,0,-0.219695,0,3.14747e-06,
0.125,0,0,-0.219667,0,3.94368e-06,
0.166667,0,0,-0.219714,0,6.80623e-06,
0.208333,0,0,-0.219741,0,1.00004e-05,
0.25,0,0,-0.219792,0,1.36667e-05,
0.291667,0,0,-0.219848,0,1.70109e-05,
0.333333,0,0,-0.219912,0,1.97379e-05,
0.375,0,0,-0.219982,0,2.15854e-05,
0.416667,0,0,-0.220053,0,2.26641e-05,
0.458333,0,0,-0.220127,0,2.32711e-05,
0.5,0,0,-0.2202,0,2.37954e-05,
0.541667,0,0,-0.220278,0,2.46236e-05,
0.583333,0,0,-0.220359,0,2.60326e-05,
0.625,0,0,-0.220447,0,2.81859e-05,
0.666667,0,0,-0.220544,0,3.10989e-05,
0.708333,0,0,-0.220652,0,3.46862e-05,
0.75,0,0,-0.22077,0,3.87757e-05,
0.791667,0,0,-0.220901,0,4.31556e-05,
0.833333,0,0,-0.221046,0,4.7578e-05,
0.875,0,0,-0.221204,0,5.17881e-05,
0.916667,0,0,-0.22138,0,5.55349e-05,
0.958333,0,0,-0.221575,0,5.85354e-05,
1,0,0,-0.221794,0,6.0434e-05,
1.04167,0,0,-0.222045,0,6.08214e-05,
1.08333,0,0,-0.222333,0,5.92089e-05,
1.125,0,0,-0.222667,0,5.50153e-05,
1.16667,0,0,-0.223055,0,4.76226e-05,
1.20833,0,0,-0.223501,0,3.64491e-05,
1.25,0,0,-0.224008,0,2.10375e-05,
1.29167,0,0,-0.224575,0,1.14542e-06,
1.33333,0,0,-0.225197,0,-2.32015e-05,
1.375,0,0,-0.225866,0,-5.17122e-05,
1.41667,0,0,-0.226576,0,-8.38867e-05,
1.45833,0,0,-0.227315,0,-0.000119104,
1.5,0,0,-0.228074,0,-0.000156712,
1.54167,0,0,-0.228845,0,-0.000196108,
1.58333,0,0,-0.22962,0,-0.000236779,
1.625,0,0,-0.230391,0,-0.000278321,
1.66667,0,0,-0.231152,0,-0.000320437,
1.70833,0,0,-0.231897,0,-0.000362918,
1.75,0,0,-0.232622,0,-0.000405619,
1.79167,0,0,-0.233322,0,-0.00044844,
1.83333,0,0,-0.233992,0,-0.000491305,
1.875,0,0,-0.234626,0,-0.000534156,
1.91667,0,0,-0.235221,0,-0.000576935,
1.95833,0,0,-0.235773,0,-0.000619589,
2,0,0,-0.236276,0,-0.00066206,
2.04167,0,0,-0.236727,0,-0.000704293,
2.08333,0,0,-0.237122,0,-0.000746228,
2.125,0,0,-0.237458,0,-0.000787812,
2.16667,0,0,-0.237732,0,-0.000828992,
2.20833,0,0,-0.237942,0,-0.000869719,
2.25,0,0,-0.238085,0,-0.000909948,
2.29167,0,0,-0.23816,0,-0.000949639,
2.33333,0,0,-0.238165,0,-0.000988752,
2.375,0,0,-0.238098,0,-0.00102725,
2.41667,0,0,-0.237959,0,-0.0010651,
2.45833,0,0,-0.237744,0,-0.00110225,
2.5,0,0,-0.237453,0,-0.00113866,
2.54167,0,0,-0.237085,0,-0.00117429,
2.58333,0,0,-0.236636,0,-0.00120909,
2.625,0,0,-0.236105,0,-0.00124298,
2.66667,0,0,-0.235491,0,-0.00127593,
2.70833,0,0,-0.234793,0,-0.00130788,
2.75,0,0,-0.234007,0,-0.00133875,
2.79167,0,0,-0.233134,0,-0.00136851,
2.83333,0,0,-0.232172,0,-0.00139711,
2.875,0,0,-0.231122,0,-0.00142448,
2.91667,0,0,-0.229982,0,-0.00145061,
2.95833,0,0,-0.228754,0,-0.00147546,
3,0,0,-0.227437,0,-0.00149901,
3.04167,0,0,-0.226032,0,-0.00152124,
3.08333,0,0,-0.22454,0,-0.00154215,
3.125,0,0,-0.222962,0,-0.00156173,
3.16667,0,0,-0.221299,0,-0.00157996,
3.20833,0,0,-0.219551,0,-0.00159684,
3.25,0,0,-0.21772,0,-0.00161237,
3.29167,0,0,-0.215805,0,-0.00162654,
3.33333,0,0,-0.213809,0,-0.00163935,
3.375,0,0,-0.211731,0,-0.0016508,
3.41667,0,0,-0.209572,0,-0.00166088,
3.45833,0,0,-0.207333,0,-0.0016696,
3.5,0,0,-0.205014,0,-0.00167696,
3.54167,0,0,-0.202617,0,-0.00168294,
3.58333,0,0,-0.200141,0,-0.00168754,
3.625,0,0,-0.197589,0,-0.00169076,
3.66667,0,0,-0.194961,0,-0.0016926,
3.70833,0,0,-0.192258,0,-0.00169304,
3.75,0,0,-0.189484,0,-0.0016921,
3.79167,0,0,-0.186639,0,-0.00168979,
3.83333,0,0,-0.183725,0,-0.00168612,
3.875,0,0,-0.180745,0,-0.00168109,
3.91667,0,0,-0.1777,0,-0.00167473,
3.95833,0,0,-0.174594,0,-0.00166703,
4,0,0,-0.171428,0,-0.00165801,
4.04167,0,0,-0.168205,0,-0.00164767,
4.08333,0,0,-0.164928,0,-0.00163602,
4.125,0,0,-0.161599,0,-0.00162308,
4.16667,0,0,-0.158221,0,-0.00160885,
4.20833,0,0,-0.154797,0,-0.00159334,
4.25,0,0,-0.15133,0,-0.00157658,
4.29167,0,0,-0.147824,0,-0.00155858,
4.33333,0,0,-0.144282,0,-0.00153934,
4.375,0,0,-0.140707,0,-0.00151889,
4.41667,0,0,-0.137104,0,-0.00149725,
4.45833,0,0,-0.133476,0,-0.00147444,
4.5,0,0,-0.129828,0,-0.00145047,
4.54167,0,0,-0.126164,0,-0.00142537,
4.58333,0,0,-0.122487,0,-0.00139917,
4.625,0,0,-0.118804,0,-0.0013719,
4.66667,0,0,-0.115117,0,-0.0013436,
4.70833,0,0,-0.111432,0,-0.0013143,
4.75,0,0,-0.107753,0,-0.00128404,
4.79167,0,0,-0.104083,0,-0.00125285,
4.83333,0,0,-0.100427,0,-0.00122078,
4.875,0,0,-0.0967888,0,-0.00118785,
4.91667,0,0,-0.0931721,0,-0.00115411,
4.95833,0,0,-0.0895805,0,-0.00111961,
5,0,0,-0.0860172,0,-0.00108438,
5.04167,0,0,-0.0824854,0,-0.00104846,
5.08333,0,0,-0.0789881,0,-0.00101189,
5.125,0,0,-0.0755281,0,-0.000974716,
5.16667,0,0,-0.0721081,0,-0.000936971,
5.20833,0,0,-0.0687306,0,-0.000898696,
5.25,0,0,-0.065398,0,-0.000859929,
5.29167,0,0,-0.0621125,0,-0.000820708,
5.33333,0,0,-0.0588763,0,-0.000781072,
5.375,0,0,-0.0556913,0,-0.000741063,
5.41667,0,0,-0.0525594,0,-0.000700717,
5.45833,0,0,-0.0494822,0,-0.000660073,
5.5,0,0,-0.0464613,0,-0.000619167,
5.54167,0,0,-0.0434982,0,-0.000578032,
5.58333,0,0,-0.0405942,0,-0.000536702,
5.625,0,0,-0.0377505,0,-0.000495203,
5.66667,0,0,-0.0349684,0,-0.00045356,
5.70833,0,0,-0.032249,0,-0.000411792,
5.75,0,0,-0.0295936,0,-0.000369923,
5.79167,0,0,-0.0270037,0,-0.00032798,
5.83333,0,0,-0.0244809,0,-0.000286006,
5.875,0,0,-0.0220273,0,-0.00024408,
5.91667,0,0,-0.0196448,0,-0.000202331,
5.95833,0,0,-0.0173349,0,-0.000160914,
6,0,0,-0.0150971,0,-0.000119955,
6.04167,0,0,-0.0129304,0,-7.95044e-05,
6.08333,0,0,-0.0108334,0,-3.95595e-05,
6.125,0,0,-0.00880502,0,-1.19353e-07,
6.16667,0,0,-0.00684438,0,3.88678e-05,
6.20833,0,0,-0.00495064,0,7.73562e-05,
6.25,0,0,-0.00312304,0,0.000115352,
6.29167,0,0,-0.00136088,0,0.000152842,
6.33333,0,0,0.000336523,0,0.000189814,
6.375,0,0,0.00196983,0,0.000226251,
6.41667,0,0,0.00353971,0,0.000262138,
6.45833,0,0,0.00504684,0,0.000297458,
6.5,0,0,0.00649191,0,0.000332194,
6.54167,0,0,0.00787562,0,0.000366332,
6.58333,0,0,0.0091987,0,0.000399855,
6.625,0,0,0.0104619,0,0.000432747,
6.66667,0,0,0.011666,0,0.000464994,
6.70833,0,0,0.0128118,0,0.000496581,
6.75,0,0,0.0139001,0,0.000527495,
6.79167,0,0,0.0149318,0,0.000557722,
6.83333,0,0,0.0159078,0,0.00058725,
6.875,0,0,0.0168289,0,0.000616068,
6.91667,0,0,0.0176961,0,0.000644165,
6.95833,0,0,0.0185104,0,0.000671532,
7,0,0,0.0192727,0,0.000698161,
7.04167,0,0,0.019984,0,0.000724044,
7.08333,0,0,0.0206454,0,0.000749177,
7.125,0,0,0.0212577,0,0.000773557,
7.16667,0,0,0.0218221,0,0.000797184,
7.20833,0,0,0.0223396,0,0.000820059,
7.25,0,0,0.0228112,0,0.000842188,
7.29167,0,0,0.0232378,0,0.000863575,
7.33333,0,0,0.0236207,0,0.000884229,
7.375,0,0,0.0239609,0,0.000904159,
7.41667,0,0,0.0242595,0,0.000923373,
7.45833,0,0,0.0245174,0,0.000941871,
7.5,0,0,0.0247355,0,0.000959655,
7.54167,0,0,0.0249148,0,0.000976725,
7.58333,0,0,0.0250563,0,0.000993085,
7.625,0,0,0.0251609,0,0.00100875,
7.66667,0,0,0.0252298,0,0.00102372,
7.70833,0,0,0.0252637,0,0.00103803,
7.75,0,0,0.0252638,0,0.00105169,
7.79167,0,0,0.025231,0,0.00106473,
7.83333,0,0,0.0251657,0,0.00107717,
7.875,0,0,0.0250687,0,0.00108908,
7.91667,0,0,0.0249518,0,0.00110104,
7.95833,0,0,0.0247444,0,0.00111146,
8,0,0,0.0246147,0,0.00112146,
8.04171,0,0,0.0244928,0,0.00113226,
8.08368,0,0,0.0242271,0,0.00114253,
8.12617,0,0,0.0239866,0,0.00115076,
8.16946,0,0,0.0237125,0,0.00115871,
8.21382,0,0,0.0234015,0,0.00116631,
8.25952,0,0,0.0230578,0,0.00117356,
8.30685,0,0,0.0226778,0,0.00118058,
8.35611,0,0,0.0222582,0,0.00118745,
8.40762,0,0,0.0217956,0,0.00119421,
8.46168,0,0,0.021286,0,0.0012009,
8.51865,0,0,0.0207256,0,0.00120754,
8.57889,0,0,0.02011,0,0.00121416,
8.64276,0,0,0.0194354,0,0.0012208,
8.71067,0,0,0.0186982,0,0.00122749,
8.78306,0,0,0.0178956,0,0.00123429,
8.86037,0,0,0.0170265,0,0.00124124,
8.94309,0,0,0.0160919,0,0.00124844,
9.03174,0,0,0.0150962,0,0.001256,
9.12689,0,0,0.0140485,0,0.00126406,
9.22912,0,0,0.012964,0,0.00127283,
9.33908,0,0,0.0118661,0,0.00128256,
9.45746,0,0,0.0107886,0,0.0012936,
9.58501,0,0,0.00977808,0,0.0013064,
9.72253,0,0,0.00889749,0,0.00132155,
9.87088,0,0,0.0082288,0,0.00133983,
10.031,0,0,0.0078726,0,0.00136224,
10.2039,0,0,0.00794291,0,0.00138999,
10.3906,0,0,0.0085507,0,0.0014244,
10.5924,0,0,0.00977661,0,0.0014666,
10.8105,0,0,0.0116375,0,0.00151719,
11.0463,0,0,0.0140489,0,0.0015757,
11.3012,0,0,0.0168146,0,0.00164029,
11.5769,0,0,0.0196573,0,0.00170793,
11.8751,0,0,0.0222672,0,0.00177489,
12.1977,0,0,0.0243508,0,0.00183752,
12.5466,0,0,0.0256791,0,0.00189282,
12.9242,0,0,0.0261335,0,0.00193897,
13.3327,0,0,0.0257254,0,0.00197555,
13.7748,0,0,0.0245822,0,0.00200343,
14.2532,0,0,0.0229099,0,0.00202438,
14.7709,0,0,0.0209486,0,0.00204048,
15.3312,0,0,0.0189202,0,0.00205367,
15.9377,0,0,0.0169872,0,0.00206527,
16.594,0,0,0.0152497,0,0.00207601,
17.3044,0,0,0.0137644,0,0.00208618,
18.0733,0,0,0.0125627,0,0.00209595,
18.9056,0,0,0.0116396,0,0.00210542,
19.8064,0,0,0.0109327,0,0.00211443,
20.7816,0,0,0.0103351,0,0.00212269,
21.8371,0,0,0.00974688,0,0.00213007,
22.9796,0,0,0.00912806,0,0.00213677,
24.2163,0,0,0.00850068,0,0.00214321,
25.5551,0,0,0.00790781,0,0.00214988,
27.0042,0,0,0.00737062,0,0.00215718,
28.5729,0,0,0.00687517,0,0.00216544,
30.271,0,0,0.00638678,0,0.0021748,
32.1091,0,0,0.00587049,0,0.00218526,
34.0989,0,0,0.00530013,0,0.00219675,
36.2529,0,0,0.00465106,0,0.0022091,
38.5845,0,0,0.00391124,0,0.00222211,
41.1085,0,0,0.00311596,0,0.0022356,
43.8407,0,0,0.00211656,0,0.00224734,
46.7983,0,0,0.00108191,0,0.00225507,
50,0,0,0.00200171,0,0.00227189,

