f2325d72f6636d938a5f528d2a980444d785801a 
X,Z,x_velocity,cp,uw_b,cf,
1,0,0,-0.235386,0,0,
1,9,0,-0.127498,0,0,
1,1.01284,0.481149,-0.228115,-0.00917518,0,
1,0.000308731,0.000545811,-0.235385,-7.93436e-15,0,
1,0.000654158,0.00113973,-0.235386,-3.50069e-13,0,
1,0.00104139,0.00178481,-0.235385,-4.50952e-12,0,
1,0.00147619,0.00248279,-0.235386,-3.09023e-11,0,
1,0.00196502,0.00323394,-0.235385,-1.46414e-10,0,
1,0.00251518,0.00403645,-0.235385,-5.45785e-10,0,
1,0.0031349,0.00488542,-0.235385,-1.71725e-09,0,
1,0.00383341,0.00577174,-0.235385,-4.7483e-09,0,
1,0.00462115,0.00668029,-0.235385,-1.1802e-08,0,
1,0.00550983,0.00758782,-0.235385,-2.66227e-08,0,
1,0.00651264,0.0084597,-0.235385,-5.42871e-08,0,
1,0.00764438,0.00924599,-0.235384,-9.74557e-08,0,
1,0.00892169,0.00987626,-0.235384,-1.41239e-07,0,
1,0.0103632,0.0102552,-0.235384,-1.07989e-07,0,
1,0.0119898,0.010263,-0.235383,2.49185e-07,0,
1,0.0138248,0.00977029,-0.235382,1.52333e-06,0,
1,0.0158944,0.00867394,-0.23538,4.7673e-06,0,
1,0.0182274,0.00694028,-0.235377,1.11961e-05,0,
1,0.0208562,0.00461385,-0.235372,2.1401e-05,0,
1,0.0238164,0.00177721,-0.235365,3.49257e-05,0,
1,0.0271475,-0.00149352,-0.235355,5.1311e-05,0,
1,0.0308929,-0.00514258,-0.235342,7.03576e-05,0,
1,0.0351001,-0.00914548,-0.235324,9.07108e-05,0,
1,0.0398209,-0.0135007,-0.235304,0.000111486,0,
1,0.0451115,-0.0182088,-0.23528,0.000131928,0,
1,0.0510323,-0.0232586,-0.235253,0.00015125,0,
1,0.057648,-0.0286152,-0.235223,0.000168525,0,
1,0.0650269,-0.0342112,-0.235193,0.000182681,0,
1,0.0732406,-0.039944,-0.235164,0.000192547,0,
1,0.0823632,-0.0456771,-0.235138,0.000196957,0,
1,0.0924701,-0.0512498,-0.235119,0.000194887,0,
1,0.103636,-0.05649,-0.235109,0.000185608,0,
1,0.115935,-0.0612322,-0.235112,0.00016885,0,
1,0.129436,-0.0653334,-0.235133,0.000144809,0,
1,0.144202,-0.0686873,-0.235172,0.000114153,0,
1,0.160284,-0.07123,-0.235234,7.79255e-05,0,
1,0.177724,-0.0729389,-0.235319,3.73687e-05,0,
1,0.196544,-0.073825,-0.235426,-6.2576e-06,0,
1,0.21675,-0.0739235,-0.235553,-5.18101e-05,0,
1,0.238323,-0.0732842,-0.235699,-9.83155e-05,0,
1,0.26122,-0.071964,-0.23586,-0.000144952,0,
1,0.28537,-0.0700228,-0.236029,-0.000190992,0,
1,0.310673,-0.067521,-0.236204,-0.00023574,0,
1,0.337003,-0.0645194,-0.236377,-0.000278507,0,
1,0.364206,-0.0610797,-0.236544,-0.000318562,0,
1,0.392107,-0.0572649,-0.236698,-0.00035514,0,
1,0.420509,-0.0531405,-0.236835,-0.000387452,0,
1,0.449206,-0.0487745,-0.236951,-0.000414718,0,
1,0.477982,-0.044237,-0.237042,-0.000436192,0,
1,0.506624,-0.0395994,-0.237107,-0.000451209,0,
1,0.534925,-0.0349308,-0.237146,-0.000459267,0,
1,0.562692,-0.0302933,-0.237157,-0.000460216,0,
1,0.589754,-0.0257322,-0.237143,-0.000454545,0,
1,0.615961,-0.021265,-0.237104,-0.000444001,0,
1,0.641193,-0.0168639,-0.237038,-0.000432308,0,
1,0.665359,-0.0124346,-0.236946,-0.000425329,0,
1,0.688396,-0.00779682,-0.236821,-0.000436739,0,
1,0.710271,-0.00262565,-0.23666,-0.000479766,0,
1,0.730976,0.00364375,-0.236462,-0.000577178,0,
1,0.750529,0.0118448,-0.236234,-0.000757754,0,
1,0.768969,0.0229507,-0.235985,-0.00105162,0,
1,0.78635,0.0376785,-0.235727,-0.0014824,0,
1,0.802743,0.0559958,-0.235455,-0.00205944,0,
1,0.818232,0.0770606,-0.235177,-0.00275388,0,
1,0.832689,0.0994733,-0.234893,-0.0035039,0,
1,0.846039,0.122033,-0.234612,-0.00424849,0,
1,0.858357,0.144107,-0.234331,-0.00495334,0,
1,0.869723,0.165346,-0.234051,-0.00560426,0,
1,0.880212,0.18557,-0.233771,-0.00619503,0,
1,0.889898,0.204694,-0.233495,-0.00672421,0,
1,0.898852,0.222696,-0.233223,-0.00719331,0,
1,0.907141,0.23959,-0.232957,-0.00760558,0,
1,0.914826,0.255414,-0.2327,-0.00796797,0,
1,0.921966,0.270229,-0.23245,-0.00828162,0,
1,0.928616,0.284121,-0.232206,-0.00855165,0,
1,0.934823,0.297184,-0.231968,-0.0087832,0,
1,0.940633,0.309515,-0.231736,-0.00897989,0,
1,0.946088,0.321203,-0.231507,-0.00914589,0,
1,0.951224,0.33233,-0.231284,-0.00928575,0,
1,0.956076,0.342964,-0.231066,-0.00940217,0,
1,0.960675,0.353166,-0.230853,-0.00949743,0,
1,0.965047,0.362989,-0.230646,-0.0095735,0,
1,0.969219,0.372482,-0.230443,-0.00963203,0,
1,0.973211,0.381687,-0.230245,-0.00967443,0,
1,0.977045,0.390643,-0.230051,-0.00970184,0,
1,0.980739,0.399387,-0.229861,-0.00971523,0,
1,0.984308,0.40795,-0.229675,-0.00971535,0,
1,0.987768,0.416362,-0.229492,-0.00970281,0,
1,0.991131,0.42465,-0.229312,-0.00967804,0,
1,0.99441,0.432841,-0.229135,-0.00964137,0,
1,0.997615,0.440957,-0.228961,-0.00959297,0,
1,1.00076,0.44902,-0.228788,-0.00953293,0,
1,1.00384,0.457052,-0.228617,-0.0094612,0,
1,1.00688,0.465072,-0.228448,-0.00937767,0,
1,1.00988,0.473098,-0.228281,-0.00928223,0,
1,1.01581,0.489332,-0.227948,-0.00905377,0,
1,1.01882,0.497761,-0.227778,-0.00891436,0,
1,1.02188,0.506464,-0.227607,-0.00875613,0,
1,1.025,0.515472,-0.227432,-0.0085771,0,
1,1.02818,0.524813,-0.227257,-0.00837581,0,
1,1.03144,0.534512,-0.22708,-0.00815138,0,
1,1.03478,0.54459,-0.226902,-0.00790046,0,
1,1.03822,0.55507,-0.226723,-0.00762073,0,
1,1.04177,0.565971,-0.226543,-0.00730981,0,
1,1.04544,0.577307,-0.226363,-0.00696535,0,
1,1.04925,0.589083,-0.226183,-0.00658528,0,
1,1.05321,0.601291,-0.226004,-0.00616824,0,
1,1.05735,0.6139,-0.225826,-0.00571397,0,
1,1.06169,0.626847,-0.225651,-0.0052244,0,
1,1.06626,0.640026,-0.225481,-0.00470473,0,
1,1.07108,0.653272,-0.225317,-0.00416487,0,
1,1.07618,0.666355,-0.225162,-0.00362058,0,
1,1.0816,0.67899,-0.225019,-0.00309335,0,
1,1.08738,0.690878,-0.224888,-0.00260779,0,
1,1.09357,0.701765,-0.224772,-0.00218633,0,
1,1.10022,0.711528,-0.22467,-0.00184343,0,
1,1.10739,0.720203,-0.224579,-0.00158251,0,
1,1.11514,0.727964,-0.224493,-0.00139764,0,
1,1.12354,0.735055,-0.224406,-0.00127576,0,
1,1.13268,0.741725,-0.224312,-0.00120128,0,
1,1.14266,0.748187,-0.224205,-0.00115935,0,
1,1.15357,0.754602,-0.22408,-0.00113778,0,
1,1.16554,0.761083,-0.223933,-0.00112732,0,
1,1.1787,0.767703,-0.22376,-0.00112181,0,
1,1.1932,0.774505,-0.223557,-0.00111771,0,
1,1.2092,0.781518,-0.22332,-0.00111273,0,
1,1.22689,0.788761,-0.223043,-0.00110585,0,
1,1.24659,0.796285,-0.222717,-0.00109621,0,
1,1.26879,0.804176,-0.222333,-0.00108478,0,
1,1.29378,0.812442,-0.221873,-0.00107176,0,
1,1.3219,0.821086,-0.221341,-0.00105764,0,
1,1.35351,0.83013,-0.220691,-0.00103828,0,
1,1.389,0.839607,-0.219907,-0.000994542,0,
1,1.42882,0.849522,-0.219006,-0.000953681,0,
1,1.47342,0.859894,-0.217964,-0.000913122,0,
1,1.52332,0.870791,-0.216757,-0.000870805,0,
1,1.57905,0.882315,-0.215365,-0.000825068,0,
1,1.64119,0.894599,-0.213765,-0.000773884,0,
1,1.71033,0.907798,-0.211934,-0.000715057,0,
1,1.78711,0.922059,-0.209851,-0.00064617,0,
1,1.87215,0.937435,-0.207492,-0.000565857,0,
1,1.9661,0.953765,-0.204841,-0.000474621,0,
1,2.06959,0.970495,-0.201871,-0.000376955,0,
1,2.18321,0.986615,-0.198607,-0.000272215,0,
1,2.30752,1.0008,-0.195094,-0.000139466,0,
1,2.44299,1.01148,-0.191317,-4.65093e-05,0,
1,2.59002,1.01729,-0.187337,-4.37928e-06,0,
1,2.74885,1.01808,-0.183244,1.11573e-06,0,
1,2.91959,1.01566,-0.179107,1.03152e-07,0,
1,3.10217,1.01247,-0.17499,5.59718e-08,0,
1,3.2963,1.00987,-0.170938,4.42336e-08,0,
1,3.50146,1.00802,-0.166986,3.54263e-08,0,
1,3.7169,1.00653,-0.163168,3.0961e-08,0,
1,3.94163,1.0051,-0.159516,2.87484e-08,0,
1,4.17441,1.00366,-0.15606,2.68327e-08,0,
1,4.41376,1.00227,-0.152821,2.46744e-08,0,
1,4.65805,1.00098,-0.149814,2.23892e-08,0,
1,4.90545,0.999794,-0.147048,2.02334e-08,0,
1,5.15407,0.998725,-0.144524,1.82746e-08,0,
1,5.40194,0.997763,-0.142239,1.65596e-08,0,
1,5.64716,0.996899,-0.140187,1.5151e-08,0,
1,5.88785,0.996106,-0.138356,1.41414e-08,0,
1,6.12229,0.995349,-0.136734,1.32939e-08,0,
1,6.34896,0.99466,-0.135305,1.17816e-08,0,
1,6.56652,0.994231,-0.134054,9.11527e-09,0,
1,6.77388,0.994363,-0.132963,1.67167e-09,0,
1,6.97022,0.99501,-0.132014,9.48082e-09,0,
1,7.15495,0.995017,-0.13119,1.79813e-06,0,
1,7.32773,0.991889,-0.13048,1.87343e-05,0,
1,7.48842,0.98305,-0.129876,7.88729e-05,0,
1,7.63711,0.967985,-0.129382,0.000213793,0,
1,7.77403,0.948727,-0.128964,0.000407137,0,
1,7.89956,0.92766,-0.128613,0.000566573,0,
1,8.01417,0.906405,-0.128346,0.00072418,0,
1,8.11843,0.886144,-0.128122,0.000859934,0,
1,8.21296,0.867362,-0.12795,0.00096886,0,
1,8.29839,0.85005,-0.127814,0.00105336,0,
1,8.3754,0.83396,-0.12771,0.00111819,0,
1,8.44464,0.818786,-0.127633,0.00116844,0,
1,8.50675,0.804234,-0.127575,0.00120658,0,
1,8.56236,0.790045,-0.127532,0.00123405,0,
1,8.61206,0.776068,-0.127502,0.00126178,0,
1,8.6564,0.762256,-0.127481,0.00128583,0,
1,8.69591,0.748576,-0.127467,0.00130627,0,
1,8.73107,0.734999,-0.127458,0.00132346,0,
1,8.76232,0.721498,-0.127453,0.00133771,0,
1,8.79007,0.708053,-0.12745,0.00134924,0,
1,8.81469,0.694643,-0.12745,0.00135826,0,
1,8.83651,0.681252,-0.127452,0.00136495,0,
1,8.85584,0.667861,-0.127454,0.00136945,0,
1,8.87295,0.654455,-0.127457,0.0013719,0,
1,8.8881,0.641016,-0.127461,0.00137243,0,
1,8.90149,0.627525,-0.127464,0.00137112,0,
1,8.91333,0.613961,-0.127468,0.00136806,0,
1,8.92379,0.6003,-0.127471,0.00136331,0,
1,8.93303,0.586516,-0.127475,0.00135689,0,
1,8.9412,0.572577,-0.127478,0.00134881,0,
1,8.9484,0.558447,-0.127481,0.00133902,0,
1,8.95476,0.544086,-0.127483,0.00132742,0,
1,8.96038,0.529445,-0.127485,0.00131385,0,
1,8.96533,0.514467,-0.127487,0.00129808,0,
1,8.9697,0.499085,-0.127489,0.00127975,0,
1,8.97356,0.483222,-0.127491,0.00125837,0,
1,8.97696,0.466783,-0.127492,0.00123329,0,
1,8.97996,0.44966,-0.127493,0.00120359,0,
1,8.98261,0.43172,-0.127494,0.00116809,0,
1,8.98494,0.412804,-0.127495,0.00112593,0,
1,8.98699,0.392697,-0.127495,0.00107258,0,
1,8.98881,0.371102,-0.127496,0.00100315,0,
1,8.99041,0.347711,-0.127496,0.000918095,0,
1,8.99182,0.322288,-0.127497,0.000814488,0,
1,8.99306,0.294652,-0.127497,0.000690542,0,
1,8.99416,0.264593,-0.127497,0.000531398,0,
1,8.99512,0.232059,-0.127497,0.000350986,0,
1,8.99597,0.197883,-0.127498,0.00019218,0,
1,8.99672,0.163828,-0.127497,8.33932e-05,0,
1,8.99739,0.131685,-0.127498,2.83203e-05,0,
1,8.99797,0.102508,-0.127498,7.50571e-06,0,
1,8.99848,0.0765516,-0.127498,1.50359e-06,0,
1,8.99894,0.0536358,-0.127498,2.05183e-07,0,
1,8.99934,0.0334482,-0.127498,1.48756e-08,0,
1,8.99969,0.0156705,-0.127498,3.1825e-10,0,

4,0,0,-0.119758,0,0,
4,9,0,-0.0966506,0,0,
4,1.05136,0.676671,-0.126751,-0.00433962,0,
4,0.000303409,-0.00672917,-0.119763,7.6012e-11,0,
4,0.00062865,-0.013796,-0.119759,3.10529e-09,0,
4,0.000979511,-0.0212521,-0.119763,3.62128e-08,0,
4,0.00136016,-0.0291436,-0.11976,2.24896e-07,0,
4,0.00177519,-0.0375089,-0.119763,9.71024e-07,0,
4,0.0022297,-0.0463665,-0.119761,3.31125e-06,0,
4,0.00272934,-0.0556888,-0.119763,9.50487e-06,0,
4,0.00328037,-0.0653493,-0.119762,2.35939e-05,0,
4,0.00388979,-0.075047,-0.119765,5.07255e-05,0,
4,0.00456537,-0.0842642,-0.119765,9.3219e-05,0,
4,0.00531578,-0.0923908,-0.119769,0.000144819,0,
4,0.0061507,-0.0990165,-0.119772,0.000191581,0,
4,0.0070809,-0.104105,-0.11978,0.000221828,0,
4,0.00811839,-0.107886,-0.11979,0.000232605,0,
4,0.00927657,-0.110656,-0.119805,0.000226821,0,
4,0.0105703,-0.112669,-0.119824,0.00020847,0,
4,0.0120162,-0.114112,-0.119848,0.00018053,0,
4,0.0136326,-0.115115,-0.119878,0.000144763,0,
4,0.0154398,-0.115764,-0.119914,0.000102035,0,
4,0.0174603,-0.116119,-0.119957,5.26412e-05,0,
4,0.0197189,-0.11622,-0.120008,-3.49556e-06,0,
4,0.0222427,-0.11609,-0.120069,-6.66964e-05,0,
4,0.0250617,-0.115748,-0.120139,-0.000137457,0,
4,0.0282081,-0.115201,-0.120221,-0.000216406,0,
4,0.0317171,-0.114452,-0.120315,-0.000304281,0,
4,0.0356266,-0.113503,-0.120422,-0.000401911,0,
4,0.039977,-0.112347,-0.120545,-0.000510207,0,
4,0.0448114,-0.110978,-0.120684,-0.000630144,0,
4,0.0501747,-0.109387,-0.120841,-0.000762759,0,
4,0.056114,-0.10756,-0.121016,-0.000909125,0,
4,0.062677,-0.105483,-0.121211,-0.00107034,0,
4,0.0699123,-0.10314,-0.121425,-0.00124749,0,
4,0.0778675,-0.100511,-0.12166,-0.00144166,0,
4,0.0865883,-0.0975759,-0.121915,-0.00165382,0,
4,0.0961173,-0.0943115,-0.122189,-0.00188488,0,
4,0.106492,-0.0906941,-0.122481,-0.00213556,0,
4,0.117744,-0.0866985,-0.12279,-0.00240641,0,
4,0.129894,-0.0822991,-0.123114,-0.0026977,0,
4,0.142956,-0.0774707,-0.123449,-0.00300939,0,
4,0.156928,-0.0721892,-0.123793,-0.00334111,0,
4,0.171798,-0.066433,-0.124143,-0.0036921,0,
4,0.187537,-0.0601847,-0.124495,-0.00406119,0,
4,0.2041,-0.0534329,-0.124848,-0.00444685,0,
4,0.221432,-0.046174,-0.125198,-0.00484721,0,
4,0.239458,-0.0384145,-0.125543,-0.00526028,0,
4,0.258095,-0.0301719,-0.125881,-0.00568423,0,
4,0.27725,-0.0214742,-0.12621,-0.00611781,0,
4,0.296825,-0.0123537,-0.126528,-0.00655896,0,
4,0.316717,-0.00283585,-0.126837,-0.00700037,0,
4,0.336828,0.00706158,-0.12714,-0.00743509,0,
4,0.357066,0.0173102,-0.127435,-0.00786701,0,
4,0.377348,0.0278601,-0.127704,-0.00829875,0,
4,0.397605,0.0386532,-0.128013,-0.00873557,0,
4,0.417786,0.0496624,-0.128208,-0.00933988,0,
4,0.437857,0.0612775,-0.127977,-0.00957419,0,
4,0.457804,0.0740593,-0.127528,-0.00980499,0,
4,0.477632,0.0881346,-0.12724,-0.0100384,0,
4,0.497368,0.103326,-0.12711,-0.0102559,0,
4,0.517057,0.119365,-0.127095,-0.0104448,0,
4,0.536763,0.136056,-0.127131,-0.0105987,0,
4,0.556564,0.153342,-0.127178,-0.0107158,0,
4,0.576557,0.171286,-0.127212,-0.0107961,0,
4,0.596848,0.190029,-0.127229,-0.0108389,0,
4,0.617561,0.209745,-0.127233,-0.010842,0,
4,0.637962,0.229815,-0.127227,-0.0108045,0,
4,0.657495,0.249709,-0.127217,-0.0107291,0,
4,0.676218,0.269435,-0.127208,-0.010618,0,
4,0.694189,0.288989,-0.127199,-0.0104739,0,
4,0.711463,0.308357,-0.127192,-0.0102992,0,
4,0.728096,0.327522,-0.127184,-0.0100972,0,
4,0.744138,0.346459,-0.127177,-0.0098717,0,
4,0.759639,0.365131,-0.127169,-0.00962723,0,
4,0.774643,0.383485,-0.12716,-0.00936937,0,
4,0.789195,0.401458,-0.127151,-0.00910341,0,
4,0.803334,0.418989,-0.12714,-0.00883297,0,
4,0.817097,0.436024,-0.127128,-0.00856129,0,
4,0.830518,0.452528,-0.127114,-0.00829105,0,
4,0.843629,0.468476,-0.127098,-0.00802448,0,
4,0.856459,0.483857,-0.127081,-0.00776337,0,
4,0.869035,0.498666,-0.127062,-0.00750912,0,
4,0.881383,0.512909,-0.127044,-0.00726283,0,
4,0.893524,0.526593,-0.127026,-0.00702528,0,
4,0.905481,0.539736,-0.12701,-0.00679698,0,
4,0.917272,0.552359,-0.126996,-0.00657819,0,
4,0.928915,0.564491,-0.126984,-0.00636886,0,
4,0.940428,0.576165,-0.126976,-0.00616875,0,
4,0.951826,0.587414,-0.126969,-0.00597815,0,
4,0.963124,0.598271,-0.126962,-0.00579697,0,
4,0.974334,0.60877,-0.126954,-0.00562418,0,
4,0.98547,0.618949,-0.126944,-0.00545867,0,
4,0.996544,0.628851,-0.126931,-0.0052991,0,
4,1.00757,0.638543,-0.126909,-0.00514373,0,
4,1.01855,0.648132,-0.126875,-0.00495131,0,
4,1.0295,0.657693,-0.126836,-0.00475943,0,
4,1.04044,0.667214,-0.126795,-0.00455624,0,
4,1.0623,0.686048,-0.126705,-0.00411079,0,
4,1.07328,0.695324,-0.126657,-0.00387151,0,
4,1.08432,0.70446,-0.126606,-0.00362416,0,
4,1.09543,0.713409,-0.126553,-0.00337151,0,
4,1.10661,0.722123,-0.126496,-0.00311684,0,
4,1.11788,0.73055,-0.126437,-0.00286386,0,
4,1.12925,0.738637,-0.126373,-0.00261658,0,
4,1.14073,0.746336,-0.126307,-0.00237912,0,
4,1.15233,0.753605,-0.126236,-0.00215545,0,
4,1.16408,0.760414,-0.126162,-0.00194909,0,
4,1.17599,0.766749,-0.126084,-0.00176276,0,
4,1.18806,0.772614,-0.126001,-0.00159823,0,
4,1.20034,0.778029,-0.125915,-0.00145614,0,
4,1.21282,0.783031,-0.125824,-0.0013361,0,
4,1.22554,0.787668,-0.12573,-0.00123683,0,
4,1.23852,0.791993,-0.125633,-0.0011564,0,
4,1.25179,0.796063,-0.125532,-0.00109253,0,
4,1.26537,0.799931,-0.125427,-0.00104276,0,
4,1.2793,0.803649,-0.125319,-0.00100467,0,
4,1.29362,0.807262,-0.125208,-0.000975997,0,
4,1.30836,0.810808,-0.125093,-0.000954693,0,
4,1.32357,0.814324,-0.124974,-0.000938966,0,
4,1.3393,0.817839,-0.124852,-0.000927266,0,
4,1.3556,0.821379,-0.124723,-0.000918336,0,
4,1.37252,0.824968,-0.124592,-0.000911068,0,
4,1.39015,0.828627,-0.12445,-0.000906554,0,
4,1.40855,0.832389,-0.12431,-0.00090107,0,
4,1.42781,0.836322,-0.124179,-0.000884388,0,
4,1.44801,0.840482,-0.124038,-0.000867103,0,
4,1.46926,0.844874,-0.123885,-0.000849148,0,
4,1.49167,0.849488,-0.123719,-0.000830354,0,
4,1.51537,0.854323,-0.123541,-0.000811026,0,
4,1.54091,0.859465,-0.123344,-0.000791086,0,
4,1.56949,0.86512,-0.123122,-0.000769979,0,
4,1.60144,0.871349,-0.12287,-0.000746757,0,
4,1.63713,0.878196,-0.122587,-0.000720852,0,
4,1.67693,0.885691,-0.122267,-0.00069173,0,
4,1.72128,0.893851,-0.121906,-0.000658948,0,
4,1.77062,0.902669,-0.121497,-0.000622387,0,
4,1.82542,0.9121,-0.121039,-0.000581892,0,
4,1.88618,0.922062,-0.120519,-0.000537449,0,
4,1.95343,0.932487,-0.119952,-0.000471075,0,
4,2.02768,0.943257,-0.119334,-0.000390206,0,
4,2.10949,0.954032,-0.118646,-0.000302289,0,
4,2.19939,0.96425,-0.117895,-0.000213286,0,
4,2.29789,0.973238,-0.117076,-0.000132292,0,
4,2.40551,0.98031,-0.116195,-6.76079e-05,0,
4,2.52268,0.984925,-0.11526,-2.4302e-05,0,
4,2.64979,0.986905,-0.11428,-2.68973e-06,0,
4,2.78715,0.986626,-0.113267,2.87647e-06,0,
4,2.93497,0.985008,-0.112232,1.67172e-06,0,
4,3.09333,0.983174,-0.111186,3.43308e-07,0,
4,3.26217,0.981905,-0.110139,3.47904e-08,0,
4,3.44125,0.981357,-0.109104,7.83349e-09,0,
4,3.63018,0.981238,-0.108089,4.16665e-09,0,
4,3.82836,0.9812,-0.107102,3.99682e-09,0,
4,4.03501,0.981063,-0.106149,4.82752e-09,0,
4,4.24915,0.980822,-0.105236,5.3154e-09,0,
4,4.46961,0.980541,-0.10437,5.21046e-09,0,
4,4.69507,0.980274,-0.103553,4.77545e-09,0,
4,4.92406,0.980038,-0.102788,4.31426e-09,0,
4,5.15502,0.979827,-0.102077,3.96611e-09,0,
4,5.3863,0.979632,-0.10142,3.80715e-09,0,
4,5.61626,0.97944,-0.100818,3.96331e-09,0,
4,5.84328,0.979233,-0.100268,4.78271e-09,0,
4,6.06579,0.979015,-0.0997698,7.10465e-09,0,
4,6.28238,0.978852,-0.0993209,9.67684e-09,0,
4,6.49173,0.978905,-0.0989183,-1.75957e-08,0,
4,6.69275,0.97934,-0.0985582,-1.98465e-07,0,
4,6.88453,0.979998,-0.098236,-2.48537e-07,0,
4,7.06634,0.979937,-0.0979469,4.20485e-06,0,
4,7.23771,0.977306,-0.0976909,2.77533e-05,0,
4,7.39831,0.970053,-0.0974655,9.1613e-05,0,
4,7.54803,0.957233,-0.0972805,0.000210404,0,
4,7.68693,0.939719,-0.0971233,0.000362946,0,
4,7.81519,0.919404,-0.0969799,0.000506979,0,
4,7.93313,0.898209,-0.0968692,0.00065799,0,
4,8.04115,0.877655,-0.0967698,0.000797292,0,
4,8.13974,0.858502,-0.0966904,0.000914478,0,
4,8.22941,0.84088,-0.0966276,0.00100821,0,
4,8.31073,0.824597,-0.0965812,0.00108184,0,
4,8.38429,0.809338,-0.0965491,0.0011396,0,
4,8.45065,0.794781,-0.0965294,0.00118587,0,
4,8.5104,0.780629,-0.0965196,0.00121914,0,
4,8.56407,0.766692,-0.0965164,0.0012502,0,
4,8.61222,0.752907,-0.0965176,0.00127839,0,
4,8.65533,0.739252,-0.0965214,0.00130216,0,
4,8.69387,0.725713,-0.0965275,0.00132179,0,
4,8.7283,0.712274,-0.0965349,0.00133765,0,
4,8.75901,0.698923,-0.0965432,0.00135002,0,
4,8.78637,0.685648,-0.096552,0.00135915,0,
4,8.81074,0.67244,-0.0965609,0.00136523,0,
4,8.83242,0.659289,-0.0965696,0.00136848,0,
4,8.85169,0.646187,-0.0965781,0.00136909,0,
4,8.86881,0.633121,-0.0965861,0.00136728,0,
4,8.88402,0.620078,-0.0965936,0.00136327,0,
4,8.89751,0.607045,-0.0966006,0.00135727,0,
4,8.90949,0.594001,-0.0966069,0.00134948,0,
4,8.92011,0.580924,-0.0966127,0.00134006,0,
4,8.92952,0.567789,-0.0966179,0.00132916,0,
4,8.93787,0.554564,-0.0966225,0.00131686,0,
4,8.94526,0.541216,-0.0966266,0.00130321,0,
4,8.95182,0.527703,-0.0966302,0.00128819,0,
4,8.95762,0.51398,-0.0966334,0.00127173,0,
4,8.96276,0.499994,-0.0966361,0.00125366,0,
4,8.96731,0.485684,-0.0966385,0.00123372,0,
4,8.97134,0.470979,-0.0966406,0.00121154,0,
4,8.97491,0.455799,-0.0966423,0.0011866,0,
4,8.97807,0.440047,-0.0966438,0.00115818,0,
4,8.98087,0.42361,-0.0966451,0.00112533,0,
4,8.98334,0.406355,-0.0966462,0.00108681,0,
4,8.98553,0.388123,-0.0966471,0.00104148,0,
4,8.98747,0.368707,-0.0966478,0.000985599,0,
4,8.98919,0.347829,-0.0966485,0.00091389,0,
4,8.9907,0.325209,-0.0966489,0.000827492,0,
4,8.99205,0.300648,-0.0966494,0.000724271,0,
4,8.99324,0.273989,-0.0966495,0.000600359,0,
4,8.99429,0.24503,-0.0966499,0.000441725,0,
4,8.99522,0.213952,-0.0966499,0.000282817,0,
4,8.99605,0.181859,-0.0966502,0.000149219,0,
4,8.99677,0.150362,-0.0966501,6.29194e-05,0,
4,8.99742,0.12091,-0.0966503,2.10698e-05,0,
4,8.99799,0.0942548,-0.0966501,5.57882e-06,0,
4,8.9985,0.0705171,-0.0966504,1.12519e-06,0,
4,8.99894,0.0495031,-0.0966502,1.55079e-07,0,
4,8.99934,0.0309301,-0.0966505,1.13586e-08,0,
4,8.99969,0.0145177,-0.0966502,2.44839e-10,0,

6,0,0,0.00552064,0,0,
6,9,0,-0.0734684,0,0,
6,1.07704,0.707418,-0.00896937,-0.00230524,0,
6,0.000299862,0.00273711,0.00551418,-3.3683e-11,0,
6,0.000611645,0.00563996,0.00551933,-1.35025e-09,0,
6,0.000938257,0.00874282,0.00551428,-1.51822e-08,0,
6,0.00128281,0.0120829,0.00551817,-9.08781e-08,0,
6,0.00164864,0.0157007,0.00551416,-3.80075e-07,0,
6,0.00203939,0.0196383,0.00551709,-1.26625e-06,0,
6,0.00245897,0.0239331,0.0055138,-3.60009e-06,0,
6,0.00291168,0.0286034,0.00551594,-9.04959e-06,0,
6,0.00340221,0.0336228,0.00551296,-2.03856e-05,0,
6,0.00393573,0.0388829,0.00551411,-4.10677e-05,0,
6,0.00451788,0.0441721,0.00551059,-7.32936e-05,0,
6,0.00515491,0.0492179,0.00550969,-0.000115304,0,
6,0.00585371,0.0537936,0.00550392,-0.000161338,0,
6,0.00662185,0.0578016,0.00549904,-0.000205381,0,
6,0.00746774,0.0612641,0.00548902,-0.000244452,0,
6,0.00840063,0.0642648,0.00547835,-0.000278545,0,
6,0.00943073,0.0668995,0.00546243,-0.000309026,0,
6,0.0105693,0.0692534,0.00544439,-0.000337467,0,
6,0.0118288,0.0713956,0.00542089,-0.000365213,0,
6,0.0132228,0.07338,0.00539376,-0.000393327,0,
6,0.0147664,0.0752484,0.00536061,-0.000422653,0,
6,0.016476,0.0770339,0.0053222,-0.000453887,0,
6,0.0183694,0.0787629,0.00527678,-0.000487636,0,
6,0.0204662,0.0804569,0.00522431,-0.000524459,0,
6,0.0227875,0.0821343,0.00516338,-0.000564897,0,
6,0.0253561,0.0838108,0.00509341,-0.000609486,0,
6,0.0281964,0.0855004,0.00501313,-0.000658777,0,
6,0.0313344,0.0872159,0.00492162,-0.000713334,0,
6,0.0347975,0.0889691,0.00481762,-0.000773748,0,
6,0.0386145,0.0907712,0.00470003,-0.00084063,0,
6,0.042815,0.0926331,0.00456764,-0.000914615,0,
6,0.0474296,0.0945651,0.00441931,-0.000996355,0,
6,0.0524888,0.0965775,0.00425395,-0.00108651,0,
6,0.0580229,0.0986805,0.0040706,-0.00118575,0,
6,0.0640611,0.100884,0.00386844,-0.00129471,0,
6,0.0706309,0.103197,0.00364688,-0.00141403,0,
6,0.077757,0.105629,0.00340562,-0.00154429,0,
6,0.0854609,0.10819,0.00314465,-0.00168599,0,
6,0.0937597,0.110888,0.00286437,-0.00183957,0,
6,0.102665,0.113731,0.00256554,-0.00200536,0,
6,0.112183,0.116726,0.00224937,-0.00218355,0,
6,0.122315,0.11988,0.00191742,-0.00237421,0,
6,0.133052,0.1232,0.00157165,-0.00257724,0,
6,0.144384,0.126689,0.00121431,-0.0027924,0,
6,0.156292,0.130353,0.000847848,-0.00301932,0,
6,0.168754,0.134196,0.000474868,-0.00325746,0,
6,0.181744,0.138222,9.79713e-05,-0.00350622,0,
6,0.195237,0.142434,-0.000280322,-0.00376488,0,
6,0.209207,0.146838,-0.000657676,-0.00403274,0,
6,0.223631,0.151439,-0.00103202,-0.00430906,0,
6,0.238493,0.156244,-0.00140158,-0.00459319,0,
6,0.253785,0.161266,-0.00176498,-0.00488455,0,
6,0.269507,0.166517,-0.00212116,-0.00518269,0,
6,0.28567,0.172018,-0.00246933,-0.00548733,0,
6,0.3023,0.177791,-0.00280958,-0.00579838,0,
6,0.319433,0.183868,-0.00314087,-0.00611726,0,
6,0.337122,0.190288,-0.00345781,-0.00644287,0,
6,0.355433,0.197109,-0.00375283,-0.00677504,0,
6,0.374445,0.204402,-0.00401946,-0.00711305,0,
6,0.394252,0.212262,-0.00424414,-0.00745301,0,
6,0.414961,0.220805,-0.00443563,-0.00779612,0,
6,0.436695,0.230173,-0.00467993,-0.00822654,0,
6,0.459585,0.240749,-0.00444176,-0.00856904,0,
6,0.48378,0.253267,-0.00357128,-0.00865709,0,
6,0.508144,0.267718,-0.00286845,-0.00874447,0,
6,0.531799,0.283518,-0.00252965,-0.00882909,0,
6,0.554791,0.300242,-0.00243499,-0.00888803,0,
6,0.577166,0.317457,-0.00247712,-0.00890462,0,
6,0.598964,0.334886,-0.0025632,-0.00887131,0,
6,0.620228,0.352415,-0.00264928,-0.0087881,0,
6,0.640996,0.370023,-0.00272401,-0.00865817,0,
6,0.661304,0.387713,-0.00279452,-0.00848563,0,
6,0.681188,0.405467,-0.00287278,-0.00827485,0,
6,0.700681,0.423227,-0.00296871,-0.0080312,0,
6,0.719813,0.440901,-0.00308778,-0.00776134,0,
6,0.738612,0.45838,-0.00323088,-0.00747179,0,
6,0.757107,0.475559,-0.00339592,-0.00716823,0,
6,0.775322,0.492353,-0.00358011,-0.00685561,0,
6,0.793282,0.508701,-0.00378108,-0.00653828,0,
6,0.811008,0.524561,-0.00399745,-0.00622009,0,
6,0.828521,0.539899,-0.00422836,-0.00590442,0,
6,0.845842,0.554682,-0.00447364,-0.00559451,0,
6,0.862989,0.568868,-0.00473297,-0.00529958,0,
6,0.879979,0.582424,-0.00500431,-0.0050183,0,
6,0.896829,0.595355,-0.00528568,-0.00474948,0,
6,0.913555,0.607694,-0.0055763,-0.00449222,0,
6,0.930172,0.619488,-0.00587594,-0.00424572,0,
6,0.946694,0.630784,-0.00618471,-0.00400911,0,
6,0.963136,0.641624,-0.0065024,-0.00378145,0,
6,0.97951,0.652045,-0.00682933,-0.00356157,0,
6,0.99583,0.662087,-0.0071646,-0.00334796,0,
6,1.01211,0.671797,-0.00751043,-0.00313207,0,
6,1.02836,0.681209,-0.00786512,-0.00291656,0,
6,1.04459,0.690309,-0.00822605,-0.0027071,0,
6,1.06081,0.699058,-0.00859446,-0.0025024,0,
6,1.09329,0.715361,-0.00935095,-0.00211842,0,
6,1.10959,0.722864,-0.00973881,-0.00194456,0,
6,1.12595,0.729912,-0.0101327,-0.00178581,0,
6,1.14238,0.736503,-0.0105321,-0.00164369,0,
6,1.1589,0.74265,-0.0109368,-0.00151898,0,
6,1.17551,0.748378,-0.0113465,-0.00141163,0,
6,1.19223,0.753724,-0.011761,-0.00132092,0,
6,1.20907,0.758729,-0.0121802,-0.00124553,0,
6,1.22605,0.763442,-0.0126041,-0.00118379,0,
6,1.24318,0.767909,-0.0130326,-0.0011338,0,
6,1.26048,0.772174,-0.0134659,-0.0010937,0,
6,1.27797,0.776277,-0.0139041,-0.00106161,0,
6,1.29566,0.780253,-0.0143474,-0.00103637,0,
6,1.31357,0.784137,-0.0147942,-0.0010255,0,
6,1.33173,0.788028,-0.0152611,-0.000996278,0,
6,1.35015,0.792053,-0.0157486,-0.000965625,0,
6,1.36886,0.796256,-0.016239,-0.000936605,0,
6,1.38788,0.800599,-0.0167318,-0.000910673,0,
6,1.40725,0.805009,-0.0172267,-0.000887522,0,
6,1.42698,0.80943,-0.0177271,-0.000866636,0,
6,1.44712,0.813844,-0.0182355,-0.000846866,0,
6,1.46769,0.81826,-0.0187546,-0.000827396,0,
6,1.48874,0.8227,-0.0192856,-0.000808138,0,
6,1.5103,0.827187,-0.0198293,-0.000788751,0,
6,1.53242,0.831737,-0.0203864,-0.000769071,0,
6,1.55515,0.836359,-0.0209577,-0.000749033,0,
6,1.57854,0.841059,-0.021544,-0.000728612,0,
6,1.60265,0.845841,-0.0221464,-0.000707793,0,
6,1.62754,0.850705,-0.0227663,-0.000686528,0,
6,1.65329,0.855653,-0.0234049,-0.000664799,0,
6,1.67998,0.860687,-0.024064,-0.00064261,0,
6,1.70768,0.865808,-0.024744,-0.000620023,0,
6,1.73712,0.871116,-0.0254651,-0.00059701,0,
6,1.76996,0.876845,-0.026263,-0.000572401,0,
6,1.80655,0.883028,-0.0271456,-0.000545316,0,
6,1.84728,0.889646,-0.0281208,-0.000515928,0,
6,1.89255,0.896664,-0.0291905,-0.000483923,0,
6,1.9428,0.904091,-0.0303697,-0.00043562,0,
6,1.99849,0.911902,-0.0316638,-0.000379973,0,
6,2.06009,0.919932,-0.033068,-0.000318736,0,
6,2.1281,0.927895,-0.0345896,-0.000254522,0,
6,2.20301,0.935455,-0.0362242,-0.000191451,0,
6,2.28535,0.942246,-0.0379686,-0.000133547,0,
6,2.37559,0.94791,-0.0398123,-8.44642e-05,0,
6,2.47424,0.952161,-0.0417408,-4.69465e-05,0,
6,2.58172,0.954868,-0.0437345,-2.20576e-05,0,
6,2.69844,0.956143,-0.0457695,-8.53722e-06,0,
6,2.82473,0.956376,-0.0478206,-2.92931e-06,0,
6,2.96084,0.956157,-0.0498629,-1.17829e-06,0,
6,3.10691,0.956082,-0.0518747,-5.65905e-07,0,
6,3.26296,0.956516,-0.0538377,-2.22764e-07,0,
6,3.42888,0.95748,-0.0557363,-6.93899e-08,0,
6,3.60438,0.95874,-0.0575553,-3.18167e-08,0,
6,3.78902,0.960009,-0.0592801,-2.51559e-08,0,
6,3.98218,0.961109,-0.0608977,-2.11909e-08,0,
6,4.18307,0.962009,-0.0623984,-1.78043e-08,0,
6,4.39071,0.96276,-0.063776,-1.53191e-08,0,
6,4.60398,0.963424,-0.0650281,-1.34999e-08,0,
6,4.82159,0.964032,-0.0661556,-1.20598e-08,0,
6,5.04218,0.96459,-0.0671621,-1.0881e-08,0,
6,5.26426,0.965086,-0.0680535,-1.01622e-08,0,
6,5.48633,0.965512,-0.0688371,-1.05099e-08,0,
6,5.70687,0.965859,-0.0695213,-1.34055e-08,0,
6,5.92439,0.966135,-0.0701152,-2.30138e-08,0,
6,6.1375,0.966384,-0.0706278,-5.48402e-08,0,
6,6.34489,0.966721,-0.0710677,-1.73793e-07,0,
6,6.5454,0.967287,-0.0714433,-5.64704e-07,0,
6,6.73802,0.968072,-0.0717617,-1.21625e-06,0,
6,6.92195,0.968577,-0.0720298,3.72573e-07,0,
6,7.09653,0.967572,-0.0722534,1.37371e-05,0,
6,7.26132,0.963297,-0.0724423,5.57979e-05,0,
6,7.41603,0.95428,-0.0725949,0.000142481,0,
6,7.56054,0.940257,-0.0727301,0.000279234,0,
6,7.6949,0.92221,-0.0728412,0.000403785,0,
6,7.81927,0.901749,-0.0729184,0.000540581,0,
6,7.93391,0.880724,-0.072983,0.000681381,0,
6,8.0392,0.860566,-0.0730258,0.000809591,0,
6,8.13555,0.841919,-0.073061,0.00091771,0,
6,8.22344,0.824812,-0.0730891,0.00100518,0,
6,8.30339,0.808977,-0.0731164,0.00107529,0,
6,8.37592,0.794066,-0.0731429,0.00113165,0,
6,8.44155,0.779759,-0.0731697,0.00117799,0,
6,8.50082,0.765808,-0.0731959,0.00121725,0,
6,8.55423,0.752055,-0.0732223,0.00125038,0,
6,8.60229,0.738432,-0.0732477,0.00127968,0,
6,8.64545,0.724927,-0.0732706,0.00130415,0,
6,8.68417,0.711538,-0.0732919,0.00132377,0,
6,8.71885,0.698261,-0.0733112,0.00133898,0,
6,8.74989,0.685092,-0.073329,0.00135015,0,
6,8.77763,0.672027,-0.0733451,0.00135762,0,
6,8.80241,0.659061,-0.0733598,0.00136166,0,
6,8.82452,0.646189,-0.0733731,0.00136258,0,
6,8.84423,0.633403,-0.0733851,0.00136067,0,
6,8.86181,0.620694,-0.0733958,0.00135624,0,
6,8.87746,0.60805,-0.0734054,0.00134957,0,
6,8.89139,0.595455,-0.073414,0.00134095,0,
6,8.90379,0.582891,-0.0734216,0.00133064,0,
6,8.91482,0.570335,-0.0734282,0.00131886,0,
6,8.92463,0.557763,-0.0734341,0.00130579,0,
6,8.93334,0.545144,-0.0734392,0.00129157,0,
6,8.94109,0.532445,-0.0734437,0.0012763,0,
6,8.94798,0.519629,-0.0734476,0.00126,0,
6,8.95409,0.506653,-0.0734509,0.00124263,0,
6,8.95953,0.493468,-0.0734538,0.0012241,0,
6,8.96435,0.48002,-0.0734562,0.00120421,0,
6,8.96863,0.466247,-0.0734583,0.00118268,0,
6,8.97244,0.452078,-0.0734601,0.00115912,0,
6,8.97581,0.437431,-0.0734616,0.00113296,0,
6,8.97881,0.422209,-0.0734628,0.00110348,0,
6,8.98147,0.406303,-0.0734639,0.0010697,0,
6,8.98383,0.389578,-0.0734648,0.00103037,0,
6,8.98593,0.371881,-0.0734655,0.0009843,0,
6,8.98779,0.353011,-0.0734661,0.000927713,0,
6,8.98944,0.332704,-0.0734667,0.000856038,0,
6,8.9909,0.310707,-0.073467,0.00077046,0,
6,8.9922,0.286849,-0.0734674,0.000669287,0,
6,8.99336,0.260968,-0.0734675,0.000545259,0,
6,8.99438,0.232906,-0.0734678,0.000393554,0,
6,8.99529,0.202976,-0.0734678,0.000246134,0,
6,8.99609,0.172322,-0.073468,0.000126973,0,
6,8.99681,0.142458,-0.0734679,5.27096e-05,0,
6,8.99744,0.114645,-0.0734681,1.75422e-05,0,
6,8.99801,0.0894874,-0.0734679,4.6515e-06,0,
6,8.9985,0.067049,-0.0734682,9.43496e-07,0,
6,8.99895,0.0471385,-0.073468,1.30987e-07,0,
6,8.99934,0.0294953,-0.0734683,9.66362e-09,0,
6,8.99969,0.0138634,-0.073468,2.09414e-10,0,

10,0,0,-0.0159348,0,0,
10,0.000296632,0.00710617,-0.015927,-3.3535e-11,0,
10,0.000596102,0.0142519,-0.015934,-1.23841e-09,0,
10,0.000900397,0.0214853,-0.0159277,-1.25491e-08,0,
10,0.00121153,0.0288545,-0.0159334,-6.72335e-08,0,
10,0.00153158,0.0364071,-0.0159282,-2.50876e-07,0,
10,0.00186264,0.0441902,-0.0159328,-7.44765e-07,0,
10,0.00220692,0.0522481,-0.0159286,-1.89026e-06,0,
10,0.00256668,0.0606196,-0.0159324,-4.27685e-06,0,
10,0.00294431,0.0693324,-0.0159289,-8.84455e-06,0,
10,0.00334229,0.0783945,-0.0159321,-1.69624e-05,0,
10,0.00376326,0.0877828,-0.0159292,-3.03978e-05,0,
10,0.00421,0.0974305,-0.0159318,-5.10523e-05,0,
10,0.00468544,0.107219,-0.0159294,-8.03892e-05,0,
10,0.00519274,0.116982,-0.0159316,-0.000118695,0,
10,0.00573524,0.126527,-0.0159295,-0.000164596,0,
10,0.00631651,0.135668,-0.0159312,-0.000215264,0,
10,0.00694041,0.144256,-0.0159294,-0.00026726,0,
10,0.00761104,0.152199,-0.0159308,-0.000317522,0,
10,0.00833284,0.159464,-0.0159291,-0.000363963,0,
10,0.00911058,0.166064,-0.0159301,-0.000405579,0,
10,0.0099494,0.172041,-0.0159286,-0.000442229,0,
10,0.0108548,0.177457,-0.0159291,-0.000474331,0,
10,0.0118329,0.182377,-0.0159277,-0.000502583,0,
10,0.0128901,0.186867,-0.0159277,-0.000527774,0,
10,0.0140333,0.190989,-0.0159263,-0.000550679,0,
10,0.0152702,0.194797,-0.0159259,-0.000572,0,
10,0.0166089,0.198339,-0.0159244,-0.000592352,0,
10,0.0180584,0.201657,-0.0159236,-0.000612265,0,
10,0.0196282,0.204786,-0.0159219,-0.000632195,0,
10,0.0213288,0.207757,-0.0159206,-0.00065254,0,
10,0.0231714,0.210598,-0.0159186,-0.00067365,0,
10,0.0251682,0.213331,-0.0159168,-0.000695845,0,
10,0.0273326,0.215976,-0.0159145,-0.000719422,0,
10,0.0296789,0.218553,-0.0159122,-0.000744662,0,
10,0.0322227,0.221077,-0.0159095,-0.000771844,0,
10,0.0349809,0.223562,-0.0159066,-0.000801243,0,
10,0.0379719,0.226024,-0.0159034,-0.000833141,0,
10,0.0412155,0.228473,-0.0159,-0.000867827,0,
10,0.0447333,0.230924,-0.0158962,-0.000905605,0,
10,0.0485489,0.233386,-0.0158922,-0.000946793,0,
10,0.0526875,0.235873,-0.0158879,-0.00099173,0,
10,0.0571768,0.238395,-0.0158833,-0.00104078,0,
10,0.0620466,0.240964,-0.0158784,-0.00109431,0,
10,0.0673295,0.243593,-0.0158732,-0.00115276,0,
10,0.0730607,0.246292,-0.0158679,-0.00121654,0,
10,0.0792784,0.249076,-0.0158624,-0.00128615,0,
10,0.0860241,0.251957,-0.0158568,-0.00136207,0,
10,0.0933428,0.254951,-0.0158513,-0.00144486,0,
10,0.101283,0.258073,-0.0158461,-0.00153508,0,
10,0.109899,0.261339,-0.0158412,-0.00163335,0,
10,0.119247,0.264768,-0.015837,-0.00174032,0,
10,0.12939,0.26838,-0.0158338,-0.00185667,0,
10,0.140395,0.272196,-0.0158321,-0.00198312,0,
10,0.152337,0.276241,-0.0158325,-0.00212042,0,
10,0.165296,0.280541,-0.0158355,-0.00226934,0,
10,0.179357,0.285125,-0.0158421,-0.00243068,0,
10,0.194615,0.290025,-0.0158533,-0.00260522,0,
10,0.211171,0.295278,-0.0158704,-0.00279376,0,
10,0.229138,0.300924,-0.015895,-0.00299705,0,
10,0.248635,0.307007,-0.0159286,-0.00321582,0,
10,0.269793,0.313577,-0.0159741,-0.00345072,0,
10,0.292753,0.320688,-0.0160322,-0.00370229,0,
10,0.317669,0.328403,-0.0161089,-0.00396973,0,
10,0.344708,0.336783,-0.016199,-0.00425364,0,
10,0.372405,0.345396,-0.016311,-0.00453825,0,
10,0.399623,0.353895,-0.0164218,-0.00481093,0,
10,0.426397,0.362294,-0.0165489,-0.00511544,0,
10,0.452757,0.370747,-0.0168412,-0.00534699,0,
10,0.478735,0.379521,-0.01734,-0.00550753,0,
10,0.504358,0.388773,-0.0179365,-0.0056524,0,
10,0.529657,0.398489,-0.0185375,-0.00579652,0,
10,0.554656,0.408567,-0.0191092,-0.00593549,0,
10,0.579382,0.418888,-0.0196574,-0.00606439,0,
10,0.603859,0.42935,-0.020186,-0.00617944,0,
10,0.628112,0.439884,-0.020703,-0.00627825,0,
10,0.652163,0.450453,-0.0212102,-0.00635965,0,
10,0.676035,0.461048,-0.0217079,-0.00642325,0,
10,0.699751,0.471685,-0.0221933,-0.00646898,0,
10,0.72333,0.482393,-0.0226623,-0.00649684,0,
10,0.746795,0.493214,-0.0231099,-0.00650665,0,
10,0.770165,0.504196,-0.0235312,-0.00649797,0,
10,0.79346,0.515395,-0.0239219,-0.00647008,0,
10,0.816699,0.526866,-0.0242786,-0.00642197,0,
10,0.839903,0.538672,-0.0245993,-0.00635238,0,
10,0.863088,0.550873,-0.0248835,-0.0062599,0,
10,0.886275,0.563531,-0.0251313,-0.00614295,0,
10,0.909481,0.576703,-0.0253442,-0.00599987,0,
10,0.932723,0.590445,-0.0255237,-0.00582902,0,
10,0.956021,0.604794,-0.0256721,-0.00562937,0,
10,0.97939,0.61976,-0.0257911,-0.00540108,0,
10,1.00285,0.635307,-0.0258827,-0.00514636,0,
10,1.02641,0.651335,-0.0259479,-0.00486887,0,
10,1.0501,0.667678,-0.0259875,-0.0045731,0,
10,1.07392,0.684116,-0.0260012,-0.00426466,0,
10,1.0979,0.700389,-0.0259885,-0.00395019,0,
10,1.12205,0.716224,-0.02595,-0.00363673,0,
10,1.14639,0.731351,-0.0258878,-0.00333942,0,
10,1.17093,0.745568,-0.025803,-0.00305841,0,
10,1.19568,0.758806,-0.0256935,-0.00279446,0,
10,1.22066,0.771099,-0.0255596,-0.00254809,0,
10,1.24589,0.782541,-0.0254011,-0.00231825,0,
10,1.27137,0.793247,-0.0252195,-0.00210297,0,
10,1.29713,0.803343,-0.0250132,-0.00190015,0,
10,1.32317,0.812992,-0.0247755,-0.00168165,0,
10,1.34951,0.822245,-0.0245234,-0.00147819,0,
10,1.37616,0.831004,-0.0242688,-0.00128548,0,
10,1.40313,0.839172,-0.0240096,-0.001109,0,
10,1.43043,0.846694,-0.0237517,-0.000954967,0,
10,1.45807,0.85357,-0.023492,-0.000833454,0,
10,1.48607,0.859945,-0.0232276,-0.000721694,0,
10,1.51444,0.86602,-0.0229565,-0.000623909,0,
10,1.54318,0.871857,-0.0226848,-0.000543191,0,
10,1.57231,0.877424,-0.0224196,-0.000477888,0,
10,1.60184,0.882701,-0.0221602,-0.00042653,0,
10,1.63178,0.887718,-0.021906,-0.00038663,0,
10,1.66213,0.89253,-0.0216559,-0.000355201,0,
10,1.69292,0.897175,-0.0214108,-0.000329536,0,
10,1.72416,0.901669,-0.0211712,-0.00030766,0,
10,1.75585,0.906015,-0.0209377,-0.000288291,0,
10,1.78802,0.910206,-0.0207108,-0.000270628,0,
10,1.82067,0.914234,-0.0204908,-0.00025415,0,
10,1.85383,0.918091,-0.0202782,-0.000238549,0,
10,1.88751,0.921768,-0.0200734,-0.000223681,0,
10,1.92173,0.925267,-0.0198765,-0.000209627,0,
10,1.95652,0.928605,-0.019687,-0.000196367,0,
10,1.9919,0.931834,-0.019503,-0.000178431,0,
10,2.02791,0.934984,-0.0193271,-0.000161167,0,
10,2.06456,0.938029,-0.0191595,-0.000142756,0,
10,2.10268,0.940981,-0.0189993,-0.000122539,0,
10,2.1443,0.943905,-0.0188384,-0.000101408,0,
10,2.18977,0.946728,-0.0186806,-7.99187e-05,0,
10,2.23946,0.949344,-0.0185286,-5.86817e-05,0,
10,2.29376,0.951638,-0.0183872,-3.88878e-05,0,
10,2.35309,0.953498,-0.0182611,-2.16187e-05,0,
10,2.4179,0.954819,-0.018157,-7.73832e-06,0,
10,2.48863,0.955524,-0.0180818,2.17653e-06,0,
10,2.56575,0.955576,-0.0180436,7.95062e-06,0,
10,2.64971,0.955004,-0.0180506,9.9257e-06,0,
10,2.74098,0.953916,-0.0181113,9.00017e-06,0,
10,2.83997,0.952502,-0.018233,6.49627e-06,0,
10,2.94709,0.951009,-0.0184224,3.77091e-06,0,
10,3.06269,0.949685,-0.0186841,1.73253e-06,0,
10,3.18706,0.948713,-0.0190212,6.12163e-07,0,
10,3.3204,0.948162,-0.0194349,1.60081e-07,0,
10,3.46281,0.947975,-0.0199243,2.96537e-08,0,
10,3.61427,0.948012,-0.020487,3.79932e-09,0,
10,3.77463,0.948126,-0.0211184,3.69419e-10,0,
10,3.94358,0.948211,-0.0218118,1.01194e-10,0,
10,4.12067,0.948238,-0.0225586,3.62278e-12,0,
10,4.30525,0.948234,-0.0233484,-4.63767e-10,0,
10,4.49655,0.948244,-0.0241694,-1.33056e-09,0,
10,4.6936,0.948303,-0.0250093,-2.43558e-09,0,
10,4.89531,0.948416,-0.0258552,-3.73682e-09,0,
10,5.10047,0.948572,-0.0266949,-5.58199e-09,0,
10,5.30776,0.948745,-0.0275169,-8.98732e-09,0,
10,5.51581,0.948917,-0.0283109,-1.62361e-08,0,
10,5.72323,0.949076,-0.0290684,-3.30565e-08,0,
10,5.92863,0.949244,-0.0297825,-7.82566e-08,0,
10,6.13069,0.94948,-0.0304481,-2.1671e-07,0,
10,6.32816,0.949879,-0.0310619,-6.0964e-07,0,
10,6.51991,0.950477,-0.0316223,-1.33896e-06,0,
10,6.70495,0.951058,-0.0321294,-1.18598e-06,0,
10,6.88244,0.950922,-0.0325839,5.09106e-06,0,
10,7.0517,0.948848,-0.032988,2.84793e-05,0,
10,7.21224,0.94343,-0.0333414,8.26997e-05,0,
10,7.3637,0.93375,-0.033649,0.000177715,0,
10,7.5059,0.919829,-0.0339141,0.00030647,0,
10,7.63878,0.902254,-0.0341399,0.000419655,0,
10,7.76243,0.882116,-0.0343342,0.000545758,0,
10,7.87701,0.861192,-0.0344895,0.000675737,0,
10,7.9828,0.840982,-0.034619,0.000794004,0,
10,8.08014,0.822244,-0.0347227,0.000894522,0,
10,8.16941,0.805089,-0.034809,0.00097737,0,
10,8.25106,0.789266,-0.034881,0.00104565,0,
10,8.32554,0.774411,-0.0349435,0.00110223,0,
10,8.39331,0.760187,-0.034998,0.00114987,0,
10,8.45484,0.746346,-0.035046,0.00119096,0,
10,8.5106,0.732737,-0.035088,0.00122676,0,
10,8.56104,0.719294,-0.0351246,0.00125776,0,
10,8.60659,0.706008,-0.0351564,0.00128406,0,
10,8.64767,0.692901,-0.0351842,0.0013057,0,
10,8.68467,0.679999,-0.0352088,0.00132281,0,
10,8.71795,0.667294,-0.0352307,0.00133171,0,
10,8.74786,0.654762,-0.0352498,0.00133651,0,
10,8.77471,0.6424,-0.0352666,0.00133744,0,
10,8.79881,0.630205,-0.0352811,0.00133469,0,
10,8.8204,0.618173,-0.0352938,0.00132875,0,
10,8.83975,0.606295,-0.0353048,0.00132014,0,
10,8.85708,0.594557,-0.0353144,0.00130933,0,
10,8.87259,0.582944,-0.0353226,0.00129674,0,
10,8.88646,0.571433,-0.0353297,0.00128278,0,
10,8.89886,0.560003,-0.0353358,0.00126776,0,
10,8.90995,0.548625,-0.035341,0.00125195,0,
10,8.91986,0.537272,-0.0353455,0.00123557,0,
10,8.92872,0.525911,-0.0353493,0.00121875,0,
10,8.93663,0.514507,-0.0353524,0.00120158,0,
10,8.94369,0.503023,-0.0353552,0.00118409,0,
10,8.95,0.491419,-0.0353574,0.00116623,0,
10,8.95564,0.47965,-0.0353594,0.00114791,0,
10,8.96067,0.467669,-0.0353609,0.00112898,0,
10,8.96517,0.455422,-0.0353623,0.0011092,0,
10,8.96918,0.442851,-0.0353634,0.00108825,0,
10,8.97276,0.429889,-0.0353644,0.0010657,0,
10,8.97596,0.416459,-0.0353651,0.001041,0,
10,8.97882,0.402474,-0.0353658,0.00101348,0,
10,8.98137,0.38783,-0.0353662,0.000982211,0,
10,8.98365,0.372408,-0.0353668,0.000946055,0,
10,8.98569,0.356065,-0.035367,0.000903884,0,
10,8.9875,0.338623,-0.0353675,0.000852845,0,
10,8.98913,0.319842,-0.0353675,0.000788173,0,
10,8.99058,0.299485,-0.0353679,0.000711463,0,
10,8.99188,0.277388,-0.0353678,0.00062121,0,
10,8.99304,0.253393,-0.0353682,0.000511291,0,
10,8.99408,0.227318,-0.035368,0.00037621,0,
10,8.99501,0.199357,-0.0353684,0.000242324,0,
10,8.99583,0.170442,-0.0353681,0.000130044,0,
10,8.99658,0.141908,-0.0353685,5.64423e-05,0,
10,8.99724,0.114973,-0.0353681,1.96181e-05,0,
10,8.99784,0.0903106,-0.0353686,5.40969e-06,0,
10,8.99837,0.0680728,-0.0353681,1.13637e-06,0,
10,8.99885,0.0481371,-0.0353687,1.62891e-07,0,
10,8.99927,0.030291,-0.035368,1.23698e-08,0,
10,8.99966,0.014315,-0.0353688,2.73723e-10,0,
10,9,0,-0.035368,0,0,

0.0416667,0,0,-0.232306,0,3.21848e-06,
0.0833333,0,0,-0.232474,0,5.2603e-06,
0.125,0,0,-0.232405,0,6.72465e-06,
0.166667,0,0,-0.232458,0,1.11872e-05,
0.208333,0,0,-0.232463,0,1.57742e-05,
0.25,0,0,-0.232509,0,2.08049e-05,
0.291667,0,0,-0.23255,0,2.52669e-05,
0.333333,0,0,-0.23261,0,2.91371e-05,
0.375,0,0,-0.232672,0,3.22541e-05,
0.416667,0,0,-0.232742,0,3.49938e-05,
0.458333,0,0,-0.232817,0,3.776e-05,
0.5,0,0,-0.232901,0,4.10552e-05,
0.541667,0,0,-0.232997,0,4.52584e-05,
0.583333,0,0,-0.233107,0,5.06007e-05,
0.625,0,0,-0.233237,0,5.71043e-05,
0.666667,0,0,-0.233388,0,6.45845e-05,
0.708333,0,0,-0.233563,0,7.26725e-05,
0.75,0,0,-0.233762,0,8.08561e-05,
0.791667,0,0,-0.233984,0,8.85522e-05,
0.833333,0,0,-0.234226,0,9.51804e-05,
0.875,0,0,-0.234485,0,0.000100278,
0.916667,0,0,-0.23476,0,0.000103644,
0.958333,0,0,-0.235057,0,0.000105193,
1,0,0,-0.235386,0,0.000104772,
1.04167,0,0,-0.235765,0,0.000101956,
1.08333,0,0,-0.236222,0,9.56254e-05,
1.125,0,0,-0.236782,0,8.39655e-05,
1.16667,0,0,-0.237468,0,6.47012e-05,
1.20833,0,0,-0.238291,0,3.5496e-05,
1.25,0,0,-0.239252,0,-5.3294e-06,
1.29167,0,0,-0.240334,0,-5.81769e-05,
1.33333,0,0,-0.241508,0,-0.000121937,
1.375,0,0,-0.242739,0,-0.000194249,
1.41667,0,0,-0.243988,0,-0.000272137,
1.45833,0,0,-0.245221,0,-0.000352727,
1.5,0,0,-0.246407,0,-0.000433756,
1.54167,0,0,-0.247524,0,-0.000513752,
1.58333,0,0,-0.248552,0,-0.000591932,
1.625,0,0,-0.249479,0,-0.000667973,
1.66667,0,0,-0.250295,0,-0.000741797,
1.70833,0,0,-0.250989,0,-0.000813413,
1.75,0,0,-0.251555,0,-0.000882838,
1.79167,0,0,-0.251987,0,-0.000950066,
1.83333,0,0,-0.252279,0,-0.00101506,
1.875,0,0,-0.252426,0,-0.00107775,
1.91667,0,0,-0.252424,0,-0.00113805,
1.95833,0,0,-0.252271,0,-0.00119587,
2,0,0,-0.251964,0,-0.00125114,
2.04167,0,0,-0.251503,0,-0.00130377,
2.08333,0,0,-0.250887,0,-0.00135372,
2.125,0,0,-0.250119,0,-0.00140096,
2.16667,0,0,-0.249199,0,-0.0014455,
2.20833,0,0,-0.248129,0,-0.00148733,
2.25,0,0,-0.246913,0,-0.00152648,
2.29167,0,0,-0.245553,0,-0.00156299,
2.33333,0,0,-0.244052,0,-0.00159687,
2.375,0,0,-0.242415,0,-0.00162817,
2.41667,0,0,-0.240644,0,-0.00165691,
2.45833,0,0,-0.238744,0,-0.00168314,
2.5,0,0,-0.236718,0,-0.0017069,
2.54167,0,0,-0.23457,0,-0.00172823,
2.58333,0,0,-0.232305,0,-0.00174716,
2.625,0,0,-0.229926,0,-0.00176372,
2.66667,0,0,-0.227439,0,-0.00177794,
2.70833,0,0,-0.224847,0,-0.00178984,
2.75,0,0,-0.222156,0,-0.00179946,
2.79167,0,0,-0.219371,0,-0.00180684,
2.83333,0,0,-0.216497,0,-0.00181202,
2.875,0,0,-0.213538,0,-0.00181506,
2.91667,0,0,-0.210502,0,-0.00181602,
2.95833,0,0,-0.207392,0,-0.00181496,
3,0,0,-0.204215,0,-0.00181194,
3.04167,0,0,-0.200976,0,-0.00180703,
3.08333,0,0,-0.197679,0,-0.00180028,
3.125,0,0,-0.194331,0,-0.00179177,
3.16667,0,0,-0.190936,0,-0.00178155,
3.20833,0,0,-0.187499,0,-0.0017697,
3.25,0,0,-0.184026,0,-0.00175628,
3.29167,0,0,-0.18052,0,-0.00174136,
3.33333,0,0,-0.176987,0,-0.001725,
3.375,0,0,-0.17343,0,-0.00170727,
3.41667,0,0,-0.169855,0,-0.00168822,
3.45833,0,0,-0.166265,0,-0.00166792,
3.5,0,0,-0.162664,0,-0.00164643,
3.54167,0,0,-0.159055,0,-0.00162379,
3.58333,0,0,-0.155443,0,-0.00160007,
3.625,0,0,-0.151831,0,-0.00157533,
3.66667,0,0,-0.148221,0,-0.00154962,
3.70833,0,0,-0.144617,0,-0.00152298,
3.75,0,0,-0.141021,0,-0.00149547,
3.79167,0,0,-0.137437,0,-0.00146713,
3.83333,0,0,-0.133866,0,-0.001438,
3.875,0,0,-0.13031,0,-0.00140812,
3.91667,0,0,-0.126773,0,-0.00137754,
3.95833,0,0,-0.123255,0,-0.00134631,
4,0,0,-0.119758,0,-0.00131446,
4.04167,0,0,-0.116285,0,-0.00128203,
4.08333,0,0,-0.112836,0,-0.00124905,
4.125,0,0,-0.109413,0,-0.00121554,
4.16667,0,0,-0.106017,0,-0.00118154,
4.20833,0,0,-0.102649,0,-0.00114706,
4.25,0,0,-0.0993098,0,-0.00111213,
4.29167,0,0,-0.0960008,0,-0.00107677,
4.33333,0,0,-0.0927227,0,-0.00104099,
4.375,0,0,-0.0894761,0,-0.00100481,
4.41667,0,0,-0.0862619,0,-0.000968229,
4.45833,0,0,-0.0830807,0,-0.00093127,
4.5,0,0,-0.0799334,0,-0.00089394,
4.54167,0,0,-0.0768205,0,-0.000856253,
4.58333,0,0,-0.0737426,0,-0.000818226,
4.625,0,0,-0.0707004,0,-0.00077988,
4.66667,0,0,-0.0676943,0,-0.000741231,
4.70833,0,0,-0.0647246,0,-0.000702296,
4.75,0,0,-0.0617916,0,-0.000663081,
4.79167,0,0,-0.0588958,0,-0.00062359,
4.83333,0,0,-0.0560375,0,-0.000583823,
4.875,0,0,-0.0532171,0,-0.000543775,
4.91667,0,0,-0.0504351,0,-0.00050344,
4.95833,0,0,-0.0476922,0,-0.00046281,
5,0,0,-0.0449892,0,-0.00042187,
5.04167,0,0,-0.0423271,0,-0.000380603,
5.08333,0,0,-0.0397074,0,-0.000339002,
5.125,0,0,-0.0371323,0,-0.000297079,
5.16667,0,0,-0.0346044,0,-0.000254903,
5.20833,0,0,-0.0321271,0,-0.000212616,
5.25,0,0,-0.0297032,0,-0.000170431,
5.29167,0,0,-0.0273332,0,-0.000128541,
5.33333,0,0,-0.0250159,0,-8.70338e-05,
5.375,0,0,-0.0227497,0,-4.58973e-05,
5.41667,0,0,-0.0205335,0,-5.08346e-06,
5.45833,0,0,-0.0183662,0,3.54507e-05,
5.5,0,0,-0.016247,0,7.57314e-05,
5.54167,0,0,-0.0141753,0,0.000115776,
5.58333,0,0,-0.0121509,0,0.000155594,
5.625,0,0,-0.0101733,0,0.000195192,
5.66667,0,0,-0.00824246,0,0.000234573,
5.70833,0,0,-0.00635827,0,0.000273734,
5.75,0,0,-0.00452072,0,0.000312672,
5.79167,0,0,-0.00272984,0,0.000351379,
5.83333,0,0,-0.000985725,0,0.000389845,
5.875,0,0,0.000711525,0,0.000428059,
5.91667,0,0,0.00236176,0,0.000466008,
5.95833,0,0,0.00396481,0,0.000503676,
6,0,0,0.00552048,0,0.000541045,
6.04167,0,0,0.00702861,0,0.000578097,
6.08333,0,0,0.00848902,0,0.000614812,
6.125,0,0,0.00990155,0,0.000651168,
6.16667,0,0,0.0112661,0,0.000687144,
6.20833,0,0,0.0125825,0,0.000722715,
6.25,0,0,0.0138507,0,0.00075786,
6.29167,0,0,0.0150707,0,0.000792553,
6.33333,0,0,0.0162425,0,0.000826771,
6.375,0,0,0.0173661,0,0.000860491,
6.41667,0,0,0.0184414,0,0.00089369,
6.45833,0,0,0.0194687,0,0.000926344,
6.5,0,0,0.020448,0,0.00095843,
6.54167,0,0,0.0213794,0,0.000989927,
6.58333,0,0,0.0222632,0,0.00102081,
6.625,0,0,0.0230995,0,0.00105107,
6.66667,0,0,0.0238887,0,0.00108067,
6.70833,0,0,0.0246309,0,0.00110959,
6.75,0,0,0.0253266,0,0.00113783,
6.79167,0,0,0.025976,0,0.00116535,
6.83333,0,0,0.0265794,0,0.00119214,
6.875,0,0,0.0271373,0,0.0012182,
6.91667,0,0,0.0276499,0,0.00124351,
6.95833,0,0,0.0281177,0,0.00126805,
7,0,0,0.0285412,0,0.00129182,
7.04167,0,0,0.0289208,0,0.0013148,
7.08333,0,0,0.0292571,0,0.00133699,
7.125,0,0,0.0295505,0,0.00135837,
7.16667,0,0,0.0298014,0,0.00137892,
7.20833,0,0,0.0300105,0,0.00139862,
7.25,0,0,0.0301782,0,0.00141747,
7.29167,0,0,0.0303052,0,0.00143546,
7.33333,0,0,0.030392,0,0.00145258,
7.375,0,0,0.0304392,0,0.00146885,
7.41667,0,0,0.0304475,0,0.00148426,
7.45833,0,0,0.0304174,0,0.00149881,
7.5,0,0,0.0303496,0,0.00151253,
7.54167,0,0,0.0302444,0,0.0015254,
7.58333,0,0,0.0301025,0,0.00153743,
7.625,0,0,0.0299244,0,0.00154863,
7.66667,0,0,0.0297105,0,0.00155902,
7.70833,0,0,0.0294613,0,0.0015686,
7.75,0,0,0.0291772,0,0.00157738,
7.79167,0,0,0.0288587,0,0.00158536,
7.83333,0,0,0.0285052,0,0.00159255,
7.875,0,0,0.028117,0,0.00159902,
7.91667,0,0,0.0277059,0,0.00160548,
7.95833,0,0,0.027191,0,0.0016102,
8,0,0,0.0267685,0,0.00161467,
8.04171,0,0,0.0263569,0,0.00161943,
8.08368,0,0,0.0257754,0,0.00162325,
8.12617,0,0,0.0252115,0,0.00162429,
8.16946,0,0,0.0246036,0,0.00162445,
8.21382,0,0,0.0239397,0,0.00162368,
8.25952,0,0,0.0232227,0,0.00162188,
8.30685,0,0,0.0224451,0,0.00161916,
8.35611,0,0,0.0215987,0,0.00161551,
8.40762,0,0,0.0206752,0,0.00161093,
8.46168,0,0,0.019665,0,0.00160535,
8.51865,0,0,0.0185572,0,0.00159872,
8.57889,0,0,0.0173402,0,0.00159098,
8.64276,0,0,0.0160016,0,0.00158209,
8.71067,0,0,0.0145282,0,0.00157201,
8.78306,0,0,0.0129066,0,0.00156076,
8.86037,0,0,0.0111235,0,0.00154841,
8.94309,0,0,0.00916635,0,0.00153511,
9.03174,0,0,0.0070245,0,0.00152106,
9.12689,0,0,0.00469031,0,0.00150654,
9.22912,0,0,0.00216038,0,0.00149193,
9.33908,0,0,-0.000563509,0,0.00147762,
9.45746,0,0,-0.00347475,0,0.00146399,
9.58501,0,0,-0.00656412,0,0.0014513,
9.72253,0,0,-0.00981787,0,0.00143951,
9.87088,0,0,-0.0131967,0,0.00142829,
10.031,0,0,-0.0165921,0,0.00141742,
10.2039,0,0,-0.0197737,0,0.00140742,
10.3906,0,0,-0.022339,0,0.00140039,
10.5924,0,0,-0.023705,0,0.00140084,
10.8105,0,0,-0.0231965,0,0.00141555,
11.0463,0,0,-0.0202702,0,0.00145196,
11.3012,0,0,-0.0148107,0,0.00151488,
11.5769,0,0,-0.00731894,0,0.00160314,
11.8751,0,0,0.00117654,0,0.00170882,
12.1977,0,0,0.00945478,0,0.0018196,
12.5466,0,0,0.0164737,0,0.00192303,
12.9242,0,0,0.0215998,0,0.00200999,
13.3327,0,0,0.0246468,0,0.00207622,
13.7748,0,0,0.0257774,0,0.00212203,
14.2532,0,0,0.0253683,0,0.00215111,
14.7709,0,0,0.0238917,0,0.00216871,
15.3312,0,0,0.0218257,0,0.00217872,
15.9377,0,0,0.0195716,0,0.00218456,
16.594,0,0,0.0173911,0,0.00218898,
17.3044,0,0,0.0154092,0,0.00219343,
18.0733,0,0,0.0136727,0,0.00219808,
18.9056,0,0,0.0122012,0,0.00220222,
19.8064,0,0,0.0109971,0,0.00220556,
20.7816,0,0,0.0100322,0,0.00220854,
21.8371,0,0,0.00925414,0,0.00221151,
22.9796,0,0,0.00861485,0,0.00221439,
24.2163,0,0,0.00807752,0,0.00221813,
25.5551,0,0,0.00760439,0,0.0022232,
27.0042,0,0,0.00715665,0,0.00222949,
28.5729,0,0,0.00670475,0,0.002237,
30.271,0,0,0.0062295,0,0.00224655,
32.1091,0,0,0.00571627,0,0.00225715,
34.0989,0,0,0.00515177,0,0.00226835,
36.2529,0,0,0.00451768,0,0.00227924,
38.5845,0,0,0.00380443,0,0.00228847,
41.1085,0,0,0.00304449,0,0.00229721,
43.8407,0,0,0.0020739,0,0.00230467,
46.7983,0,0,0.00107779,0,0.00231162,
50,0,0,0.00214816,0,0.00232906,

