005705a0689004b88dc343df0058f8b34c0ee111 
X,Z,x_velocity,cp,uw_b,cf,
1,0,0,-0.234963,0,0,
1,9,0,-0.127535,0,0,
1,1.01284,0.473022,-0.22828,-0.00926767,0,
1,0.000308731,0.00055407,-0.234961,-1.42923e-14,0,
1,0.000654158,0.00115094,-0.234962,-6.23623e-13,0,
1,0.00104139,0.00179141,-0.234961,-7.92666e-12,0,
1,0.00147619,0.00247431,-0.234962,-5.34382e-11,0,
1,0.00196502,0.00319602,-0.234961,-2.48085e-10,0,
1,0.00251518,0.00394964,-0.234962,-9.01041e-10,0,
1,0.0031349,0.00472358,-0.234961,-2.73943e-09,0,
1,0.00383341,0.00549999,-0.234961,-7.22504e-09,0,
1,0.00462115,0.00625227,-0.234961,-1.67568e-08,0,
1,0.00550983,0.00694209,-0.234961,-3.38227e-08,0,
1,0.00651264,0.00751507,-0.23496,-5.60071e-08,0,
1,0.00764438,0.00789588,-0.23496,-5.80939e-08,0,
1,0.00892169,0.00798326,-0.234959,5.97528e-08,0,
1,0.0103632,0.00765039,-0.234958,5.94765e-07,0,
1,0.0119898,0.00675916,-0.234957,2.25396e-06,0,
1,0.0138248,0.00519939,-0.234955,6.31636e-06,0,
1,0.0158944,0.00293938,-0.234951,1.43249e-05,0,
1,0.0182274,4.32031e-05,-0.234945,2.71493e-05,0,
1,0.0208562,-0.00337616,-0.234936,4.42338e-05,0,
1,0.0238164,-0.00722112,-0.234924,6.42833e-05,0,
1,0.0271475,-0.0114375,-0.234908,8.6054e-05,0,
1,0.0308929,-0.0160057,-0.234888,0.00010865,0,
1,0.0351001,-0.0209202,-0.234864,0.000131355,0,
1,0.0398209,-0.02617,-0.234837,0.000153434,0,
1,0.0451115,-0.0317252,-0.234807,0.000174034,0,
1,0.0510323,-0.0375275,-0.234776,0.000192145,0,
1,0.057648,-0.0434857,-0.234745,0.000206632,0,
1,0.0650269,-0.0494752,-0.234716,0.00021634,0,
1,0.0732406,-0.0553447,-0.234692,0.000220134,0,
1,0.0823632,-0.0609287,-0.234676,0.000217052,0,
1,0.0924701,-0.0660648,-0.234671,0.000206464,0,
1,0.103636,-0.0706096,-0.234683,0.000188197,0,
1,0.115935,-0.0744529,-0.234713,0.000162576,0,
1,0.129436,-0.0775238,-0.234766,0.000130366,0,
1,0.144202,-0.079791,-0.234844,9.26243e-05,0,
1,0.160284,-0.0812557,-0.234948,5.04971e-05,0,
1,0.177724,-0.0819428,-0.235079,5.05399e-06,0,
1,0.196544,-0.0818908,-0.235234,-4.28109e-05,0,
1,0.21675,-0.0811446,-0.235413,-9.23837e-05,0,
1,0.238323,-0.0797503,-0.235611,-0.000143077,0,
1,0.26122,-0.0777533,-0.235825,-0.000194357,0,
1,0.28537,-0.0751975,-0.236049,-0.000245697,0,
1,0.310673,-0.0721271,-0.236279,-0.000296481,0,
1,0.337003,-0.0685872,-0.236507,-0.000345987,0,
1,0.364206,-0.0646257,-0.236727,-0.000393404,0,
1,0.392107,-0.0602942,-0.236934,-0.000437863,0,
1,0.420509,-0.0556484,-0.237122,-0.000478474,0,
1,0.449206,-0.0507475,-0.237285,-0.000514359,0,
1,0.477982,-0.0456535,-0.237422,-0.000544707,0,
1,0.506624,-0.0404271,-0.237529,-0.000568892,0,
1,0.534925,-0.0351205,-0.237606,-0.000586768,0,
1,0.562692,-0.0297633,-0.237654,-0.000599329,0,
1,0.589754,-0.0243376,-0.237668,-0.000609486,0,
1,0.615961,-0.0187451,-0.237651,-0.000620275,0,
1,0.641193,-0.0128241,-0.237594,-0.000648773,0,
1,0.665359,-0.00634948,-0.237484,-0.000704337,0,
1,0.688396,0.00102532,-0.237329,-0.000803322,0,
1,0.710271,0.00972006,-0.237129,-0.00096745,0,
1,0.730976,0.0201291,-0.236895,-0.0012154,0,
1,0.750529,0.0325053,-0.236638,-0.00155971,0,
1,0.768969,0.0468654,-0.236369,-0.0020029,0,
1,0.78635,0.0629895,-0.236096,-0.00253418,0,
1,0.802743,0.0805209,-0.235822,-0.00313146,0,
1,0.818232,0.0990784,-0.235555,-0.00376844,0,
1,0.832689,0.118065,-0.235289,-0.0044179,0,
1,0.846039,0.136939,-0.235032,-0.00505199,0,
1,0.858357,0.155422,-0.23478,-0.00565211,0,
1,0.869723,0.173322,-0.234531,-0.00620866,0,
1,0.880212,0.190516,-0.234286,-0.00671601,0,
1,0.889898,0.206927,-0.234045,-0.00717274,0,
1,0.898852,0.222517,-0.233812,-0.00758074,0,
1,0.907141,0.237279,-0.233585,-0.00794264,0,
1,0.914826,0.251243,-0.233354,-0.00825849,0,
1,0.921966,0.264467,-0.233114,-0.00853312,0,
1,0.928616,0.277024,-0.232863,-0.00877052,0,
1,0.934823,0.288987,-0.232602,-0.00897519,0,
1,0.940633,0.300425,-0.232337,-0.00915207,0,
1,0.946088,0.311397,-0.232071,-0.00930404,0,
1,0.951224,0.321956,-0.231808,-0.00943349,0,
1,0.956076,0.33215,-0.231549,-0.00954244,0,
1,0.960675,0.342023,-0.231295,-0.00963261,0,
1,0.965047,0.351615,-0.231047,-0.00970544,0,
1,0.969219,0.360962,-0.230806,-0.00976214,0,
1,0.973211,0.370099,-0.230573,-0.00980368,0,
1,0.977045,0.379057,-0.230346,-0.00983089,0,
1,0.980739,0.387865,-0.230126,-0.00984438,0,
1,0.984308,0.39655,-0.229913,-0.00984464,0,
1,0.987768,0.405139,-0.229708,-0.00983201,0,
1,0.991131,0.413655,-0.229508,-0.00980668,0,
1,0.99441,0.422122,-0.229315,-0.00976875,0,
1,0.997615,0.43056,-0.229129,-0.00971817,0,
1,1.00076,0.438991,-0.228948,-0.0096548,0,
1,1.00384,0.447434,-0.228773,-0.0095784,0,
1,1.00688,0.455908,-0.228603,-0.00948861,0,
1,1.00988,0.464431,-0.228439,-0.00938512,0,
1,1.01581,0.481792,-0.228124,-0.00913316,0,
1,1.01882,0.490863,-0.227969,-0.00897793,0,
1,1.02188,0.500259,-0.227813,-0.00880105,0,
1,1.025,0.510006,-0.227657,-0.00860193,0,
1,1.02818,0.520124,-0.227501,-0.00837792,0,
1,1.03144,0.530635,-0.227344,-0.00812649,0,
1,1.03478,0.54156,-0.227187,-0.00784532,0,
1,1.03822,0.552919,-0.227031,-0.00753193,0,
1,1.04177,0.564726,-0.226874,-0.00718385,0,
1,1.04544,0.576989,-0.226719,-0.0067988,0,
1,1.04925,0.589704,-0.226564,-0.00637498,0,
1,1.05321,0.602848,-0.226412,-0.00591164,0,
1,1.05735,0.616369,-0.226262,-0.00540978,0,
1,1.06169,0.630172,-0.226115,-0.0048734,0,
1,1.06626,0.644105,-0.225973,-0.00431099,0,
1,1.07108,0.657946,-0.225835,-0.00373709,0,
1,1.07618,0.671399,-0.225704,-0.00317311,0,
1,1.0816,0.68412,-0.225578,-0.00264582,0,
1,1.08738,0.695782,-0.225456,-0.0021823,0,
1,1.09357,0.70617,-0.225337,-0.00180253,0,
1,1.10022,0.715259,-0.225219,-0.0015139,0,
1,1.10739,0.723211,-0.225098,-0.00131079,0,
1,1.11514,0.730306,-0.22497,-0.00117893,0,
1,1.12354,0.736844,-0.22483,-0.00110073,0,
1,1.13268,0.743084,-0.224675,-0.00105937,0,
1,1.14266,0.749221,-0.224501,-0.00104091,0,
1,1.15357,0.755391,-0.224304,-0.00103499,0,
1,1.16554,0.761682,-0.224083,-0.00103484,0,
1,1.1787,0.768148,-0.223833,-0.00103596,0,
1,1.1932,0.774822,-0.223552,-0.00103619,0,
1,1.2092,0.781723,-0.223236,-0.00103465,0,
1,1.22689,0.788865,-0.22288,-0.00103091,0,
1,1.24659,0.7963,-0.222478,-0.00102434,0,
1,1.26879,0.804114,-0.222012,-0.00101614,0,
1,1.29378,0.812318,-0.221489,-0.00100686,0,
1,1.3219,0.820932,-0.220862,-0.000992213,0,
1,1.35351,0.829982,-0.220115,-0.000948232,0,
1,1.389,0.839464,-0.219275,-0.000909027,0,
1,1.42882,0.849385,-0.218321,-0.000871169,0,
1,1.47342,0.859797,-0.217231,-0.000832175,0,
1,1.52332,0.870775,-0.215983,-0.000790859,0,
1,1.57905,0.882412,-0.214553,-0.000746723,0,
1,1.64119,0.89482,-0.21292,-0.000699838,0,
1,1.71033,0.908128,-0.21106,-0.000647841,0,
1,1.78711,0.922456,-0.20895,-0.000587768,0,
1,1.87215,0.937843,-0.20657,-0.000517585,0,
1,1.9661,0.954123,-0.203902,-0.000436812,0,
1,2.06959,0.970764,-0.20093,-0.000348166,0,
1,2.18321,0.986769,-0.197662,-0.000256297,0,
1,2.30752,1.00081,-0.194158,-0.000130882,0,
1,2.44299,1.01137,-0.190409,-4.35381e-05,0,
1,2.59002,1.01709,-0.186464,-4.09388e-06,0,
1,2.74885,1.01788,-0.182416,1.05605e-06,0,
1,2.91959,1.01549,-0.178333,1.0078e-07,0,
1,3.10217,1.01233,-0.174276,5.52716e-08,0,
1,3.2963,1.00976,-0.170289,4.36203e-08,0,
1,3.50146,1.00794,-0.166404,3.48443e-08,0,
1,3.7169,1.00647,-0.162654,3.03915e-08,0,
1,3.94163,1.00507,-0.15907,2.82e-08,0,
1,4.17441,1.00366,-0.155678,2.63197e-08,0,
1,4.41376,1.00229,-0.1525,2.42029e-08,0,
1,4.65805,1.00102,-0.149549,2.19594e-08,0,
1,4.90545,0.999865,-0.146833,1.98444e-08,0,
1,5.15407,0.998816,-0.144353,1.79252e-08,0,
1,5.40194,0.997873,-0.142106,1.62492e-08,0,
1,5.64716,0.997025,-0.140085,1.48775e-08,0,
1,5.88785,0.996246,-0.138281,1.39026e-08,0,
1,6.12229,0.995501,-0.13668,1.30857e-08,0,
1,6.34896,0.994822,-0.135269,1.15946e-08,0,
1,6.56652,0.9944,-0.134032,8.90608e-09,0,
1,6.77388,0.994539,-0.132951,1.15669e-09,0,
1,6.97022,0.995193,-0.132011,7.2205e-09,0,
1,7.15495,0.995206,-0.131194,1.81062e-06,0,
1,7.32773,0.992075,-0.130489,1.89556e-05,0,
1,7.48842,0.983213,-0.129891,7.98414e-05,0,
1,7.63711,0.96812,-0.129399,0.000216289,0,
1,7.77403,0.948887,-0.128983,0.000417637,0,
1,7.89956,0.927959,-0.128635,0.000581601,0,
1,8.01417,0.906902,-0.128369,0.000741556,0,
1,8.11843,0.886801,-0.128151,0.000877635,0,
1,8.21296,0.868131,-0.127982,0.000985372,0,
1,8.29839,0.850929,-0.127852,0.00106772,0,
1,8.3754,0.834956,-0.12775,0.00112683,0,
1,8.44464,0.819797,-0.127671,0.00115983,0,
1,8.50675,0.805131,-0.127616,0.00119429,0,
1,8.56236,0.790834,-0.127573,0.00122493,0,
1,8.61206,0.776827,-0.127543,0.00125122,0,
1,8.6564,0.763047,-0.127521,0.00127358,0,
1,8.69591,0.749441,-0.127506,0.00129246,0,
1,8.73107,0.735967,-0.127497,0.00130825,0,
1,8.76232,0.722589,-0.127492,0.00132126,0,
1,8.79007,0.709277,-0.127489,0.00133173,0,
1,8.81469,0.696007,-0.127489,0.00133985,0,
1,8.83651,0.682754,-0.12749,0.0013458,0,
1,8.85584,0.6695,-0.127493,0.0013497,0,
1,8.87295,0.656225,-0.127495,0.00135168,0,
1,8.8881,0.642908,-0.127499,0.00135185,0,
1,8.90149,0.62953,-0.127502,0.00135028,0,
1,8.91333,0.616068,-0.127505,0.00134706,0,
1,8.92379,0.602497,-0.127509,0.00134222,0,
1,8.93303,0.588789,-0.127512,0.00133579,0,
1,8.9412,0.574912,-0.127515,0.00132774,0,
1,8.9484,0.560828,-0.127518,0.00131803,0,
1,8.95476,0.546493,-0.12752,0.00130655,0,
1,8.96038,0.531858,-0.127522,0.0012931,0,
1,8.96533,0.516863,-0.127524,0.00127744,0,
1,8.9697,0.501438,-0.127526,0.00125918,0,
1,8.97356,0.485499,-0.127527,0.00123779,0,
1,8.97696,0.468949,-0.127529,0.00121255,0,
1,8.97996,0.451668,-0.12753,0.0011825,0,
1,8.98261,0.433515,-0.127531,0.00114636,0,
1,8.98494,0.414317,-0.127532,0.00110321,0,
1,8.98699,0.39384,-0.127532,0.00104742,0,
1,8.98881,0.371772,-0.127533,0.000975998,0,
1,8.99041,0.34782,-0.127533,0.000888545,0,
1,8.99182,0.321763,-0.127534,0.000782681,0,
1,8.99306,0.293438,-0.127534,0.000654812,0,
1,8.99416,0.262705,-0.127534,0.000496007,0,
1,8.99512,0.229734,-0.127534,0.00032714,0,
1,8.99597,0.195497,-0.127534,0.000177713,0,
1,8.99672,0.161653,-0.127534,7.65328e-05,0,
1,8.99739,0.129859,-0.127534,2.58551e-05,0,
1,8.99797,0.101065,-0.127534,6.83379e-06,0,
1,8.99848,0.0754686,-0.127535,1.36749e-06,0,
1,8.99894,0.0528762,-0.127534,1.86546e-07,0,
1,8.99934,0.0329744,-0.127535,1.35234e-08,0,
1,8.99969,0.0154485,-0.127534,2.89317e-10,0,

4,0,0,-0.118782,0,0,
4,9,0,-0.097206,0,0,
4,1.05136,0.675864,-0.126406,-0.0042017,0,
4,0.000303409,-0.00616932,-0.118786,6.27886e-11,0,
4,0.00062865,-0.012652,-0.118783,2.56667e-09,0,
4,0.000979511,-0.0194962,-0.118786,2.9953e-08,0,
4,0.00136016,-0.0267451,-0.118784,1.86186e-07,0,
4,0.00177519,-0.0344355,-0.118786,8.04936e-07,0,
4,0.0022297,-0.0425874,-0.118785,2.7508e-06,0,
4,0.00272934,-0.0511815,-0.118787,7.9264e-06,0,
4,0.00328037,-0.0601144,-0.118786,1.98098e-05,0,
4,0.00388979,-0.0691289,-0.118788,4.30644e-05,0,
4,0.00456537,-0.0777669,-0.118788,8.03804e-05,0,
4,0.00531578,-0.085459,-0.118791,0.000127131,0,
4,0.0061507,-0.0917865,-0.118794,0.000171,0,
4,0.0070809,-0.0966721,-0.118801,0.000200493,0,
4,0.00811839,-0.100307,-0.118808,0.000211891,0,
4,0.00927657,-0.102966,-0.118821,0.000207442,0,
4,0.0105703,-0.104891,-0.118836,0.00019082,0,
4,0.0120162,-0.106264,-0.118857,0.000164885,0,
4,0.0136326,-0.10721,-0.118881,0.000131353,0,
4,0.0154398,-0.107815,-0.118911,9.1081e-05,0,
4,0.0174603,-0.108135,-0.118947,4.4362e-05,0,
4,0.0197189,-0.10821,-0.11899,-8.87275e-06,0,
4,0.0222427,-0.108063,-0.119041,-6.89333e-05,0,
4,0.0250617,-0.107712,-0.119101,-0.000136301,0,
4,0.0282081,-0.107164,-0.11917,-0.000211591,0,
4,0.0317171,-0.106424,-0.11925,-0.000295523,0,
4,0.0356266,-0.105492,-0.119342,-0.000388912,0,
4,0.039977,-0.104365,-0.119448,-0.000492656,0,
4,0.0448114,-0.103037,-0.119569,-0.00060772,0,
4,0.0501747,-0.1015,-0.119706,-0.000735132,0,
4,0.056114,-0.0997439,-0.11986,-0.000875968,0,
4,0.062677,-0.097757,-0.120032,-0.00103133,0,
4,0.0699123,-0.0955259,-0.120225,-0.00120233,0,
4,0.0778675,-0.093036,-0.120438,-0.00139007,0,
4,0.0865883,-0.0902712,-0.120671,-0.00159558,0,
4,0.0961173,-0.0872147,-0.120926,-0.00181981,0,
4,0.106492,-0.0838489,-0.121202,-0.00206357,0,
4,0.117744,-0.080156,-0.121497,-0.00232749,0,
4,0.129894,-0.0761182,-0.121812,-0.00261197,0,
4,0.142956,-0.0717185,-0.122144,-0.00291708,0,
4,0.156928,-0.0669412,-0.12249,-0.0032426,0,
4,0.171798,-0.0617725,-0.122849,-0.0035879,0,
4,0.187537,-0.0562018,-0.123217,-0.00395192,0,
4,0.2041,-0.0502219,-0.123591,-0.00433321,0,
4,0.221432,-0.0438302,-0.123968,-0.00472987,0,
4,0.239458,-0.0370293,-0.124345,-0.00513964,0,
4,0.258095,-0.0298277,-0.124719,-0.00555995,0,
4,0.27725,-0.0222395,-0.125087,-0.005988,0,
4,0.296825,-0.0142842,-0.12545,-0.006421,0,
4,0.316717,-0.00598425,-0.125797,-0.00685494,0,
4,0.336828,0.00263519,-0.12615,-0.00728737,0,
4,0.357066,0.0115514,-0.126506,-0.00785664,0,
4,0.377348,0.0210643,-0.12648,-0.00822609,0,
4,0.397605,0.0317262,-0.126094,-0.00847946,0,
4,0.417786,0.0437968,-0.125836,-0.00875492,0,
4,0.437857,0.057086,-0.125764,-0.00903244,0,
4,0.457804,0.0712199,-0.125825,-0.00929228,0,
4,0.477632,0.0858859,-0.125948,-0.00952316,0,
4,0.497368,0.100936,-0.126082,-0.00972188,0,
4,0.517057,0.116369,-0.126202,-0.00988976,0,
4,0.536763,0.132278,-0.1263,-0.0100289,0,
4,0.556564,0.148797,-0.126382,-0.0101406,0,
4,0.576557,0.16607,-0.126454,-0.0102241,0,
4,0.596848,0.184245,-0.126523,-0.0102771,0,
4,0.617561,0.203467,-0.126592,-0.0102956,0,
4,0.637962,0.223098,-0.126653,-0.0102764,0,
4,0.657495,0.242602,-0.126702,-0.0102204,0,
4,0.676218,0.261982,-0.126739,-0.010129,0,
4,0.694189,0.281241,-0.126761,-0.0100043,0,
4,0.711463,0.300381,-0.126769,-0.00984903,0,
4,0.728096,0.319395,-0.126765,-0.00966675,0,
4,0.744138,0.338259,-0.126754,-0.00946175,0,
4,0.759639,0.356925,-0.12674,-0.00923917,0,
4,0.774643,0.37532,-0.126729,-0.00900476,0,
4,0.789195,0.393357,-0.126722,-0.00876321,0,
4,0.803334,0.41095,-0.126721,-0.00851781,0,
4,0.817097,0.428032,-0.126724,-0.00827128,0,
4,0.830518,0.44456,-0.126729,-0.00802582,0,
4,0.843629,0.460521,-0.126734,-0.00778323,0,
4,0.856459,0.475918,-0.126737,-0.00754495,0,
4,0.869035,0.490771,-0.126737,-0.00731217,0,
4,0.881383,0.505106,-0.126734,-0.00708577,0,
4,0.893524,0.518951,-0.126729,-0.00686636,0,
4,0.905481,0.532334,-0.126723,-0.00665423,0,
4,0.917272,0.545281,-0.126716,-0.00644939,0,
4,0.928915,0.557815,-0.126708,-0.00625155,0,
4,0.940428,0.56996,-0.126701,-0.00606023,0,
4,0.951826,0.581736,-0.126694,-0.00587481,0,
4,0.963124,0.59316,-0.126684,-0.00569639,0,
4,0.974334,0.604248,-0.126672,-0.00552358,0,
4,0.98547,0.615021,-0.126656,-0.00535513,0,
4,0.996544,0.62551,-0.126636,-0.00518979,0,
4,1.00757,0.635763,-0.12661,-0.00502614,0,
4,1.01855,0.645857,-0.126571,-0.00485011,0,
4,1.0295,0.655893,-0.126519,-0.00464062,0,
4,1.04044,0.665908,-0.126463,-0.00442948,0,
4,1.0623,0.685734,-0.126347,-0.00395913,0,
4,1.07328,0.695486,-0.126285,-0.00370448,0,
4,1.08432,0.705063,-0.126221,-0.00344117,0,
4,1.09543,0.714405,-0.126154,-0.00317314,0,
4,1.10661,0.723447,-0.126085,-0.00290491,0,
4,1.11788,0.732122,-0.126013,-0.00264141,0,
4,1.12925,0.740367,-0.125937,-0.00238773,0,
4,1.14073,0.748126,-0.125858,-0.00214878,0,
4,1.15233,0.75536,-0.125776,-0.0019289,0,
4,1.16408,0.762045,-0.12569,-0.00173144,0,
4,1.17599,0.768185,-0.125601,-0.00155845,0,
4,1.18806,0.773805,-0.125508,-0.00141056,0,
4,1.20034,0.778948,-0.125412,-0.00128712,0,
4,1.21282,0.783673,-0.125312,-0.0011864,0,
4,1.22554,0.788046,-0.12521,-0.00110598,0,
4,1.23852,0.792133,-0.125105,-0.00104309,0,
4,1.25179,0.795996,-0.124997,-0.000994876,0,
4,1.26537,0.799692,-0.124886,-0.000958599,0,
4,1.2793,0.80327,-0.124772,-0.000931772,0,
4,1.29362,0.806773,-0.124656,-0.000912209,0,
4,1.30836,0.810236,-0.124536,-0.000898029,0,
4,1.32357,0.81369,-0.124412,-0.000887717,0,
4,1.3393,0.817161,-0.124286,-0.000880039,0,
4,1.3556,0.82067,-0.12415,-0.000876256,0,
4,1.37252,0.824258,-0.124019,-0.000870243,0,
4,1.39015,0.827993,-0.123895,-0.000855518,0,
4,1.40855,0.831926,-0.123762,-0.00083995,0,
4,1.42781,0.836059,-0.123622,-0.00082376,0,
4,1.44801,0.840378,-0.12347,-0.000807163,0,
4,1.46926,0.844872,-0.123308,-0.000790473,0,
4,1.49167,0.849546,-0.123135,-0.000773913,0,
4,1.51537,0.854416,-0.122952,-0.000757231,0,
4,1.54091,0.859585,-0.122752,-0.000739947,0,
4,1.56949,0.865267,-0.12253,-0.000721351,0,
4,1.60144,0.871525,-0.122279,-0.000700425,0,
4,1.63713,0.878402,-0.121999,-0.000676768,0,
4,1.67693,0.885925,-0.121684,-0.000650055,0,
4,1.72128,0.894108,-0.121332,-0.000619902,0,
4,1.77062,0.902943,-0.120935,-0.000586142,0,
4,1.82542,0.912386,-0.120496,-0.000548435,0,
4,1.88618,0.922348,-0.119999,-0.000506935,0,
4,1.95343,0.93274,-0.119459,-0.000449321,0,
4,2.02768,0.943455,-0.118876,-0.000372479,0,
4,2.10949,0.954183,-0.118231,-0.000288914,0,
4,2.19939,0.964367,-0.117531,-0.000204108,0,
4,2.29789,0.973332,-0.116771,-0.00012694,0,
4,2.40551,0.980396,-0.115958,-6.51431e-05,0,
4,2.52268,0.985025,-0.115098,-2.37129e-05,0,
4,2.64979,0.987043,-0.114199,-2.96439e-06,0,
4,2.78715,0.986823,-0.113272,2.50967e-06,0,
4,2.93497,0.985271,-0.112324,1.5099e-06,0,
4,3.09333,0.983493,-0.111365,3.12908e-07,0,
4,3.26217,0.982263,-0.110404,3.2103e-08,0,
4,3.44125,0.981743,-0.109451,7.05249e-09,0,
4,3.63018,0.981653,-0.108512,3.4831e-09,0,
4,3.82836,0.981644,-0.107593,3.39896e-09,0,
4,4.03501,0.981534,-0.1067,4.34531e-09,0,
4,4.24915,0.981314,-0.105838,4.95748e-09,0,
4,4.46961,0.98105,-0.105013,4.96618e-09,0,
4,4.69507,0.980793,-0.104228,4.62979e-09,0,
4,4.92406,0.980563,-0.103485,4.25172e-09,0,
4,5.15502,0.980354,-0.102788,3.97309e-09,0,
4,5.3863,0.980158,-0.102137,3.87192e-09,0,
4,5.61626,0.979961,-0.101535,4.08148e-09,0,
4,5.84328,0.979749,-0.10098,4.97659e-09,0,
4,6.06579,0.979523,-0.100473,7.49796e-09,0,
4,6.28238,0.979351,-0.100012,1.0707e-08,0,
4,6.49173,0.979394,-0.0995965,-1.50093e-08,0,
4,6.69275,0.97982,-0.0992222,-1.93628e-07,0,
4,6.88453,0.98047,-0.0988854,-2.30508e-07,0,
4,7.06634,0.980399,-0.0985823,4.35775e-06,0,
4,7.23771,0.977747,-0.0983124,2.85201e-05,0,
4,7.39831,0.970444,-0.0980756,9.40317e-05,0,
4,7.54803,0.957542,-0.0978787,0.000215911,0,
4,7.68693,0.93996,-0.0977115,0.000378179,0,
4,7.81519,0.919682,-0.097561,0.00052914,0,
4,7.93313,0.898642,-0.0974421,0.000684985,0,
4,8.04115,0.878318,-0.0973382,0.00082693,0,
4,8.13974,0.859443,-0.0972543,0.000944324,0,
4,8.22941,0.842134,-0.0971909,0.00103635,0,
4,8.31073,0.826107,-0.0971454,0.00109944,0,
4,8.38429,0.810919,-0.0971145,0.00114381,0,
4,8.45065,0.796238,-0.0970952,0.00118168,0,
4,8.5104,0.781908,-0.0970842,0.00121731,0,
4,8.56407,0.767865,-0.0970787,0.00124777,0,
4,8.61222,0.754058,-0.0970781,0.00127349,0,
4,8.65533,0.740445,-0.0970807,0.00129505,0,
4,8.69387,0.726989,-0.0970858,0.00131289,0,
4,8.7283,0.71366,-0.0970925,0.00132734,0,
4,8.75901,0.700434,-0.0971003,0.00133862,0,
4,8.78637,0.687291,-0.0971087,0.00134695,0,
4,8.81074,0.674216,-0.0971173,0.00135249,0,
4,8.83242,0.661193,-0.0971259,0.00135544,0,
4,8.85169,0.648209,-0.0971342,0.00135596,0,
4,8.86881,0.635251,-0.0971421,0.00135423,0,
4,8.88402,0.622304,-0.0971495,0.00135043,0,
4,8.89751,0.609351,-0.0971564,0.00134474,0,
4,8.90949,0.596373,-0.0971627,0.00133731,0,
4,8.92011,0.583348,-0.0971684,0.00132827,0,
4,8.92952,0.57025,-0.0971736,0.00131775,0,
4,8.93787,0.55705,-0.0971782,0.00130581,0,
4,8.94526,0.543712,-0.0971823,0.00129248,0,
4,8.95182,0.530198,-0.0971859,0.00127774,0,
4,8.95762,0.51646,-0.097189,0.0012615,0,
4,8.96276,0.502445,-0.0971918,0.00124358,0,
4,8.96731,0.488091,-0.0971942,0.00122374,0,
4,8.97134,0.473326,-0.0971962,0.00120157,0,
4,8.97491,0.458064,-0.097198,0.00117654,0,
4,8.97807,0.442207,-0.0971994,0.00114791,0,
4,8.98087,0.425634,-0.0972007,0.0011147,0,
4,8.98334,0.408205,-0.0972017,0.00107558,0,
4,8.98553,0.389751,-0.0972026,0.00102923,0,
4,8.98747,0.370054,-0.0972033,0.000971945,0,
4,8.98919,0.348835,-0.097204,0.000898774,0,
4,8.9907,0.325816,-0.0972044,0.000810754,0,
4,8.99205,0.300808,-0.0972048,0.000706171,0,
4,8.99324,0.273637,-0.097205,0.000576318,0,
4,8.99429,0.24422,-0.0972053,0.000425375,0,
4,8.99522,0.21292,-0.0972054,0.000271405,0,
4,8.99605,0.180794,-0.0972056,0.000142576,0,
4,8.99677,0.149392,-0.0972055,5.98923e-05,0,
4,8.99742,0.120097,-0.0972057,2.00075e-05,0,
4,8.99799,0.0936124,-0.0972056,5.2912e-06,0,
4,8.9985,0.0700349,-0.0972058,1.06669e-06,0,
4,8.99894,0.0491646,-0.0972056,1.46997e-07,0,
4,8.99934,0.0307188,-0.0972059,1.07664e-08,0,
4,8.99969,0.0144186,-0.0972056,2.32075e-10,0,

6,0,0,0.00355773,0,0,
6,9,0,-0.0743283,0,0,
6,1.07704,0.702391,-0.00844478,-0.00234449,0,
6,0.000299862,0.00243716,0.00355125,-2.64409e-11,0,
6,0.000611645,0.0050312,0.0035564,-1.06367e-09,0,
6,0.000938257,0.00781349,0.00355135,-1.20003e-08,0,
6,0.00128281,0.0108183,0.00355523,-7.2067e-08,0,
6,0.00164864,0.0140835,0.00355122,-3.02401e-07,0,
6,0.00203939,0.0176489,0.00355415,-1.01112e-06,0,
6,0.00245897,0.0215513,0.00355086,-2.88757e-06,0,
6,0.00291168,0.0258136,0.003553,-7.30409e-06,0,
6,0.00340221,0.0304219,0.00355005,-1.66093e-05,0,
6,0.00393573,0.0352928,0.00355126,-3.39278e-05,0,
6,0.00451788,0.0402476,0.00354785,-6.16755e-05,0,
6,0.00515491,0.0450373,0.00354713,-9.9076e-05,0,
6,0.00585371,0.0494334,0.00354161,-0.000141433,0,
6,0.00662185,0.0533171,0.00353706,-0.000183026,0,
6,0.00746774,0.0566876,0.00352742,-0.000220501,0,
6,0.00840063,0.0596134,0.00351716,-0.000253394,0,
6,0.00943073,0.0621819,0.00350167,-0.000282785,0,
6,0.0105693,0.0644747,0.00348412,-0.00031011,0,
6,0.0118288,0.0665588,0.00346111,-0.000336652,0,
6,0.0132228,0.0684871,0.00343456,-0.000363442,0,
6,0.0147664,0.070301,0.00340201,-0.000391299,0,
6,0.016476,0.0720327,0.0033643,-0.000420896,0,
6,0.0183694,0.0737085,0.00331964,-0.000452818,0,
6,0.0204662,0.0753497,0.00326805,-0.000487603,0,
6,0.0227875,0.076974,0.00320813,-0.000525763,0,
6,0.0253561,0.0785972,0.00313935,-0.000567811,0,
6,0.0281964,0.0802329,0.00306044,-0.000614266,0,
6,0.0313344,0.0818936,0.00297056,-0.000665666,0,
6,0.0347975,0.0835911,0.0028685,-0.000722569,0,
6,0.0386145,0.0853364,0.00275324,-0.000785553,0,
6,0.042815,0.0871401,0.00262366,-0.000855221,0,
6,0.0474296,0.0890127,0.00247873,-0.000932188,0,
6,0.0524888,0.0909643,0.00231751,-0.00101708,0,
6,0.0580229,0.0930051,0.00213918,-0.00111054,0,
6,0.0640611,0.0951451,0.00194314,-0.00121317,0,
6,0.0706309,0.0973941,0.00172902,-0.00132557,0,
6,0.077757,0.0997619,0.00149677,-0.0014483,0,
6,0.0854609,0.102258,0.00124667,-0.00158184,0,
6,0.0937597,0.104892,0.000979417,-0.00172661,0,
6,0.102665,0.107672,0.000696103,-0.00188292,0,
6,0.112183,0.110606,0.00039823,-0.00205098,0,
6,0.122315,0.113703,8.76852e-05,-0.00223083,0,
6,0.133052,0.11697,-0.000233315,-0.00242242,0,
6,0.144384,0.120413,-0.000562301,-0.00262552,0,
6,0.156292,0.124038,-0.000896638,-0.00283978,0,
6,0.168754,0.127852,-0.00123364,-0.00306472,0,
6,0.181744,0.131858,-0.00157068,-0.00329976,0,
6,0.195237,0.136064,-0.00190526,-0.00354427,0,
6,0.209207,0.140475,-0.00223516,-0.00379755,0,
6,0.223631,0.1451,-0.00255842,-0.00405895,0,
6,0.238493,0.149948,-0.00287345,-0.00432784,0,
6,0.253785,0.155033,-0.00317899,-0.00460367,0,
6,0.269507,0.16037,-0.00347406,-0.004886,0,
6,0.28567,0.165981,-0.00375812,-0.00517452,0,
6,0.3023,0.171893,-0.0040309,-0.00546984,0,
6,0.319433,0.178142,-0.00428855,-0.00577155,0,
6,0.337122,0.184776,-0.00452417,-0.00607906,0,
6,0.355433,0.191859,-0.00473285,-0.00639216,0,
6,0.374445,0.199476,-0.00489676,-0.00670905,0,
6,0.394252,0.207732,-0.00503494,-0.00703096,0,
6,0.414961,0.216771,-0.00517885,-0.00743076,0,
6,0.436695,0.226962,-0.00483801,-0.00768955,0,
6,0.459585,0.238893,-0.00402257,-0.00778958,0,
6,0.48378,0.253006,-0.00341042,-0.00792953,0,
6,0.508144,0.268543,-0.00314805,-0.00809946,0,
6,0.531799,0.284606,-0.00308949,-0.00825467,0,
6,0.554791,0.300914,-0.00309863,-0.00836955,0,
6,0.577166,0.317343,-0.00310492,-0.00843609,0,
6,0.598964,0.33387,-0.0030874,-0.00845621,0,
6,0.620228,0.3505,-0.00305499,-0.00843447,0,
6,0.640996,0.367233,-0.00302278,-0.00837441,0,
6,0.661304,0.384046,-0.00300237,-0.00827815,0,
6,0.681188,0.400897,-0.00299995,-0.00814732,0,
6,0.700681,0.417729,-0.00301846,-0.00798424,0,
6,0.719813,0.434479,-0.00305955,-0.00779234,0,
6,0.738612,0.451079,-0.00312399,-0.00757556,0,
6,0.757107,0.467465,-0.00321166,-0.00733764,0,
6,0.775322,0.483582,-0.00332201,-0.00708215,0,
6,0.793282,0.499383,-0.00345441,-0.00681254,0,
6,0.811008,0.51483,-0.00360833,-0.0065322,0,
6,0.828521,0.529891,-0.00378313,-0.00624443,0,
6,0.845842,0.544533,-0.00397836,-0.00595248,0,
6,0.862989,0.55872,-0.00419282,-0.00565968,0,
6,0.879979,0.572408,-0.00442689,-0.00537334,0,
6,0.896829,0.585554,-0.00467931,-0.00509643,0,
6,0.913555,0.598146,-0.00494705,-0.0048281,0,
6,0.930172,0.610203,-0.00522907,-0.00456789,0,
6,0.946694,0.621771,-0.00552563,-0.00431515,0,
6,0.963136,0.632908,-0.0058371,-0.00406858,0,
6,0.97951,0.643685,-0.00616713,-0.00382566,0,
6,0.99583,0.654191,-0.00651676,-0.0035664,0,
6,1.01211,0.664462,-0.00687953,-0.00331641,0,
6,1.02836,0.674463,-0.00725359,-0.00306651,0,
6,1.04459,0.68415,-0.00763965,-0.002819,0,
6,1.06081,0.693476,-0.0080368,-0.00257714,0,
6,1.09329,0.710851,-0.00886295,-0.00212471,0,
6,1.10959,0.718817,-0.00929079,-0.00192136,0,
6,1.12595,0.726259,-0.00972735,-0.00173748,0,
6,1.14238,0.733164,-0.0101718,-0.00157515,0,
6,1.1589,0.739538,-0.0106229,-0.00143532,0,
6,1.17551,0.745408,-0.0110805,-0.00131791,0,
6,1.19223,0.750821,-0.0115427,-0.00122104,0,
6,1.20907,0.755841,-0.0120096,-0.00114125,0,
6,1.22605,0.760533,-0.0124829,-0.00107931,0,
6,1.24318,0.76497,-0.0129644,-0.00103044,0,
6,1.26048,0.769248,-0.0134571,-0.000989265,0,
6,1.27797,0.773471,-0.0139614,-0.000952446,0,
6,1.29566,0.777725,-0.0144752,-0.000919075,0,
6,1.31357,0.782051,-0.0149949,-0.000889471,0,
6,1.33173,0.786447,-0.0155177,-0.000863864,0,
6,1.35015,0.790883,-0.016043,-0.000841842,0,
6,1.36886,0.795327,-0.0165723,-0.000822477,0,
6,1.38788,0.799759,-0.0171072,-0.000804888,0,
6,1.40725,0.804177,-0.01765,-0.000788295,0,
6,1.42698,0.808592,-0.0182021,-0.000772212,0,
6,1.44712,0.81302,-0.0187646,-0.000756422,0,
6,1.46769,0.81748,-0.0193383,-0.000740581,0,
6,1.48874,0.821989,-0.0199239,-0.000724495,0,
6,1.5103,0.826559,-0.0205221,-0.000708083,0,
6,1.53242,0.831199,-0.0211336,-0.000691325,0,
6,1.55515,0.835916,-0.0217594,-0.00067423,0,
6,1.57854,0.840711,-0.0224007,-0.000656802,0,
6,1.60265,0.845589,-0.0230586,-0.000639028,0,
6,1.62754,0.850549,-0.0237347,-0.000620879,0,
6,1.65329,0.855595,-0.0244301,-0.00060231,0,
6,1.67998,0.860727,-0.025147,-0.000583285,0,
6,1.70768,0.86595,-0.0258855,-0.000563955,0,
6,1.73712,0.871363,-0.026668,-0.000544378,0,
6,1.76996,0.877206,-0.0275314,-0.00052338,0,
6,1.80655,0.883515,-0.0284863,-0.000500333,0,
6,1.84728,0.890262,-0.0295362,-0.000475531,0,
6,1.89255,0.897399,-0.0306903,-0.000448773,0,
6,1.9428,0.904876,-0.0319493,-0.000419305,0,
6,1.99849,0.912686,-0.0333278,-0.000368073,0,
6,2.06009,0.920748,-0.034826,-0.00031197,0,
6,2.1281,0.928803,-0.0364387,-0.000251504,0,
6,2.20301,0.936484,-0.0381679,-0.000190384,0,
6,2.28535,0.943406,-0.0400037,-0.000133441,0,
6,2.37559,0.949202,-0.0419355,-8.48069e-05,0,
6,2.47424,0.953579,-0.0439451,-4.74221e-05,0,
6,2.58172,0.956399,-0.0460104,-2.24628e-05,0,
6,2.69844,0.957768,-0.0481053,-8.77077e-06,0,
6,2.82473,0.958065,-0.0502022,-3.00098e-06,0,
6,2.96084,0.957877,-0.0522751,-1.16345e-06,0,
6,3.10691,0.957798,-0.0543012,-5.38781e-07,0,
6,3.26296,0.958202,-0.0562619,-2.1003e-07,0,
6,3.42888,0.959121,-0.0581415,-6.60732e-08,0,
6,3.60438,0.96033,-0.0599254,-3.07162e-08,0,
6,3.78902,0.961546,-0.0616003,-2.41279e-08,0,
6,3.98218,0.962591,-0.0631551,-2.002e-08,0,
6,4.18307,0.963428,-0.0645823,-1.6507e-08,0,
6,4.39071,0.964111,-0.0658782,-1.39393e-08,0,
6,4.60398,0.964703,-0.067043,-1.20945e-08,0,
6,4.82159,0.965239,-0.0680798,-1.06652e-08,0,
6,5.04218,0.965726,-0.0689945,-9.50528e-09,0,
6,5.26426,0.966154,-0.0697946,-8.75775e-09,0,
6,5.48633,0.966516,-0.0704892,-8.91663e-09,0,
6,5.70687,0.966803,-0.0710879,-1.11747e-08,0,
6,5.92439,0.967023,-0.0716007,-1.89413e-08,0,
6,6.1375,0.967221,-0.0720373,-4.60294e-08,0,
6,6.34489,0.967511,-0.0724068,-1.54566e-07,0,
6,6.5454,0.968035,-0.0727175,-5.26594e-07,0,
6,6.73802,0.968782,-0.0729766,-1.13771e-06,0,
6,6.92195,0.969252,-0.0731908,6.14095e-07,0,
6,7.09653,0.9682,-0.0733657,1.45963e-05,0,
6,7.26132,0.963851,-0.0735116,5.82809e-05,0,
6,7.41603,0.954718,-0.0736253,0.000147995,0,
6,7.56054,0.940554,-0.0737288,0.000288557,0,
6,7.6949,0.922419,-0.0738135,0.000422237,0,
6,7.81927,0.901996,-0.073865,0.000564058,0,
6,7.93391,0.88114,-0.07391,0.000708016,0,
6,8.0392,0.861265,-0.0739361,0.000837137,0,
6,8.13555,0.84298,-0.0739582,0.000944457,0,
6,8.22344,0.826251,-0.0739761,0.00102998,0,
6,8.30339,0.8107,-0.0739978,0.00109517,0,
6,8.37592,0.795866,-0.0740224,0.00114055,0,
6,8.44155,0.781436,-0.074048,0.00118133,0,
6,8.50082,0.767295,-0.0740725,0.00121894,0,
6,8.55423,0.753404,-0.0740954,0.00125079,0,
6,8.60229,0.739729,-0.0741172,0.0012774,0,
6,8.64545,0.726241,-0.0741376,0.00129936,0,
6,8.68417,0.712914,-0.0741569,0.0013171,0,
6,8.71885,0.699728,-0.0741748,0.00133094,0,
6,8.74989,0.686666,-0.0741915,0.00134114,0,
6,8.77763,0.673715,-0.0742068,0.00134793,0,
6,8.80241,0.660863,-0.074221,0.00135155,0,
6,8.82452,0.6481,-0.0742339,0.00135224,0,
6,8.84423,0.635417,-0.0742455,0.00135025,0,
6,8.86181,0.6228,-0.0742561,0.00134584,0,
6,8.87746,0.610238,-0.0742656,0.00133927,0,
6,8.89139,0.597714,-0.074274,0.00133079,0,
6,8.90379,0.58521,-0.0742816,0.00132064,0,
6,8.91482,0.572704,-0.0742882,0.00130903,0,
6,8.92463,0.56017,-0.0742941,0.00129612,0,
6,8.93334,0.54758,-0.0742992,0.00128205,0,
6,8.94109,0.534899,-0.0743036,0.00126689,0,
6,8.94798,0.522091,-0.0743075,0.00125069,0,
6,8.95409,0.509111,-0.0743109,0.00123338,0,
6,8.95953,0.495911,-0.0743137,0.00121488,0,
6,8.96435,0.482436,-0.0743162,0.00119497,0,
6,8.96863,0.46862,-0.0743183,0.00117338,0,
6,8.97244,0.454391,-0.0743201,0.00114968,0,
6,8.97581,0.439662,-0.0743216,0.0011233,0,
6,8.97881,0.424333,-0.0743228,0.00109347,0,
6,8.98147,0.408286,-0.0743239,0.00105919,0,
6,8.98383,0.391381,-0.0743248,0.0010191,0,
6,8.98593,0.373452,-0.0743255,0.000971763,0,
6,8.98779,0.354291,-0.0743261,0.000913823,0,
6,8.98944,0.333633,-0.0743266,0.000840547,0,
6,8.9909,0.311229,-0.0743269,0.000753261,0,
6,8.9922,0.286908,-0.0743273,0.000649891,0,
6,8.99336,0.260506,-0.0743274,0.000521231,0,
6,8.99438,0.232001,-0.0743277,0.000377259,0,
6,8.99529,0.20187,-0.0743277,0.000235054,0,
6,8.99609,0.171202,-0.0743279,0.00012071,0,
6,8.99681,0.141449,-0.0743278,4.992e-05,0,
6,8.99744,0.113802,-0.074328,1.65742e-05,0,
6,8.99801,0.0888206,-0.0743279,4.38967e-06,0,
6,8.9985,0.0665474,-0.0743281,8.8998e-07,0,
6,8.99895,0.0467855,-0.0743279,1.23539e-07,0,
6,8.99934,0.0292744,-0.0743282,9.11389e-09,0,
6,8.99969,0.0137597,-0.0743279,1.975e-10,0,

10,0,0,-0.0332323,0,0,
10,0.000296632,0.0053837,-0.0332492,-2.30207e-11,0,
10,0.000596102,0.0108262,-0.0332336,-8.54656e-10,0,
10,0.000900397,0.0163647,-0.0332478,-8.70606e-09,0,
10,0.00121153,0.0220366,-0.033235,-4.68918e-08,0,
10,0.00153158,0.0278803,-0.0332467,-1.75946e-07,0,
10,0.00186264,0.0339335,-0.0332361,-5.25488e-07,0,
10,0.00220692,0.0402333,-0.0332459,-1.34295e-06,0,
10,0.00256668,0.0468129,-0.0332371,-3.06351e-06,0,
10,0.00294431,0.0536982,-0.0332453,-6.39902e-06,0,
10,0.00334229,0.0608999,-0.033238,-1.24242e-05,0,
10,0.00376326,0.0684051,-0.0332449,-2.26e-05,0,
10,0.00421,0.076164,-0.0332388,-3.86256e-05,0,
10,0.00468544,0.0840818,-0.0332447,-6.20092e-05,0,
10,0.00519274,0.0920168,-0.0332396,-9.33904e-05,0,
10,0.00573524,0.0997975,-0.0332449,-0.000131942,0,
10,0.00631651,0.107252,-0.0332407,-0.000175333,0,
10,0.00694041,0.114242,-0.0332455,-0.000220421,0,
10,0.00761104,0.120683,-0.0332423,-0.000264257,0,
10,0.00833284,0.126547,-0.0332467,-0.000304804,0,
10,0.00911058,0.131851,-0.0332447,-0.000341111,0,
10,0.0099494,0.136638,-0.033249,-0.000373101,0,
10,0.0108548,0.140969,-0.0332483,-0.000401226,0,
10,0.0118329,0.144903,-0.0332527,-0.000426181,0,
10,0.0128901,0.148499,-0.0332534,-0.00044871,0,
10,0.0140333,0.151809,-0.0332581,-0.000469516,0,
10,0.0152702,0.154881,-0.0332604,-0.000489214,0,
10,0.0166089,0.157753,-0.0332659,-0.000508331,0,
10,0.0180584,0.160458,-0.0332699,-0.000527315,0,
10,0.0196282,0.163027,-0.0332764,-0.000546546,0,
10,0.0213288,0.165483,-0.0332824,-0.000566357,0,
10,0.0231714,0.167847,-0.0332904,-0.00058704,0,
10,0.0251682,0.170138,-0.0332987,-0.000608866,0,
10,0.0273326,0.172372,-0.0333088,-0.000632084,0,
10,0.0296789,0.174565,-0.0333198,-0.000656935,0,
10,0.0322227,0.176728,-0.0333326,-0.000683658,0,
10,0.0349809,0.178874,-0.0333468,-0.000712488,0,
10,0.0379719,0.181015,-0.033363,-0.000743668,0,
10,0.0412155,0.183162,-0.0333812,-0.000777444,0,
10,0.0447333,0.185325,-0.0334018,-0.000814074,0,
10,0.0485489,0.187514,-0.0334248,-0.000853826,0,
10,0.0526875,0.189739,-0.0334508,-0.00089698,0,
10,0.0571768,0.192013,-0.03348,-0.000943831,0,
10,0.0620466,0.194344,-0.0335128,-0.000994688,0,
10,0.0673295,0.196745,-0.0335497,-0.00104987,0,
10,0.0730607,0.199227,-0.033591,-0.00110973,0,
10,0.0792784,0.201804,-0.0336374,-0.0011746,0,
10,0.0860241,0.204488,-0.0336895,-0.00124487,0,
10,0.0933428,0.207294,-0.0337479,-0.0013209,0,
10,0.101283,0.210238,-0.0338136,-0.00140307,0,
10,0.109899,0.213338,-0.0338874,-0.00149179,0,
10,0.119247,0.216613,-0.0339704,-0.00158742,0,
10,0.12939,0.220082,-0.0340638,-0.00169035,0,
10,0.140395,0.223771,-0.0341691,-0.00180091,0,
10,0.152337,0.227703,-0.0342879,-0.00191942,0,
10,0.165296,0.231908,-0.034422,-0.00204611,0,
10,0.179357,0.236417,-0.0345739,-0.00218113,0,
10,0.194615,0.241264,-0.0347457,-0.00232449,0,
10,0.211171,0.246488,-0.034941,-0.00247601,0,
10,0.229138,0.252133,-0.0351621,-0.00263529,0,
10,0.248635,0.258244,-0.0354148,-0.00280149,0,
10,0.269793,0.264876,-0.0356995,-0.00297374,0,
10,0.292753,0.272084,-0.0360299,-0.00317924,0,
10,0.317669,0.280061,-0.0363628,-0.00340468,0,
10,0.344708,0.289373,-0.0366611,-0.00352609,0,
10,0.372405,0.300128,-0.0369791,-0.00367734,0,
10,0.399623,0.312039,-0.0373281,-0.00383827,0,
10,0.426397,0.324941,-0.0376975,-0.00399706,0,
10,0.452757,0.338524,-0.0380828,-0.00414832,0,
10,0.478735,0.352472,-0.0384715,-0.00428857,0,
10,0.504358,0.366542,-0.0388609,-0.00441598,0,
10,0.529657,0.380593,-0.0392465,-0.00453114,0,
10,0.554656,0.394556,-0.0396263,-0.00463536,0,
10,0.579382,0.408416,-0.0399969,-0.00472964,0,
10,0.603859,0.422186,-0.0403551,-0.00481442,0,
10,0.628112,0.4359,-0.0406962,-0.00488952,0,
10,0.652163,0.449604,-0.0410154,-0.00495423,0,
10,0.676035,0.463352,-0.0413071,-0.00500747,0,
10,0.699751,0.477202,-0.0415661,-0.00504775,0,
10,0.72333,0.491217,-0.0417874,-0.00507326,0,
10,0.746795,0.505455,-0.0419665,-0.0050819,0,
10,0.770165,0.519977,-0.0420999,-0.00507135,0,
10,0.79346,0.534834,-0.0421847,-0.00503912,0,
10,0.816699,0.550069,-0.0422188,-0.00498272,0,
10,0.839903,0.565706,-0.0422011,-0.00489999,0,
10,0.863088,0.581743,-0.0421317,-0.00478961,0,
10,0.886275,0.598143,-0.0420113,-0.00465154,0,
10,0.909481,0.614825,-0.0418425,-0.00448677,0,
10,0.932723,0.631672,-0.0416293,-0.00429707,0,
10,0.956021,0.648533,-0.0413764,-0.00408492,0,
10,0.97939,0.66524,-0.0410887,-0.00385432,0,
10,1.00285,0.681612,-0.0407706,-0.00360979,0,
10,1.02641,0.697465,-0.0404237,-0.00336044,0,
10,1.0501,0.712628,-0.040051,-0.00311278,0,
10,1.07392,0.726981,-0.0396584,-0.00286948,0,
10,1.0979,0.740476,-0.0392506,-0.00263394,0,
10,1.12205,0.753118,-0.0388311,-0.00240901,0,
10,1.14639,0.764951,-0.0384021,-0.00219639,0,
10,1.17093,0.776042,-0.0379645,-0.00199662,0,
10,1.19568,0.786469,-0.0375188,-0.00180927,0,
10,1.22066,0.796308,-0.0370645,-0.00163319,0,
10,1.24589,0.80562,-0.0366012,-0.0014669,0,
10,1.27137,0.814446,-0.0361291,-0.00130908,0,
10,1.29713,0.822799,-0.0356469,-0.00115838,0,
10,1.32317,0.830668,-0.0351596,-0.00101822,0,
10,1.34951,0.838055,-0.0346723,-0.000889248,0,
10,1.37616,0.844995,-0.0341834,-0.000774102,0,
10,1.40313,0.851533,-0.033693,-0.000673763,0,
10,1.43043,0.857698,-0.0332019,-0.000588297,0,
10,1.45807,0.863504,-0.0327118,-0.00051741,0,
10,1.48607,0.868968,-0.032225,-0.000460291,0,
10,1.51444,0.87413,-0.0317431,-0.000415386,0,
10,1.54318,0.879048,-0.0312674,-0.000380479,0,
10,1.57231,0.883781,-0.0307984,-0.000353088,0,
10,1.60184,0.888377,-0.0303367,-0.000330924,0,
10,1.63178,0.892861,-0.0298826,-0.000312188,0,
10,1.66213,0.897243,-0.0294366,-0.000295634,0,
10,1.69292,0.901525,-0.028999,-0.000280457,0,
10,1.72416,0.905702,-0.0285701,-0.000266142,0,
10,1.75585,0.909766,-0.0281504,-0.00025235,0,
10,1.78802,0.913708,-0.02774,-0.000238862,0,
10,1.82067,0.917517,-0.0273394,-0.000225553,0,
10,1.85383,0.921181,-0.0269489,-0.000212392,0,
10,1.88751,0.924692,-0.0265693,-0.000199428,0,
10,1.92173,0.928045,-0.0262,-0.000186873,0,
10,1.95652,0.931254,-0.0258435,-0.000173938,0,
10,1.9919,0.934355,-0.0255006,-0.000157583,0,
10,2.02791,0.937358,-0.0251689,-0.000141338,0,
10,2.06456,0.940235,-0.0248493,-0.000124089,0,
10,2.10268,0.943002,-0.0245355,-0.000105541,0,
10,2.1443,0.945722,-0.0242139,-8.64792e-05,0,
10,2.18977,0.94833,-0.023888,-6.72437e-05,0,
10,2.23946,0.950723,-0.0235609,-4.83475e-05,0,
10,2.29376,0.952795,-0.0232378,-3.08591e-05,0,
10,2.35309,0.954437,-0.0229244,-1.57477e-05,0,
10,2.4179,0.955553,-0.022628,-3.79866e-06,0,
10,2.48863,0.956073,-0.0223565,4.4834e-06,0,
10,2.56575,0.955968,-0.0221192,8.99635e-06,0,
10,2.64971,0.955275,-0.0219254,1.01371e-05,0,
10,2.74098,0.954108,-0.0217847,8.78899e-06,0,
10,2.83997,0.952653,-0.0217058,6.18369e-06,0,
10,2.94709,0.951148,-0.0216966,3.53347e-06,0,
10,3.06269,0.949831,-0.0217632,1.60995e-06,0,
10,3.18706,0.948871,-0.0219103,5.68841e-07,0,
10,3.3204,0.948326,-0.0221401,1.50844e-07,0,
10,3.46281,0.948135,-0.0224532,2.92846e-08,0,
10,3.61427,0.948164,-0.0228479,4.3724e-09,0,
10,3.77463,0.948265,-0.0233206,7.19349e-10,0,
10,3.94358,0.94834,-0.023865,3.13405e-10,0,
10,4.12067,0.948359,-0.024473,1.44552e-10,0,
10,4.30525,0.94835,-0.0251344,-3.74656e-10,0,
10,4.49655,0.948357,-0.0258372,-1.28319e-09,0,
10,4.6936,0.948413,-0.0265689,-2.42916e-09,0,
10,4.89531,0.948526,-0.0273163,-3.78816e-09,0,
10,5.10047,0.948681,-0.0280665,-5.74184e-09,0,
10,5.30776,0.948854,-0.0288077,-9.37845e-09,0,
10,5.51581,0.949026,-0.0295292,-1.71378e-08,0,
10,5.72323,0.949186,-0.0302217,-3.51759e-08,0,
10,5.92863,0.949355,-0.0308778,-8.37404e-08,0,
10,6.13069,0.949596,-0.0314918,-2.32343e-07,0,
10,6.32816,0.95,-0.0320598,-6.5129e-07,0,
10,6.51991,0.950603,-0.0325797,-1.41369e-06,0,
10,6.70495,0.951177,-0.033051,-1.17949e-06,0,
10,6.88244,0.951004,-0.033474,5.64065e-06,0,
10,7.0517,0.948839,-0.0338506,3.04967e-05,0,
10,7.21224,0.943264,-0.0341797,8.72686e-05,0,
10,7.3637,0.93337,-0.0344664,0.000185536,0,
10,7.5059,0.919222,-0.0347125,0.000316799,0,
10,7.63878,0.901479,-0.0349202,0.000433459,0,
10,7.76243,0.881319,-0.0350993,0.000561637,0,
10,7.87701,0.860556,-0.0352401,0.000691669,0,
10,7.9828,0.840669,-0.0353571,0.000807795,0,
10,8.08014,0.822339,-0.0354495,0.000905029,0,
10,8.16941,0.805579,-0.0355264,0.00098478,0,
10,8.25106,0.790049,-0.0355907,0.00105096,0,
10,8.32554,0.775338,-0.0356476,0.00110685,0,
10,8.39331,0.761117,-0.035698,0.00115481,0,
10,8.45484,0.747191,-0.0357429,0.00119629,0,
10,8.5106,0.733475,-0.0357821,0.00123185,0,
10,8.56104,0.719953,-0.0358163,0.00126186,0,
10,8.60659,0.706637,-0.0358461,0.00128667,0,
10,8.64767,0.693543,-0.0358722,0.00130663,0,
10,8.68467,0.680666,-0.035896,0.00132033,0,
10,8.71795,0.667986,-0.0359175,0.00132807,0,
10,8.74786,0.65549,-0.0359362,0.00133182,0,
10,8.77471,0.643173,-0.0359528,0.00133155,0,
10,8.79881,0.631031,-0.0359673,0.00132777,0,
10,8.8204,0.619054,-0.03598,0.00132102,0,
10,8.83975,0.607231,-0.0359911,0.00131176,0,
10,8.85708,0.595546,-0.0360008,0.00130046,0,
10,8.87259,0.583982,-0.0360091,0.00128751,0,
10,8.88646,0.572516,-0.0360164,0.00127329,0,
10,8.89886,0.561126,-0.0360227,0.00125808,0,
10,8.90995,0.549784,-0.0360281,0.00124214,0,
10,8.91986,0.53846,-0.0360327,0.00122565,0,
10,8.92872,0.527122,-0.0360366,0.00120876,0,
10,8.93663,0.515735,-0.03604,0.00119154,0,
10,8.94369,0.504262,-0.0360429,0.001174,0,
10,8.95,0.492662,-0.0360453,0.00115609,0,
10,8.95564,0.480889,-0.0360473,0.0011377,0,
10,8.96067,0.468894,-0.036049,0.00111868,0,
10,8.96517,0.456623,-0.0360505,0.00109878,0,
10,8.96918,0.444015,-0.0360517,0.00107767,0,
10,8.97276,0.431001,-0.0360528,0.0010549,0,
10,8.97596,0.417502,-0.0360535,0.00102992,0,
10,8.97882,0.403425,-0.0360544,0.00100201,0,
10,8.98137,0.388662,-0.0360548,0.000970206,0,
10,8.98365,0.373086,-0.0360555,0.000933312,0,
10,8.98569,0.356547,-0.0360557,0.000889958,0,
10,8.9875,0.338859,-0.0360562,0.000837692,0,
10,8.98913,0.319784,-0.0360562,0.000771678,0,
10,8.99058,0.29909,-0.0360568,0.000693593,0,
10,8.99188,0.276614,-0.0360566,0.000601538,0,
10,8.99304,0.25219,-0.0360571,0.000487505,0,
10,8.99408,0.225755,-0.0360568,0.000359307,0,
10,8.99501,0.197658,-0.0360573,0.000230349,0,
10,8.99583,0.16879,-0.0360569,0.000122925,0,
10,8.99658,0.140431,-0.0360574,5.30905e-05,0,
10,8.99724,0.113735,-0.0360569,1.83922e-05,0,
10,8.99784,0.0893233,-0.0360575,5.06279e-06,0,
10,8.99837,0.0673237,-0.0360569,1.06269e-06,0,
10,8.99885,0.0476055,-0.0360576,1.52285e-07,0,
10,8.99927,0.0299557,-0.0360569,1.15631e-08,0,
10,8.99966,0.0141563,-0.0360578,2.55859e-10,0,
10,9,0,-0.0360568,0,0,

0.0416667,0,0,-0.231143,0,3.18136e-06,
0.0833333,0,0,-0.231307,0,5.36233e-06,
0.125,0,0,-0.231245,0,6.98404e-06,
0.166667,0,0,-0.231298,0,1.14672e-05,
0.208333,0,0,-0.23131,0,1.59845e-05,
0.25,0,0,-0.231361,0,2.08301e-05,
0.291667,0,0,-0.231409,0,2.50951e-05,
0.333333,0,0,-0.231474,0,2.88328e-05,
0.375,0,0,-0.231545,0,3.20114e-05,
0.416667,0,0,-0.231624,0,3.50611e-05,
0.458333,0,0,-0.231713,0,3.84134e-05,
0.5,0,0,-0.231813,0,4.25353e-05,
0.541667,0,0,-0.23193,0,4.77466e-05,
0.583333,0,0,-0.232066,0,5.41841e-05,
0.625,0,0,-0.232227,0,6.17611e-05,
0.666667,0,0,-0.232415,0,7.0178e-05,
0.708333,0,0,-0.232632,0,7.89658e-05,
0.75,0,0,-0.232876,0,8.75426e-05,
0.791667,0,0,-0.233148,0,9.53029e-05,
0.833333,0,0,-0.233445,0,0.000101704,
0.875,0,0,-0.233768,0,0.000106343,
0.916667,0,0,-0.23412,0,0.000108942,
0.958333,0,0,-0.234512,0,0.000109172,
1,0,0,-0.234963,0,0.000106358,
1.04167,0,0,-0.235495,0,9.92287e-05,
1.08333,0,0,-0.236136,0,8.58217e-05,
1.125,0,0,-0.236906,0,6.37069e-05,
1.16667,0,0,-0.237816,0,3.05482e-05,
1.20833,0,0,-0.238861,0,-1.51525e-05,
1.25,0,0,-0.24002,0,-7.34512e-05,
1.29167,0,0,-0.241258,0,-0.000142791,
1.33333,0,0,-0.242534,0,-0.000220374,
1.375,0,0,-0.243807,0,-0.000302899,
1.41667,0,0,-0.245039,0,-0.000387333,
1.45833,0,0,-0.246201,0,-0.000471396,
1.5,0,0,-0.247269,0,-0.00055369,
1.54167,0,0,-0.248228,0,-0.000633529,
1.58333,0,0,-0.249064,0,-0.000710685,
1.625,0,0,-0.249768,0,-0.00078515,
1.66667,0,0,-0.250334,0,-0.00085699,
1.70833,0,0,-0.250756,0,-0.00092627,
1.75,0,0,-0.25103,0,-0.00099303,
1.79167,0,0,-0.251151,0,-0.00105728,
1.83333,0,0,-0.251116,0,-0.00111898,
1.875,0,0,-0.250922,0,-0.00117811,
1.91667,0,0,-0.250569,0,-0.0012346,
1.95833,0,0,-0.250054,0,-0.00128837,
2,0,0,-0.249377,0,-0.00133934,
2.04167,0,0,-0.248539,0,-0.00138743,
2.08333,0,0,-0.247541,0,-0.00143256,
2.125,0,0,-0.246386,0,-0.00147466,
2.16667,0,0,-0.245076,0,-0.00151366,
2.20833,0,0,-0.243615,0,-0.00154952,
2.25,0,0,-0.242009,0,-0.00158223,
2.29167,0,0,-0.240262,0,-0.0016118,
2.33333,0,0,-0.238382,0,-0.00163826,
2.375,0,0,-0.236373,0,-0.00166167,
2.41667,0,0,-0.234244,0,-0.00168209,
2.45833,0,0,-0.232,0,-0.00169961,
2.5,0,0,-0.22965,0,-0.00171431,
2.54167,0,0,-0.227199,0,-0.0017263,
2.58333,0,0,-0.224657,0,-0.00173568,
2.625,0,0,-0.222028,0,-0.00174258,
2.66667,0,0,-0.219321,0,-0.00174712,
2.70833,0,0,-0.216542,0,-0.00174943,
2.75,0,0,-0.213698,0,-0.00174963,
2.79167,0,0,-0.210794,0,-0.00174785,
2.83333,0,0,-0.207837,0,-0.00174421,
2.875,0,0,-0.204832,0,-0.00173882,
2.91667,0,0,-0.201784,0,-0.00173178,
2.95833,0,0,-0.198698,0,-0.00172318,
3,0,0,-0.195579,0,-0.00171311,
3.04167,0,0,-0.192431,0,-0.00170164,
3.08333,0,0,-0.189259,0,-0.00168887,
3.125,0,0,-0.186066,0,-0.00167485,
3.16667,0,0,-0.182857,0,-0.00165969,
3.20833,0,0,-0.179634,0,-0.00164346,
3.25,0,0,-0.176402,0,-0.00162625,
3.29167,0,0,-0.173162,0,-0.00160815,
3.33333,0,0,-0.169917,0,-0.00158921,
3.375,0,0,-0.166669,0,-0.00156949,
3.41667,0,0,-0.163421,0,-0.00154905,
3.45833,0,0,-0.160174,0,-0.00152791,
3.5,0,0,-0.156931,0,-0.00150611,
3.54167,0,0,-0.153694,0,-0.00148366,
3.58333,0,0,-0.150463,0,-0.00146062,
3.625,0,0,-0.147241,0,-0.00143703,
3.66667,0,0,-0.144029,0,-0.00141292,
3.70833,0,0,-0.140828,0,-0.00138835,
3.75,0,0,-0.137638,0,-0.00136334,
3.79167,0,0,-0.134461,0,-0.00133792,
3.83333,0,0,-0.131297,0,-0.00131212,
3.875,0,0,-0.128146,0,-0.00128593,
3.91667,0,0,-0.12501,0,-0.00125936,
3.95833,0,0,-0.121889,0,-0.00123242,
4,0,0,-0.118783,0,-0.00120512,
4.04167,0,0,-0.115692,0,-0.00117747,
4.08333,0,0,-0.112618,0,-0.00114949,
4.125,0,0,-0.10956,0,-0.00112119,
4.16667,0,0,-0.106517,0,-0.00109259,
4.20833,0,0,-0.103491,0,-0.00106367,
4.25,0,0,-0.100482,0,-0.00103443,
4.29167,0,0,-0.0974881,0,-0.00100487,
4.33333,0,0,-0.0945113,0,-0.000974962,
4.375,0,0,-0.0915513,0,-0.000944715,
4.41667,0,0,-0.0886085,0,-0.000914124,
4.45833,0,0,-0.0856829,0,-0.000883187,
4.5,0,0,-0.0827748,0,-0.000851902,
4.54167,0,0,-0.0798844,0,-0.000820262,
4.58333,0,0,-0.0770119,0,-0.000788258,
4.625,0,0,-0.0741578,0,-0.000755885,
4.66667,0,0,-0.0713225,0,-0.000723138,
4.70833,0,0,-0.0685065,0,-0.000690015,
4.75,0,0,-0.0657103,0,-0.000656512,
4.79167,0,0,-0.0629343,0,-0.000622626,
4.83333,0,0,-0.0601793,0,-0.000588349,
4.875,0,0,-0.0574459,0,-0.000553679,
4.91667,0,0,-0.0547349,0,-0.000518614,
4.95833,0,0,-0.0520471,0,-0.000483155,
5,0,0,-0.0493835,0,-0.000447298,
5.04167,0,0,-0.0467449,0,-0.00041104,
5.08333,0,0,-0.0441327,0,-0.000374382,
5.125,0,0,-0.0415482,0,-0.000337327,
5.16667,0,0,-0.0389929,0,-0.000299891,
5.20833,0,0,-0.0364684,0,-0.000262092,
5.25,0,0,-0.0339764,0,-0.000223958,
5.29167,0,0,-0.0315187,0,-0.000185531,
5.33333,0,0,-0.0290971,0,-0.000146851,
5.375,0,0,-0.0267128,0,-0.00010795,
5.41667,0,0,-0.0243672,0,-6.88502e-05,
5.45833,0,0,-0.0220619,0,-2.95712e-05,
5.5,0,0,-0.0197983,0,9.86377e-06,
5.54167,0,0,-0.0175779,0,4.94266e-05,
5.58333,0,0,-0.0154024,0,8.90863e-05,
5.625,0,0,-0.0132733,0,0.000128806,
5.66667,0,0,-0.0111923,0,0.000168546,
5.70833,0,0,-0.00916078,0,0.000208264,
5.75,0,0,-0.00718034,0,0.000247917,
5.79167,0,0,-0.00525234,0,0.000287458,
5.83333,0,0,-0.00337813,0,0.000326839,
5.875,0,0,-0.00155895,0,0.000366011,
5.91667,0,0,0.000204069,0,0.000404924,
5.95833,0,0,0.00190989,0,0.000443526,
6,0,0,0.00355758,0,0.000481767,
6.04167,0,0,0.0051463,0,0.000519596,
6.08333,0,0,0.00667532,0,0.000556964,
6.125,0,0,0.00814401,0,0.00059382,
6.16667,0,0,0.00955186,0,0.000630117,
6.20833,0,0,0.0108985,0,0.000665808,
6.25,0,0,0.0121835,0,0.00070085,
6.29167,0,0,0.0134068,0,0.000735201,
6.33333,0,0,0.0145683,0,0.000768822,
6.375,0,0,0.0156677,0,0.000801676,
6.41667,0,0,0.0167053,0,0.000833729,
6.45833,0,0,0.017681,0,0.00086495,
6.5,0,0,0.0185951,0,0.000895308,
6.54167,0,0,0.0194477,0,0.000924775,
6.58333,0,0,0.0202392,0,0.000953325,
6.625,0,0,0.0209699,0,0.000980933,
6.66667,0,0,0.0216404,0,0.00100758,
6.70833,0,0,0.022251,0,0.00103324,
6.75,0,0,0.0228022,0,0.00105791,
6.79167,0,0,0.0232947,0,0.00108156,
6.83333,0,0,0.023729,0,0.00110419,
6.875,0,0,0.0241058,0,0.00112579,
6.91667,0,0,0.0244257,0,0.00114634,
6.95833,0,0,0.0246894,0,0.00116584,
7,0,0,0.0248978,0,0.00118428,
7.04167,0,0,0.0250513,0,0.00120164,
7.08333,0,0,0.0251506,0,0.0012179,
7.125,0,0,0.0251963,0,0.00123306,
7.16667,0,0,0.0251893,0,0.00124712,
7.20833,0,0,0.0251304,0,0.00126008,
7.25,0,0,0.0250203,0,0.00127194,
7.29167,0,0,0.02486,0,0.00128271,
7.33333,0,0,0.0246502,0,0.00129241,
7.375,0,0,0.0243918,0,0.00130105,
7.41667,0,0,0.0240855,0,0.00130864,
7.45833,0,0,0.0237321,0,0.00131519,
7.5,0,0,0.0233324,0,0.00132072,
7.54167,0,0,0.022887,0,0.00132526,
7.58333,0,0,0.0223967,0,0.00132881,
7.625,0,0,0.021862,0,0.00133142,
7.66667,0,0,0.0212837,0,0.0013331,
7.70833,0,0,0.0206624,0,0.00133389,
7.75,0,0,0.0199988,0,0.00133382,
7.79167,0,0,0.0192935,0,0.00133292,
7.83333,0,0,0.0185466,0,0.00133124,
7.875,0,0,0.0177583,0,0.00132889,
7.91667,0,0,0.016943,0,0.00132656,
7.95833,0,0,0.0160163,0,0.00132235,
8,0,0,0.0151769,0,0.00131759,
8.04171,0,0,0.0143375,0,0.00131355,
8.08368,0,0,0.0133277,0,0.0013088,
8.12617,0,0,0.0123288,0,0.0013016,
8.16946,0,0,0.011274,0,0.00129389,
8.21382,0,0,0.010153,0,0.0012856,
8.25952,0,0,0.00896663,0,0.00127673,
8.30685,0,0,0.0077058,0,0.00126743,
8.35611,0,0,0.006362,0,0.00125782,
8.40762,0,0,0.00492647,0,0.00124799,
8.46168,0,0,0.00338968,0,0.00123804,
8.51865,0,0,0.00174153,0,0.00122808,
8.57889,0,0,-2.86652e-05,0,0.00121822,
8.64276,0,0,-0.00193237,0,0.00120855,
8.71067,0,0,-0.00398186,0,0.00119914,
8.78306,0,0,-0.00619044,0,0.00119,
8.86037,0,0,-0.00857262,0,0.00118105,
8.94309,0,0,-0.0111433,0,0.00117205,
9.03174,0,0,-0.0139143,0,0.00116263,
9.12689,0,0,-0.0168882,0,0.00115224,
9.22912,0,0,-0.0200463,0,0.00114026,
9.33908,0,0,-0.0233291,0,0.00112617,
9.45746,0,0,-0.0265964,0,0.00111002,
9.58501,0,0,-0.0295998,0,0.00109319,
9.72253,0,0,-0.0319886,0,0.0010787,
9.87088,0,0,-0.0333371,0,0.00107118,
10.031,0,0,-0.0332072,0,0.00107637,
10.2039,0,0,-0.0312386,0,0.0011001,
10.3906,0,0,-0.0272494,0,0.0011469,
10.5924,0,0,-0.0212987,0,0.00121875,
10.8105,0,0,-0.0137366,0,0.00131414,
11.0463,0,0,-0.0051981,0,0.00142763,
11.3012,0,0,0.00349953,0,0.00155065,
11.5769,0,0,0.0115382,0,0.00167339,
11.8751,0,0,0.0183025,0,0.00178722,
12.1977,0,0,0.0234699,0,0.00188635,
12.5466,0,0,0.0269576,0,0.00196791,
12.9242,0,0,0.0288336,0,0.00203113,
13.3327,0,0,0.0292646,0,0.00207675,
13.7748,0,0,0.0284953,0,0.00210683,
14.2532,0,0,0.0268331,0,0.00212465,
14.7709,0,0,0.0246097,0,0.00213413,
15.3312,0,0,0.0221317,0,0.00213898,
15.9377,0,0,0.019643,0,0.00214204,
16.594,0,0,0.0173095,0,0.0021451,
17.3044,0,0,0.0152322,0,0.00214902,
18.0733,0,0,0.0134699,0,0.00215396,
18.9056,0,0,0.0120467,0,0.00215956,
19.8064,0,0,0.0109408,0,0.00216507,
20.7816,0,0,0.0100833,0,0.00216958,
21.8371,0,0,0.00938669,0,0.00217267,
22.9796,0,0,0.00878228,0,0.00217471,
24.2163,0,0,0.00823716,0,0.00217657,
25.5551,0,0,0.00773843,0,0.00217926,
27.0042,0,0,0.00727261,0,0.00218348,
28.5729,0,0,0.00681605,0,0.00218938,
30.271,0,0,0.00633919,0,0.00219671,
32.1091,0,0,0.00581896,0,0.00220519,
34.0989,0,0,0.00524145,0,0.00221467,
36.2529,0,0,0.00459051,0,0.00222499,
38.5845,0,0,0.00385758,0,0.00223604,
41.1085,0,0,0.00307732,0,0.00224773,
43.8407,0,0,0.00209243,0,0.00225774,
46.7983,0,0,0.00107705,0,0.00226367,
50,0,0,0.0020757,0,0.00227969,

