5580c4bcb3013fca36c702f58c123445adf78338 
X,Z,x_velocity,cp,uw_b,cf,
1,0,0,-0.22467,0,0,
1,9,0,-0.130723,0,0,
1,8.99969,0.0154172,-0.130723,2.86648e-10,0,
1,8.99934,0.0329079,-0.130723,1.33985e-08,0,
1,8.99894,0.052769,-0.130723,1.84819e-07,0,
1,8.99848,0.0753145,-0.130723,1.35484e-06,0,
1,8.99797,0.100857,-0.130723,6.77132e-06,0,
1,8.99739,0.129593,-0.130723,2.5627e-05,0,
1,8.99672,0.161327,-0.130723,7.59061e-05,0,
1,8.99597,0.19512,-0.130723,0.000176423,0,
1,8.99512,0.229319,-0.130723,0.000325099,0,
1,8.99416,0.262269,-0.130723,0.000493351,0,
1,8.99306,0.292992,-0.130722,0.000651746,0,
1,8.99182,0.321318,-0.130722,0.000779223,0,
1,8.99041,0.347386,-0.130722,0.00088481,0,
1,8.98881,0.371356,-0.130721,0.000971999,0,
1,8.98699,0.393444,-0.130721,0.00104313,0,
1,8.98494,0.413939,-0.13072,0.00109908,0,
1,8.98261,0.433151,-0.130719,0.00114183,0,
1,8.97996,0.451321,-0.130718,0.00117766,0,
1,8.97696,0.46862,-0.130717,0.00120733,0,
1,8.97356,0.485192,-0.130716,0.00123213,0,
1,8.9697,0.501153,-0.130714,0.00125301,0,
1,8.96533,0.516603,-0.130712,0.00127069,0,
1,8.96038,0.531623,-0.13071,0.00128569,0,
1,8.95476,0.546285,-0.130708,0.00129838,0,
1,8.9484,0.560648,-0.130706,0.00130901,0,
1,8.9412,0.57476,-0.130703,0.00131777,0,
1,8.93303,0.588667,-0.1307,0.00132475,0,
1,8.92379,0.602403,-0.130697,0.00133,0,
1,8.91333,0.616003,-0.130694,0.00133355,0,
1,8.90149,0.629492,-0.130691,0.00133536,0,
1,8.8881,0.642896,-0.130688,0.00133538,0,
1,8.87295,0.656237,-0.130685,0.00133354,0,
1,8.85584,0.669534,-0.130682,0.00132974,0,
1,8.83651,0.682807,-0.130681,0.00132387,0,
1,8.81469,0.696074,-0.130681,0.0013158,0,
1,8.79007,0.709357,-0.130682,0.00130537,0,
1,8.76232,0.722675,-0.130686,0.0012924,0,
1,8.73107,0.736056,-0.130694,0.00127665,0,
1,8.69591,0.749528,-0.130705,0.00125786,0,
1,8.6564,0.763129,-0.130723,0.00123567,0,
1,8.61206,0.776903,-0.130749,0.00120966,0,
1,8.56236,0.790908,-0.130784,0.00117949,0,
1,8.50675,0.805221,-0.130833,0.00114629,0,
1,8.44464,0.819981,-0.130899,0.00110603,0,
1,8.3754,0.835407,-0.130985,0.00105449,0,
1,8.29839,0.851747,-0.131098,0.000991259,0,
1,8.21296,0.869246,-0.131245,0.000911828,0,
1,8.11843,0.888096,-0.131431,0.000810968,0,
1,8.01417,0.908293,-0.131671,0.000685244,0,
1,7.89956,0.929391,-0.131959,0.000538151,0,
1,7.77403,0.950262,-0.132336,0.000388228,0,
1,7.63711,0.969295,-0.132786,0.000204354,0,
1,7.48842,0.984163,-0.133319,7.5608e-05,0,
1,7.32773,0.992935,-0.133958,1.80617e-05,0,
1,7.15495,0.996105,-0.134701,1.77683e-06,0,
1,6.97022,0.996156,-0.135562,2.27413e-08,0,
1,6.77388,0.995539,-0.136557,3.72835e-09,0,
1,6.56652,0.995424,-0.1377,9.70708e-09,0,
1,6.34896,0.995881,-0.139004,1.24818e-08,0,
1,6.12229,0.996609,-0.140485,1.40741e-08,0,
1,5.88784,0.997408,-0.142154,1.49066e-08,0,
1,5.64716,0.998243,-0.144024,1.58581e-08,0,
1,5.40194,0.999143,-0.146105,1.7186e-08,0,
1,5.15407,1.00014,-0.148403,1.88914e-08,0,
1,4.90545,1.00123,-0.150918,2.06592e-08,0,
1,4.65805,1.00242,-0.153649,2.25277e-08,0,
1,4.41376,1.00371,-0.156585,2.44727e-08,0,
1,4.17441,1.00508,-0.159712,2.62625e-08,0,
1,3.94163,1.00647,-0.16301,2.77347e-08,0,
1,3.7169,1.00783,-0.166449,2.95062e-08,0,
1,3.50146,1.00925,-0.169997,3.35229e-08,0,
1,3.29629,1.01103,-0.17362,4.1795e-08,0,
1,3.10217,1.01353,-0.177285,5.24219e-08,0,
1,2.91959,1.01655,-0.180964,9.59425e-08,0,
1,2.74885,1.01863,-0.184613,9.05074e-07,0,
1,2.59002,1.01735,-0.188173,-6.72432e-06,0,
1,2.44299,1.01101,-0.191579,-5.40012e-05,0,
1,2.30752,0.999827,-0.194769,-0.000153378,0,
1,2.18321,0.985265,-0.197686,-0.000290645,0,
1,2.06959,0.968913,-0.200366,-0.000408874,0,
1,1.9661,0.952039,-0.20279,-0.000511592,0,
1,1.87215,0.935568,-0.204925,-0.000607451,0,
1,1.78711,0.920006,-0.206811,-0.000691907,0,
1,1.71033,0.905507,-0.208464,-0.000764862,0,
1,1.64119,0.892037,-0.209907,-0.000827826,0,
1,1.57905,0.879483,-0.211162,-0.000882961,0,
1,1.52332,0.867715,-0.212248,-0.000932467,0,
1,1.47342,0.856626,-0.213192,-0.000978513,0,
1,1.42882,0.846126,-0.213991,-0.00101105,0,
1,1.389,0.836132,-0.214661,-0.0010358,0,
1,1.35351,0.826582,-0.215237,-0.00105878,0,
1,1.3219,0.817438,-0.215726,-0.0010793,0,
1,1.29378,0.808684,-0.216143,-0.00109714,0,
1,1.26878,0.800307,-0.216497,-0.00111236,0,
1,1.24659,0.792304,-0.216797,-0.00112539,0,
1,1.22689,0.784669,-0.217052,-0.00113633,0,
1,1.2092,0.777313,-0.217272,-0.00114417,0,
1,1.1932,0.770186,-0.217461,-0.00114961,0,
1,1.1787,0.763274,-0.217624,-0.00115331,0,
1,1.16554,0.756555,-0.217765,-0.00115617,0,
1,1.15357,0.750001,-0.217885,-0.00116002,0,
1,1.14266,0.743564,-0.217989,-0.00116815,0,
1,1.13268,0.737178,-0.218077,-0.00118473,0,
1,1.12354,0.73075,-0.218154,-0.00121557,0,
1,1.11514,0.724159,-0.218222,-0.0012677,0,
1,1.10739,0.717255,-0.218283,-0.00134902,0,
1,1.10022,0.709866,-0.218343,-0.0014674,0,
1,1.09357,0.70182,-0.218404,-0.00162956,0,
1,1.08738,0.692973,-0.21847,-0.0018395,0,
1,1.0816,0.683246,-0.218541,-0.00209709,0,
1,1.07618,0.672653,-0.21862,-0.00239722,0,
1,1.07107,0.661297,-0.218706,-0.00273028,0,
1,1.06626,0.649344,-0.218798,-0.00308399,0,
1,1.06169,0.636987,-0.218895,-0.00344573,0,
1,1.05735,0.62441,-0.218997,-0.00380451,0,
1,1.05321,0.611771,-0.219101,-0.00415187,0,
1,1.04925,0.599191,-0.219207,-0.00448206,0,
1,1.04544,0.586757,-0.219315,-0.00479158,0,
1,1.04177,0.57453,-0.219423,-0.00507866,0,
1,1.03822,0.562545,-0.219531,-0.00534275,0,
1,1.03478,0.550823,-0.219639,-0.00558408,0,
1,1.03144,0.539372,-0.219747,-0.00580337,0,
1,1.02818,0.528192,-0.219854,-0.00600162,0,
1,1.025,0.517276,-0.21996,-0.00617996,0,
1,1.02188,0.506617,-0.220065,-0.00633953,0,
1,1.01882,0.496204,-0.22017,-0.00648148,0,
1,1.01581,0.486024,-0.220273,-0.00660705,0,
1,1.01284,0.476064,-0.220376,-0.00671681,0,
1,1.00988,0.466207,-0.220479,-0.0068126,0,
1,1.00688,0.456337,-0.220584,-0.00689657,0,
1,1.00384,0.446444,-0.22069,-0.00696896,0,
1,1.00076,0.436517,-0.220797,-0.007029,0,
1,0.997615,0.426538,-0.220906,-0.00707666,0,
1,0.99441,0.416486,-0.221016,-0.00711166,0,
1,0.991131,0.406336,-0.221127,-0.00713411,0,
1,0.987768,0.396063,-0.221239,-0.00714389,0,
1,0.984308,0.385636,-0.221354,-0.00714067,0,
1,0.980739,0.375025,-0.221469,-0.00712397,0,
1,0.977045,0.364195,-0.221587,-0.00709319,0,
1,0.973211,0.35311,-0.221707,-0.00704755,0,
1,0.969219,0.34173,-0.221829,-0.00698611,0,
1,0.965047,0.330009,-0.221953,-0.00690773,0,
1,0.960675,0.3179,-0.222079,-0.00681097,0,
1,0.956077,0.305348,-0.222208,-0.00669349,0,
1,0.951224,0.292297,-0.222339,-0.00655379,0,
1,0.946088,0.278691,-0.222473,-0.00638966,0,
1,0.940633,0.264482,-0.22261,-0.00619981,0,
1,0.934823,0.249627,-0.22275,-0.00598182,0,
1,0.928616,0.234091,-0.222893,-0.00573283,0,
1,0.921967,0.217846,-0.223038,-0.00545053,0,
1,0.914826,0.200872,-0.223185,-0.00513284,0,
1,0.907141,0.183165,-0.223333,-0.00477815,0,
1,0.898852,0.164745,-0.22348,-0.00438563,0,
1,0.889898,0.145664,-0.223626,-0.00395564,0,
1,0.880212,0.126024,-0.223769,-0.00349044,0,
1,0.869723,0.106006,-0.22391,-0.00299523,0,
1,0.858358,0.0859203,-0.22405,-0.00248015,0,
1,0.846039,0.0662771,-0.224189,-0.00196403,0,
1,0.83269,0.0478662,-0.224333,-0.00147883,0,
1,0.818232,0.0317147,-0.224483,-0.00106864,0,
1,0.802744,0.0187811,-0.224634,-0.000759559,0,
1,0.78635,0.00922691,-0.224797,-0.000543268,0,
1,0.768969,0.002357,-0.22496,-0.000403567,0,
1,0.75053,-0.00272092,-0.22512,-0.000320905,0,
1,0.730977,-0.0067498,-0.225268,-0.000276783,0,
1,0.710271,-0.0102356,-0.2254,-0.000256645,0,
1,0.688397,-0.0134857,-0.225515,-0.000250701,0,
1,0.66536,-0.0166773,-0.225614,-0.000251801,0,
1,0.641194,-0.0199136,-0.225696,-0.000254952,0,
1,0.615961,-0.023246,-0.225761,-0.000257169,0,
1,0.589754,-0.0266846,-0.225809,-0.000256532,0,
1,0.562692,-0.030209,-0.225837,-0.000252111,0,
1,0.534925,-0.0337765,-0.225845,-0.000243628,0,
1,0.506624,-0.0373289,-0.225829,-0.000231233,0,
1,0.477982,-0.0407987,-0.225788,-0.000215302,0,
1,0.449206,-0.0441128,-0.225723,-0.000196323,0,
1,0.420509,-0.0471958,-0.225635,-0.000174814,0,
1,0.392107,-0.049971,-0.225526,-0.000151269,0,
1,0.364206,-0.052362,-0.225401,-0.000126134,0,
1,0.337003,-0.0542928,-0.225263,-9.98008e-05,0,
1,0.310673,-0.055689,-0.22512,-7.26287e-05,0,
1,0.28537,-0.0564797,-0.224978,-4.49793e-05,0,
1,0.26122,-0.056601,-0.224843,-1.72716e-05,0,
1,0.238324,-0.0560014,-0.224722,9.95728e-06,0,
1,0.21675,-0.0546498,-0.224619,3.60169e-05,0,
1,0.196544,-0.0525438,-0.224537,6.00814e-05,0,
1,0.177724,-0.0497171,-0.224477,8.12691e-05,0,
1,0.160284,-0.0462431,-0.224439,9.87651e-05,0,
1,0.144202,-0.0422329,-0.224421,0.000111949,0,
1,0.129436,-0.0378263,-0.224419,0.000120478,0,
1,0.115935,-0.0331791,-0.224431,0.000124354,0,
1,0.103636,-0.0284475,-0.224451,0.000123901,0,
1,0.0924701,-0.0237742,-0.224477,0.000119675,0,
1,0.0823633,-0.0192767,-0.224505,0.000112371,0,
1,0.0732406,-0.0150415,-0.224533,0.000102724,0,
1,0.0650269,-0.0111228,-0.224559,9.14455e-05,0,
1,0.057648,-0.0075457,-0.224583,7.91858e-05,0,
1,0.0510323,-0.00431323,-0.224604,6.65407e-05,0,
1,0.0451115,-0.00141475,-0.224622,5.41554e-05,0,
1,0.0398209,0.00116553,-0.224636,4.2605e-05,0,
1,0.0351001,0.00344274,-0.224647,3.19305e-05,0,
1,0.0308929,0.00542777,-0.224656,2.22466e-05,0,
1,0.0271475,0.00711585,-0.224661,1.39391e-05,0,
1,0.0238164,0.00847837,-0.224665,7.49557e-06,0,
1,0.0208562,0.00946872,-0.224667,3.22406e-06,0,
1,0.0182274,0.0100491,-0.224669,9.33955e-07,0,
1,0.0158944,0.0102233,-0.22467,2.08631e-09,0,
1,0.0138249,0.0100453,-0.22467,-2.36852e-07,0,
1,0.0119898,0.00959887,-0.22467,-2.18916e-07,0,
1,0.0103632,0.00896978,-0.22467,-1.45431e-07,0,
1,0.00892169,0.00822994,-0.22467,-8.29952e-08,0,
1,0.00764438,0.00743351,-0.22467,-4.29954e-08,0,
1,0.00651264,0.00661906,-0.224671,-2.06523e-08,0,
1,0.00550983,0.0058131,-0.224671,-9.25915e-09,0,
1,0.00462115,0.0050333,-0.224671,-3.86751e-09,0,
1,0.00383341,0.00429094,-0.22467,-1.49206e-09,0,
1,0.0031349,0.00359265,-0.22467,-5.23187e-10,0,
1,0.00251518,0.00294181,-0.22467,-1.62416e-10,0,
1,0.00196502,0.0023394,-0.22467,-4.27782e-11,0,
1,0.00147619,0.00178482,-0.22467,-8.89798e-12,0,
1,0.00104139,0.00127629,-0.22467,-1.28324e-12,0,
1,0.000654158,0.000811346,-0.22467,-9.86592e-14,0,
1,0.000308731,0.000387054,-0.22467,-2.21826e-15,0,

4,0,0,-0.170468,0,0,
4,9,0,-0.10046,0,0,
4,8.99969,0.0142924,-0.10046,2.25469e-10,0,
4,8.99934,0.0304506,-0.10046,1.04606e-08,0,
4,8.99894,0.0487371,-0.10046,1.42836e-07,0,
4,8.9985,0.0694288,-0.10046,1.03672e-06,0,
4,8.99799,0.0928075,-0.10046,5.14509e-06,0,
4,8.99742,0.119076,-0.10046,1.9476e-05,0,
4,8.99677,0.148146,-0.10046,5.84169e-05,0,
4,8.99605,0.179335,-0.10046,0.000139473,0,
4,8.99522,0.211283,-0.10046,0.000266406,0,
4,8.99429,0.242447,-0.10046,0.000418854,0,
4,8.99324,0.271763,-0.100459,0.000568843,0,
4,8.99205,0.298855,-0.100459,0.000698401,0,
4,8.9907,0.323801,-0.100459,0.000802584,0,
4,8.98919,0.346774,-0.100458,0.000890343,0,
4,8.98747,0.367962,-0.100457,0.000963323,0,
4,8.98553,0.387633,-0.100457,0.0010208,0,
4,8.98334,0.406067,-0.100456,0.00106703,0,
4,8.98087,0.423483,-0.100455,0.00110608,0,
4,8.97807,0.44005,-0.100453,0.0011392,0,
4,8.97491,0.45591,-0.100452,0.00116769,0,
4,8.97134,0.471181,-0.10045,0.00119253,0,
4,8.96731,0.485963,-0.100447,0.00121444,0,
4,8.96276,0.500341,-0.100445,0.00123395,0,
4,8.95762,0.514387,-0.100442,0.00125143,0,
4,8.95182,0.528164,-0.100438,0.00126712,0,
4,8.94526,0.541723,-0.100435,0.00128118,0,
4,8.93787,0.555112,-0.10043,0.00129369,0,
4,8.92952,0.56837,-0.100425,0.00130465,0,
4,8.92011,0.58153,-0.10042,0.00131401,0,
4,8.90949,0.594623,-0.100414,0.0013217,0,
4,8.89751,0.607671,-0.100408,0.00132758,0,
4,8.88402,0.620697,-0.100401,0.00133151,0,
4,8.86881,0.633719,-0.100394,0.00133332,0,
4,8.85169,0.64675,-0.100386,0.00133283,0,
4,8.83242,0.659805,-0.100378,0.00132986,0,
4,8.81074,0.672895,-0.100371,0.00132423,0,
4,8.78637,0.686032,-0.100364,0.00131576,0,
4,8.75901,0.699229,-0.100357,0.00130426,0,
4,8.7283,0.7125,-0.100353,0.00128955,0,
4,8.69387,0.725866,-0.10035,0.00127141,0,
4,8.65533,0.739349,-0.10035,0.0012496,0,
4,8.61222,0.752981,-0.100354,0.00122381,0,
4,8.56407,0.766805,-0.100363,0.00119365,0,
4,8.5104,0.780874,-0.100379,0.00115887,0,
4,8.45065,0.795264,-0.100406,0.00112131,0,
4,8.38429,0.81013,-0.100446,0.00107387,0,
4,8.31073,0.825708,-0.100501,0.0010165,0,
4,8.22941,0.842261,-0.100575,0.000946141,0,
4,8.13974,0.860052,-0.100673,0.000858415,0,
4,8.04115,0.879256,-0.100797,0.000749705,0,
4,7.93313,0.899759,-0.100951,0.000620307,0,
4,7.81519,0.920853,-0.10113,0.000479408,0,
4,7.68693,0.941073,-0.101358,0.00034444,0,
4,7.54803,0.958521,-0.101618,0.000202667,0,
4,7.39831,0.971307,-0.101928,8.90187e-05,0,
4,7.23771,0.978558,-0.102304,2.74625e-05,0,
4,7.06634,0.981225,-0.102737,4.54432e-06,0,
4,6.88453,0.981373,-0.103229,2.68147e-08,0,
4,6.69275,0.98084,-0.103782,-7.59181e-08,0,
4,6.49173,0.980554,-0.104404,2.76737e-08,0,
4,6.28238,0.980664,-0.105107,2.68969e-08,0,
4,6.06579,0.981008,-0.105897,1.52563e-08,0,
4,5.84328,0.981429,-0.106783,1.03636e-08,0,
4,5.61626,0.981865,-0.107771,9.1285e-09,0,
4,5.3863,0.982317,-0.108865,9.26931e-09,0,
4,5.15502,0.982802,-0.11007,9.96644e-09,0,
4,4.92406,0.983335,-0.11139,1.09506e-08,0,
4,4.69507,0.983926,-0.112825,1.21241e-08,0,
4,4.46961,0.98458,-0.114375,1.33425e-08,0,
4,4.24915,0.985279,-0.116036,1.43059e-08,0,
4,4.03501,0.985968,-0.117805,1.47297e-08,0,
4,3.82836,0.986578,-0.119673,1.48894e-08,0,
4,3.63018,0.987117,-0.12163,1.62197e-08,0,
4,3.44125,0.987771,-0.123663,2.17854e-08,0,
4,3.26217,0.988901,-0.12576,7.41407e-08,0,
4,3.09333,0.990795,-0.127907,6.46611e-07,0,
4,2.93497,0.993245,-0.130084,2.9782e-06,0,
4,2.78715,0.995368,-0.132276,5.78622e-06,0,
4,2.64979,0.995967,-0.13446,1.22611e-06,0,
4,2.52268,0.994122,-0.136611,-2.05859e-05,0,
4,2.40551,0.989528,-0.138703,-6.45918e-05,0,
4,2.29789,0.982459,-0.140711,-0.00012906,0,
4,2.19939,0.973524,-0.142616,-0.000207624,0,
4,2.10949,0.963427,-0.144406,-0.000292297,0,
4,2.02768,0.9528,-0.146076,-0.000375556,0,
4,1.95343,0.942152,-0.147624,-0.000451414,0,
4,1.88618,0.931855,-0.14905,-0.000517657,0,
4,1.82542,0.92209,-0.150363,-0.000563993,0,
4,1.77062,0.912914,-0.151567,-0.00060201,0,
4,1.72128,0.904375,-0.15266,-0.000636122,0,
4,1.67693,0.896498,-0.153654,-0.000666432,0,
4,1.63713,0.889282,-0.154553,-0.000693343,0,
4,1.60144,0.882702,-0.155366,-0.000717235,0,
4,1.56949,0.876727,-0.156099,-0.000738507,0,
4,1.54091,0.871318,-0.156759,-0.000757661,0,
4,1.51537,0.86642,-0.157353,-0.000774972,0,
4,1.49167,0.861841,-0.157905,-0.000790958,0,
4,1.46926,0.857486,-0.158431,-0.000806153,0,
4,1.44801,0.853318,-0.158939,-0.000815251,0,
4,1.42781,0.8493,-0.159429,-0.00082213,0,
4,1.40855,0.845409,-0.159897,-0.000828111,0,
4,1.39015,0.841631,-0.160348,-0.000832768,0,
4,1.37252,0.837951,-0.160782,-0.000836607,0,
4,1.3556,0.834353,-0.161201,-0.000840107,0,
4,1.3393,0.830818,-0.161606,-0.000843894,0,
4,1.32357,0.827328,-0.161999,-0.000848827,0,
4,1.30836,0.823862,-0.162381,-0.000855679,0,
4,1.29362,0.820398,-0.162753,-0.000865504,0,
4,1.2793,0.816908,-0.163115,-0.000879636,0,
4,1.26537,0.813359,-0.16347,-0.000899723,0,
4,1.25179,0.809712,-0.163816,-0.000927767,0,
4,1.23852,0.80592,-0.164155,-0.000966156,0,
4,1.22554,0.80193,-0.164488,-0.00101766,0,
4,1.21282,0.797678,-0.164813,-0.00108537,0,
4,1.20034,0.793091,-0.165133,-0.00117261,0,
4,1.18806,0.788092,-0.165447,-0.00128268,0,
4,1.17599,0.782604,-0.165754,-0.00141855,0,
4,1.16408,0.776555,-0.166055,-0.00158246,0,
4,1.15233,0.769886,-0.166351,-0.00177552,0,
4,1.14073,0.762563,-0.16664,-0.00199735,0,
4,1.12925,0.754576,-0.166923,-0.00224599,0,
4,1.11788,0.745943,-0.167201,-0.00251798,0,
4,1.10661,0.736705,-0.167473,-0.00280865,0,
4,1.09543,0.726921,-0.167739,-0.00311265,0,
4,1.08432,0.71666,-0.168,-0.00342438,0,
4,1.07328,0.705994,-0.168255,-0.0037384,0,
4,1.0623,0.694996,-0.168506,-0.0040498,0,
4,1.05136,0.683732,-0.168752,-0.00435425,0,
4,1.04044,0.672244,-0.168994,-0.0046483,0,
4,1.0295,0.660566,-0.169231,-0.00492928,0,
4,1.01855,0.648742,-0.169465,-0.00519462,0,
4,1.00757,0.63681,-0.169695,-0.00544214,0,
4,0.996544,0.624807,-0.169921,-0.00567008,0,
4,0.98547,0.612761,-0.170143,-0.00587666,0,
4,0.974334,0.600696,-0.170361,-0.00606059,0,
4,0.963124,0.588636,-0.170576,-0.00622064,0,
4,0.951826,0.5766,-0.170786,-0.0063559,0,
4,0.940428,0.564605,-0.170998,-0.00648535,0,
4,0.928915,0.552593,-0.171179,-0.00657877,0,
4,0.917272,0.540416,-0.171317,-0.00664324,0,
4,0.905481,0.527937,-0.171447,-0.00671475,0,
4,0.893524,0.51508,-0.171574,-0.00679342,0,
4,0.881383,0.501794,-0.171703,-0.00687921,0,
4,0.869035,0.48804,-0.171834,-0.00697193,0,
4,0.856459,0.473784,-0.171969,-0.00707118,0,
4,0.843629,0.458999,-0.172108,-0.0071764,0,
4,0.830518,0.443659,-0.17225,-0.00728683,0,
4,0.817097,0.427746,-0.172394,-0.00740162,0,
4,0.803334,0.411244,-0.172541,-0.00751982,0,
4,0.789195,0.39414,-0.172688,-0.00764044,0,
4,0.774643,0.376423,-0.172835,-0.00776236,0,
4,0.759639,0.358086,-0.172981,-0.00788431,0,
4,0.744138,0.339123,-0.173126,-0.00800474,0,
4,0.728096,0.319538,-0.173272,-0.00812168,0,
4,0.711463,0.299346,-0.173419,-0.00823287,0,
4,0.694189,0.278577,-0.173566,-0.00833526,0,
4,0.676218,0.257276,-0.173715,-0.00842464,0,
4,0.657495,0.235496,-0.173865,-0.0084965,0,
4,0.637962,0.213292,-0.174015,-0.00854658,0,
4,0.617561,0.190706,-0.17416,-0.00857145,0,
4,0.596848,0.168388,-0.17429,-0.00856789,0,
4,0.576557,0.147095,-0.174404,-0.00853541,0,
4,0.556564,0.126697,-0.1745,-0.00847523,0,
4,0.536763,0.107092,-0.174583,-0.00838814,0,
4,0.517057,0.0882327,-0.174666,-0.00827459,0,
4,0.497368,0.0701466,-0.174768,-0.0081357,0,
4,0.477632,0.0529354,-0.174913,-0.00797445,0,
4,0.457804,0.0367273,-0.175106,-0.00779662,0,
4,0.437857,0.0215748,-0.175347,-0.00761235,0,
4,0.417786,0.0073044,-0.175386,-0.00737473,0,
4,0.397605,-0.00644497,-0.17524,-0.00702632,0,
4,0.377348,-0.0198917,-0.175118,-0.00671669,0,
4,0.357066,-0.03301,-0.17498,-0.00640423,0,
4,0.336828,-0.0457216,-0.174824,-0.00608701,0,
4,0.316717,-0.0579424,-0.174657,-0.00576279,0,
4,0.296825,-0.0696007,-0.174478,-0.00543184,0,
4,0.27725,-0.0806421,-0.17429,-0.00509612,0,
4,0.258095,-0.0910283,-0.174094,-0.00475804,0,
4,0.239458,-0.100736,-0.173892,-0.00442026,0,
4,0.221432,-0.109755,-0.173687,-0.00408548,0,
4,0.2041,-0.118089,-0.173478,-0.00375635,0,
4,0.187537,-0.12575,-0.173268,-0.00343532,0,
4,0.171798,-0.132759,-0.173059,-0.00312456,0,
4,0.156928,-0.139144,-0.172852,-0.00282594,0,
4,0.142956,-0.144936,-0.172648,-0.00254096,0,
4,0.129894,-0.15017,-0.17245,-0.00227074,0,
4,0.117744,-0.154882,-0.172258,-0.00201607,0,
4,0.106492,-0.159106,-0.172075,-0.00177736,0,
4,0.0961173,-0.162878,-0.171902,-0.00155475,0,
4,0.0865883,-0.166229,-0.171738,-0.00134812,0,
4,0.0778675,-0.169189,-0.171586,-0.00115711,0,
4,0.0699123,-0.171785,-0.171446,-0.000981215,0,
4,0.062677,-0.174042,-0.171318,-0.000819782,0,
4,0.056114,-0.175979,-0.171201,-0.000672074,0,
4,0.0501747,-0.177615,-0.171096,-0.000537295,0,
4,0.0448114,-0.178964,-0.171002,-0.000414621,0,
4,0.039977,-0.180036,-0.170919,-0.000303225,0,
4,0.0356266,-0.180836,-0.170845,-0.000202302,0,
4,0.0317171,-0.181366,-0.170781,-0.000111089,0,
4,0.0282081,-0.181622,-0.170725,-2.88841e-05,0,
4,0.0250617,-0.181593,-0.170677,4.49317e-05,0,
4,0.0222427,-0.18126,-0.170635,0.000110865,0,
4,0.0197189,-0.180592,-0.1706,0.000169269,0,
4,0.0174603,-0.179543,-0.170571,0.000220286,0,
4,0.0154398,-0.178048,-0.170547,0.000263745,0,
4,0.0136326,-0.176011,-0.170526,0.000299013,0,
4,0.0120162,-0.173295,-0.170511,0.000324763,0,
4,0.0105703,-0.169711,-0.170498,0.000338704,0,
4,0.00927657,-0.165,-0.170489,0.000337455,0,
4,0.00811839,-0.158842,-0.170482,0.00031711,0,
4,0.0070809,-0.1509,-0.170477,0.000275399,0,
4,0.0061507,-0.140949,-0.170474,0.000215477,0,
4,0.00531578,-0.129069,-0.170473,0.000148257,0,
4,0.00456537,-0.115746,-0.170471,8.84228e-05,0,
4,0.00388979,-0.101733,-0.170471,4.56932e-05,0,
4,0.00328037,-0.087745,-0.17047,2.06238e-05,0,
4,0.00272934,-0.074258,-0.170471,8.17119e-06,0,
4,0.0022297,-0.0615003,-0.17047,2.81724e-06,0,
4,0.00177519,-0.0495362,-0.17047,8.19538e-07,0,
4,0.00136016,-0.0383453,-0.170469,1.88452e-07,0,
4,0.000979511,-0.0278699,-0.17047,3.01428e-08,0,
4,0.00062865,-0.0180384,-0.170469,2.56894e-09,0,
4,0.000303409,-0.00877481,-0.17047,6.25344e-11,0,

6,0,0,-0.0242232,0,0,
6,9,0,-0.0763686,0,0,
6,8.99969,0.0135382,-0.0763683,1.87686e-10,0,
6,8.99934,0.0288052,-0.0763685,8.66225e-09,0,
6,8.99895,0.0460393,-0.0763682,1.17442e-07,0,
6,8.9985,0.065492,-0.0763684,8.46379e-07,0,
6,8.99801,0.0874221,-0.0763682,4.17811e-06,0,
6,8.99744,0.112029,-0.0763683,1.58032e-05,0,
6,8.99681,0.139285,-0.0763681,4.77525e-05,0,
6,8.99609,0.168659,-0.0763682,0.000116037,0,
6,8.99529,0.198998,-0.076368,0.00022729,0,
6,8.99438,0.228867,-0.076368,0.000366864,0,
6,8.99336,0.257168,-0.0763677,0.000509167,0,
6,8.9922,0.283407,-0.0763675,0.000636867,0,
6,8.9909,0.307587,-0.0763671,0.000740217,0,
6,8.98944,0.329866,-0.0763667,0.000827138,0,
6,8.98779,0.350418,-0.0763661,0.000900232,0,
6,8.98593,0.36949,-0.0763655,0.000958123,0,
6,8.98383,0.387342,-0.0763646,0.0010056,0,
6,8.98147,0.404181,-0.0763636,0.00104582,0,
6,8.97881,0.420173,-0.0763624,0.00108025,0,
6,8.97581,0.435456,-0.076361,0.00111022,0,
6,8.97244,0.45015,-0.0763592,0.00113673,0,
6,8.96863,0.464356,-0.0763572,0.00116054,0,
6,8.96435,0.478159,-0.0763548,0.00118221,0,
6,8.95953,0.491633,-0.076352,0.00120212,0,
6,8.95409,0.504842,-0.0763488,0.00122055,0,
6,8.94798,0.517843,-0.076345,0.00123769,0,
6,8.94109,0.530683,-0.0763407,0.00125362,0,
6,8.93334,0.543407,-0.0763357,0.00126835,0,
6,8.92463,0.556052,-0.07633,0.00128183,0,
6,8.91482,0.568651,-0.0763236,0.00129397,0,
6,8.90379,0.581231,-0.0763163,0.0013046,0,
6,8.89139,0.593819,-0.0763081,0.00131353,0,
6,8.87746,0.606433,-0.076299,0.00132054,0,
6,8.86181,0.619091,-0.0762889,0.00132538,0,
6,8.84423,0.631807,-0.0762778,0.00132777,0,
6,8.82452,0.644592,-0.0762656,0.00132744,0,
6,8.80241,0.657454,-0.0762524,0.00132413,0,
6,8.77763,0.670403,-0.0762382,0.00131758,0,
6,8.74989,0.683444,-0.076223,0.00130755,0,
6,8.71885,0.696587,-0.0762069,0.00129379,0,
6,8.68417,0.709844,-0.0761899,0.00127608,0,
6,8.64545,0.723229,-0.0761725,0.00125417,0,
6,8.60229,0.736765,-0.0761545,0.00122777,0,
6,8.55423,0.750481,-0.0761366,0.00119657,0,
6,8.50082,0.764419,-0.0761188,0.00116065,0,
6,8.44155,0.778644,-0.0761025,0.00112021,0,
6,8.37592,0.793284,-0.0760886,0.00107261,0,
6,8.30339,0.808539,-0.0760777,0.00101664,0,
6,8.22344,0.824672,-0.0760697,0.000949399,0,
6,8.13555,0.841984,-0.0760657,0.00086713,0,
6,8.0392,0.860722,-0.0760615,0.000766409,0,
6,7.93391,0.880879,-0.0760576,0.000647011,0,
6,7.81927,0.901864,-0.0760427,0.000515526,0,
6,7.6949,0.922297,-0.0760238,0.000387039,0,
6,7.56054,0.94034,-0.0759895,0.000271268,0,
6,7.41603,0.954386,-0.0759466,0.000139675,0,
6,7.26132,0.963454,-0.0759023,5.54393e-05,0,
6,7.09653,0.967801,-0.0758429,1.41858e-05,0,
6,6.92195,0.968888,-0.0757703,8.31006e-07,0,
6,6.73802,0.96847,-0.0756774,-9.49039e-07,0,
6,6.5454,0.967781,-0.0755616,-4.37854e-07,0,
6,6.34489,0.967322,-0.0754199,-1.16568e-07,0,
6,6.1375,0.967108,-0.0752497,-2.8928e-08,0,
6,5.92439,0.967003,-0.0750472,-1.0486e-08,0,
6,5.70687,0.966896,-0.0748083,-6.11436e-09,0,
6,5.48633,0.966747,-0.0745284,-4.92275e-09,0,
6,5.26426,0.96655,-0.0742025,-4.81451e-09,0,
6,5.04218,0.966316,-0.0738256,-5.12364e-09,0,
6,4.82159,0.966059,-0.0733929,-5.57508e-09,0,
6,4.60398,0.965788,-0.0728999,-6.12659e-09,0,
6,4.39071,0.965502,-0.072343,-6.96073e-09,0,
6,4.18307,0.965171,-0.0717193,-8.42145e-09,0,
6,3.98218,0.964729,-0.0710274,-1.07242e-08,0,
6,3.78902,0.964121,-0.0702675,-1.35068e-08,0,
6,3.60438,0.963372,-0.0694415,-1.73623e-08,0,
6,3.42888,0.962658,-0.0685533,-3.57875e-08,0,
6,3.26296,0.962272,-0.0676076,-8.56246e-08,0,
6,3.10691,0.962454,-0.0666098,-5.37782e-08,0,
6,2.96084,0.96317,-0.065566,2.4746e-07,0,
6,2.82473,0.964023,-0.0644844,1.57192e-08,0,
6,2.69844,0.964376,-0.0633765,-3.79785e-06,0,
6,2.58172,0.963614,-0.0622557,-1.57362e-05,0,
6,2.47424,0.961344,-0.0611369,-3.9521e-05,0,
6,2.37559,0.957472,-0.0600341,-7.64473e-05,0,
6,2.28535,0.952153,-0.05896,-0.000125341,0,
6,2.20301,0.945694,-0.057925,-0.000183315,0,
6,2.1281,0.938457,-0.0569375,-0.000246644,0,
6,2.06009,0.930796,-0.0560036,-0.000311417,0,
6,1.99849,0.923022,-0.055126,-0.000373861,0,
6,1.9428,0.915393,-0.054309,-0.000430864,0,
6,1.89255,0.908102,-0.0535477,-0.000481686,0,
6,1.84728,0.901236,-0.0528498,-0.000523931,0,
6,1.80655,0.894796,-0.0522147,-0.000554206,0,
6,1.76996,0.88878,-0.051628,-0.000581942,0,
6,1.73712,0.883208,-0.0510943,-0.000607337,0,
6,1.70768,0.878051,-0.0506056,-0.000630845,0,
6,1.67998,0.87308,-0.0501414,-0.00065364,0,
6,1.65329,0.868198,-0.0496871,-0.000675913,0,
6,1.62754,0.863402,-0.0492433,-0.000697621,0,
6,1.60265,0.858693,-0.0488086,-0.000718819,0,
6,1.57854,0.854067,-0.0483827,-0.000739464,0,
6,1.55515,0.849523,-0.0479648,-0.000759594,0,
6,1.53242,0.845057,-0.0475546,-0.000779223,0,
6,1.5103,0.840662,-0.0471515,-0.000798344,0,
6,1.48874,0.836324,-0.0467554,-0.000816973,0,
6,1.46769,0.832028,-0.0463652,-0.00083526,0,
6,1.44712,0.827768,-0.0459798,-0.000853577,0,
6,1.42698,0.823558,-0.0455966,-0.000872503,0,
6,1.40725,0.819436,-0.0452147,-0.000892396,0,
6,1.38788,0.815448,-0.0448316,-0.000913222,0,
6,1.36886,0.811597,-0.0444591,-0.000933154,0,
6,1.35015,0.807813,-0.0440992,-0.000935641,0,
6,1.33173,0.804034,-0.0437408,-0.000944699,0,
6,1.31357,0.800242,-0.0433852,-0.00095534,0,
6,1.29566,0.796421,-0.0430322,-0.000967856,0,
6,1.27797,0.792548,-0.0426814,-0.000983255,0,
6,1.26048,0.788601,-0.0423327,-0.00100274,0,
6,1.24318,0.784546,-0.0419859,-0.00102787,0,
6,1.22605,0.780348,-0.0416409,-0.00106047,0,
6,1.20907,0.775961,-0.0412975,-0.00110271,0,
6,1.19223,0.771332,-0.0409556,-0.00115695,0,
6,1.17551,0.766403,-0.0406151,-0.00122574,0,
6,1.1589,0.76111,-0.0402761,-0.00131157,0,
6,1.14238,0.755388,-0.0399385,-0.00141665,0,
6,1.12595,0.749175,-0.0396024,-0.00154265,0,
6,1.10959,0.742419,-0.0392678,-0.00169036,0,
6,1.09329,0.735084,-0.0389352,-0.00185947,0,
6,1.07704,0.727156,-0.0386048,-0.00204843,0,
6,1.06081,0.718634,-0.0382767,-0.00225448,0,
6,1.04459,0.70954,-0.0379512,-0.00247389,0,
6,1.02836,0.699916,-0.0376284,-0.0027022,0,
6,1.01211,0.689816,-0.0373088,-0.00293445,0,
6,0.99583,0.679302,-0.0369926,-0.00316568,0,
6,0.97951,0.66844,-0.0366796,-0.00339147,0,
6,0.963136,0.657293,-0.0363712,-0.00362199,0,
6,0.946694,0.64583,-0.036058,-0.00382659,0,
6,0.930172,0.633951,-0.0357397,-0.00403197,0,
6,0.913555,0.62158,-0.0354248,-0.00424372,0,
6,0.896829,0.608664,-0.0351131,-0.00446385,0,
6,0.879979,0.595162,-0.0348064,-0.00469381,0,
6,0.862989,0.581052,-0.0345047,-0.00493472,0,
6,0.845842,0.566329,-0.0342086,-0.00518747,0,
6,0.828521,0.551,-0.0339198,-0.00545245,0,
6,0.811008,0.535078,-0.0336405,-0.00572525,0,
6,0.793282,0.518564,-0.0333716,-0.00600449,0,
6,0.775322,0.501466,-0.033114,-0.00628838,0,
6,0.757107,0.483796,-0.0328685,-0.00657461,0,
6,0.738612,0.465577,-0.0326359,-0.00686031,0,
6,0.719813,0.446844,-0.0324172,-0.0071421,0,
6,0.700681,0.427642,-0.0322134,-0.0074161,0,
6,0.681188,0.408025,-0.0320246,-0.00767805,0,
6,0.661304,0.388046,-0.0318493,-0.00792339,0,
6,0.640996,0.367749,-0.031684,-0.00814721,0,
6,0.620228,0.347169,-0.0315253,-0.00834415,0,
6,0.598964,0.326348,-0.0313746,-0.00850821,0,
6,0.577166,0.305385,-0.0312451,-0.00863294,0,
6,0.554791,0.284502,-0.031167,-0.00871313,0,
6,0.531799,0.264078,-0.0311883,-0.0087464,0,
6,0.508144,0.244568,-0.0313289,-0.00873492,0,
6,0.48378,0.226233,-0.0315771,-0.00868079,0,
6,0.459585,0.209416,-0.0315455,-0.00843787,0,
6,0.436695,0.19429,-0.0313128,-0.00812211,0,
6,0.414961,0.180441,-0.0311551,-0.00784697,0,
6,0.394252,0.167689,-0.0309784,-0.00756127,0,
6,0.374445,0.155887,-0.0308086,-0.00727139,0,
6,0.355433,0.144918,-0.030641,-0.00697839,0,
6,0.337122,0.134685,-0.0304735,-0.00668254,0,
6,0.319433,0.125105,-0.0303044,-0.00638476,0,
6,0.3023,0.116109,-0.0301319,-0.00608582,0,
6,0.28567,0.10764,-0.0299545,-0.00578638,0,
6,0.269507,0.0996507,-0.0297708,-0.00548716,0,
6,0.253785,0.0921046,-0.0295799,-0.00518891,0,
6,0.238493,0.0849714,-0.0293807,-0.00489251,0,
6,0.223631,0.0782273,-0.0291729,-0.00459894,0,
6,0.209207,0.0718535,-0.0289562,-0.00430928,0,
6,0.195237,0.0658346,-0.0287308,-0.0040247,0,
6,0.181744,0.0601577,-0.0284975,-0.00374642,0,
6,0.168754,0.0548113,-0.0282571,-0.00347567,0,
6,0.156292,0.0497846,-0.0280113,-0.00321364,0,
6,0.144384,0.0450668,-0.0277619,-0.00296144,0,
6,0.133052,0.040647,-0.027511,-0.00272004,0,
6,0.122315,0.0365136,-0.0272608,-0.00249025,0,
6,0.112183,0.0326544,-0.0270137,-0.00227272,0,
6,0.102665,0.0290565,-0.0267721,-0.00206788,0,
6,0.0937597,0.0257069,-0.0265381,-0.00187595,0,
6,0.0854609,0.0225919,-0.0263136,-0.00169699,0,
6,0.077757,0.0196977,-0.0261002,-0.00153086,0,
6,0.0706309,0.0170107,-0.0258992,-0.00137728,0,
6,0.0640611,0.0145173,-0.0257114,-0.00123583,0,
6,0.0580229,0.0122043,-0.0255374,-0.001106,0,
6,0.0524888,0.0100589,-0.0253775,-0.000987188,0,
6,0.0474296,0.00806875,-0.0252314,-0.000878758,0,
6,0.042815,0.00622223,-0.0250989,-0.000780027,0,
6,0.0386145,0.00450823,-0.0249796,-0.000690307,0,
6,0.0347975,0.00291637,-0.0248726,-0.000608916,0,
6,0.0313344,0.00143692,-0.0247774,-0.000535197,0,
6,0.0281964,6.08042e-05,-0.0246932,-0.000468514,0,
6,0.0253561,-0.00122055,-0.0246189,-0.000408174,0,
6,0.0227875,-0.00241521,-0.0245538,-0.000353629,0,
6,0.0204662,-0.00353053,-0.024497,-0.000304357,0,
6,0.0183694,-0.00457318,-0.0244479,-0.000259836,0,
6,0.016476,-0.00554917,-0.0244054,-0.000219599,0,
6,0.0147664,-0.00646371,-0.0243694,-0.000183224,0,
6,0.0132228,-0.00732102,-0.0243384,-0.000150331,0,
6,0.0118288,-0.00812387,-0.0243129,-0.000120595,0,
6,0.0105693,-0.00887285,-0.0242911,-9.37549e-05,0,
6,0.00943073,-0.00956509,-0.0242743,-6.96524e-05,0,
6,0.00840063,-0.010192,-0.0242599,-4.82922e-05,0,
6,0.00746774,-0.010736,-0.0242501,-2.99349e-05,0,
6,0.00662185,-0.0111661,-0.0242414,-1.51576e-05,0,
6,0.00585371,-0.0114367,-0.0242371,-4.68635e-06,0,
6,0.00515491,-0.0114947,-0.0242325,1.18873e-06,0,
6,0.00451788,-0.011301,-0.0242316,3.22594e-06,0,
6,0.00393573,-0.0108521,-0.0242289,3.0139e-06,0,
6,0.00340221,-0.0101801,-0.0242297,2.04593e-06,0,
6,0.00291168,-0.00933429,-0.0242274,1.14361e-06,0,
6,0.00245897,-0.00836164,-0.0242289,5.47476e-07,0,
6,0.00203939,-0.00729928,-0.0242264,2.24899e-07,0,
6,0.00164864,-0.00617349,-0.0242285,7.71349e-08,0,
6,0.00128281,-0.00500166,-0.0242254,2.07246e-08,0,
6,0.000938257,-0.00379453,-0.0242282,3.84014e-09,0,
6,0.000611645,-0.00255778,-0.0242244,3.74958e-10,0,
6,0.000299862,-0.00129326,-0.0242282,1.01849e-11,0,

10,0.000296632,0.00820594,0.0306094,-4.57121e-11,0,
10,0.000596102,0.0164872,0.0306101,-1.69405e-09,0,
10,0.000900397,0.0248987,0.0306093,-1.7223e-08,0,
10,0.00121153,0.0334955,0.0306099,-9.25486e-08,0,
10,0.00153158,0.042333,0.0306093,-3.46182e-07,0,
10,0.00186264,0.0514656,0.0306097,-1.02933e-06,0,
10,0.00220692,0.0609442,0.0306092,-2.6132e-06,0,
10,0.00256668,0.0708121,0.0306096,-5.90265e-06,0,
10,0.00294431,0.0810972,0.0306091,-1.21534e-05,0,
10,0.00334229,0.0918014,0.0306094,-2.3126e-05,0,
10,0.00376326,0.102887,0.030609,-4.09543e-05,0,
10,0.00421,0.114262,0.0306091,-6.76958e-05,0,
10,0.00468544,0.12578,0.0306086,-0.000104574,0,
10,0.00519274,0.137247,0.0306086,-0.000151227,0,
10,0.00573524,0.14845,0.030608,-0.00020548,0,
10,0.00631651,0.159195,0.0306077,-0.000263905,0,
10,0.00694041,0.169332,0.0306068,-0.000322839,0,
10,0.00761104,0.178768,0.0306061,-0.000379271,0,
10,0.00833284,0.187462,0.0306047,-0.000431241,0,
10,0.00911058,0.195421,0.0306032,-0.000477811,0,
10,0.0099494,0.202678,0.0306011,-0.000518825,0,
10,0.0108548,0.209288,0.0305987,-0.000554631,0,
10,0.0118329,0.215311,0.0305954,-0.00058586,0,
10,0.0128901,0.220814,0.0305917,-0.000613261,0,
10,0.0140333,0.225858,0.030587,-0.000637601,0,
10,0.0152702,0.230502,0.0305816,-0.000659605,0,
10,0.0166089,0.234801,0.0305751,-0.00067993,0,
10,0.0180584,0.2388,0.0305676,-0.000699158,0,
10,0.0196282,0.242543,0.0305588,-0.0007178,0,
10,0.0213288,0.246065,0.0305488,-0.000736302,0,
10,0.0231714,0.2494,0.0305371,-0.000755062,0,
10,0.0251682,0.252574,0.0305239,-0.000774435,0,
10,0.0273326,0.255614,0.0305088,-0.000794747,0,
10,0.0296789,0.258542,0.0304918,-0.000816304,0,
10,0.0322227,0.261377,0.0304725,-0.0008394,0,
10,0.0349809,0.264137,0.0304509,-0.000864323,0,
10,0.0379719,0.266838,0.0304267,-0.000891361,0,
10,0.0412155,0.269497,0.0303996,-0.000920806,0,
10,0.0447333,0.272127,0.0303694,-0.000952961,0,
10,0.0485489,0.274743,0.0303359,-0.000988143,0,
10,0.0526875,0.277357,0.0302989,-0.00102668,0,
10,0.0571768,0.279983,0.0302579,-0.00106894,0,
10,0.0620466,0.282633,0.0302128,-0.00111527,0,
10,0.0673295,0.285323,0.0301633,-0.0011661,0,
10,0.0730607,0.288065,0.030109,-0.00122185,0,
10,0.0792784,0.290875,0.0300498,-0.00128297,0,
10,0.0860241,0.293768,0.0299854,-0.00134996,0,
10,0.0933428,0.296761,0.0299156,-0.00142334,0,
10,0.101283,0.299873,0.02984,-0.00150368,0,
10,0.109899,0.303123,0.0297587,-0.00159155,0,
10,0.119247,0.306535,0.0296714,-0.00168758,0,
10,0.12939,0.310134,0.0295782,-0.00179242,0,
10,0.140395,0.313949,0.0294789,-0.00190674,0,
10,0.152337,0.31801,0.0293737,-0.00203121,0,
10,0.165296,0.322356,0.0292627,-0.00216652,0,
10,0.179357,0.327028,0.0291461,-0.00231332,0,
10,0.194615,0.332075,0.029024,-0.00247219,0,
10,0.211171,0.337553,0.028897,-0.00264366,0,
10,0.229138,0.343525,0.0287651,-0.00282808,0,
10,0.248635,0.350068,0.0286291,-0.00302559,0,
10,0.269793,0.357267,0.0284881,-0.00323604,0,
10,0.292753,0.365222,0.0283444,-0.00345879,0,
10,0.317669,0.374051,0.0281938,-0.00369131,0,
10,0.344708,0.383878,0.0280418,-0.00392973,0,
10,0.372405,0.394239,0.0278932,-0.00416324,0,
10,0.399623,0.404727,0.0277502,-0.00438048,0,
10,0.426397,0.415342,0.0276134,-0.00457802,0,
10,0.452757,0.426085,0.0274811,-0.00475724,0,
10,0.478735,0.436963,0.0273554,-0.00491574,0,
10,0.504358,0.447992,0.0272361,-0.00505184,0,
10,0.529657,0.45919,0.0271238,-0.00516531,0,
10,0.554656,0.47057,0.0270116,-0.00525608,0,
10,0.579382,0.48214,0.0269077,-0.00532376,0,
10,0.603859,0.493904,0.0267876,-0.00539704,0,
10,0.628112,0.505996,0.026719,-0.00542518,0,
10,0.652163,0.518748,0.0267209,-0.00534397,0,
10,0.676035,0.532388,0.0266976,-0.00523326,0,
10,0.699751,0.546804,0.0266369,-0.00509234,0,
10,0.72333,0.561708,0.026536,-0.00492223,0,
10,0.746795,0.576793,0.0264074,-0.00472638,0,
10,0.770165,0.591825,0.0262599,-0.00450945,0,
10,0.79346,0.606657,0.0261002,-0.00427642,0,
10,0.816699,0.621192,0.0259304,-0.00403208,0,
10,0.839903,0.635348,0.0257501,-0.00378144,0,
10,0.863088,0.649017,0.0255571,-0.00353654,0,
10,0.886275,0.662093,0.0253519,-0.00329971,0,
10,0.909481,0.674519,0.0251376,-0.00307149,0,
10,0.932723,0.686294,0.0249159,-0.0028525,0,
10,0.956021,0.697448,0.0246878,-0.00264339,0,
10,0.97939,0.708017,0.024453,-0.00244481,0,
10,1.00285,0.718032,0.0242114,-0.00225728,0,
10,1.02641,0.727518,0.0239626,-0.00208126,0,
10,1.0501,0.736494,0.023707,-0.0019171,0,
10,1.07392,0.744985,0.0234444,-0.0017649,0,
10,1.0979,0.753026,0.023177,-0.00162004,0,
10,1.12205,0.76064,0.0229025,-0.00148822,0,
10,1.14639,0.767826,0.0226191,-0.00136965,0,
10,1.17093,0.774594,0.022328,-0.00126459,0,
10,1.19568,0.780966,0.022029,-0.00117342,0,
10,1.22066,0.786982,0.0217223,-0.00109577,0,
10,1.24589,0.792687,0.0214091,-0.00103063,0,
10,1.27137,0.798134,0.0210878,-0.000976715,0,
10,1.29713,0.803375,0.0207624,-0.000937078,0,
10,1.32317,0.808513,0.0204313,-0.000895711,0,
10,1.34951,0.813681,0.0200933,-0.000853822,0,
10,1.37616,0.81893,0.019751,-0.000814821,0,
10,1.40313,0.824218,0.0194005,-0.000778833,0,
10,1.43043,0.829469,0.0190423,-0.000745614,0,
10,1.45807,0.834637,0.0186755,-0.000714535,0,
10,1.48607,0.839719,0.0183014,-0.000684894,0,
10,1.51444,0.844738,0.0179199,-0.000656205,0,
10,1.54318,0.849709,0.0175314,-0.000628277,0,
10,1.57231,0.85463,0.0171351,-0.000601102,0,
10,1.60184,0.859478,0.0167313,-0.000574723,0,
10,1.63178,0.864224,0.0163194,-0.000549177,0,
10,1.66213,0.868843,0.0159002,-0.000524468,0,
10,1.69292,0.873317,0.0154727,-0.000500513,0,
10,1.72416,0.877647,0.0150388,-0.00047701,0,
10,1.75585,0.881871,0.0145953,-0.000449984,0,
10,1.78802,0.886036,0.014143,-0.00042185,0,
10,1.82067,0.890154,0.0136839,-0.000393867,0,
10,1.85383,0.894206,0.0132159,-0.000364747,0,
10,1.88751,0.89817,0.0127395,-0.000334686,0,
10,1.92173,0.902022,0.0122547,-0.000304058,0,
10,1.95652,0.905736,0.0117607,-0.000273298,0,
10,1.9919,0.909289,0.0112585,-0.000242885,0,
10,2.02791,0.912657,0.0107465,-0.000213366,0,
10,2.06456,0.915821,0.0102268,-0.000184966,0,
10,2.10268,0.918821,0.00968442,-0.000157267,0,
10,2.1443,0.921746,0.00909541,-0.000130635,0,
10,2.18977,0.924544,0.00845253,-0.000105193,0,
10,2.23946,0.927135,0.00775403,-8.12417e-05,0,
10,2.29376,0.929435,0.00699433,-5.9601e-05,0,
10,2.35309,0.931361,0.0061712,-4.09655e-05,0,
10,2.4179,0.932845,0.0052806,-2.58663e-05,0,
10,2.48863,0.933839,0.0043209,-1.45978e-05,0,
10,2.56575,0.934339,0.00328998,-7.09758e-06,0,
10,2.64971,0.934399,0.00218764,-2.88288e-06,0,
10,2.74098,0.934137,0.00101392,-1.09324e-06,0,
10,2.83997,0.93373,-0.000229614,-6.84427e-07,0,
10,2.94709,0.933384,-0.00154095,-7.38142e-07,0,
10,3.06269,0.933286,-0.00291685,-7.26626e-07,0,
10,3.18706,0.933546,-0.00435333,-5.45785e-07,0,
10,3.3204,0.934173,-0.00584484,-3.1482e-07,0,
10,3.46281,0.935073,-0.00738426,-1.46571e-07,0,
10,3.61427,0.936101,-0.00896235,-6.27504e-08,0,
10,3.77463,0.937119,-0.0105679,-3.20283e-08,0,
10,3.94358,0.938044,-0.0121882,-2.2717e-08,0,
10,4.12067,0.93886,-0.0138093,-1.95853e-08,0,
10,4.30525,0.9396,-0.0154172,-1.81741e-08,0,
10,4.49655,0.940307,-0.0169978,-1.76422e-08,0,
10,4.6936,0.94101,-0.018538,-1.79661e-08,0,
10,4.89531,0.941711,-0.0200254,-1.96397e-08,0,
10,5.10047,0.942397,-0.0214493,-2.41201e-08,0,
10,5.30776,0.943047,-0.0228005,-3.46585e-08,0,
10,5.51581,0.943644,-0.0240718,-5.79824e-08,0,
10,5.72323,0.944185,-0.0252581,-1.08533e-07,0,
10,5.92863,0.944694,-0.0263561,-2.21545e-07,0,
10,6.13069,0.945238,-0.0273646,-4.89584e-07,0,
10,6.32816,0.945913,-0.0282844,-1.10677e-06,0,
10,6.51991,0.946751,-0.0291179,-2.15693e-06,0,
10,6.70495,0.947523,-0.0298687,-2.34461e-06,0,
10,6.88244,0.947517,-0.0305407,3.66262e-06,0,
10,7.0517,0.945506,-0.031138,2.67487e-05,0,
10,7.21224,0.940103,-0.0316612,8.02294e-05,0,
10,7.3637,0.93042,-0.032116,0.000173325,0,
10,7.5059,0.916499,-0.0325068,0.00029703,0,
10,7.63878,0.898931,-0.0328378,0.000404634,0,
10,7.76243,0.878819,-0.0331185,0.000523618,0,
10,7.87701,0.857929,-0.0333438,0.000645211,0,
10,7.9828,0.837721,-0.0335301,0.000755583,0,
10,8.08014,0.818905,-0.0336795,0.000849686,0,
10,8.16941,0.801567,-0.0338033,0.000927993,0,
10,8.25106,0.785459,-0.0339054,0.000993656,0,
10,8.32554,0.770256,-0.0339922,0.0010499,0,
10,8.39331,0.755677,-0.0340658,0.001099,0,
10,8.45484,0.741524,-0.0341291,0.00114222,0,
10,8.5106,0.727675,-0.0341831,0.00118019,0,
10,8.56104,0.71407,-0.0342295,0.00121315,0,
10,8.60659,0.700691,-0.0342692,0.00124119,0,
10,8.64767,0.687544,-0.0343037,0.00126442,0,
10,8.68467,0.674635,-0.0343335,0.00128272,0,
10,8.71795,0.661937,-0.0343594,0.0012928,0,
10,8.74786,0.649425,-0.0343819,0.00129936,0,
10,8.77471,0.637095,-0.0344013,0.00130162,0,
10,8.79881,0.624943,-0.0344181,0.00130003,0,
10,8.8204,0.612961,-0.0344324,0.00129511,0,
10,8.83975,0.601141,-0.0344448,0.00128735,0,
10,8.85708,0.589467,-0.0344553,0.00127724,0,
10,8.87259,0.577923,-0.0344644,0.00126523,0,
10,8.88646,0.566487,-0.0344721,0.00125172,0,
10,8.89886,0.555136,-0.0344786,0.00123706,0,
10,8.90995,0.543843,-0.0344842,0.00122153,0,
10,8.91986,0.532576,-0.0344888,0.00120535,0,
10,8.92872,0.521304,-0.0344927,0.0011887,0,
10,8.93663,0.509991,-0.0344959,0.00117165,0,
10,8.94369,0.498598,-0.0344987,0.00115425,0,
10,8.95,0.487082,-0.0345009,0.00113645,0,
10,8.95564,0.475399,-0.0345028,0.00111819,0,
10,8.96067,0.4635,-0.0345043,0.0010993,0,
10,8.96517,0.451329,-0.0345056,0.00107953,0,
10,8.96918,0.438825,-0.0345066,0.00105855,0,
10,8.97276,0.425918,-0.0345076,0.00103593,0,
10,8.97596,0.412528,-0.0345081,0.00101112,0,
10,8.97882,0.398564,-0.0345089,0.000983388,0,
10,8.98137,0.383917,-0.0345092,0.000951801,0,
10,8.98365,0.368459,-0.0345098,0.000915149,0,
10,8.98569,0.352041,-0.0345098,0.000872019,0,
10,8.9875,0.334482,-0.0345104,0.000820236,0,
10,8.98913,0.315546,-0.0345103,0.000754742,0,
10,8.99058,0.295003,-0.0345108,0.000677367,0,
10,8.99188,0.272691,-0.0345105,0.000585708,0,
10,8.99304,0.248449,-0.034511,0.000472996,0,
10,8.99408,0.222236,-0.0345107,0.000346837,0,
10,8.99501,0.194422,-0.0345112,0.00022092,0,
10,8.99583,0.165911,-0.0345107,0.000117084,0,
10,8.99658,0.137969,-0.0345113,5.0272e-05,0,
10,8.99724,0.111709,-0.0345107,1.73472e-05,0,
10,8.99784,0.0877192,-0.0345114,4.765e-06,0,
10,8.99837,0.0661088,-0.0345107,9.99224e-07,0,
10,8.99885,0.0467433,-0.0345115,1.43134e-07,0,
10,8.99927,0.0294113,-0.0345107,1.08664e-08,0,
10,8.99966,0.0138982,-0.0345117,2.40413e-10,0,
10,0,0,0.0306103,0,0,
10,9,0,-0.0345106,0,0,

0.004,0,0,-0.223673,0,-9.99091e-08,
0.00868226,0,0,-0.223669,0,-1.87654e-07,
0.014062,0,0,-0.223672,0,-2.96343e-07,
0.0201548,0,0,-0.22367,0,-7.43456e-07,
0.0269766,0,0,-0.223672,0,-1.32883e-06,
0.0345437,0,0,-0.223671,0,-2.14707e-06,
0.0428729,0,0,-0.223671,0,-3.03578e-06,
0.051981,0,0,-0.223669,0,-3.94838e-06,
0.0618853,0,0,-0.223667,0,-4.69533e-06,
0.0726036,0,0,-0.223663,0,-5.10814e-06,
0.0841536,0,0,-0.223659,0,-4.93624e-06,
0.0965535,0,0,-0.223653,0,-3.94171e-06,
0.109822,0,0,-0.223647,0,-1.8998e-06,
0.123977,0,0,-0.223642,0,1.32161e-06,
0.139037,0,0,-0.223639,0,5.72388e-06,
0.155022,0,0,-0.223639,0,1.11476e-05,
0.171949,0,0,-0.223644,0,1.7279e-05,
0.189839,0,0,-0.223656,0,2.36981e-05,
0.208709,0,0,-0.223674,0,2.99353e-05,
0.228579,0,0,-0.223699,0,3.55454e-05,
0.249467,0,0,-0.223729,0,4.01539e-05,
0.271391,0,0,-0.223762,0,4.34976e-05,
0.29437,0,0,-0.223796,0,4.54333e-05,
0.31842,0,0,-0.223831,0,4.59427e-05,
0.343559,0,0,-0.223863,0,4.51173e-05,
0.369804,0,0,-0.223891,0,4.31453e-05,
0.39717,0,0,-0.223914,0,4.02869e-05,
0.425672,0,0,-0.223933,0,3.68563e-05,
0.455324,0,0,-0.223946,0,3.31988e-05,
0.48614,0,0,-0.223955,0,2.96849e-05,
0.518132,0,0,-0.22396,0,2.67049e-05,
0.551309,0,0,-0.223963,0,2.46731e-05,
0.585683,0,0,-0.223964,0,2.39836e-05,
0.621259,0,0,-0.223967,0,2.48937e-05,
0.658046,0,0,-0.223977,0,2.74292e-05,
0.696047,0,0,-0.223995,0,3.13761e-05,
0.735265,0,0,-0.224027,0,3.63773e-05,
0.7757,0,0,-0.224074,0,4.20622e-05,
0.817352,0,0,-0.224139,0,4.81392e-05,
0.860215,0,0,-0.224224,0,5.44503e-05,
0.904285,0,0,-0.224334,0,6.09189e-05,
0.949552,0,0,-0.224473,0,6.74535e-05,
0.996004,0,0,-0.224651,0,7.38285e-05,
1.04363,0,0,-0.224881,0,7.94557e-05,
1.09241,0,0,-0.22518,0,8.32268e-05,
1.14232,0,0,-0.225573,0,8.34935e-05,
1.19335,0,0,-0.226083,0,7.81232e-05,
1.24546,0,0,-0.226737,0,6.4767e-05,
1.29863,0,0,-0.227547,0,4.13937e-05,
1.35283,0,0,-0.228514,0,6.93188e-06,
1.40802,0,0,-0.229618,0,-3.82666e-05,
1.46416,0,0,-0.230828,0,-9.24455e-05,
1.52121,0,0,-0.232105,0,-0.000152995,
1.57913,0,0,-0.233411,0,-0.000217241,
1.63787,0,0,-0.234714,0,-0.000283069,
1.69739,0,0,-0.235986,0,-0.000349171,
1.75761,0,0,-0.237207,0,-0.000414934,
1.81851,0,0,-0.238357,0,-0.000480173,
1.88,0,0,-0.239421,0,-0.000544878,
1.94204,0,0,-0.240384,0,-0.00060907,
2.00457,0,0,-0.241235,0,-0.000672736,
2.06751,0,0,-0.241959,0,-0.000735827,
2.13081,0,0,-0.242546,0,-0.000798268,
2.19439,0,0,-0.242983,0,-0.000859965,
2.25819,0,0,-0.243261,0,-0.000920815,
2.32214,0,0,-0.24337,0,-0.000980702,
2.38617,0,0,-0.243299,0,-0.00103949,
2.4502,0,0,-0.243041,0,-0.00109705,
2.51418,0,0,-0.242589,0,-0.00115322,
2.57803,0,0,-0.241937,0,-0.00120784,
2.64167,0,0,-0.241079,0,-0.00126076,
2.70505,0,0,-0.240014,0,-0.00131182,
2.76808,0,0,-0.238738,0,-0.00136084,
2.83072,0,0,-0.237252,0,-0.00140768,
2.89288,0,0,-0.235556,0,-0.00145213,
2.95451,0,0,-0.233654,0,-0.00149403,
3.01555,0,0,-0.231551,0,-0.00153318,
3.07594,0,0,-0.229253,0,-0.00156941,
3.13561,0,0,-0.226768,0,-0.00160257,
3.19453,0,0,-0.224109,0,-0.00163254,
3.25262,0,0,-0.221287,0,-0.00165921,
3.30985,0,0,-0.218317,0,-0.00168254,
3.36617,0,0,-0.215214,0,-0.00170252,
3.42154,0,0,-0.211997,0,-0.00171918,
3.47591,0,0,-0.208681,0,-0.00173262,
3.52925,0,0,-0.205285,0,-0.00174294,
3.58152,0,0,-0.201827,0,-0.00175029,
3.6327,0,0,-0.198323,0,-0.00175485,
3.68276,0,0,-0.194791,0,-0.00175678,
3.73167,0,0,-0.191246,0,-0.0017563,
3.77941,0,0,-0.187703,0,-0.0017536,
3.82596,0,0,-0.184177,0,-0.0017489,
3.8713,0,0,-0.18068,0,-0.00174238,
3.91543,0,0,-0.177219,0,-0.00173414,
3.95833,0,0,-0.173824,0,-0.00172469,
4,0,0,-0.170469,0,-0.00171397,
4.04167,0,0,-0.167088,0,-0.00170168,
4.08333,0,0,-0.163679,0,-0.00168806,
4.125,0,0,-0.160244,0,-0.00167313,
4.16667,0,0,-0.156788,0,-0.0016569,
4.20833,0,0,-0.153315,0,-0.00163943,
4.25,0,0,-0.149828,0,-0.00162076,
4.29167,0,0,-0.146332,0,-0.00160095,
4.33333,0,0,-0.142829,0,-0.00158003,
4.375,0,0,-0.139324,0,-0.00155805,
4.41667,0,0,-0.135819,0,-0.00153506,
4.45833,0,0,-0.132318,0,-0.00151111,
4.5,0,0,-0.128824,0,-0.00148622,
4.54167,0,0,-0.12534,0,-0.00146046,
4.58333,0,0,-0.121868,0,-0.00143384,
4.625,0,0,-0.118412,0,-0.00140643,
4.66667,0,0,-0.114974,0,-0.00137824,
4.70833,0,0,-0.111555,0,-0.00134933,
4.75,0,0,-0.10816,0,-0.00131973,
4.79167,0,0,-0.104789,0,-0.00128948,
4.83333,0,0,-0.101445,0,-0.0012586,
4.875,0,0,-0.0981292,0,-0.00122712,
4.91667,0,0,-0.0948446,0,-0.00119509,
4.95833,0,0,-0.0915924,0,-0.00116253,
5,0,0,-0.0883744,0,-0.00112947,
5.04167,0,0,-0.0851922,0,-0.00109594,
5.08333,0,0,-0.0820472,0,-0.00106197,
5.125,0,0,-0.0789408,0,-0.00102759,
5.16667,0,0,-0.0758744,0,-0.000992829,
5.20833,0,0,-0.0728491,0,-0.000957719,
5.25,0,0,-0.0698661,0,-0.000922285,
5.29167,0,0,-0.0669263,0,-0.000886553,
5.33333,0,0,-0.0640308,0,-0.000850551,
5.375,0,0,-0.0611803,0,-0.000814302,
5.41667,0,0,-0.0583756,0,-0.000777829,
5.45833,0,0,-0.0556175,0,-0.000741155,
5.5,0,0,-0.0529065,0,-0.000704302,
5.54167,0,0,-0.0502433,0,-0.000667294,
5.58333,0,0,-0.0476284,0,-0.000630155,
5.625,0,0,-0.0450623,0,-0.000592904,
5.66667,0,0,-0.0425453,0,-0.000555565,
5.70833,0,0,-0.0400778,0,-0.000518155,
5.75,0,0,-0.0376602,0,-0.000480695,
5.79167,0,0,-0.0352928,0,-0.0004432,
5.83333,0,0,-0.0329759,0,-0.000405683,
5.875,0,0,-0.0307099,0,-0.000368154,
5.91667,0,0,-0.0284953,0,-0.000330621,
5.95833,0,0,-0.0263328,0,-0.000293097,
6,0,0,-0.0242234,0,-0.000255612,
6.04167,0,0,-0.0221682,0,-0.000218228,
6.08333,0,0,-0.0201685,0,-0.000181054,
6.125,0,0,-0.018225,0,-0.00014423,
6.16667,0,0,-0.0163373,0,-0.000107885,
6.20833,0,0,-0.0145042,0,-7.20856e-05,
6.25,0,0,-0.012724,0,-3.68385e-05,
6.29167,0,0,-0.0109953,0,-2.11714e-06,
6.33333,0,0,-0.00931685,0,3.21079e-05,
6.375,0,0,-0.00768735,0,6.5859e-05,
6.41667,0,0,-0.00610571,0,9.91515e-05,
6.45833,0,0,-0.00457089,0,0.000131996,
6.5,0,0,-0.00308188,0,0.000164399,
6.54167,0,0,-0.00163772,0,0.000196367,
6.58333,0,0,-0.00023748,0,0.000227904,
6.625,0,0,0.00111976,0,0.000259015,
6.66667,0,0,0.00243489,0,0.000289704,
6.70833,0,0,0.00370878,0,0.000319975,
6.75,0,0,0.00494228,0,0.000349831,
6.79167,0,0,0.00613622,0,0.000379274,
6.83333,0,0,0.00729142,0,0.000408306,
6.875,0,0,0.00840871,0,0.000436928,
6.91667,0,0,0.00948889,0,0.000465143,
6.95833,0,0,0.0105328,0,0.000492952,
7,0,0,0.0115411,0,0.000520357,
7.04167,0,0,0.0125147,0,0.00054736,
7.08333,0,0,0.0134543,0,0.000573963,
7.125,0,0,0.0143607,0,0.000600168,
7.16667,0,0,0.0152347,0,0.000625975,
7.20833,0,0,0.0160769,0,0.000651388,
7.25,0,0,0.0168882,0,0.000676408,
7.29167,0,0,0.0176692,0,0.000701036,
7.33333,0,0,0.0184208,0,0.000725277,
7.375,0,0,0.0191435,0,0.000749133,
7.41667,0,0,0.019838,0,0.000772609,
7.45833,0,0,0.0205052,0,0.000795709,
7.5,0,0,0.0211455,0,0.000818439,
7.54167,0,0,0.0217596,0,0.000840805,
7.58333,0,0,0.0223483,0,0.00086282,
7.625,0,0,0.0229122,0,0.000884497,
7.66667,0,0,0.0234519,0,0.000905849,
7.70833,0,0,0.0239678,0,0.000926884,
7.75,0,0,0.0244605,0,0.000947607,
7.79167,0,0,0.0249304,0,0.000968017,
7.83333,0,0,0.0253774,0,0.000988105,
7.875,0,0,0.0258018,0,0.00100792,
7.91667,0,0,0.0262141,0,0.001028,
7.95833,0,0,0.0265481,0,0.00104689,
8,0,0,0.0269601,0,0.00106567,
8.04171,0,0,0.027388,0,0.00108546,
8.08368,0,0,0.0276847,0,0.001105,
8.12617,0,0,0.0280191,0,0.00112285,
8.16946,0,0,0.0283357,0,0.00114078,
8.21382,0,0,0.0286349,0,0.00115872,
8.25952,0,0,0.0289245,0,0.0011767,
8.30685,0,0,0.0292038,0,0.00119491,
8.35611,0,0,0.0294733,0,0.00121342,
8.40762,0,0,0.0297331,0,0.00123233,
8.46168,0,0,0.0299826,0,0.0012517,
8.51865,0,0,0.030221,0,0.0012716,
8.57889,0,0,0.0304469,0,0.00129207,
8.64276,0,0,0.0306587,0,0.00131315,
8.71067,0,0,0.030854,0,0.00133488,
8.78306,0,0,0.0310304,0,0.00135729,
8.86037,0,0,0.0311846,0,0.00138039,
8.94309,0,0,0.0313132,0,0.00140419,
9.03174,0,0,0.0314122,0,0.00142868,
9.12689,0,0,0.0314772,0,0.00145385,
9.22912,0,0,0.0315033,0,0.00147966,
9.33908,0,0,0.0314855,0,0.00150609,
9.45746,0,0,0.0314183,0,0.00153307,
9.58501,0,0,0.0312965,0,0.00156053,
9.72253,0,0,0.0311146,0,0.00158841,
9.87088,0,0,0.0308671,0,0.00161661,
10.031,0,0,0.0305486,0,0.00164503,
10.2039,0,0,0.0301548,0,0.00167355,
10.3906,0,0,0.0296822,0,0.00170205,
10.5924,0,0,0.0291277,0,0.00173039,
10.8105,0,0,0.0284899,0,0.00175844,
11.0463,0,0,0.0277694,0,0.00178607,
11.3012,0,0,0.0269674,0,0.00181317,
11.5769,0,0,0.0260876,0,0.0018396,
11.8751,0,0,0.0251356,0,0.00186528,
12.1977,0,0,0.0241187,0,0.00189011,
12.5466,0,0,0.0230472,0,0.001914,
12.9242,0,0,0.021932,0,0.00193693,
13.3327,0,0,0.0207861,0,0.00195883,
13.7748,0,0,0.019624,0,0.00197972,
14.2532,0,0,0.0184603,0,0.00199957,
14.7709,0,0,0.0173108,0,0.00201844,
15.3312,0,0,0.0161898,0,0.00203634,
15.9377,0,0,0.0151116,0,0.00205335,
16.594,0,0,0.0140884,0,0.00206955,
17.3044,0,0,0.0131295,0,0.00208501,
18.0733,0,0,0.0122425,0,0.00209977,
18.9056,0,0,0.0114311,0,0.00211376,
19.8064,0,0,0.0106959,0,0.00212696,
20.7816,0,0,0.0100344,0,0.00213956,
21.8371,0,0,0.00943926,0,0.0021519,
22.9796,0,0,0.00890054,0,0.0021642,
24.2163,0,0,0.00840491,0,0.00217656,
25.5551,0,0,0.00793725,0,0.002189,
27.0042,0,0,0.0074805,0,0.00220165,
28.5729,0,0,0.00701665,0,0.00221458,
30.271,0,0,0.00652711,0,0.00222779,
32.1091,0,0,0.00599398,0,0.00224122,
34.0989,0,0,0.00540159,0,0.00225478,
36.2529,0,0,0.004732,0,0.00226843,
38.5845,0,0,0.00397659,0,0.00228209,
41.1085,0,0,0.00317181,0,0.00229555,
43.8407,0,0,0.00216265,0,0.00230665,
46.7983,0,0,0.00111338,0,0.00231333,
50,0,0,0.00206985,0,0.00232944,

