59bb5631c8457c5aa208bc7da5cd6652f6bcc63f 
X,Z,x_velocity,cp,uw_b,cf,
1,0,0,-0.233128,0,0,
1,9,0,-0.127598,0,0,
1,8.99969,0.0153643,-0.127598,2.83965e-10,0,
1,8.99934,0.0327958,-0.127598,1.32737e-08,0,
1,8.99894,0.0525905,-0.127598,1.8311e-07,0,
1,8.99848,0.075062,-0.127598,1.34246e-06,0,
1,8.99797,0.100522,-0.127598,6.71096e-06,0,
1,8.99739,0.12917,-0.127598,2.54102e-05,0,
1,8.99672,0.160812,-0.127598,7.5324e-05,0,
1,8.99597,0.194518,-0.127598,0.000175263,0,
1,8.99512,0.228642,-0.127597,0.000323348,0,
1,8.99416,0.261528,-0.127597,0.000491203,0,
1,8.99306,0.292196,-0.127597,0.000649381,0,
1,8.99182,0.320467,-0.127597,0.000777058,0,
1,8.99041,0.34648,-0.127596,0.000882661,0,
1,8.98881,0.370396,-0.127596,0.000969944,0,
1,8.98699,0.392433,-0.127595,0.00104124,0,
1,8.98494,0.412883,-0.127595,0.00109708,0,
1,8.98261,0.432055,-0.127594,0.00114017,0,
1,8.97996,0.450187,-0.127593,0.00117627,0,
1,8.97696,0.467449,-0.127591,0.00120627,0,
1,8.97356,0.483984,-0.12759,0.00123143,0,
1,8.9697,0.499911,-0.127588,0.00125273,0,
1,8.96533,0.515327,-0.127587,0.00127088,0,
1,8.96038,0.530315,-0.127584,0.0012864,0,
1,8.95476,0.544946,-0.127582,0.00129965,0,
1,8.9484,0.559279,-0.127579,0.0013109,0,
1,8.9412,0.573364,-0.127576,0.00132032,0,
1,8.93303,0.587245,-0.127573,0.00132802,0,
1,8.92379,0.600958,-0.12757,0.00133405,0,
1,8.91333,0.614536,-0.127567,0.00133842,0,
1,8.90149,0.628007,-0.127563,0.00134111,0,
1,8.8881,0.641395,-0.12756,0.00134205,0,
1,8.87295,0.654722,-0.127557,0.00134119,0,
1,8.85584,0.66801,-0.127554,0.00133841,0,
1,8.83651,0.681276,-0.127552,0.00133362,0,
1,8.81469,0.694542,-0.127551,0.00132668,0,
1,8.79007,0.707826,-0.127552,0.00131745,0,
1,8.76232,0.721153,-0.127555,0.00130576,0,
1,8.73107,0.734548,-0.127561,0.00129139,0,
1,8.69591,0.748042,-0.127572,0.00127409,0,
1,8.6564,0.761674,-0.127588,0.00125355,0,
1,8.61206,0.775492,-0.127612,0.00122937,0,
1,8.56236,0.789556,-0.127645,0.00120112,0,
1,8.50675,0.803944,-0.127692,0.0011683,0,
1,8.44464,0.818757,-0.127753,0.00113066,0,
1,8.3754,0.834138,-0.127838,0.00109078,0,
1,8.29839,0.850363,-0.127947,0.00103237,0,
1,8.21296,0.867785,-0.128085,0.000952432,0,
1,8.11843,0.886623,-0.128265,0.00084919,0,
1,8.01417,0.90684,-0.128496,0.000719258,0,
1,7.89956,0.927958,-0.128779,0.000566858,0,
1,7.77403,0.948869,-0.129146,0.00040941,0,
1,7.63711,0.967987,-0.129589,0.000210857,0,
1,7.48842,0.98292,-0.130116,7.79747e-05,0,
1,7.32773,0.991699,-0.130745,1.86196e-05,0,
1,7.15495,0.994849,-0.131478,1.82811e-06,0,
1,6.97022,0.994882,-0.132329,2.06192e-08,0,
1,6.77388,0.99426,-0.133312,3.58622e-09,0,
1,6.56652,0.994145,-0.134445,9.78166e-09,0,
1,6.34896,0.9946,-0.13574,1.24466e-08,0,
1,6.12229,0.995324,-0.137212,1.40211e-08,0,
1,5.88784,0.996121,-0.138878,1.48838e-08,0,
1,5.64716,0.996955,-0.14075,1.5884e-08,0,
1,5.40194,0.997858,-0.14284,1.7274e-08,0,
1,5.15407,0.998858,-0.145159,1.90157e-08,0,
1,4.90545,0.999964,-0.147709,2.09256e-08,0,
1,4.65805,1.00118,-0.150493,2.2988e-08,0,
1,4.41376,1.0025,-0.153505,2.51641e-08,0,
1,4.17441,1.00392,-0.156735,2.71956e-08,0,
1,3.94163,1.00536,-0.160168,2.89675e-08,0,
1,3.7169,1.0068,-0.163778,3.10478e-08,0,
1,3.50146,1.0083,-0.167536,3.53973e-08,0,
1,3.29629,1.01015,-0.17141,4.40343e-08,0,
1,3.10217,1.01274,-0.17537,5.53682e-08,0,
1,2.91959,1.0159,-0.179387,9.60245e-08,0,
1,2.74885,1.01826,-0.183418,1.00504e-06,0,
1,2.59002,1.01747,-0.187395,-4.13505e-06,0,
1,2.44299,1.01176,-0.191252,-4.44039e-05,0,
1,2.30752,1.00121,-0.194911,-0.000134073,0,
1,2.18321,0.987147,-0.19831,-0.000262207,0,
1,2.06959,0.971142,-0.201472,-0.000368606,0,
1,1.9661,0.954494,-0.204365,-0.0004627,0,
1,1.87215,0.938181,-0.206956,-0.000549736,0,
1,1.78711,0.922741,-0.209274,-0.000625806,0,
1,1.71033,0.908344,-0.211334,-0.000690751,0,
1,1.64119,0.894964,-0.213158,-0.000746211,0,
1,1.57905,0.88249,-0.214766,-0.000794464,0,
1,1.52332,0.870795,-0.216178,-0.000837701,0,
1,1.47342,0.859763,-0.217415,-0.000877973,0,
1,1.42882,0.849301,-0.218497,-0.000916741,0,
1,1.389,0.839338,-0.219449,-0.000956145,0,
1,1.35351,0.829845,-0.220277,-0.000995966,0,
1,1.3219,0.820799,-0.220972,-0.00101171,0,
1,1.29378,0.812167,-0.221565,-0.00102594,0,
1,1.26878,0.803927,-0.222082,-0.00103841,0,
1,1.24659,0.796072,-0.222526,-0.00104916,0,
1,1.22689,0.788591,-0.22291,-0.00105814,0,
1,1.2092,0.781393,-0.223245,-0.00106438,0,
1,1.1932,0.774426,-0.223539,-0.00106875,0,
1,1.1787,0.767667,-0.223797,-0.00107226,0,
1,1.16554,0.761086,-0.224024,-0.00107709,0,
1,1.15357,0.754639,-0.224222,-0.00108624,0,
1,1.14266,0.748255,-0.224397,-0.00110491,0,
1,1.13268,0.741828,-0.224551,-0.00114038,0,
1,1.12354,0.735217,-0.224689,-0.00120195,0,
1,1.11514,0.728237,-0.224817,-0.00130042,0,
1,1.10739,0.720683,-0.224938,-0.00144659,0,
1,1.10022,0.712348,-0.225059,-0.0016494,0,
1,1.09357,0.703074,-0.225181,-0.00191313,0,
1,1.08738,0.692797,-0.225308,-0.00223613,0,
1,1.0816,0.681575,-0.225439,-0.00260984,0,
1,1.07618,0.669575,-0.225576,-0.00301991,0,
1,1.07107,0.657028,-0.225717,-0.00344934,0,
1,1.06626,0.644176,-0.225862,-0.00388194,0,
1,1.06169,0.631231,-0.226008,-0.00430463,0,
1,1.05735,0.618363,-0.226155,-0.00470827,0,
1,1.05321,0.605692,-0.226302,-0.00508725,0,
1,1.04925,0.593297,-0.226449,-0.00543874,0,
1,1.04544,0.581227,-0.226594,-0.00576184,0,
1,1.04177,0.569505,-0.226738,-0.0060569,0,
1,1.03822,0.558139,-0.22688,-0.00632501,0,
1,1.03478,0.547125,-0.227021,-0.00656762,0,
1,1.03144,0.536454,-0.22716,-0.00678638,0,
1,1.02818,0.526111,-0.227296,-0.00698296,0,
1,1.025,0.516079,-0.227431,-0.00715899,0,
1,1.02188,0.506342,-0.227565,-0.007316,0,
1,1.01882,0.496882,-0.227697,-0.0074554,0,
1,1.01581,0.487682,-0.227827,-0.00757862,0,
1,1.01284,0.478725,-0.227956,-0.00768636,0,
1,1.00988,0.4699,-0.228085,-0.00778112,0,
1,1.00688,0.4611,-0.228216,-0.00786462,0,
1,1.00384,0.452312,-0.228347,-0.00793668,0,
1,1.00076,0.443519,-0.22848,-0.00799732,0,
1,0.997615,0.434701,-0.228614,-0.00804643,0,
1,0.99441,0.425837,-0.22875,-0.0080843,0,
1,0.991131,0.416904,-0.228888,-0.00811095,0,
1,0.987768,0.407877,-0.229027,-0.00812624,0,
1,0.984308,0.398731,-0.229169,-0.0081299,0,
1,0.980739,0.389436,-0.229313,-0.00812155,0,
1,0.977045,0.379963,-0.22946,-0.00810067,0,
1,0.973211,0.370277,-0.22961,-0.00806659,0,
1,0.969219,0.360345,-0.229763,-0.00801845,0,
1,0.965047,0.350126,-0.22992,-0.00795525,0,
1,0.960675,0.339579,-0.230082,-0.00787572,0,
1,0.956077,0.328656,-0.230247,-0.00777839,0,
1,0.951224,0.317306,-0.230418,-0.00766147,0,
1,0.946088,0.305474,-0.230593,-0.00752214,0,
1,0.940633,0.293098,-0.230774,-0.00735842,0,
1,0.934823,0.28012,-0.230961,-0.00716761,0,
1,0.928616,0.266485,-0.231155,-0.00694668,0,
1,0.921967,0.252148,-0.231355,-0.00669326,0,
1,0.914826,0.237079,-0.231563,-0.00640586,0,
1,0.907141,0.221269,-0.231778,-0.00608097,0,
1,0.898852,0.204726,-0.232,-0.00571681,0,
1,0.889898,0.187484,-0.232229,-0.00531265,0,
1,0.880212,0.169614,-0.232464,-0.00486927,0,
1,0.869723,0.151236,-0.232704,-0.00438975,0,
1,0.858358,0.132534,-0.23295,-0.0038804,0,
1,0.846039,0.113778,-0.233202,-0.00335191,0,
1,0.83269,0.0953414,-0.233458,-0.00282031,0,
1,0.818232,0.0777048,-0.233718,-0.00231091,0,
1,0.802744,0.0615508,-0.233973,-0.00185331,0,
1,0.78635,0.0474489,-0.234224,-0.00146932,0,
1,0.768969,0.0355436,-0.234457,-0.00117028,0,
1,0.75053,0.025707,-0.234672,-0.000953421,0,
1,0.730977,0.0175791,-0.234858,-0.000806937,0,
1,0.710271,0.0107015,-0.235013,-0.000715675,0,
1,0.688397,0.0046455,-0.23513,-0.000664105,0,
1,0.66536,-0.000918574,-0.235216,-0.000638025,0,
1,0.641194,-0.00619678,-0.235269,-0.000633635,0,
1,0.615961,-0.0113307,-0.235295,-0.000634288,0,
1,0.589754,-0.0164319,-0.235296,-0.000635142,0,
1,0.562692,-0.0215596,-0.235277,-0.000632223,0,
1,0.534925,-0.0267237,-0.235237,-0.000623206,0,
1,0.506624,-0.0318992,-0.235177,-0.000607173,0,
1,0.477982,-0.0370398,-0.235095,-0.000584056,0,
1,0.449206,-0.0420885,-0.234992,-0.000554382,0,
1,0.420509,-0.0469855,-0.23487,-0.000518977,0,
1,0.392107,-0.051673,-0.23473,-0.000478836,0,
1,0.364206,-0.056098,-0.234577,-0.000435024,0,
1,0.337003,-0.0602145,-0.234413,-0.000388622,0,
1,0.310673,-0.063984,-0.234243,-0.000340684,0,
1,0.28537,-0.0673764,-0.234073,-0.000292201,0,
1,0.26122,-0.0703691,-0.233904,-0.00024407,0,
1,0.238324,-0.0729469,-0.233743,-0.000197066,0,
1,0.21675,-0.0751007,-0.233592,-0.000151827,0,
1,0.196544,-0.0768264,-0.233454,-0.000108862,0,
1,0.177724,-0.0781237,-0.233331,-6.85587e-05,0,
1,0.160284,-0.0789948,-0.233225,-3.11899e-05,0,
1,0.144202,-0.0794432,-0.233135,3.07125e-06,0,
1,0.129436,-0.0794731,-0.233061,3.41227e-05,0,
1,0.115935,-0.0790883,-0.233004,6.19032e-05,0,
1,0.103636,-0.0782923,-0.232962,8.63627e-05,0,
1,0.0924701,-0.0770884,-0.232934,0.000107439,0,
1,0.0823633,-0.0754801,-0.232919,0.000125048,0,
1,0.0732406,-0.073472,-0.232914,0.000139084,0,
1,0.0650269,-0.0710708,-0.232917,0.000149441,0,
1,0.057648,-0.0682868,-0.232928,0.000156032,0,
1,0.0510323,-0.0651346,-0.232943,0.000158823,0,
1,0.0451115,-0.0616332,-0.232962,0.000157848,0,
1,0.0398209,-0.0578061,-0.232983,0.000153206,0,
1,0.0351001,-0.0536804,-0.233005,0.000145082,0,
1,0.0308929,-0.0492862,-0.233026,0.000133741,0,
1,0.0271475,-0.0446563,-0.233046,0.000119512,0,
1,0.0238164,-0.039828,-0.233064,0.000102811,0,
1,0.0208562,-0.0348479,-0.233079,8.42033e-05,0,
1,0.0182274,-0.0297832,-0.233092,6.45742e-05,0,
1,0.0158944,-0.0247401,-0.233101,4.53494e-05,0,
1,0.0138249,-0.0198802,-0.233108,2.84758e-05,0,
1,0.0119898,-0.0154092,-0.233113,1.57224e-05,0,
1,0.0103632,-0.0115209,-0.233116,7.62528e-06,0,
1,0.00892169,-0.00832458,-0.233118,3.29509e-06,0,
1,0.00764438,-0.005819,-0.23312,1.29428e-06,0,
1,0.00651264,-0.00392441,-0.23312,4.69281e-07,0,
1,0.00550983,-0.00253097,-0.233122,1.57923e-07,0,
1,0.00462115,-0.00153136,-0.233122,4.90528e-08,0,
1,0.00383341,-0.000833891,-0.233124,1.38301e-08,0,
1,0.0031349,-0.000364942,-0.233123,3.43333e-09,0,
1,0.00251518,-6.69184e-05,-0.233125,7.11798e-10,0,
1,0.00196502,0.000104494,-0.233123,1.11289e-10,0,
1,0.00147619,0.000183231,-0.233126,1.00316e-11,0,
1,0.00104139,0.000195014,-0.233124,-1.36702e-13,0,
1,0.000654158,0.000159316,-0.233127,-1.13432e-13,0,
1,0.000308731,9.06836e-05,-0.233124,-4.52221e-15,0,

4,0,0,-0.136132,0,0,
4,9,0,-0.096713,0,0,
4,8.99969,0.0142575,-0.0967126,2.23817e-10,0,
4,8.99934,0.0303764,-0.0967129,1.0384e-08,0,
4,8.99894,0.0486184,-0.0967126,1.41793e-07,0,
4,8.9985,0.0692601,-0.0967128,1.02919e-06,0,
4,8.99799,0.0925827,-0.0967126,5.10836e-06,0,
4,8.99742,0.118789,-0.0967127,1.93422e-05,0,
4,8.99677,0.147794,-0.0967125,5.80455e-05,0,
4,8.99605,0.178919,-0.0967126,0.000138693,0,
4,8.99522,0.210809,-0.0967123,0.000265154,0,
4,8.99429,0.241922,-0.0967123,0.000417233,0,
4,8.99324,0.271193,-0.096712,0.000566982,0,
4,8.99205,0.29824,-0.0967117,0.000696625,0,
4,8.9907,0.323138,-0.0967112,0.000800761,0,
4,8.98919,0.346062,-0.0967108,0.000888539,0,
4,8.98747,0.3672,-0.0967101,0.000961604,0,
4,8.98553,0.386825,-0.0967093,0.00101887,0,
4,8.98334,0.405216,-0.0967083,0.00106534,0,
4,8.98087,0.422588,-0.0967072,0.00110456,0,
4,8.97807,0.439109,-0.0967058,0.0011379,0,
4,8.97491,0.454922,-0.0967042,0.00116667,0,
4,8.97134,0.470144,-0.0967022,0.00119185,0,
4,8.96731,0.484877,-0.0967,0.00121416,0,
4,8.96276,0.499204,-0.0966974,0.00123414,0,
4,8.95762,0.513198,-0.0966944,0.00125216,0,
4,8.95182,0.526922,-0.0966908,0.00126849,0,
4,8.94526,0.540429,-0.0966868,0.00128326,0,
4,8.93787,0.553766,-0.0966823,0.00129658,0,
4,8.92952,0.566971,-0.0966775,0.00130844,0,
4,8.92011,0.580081,-0.0966721,0.00131881,0,
4,8.90949,0.593124,-0.0966661,0.00132759,0,
4,8.89751,0.606126,-0.0966595,0.00133467,0,
4,8.88402,0.619108,-0.0966524,0.00133988,0,
4,8.86881,0.632089,-0.0966447,0.00134307,0,
4,8.85169,0.645084,-0.0966367,0.00134405,0,
4,8.83242,0.658108,-0.0966283,0.00134263,0,
4,8.81074,0.671174,-0.0966198,0.00133861,0,
4,8.78637,0.684294,-0.0966115,0.00133183,0,
4,8.75901,0.697482,-0.0966036,0.00132209,0,
4,8.7283,0.710753,-0.0965966,0.00130922,0,
4,8.69387,0.72413,-0.0965912,0.00129302,0,
4,8.65533,0.737637,-0.0965881,0.00127327,0,
4,8.61222,0.751309,-0.096588,0.0012497,0,
4,8.56407,0.76519,-0.0965927,0.00122197,0,
4,8.5104,0.779339,-0.0966029,0.00118958,0,
4,8.45065,0.793828,-0.0966216,0.00115186,0,
4,8.38429,0.80875,-0.0966487,0.00110838,0,
4,8.31073,0.824232,-0.0966909,0.0010629,0,
4,8.22941,0.840558,-0.0967511,0.00099909,0,
4,8.13974,0.858134,-0.096829,0.000910402,0,
4,8.04115,0.877207,-0.0969319,0.000798438,0,
4,7.93313,0.897643,-0.0970594,0.000663483,0,
4,7.81519,0.918721,-0.0972077,0.000515073,0,
4,7.68693,0.939008,-0.0973954,0.000370911,0,
4,7.54803,0.956607,-0.0976079,0.000213608,0,
4,7.39831,0.969526,-0.097861,9.36876e-05,0,
4,7.23771,0.976832,-0.0981677,2.87297e-05,0,
4,7.06634,0.979495,-0.0985205,4.60742e-06,0,
4,6.88453,0.979606,-0.0989189,-8.66487e-08,0,
4,6.69275,0.979025,-0.0993639,-1.30866e-07,0,
4,6.49173,0.978683,-0.0998623,1.03806e-08,0,
4,6.28238,0.978731,-0.100422,2.10378e-08,0,
4,6.06579,0.979001,-0.101048,1.23711e-08,0,
4,5.84328,0.979338,-0.101746,8.19677e-09,0,
4,5.61626,0.979677,-0.10252,7.01107e-09,0,
4,5.3863,0.98002,-0.103372,6.9624e-09,0,
4,5.15502,0.980382,-0.104303,7.38408e-09,0,
4,4.92406,0.980776,-0.105314,8.05772e-09,0,
4,4.69507,0.981211,-0.106404,8.86908e-09,0,
4,4.46961,0.981691,-0.107568,9.67289e-09,0,
4,4.24915,0.9822,-0.108804,1.01539e-08,0,
4,4.03501,0.982684,-0.110103,1.00433e-08,0,
4,3.82836,0.983074,-0.111458,9.56266e-09,0,
4,3.63018,0.983368,-0.112858,1.00089e-08,0,
4,3.44125,0.983732,-0.114291,1.40319e-08,0,
4,3.26217,0.98451,-0.115746,4.69332e-08,0,
4,3.09333,0.986005,-0.11721,4.17008e-07,0,
4,2.93497,0.988082,-0.118669,2.02876e-06,0,
4,2.78715,0.989964,-0.120109,3.96687e-06,0,
4,2.64979,0.990516,-0.121517,-3.52906e-07,0,
4,2.52268,0.988798,-0.122877,-2.02716e-05,0,
4,2.40551,0.98443,-0.124175,-6.14017e-05,0,
4,2.29789,0.977595,-0.125396,-0.000123272,0,
4,2.19939,0.968836,-0.126531,-0.000200812,0,
4,2.10949,0.958823,-0.127576,-0.000286407,0,
4,2.02768,0.948194,-0.128531,-0.000371961,0,
4,1.95343,0.937487,-0.129399,-0.000450758,0,
4,1.88618,0.927096,-0.130183,-0.000520603,0,
4,1.82542,0.9172,-0.130894,-0.000568223,0,
4,1.77062,0.907851,-0.131537,-0.000608141,0,
4,1.72128,0.899105,-0.132108,-0.000644151,0,
4,1.67693,0.891002,-0.132619,-0.00067636,0,
4,1.63713,0.883549,-0.133073,-0.000705059,0,
4,1.60144,0.876734,-0.133478,-0.000730603,0,
4,1.56949,0.870531,-0.133839,-0.000753454,0,
4,1.54091,0.864902,-0.134159,-0.00077408,0,
4,1.51537,0.859791,-0.134445,-0.000792997,0,
4,1.49167,0.854994,-0.134706,-0.000810787,0,
4,1.46926,0.850427,-0.134951,-0.000827625,0,
4,1.44801,0.846086,-0.135181,-0.000843689,0,
4,1.42781,0.841961,-0.135397,-0.000858993,0,
4,1.40855,0.838015,-0.135612,-0.00086756,0,
4,1.39015,0.834198,-0.135824,-0.000872344,0,
4,1.37252,0.830482,-0.136023,-0.000877656,0,
4,1.3556,0.826851,-0.136216,-0.000882366,0,
4,1.3393,0.823288,-0.136402,-0.000887028,0,
4,1.32357,0.819774,-0.136581,-0.000892613,0,
4,1.30836,0.816289,-0.136754,-0.000899943,0,
4,1.29362,0.812812,-0.136921,-0.000910064,0,
4,1.2793,0.809315,-0.137084,-0.000924301,0,
4,1.26537,0.805768,-0.137242,-0.000944275,0,
4,1.25179,0.802133,-0.137397,-0.000971941,0,
4,1.23852,0.798368,-0.137547,-0.0010096,0,
4,1.22554,0.79442,-0.137694,-0.0010599,0,
4,1.21282,0.790231,-0.137837,-0.00112577,0,
4,1.20034,0.785735,-0.137977,-0.00121029,0,
4,1.18806,0.780862,-0.138113,-0.00131651,0,
4,1.17599,0.775542,-0.138246,-0.00144715,0,
4,1.16408,0.769712,-0.138375,-0.00160423,0,
4,1.15233,0.763323,-0.138501,-0.0017887,0,
4,1.14073,0.756343,-0.138622,-0.00200017,0,
4,1.12925,0.748765,-0.138739,-0.00223678,0,
4,1.11788,0.740608,-0.138854,-0.00249529,0,
4,1.10661,0.731909,-0.138966,-0.0027714,0,
4,1.09543,0.722721,-0.139075,-0.0030601,0,
4,1.08432,0.713107,-0.139181,-0.00335619,0,
4,1.07328,0.703133,-0.139285,-0.00365459,0,
4,1.0623,0.692865,-0.139386,-0.00395062,0,
4,1.05136,0.682364,-0.139486,-0.00424018,0,
4,1.04044,0.671668,-0.139583,-0.00451987,0,
4,1.0295,0.660809,-0.13968,-0.0047871,0,
4,1.01855,0.649829,-0.139774,-0.00503929,0,
4,1.00757,0.638765,-0.139867,-0.00527408,0,
4,0.996544,0.627652,-0.13996,-0.00548947,0,
4,0.98547,0.616517,-0.140049,-0.00568397,0,
4,0.974334,0.605388,-0.14014,-0.00587278,0,
4,0.963124,0.594225,-0.140212,-0.00603077,0,
4,0.951826,0.582911,-0.140256,-0.00616417,0,
4,0.940428,0.571336,-0.140293,-0.00630173,0,
4,0.928915,0.559439,-0.140327,-0.0064444,0,
4,0.917272,0.547178,-0.140362,-0.0065928,0,
4,0.905481,0.534521,-0.140396,-0.00674741,0,
4,0.893524,0.521442,-0.140432,-0.0069085,0,
4,0.881383,0.507915,-0.140469,-0.00707623,0,
4,0.869035,0.493914,-0.140508,-0.00725056,0,
4,0.856459,0.479415,-0.140549,-0.00743131,0,
4,0.843629,0.464394,-0.140593,-0.00761807,0,
4,0.830518,0.448828,-0.140638,-0.00781021,0,
4,0.817097,0.432697,-0.140687,-0.00800684,0,
4,0.803334,0.415984,-0.140738,-0.00820672,0,
4,0.789195,0.398678,-0.140792,-0.00840825,0,
4,0.774643,0.380777,-0.140849,-0.00860936,0,
4,0.759639,0.362293,-0.140909,-0.00880753,0,
4,0.744138,0.343256,-0.140972,-0.00899964,0,
4,0.728096,0.323714,-0.141038,-0.00918208,0,
4,0.711463,0.303731,-0.141107,-0.00935065,0,
4,0.694189,0.283381,-0.141179,-0.00949987,0,
4,0.676218,0.262734,-0.141252,-0.00962445,0,
4,0.657495,0.241852,-0.141325,-0.00971988,0,
4,0.637962,0.22078,-0.141398,-0.00978266,0,
4,0.617561,0.19954,-0.141467,-0.00981025,0,
4,0.596848,0.178713,-0.141523,-0.0098004,0,
4,0.576557,0.158967,-0.141566,-0.00975452,0,
4,0.556564,0.140134,-0.141593,-0.00967513,0,
4,0.536763,0.122073,-0.141607,-0.00956333,0,
4,0.517057,0.104712,-0.141622,-0.00941967,0,
4,0.497368,0.0880805,-0.141664,-0.00924581,0,
4,0.477632,0.0723231,-0.141772,-0.00904694,0,
4,0.457804,0.0576555,-0.141968,-0.00883293,0,
4,0.437857,0.0442384,-0.142263,-0.00861915,0,
4,0.417786,0.0319924,-0.142465,-0.00841216,0,
4,0.397605,0.020441,-0.142361,-0.00793491,0,
4,0.377348,0.00922664,-0.142133,-0.00755782,0,
4,0.357066,-0.00165606,-0.141944,-0.00718775,0,
4,0.336828,-0.012177,-0.141734,-0.00680581,0,
4,0.316717,-0.0223107,-0.141518,-0.00641739,0,
4,0.296825,-0.0320241,-0.141289,-0.00602714,0,
4,0.27725,-0.0412806,-0.141051,-0.00563674,0,
4,0.258095,-0.0500489,-0.140804,-0.00524812,0,
4,0.239458,-0.0583067,-0.140548,-0.0048638,0,
4,0.221432,-0.0660411,-0.140286,-0.00448647,0,
4,0.2041,-0.0732484,-0.140018,-0.00411873,0,
4,0.187537,-0.0799328,-0.139748,-0.00376294,0,
4,0.171798,-0.0861053,-0.139476,-0.00342114,0,
4,0.156928,-0.0917822,-0.139207,-0.003095,0,
4,0.142956,-0.0969836,-0.138941,-0.00278582,0,
4,0.129894,-0.101733,-0.138683,-0.00249446,0,
4,0.117744,-0.106054,-0.138434,-0.00222145,0,
4,0.106492,-0.109972,-0.138196,-0.00196696,0,
4,0.0961173,-0.113513,-0.137971,-0.00173085,0,
4,0.0865883,-0.1167,-0.137761,-0.00151274,0,
4,0.0778675,-0.119556,-0.137565,-0.00131206,0,
4,0.0699123,-0.122103,-0.137386,-0.00112805,0,
4,0.062677,-0.12436,-0.137222,-0.000959863,0,
4,0.056114,-0.126346,-0.137073,-0.000806569,0,
4,0.0501747,-0.128075,-0.13694,-0.000667198,0,
4,0.0448114,-0.12956,-0.136821,-0.000540769,0,
4,0.039977,-0.130812,-0.136715,-0.000426314,0,
4,0.0356266,-0.131838,-0.136623,-0.000322898,0,
4,0.0317171,-0.132645,-0.136541,-0.000229634,0,
4,0.0282081,-0.133232,-0.13647,-0.0001457,0,
4,0.0250617,-0.133598,-0.136409,-7.03493e-05,0,
4,0.0222427,-0.133733,-0.136357,-2.933e-06,0,
4,0.0197189,-0.133623,-0.136312,5.70817e-05,0,
4,0.0174603,-0.133244,-0.136274,0.000110075,0,
4,0.0154398,-0.132559,-0.136242,0.000156216,0,
4,0.0136326,-0.131513,-0.136216,0.000195368,0,
4,0.0120162,-0.130025,-0.136194,0.000226925,0,
4,0.0105703,-0.12798,-0.136177,0.000249561,0,
4,0.00927657,-0.125206,-0.136164,0.000260911,0,
4,0.00811839,-0.121471,-0.136153,0.00025744,0,
4,0.0070809,-0.116479,-0.136147,0.000235346,0,
4,0.0061507,-0.109936,-0.136141,0.000193762,0,
4,0.00531578,-0.101708,-0.136139,0.000139311,0,
4,0.00456537,-0.0920097,-0.136136,8.57256e-05,0,
4,0.00388979,-0.0814027,-0.136136,4.50955e-05,0,
4,0.00328037,-0.0705388,-0.136135,2.05245e-05,0,
4,0.00272934,-0.0599003,-0.136136,8.16327e-06,0,
4,0.0022297,-0.0497409,-0.136134,2.82202e-06,0,
4,0.00177519,-0.0401526,-0.136135,8.23216e-07,0,
4,0.00136016,-0.0311409,-0.136133,1.89882e-07,0,
4,0.000979511,-0.022672,-0.136135,3.04689e-08,0,
4,0.00062865,-0.0146966,-0.136133,2.60476e-09,0,
4,0.000303409,-0.00715913,-0.136135,6.35874e-11,0,

6,0,0,-0.0142827,0,0,
6,9,0,-0.0728936,0,0,
6,8.99969,0.0135374,-0.0728933,1.87422e-10,0,
6,8.99934,0.028803,-0.0728936,8.64976e-09,0,
6,8.99895,0.0460347,-0.0728933,1.17268e-07,0,
6,8.9985,0.065484,-0.0728935,8.45089e-07,0,
6,8.99801,0.0874092,-0.0728933,4.17158e-06,0,
6,8.99744,0.11201,-0.0728934,1.57782e-05,0,
6,8.99681,0.139257,-0.0728932,4.76786e-05,0,
6,8.99609,0.168622,-0.0728933,0.000115868,0,
6,8.99529,0.198951,-0.0728931,0.00022699,0,
6,8.99438,0.228811,-0.072893,0.000366434,0,
6,8.99336,0.257102,-0.0728928,0.000508632,0,
6,8.9922,0.28333,-0.0728926,0.000636242,0,
6,8.9909,0.307496,-0.0728922,0.000739564,0,
6,8.98944,0.329758,-0.0728918,0.000826443,0,
6,8.98779,0.350289,-0.0728913,0.000899517,0,
6,8.98593,0.369339,-0.0728906,0.000957257,0,
6,8.98383,0.387166,-0.0728898,0.00100475,0,
6,8.98147,0.403977,-0.0728889,0.00104497,0,
6,8.97881,0.419937,-0.0728877,0.00107942,0,
6,8.97581,0.435185,-0.0728863,0.00110945,0,
6,8.97244,0.44984,-0.0728847,0.00113606,0,
6,8.96863,0.464002,-0.0728827,0.00116002,0,
6,8.96435,0.477758,-0.0728804,0.00118188,0,
6,8.95953,0.491181,-0.0728776,0.00120206,0,
6,8.95409,0.504336,-0.0728744,0.00122084,0,
6,8.94798,0.517279,-0.0728706,0.0012384,0,
6,8.94109,0.530058,-0.0728663,0.00125485,0,
6,8.93334,0.542719,-0.0728614,0.0012702,0,
6,8.92463,0.555297,-0.0728559,0.00128442,0,
6,8.91482,0.567828,-0.0728497,0.00129742,0,
6,8.90379,0.580341,-0.0728425,0.00130904,0,
6,8.89139,0.592859,-0.0728345,0.00131909,0,
6,8.87746,0.605407,-0.0728254,0.00132735,0,
6,8.86181,0.618,-0.0728153,0.00133357,0,
6,8.84423,0.630655,-0.0728041,0.00133747,0,
6,8.82452,0.643383,-0.0727917,0.00133878,0,
6,8.80241,0.656196,-0.0727781,0.00133721,0,
6,8.77763,0.669103,-0.0727632,0.00133251,0,
6,8.74989,0.682113,-0.0727471,0.00132442,0,
6,8.71885,0.695236,-0.0727298,0.00131272,0,
6,8.68417,0.708487,-0.0727112,0.00129717,0,
6,8.64545,0.721882,-0.0726916,0.00127756,0,
6,8.60229,0.735448,-0.0726709,0.00125365,0,
6,8.55423,0.749218,-0.0726495,0.0012251,0,
6,8.50082,0.763236,-0.0726269,0.00119146,0,
6,8.44155,0.777557,-0.0726046,0.00115209,0,
6,8.37592,0.79225,-0.0725803,0.00110664,0,
6,8.30339,0.807412,-0.0725582,0.00105953,0,
6,8.22344,0.823298,-0.0725395,0.000996275,0,
6,8.13555,0.840322,-0.0725227,0.000913798,0,
6,8.0392,0.858831,-0.0725036,0.000811204,0,
6,7.93391,0.878844,-0.0724815,0.00068811,0,
6,7.81927,0.899771,-0.072442,0.000550844,0,
6,7.6949,0.920234,-0.0723975,0.000415132,0,
6,7.56054,0.938411,-0.0723226,0.000286097,0,
6,7.41603,0.952628,-0.0722327,0.000147841,0,
6,7.26132,0.961817,-0.0721372,5.86924e-05,0,
6,7.09653,0.966211,-0.072015,1.48903e-05,0,
6,6.92195,0.967291,-0.0718708,7.09297e-07,0,
6,6.73802,0.966842,-0.071696,-1.13019e-06,0,
6,6.5454,0.966112,-0.0714873,-5.28073e-07,0,
6,6.34489,0.965606,-0.0712405,-1.51736e-07,0,
6,6.1375,0.965341,-0.0709519,-4.27071e-08,0,
6,5.92439,0.965177,-0.0706168,-1.65366e-08,0,
6,5.70687,0.965005,-0.0702302,-9.31499e-09,0,
6,5.48633,0.964783,-0.0697867,-7.10689e-09,0,
6,5.26426,0.964507,-0.069281,-6.69204e-09,0,
6,5.04218,0.964188,-0.0687079,-6.99533e-09,0,
6,4.82159,0.963837,-0.0680629,-7.57e-09,0,
6,4.60398,0.963465,-0.0673422,-8.27318e-09,0,
6,4.39071,0.963074,-0.0665433,-9.23663e-09,0,
6,4.18307,0.962634,-0.0656651,-1.07615e-08,0,
6,3.98218,0.962087,-0.0647083,-1.31073e-08,0,
6,3.78902,0.961375,-0.0636757,-1.59891e-08,0,
6,3.60438,0.960516,-0.0625724,-2.00987e-08,0,
6,3.42888,0.95967,-0.0614055,-4.00811e-08,0,
6,3.26296,0.959115,-0.060183,-1.07595e-07,0,
6,3.10691,0.959098,-0.0589137,-1.66977e-07,0,
6,2.96084,0.959627,-0.0576065,-6.36574e-08,0,
6,2.82473,0.960361,-0.0562722,-3.58231e-07,0,
6,2.69844,0.960714,-0.0549241,-3.53531e-06,0,
6,2.58172,0.960082,-0.0535776,-1.36329e-05,0,
6,2.47424,0.95805,-0.0522488,-3.42607e-05,0,
6,2.37559,0.954484,-0.0509529,-6.69051e-05,0,
6,2.28535,0.949492,-0.0497032,-0.000110716,0,
6,2.20301,0.943343,-0.0485099,-0.000163205,0,
6,2.1281,0.936375,-0.0473813,-0.000221039,0,
6,2.06009,0.928938,-0.0463207,-0.000280458,0,
6,1.99849,0.92136,-0.0453336,-0.00033734,0,
6,1.9428,0.913929,-0.044415,-0.000389153,0,
6,1.89255,0.906818,-0.0435724,-0.000432226,0,
6,1.84728,0.900065,-0.0428031,-0.000461704,0,
6,1.80655,0.893683,-0.0420949,-0.000488933,0,
6,1.76996,0.887714,-0.0414504,-0.000514063,0,
6,1.73712,0.882181,-0.0408638,-0.000537213,0,
6,1.70768,0.877057,-0.0403307,-0.000558592,0,
6,1.67998,0.872112,-0.0398258,-0.000579278,0,
6,1.65329,0.86725,-0.039334,-0.000599494,0,
6,1.62754,0.862466,-0.0388552,-0.000619178,0,
6,1.60265,0.85776,-0.0383879,-0.000638417,0,
6,1.57854,0.85313,-0.0379317,-0.000657203,0,
6,1.55515,0.848575,-0.0374856,-0.000675522,0,
6,1.53242,0.84409,-0.0370489,-0.000693414,0,
6,1.5103,0.839674,-0.0366209,-0.000710918,0,
6,1.48874,0.835321,-0.036201,-0.00072806,0,
6,1.46769,0.831022,-0.0357887,-0.000744866,0,
6,1.44712,0.826764,-0.0353837,-0.000761407,0,
6,1.42698,0.822532,-0.0349852,-0.000777861,0,
6,1.40725,0.818314,-0.0345923,-0.000794609,0,
6,1.38788,0.814114,-0.0342033,-0.000812185,0,
6,1.36886,0.809958,-0.0338165,-0.000831198,0,
6,1.35015,0.80589,-0.0334303,-0.000851837,0,
6,1.33173,0.801947,-0.0330469,-0.000874023,0,
6,1.31357,0.798127,-0.0326654,-0.000896737,0,
6,1.29566,0.794359,-0.0322989,-0.000911673,0,
6,1.27797,0.79055,-0.031942,-0.000927613,0,
6,1.26048,0.786651,-0.0315829,-0.000950927,0,
6,1.24318,0.782626,-0.0312287,-0.000980344,0,
6,1.22605,0.778437,-0.0308761,-0.00101785,0,
6,1.20907,0.774035,-0.0305264,-0.00106566,0,
6,1.19223,0.769365,-0.0301789,-0.00112623,0,
6,1.17551,0.764367,-0.0298338,-0.00120206,0,
6,1.1589,0.758978,-0.0294912,-0.00129548,0,
6,1.14238,0.753136,-0.0291504,-0.00140837,0,
6,1.12595,0.74679,-0.0288129,-0.0015419,0,
6,1.10959,0.7399,-0.0284785,-0.0016962,0,
6,1.09329,0.732448,-0.0281472,-0.00187019,0,
6,1.07704,0.724437,-0.0278196,-0.0020616,0,
6,1.06081,0.715888,-0.0274954,-0.00226709,0,
6,1.04459,0.706836,-0.0271754,-0.00248259,0,
6,1.02836,0.697335,-0.0268587,-0.00270364,0,
6,1.01211,0.687447,-0.0265477,-0.0029291,0,
6,0.99583,0.677212,-0.0262372,-0.00315451,0,
6,0.97951,0.666611,-0.0259248,-0.00337333,0,
6,0.963136,0.655599,-0.0256157,-0.00359661,0,
6,0.946694,0.644136,-0.02531,-0.00382587,0,
6,0.930172,0.632184,-0.025009,-0.00406243,0,
6,0.913555,0.619702,-0.024713,-0.00430746,0,
6,0.896829,0.606647,-0.0244224,-0.00456192,0,
6,0.879979,0.592978,-0.0241377,-0.00482653,0,
6,0.862989,0.578671,-0.0238596,-0.00510182,0,
6,0.845842,0.563728,-0.0235894,-0.00538832,0,
6,0.828521,0.548187,-0.0233283,-0.00568687,0,
6,0.811008,0.532093,-0.0230774,-0.00599065,0,
6,0.793282,0.515485,-0.0228374,-0.00629581,0,
6,0.775322,0.498394,-0.0226092,-0.00659935,0,
6,0.757107,0.480851,-0.0223935,-0.006898,0,
6,0.738612,0.462893,-0.0221913,-0.00718813,0,
6,0.719813,0.44457,-0.0220039,-0.00746574,0,
6,0.700681,0.425947,-0.0218331,-0.00772653,0,
6,0.681188,0.407105,-0.02168,-0.00796594,0,
6,0.661304,0.388134,-0.0215446,-0.00817918,0,
6,0.640996,0.369115,-0.0214234,-0.00836116,0,
6,0.620228,0.350101,-0.0213095,-0.0085068,0,
6,0.598964,0.331115,-0.0211947,-0.0086116,0,
6,0.577166,0.312164,-0.0210761,-0.0086716,0,
6,0.554791,0.293291,-0.0209648,-0.00868377,0,
6,0.531799,0.274643,-0.0208985,-0.00864806,0,
6,0.508144,0.256522,-0.0209352,-0.00856969,0,
6,0.48378,0.239324,-0.0211344,-0.0084604,0,
6,0.459585,0.223866,-0.0214719,-0.00833564,0,
6,0.436695,0.210492,-0.0214911,-0.00805931,0,
6,0.414961,0.198497,-0.0212608,-0.00767756,0,
6,0.394252,0.187468,-0.0210831,-0.00736685,0,
6,0.374445,0.177265,-0.0208952,-0.0070567,0,
6,0.355433,0.167781,-0.0207058,-0.00674819,0,
6,0.337122,0.158927,-0.0205146,-0.00644091,0,
6,0.319433,0.150629,-0.0203193,-0.00613535,0,
6,0.3023,0.142826,-0.0201192,-0.00583198,0,
6,0.28567,0.135465,-0.0199133,-0.0055312,0,
6,0.269507,0.128504,-0.0197008,-0.00523345,0,
6,0.253785,0.121911,-0.0194813,-0.00493925,0,
6,0.238493,0.115657,-0.0192547,-0.00464923,0,
6,0.223631,0.109722,-0.0190209,-0.00436414,0,
6,0.209207,0.10409,-0.0187806,-0.00408482,0,
6,0.195237,0.0987465,-0.0185344,-0.0038122,0,
6,0.181744,0.0936815,-0.0182836,-0.00354724,0,
6,0.168754,0.0888856,-0.0180296,-0.00329092,0,
6,0.156292,0.0843506,-0.0177743,-0.00304417,0,
6,0.144384,0.0800683,-0.0175195,-0.00280784,0,
6,0.133052,0.0760304,-0.0172674,-0.00258266,0,
6,0.122315,0.0722284,-0.0170201,-0.00236922,0,
6,0.112183,0.0686531,-0.0167796,-0.00216793,0,
6,0.102665,0.0652947,-0.0165479,-0.00197905,0,
6,0.0937597,0.0621429,-0.0163265,-0.00180265,0,
6,0.0854609,0.0591869,-0.0161168,-0.00163865,0,
6,0.077757,0.0564157,-0.0159199,-0.00148682,0,
6,0.0706309,0.0538178,-0.0157365,-0.0013468,0,
6,0.0640611,0.0513819,-0.0155669,-0.00121813,0,
6,0.0580229,0.0490964,-0.0154113,-0.00110027,0,
6,0.0524888,0.0469501,-0.0152694,-0.000992618,0,
6,0.0474296,0.0449317,-0.015141,-0.000894545,0,
6,0.042815,0.0430303,-0.0150254,-0.000805392,0,
6,0.0386145,0.041235,-0.0149218,-0.000724495,0,
6,0.0347975,0.0395355,-0.0148297,-0.000651201,0,
6,0.0313344,0.0379211,-0.0147481,-0.000584871,0,
6,0.0281964,0.0363818,-0.0146762,-0.000524889,0,
6,0.0253561,0.0349074,-0.014613,-0.000470664,0,
6,0.0227875,0.0334873,-0.014558,-0.000421633,0,
6,0.0204662,0.0321112,-0.0145101,-0.000377264,0,
6,0.0183694,0.0307678,-0.0144689,-0.000337043,0,
6,0.016476,0.0294451,-0.0144332,-0.000300482,0,
6,0.0147664,0.02813,-0.0144032,-0.000267097,0,
6,0.0132228,0.0268075,-0.0143774,-0.000236408,0,
6,0.0118288,0.0254602,-0.0143563,-0.000207915,0,
6,0.0105693,0.0240676,-0.0143382,-0.000181085,0,
6,0.00943073,0.0226055,-0.0143244,-0.000155343,0,
6,0.00840063,0.0210462,-0.0143125,-0.000130099,0,
6,0.00746774,0.0193616,-0.0143045,-0.0001049,0,
6,0.00662185,0.0175314,-0.0142975,-7.97871e-05,0,
6,0.00585371,0.0155599,-0.014294,-5.58078e-05,0,
6,0.00515491,0.0134956,-0.0142902,-3.505e-05,0,
6,0.00451788,0.0114343,-0.0142896,-1.95152e-05,0,
6,0.00393573,0.00948616,-0.0142873,-9.65516e-06,0,
6,0.00340221,0.007732,-0.014288,-4.29166e-06,0,
6,0.00291168,0.00620452,-0.0142861,-1.72838e-06,0,
6,0.00245897,0.00489971,-0.0142873,-6.28994e-07,0,
6,0.00203939,0.00379533,-0.0142852,-2.03064e-07,0,
6,0.00164864,0.00286388,-0.014287,-5.59194e-08,0,
6,0.00128281,0.00207894,-0.0142844,-1.22275e-08,0,
6,0.000938257,0.00141753,-0.0142868,-1.85796e-09,0,
6,0.000611645,0.000860483,-0.0142836,-1.49148e-10,0,
6,0.000299862,0.000392258,-0.0142868,-3.32499e-12,0,

10,0.000296632,0.0083935,0.0272603,-4.76053e-11,0,
10,0.000596102,0.0168645,0.0272609,-1.7643e-09,0,
10,0.000900397,0.0254692,0.0272602,-1.7938e-08,0,
10,0.00121153,0.0342639,0.0272608,-9.63919e-08,0,
10,0.00153158,0.0433055,0.0272602,-3.60539e-07,0,
10,0.00186264,0.0526492,0.0272606,-1.07184e-06,0,
10,0.00220692,0.0623473,0.0272601,-2.72017e-06,0,
10,0.00256668,0.0724437,0.0272605,-6.14045e-06,0,
10,0.00294431,0.0829666,0.02726,-1.26305e-05,0,
10,0.00334229,0.093917,0.0272603,-2.39992e-05,0,
10,0.00376326,0.105255,0.0272599,-4.2418e-05,0,
10,0.00421,0.116888,0.0272601,-6.99466e-05,0,
10,0.00468544,0.128664,0.0272596,-0.000107758,0,
10,0.00519274,0.140388,0.0272596,-0.000155398,0,
10,0.00573524,0.151847,0.0272591,-0.000210604,0,
10,0.00631651,0.162846,0.0272588,-0.000269899,0,
10,0.00694041,0.173236,0.027258,-0.000329624,0,
10,0.00761104,0.182922,0.0272574,-0.000386797,0,
10,0.00833284,0.191864,0.0272561,-0.000439484,0,
10,0.00911058,0.200065,0.0272548,-0.000486754,0,
10,0.0099494,0.207557,0.0272529,-0.000528438,0,
10,0.0108548,0.214391,0.0272508,-0.000564865,0,
10,0.0118329,0.220627,0.0272479,-0.000596637,0,
10,0.0128901,0.226328,0.0272446,-0.000624484,0,
10,0.0140333,0.231558,0.0272404,-0.000649154,0,
10,0.0152702,0.236373,0.0272356,-0.000671365,0,
10,0.0166089,0.240828,0.0272298,-0.000691769,0,
10,0.0180584,0.24497,0.0272231,-0.000710948,0,
10,0.0196282,0.248843,0.0272152,-0.000729415,0,
10,0.0213288,0.252484,0.0272061,-0.000747618,0,
10,0.0231714,0.255926,0.0271956,-0.000765956,0,
10,0.0251682,0.259197,0.0271836,-0.000784786,0,
10,0.0273326,0.262324,0.0271699,-0.000804434,0,
10,0.0296789,0.265329,0.0271545,-0.000825203,0,
10,0.0322227,0.268232,0.0271369,-0.000847384,0,
10,0.0349809,0.271053,0.0271172,-0.000871259,0,
10,0.0379719,0.273807,0.0270951,-0.000897111,0,
10,0.0412155,0.27651,0.0270704,-0.000925225,0,
10,0.0447333,0.279177,0.0270428,-0.000955894,0,
10,0.0485489,0.281821,0.027012,-0.000989423,0,
10,0.0526875,0.284456,0.026978,-0.00102613,0,
10,0.0571768,0.287095,0.0269402,-0.00106637,0,
10,0.0620466,0.289751,0.0268986,-0.00111048,0,
10,0.0673295,0.292436,0.0268528,-0.00115887,0,
10,0.0730607,0.295165,0.0268025,-0.00121193,0,
10,0.0792784,0.297952,0.0267475,-0.00127012,0,
10,0.0860241,0.300811,0.0266875,-0.00133391,0,
10,0.0933428,0.303759,0.0266222,-0.00140381,0,
10,0.101283,0.306812,0.0265514,-0.00148035,0,
10,0.109899,0.309989,0.026475,-0.00156411,0,
10,0.119247,0.313312,0.0263926,-0.0016557,0,
10,0.12939,0.316802,0.0263043,-0.00175576,0,
10,0.140395,0.320487,0.0262099,-0.00186495,0,
10,0.152337,0.324395,0.0261094,-0.00198398,0,
10,0.165296,0.328559,0.026003,-0.00211352,0,
10,0.179357,0.333017,0.0258906,-0.00225428,0,
10,0.194615,0.337813,0.0257726,-0.00240692,0,
10,0.211171,0.342995,0.0256491,-0.00257203,0,
10,0.229138,0.348622,0.0255204,-0.00275013,0,
10,0.248635,0.354759,0.0253872,-0.00294157,0,
10,0.269793,0.361484,0.0252487,-0.00314644,0,
10,0.292753,0.368884,0.0251072,-0.00336451,0,
10,0.317669,0.377064,0.0249591,-0.00359383,0,
10,0.344708,0.386134,0.0248097,-0.00383152,0,
10,0.372405,0.395664,0.0246643,-0.00406656,0,
10,0.399623,0.405281,0.0245255,-0.00428777,0,
10,0.426397,0.414991,0.024394,-0.00449303,0,
10,0.452757,0.424802,0.0242698,-0.00468188,0,
10,0.478735,0.434731,0.0241541,-0.00485274,0,
10,0.504358,0.444804,0.0240499,-0.00500417,0,
10,0.529657,0.455049,0.0239518,-0.00513436,0,
10,0.554656,0.465492,0.0238672,-0.00524401,0,
10,0.579382,0.476151,0.023769,-0.00535222,0,
10,0.603859,0.487118,0.0237223,-0.00545239,0,
10,0.628112,0.498717,0.0237609,-0.00541498,0,
10,0.652163,0.511244,0.0237826,-0.00535613,0,
10,0.676035,0.52464,0.0237597,-0.00527343,0,
10,0.699751,0.538655,0.0236948,-0.00516361,0,
10,0.72333,0.553017,0.0236008,-0.00502589,0,
10,0.746795,0.567526,0.0234896,-0.0048619,0,
10,0.770165,0.582065,0.0233684,-0.00467456,0,
10,0.79346,0.596568,0.0232397,-0.00446721,0,
10,0.816699,0.610981,0.0231033,-0.00424339,0,
10,0.839903,0.625234,0.0229575,-0.00400689,0,
10,0.863088,0.639232,0.0228015,-0.00376196,0,
10,0.886275,0.652847,0.0226328,-0.00351685,0,
10,0.909481,0.665947,0.0224513,-0.00327888,0,
10,0.932723,0.67844,0.0222608,-0.00304821,0,
10,0.956021,0.690301,0.0220634,-0.00282534,0,
10,0.97939,0.701553,0.0218604,-0.00261107,0,
10,1.00285,0.71223,0.0216518,-0.0024062,0,
10,1.02641,0.722364,0.021437,-0.00221136,0,
10,1.0501,0.73198,0.0212162,-0.00202707,0,
10,1.07392,0.741101,0.0209885,-0.0018537,0,
10,1.0979,0.749751,0.0207561,-0.00169041,0,
10,1.12205,0.757954,0.020518,-0.00153548,0,
10,1.14639,0.765711,0.0202712,-0.00139605,0,
10,1.17093,0.77301,0.0200163,-0.00127132,0,
10,1.19568,0.77986,0.0197538,-0.00116303,0,
10,1.22066,0.786298,0.0194835,-0.00107544,0,
10,1.24589,0.792442,0.0192076,-0.000991638,0,
10,1.27137,0.798428,0.0189273,-0.000917513,0,
10,1.29713,0.804312,0.018641,-0.000852331,0,
10,1.32317,0.810082,0.018348,-0.000795546,0,
10,1.34951,0.815707,0.0180475,-0.000746318,0,
10,1.37616,0.821173,0.0177396,-0.000703387,0,
10,1.40313,0.826503,0.0174247,-0.000665362,0,
10,1.43043,0.831734,0.0171033,-0.000631044,0,
10,1.45807,0.8369,0.0167752,-0.000599572,0,
10,1.48607,0.842017,0.0164403,-0.000570352,0,
10,1.51444,0.847082,0.0160983,-0.000542937,0,
10,1.54318,0.852086,0.0157491,-0.000516951,0,
10,1.57231,0.857018,0.0153926,-0.00049208,0,
10,1.60184,0.861874,0.0150289,-0.000468081,0,
10,1.63178,0.866649,0.0146578,-0.000444791,0,
10,1.66213,0.871337,0.0142792,-0.000422119,0,
10,1.69292,0.875926,0.0138933,-0.000400053,0,
10,1.72416,0.880399,0.0134998,-0.000378641,0,
10,1.75585,0.884733,0.0130992,-0.000358,0,
10,1.78802,0.888903,0.0126906,-0.000338209,0,
10,1.82067,0.892895,0.0122761,-0.000319221,0,
10,1.85383,0.896731,0.0118524,-0.000298061,0,
10,1.88751,0.900469,0.0114196,-0.000274038,0,
10,1.92173,0.904131,0.010981,-0.000250895,0,
10,1.95652,0.907691,0.0105331,-0.000226967,0,
10,1.9919,0.911115,0.0100781,-0.000202529,0,
10,2.02791,0.914369,0.00961373,-0.000178222,0,
10,2.06456,0.917425,0.00914239,-0.000154479,0,
10,2.10268,0.920316,0.00865019,-0.000131107,0,
10,2.1443,0.923121,0.0081155,-0.000108614,0,
10,2.18977,0.925788,0.00753165,-8.7184e-05,0,
10,2.23946,0.928235,0.00689697,-6.7063e-05,0,
10,2.29376,0.930382,0.00620631,-4.89486e-05,0,
10,2.35309,0.932154,0.00545751,-3.33803e-05,0,
10,2.4179,0.933489,0.00464674,-2.07841e-05,0,
10,2.48863,0.934347,0.0037723,-1.14169e-05,0,
10,2.56575,0.934732,0.00283199,-5.2513e-06,0,
10,2.64971,0.934701,0.00182533,-1.88952e-06,0,
10,2.74098,0.934375,0.000751995,-5.8241e-07,0,
10,2.83997,0.933928,-0.000386973,-4.06229e-07,0,
10,2.94709,0.933561,-0.00159018,-5.57819e-07,0,
10,3.06269,0.933448,-0.00285507,-5.96195e-07,0,
10,3.18706,0.93369,-0.00417842,-4.57951e-07,0,
10,3.3204,0.934285,-0.00555551,-2.65478e-07,0,
10,3.46281,0.935137,-0.00698011,-1.23925e-07,0,
10,3.61427,0.936106,-0.00844397,-5.39268e-08,0,
10,3.77463,0.937059,-0.00993702,-2.84975e-08,0,
10,3.94358,0.937921,-0.0114476,-2.07588e-08,0,
10,4.12067,0.93868,-0.012963,-1.81098e-08,0,
10,4.30525,0.939369,-0.01447,-1.69428e-08,0,
10,4.49655,0.94003,-0.0159556,-1.65541e-08,0,
10,4.6936,0.940691,-0.0174071,-1.69531e-08,0,
10,4.89531,0.941353,-0.0188126,-1.86501e-08,0,
10,5.10047,0.942003,-0.0201617,-2.3121e-08,0,
10,5.30776,0.942619,-0.0214452,-3.3654e-08,0,
10,5.51581,0.943186,-0.0226557,-5.69115e-08,0,
10,5.72323,0.9437,-0.0237878,-1.07412e-07,0,
10,5.92863,0.944185,-0.0248379,-2.2112e-07,0,
10,6.13069,0.944707,-0.0258043,-4.94213e-07,0,
10,6.32816,0.945361,-0.0266872,-1.13028e-06,0,
10,6.51991,0.946182,-0.0274884,-2.21414e-06,0,
10,6.70495,0.94694,-0.0282113,-2.36062e-06,0,
10,6.88244,0.946913,-0.028859,4.05123e-06,0,
10,7.0517,0.944862,-0.0294354,2.82801e-05,0,
10,7.21224,0.939381,-0.0299405,8.36933e-05,0,
10,7.3637,0.929578,-0.0303798,0.000179158,0,
10,7.5059,0.915519,-0.0307562,0.000304732,0,
10,7.63878,0.897852,-0.0310725,0.000415986,0,
10,7.76243,0.877741,-0.0313411,0.000538115,0,
10,7.87701,0.856969,-0.0315554,0.000661623,0,
10,7.9828,0.836976,-0.0317324,0.000772055,0,
10,8.08014,0.818431,-0.0318736,0.000865086,0,
10,8.16941,0.801367,-0.0319902,0.000942135,0,
10,8.25106,0.785488,-0.0320863,0.00100694,0,
10,8.32554,0.770438,-0.0321681,0.00106281,0,
10,8.39331,0.755935,-0.0322376,0.00111176,0,
10,8.45484,0.741801,-0.0322974,0.00115472,0,
10,8.5106,0.727945,-0.0323483,0.0011921,0,
10,8.56104,0.714331,-0.0323918,0.00122413,0,
10,8.60659,0.700957,-0.032429,0.00125099,0,
10,8.64767,0.687831,-0.0324609,0.00127291,0,
10,8.68467,0.67496,-0.0324889,0.0012902,0,
10,8.71795,0.662322,-0.0325135,0.00129997,0,
10,8.74786,0.649884,-0.0325347,0.00130487,0,
10,8.77471,0.637633,-0.0325531,0.00130596,0,
10,8.79881,0.625562,-0.0325688,0.00130328,0,
10,8.8204,0.613662,-0.0325823,0.00129738,0,
10,8.83975,0.601923,-0.0325938,0.00128878,0,
10,8.85708,0.590327,-0.0326037,0.00127799,0,
10,8.87259,0.578858,-0.0326121,0.00126545,0,
10,8.88646,0.567492,-0.0326191,0.00125157,0,
10,8.89886,0.556204,-0.0326252,0.00123667,0,
10,8.90995,0.544967,-0.0326303,0.00122102,0,
10,8.91986,0.533751,-0.0326345,0.00120483,0,
10,8.92872,0.522522,-0.0326381,0.00118825,0,
10,8.93663,0.511244,-0.0326411,0.00117134,0,
10,8.94369,0.499878,-0.0326437,0.00115413,0,
10,8.95,0.488384,-0.0326459,0.00113655,0,
10,8.95564,0.476716,-0.0326477,0.00111855,0,
10,8.96067,0.464825,-0.0326491,0.00109993,0,
10,8.96517,0.452656,-0.0326503,0.00108043,0,
10,8.96918,0.440148,-0.0326512,0.00105972,0,
10,8.97276,0.427233,-0.0326521,0.00103737,0,
10,8.97596,0.413831,-0.0326527,0.00101281,0,
10,8.97882,0.399848,-0.0326534,0.000985318,0,
10,8.98137,0.385179,-0.0326536,0.000953947,0,
10,8.98365,0.369695,-0.0326542,0.000917488,0,
10,8.98569,0.353247,-0.0326542,0.000874603,0,
10,8.9875,0.335651,-0.0326547,0.000822706,0,
10,8.98913,0.31667,-0.0326546,0.000757297,0,
10,8.99058,0.296076,-0.0326551,0.000679944,0,
10,8.99188,0.273712,-0.0326549,0.000588521,0,
10,8.99304,0.249416,-0.0326554,0.000475651,0,
10,8.99408,0.22314,-0.032655,0.000349197,0,
10,8.99501,0.195251,-0.0326555,0.000222755,0,
10,8.99583,0.166649,-0.032655,0.000118245,0,
10,8.99658,0.138603,-0.0326556,5.08421e-05,0,
10,8.99724,0.112234,-0.032655,1.75614e-05,0,
10,8.99784,0.0881378,-0.0326557,4.82665e-06,0,
10,8.99837,0.066428,-0.032655,1.01247e-06,0,
10,8.99885,0.0469712,-0.0326558,1.45055e-07,0,
10,8.99927,0.029556,-0.032655,1.10133e-08,0,
10,8.99966,0.0139671,-0.0326559,2.43683e-10,0,
10,0,0,0.0272611,0,0,
10,9,0,-0.0326549,0,0,

0.004,0,0,-0.229147,0,-6.4568e-08,
0.00868226,0,0,-0.229145,0,-2.12265e-07,
0.014062,0,0,-0.229146,0,-3.90369e-07,
0.0201548,0,0,-0.229146,0,-8.32013e-07,
0.0269766,0,0,-0.229146,0,-1.27723e-06,
0.0345437,0,0,-0.229145,0,-1.69912e-06,
0.0428729,0,0,-0.229143,0,-1.87685e-06,
0.051981,0,0,-0.229141,0,-1.65952e-06,
0.0618853,0,0,-0.229138,0,-8.38855e-07,
0.0726036,0,0,-0.229135,0,7.55267e-07,
0.0841536,0,0,-0.229132,0,3.24418e-06,
0.0965535,0,0,-0.229131,0,6.66684e-06,
0.109822,0,0,-0.229131,0,1.09347e-05,
0.123977,0,0,-0.229136,0,1.58572e-05,
0.139037,0,0,-0.229145,0,2.1133e-05,
0.155022,0,0,-0.229159,0,2.64254e-05,
0.171949,0,0,-0.229177,0,3.13828e-05,
0.189839,0,0,-0.229201,0,3.57118e-05,
0.208709,0,0,-0.229228,0,3.91857e-05,
0.228579,0,0,-0.229257,0,4.1681e-05,
0.249467,0,0,-0.229289,0,4.3165e-05,
0.271391,0,0,-0.22932,0,4.37026e-05,
0.29437,0,0,-0.229351,0,4.34376e-05,
0.31842,0,0,-0.22938,0,4.25862e-05,
0.343559,0,0,-0.229408,0,4.14248e-05,
0.369804,0,0,-0.229434,0,4.02757e-05,
0.39717,0,0,-0.22946,0,3.94665e-05,
0.425672,0,0,-0.229487,0,3.92908e-05,
0.455324,0,0,-0.229517,0,3.99649e-05,
0.48614,0,0,-0.229553,0,4.15967e-05,
0.518132,0,0,-0.229598,0,4.4177e-05,
0.551309,0,0,-0.229655,0,4.75948e-05,
0.585683,0,0,-0.229729,0,5.16762e-05,
0.621259,0,0,-0.229822,0,5.62244e-05,
0.658046,0,0,-0.22994,0,6.10123e-05,
0.696047,0,0,-0.230088,0,6.57392e-05,
0.735265,0,0,-0.230276,0,6.99553e-05,
0.7757,0,0,-0.230516,0,7.29156e-05,
0.817352,0,0,-0.230822,0,7.34917e-05,
0.860215,0,0,-0.231213,0,7.02072e-05,
0.904285,0,0,-0.231706,0,6.13399e-05,
0.949552,0,0,-0.232317,0,4.51524e-05,
0.996004,0,0,-0.233055,0,2.02748e-05,
1.04363,0,0,-0.233919,0,-1.39045e-05,
1.09241,0,0,-0.234895,0,-5.7028e-05,
1.14232,0,0,-0.235961,0,-0.000107857,
1.19335,0,0,-0.237091,0,-0.000164633,
1.24546,0,0,-0.238256,0,-0.000225546,
1.29863,0,0,-0.239429,0,-0.000289099,
1.35283,0,0,-0.240585,0,-0.000354262,
1.40802,0,0,-0.241703,0,-0.000420425,
1.46416,0,0,-0.242761,0,-0.000487265,
1.52121,0,0,-0.243741,0,-0.000554595,
1.57913,0,0,-0.244622,0,-0.000622263,
1.63787,0,0,-0.245386,0,-0.000690098,
1.69739,0,0,-0.246013,0,-0.000757892,
1.75761,0,0,-0.246485,0,-0.000825393,
1.81851,0,0,-0.246784,0,-0.000892314,
1.88,0,0,-0.246891,0,-0.000958334,
1.94204,0,0,-0.246791,0,-0.00102311,
2.00457,0,0,-0.246469,0,-0.0010863,
2.06751,0,0,-0.245913,0,-0.00114754,
2.13081,0,0,-0.245111,0,-0.00120647,
2.19439,0,0,-0.244057,0,-0.00126277,
2.25819,0,0,-0.242746,0,-0.00131612,
2.32214,0,0,-0.241176,0,-0.00136626,
2.38617,0,0,-0.239347,0,-0.00141293,
2.4502,0,0,-0.237265,0,-0.00145592,
2.51418,0,0,-0.234935,0,-0.00149504,
2.57803,0,0,-0.232368,0,-0.00153015,
2.64167,0,0,-0.229575,0,-0.00156117,
2.70505,0,0,-0.226572,0,-0.00158806,
2.76808,0,0,-0.223374,0,-0.00161085,
2.83072,0,0,-0.22,0,-0.0016296,
2.89288,0,0,-0.216469,0,-0.00164443,
2.95451,0,0,-0.212799,0,-0.00165549,
3.01555,0,0,-0.209011,0,-0.00166296,
3.07594,0,0,-0.205124,0,-0.00166704,
3.13561,0,0,-0.201159,0,-0.00166794,
3.19453,0,0,-0.197134,0,-0.00166588,
3.25262,0,0,-0.193067,0,-0.00166109,
3.30985,0,0,-0.188975,0,-0.00165376,
3.36617,0,0,-0.184874,0,-0.00164413,
3.42154,0,0,-0.18078,0,-0.00163239,
3.47591,0,0,-0.176706,0,-0.00161877,
3.52925,0,0,-0.172667,0,-0.00160348,
3.58152,0,0,-0.168672,0,-0.00158673,
3.6327,0,0,-0.164734,0,-0.0015687,
3.68276,0,0,-0.16086,0,-0.00154958,
3.73167,0,0,-0.15706,0,-0.00152954,
3.77941,0,0,-0.15334,0,-0.00150874,
3.82596,0,0,-0.149707,0,-0.00148736,
3.8713,0,0,-0.146166,0,-0.00146551,
3.91543,0,0,-0.142718,0,-0.00144322,
3.95833,0,0,-0.139385,0,-0.00142092,
4,0,0,-0.136132,0,-0.00139839,
4.04167,0,0,-0.132896,0,-0.00137511,
4.08333,0,0,-0.12967,0,-0.00135122,
4.125,0,0,-0.126456,0,-0.0013267,
4.16667,0,0,-0.123257,0,-0.00130155,
4.20833,0,0,-0.120072,0,-0.0012758,
4.25,0,0,-0.116906,0,-0.00124947,
4.29167,0,0,-0.113758,0,-0.0012226,
4.33333,0,0,-0.110632,0,-0.0011952,
4.375,0,0,-0.107528,0,-0.00116731,
4.41667,0,0,-0.104448,0,-0.00113895,
4.45833,0,0,-0.101394,0,-0.00111015,
4.5,0,0,-0.0983662,0,-0.00108094,
4.54167,0,0,-0.0953671,0,-0.00105133,
4.58333,0,0,-0.0923975,0,-0.00102135,
4.625,0,0,-0.0894584,0,-0.000991021,
4.66667,0,0,-0.086551,0,-0.000960359,
4.70833,0,0,-0.0836765,0,-0.000929386,
4.75,0,0,-0.0808358,0,-0.000898123,
4.79167,0,0,-0.0780298,0,-0.000866592,
4.83333,0,0,-0.0752596,0,-0.000834816,
4.875,0,0,-0.0725258,0,-0.000802815,
4.91667,0,0,-0.0698292,0,-0.000770611,
4.95833,0,0,-0.0671706,0,-0.000738223,
5,0,0,-0.0645505,0,-0.000705667,
5.04167,0,0,-0.0619696,0,-0.000672963,
5.08333,0,0,-0.0594284,0,-0.000640126,
5.125,0,0,-0.0569274,0,-0.000607177,
5.16667,0,0,-0.0544672,0,-0.000574133,
5.20833,0,0,-0.0520481,0,-0.000541014,
5.25,0,0,-0.0496705,0,-0.000507835,
5.29167,0,0,-0.0473346,0,-0.000474612,
5.33333,0,0,-0.045041,0,-0.000441361,
5.375,0,0,-0.0427897,0,-0.000408094,
5.41667,0,0,-0.0405812,0,-0.000374824,
5.45833,0,0,-0.0384157,0,-0.000341561,
5.5,0,0,-0.0362936,0,-0.000308317,
5.54167,0,0,-0.0342152,0,-0.00027511,
5.58333,0,0,-0.0321811,0,-0.000241966,
5.625,0,0,-0.0301917,0,-0.000208922,
5.66667,0,0,-0.0282474,0,-0.00017603,
5.70833,0,0,-0.0263483,0,-0.000143347,
5.75,0,0,-0.0244944,0,-0.000110925,
5.79167,0,0,-0.0226849,0,-7.87901e-05,
5.83333,0,0,-0.0209192,0,-4.69502e-05,
5.875,0,0,-0.0191968,0,-1.54021e-05,
5.91667,0,0,-0.017517,0,1.58588e-05,
5.95833,0,0,-0.0158792,0,4.68348e-05,
6,0,0,-0.0142828,0,7.75256e-05,
6.04167,0,0,-0.0127274,0,0.000107929,
6.08333,0,0,-0.0112123,0,0.000138044,
6.125,0,0,-0.00973704,0,0.000167867,
6.16667,0,0,-0.00830103,0,0.000197397,
6.20833,0,0,-0.00690375,0,0.000226633,
6.25,0,0,-0.00554465,0,0.000255571,
6.29167,0,0,-0.00422321,0,0.000284208,
6.33333,0,0,-0.00293888,0,0.00031254,
6.375,0,0,-0.0016911,0,0.000340561,
6.41667,0,0,-0.000479307,0,0.000368268,
6.45833,0,0,0.000697075,0,0.000395658,
6.5,0,0,0.00183863,0,0.000422727,
6.54167,0,0,0.00294593,0,0.000449472,
6.58333,0,0,0.00401958,0,0.000475889,
6.625,0,0,0.00506018,0,0.000501974,
6.66667,0,0,0.00606834,0,0.000527725,
6.70833,0,0,0.00704468,0,0.00055314,
6.75,0,0,0.00798982,0,0.000578217,
6.79167,0,0,0.00890438,0,0.000602955,
6.83333,0,0,0.00978899,0,0.000627353,
6.875,0,0,0.0106443,0,0.000651411,
6.91667,0,0,0.0114708,0,0.000675129,
6.95833,0,0,0.0122693,0,0.000698508,
7,0,0,0.0130402,0,0.000721548,
7.04167,0,0,0.0137843,0,0.00074425,
7.08333,0,0,0.0145022,0,0.000766615,
7.125,0,0,0.0151943,0,0.000788645,
7.16667,0,0,0.0158614,0,0.000810342,
7.20833,0,0,0.0165039,0,0.000831709,
7.25,0,0,0.0171225,0,0.00085275,
7.29167,0,0,0.0177177,0,0.000873468,
7.33333,0,0,0.0182902,0,0.000893872,
7.375,0,0,0.0188405,0,0.000913972,
7.41667,0,0,0.0193692,0,0.000933776,
7.45833,0,0,0.0198767,0,0.000953289,
7.5,0,0,0.0203636,0,0.000972512,
7.54167,0,0,0.0208303,0,0.000991446,
7.58333,0,0,0.0212772,0,0.00101009,
7.625,0,0,0.0217049,0,0.00102844,
7.66667,0,0,0.0221137,0,0.00104651,
7.70833,0,0,0.022504,0,0.0010643,
7.75,0,0,0.0228763,0,0.00108181,
7.79167,0,0,0.0232308,0,0.00109904,
7.83333,0,0,0.0235674,0,0.001116,
7.875,0,0,0.023886,0,0.00113273,
7.91667,0,0,0.0241978,0,0.00114983,
7.95833,0,0,0.0244319,0,0.00116576,
8,0,0,0.0247554,0,0.0011817,
8.04171,0,0,0.0251005,0,0.00119873,
8.08368,0,0,0.0253121,0,0.00121555,
8.12617,0,0,0.0255667,0,0.00123061,
8.16946,0,0,0.025807,0,0.00124576,
8.21382,0,0,0.0260318,0,0.00126092,
8.25952,0,0,0.0262491,0,0.00127611,
8.30685,0,0,0.0264583,0,0.00129149,
8.35611,0,0,0.0266594,0,0.00130716,
8.40762,0,0,0.0268527,0,0.0013232,
8.46168,0,0,0.0270377,0,0.00133966,
8.51865,0,0,0.0272136,0,0.0013566,
8.57889,0,0,0.0273795,0,0.00137406,
8.64276,0,0,0.0275337,0,0.00139209,
8.71067,0,0,0.0276747,0,0.00141071,
8.78306,0,0,0.0278003,0,0.00142995,
8.86037,0,0,0.0279079,0,0.00144983,
8.94309,0,0,0.0279946,0,0.00147037,
9.03174,0,0,0.0280572,0,0.00149156,
9.12689,0,0,0.0280921,0,0.0015134,
9.22912,0,0,0.0280954,0,0.00153588,
9.33908,0,0,0.0280629,0,0.00155897,
9.45746,0,0,0.0279903,0,0.00158263,
9.58501,0,0,0.0278731,0,0.00160682,
9.72253,0,0,0.0277065,0,0.00163149,
9.87088,0,0,0.027486,0,0.00165654,
10.031,0,0,0.0272071,0,0.00168191,
10.2039,0,0,0.0268667,0,0.00170751,
10.3906,0,0,0.0264615,0,0.00173325,
10.5924,0,0,0.0259877,0,0.00175902,
10.8105,0,0,0.0254443,0,0.0017847,
11.0463,0,0,0.0248316,0,0.00181018,
11.3012,0,0,0.0241495,0,0.00183535,
11.5769,0,0,0.0234016,0,0.00186009,
11.8751,0,0,0.0225921,0,0.00188431,
12.1977,0,0,0.0217261,0,0.00190792,
12.5466,0,0,0.020812,0,0.00193082,
12.9242,0,0,0.019859,0,0.00195296,
13.3327,0,0,0.0188779,0,0.00197429,
13.7748,0,0,0.0178806,0,0.00199477,
14.2532,0,0,0.0168798,0,0.00201439,
14.7709,0,0,0.0158888,0,0.00203314,
15.3312,0,0,0.01492,0,0.00205106,
15.9377,0,0,0.0139861,0,0.00206817,
16.594,0,0,0.0130977,0,0.00208453,
17.3044,0,0,0.0122629,0,0.00210021,
18.0733,0,0,0.0114887,0,0.00211526,
18.9056,0,0,0.0107778,0,0.00212966,
19.8064,0,0,0.010131,0,0.00214325,
20.7816,0,0,0.0095458,0,0.00215612,
21.8371,0,0,0.00901577,0,0.00216863,
22.9796,0,0,0.00853265,0,0.00218098,
24.2163,0,0,0.00808436,0,0.00219331,
25.5551,0,0,0.00765647,0,0.00220568,
27.0042,0,0,0.00723385,0,0.0022182,
28.5729,0,0,0.00679943,0,0.00223092,
30.271,0,0,0.00633593,0,0.00224387,
32.1091,0,0,0.00582625,0,0.002257,
34.0989,0,0,0.00525571,0,0.00227024,
36.2529,0,0,0.00460701,0,0.00228363,
38.5845,0,0,0.0038723,0,0.00229712,
41.1085,0,0,0.00309226,0,0.00231059,
43.8407,0,0,0.00210682,0,0.00232176,
46.7983,0,0,0.00108554,0,0.00232835,
50,0,0,0.00214144,0,0.0023453,

