685f4cbfc0c016edbf6d61743866a19d8a29ee8d 
X,Z,x_velocity,cp,uw_b,cf,
1,0,0,-0.237234,0,0,
1,9,0,-0.127065,0,0,
1,1.01284,0.480652,-0.229592,-0.00958802,0,
1,0.000308731,0.000539547,-0.237233,-1.16161e-14,0,
1,0.000654158,0.00112364,-0.237234,-5.09597e-13,0,
1,0.00104139,0.00175408,-0.237233,-6.51929e-12,0,
1,0.00147619,0.00243105,-0.237233,-4.42959e-11,0,
1,0.00196502,0.00315269,-0.237233,-2.07642e-10,0,
1,0.00251518,0.0039144,-0.237233,-7.63463e-10,0,
1,0.0031349,0.00470758,-0.237233,-2.35882e-09,0,
1,0.00383341,0.00551819,-0.237233,-6.36055e-09,0,
1,0.00462115,0.00632453,-0.237232,-1.5242e-08,0,
1,0.00550983,0.00709447,-0.237232,-3.24647e-08,0,
1,0.00651264,0.0077814,-0.237232,-5.98155e-08,0,
1,0.00764438,0.00831941,-0.237232,-8.60347e-08,0,
1,0.00892169,0.00861771,-0.237231,-5.0865e-08,0,
1,0.0103632,0.00855831,-0.23723,2.47352e-07,0,
1,0.0119898,0.00800408,-0.237229,1.33292e-06,0,
1,0.0138248,0.00682928,-0.237227,4.2558e-06,0,
1,0.0158944,0.00496831,-0.237224,1.04829e-05,0,
1,0.0182274,0.00244749,-0.237219,2.11285e-05,0,
1,0.0208562,-0.000640053,-0.237211,3.62338e-05,0,
1,0.0238164,-0.00419265,-0.2372,5.49803e-05,0,
1,0.0271475,-0.00814191,-0.237185,7.60185e-05,0,
1,0.0308929,-0.0124568,-0.237167,9.82488e-05,0,
1,0.0351001,-0.0171278,-0.237145,0.00012089,0,
1,0.0398209,-0.0221475,-0.237119,0.000143236,0,
1,0.0451115,-0.0274954,-0.237091,0.000164491,0,
1,0.0510323,-0.0331265,-0.23706,0.000183702,0,
1,0.057648,-0.0389649,-0.237029,0.000199757,0,
1,0.0650269,-0.0449015,-0.236999,0.000211439,0,
1,0.0732406,-0.050798,-0.236974,0.000217527,0,
1,0.0823632,-0.0564959,-0.236956,0.000216943,0,
1,0.0924701,-0.06183,-0.236949,0.000208906,0,
1,0.103636,-0.066644,-0.236958,0.000193096,0,
1,0.115935,-0.0708063,-0.236985,0.00016966,0,
1,0.129436,-0.0742213,-0.237034,0.000139231,0,
1,0.144202,-0.0768342,-0.237108,0.000102815,0,
1,0.160284,-0.0786283,-0.237207,6.16058e-05,0,
1,0.177724,-0.0796171,-0.237333,1.67869e-05,0,
1,0.196544,-0.0798349,-0.237483,-3.06088e-05,0,
1,0.21675,-0.0793274,-0.237655,-7.97467e-05,0,
1,0.238323,-0.0781451,-0.237846,-0.000129957,0,
1,0.26122,-0.0763395,-0.238052,-0.000180658,0,
1,0.28537,-0.0739611,-0.238267,-0.000231278,0,
1,0.310673,-0.07106,-0.238486,-0.000281213,0,
1,0.337003,-0.0676866,-0.238703,-0.000329763,0,
1,0.364206,-0.0638923,-0.238913,-0.000376132,0,
1,0.392107,-0.0597315,-0.239109,-0.000419449,0,
1,0.420509,-0.0552611,-0.239285,-0.000458789,0,
1,0.449206,-0.0505416,-0.239438,-0.000493196,0,
1,0.477982,-0.0456358,-0.239565,-0.000521734,0,
1,0.506624,-0.0406069,-0.239662,-0.00054355,0,
1,0.534925,-0.0355137,-0.239729,-0.000558125,0,
1,0.562692,-0.030401,-0.239765,-0.000565555,0,
1,0.589754,-0.0252854,-0.239771,-0.000567369,0,
1,0.615961,-0.0201319,-0.239744,-0.000567052,0,
1,0.641193,-0.0148381,-0.239681,-0.000569974,0,
1,0.665359,-0.00923668,-0.239574,-0.000594702,0,
1,0.688396,-0.00304885,-0.239417,-0.000651733,0,
1,0.710271,0.00418471,-0.239209,-0.000763232,0,
1,0.730976,0.0130796,-0.238957,-0.000954748,0,
1,0.750529,0.0242824,-0.238671,-0.0012507,0,
1,0.768969,0.0382347,-0.238363,-0.00166785,0,
1,0.78635,0.0549273,-0.238043,-0.00220986,0,
1,0.802743,0.0738852,-0.237712,-0.00285574,0,
1,0.818232,0.0944154,-0.237382,-0.00356556,0,
1,0.832689,0.115591,-0.237046,-0.00429597,0,
1,0.846039,0.136635,-0.236717,-0.00500775,0,
1,0.858357,0.15715,-0.23639,-0.00567776,0,
1,0.869723,0.176891,-0.236068,-0.00629554,0,
1,0.880212,0.195715,-0.235751,-0.00685615,0,
1,0.889898,0.213546,-0.235441,-0.00735812,0,
1,0.898852,0.230357,-0.23514,-0.00780368,0,
1,0.907141,0.246159,-0.234847,-0.00819738,0,
1,0.914826,0.260995,-0.234564,-0.00854,0,
1,0.921966,0.274941,-0.234288,-0.00883675,0,
1,0.928616,0.288087,-0.234018,-0.00909178,0,
1,0.934823,0.300521,-0.233753,-0.00930956,0,
1,0.940633,0.312327,-0.233494,-0.00949587,0,
1,0.946088,0.323576,-0.233242,-0.00965403,0,
1,0.951224,0.334329,-0.232997,-0.00978688,0,
1,0.956076,0.344644,-0.232758,-0.00989689,0,
1,0.960675,0.35457,-0.232526,-0.00998619,0,
1,0.965047,0.364153,-0.2323,-0.0100567,0,
1,0.969219,0.373435,-0.23208,-0.0101098,0,
1,0.973211,0.382453,-0.231866,-0.0101471,0,
1,0.977045,0.391243,-0.231657,-0.0101694,0,
1,0.980739,0.399838,-0.231453,-0.0101779,0,
1,0.984308,0.408267,-0.231253,-0.0101732,0,
1,0.987768,0.416557,-0.231057,-0.0101558,0,
1,0.991131,0.424735,-0.230865,-0.0101262,0,
1,0.99441,0.432823,-0.230676,-0.0100846,0,
1,0.997615,0.440845,-0.23049,-0.0100313,0,
1,1.00076,0.448822,-0.230306,-0.00996633,0,
1,1.00384,0.456772,-0.230124,-0.00988958,0,
1,1.00688,0.464715,-0.229945,-0.00980095,0,
1,1.00988,0.472669,-0.229767,-0.00970032,0,
1,1.01581,0.488767,-0.229415,-0.0094612,0,
1,1.01882,0.49713,-0.229236,-0.00931625,0,
1,1.02188,0.505767,-0.229055,-0.00915203,0,
1,1.025,0.51471,-0.228871,-0.0089667,0,
1,1.02818,0.523988,-0.228685,-0.00875855,0,
1,1.03144,0.533627,-0.228498,-0.00852687,0,
1,1.03478,0.543649,-0.228309,-0.0082681,0,
1,1.03822,0.554079,-0.22812,-0.0079798,0,
1,1.04177,0.564937,-0.227929,-0.0076594,0,
1,1.04544,0.576242,-0.227737,-0.00730436,0,
1,1.04925,0.588003,-0.227545,-0.00691231,0,
1,1.05321,0.600217,-0.227354,-0.00648149,0,
1,1.05735,0.612859,-0.227163,-0.00601119,0,
1,1.06169,0.625876,-0.226975,-0.00550274,0,
1,1.06626,0.639169,-0.226791,-0.00496067,0,
1,1.07108,0.652581,-0.226612,-0.00439432,0,
1,1.07618,0.665887,-0.226442,-0.00381926,0,
1,1.0816,0.678797,-0.226283,-0.00325761,0,
1,1.08738,0.690989,-0.226137,-0.00273589,0,
1,1.09357,0.70218,-0.226006,-0.00227945,0,
1,1.10022,0.712205,-0.225889,-0.0019058,0,
1,1.10739,0.721076,-0.225783,-0.00162033,0,
1,1.11514,0.728958,-0.225684,-0.00141773,0,
1,1.12354,0.736108,-0.225584,-0.00128423,0,
1,1.13268,0.74279,-0.225477,-0.0012029,0,
1,1.14266,0.749237,-0.225356,-0.00115722,0,
1,1.15357,0.755622,-0.225216,-0.0011338,0,
1,1.16554,0.762067,-0.225053,-0.00112249,0,
1,1.1787,0.768648,-0.224861,-0.00111652,0,
1,1.1932,0.775412,-0.224638,-0.00111214,0,
1,1.2092,0.782387,-0.224378,-0.0011069,0,
1,1.22689,0.789594,-0.224076,-0.00109972,0,
1,1.24659,0.79708,-0.223722,-0.00108976,0,
1,1.26879,0.804934,-0.223306,-0.00107795,0,
1,1.29378,0.813161,-0.22281,-0.00106454,0,
1,1.3219,0.821766,-0.222238,-0.0010502,0,
1,1.35351,0.830773,-0.221539,-0.001028,0,
1,1.389,0.84021,-0.220701,-0.000984575,0,
1,1.42882,0.850082,-0.219743,-0.000944048,0,
1,1.47342,0.86041,-0.218637,-0.000903819,0,
1,1.52332,0.871264,-0.217359,-0.000862046,0,
1,1.57905,0.882744,-0.21589,-0.000816996,0,
1,1.64119,0.894982,-0.214207,-0.000766643,0,
1,1.71033,0.908137,-0.212287,-0.000708748,0,
1,1.78711,0.922351,-0.210111,-0.000640834,0,
1,1.87215,0.93768,-0.207656,-0.000561462,0,
1,1.9661,0.953958,-0.204907,-0.000471057,0,
1,2.06959,0.970632,-0.20184,-0.000373984,0,
1,2.18321,0.986692,-0.198481,-0.000269595,0,
1,2.30752,1.00081,-0.194878,-0.000137816,0,
1,2.44299,1.01143,-0.191017,-4.57052e-05,0,
1,2.59002,1.01717,-0.186962,-4.13885e-06,0,
1,2.74885,1.01792,-0.182804,1.13634e-06,0,
1,2.91959,1.01547,-0.178613,1.03768e-07,0,
1,3.10217,1.01226,-0.174452,5.62555e-08,0,
1,3.2963,1.00966,-0.170368,4.43818e-08,0,
1,3.50146,1.0078,-0.166393,3.54894e-08,0,
1,3.7169,1.00631,-0.162561,3.09597e-08,0,
1,3.94163,1.00488,-0.158903,2.86957e-08,0,
1,4.17441,1.00345,-0.155447,2.67397e-08,0,
1,4.41376,1.00206,-0.152213,2.45531e-08,0,
1,4.65805,1.00078,-0.149215,2.22494e-08,0,
1,4.90545,0.999602,-0.14646,2.00833e-08,0,
1,5.15407,0.998541,-0.143948,1.81202e-08,0,
1,5.40194,0.997588,-0.141677,1.64055e-08,0,
1,5.64716,0.996733,-0.139639,1.50005e-08,0,
1,5.88785,0.995948,-0.137822,1.39965e-08,0,
1,6.12229,0.995199,-0.136212,1.3155e-08,0,
1,6.34896,0.994516,-0.134796,1.16452e-08,0,
1,6.56652,0.994094,-0.133555,8.95204e-09,0,
1,6.77388,0.994232,-0.132474,1.24155e-09,0,
1,6.97022,0.994885,-0.131534,7.72713e-09,0,
1,7.15495,0.994895,-0.130718,1.79633e-06,0,
1,7.32773,0.991768,-0.130015,1.87499e-05,0,
1,7.48842,0.982927,-0.129417,7.89313e-05,0,
1,7.63711,0.967861,-0.128929,0.000213899,0,
1,7.77403,0.948602,-0.128514,0.000407113,0,
1,7.89956,0.927535,-0.128166,0.000566536,0,
1,8.01417,0.90628,-0.127902,0.000724117,0,
1,8.11843,0.88602,-0.127681,0.000859837,0,
1,8.21296,0.86724,-0.12751,0.000968739,0,
1,8.29839,0.849928,-0.127375,0.00105323,0,
1,8.3754,0.833838,-0.127273,0.00111805,0,
1,8.44464,0.818663,-0.127196,0.00116831,0,
1,8.50675,0.804111,-0.127139,0.00120662,0,
1,8.56236,0.789921,-0.127096,0.00123408,0,
1,8.61206,0.775944,-0.127067,0.00126182,0,
1,8.6564,0.762132,-0.127046,0.00128589,0,
1,8.69591,0.748452,-0.127032,0.00130634,0,
1,8.73107,0.734874,-0.127023,0.00132353,0,
1,8.76232,0.721373,-0.127019,0.00133778,0,
1,8.79007,0.707928,-0.127017,0.0013493,0,
1,8.81469,0.694518,-0.127017,0.00135831,0,
1,8.83651,0.681126,-0.127018,0.00136499,0,
1,8.85584,0.667736,-0.127021,0.00136947,0,
1,8.87295,0.65433,-0.127024,0.00137191,0,
1,8.8881,0.640891,-0.127027,0.00137241,0,
1,8.90149,0.6274,-0.127031,0.00137108,0,
1,8.91333,0.613837,-0.127034,0.001368,0,
1,8.92379,0.600177,-0.127038,0.00136322,0,
1,8.93303,0.586394,-0.127041,0.00135678,0,
1,8.9412,0.572457,-0.127044,0.00134867,0,
1,8.9484,0.55833,-0.127047,0.00133885,0,
1,8.95476,0.543971,-0.12705,0.00132722,0,
1,8.96038,0.529331,-0.127052,0.00131363,0,
1,8.96533,0.514355,-0.127054,0.00129783,0,
1,8.9697,0.498976,-0.127056,0.00127948,0,
1,8.97356,0.483116,-0.127057,0.00125809,0,
1,8.97696,0.46668,-0.127059,0.00123299,0,
1,8.97996,0.44956,-0.12706,0.00120327,0,
1,8.98261,0.431622,-0.127061,0.00116776,0,
1,8.98494,0.412709,-0.127061,0.00112558,0,
1,8.98699,0.392605,-0.127062,0.00107223,0,
1,8.98881,0.371013,-0.127063,0.0010028,0,
1,8.99041,0.347626,-0.127063,0.000917741,0,
1,8.99182,0.322205,-0.127063,0.000814135,0,
1,8.99306,0.294573,-0.127064,0.000690202,0,
1,8.99416,0.264518,-0.127064,0.000531038,0,
1,8.99512,0.231988,-0.127064,0.000350718,0,
1,8.99597,0.197818,-0.127064,0.000192007,0,
1,8.99672,0.163772,-0.127064,8.33073e-05,0,
1,8.99739,0.131639,-0.127064,2.82886e-05,0,
1,8.99797,0.102472,-0.127064,7.4969e-06,0,
1,8.99848,0.0765243,-0.127064,1.50179e-06,0,
1,8.99894,0.0536165,-0.127064,2.04935e-07,0,
1,8.99934,0.0334361,-0.127064,1.48575e-08,0,
1,8.99969,0.0156648,-0.127064,3.17862e-10,0,

4,0,0,-0.113315,0,0,
4,9,0,-0.0962263,0,0,
4,1.05136,0.674701,-0.120957,-0.00439265,0,
4,0.000303409,-0.00621129,-0.113319,7.75455e-11,0,
4,0.00062865,-0.0127286,-0.113316,3.165e-09,0,
4,0.000979511,-0.0195981,-0.113319,3.6871e-08,0,
4,0.00136016,-0.0268604,-0.113317,2.28719e-07,0,
4,0.00177519,-0.0345479,-0.11332,9.8622e-07,0,
4,0.0022297,-0.0426728,-0.113318,3.35733e-06,0,
4,0.00272934,-0.0512001,-0.11332,9.61115e-06,0,
4,0.00328037,-0.0599963,-0.113319,2.37389e-05,0,
4,0.00388979,-0.0687559,-0.113322,5.0566e-05,0,
4,0.00456537,-0.0769757,-0.113322,9.15295e-05,0,
4,0.00531578,-0.0841,-0.113326,0.000139315,0,
4,0.0061507,-0.0898041,-0.11333,0.000180148,0,
4,0.0070809,-0.0941164,-0.113339,0.000204037,0,
4,0.00811839,-0.0972788,-0.113349,0.000209562,0,
4,0.00927657,-0.0995663,-0.113365,0.00020005,0,
4,0.0105703,-0.101203,-0.113384,0.000179212,0,
4,0.0120162,-0.102347,-0.113409,0.000149615,0,
4,0.0136326,-0.10311,-0.113439,0.000112691,0,
4,0.0154398,-0.103563,-0.113477,6.90881e-05,0,
4,0.0174603,-0.103755,-0.113521,1.89549e-05,0,
4,0.0197189,-0.103718,-0.113573,-3.78796e-05,0,
4,0.0222427,-0.103473,-0.113635,-0.000101803,0,
4,0.0250617,-0.103032,-0.113707,-0.000173362,0,
4,0.0282081,-0.102402,-0.11379,-0.000253225,0,
4,0.0317171,-0.101585,-0.113887,-0.000342167,0,
4,0.0356266,-0.100578,-0.113997,-0.000441053,0,
4,0.039977,-0.0993772,-0.114124,-0.000550827,0,
4,0.0448114,-0.0979754,-0.114267,-0.000672504,0,
4,0.0501747,-0.096363,-0.114429,-0.000807157,0,
4,0.056114,-0.0945283,-0.114611,-0.000955904,0,
4,0.062677,-0.0924578,-0.114813,-0.00111989,0,
4,0.0699123,-0.0901362,-0.115038,-0.00130025,0,
4,0.0778675,-0.0875467,-0.115284,-0.00149811,0,
4,0.0865883,-0.0846709,-0.115553,-0.00171452,0,
4,0.0961173,-0.081489,-0.115844,-0.00195044,0,
4,0.106492,-0.0779805,-0.116155,-0.00220665,0,
4,0.117744,-0.0741241,-0.116486,-0.00248377,0,
4,0.129894,-0.0698982,-0.116835,-0.00278211,0,
4,0.142956,-0.0652821,-0.117198,-0.00310173,0,
4,0.156928,-0.0602563,-0.117573,-0.00344229,0,
4,0.171798,-0.0548036,-0.117956,-0.00380308,0,
4,0.187537,-0.0489105,-0.118343,-0.00418296,0,
4,0.2041,-0.0425683,-0.118732,-0.00458044,0,
4,0.221432,-0.0357747,-0.119119,-0.00499366,0,
4,0.239458,-0.0285346,-0.1195,-0.00542064,0,
4,0.258095,-0.0208605,-0.119873,-0.00585944,0,
4,0.27725,-0.01277,-0.120234,-0.00630772,0,
4,0.296825,-0.00428149,-0.120584,-0.00676073,0,
4,0.316717,0.00458821,-0.120923,-0.00721288,0,
4,0.336828,0.013816,-0.12125,-0.00766354,0,
4,0.357066,0.0233662,-0.121563,-0.00811257,0,
4,0.377348,0.0331955,-0.121853,-0.00855868,0,
4,0.397605,0.0432649,-0.12221,-0.00904763,0,
4,0.417786,0.053658,-0.122255,-0.00960106,0,
4,0.437857,0.0648225,-0.12179,-0.00983037,0,
4,0.457804,0.0772667,-0.121289,-0.0100662,0,
4,0.477632,0.0910416,-0.120988,-0.0103023,0,
4,0.497368,0.105917,-0.120862,-0.0105218,0,
4,0.517057,0.121607,-0.120853,-0.0107126,0,
4,0.536763,0.13792,-0.120895,-0.0108684,0,
4,0.556564,0.154814,-0.120943,-0.0109874,0,
4,0.576557,0.172363,-0.120976,-0.0110695,0,
4,0.596848,0.190717,-0.120991,-0.011114,0,
4,0.617561,0.210053,-0.120993,-0.0111186,0,
4,0.637962,0.229766,-0.120985,-0.011082,0,
4,0.657495,0.249336,-0.120974,-0.0110069,0,
4,0.676218,0.268771,-0.120965,-0.0108955,0,
4,0.694189,0.288065,-0.120958,-0.0107501,0,
4,0.711463,0.307206,-0.120952,-0.0105732,0,
4,0.728096,0.326178,-0.120948,-0.0103676,0,
4,0.744138,0.344956,-0.120944,-0.0101369,0,
4,0.759639,0.363504,-0.12094,-0.00988559,0,
4,0.774643,0.381769,-0.120937,-0.00961901,0,
4,0.789195,0.399685,-0.120935,-0.00934281,0,
4,0.803334,0.417186,-0.120933,-0.00906103,0,
4,0.817097,0.434211,-0.120931,-0.00877722,0,
4,0.830518,0.450714,-0.120928,-0.00849441,0,
4,0.843629,0.466667,-0.120926,-0.00821513,0,
4,0.856459,0.482052,-0.120924,-0.0079414,0,
4,0.869035,0.496865,-0.120922,-0.00767482,0,
4,0.881383,0.51111,-0.120922,-0.00741657,0,
4,0.893524,0.524797,-0.120923,-0.00716746,0,
4,0.905481,0.537947,-0.120928,-0.00692799,0,
4,0.917272,0.550583,-0.120935,-0.00669833,0,
4,0.928915,0.562736,-0.120945,-0.00647838,0,
4,0.940428,0.574437,-0.120958,-0.00626788,0,
4,0.951826,0.585718,-0.120972,-0.00606796,0,
4,0.963124,0.596606,-0.120985,-0.00587765,0,
4,0.974334,0.607134,-0.120998,-0.00569594,0,
4,0.98547,0.617332,-0.121008,-0.00552172,0,
4,0.996544,0.627242,-0.121017,-0.00535374,0,
4,1.00757,0.636916,-0.12102,-0.00519037,0,
4,1.01855,0.646439,-0.121013,-0.00501109,0,
4,1.0295,0.655902,-0.120996,-0.00481056,0,
4,1.04044,0.665331,-0.120977,-0.00460833,0,
4,1.0623,0.683998,-0.120935,-0.0041646,0,
4,1.07328,0.693202,-0.120911,-0.00392593,0,
4,1.08432,0.702276,-0.120885,-0.00367894,0,
4,1.09543,0.711174,-0.120857,-0.00342634,0,
4,1.10661,0.719849,-0.120827,-0.00317135,0,
4,1.11788,0.72825,-0.120794,-0.00291759,0,
4,1.12925,0.736327,-0.120759,-0.00266899,0,
4,1.14073,0.744029,-0.120721,-0.00242964,0,
4,1.15233,0.751316,-0.12068,-0.00220352,0,
4,1.16408,0.758156,-0.120636,-0.00199418,0,
4,1.17599,0.764531,-0.120589,-0.00180448,0,
4,1.18806,0.770441,-0.120538,-0.00163632,0,
4,1.20034,0.775905,-0.120485,-0.00149052,0,
4,1.21282,0.780955,-0.120428,-0.00136687,0,
4,1.22554,0.785637,-0.120368,-0.00126421,0,
4,1.23852,0.790004,-0.120305,-0.00118072,0,
4,1.25179,0.79411,-0.12024,-0.00111416,0,
4,1.26537,0.798009,-0.120172,-0.0010621,0,
4,1.2793,0.801753,-0.120101,-0.0010221,0,
4,1.29362,0.805387,-0.120028,-0.000991865,0,
4,1.30836,0.808951,-0.119953,-0.000969296,0,
4,1.32357,0.812481,-0.119874,-0.000952542,0,
4,1.3393,0.816009,-0.119793,-0.000940007,0,
4,1.3556,0.819559,-0.119707,-0.00093036,0,
4,1.37252,0.823157,-0.11962,-0.000922534,0,
4,1.39015,0.826823,-0.119523,-0.000918757,0,
4,1.40855,0.830601,-0.119432,-0.000909537,0,
4,1.42781,0.834562,-0.119351,-0.0008923,0,
4,1.44801,0.838755,-0.11926,-0.000874439,0,
4,1.46926,0.843179,-0.11916,-0.000855992,0,
4,1.49167,0.847822,-0.119049,-0.000836827,0,
4,1.51537,0.852684,-0.118928,-0.000817236,0,
4,1.54091,0.857852,-0.118793,-0.000797082,0,
4,1.56949,0.863535,-0.11864,-0.000775745,0,
4,1.60144,0.869794,-0.118464,-0.000752277,0,
4,1.63713,0.876674,-0.118263,-0.000726124,0,
4,1.67693,0.884203,-0.118034,-0.000696754,0,
4,1.72128,0.8924,-0.117774,-0.000663657,0,
4,1.77062,0.901258,-0.117474,-0.00062674,0,
4,1.82542,0.910731,-0.117135,-0.000585857,0,
4,1.88618,0.920737,-0.116743,-0.000540978,0,
4,1.95343,0.931203,-0.116313,-0.000475382,0,
4,2.02768,0.942013,-0.115841,-0.0003938,0,
4,2.10949,0.952831,-0.115308,-0.000305191,0,
4,2.19939,0.963091,-0.114719,-0.000215546,0,
4,2.29789,0.972118,-0.11407,-0.000134064,0,
4,2.40551,0.979231,-0.113365,-6.89712e-05,0,
4,2.52268,0.983891,-0.112607,-2.5298e-05,0,
4,2.64979,0.985924,-0.111806,-3.34311e-06,0,
4,2.78715,0.985708,-0.110969,2.52702e-06,0,
4,2.93497,0.984164,-0.110106,1.5406e-06,0,
4,3.09333,0.982408,-0.109224,3.1414e-07,0,
4,3.26217,0.981216,-0.108334,3.06092e-08,0,
4,3.44125,0.980739,-0.107447,6.17442e-09,0,
4,3.63018,0.980685,-0.10657,2.76554e-09,0,
4,3.82836,0.980705,-0.10571,2.77262e-09,0,
4,4.03501,0.980622,-0.104875,3.75304e-09,0,
4,4.24915,0.980429,-0.10407,4.37052e-09,0,
4,4.46961,0.980193,-0.1033,4.38001e-09,0,
4,4.69507,0.979965,-0.10257,4.04921e-09,0,
4,4.92406,0.979764,-0.101882,3.6805e-09,0,
4,5.15502,0.979585,-0.10124,3.41232e-09,0,
4,5.3863,0.979417,-0.100643,3.31661e-09,0,
4,5.61626,0.979247,-0.100092,3.51056e-09,0,
4,5.84328,0.979061,-0.0995885,4.30872e-09,0,
4,6.06579,0.978861,-0.0991299,6.43516e-09,0,
4,6.28238,0.978712,-0.0987152,8.29216e-09,0,
4,6.49173,0.978778,-0.098342,-2.11619e-08,0,
4,6.69275,0.979225,-0.0980073,-2.07893e-07,0,
4,6.88453,0.979892,-0.0977068,-2.7119e-07,0,
4,7.06634,0.979839,-0.0974364,4.15923e-06,0,
4,7.23771,0.977217,-0.0971964,2.76763e-05,0,
4,7.39831,0.969972,-0.0969844,9.14899e-05,0,
4,7.54803,0.957161,-0.0968108,0.000210203,0,
4,7.68693,0.939654,-0.0966629,0.000362426,0,
4,7.81519,0.919344,-0.0965271,0.000506394,0,
4,7.93313,0.898152,-0.0964224,0.000657356,0,
4,8.04115,0.877601,-0.0963281,0.00079662,0,
4,8.13974,0.858448,-0.0962526,0.000913786,0,
4,8.22941,0.840828,-0.0961929,0.00100752,0,
4,8.31073,0.824544,-0.0961491,0.00108117,0,
4,8.38429,0.809284,-0.0961189,0.00113897,0,
4,8.45065,0.794725,-0.0961007,0.0011853,0,
4,8.5104,0.780575,-0.096092,0.00121901,0,
4,8.56407,0.766642,-0.0960897,0.00125005,0,
4,8.61222,0.752859,-0.0960916,0.00127831,0,
4,8.65533,0.739208,-0.096096,0.00130212,0,
4,8.69387,0.725671,-0.0961025,0.00132177,0,
4,8.7283,0.712235,-0.0961102,0.00133764,0,
4,8.75901,0.698887,-0.0961188,0.00135001,0,
4,8.78637,0.685615,-0.0961277,0.00135913,0,
4,8.81074,0.67241,-0.0961367,0.00136519,0,
4,8.83242,0.659263,-0.0961456,0.00136841,0,
4,8.85169,0.646164,-0.0961541,0.001369,0,
4,8.86881,0.633101,-0.0961621,0.00136717,0,
4,8.88402,0.620063,-0.0961697,0.00136314,0,
4,8.89751,0.607033,-0.0961766,0.00135713,0,
4,8.90949,0.593992,-0.0961829,0.00134932,0,
4,8.92011,0.580919,-0.0961887,0.00133988,0,
4,8.92952,0.567788,-0.0961938,0.00132897,0,
4,8.93787,0.554567,-0.0961984,0.00131666,0,
4,8.94526,0.541222,-0.0962025,0.00130301,0,
4,8.95182,0.527712,-0.0962061,0.001288,0,
4,8.95762,0.513992,-0.0962092,0.00127154,0,
4,8.96276,0.500009,-0.096212,0.00125348,0,
4,8.96731,0.485702,-0.0962143,0.00123355,0,
4,8.97134,0.471,-0.0962164,0.00121138,0,
4,8.97491,0.455821,-0.0962181,0.00118645,0,
4,8.97807,0.440071,-0.0962196,0.00115805,0,
4,8.98087,0.423635,-0.0962209,0.00112522,0,
4,8.98334,0.406382,-0.0962219,0.00108672,0,
4,8.98553,0.38815,-0.0962229,0.00104141,0,
4,8.98747,0.368735,-0.0962235,0.000985541,0,
4,8.98919,0.347857,-0.0962242,0.000913848,0,
4,8.9907,0.325236,-0.0962246,0.000827465,0,
4,8.99205,0.300674,-0.0962251,0.000724257,0,
4,8.99324,0.274014,-0.0962253,0.000600371,0,
4,8.99429,0.245053,-0.0962256,0.000441741,0,
4,8.99522,0.213974,-0.0962256,0.000282835,0,
4,8.99605,0.181879,-0.0962259,0.000149233,0,
4,8.99677,0.15038,-0.0962258,6.29274e-05,0,
4,8.99742,0.120925,-0.096226,2.10731e-05,0,
4,8.99799,0.094267,-0.0962259,5.57979e-06,0,
4,8.9985,0.0705266,-0.0962261,1.1254e-06,0,
4,8.99894,0.04951,-0.0962259,1.5511e-07,0,
4,8.99934,0.0309345,-0.0962262,1.13609e-08,0,
4,8.99969,0.0145198,-0.0962259,2.44891e-10,0,

6,0,0,0.00526682,0,0,
6,9,0,-0.073189,0,0,
6,1.07704,0.705044,-0.00858412,-0.0024338,0,
6,0.000299862,0.00300843,0.00526062,-3.77e-11,0,
6,0.000611645,0.00619043,0.00526556,-1.50722e-09,0,
6,0.000938257,0.00958257,0.00526072,-1.69017e-08,0,
6,0.00128281,0.0132243,0.00526445,-1.00899e-07,0,
6,0.00164864,0.0171584,0.0052606,-4.20826e-07,0,
6,0.00203939,0.0214288,0.00526341,-1.39797e-06,0,
6,0.00245897,0.0260736,0.00526024,-3.96205e-06,0,
6,0.00291168,0.0311098,0.00526229,-9.92346e-06,0,
6,0.00340221,0.0365052,0.00525942,-2.22582e-05,0,
6,0.00393573,0.0421392,0.00526051,-4.46128e-05,0,
6,0.00451788,0.0477827,0.00525711,-7.9168e-05,0,
6,0.00515491,0.0531455,0.0052562,-0.000123823,0,
6,0.00585371,0.0579916,0.00525059,-0.000172324,0,
6,0.00662185,0.0622236,0.00524582,-0.000218334,0,
6,0.00746774,0.0658697,0.00523608,-0.000258807,0,
6,0.00840063,0.0690214,0.00522568,-0.000293821,0,
6,0.00943073,0.0717815,0.0052102,-0.00032486,0,
6,0.0105693,0.0742408,0.00519264,-0.000353594,0,
6,0.0118288,0.0764727,0.00516979,-0.000381441,0,
6,0.0132228,0.0785342,0.00514338,-0.000409514,0,
6,0.0147664,0.0804697,0.00511111,-0.000438689,0,
6,0.016476,0.0823138,0.00507371,-0.000469684,0,
6,0.0183694,0.0840942,0.00502948,-0.000503119,0,
6,0.0204662,0.0858336,0.00497836,-0.000539562,0,
6,0.0227875,0.0875509,0.00491898,-0.000579558,0,
6,0.0253561,0.0892625,0.00485077,-0.000623646,0,
6,0.0281964,0.0909827,0.00477247,-0.000672375,0,
6,0.0313344,0.0927248,0.00468318,-0.000726311,0,
6,0.0347975,0.0945006,0.00458166,-0.00078604,0,
6,0.0386145,0.0963216,0.00446683,-0.000852171,0,
6,0.042815,0.0981986,0.00433748,-0.000925336,0,
6,0.0474296,0.100142,0.00419248,-0.00100618,0,
6,0.0524888,0.102162,0.00403075,-0.00109536,0,
6,0.0580229,0.104269,0.00385131,-0.00119353,0,
6,0.0640611,0.106472,0.00365335,-0.00130135,0,
6,0.0706309,0.108781,0.00343626,-0.00141942,0,
6,0.077757,0.111205,0.00319971,-0.00154833,0,
6,0.0854609,0.113753,0.00294368,-0.00168858,0,
6,0.0937597,0.116433,0.0026685,-0.00184061,0,
6,0.102665,0.119253,0.00237493,-0.00200472,0,
6,0.112183,0.122221,0.0020641,-0.00218113,0,
6,0.122315,0.125341,0.00173753,-0.0023699,0,
6,0.133052,0.128622,0.00139713,-0.00257094,0,
6,0.144384,0.132066,0.00104509,-0.00278402,0,
6,0.156292,0.135679,0.000683818,-0.00300876,0,
6,0.168754,0.139464,0.000315856,-0.00324466,0,
6,0.181744,0.143425,-5.62347e-05,-0.00349113,0,
6,0.195237,0.147566,-0.000429974,-0.00374748,0,
6,0.209207,0.151891,-0.000803058,-0.00401301,0,
6,0.223631,0.156405,-0.00117344,-0.00428704,0,
6,0.238493,0.161117,-0.00153937,-0.00456892,0,
6,0.253785,0.166037,-0.00189944,-0.00485812,0,
6,0.269507,0.171177,-0.00225263,-0.00515421,0,
6,0.28567,0.176557,-0.00259815,-0.00545691,0,
6,0.3023,0.1822,-0.00293571,-0.0057661,0,
6,0.319433,0.188135,-0.00326533,-0.00608267,0,
6,0.337122,0.1944,-0.0035836,-0.00640667,0,
6,0.355433,0.201046,-0.00388344,-0.00673777,0,
6,0.374445,0.20814,-0.00415791,-0.00707612,0,
6,0.394252,0.215772,-0.00439851,-0.0074199,0,
6,0.414961,0.224054,-0.00458782,-0.00776887,0,
6,0.436695,0.233121,-0.00481943,-0.0081371,0,
6,0.459585,0.243166,-0.00485476,-0.00866748,0,
6,0.48378,0.254796,-0.0042518,-0.00874982,0,
6,0.508144,0.268184,-0.00338088,-0.00882629,0,
6,0.531799,0.282992,-0.00286421,-0.00891165,0,
6,0.554791,0.298914,-0.00264415,-0.00898306,0,
6,0.577166,0.315507,-0.00261918,-0.00901971,0,
6,0.598964,0.332421,-0.00267886,-0.00901023,0,
6,0.620228,0.349475,-0.00275646,-0.00895153,0,
6,0.640996,0.366618,-0.00282518,-0.00884533,0,
6,0.661304,0.383852,-0.00288426,-0.00869503,0,
6,0.681188,0.401183,-0.00294407,-0.00850445,0,
6,0.700681,0.41858,-0.00301598,-0.00827789,0,
6,0.719813,0.435978,-0.00310805,-0.0080209,0,
6,0.738612,0.453281,-0.00322385,-0.00773992,0,
6,0.757107,0.47038,-0.00336304,-0.00744092,0,
6,0.775322,0.48718,-0.00352319,-0.00712922,0,
6,0.793282,0.5036,-0.00370171,-0.00680955,0,
6,0.811008,0.519583,-0.00389646,-0.00648612,0,
6,0.828521,0.535086,-0.0041063,-0.00616272,0,
6,0.845842,0.550067,-0.00433016,-0.0058429,0,
6,0.862989,0.56448,-0.00456875,-0.00553406,0,
6,0.879979,0.578282,-0.00482122,-0.00523962,0,
6,0.896829,0.591456,-0.00508466,-0.00495817,0,
6,0.913555,0.604022,-0.00535785,-0.00468876,0,
6,0.930172,0.616022,-0.00564018,-0.00443065,0,
6,0.946694,0.627504,-0.00593157,-0.0041831,0,
6,0.963136,0.63851,-0.0062321,-0.0039453,0,
6,0.97951,0.649078,-0.00654152,-0.00371636,0,
6,0.99583,0.659241,-0.00686009,-0.00349512,0,
6,1.01211,0.669036,-0.00718699,-0.00328007,0,
6,1.02836,0.67851,-0.00752437,-0.00306103,0,
6,1.04459,0.687687,-0.00787077,-0.00284608,0,
6,1.06081,0.696544,-0.00822362,-0.00263696,0,
6,1.09329,0.713154,-0.0089515,-0.00223933,0,
6,1.10959,0.720846,-0.00932589,-0.00205633,0,
6,1.12595,0.728099,-0.00970682,-0.00188728,0,
6,1.14238,0.734902,-0.010094,-0.00173411,0,
6,1.1589,0.741258,-0.0104869,-0.00159805,0,
6,1.17551,0.747185,-0.0108854,-0.00147955,0,
6,1.19223,0.752711,-0.0112893,-0.00137829,0,
6,1.20907,0.757875,-0.0116982,-0.00129328,0,
6,1.22605,0.762724,-0.0121122,-0.00122303,0,
6,1.24318,0.767302,-0.0125313,-0.00116574,0,
6,1.26048,0.771657,-0.0129556,-0.00111954,0,
6,1.27797,0.775831,-0.0133846,-0.0010825,0,
6,1.29566,0.779862,-0.0138205,-0.00105322,0,
6,1.31357,0.783787,-0.0142572,-0.00103816,0,
6,1.33173,0.787699,-0.0147125,-0.00100986,0,
6,1.35015,0.791729,-0.0151906,-0.000977895,0,
6,1.36886,0.795935,-0.0156718,-0.000947242,0,
6,1.38788,0.800285,-0.0161563,-0.0009198,0,
6,1.40725,0.804706,-0.0166433,-0.000895405,0,
6,1.42698,0.80914,-0.0171358,-0.000873504,0,
6,1.44712,0.813563,-0.0176362,-0.000853025,0,
6,1.46769,0.817985,-0.0181474,-0.000832908,0,
6,1.48874,0.822429,-0.0186706,-0.000813021,0,
6,1.5103,0.826918,-0.0192066,-0.000793084,0,
6,1.53242,0.831469,-0.0197561,-0.00077293,0,
6,1.55515,0.836093,-0.0203199,-0.000752475,0,
6,1.57854,0.840794,-0.020899,-0.000731676,0,
6,1.60265,0.845578,-0.0214942,-0.000710499,0,
6,1.62754,0.850445,-0.0221073,-0.000688884,0,
6,1.65329,0.855397,-0.0227391,-0.00066683,0,
6,1.67998,0.860435,-0.0233916,-0.000644311,0,
6,1.70768,0.865562,-0.0240654,-0.000621368,0,
6,1.73712,0.870878,-0.0247804,-0.000597954,0,
6,1.76996,0.876617,-0.0255722,-0.000572876,0,
6,1.80655,0.882815,-0.0264485,-0.000545374,0,
6,1.84728,0.889448,-0.0274179,-0.000515614,0,
6,1.89255,0.896477,-0.0284813,-0.000483384,0,
6,1.9428,0.903897,-0.0296547,-0.000438286,0,
6,1.99849,0.911695,-0.0309439,-0.000382512,0,
6,2.06009,0.919727,-0.0323439,-0.00032136,0,
6,2.1281,0.927708,-0.0338627,-0.000256857,0,
6,2.20301,0.935292,-0.0354963,-0.000193312,0,
6,2.28535,0.942108,-0.0372416,-0.000134915,0,
6,2.37559,0.947797,-0.0390887,-8.5398e-05,0,
6,2.47424,0.952071,-0.0410231,-4.7528e-05,0,
6,2.58172,0.954799,-0.0430254,-2.23751e-05,0,
6,2.69844,0.95609,-0.0450718,-8.68308e-06,0,
6,2.82473,0.956334,-0.0471371,-2.9872e-06,0,
6,2.96084,0.956122,-0.0491964,-1.20037e-06,0,
6,3.10691,0.956052,-0.0512276,-5.74483e-07,0,
6,3.26296,0.956489,-0.0532123,-2.25601e-07,0,
6,3.42888,0.957456,-0.0551341,-7.0196e-08,0,
6,3.60438,0.958721,-0.0569776,-3.21651e-08,0,
6,3.78902,0.959996,-0.0587275,-2.54319e-08,0,
6,3.98218,0.961103,-0.0603703,-2.14265e-08,0,
6,4.18307,0.962009,-0.0618958,-1.80017e-08,0,
6,4.39071,0.962765,-0.0632974,-1.54837e-08,0,
6,4.60398,0.963434,-0.0645724,-1.36385e-08,0,
6,4.82159,0.964047,-0.0657214,-1.21767e-08,0,
6,5.04218,0.964607,-0.0667478,-1.09794e-08,0,
6,5.26426,0.965107,-0.0676574,-1.02445e-08,0,
6,5.48633,0.965535,-0.0684575,-1.05796e-08,0,
6,5.70687,0.965885,-0.0691565,-1.34696e-08,0,
6,5.92439,0.966162,-0.0697633,-2.30797e-08,0,
6,6.1375,0.966412,-0.0702871,-5.48853e-08,0,
6,6.34489,0.966749,-0.0707368,-1.73648e-07,0,
6,6.5454,0.967315,-0.0711208,-5.64068e-07,0,
6,6.73802,0.9681,-0.0714463,-1.2165e-06,0,
6,6.92195,0.968607,-0.0717207,3.61661e-07,0,
6,7.09653,0.967607,-0.0719495,1.36891e-05,0,
6,7.26132,0.963341,-0.0721429,5.56705e-05,0,
6,7.41603,0.954337,-0.0722994,0.000142235,0,
6,7.56054,0.940327,-0.0724378,0.000278882,0,
6,7.6949,0.92229,-0.0725515,0.000403132,0,
6,7.81927,0.901834,-0.072631,0.000539902,0,
6,7.93391,0.880811,-0.0726976,0.000680708,0,
6,8.0392,0.860654,-0.072742,0.000808948,0,
6,8.13555,0.842006,-0.0727787,0.000917105,0,
6,8.22344,0.824898,-0.0728079,0.00100462,0,
6,8.30339,0.809062,-0.072836,0.00107478,0,
6,8.37592,0.79415,-0.0728631,0.00113119,0,
6,8.44155,0.779841,-0.0728905,0.00117758,0,
6,8.50082,0.765891,-0.072917,0.00121689,0,
6,8.55423,0.752143,-0.0729435,0.00125034,0,
6,8.60229,0.738526,-0.072969,0.00127959,0,
6,8.64545,0.725028,-0.0729919,0.00130411,0,
6,8.68417,0.711645,-0.0730132,0.00132376,0,
6,8.71885,0.698374,-0.0730326,0.00133898,0,
6,8.74989,0.685211,-0.0730503,0.00135015,0,
6,8.77763,0.672151,-0.0730664,0.0013576,0,
6,8.80241,0.659191,-0.0730811,0.00136162,0,
6,8.82452,0.646325,-0.0730943,0.00136252,0,
6,8.84423,0.633544,-0.0731063,0.0013606,0,
6,8.86181,0.62084,-0.073117,0.00135615,0,
6,8.87746,0.608201,-0.0731265,0.00134948,0,
6,8.89139,0.595611,-0.073135,0.00134086,0,
6,8.90379,0.583051,-0.0731425,0.00133055,0,
6,8.91482,0.5705,-0.0731492,0.00131878,0,
6,8.92463,0.557931,-0.073155,0.00130572,0,
6,8.93334,0.545315,-0.0731601,0.00129153,0,
6,8.94109,0.532619,-0.0731645,0.00127628,0,
6,8.94798,0.519805,-0.0731683,0.00126,0,
6,8.95409,0.50683,-0.0731716,0.00124267,0,
6,8.95953,0.493647,-0.0731745,0.00122417,0,
6,8.96435,0.480199,-0.0731769,0.00120432,0,
6,8.96863,0.466426,-0.073179,0.00118283,0,
6,8.97244,0.452257,-0.0731807,0.00115929,0,
6,8.97581,0.437608,-0.0731822,0.00113317,0,
6,8.97881,0.422385,-0.0731835,0.00110373,0,
6,8.98147,0.406476,-0.0731845,0.00106999,0,
6,8.98383,0.389749,-0.0731854,0.00103068,0,
6,8.98593,0.372049,-0.0731861,0.000984657,0,
6,8.98779,0.353174,-0.0731867,0.000928064,0,
6,8.98944,0.332862,-0.0731872,0.000856408,0,
6,8.9909,0.310859,-0.0731875,0.000770838,0,
6,8.9922,0.286994,-0.0731879,0.000669663,0,
6,8.99336,0.261105,-0.073188,0.000545669,0,
6,8.99438,0.233035,-0.0731883,0.000393908,0,
6,8.99529,0.203094,-0.0731883,0.000246405,0,
6,8.99609,0.172427,-0.0731886,0.000127141,0,
6,8.99681,0.142548,-0.0731885,5.27894e-05,0,
6,8.99744,0.11472,-0.0731887,1.75711e-05,0,
6,8.99801,0.0895466,-0.0731885,4.65954e-06,0,
6,8.9985,0.0670939,-0.0731888,9.45167e-07,0,
6,8.99895,0.0471705,-0.0731885,1.31222e-07,0,
6,8.99934,0.0295155,-0.0731889,9.68114e-09,0,
6,8.99969,0.013873,-0.0731885,2.09796e-10,0,

10,0,0,-0.0188727,0,0,
10,0.000296632,0.00700972,-0.0188651,-3.30367e-11,0,
10,0.000596102,0.0140581,-0.0188719,-1.21994e-09,0,
10,0.000900397,0.0211925,-0.0188657,-1.23612e-08,0,
10,0.00121153,0.0284605,-0.0188713,-6.62239e-08,0,
10,0.00153158,0.0359091,-0.0188662,-2.47104e-07,0,
10,0.00186264,0.0435848,-0.0188708,-7.33581e-07,0,
10,0.00220692,0.0515312,-0.0188666,-1.86203e-06,0,
10,0.00256668,0.0597867,-0.0188704,-4.21373e-06,0,
10,0.00294431,0.0683786,-0.018867,-8.71666e-06,0,
10,0.00334229,0.0773147,-0.01887,-1.67247e-05,0,
10,0.00376326,0.0865722,-0.0188672,-2.99902e-05,0,
10,0.00421,0.0960847,-0.0188698,-5.04057e-05,0,
10,0.00468544,0.105735,-0.0188674,-7.94366e-05,0,
10,0.00519274,0.115357,-0.0188695,-0.000117382,0,
10,0.00573524,0.124759,-0.0188675,-0.000162885,0,
10,0.00631651,0.133756,-0.0188692,-0.000213123,0,
10,0.00694041,0.1422,-0.0188674,-0.00026466,0,
10,0.00761104,0.150004,-0.0188687,-0.000314437,0,
10,0.00833284,0.157133,-0.018867,-0.000360377,0,
10,0.00911058,0.163604,-0.0188679,-0.000401497,0,
10,0.0099494,0.169459,-0.0188664,-0.000437677,0,
10,0.0108548,0.174762,-0.0188668,-0.000469354,0,
10,0.0118329,0.179578,-0.0188654,-0.000497236,0,
10,0.0128901,0.183973,-0.0188653,-0.00052212,0,
10,0.0140333,0.188008,-0.0188638,-0.000544778,0,
10,0.0152702,0.191737,-0.0188633,-0.000565907,0,
10,0.0166089,0.195206,-0.0188617,-0.000586116,0,
10,0.0180584,0.198458,-0.0188607,-0.000605927,0,
10,0.0196282,0.201527,-0.0188589,-0.000625789,0,
10,0.0213288,0.204443,-0.0188574,-0.000646094,0,
10,0.0231714,0.207233,-0.0188553,-0.000667188,0,
10,0.0251682,0.209919,-0.0188532,-0.000689384,0,
10,0.0273326,0.212521,-0.0188507,-0.000712975,0,
10,0.0296789,0.215057,-0.0188481,-0.00073824,0,
10,0.0322227,0.217543,-0.0188451,-0.000765452,0,
10,0.0349809,0.219994,-0.0188419,-0.000794886,0,
10,0.0379719,0.222422,-0.0188384,-0.000826819,0,
10,0.0412155,0.22484,-0.0188346,-0.00086154,0,
10,0.0447333,0.227261,-0.0188304,-0.000899349,0,
10,0.0485489,0.229696,-0.018826,-0.000940563,0,
10,0.0526875,0.232156,-0.0188211,-0.000985517,0,
10,0.0571768,0.234652,-0.018816,-0.00103457,0,
10,0.0620466,0.237197,-0.0188106,-0.0010881,0,
10,0.0673295,0.239802,-0.0188048,-0.00114652,0,
10,0.0730607,0.242479,-0.0187989,-0.00121027,0,
10,0.0792784,0.245241,-0.0187927,-0.00127981,0,
10,0.0860241,0.248101,-0.0187864,-0.00135565,0,
10,0.0933428,0.251075,-0.0187802,-0.00143833,0,
10,0.101283,0.254176,-0.0187741,-0.0015284,0,
10,0.109899,0.257423,-0.0187684,-0.00162649,0,
10,0.119247,0.260833,-0.0187634,-0.00173324,0,
10,0.12939,0.264426,-0.0187594,-0.00184933,0,
10,0.140395,0.268223,-0.0187569,-0.00197547,0,
10,0.152337,0.27225,-0.0187563,-0.00211239,0,
10,0.165296,0.276531,-0.0187586,-0.00226087,0,
10,0.179357,0.281097,-0.0187644,-0.00242168,0,
10,0.194615,0.285979,-0.018775,-0.0025956,0,
10,0.211171,0.291214,-0.0187917,-0.0027834,0,
10,0.229138,0.296841,-0.0188161,-0.0029858,0,
10,0.248635,0.302905,-0.0188497,-0.00320346,0,
10,0.269793,0.309454,-0.0188957,-0.00343698,0,
10,0.292753,0.316543,-0.0189547,-0.00368683,0,
10,0.317669,0.324232,-0.0190333,-0.00395226,0,
10,0.344708,0.332585,-0.0191254,-0.00423421,0,
10,0.372405,0.341166,-0.0192424,-0.00451809,0,
10,0.399623,0.349638,-0.0193507,-0.00479289,0,
10,0.426397,0.358016,-0.0194967,-0.00512104,0,
10,0.452757,0.366517,-0.0198628,-0.00530504,0,
10,0.478735,0.375443,-0.0204245,-0.00545268,0,
10,0.504358,0.384891,-0.021026,-0.00560406,0,
10,0.529657,0.394811,-0.0216182,-0.00575508,0,
10,0.554656,0.405085,-0.0221854,-0.00590016,0,
10,0.579382,0.415589,-0.0227309,-0.00603416,0,
10,0.603859,0.426218,-0.023264,-0.00615333,0,
10,0.628112,0.436898,-0.0237888,-0.00625565,0,
10,0.652163,0.447593,-0.0243081,-0.00634024,0,
10,0.676035,0.458294,-0.0248211,-0.00640696,0,
10,0.699751,0.469012,-0.0253246,-0.00645597,0,
10,0.72333,0.479775,-0.0258142,-0.00648745,0,
10,0.746795,0.490622,-0.0262844,-0.00650141,0,
10,0.770165,0.5016,-0.0267301,-0.00649762,0,
10,0.79346,0.512761,-0.0271463,-0.00647552,0,
10,0.816699,0.524161,-0.0275292,-0.00643428,0,
10,0.839903,0.53586,-0.0278759,-0.0063728,0,
10,0.863088,0.547918,-0.0281848,-0.00628976,0,
10,0.886275,0.560397,-0.0284556,-0.00618367,0,
10,0.909481,0.573359,-0.0286887,-0.00605289,0,
10,0.932723,0.586862,-0.0288849,-0.0058957,0,
10,0.956021,0.600956,-0.0290459,-0.00571061,0,
10,0.97939,0.615667,-0.0291732,-0.00549707,0,
10,1.00285,0.630986,-0.0292683,-0.00525605,0,
10,1.02641,0.646846,-0.0293327,-0.00499055,0,
10,1.0501,0.663111,-0.0293671,-0.00470443,0,
10,1.07392,0.679586,-0.0293722,-0.00440265,0,
10,1.0979,0.696025,-0.0293476,-0.0040914,0,
10,1.12205,0.712154,-0.0292948,-0.00377769,0,
10,1.14639,0.727691,-0.0292149,-0.00347246,0,
10,1.17093,0.742394,-0.0291095,-0.00318435,0,
10,1.19568,0.75613,-0.0289798,-0.00291251,0,
10,1.22066,0.768888,-0.0288239,-0.00265804,0,
10,1.24589,0.780737,-0.0286435,-0.00242074,0,
10,1.27137,0.791787,-0.028438,-0.00219914,0,
10,1.29713,0.802167,-0.0282099,-0.00199123,0,
10,1.32317,0.812026,-0.0279512,-0.00178371,0,
10,1.34951,0.82148,-0.0276665,-0.00157112,0,
10,1.37616,0.830505,-0.0273752,-0.00137307,0,
10,1.40313,0.838991,-0.0270773,-0.00118728,0,
10,1.43043,0.846857,-0.0267793,-0.00102049,0,
10,1.45807,0.854069,-0.0264763,-0.000879887,0,
10,1.48607,0.860678,-0.0261765,-0.000767468,0,
10,1.51444,0.866878,-0.0258684,-0.000659403,0,
10,1.54318,0.87283,-0.0255514,-0.000570108,0,
10,1.57231,0.878527,-0.0252407,-0.000496796,0,
10,1.60184,0.883929,-0.0249344,-0.000438335,0,
10,1.63178,0.889042,-0.0246348,-0.000392841,0,
10,1.66213,0.893911,-0.0243389,-0.0003575,0,
10,1.69292,0.898587,-0.024048,-0.000329337,0,
10,1.72416,0.903098,-0.023762,-0.000305935,0,
10,1.75585,0.907453,-0.0234823,-0.000285639,0,
10,1.78802,0.91165,-0.0232088,-0.000267408,0,
10,1.82067,0.915683,-0.0229422,-0.000250583,0,
10,1.85383,0.919543,-0.022683,-0.000234762,0,
10,1.88751,0.923225,-0.0224312,-0.000219733,0,
10,1.92173,0.926726,-0.022188,-0.000205492,0,
10,1.95652,0.930058,-0.0219517,-0.00019232,0,
10,1.9919,0.933265,-0.021722,-0.000175641,0,
10,2.02791,0.936385,-0.0215004,-0.000158594,0,
10,2.06456,0.939407,-0.0212862,-0.000140778,0,
10,2.10268,0.942342,-0.021079,-0.000121057,0,
10,2.1443,0.945256,-0.0208675,-0.000100277,0,
10,2.18977,0.948075,-0.020656,-7.89931e-05,0,
10,2.23946,0.950691,-0.0204467,-5.78279e-05,0,
10,2.29376,0.952987,-0.0202445,-3.80105e-05,0,
10,2.35309,0.954846,-0.0200543,-2.06727e-05,0,
10,2.4179,0.956162,-0.0198829,-6.72871e-06,0,
10,2.48863,0.956854,-0.0197376,3.20864e-06,0,
10,2.56575,0.956884,-0.0196268,8.94371e-06,0,
10,2.64971,0.956279,-0.0195591,1.08134e-05,0,
10,2.74098,0.955147,-0.0195432,9.72465e-06,0,
10,2.83997,0.953678,-0.0195874,7.02368e-06,0,
10,2.94709,0.952119,-0.0196987,4.1056e-06,0,
10,3.06269,0.950725,-0.0198826,1.91444e-06,0,
10,3.18706,0.949682,-0.0201426,6.96359e-07,0,
10,3.3204,0.949063,-0.0204801,1.93657e-07,0,
10,3.46281,0.948811,-0.0208947,4.16615e-08,0,
10,3.61427,0.948791,-0.0213842,8.11236e-09,0,
10,3.77463,0.94885,-0.0219446,2.35282e-09,0,
10,3.94358,0.948885,-0.0225698,1.46164e-09,0,
10,4.12067,0.948865,-0.0232515,1.17231e-09,0,
10,4.30525,0.948815,-0.0239797,5.97505e-10,0,
10,4.49655,0.948783,-0.0247429,-3.52171e-10,0,
10,4.6936,0.948801,-0.0255287,-1.50809e-09,0,
10,4.89531,0.948879,-0.0263246,-2.79747e-09,0,
10,5.10047,0.949001,-0.0271181,-4.50331e-09,0,
10,5.30776,0.949144,-0.0278979,-7.51028e-09,0,
10,5.51581,0.949288,-0.0286535,-1.38326e-08,0,
10,5.72323,0.949423,-0.0293762,-2.8664e-08,0,
10,5.92863,0.949568,-0.030059,-6.97853e-08,0,
10,6.13069,0.949785,-0.0306965,-2.00296e-07,0,
10,6.32816,0.950166,-0.0312851,-5.79107e-07,0,
10,6.51991,0.950748,-0.031823,-1.28731e-06,0,
10,6.70495,0.951316,-0.03231,-1.11078e-06,0,
10,6.88244,0.951171,-0.0327467,5.1827e-06,0,
10,7.0517,0.949093,-0.033135,2.85773e-05,0,
10,7.21224,0.943678,-0.0334745,8.28122e-05,0,
10,7.3637,0.934004,-0.0337703,0.000177886,0,
10,7.5059,0.92009,-0.0340253,0.000306703,0,
10,7.63878,0.90252,-0.0342426,0.000419992,0,
10,7.76243,0.882384,-0.0344301,0.000546227,0,
10,7.87701,0.861458,-0.0345797,0.000676368,0,
10,7.9828,0.841246,-0.0347047,0.000794804,0,
10,8.08014,0.822505,-0.0348047,0.000895458,0,
10,8.16941,0.805348,-0.0348881,0.000978399,0,
10,8.25106,0.789523,-0.0349577,0.00104673,0,
10,8.32554,0.774668,-0.0350183,0.00110332,0,
10,8.39331,0.760445,-0.0350712,0.00115094,0,
10,8.45484,0.746604,-0.035118,0.001192,0,
10,8.5106,0.732998,-0.035159,0.00122775,0,
10,8.56104,0.719558,-0.0351948,0.00125869,0,
10,8.60659,0.706276,-0.035226,0.00128493,0,
10,8.64767,0.693174,-0.0352533,0.00130651,0,
10,8.68467,0.680277,-0.0352775,0.00132356,0,
10,8.71795,0.667576,-0.0352991,0.00133228,0,
10,8.74786,0.655046,-0.035318,0.00133707,0,
10,8.77471,0.642686,-0.0353345,0.00133797,0,
10,8.79881,0.630493,-0.0353489,0.00133519,0,
10,8.8204,0.618463,-0.0353616,0.00132924,0,
10,8.83975,0.606585,-0.0353725,0.00132063,0,
10,8.85708,0.594847,-0.035382,0.00130982,0,
10,8.87259,0.583233,-0.0353902,0.00129724,0,
10,8.88646,0.571722,-0.0353973,0.00128329,0,
10,8.89886,0.560289,-0.0354034,0.00126829,0,
10,8.90995,0.54891,-0.0354086,0.00125251,0,
10,8.91986,0.537554,-0.035413,0.00123614,0,
10,8.92872,0.52619,-0.0354168,0.00121934,0,
10,8.93663,0.514783,-0.03542,0.0012022,0,
10,8.94369,0.503295,-0.0354228,0.00118473,0,
10,8.95,0.491687,-0.035425,0.00116689,0,
10,8.95564,0.479914,-0.035427,0.00114858,0,
10,8.96067,0.467927,-0.0354285,0.00112967,0,
10,8.96517,0.455676,-0.03543,0.00110991,0,
10,8.96918,0.443099,-0.035431,0.00108896,0,
10,8.97276,0.430132,-0.035432,0.00106642,0,
10,8.97596,0.416696,-0.0354327,0.00104174,0,
10,8.97882,0.402705,-0.0354335,0.00101421,0,
10,8.98137,0.388055,-0.0354339,0.000982952,0,
10,8.98365,0.372627,-0.0354345,0.000946797,0,
10,8.98569,0.356278,-0.0354346,0.000904631,0,
10,8.9875,0.33883,-0.0354351,0.000853562,0,
10,8.98913,0.320041,-0.0354351,0.000788878,0,
10,8.99058,0.299676,-0.0354356,0.000712146,0,
10,8.99188,0.27757,-0.0354355,0.000621858,0,
10,8.99304,0.253566,-0.0354359,0.000511933,0,
10,8.99408,0.22748,-0.0354356,0.00037676,0,
10,8.99501,0.199507,-0.0354361,0.000242747,0,
10,8.99583,0.170576,-0.0354357,0.00013031,0,
10,8.99658,0.142023,-0.0354362,5.65727e-05,0,
10,8.99724,0.115068,-0.0354358,1.9667e-05,0,
10,8.99784,0.0903858,-0.0354363,5.42373e-06,0,
10,8.99837,0.0681299,-0.0354357,1.13938e-06,0,
10,8.99885,0.0481777,-0.0354364,1.63326e-07,0,
10,8.99927,0.0303167,-0.0354357,1.24029e-08,0,
10,8.99966,0.0143273,-0.0354365,2.74459e-10,0,
10,9,0,-0.0354356,0,0,

0.0416667,0,0,-0.233814,0,3.19886e-06,
0.0833333,0,0,-0.233979,0,5.3487e-06,
0.125,0,0,-0.233914,0,6.92748e-06,
0.166667,0,0,-0.233967,0,1.1434e-05,
0.208333,0,0,-0.233976,0,1.60086e-05,
0.25,0,0,-0.234024,0,2.09509e-05,
0.291667,0,0,-0.23407,0,2.53135e-05,
0.333333,0,0,-0.234132,0,2.91271e-05,
0.375,0,0,-0.234199,0,3.23251e-05,
0.416667,0,0,-0.234274,0,3.53301e-05,
0.458333,0,0,-0.234357,0,3.85733e-05,
0.5,0,0,-0.234451,0,4.25379e-05,
0.541667,0,0,-0.23456,0,4.7563e-05,
0.583333,0,0,-0.234686,0,5.38091e-05,
0.625,0,0,-0.234835,0,6.12062e-05,
0.666667,0,0,-0.235008,0,6.94545e-05,
0.708333,0,0,-0.235208,0,7.80612e-05,
0.75,0,0,-0.235431,0,8.64026e-05,
0.791667,0,0,-0.235678,0,9.38219e-05,
0.833333,0,0,-0.235943,0,9.97403e-05,
0.875,0,0,-0.236225,0,0.000103821,
0.916667,0,0,-0.236526,0,0.000105947,
0.958333,0,0,-0.236856,0,0.000106008,
1,0,0,-0.237234,0,0.00010357,
1.04167,0,0,-0.237686,0,9.75065e-05,
1.08333,0,0,-0.238241,0,8.58779e-05,
1.125,0,0,-0.238925,0,6.60622e-05,
1.16667,0,0,-0.239755,0,3.52867e-05,
1.20833,0,0,-0.240729,0,-8.49193e-06,
1.25,0,0,-0.241829,0,-6.57967e-05,
1.29167,0,0,-0.243021,0,-0.00013528,
1.33333,0,0,-0.244261,0,-0.000214029,
1.375,0,0,-0.245506,0,-0.000298383,
1.41667,0,0,-0.246716,0,-0.000384873,
1.45833,0,0,-0.247858,0,-0.000470863,
1.5,0,0,-0.248909,0,-0.000554752,
1.54167,0,0,-0.249851,0,-0.000635801,
1.58333,0,0,-0.250672,0,-0.000713813,
1.625,0,0,-0.251365,0,-0.000788853,
1.66667,0,0,-0.251922,0,-0.000861055,
1.70833,0,0,-0.252337,0,-0.000930542,
1.75,0,0,-0.252608,0,-0.000997386,
1.79167,0,0,-0.252729,0,-0.00106162,
1.83333,0,0,-0.252698,0,-0.00112323,
1.875,0,0,-0.252513,0,-0.00118218,
1.91667,0,0,-0.252173,0,-0.00123844,
1.95833,0,0,-0.251676,0,-0.00129197,
2,0,0,-0.251023,0,-0.00134274,
2.04167,0,0,-0.250215,0,-0.00139072,
2.08333,0,0,-0.249254,0,-0.00143591,
2.125,0,0,-0.248141,0,-0.00147833,
2.16667,0,0,-0.24688,0,-0.00151798,
2.20833,0,0,-0.245473,0,-0.00155489,
2.25,0,0,-0.243924,0,-0.00158906,
2.29167,0,0,-0.242237,0,-0.00162052,
2.33333,0,0,-0.240415,0,-0.00164929,
2.375,0,0,-0.238463,0,-0.00167541,
2.41667,0,0,-0.236385,0,-0.00169888,
2.45833,0,0,-0.234185,0,-0.00171976,
2.5,0,0,-0.231869,0,-0.00173806,
2.54167,0,0,-0.229442,0,-0.00175385,
2.58333,0,0,-0.226908,0,-0.00176717,
2.625,0,0,-0.224274,0,-0.00177808,
2.66667,0,0,-0.221544,0,-0.00178665,
2.70833,0,0,-0.218724,0,-0.00179293,
2.75,0,0,-0.215819,0,-0.00179698,
2.79167,0,0,-0.212834,0,-0.00179886,
2.83333,0,0,-0.209776,0,-0.00179862,
2.875,0,0,-0.206651,0,-0.00179634,
2.91667,0,0,-0.203462,0,-0.0017921,
2.95833,0,0,-0.200217,0,-0.00178597,
3,0,0,-0.196921,0,-0.00177801,
3.04167,0,0,-0.193577,0,-0.00176832,
3.08333,0,0,-0.190192,0,-0.00175695,
3.125,0,0,-0.186771,0,-0.00174398,
3.16667,0,0,-0.183318,0,-0.00172947,
3.20833,0,0,-0.179838,0,-0.00171351,
3.25,0,0,-0.176335,0,-0.00169616,
3.29167,0,0,-0.172813,0,-0.00167749,
3.33333,0,0,-0.169277,0,-0.00165756,
3.375,0,0,-0.16573,0,-0.00163643,
3.41667,0,0,-0.162177,0,-0.00161417,
3.45833,0,0,-0.15862,0,-0.00159085,
3.5,0,0,-0.155062,0,-0.00156651,
3.54167,0,0,-0.151508,0,-0.00154122,
3.58333,0,0,-0.147959,0,-0.00151503,
3.625,0,0,-0.144419,0,-0.00148797,
3.66667,0,0,-0.14089,0,-0.00146011,
3.70833,0,0,-0.137375,0,-0.00143149,
3.75,0,0,-0.133876,0,-0.00140215,
3.79167,0,0,-0.130394,0,-0.00137213,
3.83333,0,0,-0.126932,0,-0.00134149,
3.875,0,0,-0.123492,0,-0.00131024,
3.91667,0,0,-0.120075,0,-0.00127844,
3.95833,0,0,-0.116682,0,-0.00124612,
4,0,0,-0.113315,0,-0.00121331,
4.04167,0,0,-0.109976,0,-0.00118003,
4.08333,0,0,-0.106664,0,-0.00114632,
4.125,0,0,-0.103382,0,-0.00111219,
4.16667,0,0,-0.10013,0,-0.00107768,
4.20833,0,0,-0.0969094,0,-0.00104279,
4.25,0,0,-0.0937204,0,-0.00100755,
4.29167,0,0,-0.090564,0,-0.000971976,
4.33333,0,0,-0.0874408,0,-0.000936079,
4.375,0,0,-0.0843514,0,-0.000899881,
4.41667,0,0,-0.0812964,0,-0.000863397,
4.45833,0,0,-0.0782762,0,-0.000826643,
4.5,0,0,-0.0752913,0,-0.00078963,
4.54167,0,0,-0.0723419,0,-0.000752367,
4.58333,0,0,-0.0694285,0,-0.000714865,
4.625,0,0,-0.0665514,0,-0.000677136,
4.66667,0,0,-0.0637109,0,-0.000639191,
4.70833,0,0,-0.0609072,0,-0.00060104,
4.75,0,0,-0.0581406,0,-0.000562687,
4.79167,0,0,-0.0554112,0,-0.00052413,
4.83333,0,0,-0.0527195,0,-0.000485365,
4.875,0,0,-0.0500658,0,-0.000446389,
4.91667,0,0,-0.0474506,0,-0.000407194,
4.95833,0,0,-0.0448748,0,-0.00036778,
5,0,0,-0.0423392,0,-0.000328149,
5.04167,0,0,-0.0398451,0,-0.000288316,
5.08333,0,0,-0.0373938,0,-0.000248323,
5.125,0,0,-0.0349874,0,-0.000208256,
5.16667,0,0,-0.0326273,0,-0.000168234,
5.20833,0,0,-0.0303139,0,-0.000128367,
5.25,0,0,-0.0280465,0,-8.8711e-05,
5.29167,0,0,-0.0258245,0,-4.92653e-05,
5.33333,0,0,-0.023647,0,-1.00079e-05,
5.375,0,0,-0.0215137,0,2.9081e-05,
5.41667,0,0,-0.019424,0,6.80122e-05,
5.45833,0,0,-0.0173779,0,0.000106791,
5.5,0,0,-0.015375,0,0.00014542,
5.54167,0,0,-0.0134153,0,0.000183898,
5.58333,0,0,-0.0114988,0,0.00022222,
5.625,0,0,-0.00962559,0,0.000260381,
5.66667,0,0,-0.00779562,0,0.000298373,
5.70833,0,0,-0.00600907,0,0.000336185,
5.75,0,0,-0.00426608,0,0.000373806,
5.79167,0,0,-0.0025668,0,0.000411223,
5.83333,0,0,-0.000911422,0,0.000448421,
5.875,0,0,0.000699842,0,0.000485385,
5.91667,0,0,0.00226677,0,0.000522096,
5.95833,0,0,0.00378912,0,0.000558535,
6,0,0,0.00526668,0,0.000594681,
6.04167,0,0,0.00669919,0,0.000630515,
6.08333,0,0,0.00808641,0,0.000666014,
6.125,0,0,0.00942814,0,0.000701155,
6.16667,0,0,0.0107242,0,0.000735915,
6.20833,0,0,0.0119744,0,0.000770269,
6.25,0,0,0.0131786,0,0.000804195,
6.29167,0,0,0.0143369,0,0.000837669,
6.33333,0,0,0.015449,0,0.000870667,
6.375,0,0,0.0165149,0,0.000903166,
6.41667,0,0,0.0175348,0,0.000935144,
6.45833,0,0,0.0185086,0,0.000966577,
6.5,0,0,0.0194363,0,0.000997444,
6.54167,0,0,0.0203181,0,0.00102772,
6.58333,0,0,0.0211541,0,0.00105739,
6.625,0,0,0.0219444,0,0.00108642,
6.66667,0,0,0.0226893,0,0.0011148,
6.70833,0,0,0.0233888,0,0.00114251,
6.75,0,0,0.0240433,0,0.00116953,
6.79167,0,0,0.0246529,0,0.00119584,
6.83333,0,0,0.025218,0,0.00122142,
6.875,0,0,0.0257387,0,0.00124627,
6.91667,0,0,0.0262155,0,0.00127036,
6.95833,0,0,0.0266487,0,0.0012937,
7,0,0,0.0270387,0,0.00131626,
7.04167,0,0,0.027386,0,0.00133804,
7.08333,0,0,0.0276909,0,0.00135901,
7.125,0,0,0.0279538,0,0.00137917,
7.16667,0,0,0.028175,0,0.00139848,
7.20833,0,0,0.028355,0,0.00141695,
7.25,0,0,0.0284944,0,0.00143456,
7.29167,0,0,0.0285935,0,0.00145131,
7.33333,0,0,0.028653,0,0.0014672,
7.375,0,0,0.0286734,0,0.00148224,
7.41667,0,0,0.0286554,0,0.00149643,
7.45833,0,0,0.0285993,0,0.00150978,
7.5,0,0,0.0285058,0,0.00152229,
7.54167,0,0,0.0283754,0,0.00153396,
7.58333,0,0,0.0282085,0,0.00154481,
7.625,0,0,0.0280057,0,0.00155484,
7.66667,0,0,0.0277673,0,0.00156406,
7.70833,0,0,0.0274939,0,0.00157249,
7.75,0,0,0.0271857,0,0.00158013,
7.79167,0,0,0.0268432,0,0.00158699,
7.83333,0,0,0.0264659,0,0.00159306,
7.875,0,0,0.0260538,0,0.00159844,
7.91667,0,0,0.0256189,0,0.00160384,
7.95833,0,0,0.0250798,0,0.00160749,
8,0,0,0.0246337,0,0.0016109,
8.04171,0,0,0.0241983,0,0.0016146,
8.08368,0,0,0.0235927,0,0.00161739,
8.12617,0,0,0.0230044,0,0.00161738,
8.16946,0,0,0.0223715,0,0.00161652,
8.21382,0,0,0.021682,0,0.00161472,
8.25952,0,0,0.0209387,0,0.00161192,
8.30685,0,0,0.0201337,0,0.0016082,
8.35611,0,0,0.0192591,0,0.00160358,
8.40762,0,0,0.0183062,0,0.00159804,
8.46168,0,0,0.0172653,0,0.00159152,
8.51865,0,0,0.0161255,0,0.00158396,
8.57889,0,0,0.0148751,0,0.00157533,
8.64276,0,0,0.0135017,0,0.00156558,
8.71067,0,0,0.0119924,0,0.00155471,
8.78306,0,0,0.0103341,0,0.00154275,
8.86037,0,0,0.00851385,0,0.00152981,
8.94309,0,0,0.00652,0,0.00151604,
9.03174,0,0,0.00434278,0,0.00150167,
9.12689,0,0,0.00197546,0,0.00148701,
9.22912,0,0,-0.000584988,0,0.00147243,
9.33908,0,0,-0.00333765,0,0.0014583,
9.45746,0,0,-0.00627859,0,0.00144495,
9.58501,0,0,-0.00940226,0,0.00143252,
9.72253,0,0,-0.0126963,0,0.00142081,
9.87088,0,0,-0.0161154,0,0.00140939,
10.031,0,0,-0.0195346,0,0.00139805,
10.2039,0,0,-0.0226932,0,0.0013875,
10.3906,0,0,-0.0251545,0,0.00138024,
10.5924,0,0,-0.0263026,0,0.0013812,
10.8105,0,0,-0.0254379,0,0.00139763,
11.0463,0,0,-0.0220288,0,0.00143721,
11.3012,0,0,-0.0160144,0,0.00150447,
11.5769,0,0,-0.00797485,0,0.00159761,
11.8751,0,0,0.000988197,0,0.00170785,
12.1977,0,0,0.00961188,0,0.00182226,
12.5466,0,0,0.0168471,0,0.00192814,
12.9242,0,0,0.0220798,0,0.00201645,
13.3327,0,0,0.0251555,0,0.00208319,
13.7748,0,0,0.0262684,0,0.00212896,
14.2532,0,0,0.0258186,0,0.00215764,
14.7709,0,0,0.0242889,0,0.00217463,
15.3312,0,0,0.0221591,0,0.0021839,
15.9377,0,0,0.0198301,0,0.00218888,
16.594,0,0,0.017569,0,0.00219238,
17.3044,0,0,0.0155122,0,0.00219598,
18.0733,0,0,0.0137176,0,0.00219987,
18.9056,0,0,0.0122095,0,0.00220344,
19.8064,0,0,0.0109869,0,0.0022064,
20.7816,0,0,0.0100149,0,0.00220915,
21.8371,0,0,0.00923453,0,0.00221197,
22.9796,0,0,0.00859418,0,0.00221473,
24.2163,0,0,0.00805598,0,0.00221838,
25.5551,0,0,0.00758229,0,0.00222338,
27.0042,0,0,0.00713465,0,0.00222961,
28.5729,0,0,0.00668353,0,0.00223708,
30.271,0,0,0.00620963,0,0.00224659,
32.1091,0,0,0.00569819,0,0.00225717,
34.0989,0,0,0.00513578,0,0.00226835,
36.2529,0,0,0.00450399,0,0.00227923,
38.5845,0,0,0.00379317,0,0.00228845,
41.1085,0,0,0.00303571,0,0.00229719,
43.8407,0,0,0.00206757,0,0.00230464,
46.7983,0,0,0.00107432,0,0.00231152,
50,0,0,0.00214722,0,0.00232905,

