6aae3fb83d2c80f931b4e377b90f6d3764aef329 
X,Z,x_velocity,cp,uw_b,cf,
1,0,0,-0.229794,0,0,
1,9,0,-0.12872,0,0,
1,8.99969,0.0153608,-0.12872,2.83472e-10,0,
1,8.99934,0.032788,-0.12872,1.32505e-08,0,
1,8.99894,0.0525778,-0.12872,1.82788e-07,0,
1,8.99848,0.0750435,-0.12872,1.3401e-06,0,
1,8.99797,0.100497,-0.128719,6.69921e-06,0,
1,8.99739,0.129137,-0.12872,2.53667e-05,0,
1,8.99672,0.160772,-0.128719,7.52021e-05,0,
1,8.99597,0.194471,-0.128719,0.000175006,0,
1,8.99512,0.228592,-0.128719,0.000322932,0,
1,8.99416,0.261479,-0.128719,0.000490649,0,
1,8.99306,0.292151,-0.128719,0.000648733,0,
1,8.99182,0.32043,-0.128719,0.000776258,0,
1,8.99041,0.346455,-0.128718,0.000881768,0,
1,8.98881,0.370384,-0.128718,0.00096895,0,
1,8.98699,0.392436,-0.128717,0.00104012,0,
1,8.98494,0.4129,-0.128716,0.00109604,0,
1,8.98261,0.432084,-0.128716,0.00113894,0,
1,8.97996,0.450228,-0.128715,0.00117489,0,
1,8.97696,0.467504,-0.128713,0.00120471,0,
1,8.97356,0.484054,-0.128712,0.00122967,0,
1,8.9697,0.499995,-0.12871,0.00125074,0,
1,8.96533,0.515428,-0.128709,0.00126861,0,
1,8.96038,0.530433,-0.128707,0.00128381,0,
1,8.95476,0.545082,-0.128704,0.00129671,0,
1,8.9484,0.559434,-0.128702,0.00130756,0,
1,8.9412,0.573538,-0.128699,0.00131654,0,
1,8.93303,0.587439,-0.128696,0.00132374,0,
1,8.92379,0.601172,-0.128693,0.00132921,0,
1,8.91333,0.614771,-0.128689,0.00133297,0,
1,8.90149,0.628262,-0.128686,0.00133497,0,
1,8.8881,0.641669,-0.128683,0.00133518,0,
1,8.87295,0.655016,-0.128679,0.00133351,0,
1,8.85584,0.668321,-0.128677,0.00132986,0,
1,8.83651,0.681603,-0.128675,0.00132412,0,
1,8.81469,0.694882,-0.128675,0.00131616,0,
1,8.79007,0.708176,-0.128676,0.00130581,0,
1,8.76232,0.721508,-0.12868,0.00129291,0,
1,8.73107,0.734902,-0.128686,0.00127722,0,
1,8.69591,0.748388,-0.128698,0.00125847,0,
1,8.6564,0.762003,-0.128715,0.00123631,0,
1,8.61206,0.77579,-0.128741,0.00121032,0,
1,8.56236,0.789808,-0.128775,0.00118017,0,
1,8.50675,0.804132,-0.128824,0.00114694,0,
1,8.44464,0.818901,-0.128889,0.00110683,0,
1,8.3754,0.834332,-0.128975,0.0010554,0,
1,8.29839,0.850675,-0.129088,0.000992303,0,
1,8.21296,0.868175,-0.129234,0.000913054,0,
1,8.11843,0.887025,-0.129419,0.000812413,0,
1,8.01417,0.907226,-0.129659,0.000686916,0,
1,7.89956,0.928337,-0.129947,0.000539974,0,
1,7.77403,0.949233,-0.130323,0.000390009,0,
1,7.63711,0.968306,-0.130773,0.000206409,0,
1,7.48842,0.983231,-0.131305,7.68029e-05,0,
1,7.32773,0.992067,-0.131944,1.85237e-05,0,
1,7.15495,0.995284,-0.132686,1.85772e-06,0,
1,6.97022,0.995355,-0.133548,2.56412e-08,0,
1,6.77388,0.994739,-0.134543,3.81453e-09,0,
1,6.56652,0.99462,-0.135689,9.8248e-09,0,
1,6.34896,0.995074,-0.136998,1.25389e-08,0,
1,6.12229,0.995804,-0.138485,1.41485e-08,0,
1,5.88784,0.996608,-0.140165,1.50165e-08,0,
1,5.64716,0.997449,-0.142052,1.60107e-08,0,
1,5.40194,0.998359,-0.144156,1.73926e-08,0,
1,5.15407,0.999364,-0.146485,1.91214e-08,0,
1,4.90545,1.00047,-0.149044,2.09863e-08,0,
1,4.65805,1.00169,-0.15183,2.29964e-08,0,
1,4.41376,1.00301,-0.154838,2.51042e-08,0,
1,4.17441,1.00442,-0.158056,2.7082e-08,0,
1,3.94163,1.00586,-0.161464,2.87695e-08,0,
1,3.7169,1.00728,-0.165038,3.07727e-08,0,
1,3.50146,1.00876,-0.168746,3.50298e-08,0,
1,3.29629,1.0106,-0.172553,4.35921e-08,0,
1,3.10217,1.01318,-0.176429,5.46841e-08,0,
1,2.91959,1.01631,-0.180344,9.97128e-08,0,
1,2.74885,1.01855,-0.184254,1.02139e-06,0,
1,2.59002,1.0175,-0.188094,-5.53614e-06,0,
1,2.44299,1.01143,-0.191796,-5.03517e-05,0,
1,2.30752,1.00052,-0.19529,-0.000146411,0,
1,2.18321,0.986214,-0.198512,-0.000280256,0,
1,2.06959,0.970079,-0.201492,-0.000395995,0,
1,1.9661,0.953393,-0.204206,-0.000496565,0,
1,1.87215,0.937086,-0.206621,-0.000590378,0,
1,1.78711,0.921672,-0.208771,-0.00067297,0,
1,1.71033,0.907309,-0.210672,-0.000744272,0,
1,1.64119,0.893969,-0.212347,-0.000805824,0,
1,1.57905,0.881541,-0.213816,-0.00085983,0,
1,1.52332,0.869896,-0.215101,-0.000908333,0,
1,1.47342,0.858923,-0.216228,-0.00095366,0,
1,1.42882,0.848537,-0.217197,-0.000990046,0,
1,1.389,0.838661,-0.218019,-0.00101449,0,
1,1.35351,0.829229,-0.218733,-0.00103738,0,
1,1.3219,0.820204,-0.219347,-0.0010581,0,
1,1.29378,0.811565,-0.219875,-0.00107629,0,
1,1.26878,0.803301,-0.22033,-0.00109195,0,
1,1.24659,0.795407,-0.220721,-0.00110537,0,
1,1.22689,0.787879,-0.221057,-0.00111661,0,
1,1.2092,0.780628,-0.221349,-0.00112462,0,
1,1.1932,0.773605,-0.221604,-0.00113013,0,
1,1.1787,0.766794,-0.221828,-0.00113393,0,
1,1.16554,0.760174,-0.222022,-0.00113723,0,
1,1.15357,0.753706,-0.222192,-0.00114261,0,
1,1.14266,0.747338,-0.22234,-0.00115407,0,
1,1.13268,0.740986,-0.222469,-0.00117709,0,
1,1.12354,0.734539,-0.222584,-0.00121906,0,
1,1.11514,0.727848,-0.222686,-0.00128882,0,
1,1.10739,0.720732,-0.222783,-0.0013959,0,
1,1.10022,0.712996,-0.222876,-0.00154932,0,
1,1.09357,0.704458,-0.222971,-0.00175577,0,
1,1.08738,0.694996,-0.223071,-0.00201758,0,
1,1.0816,0.684586,-0.223177,-0.00233115,0,
1,1.07618,0.673319,-0.22329,-0.00268678,0,
1,1.07107,0.661368,-0.223408,-0.00307052,0,
1,1.06626,0.648953,-0.223532,-0.00346715,0,
1,1.06169,0.636288,-0.223658,-0.00386296,0,
1,1.05735,0.623557,-0.223787,-0.00424736,0,
1,1.05321,0.610902,-0.223917,-0.00461311,0,
1,1.04925,0.598426,-0.224047,-0.00495588,0,
1,1.04544,0.586193,-0.224178,-0.00527354,0,
1,1.04177,0.574245,-0.224307,-0.0055655,0,
1,1.03822,0.562602,-0.224435,-0.00583211,0,
1,1.03478,0.551271,-0.224562,-0.00607431,0,
1,1.03144,0.54025,-0.224688,-0.00629336,0,
1,1.02818,0.52953,-0.224812,-0.00649064,0,
1,1.025,0.5191,-0.224935,-0.00666757,0,
1,1.02188,0.508946,-0.225056,-0.00682551,0,
1,1.01882,0.499054,-0.225176,-0.00696577,0,
1,1.01581,0.489409,-0.225295,-0.00708969,0,
1,1.01284,0.479996,-0.225413,-0.00719781,0,
1,1.00988,0.470702,-0.22553,-0.0072926,0,
1,1.00688,0.461416,-0.225649,-0.00737601,0,
1,1.00384,0.452125,-0.225769,-0.00744754,0,
1,1.00076,0.442814,-0.22589,-0.00750715,0,
1,0.997615,0.433464,-0.226013,-0.00755472,0,
1,0.99441,0.424051,-0.226136,-0.00759041,0,
1,0.991131,0.414552,-0.226261,-0.00761428,0,
1,0.987768,0.404941,-0.226388,-0.00762614,0,
1,0.984308,0.39519,-0.226516,-0.00762569,0,
1,0.980739,0.385269,-0.226646,-0.0076125,0,
1,0.977045,0.375144,-0.226778,-0.00758598,0,
1,0.973211,0.364781,-0.226913,-0.00754541,0,
1,0.969219,0.35414,-0.227051,-0.00748987,0,
1,0.965047,0.343179,-0.227191,-0.00741826,0,
1,0.960675,0.331851,-0.227334,-0.00732924,0,
1,0.956077,0.320103,-0.227481,-0.0072209,0,
1,0.951224,0.30788,-0.227631,-0.00709106,0,
1,0.946088,0.295123,-0.227784,-0.00693778,0,
1,0.940633,0.281774,-0.227942,-0.00675857,0,
1,0.934823,0.267783,-0.228104,-0.00655123,0,
1,0.928616,0.253109,-0.228272,-0.00631428,0,
1,0.921967,0.237724,-0.228444,-0.00604415,0,
1,0.914826,0.221609,-0.228621,-0.00573848,0,
1,0.907141,0.204761,-0.228803,-0.00539539,0,
1,0.898852,0.187202,-0.228988,-0.00501375,0,
1,0.889898,0.168985,-0.229177,-0.00459365,0,
1,0.880212,0.15021,-0.229368,-0.00413708,0,
1,0.869723,0.131044,-0.229563,-0.00364884,0,
1,0.858358,0.111745,-0.229759,-0.00313782,0,
1,0.846039,0.0926962,-0.22996,-0.0026188,0,
1,0.83269,0.0744315,-0.230165,-0.00211383,0,
1,0.818232,0.0576191,-0.230376,-0.00165474,0,
1,0.802744,0.0430427,-0.230584,-0.00127217,0,
1,0.78635,0.0311499,-0.230791,-0.000978214,0,
1,0.768969,0.0217591,-0.230986,-0.000768652,0,
1,0.75053,0.0143612,-0.231168,-0.000629079,0,
1,0.730977,0.00835213,-0.231328,-0.000542861,0,
1,0.710271,0.0032098,-0.231462,-0.000494508,0,
1,0.688397,-0.00144458,-0.231571,-0.000470526,0,
1,0.66536,-0.0058496,-0.231656,-0.00046408,0,
1,0.641194,-0.010154,-0.231719,-0.000464668,0,
1,0.615961,-0.0144622,-0.231761,-0.000467011,0,
1,0.589754,-0.0188342,-0.231784,-0.000467349,0,
1,0.562692,-0.0232878,-0.231787,-0.000463223,0,
1,0.534925,-0.0278075,-0.23177,-0.000453494,0,
1,0.506624,-0.032354,-0.231732,-0.000437852,0,
1,0.477982,-0.0368731,-0.231671,-0.000416555,0,
1,0.449206,-0.0413037,-0.231588,-0.000390196,0,
1,0.420509,-0.0455831,-0.231482,-0.000359555,0,
1,0.392107,-0.0496507,-0.231357,-0.000325504,0,
1,0.364206,-0.0534508,-0.231214,-0.000288944,0,
1,0.337003,-0.0569333,-0.231059,-0.000250766,0,
1,0.310673,-0.060055,-0.230894,-0.000211808,0,
1,0.28537,-0.0627796,-0.230726,-0.000172824,0,
1,0.26122,-0.0650767,-0.230558,-0.00013446,0,
1,0.238324,-0.0669218,-0.230395,-9.72507e-05,0,
1,0.21675,-0.0682944,-0.230242,-6.16253e-05,0,
1,0.196544,-0.0691778,-0.230101,-2.79139e-05,0,
1,0.177724,-0.0695574,-0.229975,3.62628e-06,0,
1,0.160284,-0.0694215,-0.229867,3.27716e-05,0,
1,0.144202,-0.0687609,-0.229778,5.92893e-05,0,
1,0.129436,-0.067571,-0.229707,8.29057e-05,0,
1,0.115935,-0.0658541,-0.229655,0.000103301,0,
1,0.103636,-0.0636218,-0.229619,0.000120132,0,
1,0.0924701,-0.0608981,-0.229599,0.000133087,0,
1,0.0823633,-0.0577208,-0.229592,0.000141943,0,
1,0.0732406,-0.0541419,-0.229595,0.000146618,0,
1,0.0650269,-0.050225,-0.229607,0.000147178,0,
1,0.057648,-0.0460421,-0.229624,0.000143868,0,
1,0.0510323,-0.0416694,-0.229644,0.00013708,0,
1,0.0451115,-0.037182,-0.229666,0.000127313,0,
1,0.0398209,-0.03265,-0.229688,0.000115118,0,
1,0.0351001,-0.028135,-0.229709,0.000101057,0,
1,0.0308929,-0.0236887,-0.229728,8.56848e-05,0,
1,0.0271475,-0.0193558,-0.229744,6.95572e-05,0,
1,0.0238164,-0.015181,-0.229758,5.33097e-05,0,
1,0.0208562,-0.0112216,-0.229768,3.77916e-05,0,
1,0.0182274,-0.00756281,-0.229776,2.41498e-05,0,
1,0.0158944,-0.00432151,-0.229781,1.35701e-05,0,
1,0.0138249,-0.00161963,-0.229785,6.60759e-06,0,
1,0.0119898,0.000467224,-0.229787,2.78838e-06,0,
1,0.0103632,0.00194526,-0.229789,1.02259e-06,0,
1,0.00892169,0.0028908,-0.229789,3.2136e-07,0,
1,0.00764438,0.00341154,-0.229791,8.0167e-08,0,
1,0.00651264,0.00361358,-0.229791,1.02872e-08,0,
1,0.00550983,0.00358662,-0.229792,-4.41446e-09,0,
1,0.00462115,0.00340086,-0.229792,-4.63774e-09,0,
1,0.00383341,0.00310944,-0.229792,-2.6134e-09,0,
1,0.0031349,0.00275164,-0.229792,-1.14315e-09,0,
1,0.00251518,0.00235622,-0.229793,-4.11298e-10,0,
1,0.00196502,0.0019438,-0.229792,-1.20449e-10,0,
1,0.00147619,0.001529,-0.229793,-2.71388e-11,0,
1,0.00104139,0.00112181,-0.229792,-4.16566e-12,0,
1,0.000654158,0.000728871,-0.229794,-3.36642e-13,0,
1,0.000308731,0.000354249,-0.229792,-7.88323e-15,0,

4,0,0,-0.149862,0,0,
4,9,0,-0.0978898,0,0,
4,8.99969,0.014229,-0.0978894,2.2221e-10,0,
4,8.99934,0.0303159,-0.0978897,1.03096e-08,0,
4,8.99894,0.0485218,-0.0978894,1.40779e-07,0,
4,8.9985,0.0691229,-0.0978896,1.02188e-06,0,
4,8.99799,0.0924003,-0.0978894,5.07258e-06,0,
4,8.99742,0.118557,-0.0978895,1.92114e-05,0,
4,8.99677,0.147511,-0.0978893,5.76796e-05,0,
4,8.99605,0.178588,-0.0978894,0.000137915,0,
4,8.99522,0.210438,-0.0978891,0.000263885,0,
4,8.99429,0.241523,-0.0978891,0.000415553,0,
4,8.99324,0.270776,-0.0978888,0.000565036,0,
4,8.99205,0.297811,-0.0978885,0.000694515,0,
4,8.9907,0.322704,-0.097888,0.000798506,0,
4,8.98919,0.345629,-0.0978876,0.000886163,0,
4,8.98747,0.366771,-0.0978868,0.000959109,0,
4,8.98553,0.3864,-0.0978861,0.00101648,0,
4,8.98334,0.404796,-0.0978851,0.0010628,0,
4,8.98087,0.422174,-0.097884,0.00110191,0,
4,8.97807,0.438706,-0.0978825,0.00113512,0,
4,8.97491,0.45453,-0.0978809,0.00116373,0,
4,8.97134,0.469767,-0.097879,0.00118872,0,
4,8.96731,0.484517,-0.0978768,0.0012108,0,
4,8.96276,0.498863,-0.0978742,0.00123051,0,
4,8.95762,0.51288,-0.0978712,0.00124821,0,
4,8.95182,0.526629,-0.0978678,0.00126415,0,
4,8.94526,0.540164,-0.0978639,0.00127849,0,
4,8.93787,0.55353,-0.0978595,0.00129129,0,
4,8.92952,0.566768,-0.0978545,0.00130256,0,
4,8.92011,0.579912,-0.0978491,0.00131226,0,
4,8.90949,0.59299,-0.097843,0.00132028,0,
4,8.89751,0.606029,-0.0978364,0.0013265,0,
4,8.88402,0.619048,-0.0978292,0.00133077,0,
4,8.86881,0.632067,-0.0978216,0.0013329,0,
4,8.85169,0.645099,-0.0978136,0.00133272,0,
4,8.83242,0.658158,-0.0978055,0.00133003,0,
4,8.81074,0.671255,-0.0977974,0.00132466,0,
4,8.78637,0.684402,-0.0977896,0.0013164,0,
4,8.75901,0.697612,-0.0977823,0.00130507,0,
4,8.7283,0.710898,-0.0977763,0.00129049,0,
4,8.69387,0.72428,-0.0977718,0.00127244,0,
4,8.65533,0.73778,-0.09777,0.00125067,0,
4,8.61222,0.75143,-0.0977717,0.00122488,0,
4,8.56407,0.765271,-0.0977784,0.00119468,0,
4,8.5104,0.779355,-0.0977911,0.00115986,0,
4,8.45065,0.793759,-0.0978132,0.00112224,0,
4,8.38429,0.808636,-0.0978474,0.00107457,0,
4,8.31073,0.82422,-0.0978956,0.00101729,0,
4,8.22941,0.840774,-0.0979619,0.000947094,0,
4,8.13974,0.858563,-0.0980494,0.000859612,0,
4,8.04115,0.877764,-0.0981598,0.000751205,0,
4,7.93313,0.89827,-0.0982987,0.000622103,0,
4,7.81519,0.91938,-0.0984579,0.000481313,0,
4,7.68693,0.939634,-0.0986615,0.000346264,0,
4,7.54803,0.957137,-0.098891,0.000204755,0,
4,7.39831,0.969993,-0.0991648,9.0262e-05,0,
4,7.23771,0.977307,-0.0994988,2.79524e-05,0,
4,7.06634,0.98001,-0.0998814,4.60156e-06,0,
4,6.88453,0.980156,-0.100315,-2.65388e-08,0,
4,6.69275,0.979596,-0.100801,-1.09198e-07,0,
4,6.49173,0.97927,-0.101347,1.6247e-08,0,
4,6.28238,0.979336,-0.101961,2.31432e-08,0,
4,6.06579,0.979632,-0.10265,1.3494e-08,0,
4,5.84328,0.98,-0.10342,9.04685e-09,0,
4,5.61626,0.980377,-0.104275,7.83493e-09,0,
4,5.3863,0.980762,-0.105221,7.86302e-09,0,
4,5.15502,0.98117,-0.106258,8.39374e-09,0,
4,4.92406,0.981617,-0.107389,9.18167e-09,0,
4,4.69507,0.982112,-0.108613,1.01343e-08,0,
4,4.46961,0.98266,-0.109929,1.11089e-08,0,
4,4.24915,0.983242,-0.111332,1.18045e-08,0,
4,4.03501,0.983805,-0.112817,1.19245e-08,0,
4,3.82836,0.98428,-0.114376,1.17063e-08,0,
4,3.63018,0.984668,-0.115998,1.25234e-08,0,
4,3.44125,0.985147,-0.117671,1.72301e-08,0,
4,3.26217,0.98607,-0.119385,5.96496e-08,0,
4,3.09333,0.987736,-0.121124,5.31053e-07,0,
4,2.93497,0.989975,-0.122874,2.49917e-06,0,
4,2.78715,0.991951,-0.124619,4.79621e-06,0,
4,2.64979,0.992495,-0.126341,6.31437e-08,0,
4,2.52268,0.99068,-0.128023,-2.13477e-05,0,
4,2.40551,0.986169,-0.129644,-6.46091e-05,0,
4,2.29789,0.979194,-0.131186,-0.000128422,0,
4,2.19939,0.970338,-0.132636,-0.000206822,0,
4,2.10949,0.960284,-0.133985,-0.000292037,0,
4,2.02768,0.949664,-0.135232,-0.000376448,0,
4,1.95343,0.938994,-0.136379,-0.00045385,0,
4,1.88618,0.928657,-0.137425,-0.00052206,0,
4,1.82542,0.918832,-0.138382,-0.000568903,0,
4,1.77062,0.90958,-0.139254,-0.000608062,0,
4,1.72128,0.900952,-0.140038,-0.000643357,0,
4,1.67693,0.892983,-0.140746,-0.000674868,0,
4,1.63713,0.885673,-0.141382,-0.000702939,0,
4,1.60144,0.879003,-0.141953,-0.000727922,0,
4,1.56949,0.872942,-0.142465,-0.000750216,0,
4,1.54091,0.867453,-0.142923,-0.000770283,0,
4,1.51537,0.862477,-0.143334,-0.000788508,0,
4,1.49167,0.857818,-0.143713,-0.000805322,0,
4,1.46926,0.853389,-0.144073,-0.000821221,0,
4,1.44801,0.849173,-0.144413,-0.000836447,0,
4,1.42781,0.845136,-0.144745,-0.000845376,0,
4,1.40855,0.841236,-0.145067,-0.000851625,0,
4,1.39015,0.83745,-0.145374,-0.000857392,0,
4,1.37252,0.833765,-0.145669,-0.00086204,0,
4,1.3556,0.830165,-0.145953,-0.000866101,0,
4,1.3393,0.826633,-0.146228,-0.000870147,0,
4,1.32357,0.82315,-0.146494,-0.000875095,0,
4,1.30836,0.819699,-0.146752,-0.0008817,0,
4,1.29362,0.816256,-0.147002,-0.000891008,0,
4,1.2793,0.812796,-0.147246,-0.000904337,0,
4,1.26537,0.809288,-0.147483,-0.000923316,0,
4,1.25179,0.805695,-0.147716,-0.000949916,0,
4,1.23852,0.801972,-0.147942,-0.000986472,0,
4,1.22554,0.79807,-0.148165,-0.00103569,0,
4,1.21282,0.793928,-0.148382,-0.00110057,0,
4,1.20034,0.789479,-0.148595,-0.00118433,0,
4,1.18806,0.784651,-0.148803,-0.00129015,0,
4,1.17599,0.779372,-0.149006,-0.00142089,0,
4,1.16408,0.773574,-0.149205,-0.00157873,0,
4,1.15233,0.767204,-0.149399,-0.00176474,0,
4,1.14073,0.760226,-0.149589,-0.00197863,0,
4,1.12925,0.752632,-0.149774,-0.00221857,0,
4,1.11788,0.744435,-0.149955,-0.00248132,0,
4,1.10661,0.735671,-0.150131,-0.0027625,0,
4,1.09543,0.726393,-0.150304,-0.00305704,0,
4,1.08432,0.716664,-0.150472,-0.00335958,0,
4,1.07328,0.70655,-0.150637,-0.00366495,0,
4,1.0623,0.69612,-0.150799,-0.00396839,0,
4,1.05136,0.685434,-0.150957,-0.00426573,0,
4,1.04044,0.674531,-0.151112,-0.0045536,0,
4,1.0295,0.663443,-0.151265,-0.00482942,0,
4,1.01855,0.652212,-0.151416,-0.00509068,0,
4,1.00757,0.640875,-0.151564,-0.00533511,0,
4,0.996544,0.629464,-0.151709,-0.00556106,0,
4,0.98547,0.618007,-0.151851,-0.00576687,0,
4,0.974334,0.606529,-0.151992,-0.0059511,0,
4,0.963124,0.595051,-0.152128,-0.00611279,0,
4,0.951826,0.583592,-0.152267,-0.00627039,0,
4,0.940428,0.572097,-0.15238,-0.00639321,0,
4,0.928915,0.560426,-0.152459,-0.00649161,0,
4,0.917272,0.548456,-0.152531,-0.00659692,0,
4,0.905481,0.536115,-0.152601,-0.00670989,0,
4,0.893524,0.523352,-0.152671,-0.00683091,0,
4,0.881383,0.510128,-0.152744,-0.00696015,0,
4,0.869035,0.496408,-0.15282,-0.00709756,0,
4,0.856459,0.48216,-0.1529,-0.00724289,0,
4,0.843629,0.467356,-0.152984,-0.00739573,0,
4,0.830518,0.451969,-0.153071,-0.00755545,0,
4,0.817097,0.435979,-0.153161,-0.00772128,0,
4,0.803334,0.419367,-0.153254,-0.00789228,0,
4,0.789195,0.40212,-0.153348,-0.00806733,0,
4,0.774643,0.384228,-0.153444,-0.00824508,0,
4,0.759639,0.36569,-0.15354,-0.00842387,0,
4,0.744138,0.346511,-0.153638,-0.00860161,0,
4,0.728096,0.326711,-0.153738,-0.00877566,0,
4,0.711463,0.306328,-0.15384,-0.00894283,0,
4,0.694189,0.285417,-0.153947,-0.00909913,0,
4,0.676218,0.264045,-0.154058,-0.00923924,0,
4,0.657495,0.242279,-0.154173,-0.00935763,0,
4,0.637962,0.220181,-0.154291,-0.00944932,0,
4,0.617561,0.197788,-0.154408,-0.00951032,0,
4,0.596848,0.175733,-0.154513,-0.00953619,0,
4,0.576557,0.154751,-0.154605,-0.00952584,0,
4,0.556564,0.134703,-0.154682,-0.00948106,0,
4,0.536763,0.115487,-0.154754,-0.00940277,0,
4,0.517057,0.0970772,-0.154838,-0.00929147,0,
4,0.497368,0.0795418,-0.154966,-0.00914852,0,
4,0.477632,0.0630377,-0.155173,-0.00897788,0,
4,0.457804,0.0477414,-0.155473,-0.00878733,0,
4,0.437857,0.0337289,-0.155856,-0.00859056,0,
4,0.417786,0.0208267,-0.156012,-0.00836962,0,
4,0.397605,0.00856574,-0.155861,-0.00791008,0,
4,0.377348,-0.00335507,-0.155671,-0.00755523,0,
4,0.357066,-0.0149228,-0.1555,-0.00718989,0,
4,0.336828,-0.0261095,-0.155308,-0.00681489,0,
4,0.316717,-0.0368761,-0.155106,-0.00643532,0,
4,0.296825,-0.0471769,-0.154892,-0.00605174,0,
4,0.27725,-0.0569709,-0.154666,-0.00566589,0,
4,0.258095,-0.0662267,-0.154431,-0.00528026,0,
4,0.239458,-0.0749233,-0.154186,-0.00489766,0,
4,0.221432,-0.0830498,-0.153934,-0.00452095,0,
4,0.2041,-0.0906047,-0.153677,-0.00415283,0,
4,0.187537,-0.0975949,-0.153416,-0.00379579,0,
4,0.171798,-0.104034,-0.153153,-0.00345196,0,
4,0.156928,-0.109941,-0.152891,-0.00312315,0,
4,0.142956,-0.11534,-0.152633,-0.00281073,0,
4,0.129894,-0.120256,-0.152381,-0.00251571,0,
4,0.117744,-0.124716,-0.152138,-0.00223871,0,
4,0.106492,-0.128747,-0.151904,-0.00197998,0,
4,0.0961173,-0.132378,-0.151684,-0.00173949,0,
4,0.0865883,-0.135635,-0.151476,-0.00151694,0,
4,0.0778675,-0.138541,-0.151284,-0.00131181,0,
4,0.0699123,-0.14112,-0.151106,-0.00112342,0,
4,0.062677,-0.143392,-0.150944,-0.000950957,0,
4,0.056114,-0.145376,-0.150797,-0.000793532,0,
4,0.0501747,-0.147089,-0.150665,-0.000650204,0,
4,0.0448114,-0.148542,-0.150547,-0.000520013,0,
4,0.039977,-0.149747,-0.150442,-0.000402009,0,
4,0.0356266,-0.150712,-0.150349,-0.000295265,0,
4,0.0317171,-0.15144,-0.150268,-0.000198902,0,
4,0.0282081,-0.151931,-0.150198,-0.000112106,0,
4,0.0250617,-0.152181,-0.150137,-3.41376e-05,0,
4,0.0222427,-0.152179,-0.150085,3.56395e-05,0,
4,0.0197189,-0.151907,-0.15004,9.77381e-05,0,
4,0.0174603,-0.151335,-0.150002,0.000152504,0,
4,0.0154398,-0.15042,-0.149971,0.000200049,0,
4,0.0136326,-0.149098,-0.149944,0.000240143,0,
4,0.0120162,-0.147276,-0.149923,0.00027203,0,
4,0.0105703,-0.144821,-0.149906,0.000294156,0,
4,0.00927657,-0.141538,-0.149893,0.00030384,0,
4,0.00811839,-0.137168,-0.149883,0.000297193,0,
4,0.0070809,-0.131384,-0.149876,0.000270175,0,
4,0.0061507,-0.123872,-0.149871,0.00022204,0,
4,0.00531578,-0.114496,-0.149869,0.000160048,0,
4,0.00456537,-0.103502,-0.149866,9.90693e-05,0,
4,0.00388979,-0.0915103,-0.149866,5.24748e-05,0,
4,0.00328037,-0.079245,-0.149865,2.4017e-05,0,
4,0.00272934,-0.0672472,-0.149865,9.58467e-06,0,
4,0.0022297,-0.0558037,-0.149864,3.31803e-06,0,
4,0.00177519,-0.0450176,-0.149865,9.67996e-07,0,
4,0.00136016,-0.0348932,-0.149863,2.23141e-07,0,
4,0.000979511,-0.0253902,-0.149865,3.57733e-08,0,
4,0.00062865,-0.0164505,-0.149863,3.05529e-09,0,
4,0.000303409,-0.00800993,-0.149865,7.45178e-11,0,

6,0,0,-0.0153695,0,0,
6,9,0,-0.0738646,0,0,
6,8.99969,0.0134887,-0.0738643,1.85213e-10,0,
6,8.99934,0.0286997,-0.0738646,8.54803e-09,0,
6,8.99895,0.0458704,-0.0738643,1.15893e-07,0,
6,8.9985,0.0652513,-0.0738645,8.35249e-07,0,
6,8.99801,0.0871005,-0.0738643,4.12375e-06,0,
6,8.99744,0.111618,-0.0738644,1.56033e-05,0,
6,8.99681,0.138778,-0.0738642,4.71842e-05,0,
6,8.99609,0.168059,-0.0738643,0.000114794,0,
6,8.99529,0.198316,-0.0738641,0.00022519,0,
6,8.99438,0.228119,-0.073864,0.000364002,0,
6,8.99336,0.256368,-0.0738638,0.000505786,0,
6,8.9922,0.282564,-0.0738636,0.000633155,0,
6,8.9909,0.306704,-0.0738632,0.000736391,0,
6,8.98944,0.328946,-0.0738628,0.000823147,0,
6,8.98779,0.349462,-0.0738622,0.000896131,0,
6,8.98593,0.3685,-0.0738616,0.00095391,0,
6,8.98383,0.386319,-0.0738608,0.00100136,0,
6,8.98147,0.403124,-0.0738598,0.00104154,0,
6,8.97881,0.41908,-0.0738586,0.00107596,0,
6,8.97581,0.434329,-0.0738572,0.00110594,0,
6,8.97244,0.448988,-0.0738555,0.00113249,0,
6,8.96863,0.463158,-0.0738536,0.00115636,0,
6,8.96435,0.476925,-0.0738512,0.0011781,0,
6,8.95953,0.490363,-0.0738485,0.00119813,0,
6,8.95409,0.503537,-0.0738453,0.00121671,0,
6,8.94798,0.516503,-0.0738416,0.00123403,0,
6,8.94109,0.52931,-0.0738373,0.00125017,0,
6,8.93334,0.542001,-0.0738323,0.00126515,0,
6,8.92463,0.554615,-0.0738267,0.00127892,0,
6,8.91482,0.567184,-0.0738202,0.00129137,0,
6,8.90379,0.579739,-0.0738129,0.00130235,0,
6,8.89139,0.592302,-0.0738047,0.00131165,0,
6,8.87746,0.604896,-0.0737954,0.00131905,0,
6,8.86181,0.617538,-0.0737851,0.00132428,0,
6,8.84423,0.630242,-0.0737738,0.00132707,0,
6,8.82452,0.643018,-0.0737613,0.00132714,0,
6,8.80241,0.655876,-0.0737478,0.0013242,0,
6,8.77763,0.668824,-0.073733,0.00131798,0,
6,8.74989,0.681869,-0.0737171,0.00130823,0,
6,8.71885,0.695019,-0.0737,0.00129471,0,
6,8.68417,0.708285,-0.0736818,0.00127718,0,
6,8.64545,0.721682,-0.0736627,0.00125538,0,
6,8.60229,0.735231,-0.0736428,0.00122902,0,
6,8.55423,0.74896,-0.0736225,0.00119777,0,
6,8.50082,0.76291,-0.0736015,0.00116189,0,
6,8.44155,0.777149,-0.0735813,0.00112081,0,
6,8.37592,0.791803,-0.0735623,0.00107319,0,
6,8.30339,0.807068,-0.073545,0.00101726,0,
6,8.22344,0.823206,-0.0735289,0.00095012,0,
6,8.13555,0.840516,-0.0735149,0.000868051,0,
6,8.0392,0.859251,-0.0734984,0.000767606,0,
6,7.93391,0.879408,-0.0734792,0.000648494,0,
6,7.81927,0.900404,-0.0734458,0.000517147,0,
6,7.6949,0.920867,-0.0734031,0.000388606,0,
6,7.56054,0.938959,-0.0733424,0.000272631,0,
6,7.41603,0.953066,-0.0732669,0.000141189,0,
6,7.26132,0.962198,-0.0731826,5.62086e-05,0,
6,7.09653,0.966591,-0.0730777,1.43913e-05,0,
6,6.92195,0.967693,-0.0729528,7.6934e-07,0,
6,6.73802,0.967262,-0.0728004,-1.04613e-06,0,
6,6.5454,0.966543,-0.0726171,-4.94217e-07,0,
6,6.34489,0.966044,-0.072399,-1.40836e-07,0,
6,6.1375,0.965789,-0.0721427,-3.8772e-08,0,
6,5.92439,0.965639,-0.0718436,-1.4833e-08,0,
6,5.70687,0.965484,-0.0714968,-8.43934e-09,0,
6,5.48633,0.965281,-0.0710972,-6.54287e-09,0,
6,5.26426,0.965026,-0.0706392,-6.24199e-09,0,
6,5.04218,0.964728,-0.0701177,-6.56096e-09,0,
6,4.82159,0.9644,-0.069528,-7.10384e-09,0,
6,4.60398,0.964053,-0.0688657,-7.77868e-09,0,
6,4.39071,0.963687,-0.0681278,-8.74405e-09,0,
6,4.18307,0.963272,-0.0673126,-1.03345e-08,0,
6,3.98218,0.962747,-0.0664199,-1.27756e-08,0,
6,3.78902,0.962054,-0.0654515,-1.57454e-08,0,
6,3.60438,0.961214,-0.0644116,-2.0068e-08,0,
6,3.42888,0.960395,-0.063306,-4.15199e-08,0,
6,3.26296,0.959885,-0.062142,-1.10281e-07,0,
6,3.10691,0.95993,-0.0609271,-1.50937e-07,0,
6,2.96084,0.960518,-0.0596695,-6.36695e-10,0,
6,2.82473,0.961279,-0.0583794,-3.61587e-07,0,
6,2.69844,0.961602,-0.0570699,-4.05042e-06,0,
6,2.58172,0.960876,-0.0557566,-1.54182e-05,0,
6,2.47424,0.958699,-0.0544556,-3.81612e-05,0,
6,2.37559,0.954958,-0.0531823,-7.37613e-05,0,
6,2.28535,0.949786,-0.0519503,-0.000121329,0,
6,2.20301,0.943474,-0.0507705,-0.000178193,0,
6,2.1281,0.936372,-0.0496513,-0.000240717,0,
6,2.06009,0.92883,-0.0485986,-0.000304965,0,
6,1.99849,0.92116,-0.0476144,-0.00036708,0,
6,1.9428,0.913621,-0.0467022,-0.000423872,0,
6,1.89255,0.906408,-0.045856,-0.000474614,0,
6,1.84728,0.899611,-0.0450826,-0.000516678,0,
6,1.80655,0.893227,-0.0443802,-0.000546943,0,
6,1.76996,0.887257,-0.043734,-0.0005747,0,
6,1.73712,0.881721,-0.0431478,-0.00060013,0,
6,1.70768,0.876593,-0.0426124,-0.00062368,0,
6,1.67998,0.871646,-0.0421055,-0.000646547,0,
6,1.65329,0.866783,-0.0416105,-0.000668906,0,
6,1.62754,0.862004,-0.0411281,-0.000690704,0,
6,1.60265,0.857306,-0.0406567,-0.000712037,0,
6,1.57854,0.852689,-0.0401959,-0.000732868,0,
6,1.55515,0.848152,-0.0397447,-0.000753218,0,
6,1.53242,0.843693,-0.0393025,-0.000773114,0,
6,1.5103,0.839307,-0.0388688,-0.000792545,0,
6,1.48874,0.834982,-0.0384432,-0.000811479,0,
6,1.46769,0.830701,-0.0380253,-0.000829978,0,
6,1.44712,0.826448,-0.0376138,-0.000848335,0,
6,1.42698,0.822222,-0.0372072,-0.000867165,0,
6,1.40725,0.818055,-0.0368026,-0.000887183,0,
6,1.38788,0.814003,-0.0364008,-0.000908739,0,
6,1.36886,0.810104,-0.0359985,-0.000930818,0,
6,1.35015,0.806318,-0.0356112,-0.000941371,0,
6,1.33173,0.802563,-0.0352349,-0.000948163,0,
6,1.31357,0.798795,-0.0348564,-0.000959708,0,
6,1.29566,0.794997,-0.0344834,-0.000973436,0,
6,1.27797,0.791146,-0.0341123,-0.000990388,0,
6,1.26048,0.787218,-0.0337444,-0.00101186,0,
6,1.24318,0.783178,-0.0333788,-0.00103946,0,
6,1.22605,0.77899,-0.0330157,-0.00107507,0,
6,1.20907,0.774607,-0.0326548,-0.00112084,0,
6,1.19223,0.769978,-0.0322961,-0.00117909,0,
6,1.17551,0.765045,-0.0319396,-0.00125224,0,
6,1.1589,0.759746,-0.0315852,-0.00134258,0,
6,1.14238,0.754022,-0.0312331,-0.00145206,0,
6,1.12595,0.747818,-0.0308834,-0.001582,0,
6,1.10959,0.741091,-0.0305362,-0.00173283,0,
6,1.09329,0.733812,-0.030192,-0.00190392,0,
6,1.07704,0.725975,-0.029851,-0.0020935,0,
6,1.06081,0.717585,-0.0295131,-0.00229874,0,
6,1.04459,0.708668,-0.0291788,-0.00251604,0,
6,1.02836,0.699265,-0.0288478,-0.00274121,0,
6,1.01211,0.689428,-0.0285211,-0.00296975,0,
6,0.99583,0.679215,-0.0281977,-0.00319741,0,
6,0.97951,0.668684,-0.0278801,-0.00342746,0,
6,0.963136,0.657845,-0.027561,-0.0036492,0,
6,0.946694,0.646633,-0.0272373,-0.00386297,0,
6,0.930172,0.634966,-0.0269168,-0.00408335,0,
6,0.913555,0.622781,-0.0266001,-0.00431259,0,
6,0.896829,0.610026,-0.0262888,-0.00455232,0,
6,0.879979,0.596657,-0.0259831,-0.00480376,0,
6,0.862989,0.582643,-0.0256836,-0.00506776,0,
6,0.845842,0.567975,-0.0253907,-0.00534496,0,
6,0.828521,0.552666,-0.0251052,-0.00563592,0,
6,0.811008,0.536747,-0.0248291,-0.00593903,0,
6,0.793282,0.520245,-0.0245644,-0.00624855,0,
6,0.775322,0.503182,-0.0243123,-0.00656195,0,
6,0.757107,0.485578,-0.0240742,-0.00687633,0,
6,0.738612,0.467465,-0.0238518,-0.00718823,0,
6,0.719813,0.448888,-0.0236463,-0.00749364,0,
6,0.700681,0.429904,-0.0234583,-0.00778804,0,
6,0.681188,0.410574,-0.0232862,-0.0080665,0,
6,0.661304,0.390955,-0.0231265,-0.00832374,0,
6,0.640996,0.371089,-0.0229745,-0.00855408,0,
6,0.620228,0.351018,-0.0228294,-0.00875134,0,
6,0.598964,0.33082,-0.0227021,-0.00890887,0,
6,0.577166,0.310675,-0.022622,-0.00902093,0,
6,0.554791,0.290916,-0.0226431,-0.00908466,0,
6,0.531799,0.271993,-0.0228047,-0.00910153,0,
6,0.508144,0.254274,-0.023133,-0.009079,0,
6,0.48378,0.237715,-0.0232513,-0.00896397,0,
6,0.459585,0.222348,-0.0230645,-0.00857986,0,
6,0.436695,0.208406,-0.0228811,-0.00828359,0,
6,0.414961,0.195674,-0.0227121,-0.00797924,0,
6,0.394252,0.183974,-0.0225241,-0.00766702,0,
6,0.374445,0.173158,-0.0223371,-0.00735375,0,
6,0.355433,0.163115,-0.0221487,-0.00704072,0,
6,0.337122,0.153748,-0.0219578,-0.00672735,0,
6,0.319433,0.144981,-0.0217627,-0.00641435,0,
6,0.3023,0.136747,-0.0215623,-0.00610232,0,
6,0.28567,0.128991,-0.0213555,-0.00579181,0,
6,0.269507,0.121668,-0.0211413,-0.00548343,0,
6,0.253785,0.114744,-0.0209193,-0.00517784,0,
6,0.238493,0.108188,-0.0206889,-0.0048758,0,
6,0.223631,0.101979,-0.0204501,-0.00457821,0,
6,0.209207,0.0960976,-0.0202033,-0.00428603,0,
6,0.195237,0.0905304,-0.0199493,-0.00400032,0,
6,0.181744,0.0852648,-0.019689,-0.00372219,0,
6,0.168754,0.0802905,-0.0194241,-0.00345273,0,
6,0.156292,0.0755978,-0.0191563,-0.003193,0,
6,0.144384,0.0711773,-0.0188877,-0.00294394,0,
6,0.133052,0.0670195,-0.0186207,-0.00270639,0,
6,0.122315,0.0631146,-0.0183575,-0.00248103,0,
6,0.112183,0.0594519,-0.0181005,-0.00226834,0,
6,0.102665,0.0560207,-0.0178517,-0.00206863,0,
6,0.0937597,0.0528094,-0.0176132,-0.001882,0,
6,0.0854609,0.0498062,-0.0173866,-0.00170842,0,
6,0.077757,0.0469989,-0.017173,-0.00154764,0,
6,0.0706309,0.0443755,-0.0169735,-0.00139931,0,
6,0.0640611,0.0419237,-0.0167886,-0.00126296,0,
6,0.0580229,0.0396314,-0.0166185,-0.00113803,0,
6,0.0524888,0.0374868,-0.0164631,-0.00102389,0,
6,0.0474296,0.0354783,-0.0163221,-0.000919871,0,
6,0.042815,0.0335946,-0.0161949,-0.000825294,0,
6,0.0386145,0.0318248,-0.0160809,-0.000739459,0,
6,0.0347975,0.0301583,-0.0159793,-0.000661678,0,
6,0.0313344,0.0285849,-0.0158891,-0.00059128,0,
6,0.0281964,0.0270947,-0.0158095,-0.000527619,0,
6,0.0253561,0.0256778,-0.0157395,-0.000470078,0,
6,0.0227875,0.0243247,-0.0156785,-0.000418072,0,
6,0.0204662,0.0230256,-0.0156252,-0.000371046,0,
6,0.0183694,0.0217708,-0.0155793,-0.000328478,0,
6,0.016476,0.02055,-0.0155397,-0.00028987,0,
6,0.0147664,0.0193522,-0.0155061,-0.000254746,0,
6,0.0132228,0.0181658,-0.0154772,-0.000222642,0,
6,0.0118288,0.0169773,-0.0154535,-0.000193098,0,
6,0.0105693,0.0157719,-0.0154332,-0.000165646,0,
6,0.00943073,0.0145326,-0.0154175,-0.000139806,0,
6,0.00840063,0.0132409,-0.015404,-0.000115118,0,
6,0.00746774,0.0118793,-0.0153948,-9.12485e-05,0,
6,0.00662185,0.0104373,-0.0153866,-6.82505e-05,0,
6,0.00585371,0.00892358,-0.0153825,-4.69353e-05,0,
6,0.00515491,0.00738005,-0.0153781,-2.89032e-05,0,
6,0.00451788,0.00588354,-0.0153772,-1.56689e-05,0,
6,0.00393573,0.00452043,-0.0153747,-7.46311e-06,0,
6,0.00340221,0.00335066,-0.0153754,-3.14861e-06,0,
6,0.00291168,0.00239335,-0.0153733,-1.18434e-06,0,
6,0.00245897,0.00163734,-0.0153746,-3.95057e-07,0,
6,0.00203939,0.00105788,-0.0153723,-1.14107e-07,0,
6,0.00164864,0.000627765,-0.0153743,-2.71516e-08,0,
6,0.00128281,0.000322416,-0.0153714,-4.85079e-09,0,
6,0.000938257,0.000121404,-0.015374,-5.42389e-10,0,
6,0.000611645,8.51037e-06,-0.0153705,-2.4749e-11,0,
6,0.000299862,-2.87347e-05,-0.015374,-3.72624e-14,0,

10,0.000296632,0.00856949,0.0293117,-5.12576e-11,0,
10,0.000596102,0.0172176,0.0293123,-1.89955e-09,0,
10,0.000900397,0.0260017,0.0293117,-1.93116e-08,0,
10,0.00121153,0.0349793,0.0293122,-1.03762e-07,0,
10,0.00153158,0.044208,0.0293116,-3.88034e-07,0,
10,0.00186264,0.0537444,0.029312,-1.15321e-06,0,
10,0.00220692,0.0636409,0.0293116,-2.9251e-06,0,
10,0.00256668,0.0739413,0.0293119,-6.59717e-06,0,
10,0.00294431,0.0846722,0.0293115,-1.3551e-05,0,
10,0.00334229,0.0958315,0.0293117,-2.56953e-05,0,
10,0.00376326,0.107374,0.0293113,-4.52859e-05,0,
10,0.00421,0.119198,0.0293115,-7.43998e-05,0,
10,0.00468544,0.131144,0.029311,-0.000114112,0,
10,0.00519274,0.14301,0.029311,-0.000163764,0,
10,0.00573524,0.154579,0.0293104,-0.000220847,0,
10,0.00631651,0.165657,0.0293102,-0.000281706,0,
10,0.00694041,0.176097,0.0293093,-0.000342608,0,
10,0.00761104,0.185811,0.0293086,-0.000400594,0,
10,0.00833284,0.194766,0.0293073,-0.0004538,0,
10,0.00911058,0.202968,0.0293059,-0.000501375,0,
10,0.0099494,0.210454,0.0293039,-0.000543224,0,
10,0.0108548,0.217278,0.0293016,-0.000579733,0,
10,0.0118329,0.223502,0.0292986,-0.000611546,0,
10,0.0128901,0.229192,0.0292951,-0.000639423,0,
10,0.0140333,0.23441,0.0292907,-0.000664132,0,
10,0.0152702,0.239215,0.0292856,-0.000686402,0,
10,0.0166089,0.243662,0.0292795,-0.000706895,0,
10,0.0180584,0.247799,0.0292724,-0.000726199,0,
10,0.0196282,0.251668,0.0292641,-0.000744827,0,
10,0.0213288,0.255306,0.0292546,-0.000763234,0,
10,0.0231714,0.258746,0.0292435,-0.000781818,0,
10,0.0251682,0.262018,0.029231,-0.00080094,0,
10,0.0273326,0.265147,0.0292167,-0.000820928,0,
10,0.0296789,0.268155,0.0292004,-0.00084209,0,
10,0.0322227,0.271064,0.0291821,-0.00086472,0,
10,0.0349809,0.27389,0.0291615,-0.000889105,0,
10,0.0379719,0.276652,0.0291384,-0.000915531,0,
10,0.0412155,0.279364,0.0291125,-0.00094429,0,
10,0.0447333,0.282041,0.0290837,-0.00097568,0,
10,0.0485489,0.284696,0.0290516,-0.00101001,0,
10,0.0526875,0.287344,0.029016,-0.00104762,0,
10,0.0571768,0.289997,0.0289767,-0.00108885,0,
10,0.0620466,0.292669,0.0289333,-0.00113406,0,
10,0.0673295,0.295372,0.0288856,-0.00118366,0,
10,0.0730607,0.298121,0.0288332,-0.00123807,0,
10,0.0792784,0.300929,0.0287759,-0.00129774,0,
10,0.0860241,0.303812,0.0287135,-0.00136315,0,
10,0.0933428,0.306787,0.0286456,-0.00143482,0,
10,0.101283,0.309869,0.028572,-0.00151331,0,
10,0.109899,0.31308,0.0284926,-0.00159919,0,
10,0.119247,0.316439,0.0284071,-0.0016931,0,
10,0.12939,0.31997,0.0283155,-0.00179567,0,
10,0.140395,0.323701,0.0282176,-0.00190759,0,
10,0.152337,0.32766,0.0281136,-0.00202954,0,
10,0.165296,0.331882,0.0280034,-0.00216222,0,
10,0.179357,0.336405,0.0278872,-0.00230632,0,
10,0.194615,0.341274,0.0277652,-0.00246248,0,
10,0.211171,0.346539,0.0276378,-0.0026313,0,
10,0.229138,0.352259,0.0275049,-0.00281322,0,
10,0.248635,0.358503,0.0273675,-0.00300854,0,
10,0.269793,0.365348,0.0272246,-0.00321729,0,
10,0.292753,0.372886,0.0270787,-0.00343911,0,
10,0.317669,0.381221,0.0269257,-0.00367189,0,
10,0.344708,0.390467,0.0267712,-0.00391249,0,
10,0.372405,0.400184,0.0266206,-0.00414977,0,
10,0.399623,0.409992,0.0264762,-0.00437238,0,
10,0.426397,0.419894,0.0263389,-0.00457735,0,
10,0.452757,0.429895,0.026207,-0.00476599,0,
10,0.478735,0.440004,0.0260829,-0.00493605,0,
10,0.504358,0.45024,0.0259667,-0.00508665,0,
10,0.529657,0.460626,0.0258598,-0.00521562,0,
10,0.554656,0.471185,0.0257567,-0.0053237,0,
10,0.579382,0.481934,0.025662,-0.00541012,0,
10,0.603859,0.492882,0.0255578,-0.00547852,0,
10,0.628112,0.504054,0.0254751,-0.00558701,0,
10,0.652163,0.515758,0.0254765,-0.00552581,0,
10,0.676035,0.528389,0.0254993,-0.00543452,0,
10,0.699751,0.541981,0.0254783,-0.00531337,0,
10,0.72333,0.556311,0.0254166,-0.00516105,0,
10,0.746795,0.571062,0.025318,-0.00497931,0,
10,0.770165,0.585946,0.025196,-0.00477217,0,
10,0.79346,0.600759,0.025058,-0.00454467,0,
10,0.816699,0.615371,0.0249092,-0.00430193,0,
10,0.839903,0.62969,0.0247508,-0.00404895,0,
10,0.863088,0.643625,0.024581,-0.00379132,0,
10,0.886275,0.657061,0.0243979,-0.00354173,0,
10,0.909481,0.669895,0.0242037,-0.0033009,0,
10,0.932723,0.682081,0.0240012,-0.00306913,0,
10,0.956021,0.693629,0.0237922,-0.00284697,0,
10,0.97939,0.704574,0.0235772,-0.00263502,0,
10,1.00285,0.714955,0.0233562,-0.00243385,0,
10,1.02641,0.724802,0.0231283,-0.00224394,0,
10,1.0501,0.734138,0.022894,-0.00206568,0,
10,1.07392,0.742984,0.0226527,-0.00189935,0,
10,1.0979,0.751363,0.0224062,-0.00174468,0,
10,1.12205,0.759307,0.0221544,-0.00159688,0,
10,1.14639,0.766828,0.0218945,-0.0014641,0,
10,1.17093,0.773922,0.0216262,-0.00134478,0,
10,1.19568,0.7806,0.0213503,-0.00123979,0,
10,1.22066,0.786888,0.0210662,-0.0011493,0,
10,1.24589,0.792828,0.0207757,-0.00107272,0,
10,1.27137,0.798469,0.0204769,-0.00100893,0,
10,1.29713,0.803865,0.0201736,-0.000959964,0,
10,1.32317,0.80911,0.0198642,-0.000914717,0,
10,1.34951,0.814337,0.0195489,-0.000868298,0,
10,1.37616,0.819621,0.0192299,-0.000825486,0,
10,1.40313,0.824934,0.0189029,-0.000786283,0,
10,1.43043,0.830209,0.0185684,-0.000750412,0,
10,1.45807,0.835397,0.0182256,-0.000717225,0,
10,1.48607,0.840493,0.0178757,-0.000685954,0,
10,1.51444,0.845516,0.0175186,-0.000656006,0,
10,1.54318,0.850483,0.0171547,-0.000627077,0,
10,1.57231,0.855395,0.0167835,-0.00059907,0,
10,1.60184,0.860231,0.0164049,-0.000571975,0,
10,1.63178,0.864966,0.0160185,-0.000545799,0,
10,1.66213,0.869573,0.0156251,-0.000520546,0,
10,1.69292,0.874032,0.0152237,-0.000496148,0,
10,1.72416,0.878341,0.0148163,-0.000472341,0,
10,1.75585,0.882532,0.0143996,-0.000445617,0,
10,1.78802,0.886657,0.0139742,-0.000417133,0,
10,1.82067,0.890734,0.0135425,-0.000389203,0,
10,1.85383,0.894744,0.013102,-0.000360249,0,
10,1.88751,0.898667,0.0126537,-0.000330405,0,
10,1.92173,0.902479,0.0121971,-0.00030001,0,
10,1.95652,0.906154,0.0117317,-0.000269477,0,
10,1.9919,0.90967,0.0112584,-0.000239271,0,
10,2.02791,0.913002,0.0107755,-0.000209935,0,
10,2.06456,0.916131,0.0102852,-0.000181702,0,
10,2.10268,0.919095,0.00977327,-0.000154167,0,
10,2.1443,0.921981,0.00921704,-0.00012771,0,
10,2.18977,0.924738,0.0086096,-0.000102477,0,
10,2.23946,0.927284,0.00794924,-7.87821e-05,0,
10,2.29376,0.929535,0.00723055,-5.74496e-05,0,
10,2.35309,0.931411,0.00645131,-3.91679e-05,0,
10,2.4179,0.932841,0.00560755,-2.44482e-05,0,
10,2.48863,0.933782,0.00469758,-1.35517e-05,0,
10,2.56575,0.934234,0.00371918,-6.38159e-06,0,
10,2.64971,0.934252,0.00267194,-2.42944e-06,0,
10,2.74098,0.933957,0.00155565,-8.24718e-07,0,
10,2.83997,0.933526,0.000371503,-5.30164e-07,0,
10,2.94709,0.933163,-0.000878898,-6.47145e-07,0,
10,3.06269,0.93305,-0.00219278,-6.70596e-07,0,
10,3.18706,0.933296,-0.00356665,-5.12185e-07,0,
10,3.3204,0.933903,-0.0049955,-2.97043e-07,0,
10,3.46281,0.934778,-0.0064728,-1.38735e-07,0,
10,3.61427,0.935776,-0.00798989,-5.97877e-08,0,
10,3.77463,0.936761,-0.00953625,-3.08406e-08,0,
10,3.94358,0.937653,-0.0110997,-2.202e-08,0,
10,4.12067,0.93844,-0.012667,-1.90242e-08,0,
10,4.30525,0.939154,-0.0142245,-1.76833e-08,0,
10,4.49655,0.939839,-0.0157587,-1.72057e-08,0,
10,4.6936,0.940521,-0.0172566,-1.75704e-08,0,
10,4.89531,0.941204,-0.0187059,-1.92703e-08,0,
10,5.10047,0.941873,-0.020096,-2.37576e-08,0,
10,5.30776,0.942508,-0.0214175,-3.42721e-08,0,
10,5.51581,0.943092,-0.0226631,-5.75221e-08,0,
10,5.72323,0.943621,-0.0238273,-1.07951e-07,0,
10,5.92863,0.944121,-0.0249066,-2.20968e-07,0,
10,6.13069,0.944659,-0.0258994,-4.89865e-07,0,
10,6.32816,0.945329,-0.026806,-1.10951e-06,0,
10,6.51991,0.946162,-0.0276286,-2.15799e-06,0,
10,6.70495,0.946927,-0.0283706,-2.31106e-06,0,
10,6.88244,0.946905,-0.0290353,3.81858e-06,0,
10,7.0517,0.944866,-0.0296267,2.7153e-05,0,
10,7.21224,0.939428,-0.0301451,8.09793e-05,0,
10,7.3637,0.929708,-0.0305961,0.000174452,0,
10,7.5059,0.915755,-0.030984,0.000297736,0,
10,7.63878,0.898158,-0.0313122,0.000405453,0,
10,7.76243,0.878027,-0.031591,0.000524508,0,
10,7.87701,0.857129,-0.0318146,0.000646092,0,
10,7.9828,0.836917,-0.0319997,0.000756378,0,
10,8.08014,0.8181,-0.0321482,0.000850393,0,
10,8.16941,0.800758,-0.0322713,0.000928644,0,
10,8.25106,0.784644,-0.0323728,0.000994282,0,
10,8.32554,0.769434,-0.032459,0.00105052,0,
10,8.39331,0.754847,-0.032532,0.00109961,0,
10,8.45484,0.740687,-0.0325946,0.0011428,0,
10,8.5106,0.726834,-0.032648,0.00118071,0,
10,8.56104,0.713228,-0.0326939,0.00121355,0,
10,8.60659,0.699853,-0.0327331,0.00124142,0,
10,8.64767,0.686717,-0.0327672,0.00126442,0,
10,8.68467,0.673825,-0.0327965,0.00128233,0,
10,8.71795,0.66115,-0.0328219,0.00129196,0,
10,8.74786,0.648665,-0.032844,0.0012981,0,
10,8.77471,0.636364,-0.032863,0.00129995,0,
10,8.79881,0.624245,-0.0328793,0.00129797,0,
10,8.8204,0.612299,-0.0328933,0.00129269,0,
10,8.83975,0.600515,-0.0329053,0.00128461,0,
10,8.85708,0.58888,-0.0329156,0.00127423,0,
10,8.87259,0.577374,-0.0329245,0.001262,0,
10,8.88646,0.565978,-0.0329319,0.00124833,0,
10,8.89886,0.554665,-0.0329383,0.00123356,0,
10,8.90995,0.543408,-0.0329436,0.00121796,0,
10,8.91986,0.532178,-0.032948,0.00120177,0,
10,8.92872,0.520939,-0.0329517,0.00118513,0,
10,8.93663,0.509657,-0.0329548,0.00116814,0,
10,8.94369,0.498293,-0.0329574,0.00115082,0,
10,8.95,0.486804,-0.0329595,0.00113312,0,
10,8.95564,0.475145,-0.0329613,0.00111499,0,
10,8.96067,0.463267,-0.0329627,0.00109624,0,
10,8.96517,0.451115,-0.032964,0.00107661,0,
10,8.96918,0.438627,-0.0329649,0.00105578,0,
10,8.97276,0.425735,-0.0329658,0.00103331,0,
10,8.97596,0.412358,-0.0329663,0.00100865,0,
10,8.97882,0.398404,-0.032967,0.000981067,0,
10,8.98137,0.383764,-0.0329673,0.000949623,0,
10,8.98365,0.368313,-0.0329678,0.00091311,0,
10,8.98569,0.351901,-0.0329679,0.000870153,0,
10,8.9875,0.334343,-0.0329684,0.000818359,0,
10,8.98913,0.315406,-0.0329683,0.000752999,0,
10,8.99058,0.294861,-0.0329688,0.000675762,0,
10,8.99188,0.272548,-0.0329685,0.000584322,0,
10,8.99304,0.248309,-0.032969,0.000471764,0,
10,8.99408,0.222101,-0.0329687,0.000345824,0,
10,8.99501,0.194297,-0.0329692,0.000220187,0,
10,8.99583,0.165801,-0.0329687,0.000116648,0,
10,8.99658,0.137877,-0.0329693,5.00692e-05,0,
10,8.99724,0.111637,-0.0329687,1.72743e-05,0,
10,8.99784,0.0876646,-0.0329694,4.74472e-06,0,
10,8.99837,0.0660695,-0.0329687,9.94985e-07,0,
10,8.99885,0.0467167,-0.0329695,1.42533e-07,0,
10,8.99927,0.0293953,-0.0329686,1.08212e-08,0,
10,8.99966,0.0138909,-0.0329696,2.39424e-10,0,
10,0,0,0.0293125,0,0,
10,9,0,-0.0329685,0,0,

0.004,0,0,-0.227391,0,-7.60134e-08,
0.00868226,0,0,-0.227388,0,-1.93546e-07,
0.014062,0,0,-0.227391,0,-3.37691e-07,
0.0201548,0,0,-0.22739,0,-7.6543e-07,
0.0269766,0,0,-0.22739,0,-1.25221e-06,
0.0345437,0,0,-0.227389,0,-1.81977e-06,
0.0428729,0,0,-0.227388,0,-2.27694e-06,
0.051981,0,0,-0.227386,0,-2.51479e-06,
0.0618853,0,0,-0.227383,0,-2.33124e-06,
0.0726036,0,0,-0.22738,0,-1.55288e-06,
0.0841536,0,0,-0.227377,0,-3.42953e-09,
0.0965535,0,0,-0.227374,0,2.43887e-06,
0.109822,0,0,-0.227372,0,5.79842e-06,
0.123977,0,0,-0.227372,0,9.9961e-06,
0.139037,0,0,-0.227376,0,1.48275e-05,
0.155022,0,0,-0.227385,0,2.00042e-05,
0.171949,0,0,-0.227398,0,2.51789e-05,
0.189839,0,0,-0.227416,0,3.00135e-05,
0.208709,0,0,-0.227439,0,3.42085e-05,
0.228579,0,0,-0.227465,0,3.75499e-05,
0.249467,0,0,-0.227493,0,3.99144e-05,
0.271391,0,0,-0.227523,0,4.12819e-05,
0.29437,0,0,-0.227552,0,4.17194e-05,
0.31842,0,0,-0.22758,0,4.1372e-05,
0.343559,0,0,-0.227607,0,4.04361e-05,
0.369804,0,0,-0.227632,0,3.9145e-05,
0.39717,0,0,-0.227654,0,3.77505e-05,
0.425672,0,0,-0.227675,0,3.65172e-05,
0.455324,0,0,-0.227696,0,3.57221e-05,
0.48614,0,0,-0.227717,0,3.56199e-05,
0.518132,0,0,-0.227741,0,3.64017e-05,
0.551309,0,0,-0.227771,0,3.81699e-05,
0.585683,0,0,-0.227808,0,4.09241e-05,
0.621259,0,0,-0.227858,0,4.45734e-05,
0.658046,0,0,-0.227923,0,4.89631e-05,
0.696047,0,0,-0.228007,0,5.39072e-05,
0.735265,0,0,-0.228114,0,5.92115e-05,
0.7757,0,0,-0.22825,0,6.46286e-05,
0.817352,0,0,-0.228423,0,6.97552e-05,
0.860215,0,0,-0.228643,0,7.39582e-05,
0.904285,0,0,-0.228924,0,7.62595e-05,
0.949552,0,0,-0.229285,0,7.52361e-05,
0.996004,0,0,-0.229746,0,6.91045e-05,
1.04363,0,0,-0.230324,0,5.5967e-05,
1.09241,0,0,-0.231032,0,3.41919e-05,
1.14232,0,0,-0.231871,0,2.87492e-06,
1.19335,0,0,-0.232828,0,-3.78195e-05,
1.24546,0,0,-0.233881,0,-8.66465e-05,
1.29863,0,0,-0.234999,0,-0.000141644,
1.35283,0,0,-0.236153,0,-0.000200693,
1.40802,0,0,-0.237315,0,-0.000262003,
1.46416,0,0,-0.238459,0,-0.000324351,
1.52121,0,0,-0.239565,0,-0.000387063,
1.57913,0,0,-0.240615,0,-0.000449844,
1.63787,0,0,-0.241594,0,-0.000512599,
1.69739,0,0,-0.242486,0,-0.000575298,
1.75761,0,0,-0.243276,0,-0.000637909,
1.81851,0,0,-0.243952,0,-0.000700371,
1.88,0,0,-0.2445,0,-0.000762599,
1.94204,0,0,-0.244905,0,-0.000824481,
2.00457,0,0,-0.245156,0,-0.000885891,
2.06751,0,0,-0.24524,0,-0.000946684,
2.13081,0,0,-0.245144,0,-0.0010067,
2.19439,0,0,-0.244859,0,-0.00106578,
2.25819,0,0,-0.244372,0,-0.00112371,
2.32214,0,0,-0.243675,0,-0.0011803,
2.38617,0,0,-0.242759,0,-0.00123532,
2.4502,0,0,-0.241618,0,-0.00128853,
2.51418,0,0,-0.240246,0,-0.00133966,
2.57803,0,0,-0.238641,0,-0.00138847,
2.64167,0,0,-0.236801,0,-0.00143467,
2.70505,0,0,-0.234727,0,-0.00147799,
2.76808,0,0,-0.232423,0,-0.00151816,
2.83072,0,0,-0.229895,0,-0.00155494,
2.89288,0,0,-0.227154,0,-0.00158812,
2.95451,0,0,-0.22421,0,-0.00161755,
3.01555,0,0,-0.22108,0,-0.00164312,
3.07594,0,0,-0.21778,0,-0.00166482,
3.13561,0,0,-0.214327,0,-0.00168268,
3.19453,0,0,-0.210742,0,-0.00169678,
3.25262,0,0,-0.207043,0,-0.00170726,
3.30985,0,0,-0.203252,0,-0.00171427,
3.36617,0,0,-0.199387,0,-0.001718,
3.42154,0,0,-0.195467,0,-0.00171865,
3.47591,0,0,-0.191512,0,-0.00171641,
3.52925,0,0,-0.187539,0,-0.00171151,
3.58152,0,0,-0.183564,0,-0.00170415,
3.6327,0,0,-0.179603,0,-0.00169459,
3.68276,0,0,-0.175671,0,-0.00168304,
3.73167,0,0,-0.17178,0,-0.00166973,
3.77941,0,0,-0.167942,0,-0.00165489,
3.82596,0,0,-0.164167,0,-0.00163873,
3.8713,0,0,-0.160464,0,-0.00162145,
3.91543,0,0,-0.156838,0,-0.00160309,
3.95833,0,0,-0.153315,0,-0.00158418,
4,0,0,-0.149862,0,-0.00156457,
4.04167,0,0,-0.146412,0,-0.00154379,
4.08333,0,0,-0.14296,0,-0.00152205,
4.125,0,0,-0.139508,0,-0.00149933,
4.16667,0,0,-0.136059,0,-0.00147567,
4.20833,0,0,-0.132617,0,-0.00145109,
4.25,0,0,-0.129184,0,-0.00142565,
4.29167,0,0,-0.125763,0,-0.00139938,
4.33333,0,0,-0.122356,0,-0.00137233,
4.375,0,0,-0.118966,0,-0.00134454,
4.41667,0,0,-0.115595,0,-0.00131605,
4.45833,0,0,-0.112245,0,-0.00128689,
4.5,0,0,-0.108919,0,-0.00125711,
4.54167,0,0,-0.105618,0,-0.00122673,
4.58333,0,0,-0.102345,0,-0.00119578,
4.625,0,0,-0.0991008,0,-0.00116431,
4.66667,0,0,-0.0958875,0,-0.00113235,
4.70833,0,0,-0.0927066,0,-0.00109993,
4.75,0,0,-0.0895597,0,-0.00106707,
4.79167,0,0,-0.086448,0,-0.00103382,
4.83333,0,0,-0.0833729,0,-0.00100019,
4.875,0,0,-0.0803356,0,-0.000966213,
4.91667,0,0,-0.0773373,0,-0.000931914,
4.95833,0,0,-0.074379,0,-0.000897316,
5,0,0,-0.0714617,0,-0.000862441,
5.04167,0,0,-0.0685865,0,-0.000827316,
5.08333,0,0,-0.0657543,0,-0.000791965,
5.125,0,0,-0.0629658,0,-0.000756416,
5.16667,0,0,-0.0602218,0,-0.000720695,
5.20833,0,0,-0.0575231,0,-0.000684829,
5.25,0,0,-0.0548701,0,-0.000648844,
5.29167,0,0,-0.0522634,0,-0.000612762,
5.33333,0,0,-0.0497034,0,-0.000576607,
5.375,0,0,-0.0471906,0,-0.000540397,
5.41667,0,0,-0.0447252,0,-0.000504151,
5.45833,0,0,-0.0423077,0,-0.000467887,
5.5,0,0,-0.0399383,0,-0.000431622,
5.54167,0,0,-0.0376173,0,-0.000395373,
5.58333,0,0,-0.0353451,0,-0.000359154,
5.625,0,0,-0.0331219,0,-0.000322984,
5.66667,0,0,-0.0309481,0,-0.00028688,
5.70833,0,0,-0.0288242,0,-0.00025087,
5.75,0,0,-0.0267507,0,-0.000214994,
5.79167,0,0,-0.0247279,0,-0.000179309,
5.83333,0,0,-0.0227563,0,-0.000143886,
5.875,0,0,-0.0208354,0,-0.000108788,
5.91667,0,0,-0.0189646,0,-7.40504e-05,
5.95833,0,0,-0.0171429,0,-3.9683e-05,
6,0,0,-0.0153696,0,-5.68268e-06,
6.04167,0,0,-0.013644,0,2.79552e-05,
6.08333,0,0,-0.0119651,0,6.12325e-05,
6.125,0,0,-0.0103323,0,9.41481e-05,
6.16667,0,0,-0.00874488,0,0.000126699,
6.20833,0,0,-0.00720203,0,0.000158883,
6.25,0,0,-0.00570303,0,0.000190697,
6.29167,0,0,-0.00424715,0,0.000222138,
6.33333,0,0,-0.00283362,0,0.000253203,
6.375,0,0,-0.0014617,0,0.00028389,
6.41667,0,0,-0.000130642,0,0.000314198,
6.45833,0,0,0.00116031,0,0.000344125,
6.5,0,0,0.0024119,0,0.00037367,
6.54167,0,0,0.00362488,0,0.000402832,
6.58333,0,0,0.0048,0,0.00043161,
6.625,0,0,0.005938,0,0.000460005,
6.66667,0,0,0.00703961,0,0.000488017,
6.70833,0,0,0.00810558,0,0.000515645,
6.75,0,0,0.00913662,0,0.000542891,
6.79167,0,0,0.0101335,0,0.000569755,
6.83333,0,0,0.0110968,0,0.000596237,
6.875,0,0,0.0120274,0,0.000622338,
6.91667,0,0,0.012926,0,0.000648059,
6.95833,0,0,0.0137932,0,0.0006734,
7,0,0,0.0146298,0,0.000698363,
7.04167,0,0,0.0154364,0,0.000722949,
7.08333,0,0,0.0162137,0,0.00074716,
7.125,0,0,0.0169625,0,0.000770998,
7.16667,0,0,0.0176834,0,0.000794464,
7.20833,0,0,0.018377,0,0.000817562,
7.25,0,0,0.019044,0,0.000840294,
7.29167,0,0,0.019685,0,0.000862664,
7.33333,0,0,0.0203007,0,0.000884675,
7.375,0,0,0.0208917,0,0.000906336,
7.41667,0,0,0.0214587,0,0.000927656,
7.45833,0,0,0.0220022,0,0.000948646,
7.5,0,0,0.022523,0,0.000969316,
7.54167,0,0,0.0230214,0,0.000989668,
7.58333,0,0,0.023498,0,0.00100971,
7.625,0,0,0.0239534,0,0.00102943,
7.66667,0,0,0.0243879,0,0.00104884,
7.70833,0,0,0.0248021,0,0.00106794,
7.75,0,0,0.0251963,0,0.00108673,
7.79167,0,0,0.0255711,0,0.00110523,
7.83333,0,0,0.0259261,0,0.00112341,
7.875,0,0,0.0262615,0,0.00114133,
7.91667,0,0,0.0265882,0,0.00115958,
7.95833,0,0,0.0268365,0,0.00117665,
8,0,0,0.0271717,0,0.00119372,
8.04171,0,0,0.0275274,0,0.0012118,
8.08368,0,0,0.0277489,0,0.00122965,
8.12617,0,0,0.0280114,0,0.00124573,
8.16946,0,0,0.0282584,0,0.00126188,
8.21382,0,0,0.0284887,0,0.00127803,
8.25952,0,0,0.0287103,0,0.00129421,
8.30685,0,0,0.0289224,0,0.00131057,
8.35611,0,0,0.0291251,0,0.00132722,
8.40762,0,0,0.0293185,0,0.00134424,
8.46168,0,0,0.0295021,0,0.00136168,
8.51865,0,0,0.0296748,0,0.0013796,
8.57889,0,0,0.0298355,0,0.00139804,
8.64276,0,0,0.0299825,0,0.00141705,
8.71067,0,0,0.0301138,0,0.00143665,
8.78306,0,0,0.0302271,0,0.00145687,
8.86037,0,0,0.0303194,0,0.00147772,
8.94309,0,0,0.0303876,0,0.0014992,
9.03174,0,0,0.0304283,0,0.00152131,
9.12689,0,0,0.0304376,0,0.00154404,
9.22912,0,0,0.0304113,0,0.00156736,
9.33908,0,0,0.030345,0,0.00159124,
9.45746,0,0,0.030234,0,0.00161564,
9.58501,0,0,0.0300734,0,0.00164051,
9.72253,0,0,0.0298585,0,0.00166577,
9.87088,0,0,0.0295844,0,0.00169135,
10.031,0,0,0.0292472,0,0.00171716,
10.2039,0,0,0.0288429,0,0.0017431,
10.3906,0,0,0.0283676,0,0.00176907,
10.5924,0,0,0.027819,0,0.00179493,
10.8105,0,0,0.027197,0,0.00182058,
11.0463,0,0,0.026501,0,0.0018459,
11.3012,0,0,0.0257324,0,0.00187079,
11.5769,0,0,0.024895,0,0.00189512,
11.8751,0,0,0.0239933,0,0.00191882,
12.1977,0,0,0.0230347,0,0.00194178,
12.5466,0,0,0.0220279,0,0.00196395,
12.9242,0,0,0.0209825,0,0.00198528,
13.3327,0,0,0.0199107,0,0.00200573,
13.7748,0,0,0.0188256,0,0.00202527,
14.2532,0,0,0.0177403,0,0.00204392,
14.7709,0,0,0.0166692,0,0.00206168,
15.3312,0,0,0.0156255,0,0.0020786,
15.9377,0,0,0.0146217,0,0.00209472,
16.594,0,0,0.0136694,0,0.00211011,
17.3044,0,0,0.0127766,0,0.00212484,
18.0733,0,0,0.0119504,0,0.00213894,
18.9056,0,0,0.0111939,0,0.00215236,
19.8064,0,0,0.0105067,0,0.00216499,
20.7816,0,0,0.0098866,0,0.00217704,
21.8371,0,0,0.0093266,0,0.00218882,
22.9796,0,0,0.00881715,0,0.00220052,
24.2163,0,0,0.00834545,0,0.00221221,
25.5551,0,0,0.00789636,0,0.002224,
27.0042,0,0,0.00745402,0,0.00223595,
28.5729,0,0,0.00700078,0,0.00224812,
30.271,0,0,0.00651851,0,0.00226049,
32.1091,0,0,0.00598991,0,0.00227301,
34.0989,0,0,0.00540006,0,0.00228554,
36.2529,0,0,0.00473147,0,0.00229819,
38.5845,0,0,0.00397614,0,0.00231085,
41.1085,0,0,0.00317335,0,0.00232336,
43.8407,0,0,0.00216351,0,0.00233347,
46.7983,0,0,0.00111468,0,0.002339,
50,0,0,0.00213263,0,0.00235486,

