6ce01fdb2683a7284c5cda02fad9f257ec64af93 
X,Z,x_velocity,cp,uw_b,cf,
1,0,0,-0.225421,0,0,
1,9,0,-0.130441,0,0,
1,8.99969,0.0154405,-0.130441,2.88243e-10,0,
1,8.99934,0.0329576,-0.130441,1.3473e-08,0,
1,8.99894,0.0528486,-0.130441,1.85844e-07,0,
1,8.99848,0.0754278,-0.130441,1.36231e-06,0,
1,8.99797,0.101008,-0.13044,6.80801e-06,0,
1,8.99739,0.129785,-0.130441,2.57603e-05,0,
1,8.99672,0.161562,-0.13044,7.62702e-05,0,
1,8.99597,0.195393,-0.13044,0.000177165,0,
1,8.99512,0.229623,-0.13044,0.000326255,0,
1,8.99416,0.262594,-0.13044,0.000494823,0,
1,8.99306,0.293332,-0.13044,0.000653415,0,
1,8.99182,0.321666,-0.13044,0.000781016,0,
1,8.99041,0.347739,-0.130439,0.000886716,0,
1,8.98881,0.37171,-0.130439,0.000974001,0,
1,8.98699,0.393797,-0.130438,0.00104523,0,
1,8.98494,0.41429,-0.130438,0.00110112,0,
1,8.98261,0.433501,-0.130437,0.001144,0,
1,8.97996,0.451668,-0.130436,0.00117992,0,
1,8.97696,0.468963,-0.130435,0.0012097,0,
1,8.97356,0.485529,-0.130433,0.00123463,0,
1,8.9697,0.501483,-0.130432,0.00125568,0,
1,8.96533,0.516923,-0.13043,0.00127355,0,
1,8.96038,0.531933,-0.130428,0.00128877,0,
1,8.95476,0.546583,-0.130426,0.00130172,0,
1,8.9484,0.560932,-0.130423,0.00131265,0,
1,8.9412,0.575029,-0.13042,0.00132175,0,
1,8.93303,0.588919,-0.130417,0.00132912,0,
1,8.92379,0.602639,-0.130414,0.00133482,0,
1,8.91333,0.61622,-0.130411,0.00133887,0,
1,8.90149,0.62969,-0.130408,0.00134124,0,
1,8.8881,0.643075,-0.130405,0.00134189,0,
1,8.87295,0.656397,-0.130402,0.00134074,0,
1,8.85584,0.669675,-0.130399,0.00133771,0,
1,8.83651,0.682931,-0.130398,0.00133268,0,
1,8.81469,0.696184,-0.130397,0.00132553,0,
1,8.79007,0.709454,-0.130398,0.00131611,0,
1,8.76232,0.722765,-0.130402,0.00130424,0,
1,8.73107,0.736143,-0.130409,0.00128971,0,
1,8.69591,0.74962,-0.13042,0.00127225,0,
1,8.6564,0.763235,-0.130437,0.00125154,0,
1,8.61206,0.777036,-0.130461,0.00122718,0,
1,8.56236,0.791084,-0.130495,0.00119873,0,
1,8.50675,0.805456,-0.130542,0.00116572,0,
1,8.44464,0.820257,-0.130604,0.00112811,0,
1,8.3754,0.835635,-0.13069,0.00108869,0,
1,8.29839,0.851876,-0.130799,0.00102764,0,
1,8.21296,0.869323,-0.130939,0.000947273,0,
1,8.11843,0.888181,-0.131119,0.000843711,0,
1,8.01417,0.908408,-0.131351,0.000713609,0,
1,7.89956,0.929518,-0.131635,0.000561368,0,
1,7.77403,0.950394,-0.132002,0.000404847,0,
1,7.63711,0.96944,-0.132446,0.000206889,0,
1,7.48842,0.984265,-0.132973,7.58379e-05,0,
1,7.32773,0.992929,-0.133602,1.78361e-05,0,
1,7.15495,0.995998,-0.134336,1.69759e-06,0,
1,6.97022,0.995999,-0.135185,1.63148e-08,0,
1,6.77388,0.995376,-0.136167,3.50123e-09,0,
1,6.56652,0.995269,-0.137295,9.62251e-09,0,
1,6.34896,0.995728,-0.138584,1.23708e-08,0,
1,6.12229,0.99645,-0.140046,1.3917e-08,0,
1,5.88784,0.997239,-0.141695,1.47298e-08,0,
1,5.64716,0.998063,-0.143545,1.56755e-08,0,
1,5.40194,0.998953,-0.145603,1.69954e-08,0,
1,5.15407,0.999935,-0.147877,1.86448e-08,0,
1,4.90545,1.00102,-0.150368,2.04189e-08,0,
1,4.65805,1.0022,-0.153074,2.23155e-08,0,
1,4.41376,1.00348,-0.155988,2.42898e-08,0,
1,4.17441,1.00484,-0.159094,2.60937e-08,0,
1,3.94163,1.00623,-0.162374,2.75896e-08,0,
1,3.7169,1.00759,-0.1658,2.93631e-08,0,
1,3.50146,1.00899,-0.169341,3.3358e-08,0,
1,3.29629,1.01075,-0.172964,4.15811e-08,0,
1,3.10217,1.01323,-0.176637,5.22957e-08,0,
1,2.91959,1.01626,-0.180332,9.08301e-08,0,
1,2.74885,1.01841,-0.184009,8.68542e-07,0,
1,2.59002,1.01732,-0.187605,-5.59108e-06,0,
1,2.44299,1.01125,-0.19106,-4.91118e-05,0,
1,2.30752,1.00031,-0.194307,-0.000143403,0,
1,2.18321,0.985905,-0.197293,-0.000276339,0,
1,2.06959,0.9696,-0.200049,-0.000386032,0,
1,1.9661,0.952692,-0.202548,-0.000482876,0,
1,1.87215,0.936151,-0.204761,-0.000573113,0,
1,1.78711,0.920508,-0.206722,-0.000652393,0,
1,1.71033,0.905925,-0.208448,-0.000720397,0,
1,1.64119,0.892368,-0.209962,-0.000778657,0,
1,1.57905,0.879724,-0.211283,-0.000829396,0,
1,1.52332,0.867865,-0.212434,-0.000874819,0,
1,1.47342,0.856674,-0.213434,-0.000916878,0,
1,1.42882,0.846057,-0.214301,-0.000957315,0,
1,1.389,0.835952,-0.215062,-0.000998418,0,
1,1.35351,0.826327,-0.215703,-0.00102536,0,
1,1.3219,0.817148,-0.216232,-0.00104151,0,
1,1.29378,0.808381,-0.216691,-0.00105607,0,
1,1.26878,0.800006,-0.217083,-0.00106869,0,
1,1.24659,0.792017,-0.217418,-0.00107959,0,
1,1.22689,0.784403,-0.217705,-0.00108893,0,
1,1.2092,0.777072,-0.217953,-0.00109567,0,
1,1.1932,0.769971,-0.218169,-0.00110055,0,
1,1.1787,0.763082,-0.218357,-0.00110426,0,
1,1.16554,0.756381,-0.218521,-0.00110786,0,
1,1.15357,0.749835,-0.218663,-0.0011135,0,
1,1.14266,0.743396,-0.218787,-0.00112412,0,
1,1.13268,0.736995,-0.218895,-0.00114422,0,
1,1.12354,0.730536,-0.21899,-0.00117962,0,
1,1.11514,0.723897,-0.219075,-0.00123721,0,
1,1.10739,0.71693,-0.219154,-0.00132455,0,
1,1.10022,0.70947,-0.21923,-0.00144907,0,
1,1.09357,0.701355,-0.219307,-0.00161663,0,
1,1.08738,0.692454,-0.219386,-0.00183036,0,
1,1.0816,0.682698,-0.21947,-0.0020896,0,
1,1.07618,0.672101,-0.219559,-0.00238914,0,
1,1.07107,0.660763,-0.219653,-0.00271976,0,
1,1.06626,0.64884,-0.219752,-0.00306986,0,
1,1.06169,0.636518,-0.219855,-0.00342752,0,
1,1.05735,0.623973,-0.219961,-0.00378222,0,
1,1.05321,0.61136,-0.22007,-0.00412582,0,
1,1.04925,0.598799,-0.22018,-0.00445264,0,
1,1.04544,0.586379,-0.220291,-0.0047592,0,
1,1.04177,0.57416,-0.220402,-0.0050437,0,
1,1.03822,0.562179,-0.220513,-0.0053055,0,
1,1.03478,0.550459,-0.220624,-0.00554481,0,
1,1.03144,0.539008,-0.220734,-0.00576229,0,
1,1.02818,0.527828,-0.220843,-0.00595892,0,
1,1.025,0.516913,-0.220951,-0.00613579,0,
1,1.02188,0.506255,-0.221058,-0.00629404,0,
1,1.01882,0.495844,-0.221165,-0.0064348,0,
1,1.01581,0.485668,-0.22127,-0.00655931,0,
1,1.01284,0.475714,-0.221374,-0.00666813,0,
1,1.00988,0.465864,-0.221479,-0.00676309,0,
1,1.00688,0.456003,-0.221585,-0.0068462,0,
1,1.00384,0.446121,-0.221693,-0.0069178,0,
1,1.00076,0.436209,-0.221802,-0.00697736,0,
1,0.997615,0.426251,-0.221913,-0.00702467,0,
1,0.99441,0.416227,-0.222025,-0.00705953,0,
1,0.991131,0.406115,-0.222138,-0.00708183,0,
1,0.987768,0.395888,-0.222253,-0.00709159,0,
1,0.984308,0.385519,-0.22237,-0.00708851,0,
1,0.980739,0.374979,-0.222489,-0.00707215,0,
1,0.977045,0.364236,-0.222609,-0.00704193,0,
1,0.973211,0.353255,-0.222732,-0.00699715,0,
1,0.969219,0.342001,-0.222858,-0.0069369,0,
1,0.965047,0.330433,-0.222986,-0.00686012,0,
1,0.960675,0.318509,-0.223117,-0.00676555,0,
1,0.956077,0.306181,-0.223251,-0.00665164,0,
1,0.951224,0.293399,-0.223388,-0.00651584,0,
1,0.946088,0.280112,-0.223528,-0.00635664,0,
1,0.940633,0.266275,-0.223671,-0.00617214,0,
1,0.934823,0.251852,-0.223819,-0.00596149,0,
1,0.928616,0.236816,-0.223971,-0.00572157,0,
1,0.921967,0.221151,-0.224126,-0.00545041,0,
1,0.914826,0.20485,-0.224284,-0.00514634,0,
1,0.907141,0.187927,-0.224445,-0.00480825,0,
1,0.898852,0.170417,-0.224608,-0.00443589,0,
1,0.889898,0.152391,-0.224773,-0.00403029,0,
1,0.880212,0.133966,-0.224937,-0.00359438,0,
1,0.869723,0.115324,-0.225102,-0.0031338,0,
1,0.858358,0.0967342,-0.225267,-0.00265804,0,
1,0.846039,0.0785858,-0.225433,-0.0021819,0,
1,0.83269,0.0614029,-0.225601,-0.00172644,0,
1,0.818232,0.0458229,-0.225772,-0.00132052,0,
1,0.802744,0.0325562,-0.225938,-0.000990116,0,
1,0.78635,0.0219514,-0.226106,-0.000742707,0,
1,0.768969,0.0137505,-0.226266,-0.000570976,0,
1,0.75053,0.00740323,-0.226419,-0.0004602,0,
1,0.730977,0.00230645,-0.226555,-0.000394503,0,
1,0.710271,-0.0020379,-0.226673,-0.000359862,0,
1,0.688397,-0.00597991,-0.226772,-0.000344606,0,
1,0.66536,-0.00973662,-0.226853,-0.000342665,0,
1,0.641194,-0.0134422,-0.226914,-0.000345326,0,
1,0.615961,-0.0171856,-0.226959,-0.000348808,0,
1,0.589754,-0.0210117,-0.226986,-0.000350172,0,
1,0.562692,-0.0249273,-0.226996,-0.000347613,0,
1,0.534925,-0.0289099,-0.226987,-0.000340341,0,
1,0.506624,-0.0329164,-0.226958,-0.000328185,0,
1,0.477982,-0.0368912,-0.226907,-0.000311393,0,
1,0.449206,-0.0407724,-0.226835,-0.000290443,0,
1,0.420509,-0.044497,-0.226742,-0.000265949,0,
1,0.392107,-0.0480036,-0.226631,-0.000238588,0,
1,0.364206,-0.0512343,-0.226504,-0.000209062,0,
1,0.337003,-0.0541362,-0.226365,-0.000178061,0,
1,0.310673,-0.0566615,-0.226218,-0.000146236,0,
1,0.28537,-0.0587676,-0.226069,-0.00011417,0,
1,0.26122,-0.060417,-0.225921,-8.23608e-05,0,
1,0.238324,-0.061576,-0.225781,-5.12503e-05,0,
1,0.21675,-0.0622154,-0.22565,-2.1231e-05,0,
1,0.196544,-0.06231,-0.225534,7.32742e-06,0,
1,0.177724,-0.0618406,-0.225435,3.40408e-05,0,
1,0.160284,-0.0607955,-0.225353,5.84811e-05,0,
1,0.144202,-0.0591746,-0.225291,8.01727e-05,0,
1,0.129436,-0.0569927,-0.225247,9.86234e-05,0,
1,0.115935,-0.0542829,-0.225219,0.000113387,0,
1,0.103636,-0.051098,-0.225207,0.000124135,0,
1,0.0924701,-0.0475098,-0.225207,0.000130722,0,
1,0.0823633,-0.0436051,-0.225216,0.000133211,0,
1,0.0732406,-0.0394799,-0.225232,0.000131868,0,
1,0.0650269,-0.0352313,-0.225253,0.000127117,0,
1,0.057648,-0.0309503,-0.225276,0.000119473,0,
1,0.0510323,-0.0267152,-0.225299,0.000109503,0,
1,0.0451115,-0.0225882,-0.225322,9.77826e-05,0,
1,0.0398209,-0.0186146,-0.225342,8.48503e-05,0,
1,0.0351001,-0.0148241,-0.225361,7.11956e-05,0,
1,0.0308929,-0.0112357,-0.225376,5.72732e-05,0,
1,0.0271475,-0.00786575,-0.225389,4.35641e-05,0,
1,0.0238164,-0.00474057,-0.225399,3.06854e-05,0,
1,0.0208562,-0.00191067,-0.225406,1.94766e-05,0,
1,0.0182274,0.00054364,-0.225411,1.08504e-05,0,
1,0.0158944,0.00253099,-0.225414,5.1868e-06,0,
1,0.0138249,0.0039927,-0.225416,2.08837e-06,0,
1,0.0119898,0.00493588,-0.225417,6.87291e-07,0,
1,0.0103632,0.00542862,-0.225418,1.62403e-07,0,
1,0.00892169,0.00556755,-0.225418,5.1392e-09,0,
1,0.00764438,0.00544839,-0.225419,-2.49139e-08,0,
1,0.00651264,0.00515133,-0.225419,-2.07489e-08,0,
1,0.00550983,0.00473847,-0.22542,-1.20732e-08,0,
1,0.00462115,0.00425585,-0.225419,-5.89481e-09,0,
1,0.00383341,0.00373692,-0.22542,-2.52473e-09,0,
1,0.0031349,0.00320543,-0.22542,-9.54124e-10,0,
1,0.00251518,0.002678,-0.22542,-3.13307e-10,0,
1,0.00196502,0.00216581,-0.22542,-8.61946e-11,0,
1,0.00147619,0.00167613,-0.22542,-1.85605e-11,0,
1,0.00104139,0.00121325,-0.22542,-2.75301e-12,0,
1,0.000654158,0.000779384,-0.225421,-2.16616e-13,0,
1,0.000308731,0.000375178,-0.22542,-4.96547e-15,0,

4,0,0,-0.163307,0,0,
4,9,0,-0.100348,0,0,
4,8.99969,0.0143436,-0.100348,2.28271e-10,0,
4,8.99934,0.0305596,-0.100348,1.05904e-08,0,
4,8.99894,0.0489111,-0.100348,1.44605e-07,0,
4,8.9985,0.0696759,-0.100348,1.04947e-06,0,
4,8.99799,0.0931363,-0.100348,5.20741e-06,0,
4,8.99742,0.119494,-0.100348,1.97034e-05,0,
4,8.99677,0.148657,-0.100347,5.90509e-05,0,
4,8.99605,0.179934,-0.100348,0.000140814,0,
4,8.99522,0.211956,-0.100347,0.000268582,0,
4,8.99429,0.243176,-0.100347,0.000421715,0,
4,8.99324,0.272533,-0.100347,0.000572148,0,
4,8.99205,0.299657,-0.100347,0.000701894,0,
4,8.9907,0.324627,-0.100346,0.000806287,0,
4,8.98919,0.347619,-0.100346,0.000894202,0,
4,8.98747,0.368819,-0.100345,0.00096731,0,
4,8.98553,0.388501,-0.100344,0.00102473,0,
4,8.98334,0.406944,-0.100343,0.00107108,0,
4,8.98087,0.424367,-0.100342,0.00111021,0,
4,8.97807,0.440938,-0.100341,0.00114342,0,
4,8.97491,0.456799,-0.100339,0.00117202,0,
4,8.97134,0.472068,-0.100337,0.001197,0,
4,8.96731,0.486845,-0.100335,0.00121907,0,
4,8.96276,0.501215,-0.100332,0.00123878,0,
4,8.95762,0.51525,-0.100329,0.00125649,0,
4,8.95182,0.529012,-0.100326,0.00127247,0,
4,8.94526,0.542554,-0.100322,0.00128687,0,
4,8.93787,0.555922,-0.100317,0.00129978,0,
4,8.92952,0.569156,-0.100313,0.00131121,0,
4,8.92011,0.58229,-0.100307,0.00132112,0,
4,8.90949,0.595353,-0.100302,0.00132943,0,
4,8.89751,0.60837,-0.100295,0.00133603,0,
4,8.88402,0.621363,-0.100288,0.00134077,0,
4,8.86881,0.634349,-0.100281,0.00134349,0,
4,8.85169,0.647346,-0.100274,0.00134402,0,
4,8.83242,0.660367,-0.100266,0.00134217,0,
4,8.81074,0.673425,-0.100258,0.00133778,0,
4,8.78637,0.686533,-0.100251,0.00133065,0,
4,8.75901,0.699705,-0.100244,0.00132062,0,
4,8.7283,0.712958,-0.100239,0.0013075,0,
4,8.69387,0.726314,-0.100236,0.00129109,0,
4,8.65533,0.739799,-0.100235,0.00127118,0,
4,8.61222,0.753448,-0.100238,0.00124747,0,
4,8.56407,0.767307,-0.100247,0.00121961,0,
4,8.5104,0.781433,-0.100262,0.00118712,0,
4,8.45065,0.795903,-0.100286,0.00114936,0,
4,8.38429,0.810812,-0.100321,0.00110596,0,
4,8.31073,0.826293,-0.100373,0.00106051,0,
4,8.22941,0.842639,-0.100445,0.000995512,0,
4,8.13974,0.860254,-0.100537,0.000906315,0,
4,8.04115,0.879363,-0.100657,0.00079387,0,
4,7.93313,0.899818,-0.100806,0.000658598,0,
4,7.81519,0.920883,-0.100981,0.000510358,0,
4,7.68693,0.941113,-0.101202,0.000366697,0,
4,7.54803,0.958612,-0.101455,0.000209596,0,
4,7.39831,0.971403,-0.101758,9.13651e-05,0,
4,7.23771,0.978594,-0.102123,2.78279e-05,0,
4,7.06634,0.981193,-0.102545,4.48162e-06,0,
4,6.88453,0.9813,-0.103022,-1.30132e-08,0,
4,6.69275,0.980757,-0.103559,-8.27296e-08,0,
4,6.49173,0.980471,-0.104163,2.66013e-08,0,
4,6.28238,0.980581,-0.104843,2.62469e-08,0,
4,6.06579,0.980917,-0.105608,1.47949e-08,0,
4,5.84328,0.981325,-0.106465,1.00065e-08,0,
4,5.61626,0.981746,-0.107418,8.78584e-09,0,
4,5.3863,0.982181,-0.108472,8.8859e-09,0,
4,5.15502,0.982646,-0.109632,9.52672e-09,0,
4,4.92406,0.983156,-0.110899,1.04592e-08,0,
4,4.69507,0.983721,-0.112273,1.15672e-08,0,
4,4.46961,0.984345,-0.113753,1.27033e-08,0,
4,4.24915,0.985012,-0.115337,1.35514e-08,0,
4,4.03501,0.985665,-0.117017,1.38513e-08,0,
4,3.82836,0.986238,-0.118785,1.38647e-08,0,
4,3.63018,0.986733,-0.120631,1.49768e-08,0,
4,3.44125,0.98733,-0.122543,2.00907e-08,0,
4,3.26217,0.988381,-0.124507,6.42831e-08,0,
4,3.09333,0.990178,-0.126509,5.53467e-07,0,
4,2.93497,0.99254,-0.128532,2.61477e-06,0,
4,2.78715,0.994623,-0.130558,5.20881e-06,0,
4,2.64979,0.995251,-0.13257,1.0773e-06,0,
4,2.52268,0.993491,-0.134542,-1.95563e-05,0,
4,2.40551,0.989004,-0.136452,-6.21427e-05,0,
4,2.29789,0.982026,-0.138277,-0.00012572,0,
4,2.19939,0.973144,-0.140002,-0.000204341,0,
4,2.10949,0.963052,-0.141616,-0.00028993,0,
4,2.02768,0.952392,-0.143115,-0.000374517,0,
4,1.95343,0.941694,-0.1445,-0.000451747,0,
4,1.88618,0.931337,-0.14577,-0.000519605,0,
4,1.82542,0.921498,-0.146938,-0.000567206,0,
4,1.77062,0.912228,-0.148005,-0.000606099,0,
4,1.72128,0.903576,-0.14897,-0.000641049,0,
4,1.67693,0.895574,-0.149845,-0.000672123,0,
4,1.63713,0.888226,-0.150635,-0.000699736,0,
4,1.60144,0.881513,-0.151346,-0.000724258,0,
4,1.56949,0.87541,-0.151987,-0.000746145,0,
4,1.54091,0.869877,-0.152561,-0.000765867,0,
4,1.51537,0.864862,-0.153077,-0.000783826,0,
4,1.49167,0.860169,-0.153556,-0.000800361,0,
4,1.46926,0.855713,-0.154009,-0.00081593,0,
4,1.44801,0.851474,-0.154442,-0.00083099,0,
4,1.42781,0.84741,-0.154863,-0.000837277,0,
4,1.40855,0.84348,-0.155268,-0.000843369,0,
4,1.39015,0.839663,-0.155656,-0.000848701,0,
4,1.37252,0.835944,-0.15603,-0.000853055,0,
4,1.3556,0.832308,-0.15639,-0.000856943,0,
4,1.3393,0.828736,-0.156738,-0.000860815,0,
4,1.32357,0.825212,-0.157075,-0.000865564,0,
4,1.30836,0.821714,-0.157402,-0.000871918,0,
4,1.29362,0.818223,-0.15772,-0.000880851,0,
4,1.2793,0.81471,-0.15803,-0.000893592,0,
4,1.26537,0.811147,-0.158333,-0.000911662,0,
4,1.25179,0.807497,-0.158628,-0.000936916,0,
4,1.23852,0.803715,-0.158918,-0.000971571,0,
4,1.22554,0.799751,-0.159201,-0.00101823,0,
4,1.21282,0.795544,-0.159478,-0.00107985,0,
4,1.20034,0.791025,-0.15975,-0.00115968,0,
4,1.18806,0.786117,-0.160017,-0.00126107,0,
4,1.17599,0.780742,-0.160279,-0.00138718,0,
4,1.16408,0.774824,-0.160535,-0.00154065,0,
4,1.15233,0.768298,-0.160786,-0.00172313,0,
4,1.14073,0.761117,-0.161032,-0.00193497,0,
4,1.12925,0.753262,-0.161272,-0.00217489,0,
4,1.11788,0.744739,-0.161508,-0.00244004,0,
4,1.10661,0.735582,-0.161739,-0.0027262,0,
4,1.09543,0.725844,-0.161966,-0.00302816,0,
4,1.08432,0.715594,-0.162188,-0.00334028,0,
4,1.07328,0.704905,-0.162406,-0.00365691,0,
4,1.0623,0.693853,-0.16262,-0.00397276,0,
4,1.05136,0.682508,-0.16283,-0.00428312,0,
4,1.04044,0.670916,-0.163037,-0.00458408,0,
4,1.0295,0.659117,-0.163241,-0.00487257,0,
4,1.01855,0.64716,-0.163442,-0.00514565,0,
4,1.00757,0.635088,-0.163639,-0.00540058,0,
4,0.996544,0.62294,-0.163834,-0.0056353,0,
4,0.98547,0.610752,-0.164026,-0.00584768,0,
4,0.974334,0.598553,-0.164215,-0.00603589,0,
4,0.963124,0.586371,-0.164399,-0.00619849,0,
4,0.951826,0.57423,-0.164588,-0.0063532,0,
4,0.940428,0.562082,-0.164746,-0.00647023,0,
4,0.928915,0.549787,-0.164861,-0.0065577,0,
4,0.917272,0.537222,-0.164969,-0.00664951,0,
4,0.905481,0.524321,-0.165072,-0.00674575,0,
4,0.893524,0.511045,-0.165174,-0.00684652,0,
4,0.881383,0.497361,-0.165277,-0.00695189,0,
4,0.869035,0.483244,-0.165382,-0.00706184,0,
4,0.856459,0.46867,-0.165487,-0.00717622,0,
4,0.843629,0.453614,-0.165595,-0.00729475,0,
4,0.830518,0.438054,-0.165704,-0.00741695,0,
4,0.817097,0.421967,-0.165815,-0.00754217,0,
4,0.803334,0.405331,-0.165928,-0.00766953,0,
4,0.789195,0.388131,-0.166043,-0.00779795,0,
4,0.774643,0.370351,-0.16616,-0.00792605,0,
4,0.759639,0.351984,-0.166278,-0.00805215,0,
4,0.744138,0.333032,-0.166397,-0.00817417,0,
4,0.728096,0.313512,-0.166517,-0.00828966,0,
4,0.711463,0.293454,-0.166638,-0.00839613,0,
4,0.694189,0.272905,-0.166759,-0.00848995,0,
4,0.676218,0.251919,-0.166879,-0.00856686,0,
4,0.657495,0.23055,-0.166998,-0.00862287,0,
4,0.637962,0.208849,-0.167114,-0.00865452,0,
4,0.617561,0.186852,-0.167222,-0.00865919,0,
4,0.596848,0.165178,-0.167317,-0.00863497,0,
4,0.576557,0.144548,-0.167397,-0.00858288,0,
4,0.556564,0.124812,-0.167458,-0.00850467,0,
4,0.536763,0.105843,-0.167504,-0.00840125,0,
4,0.517057,0.0875563,-0.167539,-0.0082729,0,
4,0.497368,0.0699453,-0.167576,-0.00812017,0,
4,0.477632,0.0530959,-0.167633,-0.0079455,0,
4,0.457804,0.0371692,-0.167726,-0.00775423,0,
4,0.437857,0.0223217,-0.167862,-0.00755586,0,
4,0.417786,0.00855389,-0.16799,-0.00735942,0,
4,0.397605,-0.0044629,-0.167941,-0.00701239,0,
4,0.377348,-0.017047,-0.167788,-0.00668346,0,
4,0.357066,-0.0292461,-0.167661,-0.00636674,0,
4,0.336828,-0.0410105,-0.16751,-0.00604328,0,
4,0.316717,-0.0522863,-0.167351,-0.00571282,0,
4,0.296825,-0.0630259,-0.167181,-0.00537657,0,
4,0.27725,-0.0731925,-0.167002,-0.00503678,0,
4,0.258095,-0.0827601,-0.166816,-0.004696,0,
4,0.239458,-0.0917132,-0.166623,-0.00435688,0,
4,0.221432,-0.100046,-0.166424,-0.00402205,0,
4,0.2041,-0.107763,-0.166223,-0.00369403,0,
4,0.187537,-0.114876,-0.166019,-0.00337512,0,
4,0.171798,-0.121402,-0.165814,-0.00306733,0,
4,0.156928,-0.127366,-0.165612,-0.00277237,0,
4,0.142956,-0.132795,-0.165412,-0.00249156,0,
4,0.129894,-0.137718,-0.165218,-0.00222589,0,
4,0.117744,-0.142165,-0.165031,-0.001976,0,
4,0.106492,-0.146166,-0.164852,-0.00174222,0,
4,0.0961173,-0.149752,-0.164683,-0.00152457,0,
4,0.0865883,-0.15295,-0.164524,-0.00132286,0,
4,0.0778675,-0.155786,-0.164377,-0.00113667,0,
4,0.0699123,-0.158283,-0.164241,-0.000965457,0,
4,0.062677,-0.160463,-0.164117,-0.000808525,0,
4,0.056114,-0.162345,-0.164005,-0.000665114,0,
4,0.0501747,-0.163944,-0.163904,-0.000534413,0,
4,0.0448114,-0.165272,-0.163815,-0.000415587,0,
4,0.039977,-0.166338,-0.163735,-0.000307807,0,
4,0.0356266,-0.167149,-0.163665,-0.000210265,0,
4,0.0317171,-0.167705,-0.163604,-0.000122201,0,
4,0.0282081,-0.168004,-0.163551,-4.29115e-05,0,
4,0.0250617,-0.168034,-0.163505,2.822e-05,0,
4,0.0222427,-0.167779,-0.163466,9.17052e-05,0,
4,0.0197189,-0.167211,-0.163433,0.000147911,0,
4,0.0174603,-0.166288,-0.163405,0.000197004,0,
4,0.0154398,-0.16495,-0.163382,0.000238859,0,
4,0.0136326,-0.16311,-0.163363,0.000272919,0,
4,0.0120162,-0.160641,-0.163348,0.000297974,0,
4,0.0105703,-0.157368,-0.163336,0.000311896,0,
4,0.00927657,-0.15305,-0.163327,0.000311484,0,
4,0.00811839,-0.147384,-0.16332,0.000292972,0,
4,0.0070809,-0.140046,-0.163316,0.000254117,0,
4,0.0061507,-0.130819,-0.163313,0.000197983,0,
4,0.00531578,-0.119778,-0.163311,0.000135234,0,
4,0.00456537,-0.107388,-0.16331,7.99377e-05,0,
4,0.00388979,-0.0943666,-0.16331,4.09579e-05,0,
4,0.00328037,-0.0813823,-0.163309,1.83653e-05,0,
4,0.00272934,-0.0688725,-0.163309,7.24548e-06,0,
4,0.0022297,-0.0570427,-0.163308,2.49219e-06,0,
4,0.00177519,-0.0459491,-0.163309,7.24177e-07,0,
4,0.00136016,-0.0355714,-0.163308,1.66457e-07,0,
4,0.000979511,-0.0258558,-0.163309,2.66234e-08,0,
4,0.00062865,-0.016736,-0.163308,2.2692e-09,0,
4,0.000303409,-0.00814178,-0.163309,5.52448e-11,0,

6,0,0,-0.0275052,0,0,
6,9,0,-0.0764421,0,0,
6,8.99969,0.0136055,-0.0764418,1.90864e-10,0,
6,8.99934,0.0289481,-0.076442,8.80875e-09,0,
6,8.99895,0.0462671,-0.0764417,1.19423e-07,0,
6,8.9985,0.0658151,-0.0764419,8.6058e-07,0,
6,8.99801,0.0878516,-0.0764417,4.24723e-06,0,
6,8.99744,0.112576,-0.0764418,1.60561e-05,0,
6,8.99681,0.139953,-0.0764416,4.84679e-05,0,
6,8.99609,0.169447,-0.0764417,0.000117591,0,
6,8.99529,0.199889,-0.0764415,0.000229896,0,
6,8.99438,0.229839,-0.0764414,0.000370388,0,
6,8.99336,0.258201,-0.0764412,0.0005133,0,
6,8.9922,0.284488,-0.076441,0.000641366,0,
6,8.9909,0.308707,-0.0764406,0.000744848,0,
6,8.98944,0.33102,-0.0764402,0.000831956,0,
6,8.98779,0.351599,-0.0764396,0.000905184,0,
6,8.98593,0.370695,-0.076439,0.000963077,0,
6,8.98383,0.388569,-0.0764381,0.00101062,0,
6,8.98147,0.405426,-0.0764371,0.00105088,0,
6,8.97881,0.421433,-0.0764359,0.00108536,0,
6,8.97581,0.436728,-0.0764345,0.00111538,0,
6,8.97244,0.451431,-0.0764328,0.00114196,0,
6,8.96863,0.465642,-0.0764307,0.00116585,0,
6,8.96435,0.479446,-0.0764283,0.0011876,0,
6,8.95953,0.492918,-0.0764256,0.00120764,0,
6,8.95409,0.506121,-0.0764223,0.00122623,0,
6,8.94798,0.519112,-0.0764184,0.00124356,0,
6,8.94109,0.531938,-0.076414,0.00125973,0,
6,8.93334,0.544643,-0.0764091,0.00127476,0,
6,8.92463,0.557264,-0.0764035,0.00128861,0,
6,8.91482,0.569835,-0.0763972,0.0013012,0,
6,8.90379,0.582384,-0.0763901,0.00131236,0,
6,8.89139,0.594935,-0.0763821,0.00132192,0,
6,8.87746,0.607511,-0.0763731,0.00132967,0,
6,8.86181,0.620127,-0.0763632,0.00133536,0,
6,8.84423,0.6328,-0.0763523,0.00133872,0,
6,8.82452,0.645542,-0.0763403,0.0013395,0,
6,8.80241,0.658362,-0.0763272,0.00133743,0,
6,8.77763,0.67127,-0.0763131,0.00133225,0,
6,8.74989,0.684276,-0.0762979,0.00132374,0,
6,8.71885,0.697391,-0.0762819,0.00131166,0,
6,8.68417,0.710629,-0.0762651,0.00129579,0,
6,8.64545,0.724008,-0.0762477,0.00127592,0,
6,8.60229,0.737556,-0.0762297,0.0012518,0,
6,8.55423,0.751305,-0.076212,0.00122311,0,
6,8.50082,0.765303,-0.0761939,0.0011894,0,
6,8.44155,0.779607,-0.0761774,0.00115005,0,
6,8.37592,0.794291,-0.0761603,0.0011047,0,
6,8.30339,0.809455,-0.0761476,0.0010573,0,
6,8.22344,0.825356,-0.07614,0.000994997,0,
6,8.13555,0.842409,-0.0761364,0.000912121,0,
6,8.0392,0.860955,-0.0761343,0.000808965,0,
6,7.93391,0.880996,-0.0761329,0.000685321,0,
6,7.81927,0.901921,-0.0761189,0.000547836,0,
6,7.6949,0.922337,-0.0761063,0.000412266,0,
6,7.56054,0.940428,-0.0760695,0.000282263,0,
6,7.41603,0.954532,-0.076026,0.000145184,0,
6,7.26132,0.963605,-0.0759856,5.73102e-05,0,
6,7.09653,0.967915,-0.0759275,1.44923e-05,0,
6,6.92195,0.968965,-0.0758568,7.81469e-07,0,
6,6.73802,0.968531,-0.0757657,-9.86288e-07,0,
6,6.5454,0.967846,-0.0756519,-4.43992e-07,0,
6,6.34489,0.967396,-0.0755126,-1.1602e-07,0,
6,6.1375,0.96719,-0.0753452,-2.84244e-08,0,
6,5.92439,0.967089,-0.0751461,-1.02924e-08,0,
6,5.70687,0.966986,-0.0749114,-6.00614e-09,0,
6,5.48633,0.966839,-0.0746365,-4.82476e-09,0,
6,5.26426,0.966646,-0.0743167,-4.70173e-09,0,
6,5.04218,0.966417,-0.0739473,-4.99697e-09,0,
6,4.82159,0.966165,-0.0735237,-5.4382e-09,0,
6,4.60398,0.965901,-0.0730419,-5.96734e-09,0,
6,4.39071,0.965623,-0.0724984,-6.75541e-09,0,
6,4.18307,0.965302,-0.0718909,-8.12827e-09,0,
6,3.98218,0.964876,-0.0712182,-1.03192e-08,0,
6,3.78902,0.964286,-0.070481,-1.29868e-08,0,
6,3.60438,0.963557,-0.0696815,-1.65098e-08,0,
6,3.42888,0.962857,-0.0688238,-3.26729e-08,0,
6,3.26296,0.962475,-0.0679128,-7.64302e-08,0,
6,3.10691,0.962651,-0.0669542,-4.17102e-08,0,
6,2.96084,0.963365,-0.065954,2.70021e-07,0,
6,2.82473,0.964237,-0.0649202,1.77325e-07,0,
6,2.69844,0.964647,-0.0638638,-3.13824e-06,0,
6,2.58172,0.963979,-0.0627975,-1.4031e-05,0,
6,2.47424,0.96183,-0.0617352,-3.61914e-05,0,
6,2.37559,0.958089,-0.0606901,-7.09808e-05,0,
6,2.28535,0.952894,-0.0596739,-0.000117317,0,
6,2.20301,0.94654,-0.0586959,-0.000172509,0,
6,2.1281,0.939383,-0.0577643,-0.000233067,0,
6,2.06009,0.93178,-0.0568829,-0.000295039,0,
6,1.99849,0.924056,-0.0560577,-0.000354252,0,
6,1.9428,0.916493,-0.0552852,-0.00040794,0,
6,1.89255,0.909268,-0.0545735,-0.000453792,0,
6,1.84728,0.902426,-0.0539215,-0.000484618,0,
6,1.80655,0.895975,-0.0533186,-0.000512927,0,
6,1.76996,0.88995,-0.0527676,-0.000538934,0,
6,1.73712,0.884372,-0.0522642,-0.000562782,0,
6,1.70768,0.879212,-0.0518052,-0.000584785,0,
6,1.67998,0.874236,-0.051369,-0.00060603,0,
6,1.65329,0.869348,-0.0509429,-0.000626748,0,
6,1.62754,0.864543,-0.0505267,-0.000646902,0,
6,1.60265,0.859819,-0.0501194,-0.000666557,0,
6,1.57854,0.855175,-0.0497207,-0.000685657,0,
6,1.55515,0.850608,-0.0493298,-0.000704238,0,
6,1.53242,0.846114,-0.0489462,-0.00072233,0,
6,1.5103,0.841688,-0.0485693,-0.000739961,0,
6,1.48874,0.837322,-0.0481989,-0.000757165,0,
6,1.46769,0.833006,-0.0478345,-0.000774002,0,
6,1.44712,0.828729,-0.0474753,-0.000790606,0,
6,1.42698,0.824484,-0.0471205,-0.000807229,0,
6,1.40725,0.820275,-0.0467685,-0.000824222,0,
6,1.38788,0.816123,-0.0464177,-0.000841988,0,
6,1.36886,0.812061,-0.0460668,-0.000860733,0,
6,1.35015,0.808119,-0.0457178,-0.00088047,0,
6,1.33173,0.804299,-0.0453706,-0.000900375,0,
6,1.31357,0.800537,-0.0450385,-0.000911436,0,
6,1.29566,0.796758,-0.0447158,-0.000922546,0,
6,1.27797,0.79292,-0.0443905,-0.000938552,0,
6,1.26048,0.789002,-0.0440694,-0.000958164,0,
6,1.24318,0.784972,-0.0437492,-0.00098295,0,
6,1.22605,0.780795,-0.0434312,-0.00101475,0,
6,1.20907,0.776424,-0.0431146,-0.00105579,0,
6,1.19223,0.771806,-0.0427997,-0.00110851,0,
6,1.17551,0.76688,-0.0424862,-0.00117559,0,
6,1.1589,0.761578,-0.0421742,-0.00125968,0,
6,1.14238,0.755832,-0.0418637,-0.00136317,0,
6,1.12595,0.749575,-0.0415546,-0.00148785,0,
6,1.10959,0.742754,-0.0412464,-0.00163457,0,
6,1.09329,0.735332,-0.0409409,-0.00180296,0,
6,1.07704,0.727297,-0.0406376,-0.00199123,0,
6,1.06081,0.718656,-0.0403368,-0.0021962,0,
6,1.04459,0.709437,-0.0400384,-0.00241364,0,
6,1.02836,0.699694,-0.0397434,-0.00263841,0,
6,1.01211,0.689492,-0.0394505,-0.00286502,0,
6,0.99583,0.678906,-0.0391633,-0.00309357,0,
6,0.97951,0.667972,-0.0388737,-0.00331453,0,
6,0.963136,0.65666,-0.038579,-0.00352709,0,
6,0.946694,0.644916,-0.0382875,-0.00374234,0,
6,0.930172,0.632695,-0.0379987,-0.00396201,0,
6,0.913555,0.619954,-0.0377145,-0.00418759,0,
6,0.896829,0.606652,-0.0374349,-0.00442033,0,
6,0.879979,0.592757,-0.0371603,-0.00466123,0,
6,0.862989,0.578249,-0.0368909,-0.00491106,0,
6,0.845842,0.563132,-0.0366274,-0.00517057,0,
6,0.828521,0.547428,-0.0363714,-0.00544003,0,
6,0.811008,0.531165,-0.0361245,-0.00571379,0,
6,0.793282,0.514357,-0.0358875,-0.00598999,0,
6,0.775322,0.497022,-0.0356612,-0.00626644,0,
6,0.757107,0.47918,-0.035446,-0.00654054,0,
6,0.738612,0.460857,-0.0352424,-0.00680923,0,
6,0.719813,0.442087,-0.0350508,-0.00706907,0,
6,0.700681,0.422915,-0.0348718,-0.00731629,0,
6,0.681188,0.403396,-0.0347063,-0.00754688,0,
6,0.661304,0.3836,-0.0345552,-0.00775669,0,
6,0.640996,0.3636,-0.0344179,-0.00794144,0,
6,0.620228,0.343467,-0.0342918,-0.00809663,0,
6,0.598964,0.323251,-0.0341714,-0.00821739,0,
6,0.577166,0.302985,-0.034051,-0.0082989,0,
6,0.554791,0.282697,-0.0339312,-0.00833671,0,
6,0.531799,0.262465,-0.0338257,-0.00832758,0,
6,0.508144,0.242474,-0.0337695,-0.00827173,0,
6,0.48378,0.223039,-0.033801,-0.00817473,0,
6,0.459585,0.205155,-0.0339582,-0.00805526,0,
6,0.436695,0.189624,-0.0340929,-0.00792453,0,
6,0.414961,0.175818,-0.0339975,-0.00756715,0,
6,0.394252,0.16318,-0.0337943,-0.00726542,0,
6,0.374445,0.151503,-0.0336442,-0.00697951,0,
6,0.355433,0.14067,-0.0334814,-0.00669045,0,
6,0.337122,0.130581,-0.0333219,-0.00639986,0,
6,0.319433,0.121149,-0.0331592,-0.00610823,0,
6,0.3023,0.112305,-0.0329929,-0.00581628,0,
6,0.28567,0.103988,-0.0328215,-0.00552462,0,
6,0.269507,0.0961506,-0.0326439,-0.0052339,0,
6,0.253785,0.0887544,-0.0324593,-0.00494483,0,
6,0.238493,0.081768,-0.0322671,-0.00465824,0,
6,0.223631,0.0751665,-0.032067,-0.00437503,0,
6,0.209207,0.0689302,-0.0318589,-0.00409619,0,
6,0.195237,0.0630429,-0.0316433,-0.00382281,0,
6,0.181744,0.0574911,-0.0314209,-0.003556,0,
6,0.168754,0.0522628,-0.031193,-0.00329687,0,
6,0.156292,0.047347,-0.0309609,-0.0030465,0,
6,0.144384,0.0427327,-0.0307264,-0.00280587,0,
6,0.133052,0.038409,-0.0304915,-0.00257585,0,
6,0.122315,0.0343644,-0.0302585,-0.00235715,0,
6,0.112183,0.030587,-0.0300293,-0.00215031,0,
6,0.102665,0.0270643,-0.029806,-0.00195569,0,
6,0.0937597,0.0237835,-0.0295906,-0.00177347,0,
6,0.0854609,0.0207314,-0.0293847,-0.00160364,0,
6,0.077757,0.0178949,-0.0291896,-0.00144606,0,
6,0.0706309,0.0152607,-0.0290064,-0.00130041,0,
6,0.0640611,0.0128156,-0.0288358,-0.00116629,0,
6,0.0580229,0.010547,-0.0286782,-0.00104319,0,
6,0.0524888,0.00844243,-0.0285336,-0.000930538,0,
6,0.0474296,0.00649007,-0.0284019,-0.000827719,0,
6,0.042815,0.0046786,-0.0282827,-0.000734085,0,
6,0.0386145,0.00299732,-0.0281755,-0.000648984,0,
6,0.0347975,0.00143616,-0.0280798,-0.000571776,0,
6,0.0313344,-1.43146e-05,-0.0279947,-0.000501832,0,
6,0.0281964,-0.00136303,-0.0279194,-0.000438487,0,
6,0.0253561,-0.00261835,-0.0278532,-0.000381186,0,
6,0.0227875,-0.00378795,-0.0277953,-0.000329392,0,
6,0.0204662,-0.00487885,-0.0277448,-0.000282582,0,
6,0.0183694,-0.0058974,-0.0277013,-0.000240277,0,
6,0.016476,-0.00684921,-0.0276637,-0.000202042,0,
6,0.0147664,-0.00773899,-0.0276319,-0.000167482,0,
6,0.0132228,-0.00857022,-0.0276046,-0.000136246,0,
6,0.0118288,-0.0093447,-0.0275824,-0.000108037,0,
6,0.0105693,-0.0100616,-0.0275633,-8.26361e-05,0,
6,0.00943073,-0.010716,-0.0275487,-5.99343e-05,0,
6,0.00840063,-0.0112964,-0.0275362,-4.00073e-05,0,
6,0.00746774,-0.0117809,-0.027528,-2.31987e-05,0,
6,0.00662185,-0.012134,-0.0275206,-1.01339e-05,0,
6,0.00585371,-0.0123069,-0.0275171,-1.44606e-06,0,
6,0.00515491,-0.0122492,-0.0275132,2.86005e-06,0,
6,0.00451788,-0.0119321,-0.0275126,3.83461e-06,0,
6,0.00393573,-0.0113649,-0.0275103,3.10463e-06,0,
6,0.00340221,-0.0105888,-0.027511,1.9758e-06,0,
6,0.00291168,-0.00965531,-0.027509,1.06553e-06,0,
6,0.00245897,-0.00861027,-0.0275103,4.98986e-07,0,
6,0.00203939,-0.00748837,-0.0275081,2.02009e-07,0,
6,0.00164864,-0.00631358,-0.02751,6.85722e-08,0,
6,0.00128281,-0.00510144,-0.0275072,1.82819e-08,0,
6,0.000938257,-0.00386117,-0.0275097,3.36704e-09,0,
6,0.000611645,-0.00259731,-0.0275063,3.27149e-10,0,
6,0.000299862,-0.00131082,-0.0275097,8.84995e-12,0,

10,0.000296632,0.00787785,0.0290463,-4.07621e-11,0,
10,0.000596102,0.0158287,0.029047,-1.51075e-09,0,
10,0.000900397,0.0239054,0.0290462,-1.53612e-08,0,
10,0.00121153,0.0321608,0.0290468,-8.25594e-08,0,
10,0.00153158,0.0406483,0.0290462,-3.0891e-07,0,
10,0.00186264,0.0494205,0.0290467,-9.18988e-07,0,
10,0.00220692,0.0585271,0.0290461,-2.33515e-06,0,
10,0.00256668,0.0680109,0.0290465,-5.28222e-06,0,
10,0.00294431,0.0779013,0.029046,-1.09003e-05,0,
10,0.00334229,0.088204,0.0290463,-2.08099e-05,0,
10,0.00376326,0.098888,0.0290458,-3.70202e-05,0,
10,0.00421,0.109873,0.029046,-6.15501e-05,0,
10,0.00468544,0.121022,0.0290455,-9.57401e-05,0,
10,0.00519274,0.132153,0.0290455,-0.000139503,0,
10,0.00573524,0.143059,0.0290449,-0.000190997,0,
10,0.00631651,0.153545,0.0290446,-0.000247052,0,
10,0.00694041,0.163457,0.0290437,-0.000304107,0,
10,0.00761104,0.172696,0.029043,-0.000359124,0,
10,0.00833284,0.181216,0.0290416,-0.00041005,0,
10,0.00911058,0.189018,0.0290402,-0.000455847,0,
10,0.0099494,0.196133,0.029038,-0.000496278,0,
10,0.0108548,0.202611,0.0290356,-0.000531638,0,
10,0.0118329,0.208514,0.0290324,-0.000562521,0,
10,0.0128901,0.213905,0.0290287,-0.000589654,0,
10,0.0140333,0.218846,0.029024,-0.000613789,0,
10,0.0152702,0.223396,0.0290187,-0.00063564,0,
10,0.0166089,0.227606,0.0290122,-0.000655856,0,
10,0.0180584,0.231523,0.0290048,-0.000675012,0,
10,0.0196282,0.23519,0.028996,-0.000693613,0,
10,0.0213288,0.238642,0.028986,-0.000712101,0,
10,0.0231714,0.241912,0.0289744,-0.000730866,0,
10,0.0251682,0.245026,0.0289613,-0.000750261,0,
10,0.0273326,0.24801,0.0289463,-0.000770608,0,
10,0.0296789,0.250885,0.0289293,-0.000792209,0,
10,0.0322227,0.253671,0.0289102,-0.000815354,0,
10,0.0349809,0.256386,0.0288887,-0.000840329,0,
10,0.0379719,0.259046,0.0288646,-0.000867418,0,
10,0.0412155,0.261666,0.0288378,-0.000896912,0,
10,0.0447333,0.26426,0.0288079,-0.000929111,0,
10,0.0485489,0.266843,0.0287746,-0.000964329,0,
10,0.0526875,0.269426,0.0287379,-0.0010029,0,
10,0.0571768,0.272024,0.0286973,-0.00104516,0,
10,0.0620466,0.274649,0.0286526,-0.0010915,0,
10,0.0673295,0.277316,0.0286036,-0.00114231,0,
10,0.0730607,0.280038,0.02855,-0.00119802,0,
10,0.0792784,0.28283,0.0284915,-0.00125908,0,
10,0.0860241,0.285708,0.0284279,-0.00132599,0,
10,0.0933428,0.288689,0.0283589,-0.00139926,0,
10,0.101283,0.291792,0.0282845,-0.00147944,0,
10,0.109899,0.295037,0.0282044,-0.00156713,0,
10,0.119247,0.298448,0.0281186,-0.00166294,0,
10,0.12939,0.302051,0.0280271,-0.00176751,0,
10,0.140395,0.305873,0.0279297,-0.00188151,0,
10,0.152337,0.309949,0.0278268,-0.0020056,0,
10,0.165296,0.314316,0.0277183,-0.00214046,0,
10,0.179357,0.319017,0.0276046,-0.00228672,0,
10,0.194615,0.324102,0.0274859,-0.00244498,0,
10,0.211171,0.329629,0.0273628,-0.00261572,0,
10,0.229138,0.335664,0.0272351,-0.00279927,0,
10,0.248635,0.342285,0.027104,-0.00299576,0,
10,0.269793,0.349583,0.0269684,-0.00320497,0,
10,0.292753,0.35766,0.0268308,-0.00342623,0,
10,0.317669,0.366639,0.0266869,-0.00365688,0,
10,0.344708,0.37665,0.0265424,-0.00389283,0,
10,0.372405,0.387221,0.0264015,-0.00412353,0,
10,0.399623,0.397939,0.0262661,-0.00433772,0,
10,0.426397,0.408802,0.0261368,-0.004532,0,
10,0.452757,0.419809,0.0260124,-0.00470714,0,
10,0.478735,0.430968,0.0258942,-0.00486089,0,
10,0.504358,0.442296,0.0257834,-0.0049912,0,
10,0.529657,0.453809,0.0256748,-0.0050988,0,
10,0.554656,0.465515,0.0255742,-0.00518356,0,
10,0.579382,0.47742,0.0254596,-0.00527929,0,
10,0.603859,0.489684,0.0254014,-0.00530632,0,
10,0.628112,0.502623,0.025406,-0.00524753,0,
10,0.652163,0.516375,0.0253751,-0.00516507,0,
10,0.676035,0.530778,0.0253076,-0.00505674,0,
10,0.699751,0.545563,0.0252029,-0.00492145,0,
10,0.72333,0.560493,0.025077,-0.00476036,0,
10,0.746795,0.575418,0.0249374,-0.00457611,0,
10,0.770165,0.590253,0.0247894,-0.00437208,0,
10,0.79346,0.604942,0.0246332,-0.00415186,0,
10,0.816699,0.619422,0.0244676,-0.00391931,0,
10,0.839903,0.633603,0.0242912,-0.00367869,0,
10,0.863088,0.647363,0.024102,-0.00343961,0,
10,0.886275,0.660578,0.0238999,-0.00320694,0,
10,0.909481,0.673167,0.0236887,-0.0029811,0,
10,0.932723,0.685115,0.0234702,-0.00276277,0,
10,0.956021,0.69644,0.0232456,-0.00255289,0,
10,0.97939,0.707172,0.0230146,-0.0023524,0,
10,1.00285,0.717335,0.0227769,-0.00216217,0,
10,1.02641,0.726945,0.0225322,-0.00198292,0,
10,1.0501,0.736022,0.0222803,-0.00181522,0,
10,1.07392,0.744588,0.0220223,-0.0016592,0,
10,1.0979,0.752681,0.0217582,-0.00151075,0,
10,1.12205,0.760314,0.0214854,-0.00137859,0,
10,1.14639,0.767483,0.021205,-0.00126093,0,
10,1.17093,0.774205,0.0209158,-0.00115873,0,
10,1.19568,0.780517,0.0206203,-0.0010754,0,
10,1.22066,0.786507,0.0203179,-0.00100236,0,
10,1.24589,0.792319,0.0200094,-0.000934679,0,
10,1.27137,0.798059,0.0196966,-0.000874661,0,
10,1.29713,0.80375,0.0193771,-0.000821805,0,
10,1.32317,0.80936,0.0190507,-0.00077553,0,
10,1.34951,0.81485,0.0187164,-0.000734906,0,
10,1.37616,0.820209,0.0183749,-0.000698742,0,
10,1.40313,0.825459,0.0180262,-0.000665892,0,
10,1.43043,0.830637,0.0176707,-0.000635465,0,
10,1.45807,0.83577,0.0173081,-0.000606882,0,
10,1.48607,0.84087,0.0169384,-0.000579775,0,
10,1.51444,0.845929,0.0165613,-0.000553882,0,
10,1.54318,0.850937,0.0161766,-0.00052897,0,
10,1.57231,0.855881,0.0157843,-0.000504838,0,
10,1.60184,0.860753,0.0153843,-0.000481325,0,
10,1.63178,0.865548,0.0149766,-0.000458332,0,
10,1.66213,0.870259,0.0145611,-0.00043582,0,
10,1.69292,0.874873,0.0141378,-0.000413817,0,
10,1.72416,0.879374,0.0137065,-0.0003924,0,
10,1.75585,0.883738,0.0132679,-0.000371702,0,
10,1.78802,0.887943,0.0128209,-0.00035179,0,
10,1.82067,0.891978,0.0123675,-0.000332585,0,
10,1.85383,0.895869,0.0119046,-0.000310699,0,
10,1.88751,0.899671,0.0114322,-0.000286349,0,
10,1.92173,0.903399,0.0109537,-0.00026251,0,
10,1.95652,0.907023,0.0104654,-0.000237728,0,
10,1.9919,0.91051,0.00996976,-0.000212385,0,
10,2.02791,0.913825,0.00946424,-0.000187188,0,
10,2.06456,0.916941,0.00895143,-0.000162588,0,
10,2.10268,0.919893,0.00841658,-0.000138378,0,
10,2.1443,0.922764,0.0078359,-0.000115046,0,
10,2.18977,0.925502,0.0072024,-9.27465e-05,0,
10,2.23946,0.928026,0.00651439,-7.17282e-05,0,
10,2.29376,0.930254,0.00576647,-5.27205e-05,0,
10,2.35309,0.932108,0.00495648,-3.6304e-05,0,
10,2.4179,0.933522,0.00408051,-2.29434e-05,0,
10,2.48863,0.934456,0.003137,-1.29242e-05,0,
10,2.56575,0.934907,0.00212389,-6.23706e-06,0,
10,2.64971,0.934933,0.00104103,-2.49144e-06,0,
10,2.74098,0.934651,-0.000111527,-9.31646e-07,0,
10,2.83997,0.934237,-0.0013322,-6.09324e-07,0,
10,2.94709,0.933893,-0.00261901,-6.83561e-07,0,
10,3.06269,0.9338,-0.00396875,-6.77391e-07,0,
10,3.18706,0.934064,-0.00537748,-5.07378e-07,0,
10,3.3204,0.934687,-0.00683973,-2.91364e-07,0,
10,3.46281,0.935575,-0.00834849,-1.35236e-07,0,
10,3.61427,0.936585,-0.00989466,-5.8291e-08,0,
10,3.77463,0.937583,-0.0114673,-3.03761e-08,0,
10,3.94358,0.938487,-0.0130539,-2.19272e-08,0,
10,4.12067,0.939285,-0.014641,-1.90461e-08,0,
10,4.30525,0.940008,-0.0162148,-1.77458e-08,0,
10,4.49655,0.940699,-0.0177616,-1.72588e-08,0,
10,4.6936,0.941387,-0.0192686,-1.75876e-08,0,
10,4.89531,0.942074,-0.0207238,-1.92389e-08,0,
10,5.10047,0.942745,-0.0221167,-2.36868e-08,0,
10,5.30776,0.943381,-0.0234383,-3.42229e-08,0,
10,5.51581,0.943965,-0.0246817,-5.75472e-08,0,
10,5.72323,0.944493,-0.0258418,-1.08165e-07,0,
10,5.92863,0.94499,-0.0269154,-2.21707e-07,0,
10,6.13069,0.945519,-0.0279014,-4.93014e-07,0,
10,6.32816,0.946179,-0.0288004,-1.12433e-06,0,
10,6.51991,0.947004,-0.0296148,-2.21049e-06,0,
10,6.70495,0.947772,-0.0303483,-2.41547e-06,0,
10,6.88244,0.947773,-0.0310045,3.79381e-06,0,
10,7.0517,0.94577,-0.0315877,2.76339e-05,0,
10,7.21224,0.940355,-0.0320983,8.25719e-05,0,
10,7.3637,0.930623,-0.0325419,0.00017762,0,
10,7.5059,0.916628,-0.0329214,0.000304413,0,
10,7.63878,0.899019,-0.033241,0.000415711,0,
10,7.76243,0.878941,-0.0335119,0.000537958,0,
10,7.87701,0.858171,-0.0337283,0.000661769,0,
10,7.9828,0.83816,-0.0339064,0.000772621,0,
10,8.08014,0.819595,-0.0340488,0.000866022,0,
10,8.16941,0.802514,-0.0341661,0.000943303,0,
10,8.25106,0.786625,-0.034263,0.00100821,0,
10,8.32554,0.771568,-0.0343456,0.00106413,0,
10,8.39331,0.75706,-0.034416,0.00111308,0,
10,8.45484,0.742923,-0.0344766,0.00115604,0,
10,8.5106,0.729066,-0.0345283,0.00119342,0,
10,8.56104,0.715451,-0.0345725,0.00122548,0,
10,8.60659,0.702073,-0.0346103,0.00125246,0,
10,8.64767,0.688937,-0.034643,0.00127458,0,
10,8.68467,0.676046,-0.0346715,0.00129213,0,
10,8.71795,0.663379,-0.0346968,0.00130219,0,
10,8.74786,0.650905,-0.0347186,0.00130769,0,
10,8.77471,0.638612,-0.0347375,0.00130923,0,
10,8.79881,0.626496,-0.0347538,0.00130698,0,
10,8.8204,0.614549,-0.0347678,0.00130147,0,
10,8.83975,0.602759,-0.0347798,0.00129322,0,
10,8.85708,0.591113,-0.0347901,0.00128273,0,
10,8.87259,0.579591,-0.034799,0.00127043,0,
10,8.88646,0.568173,-0.0348064,0.00125672,0,
10,8.89886,0.556835,-0.0348128,0.00124192,0,
10,8.90995,0.545549,-0.0348182,0.00122632,0,
10,8.91986,0.534285,-0.0348227,0.00121012,0,
10,8.92872,0.523011,-0.0348265,0.00119348,0,
10,8.93663,0.511691,-0.0348298,0.00117647,0,
10,8.94369,0.500287,-0.0348326,0.00115912,0,
10,8.95,0.488758,-0.0348349,0.00114138,0,
10,8.95564,0.477058,-0.0348369,0.00112319,0,
10,8.96067,0.465138,-0.0348384,0.00110436,0,
10,8.96517,0.452944,-0.0348398,0.00108464,0,
10,8.96918,0.440414,-0.0348408,0.00106371,0,
10,8.97276,0.42748,-0.0348417,0.00104114,0,
10,8.97596,0.414061,-0.0348423,0.00101636,0,
10,8.97882,0.400066,-0.0348431,0.000988651,0,
10,8.98137,0.385386,-0.0348434,0.000957072,0,
10,8.98365,0.369894,-0.034844,0.000920412,0,
10,8.98569,0.35344,-0.0348441,0.000877275,0,
10,8.9875,0.335842,-0.0348446,0.0008254,0,
10,8.98913,0.316864,-0.0348445,0.000759794,0,
10,8.99058,0.296274,-0.034845,0.000682244,0,
10,8.99188,0.273911,-0.0348448,0.000590502,0,
10,8.99304,0.249612,-0.0348453,0.000477414,0,
10,8.99408,0.223329,-0.0348449,0.000350648,0,
10,8.99501,0.195427,-0.0348455,0.000223807,0,
10,8.99583,0.166804,-0.034845,0.000118872,0,
10,8.99658,0.138732,-0.0348456,5.1134e-05,0,
10,8.99724,0.112336,-0.034845,1.76665e-05,0,
10,8.99784,0.0882144,-0.0348457,4.8559e-06,0,
10,8.99837,0.0664832,-0.034845,1.01858e-06,0,
10,8.99885,0.0470084,-0.0348458,1.45923e-07,0,
10,8.99927,0.0295784,-0.0348449,1.10785e-08,0,
10,8.99966,0.0139772,-0.0348459,2.4511e-10,0,
10,0,0,0.0290472,0,0,
10,9,0,-0.0348448,0,0,

0.004,0,0,-0.223672,0,-6.9719e-08,
0.00868226,0,0,-0.223669,0,-1.65555e-07,
0.014062,0,0,-0.223671,0,-2.83479e-07,
0.0201548,0,0,-0.22367,0,-6.56229e-07,
0.0269766,0,0,-0.22367,0,-1.09459e-06,
0.0345437,0,0,-0.22367,0,-1.63047e-06,
0.0428729,0,0,-0.223669,0,-2.10378e-06,
0.051981,0,0,-0.223667,0,-2.43177e-06,
0.0618853,0,0,-0.223665,0,-2.44222e-06,
0.0726036,0,0,-0.223662,0,-1.98633e-06,
0.0841536,0,0,-0.223659,0,-8.96598e-07,
0.0965535,0,0,-0.223656,0,9.52714e-07,
0.109822,0,0,-0.223653,0,3.62638e-06,
0.123977,0,0,-0.223653,0,7.10002e-06,
0.139037,0,0,-0.223654,0,1.12423e-05,
0.155022,0,0,-0.22366,0,1.58359e-05,
0.171949,0,0,-0.223669,0,2.05939e-05,
0.189839,0,0,-0.223683,0,2.52147e-05,
0.208709,0,0,-0.223702,0,2.94112e-05,
0.228579,0,0,-0.223724,0,3.29556e-05,
0.249467,0,0,-0.223748,0,3.56903e-05,
0.271391,0,0,-0.223775,0,3.75446e-05,
0.29437,0,0,-0.223802,0,3.85253e-05,
0.31842,0,0,-0.223829,0,3.87113e-05,
0.343559,0,0,-0.223854,0,3.82352e-05,
0.369804,0,0,-0.223878,0,3.72706e-05,
0.39717,0,0,-0.2239,0,3.60177e-05,
0.425672,0,0,-0.22392,0,3.46979e-05,
0.455324,0,0,-0.223939,0,3.35523e-05,
0.48614,0,0,-0.223958,0,3.28297e-05,
0.518132,0,0,-0.223977,0,3.27515e-05,
0.551309,0,0,-0.223999,0,3.34856e-05,
0.585683,0,0,-0.224026,0,3.5121e-05,
0.621259,0,0,-0.22406,0,3.76572e-05,
0.658046,0,0,-0.224105,0,4.10118e-05,
0.696047,0,0,-0.224164,0,4.50473e-05,
0.735265,0,0,-0.22424,0,4.96091e-05,
0.7757,0,0,-0.224337,0,5.45385e-05,
0.817352,0,0,-0.224459,0,5.96567e-05,
0.860215,0,0,-0.224614,0,6.46746e-05,
0.904285,0,0,-0.224811,0,6.90707e-05,
0.949552,0,0,-0.225063,0,7.20271e-05,
0.996004,0,0,-0.225386,0,7.23481e-05,
1.04363,0,0,-0.2258,0,6.84432e-05,
1.09241,0,0,-0.226322,0,5.85133e-05,
1.14232,0,0,-0.226968,0,4.08839e-05,
1.19335,0,0,-0.227741,0,1.44188e-05,
1.24546,0,0,-0.228635,0,-2.11084e-05,
1.29863,0,0,-0.229632,0,-6.4888e-05,
1.35283,0,0,-0.230706,0,-0.000115298,
1.40802,0,0,-0.231828,0,-0.000170377,
1.46416,0,0,-0.232972,0,-0.000228324,
1.52121,0,0,-0.234113,0,-0.0002878,
1.57913,0,0,-0.235229,0,-0.000347993,
1.63787,0,0,-0.236303,0,-0.0004085,
1.69739,0,0,-0.237318,0,-0.000469154,
1.75761,0,0,-0.23826,0,-0.000529883,
1.81851,0,0,-0.239114,0,-0.000590625,
1.88,0,0,-0.239865,0,-0.000651292,
1.94204,0,0,-0.240501,0,-0.000711766,
2.00457,0,0,-0.241007,0,-0.000771902,
2.06751,0,0,-0.241371,0,-0.000831529,
2.13081,0,0,-0.24158,0,-0.000890458,
2.19439,0,0,-0.241624,0,-0.000948484,
2.25819,0,0,-0.24149,0,-0.0010054,
2.32214,0,0,-0.241171,0,-0.00106097,
2.38617,0,0,-0.240659,0,-0.00111499,
2.4502,0,0,-0.239948,0,-0.00116725,
2.51418,0,0,-0.239033,0,-0.00121755,
2.57803,0,0,-0.237913,0,-0.0012657,
2.64167,0,0,-0.236588,0,-0.00131155,
2.70505,0,0,-0.235058,0,-0.00135495,
2.76808,0,0,-0.233327,0,-0.00139575,
2.83072,0,0,-0.231399,0,-0.00143382,
2.89288,0,0,-0.229281,0,-0.00146906,
2.95451,0,0,-0.22698,0,-0.00150135,
3.01555,0,0,-0.224506,0,-0.00153059,
3.07594,0,0,-0.22187,0,-0.00155672,
3.13561,0,0,-0.219086,0,-0.00157969,
3.19453,0,0,-0.216166,0,-0.00159951,
3.25262,0,0,-0.213127,0,-0.00161623,
3.30985,0,0,-0.209985,0,-0.00162993,
3.36617,0,0,-0.206754,0,-0.00164072,
3.42154,0,0,-0.203452,0,-0.00164876,
3.47591,0,0,-0.200095,0,-0.00165419,
3.52925,0,0,-0.196697,0,-0.00165718,
3.58152,0,0,-0.193273,0,-0.0016579,
3.6327,0,0,-0.189838,0,-0.00165652,
3.68276,0,0,-0.186404,0,-0.00165322,
3.73167,0,0,-0.182983,0,-0.00164817,
3.77941,0,0,-0.179587,0,-0.00164154,
3.82596,0,0,-0.176227,0,-0.0016335,
3.8713,0,0,-0.172911,0,-0.00162421,
3.91543,0,0,-0.169644,0,-0.00161371,
3.95833,0,0,-0.166452,0,-0.00160245,
4,0,0,-0.163307,0,-0.00159033,
4.04167,0,0,-0.160149,0,-0.00157701,
4.08333,0,0,-0.156971,0,-0.00156269,
4.125,0,0,-0.153777,0,-0.00154737,
4.16667,0,0,-0.15057,0,-0.00153106,
4.20833,0,0,-0.147353,0,-0.00151379,
4.25,0,0,-0.144128,0,-0.00149559,
4.29167,0,0,-0.140898,0,-0.0014765,
4.33333,0,0,-0.137666,0,-0.00145655,
4.375,0,0,-0.134434,0,-0.00143576,
4.41667,0,0,-0.131205,0,-0.00141416,
4.45833,0,0,-0.127981,0,-0.0013918,
4.5,0,0,-0.124764,0,-0.00136869,
4.54167,0,0,-0.121558,0,-0.00134486,
4.58333,0,0,-0.118363,0,-0.00132036,
4.625,0,0,-0.115182,0,-0.0012952,
4.66667,0,0,-0.112018,0,-0.0012694,
4.70833,0,0,-0.108871,0,-0.00124301,
4.75,0,0,-0.105744,0,-0.00121605,
4.79167,0,0,-0.102639,0,-0.00118853,
4.83333,0,0,-0.0995575,0,-0.00116049,
4.875,0,0,-0.0965008,0,-0.00113195,
4.91667,0,0,-0.0934706,0,-0.00110294,
4.95833,0,0,-0.0904686,0,-0.00107348,
5,0,0,-0.087496,0,-0.00104361,
5.04167,0,0,-0.0845543,0,-0.00101335,
5.08333,0,0,-0.0816448,0,-0.000982711,
5.125,0,0,-0.0787685,0,-0.00095173,
5.16667,0,0,-0.0759266,0,-0.000920425,
5.20833,0,0,-0.0731203,0,-0.000888822,
5.25,0,0,-0.0703505,0,-0.000856944,
5.29167,0,0,-0.0676181,0,-0.000824815,
5.33333,0,0,-0.0649239,0,-0.000792454,
5.375,0,0,-0.0622688,0,-0.00075988,
5.41667,0,0,-0.0596533,0,-0.000727113,
5.45833,0,0,-0.0570784,0,-0.000694171,
5.5,0,0,-0.0545445,0,-0.000661077,
5.54167,0,0,-0.0520523,0,-0.00062785,
5.58333,0,0,-0.0496023,0,-0.000594512,
5.625,0,0,-0.0471949,0,-0.000561082,
5.66667,0,0,-0.0448307,0,-0.000527582,
5.70833,0,0,-0.0425098,0,-0.00049403,
5.75,0,0,-0.0402328,0,-0.000460445,
5.79167,0,0,-0.0379998,0,-0.000426843,
5.83333,0,0,-0.0358111,0,-0.000393238,
5.875,0,0,-0.0336669,0,-0.000359643,
5.91667,0,0,-0.0315677,0,-0.000326074,
5.95833,0,0,-0.0295138,0,-0.000292547,
6,0,0,-0.0275054,0,-0.000259083,
6.04167,0,0,-0.0255432,0,-0.000225714,
6.08333,0,0,-0.0236275,0,-0.000192487,
6.125,0,0,-0.0217586,0,-0.000159466,
6.16667,0,0,-0.0199367,0,-0.000126717,
6.20833,0,0,-0.018161,0,-9.42847e-05,
6.25,0,0,-0.016431,0,-6.21886e-05,
6.29167,0,0,-0.0147457,0,-3.04264e-05,
6.33333,0,0,-0.0131044,0,1.01085e-06,
6.375,0,0,-0.0115064,0,3.21302e-05,
6.41667,0,0,-0.00995099,0,6.29354e-05,
6.45833,0,0,-0.0084376,0,9.34272e-05,
6.5,0,0,-0.00696553,0,0.000123605,
6.54167,0,0,-0.00553417,0,0.000153467,
6.58333,0,0,-0.00414287,0,0.000183013,
6.625,0,0,-0.00279103,0,0.000212239,
6.66667,0,0,-0.001478,0,0.000241143,
6.70833,0,0,-0.00020318,0,0.000269721,
6.75,0,0,0.00103408,0,0.000297971,
6.79167,0,0,0.00223443,0,0.000325889,
6.83333,0,0,0.00339851,0,0.000353473,
6.875,0,0,0.00452697,0,0.00038072,
6.91667,0,0,0.00562047,0,0.000407628,
6.95833,0,0,0.00667965,0,0.000434196,
7,0,0,0.00770519,0,0.000460421,
7.04167,0,0,0.00869774,0,0.000486302,
7.08333,0,0,0.00965795,0,0.00051184,
7.125,0,0,0.0105865,0,0.000537033,
7.16667,0,0,0.011484,0,0.000561882,
7.20833,0,0,0.0123512,0,0.000586387,
7.25,0,0,0.0131887,0,0.000610548,
7.29167,0,0,0.013997,0,0.000634366,
7.33333,0,0,0.014777,0,0.000657843,
7.375,0,0,0.0155291,0,0.000680979,
7.41667,0,0,0.016254,0,0.000703779,
7.45833,0,0,0.0169524,0,0.000726243,
7.5,0,0,0.0176247,0,0.000748377,
7.54167,0,0,0.0182716,0,0.000770183,
7.58333,0,0,0.0188937,0,0.000791671,
7.625,0,0,0.0194915,0,0.000812851,
7.66667,0,0,0.0200657,0,0.000833738,
7.70833,0,0,0.0206167,0,0.000854341,
7.75,0,0,0.0211449,0,0.000874665,
7.79167,0,0,0.0216508,0,0.000894711,
7.83333,0,0,0.0221342,0,0.000914472,
7.875,0,0,0.0225953,0,0.000933999,
7.91667,0,0,0.0230447,0,0.000953809,
7.95833,0,0,0.0234169,0,0.000972453,
8,0,0,0.0238652,0,0.000990952,
8.04171,0,0,0.024328,0,0.00101053,
8.08368,0,0,0.0246626,0,0.00102989,
8.12617,0,0,0.0250351,0,0.00104762,
8.16946,0,0,0.0253901,0,0.00106546,
8.21382,0,0,0.025729,0,0.00108334,
8.25952,0,0,0.0260593,0,0.0011013,
8.30685,0,0,0.0263809,0,0.00111949,
8.35611,0,0,0.0266942,0,0.00113804,
8.40762,0,0,0.0269996,0,0.001157,
8.46168,0,0,0.0272968,0,0.00117646,
8.51865,0,0,0.027585,0,0.00119649,
8.57889,0,0,0.0278632,0,0.00121713,
8.64276,0,0,0.0281297,0,0.00123843,
8.71067,0,0,0.0283826,0,0.00126043,
8.78306,0,0,0.0286194,0,0.00128316,
8.86037,0,0,0.0288372,0,0.00130664,
8.94309,0,0,0.0290324,0,0.00133089,
9.03174,0,0,0.0292012,0,0.0013559,
9.12689,0,0,0.0293393,0,0.00138168,
9.22912,0,0,0.0294417,0,0.00140818,
9.33908,0,0,0.0295033,0,0.00143539,
9.45746,0,0,0.0295187,0,0.00146325,
9.58501,0,0,0.0294819,0,0.00149169,
9.72253,0,0,0.0293876,0,0.00152065,
9.87088,0,0,0.02923,0,0.00155003,
10.031,0,0,0.0290033,0,0.00157973,
10.2039,0,0,0.0287024,0,0.00160964,
10.3906,0,0,0.0283236,0,0.00163961,
10.5924,0,0,0.0278631,0,0.00166953,
10.8105,0,0,0.027318,0,0.00169924,
11.0463,0,0,0.0266891,0,0.00172859,
11.3012,0,0,0.0259768,0,0.00175746,
11.5769,0,0,0.0251837,0,0.00178571,
11.8751,0,0,0.0243149,0,0.00181322,
12.1977,0,0,0.023377,0,0.00183988,
12.5466,0,0,0.0223795,0,0.00186559,
12.9242,0,0,0.0213334,0,0.0018903,
13.3327,0,0,0.0202508,0,0.00191393,
13.7748,0,0,0.0191463,0,0.00193648,
14.2532,0,0,0.0180341,0,0.00195791,
14.7709,0,0,0.0169302,0,0.00197825,
15.3312,0,0,0.0158493,0,0.00199754,
15.9377,0,0,0.014805,0,0.00201583,
16.594,0,0,0.0138108,0,0.00203318,
17.3044,0,0,0.0128767,0,0.0020497,
18.0733,0,0,0.0120102,0,0.00206545,
18.9056,0,0,0.011216,0,0.00208043,
19.8064,0,0,0.0104947,0,0.00209452,
20.7816,0,0,0.00984471,0,0.00210787,
21.8371,0,0,0.00925946,0,0.00212086,
22.9796,0,0,0.00872934,0,0.00213375,
24.2163,0,0,0.008242,0,0.0021467,
25.5551,0,0,0.00778238,0,0.00215971,
27.0042,0,0,0.00733399,0,0.00217291,
28.5729,0,0,0.00687901,0,0.00218641,
30.271,0,0,0.0063993,0,0.00220023,
32.1091,0,0,0.00587723,0,0.00221434,
34.0989,0,0,0.00529727,0,0.00222869,
36.2529,0,0,0.00464144,0,0.00224318,
38.5845,0,0,0.0039012,0,0.00225776,
41.1085,0,0,0.00311374,0,0.00227227,
43.8407,0,0,0.00212388,0,0.00228451,
46.7983,0,0,0.0010938,0,0.00229224,
50,0,0,0.00204791,0,0.00230931,

