c229c0db8a82bdc5a60362fc46f58550a74a4fef 
X,Z,x_velocity,cp,uw_b,cf,
1,0,0,-0.219812,0,0,
1,9,0,-0.131156,0,0,
1,1.01284,0.472967,-0.180235,-0.00459059,0,
1,0.000308731,0.000273888,-0.219809,-1.8403e-15,0,
1,0.000654158,0.000570683,-0.219811,-8.08648e-14,0,
1,0.00104139,0.000891759,-0.21981,-1.03771e-12,0,
1,0.00147619,0.00123792,-0.219811,-7.08723e-12,0,
1,0.00196502,0.00160934,-0.21981,-3.349e-11,0,
1,0.00251518,0.00200532,-0.219811,-1.24635e-10,0,
1,0.0031349,0.00242388,-0.21981,-3.92057e-10,0,
1,0.00383341,0.00286123,-0.219811,-1.08579e-09,0,
1,0.00462115,0.00331095,-0.21981,-2.70954e-09,0,
1,0.00550983,0.00376287,-0.219811,-6.15606e-09,0,
1,0.00651264,0.00420139,-0.21981,-1.27018e-08,0,
1,0.00764438,0.00460323,-0.219811,-2.32594e-08,0,
1,0.00892169,0.00493449,-0.21981,-3.50763e-08,0,
1,0.0103632,0.00514732,-0.21981,-3.11444e-08,0,
1,0.0119898,0.00517728,-0.21981,4.78962e-08,0,
1,0.0138248,0.00494491,-0.21981,3.64286e-07,0,
1,0.0158944,0.00436662,-0.219809,1.27524e-06,0,
1,0.0182274,0.00337901,-0.219808,3.38073e-06,0,
1,0.0208562,0.00196628,-0.219806,7.35468e-06,0,
1,0.0238164,0.000166552,-0.219803,1.35442e-05,0,
1,0.0271475,-0.00195517,-0.219798,2.17042e-05,0,
1,0.0308929,-0.00434215,-0.219792,3.12629e-05,0,
1,0.0351001,-0.00696242,-0.219783,4.16243e-05,0,
1,0.0398209,-0.00980546,-0.219771,5.23396e-05,0,
1,0.0451115,-0.0128704,-0.219757,6.30429e-05,0,
1,0.0510323,-0.0161544,-0.219741,7.3368e-05,0,
1,0.057648,-0.0196435,-0.219722,8.29011e-05,0,
1,0.0650269,-0.0233069,-0.219702,9.11681e-05,0,
1,0.0732406,-0.0270926,-0.21968,9.76623e-05,0,
1,0.0823632,-0.0309273,-0.219659,0.000101852,0,
1,0.0924701,-0.0347197,-0.21964,0.000103232,0,
1,0.103636,-0.0383676,-0.219623,0.000101389,0,
1,0.115935,-0.0417662,-0.219612,9.60618e-05,0,
1,0.129436,-0.0448184,-0.219608,8.71806e-05,0,
1,0.144202,-0.0474422,-0.219614,7.48796e-05,0,
1,0.160284,-0.0495766,-0.21963,5.94665e-05,0,
1,0.177724,-0.0511832,-0.219659,4.13647e-05,0,
1,0.196544,-0.0522446,-0.219698,2.10427e-05,0,
1,0.21675,-0.0527611,-0.219749,-1.04288e-06,0,
1,0.238323,-0.0527461,-0.219809,-2.44772e-05,0,
1,0.26122,-0.0522222,-0.219876,-4.88881e-05,0,
1,0.28537,-0.0512186,-0.219945,-7.39268e-05,0,
1,0.310673,-0.0497687,-0.220014,-9.92482e-05,0,
1,0.337003,-0.0479098,-0.220077,-0.000124503,0,
1,0.364206,-0.045683,-0.22013,-0.000149353,0,
1,0.392107,-0.0431326,-0.220165,-0.000173452,0,
1,0.420509,-0.0403068,-0.220179,-0.000196471,0,
1,0.449206,-0.0372564,-0.220163,-0.000218128,0,
1,0.477982,-0.0340341,-0.220112,-0.000238219,0,
1,0.506624,-0.0306927,-0.220017,-0.000256652,0,
1,0.534925,-0.0272822,-0.21987,-0.000273456,0,
1,0.562692,-0.023846,-0.21966,-0.000288817,0,
1,0.589754,-0.0204142,-0.219376,-0.000303138,0,
1,0.615961,-0.0169961,-0.219004,-0.000317083,0,
1,0.641193,-0.0135713,-0.218527,-0.000331733,0,
1,0.665359,-0.0100808,-0.217927,-0.00034836,0,
1,0.688396,-0.00642705,-0.217189,-0.000370218,0,
1,0.710271,-0.00247492,-0.216297,-0.000402307,0,
1,0.730976,0.00199568,-0.215239,-0.000447954,0,
1,0.750529,0.00733463,-0.214011,-0.000516627,0,
1,0.768969,0.0140173,-0.212615,-0.000620749,0,
1,0.78635,0.0225767,-0.211071,-0.000776503,0,
1,0.802743,0.0334364,-0.209395,-0.00100209,0,
1,0.818232,0.0467462,-0.207626,-0.00131099,0,
1,0.832689,0.0622044,-0.20581,-0.00170754,0,
1,0.846039,0.0792796,-0.20401,-0.00218163,0,
1,0.858357,0.0974884,-0.202261,-0.00271289,0,
1,0.869723,0.116351,-0.200587,-0.00327495,0,
1,0.880212,0.135423,-0.199002,-0.00383801,0,
1,0.889898,0.15433,-0.197512,-0.00437555,0,
1,0.898852,0.172787,-0.196117,-0.00486711,0,
1,0.907141,0.190603,-0.194813,-0.0053006,0,
1,0.914826,0.207668,-0.193597,-0.0056713,0,
1,0.921966,0.223936,-0.192461,-0.00597941,0,
1,0.928616,0.239405,-0.191401,-0.00622838,0,
1,0.934823,0.254104,-0.19041,-0.00642295,0,
1,0.940633,0.268084,-0.189477,-0.00656993,0,
1,0.946088,0.28141,-0.18859,-0.00667113,0,
1,0.951224,0.294154,-0.187744,-0.00673229,0,
1,0.956076,0.306391,-0.186936,-0.00675641,0,
1,0.960675,0.318192,-0.186169,-0.00674904,0,
1,0.965047,0.329619,-0.185443,-0.00671684,0,
1,0.969219,0.340723,-0.184757,-0.00666067,0,
1,0.973211,0.351553,-0.184112,-0.00658225,0,
1,0.977045,0.362153,-0.183507,-0.00648304,0,
1,0.980739,0.372567,-0.182945,-0.0063641,0,
1,0.984308,0.382838,-0.182427,-0.00622639,0,
1,0.987768,0.393008,-0.181957,-0.00607479,0,
1,0.991131,0.403106,-0.181539,-0.00591172,0,
1,0.99441,0.413156,-0.181176,-0.0057392,0,
1,0.997615,0.423175,-0.18087,-0.00555894,0,
1,1.00076,0.433172,-0.180623,-0.00537244,0,
1,1.00384,0.443152,-0.180437,-0.00518108,0,
1,1.00688,0.453115,-0.180311,-0.00498614,0,
1,1.00988,0.463056,-0.180243,-0.00478895,0,
1,1.01581,0.482943,-0.180283,-0.00438949,0,
1,1.01882,0.493077,-0.180389,-0.00418513,0,
1,1.02188,0.503351,-0.180555,-0.00397904,0,
1,1.025,0.513742,-0.180783,-0.00377256,0,
1,1.02818,0.524218,-0.181075,-0.00356752,0,
1,1.03144,0.534744,-0.181432,-0.0033661,0,
1,1.03478,0.545277,-0.181855,-0.00317096,0,
1,1.03822,0.555772,-0.182346,-0.00298533,0,
1,1.04177,0.566178,-0.182908,-0.00281302,0,
1,1.04544,0.576452,-0.183539,-0.00265774,0,
1,1.04925,0.586564,-0.184237,-0.0025214,0,
1,1.05321,0.596504,-0.185,-0.00240127,0,
1,1.05735,0.606279,-0.185827,-0.00229565,0,
1,1.06169,0.615908,-0.186713,-0.00220304,0,
1,1.06626,0.625412,-0.187657,-0.00212157,0,
1,1.07108,0.634804,-0.188656,-0.00204933,0,
1,1.07618,0.644097,-0.189708,-0.00198457,0,
1,1.0816,0.653296,-0.190811,-0.00192598,0,
1,1.08738,0.662401,-0.191963,-0.00187277,0,
1,1.09357,0.67141,-0.193161,-0.00182478,0,
1,1.10022,0.680315,-0.194403,-0.0017827,0,
1,1.10739,0.689116,-0.195685,-0.0017466,0,
1,1.11514,0.697823,-0.197001,-0.00171505,0,
1,1.12354,0.706464,-0.198344,-0.00168671,0,
1,1.13268,0.715067,-0.199703,-0.00165986,0,
1,1.14266,0.723662,-0.201067,-0.00163266,0,
1,1.15357,0.732275,-0.202421,-0.00160337,0,
1,1.16554,0.740926,-0.203748,-0.00157056,0,
1,1.1787,0.749628,-0.205029,-0.00153318,0,
1,1.1932,0.758392,-0.206243,-0.00149076,0,
1,1.2092,0.767222,-0.207367,-0.0014434,0,
1,1.22689,0.776123,-0.20838,-0.00139156,0,
1,1.24659,0.785145,-0.209265,-0.00133507,0,
1,1.26879,0.794377,-0.210006,-0.00127704,0,
1,1.29378,0.803828,-0.210587,-0.00122111,0,
1,1.3219,0.813544,-0.210939,-0.00113535,0,
1,1.35351,0.823526,-0.211068,-0.00105098,0,
1,1.389,0.83375,-0.21101,-0.000982545,0,
1,1.42882,0.844271,-0.210742,-0.000923998,0,
1,1.47342,0.855179,-0.210269,-0.000872411,0,
1,1.52332,0.866573,-0.209592,-0.000824808,0,
1,1.57905,0.878568,-0.208714,-0.000778233,0,
1,1.64119,0.891297,-0.207635,-0.000729681,0,
1,1.71033,0.904902,-0.20635,-0.000676117,0,
1,1.78711,0.919507,-0.204852,-0.000614539,0,
1,1.87215,0.935161,-0.203125,-0.000542373,0,
1,1.9661,0.951725,-0.201152,-0.000458626,0,
1,2.06959,0.968699,-0.198911,-0.000367693,0,
1,2.18321,0.985105,-0.196403,-0.00027339,0,
1,2.30752,0.999627,-0.193676,-0.000142824,0,
1,2.44299,1.01072,-0.190705,-5.00047e-05,0,
1,2.59002,1.01699,-0.187515,-6.29258e-06,0,
1,2.74885,1.01824,-0.184183,8.18904e-07,0,
1,2.91959,1.01618,-0.180759,9.16221e-08,0,
1,3.10217,1.01323,-0.177292,5.05829e-08,0,
1,3.2963,1.01082,-0.17382,4.00574e-08,0,
1,3.50146,1.00913,-0.17037,3.20531e-08,0,
1,3.7169,1.00777,-0.166973,2.82521e-08,0,
1,3.94163,1.00646,-0.163661,2.66414e-08,0,
1,4.17441,1.00512,-0.160465,2.52756e-08,0,
1,4.41376,1.0038,-0.157412,2.35846e-08,0,
1,4.65805,1.00256,-0.154524,2.16905e-08,0,
1,4.90545,1.0014,-0.151818,1.98491e-08,0,
1,5.15407,1.00035,-0.149306,1.81407e-08,0,
1,5.40194,0.999387,-0.146994,1.66171e-08,0,
1,5.64716,0.998515,-0.144886,1.53522e-08,0,
1,5.88785,0.997708,-0.142979,1.44503e-08,0,
1,6.12229,0.996933,-0.141268,1.36857e-08,0,
1,6.34896,0.996221,-0.139745,1.22379e-08,0,
1,6.56652,0.995765,-0.138398,9.68115e-09,0,
1,6.77388,0.995869,-0.137215,3.42437e-09,0,
1,6.97022,0.996494,-0.13618,1.57831e-08,0,
1,7.15495,0.996498,-0.135276,1.78295e-06,0,
1,7.32773,0.993385,-0.134494,1.86534e-05,0,
1,7.48842,0.984562,-0.13383,7.89069e-05,0,
1,7.63711,0.969514,-0.133281,0.000214368,0,
1,7.77403,0.950333,-0.132817,0.000416409,0,
1,7.89956,0.929476,-0.132431,0.00057947,0,
1,8.01417,0.908497,-0.132132,0.000738014,0,
1,8.11843,0.888471,-0.131887,0.000872441,0,
1,8.21296,0.86987,-0.1317,0.000978796,0,
1,8.29839,0.852689,-0.13155,0.00105604,0,
1,8.3754,0.836589,-0.131431,0.00110305,0,
1,8.44464,0.821232,-0.131344,0.00114643,0,
1,8.50675,0.806434,-0.131277,0.0011839,0,
1,8.56236,0.792064,-0.131227,0.00121595,0,
1,8.61206,0.778023,-0.13119,0.0012433,0,
1,8.6564,0.764232,-0.131163,0.00126656,0,
1,8.69591,0.75063,-0.131144,0.00128625,0,
1,8.73107,0.737168,-0.131132,0.00130277,0,
1,8.76232,0.723807,-0.131124,0.00131644,0,
1,8.79007,0.710513,-0.13112,0.00132749,0,
1,8.81469,0.697261,-0.131118,0.00133616,0,
1,8.83651,0.684026,-0.131117,0.0013426,0,
1,8.85584,0.670787,-0.131118,0.00134696,0,
1,8.87295,0.657525,-0.13112,0.00134939,0,
1,8.8881,0.644219,-0.131123,0.00134998,0,
1,8.90149,0.630848,-0.131126,0.00134882,0,
1,8.91333,0.61739,-0.131129,0.00134599,0,
1,8.92379,0.603821,-0.131132,0.00134154,0,
1,8.93303,0.59011,-0.131134,0.00133548,0,
1,8.9412,0.576228,-0.131137,0.0013278,0,
1,8.9484,0.562135,-0.131139,0.00131843,0,
1,8.95476,0.54779,-0.131142,0.00130728,0,
1,8.96038,0.53314,-0.131144,0.00129415,0,
1,8.96533,0.518128,-0.131146,0.00127879,0,
1,8.9697,0.502682,-0.131147,0.0012608,0,
1,8.97356,0.486721,-0.131149,0.00123967,0,
1,8.97696,0.470145,-0.13115,0.00121467,0,
1,8.97996,0.452836,-0.131151,0.00118483,0,
1,8.98261,0.434653,-0.131152,0.00114887,0,
1,8.98494,0.415424,-0.131153,0.00110595,0,
1,8.98699,0.394908,-0.131153,0.00105007,0,
1,8.98881,0.372797,-0.131154,0.000978741,0,
1,8.99041,0.348797,-0.131154,0.000891318,0,
1,8.99182,0.322688,-0.131155,0.00078541,0,
1,8.99306,0.294311,-0.131155,0.000657669,0,
1,8.99416,0.263522,-0.131155,0.000498582,0,
1,8.99512,0.230485,-0.131155,0.000329222,0,
1,8.99597,0.196167,-0.131155,0.000179086,0,
1,8.99672,0.162227,-0.131155,7.72202e-05,0,
1,8.99739,0.130332,-0.131156,2.61108e-05,0,
1,8.99797,0.101439,-0.131155,6.90497e-06,0,
1,8.99848,0.0757514,-0.131156,1.3821e-06,0,
1,8.99894,0.0530762,-0.131155,1.88563e-07,0,
1,8.99934,0.0331002,-0.131156,1.36706e-08,0,
1,8.99969,0.0155079,-0.131155,2.92485e-10,0,

4,0,0,-0.169462,0,0,
4,9,0,-0.101573,0,0,
4,1.05136,0.694095,-0.166873,-0.00348079,0,
4,0.000303409,-0.00831749,-0.169465,5.37806e-11,0,
4,0.00062865,-0.0170823,-0.169462,2.20525e-09,0,
4,0.000979511,-0.0263667,-0.169465,2.58269e-08,0,
4,0.00136016,-0.0362392,-0.169463,1.61178e-07,0,
4,0.00177519,-0.0467643,-0.169465,6.99892e-07,0,
4,0.0022297,-0.0579936,-0.169463,2.40421e-06,0,
4,0.00272934,-0.0699461,-0.169465,6.97876e-06,0,
4,0.00328037,-0.0825669,-0.169464,1.76735e-05,0,
4,0.00388979,-0.0956567,-0.169466,3.94304e-05,0,
4,0.00456537,-0.108791,-0.169465,7.71311e-05,0,
4,0.00531578,-0.121312,-0.169467,0.000131037,0,
4,0.0061507,-0.132502,-0.169468,0.000192877,0,
4,0.0070809,-0.141877,-0.169472,0.000248887,0,
4,0.00811839,-0.149341,-0.169476,0.000288159,0,
4,0.00927657,-0.155102,-0.169483,0.000307219,0,
4,0.0105703,-0.159482,-0.169492,0.000308095,0,
4,0.0120162,-0.162794,-0.169506,0.000294549,0,
4,0.0136326,-0.165284,-0.169522,0.000269862,0,
4,0.0154398,-0.167136,-0.169542,0.000236255,0,
4,0.0174603,-0.168479,-0.169567,0.000195008,0,
4,0.0197189,-0.169404,-0.169598,0.000146741,0,
4,0.0222427,-0.169974,-0.169634,9.16293e-05,0,
4,0.0250617,-0.170233,-0.169676,2.95559e-05,0,
4,0.0282081,-0.17021,-0.169726,-3.97931e-05,0,
4,0.0317171,-0.169923,-0.169784,-0.000116871,0,
4,0.0356266,-0.169385,-0.169851,-0.00020223,0,
4,0.039977,-0.168598,-0.169929,-0.000296497,0,
4,0.0448114,-0.167564,-0.170016,-0.000400348,0,
4,0.0501747,-0.166279,-0.170115,-0.000514492,0,
4,0.056114,-0.164733,-0.170227,-0.000639651,0,
4,0.062677,-0.162917,-0.170351,-0.000776534,0,
4,0.0699123,-0.160816,-0.170489,-0.000925819,0,
4,0.0778675,-0.158414,-0.170641,-0.00108812,0,
4,0.0865883,-0.15569,-0.170806,-0.00126396,0,
4,0.0961173,-0.152624,-0.170984,-0.00145374,0,
4,0.106492,-0.149192,-0.171175,-0.0016577,0,
4,0.117744,-0.145367,-0.171377,-0.00187589,0,
4,0.129894,-0.141124,-0.17159,-0.00210814,0,
4,0.142956,-0.136433,-0.171812,-0.00235403,0,
4,0.156928,-0.131268,-0.172041,-0.00261286,0,
4,0.171798,-0.125601,-0.172275,-0.00288367,0,
4,0.187537,-0.119408,-0.172513,-0.00316521,0,
4,0.2041,-0.112666,-0.172752,-0.00345598,0,
4,0.221432,-0.105357,-0.17299,-0.00375422,0,
4,0.239458,-0.0974709,-0.173226,-0.00405798,0,
4,0.258095,-0.0890013,-0.173458,-0.00436515,0,
4,0.27725,-0.0799514,-0.173683,-0.00467352,0,
4,0.296825,-0.0703325,-0.1739,-0.00498083,0,
4,0.316717,-0.0601646,-0.174108,-0.00528481,0,
4,0.336828,-0.0494767,-0.174305,-0.00558362,0,
4,0.357066,-0.0383044,-0.174485,-0.00587531,0,
4,0.377348,-0.0266896,-0.174653,-0.00616129,0,
4,0.397605,-0.0146647,-0.174816,-0.00651328,0,
4,0.417786,-0.00198544,-0.174801,-0.00672423,0,
4,0.437857,0.011741,-0.174633,-0.00691556,0,
4,0.457804,0.026637,-0.174524,-0.00711695,0,
4,0.477632,0.0425879,-0.174459,-0.00731556,0,
4,0.497368,0.0594079,-0.174433,-0.00750287,0,
4,0.517057,0.0769419,-0.174424,-0.00767288,0,
4,0.536763,0.0951018,-0.174421,-0.00782057,0,
4,0.556564,0.11386,-0.174411,-0.00793991,0,
4,0.576557,0.133239,-0.17438,-0.0080234,0,
4,0.596848,0.153314,-0.174301,-0.00806334,0,
4,0.617561,0.174225,-0.174151,-0.00805434,0,
4,0.637962,0.195373,-0.173897,-0.00800067,0,
4,0.657495,0.216352,-0.17356,-0.00791969,0,
4,0.676218,0.237361,-0.173175,-0.00783159,0,
4,0.694189,0.258556,-0.172796,-0.00775499,0,
4,0.711463,0.279977,-0.172477,-0.00770182,0,
4,0.728096,0.301512,-0.172251,-0.00767342,0,
4,0.744138,0.322911,-0.17212,-0.00766004,0,
4,0.759639,0.343881,-0.172051,-0.00764507,0,
4,0.774643,0.364182,-0.172004,-0.00761211,0,
4,0.789195,0.383661,-0.171952,-0.00755963,0,
4,0.803334,0.402232,-0.171889,-0.00749434,0,
4,0.817097,0.419861,-0.171814,-0.00742213,0,
4,0.830518,0.436565,-0.171718,-0.0073464,0,
4,0.843629,0.452413,-0.171594,-0.00726714,0,
4,0.856459,0.467517,-0.171433,-0.00718533,0,
4,0.869035,0.482008,-0.171225,-0.00710017,0,
4,0.881383,0.496022,-0.17097,-0.00700968,0,
4,0.893524,0.50968,-0.17068,-0.0069165,0,
4,0.905481,0.523078,-0.17038,-0.00682792,0,
4,0.917272,0.536311,-0.170091,-0.00674148,0,
4,0.928915,0.549538,-0.169812,-0.00658216,0,
4,0.940428,0.562855,-0.169532,-0.00642283,0,
4,0.951826,0.576244,-0.169253,-0.00623394,0,
4,0.963124,0.589679,-0.168976,-0.00601596,0,
4,0.974334,0.603134,-0.168701,-0.00577038,0,
4,0.98547,0.616574,-0.168429,-0.0054989,0,
4,0.996544,0.629962,-0.16816,-0.00520373,0,
4,1.00757,0.643248,-0.167894,-0.00488702,0,
4,1.01855,0.656378,-0.167633,-0.00455199,0,
4,1.0295,0.669283,-0.167376,-0.00420256,0,
4,1.04044,0.681885,-0.167123,-0.00384361,0,
4,1.0623,0.705832,-0.166627,-0.00312038,0,
4,1.07328,0.717007,-0.166383,-0.00276984,0,
4,1.08432,0.72751,-0.166139,-0.00243741,0,
4,1.09543,0.737244,-0.165896,-0.00213115,0,
4,1.10661,0.746135,-0.165653,-0.00185808,0,
4,1.11788,0.754148,-0.165408,-0.00162308,0,
4,1.12925,0.761297,-0.16516,-0.00142812,0,
4,1.14073,0.767644,-0.16491,-0.00127222,0,
4,1.15233,0.773286,-0.164657,-0.00115137,0,
4,1.16408,0.778345,-0.164398,-0.00106004,0,
4,1.17599,0.782939,-0.164134,-0.00099259,0,
4,1.18806,0.787175,-0.163864,-0.000943632,0,
4,1.20034,0.791142,-0.163589,-0.000908511,0,
4,1.21282,0.794909,-0.163308,-0.000883441,0,
4,1.22554,0.798532,-0.163021,-0.000865448,0,
4,1.23852,0.802051,-0.162728,-0.000852292,0,
4,1.25179,0.8055,-0.162428,-0.000842592,0,
4,1.26537,0.808903,-0.162122,-0.000834959,0,
4,1.2793,0.812282,-0.161805,-0.000832441,0,
4,1.29362,0.815689,-0.161494,-0.00081916,0,
4,1.30836,0.819175,-0.161185,-0.000805829,0,
4,1.32357,0.822755,-0.160863,-0.000794113,0,
4,1.3393,0.826417,-0.160527,-0.000783425,0,
4,1.3556,0.830153,-0.160176,-0.000773449,0,
4,1.37252,0.833965,-0.15981,-0.000763944,0,
4,1.39015,0.837864,-0.159429,-0.000754697,0,
4,1.40855,0.841864,-0.159031,-0.000745515,0,
4,1.42781,0.845984,-0.158616,-0.000736215,0,
4,1.44801,0.850242,-0.158182,-0.000726629,0,
4,1.46926,0.854656,-0.157726,-0.0007166,0,
4,1.49167,0.859248,-0.157247,-0.000705994,0,
4,1.51537,0.864041,-0.156743,-0.000694619,0,
4,1.54091,0.869137,-0.1562,-0.000682159,0,
4,1.56949,0.874744,-0.155597,-0.000668188,0,
4,1.60144,0.880925,-0.154927,-0.000652275,0,
4,1.63713,0.887717,-0.154184,-0.000633896,0,
4,1.67693,0.895149,-0.153361,-0.00061259,0,
4,1.72128,0.903238,-0.152453,-0.000587869,0,
4,1.77062,0.911978,-0.151452,-0.000559191,0,
4,1.82542,0.921331,-0.150353,-0.000525974,0,
4,1.88618,0.931213,-0.149145,-0.000488355,0,
4,1.95343,0.941535,-0.147839,-0.000436573,0,
4,2.02768,0.952192,-0.146433,-0.000364284,0,
4,2.10949,0.962897,-0.144915,-0.000284746,0,
4,2.19939,0.97311,-0.143292,-0.000202372,0,
4,2.29789,0.982152,-0.141565,-0.000125708,0,
4,2.40551,0.989312,-0.139745,-6.32843e-05,0,
4,2.52268,0.993996,-0.137847,-2.10423e-05,0,
4,2.64979,0.995956,-0.135891,-1.16648e-07,0,
4,2.78715,0.995508,-0.133897,4.60096e-06,0,
4,2.93497,0.99355,-0.131887,2.4566e-06,0,
4,3.09333,0.99124,-0.129878,5.42083e-07,0,
4,3.26217,0.989439,-0.127885,6.51177e-08,0,
4,3.44125,0.988371,-0.125922,1.98946e-08,0,
4,3.63018,0.987776,-0.124001,1.46257e-08,0,
4,3.82836,0.987297,-0.122132,1.35166e-08,0,
4,4.03501,0.98674,-0.120325,1.36311e-08,0,
4,4.24915,0.986095,-0.118591,1.34964e-08,0,
4,4.46961,0.985426,-0.116937,1.27962e-08,0,
4,4.69507,0.984792,-0.115368,1.17524e-08,0,
4,4.92406,0.984214,-0.113891,1.06997e-08,0,
4,5.15502,0.983689,-0.112508,9.80467e-09,0,
4,5.3863,0.983206,-0.111223,9.20342e-09,0,
4,5.61626,0.982752,-0.110035,9.14326e-09,0,
4,5.84328,0.982311,-0.108946,1.04049e-08,0,
4,6.06579,0.981883,-0.107954,1.53277e-08,0,
4,6.28238,0.981531,-0.107057,2.73552e-08,0,
4,6.49173,0.981416,-0.106251,2.94355e-08,0,
4,6.69275,0.981704,-0.105529,-7.33483e-08,0,
4,6.88453,0.982235,-0.104885,5.33983e-08,0,
4,7.06634,0.982065,-0.104311,4.88923e-06,0,
4,7.23771,0.979336,-0.103805,2.93047e-05,0,
4,7.39831,0.971974,-0.103365,9.50051e-05,0,
4,7.54803,0.959022,-0.102995,0.00021695,0,
4,7.68693,0.941402,-0.102683,0.000380984,0,
4,7.81519,0.921112,-0.102415,0.000533548,0,
4,7.93313,0.900105,-0.1022,0.000690356,0,
4,8.04115,0.879872,-0.102017,0.000832494,0,
4,8.13974,0.861133,-0.101874,0.000949328,0,
4,8.22941,0.843878,-0.10176,0.00102826,0,
4,8.31073,0.827689,-0.101671,0.00108146,0,
4,8.38429,0.812223,-0.101609,0.00113104,0,
4,8.45065,0.79732,-0.10156,0.00117373,0,
4,8.5104,0.782861,-0.101527,0.00121027,0,
4,8.56407,0.768751,-0.101504,0.00124154,0,
4,8.61222,0.754913,-0.101489,0.00126819,0,
4,8.65533,0.741287,-0.101481,0.00129071,0,
4,8.69387,0.727829,-0.101478,0.00130946,0,
4,8.7283,0.714501,-0.101478,0.00132473,0,
4,8.75901,0.701277,-0.101481,0.00133675,0,
4,8.78637,0.688134,-0.101485,0.00134573,0,
4,8.81074,0.675056,-0.101491,0.00135186,0,
4,8.83242,0.662027,-0.101497,0.00135534,0,
4,8.85169,0.649033,-0.101504,0.00135633,0,
4,8.86881,0.636061,-0.101511,0.00135504,0,
4,8.88402,0.623097,-0.101517,0.00135164,0,
4,8.89751,0.610123,-0.101524,0.00134629,0,
4,8.90949,0.597121,-0.101529,0.00133917,0,
4,8.92011,0.584071,-0.101535,0.0013304,0,
4,8.92952,0.570945,-0.10154,0.0013201,0,
4,8.93787,0.557715,-0.101544,0.00130834,0,
4,8.94526,0.544347,-0.101549,0.00129516,0,
4,8.95182,0.530801,-0.101552,0.00128052,0,
4,8.95762,0.517032,-0.101555,0.00126434,0,
4,8.96276,0.502985,-0.101558,0.00124647,0,
4,8.96731,0.488601,-0.101561,0.00122662,0,
4,8.97134,0.473805,-0.101563,0.00120442,0,
4,8.97491,0.458515,-0.101565,0.00117934,0,
4,8.97807,0.44263,-0.101566,0.00115064,0,
4,8.98087,0.426031,-0.101567,0.00111733,0,
4,8.98334,0.408578,-0.101569,0.00107811,0,
4,8.98553,0.390102,-0.10157,0.00103164,0,
4,8.98747,0.370385,-0.10157,0.0009742,0,
4,8.98919,0.349146,-0.101571,0.000900897,0,
4,8.9907,0.32611,-0.101571,0.000812726,0,
4,8.99205,0.301085,-0.101572,0.000707969,0,
4,8.99324,0.273898,-0.101572,0.000577934,0,
4,8.99429,0.244463,-0.101572,0.000426719,0,
4,8.99522,0.213142,-0.101572,0.000272394,0,
4,8.99605,0.180988,-0.101573,0.000143168,0,
4,8.99677,0.149555,-0.101572,6.01662e-05,0,
4,8.99742,0.120228,-0.101573,2.0104e-05,0,
4,8.99799,0.093713,-0.101573,5.31726e-06,0,
4,8.9985,0.0701093,-0.101573,1.07196e-06,0,
4,8.99894,0.0492163,-0.101573,1.47722e-07,0,
4,8.99934,0.0307508,-0.101573,1.08193e-08,0,
4,8.99969,0.0144335,-0.101573,2.33211e-10,0,

6,0,0,-0.0364646,0,0,
6,9,0,-0.0778738,0,0,
6,1.07704,0.727668,-0.0474366,-0.00188839,0,
6,0.000299862,-0.00148177,-0.0364652,7.19631e-12,0,
6,0.000611645,-0.00297207,-0.0364651,2.73047e-10,0,
6,0.000938257,-0.00447715,-0.0364656,2.89464e-09,0,
6,0.00128281,-0.00600141,-0.0364655,1.62632e-08,0,
6,0.00164864,-0.00754681,-0.0364659,6.35135e-08,0,
6,0.00203939,-0.00911183,-0.036466,1.96533e-07,0,
6,0.00245897,-0.0106898,-0.0364663,5.16587e-07,0,
6,0.00291168,-0.0122661,-0.0364665,1.19789e-06,0,
6,0.00340221,-0.0138144,-0.0364669,2.49423e-06,0,
6,0.00393573,-0.0152915,-0.0364672,4.67082e-06,0,
6,0.00451788,-0.0166345,-0.0364679,7.76156e-06,0,
6,0.00515491,-0.0177674,-0.0364688,1.11333e-05,0,
6,0.00585371,-0.0186229,-0.0364705,1.32133e-05,0,
6,0.00662185,-0.0191718,-0.0364731,1.19931e-05,0,
6,0.00746774,-0.0194322,-0.0364771,6.11287e-06,0,
6,0.00840063,-0.0194513,-0.0364826,-4.63795e-06,0,
6,0.00943073,-0.0192801,-0.0364902,-1.97686e-05,0,
6,0.0105693,-0.0189597,-0.0365,-3.87111e-05,0,
6,0.0118288,-0.0185187,-0.0365122,-6.11103e-05,0,
6,0.0132228,-0.017975,-0.0365272,-8.68514e-05,0,
6,0.0147664,-0.0173387,-0.0365452,-0.000116004,0,
6,0.016476,-0.0166148,-0.0365666,-0.000148767,0,
6,0.0183694,-0.0158047,-0.0365917,-0.000185432,0,
6,0.0204662,-0.0149069,-0.036621,-0.00022636,0,
6,0.0227875,-0.0139181,-0.0366549,-0.000271972,0,
6,0.0253561,-0.0128336,-0.0366939,-0.00032274,0,
6,0.0281964,-0.0116473,-0.0367385,-0.000379183,0,
6,0.0313344,-0.010352,-0.0367892,-0.000441865,0,
6,0.0347975,-0.00893959,-0.0368466,-0.000511389,0,
6,0.0386145,-0.00740111,-0.0369111,-0.000588392,0,
6,0.042815,-0.00572677,-0.0369833,-0.000673542,0,
6,0.0474296,-0.00390611,-0.0370637,-0.00076753,0,
6,0.0524888,-0.00192808,-0.0371525,-0.000871093,0,
6,0.0580229,0.000219003,-0.0372501,-0.000984891,0,
6,0.0640611,0.00254752,-0.0373566,-0.00110951,0,
6,0.0706309,0.00507002,-0.0374719,-0.00124575,0,
6,0.077757,0.00779897,-0.0375958,-0.00139414,0,
6,0.0854609,0.010747,-0.0377278,-0.00155511,0,
6,0.0937597,0.0139266,-0.0378672,-0.00172903,0,
6,0.102665,0.0173503,-0.0380131,-0.00191612,0,
6,0.112183,0.0210299,-0.0381645,-0.0021164,0,
6,0.122315,0.0249768,-0.0383201,-0.00232976,0,
6,0.133052,0.0292016,-0.0384784,-0.00255586,0,
6,0.144384,0.0337139,-0.038638,-0.00279416,0,
6,0.156292,0.0385225,-0.0387973,-0.00304394,0,
6,0.168754,0.0436353,-0.0389549,-0.00330428,0,
6,0.181744,0.0490599,-0.0391096,-0.00357415,0,
6,0.195237,0.0548035,-0.0392603,-0.00385237,0,
6,0.209207,0.060874,-0.0394059,-0.00413773,0,
6,0.223631,0.0672803,-0.0395461,-0.00442897,0,
6,0.238493,0.0740336,-0.0396805,-0.00472486,0,
6,0.253785,0.0811482,-0.039809,-0.00502423,0,
6,0.269507,0.0886428,-0.0399319,-0.00532598,0,
6,0.28567,0.0965415,-0.0400495,-0.00562911,0,
6,0.3023,0.104875,-0.0401624,-0.00593269,0,
6,0.319433,0.113682,-0.0402712,-0.00623589,0,
6,0.337122,0.12301,-0.0403767,-0.00653785,0,
6,0.355433,0.132917,-0.0404796,-0.00683773,0,
6,0.374445,0.143473,-0.0405803,-0.00713453,0,
6,0.394252,0.154757,-0.0406797,-0.0074271,0,
6,0.414961,0.166867,-0.0407784,-0.00771393,0,
6,0.436695,0.179912,-0.0408721,-0.00799481,0,
6,0.459585,0.194025,-0.0409998,-0.00834398,0,
6,0.48378,0.20965,-0.0409896,-0.00857044,0,
6,0.508144,0.22669,-0.0408083,-0.00864314,0,
6,0.531799,0.244771,-0.04068,-0.00868343,0,
6,0.554791,0.263636,-0.0406163,-0.00869567,0,
6,0.577166,0.282927,-0.0406122,-0.00867781,0,
6,0.598964,0.302398,-0.0406516,-0.00862822,0,
6,0.620228,0.321934,-0.0407295,-0.00854602,0,
6,0.640996,0.341494,-0.040843,-0.00843032,0,
6,0.661304,0.361047,-0.0409868,-0.00828028,0,
6,0.681188,0.380552,-0.0411505,-0.008096,0,
6,0.700681,0.399962,-0.0413229,-0.00787926,0,
6,0.719813,0.419235,-0.041496,-0.00763383,0,
6,0.738612,0.438337,-0.0416691,-0.00736546,0,
6,0.757107,0.457235,-0.0418483,-0.00708097,0,
6,0.775322,0.475884,-0.0420429,-0.00678701,0,
6,0.793282,0.494221,-0.0422615,-0.00648895,0,
6,0.811008,0.512171,-0.0425077,-0.00619031,0,
6,0.828521,0.52966,-0.0427794,-0.00589287,0,
6,0.845842,0.546628,-0.0430703,-0.00559736,0,
6,0.862989,0.563033,-0.0433735,-0.00530437,0,
6,0.879979,0.578843,-0.0436834,-0.00501998,0,
6,0.896829,0.594039,-0.0439962,-0.00474311,0,
6,0.913555,0.608633,-0.0443099,-0.00447285,0,
6,0.930172,0.622659,-0.0446242,-0.00420877,0,
6,0.946694,0.636159,-0.0449395,-0.0039501,0,
6,0.963136,0.649173,-0.045256,-0.00369548,0,
6,0.97951,0.661735,-0.0455719,-0.00344325,0,
6,0.99583,0.67388,-0.0458876,-0.00319168,0,
6,1.01211,0.685649,-0.046191,-0.00292118,0,
6,1.02836,0.697024,-0.0464919,-0.00265253,0,
6,1.04459,0.707896,-0.0468027,-0.00238672,0,
6,1.06081,0.718144,-0.0471167,-0.00212942,0,
6,1.09329,0.736401,-0.047761,-0.00167001,0,
6,1.10959,0.744314,-0.0480903,-0.0014789,0,
6,1.12595,0.751421,-0.048424,-0.00131729,0,
6,1.14238,0.757781,-0.0487613,-0.00118506,0,
6,1.1589,0.763483,-0.0491021,-0.00108007,0,
6,1.17551,0.768632,-0.0494443,-0.000998932,0,
6,1.19223,0.773335,-0.04979,-0.00093772,0,
6,1.20907,0.777691,-0.0501324,-0.000896307,0,
6,1.22605,0.78182,-0.0504783,-0.000861156,0,
6,1.24318,0.785868,-0.0508307,-0.000830453,0,
6,1.26048,0.789946,-0.0511809,-0.000804667,0,
6,1.27797,0.794092,-0.051531,-0.000783234,0,
6,1.29566,0.798284,-0.0518797,-0.000765616,0,
6,1.31357,0.802474,-0.0522287,-0.000750953,0,
6,1.33173,0.806625,-0.0525786,-0.000738599,0,
6,1.35015,0.81073,-0.0529303,-0.000727426,0,
6,1.36886,0.814806,-0.0532843,-0.000716629,0,
6,1.38788,0.818883,-0.0536409,-0.000705805,0,
6,1.40725,0.822983,-0.0540002,-0.000694815,0,
6,1.42698,0.827122,-0.0543624,-0.000683604,0,
6,1.44712,0.831308,-0.0547276,-0.000672115,0,
6,1.46769,0.835546,-0.0550961,-0.000660279,0,
6,1.48874,0.839839,-0.0554684,-0.00064803,0,
6,1.5103,0.844194,-0.055845,-0.000635316,0,
6,1.53242,0.848615,-0.0562263,-0.000622104,0,
6,1.55515,0.853108,-0.0566129,-0.000608376,0,
6,1.57854,0.857676,-0.0570055,-0.000594122,0,
6,1.60265,0.862324,-0.0574043,-0.000579331,0,
6,1.62754,0.867054,-0.0578104,-0.000563994,0,
6,1.65329,0.871868,-0.0582238,-0.000548095,0,
6,1.67998,0.876769,-0.0586458,-0.000531593,0,
6,1.70768,0.88176,-0.0590756,-0.000514565,0,
6,1.73712,0.88694,-0.0595275,-0.000496956,0,
6,1.76996,0.892538,-0.0600198,-0.000477842,0,
6,1.80655,0.898586,-0.0605574,-0.000456853,0,
6,1.84728,0.905061,-0.0611394,-0.000433929,0,
6,1.89255,0.911916,-0.0617714,-0.000408832,0,
6,1.9428,0.9191,-0.0624452,-0.000381273,0,
6,1.99849,0.926583,-0.0631711,-0.000336372,0,
6,2.06009,0.934287,-0.0639477,-0.000284101,0,
6,2.1281,0.941963,-0.0647641,-0.000227465,0,
6,2.20301,0.949247,-0.0656216,-0.000169864,0,
6,2.28535,0.955748,-0.0665107,-0.000116096,0,
6,2.37559,0.96109,-0.0674251,-7.03536e-05,0,
6,2.47424,0.964963,-0.0683535,-3.57216e-05,0,
6,2.58172,0.967211,-0.0692849,-1.35245e-05,0,
6,2.69844,0.967926,-0.0702062,-2.59335e-06,0,
6,2.82473,0.967492,-0.0711046,6.50483e-07,0,
6,2.96084,0.966521,-0.0719686,5.74475e-07,0,
6,3.10691,0.965644,-0.0727883,9.35262e-08,0,
6,3.26296,0.965273,-0.073557,-3.63253e-08,0,
6,3.42888,0.965465,-0.0742698,-2.31695e-08,0,
6,3.60438,0.966001,-0.0749227,-1.25915e-08,0,
6,3.78902,0.966596,-0.075512,-9.88137e-09,0,
6,3.98218,0.967067,-0.0760354,-7.51353e-09,0,
6,4.18307,0.967378,-0.0764916,-5.50589e-09,0,
6,4.39071,0.967584,-0.0768815,-4.29327e-09,0,
6,4.60398,0.967749,-0.0772075,-3.68268e-09,0,
6,4.82159,0.967907,-0.0774734,-3.33378e-09,0,
6,5.04218,0.968061,-0.077684,-3.03687e-09,0,
6,5.26426,0.968201,-0.077845,-2.7799e-09,0,
6,5.48633,0.968313,-0.0779623,-2.68527e-09,0,
6,5.70687,0.968386,-0.0780423,-3.01626e-09,0,
6,5.92439,0.968423,-0.0780911,-4.90748e-09,0,
6,6.1375,0.968467,-0.0781145,-1.72159e-08,0,
6,6.34489,0.968628,-0.0781179,-9.26259e-08,0,
6,6.5454,0.969044,-0.0781054,-3.9666e-07,0,
6,6.73802,0.969696,-0.0780802,-8.70051e-07,0,
6,6.92195,0.970072,-0.0780451,1.17367e-06,0,
6,7.09653,0.968917,-0.0780024,1.57619e-05,0,
6,7.26132,0.964446,-0.0779597,6.06017e-05,0,
6,7.41603,0.955175,-0.0779115,0.000152162,0,
6,7.56054,0.940875,-0.0778784,0.000294584,0,
6,7.6949,0.922635,-0.0778491,0.000432452,0,
6,7.81927,0.902173,-0.0778044,0.000575524,0,
6,7.93391,0.881362,-0.0777707,0.00071984,0,
6,8.0392,0.861622,-0.0777301,0.000848546,0,
6,8.13555,0.843503,-0.0777011,0.000954781,0,
6,8.22344,0.826799,-0.0776789,0.00102643,0,
6,8.30339,0.811013,-0.0776682,0.00107981,0,
6,8.37592,0.795836,-0.0776664,0.00113066,0,
6,8.44155,0.78114,-0.0776674,0.00117463,0,
6,8.50082,0.766835,-0.0776732,0.00121227,0,
6,8.55423,0.752847,-0.0776812,0.00124448,0,
6,8.60229,0.739114,-0.0776916,0.00127186,0,
6,8.64545,0.725587,-0.0777032,0.0012948,0,
6,8.68417,0.71223,-0.0777158,0.00131358,0,
6,8.71885,0.699017,-0.0777286,0.00132844,0,
6,8.74989,0.685926,-0.0777415,0.00133958,0,
6,8.77763,0.672943,-0.0777542,0.00134721,0,
6,8.80241,0.660057,-0.0777663,0.00135158,0,
6,8.82452,0.647256,-0.0777778,0.0013529,0,
6,8.84423,0.634531,-0.0777886,0.00135144,0,
6,8.86181,0.621871,-0.0777986,0.00134746,0,
6,8.87746,0.609264,-0.0778078,0.00134123,0,
6,8.89139,0.596694,-0.0778162,0.00133298,0,
6,8.90379,0.584144,-0.0778237,0.00132297,0,
6,8.91482,0.571593,-0.0778305,0.00131141,0,
6,8.92463,0.559016,-0.0778365,0.00129847,0,
6,8.93334,0.546385,-0.0778419,0.0012843,0,
6,8.94109,0.533667,-0.0778466,0.00126898,0,
6,8.94798,0.520825,-0.0778507,0.00125254,0,
6,8.95409,0.507816,-0.0778543,0.00123497,0,
6,8.95953,0.494592,-0.0778575,0.00121615,0,
6,8.96435,0.481097,-0.0778601,0.0011959,0,
6,8.96863,0.467268,-0.0778625,0.00117394,0,
6,8.97244,0.45303,-0.0778644,0.00114986,0,
6,8.97581,0.438299,-0.0778661,0.0011231,0,
6,8.97881,0.422974,-0.0778675,0.0010929,0,
6,8.98147,0.406937,-0.0778687,0.00105824,0,
6,8.98383,0.390048,-0.0778696,0.0010178,0,
6,8.98593,0.37214,-0.0778705,0.000970041,0,
6,8.98779,0.35301,-0.0778711,0.00091207,0,
6,8.98944,0.332396,-0.0778718,0.000838573,0,
6,8.9909,0.310043,-0.077872,0.000751138,0,
6,8.9922,0.285778,-0.0778726,0.000647347,0,
6,8.99336,0.259435,-0.0778726,0.000518745,0,
6,8.99438,0.231,-0.077873,0.000374992,0,
6,8.99529,0.200954,-0.0778729,0.000233279,0,
6,8.99609,0.17039,-0.0778733,0.000119601,0,
6,8.99681,0.140753,-0.077873,4.93898e-05,0,
6,8.99744,0.113227,-0.0778734,1.63814e-05,0,
6,8.99801,0.088363,-0.0778731,4.33592e-06,0,
6,8.9985,0.0661992,-0.0778736,8.78775e-07,0,
6,8.99895,0.0465376,-0.077873,1.21959e-07,0,
6,8.99934,0.0291176,-0.0778737,8.99609e-09,0,
6,8.99969,0.0136852,-0.077873,1.94927e-10,0,

10,0,0,0.0353802,0,0,
10,0.000296632,0.00777409,0.0353794,-4.22979e-11,0,
10,0.000596102,0.0156241,0.0353799,-1.56844e-09,0,
10,0.000900397,0.023602,0.0353793,-1.59555e-08,0,
10,0.00121153,0.0317602,0.0353797,-8.57939e-08,0,
10,0.00153158,0.0401513,0.0353792,-3.21167e-07,0,
10,0.00186264,0.0488271,0.0353795,-9.55917e-07,0,
10,0.00220692,0.0578366,0.0353791,-2.43016e-06,0,
10,0.00256668,0.0672217,0.0353793,-5.49957e-06,0,
10,0.00294431,0.0770099,0.0353789,-1.13526e-05,0,
10,0.00334229,0.0872042,0.0353791,-2.16758e-05,0,
10,0.00376326,0.0977695,0.0353787,-3.85502e-05,0,
10,0.00421,0.108619,0.0353787,-6.4042e-05,0,
10,0.00468544,0.11961,0.0353782,-9.94688e-05,0,
10,0.00519274,0.130552,0.0353781,-0.000144621,0,
10,0.00573524,0.141233,0.0353774,-0.000197461,0,
10,0.00631651,0.151461,0.0353768,-0.000254611,0,
10,0.00694041,0.161083,0.0353757,-0.00031238,0,
10,0.00761104,0.17001,0.0353746,-0.000367697,0,
10,0.00833284,0.178206,0.0353728,-0.000418563,0,
10,0.00911058,0.185681,0.0353707,-0.000464043,0,
10,0.0099494,0.192474,0.0353678,-0.000504014,0,
10,0.0108548,0.198644,0.0353644,-0.000538879,0,
10,0.0118329,0.204255,0.0353601,-0.000569318,0,
10,0.0128901,0.209374,0.0353551,-0.000596116,0,
10,0.0140333,0.214063,0.0353489,-0.000620062,0,
10,0.0152702,0.218382,0.0353416,-0.000641888,0,
10,0.0166089,0.222381,0.0353331,-0.00066225,0,
10,0.0180584,0.226106,0.0353231,-0.000681723,0,
10,0.0196282,0.229598,0.0353115,-0.000700808,0,
10,0.0213288,0.232891,0.0352983,-0.000719944,0,
10,0.0231714,0.236015,0.0352831,-0.000739518,0,
10,0.0251682,0.238997,0.0352658,-0.000759881,0,
10,0.0273326,0.24186,0.0352462,-0.000781359,0,
10,0.0296789,0.244626,0.0352241,-0.000804259,0,
10,0.0322227,0.247312,0.0351992,-0.000828876,0,
10,0.0349809,0.249936,0.0351712,-0.000855508,0,
10,0.0379719,0.252513,0.03514,-0.00088445,0,
10,0.0412155,0.255059,0.0351052,-0.00091601,0,
10,0.0447333,0.257585,0.0350666,-0.000950504,0,
10,0.0485489,0.260107,0.0350238,-0.000988268,0,
10,0.0526875,0.262637,0.0349765,-0.00102966,0,
10,0.0571768,0.265188,0.0349244,-0.00107504,0,
10,0.0620466,0.267773,0.0348673,-0.00112483,0,
10,0.0673295,0.270407,0.0348047,-0.00117946,0,
10,0.0730607,0.273103,0.0347364,-0.00123937,0,
10,0.0792784,0.275877,0.0346622,-0.00130508,0,
10,0.0860241,0.278745,0.0345818,-0.00137711,0,
10,0.0933428,0.281725,0.034495,-0.00145602,0,
10,0.101283,0.284837,0.0344017,-0.00154241,0,
10,0.109899,0.288102,0.0343018,-0.00163691,0,
10,0.119247,0.291545,0.0341953,-0.00174018,0,
10,0.12939,0.295194,0.0340823,-0.0018529,0,
10,0.140395,0.299078,0.033963,-0.00197578,0,
10,0.152337,0.303235,0.0338378,-0.00210949,0,
10,0.165296,0.307704,0.0337069,-0.00225472,0,
10,0.179357,0.312533,0.033571,-0.00241208,0,
10,0.194615,0.317775,0.0334305,-0.0025821,0,
10,0.211171,0.323493,0.0332862,-0.00276515,0,
10,0.229138,0.32976,0.0331384,-0.00296141,0,
10,0.248635,0.336658,0.0329884,-0.0031707,0,
10,0.269793,0.344285,0.0328351,-0.00339243,0,
10,0.292753,0.352753,0.0326816,-0.00362538,0,
10,0.317669,0.362191,0.0325224,-0.0038661,0,
10,0.344708,0.372736,0.0323643,-0.00410938,0,
10,0.372405,0.383888,0.0322112,-0.0043442,0,
10,0.399623,0.395204,0.0320637,-0.00456045,0,
10,0.426397,0.40668,0.0319267,-0.00475145,0,
10,0.452757,0.418333,0.0318027,-0.00491611,0,
10,0.478735,0.430187,0.0316887,-0.00505275,0,
10,0.504358,0.442265,0.0315901,-0.00516195,0,
10,0.529657,0.454582,0.0314782,-0.00525067,0,
10,0.554656,0.467186,0.0314126,-0.00534568,0,
10,0.579382,0.480356,0.0314694,-0.00527615,0,
10,0.603859,0.494344,0.0315221,-0.00518757,0,
10,0.628112,0.508998,0.0314826,-0.00508548,0,
10,0.652163,0.524016,0.0313797,-0.00496045,0,
10,0.676035,0.53916,0.0312391,-0.00480744,0,
10,0.699751,0.55431,0.031083,-0.00462702,0,
10,0.72333,0.569412,0.0309162,-0.00442329,0,
10,0.746795,0.584421,0.0307364,-0.00420124,0,
10,0.770165,0.599265,0.0305391,-0.00396558,0,
10,0.79346,0.613845,0.0303224,-0.0037206,0,
10,0.816699,0.628042,0.0300854,-0.00347098,0,
10,0.839903,0.641732,0.0298288,-0.00322771,0,
10,0.863088,0.654827,0.0295572,-0.00299031,0,
10,0.886275,0.667305,0.0292748,-0.00275845,0,
10,0.909481,0.679193,0.0289833,-0.00253299,0,
10,0.932723,0.690525,0.0286824,-0.00231535,0,
10,0.956021,0.701316,0.0283716,-0.00210707,0,
10,0.97939,0.711566,0.0280504,-0.0019096,0,
10,1.00285,0.721264,0.0277191,-0.00172441,0,
10,1.02641,0.730395,0.0273778,-0.00155302,0,
10,1.0501,0.738955,0.0270267,-0.00139696,0,
10,1.07392,0.746952,0.026666,-0.00125748,0,
10,1.0979,0.754419,0.0262957,-0.0011352,0,
10,1.12205,0.761414,0.0259161,-0.00102978,0,
10,1.14639,0.768017,0.0255275,-0.000940052,0,
10,1.17093,0.774312,0.0251307,-0.000864386,0,
10,1.19568,0.78037,0.0247261,-0.000801057,0,
10,1.22066,0.786236,0.0243138,-0.000748396,0,
10,1.24589,0.791934,0.0238938,-0.000704766,0,
10,1.27137,0.797477,0.0234659,-0.000668508,0,
10,1.29713,0.802884,0.0230301,-0.000637986,0,
10,1.32317,0.808183,0.0225864,-0.000611702,0,
10,1.34951,0.813407,0.022135,-0.00058842,0,
10,1.37616,0.818583,0.021676,-0.000567224,0,
10,1.40313,0.823729,0.0212098,-0.000547496,0,
10,1.43043,0.828848,0.0207362,-0.000528847,0,
10,1.45807,0.833935,0.0202554,-0.000511043,0,
10,1.48607,0.838985,0.0197674,-0.000493729,0,
10,1.51444,0.843991,0.0192721,-0.000476683,0,
10,1.54318,0.848949,0.0187696,-0.000459798,0,
10,1.57231,0.853852,0.0182598,-0.000443056,0,
10,1.60184,0.858693,0.0177428,-0.000426547,0,
10,1.63178,0.863463,0.0172184,-0.00041028,0,
10,1.66213,0.868151,0.016687,-0.000394223,0,
10,1.69292,0.872747,0.0161484,-0.000378313,0,
10,1.72416,0.877242,0.0156031,-0.000362563,0,
10,1.75585,0.881623,0.0150507,-0.000347034,0,
10,1.78802,0.885874,0.0144921,-0.000331812,0,
10,1.82067,0.889979,0.0139263,-0.000316902,0,
10,1.85383,0.893932,0.0133555,-0.000302123,0,
10,1.88751,0.897756,0.0127759,-0.000284646,0,
10,1.92173,0.901498,0.0121886,-0.000262766,0,
10,1.95652,0.905162,0.011595,-0.000240469,0,
10,1.9919,0.908705,0.010994,-0.000216721,0,
10,2.02791,0.912084,0.0103848,-0.000192463,0,
10,2.06456,0.915269,0.00976922,-0.000168396,0,
10,2.10268,0.918295,0.0091306,-0.000144469,0,
10,2.1443,0.921249,0.00844035,-0.000121173,0,
10,2.18977,0.924082,0.00769132,-9.86213e-05,0,
10,2.23946,0.926712,0.00688224,-7.71083e-05,0,
10,2.29376,0.929057,0.00600781,-5.74387e-05,0,
10,2.35309,0.931036,0.0050666,-4.0292e-05,0,
10,2.4179,0.932581,0.00405534,-2.621e-05,0,
10,2.48863,0.933648,0.0029736,-1.55239e-05,0,
10,2.56575,0.934234,0.00182045,-8.23601e-06,0,
10,2.64971,0.934392,0.000597232,-3.9462e-06,0,
10,2.74098,0.934237,-0.000694535,-1.9115e-06,0,
10,2.83997,0.93394,-0.00205166,-1.20726e-06,0,
10,2.94709,0.9337,-0.00347064,-1.01022e-06,0,
10,3.06269,0.933696,-0.0049468,-8.38104e-07,0,
10,3.18706,0.934037,-0.00647493,-5.80363e-07,0,
10,3.3204,0.934731,-0.00804839,-3.22613e-07,0,
10,3.46281,0.935691,-0.00965917,-1.47797e-07,0,
10,3.61427,0.936775,-0.0112973,-6.33901e-08,0,
10,3.77463,0.937848,-0.0129512,-3.28505e-08,0,
10,3.94358,0.938823,-0.0146077,-2.35378e-08,0,
10,4.12067,0.939682,-0.0162533,-2.02922e-08,0,
10,4.30525,0.940455,-0.0178739,-1.87567e-08,0,
10,4.49655,0.941186,-0.0194563,-1.80763e-08,0,
10,4.6936,0.941904,-0.020988,-1.82695e-08,0,
10,4.89531,0.942615,-0.022458,-1.98576e-08,0,
10,5.10047,0.943307,-0.0238565,-2.43449e-08,0,
10,5.30776,0.943959,-0.025176,-3.51332e-08,0,
10,5.51581,0.944555,-0.0264105,-5.90373e-08,0,
10,5.72323,0.945094,-0.0275564,-1.11013e-07,0,
10,5.92863,0.945599,-0.0286119,-2.28081e-07,0,
10,6.13069,0.946141,-0.0295768,-5.09173e-07,0,
10,6.32816,0.946816,-0.030453,-1.16196e-06,0,
10,6.51991,0.947654,-0.0312436,-2.26725e-06,0,
10,6.70495,0.948417,-0.0319534,-2.38676e-06,0,
10,6.88244,0.948371,-0.0325861,4.26596e-06,0,
10,7.0517,0.946265,-0.0331472,2.91507e-05,0,
10,7.21224,0.940694,-0.033636,8.55721e-05,0,
10,7.3637,0.93078,-0.0340601,0.000181941,0,
10,7.5059,0.916592,-0.0344211,0.000304909,0,
10,7.63878,0.898797,-0.034719,0.000417672,0,
10,7.76243,0.878618,-0.0349708,0.000541308,0,
10,7.87701,0.857881,-0.0351672,0.000666013,0,
10,7.9828,0.838036,-0.0353272,0.000777219,0,
10,8.08014,0.819714,-0.0354515,0.00087086,0,
10,8.16941,0.802877,-0.0355534,0.000948807,0,
10,8.25106,0.787163,-0.0356374,0.00101484,0,
10,8.32554,0.772193,-0.0357107,0.00107186,0,
10,8.39331,0.7577,-0.0357742,0.00112119,0,
10,8.45484,0.743539,-0.0358295,0.0011636,0,
10,8.5106,0.729647,-0.0358766,0.00119989,0,
10,8.56104,0.715997,-0.0359169,0.00123084,0,
10,8.60659,0.702583,-0.035951,0.00125698,0,
10,8.64767,0.689404,-0.0359807,0.00127857,0,
10,8.68467,0.67646,-0.0360066,0.00129578,0,
10,8.71795,0.663744,-0.0360302,0.00130797,0,
10,8.74786,0.651226,-0.0360516,0.0013131,0,
10,8.77471,0.638886,-0.0360699,0.00131482,0,
10,8.79881,0.626717,-0.0360861,0.00131265,0,
10,8.8204,0.614715,-0.0360999,0.00130715,0,
10,8.83975,0.602869,-0.036112,0.00129885,0,
10,8.85708,0.591165,-0.0361223,0.00128827,0,
10,8.87259,0.579586,-0.0361313,0.00127584,0,
10,8.88646,0.568112,-0.036139,0.00126197,0,
10,8.89886,0.55672,-0.0361455,0.00124699,0,
10,8.90995,0.545382,-0.0361511,0.00123117,0,
10,8.91986,0.534069,-0.0361559,0.00121472,0,
10,8.92872,0.522749,-0.0361599,0.0011978,0,
10,8.93663,0.511388,-0.0361633,0.0011805,0,
10,8.94369,0.499947,-0.0361662,0.00116285,0,
10,8.95,0.488384,-0.0361686,0.00114481,0,
10,8.95564,0.476656,-0.0361706,0.00112627,0,
10,8.96067,0.464711,-0.0361723,0.0011071,0,
10,8.96517,0.452496,-0.0361737,0.00108706,0,
10,8.96918,0.43995,-0.0361749,0.00106581,0,
10,8.97276,0.427003,-0.0361759,0.00104292,0,
10,8.97596,0.413576,-0.0361767,0.00101784,0,
10,8.97882,0.399576,-0.0361774,0.00098984,0,
10,8.98137,0.384894,-0.0361779,0.000957985,0,
10,8.98365,0.369405,-0.0361784,0.000921067,0,
10,8.98569,0.352958,-0.0361787,0.000877643,0,
10,8.9875,0.335371,-0.036179,0.000825698,0,
10,8.98913,0.31641,-0.0361793,0.000759911,0,
10,8.99058,0.295842,-0.0361795,0.000682208,0,
10,8.99188,0.273501,-0.0361796,0.000590174,0,
10,8.99304,0.249225,-0.0361798,0.00047701,0,
10,8.99408,0.222969,-0.0361798,0.000350205,0,
10,8.99501,0.195098,-0.0361799,0.000223409,0,
10,8.99583,0.166511,-0.0361799,0.000118593,0,
10,8.99658,0.138479,-0.03618,5.09874e-05,0,
10,8.99724,0.112125,-0.03618,1.76088e-05,0,
10,8.99784,0.0880457,-0.0361801,4.83877e-06,0,
10,8.99837,0.0663542,-0.03618,1.01484e-06,0,
10,8.99885,0.0469162,-0.0361801,1.45374e-07,0,
10,8.99927,0.0295199,-0.03618,1.10363e-08,0,
10,8.99966,0.0139495,-0.0361802,2.4417e-10,0,
10,9,0,-0.03618,0,0,

0.0416667,0,0,-0.218271,0,7.62972e-07,
0.0833333,0,0,-0.218353,0,1.7212e-06,
0.125,0,0,-0.218332,0,2.16699e-06,
0.166667,0,0,-0.21836,0,4.2988e-06,
0.208333,0,0,-0.218377,0,6.98794e-06,
0.25,0,0,-0.218408,0,1.02309e-05,
0.291667,0,0,-0.218446,0,1.32607e-05,
0.333333,0,0,-0.218488,0,1.56564e-05,
0.375,0,0,-0.218535,0,1.71646e-05,
0.416667,0,0,-0.218579,0,1.78545e-05,
0.458333,0,0,-0.218625,0,1.80279e-05,
0.5,0,0,-0.218669,0,1.8048e-05,
0.541667,0,0,-0.218714,0,1.83038e-05,
0.583333,0,0,-0.218761,0,1.90785e-05,
0.625,0,0,-0.218813,0,2.05686e-05,
0.666667,0,0,-0.21887,0,2.28302e-05,
0.708333,0,0,-0.218936,0,2.58309e-05,
0.75,0,0,-0.219011,0,2.94523e-05,
0.791667,0,0,-0.219099,0,3.3542e-05,
0.833333,0,0,-0.2192,0,3.79125e-05,
0.875,0,0,-0.219318,0,4.23403e-05,
0.916667,0,0,-0.219456,0,4.65329e-05,
0.958333,0,0,-0.219619,0,5.0106e-05,
1,0,0,-0.219812,0,5.25765e-05,
1.04167,0,0,-0.220039,0,5.33813e-05,
1.08333,0,0,-0.220309,0,5.19015e-05,
1.125,0,0,-0.220626,0,4.75176e-05,
1.16667,0,0,-0.220997,0,3.96779e-05,
1.20833,0,0,-0.221423,0,2.79812e-05,
1.25,0,0,-0.221906,0,1.22553e-05,
1.29167,0,0,-0.222442,0,-7.40238e-06,
1.33333,0,0,-0.223024,0,-3.0636e-05,
1.375,0,0,-0.223646,0,-5.69219e-05,
1.41667,0,0,-0.224298,0,-8.56715e-05,
1.45833,0,0,-0.224973,0,-0.000116337,
1.5,0,0,-0.225663,0,-0.000148473,
1.54167,0,0,-0.226363,0,-0.000181761,
1.58333,0,0,-0.227068,0,-0.000215987,
1.625,0,0,-0.227772,0,-0.000251013,
1.66667,0,0,-0.228474,0,-0.000286749,
1.70833,0,0,-0.229168,0,-0.000323125,
1.75,0,0,-0.229853,0,-0.000360075,
1.79167,0,0,-0.230526,0,-0.000397537,
1.83333,0,0,-0.231183,0,-0.000435441,
1.875,0,0,-0.231823,0,-0.000473719,
1.91667,0,0,-0.232443,0,-0.000512298,
1.95833,0,0,-0.23304,0,-0.000551109,
2,0,0,-0.233612,0,-0.000590086,
2.04167,0,0,-0.234156,0,-0.000629166,
2.08333,0,0,-0.23467,0,-0.000668293,
2.125,0,0,-0.235152,0,-0.000707415,
2.16667,0,0,-0.235599,0,-0.000746484,
2.20833,0,0,-0.236007,0,-0.000785459,
2.25,0,0,-0.236375,0,-0.000824296,
2.29167,0,0,-0.236697,0,-0.000862957,
2.33333,0,0,-0.236971,0,-0.000901399,
2.375,0,0,-0.237192,0,-0.000939578,
2.41667,0,0,-0.237355,0,-0.000977446,
2.45833,0,0,-0.237455,0,-0.00101495,
2.5,0,0,-0.237488,0,-0.00105204,
2.54167,0,0,-0.237448,0,-0.00108864,
2.58333,0,0,-0.23733,0,-0.0011247,
2.625,0,0,-0.237129,0,-0.00116016,
2.66667,0,0,-0.23684,0,-0.00119495,
2.70833,0,0,-0.23646,0,-0.001229,
2.75,0,0,-0.235984,0,-0.00126227,
2.79167,0,0,-0.235408,0,-0.0012947,
2.83333,0,0,-0.23473,0,-0.00132623,
2.875,0,0,-0.233946,0,-0.00135681,
2.91667,0,0,-0.233053,0,-0.00138639,
2.95833,0,0,-0.232049,0,-0.00141492,
3,0,0,-0.230931,0,-0.00144234,
3.04167,0,0,-0.229696,0,-0.00146859,
3.08333,0,0,-0.228343,0,-0.00149362,
3.125,0,0,-0.226869,0,-0.00151736,
3.16667,0,0,-0.225272,0,-0.00153973,
3.20833,0,0,-0.223551,0,-0.00156066,
3.25,0,0,-0.221704,0,-0.00158008,
3.29167,0,0,-0.21973,0,-0.00159792,
3.33333,0,0,-0.217629,0,-0.0016141,
3.375,0,0,-0.215402,0,-0.00162857,
3.41667,0,0,-0.21305,0,-0.00164127,
3.45833,0,0,-0.210575,0,-0.00165214,
3.5,0,0,-0.207981,0,-0.00166116,
3.54167,0,0,-0.20527,0,-0.00166829,
3.58333,0,0,-0.202447,0,-0.00167352,
3.625,0,0,-0.199518,0,-0.00167684,
3.66667,0,0,-0.196488,0,-0.00167827,
3.70833,0,0,-0.193365,0,-0.00167781,
3.75,0,0,-0.190154,0,-0.00167549,
3.79167,0,0,-0.186862,0,-0.00167134,
3.83333,0,0,-0.183498,0,-0.0016654,
3.875,0,0,-0.180069,0,-0.00165771,
3.91667,0,0,-0.176581,0,-0.00164833,
3.95833,0,0,-0.173043,0,-0.00163729,
4,0,0,-0.169462,0,-0.00162467,
4.04167,0,0,-0.165845,0,-0.00161051,
4.08333,0,0,-0.162199,0,-0.00159488,
4.125,0,0,-0.15853,0,-0.00157783,
4.16667,0,0,-0.154845,0,-0.00155943,
4.20833,0,0,-0.151151,0,-0.00153972,
4.25,0,0,-0.147453,0,-0.00151878,
4.29167,0,0,-0.143758,0,-0.00149665,
4.33333,0,0,-0.140071,0,-0.00147341,
4.375,0,0,-0.136397,0,-0.00144911,
4.41667,0,0,-0.132743,0,-0.00142383,
4.45833,0,0,-0.129113,0,-0.00139761,
4.5,0,0,-0.125513,0,-0.00137054,
4.54167,0,0,-0.121947,0,-0.00134268,
4.58333,0,0,-0.118419,0,-0.0013141,
4.625,0,0,-0.114934,0,-0.00128485,
4.66667,0,0,-0.111497,0,-0.00125502,
4.70833,0,0,-0.10811,0,-0.00122467,
4.75,0,0,-0.104777,0,-0.00119385,
4.79167,0,0,-0.101501,0,-0.00116265,
4.83333,0,0,-0.0982844,0,-0.00113111,
4.875,0,0,-0.0951307,0,-0.00109931,
4.91667,0,0,-0.0920416,0,-0.00106729,
4.95833,0,0,-0.0890191,0,-0.00103511,
5,0,0,-0.0860648,0,-0.00100283,
5.04167,0,0,-0.0831801,0,-0.000970501,
5.08333,0,0,-0.0803662,0,-0.000938165,
5.125,0,0,-0.077624,0,-0.000905869,
5.16667,0,0,-0.0749543,0,-0.000873658,
5.20833,0,0,-0.0723576,0,-0.000841571,
5.25,0,0,-0.0698342,0,-0.000809646,
5.29167,0,0,-0.0673844,0,-0.00077792,
5.33333,0,0,-0.0650081,0,-0.000746426,
5.375,0,0,-0.0627053,0,-0.000715195,
5.41667,0,0,-0.0604756,0,-0.000684258,
5.45833,0,0,-0.0583186,0,-0.000653641,
5.5,0,0,-0.0562337,0,-0.000623367,
5.54167,0,0,-0.0542202,0,-0.00059346,
5.58333,0,0,-0.0522774,0,-0.000563938,
5.625,0,0,-0.0504042,0,-0.00053482,
5.66667,0,0,-0.0485995,0,-0.000506122,
5.70833,0,0,-0.0468622,0,-0.000477857,
5.75,0,0,-0.045191,0,-0.000450036,
5.79167,0,0,-0.0435844,0,-0.000422671,
5.83333,0,0,-0.042041,0,-0.000395768,
5.875,0,0,-0.0405591,0,-0.000369335,
5.91667,0,0,-0.039137,0,-0.000343373,
5.95833,0,0,-0.0377728,0,-0.000317885,
6,0,0,-0.0364648,0,-0.000292871,
6.04167,0,0,-0.0352107,0,-0.000268328,
6.08333,0,0,-0.0340086,0,-0.000244253,
6.125,0,0,-0.0328561,0,-0.000220642,
6.16667,0,0,-0.0317511,0,-0.000197488,
6.20833,0,0,-0.030691,0,-0.000174784,
6.25,0,0,-0.0296734,0,-0.000152521,
6.29167,0,0,-0.0286958,0,-0.000130691,
6.33333,0,0,-0.0277555,0,-0.000109286,
6.375,0,0,-0.0268498,0,-8.83002e-05,
6.41667,0,0,-0.0259759,0,-6.77263e-05,
6.45833,0,0,-0.025131,0,-4.75567e-05,
6.5,0,0,-0.0243122,0,-2.77794e-05,
6.54167,0,0,-0.0235166,0,-8.37687e-06,
6.58333,0,0,-0.0227414,0,1.06755e-05,
6.625,0,0,-0.0219835,0,2.94019e-05,
6.66667,0,0,-0.0212402,0,4.78334e-05,
6.70833,0,0,-0.0205086,0,6.60009e-05,
6.75,0,0,-0.019786,0,8.39372e-05,
6.79167,0,0,-0.0190695,0,0.000101677,
6.83333,0,0,-0.0183565,0,0.000119255,
6.875,0,0,-0.0176442,0,0.00013671,
6.91667,0,0,-0.0169301,0,0.00015408,
6.95833,0,0,-0.0162117,0,0.000171404,
7,0,0,-0.0154866,0,0.000188718,
7.04167,0,0,-0.0147526,0,0.00020606,
7.08333,0,0,-0.0140076,0,0.000223462,
7.125,0,0,-0.0132497,0,0.000240959,
7.16667,0,0,-0.0124772,0,0.000258582,
7.20833,0,0,-0.0116885,0,0.000276366,
7.25,0,0,-0.0108824,0,0.000294341,
7.29167,0,0,-0.0100578,0,0.000312537,
7.33333,0,0,-0.00921382,0,0.00033098,
7.375,0,0,-0.00835005,0,0.000349692,
7.41667,0,0,-0.0074662,0,0.000368688,
7.45833,0,0,-0.00656226,0,0.000387985,
7.5,0,0,-0.00563843,0,0.000407595,
7.54167,0,0,-0.00469519,0,0.00042753,
7.58333,0,0,-0.00373325,0,0.0004478,
7.625,0,0,-0.00275366,0,0.00046841,
7.66667,0,0,-0.00175764,0,0.000489361,
7.70833,0,0,-0.000746716,0,0.00051065,
7.75,0,0,0.000277555,0,0.000532272,
7.79167,0,0,0.00131335,0,0.000554221,
7.83333,0,0,0.00235848,0,0.000576486,
7.875,0,0,0.0034105,0,0.00059909,
7.91667,0,0,0.00447615,0,0.000622415,
7.95833,0,0,0.00549775,0,0.000645193,
8,0,0,0.00659957,0,0.000668188,
8.04171,0,0,0.00773124,0,0.000692811,
8.08368,0,0,0.00877014,0,0.00071775,
8.12617,0,0,0.00986401,0,0.000741785,
8.16946,0,0,0.0109632,0,0.000766478,
8.21382,0,0,0.0120746,0,0.000791738,
8.25952,0,0,0.0132063,0,0.000817652,
8.30685,0,0,0.0143607,0,0.0008444,
8.35611,0,0,0.0155406,0,0.000872108,
8.40762,0,0,0.0167482,0,0.000900895,
8.46168,0,0,0.0179844,0,0.000930867,
8.51865,0,0,0.0192491,0,0.000962112,
8.57889,0,0,0.0205407,0,0.000994698,
8.64276,0,0,0.0218563,0,0.00102868,
8.71067,0,0,0.0231913,0,0.00106409,
8.78306,0,0,0.0245384,0,0.00110095,
8.86037,0,0,0.0258876,0,0.00113921,
8.94309,0,0,0.0272269,0,0.00117882,
9.03174,0,0,0.0285403,0,0.00121966,
9.12689,0,0,0.0298091,0,0.00126155,
9.22912,0,0,0.0310119,0,0.00130426,
9.33908,0,0,0.0321245,0,0.00134754,
9.45746,0,0,0.0331214,0,0.00139108,
9.58501,0,0,0.0339754,0,0.00143454,
9.72253,0,0,0.0346606,0,0.00147759,
9.87088,0,0,0.0351538,0,0.00151992,
10.031,0,0,0.0354346,0,0.00156127,
10.2039,0,0,0.0354833,0,0.00160135,
10.3906,0,0,0.0352831,0,0.0016399,
10.5924,0,0,0.0348266,0,0.00167668,
10.8105,0,0,0.03412,0,0.00171158,
11.0463,0,0,0.033177,0,0.00174465,
11.3012,0,0,0.0320144,0,0.00177594,
11.5769,0,0,0.0306555,0,0.00180552,
11.8751,0,0,0.0291389,0,0.00183356,
12.1977,0,0,0.0275155,0,0.00186029,
12.5466,0,0,0.0258308,0,0.00188587,
12.9242,0,0,0.0241138,0,0.00191023,
13.3327,0,0,0.0223828,0,0.00193311,
13.7748,0,0,0.0206594,0,0.00195431,
14.2532,0,0,0.0189786,0,0.00197373,
14.7709,0,0,0.0173887,0,0.00199143,
15.3312,0,0,0.0159423,0,0.00200751,
15.9377,0,0,0.0146846,0,0.00202212,
16.594,0,0,0.0136401,0,0.00203536,
17.3044,0,0,0.012802,0,0.00204742,
18.0733,0,0,0.0121251,0,0.00205852,
18.9056,0,0,0.0115355,0,0.00206884,
19.8064,0,0,0.0109547,0,0.00207841,
20.7816,0,0,0.0103313,0,0.00208735,
21.8371,0,0,0.00966264,0,0.00209606,
22.9796,0,0,0.00898927,0,0.00210498,
24.2163,0,0,0.00836192,0,0.00211449,
25.5551,0,0,0.0078084,0,0.00212469,
27.0042,0,0,0.00732023,0,0.0021356,
28.5729,0,0,0.00686303,0,0.00214729,
30.271,0,0,0.0063959,0,0.00215974,
32.1091,0,0,0.00588609,0,0.00217286,
34.0989,0,0,0.00531341,0,0.00218659,
36.2529,0,0,0.00465996,0,0.00220079,
38.5845,0,0,0.00391796,0,0.00221532,
41.1085,0,0,0.00312378,0,0.0022301,
43.8407,0,0,0.00212869,0,0.00224292,
46.7983,0,0,0.00109295,0,0.00225139,
50,0,0,0.00197576,0,0.0022686,

