57f1ca9e1e25f48a64380036af859fc8e8ff6836 
X,Z,x_velocity,cp,uw_b,cf,
1,0,0,-0.227365,0,0,
1,9,0,-0.131042,0,0,
1,1.01284,0.489802,-0.218367,-0.00689935,0,
1,0.000308731,0.000295618,-0.227363,-2.23459e-15,0,
1,0.000654158,0.000617633,-0.227365,-9.87053e-14,0,
1,0.00104139,0.000967825,-0.227364,-1.27315e-12,0,
1,0.00147619,0.00134726,-0.227365,-8.73588e-12,0,
1,0.00196502,0.00175616,-0.227364,-4.14376e-11,0,
1,0.00251518,0.00219351,-0.227365,-1.54574e-10,0,
1,0.0031349,0.00265646,-0.227364,-4.86305e-10,0,
1,0.00383341,0.00313961,-0.227364,-1.34279e-09,0,
1,0.00462115,0.00363399,-0.227364,-3.32638e-09,0,
1,0.00550983,0.00412582,-0.227364,-7.45687e-09,0,
1,0.00651264,0.00459484,-0.227364,-1.50426e-08,0,
1,0.00764438,0.0050123,-0.227364,-2.64877e-08,0,
1,0.00892169,0.00533835,-0.227363,-3.6717e-08,0,
1,0.0103632,0.00551932,-0.227363,-2.14333e-08,0,
1,0.0119898,0.00548594,-0.227362,9.76911e-08,0,
1,0.0138248,0.00515616,-0.227362,5.24362e-07,0,
1,0.0158944,0.00444812,-0.227361,1.68684e-06,0,
1,0.0182274,0.00330614,-0.227359,4.26427e-06,0,
1,0.0208562,0.00172647,-0.227357,8.95322e-06,0,
1,0.0238164,-0.00024248,-0.227353,1.60422e-05,0,
1,0.0271475,-0.00253177,-0.227347,2.52385e-05,0,
1,0.0308929,-0.00508643,-0.227339,3.59026e-05,0,
1,0.0351001,-0.00787871,-0.227328,4.74362e-05,0,
1,0.0398209,-0.0109028,-0.227314,5.94059e-05,0,
1,0.0451115,-0.0141626,-0.227298,7.14525e-05,0,
1,0.0510323,-0.0176604,-0.227279,8.31953e-05,0,
1,0.057648,-0.0213875,-0.227257,9.4183e-05,0,
1,0.0650269,-0.0253179,-0.227234,0.000103878,0,
1,0.0732406,-0.029404,-0.227209,0.00011167,0,
1,0.0823632,-0.0335747,-0.227185,0.000116911,0,
1,0.0924701,-0.0377379,-0.227163,0.000118969,0,
1,0.103636,-0.041785,-0.227145,0.000117302,0,
1,0.115935,-0.0455994,-0.227132,0.000111538,0,
1,0.129436,-0.0490668,-0.227128,0.000101515,0,
1,0.144202,-0.0520848,-0.227135,8.73075e-05,0,
1,0.160284,-0.0545726,-0.227154,6.92182e-05,0,
1,0.177724,-0.0564743,-0.227186,4.77301e-05,0,
1,0.196544,-0.0577603,-0.227231,2.343e-05,0,
1,0.21675,-0.0584243,-0.227288,-3.06423e-06,0,
1,0.238323,-0.0584782,-0.227355,-3.11553e-05,0,
1,0.26122,-0.0579478,-0.227431,-6.02847e-05,0,
1,0.28537,-0.0568684,-0.22751,-8.99256e-05,0,
1,0.310673,-0.0552821,-0.22759,-0.000119564,0,
1,0.337003,-0.0532361,-0.227665,-0.000148679,0,
1,0.364206,-0.050782,-0.227733,-0.000176754,0,
1,0.392107,-0.0479754,-0.227788,-0.000203253,0,
1,0.420509,-0.0448755,-0.227828,-0.000227633,0,
1,0.449206,-0.0415446,-0.227849,-0.000249361,0,
1,0.477982,-0.0380472,-0.227849,-0.000267938,0,
1,0.506624,-0.0344477,-0.227826,-0.000282943,0,
1,0.534925,-0.030807,-0.227781,-0.000294091,0,
1,0.562692,-0.0271774,-0.227712,-0.000301344,0,
1,0.589754,-0.023595,-0.227621,-0.000305048,0,
1,0.615961,-0.0200711,-0.227509,-0.000306117,0,
1,0.641193,-0.0165834,-0.227376,-0.000306278,0,
1,0.665359,-0.0130675,-0.227226,-0.000308007,0,
1,0.688396,-0.00941317,-0.227057,-0.000316857,0,
1,0.710271,-0.00544381,-0.226871,-0.000338266,0,
1,0.730976,-0.000866268,-0.226671,-0.000381025,0,
1,0.750529,0.00476383,-0.226453,-0.000457698,0,
1,0.768969,0.0120128,-0.226216,-0.000582,0,
1,0.78635,0.021396,-0.225959,-0.000763846,0,
1,0.802743,0.0331167,-0.225676,-0.00100271,0,
1,0.818232,0.0469568,-0.225366,-0.00128668,0,
1,0.832689,0.0622673,-0.22503,-0.0016005,0,
1,0.846039,0.0784075,-0.22468,-0.00193358,0,
1,0.858357,0.0950629,-0.224323,-0.00228716,0,
1,0.869723,0.11209,-0.223968,-0.00266886,0,
1,0.880212,0.12941,-0.223621,-0.00308245,0,
1,0.889898,0.146937,-0.223286,-0.00352418,0,
1,0.898852,0.164556,-0.222959,-0.00398365,0,
1,0.907141,0.182149,-0.222644,-0.0044473,0,
1,0.914826,0.199607,-0.222342,-0.00490235,0,
1,0.921966,0.216836,-0.222057,-0.00533846,0,
1,0.928616,0.233754,-0.221791,-0.0057476,0,
1,0.934823,0.25029,-0.221545,-0.00612394,0,
1,0.940633,0.26639,-0.221317,-0.0064636,0,
1,0.946088,0.282012,-0.221107,-0.00676445,0,
1,0.951224,0.297129,-0.220913,-0.00702573,0,
1,0.956076,0.311727,-0.220734,-0.00724778,0,
1,0.960675,0.325803,-0.220569,-0.00743174,0,
1,0.965047,0.339362,-0.220417,-0.00757991,0,
1,0.969219,0.352421,-0.220275,-0.00769326,0,
1,0.973211,0.365002,-0.22014,-0.00777348,0,
1,0.977045,0.377136,-0.220011,-0.00782237,0,
1,0.980739,0.388854,-0.219885,-0.00784225,0,
1,0.984308,0.40019,-0.219759,-0.0078358,0,
1,0.987768,0.411176,-0.219631,-0.0078052,0,
1,0.991131,0.421842,-0.2195,-0.00775246,0,
1,0.99441,0.432217,-0.219362,-0.00767942,0,
1,0.997615,0.442329,-0.219218,-0.00758778,0,
1,1.00076,0.452205,-0.219066,-0.00747907,0,
1,1.00384,0.461867,-0.218906,-0.00735468,0,
1,1.00688,0.47134,-0.218735,-0.00721591,0,
1,1.00988,0.480645,-0.218557,-0.00706368,0,
1,1.01581,0.498928,-0.218165,-0.0067221,0,
1,1.01882,0.508134,-0.217953,-0.00653138,0,
1,1.02188,0.517432,-0.217729,-0.00632753,0,
1,1.025,0.526832,-0.217495,-0.00610985,0,
1,1.02818,0.536347,-0.21725,-0.00587818,0,
1,1.03144,0.545987,-0.216992,-0.00563245,0,
1,1.03478,0.555767,-0.216721,-0.0053727,0,
1,1.03822,0.565699,-0.216436,-0.00509904,0,
1,1.04177,0.575794,-0.216136,-0.00481175,0,
1,1.04544,0.586064,-0.215822,-0.00451133,0,
1,1.04925,0.596515,-0.215493,-0.0041987,0,
1,1.05321,0.607149,-0.215152,-0.0038753,0,
1,1.05735,0.617959,-0.214801,-0.00354338,0,
1,1.06169,0.628925,-0.214444,-0.00320628,0,
1,1.06626,0.640008,-0.214088,-0.00286883,0,
1,1.07108,0.651137,-0.213743,-0.00253741,0,
1,1.07618,0.662202,-0.213425,-0.00222174,0,
1,1.0816,0.673039,-0.213154,-0.00193346,0,
1,1.08738,0.683438,-0.212953,-0.00168485,0,
1,1.09357,0.693195,-0.212846,-0.00148656,0,
1,1.10022,0.702186,-0.21284,-0.00134193,0,
1,1.10739,0.710431,-0.212925,-0.00124548,0,
1,1.11514,0.718073,-0.21308,-0.00118811,0,
1,1.12354,0.725302,-0.213285,-0.0011594,0,
1,1.13268,0.7323,-0.213524,-0.00114972,0,
1,1.14266,0.739211,-0.213786,-0.00115083,0,
1,1.15357,0.746138,-0.214061,-0.00115663,0,
1,1.16554,0.753153,-0.214342,-0.00116297,0,
1,1.1787,0.760301,-0.214622,-0.00116728,0,
1,1.1932,0.767611,-0.214891,-0.00116823,0,
1,1.2092,0.775104,-0.215139,-0.00116534,0,
1,1.22689,0.782798,-0.21535,-0.00115821,0,
1,1.24659,0.790747,-0.215517,-0.00114625,0,
1,1.26879,0.799044,-0.215613,-0.0011306,0,
1,1.29378,0.807697,-0.215619,-0.00111151,0,
1,1.3219,0.816712,-0.215522,-0.00108863,0,
1,1.35351,0.826097,-0.215276,-0.00106171,0,
1,1.389,0.835867,-0.214853,-0.00101135,0,
1,1.42882,0.846053,-0.214266,-0.000964382,0,
1,1.47342,0.856706,-0.213511,-0.000919586,0,
1,1.52332,0.867902,-0.212569,-0.000874344,0,
1,1.57905,0.879739,-0.211431,-0.000827073,0,
1,1.64119,0.892336,-0.210084,-0.000776151,0,
1,1.71033,0.905822,-0.208517,-0.000719602,0,
1,1.78711,0.920311,-0.206718,-0.000654521,0,
1,1.87215,0.935848,-0.204669,-0.000577375,0,
1,1.9661,0.952288,-0.202359,-0.000487797,0,
1,2.06959,0.969128,-0.199757,-0.000390532,0,
1,2.18321,0.985425,-0.196893,-0.000281572,0,
1,2.30752,0.999894,-0.193799,-0.000147737,0,
1,2.44299,1.01097,-0.190447,-5.15425e-05,0,
1,2.59002,1.0172,-0.186892,-6.1614e-06,0,
1,2.74885,1.01836,-0.183209,9.2319e-07,0,
1,2.91959,1.0162,-0.17946,9.58532e-08,0,
1,3.10217,1.01317,-0.1757,5.2166e-08,0,
1,3.2963,1.01071,-0.17197,4.12888e-08,0,
1,3.50146,1.00897,-0.168304,3.30738e-08,0,
1,3.7169,1.00757,-0.164737,2.91157e-08,0,
1,3.94163,1.00622,-0.161303,2.73647e-08,0,
1,4.17441,1.00485,-0.158034,2.58692e-08,0,
1,4.41376,1.0035,-0.154958,2.40662e-08,0,
1,4.65805,1.00223,-0.152093,2.20775e-08,0,
1,4.90545,1.00105,-0.149452,2.01573e-08,0,
1,5.15407,0.999984,-0.14704,1.83826e-08,0,
1,5.40194,0.999012,-0.144859,1.68025e-08,0,
1,5.64716,0.998132,-0.142904,1.54907e-08,0,
1,5.88785,0.997318,-0.141164,1.45481e-08,0,
1,6.12229,0.996539,-0.139627,1.37497e-08,0,
1,6.34896,0.995825,-0.138279,1.22758e-08,0,
1,6.56652,0.995369,-0.137102,9.71152e-09,0,
1,6.77388,0.995473,-0.13608,3.4712e-09,0,
1,6.97022,0.996097,-0.135194,1.64301e-08,0,
1,7.15495,0.996095,-0.134426,1.76626e-06,0,
1,7.32773,0.992986,-0.133765,1.83548e-05,0,
1,7.48842,0.984201,-0.133205,7.73829e-05,0,
1,7.63711,0.969232,-0.132747,0.000209548,0,
1,7.77403,0.950125,-0.132361,0.000401805,0,
1,7.89956,0.92927,-0.132038,0.000556173,0,
1,8.01417,0.90822,-0.131793,0.000706911,0,
1,8.11843,0.888074,-0.13159,0.00083557,0,
1,8.21296,0.86929,-0.131435,0.000938303,0,
1,8.29839,0.851892,-0.131313,0.00101839,0,
1,8.3754,0.835681,-0.131221,0.00108126,0,
1,8.44464,0.82034,-0.131152,0.00112299,0,
1,8.50675,0.805579,-0.131099,0.00116059,0,
1,8.56236,0.791235,-0.131061,0.00119418,0,
1,8.61206,0.777207,-0.131033,0.00122314,0,
1,8.6564,0.763418,-0.131015,0.00124791,0,
1,8.69591,0.749811,-0.131002,0.00126899,0,
1,8.73107,0.736339,-0.130995,0.00128679,0,
1,8.76232,0.722962,-0.130991,0.00130166,0,
1,8.79007,0.70965,-0.13099,0.00131384,0,
1,8.81469,0.696377,-0.130991,0.00132356,0,
1,8.83651,0.683121,-0.130993,0.00133098,0,
1,8.85584,0.66986,-0.130996,0.00133626,0,
1,8.87295,0.656576,-0.130999,0.00133951,0,
1,8.8881,0.643248,-0.131003,0.00134086,0,
1,8.90149,0.629857,-0.131007,0.00134039,0,
1,8.91333,0.61638,-0.13101,0.00133817,0,
1,8.92379,0.602793,-0.131014,0.00133425,0,
1,8.93303,0.589067,-0.131017,0.00132865,0,
1,8.9412,0.575172,-0.131021,0.00132137,0,
1,8.9484,0.561069,-0.131023,0.00131236,0,
1,8.95476,0.546716,-0.131026,0.00130149,0,
1,8.96038,0.532061,-0.131028,0.00128861,0,
1,8.96533,0.517047,-0.131031,0.00127344,0,
1,8.9697,0.501602,-0.131032,0.00125562,0,
1,8.97356,0.485644,-0.131034,0.00123462,0,
1,8.97696,0.469075,-0.131035,0.00120974,0,
1,8.97996,0.451775,-0.131037,0.00117999,0,
1,8.98261,0.433604,-0.131037,0.0011441,0,
1,8.98494,0.414389,-0.131038,0.00110128,0,
1,8.98699,0.39389,-0.131039,0.00104535,0,
1,8.98881,0.371797,-0.13104,0.000974152,0,
1,8.99041,0.34782,-0.13104,0.00088688,0,
1,8.99182,0.321741,-0.131041,0.000781184,0,
1,8.99306,0.293401,-0.131041,0.000653617,0,
1,8.99416,0.262657,-0.131041,0.00049499,0,
1,8.99512,0.229682,-0.131041,0.000326379,0,
1,8.99597,0.195448,-0.131042,0.000177247,0,
1,8.99672,0.161611,-0.131041,7.63132e-05,0,
1,8.99739,0.129827,-0.131042,2.57774e-05,0,
1,8.99797,0.101041,-0.131041,6.81298e-06,0,
1,8.99848,0.0754527,-0.131042,1.36334e-06,0,
1,8.99894,0.0528661,-0.131041,1.85987e-07,0,
1,8.99934,0.0329687,-0.131042,1.34833e-08,0,
1,8.99969,0.0154461,-0.131041,2.88468e-10,0,

4,0,0,-0.161192,0,0,
4,9,0,-0.100781,0,0,
4,1.05136,0.681304,-0.160073,-0.00435948,0,
4,0.000303409,-0.00784179,-0.161194,5.45024e-11,0,
4,0.00062865,-0.0161227,-0.161193,2.23967e-09,0,
4,0.000979511,-0.0249139,-0.161194,2.62898e-08,0,
4,0.00136016,-0.034284,-0.161193,1.64468e-07,0,
4,0.00177519,-0.0442979,-0.161194,7.16061e-07,0,
4,0.0022297,-0.0550083,-0.161194,2.46666e-06,0,
4,0.00272934,-0.066435,-0.161194,7.18018e-06,0,
4,0.00328037,-0.0785223,-0.161194,1.82255e-05,0,
4,0.00388979,-0.0910657,-0.161195,4.0696e-05,0,
4,0.00456537,-0.10363,-0.161195,7.94579e-05,0,
4,0.00531578,-0.115554,-0.161196,0.000134274,0,
4,0.0061507,-0.126136,-0.161198,0.000196026,0,
4,0.0070809,-0.134939,-0.161201,0.000250599,0,
4,0.00811839,-0.141911,-0.161205,0.000287656,0,
4,0.00927657,-0.14728,-0.161211,0.000304556,0,
4,0.0105703,-0.151364,-0.16122,0.000303741,0,
4,0.0120162,-0.154454,-0.161231,0.000288946,0,
4,0.0136326,-0.156779,-0.161245,0.000263239,0,
4,0.0154398,-0.158504,-0.161263,0.000228614,0,
4,0.0174603,-0.159749,-0.161285,0.000186172,0,
4,0.0197189,-0.160594,-0.161311,0.000136392,0,
4,0.0222427,-0.161095,-0.161342,7.93346e-05,0,
4,0.0250617,-0.161292,-0.161379,1.47824e-05,0,
4,0.0282081,-0.161209,-0.161421,-5.76787e-05,0,
4,0.0317171,-0.160862,-0.161471,-0.000138606,0,
4,0.0356266,-0.16026,-0.161528,-0.000228664,0,
4,0.039977,-0.159405,-0.161593,-0.000328604,0,
4,0.0448114,-0.158294,-0.161667,-0.000439242,0,
4,0.0501747,-0.156923,-0.16175,-0.000561441,0,
4,0.056114,-0.15528,-0.161844,-0.000696093,0,
4,0.062677,-0.153353,-0.161947,-0.000844097,0,
4,0.0699123,-0.151127,-0.162062,-0.00100633,0,
4,0.0778675,-0.148583,-0.162187,-0.00118364,0,
4,0.0865883,-0.145701,-0.162324,-0.00137676,0,
4,0.0961173,-0.142457,-0.16247,-0.00158634,0,
4,0.106492,-0.138826,-0.162626,-0.00181285,0,
4,0.117744,-0.134782,-0.16279,-0.00205655,0,
4,0.129894,-0.130298,-0.162962,-0.00231746,0,
4,0.142956,-0.125345,-0.16314,-0.0025953,0,
4,0.156928,-0.119897,-0.163322,-0.00288948,0,
4,0.171798,-0.113927,-0.163506,-0.00319901,0,
4,0.187537,-0.107412,-0.163691,-0.00352259,0,
4,0.2041,-0.100333,-0.163874,-0.00385852,0,
4,0.221432,-0.092677,-0.164055,-0.00420478,0,
4,0.239458,-0.0844376,-0.164231,-0.00455906,0,
4,0.258095,-0.0756165,-0.1644,-0.00491884,0,
4,0.27725,-0.0662251,-0.164563,-0.00528149,0,
4,0.296825,-0.0562853,-0.164717,-0.00564433,0,
4,0.316717,-0.0458301,-0.164861,-0.00600485,0,
4,0.336828,-0.0349046,-0.164995,-0.0063609,0,
4,0.357066,-0.0235658,-0.165118,-0.00671196,0,
4,0.377348,-0.0118769,-0.165229,-0.00705945,0,
4,0.397605,0.00011232,-0.165324,-0.00739634,0,
4,0.417786,0.0123804,-0.165453,-0.00778093,0,
4,0.437857,0.0251128,-0.165407,-0.0080834,0,
4,0.457804,0.0386918,-0.165148,-0.00829414,0,
4,0.477632,0.0533524,-0.164928,-0.00850282,0,
4,0.497368,0.0690518,-0.164761,-0.00869862,0,
4,0.517057,0.0856406,-0.16464,-0.00887357,0,
4,0.536763,0.102995,-0.164538,-0.00902326,0,
4,0.556564,0.121081,-0.164434,-0.00914604,0,
4,0.576557,0.139956,-0.164317,-0.00924135,0,
4,0.596848,0.159744,-0.164186,-0.00930801,0,
4,0.617561,0.180598,-0.164045,-0.00934326,0,
4,0.637962,0.201835,-0.163903,-0.00934344,0,
4,0.657495,0.222855,-0.163764,-0.00930756,0,
4,0.676218,0.243624,-0.163631,-0.00923566,0,
4,0.694189,0.264096,-0.163494,-0.00912941,0,
4,0.711463,0.284229,-0.163346,-0.00899245,0,
4,0.728096,0.303996,-0.163178,-0.00883057,0,
4,0.744138,0.323389,-0.162987,-0.00865081,0,
4,0.759639,0.342412,-0.162774,-0.00846059,0,
4,0.774643,0.36108,-0.16255,-0.0082668,0,
4,0.789195,0.379399,-0.162328,-0.00807577,0,
4,0.803334,0.397359,-0.162126,-0.0078927,0,
4,0.817097,0.414923,-0.161954,-0.00772113,0,
4,0.830518,0.432032,-0.161823,-0.00756283,0,
4,0.843629,0.448611,-0.161737,-0.0074181,0,
4,0.856459,0.464591,-0.161692,-0.00728616,0,
4,0.869035,0.479923,-0.161685,-0.00716571,0,
4,0.881383,0.494593,-0.161704,-0.00705522,0,
4,0.893524,0.508623,-0.161738,-0.00695323,0,
4,0.905481,0.522065,-0.161774,-0.0068585,0,
4,0.917272,0.534993,-0.161801,-0.00676999,0,
4,0.928915,0.547496,-0.161807,-0.00668726,0,
4,0.940428,0.559695,-0.161779,-0.00660938,0,
4,0.951826,0.571777,-0.161659,-0.00647082,0,
4,0.963124,0.583899,-0.161491,-0.00632127,0,
4,0.974334,0.596087,-0.161336,-0.00615803,0,
4,0.98547,0.608326,-0.161171,-0.00596918,0,
4,0.996544,0.620593,-0.161002,-0.00575545,0,
4,1.00757,0.632864,-0.160828,-0.00551767,0,
4,1.01855,0.64511,-0.160647,-0.00525737,0,
4,1.0295,0.657294,-0.160462,-0.00497608,0,
4,1.04044,0.669376,-0.16027,-0.00467589,0,
4,1.0623,0.693038,-0.159871,-0.00402972,0,
4,1.07328,0.704523,-0.159664,-0.00369059,0,
4,1.08432,0.715675,-0.159452,-0.00334734,0,
4,1.09543,0.726398,-0.159236,-0.00300621,0,
4,1.10661,0.736588,-0.159017,-0.00267437,0,
4,1.11788,0.746147,-0.158795,-0.00235945,0,
4,1.12925,0.754988,-0.158571,-0.00206878,0,
4,1.14073,0.763052,-0.158346,-0.00180859,0,
4,1.15233,0.770318,-0.15812,-0.00158312,0,
4,1.16408,0.776809,-0.157893,-0.00139414,0,
4,1.17599,0.782589,-0.157666,-0.00124091,0,
4,1.18806,0.787752,-0.157438,-0.00112064,0,
4,1.20034,0.792404,-0.157209,-0.00102918,0,
4,1.21282,0.796651,-0.156978,-0.000961787,0,
4,1.22554,0.80059,-0.156744,-0.000913712,0,
4,1.23852,0.804306,-0.156506,-0.000880551,0,
4,1.25179,0.807864,-0.156263,-0.000858486,0,
4,1.26537,0.81132,-0.156015,-0.000844359,0,
4,1.2793,0.814717,-0.155761,-0.000835644,0,
4,1.29362,0.818088,-0.155501,-0.000830432,0,
4,1.30836,0.821458,-0.155233,-0.000827628,0,
4,1.32357,0.82485,-0.154957,-0.000825529,0,
4,1.3393,0.828281,-0.154671,-0.000824817,0,
4,1.3556,0.831778,-0.154376,-0.000822745,0,
4,1.37252,0.83539,-0.154071,-0.000813328,0,
4,1.39015,0.839151,-0.153754,-0.000804743,0,
4,1.40855,0.843056,-0.153424,-0.000796302,0,
4,1.42781,0.847099,-0.153078,-0.000787676,0,
4,1.44801,0.851281,-0.152715,-0.000778716,0,
4,1.46926,0.855615,-0.152334,-0.000769276,0,
4,1.49167,0.860122,-0.151931,-0.000759222,0,
4,1.51537,0.864825,-0.151506,-0.000748281,0,
4,1.54091,0.869824,-0.151046,-0.000736112,0,
4,1.56949,0.875326,-0.150532,-0.000722236,0,
4,1.60144,0.881391,-0.149956,-0.000705942,0,
4,1.63713,0.888059,-0.149313,-0.000686687,0,
4,1.67693,0.89536,-0.148595,-0.000663916,0,
4,1.72128,0.903314,-0.147794,-0.000637147,0,
4,1.77062,0.911922,-0.146904,-0.000605797,0,
4,1.82542,0.921157,-0.145912,-0.000569567,0,
4,1.88618,0.930974,-0.144817,-0.00052391,0,
4,1.95343,0.941326,-0.143615,-0.000456967,0,
4,2.02768,0.952039,-0.142292,-0.000379914,0,
4,2.10949,0.962734,-0.140847,-0.000294995,0,
4,2.19939,0.972887,-0.139279,-0.000208666,0,
4,2.29789,0.981854,-0.13759,-0.000129005,0,
4,2.40551,0.988934,-0.13579,-6.42795e-05,0,
4,2.52268,0.993529,-0.133893,-2.06723e-05,0,
4,2.64979,0.995389,-0.131921,6.94542e-07,0,
4,2.78715,0.994835,-0.129899,5.20551e-06,0,
4,2.93497,0.992784,-0.127852,2.68944e-06,0,
4,3.09333,0.990408,-0.125802,5.83889e-07,0,
4,3.26217,0.988565,-0.123771,6.86251e-08,0,
4,3.44125,0.987468,-0.121777,2.07752e-08,0,
4,3.63018,0.986844,-0.119838,1.53285e-08,0,
4,3.82836,0.986337,-0.117969,1.4061e-08,0,
4,4.03501,0.985757,-0.116186,1.39835e-08,0,
4,4.24915,0.985098,-0.114503,1.36532e-08,0,
4,4.46961,0.984425,-0.112928,1.27766e-08,0,
4,4.69507,0.983796,-0.111469,1.15882e-08,0,
4,4.92406,0.98323,-0.11013,1.04208e-08,0,
4,5.15502,0.982721,-0.108912,9.43561e-09,0,
4,5.3863,0.982259,-0.107812,8.76195e-09,0,
4,5.61626,0.981828,-0.106827,8.6274e-09,0,
4,5.84328,0.981413,-0.105951,9.74335e-09,0,
4,6.06579,0.981011,-0.105177,1.41887e-08,0,
4,6.28238,0.980687,-0.104496,2.4516e-08,0,
4,6.49173,0.9806,-0.1039,2.13491e-08,0,
4,6.69275,0.980913,-0.103378,-9.402e-08,0,
4,6.88453,0.981465,-0.102921,-1.01203e-09,0,
4,7.06634,0.981313,-0.102519,4.66057e-06,0,
4,7.23771,0.978613,-0.102169,2.83157e-05,0,
4,7.39831,0.971314,-0.101866,9.1838e-05,0,
4,7.54803,0.958482,-0.101616,0.000209259,0,
4,7.68693,0.941012,-0.101408,0.000362677,0,
4,7.81519,0.920821,-0.101226,0.000503603,0,
4,7.93313,0.89979,-0.101085,0.000649397,0,
4,8.04115,0.879371,-0.100963,0.000782572,0,
4,8.13974,0.860288,-0.100867,0.000893685,0,
4,8.22941,0.842673,-0.100793,0.000982306,0,
4,8.31073,0.826332,-0.100738,0.00105225,0,
4,8.38429,0.810893,-0.100701,0.00109795,0,
4,8.45065,0.79604,-0.100675,0.00114094,0,
4,8.5104,0.781614,-0.10066,0.00117937,0,
4,8.56407,0.76752,-0.100651,0.00121261,0,
4,8.61222,0.753684,-0.100649,0.00124112,0,
4,8.65533,0.740051,-0.10065,0.00126539,0,
4,8.69387,0.726577,-0.100654,0.0012858,0,
4,8.7283,0.713228,-0.10066,0.00130266,0,
4,8.75901,0.699978,-0.100668,0.0013162,0,
4,8.78637,0.686807,-0.100677,0.00132662,0,
4,8.81074,0.673698,-0.100685,0.00133411,0,
4,8.83242,0.660639,-0.100694,0.00133885,0,
4,8.85169,0.647615,-0.100703,0.00134101,0,
4,8.86881,0.634614,-0.100711,0.00134078,0,
4,8.88402,0.621622,-0.100719,0.00133835,0,
4,8.89751,0.608624,-0.100726,0.00133387,0,
4,8.90949,0.595602,-0.100733,0.00132752,0,
4,8.92011,0.582533,-0.100739,0.00131944,0,
4,8.92952,0.569393,-0.100745,0.00130975,0,
4,8.93787,0.556153,-0.10075,0.00129852,0,
4,8.94526,0.542778,-0.100754,0.0012858,0,
4,8.95182,0.529229,-0.100758,0.00127156,0,
4,8.95762,0.515461,-0.100762,0.00125574,0,
4,8.96276,0.501419,-0.100765,0.00123817,0,
4,8.96731,0.487042,-0.100767,0.00121859,0,
4,8.97134,0.472258,-0.100769,0.00119662,0,
4,8.97491,0.456982,-0.100771,0.00117175,0,
4,8.97807,0.441114,-0.100773,0.00114324,0,
4,8.98087,0.424535,-0.100775,0.00111011,0,
4,8.98334,0.407105,-0.100776,0.00107105,0,
4,8.98553,0.388654,-0.100777,0.00102479,0,
4,8.98747,0.368964,-0.100777,0.000967345,0,
4,8.98919,0.347753,-0.100778,0.000894283,0,
4,8.9907,0.324752,-0.100778,0.0008064,0,
4,8.99205,0.299771,-0.100779,0.000702027,0,
4,8.99324,0.272637,-0.100779,0.000572343,0,
4,8.99429,0.243271,-0.10078,0.000421897,0,
4,8.99522,0.212042,-0.100779,0.000268732,0,
4,8.99605,0.18001,-0.10078,0.000140913,0,
4,8.99677,0.148721,-0.100779,5.91002e-05,0,
4,8.99742,0.119546,-0.10078,1.97217e-05,0,
4,8.99799,0.0931775,-0.100779,5.21253e-06,0,
4,8.9985,0.069707,-0.100781,1.05053e-06,0,
4,8.99894,0.048933,-0.100779,1.44752e-07,0,
4,8.99934,0.0305734,-0.100781,1.06013e-08,0,
4,8.99969,0.0143501,-0.100779,2.28506e-10,0,

6,0,0,-0.0337535,0,0,
6,9,0,-0.0768859,0,0,
6,1.07704,0.734076,-0.0473873,-0.0018736,0,
6,0.000299862,-0.00168637,-0.0337587,1.22496e-11,0,
6,0.000611645,-0.00335366,-0.0337546,4.56478e-10,0,
6,0.000938257,-0.00500604,-0.0337587,4.74363e-09,0,
6,0.00128281,-0.00664485,-0.0337556,2.60611e-08,0,
6,0.00164864,-0.00826758,-0.0337588,9.9197e-08,0,
6,0.00203939,-0.00986658,-0.0337566,2.97785e-07,0,
6,0.00245897,-0.011427,-0.0337592,7.54159e-07,0,
6,0.00291168,-0.0129237,-0.0337575,1.66704e-06,0,
6,0.00340221,-0.0143179,-0.0337599,3.25259e-06,0,
6,0.00393573,-0.0155544,-0.0337589,5.55176e-06,0,
6,0.00451788,-0.0165665,-0.0337616,8.04037e-06,0,
6,0.00515491,-0.0172946,-0.0337621,9.28862e-06,0,
6,0.00585371,-0.0177134,-0.0337663,7.29669e-06,0,
6,0.00662185,-0.017845,-0.03377,5.89597e-07,0,
6,0.00746774,-0.0177424,-0.0337778,-1.10704e-05,0,
6,0.00840063,-0.0174624,-0.0337864,-2.70703e-05,0,
6,0.00943073,-0.0170495,-0.0337996,-4.66853e-05,0,
6,0.0105693,-0.0165336,-0.0338147,-6.94496e-05,0,
6,0.0118288,-0.0159328,-0.0338346,-9.51868e-05,0,
6,0.0132228,-0.0152568,-0.0338577,-0.000123931,0,
6,0.0147664,-0.0145101,-0.0338861,-0.000155855,0,
6,0.016476,-0.0136936,-0.0339191,-0.000191223,0,
6,0.0183694,-0.0128059,-0.0339581,-0.000230363,0,
6,0.0204662,-0.0118438,-0.0340032,-0.000273658,0,
6,0.0227875,-0.0108029,-0.0340556,-0.000321535,0,
6,0.0253561,-0.00967761,-0.0341157,-0.000374462,0,
6,0.0281964,-0.00846161,-0.0341845,-0.000432947,0,
6,0.0313344,-0.00714776,-0.0342627,-0.000497534,0,
6,0.0347975,-0.00572823,-0.0343512,-0.0005688,0,
6,0.0386145,-0.00419454,-0.0344509,-0.000647362,0,
6,0.042815,-0.00253762,-0.0345627,-0.00073388,0,
6,0.0474296,-0.00074769,-0.0346871,-0.00082899,0,
6,0.0524888,0.0011859,-0.0348247,-0.000933227,0,
6,0.0580229,0.00327429,-0.034976,-0.00104735,0,
6,0.0640611,0.00552877,-0.0351414,-0.00117205,0,
6,0.0706309,0.0079609,-0.0353206,-0.00130785,0,
6,0.077757,0.0105827,-0.0355135,-0.00145526,0,
6,0.0854609,0.0134065,-0.0357192,-0.00161467,0,
6,0.0937597,0.0164449,-0.0359371,-0.00178638,0,
6,0.102665,0.0197105,-0.0361657,-0.00197054,0,
6,0.112183,0.0232158,-0.0364038,-0.00216712,0,
6,0.122315,0.026973,-0.0366495,-0.00237594,0,
6,0.133052,0.0309936,-0.0369011,-0.00259663,0,
6,0.144384,0.035289,-0.0371565,-0.00282864,0,
6,0.156292,0.0398695,-0.0374138,-0.00307124,0,
6,0.168754,0.0447453,-0.0376714,-0.00332359,0,
6,0.181744,0.0499263,-0.0379276,-0.00358469,0,
6,0.195237,0.0554223,-0.0381813,-0.0038535,0,
6,0.209207,0.0612442,-0.0384314,-0.00412894,0,
6,0.223631,0.0674041,-0.0386774,-0.00440993,0,
6,0.238493,0.0739166,-0.0389193,-0.00469546,0,
6,0.253785,0.0808,-0.0391572,-0.00498458,0,
6,0.269507,0.088077,-0.0393916,-0.00527647,0,
6,0.28567,0.0957767,-0.0396234,-0.00557043,0,
6,0.3023,0.103936,-0.0398539,-0.00586583,0,
6,0.319433,0.112599,-0.0400844,-0.00616214,0,
6,0.337122,0.121822,-0.040316,-0.00645882,0,
6,0.355433,0.131672,-0.040554,-0.00675536,0,
6,0.374445,0.142229,-0.0407854,-0.00705117,0,
6,0.394252,0.15359,-0.0410797,-0.00739737,0,
6,0.414961,0.166032,-0.0412044,-0.00773318,0,
6,0.436695,0.180193,-0.0410667,-0.0078928,0,
6,0.459585,0.196697,-0.0409928,-0.00805137,0,
6,0.48378,0.215698,-0.0410405,-0.00819433,0,
6,0.508144,0.236092,-0.0411887,-0.00829868,0,
6,0.531799,0.256857,-0.0413836,-0.00835343,0,
6,0.554791,0.277784,-0.0415929,-0.00835798,0,
6,0.577166,0.298767,-0.0418003,-0.00831448,0,
6,0.598964,0.319758,-0.0420008,-0.00822565,0,
6,0.620228,0.340713,-0.0421944,-0.00809459,0,
6,0.640996,0.361579,-0.0423815,-0.00792528,0,
6,0.661304,0.382285,-0.0425618,-0.00772283,0,
6,0.681188,0.402758,-0.0427346,-0.00749278,0,
6,0.700681,0.422931,-0.0429005,-0.00724094,0,
6,0.719813,0.44275,-0.0430629,-0.00697315,0,
6,0.738612,0.462167,-0.0432268,-0.00669499,0,
6,0.757107,0.481136,-0.043398,-0.00641141,0,
6,0.775322,0.499608,-0.0435812,-0.00612655,0,
6,0.793282,0.517534,-0.0437781,-0.00584357,0,
6,0.811008,0.534871,-0.0439875,-0.00556474,0,
6,0.828521,0.551586,-0.0442059,-0.00529158,0,
6,0.845842,0.567659,-0.044429,-0.00502523,0,
6,0.862989,0.583073,-0.0446523,-0.00477037,0,
6,0.879979,0.597823,-0.0448732,-0.00452613,0,
6,0.896829,0.611923,-0.0450921,-0.00429153,0,
6,0.913555,0.625407,-0.0453099,-0.00406558,0,
6,0.930172,0.638317,-0.0455272,-0.00384706,0,
6,0.946694,0.650699,-0.045745,-0.00363439,0,
6,0.963136,0.662598,-0.0459619,-0.00342565,0,
6,0.97951,0.674065,-0.0461787,-0.00321856,0,
6,0.99583,0.685173,-0.0463849,-0.00299258,0,
6,1.01211,0.695941,-0.0465848,-0.0027639,0,
6,1.02836,0.706298,-0.0467872,-0.002533,0,
6,1.04459,0.716156,-0.0469877,-0.00230343,0,
6,1.06081,0.725436,-0.0471881,-0.00208166,0,
6,1.09329,0.742043,-0.0475859,-0.00168414,0,
6,1.10959,0.74933,-0.0477836,-0.0015168,0,
6,1.12595,0.75596,-0.0479809,-0.00137337,0,
6,1.14238,0.761983,-0.048178,-0.00125402,0,
6,1.1589,0.767467,-0.0483755,-0.00115748,0,
6,1.17551,0.772494,-0.0485736,-0.00108146,0,
6,1.19223,0.777147,-0.048773,-0.00102311,0,
6,1.20907,0.781502,-0.0489738,-0.000979382,0,
6,1.22605,0.785629,-0.0491767,-0.000947321,0,
6,1.24318,0.789584,-0.049381,-0.000924277,0,
6,1.26048,0.793416,-0.0495892,-0.000907872,0,
6,1.27797,0.797163,-0.049796,-0.000897806,0,
6,1.29566,0.800865,-0.0500113,-0.000892852,0,
6,1.31357,0.804607,-0.0502393,-0.000874825,0,
6,1.33173,0.808449,-0.050468,-0.000857477,0,
6,1.35015,0.812373,-0.0506967,-0.000841472,0,
6,1.36886,0.816333,-0.0509247,-0.000826771,0,
6,1.38788,0.820301,-0.0511539,-0.000813087,0,
6,1.40725,0.824273,-0.0513861,-0.000799932,0,
6,1.42698,0.828265,-0.0516222,-0.00078688,0,
6,1.44712,0.832295,-0.0518628,-0.000773643,0,
6,1.46769,0.836374,-0.0521082,-0.0007601,0,
6,1.48874,0.840512,-0.0523584,-0.000746164,0,
6,1.5103,0.844712,-0.0526137,-0.000731752,0,
6,1.53242,0.848977,-0.0528743,-0.00071678,0,
6,1.55515,0.853312,-0.0531406,-0.00070117,0,
6,1.57854,0.857721,-0.053413,-0.000684853,0,
6,1.60265,0.862208,-0.053692,-0.000667772,0,
6,1.62754,0.866777,-0.053978,-0.000649867,0,
6,1.65329,0.87143,-0.0542715,-0.00063109,0,
6,1.67998,0.876172,-0.0545733,-0.00061144,0,
6,1.70768,0.881004,-0.0548829,-0.000591028,0,
6,1.73712,0.886025,-0.0552102,-0.000569557,0,
6,1.76996,0.891458,-0.0555693,-0.000546108,0,
6,1.80655,0.897334,-0.0559664,-0.00052024,0,
6,1.84728,0.903637,-0.0563985,-0.000491825,0,
6,1.89255,0.910351,-0.0568771,-0.000456713,0,
6,1.9428,0.917478,-0.0574044,-0.000408213,0,
6,1.99849,0.924945,-0.0579748,-0.000353752,0,
6,2.06009,0.932561,-0.0585927,-0.000293678,0,
6,2.1281,0.940062,-0.0592569,-0.000231298,0,
6,2.20301,0.947133,-0.0599658,-0.000170611,0,
6,2.28535,0.953417,-0.0607169,-0.000115514,0,
6,2.37559,0.958554,-0.0615061,-6.93935e-05,0,
6,2.47424,0.962246,-0.0623278,-3.48974e-05,0,
6,2.58172,0.964348,-0.0631744,-1.30545e-05,0,
6,2.69844,0.964966,-0.0640365,-2.46952e-06,0,
6,2.82473,0.964496,-0.064904,5.76828e-07,0,
6,2.96084,0.96355,-0.0657666,4.6063e-07,0,
6,3.10691,0.962751,-0.0666155,2.2662e-08,0,
6,3.26296,0.96249,-0.0674442,-6.26399e-08,0,
6,3.42888,0.962804,-0.0682472,-3.04954e-08,0,
6,3.60438,0.963461,-0.0690197,-1.57592e-08,0,
6,3.78902,0.964172,-0.0697563,-1.26179e-08,0,
6,3.98218,0.96476,-0.0704526,-1.02291e-08,0,
6,4.18307,0.965193,-0.0711055,-8.21912e-09,0,
6,4.39071,0.965524,-0.071713,-6.9769e-09,0,
6,4.60398,0.965816,-0.0722747,-6.28672e-09,0,
6,4.82159,0.966098,-0.0727911,-5.83238e-09,0,
6,5.04218,0.966372,-0.0732633,-5.44669e-09,0,
6,5.26426,0.966625,-0.0736929,-5.20853e-09,0,
6,5.48633,0.966843,-0.074082,-5.44317e-09,0,
6,5.70687,0.967014,-0.0744327,-6.93413e-09,0,
6,5.92439,0.967141,-0.0747471,-1.21818e-08,0,
6,6.1375,0.967268,-0.0750276,-3.32483e-08,0,
6,6.34489,0.967505,-0.075276,-1.28986e-07,0,
6,6.5454,0.967989,-0.0754941,-4.7346e-07,0,
6,6.73802,0.968701,-0.075683,-1.02547e-06,0,
6,6.92195,0.969132,-0.0758447,7.96102e-07,0,
6,7.09653,0.968039,-0.0759805,1.46246e-05,0,
6,7.26132,0.963662,-0.0760978,5.73346e-05,0,
6,7.41603,0.954543,-0.0761912,0.000144373,0,
6,7.56054,0.940449,-0.0762807,0.000279806,0,
6,7.6949,0.92241,-0.076357,0.00040571,0,
6,7.81927,0.902049,-0.0764043,0.000539018,0,
6,7.93391,0.88117,-0.0764472,0.000674474,0,
6,8.0392,0.861151,-0.0764728,0.000796543,0,
6,8.13555,0.8426,-0.0764957,0.000898719,0,
6,8.22344,0.825525,-0.0765145,0.000981247,0,
6,8.30339,0.809629,-0.076536,0.00104791,0,
6,8.37592,0.794515,-0.0765602,0.00109548,0,
6,8.44155,0.779893,-0.0765853,0.00114053,0,
6,8.50082,0.76564,-0.0766096,0.00118062,0,
6,8.55423,0.751681,-0.0766332,0.00121512,0,
6,8.60229,0.737961,-0.0766559,0.00124451,0,
6,8.64545,0.724435,-0.0766775,0.00126923,0,
6,8.68417,0.711072,-0.076698,0.00128965,0,
6,8.71885,0.697846,-0.0767173,0.00130603,0,
6,8.74989,0.68474,-0.0767352,0.00131861,0,
6,8.77763,0.67174,-0.0767519,0.00132759,0,
6,8.80241,0.658835,-0.0767672,0.0013332,0,
6,8.82452,0.646016,-0.0767812,0.00133569,0,
6,8.84423,0.633274,-0.0767939,0.00133531,0,
6,8.86181,0.6206,-0.0768055,0.00133232,0,
6,8.87746,0.607981,-0.0768159,0.00132699,0,
6,8.89139,0.595402,-0.0768251,0.00131958,0,
6,8.90379,0.582846,-0.0768334,0.00131032,0,
6,8.91482,0.570293,-0.0768407,0.00129945,0,
6,8.92463,0.557717,-0.0768472,0.00128714,0,
6,8.93334,0.54509,-0.0768529,0.00127353,0,
6,8.94109,0.532378,-0.0768578,0.00125873,0,
6,8.94798,0.519545,-0.0768621,0.00124278,0,
6,8.95409,0.506548,-0.0768658,0.00122565,0,
6,8.95953,0.493337,-0.076869,0.00120724,0,
6,8.96435,0.479857,-0.0768717,0.00118737,0,
6,8.96863,0.466044,-0.0768741,0.00116577,0,
6,8.97244,0.451824,-0.0768761,0.00114202,0,
6,8.97581,0.437112,-0.0768778,0.00111557,0,
6,8.97881,0.421806,-0.0768791,0.00108567,0,
6,8.98147,0.405789,-0.0768804,0.0010513,0,
6,8.98383,0.38892,-0.0768812,0.00101113,0,
6,8.98593,0.371035,-0.0768823,0.000963697,0,
6,8.98779,0.351925,-0.0768827,0.000905772,0,
6,8.98944,0.331329,-0.0768835,0.000832595,0,
6,8.9909,0.308999,-0.0768836,0.000745515,0,
6,8.9922,0.284763,-0.0768843,0.000642128,0,
6,8.99336,0.258459,-0.0768841,0.000514024,0,
6,8.99438,0.230078,-0.0768848,0.000371032,0,
6,8.99529,0.200106,-0.0768844,0.000230389,0,
6,8.99609,0.169638,-0.0768851,0.000117893,0,
6,8.99681,0.140116,-0.0768845,4.86096e-05,0,
6,8.99744,0.112708,-0.0768853,1.61069e-05,0,
6,8.99801,0.0879561,-0.0768844,4.26122e-06,0,
6,8.9985,0.0658939,-0.0768855,8.63469e-07,0,
6,8.99895,0.0463227,-0.0768844,1.19827e-07,0,
6,8.99934,0.028983,-0.0768857,8.83867e-09,0,
6,8.99969,0.0136219,-0.0768842,1.91514e-10,0,

10,0,0,0.0348211,0,0,
10,0.000296632,0.00872513,0.0348276,-5.20126e-11,0,
10,0.000596102,0.0175232,0.0348216,-1.926e-09,0,
10,0.000900397,0.0264527,0.034827,-1.95662e-08,0,
10,0.00121153,0.0355723,0.034822,-1.05057e-07,0,
10,0.00153158,0.0449407,0.0348265,-3.92613e-07,0,
10,0.00186264,0.0546153,0.0348223,-1.16604e-06,0,
10,0.00220692,0.0646492,0.034826,-2.95561e-06,0,
10,0.00256668,0.0750871,0.0348226,-6.66114e-06,0,
10,0.00294431,0.0859561,0.0348257,-1.36718e-05,0,
10,0.00334229,0.0972546,0.0348228,-2.59025e-05,0,
10,0.00376326,0.108938,0.0348253,-4.56112e-05,0,
10,0.00421,0.120904,0.0348228,-7.48699e-05,0,
10,0.00468544,0.132996,0.0348249,-0.000114745,0,
10,0.00519274,0.145011,0.0348227,-0.000164571,0,
10,0.00573524,0.156732,0.0348243,-0.000221847,0,
10,0.00631651,0.167965,0.0348222,-0.000282932,0,
10,0.00694041,0.178564,0.0348233,-0.000344111,0,
10,0.00761104,0.188438,0.0348212,-0.000402426,0,
10,0.00833284,0.197551,0.0348216,-0.000456004,0,
10,0.00911058,0.205908,0.0348192,-0.000503974,0,
10,0.0099494,0.213543,0.0348187,-0.000546209,0,
10,0.0108548,0.220507,0.0348158,-0.000583065,0,
10,0.0118329,0.226863,0.0348142,-0.000615165,0,
10,0.0128901,0.232674,0.0348105,-0.000643245,0,
10,0.0140333,0.238002,0.0348075,-0.000668063,0,
10,0.0152702,0.242908,0.0348026,-0.000690342,0,
10,0.0166089,0.247445,0.0347979,-0.000710739,0,
10,0.0180584,0.251662,0.0347914,-0.00072984,0,
10,0.0196282,0.255602,0.0347846,-0.000748161,0,
10,0.0213288,0.259304,0.0347761,-0.000766154,0,
10,0.0231714,0.262799,0.0347668,-0.000784218,0,
10,0.0251682,0.266119,0.0347557,-0.000802713,0,
10,0.0273326,0.269289,0.0347434,-0.000821963,0,
10,0.0296789,0.272332,0.0347291,-0.000842272,0,
10,0.0322227,0.275269,0.0347131,-0.000863928,0,
10,0.0349809,0.278118,0.0346949,-0.000887211,0,
10,0.0379719,0.280896,0.0346746,-0.0009124,0,
10,0.0412155,0.283619,0.0346517,-0.000939777,0,
10,0.0447333,0.286302,0.0346262,-0.00096963,0,
10,0.0485489,0.288957,0.0345978,-0.00100226,0,
10,0.0526875,0.2916,0.0345662,-0.00103799,0,
10,0.0571768,0.294241,0.0345311,-0.00107714,0,
10,0.0620466,0.296895,0.0344925,-0.00112008,0,
10,0.0673295,0.299575,0.0344499,-0.00116719,0,
10,0.0730607,0.302293,0.0344031,-0.00121887,0,
10,0.0792784,0.305063,0.0343519,-0.00127557,0,
10,0.0860241,0.307901,0.034296,-0.00133775,0,
10,0.0933428,0.310821,0.0342352,-0.00140592,0,
10,0.101283,0.31384,0.0341694,-0.00148062,0,
10,0.109899,0.316977,0.0340983,-0.00156243,0,
10,0.119247,0.320252,0.0340219,-0.00165195,0,
10,0.12939,0.323687,0.0339401,-0.00174983,0,
10,0.140395,0.327307,0.033853,-0.00185675,0,
10,0.152337,0.331141,0.0337606,-0.0019734,0,
10,0.165296,0.335221,0.0336633,-0.00210049,0,
10,0.179357,0.339583,0.0335612,-0.00223873,0,
10,0.194615,0.34427,0.0334548,-0.00238879,0,
10,0.211171,0.349329,0.0333447,-0.00255131,0,
10,0.229138,0.354818,0.0332313,-0.00272681,0,
10,0.248635,0.3608,0.0331158,-0.00291567,0,
10,0.269793,0.367351,0.0329979,-0.00311805,0,
10,0.292753,0.374559,0.0328806,-0.00333372,0,
10,0.317669,0.382526,0.0327604,-0.00356084,0,
10,0.344708,0.391363,0.032644,-0.00379646,0,
10,0.372405,0.400653,0.0325351,-0.00402957,0,
10,0.399623,0.410037,0.0324338,-0.00424915,0,
10,0.426397,0.419523,0.0323412,-0.00445282,0,
10,0.452757,0.42912,0.0322563,-0.00464027,0,
10,0.478735,0.438846,0.0321821,-0.00480959,0,
10,0.504358,0.448726,0.0321191,-0.00495905,0,
10,0.529657,0.458786,0.0320659,-0.00508773,0,
10,0.554656,0.469048,0.032019,-0.0051955,0,
10,0.579382,0.479528,0.0319743,-0.00528141,0,
10,0.603859,0.490238,0.0319326,-0.00534444,0,
10,0.628112,0.501186,0.0318844,-0.00538713,0,
10,0.652163,0.51239,0.0318339,-0.00543758,0,
10,0.676035,0.524026,0.0318664,-0.00540622,0,
10,0.699751,0.536416,0.0319715,-0.00528105,0,
10,0.72333,0.549691,0.0320289,-0.00513576,0,
10,0.746795,0.563658,0.0320064,-0.00497084,0,
10,0.770165,0.577987,0.0319189,-0.00478432,0,
10,0.79346,0.592382,0.0317891,-0.00457611,0,
10,0.816699,0.606651,0.0316356,-0.00434856,0,
10,0.839903,0.62068,0.0314671,-0.0041058,0,
10,0.863088,0.634389,0.0312854,-0.00385304,0,
10,0.886275,0.647686,0.0310856,-0.00359943,0,
10,0.909481,0.660456,0.0308648,-0.00335392,0,
10,0.932723,0.672616,0.0306275,-0.00311608,0,
10,0.956021,0.684151,0.0303769,-0.00288602,0,
10,0.97939,0.695095,0.0301165,-0.00266429,0,
10,1.00285,0.705508,0.0298451,-0.00245129,0,
10,1.02641,0.71546,0.0295672,-0.0022431,0,
10,1.0501,0.725003,0.0292802,-0.00203803,0,
10,1.07392,0.734129,0.0289767,-0.0018473,0,
10,1.0979,0.742788,0.0286586,-0.00166937,0,
10,1.12205,0.750945,0.0283254,-0.00150762,0,
10,1.14639,0.758586,0.0279779,-0.00136473,0,
10,1.17093,0.765724,0.0276164,-0.00124204,0,
10,1.19568,0.772395,0.0272427,-0.00113996,0,
10,1.22066,0.77866,0.0268565,-0.00106327,0,
10,1.24589,0.784669,0.0264709,-0.000982877,0,
10,1.27137,0.790563,0.0260824,-0.000910336,0,
10,1.29713,0.796346,0.0256786,-0.000848687,0,
10,1.32317,0.801979,0.0252632,-0.000796205,0,
10,1.34951,0.807468,0.0248372,-0.000750673,0,
10,1.37616,0.81286,0.0244035,-0.000710473,0,
10,1.40313,0.8182,0.0239609,-0.000674746,0,
10,1.43043,0.823505,0.0235086,-0.000642801,0,
10,1.45807,0.828772,0.023046,-0.000613837,0,
10,1.48607,0.833993,0.0225735,-0.000587006,0,
10,1.51444,0.839165,0.0220914,-0.000561613,0,
10,1.54318,0.844289,0.0216003,-0.000537197,0,
10,1.57231,0.849362,0.0211002,-0.000513496,0,
10,1.60184,0.854379,0.0205911,-0.000490355,0,
10,1.63178,0.859331,0.0200727,-0.000467671,0,
10,1.66213,0.864206,0.0195453,-0.000445389,0,
10,1.69292,0.868995,0.0190085,-0.000423513,0,
10,1.72416,0.873682,0.0184628,-0.000402138,0,
10,1.75585,0.878248,0.0179075,-0.000381418,0,
10,1.78802,0.88267,0.0173436,-0.000361547,0,
10,1.82067,0.886926,0.0167698,-0.00034257,0,
10,1.85383,0.891011,0.0161894,-0.000324223,0,
10,1.88751,0.894968,0.0155999,-0.000301793,0,
10,1.92173,0.898848,0.0150022,-0.000278222,0,
10,1.95652,0.90265,0.0143962,-0.000254405,0,
10,1.9919,0.906334,0.0137811,-0.000229546,0,
10,2.02791,0.909861,0.0131563,-0.000204396,0,
10,2.06456,0.913198,0.0125237,-0.000179497,0,
10,2.10268,0.91638,0.0118659,-0.000154688,0,
10,2.1443,0.919498,0.0111533,-0.000130502,0,
10,2.18977,0.922502,0.0103789,-0.000107092,0,
10,2.23946,0.925309,0.00954057,-8.46682e-05,0,
10,2.29376,0.927836,0.00863317,-6.39921e-05,0,
10,2.35309,0.929999,0.00765478,-4.57425e-05,0,
10,2.4179,0.931726,0.00660217,-3.04952e-05,0,
10,2.48863,0.932965,0.00547468,-1.86592e-05,0,
10,2.56575,0.933705,0.00427158,-1.03428e-05,0,
10,2.64971,0.933991,0.00299427,-5.2404e-06,0,
10,2.74098,0.933934,0.00164466,-2.64878e-06,0,
10,2.83997,0.933706,0.000226293,-1.61758e-06,0,
10,2.94709,0.933511,-0.00125681,-1.24884e-06,0,
10,3.06269,0.933541,-0.00279941,-9.83101e-07,0,
10,3.18706,0.933912,-0.0043956,-6.64395e-07,0,
10,3.3204,0.934642,-0.00603805,-3.64682e-07,0,
10,3.46281,0.935644,-0.00771802,-1.65015e-07,0,
10,3.61427,0.936774,-0.00942485,-6.92215e-08,0,
10,3.77463,0.937892,-0.0111463,-3.48355e-08,0,
10,3.94358,0.93891,-0.0128687,-2.45133e-08,0,
10,4.12067,0.939805,-0.0145779,-2.09648e-08,0,
10,4.30525,0.940606,-0.0162598,-1.92363e-08,0,
10,4.49655,0.941358,-0.0179008,-1.83806e-08,0,
10,4.6936,0.942092,-0.0194886,-1.83826e-08,0,
10,4.89531,0.942814,-0.0210121,-1.97166e-08,0,
10,5.10047,0.943511,-0.0224618,-2.37846e-08,0,
10,5.30776,0.944165,-0.0238299,-3.37479e-08,0,
10,5.51581,0.94476,-0.0251106,-5.59519e-08,0,
10,5.72323,0.945293,-0.0263001,-1.04182e-07,0,
10,5.92863,0.94579,-0.0273963,-2.12528e-07,0,
10,6.13069,0.946318,-0.0283991,-4.72551e-07,0,
10,6.32816,0.946976,-0.0293101,-1.08019e-06,0,
10,6.51991,0.947798,-0.0301327,-2.1252e-06,0,
10,6.70495,0.948559,-0.0308712,-2.29369e-06,0,
10,6.88244,0.948547,-0.03153,3.84602e-06,0,
10,7.0517,0.946535,-0.0321137,2.73083e-05,0,
10,7.21224,0.941131,-0.0326237,8.13571e-05,0,
10,7.3637,0.931443,-0.0330659,0.00017503,0,
10,7.5059,0.917524,-0.0334443,0.000300083,0,
10,7.63878,0.900003,-0.0337632,0.000410224,0,
10,7.76243,0.880003,-0.0340336,0.000531494,0,
10,7.87701,0.859277,-0.0342503,0.000654753,0,
10,7.9828,0.83927,-0.0344293,0.000765616,0,
10,8.08014,0.820682,-0.0345727,0.000859342,0,
10,8.16941,0.803577,-0.034691,0.000936979,0,
10,8.25106,0.78768,-0.0347887,0.00100213,0,
10,8.32554,0.772643,-0.0348716,0.00105817,0,
10,8.39331,0.758177,-0.0349423,0.00110726,0,
10,8.45484,0.744093,-0.0350029,0.00115047,0,
10,8.5106,0.730287,-0.0350547,0.00118825,0,
10,8.56104,0.716718,-0.035099,0.00122081,0,
10,8.60659,0.703378,-0.035137,0.00124831,0,
10,8.64767,0.690273,-0.0351696,0.00127095,0,
10,8.68467,0.67741,-0.0351982,0.00128901,0,
10,8.71795,0.66476,-0.0352232,0.00129878,0,
10,8.74786,0.652294,-0.0352447,0.00130491,0,
10,8.77471,0.640007,-0.0352633,0.00130687,0,
10,8.79881,0.627894,-0.0352792,0.00130505,0,
10,8.8204,0.615946,-0.035293,0.00129998,0,
10,8.83975,0.604152,-0.0353047,0.00129217,0,
10,8.85708,0.592499,-0.0353148,0.0012821,0,
10,8.87259,0.580969,-0.0353234,0.0012702,0,
10,8.88646,0.56954,-0.0353308,0.00125687,0,
10,8.89886,0.558189,-0.035337,0.00124243,0,
10,8.90995,0.546889,-0.0353423,0.00122716,0,
10,8.91986,0.535609,-0.0353467,0.00121126,0,
10,8.92872,0.524318,-0.0353504,0.00119489,0,
10,8.93663,0.512979,-0.0353536,0.00117813,0,
10,8.94369,0.501556,-0.0353562,0.00116101,0,
10,8.95,0.490006,-0.0353583,0.00114347,0,
10,8.95564,0.478284,-0.0353602,0.00112546,0,
10,8.96067,0.466342,-0.0353616,0.0011068,0,
10,8.96517,0.454124,-0.0353629,0.00108723,0,
10,8.96918,0.441571,-0.0353639,0.00106644,0,
10,8.97276,0.428612,-0.0353648,0.00104398,0,
10,8.97596,0.415168,-0.0353654,0.0010193,0,
10,8.97882,0.401146,-0.0353661,0.000991668,0,
10,8.98137,0.386439,-0.0353665,0.000960157,0,
10,8.98365,0.370919,-0.035367,0.000923551,0,
10,8.98569,0.354437,-0.0353672,0.000880484,0,
10,8.9875,0.336807,-0.0353675,0.000828524,0,
10,8.98913,0.317793,-0.0353676,0.000762893,0,
10,8.99058,0.297165,-0.0353679,0.000685268,0,
10,8.99188,0.274762,-0.0353679,0.000593558,0,
10,8.99304,0.25042,-0.0353682,0.000480246,0,
10,8.99408,0.224086,-0.035368,0.000353112,0,
10,8.99501,0.196121,-0.0353683,0.000225688,0,
10,8.99583,0.16742,-0.0353681,0.000120046,0,
10,8.99658,0.139258,-0.0353684,5.17035e-05,0,
10,8.99724,0.112768,-0.0353681,1.78784e-05,0,
10,8.99784,0.0885562,-0.0353685,4.91638e-06,0,
10,8.99837,0.0667416,-0.0353681,1.03148e-06,0,
10,8.99885,0.0471915,-0.0353685,1.47782e-07,0,
10,8.99927,0.0296937,-0.0353681,1.12199e-08,0,
10,8.99966,0.0140318,-0.0353686,2.48243e-10,0,
10,9,0,-0.0353681,0,0,

0.0416667,0,0,-0.226713,0,1.79917e-06,
0.0833333,0,0,-0.226825,0,3.13231e-06,
0.125,0,0,-0.226758,0,3.68278e-06,
0.166667,0,0,-0.226769,0,6.51333e-06,
0.208333,0,0,-0.226743,0,9.61817e-06,
0.25,0,0,-0.226738,0,1.31832e-05,
0.291667,0,0,-0.226727,0,1.63634e-05,
0.333333,0,0,-0.226722,0,1.89897e-05,
0.375,0,0,-0.226716,0,2.08141e-05,
0.416667,0,0,-0.22671,0,2.19909e-05,
0.458333,0,0,-0.226703,0,2.27972e-05,
0.5,0,0,-0.226696,0,2.36185e-05,
0.541667,0,0,-0.22669,0,2.48071e-05,
0.583333,0,0,-0.226688,0,2.65978e-05,
0.625,0,0,-0.226693,0,2.90824e-05,
0.666667,0,0,-0.226705,0,3.21926e-05,
0.708333,0,0,-0.226729,0,3.57533e-05,
0.75,0,0,-0.226765,0,3.95292e-05,
0.791667,0,0,-0.226815,0,4.331e-05,
0.833333,0,0,-0.22688,0,4.69348e-05,
0.875,0,0,-0.226964,0,5.02607e-05,
0.916667,0,0,-0.227069,0,5.31349e-05,
0.958333,0,0,-0.2272,0,5.53929e-05,
1,0,0,-0.227365,0,5.67469e-05,
1.04167,0,0,-0.22757,0,5.67154e-05,
1.08333,0,0,-0.227824,0,5.46474e-05,
1.125,0,0,-0.228134,0,4.97388e-05,
1.16667,0,0,-0.228507,0,4.11157e-05,
1.20833,0,0,-0.228947,0,2.79822e-05,
1.25,0,0,-0.229456,0,9.76426e-06,
1.29167,0,0,-0.230029,0,-1.3768e-05,
1.33333,0,0,-0.230663,0,-4.24431e-05,
1.375,0,0,-0.231346,0,-7.57266e-05,
1.41667,0,0,-0.232068,0,-0.000112834,
1.45833,0,0,-0.232817,0,-0.000152881,
1.5,0,0,-0.233581,0,-0.000195028,
1.54167,0,0,-0.234348,0,-0.000238573,
1.58333,0,0,-0.235107,0,-0.000282983,
1.625,0,0,-0.23585,0,-0.000327886,
1.66667,0,0,-0.236568,0,-0.000373034,
1.70833,0,0,-0.237252,0,-0.000418258,
1.75,0,0,-0.237898,0,-0.000463441,
1.79167,0,0,-0.238497,0,-0.00050849,
1.83333,0,0,-0.239046,0,-0.000553328,
1.875,0,0,-0.23954,0,-0.000597886,
1.91667,0,0,-0.239974,0,-0.000642103,
1.95833,0,0,-0.240346,0,-0.000685921,
2,0,0,-0.240651,0,-0.000729289,
2.04167,0,0,-0.240887,0,-0.000772159,
2.08333,0,0,-0.241052,0,-0.000814484,
2.125,0,0,-0.241142,0,-0.000856217,
2.16667,0,0,-0.241155,0,-0.000897312,
2.20833,0,0,-0.241089,0,-0.000937716,
2.25,0,0,-0.240942,0,-0.000977374,
2.29167,0,0,-0.240709,0,-0.00101623,
2.33333,0,0,-0.24039,0,-0.00105422,
2.375,0,0,-0.239981,0,-0.00109128,
2.41667,0,0,-0.23948,0,-0.00112735,
2.45833,0,0,-0.238887,0,-0.00116238,
2.5,0,0,-0.238199,0,-0.00119631,
2.54167,0,0,-0.237415,0,-0.00122911,
2.58333,0,0,-0.236536,0,-0.00126073,
2.625,0,0,-0.235561,0,-0.00129116,
2.66667,0,0,-0.234491,0,-0.00132035,
2.70833,0,0,-0.233326,0,-0.00134829,
2.75,0,0,-0.232067,0,-0.00137496,
2.79167,0,0,-0.230716,0,-0.00140033,
2.83333,0,0,-0.229274,0,-0.00142439,
2.875,0,0,-0.227742,0,-0.00144712,
2.91667,0,0,-0.226123,0,-0.00146849,
2.95833,0,0,-0.224418,0,-0.00148849,
3,0,0,-0.222628,0,-0.00150709,
3.04167,0,0,-0.220755,0,-0.00152426,
3.08333,0,0,-0.218802,0,-0.00154,
3.125,0,0,-0.21677,0,-0.00155427,
3.16667,0,0,-0.21466,0,-0.00156707,
3.20833,0,0,-0.212476,0,-0.00157838,
3.25,0,0,-0.210219,0,-0.0015882,
3.29167,0,0,-0.207893,0,-0.00159654,
3.33333,0,0,-0.2055,0,-0.00160339,
3.375,0,0,-0.203043,0,-0.00160877,
3.41667,0,0,-0.200527,0,-0.0016127,
3.45833,0,0,-0.197953,0,-0.00161519,
3.5,0,0,-0.195328,0,-0.00161628,
3.54167,0,0,-0.192654,0,-0.00161596,
3.58333,0,0,-0.189936,0,-0.00161429,
3.625,0,0,-0.187177,0,-0.00161129,
3.66667,0,0,-0.184383,0,-0.00160699,
3.70833,0,0,-0.181558,0,-0.00160145,
3.75,0,0,-0.178704,0,-0.00159471,
3.79167,0,0,-0.175826,0,-0.00158682,
3.83333,0,0,-0.172928,0,-0.00157783,
3.875,0,0,-0.170013,0,-0.00156778,
3.91667,0,0,-0.167083,0,-0.00155672,
3.95833,0,0,-0.164142,0,-0.00154469,
4,0,0,-0.161193,0,-0.00153173,
4.04167,0,0,-0.158237,0,-0.00151788,
4.08333,0,0,-0.155278,0,-0.0015032,
4.125,0,0,-0.152318,0,-0.00148771,
4.16667,0,0,-0.14936,0,-0.00147146,
4.20833,0,0,-0.146404,0,-0.00145448,
4.25,0,0,-0.143454,0,-0.00143682,
4.29167,0,0,-0.140511,0,-0.00141852,
4.33333,0,0,-0.137578,0,-0.00139961,
4.375,0,0,-0.134655,0,-0.00138012,
4.41667,0,0,-0.131744,0,-0.0013601,
4.45833,0,0,-0.128847,0,-0.00133956,
4.5,0,0,-0.125965,0,-0.00131854,
4.54167,0,0,-0.123099,0,-0.00129707,
4.58333,0,0,-0.12025,0,-0.00127517,
4.625,0,0,-0.117419,0,-0.00125286,
4.66667,0,0,-0.114606,0,-0.00123018,
4.70833,0,0,-0.111811,0,-0.00120714,
4.75,0,0,-0.109035,0,-0.00118375,
4.79167,0,0,-0.106277,0,-0.00116003,
4.83333,0,0,-0.103538,0,-0.00113598,
4.875,0,0,-0.100818,0,-0.00111161,
4.91667,0,0,-0.0981165,0,-0.00108692,
4.95833,0,0,-0.0954329,0,-0.0010619,
5,0,0,-0.0927671,0,-0.00103658,
5.04167,0,0,-0.0901189,0,-0.00101095,
5.08333,0,0,-0.0874879,0,-0.000985015,
5.125,0,0,-0.0848737,0,-0.000958775,
5.16667,0,0,-0.0822759,0,-0.000932225,
5.20833,0,0,-0.0796943,0,-0.000905358,
5.25,0,0,-0.0771288,0,-0.000878168,
5.29167,0,0,-0.0745791,0,-0.000850649,
5.33333,0,0,-0.0720451,0,-0.000822799,
5.375,0,0,-0.0695268,0,-0.000794618,
5.41667,0,0,-0.0670241,0,-0.000766105,
5.45833,0,0,-0.0645371,0,-0.000737262,
5.5,0,0,-0.0620657,0,-0.000708089,
5.54167,0,0,-0.0596102,0,-0.000678585,
5.58333,0,0,-0.0571706,0,-0.000648751,
5.625,0,0,-0.0547475,0,-0.000618592,
5.66667,0,0,-0.0523409,0,-0.000588111,
5.70833,0,0,-0.0499515,0,-0.000557315,
5.75,0,0,-0.0475796,0,-0.00052621,
5.79167,0,0,-0.0452257,0,-0.000494799,
5.83333,0,0,-0.0428905,0,-0.000463087,
5.875,0,0,-0.0405748,0,-0.000431076,
5.91667,0,0,-0.0382794,0,-0.00039877,
5.95833,0,0,-0.0360053,0,-0.000366177,
6,0,0,-0.0337538,0,-0.000333304,
6.04167,0,0,-0.0315261,0,-0.000300168,
6.08333,0,0,-0.029324,0,-0.000266796,
6.125,0,0,-0.0271493,0,-0.000233239,
6.16667,0,0,-0.025004,0,-0.000199574,
6.20833,0,0,-0.0228897,0,-0.000165899,
6.25,0,0,-0.0208073,0,-0.000132293,
6.29167,0,0,-0.0187569,0,-9.87954e-05,
6.33333,0,0,-0.0167386,0,-6.54032e-05,
6.375,0,0,-0.0147525,0,-3.20968e-05,
6.41667,0,0,-0.012799,0,1.14007e-06,
6.45833,0,0,-0.0108786,0,3.43129e-05,
6.5,0,0,-0.00899171,0,6.74201e-05,
6.54167,0,0,-0.00713898,0,0.000100455,
6.58333,0,0,-0.00532098,0,0.000133409,
6.625,0,0,-0.00353834,0,0.000166274,
6.66667,0,0,-0.00179168,0,0.000199035,
6.70833,0,0,-8.16079e-05,0,0.000231681,
6.75,0,0,0.00159128,0,0.000264194,
6.79167,0,0,0.00322646,0,0.00029656,
6.83333,0,0,0.00482342,0,0.000328761,
6.875,0,0,0.00638171,0,0.000360779,
6.91667,0,0,0.00790093,0,0.000392598,
6.95833,0,0,0.00938072,0,0.000424199,
7,0,0,0.0108208,0,0.000455564,
7.04167,0,0,0.012221,0,0.00048668,
7.08333,0,0,0.0135811,0,0.000517531,
7.125,0,0,0.0149011,0,0.000548102,
7.16667,0,0,0.0161808,0,0.000578381,
7.20833,0,0,0.0174203,0,0.000608352,
7.25,0,0,0.0186196,0,0.000638005,
7.29167,0,0,0.019779,0,0.000667329,
7.33333,0,0,0.0208985,0,0.000696314,
7.375,0,0,0.0219784,0,0.000724952,
7.41667,0,0,0.0230191,0,0.000753235,
7.45833,0,0,0.0240207,0,0.000781155,
7.5,0,0,0.0249836,0,0.000808709,
7.54167,0,0,0.0259082,0,0.00083589,
7.58333,0,0,0.026795,0,0.000862699,
7.625,0,0,0.0276442,0,0.000889135,
7.66667,0,0,0.0284565,0,0.000915205,
7.70833,0,0,0.0292323,0,0.000940916,
7.75,0,0,0.0299722,0,0.000966277,
7.79167,0,0,0.0306765,0,0.000991285,
7.83333,0,0,0.0313452,0,0.00101592,
7.875,0,0,0.0319785,0,0.00104023,
7.91667,0,0,0.0325868,0,0.00106474,
7.95833,0,0,0.0331051,0,0.00108807,
8,0,0,0.0336883,0,0.00111132,
8.04171,0,0,0.0342766,0,0.0011355,
8.08368,0,0,0.0347204,0,0.00115937,
8.12617,0,0,0.0351919,0,0.00118146,
8.16946,0,0,0.0356359,0,0.00120359,
8.21382,0,0,0.0360525,0,0.00122571,
8.25952,0,0,0.0364497,0,0.00124787,
8.30685,0,0,0.0368268,0,0.00127026,
8.35611,0,0,0.0371833,0,0.00129298,
8.40762,0,0,0.0375186,0,0.00131611,
8.46168,0,0,0.0378308,0,0.00133972,
8.51865,0,0,0.0381177,0,0.00136387,
8.57889,0,0,0.038376,0,0.00138859,
8.64276,0,0,0.0386015,0,0.00141389,
8.71067,0,0,0.0387893,0,0.00143978,
8.78306,0,0,0.0389333,0,0.00146624,
8.86037,0,0,0.0390265,0,0.0014932,
8.94309,0,0,0.0390603,0,0.00152058,
9.03174,0,0,0.0390251,0,0.00154826,
9.12689,0,0,0.0389099,0,0.00157606,
9.22912,0,0,0.0387025,0,0.00160376,
9.33908,0,0,0.0383893,0,0.00163108,
9.45746,0,0,0.0379545,0,0.00165768,
9.58501,0,0,0.0373801,0,0.00168313,
9.72253,0,0,0.0366459,0,0.00170691,
9.87088,0,0,0.035729,0,0.00172842,
10.031,0,0,0.0346032,0,0.00174703,
10.2039,0,0,0.0332381,0,0.00176204,
10.3906,0,0,0.0316,0,0.00177277,
10.5924,0,0,0.0296521,0,0.00177866,
10.8105,0,0,0.0273545,0,0.00177941,
11.0463,0,0,0.0246656,0,0.00177509,
11.3012,0,0,0.0215471,0,0.00176631,
11.5769,0,0,0.0179743,0,0.00175421,
11.8751,0,0,0.0139699,0,0.00174047,
12.1977,0,0,0.00968355,0,0.00172734,
12.5466,0,0,0.00551946,0,0.00171819,
12.9242,0,0,0.00225943,0,0.00171852,
13.3327,0,0,0.000939095,0,0.00173604,
13.7748,0,0,0.0022597,0,0.00177726,
14.2532,0,0,0.00595549,0,0.00184176,
14.7709,0,0,0.0108048,0,0.00191993,
15.3312,0,0,0.0152846,0,0.00199696,
15.9377,0,0,0.0182712,0,0.00206005,
16.594,0,0,0.0193505,0,0.00210322,
17.3044,0,0,0.0187451,0,0.00212769,
18.0733,0,0,0.0170418,0,0.00213898,
18.9056,0,0,0.0148845,0,0.00214332,
19.8064,0,0,0.0127638,0,0.00214529,
20.7816,0,0,0.0109673,0,0.00214757,
21.8371,0,0,0.00962754,0,0.00215143,
22.9796,0,0,0.00874939,0,0.00215709,
24.2163,0,0,0.00821741,0,0.00216413,
25.5551,0,0,0.00784928,0,0.00217172,
27.0042,0,0,0.0074893,0,0.00217918,
28.5729,0,0,0.00706185,0,0.00218642,
30.271,0,0,0.00655725,0,0.0021938,
32.1091,0,0,0.00598826,0,0.00220185,
34.0989,0,0,0.00536301,0,0.00221097,
36.2529,0,0,0.00467534,0,0.0022212,
38.5845,0,0,0.00391939,0,0.00223245,
41.1085,0,0,0.00312713,0,0.00224446,
43.8407,0,0,0.00213687,0,0.00225492,
46.7983,0,0,0.00110664,0,0.00226156,
50,0,0,0.00204335,0,0.00227768,

