7b33caff880545e86866a8a45e5572e7154bfa2b 
X,Z,x_velocity,cp,uw_b,cf,
1,0,0,-0.225886,0,0,
1,9,0,-0.130245,0,0,
1,8.99969,0.0154047,-0.130245,2.85936e-10,0,
1,8.99934,0.0328813,-0.130245,1.33654e-08,0,
1,8.99894,0.0527266,-0.130245,1.84364e-07,0,
1,8.99848,0.0752543,-0.130245,1.35154e-06,0,
1,8.99797,0.100777,-0.130245,6.75515e-06,0,
1,8.99739,0.129492,-0.130245,2.55686e-05,0,
1,8.99672,0.161204,-0.130245,7.57482e-05,0,
1,8.99597,0.194976,-0.130245,0.000176105,0,
1,8.99512,0.229158,-0.130244,0.000324613,0,
1,8.99416,0.262093,-0.130244,0.000492744,0,
1,8.99306,0.292806,-0.130244,0.000651069,0,
1,8.99182,0.321121,-0.130244,0.000778555,0,
1,8.99041,0.347179,-0.130243,0.000884125,0,
1,8.98881,0.37114,-0.130243,0.00097131,0,
1,8.98699,0.39322,-0.130242,0.00104245,0,
1,8.98494,0.413708,-0.130242,0.00109839,0,
1,8.98261,0.432913,-0.130241,0.00114118,0,
1,8.97996,0.451077,-0.13024,0.00117703,0,
1,8.97696,0.468371,-0.130239,0.00120673,0,
1,8.97356,0.484938,-0.130237,0.00123157,0,
1,8.9697,0.500894,-0.130236,0.00125249,0,
1,8.96533,0.51634,-0.130234,0.00127022,0,
1,8.96038,0.531357,-0.130232,0.00128526,0,
1,8.95476,0.546016,-0.13023,0.001298,0,
1,8.9484,0.560376,-0.130227,0.00130868,0,
1,8.9412,0.574486,-0.130225,0.00131748,0,
1,8.93303,0.588391,-0.130222,0.00132452,0,
1,8.92379,0.602127,-0.130219,0.00132982,0,
1,8.91333,0.615726,-0.130215,0.00133342,0,
1,8.90149,0.629215,-0.130212,0.00133527,0,
1,8.8881,0.64262,-0.130209,0.00133534,0,
1,8.87295,0.655962,-0.130206,0.00133353,0,
1,8.85584,0.669261,-0.130203,0.00132977,0,
1,8.83651,0.682536,-0.130202,0.00132393,0,
1,8.81469,0.695805,-0.130202,0.00131589,0,
1,8.79007,0.70909,-0.130203,0.00130548,0,
1,8.76232,0.722412,-0.130207,0.00129252,0,
1,8.73107,0.735796,-0.130214,0.00127679,0,
1,8.69591,0.749271,-0.130226,0.001258,0,
1,8.6564,0.762875,-0.130244,0.00123581,0,
1,8.61206,0.776652,-0.130269,0.0012098,0,
1,8.56236,0.79066,-0.130304,0.00117963,0,
1,8.50675,0.804976,-0.130353,0.00114643,0,
1,8.44464,0.819738,-0.130419,0.00110614,0,
1,8.3754,0.835166,-0.130504,0.00105461,0,
1,8.29839,0.851508,-0.130617,0.000991398,0,
1,8.21296,0.869008,-0.130764,0.000911994,0,
1,8.11843,0.887859,-0.130949,0.000811168,0,
1,8.01417,0.908058,-0.131188,0.000685481,0,
1,7.89956,0.92916,-0.131476,0.000538412,0,
1,7.77403,0.950036,-0.131852,0.000388484,0,
1,7.63711,0.969075,-0.132302,0.000204681,0,
1,7.48842,0.983951,-0.132833,7.58051e-05,0,
1,7.32773,0.992732,-0.133471,1.81388e-05,0,
1,7.15495,0.995909,-0.134213,1.78973e-06,0,
1,6.97022,0.995962,-0.135072,2.29341e-08,0,
1,6.77388,0.995344,-0.136065,3.68893e-09,0,
1,6.56652,0.995228,-0.137206,9.70802e-09,0,
1,6.34896,0.995683,-0.13851,1.24732e-08,0,
1,6.12229,0.996411,-0.139989,1.40674e-08,0,
1,5.88784,0.99721,-0.141657,1.49056e-08,0,
1,5.64716,0.998044,-0.143528,1.58649e-08,0,
1,5.40194,0.998945,-0.14561,1.72023e-08,0,
1,5.15407,0.999938,-0.147911,1.88881e-08,0,
1,4.90545,1.00103,-0.150432,2.06778e-08,0,
1,4.65805,1.00223,-0.15317,2.25881e-08,0,
1,4.41376,1.00353,-0.156118,2.45766e-08,0,
1,4.17441,1.0049,-0.159262,2.64128e-08,0,
1,3.94163,1.0063,-0.16258,2.7937e-08,0,
1,3.7169,1.00768,-0.166047,2.97644e-08,0,
1,3.50146,1.0091,-0.169628,3.38388e-08,0,
1,3.29629,1.01089,-0.173291,4.21822e-08,0,
1,3.10217,1.01341,-0.177003,5.29317e-08,0,
1,2.91959,1.01646,-0.180737,9.66899e-08,0,
1,2.74885,1.01858,-0.184448,9.33193e-07,0,
1,2.59002,1.01736,-0.188076,-6.41022e-06,0,
1,2.44299,1.01109,-0.191556,-5.30231e-05,0,
1,2.30752,0.99998,-0.194824,-0.000151503,0,
1,2.18321,0.985485,-0.197822,-0.000287836,0,
1,2.06959,0.96919,-0.200582,-0.000405403,0,
1,1.9661,0.952365,-0.203086,-0.000507485,0,
1,1.87215,0.935939,-0.2053,-0.000602716,0,
1,1.78711,0.920417,-0.207262,-0.000686571,0,
1,1.71033,0.905957,-0.208988,-0.000758965,0,
1,1.64119,0.892524,-0.2105,-0.000821419,0,
1,1.57905,0.880007,-0.211821,-0.000876121,0,
1,1.52332,0.868275,-0.21297,-0.000925221,0,
1,1.47342,0.85722,-0.213972,-0.000970959,0,
1,1.42882,0.846755,-0.214827,-0.00100442,0,
1,1.389,0.836797,-0.215547,-0.00102901,0,
1,1.35351,0.827282,-0.216169,-0.00105192,0,
1,1.3219,0.818175,-0.216701,-0.00107245,0,
1,1.29378,0.809454,-0.217157,-0.00109037,0,
1,1.26878,0.801111,-0.217546,-0.00110572,0,
1,1.24659,0.79314,-0.217879,-0.00111889,0,
1,1.22689,0.785536,-0.218164,-0.00112998,0,
1,1.2092,0.77821,-0.21841,-0.00113798,0,
1,1.1932,0.771112,-0.218623,-0.00114357,0,
1,1.1787,0.764229,-0.218809,-0.00114742,0,
1,1.16554,0.757539,-0.21897,-0.00115042,0,
1,1.15357,0.751011,-0.219109,-0.00115442,0,
1,1.14266,0.744601,-0.21923,-0.00116274,0,
1,1.13268,0.738241,-0.219335,-0.00117955,0,
1,1.12354,0.731839,-0.219426,-0.0012107,0,
1,1.11514,0.725272,-0.219507,-0.00126326,0,
1,1.10739,0.71839,-0.219582,-0.00134515,0,
1,1.10022,0.711022,-0.219653,-0.00146424,0,
1,1.09357,0.702994,-0.219725,-0.00162724,0,
1,1.08738,0.694164,-0.2198,-0.00183809,0,
1,1.0816,0.684455,-0.219881,-0.00209657,0,
1,1.07618,0.673882,-0.219969,-0.00239746,0,
1,1.07107,0.662547,-0.220063,-0.00273104,0,
1,1.06626,0.65062,-0.220162,-0.00308499,0,
1,1.06169,0.638293,-0.220266,-0.00344667,0,
1,1.05735,0.62575,-0.220373,-0.00380511,0,
1,1.05321,0.613147,-0.220483,-0.00415194,0,
1,1.04925,0.600605,-0.220595,-0.00448144,0,
1,1.04544,0.588211,-0.220707,-0.00479016,0,
1,1.04177,0.576024,-0.220819,-0.00507639,0,
1,1.03822,0.56408,-0.220932,-0.00533959,0,
1,1.03478,0.552398,-0.221043,-0.00558003,0,
1,1.03144,0.540988,-0.221154,-0.00579845,0,
1,1.02818,0.529847,-0.221264,-0.00599586,0,
1,1.025,0.518971,-0.221373,-0.00617338,0,
1,1.02188,0.508351,-0.221482,-0.00633218,0,
1,1.01882,0.497975,-0.221589,-0.0064734,0,
1,1.01581,0.487833,-0.221695,-0.0065983,0,
1,1.01284,0.47791,-0.2218,-0.00670743,0,
1,1.00988,0.46809,-0.221905,-0.00680263,0,
1,1.00688,0.458256,-0.222012,-0.00688607,0,
1,1.00384,0.4484,-0.22212,-0.00695797,0,
1,1.00076,0.438509,-0.222229,-0.00701755,0,
1,0.997615,0.428568,-0.22234,-0.00706483,0,
1,0.99441,0.418553,-0.222452,-0.00709946,0,
1,0.991131,0.408442,-0.222565,-0.00712163,0,
1,0.987768,0.398207,-0.22268,-0.0071312,0,
1,0.984308,0.387821,-0.222796,-0.00712784,0,
1,0.980739,0.377252,-0.222914,-0.00711107,0,
1,0.977045,0.366468,-0.223033,-0.00708031,0,
1,0.973211,0.355432,-0.223155,-0.00703479,0,
1,0.969219,0.344105,-0.22328,-0.00697358,0,
1,0.965047,0.332443,-0.223406,-0.00689556,0,
1,0.960675,0.320401,-0.223535,-0.00679939,0,
1,0.956077,0.307926,-0.223667,-0.00668275,0,
1,0.951224,0.294964,-0.223801,-0.00654408,0,
1,0.946088,0.281461,-0.223938,-0.00638128,0,
1,0.940633,0.267372,-0.224079,-0.0061931,0,
1,0.934823,0.252658,-0.224224,-0.0059773,0,
1,0.928616,0.237288,-0.224372,-0.00573109,0,
1,0.921967,0.22124,-0.224522,-0.00545234,0,
1,0.914826,0.204501,-0.224675,-0.00513917,0,
1,0.907141,0.187079,-0.22483,-0.00479025,0,
1,0.898852,0.169005,-0.224986,-0.00440511,0,
1,0.889898,0.150346,-0.225143,-0.0039846,0,
1,0.880212,0.131222,-0.225299,-0.00353162,0,
1,0.869723,0.111831,-0.225454,-0.00305206,0,
1,0.858358,0.0924817,-0.22561,-0.00255649,0,
1,0.846039,0.0736437,-0.225767,-0.00206245,0,
1,0.83269,0.0559782,-0.225928,-0.00159639,0,
1,0.818232,0.0402909,-0.226095,-0.00119348,0,
1,0.802744,0.0273726,-0.22626,-0.000879518,0,
1,0.78635,0.0174469,-0.22643,-0.000653854,0,
1,0.768969,0.0100152,-0.226596,-0.000502814,0,
1,0.75053,0.00434505,-0.226754,-0.000409115,0,
1,0.730977,-0.000229318,-0.226896,-0.000356088,0,
1,0.710271,-0.00419321,-0.22702,-0.000329763,0,
1,0.688397,-0.00785917,-0.227125,-0.000319798,0,
1,0.66536,-0.0114132,-0.227213,-0.000319692,0,
1,0.641194,-0.014972,-0.227284,-0.000322752,0,
1,0.615961,-0.0186056,-0.227337,-0.000325614,0,
1,0.589754,-0.022342,-0.227373,-0.000325761,0,
1,0.562692,-0.0261755,-0.22739,-0.000321818,0,
1,0.534925,-0.0300755,-0.227388,-0.000313239,0,
1,0.506624,-0.0339931,-0.227363,-0.000300028,0,
1,0.477982,-0.0378687,-0.227317,-0.000282526,0,
1,0.449206,-0.0416375,-0.227247,-0.000261269,0,
1,0.420509,-0.045233,-0.227155,-0.000236887,0,
1,0.392107,-0.0485902,-0.227042,-0.000210044,0,
1,0.364206,-0.0516467,-0.226913,-0.000181399,0,
1,0.337003,-0.0543439,-0.226771,-0.000151568,0,
1,0.310673,-0.0566268,-0.226621,-0.000121098,0,
1,0.28537,-0.0584444,-0.226468,-9.04617e-05,0,
1,0.26122,-0.0597489,-0.226318,-6.00738e-05,0,
1,0.238324,-0.0604964,-0.226175,-3.03075e-05,0,
1,0.21675,-0.060648,-0.226046,-1.53844e-06,0,
1,0.196544,-0.0601719,-0.225932,2.58054e-05,0,
1,0.177724,-0.0590481,-0.225838,5.12084e-05,0,
1,0.160284,-0.057273,-0.225765,7.40699e-05,0,
1,0.144202,-0.054865,-0.225712,9.37544e-05,0,
1,0.129436,-0.0518685,-0.225678,0.000109678,0,
1,0.115935,-0.0483548,-0.225662,0.000121407,0,
1,0.103636,-0.044419,-0.22566,0.000128727,0,
1,0.0924701,-0.0401732,-0.225669,0.00013166,0,
1,0.0823633,-0.035737,-0.225687,0.000130496,0,
1,0.0732406,-0.0312281,-0.225709,0.000125724,0,
1,0.0650269,-0.026753,-0.225733,0.000117958,0,
1,0.057648,-0.0224003,-0.225759,0.000107861,0,
1,0.0510323,-0.0182365,-0.225783,9.60802e-05,0,
1,0.0451115,-0.0143057,-0.225805,8.32055e-05,0,
1,0.0398209,-0.0106321,-0.225824,6.97557e-05,0,
1,0.0351001,-0.0072253,-0.225841,5.61899e-05,0,
1,0.0308929,-0.00408939,-0.225854,4.29611e-05,0,
1,0.0271475,-0.00123407,-0.225864,3.06229e-05,0,
1,0.0238164,0.00131184,-0.225872,1.99302e-05,0,
1,0.0208562,0.00349341,-0.225877,1.14324e-05,0,
1,0.0182274,0.0052395,-0.22588,5.57139e-06,0,
1,0.0158944,0.00649262,-0.225882,2.22093e-06,0,
1,0.0138249,0.00724677,-0.225884,6.67179e-07,0,
1,0.0119898,0.00755676,-0.225884,9.49851e-08,0,
1,0.0103632,0.00751434,-0.225885,-5.63916e-08,0,
1,0.00892169,0.0072165,-0.225885,-6.66992e-08,0,
1,0.00764438,0.00674696,-0.225886,-4.52087e-08,0,
1,0.00651264,0.00617066,-0.225886,-2.50693e-08,0,
1,0.00550983,0.00553554,-0.225886,-1.22912e-08,0,
1,0.00462115,0.00487584,-0.225886,-5.45639e-09,0,
1,0.00383341,0.00421554,-0.225886,-2.19974e-09,0,
1,0.0031349,0.00357096,-0.225886,-7.97331e-10,0,
1,0.00251518,0.00295283,-0.225886,-2.53982e-10,0,
1,0.00196502,0.00236772,-0.225886,-6.82826e-11,0,
1,0.00147619,0.00181924,-0.225886,-1.44414e-11,0,
1,0.00104139,0.00130883,-0.225886,-2.11148e-12,0,
1,0.000654158,0.000836409,-0.225886,-1.64206e-13,0,
1,0.000308731,0.000400829,-0.225886,-3.72787e-15,0,

4,0,0,-0.165213,0,0,
4,9,0,-0.0998826,0,0,
4,8.99969,0.0142797,-0.0998823,2.24798e-10,0,
4,8.99934,0.0304236,-0.0998825,1.04295e-08,0,
4,8.99894,0.0486939,-0.0998823,1.42413e-07,0,
4,8.9985,0.0693673,-0.0998824,1.03366e-06,0,
4,8.99799,0.0927256,-0.0998822,5.13014e-06,0,
4,8.99742,0.118971,-0.0998823,1.94214e-05,0,
4,8.99677,0.148018,-0.0998821,5.82646e-05,0,
4,8.99605,0.179184,-0.0998822,0.000139151,0,
4,8.99522,0.211112,-0.099882,0.000265884,0,
4,8.99429,0.24226,-0.0998819,0.00041817,0,
4,8.99324,0.271564,-0.0998816,0.000568052,0,
4,8.99205,0.298644,-0.0998813,0.000697589,0,
4,8.9907,0.32358,-0.0998809,0.00080173,0,
4,8.98919,0.346543,-0.0998804,0.000889466,0,
4,8.98747,0.367722,-0.0998797,0.000962436,0,
4,8.98553,0.387384,-0.0998789,0.00101989,0,
4,8.98334,0.405809,-0.0998779,0.00106614,0,
4,8.98087,0.423218,-0.0998768,0.00110519,0,
4,8.97807,0.439777,-0.0998753,0.00113833,0,
4,8.97491,0.455629,-0.0998737,0.00116684,0,
4,8.97134,0.470893,-0.0998718,0.00119171,0,
4,8.96731,0.485668,-0.0998696,0.00121366,0,
4,8.96276,0.500039,-0.099867,0.00123321,0,
4,8.95762,0.514078,-0.099864,0.00125073,0,
4,8.95182,0.527848,-0.0998606,0.00126647,0,
4,8.94526,0.541402,-0.0998568,0.0012806,0,
4,8.93787,0.554785,-0.0998524,0.00129317,0,
4,8.92952,0.568038,-0.0998476,0.0013042,0,
4,8.92011,0.581194,-0.0998422,0.00131364,0,
4,8.90949,0.594283,-0.0998362,0.0013214,0,
4,8.89751,0.607328,-0.0998298,0.00132736,0,
4,8.88402,0.620352,-0.0998228,0.00133136,0,
4,8.86881,0.633372,-0.0998154,0.00133325,0,
4,8.85169,0.646403,-0.0998077,0.00133284,0,
4,8.83242,0.659458,-0.0998,0.00132994,0,
4,8.81074,0.672549,-0.0997924,0.00132437,0,
4,8.78637,0.685688,-0.0997851,0.00131595,0,
4,8.75901,0.698887,-0.0997786,0.0013045,0,
4,8.7283,0.712161,-0.0997734,0.00128982,0,
4,8.69387,0.725529,-0.0997702,0.00127171,0,
4,8.65533,0.739015,-0.0997698,0.0012499,0,
4,8.61222,0.752651,-0.0997732,0.0012241,0,
4,8.56407,0.766478,-0.0997821,0.00119392,0,
4,8.5104,0.78055,-0.0997975,0.00115914,0,
4,8.45065,0.794943,-0.0998229,0.00112161,0,
4,8.38429,0.809812,-0.0998613,0.00107395,0,
4,8.31073,0.825393,-0.0999145,0.00101658,0,
4,8.22941,0.841948,-0.0999871,0.000946242,0,
4,8.13974,0.85974,-0.100082,0.000858551,0,
4,8.04115,0.878944,-0.100203,0.00074989,0,
4,7.93313,0.899448,-0.100353,0.00062054,0,
4,7.81519,0.920546,-0.100528,0.000479658,0,
4,7.68693,0.940772,-0.100749,0.000344676,0,
4,7.54803,0.958228,-0.101002,0.000203013,0,
4,7.39831,0.971024,-0.101302,8.92193e-05,0,
4,7.23771,0.978283,-0.101668,2.75346e-05,0,
4,7.06634,0.980954,-0.102089,4.54472e-06,0,
4,6.88453,0.981099,-0.102566,1.23551e-08,0,
4,6.69275,0.980559,-0.103102,-8.38127e-08,0,
4,6.49173,0.980263,-0.103706,2.49393e-08,0,
4,6.28238,0.980363,-0.104386,2.59641e-08,0,
4,6.06579,0.980696,-0.105151,1.48126e-08,0,
4,5.84328,0.981103,-0.106007,1.00347e-08,0,
4,5.61626,0.981524,-0.106961,8.80538e-09,0,
4,5.3863,0.981959,-0.108018,8.9153e-09,0,
4,5.15502,0.982425,-0.10918,9.56741e-09,0,
4,4.92406,0.982936,-0.110451,1.04999e-08,0,
4,4.69507,0.983503,-0.111832,1.16164e-08,0,
4,4.46961,0.984129,-0.113321,1.27725e-08,0,
4,4.24915,0.984799,-0.114915,1.36668e-08,0,
4,4.03501,0.985455,-0.116609,1.4011e-08,0,
4,3.82836,0.98603,-0.118396,1.40708e-08,0,
4,3.63018,0.98653,-0.120264,1.52662e-08,0,
4,3.44125,0.987138,-0.122202,2.06069e-08,0,
4,3.26217,0.988214,-0.124196,7.02758e-08,0,
4,3.09333,0.990049,-0.126233,6.15766e-07,0,
4,2.93497,0.992444,-0.128295,2.85074e-06,0,
4,2.78715,0.994527,-0.130366,5.51768e-06,0,
4,2.64979,0.995107,-0.132425,8.86326e-07,0,
4,2.52268,0.993264,-0.134449,-2.08855e-05,0,
4,2.40551,0.988684,-0.136412,-6.48252e-05,0,
4,2.29789,0.981631,-0.138293,-0.000129307,0,
4,2.19939,0.972708,-0.140074,-0.000208036,0,
4,2.10949,0.962614,-0.141743,-0.000293049,0,
4,2.02768,0.951981,-0.143298,-0.000376787,0,
4,1.95343,0.941322,-0.144736,-0.000453192,0,
4,1.88618,0.931008,-0.146058,-0.000520038,0,
4,1.82542,0.921223,-0.147274,-0.000566531,0,
4,1.77062,0.912024,-0.148386,-0.000604887,0,
4,1.72128,0.903458,-0.149395,-0.000639333,0,
4,1.67693,0.895556,-0.15031,-0.000669968,0,
4,1.63713,0.888313,-0.151137,-0.00069718,0,
4,1.60144,0.881708,-0.151883,-0.000721343,0,
4,1.56949,0.875709,-0.152556,-0.000742861,0,
4,1.54091,0.870277,-0.15316,-0.000762229,0,
4,1.51537,0.865357,-0.153704,-0.000779763,0,
4,1.49167,0.860755,-0.154209,-0.000795891,0,
4,1.46926,0.85638,-0.154688,-0.000811153,0,
4,1.44801,0.8522,-0.155151,-0.000823082,0,
4,1.42781,0.848176,-0.1556,-0.000829653,0,
4,1.40855,0.844281,-0.156027,-0.000835966,0,
4,1.39015,0.840499,-0.156438,-0.000840945,0,
4,1.37252,0.836817,-0.156834,-0.000844955,0,
4,1.3556,0.833218,-0.157216,-0.000848504,0,
4,1.3393,0.829684,-0.157585,-0.000852076,0,
4,1.32357,0.826199,-0.157944,-0.000856615,0,
4,1.30836,0.822743,-0.158291,-0.000862825,0,
4,1.29362,0.819293,-0.15863,-0.000871694,0,
4,1.2793,0.815823,-0.15896,-0.000884477,0,
4,1.26537,0.812303,-0.159282,-0.000902739,0,
4,1.25179,0.808696,-0.159597,-0.000928393,0,
4,1.23852,0.804958,-0.159906,-0.000963731,0,
4,1.22554,0.801037,-0.160208,-0.00101143,0,
4,1.21282,0.796871,-0.160504,-0.00107454,0,
4,1.20034,0.792391,-0.160795,-0.00115636,0,
4,1.18806,0.787522,-0.16108,-0.00126025,0,
4,1.17599,0.782185,-0.16136,-0.00138933,0,
4,1.16408,0.776306,-0.161634,-0.00154612,0,
4,1.15233,0.769823,-0.161902,-0.00173209,0,
4,1.14073,0.762695,-0.162165,-0.0019473,0,
4,1.12925,0.754904,-0.162423,-0.00219021,0,
4,1.11788,0.746461,-0.162675,-0.00245773,0,
4,1.10661,0.737401,-0.162923,-0.00274546,0,
4,1.09543,0.72778,-0.163165,-0.00304815,0,
4,1.08432,0.717664,-0.163402,-0.00336019,0,
4,1.07328,0.707124,-0.163635,-0.00367604,0,
4,1.0623,0.696234,-0.163864,-0.00399061,0,
4,1.05136,0.68506,-0.164088,-0.00429937,0,
4,1.04044,0.673647,-0.164308,-0.00459867,0,
4,1.0295,0.66203,-0.164525,-0.00488567,0,
4,1.01855,0.650253,-0.164739,-0.00515766,0,
4,1.00757,0.638359,-0.164949,-0.00541218,0,
4,0.996544,0.626382,-0.165156,-0.00564753,0,
4,0.98547,0.614353,-0.165359,-0.00586169,0,
4,0.974334,0.602299,-0.165559,-0.00605329,0,
4,0.963124,0.590241,-0.165756,-0.00622101,0,
4,0.951826,0.578202,-0.165948,-0.00636385,0,
4,0.940428,0.566198,-0.166144,-0.00650058,0,
4,0.928915,0.554174,-0.166308,-0.00660151,0,
4,0.917272,0.54198,-0.166428,-0.00667299,0,
4,0.905481,0.529482,-0.166541,-0.00675149,0,
4,0.893524,0.516602,-0.16665,-0.00683729,0,
4,0.881383,0.50329,-0.166762,-0.00693046,0,
4,0.869035,0.489507,-0.166875,-0.00703092,0,
4,0.856459,0.475218,-0.166993,-0.00713837,0,
4,0.843629,0.460395,-0.167114,-0.00725232,0,
4,0.830518,0.44501,-0.167239,-0.0073721,0,
4,0.817097,0.429042,-0.167367,-0.00749687,0,
4,0.803334,0.412472,-0.167498,-0.00762568,0,
4,0.789195,0.395285,-0.16763,-0.00775745,0,
4,0.774643,0.377471,-0.167764,-0.00789094,0,
4,0.759639,0.359021,-0.167898,-0.00802472,0,
4,0.744138,0.339937,-0.168032,-0.00815702,0,
4,0.728096,0.320226,-0.168167,-0.00828568,0,
4,0.711463,0.299912,-0.168303,-0.00840815,0,
4,0.694189,0.279033,-0.16844,-0.00852125,0,
4,0.676218,0.257642,-0.16858,-0.00862065,0,
4,0.657495,0.235797,-0.16872,-0.00870166,0,
4,0.637962,0.213553,-0.168862,-0.00875997,0,
4,0.617561,0.190955,-0.168998,-0.0087921,0,
4,0.596848,0.168649,-0.169122,-0.00879466,0,
4,0.576557,0.147388,-0.16923,-0.00876707,0,
4,0.556564,0.127039,-0.169321,-0.00871071,0,
4,0.536763,0.107497,-0.169399,-0.00862632,0,
4,0.517057,0.0887121,-0.169477,-0.0085142,0,
4,0.497368,0.0707146,-0.169573,-0.00837502,0,
4,0.477632,0.0536162,-0.169713,-0.0082115,0,
4,0.457804,0.0375684,-0.169907,-0.00802936,0,
4,0.437857,0.0226716,-0.170157,-0.0078399,0,
4,0.417786,0.00883847,-0.170297,-0.00764935,0,
4,0.397605,-0.00432764,-0.170207,-0.00725746,0,
4,0.377348,-0.0171274,-0.170052,-0.00693072,0,
4,0.357066,-0.0295618,-0.169916,-0.0066036,0,
4,0.336828,-0.0415776,-0.169755,-0.00627048,0,
4,0.316717,-0.0531141,-0.169585,-0.00593072,0,
4,0.296825,-0.0641167,-0.169403,-0.00558487,0,
4,0.27725,-0.0745427,-0.169211,-0.00523505,0,
4,0.258095,-0.0843612,-0.169011,-0.0048838,0,
4,0.239458,-0.0935532,-0.168804,-0.00453384,0,
4,0.221432,-0.102111,-0.168591,-0.00418792,0,
4,0.2041,-0.110037,-0.168374,-0.00384867,0,
4,0.187537,-0.117342,-0.168155,-0.00351852,0,
4,0.171798,-0.124044,-0.167935,-0.00319958,0,
4,0.156928,-0.130167,-0.167717,-0.00289367,0,
4,0.142956,-0.13574,-0.167502,-0.0026022,0,
4,0.129894,-0.140792,-0.167293,-0.00232624,0,
4,0.117744,-0.145354,-0.167091,-0.00206649,0,
4,0.106492,-0.149458,-0.166898,-0.00182331,0,
4,0.0961173,-0.153135,-0.166715,-0.00159677,0,
4,0.0865883,-0.156413,-0.166543,-0.00138669,0,
4,0.0778675,-0.15932,-0.166383,-0.00119267,0,
4,0.0699123,-0.16188,-0.166236,-0.00101415,0,
4,0.062677,-0.164115,-0.166101,-0.000850443,0,
4,0.056114,-0.166044,-0.165979,-0.000700761,0,
4,0.0501747,-0.167685,-0.165869,-0.000564277,0,
4,0.0448114,-0.16905,-0.165771,-0.000440131,0,
4,0.039977,-0.170148,-0.165685,-0.000327468,0,
4,0.0356266,-0.170987,-0.165608,-0.000225453,0,
4,0.0317171,-0.171568,-0.165541,-0.000133294,0,
4,0.0282081,-0.171889,-0.165483,-5.02592e-05,0,
4,0.0250617,-0.17194,-0.165432,2.43003e-05,0,
4,0.0222427,-0.171705,-0.165389,9.09281e-05,0,
4,0.0197189,-0.171157,-0.165353,0.000150025,0,
4,0.0174603,-0.170256,-0.165322,0.000201796,0,
4,0.0154398,-0.168945,-0.165297,0.000246162,0,
4,0.0136326,-0.167137,-0.165275,0.000282621,0,
4,0.0120162,-0.164713,-0.165259,0.000310029,0,
4,0.0105703,-0.1615,-0.165245,0.000326323,0,
4,0.00927657,-0.157261,-0.165235,0.000328298,0,
4,0.00811839,-0.15169,-0.165228,0.000311954,0,
4,0.0070809,-0.14445,-0.165223,0.000274348,0,
4,0.0061507,-0.135279,-0.165219,0.000217462,0,
4,0.00531578,-0.124188,-0.165218,0.000151368,0,
4,0.00456537,-0.111597,-0.165216,9.10587e-05,0,
4,0.00388979,-0.0982268,-0.165216,4.73004e-05,0,
4,0.00328037,-0.0847996,-0.165215,2.1404e-05,0,
4,0.00272934,-0.0718086,-0.165215,8.48974e-06,0,
4,0.0022297,-0.0594967,-0.165214,2.92866e-06,0,
4,0.00177519,-0.0479379,-0.165215,8.523e-07,0,
4,0.00136016,-0.037118,-0.165214,1.96067e-07,0,
4,0.000979511,-0.0269843,-0.165215,3.13744e-08,0,
4,0.00062865,-0.0174689,-0.165213,2.67504e-09,0,
4,0.000303409,-0.00849942,-0.165215,6.51428e-11,0,

6,0,0,-0.0229939,0,0,
6,9,0,-0.0758334,0,0,
6,8.99969,0.0135296,-0.0758331,1.87233e-10,0,
6,8.99934,0.028787,-0.0758333,8.6413e-09,0,
6,8.99895,0.04601,-0.0758331,1.17157e-07,0,
6,8.9985,0.0654501,-0.0758333,8.44333e-07,0,
6,8.99801,0.087366,-0.0758331,4.1681e-06,0,
6,8.99744,0.111958,-0.0758332,1.57663e-05,0,
6,8.99681,0.139196,-0.075833,4.76475e-05,0,
6,8.99609,0.168554,-0.075833,0.000115807,0,
6,8.99529,0.198878,-0.0758328,0.000226899,0,
6,8.99438,0.228735,-0.0758328,0.00036633,0,
6,8.99336,0.257028,-0.0758325,0.000508533,0,
6,8.9922,0.283259,-0.0758323,0.000636169,0,
6,8.9909,0.307432,-0.0758319,0.000739488,0,
6,8.98944,0.329705,-0.0758316,0.000826374,0,
6,8.98779,0.35025,-0.075831,0.000899442,0,
6,8.98593,0.369316,-0.0758303,0.000957312,0,
6,8.98383,0.387162,-0.0758295,0.00100478,0,
6,8.98147,0.403994,-0.0758285,0.00104498,0,
6,8.97881,0.419979,-0.0758273,0.0010794,0,
6,8.97581,0.435255,-0.0758259,0.00110937,0,
6,8.97244,0.449942,-0.0758241,0.00113588,0,
6,8.96863,0.464141,-0.0758221,0.0011597,0,
6,8.96435,0.477936,-0.0758197,0.00118138,0,
6,8.95953,0.491402,-0.075817,0.00120131,0,
6,8.95409,0.504604,-0.0758137,0.00121977,0,
6,8.94798,0.517596,-0.07581,0.00123694,0,
6,8.94109,0.53043,-0.0758057,0.00125291,0,
6,8.93334,0.543146,-0.0758007,0.00126769,0,
6,8.92463,0.555784,-0.075795,0.00128123,0,
6,8.91482,0.568375,-0.0757886,0.00129343,0,
6,8.90379,0.580949,-0.0757813,0.00130414,0,
6,8.89139,0.59353,-0.0757731,0.00131316,0,
6,8.87746,0.606139,-0.0757639,0.00132026,0,
6,8.86181,0.618792,-0.0757537,0.00132519,0,
6,8.84423,0.631505,-0.0757426,0.00132767,0,
6,8.82452,0.644286,-0.0757304,0.00132744,0,
6,8.80241,0.657147,-0.0757171,0.00132422,0,
6,8.77763,0.670094,-0.0757029,0.00131776,0,
6,8.74989,0.683135,-0.0756875,0.0013078,0,
6,8.71885,0.696278,-0.0756712,0.0012941,0,
6,8.68417,0.709535,-0.0756541,0.00127644,0,
6,8.64545,0.722922,-0.0756363,0.00125456,0,
6,8.60229,0.736459,-0.0756179,0.00122816,0,
6,8.55423,0.750177,-0.0755995,0.00119693,0,
6,8.50082,0.764116,-0.075581,0.00116105,0,
6,8.44155,0.778344,-0.0755639,0.00112034,0,
6,8.37592,0.792988,-0.075549,0.00107271,0,
6,8.30339,0.808247,-0.0755368,0.00101673,0,
6,8.22344,0.824383,-0.0755271,0.00094949,0,
6,8.13555,0.841696,-0.075521,0.00086724,0,
6,8.0392,0.860435,-0.0755142,0.000766553,0,
6,7.93391,0.880593,-0.0755071,0.000647191,0,
6,7.81927,0.901581,-0.0754882,0.000515718,0,
6,7.6949,0.922019,-0.0754642,0.000387212,0,
6,7.56054,0.940069,-0.0754245,0.000271403,0,
6,7.41603,0.954122,-0.0753749,0.000139923,0,
6,7.26132,0.963198,-0.0753221,5.55602e-05,0,
6,7.09653,0.967551,-0.0752532,1.42122e-05,0,
6,6.92195,0.968638,-0.0751698,8.14157e-07,0,
6,6.73802,0.968217,-0.0750645,-9.69168e-07,0,
6,6.5454,0.967522,-0.0749348,-4.49051e-07,0,
6,6.34489,0.967055,-0.0747774,-1.21336e-07,0,
6,6.1375,0.966833,-0.0745895,-3.08606e-08,0,
6,5.92439,0.966719,-0.0743673,-1.1341e-08,0,
6,5.70687,0.966603,-0.0741065,-6.57324e-09,0,
6,5.48633,0.966442,-0.0738024,-5.24343e-09,0,
6,5.26426,0.966234,-0.07345,-5.0966e-09,0,
6,5.04218,0.965988,-0.0730444,-5.40609e-09,0,
6,4.82159,0.965717,-0.0725806,-5.87331e-09,0,
6,4.60398,0.965432,-0.0720546,-6.44615e-09,0,
6,4.39071,0.965131,-0.0714627,-7.30225e-09,0,
6,4.18307,0.964784,-0.0708025,-8.78399e-09,0,
6,3.98218,0.964327,-0.0700729,-1.11097e-08,0,
6,3.78902,0.963705,-0.0692744,-1.39258e-08,0,
6,3.60438,0.96294,-0.0684096,-1.78607e-08,0,
6,3.42888,0.962207,-0.0674827,-3.67967e-08,0,
6,3.26296,0.961799,-0.0664992,-8.99725e-08,0,
6,3.10691,0.961956,-0.0654647,-7.07301e-08,0,
6,2.96084,0.962651,-0.0643857,2.06894e-07,0,
6,2.82473,0.96349,-0.0632709,-3.52399e-08,0,
6,2.69844,0.963843,-0.0621319,-3.79765e-06,0,
6,2.58172,0.963095,-0.0609826,-1.55788e-05,0,
6,2.47424,0.960851,-0.0598379,-3.90844e-05,0,
6,2.37559,0.957012,-0.0587118,-7.5688e-05,0,
6,2.28535,0.951728,-0.0576171,-0.000124334,0,
6,2.20301,0.945304,-0.056564,-0.000182185,0,
6,2.1281,0.938099,-0.055561,-0.000245496,0,
6,2.06009,0.930466,-0.0546138,-0.000310296,0,
6,1.99849,0.922719,-0.0537252,-0.000372724,0,
6,1.9428,0.915116,-0.052899,-0.000429635,0,
6,1.89255,0.907851,-0.05213,-0.000480482,0,
6,1.84728,0.901006,-0.0514258,-0.000521566,0,
6,1.80655,0.894579,-0.0507853,-0.000551862,0,
6,1.76996,0.888574,-0.0501942,-0.000579648,0,
6,1.73712,0.88301,-0.049657,-0.000605086,0,
6,1.70768,0.877861,-0.0491653,-0.000628631,0,
6,1.67998,0.872897,-0.0486987,-0.000651451,0,
6,1.65329,0.868021,-0.0482424,-0.000673741,0,
6,1.62754,0.863232,-0.0477968,-0.000695459,0,
6,1.60265,0.858527,-0.0473607,-0.00071667,0,
6,1.57854,0.853906,-0.0469338,-0.000737325,0,
6,1.55515,0.849367,-0.0465151,-0.000757464,0,
6,1.53242,0.844905,-0.0461042,-0.000777109,0,
6,1.5103,0.840515,-0.0457007,-0.000796258,0,
6,1.48874,0.836185,-0.0453043,-0.000814907,0,
6,1.46769,0.8319,-0.0449143,-0.000833163,0,
6,1.44712,0.827648,-0.0445295,-0.000851332,0,
6,1.42698,0.823435,-0.044148,-0.000869965,0,
6,1.40725,0.819296,-0.0437677,-0.000889572,0,
6,1.38788,0.815279,-0.0433887,-0.000910398,0,
6,1.36886,0.811407,-0.0430119,-0.000931302,0,
6,1.35015,0.807626,-0.0426489,-0.000937578,0,
6,1.33173,0.803862,-0.0422948,-0.000945366,0,
6,1.31357,0.800084,-0.0419395,-0.000956074,0,
6,1.29566,0.796279,-0.0415884,-0.000968594,0,
6,1.27797,0.792423,-0.0412391,-0.000983968,0,
6,1.26048,0.788494,-0.0408922,-0.00100341,0,
6,1.24318,0.784459,-0.0405472,-0.00102847,0,
6,1.22605,0.780282,-0.0402041,-0.00106099,0,
6,1.20907,0.775919,-0.0398628,-0.00110314,0,
6,1.19223,0.771315,-0.0395231,-0.0011573,0,
6,1.17551,0.766414,-0.0391851,-0.00122601,0,
6,1.1589,0.761151,-0.0388486,-0.00131178,0,
6,1.14238,0.75546,-0.0385137,-0.00141686,0,
6,1.12595,0.749281,-0.0381805,-0.00154292,0,
6,1.10959,0.742561,-0.037849,-0.00169076,0,
6,1.09329,0.735265,-0.0375198,-0.00186008,0,
6,1.07704,0.727377,-0.037193,-0.00204934,0,
6,1.06081,0.718898,-0.0368688,-0.00225577,0,
6,1.04459,0.709849,-0.0365474,-0.00247565,0,
6,1.02836,0.700273,-0.0362288,-0.00270449,0,
6,1.01211,0.690224,-0.0359139,-0.00293734,0,
6,0.99583,0.679764,-0.0356016,-0.0031692,0,
6,0.97951,0.668959,-0.035295,-0.00339645,0,
6,0.963136,0.657866,-0.0349884,-0.00362826,0,
6,0.946694,0.646443,-0.0346762,-0.00383393,0,
6,0.930172,0.634584,-0.0343643,-0.00404383,0,
6,0.913555,0.622222,-0.034055,-0.00426075,0,
6,0.896829,0.609303,-0.0337493,-0.00448656,0,
6,0.879979,0.595789,-0.0334484,-0.00472263,0,
6,0.862989,0.581654,-0.0331528,-0.00497001,0,
6,0.845842,0.566891,-0.0328634,-0.00522954,0,
6,0.828521,0.551513,-0.032581,-0.00550196,0,
6,0.811008,0.535536,-0.0323076,-0.00578296,0,
6,0.793282,0.518968,-0.0320452,-0.00607025,0,
6,0.775322,0.501818,-0.0317946,-0.00636189,0,
6,0.757107,0.484102,-0.0315566,-0.00665541,0,
6,0.738612,0.465845,-0.031332,-0.00694776,0,
6,0.719813,0.447085,-0.031122,-0.00723536,0,
6,0.700681,0.427873,-0.0309275,-0.00751415,0,
6,0.681188,0.408263,-0.0307482,-0.00777966,0,
6,0.661304,0.388312,-0.0305821,-0.00802718,0,
6,0.640996,0.368065,-0.0304256,-0.00825161,0,
6,0.620228,0.347558,-0.0302754,-0.00844746,0,
6,0.598964,0.326842,-0.0301344,-0.00860863,0,
6,0.577166,0.306029,-0.0300188,-0.00872884,0,
6,0.554791,0.28536,-0.0299635,-0.00880359,0,
6,0.531799,0.265227,-0.0300123,-0.00883134,0,
6,0.508144,0.246066,-0.0301865,-0.00881589,0,
6,0.48378,0.228075,-0.0304295,-0.00875667,0,
6,0.459585,0.2115,-0.030378,-0.00846305,0,
6,0.436695,0.196539,-0.0301466,-0.00815741,0,
6,0.414961,0.182853,-0.0299907,-0.00787514,0,
6,0.394252,0.170266,-0.0298128,-0.0075821,0,
6,0.374445,0.15863,-0.0296419,-0.00728598,0,
6,0.355433,0.147829,-0.0294717,-0.00698685,0,
6,0.337122,0.137764,-0.0293004,-0.00668541,0,
6,0.319433,0.12835,-0.0291264,-0.00638262,0,
6,0.3023,0.119517,-0.0289479,-0.00607924,0,
6,0.28567,0.111209,-0.0287638,-0.00577598,0,
6,0.269507,0.103377,-0.0285728,-0.00547353,0,
6,0.253785,0.0959825,-0.028374,-0.00517266,0,
6,0.238493,0.0889955,-0.0281668,-0.00487424,0,
6,0.223631,0.0823915,-0.0279507,-0.00457922,0,
6,0.209207,0.076151,-0.0277259,-0.00428866,0,
6,0.195237,0.0702579,-0.0274928,-0.00400371,0,
6,0.181744,0.0646991,-0.0272521,-0.00372553,0,
6,0.168754,0.0594626,-0.0270052,-0.00345532,0,
6,0.156292,0.0545375,-0.0267536,-0.00319421,0,
6,0.144384,0.049913,-0.0264993,-0.00294324,0,
6,0.133052,0.045578,-0.0262444,-0.00270333,0,
6,0.122315,0.0415211,-0.0259913,-0.00247525,0,
6,0.112183,0.0377304,-0.0257424,-0.00225956,0,
6,0.102665,0.0341934,-0.0254998,-0.00205665,0,
6,0.0937597,0.0308971,-0.0252657,-0.0018667,0,
6,0.0854609,0.0278285,-0.0250418,-0.00168972,0,
6,0.077757,0.0249741,-0.0248298,-0.00152553,0,
6,0.0706309,0.0223207,-0.0246306,-0.00137384,0,
6,0.0640611,0.019855,-0.0244451,-0.00123419,0,
6,0.0580229,0.0175641,-0.0242737,-0.00110607,0,
6,0.0524888,0.0154357,-0.0241165,-0.00098886,0,
6,0.0474296,0.0134575,-0.0239734,-0.000881922,0,
6,0.042815,0.011618,-0.0238439,-0.000784574,0,
6,0.0386145,0.00990631,-0.0237274,-0.000696129,0,
6,0.0347975,0.00831194,-0.0236232,-0.000615903,0,
6,0.0313344,0.00682504,-0.0235306,-0.000543228,0,
6,0.0281964,0.00543631,-0.0234487,-0.000477461,0,
6,0.0253561,0.00413699,-0.0233766,-0.000417989,0,
6,0.0227875,0.00291884,-0.0233135,-0.000364234,0,
6,0.0204662,0.00177412,-0.0232585,-0.000315654,0,
6,0.0183694,0.000695592,-0.023211,-0.00027175,0,
6,0.016476,-0.0003235,-0.0231699,-0.000232053,0,
6,0.0147664,-0.00128945,-0.0231351,-0.000196112,0,
6,0.0132228,-0.00220796,-0.0231051,-0.000163553,0,
6,0.0118288,-0.00308384,-0.0230805,-0.000134014,0,
6,0.0105693,-0.0039206,-0.0230595,-0.000107192,0,
6,0.00943073,-0.00471941,-0.0230432,-8.28651e-05,0,
6,0.00840063,-0.00547724,-0.0230293,-6.09434e-05,0,
6,0.00746774,-0.00618367,-0.0230198,-4.15693e-05,0,
6,0.00662185,-0.00681618,-0.0230115,-2.52217e-05,0,
6,0.00585371,-0.00733627,-0.0230073,-1.26608e-05,0,
6,0.00515491,-0.00769257,-0.0230028,-4.45627e-06,0,
6,0.00451788,-0.00783765,-0.023002,-2.98622e-07,0,
6,0.00393573,-0.00775115,-0.0229994,1.06563e-06,0,
6,0.00340221,-0.00744736,-0.0230001,1.07998e-06,0,
6,0.00291168,-0.0069623,-0.0229979,7.09691e-07,0,
6,0.00245897,-0.0063363,-0.0229993,3.71143e-07,0,
6,0.00203939,-0.00560405,-0.0229969,1.61212e-07,0,
6,0.00164864,-0.00479197,-0.0229989,5.7461e-08,0,
6,0.00128281,-0.0039188,-0.0229959,1.58804e-08,0,
6,0.000938257,-0.0029971,-0.0229987,3.00691e-09,0,
6,0.000611645,-0.00203459,-0.022995,2.98694e-10,0,
6,0.000299862,-0.00103519,-0.0229986,8.22804e-12,0,

10,0.000296632,0.00824484,0.03022,-4.62929e-11,0,
10,0.000596102,0.0165655,0.0302207,-1.71559e-09,0,
10,0.000900397,0.0250169,0.03022,-1.7442e-08,0,
10,0.00121153,0.0336547,0.0302206,-9.37258e-08,0,
10,0.00153158,0.0425345,0.03022,-3.5058e-07,0,
10,0.00186264,0.0517107,0.0302204,-1.04236e-06,0,
10,0.00220692,0.0612346,0.0302199,-2.64606e-06,0,
10,0.00256668,0.0711494,0.0302202,-5.97597e-06,0,
10,0.00294431,0.0814831,0.0302198,-1.23013e-05,0,
10,0.00334229,0.092237,0.03022,-2.33989e-05,0,
10,0.00376326,0.103372,0.0302196,-4.14163e-05,0,
10,0.00421,0.114797,0.0302198,-6.84144e-05,0,
10,0.00468544,0.126362,0.0302193,-0.000105602,0,
10,0.00519274,0.137873,0.0302193,-0.000152585,0,
10,0.00573524,0.149118,0.0302187,-0.000207154,0,
10,0.00631651,0.1599,0.0302184,-0.000265854,0,
10,0.00694041,0.170072,0.0302175,-0.000325012,0,
10,0.00761104,0.179538,0.0302168,-0.000381623,0,
10,0.00833284,0.188263,0.0302154,-0.000433738,0,
10,0.00911058,0.196249,0.030214,-0.000480427,0,
10,0.0099494,0.203532,0.0302118,-0.000521539,0,
10,0.0108548,0.210166,0.0302094,-0.00055743,0,
10,0.0118329,0.216213,0.0302062,-0.000588729,0,
10,0.0128901,0.221737,0.0302026,-0.000616187,0,
10,0.0140333,0.226801,0.0301979,-0.000640571,0,
10,0.0152702,0.231464,0.0301926,-0.000662605,0,
10,0.0166089,0.235779,0.0301862,-0.000682948,0,
10,0.0180584,0.239794,0.0301787,-0.000702182,0,
10,0.0196282,0.243551,0.03017,-0.000720817,0,
10,0.0213288,0.247087,0.0301601,-0.000739301,0,
10,0.0231714,0.250433,0.0301485,-0.000758031,0,
10,0.0251682,0.253619,0.0301354,-0.000777363,0,
10,0.0273326,0.256668,0.0301205,-0.000797623,0,
10,0.0296789,0.259605,0.0301036,-0.000819118,0,
10,0.0322227,0.262447,0.0300845,-0.00084214,0,
10,0.0349809,0.265215,0.0300631,-0.000866976,0,
10,0.0379719,0.267922,0.030039,-0.000893915,0,
10,0.0412155,0.270587,0.0300122,-0.000923248,0,
10,0.0447333,0.273221,0.0299823,-0.000955278,0,
10,0.0485489,0.27584,0.0299491,-0.000990319,0,
10,0.0526875,0.278457,0.0299123,-0.0010287,0,
10,0.0571768,0.281084,0.0298716,-0.00107078,0,
10,0.0620466,0.283736,0.0298269,-0.00111693,0,
10,0.0673295,0.286425,0.0297777,-0.00116755,0,
10,0.0730607,0.289166,0.0297239,-0.00122307,0,
10,0.0792784,0.291974,0.0296651,-0.00128394,0,
10,0.0860241,0.294863,0.0296011,-0.00135065,0,
10,0.0933428,0.297852,0.0295316,-0.00142374,0,
10,0.101283,0.300957,0.0294566,-0.00150374,0,
10,0.109899,0.3042,0.0293757,-0.00159126,0,
10,0.119247,0.307602,0.0292889,-0.00168691,0,
10,0.12939,0.31119,0.0291961,-0.00179135,0,
10,0.140395,0.31499,0.0290974,-0.00190523,0,
10,0.152337,0.319035,0.0289927,-0.00202924,0,
10,0.165296,0.323362,0.0288821,-0.00216406,0,
10,0.179357,0.328011,0.028766,-0.00231035,0,
10,0.194615,0.333032,0.0286444,-0.0024687,0,
10,0.211171,0.338479,0.028518,-0.00263964,0,
10,0.229138,0.344417,0.0283865,-0.00282354,0,
10,0.248635,0.350919,0.0282511,-0.00302055,0,
10,0.269793,0.358071,0.0281107,-0.00323054,0,
10,0.292753,0.365974,0.0279677,-0.00345292,0,
10,0.317669,0.374743,0.0278179,-0.00368518,0,
10,0.344708,0.384502,0.0276668,-0.00392353,0,
10,0.372405,0.39479,0.0275192,-0.00415715,0,
10,0.399623,0.405205,0.0273772,-0.00437473,0,
10,0.426397,0.415747,0.0272417,-0.0045727,0,
10,0.452757,0.426416,0.0271104,-0.00475283,0,
10,0.478735,0.437219,0.0269856,-0.00491257,0,
10,0.504358,0.44817,0.0268671,-0.00505042,0,
10,0.529657,0.459289,0.0267555,-0.00516593,0,
10,0.554656,0.470589,0.0266441,-0.00525924,0,
10,0.579382,0.482078,0.0265407,-0.00532976,0,
10,0.603859,0.49376,0.026423,-0.00539101,0,
10,0.628112,0.505702,0.0263402,-0.00545382,0,
10,0.652163,0.518211,0.0263318,-0.00537708,0,
10,0.676035,0.531596,0.0263188,-0.00527112,0,
10,0.699751,0.545808,0.0262668,-0.00513518,0,
10,0.72333,0.560585,0.0261758,-0.00496962,0,
10,0.746795,0.575613,0.0260537,-0.00477739,0,
10,0.770165,0.590637,0.0259114,-0.00456297,0,
10,0.79346,0.605487,0.0257556,-0.00433137,0,
10,0.816699,0.620057,0.0255893,-0.00408747,0,
10,0.839903,0.634261,0.025413,-0.00383622,0,
10,0.863088,0.647994,0.0252245,-0.00358904,0,
10,0.886275,0.661149,0.0250235,-0.00334977,0,
10,0.909481,0.67366,0.0248132,-0.00311896,0,
10,0.932723,0.685519,0.0245953,-0.00289721,0,
10,0.956021,0.696753,0.024371,-0.00268524,0,
10,0.97939,0.707398,0.0241401,-0.00248367,0,
10,1.00285,0.717488,0.0239027,-0.0022931,0,
10,1.02641,0.727045,0.023658,-0.00211401,0,
10,1.0501,0.736091,0.0234068,-0.00194675,0,
10,1.07392,0.744648,0.0231483,-0.00179149,0,
10,1.0979,0.752753,0.0228851,-0.00164429,0,
10,1.12205,0.760427,0.0226154,-0.00150932,0,
10,1.14639,0.767673,0.0223366,-0.00138794,0,
10,1.17093,0.774496,0.02205,-0.00128019,0,
10,1.19568,0.78092,0.0217557,-0.00118651,0,
10,1.22066,0.78698,0.0214536,-0.00110661,0,
10,1.24589,0.792723,0.0211449,-0.00103955,0,
10,1.27137,0.7982,0.0208284,-0.000984053,0,
10,1.29713,0.803466,0.0205073,-0.000943738,0,
10,1.32317,0.80863,0.0201809,-0.000899883,0,
10,1.34951,0.813825,0.0198482,-0.000857003,0,
10,1.37616,0.819093,0.0195106,-0.000817267,0,
10,1.40313,0.824389,0.019165,-0.000780705,0,
10,1.43043,0.829641,0.0188116,-0.000747011,0,
10,1.45807,0.834807,0.0184499,-0.00071552,0,
10,1.48607,0.839888,0.018081,-0.00068552,0,
10,1.51444,0.844908,0.0177048,-0.000656525,0,
10,1.54318,0.849881,0.0173216,-0.000628335,0,
10,1.57231,0.854803,0.0169308,-0.000600922,0,
10,1.60184,0.859653,0.0165324,-0.000574308,0,
10,1.63178,0.864404,0.016126,-0.000548509,0,
10,1.66213,0.869031,0.0157124,-0.000523541,0,
10,1.69292,0.873514,0.0152906,-0.000499352,0,
10,1.72416,0.877848,0.0148625,-0.000475707,0,
10,1.75585,0.882065,0.0144248,-0.000449525,0,
10,1.78802,0.886214,0.0139784,-0.000420968,0,
10,1.82067,0.890316,0.0135253,-0.000393059,0,
10,1.85383,0.894354,0.0130634,-0.000364077,0,
10,1.88751,0.898305,0.0125933,-0.000334149,0,
10,1.92173,0.902146,0.0121148,-0.000303628,0,
10,1.95652,0.905852,0.0116272,-0.000272939,0,
10,1.9919,0.909398,0.0111316,-0.000242558,0,
10,2.02791,0.91276,0.0106261,-0.000213037,0,
10,2.06456,0.91592,0.0101131,-0.000184612,0,
10,2.10268,0.918916,0.00957765,-0.000156874,0,
10,2.1443,0.921837,0.00899616,-0.000130198,0,
10,2.18977,0.924631,0.00836143,-0.000104724,0,
10,2.23946,0.927218,0.00767175,-8.07628e-05,0,
10,2.29376,0.929511,0.00692158,-5.91449e-05,0,
10,2.35309,0.93143,0.0061087,-4.05648e-05,0,
10,2.4179,0.932904,0.0052291,-2.55432e-05,0,
10,2.48863,0.933888,0.00428115,-1.43589e-05,0,
10,2.56575,0.934378,0.00326273,-6.93461e-06,0,
10,2.64971,0.934429,0.00217362,-2.77882e-06,0,
10,2.74098,0.934159,0.00101379,-1.02984e-06,0,
10,2.83997,0.933746,-0.000215228,-6.46988e-07,0,
10,2.94709,0.933395,-0.00151152,-7.16473e-07,0,
10,3.06269,0.933292,-0.00287193,-7.1426e-07,0,
10,3.18706,0.933548,-0.00429257,-5.38938e-07,0,
10,3.3204,0.934169,-0.00576801,-3.1134e-07,0,
10,3.46281,0.935063,-0.00729128,-1.45044e-07,0,
10,3.61427,0.936083,-0.00885325,-6.21733e-08,0,
10,3.77463,0.937092,-0.0104429,-3.18013e-08,0,
10,3.94358,0.938008,-0.0120476,-2.25834e-08,0,
10,4.12067,0.938816,-0.0136538,-1.94722e-08,0,
10,4.30525,0.939549,-0.0152473,-1.80693e-08,0,
10,4.49655,0.94025,-0.0168144,-1.75435e-08,0,
10,4.6936,0.940946,-0.018342,-1.78708e-08,0,
10,4.89531,0.941642,-0.0198178,-1.95426e-08,0,
10,5.10047,0.942323,-0.021231,-2.40112e-08,0,
10,5.30776,0.942968,-0.0225726,-3.45176e-08,0,
10,5.51581,0.943561,-0.0238353,-5.77696e-08,0,
10,5.72323,0.944098,-0.025014,-1.08176e-07,0,
10,5.92863,0.944604,-0.0261053,-2.20939e-07,0,
10,6.13069,0.945145,-0.0271079,-4.88657e-07,0,
10,6.32816,0.945818,-0.0280226,-1.10553e-06,0,
10,6.51991,0.946653,-0.0288517,-2.1546e-06,0,
10,6.70495,0.947423,-0.0295988,-2.33616e-06,0,
10,6.88244,0.947414,-0.0302675,3.69018e-06,0,
10,7.0517,0.945401,-0.0308619,2.68122e-05,0,
10,7.21224,0.939995,-0.0313828,8.03381e-05,0,
10,7.3637,0.930312,-0.0318357,0.000173485,0,
10,7.5059,0.91639,-0.0322248,0.000297006,0,
10,7.63878,0.89882,-0.0325544,0.00040465,0,
10,7.76243,0.878707,-0.0328341,0.000523675,0,
10,7.87701,0.857815,-0.0330584,0.000645305,0,
10,7.9828,0.837604,-0.033244,0.000755707,0,
10,8.08014,0.818787,-0.0333928,0.000849838,0,
10,8.16941,0.801446,-0.0335161,0.000928171,0,
10,8.25106,0.785335,-0.0336179,0.000993856,0,
10,8.32554,0.770129,-0.0337044,0.00105012,0,
10,8.39331,0.755548,-0.0337777,0.00109922,0,
10,8.45484,0.741394,-0.0338407,0.00114245,0,
10,8.5106,0.727545,-0.0338944,0.0011804,0,
10,8.56104,0.713941,-0.0339406,0.00121333,0,
10,8.60659,0.700565,-0.0339802,0.00124133,0,
10,8.64767,0.687422,-0.0340145,0.00126451,0,
10,8.68467,0.674519,-0.0340441,0.00128274,0,
10,8.71795,0.661829,-0.0340699,0.0012927,0,
10,8.74786,0.649325,-0.0340923,0.00129915,0,
10,8.77471,0.637003,-0.0341115,0.00130132,0,
10,8.79881,0.62486,-0.0341282,0.00129965,0,
10,8.8204,0.612888,-0.0341424,0.00129464,0,
10,8.83975,0.601076,-0.0341546,0.00128682,0,
10,8.85708,0.589412,-0.0341652,0.00127666,0,
10,8.87259,0.577877,-0.0341743,0.00126461,0,
10,8.88646,0.566451,-0.0341819,0.00125108,0,
10,8.89886,0.555108,-0.0341884,0.0012364,0,
10,8.90995,0.543823,-0.0341939,0.00122086,0,
10,8.91986,0.532564,-0.0341985,0.0012047,0,
10,8.92872,0.521299,-0.0342024,0.00118805,0,
10,8.93663,0.509992,-0.0342056,0.00117103,0,
10,8.94369,0.498604,-0.0342083,0.00115366,0,
10,8.95,0.487094,-0.0342105,0.00113589,0,
10,8.95564,0.475415,-0.0342124,0.00111767,0,
10,8.96067,0.463519,-0.0342138,0.00109881,0,
10,8.96517,0.451351,-0.0342152,0.00107907,0,
10,8.96918,0.438849,-0.0342161,0.00105813,0,
10,8.97276,0.425944,-0.0342171,0.00103555,0,
10,8.97596,0.412556,-0.0342176,0.00101078,0,
10,8.97882,0.398592,-0.0342184,0.000983083,0,
10,8.98137,0.383945,-0.0342186,0.00095153,0,
10,8.98365,0.368487,-0.0342192,0.000914909,0,
10,8.98569,0.352069,-0.0342193,0.000871818,0,
10,8.9875,0.334508,-0.0342198,0.000820028,0,
10,8.98913,0.31557,-0.0342197,0.000754559,0,
10,8.99058,0.295025,-0.0342202,0.000677208,0,
10,8.99188,0.27271,-0.03422,0.000585595,0,
10,8.99304,0.248466,-0.0342205,0.000472903,0,
10,8.99408,0.222251,-0.0342201,0.000346768,0,
10,8.99501,0.194436,-0.0342207,0.000220875,0,
10,8.99583,0.165924,-0.0342202,0.00011706,0,
10,8.99658,0.13798,-0.0342208,5.0262e-05,0,
10,8.99724,0.111719,-0.0342202,1.7344e-05,0,
10,8.99784,0.0877276,-0.0342209,4.76418e-06,0,
10,8.99837,0.0661156,-0.0342202,9.99069e-07,0,
10,8.99885,0.0467483,-0.034221,1.43114e-07,0,
10,8.99927,0.0294147,-0.0342201,1.08649e-08,0,
10,8.99966,0.0138999,-0.0342211,2.40384e-10,0,
10,0,0,0.0302209,0,0,
10,9,0,-0.03422,0,0,

0.004,0,0,-0.224438,0,-8.15441e-08,
0.00868226,0,0,-0.224435,0,-1.75469e-07,
0.014062,0,0,-0.224437,0,-2.91723e-07,
0.0201548,0,0,-0.224436,0,-6.96226e-07,
0.0269766,0,0,-0.224437,0,-1.19401e-06,
0.0345437,0,0,-0.224436,0,-1.83966e-06,
0.0428729,0,0,-0.224435,0,-2.46949e-06,
0.051981,0,0,-0.224434,0,-3.01081e-06,
0.0618853,0,0,-0.224432,0,-3.27977e-06,
0.0726036,0,0,-0.224429,0,-3.115e-06,
0.0841536,0,0,-0.224425,0,-2.31375e-06,
0.0965535,0,0,-0.224421,0,-7.08021e-07,
0.109822,0,0,-0.224417,0,1.8216e-06,
0.123977,0,0,-0.224415,0,5.29774e-06,
0.139037,0,0,-0.224415,0,9.62267e-06,
0.155022,0,0,-0.224419,0,1.45834e-05,
0.171949,0,0,-0.224427,0,1.98687e-05,
0.189839,0,0,-0.224441,0,2.51242e-05,
0.208709,0,0,-0.22446,0,2.99925e-05,
0.228579,0,0,-0.224483,0,3.41688e-05,
0.249467,0,0,-0.22451,0,3.74237e-05,
0.271391,0,0,-0.224538,0,3.96278e-05,
0.29437,0,0,-0.224568,0,4.0749e-05,
0.31842,0,0,-0.224596,0,4.08523e-05,
0.343559,0,0,-0.224623,0,4.00812e-05,
0.369804,0,0,-0.224648,0,3.8644e-05,
0.39717,0,0,-0.224669,0,3.67911e-05,
0.425672,0,0,-0.224687,0,3.47985e-05,
0.455324,0,0,-0.224703,0,3.29487e-05,
0.48614,0,0,-0.224718,0,3.1518e-05,
0.518132,0,0,-0.224731,0,3.07685e-05,
0.551309,0,0,-0.224745,0,3.09135e-05,
0.585683,0,0,-0.224763,0,3.20739e-05,
0.621259,0,0,-0.224787,0,3.42721e-05,
0.658046,0,0,-0.224819,0,3.74457e-05,
0.696047,0,0,-0.224863,0,4.14708e-05,
0.735265,0,0,-0.224922,0,4.61892e-05,
0.7757,0,0,-0.225,0,5.14332e-05,
0.817352,0,0,-0.225099,0,5.70428e-05,
0.860215,0,0,-0.225227,0,6.28174e-05,
0.904285,0,0,-0.225388,0,6.845e-05,
0.949552,0,0,-0.225593,0,7.34374e-05,
0.996004,0,0,-0.225858,0,7.68966e-05,
1.04363,0,0,-0.226199,0,7.74679e-05,
1.09241,0,0,-0.226639,0,7.33792e-05,
1.14232,0,0,-0.227197,0,6.26313e-05,
1.19335,0,0,-0.22789,0,4.33734e-05,
1.24546,0,0,-0.22872,0,1.44188e-05,
1.29863,0,0,-0.229677,0,-2.43154e-05,
1.35283,0,0,-0.230739,0,-7.16975e-05,
1.40802,0,0,-0.231873,0,-0.000125705,
1.46416,0,0,-0.233047,0,-0.000184028,
1.52121,0,0,-0.234233,0,-0.000244655,
1.57913,0,0,-0.235403,0,-0.000306184,
1.63787,0,0,-0.236538,0,-0.000367847,
1.69739,0,0,-0.237618,0,-0.000429324,
1.75761,0,0,-0.23863,0,-0.000490532,
1.81851,0,0,-0.239559,0,-0.000551467,
1.88,0,0,-0.240392,0,-0.000612121,
1.94204,0,0,-0.241118,0,-0.000672457,
2.00457,0,0,-0.241724,0,-0.000732413,
2.06751,0,0,-0.242199,0,-0.000791905,
2.13081,0,0,-0.242532,0,-0.000850839,
2.19439,0,0,-0.242713,0,-0.000909111,
2.25819,0,0,-0.242732,0,-0.00096661,
2.32214,0,0,-0.24258,0,-0.00102321,
2.38617,0,0,-0.242249,0,-0.00107878,
2.4502,0,0,-0.241732,0,-0.00113318,
2.51418,0,0,-0.241021,0,-0.00118623,
2.57803,0,0,-0.240112,0,-0.00123778,
2.64167,0,0,-0.239,0,-0.00128766,
2.70505,0,0,-0.237682,0,-0.00133568,
2.76808,0,0,-0.236158,0,-0.00138164,
2.83072,0,0,-0.234426,0,-0.00142534,
2.89288,0,0,-0.23249,0,-0.00146657,
2.95451,0,0,-0.230353,0,-0.00150509,
3.01555,0,0,-0.228021,0,-0.00154072,
3.07594,0,0,-0.225503,0,-0.00157327,
3.13561,0,0,-0.222809,0,-0.00160259,
3.19453,0,0,-0.219952,0,-0.00162859,
3.25262,0,0,-0.216946,0,-0.00165121,
3.30985,0,0,-0.213809,0,-0.00167047,
3.36617,0,0,-0.210555,0,-0.0016864,
3.42154,0,0,-0.207203,0,-0.00169911,
3.47591,0,0,-0.203771,0,-0.00170871,
3.52925,0,0,-0.200275,0,-0.00171535,
3.58152,0,0,-0.196734,0,-0.00171919,
3.6327,0,0,-0.193163,0,-0.00172043,
3.68276,0,0,-0.189578,0,-0.00171925,
3.73167,0,0,-0.185995,0,-0.00171586,
3.77941,0,0,-0.182427,0,-0.00171046,
3.82596,0,0,-0.178886,0,-0.00170325,
3.8713,0,0,-0.175385,0,-0.00169443,
3.91543,0,0,-0.17193,0,-0.00168407,
3.95833,0,0,-0.168548,0,-0.00167268,
4,0,0,-0.165213,0,-0.00166018,
4.04167,0,0,-0.16186,0,-0.00164623,
4.08333,0,0,-0.158484,0,-0.00163108,
4.125,0,0,-0.155089,0,-0.0016147,
4.16667,0,0,-0.151679,0,-0.00159714,
4.20833,0,0,-0.148257,0,-0.00157844,
4.25,0,0,-0.144827,0,-0.00155863,
4.29167,0,0,-0.141392,0,-0.00153777,
4.33333,0,0,-0.137954,0,-0.0015159,
4.375,0,0,-0.134519,0,-0.00149306,
4.41667,0,0,-0.131087,0,-0.0014693,
4.45833,0,0,-0.127663,0,-0.00144465,
4.5,0,0,-0.124249,0,-0.00141915,
4.54167,0,0,-0.120847,0,-0.00139285,
4.58333,0,0,-0.117461,0,-0.00136578,
4.625,0,0,-0.114091,0,-0.00133798,
4.66667,0,0,-0.110742,0,-0.00130948,
4.70833,0,0,-0.107415,0,-0.00128031,
4.75,0,0,-0.104112,0,-0.0012505,
4.79167,0,0,-0.100834,0,-0.0012201,
4.83333,0,0,-0.0975855,0,-0.00118913,
4.875,0,0,-0.0943663,0,-0.00115763,
4.91667,0,0,-0.0911787,0,-0.00112562,
4.95833,0,0,-0.0880243,0,-0.00109315,
5,0,0,-0.0849045,0,-0.00106024,
5.04167,0,0,-0.0818208,0,-0.00102692,
5.08333,0,0,-0.0787746,0,-0.000993207,
5.125,0,0,-0.075767,0,-0.000959142,
5.16667,0,0,-0.0727993,0,-0.000924748,
5.20833,0,0,-0.0698725,0,-0.00089005,
5.25,0,0,-0.0669877,0,-0.000855074,
5.29167,0,0,-0.0641457,0,-0.000819847,
5.33333,0,0,-0.0613475,0,-0.000784392,
5.375,0,0,-0.0585938,0,-0.000748735,
5.41667,0,0,-0.0558853,0,-0.000712899,
5.45833,0,0,-0.0532228,0,-0.000676908,
5.5,0,0,-0.0506067,0,-0.000640784,
5.54167,0,0,-0.0480377,0,-0.00060455,
5.58333,0,0,-0.0455162,0,-0.00056823,
5.625,0,0,-0.0430425,0,-0.000531845,
5.66667,0,0,-0.0406172,0,-0.000495415,
5.70833,0,0,-0.0382405,0,-0.000458961,
5.75,0,0,-0.0359127,0,-0.000422501,
5.79167,0,0,-0.0336342,0,-0.000386052,
5.83333,0,0,-0.0314052,0,-0.000349629,
5.875,0,0,-0.0292262,0,-0.000313246,
5.91667,0,0,-0.0270976,0,-0.000276922,
5.95833,0,0,-0.0250199,0,-0.00024069,
6,0,0,-0.0229941,0,-0.000204604,
6.04167,0,0,-0.0210206,0,-0.000168747,
6.08333,0,0,-0.0190996,0,-0.000133211,
6.125,0,0,-0.0172306,0,-9.80702e-05,
6.16667,0,0,-0.0154125,0,-6.3358e-05,
6.20833,0,0,-0.0136443,0,-2.90755e-05,
6.25,0,0,-0.0119249,0,4.7901e-06,
6.29167,0,0,-0.0102534,0,3.82517e-05,
6.33333,0,0,-0.00862882,0,7.13182e-05,
6.375,0,0,-0.00705033,0,0.000103994,
6.41667,0,0,-0.00551709,0,0.000136282,
6.45833,0,0,-0.00402829,0,0.000168183,
6.5,0,0,-0.00258312,0,0.000199696,
6.54167,0,0,-0.00118077,0,0.000230822,
6.58333,0,0,0.00017954,0,0.000261561,
6.625,0,0,0.0014986,0,0.000291913,
6.66667,0,0,0.00277718,0,0.000321878,
6.70833,0,0,0.00401604,0,0.000351457,
6.75,0,0,0.00521595,0,0.000380649,
6.79167,0,0,0.00637767,0,0.000409453,
6.83333,0,0,0.00750195,0,0.00043787,
6.875,0,0,0.00858955,0,0.000465898,
6.91667,0,0,0.00964122,0,0.000493538,
6.95833,0,0,0.0106577,0,0.000520791,
7,0,0,0.0116397,0,0.000547656,
7.04167,0,0,0.012588,0,0.000574136,
7.08333,0,0,0.0135034,0,0.000600229,
7.125,0,0,0.0143864,0,0.000625938,
7.16667,0,0,0.015238,0,0.000651262,
7.20833,0,0,0.0160587,0,0.000676202,
7.25,0,0,0.0168493,0,0.000700761,
7.29167,0,0,0.0176105,0,0.00072494,
7.33333,0,0,0.018343,0,0.000748741,
7.375,0,0,0.0190474,0,0.000772169,
7.41667,0,0,0.0197245,0,0.000795226,
7.45833,0,0,0.0203748,0,0.000817917,
7.5,0,0,0.0209989,0,0.000840248,
7.54167,0,0,0.0215977,0,0.000862227,
7.58333,0,0,0.0221717,0,0.000883868,
7.625,0,0,0.0227215,0,0.000905182,
7.66667,0,0,0.0232477,0,0.000926179,
7.70833,0,0,0.0237507,0,0.000946862,
7.75,0,0,0.0242311,0,0.000967237,
7.79167,0,0,0.0246891,0,0.000987301,
7.83333,0,0,0.0251249,0,0.00100705,
7.875,0,0,0.0255385,0,0.00102653,
7.91667,0,0,0.0259405,0,0.00104627,
7.95833,0,0,0.0262644,0,0.00106484,
8,0,0,0.0266676,0,0.00108331,
8.04171,0,0,0.0270872,0,0.00110279,
8.08368,0,0,0.0273755,0,0.00112202,
8.12617,0,0,0.0277019,0,0.00113955,
8.16946,0,0,0.0280109,0,0.00115717,
8.21382,0,0,0.0283028,0,0.00117479,
8.25952,0,0,0.0285852,0,0.00119246,
8.30685,0,0,0.0288577,0,0.00121034,
8.35611,0,0,0.0291205,0,0.00122853,
8.40762,0,0,0.0293738,0,0.00124711,
8.46168,0,0,0.0296171,0,0.00126614,
8.51865,0,0,0.0298495,0,0.00128569,
8.57889,0,0,0.0300697,0,0.0013058,
8.64276,0,0,0.030276,0,0.00132652,
8.71067,0,0,0.0304664,0,0.00134788,
8.78306,0,0,0.0306381,0,0.00136989,
8.86037,0,0,0.0307883,0,0.00139259,
8.94309,0,0,0.0309135,0,0.00141597,
9.03174,0,0,0.0310096,0,0.00144004,
9.12689,0,0,0.0310725,0,0.00146476,
9.22912,0,0,0.0310976,0,0.00149013,
9.33908,0,0,0.0310796,0,0.00151609,
9.45746,0,0,0.0310136,0,0.00154261,
9.58501,0,0,0.0308942,0,0.00156961,
9.72253,0,0,0.0307157,0,0.00159702,
9.87088,0,0,0.0304728,0,0.00162476,
10.031,0,0,0.0301605,0,0.00165271,
10.2039,0,0,0.0297745,0,0.00168077,
10.3906,0,0,0.0293111,0,0.0017088,
10.5924,0,0,0.0287672,0,0.00173668,
10.8105,0,0,0.028142,0,0.00176428,
11.0463,0,0,0.0274356,0,0.00179148,
11.3012,0,0,0.0266485,0,0.00181815,
11.5769,0,0,0.0257852,0,0.00184418,
11.8751,0,0,0.0248506,0,0.00186946,
12.1977,0,0,0.0238524,0,0.0018939,
12.5466,0,0,0.0228002,0,0.00191744,
12.9242,0,0,0.0217045,0,0.00194002,
13.3327,0,0,0.0205783,0,0.00196161,
13.7748,0,0,0.0194358,0,0.00198219,
14.2532,0,0,0.0182916,0,0.00200176,
14.7709,0,0,0.0171605,0,0.00202036,
15.3312,0,0,0.0160575,0,0.00203801,
15.9377,0,0,0.0149958,0,0.0020548,
16.594,0,0,0.013988,0,0.00207078,
17.3044,0,0,0.0130435,0,0.00208604,
18.0733,0,0,0.0121694,0,0.00210063,
18.9056,0,0,0.0113695,0,0.00211447,
19.8064,0,0,0.0106443,0,0.00212753,
20.7816,0,0,0.00999119,0,0.00214001,
21.8371,0,0,0.00940341,0,0.00215224,
22.9796,0,0,0.00887098,0,0.00216445,
24.2163,0,0,0.00838067,0,0.00217673,
25.5551,0,0,0.00791712,0,0.0021891,
27.0042,0,0,0.00746374,0,0.00220169,
28.5729,0,0,0.00700264,0,0.00221457,
30.271,0,0,0.00651549,0,0.00222773,
32.1091,0,0,0.00598443,0,0.00224112,
34.0989,0,0,0.00539384,0,0.00225465,
36.2529,0,0,0.00472597,0,0.00226828,
38.5845,0,0,0.00397208,0,0.00228192,
41.1085,0,0,0.00316889,0,0.00229538,
43.8407,0,0,0.00216092,0,0.00230646,
46.7983,0,0,0.00111256,0,0.00231307,
50,0,0,0.00207331,0,0.00232926,

