846125aa69a2c10cfaafec85c4b9c69d1e68c719 
X,Z,x_velocity,cp,uw_b,cf,
1,0,0,-0.224714,0,0,
1,9,0,-0.130752,0,0,
1,8.99969,0.0154205,-0.130752,2.86848e-10,0,
1,8.99934,0.032915,-0.130752,1.34078e-08,0,
1,8.99894,0.0527804,-0.130752,1.84947e-07,0,
1,8.99848,0.0753306,-0.130752,1.35577e-06,0,
1,8.99797,0.100878,-0.130752,6.77586e-06,0,
1,8.99739,0.12962,-0.130752,2.56434e-05,0,
1,8.99672,0.16136,-0.130752,7.59505e-05,0,
1,8.99597,0.195158,-0.130752,0.000176513,0,
1,8.99512,0.229362,-0.130751,0.000325237,0,
1,8.99416,0.262315,-0.130751,0.000493524,0,
1,8.99306,0.293042,-0.130751,0.00065194,0,
1,8.99182,0.321369,-0.130751,0.00077942,0,
1,8.99041,0.347439,-0.13075,0.000885015,0,
1,8.98881,0.37141,-0.13075,0.000972208,0,
1,8.98699,0.3935,-0.130749,0.00104334,0,
1,8.98494,0.413996,-0.130749,0.00109929,0,
1,8.98261,0.433208,-0.130748,0.00114204,0,
1,8.97996,0.451379,-0.130747,0.00117787,0,
1,8.97696,0.468679,-0.130746,0.00120754,0,
1,8.97356,0.485251,-0.130744,0.00123234,0,
1,8.9697,0.501212,-0.130743,0.00125322,0,
1,8.96533,0.516662,-0.130741,0.00127091,0,
1,8.96038,0.531683,-0.130739,0.00128591,0,
1,8.95476,0.546344,-0.130737,0.00129861,0,
1,8.9484,0.560706,-0.130734,0.00130925,0,
1,8.9412,0.574818,-0.130732,0.00131801,0,
1,8.93303,0.588724,-0.130729,0.00132501,0,
1,8.92379,0.60246,-0.130726,0.00133028,0,
1,8.91333,0.616058,-0.130722,0.00133385,0,
1,8.90149,0.629546,-0.130719,0.00133568,0,
1,8.8881,0.642949,-0.130716,0.00133573,0,
1,8.87295,0.656289,-0.130713,0.00133392,0,
1,8.85584,0.669585,-0.130711,0.00133016,0,
1,8.83651,0.682856,-0.130709,0.00132433,0,
1,8.81469,0.696123,-0.130709,0.00131631,0,
1,8.79007,0.709404,-0.130711,0.00130593,0,
1,8.76232,0.722722,-0.130715,0.00129302,0,
1,8.73107,0.736103,-0.130722,0.00127734,0,
1,8.69591,0.749576,-0.130734,0.00125862,0,
1,8.6564,0.763177,-0.130751,0.0012365,0,
1,8.61206,0.776953,-0.130777,0.00121057,0,
1,8.56236,0.790961,-0.130812,0.00118047,0,
1,8.50675,0.805277,-0.130861,0.00114714,0,
1,8.44464,0.820036,-0.130926,0.00110768,0,
1,8.3754,0.835457,-0.131012,0.00105619,0,
1,8.29839,0.851795,-0.131125,0.000992945,0,
1,8.21296,0.869295,-0.131272,0.000913429,0,
1,8.11843,0.888148,-0.131456,0.000812391,0,
1,8.01417,0.908349,-0.131695,0.000686417,0,
1,7.89956,0.929448,-0.131983,0.000539053,0,
1,7.77403,0.950318,-0.132359,0.000388858,0,
1,7.63711,0.969347,-0.132808,0.000204254,0,
1,7.48842,0.984202,-0.13334,7.54972e-05,0,
1,7.32773,0.992958,-0.133977,1.80049e-05,0,
1,7.15495,0.996116,-0.134718,1.76435e-06,0,
1,6.97022,0.99616,-0.135577,2.18054e-08,0,
1,6.77388,0.995542,-0.136569,3.66224e-09,0,
1,6.56652,0.995428,-0.137709,9.67768e-09,0,
1,6.34896,0.995884,-0.13901,1.24538e-08,0,
1,6.12229,0.99661,-0.140486,1.40396e-08,0,
1,5.88784,0.997408,-0.142151,1.48672e-08,0,
1,5.64716,0.99824,-0.144016,1.58152e-08,0,
1,5.40194,0.999137,-0.146091,1.71384e-08,0,
1,5.15407,1.00013,-0.148383,1.88146e-08,0,
1,4.90545,1.00122,-0.150891,2.05785e-08,0,
1,4.65805,1.00241,-0.153613,2.24537e-08,0,
1,4.41376,1.00369,-0.156541,2.4402e-08,0,
1,4.17441,1.00506,-0.15966,2.61919e-08,0,
1,3.94163,1.00645,-0.162949,2.76628e-08,0,
1,3.7169,1.00781,-0.16638,2.94309e-08,0,
1,3.50146,1.00922,-0.16992,3.34397e-08,0,
1,3.29629,1.01099,-0.173535,4.17041e-08,0,
1,3.10217,1.01349,-0.177193,5.23405e-08,0,
1,2.91959,1.01651,-0.180867,9.5325e-08,0,
1,2.74885,1.01859,-0.184513,9.00374e-07,0,
1,2.59002,1.01733,-0.188071,-6.64343e-06,0,
1,2.44299,1.011,-0.191479,-5.3655e-05,0,
1,2.30752,0.999834,-0.194672,-0.000152666,0,
1,2.18321,0.985284,-0.197596,-0.000289584,0,
1,2.06959,0.968936,-0.200285,-0.000407199,0,
1,1.9661,0.952062,-0.202719,-0.00050947,0,
1,1.87215,0.935589,-0.204867,-0.000604908,0,
1,1.78711,0.920026,-0.206767,-0.000688979,0,
1,1.71033,0.905525,-0.208434,-0.000761574,0,
1,1.64119,0.892054,-0.209892,-0.000824199,0,
1,1.57905,0.879498,-0.211162,-0.000879042,0,
1,1.52332,0.867728,-0.212265,-0.000928202,0,
1,1.47342,0.856635,-0.213226,-0.000973992,0,
1,1.42882,0.846133,-0.214042,-0.00100833,0,
1,1.389,0.836142,-0.214727,-0.0010326,0,
1,1.35351,0.826597,-0.215318,-0.00105521,0,
1,1.3219,0.817461,-0.215821,-0.0010755,0,
1,1.29378,0.808714,-0.216251,-0.00109322,0,
1,1.26878,0.800345,-0.216618,-0.00110842,0,
1,1.24659,0.792349,-0.21693,-0.00112148,0,
1,1.22689,0.78472,-0.217196,-0.00113249,0,
1,1.2092,0.777369,-0.217425,-0.00114044,0,
1,1.1932,0.770247,-0.217624,-0.00114603,0,
1,1.1787,0.763339,-0.217796,-0.00114989,0,
1,1.16554,0.756624,-0.217945,-0.00115289,0,
1,1.15357,0.750073,-0.218073,-0.00115678,0,
1,1.14266,0.743641,-0.218184,-0.00116474,0,
1,1.13268,0.737264,-0.218279,-0.00118076,0,
1,1.12354,0.730853,-0.218362,-0.00121041,0,
1,1.11514,0.724288,-0.218436,-0.00126047,0,
1,1.10739,0.717427,-0.218503,-0.00133851,0,
1,1.10022,0.710101,-0.218567,-0.00145215,0,
1,1.09357,0.702142,-0.218632,-0.00160795,0,
1,1.08738,0.693405,-0.2187,-0.00181,0,
1,1.0816,0.683808,-0.218774,-0.0020585,0,
1,1.07618,0.673352,-0.218855,-0.00234896,0,
1,1.07107,0.662128,-0.218942,-0.00267249,0,
1,1.06626,0.650293,-0.219035,-0.0030174,0,
1,1.06169,0.638032,-0.219133,-0.00337148,0,
1,1.05735,0.625526,-0.219234,-0.00372384,0,
1,1.05321,0.612933,-0.219339,-0.00406598,0,
1,1.04925,0.600378,-0.219445,-0.00439197,0,
1,1.04544,0.58795,-0.219552,-0.00469814,0,
1,1.04177,0.575711,-0.21966,-0.00498255,0,
1,1.03822,0.563702,-0.219768,-0.0052445,0,
1,1.03478,0.551945,-0.219875,-0.00548409,0,
1,1.03144,0.540449,-0.219982,-0.00570195,0,
1,1.02818,0.529216,-0.220089,-0.00589901,0,
1,1.025,0.518241,-0.220194,-0.00607634,0,
1,1.02188,0.507517,-0.220299,-0.00623505,0,
1,1.01882,0.497034,-0.220403,-0.00637625,0,
1,1.01581,0.48678,-0.220506,-0.00650115,0,
1,1.01284,0.476743,-0.220607,-0.00661033,0,
1,1.00988,0.466803,-0.22071,-0.00670559,0,
1,1.00688,0.456845,-0.220813,-0.00678888,0,
1,1.00384,0.446859,-0.220918,-0.00686067,0,
1,1.00076,0.436835,-0.221025,-0.00692019,0,
1,0.997615,0.426756,-0.221133,-0.00696732,0,
1,0.99441,0.416601,-0.221242,-0.00700177,0,
1,0.991131,0.406347,-0.221352,-0.00702358,0,
1,0.987768,0.395966,-0.221464,-0.00703266,0,
1,0.984308,0.385431,-0.221577,-0.00702867,0,
1,0.980739,0.374711,-0.221692,-0.00701116,0,
1,0.977045,0.363772,-0.221809,-0.0069795,0,
1,0.973211,0.352579,-0.221928,-0.00693293,0,
1,0.969219,0.341091,-0.222049,-0.00687052,0,
1,0.965047,0.329267,-0.222172,-0.00679114,0,
1,0.960675,0.317059,-0.222297,-0.00669345,0,
1,0.956077,0.304416,-0.222425,-0.00657506,0,
1,0.951224,0.291284,-0.222556,-0.00643453,0,
1,0.946088,0.277612,-0.222689,-0.00626978,0,
1,0.940633,0.263356,-0.222826,-0.00608011,0,
1,0.934823,0.24848,-0.222966,-0.00586246,0,
1,0.928616,0.232952,-0.223109,-0.00561447,0,
1,0.921967,0.216751,-0.223255,-0.00533406,0,
1,0.914826,0.199866,-0.223402,-0.00501944,0,
1,0.907141,0.182302,-0.22355,-0.00466933,0,
1,0.898852,0.16409,-0.223699,-0.00428334,0,
1,0.889898,0.145298,-0.223847,-0.00386237,0,
1,0.880212,0.126045,-0.223994,-0.00340936,0,
1,0.869723,0.106531,-0.224139,-0.00293025,0,
1,0.858358,0.0870734,-0.224284,-0.00243577,0,
1,0.846039,0.0681649,-0.224429,-0.0019442,0,
1,0.83269,0.0505143,-0.224578,-0.00148371,0,
1,0.818232,0.0349904,-0.224732,-0.00109134,0,
1,0.802744,0.0224049,-0.224886,-0.000791229,0,
1,0.78635,0.0129166,-0.225047,-0.000578803,0,
1,0.768969,0.00593644,-0.225206,-0.00043912,0,
1,0.75053,0.000675693,-0.225361,-0.00035442,0,
1,0.730977,-0.00354648,-0.2255,-0.000307819,0,
1,0.710271,-0.00720944,-0.225625,-0.000285609,0,
1,0.688397,-0.0106141,-0.225731,-0.000278085,0,
1,0.66536,-0.0139373,-0.225821,-0.000278681,0,
1,0.641194,-0.0172869,-0.225895,-0.000281765,0,
1,0.615961,-0.0207231,-0.225952,-0.000284258,0,
1,0.589754,-0.0242648,-0.225992,-0.000284004,0,
1,0.562692,-0.0278997,-0.226013,-0.00027988,0,
1,0.534925,-0.0315917,-0.226015,-0.000271488,0,
1,0.506624,-0.0352881,-0.225994,-0.000258908,0,
1,0.477982,-0.0389265,-0.225951,-0.0002425,0,
1,0.449206,-0.042439,-0.225885,-0.000222769,0,
1,0.420509,-0.045756,-0.225796,-0.000200285,0,
1,0.392107,-0.0488083,-0.225688,-0.000175622,0,
1,0.364206,-0.0515279,-0.225563,-0.000149327,0,
1,0.337003,-0.0538493,-0.225426,-0.00012189,0,
1,0.310673,-0.0557091,-0.225282,-9.37433e-05,0,
1,0.28537,-0.0570468,-0.225137,-6.52793e-05,0,
1,0.26122,-0.0578053,-0.224997,-3.68745e-05,0,
1,0.238324,-0.057934,-0.224867,-8.93751e-06,0,
1,0.21675,-0.0573918,-0.224752,1.80377e-05,0,
1,0.196544,-0.0561536,-0.224656,4.34407e-05,0,
1,0.177724,-0.0542167,-0.224581,6.65571e-05,0,
1,0.160284,-0.0516075,-0.224527,8.66359e-05,0,
1,0.144202,-0.0483848,-0.224493,0.000102995,0,
1,0.129436,-0.0446401,-0.224477,0.00011513,0,
1,0.115935,-0.0404912,-0.224477,0.000122794,0,
1,0.103636,-0.0360723,-0.224488,0.000126014,0,
1,0.0924701,-0.0315214,-0.224507,0.000125105,0,
1,0.0823633,-0.0269688,-0.224531,0.000120595,0,
1,0.0732406,-0.0225263,-0.224557,0.000113137,0,
1,0.0650269,-0.0182811,-0.224583,0.000103422,0,
1,0.057648,-0.014293,-0.224608,9.21164e-05,0,
1,0.0510323,-0.0105954,-0.224631,7.98197e-05,0,
1,0.0451115,-0.00720022,-0.224651,6.7054e-05,0,
1,0.0398209,-0.00410465,-0.224668,5.42813e-05,0,
1,0.0351001,-0.00129986,-0.224682,4.19848e-05,0,
1,0.0308929,0.00121885,-0.224692,3.07106e-05,0,
1,0.0271475,0.00344323,-0.2247,2.07173e-05,0,
1,0.0238164,0.00534567,-0.224706,1.24123e-05,0,
1,0.0208562,0.00687581,-0.224709,6.32904e-06,0,
1,0.0182274,0.00797782,-0.224711,2.59727e-06,0,
1,0.0158944,0.00862621,-0.224712,7.54855e-07,0,
1,0.0138249,0.00885063,-0.224713,5.26666e-08,0,
1,0.0119898,0.00872638,-0.224714,-1.2528e-07,0,
1,0.0103632,0.00834533,-0.224714,-1.22157e-07,0,
1,0.00892169,0.00779188,-0.224714,-8.07579e-08,0,
1,0.00764438,0.00713343,-0.224714,-4.52138e-08,0,
1,0.00651264,0.0064198,-0.224714,-2.27767e-08,0,
1,0.00550983,0.00568655,-0.224714,-1.05432e-08,0,
1,0.00462115,0.00495823,-0.224714,-4.5055e-09,0,
1,0.00383341,0.00425144,-0.224714,-1.76805e-09,0,
1,0.0031349,0.00357682,-0.224714,-6.28154e-10,0,
1,0.00251518,0.00294082,-0.224714,-1.97037e-10,0,
1,0.00196502,0.00234675,-0.224714,-5.23337e-11,0,
1,0.00147619,0.00179575,-0.224714,-1.09606e-11,0,
1,0.00104139,0.0012874,-0.224714,-1.58976e-12,0,
1,0.000654158,0.000820227,-0.224714,-1.22813e-13,0,
1,0.000308731,0.000392045,-0.224714,-2.7726e-15,0,

4,0,0,-0.170214,0,0,
4,9,0,-0.100544,0,0,
4,8.99969,0.0142987,-0.100544,2.25793e-10,0,
4,8.99934,0.0304642,-0.100544,1.04756e-08,0,
4,8.99894,0.0487587,-0.100544,1.4304e-07,0,
4,8.9985,0.0694594,-0.100544,1.03819e-06,0,
4,8.99799,0.0928482,-0.100544,5.15226e-06,0,
4,8.99742,0.119127,-0.100544,1.95021e-05,0,
4,8.99677,0.148209,-0.100543,5.84894e-05,0,
4,8.99605,0.179409,-0.100544,0.000139625,0,
4,8.99522,0.211366,-0.100543,0.000266652,0,
4,8.99429,0.242537,-0.100543,0.000419176,0,
4,8.99324,0.271859,-0.100543,0.000569213,0,
4,8.99205,0.298956,-0.100543,0.000698781,0,
4,8.9907,0.323906,-0.100542,0.000802982,0,
4,8.98919,0.346884,-0.100542,0.000890753,0,
4,8.98747,0.368074,-0.100541,0.000963739,0,
4,8.98553,0.387748,-0.10054,0.00102122,0,
4,8.98334,0.406184,-0.100539,0.00106745,0,
4,8.98087,0.423602,-0.100538,0.00110649,0,
4,8.97807,0.440171,-0.100537,0.00113961,0,
4,8.97491,0.456033,-0.100535,0.0011681,0,
4,8.97134,0.471305,-0.100533,0.00119293,0,
4,8.96731,0.486088,-0.100531,0.00121485,0,
4,8.96276,0.500467,-0.100528,0.00123436,0,
4,8.95762,0.514513,-0.100525,0.00125183,0,
4,8.95182,0.528289,-0.100522,0.00126753,0,
4,8.94526,0.541849,-0.100518,0.0012816,0,
4,8.93787,0.555237,-0.100514,0.00129412,0,
4,8.92952,0.568494,-0.100509,0.00130509,0,
4,8.92011,0.581653,-0.100504,0.00131447,0,
4,8.90949,0.594744,-0.100498,0.00132218,0,
4,8.89751,0.607791,-0.100491,0.00132809,0,
4,8.88402,0.620815,-0.100484,0.00133206,0,
4,8.86881,0.633834,-0.100477,0.00133391,0,
4,8.85169,0.646863,-0.100469,0.00133347,0,
4,8.83242,0.659916,-0.100462,0.00133056,0,
4,8.81074,0.673003,-0.100454,0.001325,0,
4,8.78637,0.686138,-0.100447,0.0013166,0,
4,8.75901,0.699333,-0.100441,0.00130519,0,
4,8.7283,0.712603,-0.100436,0.00129057,0,
4,8.69387,0.725967,-0.100433,0.00127254,0,
4,8.65533,0.73945,-0.100433,0.00125085,0,
4,8.61222,0.753084,-0.100437,0.00122518,0,
4,8.56407,0.76691,-0.100447,0.00119513,0,
4,8.5104,0.780982,-0.100463,0.00116037,0,
4,8.45065,0.795374,-0.10049,0.00112251,0,
4,8.38429,0.810236,-0.100529,0.0010762,0,
4,8.31073,0.825804,-0.100584,0.00101889,0,
4,8.22941,0.84235,-0.100659,0.000948505,0,
4,8.13974,0.860139,-0.100756,0.00086065,0,
4,8.04115,0.879343,-0.10088,0.000751701,0,
4,7.93313,0.899847,-0.101034,0.000621983,0,
4,7.81519,0.920939,-0.101214,0.000480738,0,
4,7.68693,0.941154,-0.101441,0.000345426,0,
4,7.54803,0.958596,-0.101701,0.00020284,0,
4,7.39831,0.971372,-0.102011,8.90435e-05,0,
4,7.23771,0.978609,-0.102388,2.7436e-05,0,
4,7.06634,0.981266,-0.10282,4.52788e-06,0,
4,6.88453,0.981409,-0.103312,2.37864e-08,0,
4,6.69275,0.980876,-0.103865,-7.567e-08,0,
4,6.49173,0.980591,-0.104488,2.78383e-08,0,
4,6.28238,0.980702,-0.10519,2.69087e-08,0,
4,6.06579,0.981047,-0.10598,1.52482e-08,0,
4,5.84328,0.981468,-0.106866,1.03596e-08,0,
4,5.61626,0.981903,-0.107852,9.12562e-09,0,
4,5.3863,0.982355,-0.108946,9.26381e-09,0,
4,5.15502,0.98284,-0.11015,9.95671e-09,0,
4,4.92406,0.983372,-0.111467,1.09369e-08,0,
4,4.69507,0.983962,-0.1129,1.2107e-08,0,
4,4.46961,0.984615,-0.114446,1.33222e-08,0,
4,4.24915,0.985313,-0.116104,1.42757e-08,0,
4,4.03501,0.986,-0.117868,1.46852e-08,0,
4,3.82836,0.986609,-0.119729,1.48276e-08,0,
4,3.63018,0.987146,-0.121679,1.61399e-08,0,
4,3.44125,0.987796,-0.123704,2.16865e-08,0,
4,3.26217,0.988922,-0.125792,7.34809e-08,0,
4,3.09333,0.99081,-0.127927,6.40601e-07,0,
4,2.93497,0.993255,-0.130092,2.95472e-06,0,
4,2.78715,0.995374,-0.132271,5.74344e-06,0,
4,2.64979,0.995971,-0.134441,1.19203e-06,0,
4,2.52268,0.994126,-0.136577,-2.06165e-05,0,
4,2.40551,0.989531,-0.138653,-6.472e-05,0,
4,2.29789,0.982459,-0.140646,-0.000129447,0,
4,2.19939,0.97352,-0.142535,-0.000208403,0,
4,2.10949,0.963416,-0.14431,-0.000293511,0,
4,2.02768,0.952782,-0.145965,-0.000377215,0,
4,1.95343,0.942125,-0.1475,-0.00045349,0,
4,1.88618,0.931817,-0.148912,-0.000520015,0,
4,1.82542,0.922044,-0.150213,-0.000567136,0,
4,1.77062,0.912861,-0.151406,-0.000605257,0,
4,1.72128,0.904314,-0.152488,-0.000639431,0,
4,1.67693,0.89643,-0.153471,-0.00066976,0,
4,1.63713,0.889206,-0.154362,-0.000696655,0,
4,1.60144,0.882618,-0.155166,-0.000720499,0,
4,1.56949,0.876636,-0.155892,-0.000741703,0,
4,1.54091,0.87122,-0.156545,-0.00076077,0,
4,1.51537,0.866316,-0.157133,-0.00077799,0,
4,1.49167,0.86173,-0.157679,-0.000793864,0,
4,1.46926,0.857368,-0.158199,-0.000808916,0,
4,1.44801,0.853195,-0.158701,-0.000818423,0,
4,1.42781,0.849171,-0.159187,-0.000825215,0,
4,1.40855,0.845276,-0.159649,-0.000831194,0,
4,1.39015,0.841494,-0.160095,-0.000835826,0,
4,1.37252,0.83781,-0.160524,-0.000839586,0,
4,1.3556,0.834209,-0.160939,-0.000842967,0,
4,1.3393,0.830672,-0.16134,-0.000846467,0,
4,1.32357,0.827182,-0.161728,-0.000851024,0,
4,1.30836,0.823718,-0.162106,-0.000857359,0,
4,1.29362,0.820258,-0.162474,-0.000866464,0,
4,1.2793,0.816776,-0.162832,-0.000879605,0,
4,1.26537,0.81324,-0.163182,-0.000898358,0,
4,1.25179,0.809612,-0.163525,-0.000924652,0,
4,1.23852,0.805847,-0.16386,-0.000960791,0,
4,1.22554,0.801893,-0.164189,-0.00100947,0,
4,1.21282,0.797687,-0.164511,-0.00107376,0,
4,1.20034,0.793159,-0.164828,-0.00115694,0,
4,1.18806,0.788231,-0.165138,-0.0012624,0,
4,1.17599,0.782824,-0.165443,-0.00139325,0,
4,1.16408,0.776863,-0.165741,-0.00155196,0,
4,1.15233,0.770286,-0.166034,-0.00173995,0,
4,1.14073,0.763052,-0.166321,-0.00195723,0,
4,1.12925,0.755145,-0.166602,-0.00220217,0,
4,1.11788,0.746578,-0.166877,-0.00247161,0,
4,1.10661,0.737388,-0.167147,-0.00276107,0,
4,1.09543,0.72763,-0.167412,-0.00306525,0,
4,1.08432,0.717374,-0.167672,-0.00337851,0,
4,1.07328,0.706692,-0.167926,-0.0036953,0,
4,1.0623,0.695658,-0.168176,-0.00401051,0,
4,1.05136,0.68434,-0.168422,-0.00431964,0,
4,1.04044,0.672783,-0.168663,-0.00461904,0,
4,1.0295,0.661021,-0.1689,-0.00490586,0,
4,1.01855,0.649101,-0.169133,-0.00517742,0,
4,1.00757,0.637064,-0.169363,-0.00543128,0,
4,0.996544,0.624946,-0.169589,-0.00566569,0,
4,0.98547,0.612777,-0.169812,-0.00587867,0,
4,0.974334,0.600585,-0.17003,-0.0060688,0,
4,0.963124,0.588391,-0.170247,-0.00623475,0,
4,0.951826,0.576218,-0.170456,-0.00637538,0,
4,0.940428,0.564083,-0.170671,-0.00650321,0,
4,0.928915,0.551953,-0.170856,-0.00660963,0,
4,0.917272,0.539689,-0.170994,-0.00667161,0,
4,0.905481,0.527138,-0.171122,-0.0067403,0,
4,0.893524,0.514216,-0.171246,-0.00681591,0,
4,0.881383,0.500874,-0.171371,-0.00689848,0,
4,0.869035,0.48707,-0.171498,-0.0069879,0,
4,0.856459,0.472772,-0.171627,-0.00708383,0,
4,0.843629,0.457951,-0.171761,-0.00718575,0,
4,0.830518,0.442579,-0.171898,-0.00729297,0,
4,0.817097,0.426634,-0.172039,-0.00740466,0,
4,0.803334,0.410099,-0.172182,-0.00751987,0,
4,0.789195,0.392957,-0.172326,-0.00763756,0,
4,0.774643,0.375198,-0.172471,-0.00775657,0,
4,0.759639,0.356813,-0.172616,-0.00787552,0,
4,0.744138,0.337799,-0.172762,-0.0079928,0,
4,0.728096,0.318161,-0.172907,-0.00810638,0,
4,0.711463,0.297916,-0.173053,-0.00821396,0,
4,0.694189,0.277098,-0.1732,-0.00831259,0,
4,0.676218,0.255754,-0.173348,-0.00839817,0,
4,0.657495,0.233935,-0.173497,-0.00846634,0,
4,0.637962,0.211698,-0.173645,-0.00851303,0,
4,0.617561,0.189086,-0.173788,-0.00853498,0,
4,0.596848,0.166748,-0.173917,-0.00852921,0,
4,0.576557,0.145441,-0.17403,-0.00849538,0,
4,0.556564,0.125032,-0.174123,-0.00843474,0,
4,0.536763,0.105413,-0.174203,-0.00834803,0,
4,0.517057,0.0865245,-0.174278,-0.00823548,0,
4,0.497368,0.068383,-0.174365,-0.00809768,0,
4,0.477632,0.0510845,-0.174487,-0.00793709,0,
4,0.457804,0.0347719,-0.174651,-0.00775877,0,
4,0.437857,0.0195519,-0.174864,-0.00757292,0,
4,0.417786,0.00536065,-0.174998,-0.00738558,0,
4,0.397605,-0.00816763,-0.174928,-0.00702255,0,
4,0.377348,-0.0213266,-0.174782,-0.00670561,0,
4,0.357066,-0.0341188,-0.174654,-0.00639399,0,
4,0.336828,-0.0464769,-0.1745,-0.00607572,0,
4,0.316717,-0.0583331,-0.174338,-0.00575001,0,
4,0.296825,-0.0696297,-0.174163,-0.00541768,0,
4,0.27725,-0.0803223,-0.173979,-0.00508086,0,
4,0.258095,-0.0903798,-0.173787,-0.00474205,0,
4,0.239458,-0.0997835,-0.173589,-0.00440391,0,
4,0.221432,-0.108527,-0.173386,-0.00406914,0,
4,0.2041,-0.116612,-0.17318,-0.00374033,0,
4,0.187537,-0.124053,-0.172972,-0.00341989,0,
4,0.171798,-0.13087,-0.172764,-0.00310995,0,
4,0.156928,-0.137088,-0.172559,-0.0028123,0,
4,0.142956,-0.142737,-0.172357,-0.0025284,0,
4,0.129894,-0.147849,-0.17216,-0.00225933,0,
4,0.117744,-0.152458,-0.17197,-0.00200582,0,
4,0.106492,-0.156596,-0.171789,-0.00176827,0,
4,0.0961173,-0.160295,-0.171617,-0.0015468,0,
4,0.0865883,-0.163586,-0.171456,-0.00134126,0,
4,0.0778675,-0.166496,-0.171307,-0.00115129,0,
4,0.0699123,-0.169052,-0.171169,-0.000976387,0,
4,0.062677,-0.171276,-0.171043,-0.000815887,0,
4,0.056114,-0.173187,-0.170928,-0.000669054,0,
4,0.0501747,-0.174803,-0.170825,-0.000535094,0,
4,0.0448114,-0.176137,-0.170734,-0.000413185,0,
4,0.039977,-0.177197,-0.170652,-0.000302503,0,
4,0.0356266,-0.177991,-0.170581,-0.000202246,0,
4,0.0317171,-0.178518,-0.170518,-0.000111654,0,
4,0.0282081,-0.178776,-0.170464,-3.00263e-05,0,
4,0.0250617,-0.178752,-0.170417,4.32544e-05,0,
4,0.0222427,-0.17843,-0.170376,0.000108695,0,
4,0.0197189,-0.177777,-0.170343,0.000166652,0,
4,0.0174603,-0.176751,-0.170314,0.000217276,0,
4,0.0154398,-0.175286,-0.17029,0.000260409,0,
4,0.0136326,-0.173289,-0.170271,0.000295439,0,
4,0.0120162,-0.170628,-0.170255,0.000321075,0,
4,0.0105703,-0.167115,-0.170243,0.000335075,0,
4,0.00927657,-0.162499,-0.170234,0.0003341,0,
4,0.00811839,-0.156463,-0.170227,0.000314251,0,
4,0.0070809,-0.148671,-0.170223,0.000273181,0,
4,0.0061507,-0.138896,-0.17022,0.000213901,0,
4,0.00531578,-0.127209,-0.170218,0.000147209,0,
4,0.00456537,-0.114087,-0.170217,8.7769e-05,0,
4,0.00388979,-0.100275,-0.170217,4.53228e-05,0,
4,0.00328037,-0.0864843,-0.170216,2.044e-05,0,
4,0.00272934,-0.0731868,-0.170216,8.09271e-06,0,
4,0.0022297,-0.0606093,-0.170215,2.78876e-06,0,
4,0.00177519,-0.0488155,-0.170216,8.10978e-07,0,
4,0.00136016,-0.0377852,-0.170215,1.86442e-07,0,
4,0.000979511,-0.0274614,-0.170216,2.9817e-08,0,
4,0.00062865,-0.0177732,-0.170215,2.54089e-09,0,
4,0.000303409,-0.00864542,-0.170216,6.18459e-11,0,

6,0,0,-0.025609,0,0,
6,9,0,-0.0764849,0,0,
6,8.99969,0.0135459,-0.0764845,1.8804e-10,0,
6,8.99934,0.0288216,-0.0764848,8.67859e-09,0,
6,8.99895,0.0460654,-0.0764845,1.17663e-07,0,
6,8.9985,0.065529,-0.0764847,8.47964e-07,0,
6,8.99801,0.0874714,-0.0764845,4.18582e-06,0,
6,8.99744,0.112092,-0.0764846,1.58314e-05,0,
6,8.99681,0.139361,-0.0764844,4.78323e-05,0,
6,8.99609,0.16875,-0.0764845,0.00011621,0,
6,8.99529,0.1991,-0.0764843,0.00022758,0,
6,8.99438,0.228979,-0.0764842,0.000367256,0,
6,8.99336,0.257288,-0.0764839,0.000509626,0,
6,8.9922,0.283533,-0.0764838,0.000637367,0,
6,8.9909,0.307717,-0.0764834,0.000740723,0,
6,8.98944,0.330002,-0.076483,0.000827662,0,
6,8.98779,0.350558,-0.0764824,0.000900767,0,
6,8.98593,0.369634,-0.0764817,0.000958666,0,
6,8.98383,0.38749,-0.0764809,0.00100614,0,
6,8.98147,0.404332,-0.0764799,0.00104636,0,
6,8.97881,0.420326,-0.0764786,0.00108079,0,
6,8.97581,0.435612,-0.0764772,0.00111075,0,
6,8.97244,0.450309,-0.0764755,0.00113727,0,
6,8.96863,0.464517,-0.0764735,0.00116107,0,
6,8.96435,0.478321,-0.0764711,0.00118273,0,
6,8.95953,0.491797,-0.0764683,0.00120264,0,
6,8.95409,0.505007,-0.076465,0.00122108,0,
6,8.94798,0.518008,-0.0764613,0.00123821,0,
6,8.94109,0.53085,-0.0764569,0.00125414,0,
6,8.93334,0.543574,-0.076452,0.00126887,0,
6,8.92463,0.556218,-0.0764463,0.00128236,0,
6,8.91482,0.568816,-0.0764398,0.00129451,0,
6,8.90379,0.581395,-0.0764324,0.00130516,0,
6,8.89139,0.593981,-0.0764242,0.00131412,0,
6,8.87746,0.606593,-0.0764151,0.00132116,0,
6,8.86181,0.619249,-0.076405,0.00132603,0,
6,8.84423,0.631962,-0.076394,0.00132847,0,
6,8.82452,0.644744,-0.0763819,0.0013282,0,
6,8.80241,0.657604,-0.0763688,0.00132496,0,
6,8.77763,0.670549,-0.0763546,0.00131849,0,
6,8.74989,0.683588,-0.0763395,0.00130855,0,
6,8.71885,0.696729,-0.0763234,0.00129489,0,
6,8.68417,0.709984,-0.0763066,0.0012773,0,
6,8.64545,0.723368,-0.0762892,0.00125552,0,
6,8.60229,0.736905,-0.0762714,0.00122928,0,
6,8.55423,0.750623,-0.0762536,0.00119823,0,
6,8.50082,0.764565,-0.0762359,0.00116223,0,
6,8.44155,0.77879,-0.0762196,0.00112237,0,
6,8.37592,0.793422,-0.0762059,0.00107484,0,
6,8.30339,0.808667,-0.0761954,0.00101892,0,
6,8.22344,0.824791,-0.0761879,0.00095168,0,
6,8.13555,0.842096,-0.0761845,0.000869331,0,
6,8.0392,0.860832,-0.0761811,0.000768429,0,
6,7.93391,0.880988,-0.0761781,0.00064877,0,
6,7.81927,0.901971,-0.0761641,0.000516977,0,
6,7.6949,0.922399,-0.0761471,0.000388175,0,
6,7.56054,0.940436,-0.0761138,0.000271667,0,
6,7.41603,0.954473,-0.0760726,0.000139818,0,
6,7.26132,0.963531,-0.0760308,5.54673e-05,0,
6,7.09653,0.967869,-0.075974,1.41792e-05,0,
6,6.92195,0.96895,-0.0759045,8.27567e-07,0,
6,6.73802,0.968531,-0.0758151,-9.46769e-07,0,
6,6.5454,0.967845,-0.0757034,-4.35158e-07,0,
6,6.34489,0.967389,-0.0755663,-1.15136e-07,0,
6,6.1375,0.967178,-0.0754014,-2.83171e-08,0,
6,5.92439,0.967076,-0.0752051,-1.02145e-08,0,
6,5.70687,0.966973,-0.0749731,-5.96585e-09,0,
6,5.48633,0.966827,-0.0747011,-4.8147e-09,0,
6,5.26426,0.966634,-0.0743842,-4.71483e-09,0,
6,5.04218,0.966405,-0.0740174,-5.0193e-09,0,
6,4.82159,0.966153,-0.0735961,-5.46039e-09,0,
6,4.60398,0.965889,-0.0731159,-5.99798e-09,0,
6,4.39071,0.96561,-0.0725732,-6.81363e-09,0,
6,4.18307,0.965285,-0.0719652,-8.24756e-09,0,
6,3.98218,0.964853,-0.0712906,-1.05156e-08,0,
6,3.78902,0.964254,-0.0705495,-1.32575e-08,0,
6,3.60438,0.963515,-0.0697439,-1.70352e-08,0,
6,3.42888,0.962811,-0.0688774,-3.49953e-08,0,
6,3.26296,0.962436,-0.0679549,-8.24649e-08,0,
6,3.10691,0.962629,-0.0669816,-4.28208e-08,0,
6,2.96084,0.963358,-0.0659634,2.77322e-07,0,
6,2.82473,0.964222,-0.0649083,8.2006e-08,0,
6,2.69844,0.964588,-0.0638275,-3.67087e-06,0,
6,2.58172,0.963837,-0.0627343,-1.55071e-05,0,
6,2.47424,0.961577,-0.061643,-3.91357e-05,0,
6,2.37559,0.957713,-0.0605673,-7.59007e-05,0,
6,2.28535,0.952398,-0.0595194,-0.000124732,0,
6,2.20301,0.945942,-0.0585097,-0.000182769,0,
6,2.1281,0.938707,-0.0575462,-0.00024625,0,
6,2.06009,0.931048,-0.0566351,-0.0003112,0,
6,1.99849,0.923276,-0.055779,-0.000373751,0,
6,1.9428,0.915653,-0.0549822,-0.000430737,0,
6,1.89255,0.908369,-0.0542396,-0.000481628,0,
6,1.84728,0.901508,-0.053559,-0.000522286,0,
6,1.80655,0.895067,-0.0529395,-0.000552595,0,
6,1.76996,0.889051,-0.0523671,-0.000580382,0,
6,1.73712,0.88348,-0.0518465,-0.000605804,0,
6,1.70768,0.878325,-0.0513697,-0.000629316,0,
6,1.67998,0.873356,-0.0509169,-0.000652077,0,
6,1.65329,0.868477,-0.0504738,-0.000674297,0,
6,1.62754,0.863685,-0.0500408,-0.000695935,0,
6,1.60265,0.858979,-0.0496168,-0.000717037,0,
6,1.57854,0.854356,-0.0492015,-0.000737565,0,
6,1.55515,0.849815,-0.0487939,-0.00075756,0,
6,1.53242,0.845352,-0.0483939,-0.000777044,0,
6,1.5103,0.84096,-0.0480007,-0.000796021,0,
6,1.48874,0.836626,-0.0476143,-0.000814503,0,
6,1.46769,0.832338,-0.0472339,-0.000832613,0,
6,1.44712,0.828085,-0.0468582,-0.000850657,0,
6,1.42698,0.823877,-0.0464854,-0.000869152,0,
6,1.40725,0.819745,-0.0461133,-0.000888532,0,
6,1.38788,0.815736,-0.0457424,-0.000908997,0,
6,1.36886,0.811868,-0.0453741,-0.000929428,0,
6,1.35015,0.808084,-0.0450196,-0.000935251,0,
6,1.33173,0.804314,-0.0446733,-0.00094322,0,
6,1.31357,0.80053,-0.0443261,-0.00095382,0,
6,1.29566,0.796717,-0.0439827,-0.000966166,0,
6,1.27797,0.792854,-0.0436409,-0.000981291,0,
6,1.26048,0.788917,-0.0433015,-0.00100039,0,
6,1.24318,0.784874,-0.0429637,-0.001025,0,
6,1.22605,0.780689,-0.0426277,-0.00105698,0,
6,1.20907,0.776318,-0.0422933,-0.00109845,0,
6,1.19223,0.771708,-0.0419604,-0.00115184,0,
6,1.17551,0.766799,-0.0416289,-0.00121971,0,
6,1.1589,0.761527,-0.0412988,-0.00130459,0,
6,1.14238,0.755825,-0.04097,-0.0014088,0,
6,1.12595,0.749632,-0.0406427,-0.00153405,0,
6,1.10959,0.742893,-0.0403168,-0.00168124,0,
6,1.09329,0.73557,-0.0399929,-0.0018501,0,
6,1.07704,0.727648,-0.0396713,-0.00203912,0,
6,1.06081,0.719125,-0.039352,-0.00224554,0,
6,1.04459,0.710023,-0.0390352,-0.00246557,0,
6,1.02836,0.700384,-0.0387211,-0.00269463,0,
6,1.01211,0.690264,-0.0384104,-0.0029277,0,
6,0.99583,0.679726,-0.0381024,-0.00315961,0,
6,0.97951,0.668837,-0.037799,-0.00338609,0,
6,0.963136,0.657661,-0.0374974,-0.00361795,0,
6,0.946694,0.646159,-0.0371901,-0.00382111,0,
6,0.930172,0.634228,-0.0368809,-0.00402785,0,
6,0.913555,0.621797,-0.0365744,-0.00424102,0,
6,0.896829,0.608816,-0.0362713,-0.00446248,0,
6,0.879979,0.595246,-0.0359728,-0.00469364,0,
6,0.862989,0.581065,-0.0356795,-0.00493557,0,
6,0.845842,0.566266,-0.0353917,-0.00518918,0,
6,0.828521,0.550862,-0.0351111,-0.00545492,0,
6,0.811008,0.534861,-0.03484,-0.00572826,0,
6,0.793282,0.51827,-0.0345793,-0.00600776,0,
6,0.775322,0.501096,-0.03433,-0.0062916,0,
6,0.757107,0.483351,-0.0340925,-0.00657742,0,
6,0.738612,0.46506,-0.0338679,-0.00686232,0,
6,0.719813,0.446258,-0.033657,-0.00714286,0,
6,0.700681,0.426991,-0.0334608,-0.00741516,0,
6,0.681188,0.407314,-0.0332796,-0.00767495,0,
6,0.661304,0.387281,-0.0331119,-0.00791766,0,
6,0.640996,0.366942,-0.0329544,-0.00813844,0,
6,0.620228,0.346331,-0.0328034,-0.00833199,0,
6,0.598964,0.32549,-0.0326592,-0.00849246,0,
6,0.577166,0.304508,-0.0325335,-0.0086136,0,
6,0.554791,0.283588,-0.0324548,-0.0086903,0,
6,0.531799,0.263084,-0.0324718,-0.00872028,0,
6,0.508144,0.243437,-0.0326057,-0.00870552,0,
6,0.48378,0.224926,-0.0328598,-0.00864899,0,
6,0.459585,0.207945,-0.0328408,-0.00842202,0,
6,0.436695,0.192685,-0.0326129,-0.00810156,0,
6,0.414961,0.178718,-0.0324585,-0.00782605,0,
6,0.394252,0.165864,-0.0322868,-0.0075398,0,
6,0.374445,0.153978,-0.0321209,-0.00724959,0,
6,0.355433,0.142941,-0.0319567,-0.00695565,0,
6,0.337122,0.132654,-0.0317919,-0.00665884,0,
6,0.319433,0.123033,-0.0316248,-0.00636017,0,
6,0.3023,0.114005,-0.0314539,-0.00606043,0,
6,0.28567,0.105513,-0.0312776,-0.00576033,0,
6,0.269507,0.0975094,-0.0310949,-0.00546062,0,
6,0.253785,0.0899545,-0.0309047,-0.00516206,0,
6,0.238493,0.0828179,-0.0307062,-0.00486555,0,
6,0.223631,0.0760749,-0.030499,-0.00457206,0,
6,0.209207,0.0697058,-0.030283,-0.00428269,0,
6,0.195237,0.0636946,-0.0300585,-0.00399858,0,
6,0.181744,0.0580278,-0.0298261,-0.00372095,0,
6,0.168754,0.0526933,-0.029587,-0.003451,0,
6,0.156292,0.0476798,-0.0293427,-0.0031899,0,
6,0.144384,0.0429762,-0.0290951,-0.00293873,0,
6,0.133052,0.0385712,-0.0288462,-0.00269843,0,
6,0.122315,0.0344529,-0.0285983,-0.0024698,0,
6,0.112183,0.030609,-0.0283538,-0.00225344,0,
6,0.102665,0.0270264,-0.0281149,-0.00204977,0,
6,0.0937597,0.0236919,-0.0278837,-0.00185899,0,
6,0.0854609,0.0205919,-0.0276621,-0.00168113,0,
6,0.077757,0.0177125,-0.0274517,-0.00151605,0,
6,0.0706309,0.0150401,-0.0272536,-0.00136346,0,
6,0.0640611,0.0125612,-0.0270687,-0.00122293,0,
6,0.0580229,0.0102626,-0.0268975,-0.00109394,0,
6,0.0524888,0.00813156,-0.0267401,-0.000975909,0,
6,0.0474296,0.00615594,-0.0265966,-0.000868179,0,
6,0.042815,0.00432416,-0.0264664,-0.000770081,0,
6,0.0386145,0.00262532,-0.0263492,-0.000680935,0,
6,0.0347975,0.00104917,-0.0262444,-0.000600078,0,
6,0.0313344,-0.000413909,-0.0261511,-0.000526831,0,
6,0.0281964,-0.00177305,-0.0260685,-0.000460483,0,
6,0.0253561,-0.00303681,-0.0259957,-0.000400484,0,
6,0.0227875,-0.00421295,-0.025932,-0.000346258,0,
6,0.0204662,-0.00530859,-0.0258764,-0.000297256,0,
6,0.0183694,-0.00633016,-0.0258284,-0.000252979,0,
6,0.016476,-0.00728336,-0.0257868,-0.000212969,0,
6,0.0147664,-0.00817298,-0.0257516,-0.000176813,0,
6,0.0132228,-0.00900263,-0.0257212,-0.000144141,0,
6,0.0118288,-0.00977429,-0.0256964,-0.000114639,0,
6,0.0105693,-0.0104875,-0.0256751,-8.80657e-05,0,
6,0.00943073,-0.0111378,-0.0256588,-6.42886e-05,0,
6,0.00840063,-0.0117148,-0.0256447,-4.33479e-05,0,
6,0.00746774,-0.0121983,-0.0256352,-2.55467e-05,0,
6,0.00662185,-0.0125546,-0.0256267,-1.14929e-05,0,
6,0.00585371,-0.0127356,-0.0256226,-1.88873e-06,0,
6,0.00515491,-0.0126886,-0.0256181,3.08959e-06,0,
6,0.00451788,-0.0123782,-0.0256173,4.36123e-06,0,
6,0.00393573,-0.0118072,-0.0256146,3.61346e-06,0,
6,0.00340221,-0.0110141,-0.0256154,2.3303e-06,0,
6,0.00291168,-0.0100519,-0.0256131,1.26616e-06,0,
6,0.00245897,-0.00896958,-0.0256146,5.95399e-07,0,
6,0.00203939,-0.00780447,-0.0256121,2.41603e-07,0,
6,0.00164864,-0.00658246,-0.0256142,8.21264e-08,0,
6,0.00128281,-0.00532025,-0.0256112,2.19157e-08,0,
6,0.000938257,-0.00402779,-0.025614,4.03898e-09,0,
6,0.000611645,-0.00270999,-0.0256102,3.92643e-10,0,
6,0.000299862,-0.00136796,-0.0256139,1.06263e-11,0,

10,0.000296632,0.00814931,0.0305275,-4.49894e-11,0,
10,0.000596102,0.0163735,0.0305282,-1.66729e-09,0,
10,0.000900397,0.0247272,0.0305275,-1.69512e-08,0,
10,0.00121153,0.0332651,0.030528,-9.10912e-08,0,
10,0.00153158,0.0420421,0.0305274,-3.40748e-07,0,
10,0.00186264,0.0511125,0.0305279,-1.01326e-06,0,
10,0.00220692,0.0605267,0.0305273,-2.57277e-06,0,
10,0.00256668,0.0703281,0.0305277,-5.81268e-06,0,
10,0.00294431,0.0805447,0.0305272,-1.19724e-05,0,
10,0.00334229,0.0911788,0.0305275,-2.27933e-05,0,
10,0.00376326,0.102193,0.0305271,-4.03931e-05,0,
10,0.00421,0.113498,0.0305272,-6.68261e-05,0,
10,0.00468544,0.124948,0.0305268,-0.000103334,0,
10,0.00519274,0.13635,0.0305268,-0.000149594,0,
10,0.00573524,0.147493,0.0305261,-0.000203473,0,
10,0.00631651,0.158181,0.0305258,-0.000261572,0,
10,0.00694041,0.168265,0.0305249,-0.000320237,0,
10,0.00761104,0.17765,0.0305242,-0.000376449,0,
10,0.00833284,0.186297,0.0305228,-0.000428237,0,
10,0.00911058,0.19421,0.0305213,-0.000474652,0,
10,0.0099494,0.201425,0.0305191,-0.00051553,0,
10,0.0108548,0.207994,0.0305167,-0.00055122,0,
10,0.0118329,0.21398,0.0305134,-0.000582352,0,
10,0.0128901,0.219447,0.0305097,-0.000609675,0,
10,0.0140333,0.224459,0.030505,-0.000633954,0,
10,0.0152702,0.229074,0.0304995,-0.000655916,0,
10,0.0166089,0.233344,0.030493,-0.000676216,0,
10,0.0180584,0.237318,0.0304854,-0.000695436,0,
10,0.0196282,0.241038,0.0304766,-0.000714085,0,
10,0.0213288,0.244539,0.0304664,-0.000732608,0,
10,0.0231714,0.247853,0.0304547,-0.000751402,0,
10,0.0251682,0.25101,0.0304414,-0.00077082,0,
10,0.0273326,0.254034,0.0304262,-0.000791189,0,
10,0.0296789,0.256946,0.0304091,-0.000812813,0,
10,0.0322227,0.259767,0.0303897,-0.000835987,0,
10,0.0349809,0.262514,0.030368,-0.000860997,0,
10,0.0379719,0.265205,0.0303436,-0.000888131,0,
10,0.0412155,0.267853,0.0303164,-0.000917682,0,
10,0.0447333,0.270473,0.0302861,-0.000949954,0,
10,0.0485489,0.27308,0.0302525,-0.000985262,0,
10,0.0526875,0.275687,0.0302152,-0.00102394,0,
10,0.0571768,0.278306,0.0301741,-0.00106634,0,
10,0.0620466,0.280951,0.0301288,-0.00111284,0,
10,0.0673295,0.283635,0.0300791,-0.00116384,0,
10,0.0730607,0.286374,0.0300246,-0.00121977,0,
10,0.0792784,0.289181,0.0299652,-0.00128109,0,
10,0.0860241,0.292072,0.0299006,-0.00134829,0,
10,0.0933428,0.295065,0.0298306,-0.0014219,0,
10,0.101283,0.298177,0.029755,-0.00150247,0,
10,0.109899,0.30143,0.0296735,-0.0015906,0,
10,0.119247,0.304846,0.0295861,-0.0016869,0,
10,0.12939,0.308451,0.0294928,-0.00179203,0,
10,0.140395,0.312273,0.0293936,-0.00190665,0,
10,0.152337,0.316346,0.0292885,-0.00203144,0,
10,0.165296,0.320705,0.0291776,-0.00216707,0,
10,0.179357,0.325395,0.0290613,-0.00231419,0,
10,0.194615,0.330463,0.0289396,-0.00247338,0,
10,0.211171,0.335967,0.0288132,-0.00264515,0,
10,0.229138,0.341973,0.0286819,-0.00282984,0,
10,0.248635,0.348556,0.0285467,-0.00302758,0,
10,0.269793,0.355804,0.0284067,-0.00323816,0,
10,0.292753,0.36382,0.0282642,-0.00346092,0,
10,0.317669,0.372722,0.0281149,-0.00369326,0,
10,0.344708,0.382639,0.0279643,-0.00393116,0,
10,0.372405,0.393102,0.0278172,-0.0041639,0,
10,0.399623,0.403702,0.0276754,-0.00438014,0,
10,0.426397,0.414438,0.0275398,-0.00457619,0,
10,0.452757,0.425309,0.0274083,-0.00475384,0,
10,0.478735,0.43632,0.0272829,-0.0049105,0,
10,0.504358,0.447487,0.0271632,-0.00504447,0,
10,0.529657,0.458825,0.0270498,-0.00515586,0,
10,0.554656,0.470346,0.0269356,-0.00524456,0,
10,0.579382,0.482055,0.0268298,-0.00531009,0,
10,0.603859,0.493957,0.0267069,-0.00537191,0,
10,0.628112,0.506143,0.0266278,-0.0054143,0,
10,0.652163,0.518925,0.0266208,-0.00533261,0,
10,0.676035,0.532563,0.0265956,-0.00522171,0,
10,0.699751,0.546972,0.0265331,-0.00508113,0,
10,0.72333,0.561875,0.0264316,-0.00491167,0,
10,0.746795,0.576965,0.0263016,-0.0047166,0,
10,0.770165,0.592004,0.0261528,-0.00450046,0,
10,0.79346,0.606842,0.0259915,-0.00426814,0,
10,0.816699,0.621379,0.0258203,-0.00402448,0,
10,0.839903,0.635531,0.0256384,-0.00377454,0,
10,0.863088,0.649192,0.0254438,-0.00353037,0,
10,0.886275,0.662258,0.0252374,-0.00329401,0,
10,0.909481,0.674675,0.0250219,-0.00306605,0,
10,0.932723,0.686441,0.024799,-0.00284715,0,
10,0.956021,0.697587,0.0245697,-0.00263803,0,
10,0.97939,0.708148,0.0243337,-0.00243937,0,
10,1.00285,0.718154,0.0240908,-0.00225174,0,
10,1.02641,0.727628,0.0238408,-0.00207563,0,
10,1.0501,0.736591,0.023584,-0.00191139,0,
10,1.07392,0.745068,0.0233203,-0.00175912,0,
10,1.0979,0.753095,0.0230516,-0.00161385,0,
10,1.12205,0.760693,0.0227757,-0.00148241,0,
10,1.14639,0.76786,0.0224909,-0.00136419,0,
10,1.17093,0.774607,0.0221983,-0.0012597,0,
10,1.19568,0.780958,0.0218979,-0.00116923,0,
10,1.22066,0.786955,0.02159,-0.00109234,0,
10,1.24589,0.792643,0.0212751,-0.00102797,0,
10,1.27137,0.798076,0.0209534,-0.00097504,0,
10,1.29713,0.80331,0.0206257,-0.000937252,0,
10,1.32317,0.808467,0.0202932,-0.000892366,0,
10,1.34951,0.813676,0.0199554,-0.000850221,0,
10,1.37616,0.818958,0.0196114,-0.000811273,0,
10,1.40313,0.824255,0.0192596,-0.000775481,0,
10,1.43043,0.829496,0.0188997,-0.000742442,0,
10,1.45807,0.83465,0.0185318,-0.00071145,0,
10,1.48607,0.839723,0.0181565,-0.000681814,0,
10,1.51444,0.84474,0.017774,-0.000653096,0,
10,1.54318,0.849714,0.0173843,-0.00062514,0,
10,1.57231,0.854639,0.0169869,-0.000597928,0,
10,1.60184,0.859494,0.0165818,-0.000571472,0,
10,1.63178,0.864253,0.0161687,-0.000545776,0,
10,1.66213,0.868892,0.0157482,-0.000520855,0,
10,1.69292,0.873391,0.0153196,-0.000496679,0,
10,1.72416,0.877743,0.0148843,-0.00047308,0,
10,1.75585,0.88197,0.0144397,-0.000447919,0,
10,1.78802,0.886123,0.0139863,-0.000419226,0,
10,1.82067,0.890228,0.0135259,-0.00039143,0,
10,1.85383,0.894271,0.0130568,-0.000362656,0,
10,1.88751,0.898228,0.0125793,-0.000332903,0,
10,1.92173,0.902077,0.0120934,-0.000302523,0,
10,1.95652,0.905791,0.0115984,-0.000271944,0,
10,1.9919,0.909345,0.0110952,-0.000241657,0,
10,2.02791,0.912717,0.0105821,-0.000212221,0,
10,2.06456,0.915886,0.0100614,-0.000183884,0,
10,2.10268,0.91889,0.00951806,-0.00015624,0,
10,2.1443,0.92182,0.00892806,-0.000129667,0,
10,2.18977,0.924624,0.00828416,-0.000104307,0,
10,2.23946,0.927219,0.00758463,-8.04691e-05,0,
10,2.29376,0.929522,0.0068239,-5.89763e-05,0,
10,2.35309,0.93145,0.00599974,-4.05087e-05,0,
10,2.4179,0.932932,0.00510814,-2.55721e-05,0,
10,2.48863,0.933924,0.00414749,-1.44353e-05,0,
10,2.56575,0.934422,0.0031157,-7.02446e-06,0,
10,2.64971,0.93448,0.0020126,-2.85808e-06,0,
10,2.74098,0.934217,0.000838257,-1.08762e-06,0,
10,2.83997,0.93381,-0.000405728,-6.83582e-07,0,
10,2.94709,0.933465,-0.00171732,-7.37821e-07,0,
10,3.06269,0.933367,-0.00309323,-7.26432e-07,0,
10,3.18706,0.933628,-0.00452946,-5.45754e-07,0,
10,3.3204,0.934255,-0.00602042,-3.1481e-07,0,
10,3.46281,0.935155,-0.00755898,-1.46501e-07,0,
10,3.61427,0.936182,-0.00913588,-6.26562e-08,0,
10,3.77463,0.937199,-0.0107399,-3.19614e-08,0,
10,3.94358,0.938123,-0.0123584,-2.26855e-08,0,
10,4.12067,0.938938,-0.0139774,-1.95733e-08,0,
10,4.30525,0.939676,-0.0155828,-1.81711e-08,0,
10,4.49655,0.940382,-0.0171608,-1.76421e-08,0,
10,4.6936,0.941084,-0.0186981,-1.79646e-08,0,
10,4.89531,0.941784,-0.0201826,-1.96336e-08,0,
10,5.10047,0.942469,-0.0216034,-2.4107e-08,0,
10,5.30776,0.943117,-0.0229516,-3.46357e-08,0,
10,5.51581,0.943712,-0.0242199,-5.79452e-08,0,
10,5.72323,0.944252,-0.0254032,-1.08471e-07,0,
10,5.92863,0.94476,-0.0264983,-2.21434e-07,0,
10,6.13069,0.945302,-0.0275041,-4.89449e-07,0,
10,6.32816,0.945975,-0.0284214,-1.10706e-06,0,
10,6.51991,0.946811,-0.0292524,-2.15929e-06,0,
10,6.70495,0.947583,-0.030001,-2.35091e-06,0,
10,6.88244,0.947579,-0.0306709,3.65551e-06,0,
10,7.0517,0.945574,-0.0312663,2.67529e-05,0,
10,7.21224,0.940178,-0.0317879,8.02592e-05,0,
10,7.3637,0.930503,-0.0322412,0.000173398,0,
10,7.5059,0.916588,-0.0326306,0.000297301,0,
10,7.63878,0.899027,-0.0329603,0.000405108,0,
10,7.76243,0.878921,-0.0332401,0.000524275,0,
10,7.87701,0.858037,-0.0334645,0.000646029,0,
10,7.9828,0.837833,-0.0336499,0.000756497,0,
10,8.08014,0.819024,-0.0337987,0.000850633,0,
10,8.16941,0.801693,-0.0339218,0.00092893,0,
10,8.25106,0.785595,-0.0340235,0.000994567,0,
10,8.32554,0.770401,-0.0341099,0.00105079,0,
10,8.39331,0.75583,-0.0341832,0.00109987,0,
10,8.45484,0.741682,-0.0342462,0.00114308,0,
10,8.5106,0.727837,-0.0343,0.00118103,0,
10,8.56104,0.714234,-0.0343463,0.00121397,0,
10,8.60659,0.700857,-0.0343858,0.00124197,0,
10,8.64767,0.687711,-0.0344202,0.00126516,0,
10,8.68467,0.674803,-0.0344499,0.00128355,0,
10,8.71795,0.662109,-0.0344758,0.00129356,0,
10,8.74786,0.649599,-0.0344982,0.00130007,0,
10,8.77471,0.637271,-0.0345176,0.00130229,0,
10,8.79881,0.62512,-0.0345343,0.00130068,0,
10,8.8204,0.61314,-0.0345486,0.00129573,0,
10,8.83975,0.60132,-0.0345609,0.00128795,0,
10,8.85708,0.589647,-0.0345714,0.00127784,0,
10,8.87259,0.578103,-0.0345805,0.00126582,0,
10,8.88646,0.566667,-0.0345883,0.00125231,0,
10,8.89886,0.555315,-0.0345949,0.00123764,0,
10,8.90995,0.544021,-0.0346004,0.00122212,0,
10,8.91986,0.532753,-0.0346051,0.00120594,0,
10,8.92872,0.521479,-0.034609,0.00118929,0,
10,8.93663,0.510163,-0.0346123,0.00117225,0,
10,8.94369,0.498767,-0.034615,0.00115485,0,
10,8.95,0.487249,-0.0346172,0.00113706,0,
10,8.95564,0.475564,-0.0346192,0.00111879,0,
10,8.96067,0.463661,-0.0346207,0.0010999,0,
10,8.96517,0.451487,-0.034622,0.00108013,0,
10,8.96918,0.43898,-0.034623,0.00105915,0,
10,8.97276,0.42607,-0.034624,0.00103653,0,
10,8.97596,0.412677,-0.0346245,0.00101171,0,
10,8.97882,0.398709,-0.0346253,0.000983975,0,
10,8.98137,0.384058,-0.0346256,0.000952382,0,
10,8.98365,0.368597,-0.0346262,0.000915723,0,
10,8.98569,0.352176,-0.0346263,0.000872585,0,
10,8.9875,0.334613,-0.0346268,0.000820793,0,
10,8.98913,0.315673,-0.0346267,0.000755282,0,
10,8.99058,0.295126,-0.0346272,0.000677885,0,
10,8.99188,0.272809,-0.0346269,0.000586208,0,
10,8.99304,0.248562,-0.0346275,0.000473456,0,
10,8.99408,0.222342,-0.0346271,0.000347231,0,
10,8.99501,0.19452,-0.0346276,0.000221217,0,
10,8.99583,0.165998,-0.0346272,0.000117266,0,
10,8.99658,0.138043,-0.0346277,5.03596e-05,0,
10,8.99724,0.11177,-0.0346272,1.73796e-05,0,
10,8.99784,0.087767,-0.0346278,4.77418e-06,0,
10,8.99837,0.0661449,-0.0346271,1.00118e-06,0,
10,8.99885,0.0467688,-0.0346279,1.43415e-07,0,
10,8.99927,0.0294274,-0.0346271,1.08877e-08,0,
10,8.99966,0.0139058,-0.0346281,2.40885e-10,0,
10,0,0,0.0305284,0,0,
10,9,0,-0.034627,0,0,

0.004,0,0,-0.223516,0,-8.60368e-08,
0.00868226,0,0,-0.223512,0,-1.74249e-07,
0.014062,0,0,-0.223515,0,-2.83626e-07,
0.0201548,0,0,-0.223514,0,-6.91363e-07,
0.0269766,0,0,-0.223515,0,-1.20717e-06,
0.0345437,0,0,-0.223514,0,-1.89939e-06,
0.0428729,0,0,-0.223513,0,-2.60992e-06,
0.051981,0,0,-0.223512,0,-3.27819e-06,
0.0618853,0,0,-0.22351,0,-3.72342e-06,
0.0726036,0,0,-0.223507,0,-3.78623e-06,
0.0841536,0,0,-0.223502,0,-3.25135e-06,
0.0965535,0,0,-0.223498,0,-1.929e-06,
0.109822,0,0,-0.223493,0,3.37264e-07,
0.123977,0,0,-0.22349,0,3.61163e-06,
0.139037,0,0,-0.223489,0,7.83823e-06,
0.155022,0,0,-0.223491,0,1.28324e-05,
0.171949,0,0,-0.223498,0,1.82933e-05,
0.189839,0,0,-0.223511,0,2.38539e-05,
0.208709,0,0,-0.223529,0,2.91263e-05,
0.228579,0,0,-0.223552,0,3.37614e-05,
0.249467,0,0,-0.223578,0,3.74802e-05,
0.271391,0,0,-0.223608,0,4.01036e-05,
0.29437,0,0,-0.223638,0,4.15547e-05,
0.31842,0,0,-0.223668,0,4.1861e-05,
0.343559,0,0,-0.223696,0,4.11392e-05,
0.369804,0,0,-0.223722,0,3.95816e-05,
0.39717,0,0,-0.223743,0,3.7436e-05,
0.425672,0,0,-0.223762,0,3.49879e-05,
0.455324,0,0,-0.223776,0,3.25447e-05,
0.48614,0,0,-0.223788,0,3.04195e-05,
0.518132,0,0,-0.223798,0,2.8919e-05,
0.551309,0,0,-0.223808,0,2.83244e-05,
0.585683,0,0,-0.223819,0,2.88274e-05,
0.621259,0,0,-0.223835,0,3.0491e-05,
0.658046,0,0,-0.223857,0,3.32551e-05,
0.696047,0,0,-0.22389,0,3.69775e-05,
0.735265,0,0,-0.223935,0,4.14794e-05,
0.7757,0,0,-0.223996,0,4.65808e-05,
0.817352,0,0,-0.224076,0,5.21288e-05,
0.860215,0,0,-0.224179,0,5.79852e-05,
0.904285,0,0,-0.224311,0,6.39706e-05,
0.949552,0,0,-0.224478,0,6.98035e-05,
0.996004,0,0,-0.224691,0,7.49624e-05,
1.04363,0,0,-0.224967,0,7.84932e-05,
1.09241,0,0,-0.225324,0,7.89536e-05,
1.14232,0,0,-0.225785,0,7.4479e-05,
1.19335,0,0,-0.226372,0,6.29801e-05,
1.24546,0,0,-0.2271,0,4.25675e-05,
1.29863,0,0,-0.227969,0,1.2107e-05,
1.35283,0,0,-0.228968,0,-2.83381e-05,
1.40802,0,0,-0.230071,0,-7.74379e-05,
1.46416,0,0,-0.231243,0,-0.000132989,
1.52121,0,0,-0.232453,0,-0.000192576,
1.57913,0,0,-0.233668,0,-0.000254163,
1.63787,0,0,-0.234864,0,-0.00031639,
1.69739,0,0,-0.236019,0,-0.000378547,
1.75761,0,0,-0.237116,0,-0.000440365,
1.81851,0,0,-0.23814,0,-0.000501791,
1.88,0,0,-0.239079,0,-0.000562836,
1.94204,0,0,-0.239918,0,-0.000623496,
2.00457,0,0,-0.240647,0,-0.000683738,
2.06751,0,0,-0.241255,0,-0.000743502,
2.13081,0,0,-0.24173,0,-0.000802713,
2.19439,0,0,-0.242062,0,-0.000861285,
2.25819,0,0,-0.242243,0,-0.000919127,
2.32214,0,0,-0.242262,0,-0.000976136,
2.38617,0,0,-0.242112,0,-0.0010322,
2.4502,0,0,-0.241784,0,-0.00108719,
2.51418,0,0,-0.241272,0,-0.00114098,
2.57803,0,0,-0.24057,0,-0.0011934,
2.64167,0,0,-0.239674,0,-0.00124429,
2.70505,0,0,-0.238578,0,-0.00129349,
2.76808,0,0,-0.237283,0,-0.00134083,
2.83072,0,0,-0.235786,0,-0.00138611,
2.89288,0,0,-0.234089,0,-0.00142916,
2.95451,0,0,-0.232195,0,-0.00146978,
3.01555,0,0,-0.230108,0,-0.0015078,
3.07594,0,0,-0.227835,0,-0.00154304,
3.13561,0,0,-0.225383,0,-0.00157535,
3.19453,0,0,-0.222763,0,-0.00160459,
3.25262,0,0,-0.219988,0,-0.00163067,
3.30985,0,0,-0.217071,0,-0.00165354,
3.36617,0,0,-0.214027,0,-0.00167319,
3.42154,0,0,-0.210872,0,-0.00168966,
3.47591,0,0,-0.207624,0,-0.00170302,
3.52925,0,0,-0.204298,0,-0.00171338,
3.58152,0,0,-0.200912,0,-0.00172086,
3.6327,0,0,-0.197483,0,-0.00172563,
3.68276,0,0,-0.194026,0,-0.00172787,
3.73167,0,0,-0.190557,0,-0.00172777,
3.77941,0,0,-0.18709,0,-0.00172551,
3.82596,0,0,-0.183638,0,-0.00172129,
3.8713,0,0,-0.180214,0,-0.00171532,
3.91543,0,0,-0.176826,0,-0.00170765,
3.95833,0,0,-0.173501,0,-0.0016988,
4,0,0,-0.170215,0,-0.0016887,
4.04167,0,0,-0.166902,0,-0.00167705,
4.08333,0,0,-0.16356,0,-0.00166412,
4.125,0,0,-0.160193,0,-0.00164989,
4.16667,0,0,-0.156803,0,-0.00163439,
4.20833,0,0,-0.153396,0,-0.00161767,
4.25,0,0,-0.149974,0,-0.00159977,
4.29167,0,0,-0.146541,0,-0.00158075,
4.33333,0,0,-0.1431,0,-0.00156063,
4.375,0,0,-0.139656,0,-0.00153948,
4.41667,0,0,-0.136211,0,-0.00151732,
4.45833,0,0,-0.132767,0,-0.0014942,
4.5,0,0,-0.12933,0,-0.00147015,
4.54167,0,0,-0.1259,0,-0.00144523,
4.58333,0,0,-0.122481,0,-0.00141947,
4.625,0,0,-0.119076,0,-0.0013929,
4.66667,0,0,-0.115687,0,-0.00136557,
4.70833,0,0,-0.112316,0,-0.00133751,
4.75,0,0,-0.108966,0,-0.00130876,
4.79167,0,0,-0.105639,0,-0.00127936,
4.83333,0,0,-0.102336,0,-0.00124933,
4.875,0,0,-0.0990614,0,-0.00121872,
4.91667,0,0,-0.0958151,0,-0.00118756,
4.95833,0,0,-0.0925993,0,-0.00115586,
5,0,0,-0.0894159,0,-0.00112367,
5.04167,0,0,-0.0862662,0,-0.00109101,
5.08333,0,0,-0.0831519,0,-0.00105791,
5.125,0,0,-0.0800744,0,-0.0010244,
5.16667,0,0,-0.0770349,0,-0.000990508,
5.20833,0,0,-0.0740348,0,-0.000956257,
5.25,0,0,-0.0710751,0,-0.000921674,
5.29167,0,0,-0.068157,0,-0.000886787,
5.33333,0,0,-0.0652814,0,-0.00085162,
5.375,0,0,-0.0624493,0,-0.0008162,
5.41667,0,0,-0.0596615,0,-0.000780552,
5.45833,0,0,-0.0569189,0,-0.000744699,
5.5,0,0,-0.0542221,0,-0.000708667,
5.54167,0,0,-0.0515717,0,-0.00067248,
5.58333,0,0,-0.0489684,0,-0.000636163,
5.625,0,0,-0.0464127,0,-0.00059974,
5.66667,0,0,-0.0439048,0,-0.000563235,
5.70833,0,0,-0.0414453,0,-0.000526669,
5.75,0,0,-0.0390345,0,-0.000490061,
5.79167,0,0,-0.0366726,0,-0.000453429,
5.83333,0,0,-0.03436,0,-0.000416787,
5.875,0,0,-0.0320969,0,-0.000380148,
5.91667,0,0,-0.0298837,0,-0.000343523,
5.95833,0,0,-0.027721,0,-0.000306925,
6,0,0,-0.0256093,0,-0.000270376,
6.04167,0,0,-0.0235493,0,-0.000233915,
6.08333,0,0,-0.021542,0,-0.000197613,
6.125,0,0,-0.0195881,0,-0.00016157,
6.16667,0,0,-0.0176876,0,-0.000125891,
6.20833,0,0,-0.0158398,0,-9.06521e-05,
6.25,0,0,-0.0140434,0,-5.58803e-05,
6.29167,0,0,-0.0122972,0,-2.15681e-05,
6.33333,0,0,-0.0106002,0,1.23033e-05,
6.375,0,0,-0.00895129,0,4.575e-05,
6.41667,0,0,-0.00734947,0,7.87826e-05,
6.45833,0,0,-0.00579383,0,0.000111407,
6.5,0,0,-0.00428349,0,0.000143628,
6.54167,0,0,-0.00281757,0,0.000175446,
6.58333,0,0,-0.00139523,0,0.000206865,
6.625,0,0,-1.56242e-05,0,0.000237887,
6.66667,0,0,0.00132206,0,0.000268513,
6.70833,0,0,0.00261862,0,0.000298744,
6.75,0,0,0.00387485,0,0.000328581,
6.79167,0,0,0.00509155,0,0.000358025,
6.83333,0,0,0.00626949,0,0.000387076,
6.875,0,0,0.00740945,0,0.000415734,
6.91667,0,0,0.0085122,0,0.000443999,
6.95833,0,0,0.0095785,0,0.000471872,
7,0,0,0.0106091,0,0.000499354,
7.04167,0,0,0.0116048,0,0.000526445,
7.08333,0,0,0.0125663,0,0.000553147,
7.125,0,0,0.0134944,0,0.00057946,
7.16667,0,0,0.0143897,0,0.000605384,
7.20833,0,0,0.0152531,0,0.00063092,
7.25,0,0,0.0160852,0,0.000656071,
7.29167,0,0,0.0168868,0,0.000680838,
7.33333,0,0,0.0176586,0,0.000705222,
7.375,0,0,0.0184012,0,0.000729228,
7.41667,0,0,0.0191154,0,0.000752857,
7.45833,0,0,0.0198018,0,0.000776113,
7.5,0,0,0.0204611,0,0.000799001,
7.54167,0,0,0.0210939,0,0.000821527,
7.58333,0,0,0.0217008,0,0.000843701,
7.625,0,0,0.0222827,0,0.000865536,
7.66667,0,0,0.0228399,0,0.000887046,
7.70833,0,0,0.0233731,0,0.00090824,
7.75,0,0,0.0238827,0,0.000929125,
7.79167,0,0,0.0243692,0,0.000949701,
7.83333,0,0,0.0248326,0,0.000969959,
7.875,0,0,0.0252729,0,0.000989948,
7.91667,0,0,0.0257007,0,0.0010102,
7.95833,0,0,0.0260504,0,0.00102926,
8,0,0,0.0264771,0,0.0010482,
8.04171,0,0,0.0269188,0,0.00106815,
8.08368,0,0,0.02723,0,0.00108786,
8.12617,0,0,0.0275785,0,0.00110589,
8.16946,0,0,0.0279089,0,0.001124,
8.21382,0,0,0.0282221,0,0.00114212,
8.25952,0,0,0.0285256,0,0.00116029,
8.30685,0,0,0.028819,0,0.00117869,
8.35611,0,0,0.0291028,0,0.0011974,
8.40762,0,0,0.0293769,0,0.00121651,
8.46168,0,0,0.0296411,0,0.00123609,
8.51865,0,0,0.0298944,0,0.0012562,
8.57889,0,0,0.0301356,0,0.00127688,
8.64276,0,0,0.0303629,0,0.00129819,
8.71067,0,0,0.0305741,0,0.00132016,
8.78306,0,0,0.0307666,0,0.00134281,
8.86037,0,0,0.0309374,0,0.00136616,
8.94309,0,0,0.0310828,0,0.00139022,
9.03174,0,0,0.0311988,0,0.00141498,
9.12689,0,0,0.031281,0,0.00144042,
9.22912,0,0,0.0313244,0,0.00146653,
9.33908,0,0,0.0313239,0,0.00149326,
9.45746,0,0,0.031274,0,0.00152054,
9.58501,0,0,0.0311693,0,0.00154832,
9.72253,0,0,0.0310041,0,0.00157652,
9.87088,0,0,0.0307727,0,0.00160504,
10.031,0,0,0.0304697,0,0.00163378,
10.2039,0,0,0.0300909,0,0.0016626,
10.3906,0,0,0.0296324,0,0.0016914,
10.5924,0,0,0.0290906,0,0.00172002,
10.8105,0,0,0.0284648,0,0.00174833,
11.0463,0,0,0.0277552,0,0.00177621,
11.3012,0,0,0.0269623,0,0.00180353,
11.5769,0,0,0.0260906,0,0.00183017,
11.8751,0,0,0.0251451,0,0.00185602,
12.1977,0,0,0.0241338,0,0.001881,
12.5466,0,0,0.0230663,0,0.00190502,
12.9242,0,0,0.0219538,0,0.00192804,
13.3327,0,0,0.0208094,0,0.00195002,
13.7748,0,0,0.0196478,0,0.00197095,
14.2532,0,0,0.0184841,0,0.00199084,
14.7709,0,0,0.0173332,0,0.00200972,
15.3312,0,0,0.0162105,0,0.00202763,
15.9377,0,0,0.0151298,0,0.00204463,
16.594,0,0,0.0141039,0,0.00206081,
17.3044,0,0,0.0131423,0,0.00207625,
18.0733,0,0,0.0122524,0,0.00209099,
18.9056,0,0,0.0114382,0,0.00210496,
19.8064,0,0,0.0107002,0,0.00211814,
20.7816,0,0,0.0100361,0,0.00213074,
21.8371,0,0,0.00943874,0,0.00214307,
22.9796,0,0,0.00889812,0,0.00215538,
24.2163,0,0,0.00840096,0,0.00216778,
25.5551,0,0,0.00793185,0,0.00218025,
27.0042,0,0,0.00747407,0,0.00219295,
28.5729,0,0,0.00700948,0,0.00220595,
30.271,0,0,0.00651953,0,0.00221925,
32.1091,0,0,0.00598656,0,0.00223281,
34.0989,0,0,0.0053948,0,0.00224653,
36.2529,0,0,0.00472613,0,0.00226035,
38.5845,0,0,0.0039718,0,0.00227421,
41.1085,0,0,0.00316796,0,0.00228788,
43.8407,0,0,0.00216023,0,0.0022992,
46.7983,0,0,0.00111199,0,0.00230609,
50,0,0,0.00205709,0,0.00232235,

