8d35b97789c5a107c8e98d735de726d671ccbe4c 
X,Z,x_velocity,cp,uw_b,cf,
1,0,0,-0.224234,0,0,
1,9,0,-0.130616,0,0,
1,1.01284,0.487269,-0.207002,-0.00650353,0,
1,0.000308731,0.000371795,-0.224234,-2.02812e-15,0,
1,0.000654158,0.000775969,-0.224234,-8.94056e-14,0,
1,0.00104139,0.00121464,-0.224234,-1.15107e-12,0,
1,0.00147619,0.00168915,-0.224234,-7.88727e-12,0,
1,0.00196502,0.00219999,-0.224234,-3.73938e-11,0,
1,0.00251518,0.00274646,-0.224234,-1.39636e-10,0,
1,0.0031349,0.00332616,-0.224234,-4.40876e-10,0,
1,0.00383341,0.00393441,-0.224234,-1.2266e-09,0,
1,0.00462115,0.00456328,-0.224234,-3.08137e-09,0,
1,0.00550983,0.00520063,-0.224234,-7.08011e-09,0,
1,0.00651264,0.00582848,-0.224234,-1.49233e-08,0,
1,0.00764438,0.00642119,-0.224234,-2.85769e-08,0,
1,0.00892169,0.00694289,-0.224233,-4.80463e-08,0,
1,0.0103632,0.00734467,-0.224233,-6.36277e-08,0,
1,0.0119898,0.00756193,-0.224233,-3.43771e-08,0,
1,0.0138248,0.00751472,-0.224233,1.61036e-07,0,
1,0.0158944,0.00711552,-0.224232,8.08069e-07,0,
1,0.0182274,0.00628965,-0.224231,2.42705e-06,0,
1,0.0208562,0.00500292,-0.224229,5.67912e-06,0,
1,0.0238164,0.00327508,-0.224226,1.10033e-05,0,
1,0.0271475,0.00116094,-0.224222,1.82771e-05,0,
1,0.0308929,-0.00127892,-0.224216,2.72568e-05,0,
1,0.0351001,-0.00399619,-0.224207,3.75742e-05,0,
1,0.0398209,-0.0069655,-0.224196,4.84265e-05,0,
1,0.0451115,-0.0101794,-0.224182,5.93529e-05,0,
1,0.0510323,-0.0136333,-0.224166,6.99691e-05,0,
1,0.057648,-0.0173135,-0.224147,7.98691e-05,0,
1,0.0650269,-0.0211893,-0.224126,8.85847e-05,0,
1,0.0732406,-0.0252084,-0.224103,9.55886e-05,0,
1,0.0823632,-0.0292957,-0.224081,0.000100329,0,
1,0.0924701,-0.0333566,-0.224059,0.00010228,0,
1,0.103636,-0.0372833,-0.224041,0.00010101,0,
1,0.115935,-0.0409642,-0.224028,9.62445e-05,0,
1,0.129436,-0.0442938,-0.224023,8.79084e-05,0,
1,0.144202,-0.047182,-0.224028,7.61393e-05,0,
1,0.160284,-0.0495598,-0.224045,6.12592e-05,0,
1,0.177724,-0.0513821,-0.224076,4.37093e-05,0,
1,0.196544,-0.0526272,-0.224119,2.39699e-05,0,
1,0.21675,-0.053293,-0.224176,2.51152e-06,0,
1,0.238323,-0.0533929,-0.224245,-2.02353e-05,0,
1,0.26122,-0.0529516,-0.224323,-4.38819e-05,0,
1,0.28537,-0.0520011,-0.224407,-6.80632e-05,0,
1,0.310673,-0.0505789,-0.224494,-9.2412e-05,0,
1,0.337003,-0.0487267,-0.22458,-0.000116543,0,
1,0.364206,-0.0464903,-0.22466,-0.000140045,0,
1,0.392107,-0.0439193,-0.224731,-0.000162504,0,
1,0.420509,-0.0410669,-0.224786,-0.0001835,0,
1,0.449206,-0.0379896,-0.224824,-0.00020263,0,
1,0.477982,-0.0347462,-0.224838,-0.000219525,0,
1,0.506624,-0.0313966,-0.224826,-0.000233876,0,
1,0.534925,-0.0279992,-0.224784,-0.000245448,0,
1,0.562692,-0.0246086,-0.224708,-0.00025411,0,
1,0.589754,-0.0212719,-0.224594,-0.000259865,0,
1,0.615961,-0.0180245,-0.22444,-0.000262893,0,
1,0.641193,-0.0148861,-0.224239,-0.000263617,0,
1,0.665359,-0.0118562,-0.223989,-0.000262799,0,
1,0.688396,-0.00890945,-0.223682,-0.000261726,0,
1,0.710271,-0.00598751,-0.223315,-0.00026229,0,
1,0.730976,-0.00298827,-0.22288,-0.000268131,0,
1,0.750529,0.000262561,-0.222374,-0.000285222,0,
1,0.768969,0.00408466,-0.221793,-0.000322928,0,
1,0.78635,0.00905357,-0.221139,-0.000397015,0,
1,0.802743,0.016106,-0.220416,-0.000528975,0,
1,0.818232,0.0264471,-0.219639,-0.000745001,0,
1,0.832689,0.0408203,-0.218823,-0.00107724,0,
1,0.846039,0.0588288,-0.217994,-0.00153526,0,
1,0.858357,0.0792558,-0.217182,-0.00207924,0,
1,0.869723,0.100812,-0.216399,-0.00265407,0,
1,0.880212,0.12258,-0.215653,-0.0032198,0,
1,0.889898,0.144011,-0.214946,-0.00375448,0,
1,0.898852,0.1648,-0.214281,-0.00424743,0,
1,0.907141,0.184785,-0.213659,-0.00469416,0,
1,0.914826,0.203893,-0.213082,-0.00509376,0,
1,0.921966,0.222099,-0.212547,-0.00544747,0,
1,0.928616,0.239413,-0.212056,-0.00575774,0,
1,0.934823,0.255866,-0.211604,-0.00602766,0,
1,0.940633,0.271502,-0.211189,-0.00626063,0,
1,0.946088,0.286371,-0.21081,-0.00646002,0,
1,0.951224,0.300526,-0.210463,-0.00662978,0,
1,0.956076,0.314028,-0.210145,-0.00677244,0,
1,0.960675,0.32694,-0.209851,-0.00688992,0,
1,0.965047,0.339332,-0.209577,-0.00698453,0,
1,0.969219,0.351272,-0.20932,-0.00705776,0,
1,0.973211,0.362824,-0.209078,-0.00711187,0,
1,0.977045,0.374044,-0.208849,-0.00714806,0,
1,0.980739,0.384985,-0.208632,-0.00716729,0,
1,0.984308,0.395694,-0.208425,-0.00717025,0,
1,0.987768,0.406213,-0.208229,-0.00715745,0,
1,0.991131,0.41658,-0.208041,-0.0071292,0,
1,0.99441,0.426833,-0.207862,-0.0070852,0,
1,0.997615,0.437001,-0.207692,-0.00702582,0,
1,1.00076,0.447112,-0.207531,-0.00695109,0,
1,1.00384,0.457184,-0.207381,-0.00686098,0,
1,1.00688,0.467231,-0.207242,-0.00675643,0,
1,1.00988,0.477258,-0.207116,-0.00663733,0,
1,1.01581,0.497376,-0.206899,-0.00635278,0,
1,1.01882,0.507691,-0.206808,-0.00618305,0,
1,1.02188,0.518218,-0.206729,-0.00599395,0,
1,1.025,0.528957,-0.206664,-0.00578462,0,
1,1.02818,0.539901,-0.206614,-0.00555457,0,
1,1.03144,0.551039,-0.206582,-0.00530365,0,
1,1.03478,0.562352,-0.206568,-0.00503222,0,
1,1.03822,0.573808,-0.206576,-0.00474135,0,
1,1.04177,0.585359,-0.206608,-0.00443317,0,
1,1.04544,0.596943,-0.206665,-0.00411112,0,
1,1.04925,0.608474,-0.206752,-0.00378029,0,
1,1.05321,0.619849,-0.20687,-0.00344759,0,
1,1.05735,0.63095,-0.207021,-0.00312161,0,
1,1.06169,0.641651,-0.207208,-0.00281209,0,
1,1.06626,0.65184,-0.207433,-0.00252878,0,
1,1.07108,0.661434,-0.207694,-0.00227993,0,
1,1.07618,0.6704,-0.207992,-0.00207098,0,
1,1.0816,0.678761,-0.208323,-0.00190371,0,
1,1.08738,0.686589,-0.208683,-0.00177628,0,
1,1.09357,0.693988,-0.209069,-0.00168404,0,
1,1.10022,0.701079,-0.209475,-0.0016206,0,
1,1.10739,0.707978,-0.209896,-0.00157894,0,
1,1.11514,0.714788,-0.210328,-0.00155231,0,
1,1.12354,0.721597,-0.210766,-0.00153473,0,
1,1.13268,0.728469,-0.211204,-0.00152134,0,
1,1.14266,0.735455,-0.211639,-0.00150848,0,
1,1.15357,0.742586,-0.212065,-0.00149364,0,
1,1.16554,0.749884,-0.212475,-0.00147538,0,
1,1.1787,0.757361,-0.212862,-0.00145277,0,
1,1.1932,0.765021,-0.213217,-0.0014257,0,
1,1.2092,0.772868,-0.21353,-0.00139456,0,
1,1.22689,0.780903,-0.213791,-0.00135957,0,
1,1.24659,0.78917,-0.213988,-0.00132044,0,
1,1.26879,0.797753,-0.214111,-0.00127882,0,
1,1.29378,0.806649,-0.214141,-0.00123539,0,
1,1.3219,0.815854,-0.214062,-0.00119057,0,
1,1.35351,0.825375,-0.213862,-0.00114522,0,
1,1.389,0.83523,-0.213523,-0.00110022,0,
1,1.42882,0.845456,-0.213042,-0.00105667,0,
1,1.47342,0.856118,-0.212392,-0.00101354,0,
1,1.52332,0.867313,-0.211557,-0.000956097,0,
1,1.57905,0.879148,-0.210543,-0.0008985,0,
1,1.64119,0.891741,-0.20934,-0.000838175,0,
1,1.71033,0.905228,-0.20793,-0.000771934,0,
1,1.78711,0.919728,-0.206296,-0.000697017,0,
1,1.87215,0.93528,-0.20442,-0.000611387,0,
1,1.9661,0.951736,-0.202286,-0.000514758,0,
1,2.06959,0.968596,-0.199857,-0.000411423,0,
1,2.18321,0.984944,-0.197168,-0.00029221,0,
1,2.30752,0.999521,-0.194236,-0.00015463,0,
1,2.44299,1.01074,-0.19103,-5.45503e-05,0,
1,2.59002,1.01709,-0.187607,-6.72038e-06,0,
1,2.74885,1.01832,-0.184038,9.40388e-07,0,
1,2.91959,1.01618,-0.180385,9.72219e-08,0,
1,3.10217,1.01315,-0.176703,5.21274e-08,0,
1,3.2963,1.01068,-0.173034,4.1253e-08,0,
1,3.50146,1.00894,-0.169411,3.30376e-08,0,
1,3.7169,1.00755,-0.165869,2.90968e-08,0,
1,3.94163,1.00621,-0.162443,2.73147e-08,0,
1,4.17441,1.00484,-0.159166,2.57824e-08,0,
1,4.41376,1.0035,-0.156063,2.39308e-08,0,
1,4.65805,1.00223,-0.153155,2.19299e-08,0,
1,4.90545,1.00107,-0.150456,2.00082e-08,0,
1,5.15407,1.00001,-0.147972,1.8244e-08,0,
1,5.40194,0.999044,-0.145707,1.66586e-08,0,
1,5.64716,0.998172,-0.143658,1.53408e-08,0,
1,5.88785,0.997367,-0.141819,1.43975e-08,0,
1,6.12229,0.996595,-0.140179,1.36065e-08,0,
1,6.34896,0.995888,-0.138727,1.21264e-08,0,
1,6.56652,0.995437,-0.13745,9.46937e-09,0,
1,6.77388,0.995545,-0.136331,3.04532e-09,0,
1,6.97022,0.996172,-0.135355,1.34981e-08,0,
1,7.15495,0.996182,-0.134504,1.67847e-06,0,
1,7.32773,0.993106,-0.133769,1.76653e-05,0,
1,7.48842,0.984385,-0.133143,7.48818e-05,0,
1,7.63711,0.969499,-0.13263,0.00020317,0,
1,7.77403,0.950447,-0.132193,0.000385331,0,
1,7.89956,0.929587,-0.131826,0.000534804,0,
1,8.01417,0.908506,-0.131546,0.000681663,0,
1,8.11843,0.888324,-0.131311,0.000807268,0,
1,8.21296,0.869488,-0.131129,0.000908134,0,
1,8.29839,0.851998,-0.130984,0.000987664,0,
1,8.3754,0.835659,-0.130873,0.00105107,0,
1,8.44464,0.82023,-0.130788,0.00110282,0,
1,8.50675,0.805473,-0.130723,0.00114458,0,
1,8.56236,0.791169,-0.130675,0.00117769,0,
1,8.61206,0.777172,-0.130641,0.00120804,0,
1,8.6564,0.763405,-0.130616,0.00123422,0,
1,8.69591,0.749812,-0.130599,0.00125655,0,
1,8.73107,0.736346,-0.130587,0.00127548,0,
1,8.76232,0.722972,-0.13058,0.00129135,0,
1,8.79007,0.709659,-0.130576,0.00130445,0,
1,8.81469,0.696382,-0.130574,0.001315,0,
1,8.83651,0.683119,-0.130575,0.00132319,0,
1,8.85584,0.669851,-0.130576,0.00132917,0,
1,8.87295,0.656557,-0.130578,0.00133308,0,
1,8.8881,0.64322,-0.130581,0.00133502,0,
1,8.90149,0.629818,-0.130584,0.0013351,0,
1,8.91333,0.61633,-0.130587,0.00133339,0,
1,8.92379,0.602733,-0.13059,0.00132993,0,
1,8.93303,0.588997,-0.130593,0.00132475,0,
1,8.9412,0.575091,-0.130596,0.00131785,0,
1,8.9484,0.560978,-0.130599,0.00130917,0,
1,8.95476,0.546615,-0.130601,0.00129861,0,
1,8.96038,0.531952,-0.130603,0.001286,0,
1,8.96533,0.516929,-0.130605,0.00127107,0,
1,8.9697,0.501477,-0.130607,0.00125346,0,
1,8.97356,0.485512,-0.130609,0.00123265,0,
1,8.97696,0.468936,-0.13061,0.00120792,0,
1,8.97996,0.451631,-0.130611,0.00117832,0,
1,8.98261,0.433455,-0.130612,0.00114256,0,
1,8.98494,0.414236,-0.130613,0.00109989,0,
1,8.98699,0.393732,-0.130613,0.00104392,0,
1,8.98881,0.371633,-0.130614,0.000972828,0,
1,8.99041,0.347651,-0.130614,0.000885654,0,
1,8.99182,0.32157,-0.130615,0.000780057,0,
1,8.99306,0.293231,-0.130615,0.00065261,0,
1,8.99416,0.262493,-0.130615,0.000494115,0,
1,8.99512,0.229527,-0.130615,0.000325703,0,
1,8.99597,0.195307,-0.130616,0.000176818,0,
1,8.99672,0.16149,-0.130616,7.61049e-05,0,
1,8.99739,0.129728,-0.130616,2.57017e-05,0,
1,8.99797,0.100964,-0.130616,6.79222e-06,0,
1,8.99848,0.0753951,-0.130616,1.35913e-06,0,
1,8.99894,0.0528258,-0.130616,1.8541e-07,0,
1,8.99934,0.0329437,-0.130616,1.34415e-08,0,
1,8.99969,0.0154344,-0.130616,2.87575e-10,0,

4,0,0,-0.159186,0,0,
4,9,0,-0.100641,0,0,
4,1.05136,0.683831,-0.159002,-0.00421707,0,
4,0.000303409,-0.00872287,-0.159189,6.94988e-11,0,
4,0.00062865,-0.0179125,-0.159187,2.84885e-09,0,
4,0.000979511,-0.0276433,-0.159189,3.33484e-08,0,
4,0.00136016,-0.0379855,-0.159187,2.07959e-07,0,
4,0.00177519,-0.0490033,-0.15919,9.01833e-07,0,
4,0.0022297,-0.0607443,-0.159188,3.09027e-06,0,
4,0.00272934,-0.0732142,-0.15919,8.92834e-06,0,
4,0.00328037,-0.086326,-0.159189,2.24154e-05,0,
4,0.00388979,-0.0998177,-0.159191,4.9267e-05,0,
4,0.00456537,-0.113173,-0.15919,9.41853e-05,0,
4,0.00531578,-0.125656,-0.159193,0.000155244,0,
4,0.0061507,-0.136554,-0.159195,0.000220921,0,
4,0.0070809,-0.145482,-0.1592,0.000275985,0,
4,0.00811839,-0.152469,-0.159206,0.000310797,0,
4,0.00927657,-0.157801,-0.159216,0.000324006,0,
4,0.0105703,-0.161827,-0.159228,0.000318961,0,
4,0.0120162,-0.164853,-0.159246,0.000299804,0,
4,0.0136326,-0.167113,-0.159267,0.000269735,0,
4,0.0154398,-0.168775,-0.159294,0.000230766,0,
4,0.0174603,-0.169956,-0.159326,0.000183986,0,
4,0.0197189,-0.170738,-0.159365,0.000129854,0,
4,0.0222427,-0.171177,-0.159412,6.84194e-05,0,
4,0.0250617,-0.171311,-0.159466,-5.45712e-07,0,
4,0.0282081,-0.171165,-0.159529,-7.74563e-05,0,
4,0.0317171,-0.170754,-0.159602,-0.000162864,0,
4,0.0356266,-0.170086,-0.159686,-0.000257421,0,
4,0.039977,-0.169162,-0.159781,-0.000361857,0,
4,0.0448114,-0.16798,-0.15989,-0.000476956,0,
4,0.0501747,-0.166532,-0.160011,-0.000603541,0,
4,0.056114,-0.164806,-0.160146,-0.000742449,0,
4,0.062677,-0.162789,-0.160296,-0.00089451,0,
4,0.0699123,-0.16046,-0.16046,-0.00106052,0,
4,0.0778675,-0.157799,-0.160639,-0.00124121,0,
4,0.0865883,-0.15478,-0.160832,-0.00143722,0,
4,0.0961173,-0.151377,-0.161038,-0.00164903,0,
4,0.106492,-0.147557,-0.161256,-0.00187694,0,
4,0.117744,-0.143288,-0.161484,-0.00212104,0,
4,0.129894,-0.138534,-0.161722,-0.00238113,0,
4,0.142956,-0.133261,-0.161966,-0.00265671,0,
4,0.156928,-0.127432,-0.162216,-0.00294692,0,
4,0.171798,-0.121013,-0.162469,-0.00325054,0,
4,0.187537,-0.113974,-0.162723,-0.00356602,0,
4,0.2041,-0.10629,-0.162976,-0.00389144,0,
4,0.221432,-0.0979445,-0.163228,-0.00422461,0,
4,0.239458,-0.0889318,-0.163476,-0.00456314,0,
4,0.258095,-0.0792587,-0.16372,-0.00490455,0,
4,0.27725,-0.0689476,-0.163958,-0.00524645,0,
4,0.296825,-0.058038,-0.164189,-0.00558672,0,
4,0.316717,-0.0465881,-0.164412,-0.00592393,0,
4,0.336828,-0.0346737,-0.164626,-0.00625817,0,
4,0.357066,-0.0223814,-0.164828,-0.00659168,0,
4,0.377348,-0.00978608,-0.165022,-0.0069233,0,
4,0.397605,0.00308093,-0.165206,-0.00723598,0,
4,0.417786,0.0162087,-0.165396,-0.0075345,0,
4,0.437857,0.0295661,-0.1656,-0.00791667,0,
4,0.457804,0.0433694,-0.165524,-0.00814662,0,
4,0.477632,0.0580392,-0.165169,-0.00832092,0,
4,0.497368,0.0738303,-0.164869,-0.00848984,0,
4,0.517057,0.0907764,-0.164639,-0.00864162,0,
4,0.536763,0.108815,-0.16448,-0.00876904,0,
4,0.556564,0.12788,-0.164361,-0.00886759,0,
4,0.576557,0.147954,-0.164256,-0.00893452,0,
4,0.596848,0.169085,-0.164146,-0.00896784,0,
4,0.617561,0.191364,-0.164025,-0.00896558,0,
4,0.637962,0.214017,-0.16389,-0.00892835,0,
4,0.657495,0.236378,-0.163749,-0.00886017,0,
4,0.676218,0.258387,-0.163608,-0.00876534,0,
4,0.694189,0.279974,-0.163469,-0.00864922,0,
4,0.711463,0.301065,-0.163332,-0.00851767,0,
4,0.728096,0.321593,-0.163197,-0.00837627,0,
4,0.744138,0.34151,-0.163063,-0.00822902,0,
4,0.759639,0.36079,-0.162928,-0.00807872,0,
4,0.774643,0.379424,-0.162792,-0.00792766,0,
4,0.789195,0.397415,-0.162653,-0.00777753,0,
4,0.803334,0.414766,-0.162511,-0.00762961,0,
4,0.817097,0.431484,-0.162368,-0.00748495,0,
4,0.830518,0.447575,-0.162225,-0.00734452,0,
4,0.843629,0.463046,-0.162083,-0.00720927,0,
4,0.856459,0.47791,-0.161944,-0.0070801,0,
4,0.869035,0.492186,-0.161808,-0.00695788,0,
4,0.881383,0.505903,-0.161676,-0.00684329,0,
4,0.893524,0.5191,-0.161547,-0.00673684,0,
4,0.905481,0.531823,-0.161419,-0.00663875,0,
4,0.917272,0.544131,-0.161289,-0.00654898,0,
4,0.928915,0.556102,-0.161154,-0.00646711,0,
4,0.940428,0.567862,-0.160991,-0.00637133,0,
4,0.951826,0.579574,-0.160804,-0.00622836,0,
4,0.963124,0.591318,-0.160617,-0.0060873,0,
4,0.974334,0.603078,-0.160426,-0.00592302,0,
4,0.98547,0.614837,-0.160232,-0.00573617,0,
4,0.996544,0.626571,-0.160034,-0.00552779,0,
4,1.00757,0.638257,-0.159834,-0.00529902,0,
4,1.01855,0.649863,-0.159631,-0.00505168,0,
4,1.0295,0.661356,-0.159424,-0.00478729,0,
4,1.04044,0.672694,-0.159215,-0.00450821,0,
4,1.0623,0.694733,-0.158786,-0.00391663,0,
4,1.07328,0.705357,-0.158567,-0.00361055,0,
4,1.08432,0.715634,-0.158342,-0.00330328,0,
4,1.09543,0.725494,-0.158114,-0.00299987,0,
4,1.10661,0.734868,-0.157881,-0.00270579,0,
4,1.11788,0.743692,-0.157643,-0.00242653,0,
4,1.12925,0.751914,-0.157399,-0.00216722,0,
4,1.14073,0.759503,-0.15715,-0.00193206,0,
4,1.15233,0.766453,-0.156895,-0.00172401,0,
4,1.16408,0.772782,-0.156635,-0.00154446,0,
4,1.17599,0.778533,-0.156369,-0.00139324,0,
4,1.18806,0.783768,-0.156097,-0.00126887,0,
4,1.20034,0.78856,-0.15582,-0.00116885,0,
4,1.21282,0.792982,-0.155538,-0.00109013,0,
4,1.22554,0.797109,-0.15525,-0.00102943,0,
4,1.23852,0.801007,-0.154957,-0.000983548,0,
4,1.25179,0.804733,-0.154658,-0.000949539,0,
4,1.26537,0.808338,-0.154354,-0.000924808,0,
4,1.2793,0.811863,-0.154043,-0.000907141,0,
4,1.29362,0.815345,-0.153725,-0.000894692,0,
4,1.30836,0.818812,-0.1534,-0.00088596,0,
4,1.32357,0.82229,-0.153067,-0.000879746,0,
4,1.3393,0.825799,-0.152724,-0.000875144,0,
4,1.3556,0.82936,-0.152371,-0.000871385,0,
4,1.37252,0.83299,-0.152007,-0.000867631,0,
4,1.39015,0.836706,-0.151632,-0.000863409,0,
4,1.40855,0.840523,-0.151242,-0.000858249,0,
4,1.42781,0.844458,-0.150838,-0.000851715,0,
4,1.44801,0.848524,-0.150415,-0.000844344,0,
4,1.46926,0.852743,-0.149979,-0.0008342,0,
4,1.49167,0.857153,-0.14953,-0.000818734,0,
4,1.51537,0.861788,-0.149059,-0.000802387,0,
4,1.54091,0.866741,-0.148553,-0.000784718,0,
4,1.56949,0.87221,-0.147992,-0.000765179,0,
4,1.60144,0.878251,-0.147369,-0.000743446,0,
4,1.63713,0.884903,-0.146681,-0.000719029,0,
4,1.67693,0.892201,-0.145922,-0.000691527,0,
4,1.72128,0.900168,-0.145085,-0.000660554,0,
4,1.77062,0.908808,-0.144167,-0.000625704,0,
4,1.82542,0.918098,-0.143157,-0.000586871,0,
4,1.88618,0.928003,-0.142062,-0.000535533,0,
4,1.95343,0.938464,-0.140879,-0.000467504,0,
4,2.02768,0.949282,-0.139597,-0.000389428,0,
4,2.10949,0.960088,-0.13822,-0.000304069,0,
4,2.19939,0.97038,-0.136747,-0.000217362,0,
4,2.29789,0.979523,-0.135182,-0.000136767,0,
4,2.40551,0.986813,-0.133536,-7.03618e-05,0,
4,2.52268,0.991637,-0.131822,-2.46046e-05,0,
4,2.64979,0.993726,-0.130058,-1.27956e-06,0,
4,2.78715,0.99338,-0.128264,4.50483e-06,0,
4,2.93497,0.991508,-0.126457,2.51495e-06,0,
4,3.09333,0.989291,-0.124655,5.47423e-07,0,
4,3.26217,0.987603,-0.122873,6.08781e-08,0,
4,3.44125,0.986663,-0.121123,1.68427e-08,0,
4,3.63018,0.986195,-0.119417,1.1933e-08,0,
4,3.82836,0.985834,-0.117765,1.10822e-08,0,
4,4.03501,0.985388,-0.116177,1.13987e-08,0,
4,4.24915,0.984847,-0.114662,1.14192e-08,0,
4,4.46961,0.984279,-0.113228,1.08513e-08,0,
4,4.69507,0.983738,-0.111879,9.97709e-09,0,
4,4.92406,0.983246,-0.11062,9.10185e-09,0,
4,5.15502,0.982799,-0.109453,8.37499e-09,0,
4,5.3863,0.982388,-0.108378,7.88513e-09,0,
4,5.61626,0.981998,-0.107396,7.84976e-09,0,
4,5.84328,0.981613,-0.106503,8.92471e-09,0,
4,6.06579,0.981236,-0.105696,1.29427e-08,0,
4,6.28238,0.980929,-0.104972,2.20313e-08,0,
4,6.49173,0.980853,-0.104325,1.7438e-08,0,
4,6.69275,0.981172,-0.103749,-9.5588e-08,0,
4,6.88453,0.981732,-0.103236,-2.73248e-08,0,
4,7.06634,0.981606,-0.10278,4.3147e-06,0,
4,7.23771,0.978966,-0.102378,2.66576e-05,0,
4,7.39831,0.971779,-0.102026,8.70069e-05,0,
4,7.54803,0.959099,-0.101735,0.00019908,0,
4,7.68693,0.941756,-0.101489,0.000340413,0,
4,7.81519,0.921599,-0.101272,0.000474733,0,
4,7.93313,0.900527,-0.101102,0.000615168,0,
4,8.04115,0.880026,-0.100956,0.000744351,0,
4,8.13974,0.860816,-0.100839,0.000853002,0,
4,8.22941,0.843015,-0.100746,0.000940815,0,
4,8.31073,0.82645,-0.100675,0.00101138,0,
4,8.38429,0.810862,-0.100623,0.00106901,0,
4,8.45065,0.795994,-0.100585,0.00111715,0,
4,8.5104,0.78162,-0.100561,0.00115552,0,
4,8.56407,0.767576,-0.100545,0.0011901,0,
4,8.61222,0.753776,-0.100536,0.00122052,0,
4,8.65533,0.740166,-0.100532,0.00124658,0,
4,8.69387,0.726703,-0.100533,0.00126862,0,
4,8.7283,0.713358,-0.100536,0.00128695,0,
4,8.75901,0.700105,-0.100541,0.00130185,0,
4,8.78637,0.686925,-0.100547,0.00131352,0,
4,8.81074,0.673805,-0.100554,0.00132218,0,
4,8.83242,0.660729,-0.100561,0.001328,0,
4,8.85169,0.647688,-0.100569,0.00133117,0,
4,8.86881,0.634668,-0.100576,0.00133188,0,
4,8.88402,0.621656,-0.100583,0.0013303,0,
4,8.89751,0.608637,-0.10059,0.00132661,0,
4,8.90949,0.595593,-0.100596,0.00132097,0,
4,8.92011,0.582504,-0.100602,0.00131354,0,
4,8.92952,0.569344,-0.100607,0.00130442,0,
4,8.93787,0.556085,-0.100612,0.00129372,0,
4,8.94526,0.542692,-0.100616,0.00128146,0,
4,8.95182,0.529127,-0.10062,0.00126764,0,
4,8.95762,0.515342,-0.100623,0.00125217,0,
4,8.96276,0.501286,-0.100626,0.00123492,0,
4,8.96731,0.486896,-0.100628,0.00121562,0,
4,8.97134,0.4721,-0.10063,0.0011939,0,
4,8.97491,0.456813,-0.100632,0.00116924,0,
4,8.97807,0.440936,-0.100634,0.00114092,0,
4,8.98087,0.424349,-0.100635,0.00110795,0,
4,8.98334,0.406912,-0.100636,0.00106903,0,
4,8.98553,0.388455,-0.100637,0.00102294,0,
4,8.98747,0.368759,-0.100638,0.000965432,0,
4,8.98919,0.347541,-0.100639,0.000892501,0,
4,8.9907,0.324533,-0.100639,0.000804744,0,
4,8.99205,0.29955,-0.10064,0.000700504,0,
4,8.99324,0.272419,-0.10064,0.000570997,0,
4,8.99429,0.24306,-0.10064,0.000420752,0,
4,8.99522,0.211845,-0.10064,0.000267879,0,
4,8.99605,0.179833,-0.100641,0.000140397,0,
4,8.99677,0.148571,-0.10064,5.88597e-05,0,
4,8.99742,0.119424,-0.100641,1.96364e-05,0,
4,8.99799,0.0930825,-0.100641,5.18935e-06,0,
4,8.9985,0.0696362,-0.100641,1.04582e-06,0,
4,8.99894,0.0488836,-0.100641,1.44102e-07,0,
4,8.99934,0.0305427,-0.100641,1.05538e-08,0,
4,8.99969,0.0143358,-0.100641,2.27484e-10,0,

6,0,0,-0.0173027,0,0,
6,9,0,-0.0769799,0,0,
6,1.07704,0.714523,-0.0291662,-0.00244644,0,
6,0.000299862,-0.00017721,-0.0173044,1.20428e-12,0,
6,0.000611645,-0.000308763,-0.0173034,3.09093e-11,0,
6,0.000938257,-0.000387709,-0.0173047,1.47557e-10,0,
6,0.00128281,-0.000404626,-0.017304,-3.49597e-10,0,
6,0.00164864,-0.000346752,-0.0173051,-6.82094e-09,0,
6,0.00203939,-0.000197297,-0.0173047,-4.14877e-08,0,
6,0.00245897,6.50329e-05,-0.0173056,-1.74929e-07,0,
6,0.00291168,0.000465749,-0.0173054,-5.9666e-07,0,
6,0.00340221,0.00103198,-0.0173064,-1.74642e-06,0,
6,0.00393573,0.00178522,-0.0173066,-4.4817e-06,0,
6,0.00451788,0.00272793,-0.0173081,-1.00997e-05,0,
6,0.00515491,0.00383003,-0.0173095,-1.98866e-05,0,
6,0.00585371,0.00503115,-0.0173127,-3.42677e-05,0,
6,0.00662185,0.00626515,-0.0173169,-5.24799e-05,0,
6,0.00746774,0.007486,-0.0173236,-7.32925e-05,0,
6,0.00840063,0.00867454,-0.0173322,-9.58742e-05,0,
6,0.00943073,0.0098306,-0.017344,-0.000120002,0,
6,0.0105693,0.0109633,-0.0173584,-0.000145852,0,
6,0.0118288,0.012085,-0.0173764,-0.000173777,0,
6,0.0132228,0.0132085,-0.017398,-0.000204191,0,
6,0.0147664,0.0143456,-0.017424,-0.000237533,0,
6,0.016476,0.0155077,-0.0174545,-0.000274252,0,
6,0.0183694,0.0167052,-0.0174903,-0.000314816,0,
6,0.0204662,0.0179481,-0.0175318,-0.000359718,0,
6,0.0227875,0.019246,-0.0175798,-0.000409475,0,
6,0.0253561,0.0206085,-0.0176349,-0.000464639,0,
6,0.0281964,0.022045,-0.0176978,-0.000525797,0,
6,0.0313344,0.0235653,-0.0177694,-0.000593568,0,
6,0.0347975,0.0251792,-0.0178504,-0.000668606,0,
6,0.0386145,0.0268969,-0.0179415,-0.000751596,0,
6,0.042815,0.0287289,-0.0180434,-0.000843245,0,
6,0.0474296,0.0306861,-0.0181569,-0.000944274,0,
6,0.0524888,0.0327797,-0.0182823,-0.00105541,0,
6,0.0580229,0.0350211,-0.0184202,-0.00117736,0,
6,0.0640611,0.0374223,-0.0185706,-0.0013108,0,
6,0.0706309,0.039995,-0.0187335,-0.00145635,0,
6,0.077757,0.0427513,-0.0189087,-0.00161456,0,
6,0.0854609,0.0457032,-0.0190953,-0.00178585,0,
6,0.0937597,0.0488624,-0.0192925,-0.00197053,0,
6,0.102665,0.0522401,-0.0194989,-0.00216872,0,
6,0.112183,0.055847,-0.0197129,-0.00238038,0,
6,0.122315,0.059693,-0.0199327,-0.00260525,0,
6,0.133052,0.0637871,-0.0201562,-0.00284287,0,
6,0.144384,0.0681373,-0.0203812,-0.00309258,0,
6,0.156292,0.0727507,-0.0206054,-0.00335352,0,
6,0.168754,0.0776335,-0.0208269,-0.00362466,0,
6,0.181744,0.0827913,-0.0210435,-0.00390487,0,
6,0.195237,0.0882299,-0.0212536,-0.00419291,0,
6,0.209207,0.0939551,-0.0214558,-0.00448754,0,
6,0.223631,0.0999745,-0.0216489,-0.00478753,0,
6,0.238493,0.106298,-0.0218323,-0.00509173,0,
6,0.253785,0.112937,-0.0220056,-0.0053991,0,
6,0.269507,0.119911,-0.0221686,-0.00570874,0,
6,0.28567,0.127241,-0.0223216,-0.00601989,0,
6,0.3023,0.134958,-0.0224648,-0.00633194,0,
6,0.319433,0.143098,-0.0225989,-0.00664441,0,
6,0.337122,0.15171,-0.0227244,-0.00695688,0,
6,0.355433,0.160849,-0.0228423,-0.00726897,0,
6,0.374445,0.170584,-0.0229533,-0.00758024,0,
6,0.394252,0.180997,-0.0230581,-0.00789007,0,
6,0.414961,0.192184,-0.0231592,-0.00819858,0,
6,0.436695,0.204261,-0.023254,-0.00850584,0,
6,0.459585,0.217372,-0.023335,-0.00880384,0,
6,0.48378,0.231699,-0.0233952,-0.00907938,0,
6,0.508144,0.246668,-0.0234211,-0.0093311,0,
6,0.531799,0.261765,-0.023509,-0.00959156,0,
6,0.554791,0.277131,-0.0234092,-0.00983333,0,
6,0.577166,0.293225,-0.0230268,-0.00980425,0,
6,0.598964,0.310439,-0.0226925,-0.00972691,0,
6,0.620228,0.328642,-0.0224832,-0.00960921,0,
6,0.640996,0.347462,-0.0223825,-0.00945024,0,
6,0.661304,0.366541,-0.022354,-0.00925114,0,
6,0.681188,0.38565,-0.0223692,-0.00901556,0,
6,0.700681,0.404675,-0.0224171,-0.00874896,0,
6,0.719813,0.423553,-0.022497,-0.00845717,0,
6,0.738612,0.442221,-0.0226115,-0.00814603,0,
6,0.757107,0.460602,-0.022762,-0.00782129,0,
6,0.775322,0.478611,-0.0229471,-0.00748845,0,
6,0.793282,0.496167,-0.0231638,-0.0071525,0,
6,0.811008,0.513212,-0.0234086,-0.00681775,0,
6,0.828521,0.529705,-0.0236781,-0.00648773,0,
6,0.845842,0.545623,-0.0239696,-0.00616532,0,
6,0.862989,0.560946,-0.0242811,-0.00585375,0,
6,0.879979,0.575646,-0.0246103,-0.00555879,0,
6,0.896829,0.589707,-0.0249537,-0.0052794,0,
6,0.913555,0.603136,-0.0253097,-0.00501433,0,
6,0.930172,0.615976,-0.0256735,-0.00476177,0,
6,0.946694,0.6283,-0.0260453,-0.00451893,0,
6,0.963136,0.640219,-0.0264078,-0.00427282,0,
6,0.97951,0.651855,-0.0267684,-0.00400531,0,
6,0.99583,0.663245,-0.0271443,-0.0037445,0,
6,1.01211,0.674336,-0.0275284,-0.00347869,0,
6,1.02836,0.68507,-0.0279236,-0.00321149,0,
6,1.04459,0.695385,-0.0283284,-0.00294727,0,
6,1.06081,0.705221,-0.0287428,-0.00269071,0,
6,1.09329,0.723252,-0.0295983,-0.00221871,0,
6,1.10959,0.731385,-0.0300384,-0.00201117,0,
6,1.12595,0.738914,-0.0304859,-0.0018264,0,
6,1.14238,0.745852,-0.0309398,-0.00166577,0,
6,1.1589,0.752236,-0.0313993,-0.00152933,0,
6,1.17551,0.758117,-0.0318635,-0.00141596,0,
6,1.19223,0.763558,-0.0323318,-0.00132366,0,
6,1.20907,0.768627,-0.0328034,-0.00124987,0,
6,1.22605,0.773391,-0.0332779,-0.00119178,0,
6,1.24318,0.777911,-0.033755,-0.00114657,0,
6,1.26048,0.782241,-0.0342343,-0.00111162,0,
6,1.27797,0.786429,-0.0347159,-0.00108459,0,
6,1.29566,0.790512,-0.0351998,-0.00106345,0,
6,1.31357,0.794524,-0.0356863,-0.00104655,0,
6,1.33173,0.798491,-0.0361752,-0.00103253,0,
6,1.35015,0.802433,-0.0366676,-0.00102036,0,
6,1.36886,0.806367,-0.0371625,-0.00100927,0,
6,1.38788,0.81031,-0.0376635,-0.000998806,0,
6,1.40725,0.814276,-0.0381629,-0.000993688,0,
6,1.42698,0.818324,-0.0386702,-0.000973714,0,
6,1.44712,0.822528,-0.0391905,-0.000948889,0,
6,1.46769,0.826889,-0.0397124,-0.000925265,0,
6,1.48874,0.831348,-0.0402413,-0.000903287,0,
6,1.5103,0.835854,-0.0407764,-0.000882165,0,
6,1.53242,0.840396,-0.0413198,-0.000860858,0,
6,1.55515,0.844987,-0.0418721,-0.000838815,0,
6,1.57854,0.849651,-0.0424342,-0.000815979,0,
6,1.60265,0.854401,-0.0430067,-0.00079249,0,
6,1.62754,0.859242,-0.0435908,-0.000768456,0,
6,1.65329,0.864175,-0.0441868,-0.000743986,0,
6,1.67998,0.869198,-0.0447961,-0.000719011,0,
6,1.70768,0.87431,-0.0454184,-0.000693591,0,
6,1.73712,0.879611,-0.0460726,-0.000667572,0,
6,1.76996,0.885335,-0.0467883,-0.000639401,0,
6,1.80655,0.891514,-0.0475687,-0.000608608,0,
6,1.84728,0.898151,-0.0484215,-0.00057224,0,
6,1.89255,0.905266,-0.049351,-0.000522739,0,
6,1.9428,0.912843,-0.0503525,-0.000467676,0,
6,1.99849,0.920768,-0.0514299,-0.000405724,0,
6,2.06009,0.928854,-0.0525811,-0.000338541,0,
6,2.1281,0.93685,-0.0538026,-0.000269197,0,
6,2.20301,0.944445,-0.0550887,-0.00020134,0,
6,2.28535,0.951279,-0.0564299,-0.00013899,0,
6,2.37559,0.956973,-0.0578144,-8.60859e-05,0,
6,2.47424,0.961204,-0.0592267,-4.57537e-05,0,
6,2.58172,0.963795,-0.0606494,-1.9335e-05,0,
6,2.69844,0.964822,-0.0620633,-5.58032e-06,0,
6,2.82473,0.964665,-0.0634495,-7.10739e-07,0,
6,2.96084,0.963939,-0.0647907,9.59245e-09,0,
6,3.10691,0.963291,-0.0660731,-1.17888e-07,0,
6,3.26296,0.963145,-0.0672867,-1.00518e-07,0,
6,3.42888,0.963556,-0.0684244,-3.89313e-08,0,
6,3.60438,0.9643,-0.0694808,-1.83581e-08,0,
6,3.78902,0.965083,-0.0704515,-1.41593e-08,0,
6,3.98218,0.965722,-0.0713336,-1.11488e-08,0,
6,4.18307,0.966182,-0.0721268,-8.61129e-09,0,
6,4.39071,0.96652,-0.0728325,-6.95422e-09,0,
6,4.60398,0.966803,-0.0734544,-5.97807e-09,0,
6,4.82159,0.967065,-0.0739973,-5.32759e-09,0,
6,5.04218,0.96731,-0.0744672,-4.79764e-09,0,
6,5.26426,0.967529,-0.0748704,-4.39643e-09,0,
6,5.48633,0.967709,-0.0752137,-4.33297e-09,0,
6,5.70687,0.967842,-0.0755039,-5.12021e-09,0,
6,5.92439,0.96793,-0.0757474,-8.44014e-09,0,
6,6.1375,0.968017,-0.0759501,-2.3854e-08,0,
6,6.34489,0.968214,-0.0761176,-1.02335e-07,0,
6,6.5454,0.96866,-0.0762542,-4.00481e-07,0,
6,6.73802,0.969338,-0.0763636,-8.8407e-07,0,
6,6.92195,0.969754,-0.0764494,8.27083e-07,0,
6,7.09653,0.968684,-0.0765143,1.37789e-05,0,
6,7.26132,0.964388,-0.0765662,5.40597e-05,0,
6,7.41603,0.95541,-0.0766028,0.000136762,0,
6,7.56054,0.941476,-0.0766395,0.000266757,0,
6,7.6949,0.923536,-0.076669,0.000382407,0,
6,7.81927,0.90317,-0.0766824,0.000510378,0,
6,7.93391,0.882206,-0.076694,0.00064164,0,
6,8.0392,0.862041,-0.076695,0.000761114,0,
6,8.13555,0.843282,-0.0766969,0.000862015,0,
6,8.22344,0.82595,-0.0766988,0.00094451,0,
6,8.30339,0.809798,-0.076705,0.00101199,0,
6,8.37592,0.794533,-0.0767143,0.00106817,0,
6,8.44155,0.779897,-0.0767266,0.00111595,0,
6,8.50082,0.765692,-0.0767411,0.00115706,0,
6,8.55423,0.751783,-0.0767576,0.00119273,0,
6,8.60229,0.738095,-0.0767744,0.00122409,0,
6,8.64545,0.724587,-0.0767913,0.00125069,0,
6,8.68417,0.711228,-0.0768079,0.0012728,0,
6,8.71885,0.697996,-0.076824,0.00129073,0,
6,8.74989,0.684875,-0.0768395,0.00130472,0,
6,8.77763,0.671853,-0.076854,0.00131503,0,
6,8.80241,0.658922,-0.0768677,0.00132187,0,
6,8.82452,0.646074,-0.0768804,0.0013255,0,
6,8.84423,0.633301,-0.0768921,0.00132616,0,
6,8.86181,0.620593,-0.0769028,0.00132413,0,
6,8.87746,0.607939,-0.0769125,0.00131966,0,
6,8.89139,0.595327,-0.0769213,0.00131302,0,
6,8.90379,0.582738,-0.0769291,0.00130445,0,
6,8.91482,0.570153,-0.0769361,0.00129418,0,
6,8.92463,0.557546,-0.0769423,0.0012824,0,
6,8.93334,0.544891,-0.0769478,0.00126926,0,
6,8.94109,0.532153,-0.0769526,0.00125486,0,
6,8.94798,0.519296,-0.0769568,0.00123925,0,
6,8.95409,0.506277,-0.0769605,0.0012224,0,
6,8.95953,0.493047,-0.0769636,0.00120423,0,
6,8.96435,0.47955,-0.0769663,0.00118457,0,
6,8.96863,0.465723,-0.0769687,0.00116314,0,
6,8.97244,0.45149,-0.0769706,0.00113953,0,
6,8.97581,0.436768,-0.0769723,0.0011132,0,
6,8.97881,0.421454,-0.0769737,0.00108339,0,
6,8.98147,0.405431,-0.0769749,0.0010491,0,
6,8.98383,0.388559,-0.0769759,0.001009,0,
6,8.98593,0.370672,-0.0769767,0.000961658,0,
6,8.98779,0.351561,-0.0769773,0.00090366,0,
6,8.98944,0.330964,-0.076978,0.000830572,0,
6,8.9909,0.308637,-0.0769783,0.000743591,0,
6,8.9922,0.284408,-0.0769787,0.000640332,0,
6,8.99336,0.258116,-0.0769789,0.000512377,0,
6,8.99438,0.229752,-0.0769792,0.000369638,0,
6,8.99529,0.199805,-0.0769792,0.000229365,0,
6,8.99609,0.169372,-0.0769794,0.000117286,0,
6,8.99681,0.13989,-0.0769793,4.83316e-05,0,
6,8.99744,0.112525,-0.0769796,1.60091e-05,0,
6,8.99801,0.0878132,-0.0769794,4.2346e-06,0,
6,8.9985,0.0657871,-0.0769797,8.58022e-07,0,
6,8.99895,0.046248,-0.0769794,1.1907e-07,0,
6,8.99934,0.0289364,-0.0769798,8.78287e-09,0,
6,8.99969,0.0136001,-0.0769794,1.90307e-10,0,

10,0,0,0.0255388,0,0,
10,0.000296632,0.00771867,0.0255348,-4.48843e-11,0,
10,0.000596102,0.0155208,0.0255383,-1.66605e-09,0,
10,0.000900397,0.0234581,0.025535,-1.69652e-08,0,
10,0.00121153,0.0315827,0.0255378,-9.13111e-08,0,
10,0.00153158,0.0399474,0.0255351,-3.42134e-07,0,
10,0.00186264,0.0486039,0.0255374,-1.01918e-06,0,
10,0.00220692,0.057601,0.0255351,-2.59282e-06,0,
10,0.00256668,0.0669798,0.025537,-5.87048e-06,0,
10,0.00294431,0.0767663,0.0255351,-1.21195e-05,0,
10,0.00334229,0.08696,0.0255367,-2.31289e-05,0,
10,0.00376326,0.0975201,0.025535,-4.10822e-05,0,
10,0.00421,0.108352,0.0255362,-6.80952e-05,0,
10,0.00468544,0.119303,0.0255346,-0.00010542,0,
10,0.00519274,0.130174,0.0255354,-0.000152642,0,
10,0.00573524,0.14075,0.0255337,-0.000207439,0,
10,0.00631651,0.150838,0.025534,-0.000266188,0,
10,0.00694041,0.160293,0.025532,-0.000325075,0,
10,0.00761104,0.169034,0.0255315,-0.000381039,0,
10,0.00833284,0.177035,0.0255289,-0.000432181,0,
10,0.00911058,0.184316,0.0255273,-0.000477695,0,
10,0.0099494,0.190922,0.0255237,-0.000517586,0,
10,0.0108548,0.196917,0.0255205,-0.000552351,0,
10,0.0118329,0.202368,0.0255156,-0.000582739,0,
10,0.0128901,0.207342,0.0255106,-0.000609574,0,
10,0.0140333,0.211902,0.0255037,-0.000633663,0,
10,0.0152702,0.216107,0.0254963,-0.000655743,0,
10,0.0166089,0.220006,0.0254871,-0.000676467,0,
10,0.0180584,0.223643,0.0254769,-0.000696401,0,
10,0.0196282,0.227058,0.0254647,-0.000716036,0,
10,0.0213288,0.230283,0.0254509,-0.000735804,0,
10,0.0231714,0.233349,0.025435,-0.000756084,0,
10,0.0251682,0.23628,0.0254171,-0.000777223,0,
10,0.0273326,0.239098,0.0253967,-0.00079954,0,
10,0.0296789,0.241825,0.0253738,-0.000823338,0,
10,0.0322227,0.244476,0.0253479,-0.000848912,0,
10,0.0349809,0.24707,0.025319,-0.000876558,0,
10,0.0379719,0.24962,0.0252867,-0.000906571,0,
10,0.0412155,0.25214,0.0252507,-0.000939258,0,
10,0.0447333,0.254644,0.0252107,-0.000974937,0,
10,0.0485489,0.257145,0.0251663,-0.00101394,0,
10,0.0526875,0.259655,0.0251173,-0.00105663,0,
10,0.0571768,0.262186,0.0250634,-0.00110339,0,
10,0.0620466,0.264752,0.0250041,-0.00115461,0,
10,0.0673295,0.267366,0.0249391,-0.00121073,0,
10,0.0730607,0.27004,0.0248681,-0.00127222,0,
10,0.0792784,0.27279,0.0247907,-0.00133957,0,
10,0.0860241,0.275631,0.0247068,-0.00141333,0,
10,0.0933428,0.278579,0.024616,-0.00149406,0,
10,0.101283,0.281654,0.024518,-0.00158237,0,
10,0.109899,0.284876,0.0244129,-0.00167891,0,
10,0.119247,0.288266,0.0243004,-0.00178436,0,
10,0.12939,0.291852,0.0241805,-0.00189944,0,
10,0.140395,0.29566,0.0240534,-0.00202487,0,
10,0.152337,0.299724,0.0239192,-0.00216141,0,
10,0.165296,0.304081,0.0237782,-0.00230981,0,
10,0.179357,0.308773,0.0236309,-0.0024708,0,
10,0.194615,0.313849,0.0234776,-0.00264504,0,
10,0.211171,0.319364,0.0233191,-0.00283312,0,
10,0.229138,0.325385,0.0231558,-0.00303545,0,
10,0.248635,0.331985,0.0229888,-0.00325226,0,
10,0.269793,0.339251,0.0228177,-0.00348341,0,
10,0.292753,0.347283,0.0226453,-0.00372833,0,
10,0.317669,0.356196,0.0224672,-0.0039845,0,
10,0.344708,0.366116,0.0222902,-0.00424798,0,
10,0.372405,0.376568,0.022121,-0.00450685,0,
10,0.399623,0.387141,0.0219608,-0.00474879,0,
10,0.426397,0.397834,0.0218115,-0.00497176,0,
10,0.452757,0.408655,0.0216737,-0.00517328,0,
10,0.478735,0.419625,0.0215518,-0.00535225,0,
10,0.504358,0.430774,0.0214412,-0.00550576,0,
10,0.529657,0.442129,0.0213511,-0.00563452,0,
10,0.554656,0.453711,0.0212434,-0.00576557,0,
10,0.579382,0.465648,0.021225,-0.00587139,0,
10,0.603859,0.478322,0.0213461,-0.0058214,0,
10,0.628112,0.492063,0.0214453,-0.00573997,0,
10,0.652163,0.506788,0.0214727,-0.00562687,0,
10,0.676035,0.52218,0.0214328,-0.00548129,0,
10,0.699751,0.537891,0.0213453,-0.0053054,0,
10,0.72333,0.553657,0.0212305,-0.00510321,0,
10,0.746795,0.569326,0.0210999,-0.00487946,0,
10,0.770165,0.584815,0.0209583,-0.00463879,0,
10,0.79346,0.600067,0.0208051,-0.00438578,0,
10,0.816699,0.615007,0.0206386,-0.00412524,0,
10,0.839903,0.629532,0.020456,-0.00386467,0,
10,0.863088,0.643517,0.0202568,-0.00361341,0,
10,0.886275,0.656868,0.0200441,-0.00337208,0,
10,0.909481,0.669554,0.0198206,-0.00314081,0,
10,0.932723,0.681598,0.0195879,-0.00291979,0,
10,0.956021,0.69304,0.0193464,-0.00270932,0,
10,0.97939,0.703916,0.0190959,-0.00250978,0,
10,1.00285,0.714252,0.0188367,-0.00232157,0,
10,1.02641,0.724063,0.0185688,-0.00214501,0,
10,1.0501,0.733362,0.0182931,-0.00198029,0,
10,1.07392,0.742165,0.0180093,-0.00182746,0,
10,1.0979,0.750496,0.017719,-0.00168638,0,
10,1.12205,0.758391,0.01742,-0.0015539,0,
10,1.14639,0.765878,0.0171135,-0.00143302,0,
10,1.17093,0.772964,0.0168011,-0.00132461,0,
10,1.19568,0.779662,0.0164824,-0.0012282,0,
10,1.22066,0.785994,0.0161575,-0.00114388,0,
10,1.24589,0.791996,0.0158275,-0.00107122,0,
10,1.27137,0.797708,0.0154906,-0.00100947,0,
10,1.29713,0.803177,0.0151507,-0.000960859,0,
10,1.32317,0.808489,0.0148037,-0.000915351,0,
10,1.34951,0.81377,0.0144473,-0.000869504,0,
10,1.37616,0.819103,0.0140869,-0.00082703,0,
10,1.40313,0.824479,0.0137214,-0.000788132,0,
10,1.43043,0.82984,0.0133522,-0.000752624,0,
10,1.45807,0.83513,0.0129781,-0.000719909,0,
10,1.48607,0.840326,0.0125989,-0.000689232,0,
10,1.51444,0.845435,0.0122137,-0.000659954,0,
10,1.54318,0.850476,0.0118226,-0.00063169,0,
10,1.57231,0.855458,0.0114255,-0.000604285,0,
10,1.60184,0.860378,0.0110228,-0.000577705,0,
10,1.63178,0.86522,0.0106147,-0.000551952,0,
10,1.66213,0.869963,0.0102013,-0.000527033,0,
10,1.69292,0.874584,0.00978292,-0.000502934,0,
10,1.72416,0.879065,0.00935907,-0.000479561,0,
10,1.75585,0.883408,0.00893004,-0.000456568,0,
10,1.78802,0.887645,0.00849195,-0.000429916,0,
10,1.82067,0.891819,0.00804602,-0.000401662,0,
10,1.85383,0.895939,0.00759542,-0.000373336,0,
10,1.88751,0.89998,0.00713771,-0.000343808,0,
10,1.92173,0.903916,0.0066742,-0.00031338,0,
10,1.95652,0.907721,0.00620362,-0.000282548,0,
10,1.9919,0.911369,0.00572707,-0.000251852,0,
10,2.02791,0.914834,0.00524301,-0.0002219,0,
10,2.06456,0.918097,0.00475337,-0.000192953,0,
10,2.10268,0.921198,0.00424435,-0.000164606,0,
10,2.1443,0.924231,0.00369363,-0.00013722,0,
10,2.18977,0.927144,0.00309467,-0.000110906,0,
10,2.23946,0.929852,0.00244651,-8.59857e-05,0,
10,2.29376,0.932269,0.00174423,-6.33285e-05,0,
10,2.35309,0.934308,0.000986352,-4.36783e-05,0,
10,2.4179,0.935893,0.000169494,-2.76251e-05,0,
10,2.48863,0.936971,-0.000707359,-1.55256e-05,0,
10,2.56575,0.937529,-0.00164584,-7.38046e-06,0,
10,2.64971,0.937614,-0.00264578,-2.74577e-06,0,
10,2.74098,0.937339,-0.00370698,-7.61337e-07,0,
10,2.83997,0.936881,-0.00482789,-3.37601e-07,0,
10,2.94709,0.936452,-0.00600675,-4.77041e-07,0,
10,3.06269,0.936246,-0.00724083,-5.71824e-07,0,
10,3.18706,0.936388,-0.00852695,-4.70438e-07,0,
10,3.3204,0.936898,-0.00986072,-2.83092e-07,0,
10,3.46281,0.937691,-0.0112364,-1.33898e-07,0,
10,3.61427,0.938622,-0.0126466,-5.71154e-08,0,
10,3.77463,0.93955,-0.0140818,-2.86725e-08,0,
10,3.94358,0.940386,-0.0155315,-2.00049e-08,0,
10,4.12067,0.941111,-0.0169837,-1.70382e-08,0,
10,4.30525,0.941757,-0.0184263,-1.56853e-08,0,
10,4.49655,0.942368,-0.0198469,-1.51767e-08,0,
10,4.6936,0.942976,-0.0212338,-1.54408e-08,0,
10,4.89531,0.943588,-0.0225759,-1.68361e-08,0,
10,5.10047,0.944189,-0.0238632,-2.0548e-08,0,
10,5.30776,0.94476,-0.0250871,-2.92935e-08,0,
10,5.51581,0.945284,-0.0262408,-4.87499e-08,0,
10,5.72323,0.945758,-0.0273191,-9.13064e-08,0,
10,5.92863,0.946206,-0.0283187,-1.8821e-07,0,
10,6.13069,0.946695,-0.029238,-4.24712e-07,0,
10,6.32816,0.94732,-0.0300773,-9.85265e-07,0,
10,6.51991,0.948116,-0.0308383,-1.95724e-06,0,
10,6.70495,0.948857,-0.0315241,-2.10439e-06,0,
10,6.88244,0.948838,-0.0321381,3.76488e-06,0,
10,7.0517,0.94684,-0.0326837,2.63843e-05,0,
10,7.21224,0.941479,-0.0331618,7.90429e-05,0,
10,7.3637,0.931861,-0.0335775,0.000171084,0,
10,7.5059,0.918014,-0.0339347,0.000294896,0,
10,7.63878,0.90052,-0.0342384,0.00040201,0,
10,7.76243,0.880459,-0.0344963,0.000520696,0,
10,7.87701,0.859584,-0.0347032,0.000642301,0,
10,7.9828,0.839359,-0.0348742,0.00075298,0,
10,8.08014,0.820514,-0.0350115,0.00084744,0,
10,8.16941,0.803145,-0.0351253,0.000926017,0,
10,8.25106,0.787012,-0.0352195,0.000991819,0,
10,8.32554,0.771794,-0.0352998,0.00104808,0,
10,8.39331,0.75721,-0.0353683,0.00109713,0,
10,8.45484,0.74306,-0.0354275,0.00114028,0,
10,8.5106,0.72922,-0.0354782,0.0011782,0,
10,8.56104,0.715627,-0.0355221,0.00121115,0,
10,8.60659,0.70226,-0.0355599,0.00123925,0,
10,8.64767,0.689122,-0.0355928,0.00126262,0,
10,8.68467,0.676214,-0.0356215,0.00128083,0,
10,8.71795,0.663511,-0.0356465,0.00129145,0,
10,8.74786,0.650989,-0.0356684,0.00129843,0,
10,8.77471,0.638644,-0.0356873,0.00130113,0,
10,8.79881,0.626473,-0.0357037,0.0013,0,
10,8.8204,0.614469,-0.0357178,0.00129553,0,
10,8.83975,0.602622,-0.03573,0.00128822,0,
10,8.85708,0.590919,-0.0357405,0.00127854,0,
10,8.87259,0.579344,-0.0357495,0.00126692,0,
10,8.88646,0.567875,-0.0357572,0.00125377,0,
10,8.89886,0.556489,-0.0357637,0.00123943,0,
10,8.90995,0.54516,-0.0357693,0.00122418,0,
10,8.91986,0.533857,-0.035774,0.00120825,0,
10,8.92872,0.522548,-0.035778,0.00119179,0,
10,8.93663,0.511198,-0.0357813,0.00117491,0,
10,8.94369,0.499768,-0.0357841,0.00115765,0,
10,8.95,0.488217,-0.0357864,0.00113996,0,
10,8.95564,0.476499,-0.0357884,0.00112176,0,
10,8.96067,0.464565,-0.03579,0.00110291,0,
10,8.96517,0.45236,-0.0357914,0.00108316,0,
10,8.96918,0.439823,-0.0357924,0.00106219,0,
10,8.97276,0.426884,-0.0357935,0.00103957,0,
10,8.97596,0.413464,-0.0357941,0.00101473,0,
10,8.97882,0.39947,-0.0357949,0.000986966,0,
10,8.98137,0.384793,-0.0357952,0.000955333,0,
10,8.98365,0.369307,-0.0357958,0.000918625,0,
10,8.98569,0.352862,-0.035796,0.000875443,0,
10,8.9875,0.335274,-0.0357965,0.00082354,0,
10,8.98913,0.31631,-0.0357964,0.00075794,0,
10,8.99058,0.295737,-0.0357969,0.000680422,0,
10,8.99188,0.273393,-0.0357967,0.000588668,0,
10,8.99304,0.249116,-0.0357972,0.000475696,0,
10,8.99408,0.222862,-0.0357969,0.000349144,0,
10,8.99501,0.194997,-0.0357974,0.000222652,0,
10,8.99583,0.166421,-0.035797,0.000118149,0,
10,8.99658,0.138404,-0.0357975,5.07827e-05,0,
10,8.99724,0.112066,-0.035797,1.75356e-05,0,
10,8.99784,0.0880008,-0.0357976,4.81849e-06,0,
10,8.99837,0.0663215,-0.0357969,1.0106e-06,0,
10,8.99885,0.0468938,-0.0357977,1.44771e-07,0,
10,8.99927,0.0295062,-0.0357969,1.09908e-08,0,
10,8.99966,0.0139431,-0.0357978,2.43168e-10,0,
10,9,0,-0.0357968,0,0,

0.0416667,0,0,-0.222497,0,2.6292e-06,
0.0833333,0,0,-0.222645,0,4.01666e-06,
0.125,0,0,-0.222579,0,4.82017e-06,
0.166667,0,0,-0.222622,0,8.4191e-06,
0.208333,0,0,-0.222616,0,1.24269e-05,
0.25,0,0,-0.22265,0,1.71317e-05,
0.291667,0,0,-0.222675,0,2.13954e-05,
0.333333,0,0,-0.222717,0,2.49521e-05,
0.375,0,0,-0.222758,0,2.73581e-05,
0.416667,0,0,-0.222804,0,2.87687e-05,
0.458333,0,0,-0.222848,0,2.94368e-05,
0.5,0,0,-0.222892,0,2.98278e-05,
0.541667,0,0,-0.222937,0,3.0366e-05,
0.583333,0,0,-0.222985,0,3.14234e-05,
0.625,0,0,-0.223039,0,3.32339e-05,
0.666667,0,0,-0.223101,0,3.58987e-05,
0.708333,0,0,-0.223174,0,3.93961e-05,
0.75,0,0,-0.223261,0,4.36159e-05,
0.791667,0,0,-0.223364,0,4.8383e-05,
0.833333,0,0,-0.223487,0,5.34913e-05,
0.875,0,0,-0.223631,0,5.87064e-05,
0.916667,0,0,-0.223801,0,6.37016e-05,
0.958333,0,0,-0.224001,0,6.8074e-05,
1,0,0,-0.224234,0,7.13701e-05,
1.04167,0,0,-0.224507,0,7.30535e-05,
1.08333,0,0,-0.224826,0,7.25476e-05,
1.125,0,0,-0.225197,0,6.92887e-05,
1.16667,0,0,-0.225626,0,6.27554e-05,
1.20833,0,0,-0.226119,0,5.25345e-05,
1.25,0,0,-0.226677,0,3.83948e-05,
1.29167,0,0,-0.227298,0,2.03291e-05,
1.33333,0,0,-0.227978,0,-1.4533e-06,
1.375,0,0,-0.22871,0,-2.65849e-05,
1.41667,0,0,-0.229488,0,-5.46359e-05,
1.45833,0,0,-0.230302,0,-8.51995e-05,
1.5,0,0,-0.231145,0,-0.000117947,
1.54167,0,0,-0.232011,0,-0.000152638,
1.58333,0,0,-0.232891,0,-0.000189104,
1.625,0,0,-0.23378,0,-0.000227218,
1.66667,0,0,-0.234672,0,-0.000266858,
1.70833,0,0,-0.235561,0,-0.000307898,
1.75,0,0,-0.23644,0,-0.000350191,
1.79167,0,0,-0.237303,0,-0.000393574,
1.83333,0,0,-0.238145,0,-0.000437874,
1.875,0,0,-0.238958,0,-0.000482914,
1.91667,0,0,-0.239737,0,-0.000528525,
1.95833,0,0,-0.240476,0,-0.000574546,
2,0,0,-0.241168,0,-0.000620837,
2.04167,0,0,-0.241808,0,-0.000667276,
2.08333,0,0,-0.24239,0,-0.000713758,
2.125,0,0,-0.24291,0,-0.000760194,
2.16667,0,0,-0.243361,0,-0.000806508,
2.20833,0,0,-0.243739,0,-0.000852631,
2.25,0,0,-0.24404,0,-0.0008985,
2.29167,0,0,-0.244258,0,-0.000944053,
2.33333,0,0,-0.244389,0,-0.000989224,
2.375,0,0,-0.24443,0,-0.00103395,
2.41667,0,0,-0.244375,0,-0.00107816,
2.45833,0,0,-0.244221,0,-0.00112178,
2.5,0,0,-0.243963,0,-0.00116473,
2.54167,0,0,-0.243599,0,-0.00120695,
2.58333,0,0,-0.243124,0,-0.00124835,
2.625,0,0,-0.242536,0,-0.00128885,
2.66667,0,0,-0.241831,0,-0.00132839,
2.70833,0,0,-0.241007,0,-0.00136687,
2.75,0,0,-0.240061,0,-0.00140423,
2.79167,0,0,-0.238992,0,-0.00144039,
2.83333,0,0,-0.237797,0,-0.00147526,
2.875,0,0,-0.236475,0,-0.00150876,
2.91667,0,0,-0.235026,0,-0.00154081,
2.95833,0,0,-0.233449,0,-0.00157133,
3,0,0,-0.231743,0,-0.00160024,
3.04167,0,0,-0.229908,0,-0.00162747,
3.08333,0,0,-0.227947,0,-0.00165294,
3.125,0,0,-0.225859,0,-0.00167657,
3.16667,0,0,-0.223646,0,-0.0016983,
3.20833,0,0,-0.221311,0,-0.00171807,
3.25,0,0,-0.218856,0,-0.00173582,
3.29167,0,0,-0.216285,0,-0.00175152,
3.33333,0,0,-0.2136,0,-0.00176513,
3.375,0,0,-0.210805,0,-0.00177664,
3.41667,0,0,-0.207906,0,-0.00178602,
3.45833,0,0,-0.204906,0,-0.00179328,
3.5,0,0,-0.20181,0,-0.00179842,
3.54167,0,0,-0.198623,0,-0.00180145,
3.58333,0,0,-0.19535,0,-0.00180238,
3.625,0,0,-0.191998,0,-0.00180123,
3.66667,0,0,-0.188572,0,-0.00179803,
3.70833,0,0,-0.185076,0,-0.00179282,
3.75,0,0,-0.181519,0,-0.00178564,
3.79167,0,0,-0.177904,0,-0.00177652,
3.83333,0,0,-0.174239,0,-0.00176553,
3.875,0,0,-0.170528,0,-0.00175271,
3.91667,0,0,-0.166779,0,-0.00173813,
3.95833,0,0,-0.162997,0,-0.00172183,
4,0,0,-0.159186,0,-0.00170389,
4.04167,0,0,-0.155354,0,-0.00168437,
4.08333,0,0,-0.151505,0,-0.00166333,
4.125,0,0,-0.147644,0,-0.00164083,
4.16667,0,0,-0.143777,0,-0.00161694,
4.20833,0,0,-0.139908,0,-0.00159172,
4.25,0,0,-0.136043,0,-0.00156524,
4.29167,0,0,-0.132185,0,-0.00153757,
4.33333,0,0,-0.12834,0,-0.00150876,
4.375,0,0,-0.124511,0,-0.00147888,
4.41667,0,0,-0.120703,0,-0.00144799,
4.45833,0,0,-0.116919,0,-0.00141615,
4.5,0,0,-0.113164,0,-0.00138342,
4.54167,0,0,-0.109441,0,-0.00134986,
4.58333,0,0,-0.105753,0,-0.00131553,
4.625,0,0,-0.102105,0,-0.00128048,
4.66667,0,0,-0.0984992,0,-0.00124476,
4.70833,0,0,-0.0949388,0,-0.00120844,
4.75,0,0,-0.0914269,0,-0.00117155,
4.79167,0,0,-0.0879664,0,-0.00113417,
4.83333,0,0,-0.08456,0,-0.00109633,
4.875,0,0,-0.0812102,0,-0.0010581,
4.91667,0,0,-0.0779194,0,-0.00101952,
4.95833,0,0,-0.0746898,0,-0.000980649,
5,0,0,-0.0715234,0,-0.000941534,
5.04167,0,0,-0.0684222,0,-0.000902227,
5.08333,0,0,-0.0653877,0,-0.000862774,
5.125,0,0,-0.0624217,0,-0.000823222,
5.16667,0,0,-0.0595253,0,-0.000783617,
5.20833,0,0,-0.0567,0,-0.000744001,
5.25,0,0,-0.0539468,0,-0.000704417,
5.29167,0,0,-0.0512666,0,-0.000664906,
5.33333,0,0,-0.0486603,0,-0.000625504,
5.375,0,0,-0.0461284,0,-0.00058625,
5.41667,0,0,-0.0436717,0,-0.000547175,
5.45833,0,0,-0.0412904,0,-0.000508312,
5.5,0,0,-0.038985,0,-0.000469689,
5.54167,0,0,-0.0367557,0,-0.000431331,
5.58333,0,0,-0.0346028,0,-0.000393259,
5.625,0,0,-0.0325265,0,-0.000355494,
5.66667,0,0,-0.0305269,0,-0.000318051,
5.70833,0,0,-0.0286044,0,-0.000280948,
5.75,0,0,-0.026759,0,-0.000244205,
5.79167,0,0,-0.0249911,0,-0.000207857,
5.83333,0,0,-0.0233008,0,-0.000171967,
5.875,0,0,-0.021688,0,-0.000136631,
5.91667,0,0,-0.0201519,0,-0.000101967,
5.95833,0,0,-0.0186909,0,-6.80805e-05,
6,0,0,-0.0173028,0,-3.50303e-05,
6.04167,0,0,-0.0159855,0,-2.83476e-06,
6.08333,0,0,-0.0147366,0,2.85239e-05,
6.125,0,0,-0.0135539,0,5.90563e-05,
6.16667,0,0,-0.0124354,0,8.87842e-05,
6.20833,0,0,-0.0113789,0,0.000117724,
6.25,0,0,-0.0103822,0,0.000145892,
6.29167,0,0,-0.00944337,0,0.000173303,
6.33333,0,0,-0.00856017,0,0.000199972,
6.375,0,0,-0.00773055,0,0.000225916,
6.41667,0,0,-0.00695239,0,0.00025115,
6.45833,0,0,-0.0062236,0,0.000275691,
6.5,0,0,-0.00554203,0,0.000299558,
6.54167,0,0,-0.00490557,0,0.000322769,
6.58333,0,0,-0.00431207,0,0.000345342,
6.625,0,0,-0.00375939,0,0.000367298,
6.66667,0,0,-0.00324539,0,0.000388657,
6.70833,0,0,-0.0027679,0,0.00040944,
6.75,0,0,-0.00232477,0,0.000429668,
6.79167,0,0,-0.00191386,0,0.000449365,
6.83333,0,0,-0.00153301,0,0.000468551,
6.875,0,0,-0.00118011,0,0.00048725,
6.91667,0,0,-0.000853016,0,0.000505483,
6.95833,0,0,-0.000549625,0,0.000523275,
7,0,0,-0.000267845,0,0.000540648,
7.04167,0,0,-5.6026e-06,0,0.000557626,
7.08333,0,0,0.000239147,0,0.000574231,
7.125,0,0,0.000468434,0,0.000590486,
7.16667,0,0,0.00068427,0,0.000606413,
7.20833,0,0,0.000888632,0,0.000622035,
7.25,0,0,0.00108345,0,0.000637375,
7.29167,0,0,0.0012706,0,0.000652458,
7.33333,0,0,0.00145192,0,0.000667306,
7.375,0,0,0.00162917,0,0.000681943,
7.41667,0,0,0.00180405,0,0.000696392,
7.45833,0,0,0.00197821,0,0.000710675,
7.5,0,0,0.00215322,0,0.000724814,
7.54167,0,0,0.00233057,0,0.000738829,
7.58333,0,0,0.00251165,0,0.000752742,
7.625,0,0,0.00269778,0,0.000766574,
7.66667,0,0,0.00289018,0,0.000780344,
7.70833,0,0,0.00308994,0,0.000794075,
7.75,0,0,0.00329809,0,0.000807787,
7.79167,0,0,0.00351552,0,0.000821498,
7.83333,0,0,0.00374254,0,0.00083522,
7.875,0,0,0.00397987,0,0.000849012,
7.91667,0,0,0.00423754,0,0.000863348,
7.95833,0,0,0.00445427,0,0.000876835,
8,0,0,0.00477457,0,0.000890422,
8.04171,0,0,0.00513787,0,0.000905339,
8.08368,0,0,0.00541454,0,0.000920382,
8.12617,0,0,0.00575738,0,0.000934268,
8.16946,0,0,0.0061157,0,0.000948618,
8.21382,0,0,0.00649352,0,0.000963349,
8.25952,0,0,0.00689979,0,0.000978514,
8.30685,0,0,0.00733741,0,0.000994281,
8.35611,0,0,0.00781073,0,0.00101077,
8.40762,0,0,0.00832454,0,0.00102809,
8.46168,0,0,0.00888385,0,0.00104637,
8.51865,0,0,0.00949392,0,0.00106573,
8.57889,0,0,0.0101602,0,0.00108628,
8.64276,0,0,0.0108883,0,0.00110817,
8.71067,0,0,0.0116835,0,0.00113152,
8.78306,0,0,0.0125504,0,0.00115645,
8.86037,0,0,0.0134928,0,0.0011831,
8.94309,0,0,0.0145128,0,0.00121156,
9.03174,0,0,0.0156106,0,0.00124192,
9.12689,0,0,0.0167833,0,0.00127428,
9.22912,0,0,0.0180243,0,0.00130865,
9.33908,0,0,0.0193213,0,0.00134504,
9.45746,0,0,0.0206553,0,0.00138332,
9.58501,0,0,0.0220017,0,0.00142333,
9.72253,0,0,0.0233291,0,0.00146479,
9.87088,0,0,0.024598,0,0.00150733,
10.031,0,0,0.0257646,0,0.00155049,
10.2039,0,0,0.0267836,0,0.00159374,
10.3906,0,0,0.0276091,0,0.00163648,
10.5924,0,0,0.0282009,0,0.00167816,
10.8105,0,0,0.0285287,0,0.00171825,
11.0463,0,0,0.0285725,0,0.00175631,
11.3012,0,0,0.0283278,0,0.001792,
11.5769,0,0,0.0278063,0,0.00182513,
11.8751,0,0,0.0270324,0,0.00185561,
12.1977,0,0,0.0260446,0,0.0018835,
12.5466,0,0,0.0248876,0,0.00190891,
12.9242,0,0,0.0236085,0,0.00193201,
13.3327,0,0,0.0222535,0,0.001953,
13.7748,0,0,0.0208612,0,0.001972,
14.2532,0,0,0.0194656,0,0.00198917,
14.7709,0,0,0.0180977,0,0.00200464,
15.3312,0,0,0.0167865,0,0.00201857,
15.9377,0,0,0.015555,0,0.00203119,
16.594,0,0,0.0144175,0,0.00204269,
17.3044,0,0,0.0133786,0,0.0020533,
18.0733,0,0,0.0124339,0,0.00206321,
18.9056,0,0,0.0115753,0,0.00207258,
19.8064,0,0,0.0107938,0,0.00208141,
20.7816,0,0,0.0100824,0,0.00208985,
21.8371,0,0,0.00943663,0,0.00209827,
22.9796,0,0,0.00885145,0,0.00210704,
24.2163,0,0,0.00831907,0,0.00211641,
25.5551,0,0,0.00782529,0,0.00212643,
27.0042,0,0,0.00735135,0,0.00213706,
28.5729,0,0,0.00687774,0,0.0021484,
30.271,0,0,0.0063852,0,0.00216047,
32.1091,0,0,0.00585467,0,0.00217325,
34.0989,0,0,0.00526964,0,0.00218671,
36.2529,0,0,0.00461176,0,0.00220073,
38.5845,0,0,0.00387219,0,0.00221515,
41.1085,0,0,0.00308602,0,0.00222976,
43.8407,0,0,0.0021006,0,0.00224244,
46.7983,0,0,0.00107898,0,0.00225117,
50,0,0,0.00199915,0,0.00226859,

