8e34b51d36e84eee4be6c26343dbdcb568fa966d 
X,Z,x_velocity,cp,uw_b,cf,
1,0,0,-0.236624,0,0,
1,9,0,-0.127412,0,0,
1,1.01284,0.476738,-0.228691,-0.00969956,0,
1,0.000308731,0.000552037,-0.236623,-1.27715e-14,0,
1,0.000654158,0.00114914,-0.236624,-5.59754e-13,0,
1,0.00104139,0.00179296,-0.236623,-7.1528e-12,0,
1,0.00147619,0.00248344,-0.236624,-4.85329e-11,0,
1,0.00196502,0.00321837,-0.236623,-2.27113e-10,0,
1,0.00251518,0.00399263,-0.236624,-8.33227e-10,0,
1,0.0031349,0.0047969,-0.236623,-2.56698e-09,0,
1,0.00383341,0.00561618,-0.236623,-6.8947e-09,0,
1,0.00462115,0.00642739,-0.236623,-1.64276e-08,0,
1,0.00550983,0.00719663,-0.236623,-3.46709e-08,0,
1,0.00651264,0.00787488,-0.236622,-6.27989e-08,0,
1,0.00764438,0.00839317,-0.236622,-8.64874e-08,0,
1,0.00892169,0.00865706,-0.236621,-3.5213e-08,0,
1,0.0103632,0.00854505,-0.23662,3.19933e-07,0,
1,0.0119898,0.00791868,-0.236619,1.55898e-06,0,
1,0.0138248,0.00665575,-0.236617,4.80601e-06,0,
1,0.0158944,0.00469975,-0.236614,1.15529e-05,0,
1,0.0182274,0.0020869,-0.236608,2.28124e-05,0,
1,0.0208562,-0.00108491,-0.2366,3.84955e-05,0,
1,0.0238164,-0.00471274,-0.236589,5.78654e-05,0,
1,0.0271475,-0.00872959,-0.236573,7.94197e-05,0,
1,0.0308929,-0.0131082,-0.236554,0.000102077,0,
1,0.0351001,-0.0178427,-0.236532,0.000125057,0,
1,0.0398209,-0.0229285,-0.236506,0.000147643,0,
1,0.0451115,-0.0283469,-0.236477,0.000169028,0,
1,0.0510323,-0.0340537,-0.236446,0.000188244,0,
1,0.057648,-0.0399723,-0.236416,0.000204174,0,
1,0.0650269,-0.0459917,-0.236387,0.000215597,0,
1,0.0732406,-0.0519689,-0.236362,0.000221335,0,
1,0.0823632,-0.0577391,-0.236346,0.000220333,0,
1,0.0924701,-0.0631307,-0.236341,0.000211815,0,
1,0.103636,-0.067983,-0.236351,0.00019544,0,
1,0.115935,-0.0721636,-0.236381,0.000171385,0,
1,0.129436,-0.0755789,-0.236432,0.000140326,0,
1,0.144202,-0.0781778,-0.236509,0.000103314,0,
1,0.160284,-0.079948,-0.236611,6.15678e-05,0,
1,0.177724,-0.0809074,-0.236739,1.6281e-05,0,
1,0.196544,-0.0810934,-0.236892,-3.15175e-05,0,
1,0.21675,-0.0805536,-0.237067,-8.09995e-05,0,
1,0.238323,-0.0793394,-0.23726,-0.000131494,0,
1,0.26122,-0.0775025,-0.237468,-0.000182409,0,
1,0.28537,-0.075093,-0.237686,-0.00023315,0,
1,0.310673,-0.0721603,-0.237907,-0.000283085,0,
1,0.337003,-0.0687536,-0.238126,-0.000331508,0,
1,0.364206,-0.0649238,-0.238337,-0.00037762,0,
1,0.392107,-0.060724,-0.238534,-0.000420543,0,
1,0.420509,-0.0562106,-0.238711,-0.000459359,0,
1,0.449206,-0.0514434,-0.238863,-0.000493122,0,
1,0.477982,-0.046485,-0.238988,-0.000520918,0,
1,0.506624,-0.0413984,-0.239082,-0.000541928,0,
1,0.534925,-0.0362421,-0.239144,-0.000555703,0,
1,0.562692,-0.031059,-0.239175,-0.000562486,0,
1,0.589754,-0.0258597,-0.239174,-0.000564139,0,
1,0.615961,-0.0205955,-0.239139,-0.000564652,0,
1,0.641193,-0.0151396,-0.239064,-0.000570408,0,
1,0.665359,-0.00928779,-0.238941,-0.000602301,0,
1,0.688396,-0.00270214,-0.238768,-0.000672204,0,
1,0.710271,0.00513908,-0.238544,-0.000805169,0,
1,0.730976,0.0148687,-0.238277,-0.00102783,0,
1,0.750529,0.0270571,-0.237979,-0.00136221,0,
1,0.768969,0.0419658,-0.237661,-0.00182086,0,
1,0.78635,0.0593714,-0.237331,-0.00239991,0,
1,0.802743,0.0786735,-0.236992,-0.00307028,0,
1,0.818232,0.0991892,-0.236655,-0.00378994,0,
1,0.832689,0.120081,-0.236312,-0.00451838,0,
1,0.846039,0.140677,-0.235974,-0.00522169,0,
1,0.858357,0.160653,-0.235639,-0.0058803,0,
1,0.869723,0.179814,-0.235309,-0.00648595,0,
1,0.880212,0.198047,-0.234985,-0.00703433,0,
1,0.889898,0.215294,-0.23467,-0.00752488,0,
1,0.898852,0.231539,-0.234363,-0.00796178,0,
1,0.907141,0.246805,-0.234066,-0.00834612,0,
1,0.914826,0.26115,-0.233776,-0.00868096,0,
1,0.921966,0.274654,-0.233492,-0.00897129,0,
1,0.928616,0.28741,-0.233213,-0.0092197,0,
1,0.934823,0.299501,-0.23294,-0.00943382,0,
1,0.940633,0.311003,-0.232673,-0.0096172,0,
1,0.946088,0.321979,-0.232414,-0.00977295,0,
1,0.951224,0.332488,-0.232161,-0.00990384,0,
1,0.956076,0.342582,-0.231916,-0.0100122,0,
1,0.960675,0.352306,-0.231677,-0.0101003,0,
1,0.965047,0.361706,-0.231446,-0.0101697,0,
1,0.969219,0.37082,-0.23122,-0.010222,0,
1,0.973211,0.379684,-0.231001,-0.0102586,0,
1,0.977045,0.388333,-0.230787,-0.0102805,0,
1,0.980739,0.396797,-0.230578,-0.0102886,0,
1,0.984308,0.405105,-0.230374,-0.0102836,0,
1,0.987768,0.413283,-0.230175,-0.010266,0,
1,0.991131,0.421357,-0.229979,-0.0102364,0,
1,0.99441,0.42935,-0.229786,-0.0101948,0,
1,0.997615,0.437283,-0.229597,-0.0101416,0,
1,1.00076,0.445177,-0.229411,-0.0100768,0,
1,1.00384,0.453052,-0.229228,-0.0100002,0,
1,1.00688,0.460925,-0.229047,-0.00991181,0,
1,1.00988,0.468815,-0.228868,-0.00981147,0,
1,1.01581,0.4848,-0.228514,-0.00957316,0,
1,1.01882,0.493113,-0.228335,-0.0094288,0,
1,1.02188,0.501705,-0.228154,-0.00926513,0,
1,1.025,0.51061,-0.22797,-0.00908037,0,
1,1.02818,0.519857,-0.227786,-0.00887245,0,
1,1.03144,0.529473,-0.2276,-0.00864107,0,
1,1.03478,0.539485,-0.227414,-0.00838241,0,
1,1.03822,0.549917,-0.227227,-0.00809392,0,
1,1.04177,0.560794,-0.227039,-0.00777293,0,
1,1.04544,0.572135,-0.226852,-0.00741671,0,
1,1.04925,0.583953,-0.226665,-0.00702272,0,
1,1.05321,0.596248,-0.226479,-0.00658891,0,
1,1.05735,0.609001,-0.226295,-0.00611436,0,
1,1.06169,0.622162,-0.226115,-0.00559998,0,
1,1.06626,0.635634,-0.225939,-0.00504996,0,
1,1.07108,0.649264,-0.225771,-0.0044733,0,
1,1.07618,0.662825,-0.225613,-0.00388537,0,
1,1.0816,0.676021,-0.225467,-0.00330855,0,
1,1.08738,0.688515,-0.225336,-0.00277014,0,
1,1.09357,0.700002,-0.225221,-0.00229696,0,
1,1.10022,0.710293,-0.225121,-0.00190804,0,
1,1.10739,0.719381,-0.225036,-0.00161068,0,
1,1.11514,0.727426,-0.224959,-0.00139999,0,
1,1.12354,0.734693,-0.224884,-0.00126173,0,
1,1.13268,0.741462,-0.224804,-0.00117798,0,
1,1.14266,0.747979,-0.224711,-0.00113123,0,
1,1.15357,0.754427,-0.2246,-0.00110767,0,
1,1.16554,0.760931,-0.224467,-0.00109675,0,
1,1.1787,0.76757,-0.224307,-0.00109153,0,
1,1.1932,0.774391,-0.224115,-0.00108802,0,
1,1.2092,0.781422,-0.223886,-0.00108357,0,
1,1.22689,0.788686,-0.223614,-0.00107716,0,
1,1.24659,0.796231,-0.223294,-0.00106787,0,
1,1.26879,0.804147,-0.222904,-0.00105705,0,
1,1.29378,0.81244,-0.222452,-0.00104623,0,
1,1.3219,0.821138,-0.221884,-0.00102798,0,
1,1.35351,0.830272,-0.221184,-0.000979088,0,
1,1.389,0.839822,-0.220386,-0.000936301,0,
1,1.42882,0.849772,-0.21946,-0.000897181,0,
1,1.47342,0.860168,-0.218386,-0.000858906,0,
1,1.52332,0.871085,-0.21714,-0.000819509,0,
1,1.57905,0.882623,-0.215703,-0.000777342,0,
1,1.64119,0.894913,-0.214052,-0.000730575,0,
1,1.71033,0.908114,-0.212165,-0.000676698,0,
1,1.78711,0.922372,-0.210019,-0.000613106,0,
1,1.87215,0.937742,-0.207595,-0.000538258,0,
1,1.9661,0.954059,-0.204875,-0.000452518,0,
1,2.06959,0.970767,-0.201842,-0.000359664,0,
1,2.18321,0.986841,-0.198506,-0.000263484,0,
1,2.30752,1.00094,-0.194927,-0.000134069,0,
1,2.44299,1.01151,-0.191098,-4.43123e-05,0,
1,2.59002,1.01722,-0.18707,-4.01229e-06,0,
1,2.74885,1.01797,-0.182939,1.10404e-06,0,
1,2.91959,1.01554,-0.178773,1.02702e-07,0,
1,3.10217,1.01234,-0.174636,5.60684e-08,0,
1,3.2963,1.00975,-0.170573,4.42614e-08,0,
1,3.50146,1.00789,-0.166618,3.5396e-08,0,
1,3.7169,1.0064,-0.162803,3.08787e-08,0,
1,3.94163,1.00498,-0.15916,2.86264e-08,0,
1,4.17441,1.00355,-0.155717,2.66838e-08,0,
1,4.41376,1.00217,-0.152494,2.45095e-08,0,
1,4.65805,1.00088,-0.149505,2.22155e-08,0,
1,4.90545,0.99971,-0.146758,2.00569e-08,0,
1,5.15407,0.99865,-0.144253,1.80998e-08,0,
1,5.40194,0.997698,-0.141988,1.63905e-08,0,
1,5.64716,0.996843,-0.139954,1.49902e-08,0,
1,5.88785,0.996058,-0.13814,1.39905e-08,0,
1,6.12229,0.99531,-0.136534,1.31527e-08,0,
1,6.34896,0.994627,-0.135119,1.16481e-08,0,
1,6.56652,0.994204,-0.133881,8.96672e-09,0,
1,6.77388,0.994343,-0.132801,1.24118e-09,0,
1,6.97022,0.994996,-0.131862,7.68423e-09,0,
1,7.15495,0.995006,-0.131047,1.81589e-06,0,
1,7.32773,0.991873,-0.130344,1.89717e-05,0,
1,7.48842,0.983007,-0.129747,7.99225e-05,0,
1,7.63711,0.967895,-0.129259,0.000216826,0,
1,7.77403,0.948601,-0.128845,0.000416141,0,
1,7.89956,0.927543,-0.128498,0.000580465,0,
1,8.01417,0.906326,-0.128235,0.000741409,0,
1,8.11843,0.886101,-0.128016,0.000879541,0,
1,8.21296,0.867355,-0.127847,0.000989937,0,
1,8.29839,0.850093,-0.127714,0.00107498,0,
1,8.3754,0.834084,-0.127613,0.0011397,0,
1,8.44464,0.819005,-0.127539,0.00118928,0,
1,8.50675,0.804497,-0.127484,0.00121762,0,
1,8.56236,0.790294,-0.127442,0.00124634,0,
1,8.61206,0.7763,-0.127413,0.00127322,0,
1,8.6564,0.762476,-0.127393,0.00129629,0,
1,8.69591,0.748788,-0.127379,0.00131579,0,
1,8.73107,0.735206,-0.12737,0.00133208,0,
1,8.76232,0.721706,-0.127366,0.0013455,0,
1,8.79007,0.708263,-0.127364,0.00135629,0,
1,8.81469,0.694859,-0.127364,0.00136465,0,
1,8.83651,0.681474,-0.127365,0.00137074,0,
1,8.85584,0.668091,-0.127368,0.00137471,0,
1,8.87295,0.654694,-0.127371,0.00137669,0,
1,8.8881,0.641264,-0.127374,0.00137678,0,
1,8.90149,0.627782,-0.127378,0.00137509,0,
1,8.91333,0.614227,-0.127382,0.00137169,0,
1,8.92379,0.600575,-0.127385,0.00136663,0,
1,8.93303,0.586798,-0.127388,0.00135995,0,
1,8.9412,0.572867,-0.127391,0.00135164,0,
1,8.9484,0.558744,-0.127394,0.00134164,0,
1,8.95476,0.544388,-0.127397,0.00132987,0,
1,8.96038,0.529751,-0.127399,0.00131616,0,
1,8.96533,0.514776,-0.127401,0.00130026,0,
1,8.9697,0.499397,-0.127403,0.00128183,0,
1,8.97356,0.483535,-0.127404,0.00126036,0,
1,8.97696,0.467097,-0.127406,0.00123521,0,
1,8.97996,0.449973,-0.127407,0.00120544,0,
1,8.98261,0.432032,-0.127408,0.00116989,0,
1,8.98494,0.413113,-0.127408,0.00112766,0,
1,8.98699,0.393004,-0.127409,0.00107434,0,
1,8.98881,0.371407,-0.12741,0.00100486,0,
1,8.99041,0.348013,-0.12741,0.000919744,0,
1,8.99182,0.322584,-0.12741,0.000816069,0,
1,8.99306,0.294941,-0.12741,0.000692031,0,
1,8.99416,0.264872,-0.127411,0.000532875,0,
1,8.99512,0.232324,-0.127411,0.000352103,0,
1,8.99597,0.198123,-0.127411,0.0001929,0,
1,8.99672,0.164035,-0.127411,8.37491e-05,0,
1,8.99739,0.131855,-0.127411,2.84515e-05,0,
1,8.99797,0.102642,-0.127411,7.54195e-06,0,
1,8.99848,0.0766521,-0.127411,1.51098e-06,0,
1,8.99894,0.0537064,-0.127411,2.06197e-07,0,
1,8.99934,0.0334923,-0.127411,1.49493e-08,0,
1,8.99969,0.0156911,-0.127411,3.19828e-10,0,

4,0,0,-0.115814,0,0,
4,9,0,-0.0967035,0,0,
4,1.05136,0.675424,-0.123364,-0.0042332,0,
4,0.000303409,-0.00620261,-0.115818,6.9234e-11,0,
4,0.00062865,-0.0127149,-0.115815,2.82767e-09,0,
4,0.000979511,-0.019584,-0.115818,3.29665e-08,0,
4,0.00136016,-0.0268519,-0.115816,2.04684e-07,0,
4,0.00177519,-0.0345532,-0.115819,8.83654e-07,0,
4,0.0022297,-0.0427039,-0.115817,3.01382e-06,0,
4,0.00272934,-0.0512776,-0.115819,8.65683e-06,0,
4,0.00328037,-0.0601572,-0.115818,2.15172e-05,0,
4,0.00388979,-0.0690636,-0.11582,4.63456e-05,0,
4,0.00456537,-0.0775173,-0.11582,8.53131e-05,0,
4,0.00531578,-0.0849528,-0.115824,0.000132598,0,
4,0.0061507,-0.0909929,-0.115827,0.000175151,0,
4,0.0070809,-0.0956105,-0.115835,0.000202091,0,
4,0.00811839,-0.0990229,-0.115844,0.000210771,0,
4,0.00927657,-0.101506,-0.115859,0.000203985,0,
4,0.0105703,-0.103295,-0.115876,0.000185457,0,
4,0.0120162,-0.104561,-0.115899,0.000157918,0,
4,0.0136326,-0.105422,-0.115927,0.000122956,0,
4,0.0154398,-0.105957,-0.115961,8.13306e-05,0,
4,0.0174603,-0.106219,-0.116002,3.32695e-05,0,
4,0.0197189,-0.106243,-0.11605,-2.13406e-05,0,
4,0.0222427,-0.106052,-0.116107,-8.28418e-05,0,
4,0.0250617,-0.105661,-0.116174,-0.00015174,0,
4,0.0282081,-0.105077,-0.116251,-0.000228669,0,
4,0.0317171,-0.104302,-0.11634,-0.000314367,0,
4,0.0356266,-0.103337,-0.116443,-0.000409664,0,
4,0.039977,-0.102176,-0.11656,-0.000515468,0,
4,0.0448114,-0.100812,-0.116693,-0.000632758,0,
4,0.0501747,-0.0992378,-0.116843,-0.000762572,0,
4,0.056114,-0.0974405,-0.117011,-0.000905991,0,
4,0.062677,-0.0954076,-0.117199,-0.00106412,0,
4,0.0699123,-0.0931239,-0.117408,-0.00123808,0,
4,0.0778675,-0.090573,-0.117637,-0.00142895,0,
4,0.0865883,-0.087737,-0.117887,-0.00163777,0,
4,0.0961173,-0.0845965,-0.118158,-0.00186548,0,
4,0.106492,-0.0811314,-0.118449,-0.00211286,0,
4,0.117744,-0.077321,-0.118759,-0.00238051,0,
4,0.129894,-0.0731445,-0.119086,-0.00266881,0,
4,0.142956,-0.0685817,-0.119428,-0.00297782,0,
4,0.156928,-0.0636137,-0.119781,-0.00330725,0,
4,0.171798,-0.0582239,-0.120143,-0.00365648,0,
4,0.187537,-0.0523994,-0.120511,-0.00402444,0,
4,0.2041,-0.0461317,-0.120881,-0.00440971,0,
4,0.221432,-0.0394185,-0.12125,-0.0048105,0,
4,0.239458,-0.0322649,-0.121616,-0.00522481,0,
4,0.258095,-0.0246835,-0.121975,-0.00565065,0,
4,0.27725,-0.0166939,-0.122325,-0.00608614,0,
4,0.296825,-0.0083181,-0.122665,-0.00652803,0,
4,0.316717,0.000424268,-0.122995,-0.00697025,0,
4,0.336828,0.0095134,-0.123317,-0.00740959,0,
4,0.357066,0.0189193,-0.123618,-0.00784706,0,
4,0.377348,0.0286017,-0.12398,-0.00834081,0,
4,0.397605,0.0386574,-0.124037,-0.00887498,0,
4,0.417786,0.0495532,-0.123629,-0.00911168,0,
4,0.437857,0.0617733,-0.123232,-0.00936384,0,
4,0.457804,0.0752991,-0.123032,-0.00961945,0,
4,0.477632,0.0898286,-0.12299,-0.00986021,0,
4,0.497368,0.105036,-0.12304,-0.0100736,0,
4,0.517057,0.120729,-0.123123,-0.0102538,0,
4,0.536763,0.136871,-0.123202,-0.0104001,0,
4,0.556564,0.153543,-0.123262,-0.0105136,0,
4,0.576557,0.170888,-0.123303,-0.0105948,0,
4,0.596848,0.189074,-0.123332,-0.0106425,0,
4,0.617561,0.208268,-0.123355,-0.010654,0,
4,0.637962,0.227853,-0.123374,-0.0106272,0,
4,0.657495,0.247299,-0.123388,-0.0105642,0,
4,0.676218,0.26661,-0.123403,-0.0104668,0,
4,0.694189,0.285782,-0.123415,-0.0103369,0,
4,0.711463,0.304811,-0.123426,-0.0101766,0,
4,0.728096,0.323689,-0.123433,-0.00998807,0,
4,0.744138,0.342401,-0.123438,-0.00977448,0,
4,0.759639,0.360918,-0.12344,-0.00953957,0,
4,0.774643,0.379193,-0.12344,-0.00928816,0,
4,0.789195,0.397158,-0.123439,-0.00902614,0,
4,0.803334,0.41474,-0.123437,-0.00875771,0,
4,0.817097,0.43187,-0.123435,-0.00848654,0,
4,0.830518,0.448491,-0.123433,-0.00821573,0,
4,0.843629,0.464568,-0.123432,-0.00794791,0,
4,0.856459,0.480079,-0.123431,-0.0076851,0,
4,0.869035,0.495019,-0.12343,-0.00742889,0,
4,0.881383,0.509395,-0.123431,-0.00718037,0,
4,0.893524,0.52322,-0.123432,-0.00694025,0,
4,0.905481,0.536519,-0.123435,-0.00670891,0,
4,0.917272,0.549318,-0.12344,-0.0064864,0,
4,0.928915,0.561649,-0.123446,-0.00627254,0,
4,0.940428,0.573543,-0.123452,-0.00606704,0,
4,0.951826,0.585028,-0.123458,-0.00587127,0,
4,0.963124,0.596128,-0.123463,-0.00568401,0,
4,0.974334,0.606869,-0.123465,-0.00550417,0,
4,0.98547,0.617279,-0.123466,-0.00533069,0,
4,0.996544,0.62739,-0.123465,-0.0051624,0,
4,1.00757,0.637243,-0.123461,-0.00499795,0,
4,1.01855,0.646897,-0.123449,-0.00483565,0,
4,1.0295,0.656446,-0.123425,-0.00464141,0,
4,1.04044,0.665959,-0.123395,-0.00444247,0,
4,1.0623,0.684823,-0.12333,-0.0040104,0,
4,1.07328,0.694133,-0.123294,-0.003776,0,
4,1.08432,0.703308,-0.123256,-0.00353263,0,
4,1.09543,0.7123,-0.123216,-0.0032833,0,
4,1.10661,0.721056,-0.123173,-0.00303158,0,
4,1.11788,0.72952,-0.123128,-0.00278144,0,
4,1.12925,0.737635,-0.123079,-0.00253713,0,
4,1.14073,0.74535,-0.123027,-0.00230301,0,
4,1.15233,0.75262,-0.122972,-0.0020832,0,
4,1.16408,0.759417,-0.122914,-0.00188127,0,
4,1.17599,0.765725,-0.122852,-0.00169991,0,
4,1.18806,0.77155,-0.122786,-0.00154075,0,
4,1.20034,0.776917,-0.122717,-0.00140423,0,
4,1.21282,0.781866,-0.122644,-0.00128972,0,
4,1.22554,0.786448,-0.122568,-0.00119573,0,
4,1.23852,0.790721,-0.122489,-0.00112017,0,
4,1.25179,0.794741,-0.122407,-0.00106061,0,
4,1.26537,0.798564,-0.122322,-0.00101455,0,
4,1.2793,0.802241,-0.122234,-0.00097955,0,
4,1.29362,0.805816,-0.122143,-0.000953377,0,
4,1.30836,0.809329,-0.12205,-0.000934013,0,
4,1.32357,0.812812,-0.121952,-0.000919738,0,
4,1.3393,0.816295,-0.121852,-0.000909062,0,
4,1.3556,0.819803,-0.121743,-0.000903958,0,
4,1.37252,0.823379,-0.121641,-0.000896273,0,
4,1.39015,0.827101,-0.121549,-0.000879634,0,
4,1.40855,0.831025,-0.12145,-0.000862538,0,
4,1.42781,0.835155,-0.121342,-0.000845027,0,
4,1.44801,0.839474,-0.121223,-0.000827073,0,
4,1.46926,0.843971,-0.121094,-0.000808919,0,
4,1.49167,0.848646,-0.120954,-0.000790887,0,
4,1.51537,0.853516,-0.120804,-0.00077294,0,
4,1.54091,0.85868,-0.12064,-0.000754633,0,
4,1.56949,0.864356,-0.120455,-0.000735269,0,
4,1.60144,0.870607,-0.120245,-0.000713887,0,
4,1.63713,0.877478,-0.120008,-0.000690013,0,
4,1.67693,0.884999,-0.119739,-0.000663153,0,
4,1.72128,0.893191,-0.119435,-0.000632628,0,
4,1.77062,0.902048,-0.119088,-0.000598217,0,
4,1.82542,0.911523,-0.1187,-0.000559787,0,
4,1.88618,0.92152,-0.118254,-0.000517413,0,
4,1.95343,0.931934,-0.117767,-0.000461281,0,
4,2.02768,0.942663,-0.117238,-0.000381804,0,
4,2.10949,0.953413,-0.116646,-0.00029599,0,
4,2.19939,0.963626,-0.115996,-0.000208897,0,
4,2.29789,0.97261,-0.115287,-0.000129675,0,
4,2.40551,0.979674,-0.11452,-6.63877e-05,0,
4,2.52268,0.984287,-0.113703,-2.41068e-05,0,
4,2.64979,0.986284,-0.112845,-3.01203e-06,0,
4,2.78715,0.986047,-0.111955,2.5257e-06,0,
4,2.93497,0.984493,-0.111041,1.51091e-06,0,
4,3.09333,0.982728,-0.110114,3.09303e-07,0,
4,3.26217,0.981523,-0.109183,3.0931e-08,0,
4,3.44125,0.981031,-0.108258,6.49878e-09,0,
4,3.63018,0.980963,-0.107348,3.01935e-09,0,
4,3.82836,0.980974,-0.106459,2.97207e-09,0,
4,4.03501,0.980882,-0.105596,3.92053e-09,0,
4,4.24915,0.980682,-0.104767,4.52225e-09,0,
4,4.46961,0.980438,-0.103975,4.52318e-09,0,
4,4.69507,0.980204,-0.103225,4.18624e-09,0,
4,4.92406,0.979996,-0.102519,3.81296e-09,0,
4,5.15502,0.979809,-0.101859,3.54179e-09,0,
4,5.3863,0.979635,-0.101246,3.4457e-09,0,
4,5.61626,0.979459,-0.100681,3.64617e-09,0,
4,5.84328,0.979267,-0.100163,4.47553e-09,0,
4,6.06579,0.97906,-0.0996917,6.72201e-09,0,
4,6.28238,0.978906,-0.0992651,8.94823e-09,0,
4,6.49173,0.978966,-0.098881,-1.9848e-08,0,
4,6.69275,0.979408,-0.0985364,-2.06583e-07,0,
4,6.88453,0.980071,-0.0982269,-2.62686e-07,0,
4,7.06634,0.980012,-0.0979485,4.27341e-06,0,
4,7.23771,0.977371,-0.0977012,2.83004e-05,0,
4,7.39831,0.970082,-0.0974834,9.3551e-05,0,
4,7.54803,0.957195,-0.0973042,0.000215144,0,
4,7.68693,0.939612,-0.0971516,0.000374049,0,
4,7.81519,0.919274,-0.0970123,0.000523385,0,
4,7.93313,0.898112,-0.096904,0.000678886,0,
4,8.04115,0.877623,-0.0968073,0.000821603,0,
4,8.13974,0.85855,-0.0967296,0.000940948,0,
4,8.22941,0.841031,-0.096669,0.00103563,0,
4,8.31073,0.824879,-0.096624,0.00110925,0,
4,8.38429,0.809767,-0.0965946,0.00116636,0,
4,8.45065,0.795307,-0.0965769,0.00120557,0,
4,8.5104,0.781172,-0.0965688,0.00123615,0,
4,8.56407,0.767213,-0.0965674,0.00126737,0,
4,8.61222,0.753408,-0.0965688,0.00129409,0,
4,8.65533,0.73974,-0.0965735,0.00131632,0,
4,8.69387,0.726195,-0.0965798,0.00133456,0,
4,8.7283,0.712757,-0.0965876,0.00134919,0,
4,8.75901,0.699411,-0.0965961,0.00136049,0,
4,8.78637,0.686145,-0.0966051,0.00136865,0,
4,8.81074,0.672948,-0.0966141,0.00137386,0,
4,8.83242,0.659811,-0.0966229,0.00137633,0,
4,8.85169,0.646723,-0.0966314,0.00137624,0,
4,8.86881,0.633672,-0.0966395,0.0013738,0,
4,8.88402,0.620645,-0.096647,0.00136924,0,
4,8.89751,0.607626,-0.0966539,0.00136274,0,
4,8.90949,0.594596,-0.0966603,0.00135451,0,
4,8.92011,0.581532,-0.096666,0.00134472,0,
4,8.92952,0.568408,-0.0966711,0.00133348,0,
4,8.93787,0.555194,-0.0966757,0.00132089,0,
4,8.94526,0.541854,-0.0966798,0.001307,0,
4,8.95182,0.528348,-0.0966834,0.00129178,0,
4,8.95762,0.51463,-0.0966865,0.00127514,0,
4,8.96276,0.500647,-0.0966892,0.00125693,0,
4,8.96731,0.486339,-0.0966916,0.00123687,0,
4,8.97134,0.471634,-0.0966936,0.00121459,0,
4,8.97491,0.456451,-0.0966954,0.00118956,0,
4,8.97807,0.440695,-0.0966968,0.00116106,0,
4,8.98087,0.424253,-0.0966981,0.00112816,0,
4,8.98334,0.40699,-0.0966991,0.00108958,0,
4,8.98553,0.388748,-0.0967001,0.00104417,0,
4,8.98747,0.369321,-0.0967007,0.000988312,0,
4,8.98919,0.34843,-0.0967014,0.00091651,0,
4,8.9907,0.325794,-0.0967018,0.00083,0,
4,8.99205,0.301213,-0.0967023,0.000726633,0,
4,8.99324,0.274528,-0.0967025,0.00060261,0,
4,8.99429,0.245539,-0.0967028,0.00044369,0,
4,8.99522,0.214421,-0.0967028,0.00028433,0,
4,8.99605,0.182277,-0.0967031,0.000150163,0,
4,8.99677,0.150719,-0.096703,6.33711e-05,0,
4,8.99742,0.121202,-0.0967032,2.12331e-05,0,
4,8.99799,0.0944845,-0.0967031,5.62375e-06,0,
4,8.9985,0.0706898,-0.0967033,1.1344e-06,0,
4,8.99894,0.0496248,-0.0967031,1.56358e-07,0,
4,8.99934,0.0310064,-0.0967034,1.14525e-08,0,
4,8.99969,0.0145536,-0.0967031,2.46866e-10,0,

6,0,0,0.00560398,0,0,
6,9,0,-0.0736883,0,0,
6,1.07704,0.704154,-0.0074414,-0.0023373,0,
6,0.000299862,0.00286805,0.00559708,-3.63157e-11,0,
6,0.000611645,0.00590923,0.0056026,-1.45546e-09,0,
6,0.000938257,0.00915909,0.00559722,-1.63596e-08,0,
6,0.00128281,0.0126561,0.00560139,-9.78793e-08,0,
6,0.00164864,0.0164421,0.00559711,-4.09089e-07,0,
6,0.00203939,0.0205601,0.00560026,-1.36166e-06,0,
6,0.00245897,0.0250475,0.00559675,-3.86609e-06,0,
6,0.00291168,0.0299214,0.00559906,-9.69839e-06,0,
6,0.00340221,0.0351501,0.00559589,-2.17804e-05,0,
6,0.00393573,0.0406153,0.00559717,-4.36889e-05,0,
6,0.00451788,0.0460925,0.00559344,-7.75482e-05,0,
6,0.00515491,0.051298,0.00559258,-0.00012127,0,
6,0.00585371,0.0560021,0.00558655,-0.000168716,0,
6,0.00662185,0.0601108,0.00558159,-0.00021371,0,
6,0.00746774,0.0636526,0.00557123,-0.000253318,0,
6,0.00840063,0.0667164,0.00556033,-0.000287643,0,
6,0.00943073,0.0694019,0.00554397,-0.000318137,0,
6,0.0105693,0.0717973,0.00552554,-0.00034643,0,
6,0.0118288,0.0739735,0.00550146,-0.000373897,0,
6,0.0132228,0.0759856,0.00547374,-0.00040162,0,
6,0.0147664,0.0778766,0.00543984,-0.000430453,0,
6,0.016476,0.0796801,0.00540061,-0.000461092,0,
6,0.0183694,0.0814228,0.0053542,-0.000494146,0,
6,0.0204662,0.083127,0.00530062,-0.000530167,0,
6,0.0227875,0.0848109,0.00523842,-0.00056969,0,
6,0.0253561,0.0864906,0.00516701,-0.000613243,0,
6,0.0281964,0.0881801,0.00508509,-0.000661363,0,
6,0.0313344,0.0898922,0.00499174,-0.000714606,0,
6,0.0347975,0.0916387,0.00488569,-0.000773546,0,
6,0.0386145,0.0934309,0.00476582,-0.00083878,0,
6,0.042815,0.0952795,0.00463092,-0.000910925,0,
6,0.0474296,0.0971947,0.00447985,-0.000990615,0,
6,0.0524888,0.0991869,0.00431152,-0.00107849,0,
6,0.0580229,0.101266,0.00412496,-0.0011752,0,
6,0.0640611,0.103441,0.00391939,-0.00128137,0,
6,0.0706309,0.105723,0.00369425,-0.0013976,0,
6,0.077757,0.108119,0.00344924,-0.00152445,0,
6,0.0854609,0.11064,0.00318443,-0.00166243,0,
6,0.0937597,0.113294,0.00290024,-0.00181194,0,
6,0.102665,0.116087,0.00259749,-0.00197329,0,
6,0.112183,0.119029,0.00227742,-0.0021467,0,
6,0.122315,0.122125,0.00194166,-0.0023322,0,
6,0.133052,0.125382,0.00159218,-0.00252973,0,
6,0.144384,0.128804,0.00123124,-0.00273907,0,
6,0.156292,0.132396,0.000861303,-0.00295986,0,
6,0.168754,0.136161,0.000484939,-0.00319161,0,
6,0.181744,0.140105,0.000104705,-0.00343378,0,
6,0.195237,0.144229,-0.000276948,-0.00368571,0,
6,0.209207,0.14854,-0.000657773,-0.00394676,0,
6,0.223631,0.153043,-0.0010358,-0.00421629,0,
6,0.238493,0.157745,-0.00140939,-0.0044937,0,
6,0.253785,0.162657,-0.00177729,-0.00477852,0,
6,0.269507,0.167792,-0.00213862,-0.00507039,0,
6,0.28567,0.17317,-0.00249268,-0.0053691,0,
6,0.3023,0.178814,-0.00284032,-0.00567487,0,
6,0.319433,0.184754,-0.00317934,-0.00598977,0,
6,0.337122,0.191031,-0.00349818,-0.00631156,0,
6,0.355433,0.197708,-0.0037855,-0.00663849,0,
6,0.374445,0.204862,-0.00402909,-0.00696908,0,
6,0.394252,0.21259,-0.00423678,-0.00730443,0,
6,0.414961,0.221008,-0.00450449,-0.00771194,0,
6,0.436695,0.230419,-0.00425899,-0.00809226,0,
6,0.459585,0.241455,-0.00334915,-0.00817609,0,
6,0.48378,0.254793,-0.00251398,-0.00828261,0,
6,0.508144,0.26988,-0.00208365,-0.00842097,0,
6,0.531799,0.285827,-0.00194675,-0.00855173,0,
6,0.554791,0.302243,-0.00195268,-0.00864657,0,
6,0.577166,0.318887,-0.00199968,-0.00869267,0,
6,0.598964,0.335667,-0.00203545,-0.00868842,0,
6,0.620228,0.35257,-0.00205125,-0.00863712,0,
6,0.640996,0.369607,-0.00205701,-0.00854262,0,
6,0.661304,0.386768,-0.00206634,-0.00840803,0,
6,0.681188,0.404016,-0.00208905,-0.00823602,0,
6,0.700681,0.42129,-0.00213061,-0.00802996,0,
6,0.719813,0.438506,-0.00219389,-0.00779481,0,
6,0.738612,0.45557,-0.00227992,-0.00753636,0,
6,0.757107,0.472387,-0.00238805,-0.00725988,0,
6,0.775322,0.488879,-0.00251688,-0.00697008,0,
6,0.793282,0.504982,-0.002665,-0.00667122,0,
6,0.811008,0.520649,-0.00283116,-0.00636715,0,
6,0.828521,0.535844,-0.00301471,-0.00606139,0,
6,0.845842,0.550531,-0.00321458,-0.00575728,0,
6,0.862989,0.564673,-0.00343184,-0.00546027,0,
6,0.879979,0.578229,-0.00366554,-0.0051761,0,
6,0.896829,0.591179,-0.00391211,-0.00490336,0,
6,0.913555,0.603538,-0.00417015,-0.0046412,0,
6,0.930172,0.615345,-0.00443932,-0.00438894,0,
6,0.946694,0.62665,-0.00471959,-0.00414577,0,
6,0.963136,0.637503,-0.00501286,-0.00391055,0,
6,0.97951,0.647957,-0.00531822,-0.00368165,0,
6,0.99583,0.658075,-0.00564452,-0.00345092,0,
6,1.01211,0.667915,-0.00598683,-0.00321688,0,
6,1.02836,0.67748,-0.00633579,-0.00298982,0,
6,1.04459,0.686735,-0.00669563,-0.00276579,0,
6,1.06081,0.695639,-0.00706402,-0.00254733,0,
6,1.09329,0.712246,-0.00782703,-0.00213857,0,
6,1.10959,0.71989,-0.00822066,-0.00195391,0,
6,1.12595,0.727064,-0.00862167,-0.00178565,0,
6,1.14238,0.733762,-0.00902943,-0.00163548,0,
6,1.1589,0.739991,-0.00944339,-0.00150425,0,
6,1.17551,0.745776,-0.00986309,-0.0013919,0,
6,1.19223,0.751153,-0.0102881,-0.00129754,0,
6,1.20907,0.756167,-0.0107184,-0.00121966,0,
6,1.22605,0.760868,-0.0111534,-0.00115628,0,
6,1.24318,0.765306,-0.0115939,-0.0011055,0,
6,1.26048,0.769532,-0.0120374,-0.00107069,0,
6,1.27797,0.773634,-0.012496,-0.00103348,0,
6,1.29566,0.777733,-0.012974,-0.000997499,0,
6,1.31357,0.781917,-0.0134611,-0.000963041,0,
6,1.33173,0.786213,-0.013954,-0.000931283,0,
6,1.35015,0.790599,-0.014449,-0.000902956,0,
6,1.36886,0.795025,-0.014947,-0.000877911,0,
6,1.38788,0.799451,-0.0154494,-0.000855487,0,
6,1.40725,0.803857,-0.0159588,-0.000835036,0,
6,1.42698,0.808249,-0.0164774,-0.000815449,0,
6,1.44712,0.812647,-0.017007,-0.000795967,0,
6,1.46769,0.817076,-0.0175484,-0.000776414,0,
6,1.48874,0.821553,-0.018102,-0.000756912,0,
6,1.5103,0.826089,-0.0186686,-0.00073737,0,
6,1.53242,0.830692,-0.0192488,-0.000717712,0,
6,1.55515,0.835368,-0.0198437,-0.000697872,0,
6,1.57854,0.84012,-0.0204543,-0.000677789,0,
6,1.60265,0.844954,-0.0210819,-0.00065743,0,
6,1.62754,0.849873,-0.0217279,-0.000636776,0,
6,1.65329,0.85488,-0.0223931,-0.000615936,0,
6,1.67998,0.859975,-0.0230796,-0.000594946,0,
6,1.70768,0.865161,-0.0237875,-0.000573949,0,
6,1.73712,0.870536,-0.0245381,-0.000553112,0,
6,1.76996,0.876336,-0.0253677,-0.000531404,0,
6,1.80655,0.882594,-0.0262856,-0.000507824,0,
6,1.84728,0.889282,-0.0272982,-0.000482774,0,
6,1.89255,0.89635,-0.0284091,-0.000456045,0,
6,1.9428,0.903765,-0.0296314,-0.000423386,0,
6,1.99849,0.91153,-0.030974,-0.000370659,0,
6,2.06009,0.91955,-0.0324323,-0.000313611,0,
6,2.1281,0.927551,-0.0340111,-0.000252276,0,
6,2.20301,0.935173,-0.0357094,-0.000190614,0,
6,2.28535,0.942032,-0.0375206,-0.00013338,0,
6,2.37559,0.947765,-0.0394352,-8.46399e-05,0,
6,2.47424,0.952083,-0.0414365,-4.72985e-05,0,
6,2.58172,0.954856,-0.0435039,-2.24559e-05,0,
6,2.69844,0.956198,-0.0456122,-8.86639e-06,0,
6,2.82473,0.956495,-0.0477347,-3.12682e-06,0,
6,2.96084,0.956335,-0.0498453,-1.25781e-06,0,
6,3.10691,0.956307,-0.0519213,-5.85105e-07,0,
6,3.26296,0.956776,-0.0539435,-2.25453e-07,0,
6,3.42888,0.957764,-0.0558953,-7.01669e-08,0,
6,3.60438,0.959044,-0.0577607,-3.24557e-08,0,
6,3.78902,0.960329,-0.0595248,-2.56335e-08,0,
6,3.98218,0.961443,-0.0611744,-2.15075e-08,0,
6,4.18307,0.96235,-0.0627001,-1.79754e-08,0,
6,4.39071,0.963103,-0.064096,-1.5369e-08,0,
6,4.60398,0.963765,-0.0653605,-1.34583e-08,0,
6,4.82159,0.964367,-0.0664953,-1.19515e-08,0,
6,5.04218,0.964916,-0.0675048,-1.07234e-08,0,
6,5.26426,0.965403,-0.0683955,-9.95948e-09,0,
6,5.48633,0.965817,-0.0691756,-1.02459e-08,0,
6,5.70687,0.966153,-0.0698542,-1.30072e-08,0,
6,5.92439,0.966416,-0.070441,-2.22506e-08,0,
6,6.1375,0.966654,-0.0709453,-5.31633e-08,0,
6,6.34489,0.966978,-0.0713765,-1.70523e-07,0,
6,6.5454,0.967534,-0.071743,-5.60504e-07,0,
6,6.73802,0.968308,-0.0720522,-1.20784e-06,0,
6,6.92195,0.968803,-0.0723113,4.53634e-07,0,
6,7.09653,0.96778,-0.0725261,1.41955e-05,0,
6,7.26132,0.963466,-0.072707,5.73512e-05,0,
6,7.41603,0.954381,-0.0728516,0.000146215,0,
6,7.56054,0.940269,-0.0729805,0.000286137,0,
6,7.6949,0.922152,-0.0730862,0.000416147,0,
6,7.81927,0.901676,-0.073157,0.000557149,0,
6,7.93391,0.88069,-0.073217,0.000701561,0,
6,8.0392,0.860615,-0.0732555,0.000832327,0,
6,8.13555,0.842079,-0.0732874,0.000942009,0,
6,8.22344,0.82511,-0.0733127,0.0010301,0,
6,8.30339,0.809432,-0.0733379,0.00110015,0,
6,8.37592,0.794675,-0.073363,0.00115606,0,
6,8.44155,0.780485,-0.0733893,0.00120167,0,
6,8.50082,0.766575,-0.0734174,0.00123558,0,
6,8.55423,0.752805,-0.0734448,0.00126852,0,
6,8.60229,0.73916,-0.0734694,0.00129659,0,
6,8.64545,0.725641,-0.0734923,0.00131943,0,
6,8.68417,0.712245,-0.0735132,0.00133755,0,
6,8.71885,0.698968,-0.0735324,0.00135143,0,
6,8.74989,0.685804,-0.0735499,0.00136141,0,
6,8.77763,0.672749,-0.073566,0.00136781,0,
6,8.80241,0.659795,-0.0735805,0.0013709,0,
6,8.82452,0.646938,-0.0735937,0.00137097,0,
6,8.84423,0.634167,-0.0736056,0.00136832,0,
6,8.86181,0.621474,-0.0736163,0.00136322,0,
6,8.87746,0.608845,-0.0736258,0.00135599,0,
6,8.89139,0.596265,-0.0736343,0.00134687,0,
6,8.90379,0.583714,-0.0736418,0.00133613,0,
6,8.91482,0.57117,-0.0736484,0.00132398,0,
6,8.92463,0.558607,-0.0736543,0.0013106,0,
6,8.93334,0.545996,-0.0736594,0.00129612,0,
6,8.94109,0.533304,-0.0736638,0.00128063,0,
6,8.94798,0.520491,-0.0736676,0.00126414,0,
6,8.95409,0.507516,-0.0736709,0.00124663,0,
6,8.95953,0.494331,-0.0736738,0.00122797,0,
6,8.96435,0.480881,-0.0736762,0.00120797,0,
6,8.96863,0.467104,-0.0736783,0.00118636,0,
6,8.97244,0.452928,-0.07368,0.00116272,0,
6,8.97581,0.438273,-0.0736816,0.0011365,0,
6,8.97881,0.423041,-0.0736828,0.00110696,0,
6,8.98147,0.407123,-0.0736839,0.00107313,0,
6,8.98383,0.390385,-0.0736847,0.00103374,0,
6,8.98593,0.372672,-0.0736855,0.000987609,0,
6,8.98779,0.353784,-0.073686,0.00093101,0,
6,8.98944,0.333458,-0.0736866,0.00085923,0,
6,8.9909,0.311438,-0.0736869,0.000773515,0,
6,8.9922,0.287552,-0.0736873,0.000672155,0,
6,8.99336,0.261637,-0.0736874,0.000547995,0,
6,8.99438,0.233535,-0.0736877,0.000395892,0,
6,8.99529,0.203554,-0.0736877,0.000247884,0,
6,8.99609,0.172834,-0.0736879,0.000128032,0,
6,8.99681,0.142893,-0.0736878,5.32029e-05,0,
6,8.99744,0.115001,-0.073688,1.77181e-05,0,
6,8.99801,0.0897675,-0.0736879,4.69977e-06,0,
6,8.9985,0.0672598,-0.0736881,9.53433e-07,0,
6,8.99895,0.0472871,-0.0736879,1.32374e-07,0,
6,8.99934,0.0295885,-0.0736882,9.76626e-09,0,
6,8.99969,0.0139074,-0.0736879,2.11642e-10,0,

10,0,0,-0.0293685,0,0,
10,0.000296632,0.00630815,-0.0293681,-2.70839e-11,0,
10,0.000596102,0.0126511,-0.0293682,-1.00013e-09,0,
10,0.000900397,0.0190719,-0.0293681,-1.01342e-08,0,
10,0.00121153,0.0256135,-0.0293681,-5.42967e-08,0,
10,0.00153158,0.0323186,-0.0293681,-2.02642e-07,0,
10,0.00186264,0.0392292,-0.0293681,-6.01877e-07,0,
10,0.00220692,0.0463854,-0.0293682,-1.52919e-06,0,
10,0.00256668,0.0538227,-0.029368,-3.46642e-06,0,
10,0.00294431,0.0615675,-0.0293682,-7.19076e-06,0,
10,0.00334229,0.0696299,-0.029368,-1.38558e-05,0,
10,0.00376326,0.0779936,-0.0293682,-2.49966e-05,0,
10,0.00421,0.0866041,-0.029368,-4.23499e-05,0,
10,0.00468544,0.0953593,-0.0293682,-6.73925e-05,0,
10,0.00519274,0.104111,-0.029368,-0.000100663,0,
10,0.00573524,0.112681,-0.0293682,-0.000141208,0,
10,0.00631651,0.120893,-0.0293679,-0.000186601,0,
10,0.00694041,0.128602,-0.029368,-0.000233651,0,
10,0.00761104,0.135718,-0.0293676,-0.000279374,0,
10,0.00833284,0.142209,-0.0293676,-0.000321677,0,
10,0.00911058,0.148088,-0.0293671,-0.000359539,0,
10,0.0099494,0.153399,-0.0293669,-0.000392813,0,
10,0.0108548,0.158201,-0.0293662,-0.000421913,0,
10,0.0118329,0.162559,-0.0293659,-0.000447525,0,
10,0.0128901,0.166536,-0.0293651,-0.000470413,0,
10,0.0140333,0.170188,-0.0293645,-0.00049131,0,
10,0.0152702,0.173567,-0.0293635,-0.00051087,0,
10,0.0166089,0.176716,-0.0293627,-0.000529658,0,
10,0.0180584,0.179672,-0.0293616,-0.000548153,0,
10,0.0196282,0.182469,-0.0293606,-0.000566764,0,
10,0.0213288,0.185134,-0.0293593,-0.000585846,0,
10,0.0231714,0.18769,-0.0293581,-0.00060571,0,
10,0.0251682,0.190158,-0.0293566,-0.000626636,0,
10,0.0273326,0.192557,-0.0293552,-0.000648888,0,
10,0.0296789,0.194902,-0.0293537,-0.000672713,0,
10,0.0322227,0.197208,-0.0293522,-0.000698355,0,
10,0.0349809,0.199488,-0.0293506,-0.000726055,0,
10,0.0379719,0.201755,-0.0293491,-0.000756059,0,
10,0.0412155,0.204021,-0.0293476,-0.00078862,0,
10,0.0447333,0.206295,-0.0293462,-0.000823997,0,
10,0.0485489,0.20859,-0.0293451,-0.000862465,0,
10,0.0526875,0.210916,-0.0293441,-0.000904309,0,
10,0.0571768,0.213283,-0.0293436,-0.000949833,0,
10,0.0620466,0.215703,-0.0293435,-0.000999356,0,
10,0.0673295,0.218188,-0.0293441,-0.00105321,0,
10,0.0730607,0.220748,-0.0293456,-0.00111176,0,
10,0.0792784,0.223396,-0.0293481,-0.00117537,0,
10,0.0860241,0.226145,-0.029352,-0.00124444,0,
10,0.0933428,0.229009,-0.0293577,-0.00131937,0,
10,0.101283,0.232003,-0.0293655,-0.00140058,0,
10,0.109899,0.235143,-0.029376,-0.00148852,0,
10,0.119247,0.238447,-0.0293899,-0.00158361,0,
10,0.12939,0.241933,-0.0294079,-0.0016863,0,
10,0.140395,0.245622,-0.029431,-0.00179702,0,
10,0.152337,0.249537,-0.0294603,-0.00191618,0,
10,0.165296,0.253703,-0.0294973,-0.00204415,0,
10,0.179357,0.258145,-0.0295436,-0.00218124,0,
10,0.194615,0.262895,-0.0296013,-0.00232766,0,
10,0.211171,0.267983,-0.0296726,-0.00248351,0,
10,0.229138,0.273444,-0.0297604,-0.00264871,0,
10,0.248635,0.279317,-0.0298682,-0.00282291,0,
10,0.269793,0.285641,-0.0299993,-0.00300542,0,
10,0.292753,0.29246,-0.0301604,-0.00319508,0,
10,0.317669,0.299817,-0.0303493,-0.00339794,0,
10,0.344708,0.307791,-0.0305973,-0.00367842,0,
10,0.372405,0.316359,-0.0310129,-0.00379705,0,
10,0.399623,0.325701,-0.0315316,-0.00393643,0,
10,0.426397,0.335979,-0.032047,-0.0040908,0,
10,0.452757,0.347114,-0.0325684,-0.00425049,0,
10,0.478735,0.358893,-0.0330902,-0.00440808,0,
10,0.504358,0.371067,-0.0336197,-0.00455606,0,
10,0.529657,0.383416,-0.0341574,-0.00469005,0,
10,0.554656,0.395783,-0.0347044,-0.00480815,0,
10,0.579382,0.408073,-0.0352588,-0.00491015,0,
10,0.603859,0.420244,-0.0358176,-0.00499661,0,
10,0.628112,0.43229,-0.0363758,-0.00506843,0,
10,0.652163,0.44423,-0.0369274,-0.00512648,0,
10,0.676035,0.4561,-0.0374657,-0.00517147,0,
10,0.699751,0.467948,-0.0379841,-0.0052038,0,
10,0.72333,0.479827,-0.0384755,-0.00522364,0,
10,0.746795,0.491798,-0.0389339,-0.00523082,0,
10,0.770165,0.503923,-0.0393533,-0.00522488,0,
10,0.79346,0.516269,-0.039729,-0.00520512,0,
10,0.816699,0.528903,-0.0400567,-0.00517055,0,
10,0.839903,0.541893,-0.0403332,-0.00511993,0,
10,0.863088,0.555308,-0.040556,-0.00505195,0,
10,0.886275,0.569213,-0.0407235,-0.00496504,0,
10,0.909481,0.583664,-0.0408344,-0.00485749,0,
10,0.932723,0.598704,-0.0408882,-0.00472764,0,
10,0.956021,0.614347,-0.0408848,-0.00457441,0,
10,0.97939,0.630563,-0.0408251,-0.00439788,0,
10,1.00285,0.647255,-0.0407108,-0.00419996,0,
10,1.02641,0.664256,-0.0405451,-0.00398353,0,
10,1.0501,0.681337,-0.0403323,-0.00375224,0,
10,1.07392,0.698228,-0.0400769,-0.00351063,0,
10,1.0979,0.714652,-0.0397838,-0.00326388,0,
10,1.12205,0.730355,-0.039458,-0.00301699,0,
10,1.14639,0.745135,-0.039105,-0.00277868,0,
10,1.17093,0.758884,-0.0387316,-0.00254934,0,
10,1.19568,0.771603,-0.0383429,-0.0023302,0,
10,1.22066,0.783369,-0.0379401,-0.00212312,0,
10,1.24589,0.7943,-0.0375233,-0.0019282,0,
10,1.27137,0.80452,-0.0370915,-0.00174479,0,
10,1.29713,0.814145,-0.0366451,-0.00157123,0,
10,1.32317,0.823271,-0.03618,-0.00140336,0,
10,1.34951,0.831958,-0.0356933,-0.00123301,0,
10,1.37616,0.840168,-0.0351992,-0.00107573,0,
10,1.40313,0.84782,-0.0347009,-0.000935649,0,
10,1.43043,0.854923,-0.0342032,-0.000804355,0,
10,1.45807,0.861577,-0.033703,-0.000688114,0,
10,1.48607,0.867858,-0.0331972,-0.000588697,0,
10,1.51444,0.873786,-0.0326927,-0.0005057,0,
10,1.54318,0.879354,-0.0321907,-0.000438914,0,
10,1.57231,0.88458,-0.0316946,-0.00038714,0,
10,1.60184,0.889516,-0.0312042,-0.000347894,0,
10,1.63178,0.894228,-0.0307204,-0.000318003,0,
10,1.66213,0.89877,-0.0302434,-0.00029447,0,
10,1.69292,0.90317,-0.0297742,-0.000275001,0,
10,1.72416,0.907438,-0.0293131,-0.000258079,0,
10,1.75585,0.911571,-0.0288609,-0.000242765,0,
10,1.78802,0.915562,-0.0284178,-0.000228485,0,
10,1.82067,0.9194,-0.0279845,-0.000214899,0,
10,1.85383,0.923075,-0.0275616,-0.000201828,0,
10,1.88751,0.926579,-0.0271492,-0.000189221,0,
10,1.92173,0.929912,-0.0267486,-0.000177125,0,
10,1.95652,0.933082,-0.0263584,-0.00016579,0,
10,1.9919,0.936118,-0.0259805,-0.000153132,0,
10,2.02791,0.93906,-0.0256145,-0.00013796,0,
10,2.06456,0.941913,-0.0252587,-0.000122444,0,
10,2.10268,0.944687,-0.0249094,-0.000104994,0,
10,2.1443,0.947437,-0.0245496,-8.63856e-05,0,
10,2.18977,0.950091,-0.0241833,-6.716e-05,0,
10,2.23946,0.952539,-0.0238135,-4.79555e-05,0,
10,2.29376,0.954664,-0.0234457,-2.99957e-05,0,
10,2.35309,0.95635,-0.0230857,-1.43921e-05,0,
10,2.4179,0.957495,-0.0227414,-2.03483e-06,0,
10,2.48863,0.95802,-0.0224215,6.50469e-06,0,
10,2.56575,0.957893,-0.0221359,1.10794e-05,0,
10,2.64971,0.957147,-0.021895,1.20703e-05,0,
10,2.74098,0.955892,-0.0217091,1.03878e-05,0,
10,2.83997,0.95432,-0.0215877,7.34181e-06,0,
10,2.94709,0.952677,-0.0215391,4.25489e-06,0,
10,3.06269,0.95121,-0.02157,1.9906e-06,0,
10,3.18706,0.950102,-0.0216849,7.38013e-07,0,
10,3.3204,0.949421,-0.0218863,2.14929e-07,0,
10,3.46281,0.94911,-0.0221746,5.0962e-08,0,
10,3.61427,0.949034,-0.0225478,1.18176e-08,0,
10,3.77463,0.949042,-0.0230021,4.06057e-09,0,
10,3.94358,0.949033,-0.0235314,2.55082e-09,0,
10,4.12067,0.948976,-0.0241272,2.00911e-09,0,
10,4.30525,0.948895,-0.024779,1.26917e-09,0,
10,4.49655,0.948838,-0.0254748,1.94258e-10,0,
10,4.6936,0.948836,-0.0262016,-1.05435e-09,0,
10,4.89531,0.948896,-0.0269461,-2.40666e-09,0,
10,5.10047,0.949005,-0.027695,-4.14683e-09,0,
10,5.30776,0.949138,-0.0284362,-7.16316e-09,0,
10,5.51581,0.949274,-0.0291585,-1.349e-08,0,
10,5.72323,0.949403,-0.0298526,-2.84308e-08,0,
10,5.92863,0.949544,-0.0305107,-7.03209e-08,0,
10,6.13069,0.949758,-0.0311268,-2.04422e-07,0,
10,6.32816,0.950138,-0.0316971,-5.9436e-07,0,
10,6.51991,0.950721,-0.0322192,-1.31719e-06,0,
10,6.70495,0.951283,-0.0326925,-1.09336e-06,0,
10,6.88244,0.951117,-0.0331172,5.51103e-06,0,
10,7.0517,0.948986,-0.0334952,2.9776e-05,0,
10,7.21224,0.943479,-0.0338257,8.56176e-05,0,
10,7.3637,0.933678,-0.0341136,0.000182985,0,
10,7.5059,0.919627,-0.0343616,0.000314034,0,
10,7.63878,0.901946,-0.0345722,0.000430263,0,
10,7.76243,0.881762,-0.034754,0.000559201,0,
10,7.87701,0.860868,-0.0348982,0.0006915,0,
10,7.9828,0.840755,-0.0350184,0.000811073,0,
10,8.08014,0.822157,-0.035114,0.000912043,0,
10,8.16941,0.805165,-0.0351937,0.000994863,0,
10,8.25106,0.789508,-0.0352602,0.00106295,0,
10,8.32554,0.774807,-0.0353185,0.00111935,0,
10,8.39331,0.76071,-0.0353697,0.00116687,0,
10,8.45484,0.746961,-0.0354155,0.00120782,0,
10,8.5106,0.733412,-0.0354558,0.0012434,0,
10,8.56104,0.72,-0.0354912,0.00127402,0,
10,8.60659,0.706726,-0.0355222,0.00129975,0,
10,8.64767,0.693622,-0.0355492,0.00132067,0,
10,8.68467,0.680716,-0.0355732,0.00133695,0,
10,8.71795,0.668003,-0.0355948,0.00134473,0,
10,8.74786,0.655462,-0.0356136,0.00134873,0,
10,8.77471,0.643092,-0.0356302,0.00134873,0,
10,8.79881,0.630891,-0.0356447,0.00134509,0,
10,8.8204,0.618855,-0.0356574,0.00133833,0,
10,8.83975,0.606972,-0.0356684,0.00132898,0,
10,8.85708,0.595231,-0.035678,0.0013175,0,
10,8.87259,0.583613,-0.0356863,0.00130432,0,
10,8.88646,0.572098,-0.0356935,0.00128982,0,
10,8.89886,0.560663,-0.0356996,0.00127433,0,
10,8.90995,0.54928,-0.0357049,0.0012581,0,
10,8.91986,0.53792,-0.0357094,0.00124134,0,
10,8.92872,0.526553,-0.0357133,0.00122418,0,
10,8.93663,0.515142,-0.0357166,0.00120671,0,
10,8.94369,0.50365,-0.0357194,0.00118894,0,
10,8.95,0.492038,-0.0357217,0.00117084,0,
10,8.95564,0.480261,-0.0357237,0.00115228,0,
10,8.96067,0.468271,-0.0357253,0.00113314,0,
10,8.96517,0.456016,-0.0357267,0.00111317,0,
10,8.96918,0.443435,-0.0357278,0.00109203,0,
10,8.97276,0.430464,-0.0357289,0.00106931,0,
10,8.97596,0.417024,-0.0357296,0.00104446,0,
10,8.97882,0.403029,-0.0357304,0.00101679,0,
10,8.98137,0.388375,-0.0357308,0.000985379,0,
10,8.98365,0.372942,-0.0357314,0.000949088,0,
10,8.98569,0.356588,-0.0357316,0.000906753,0,
10,8.9875,0.339135,-0.0357321,0.000855689,0,
10,8.98913,0.320343,-0.0357321,0.000790859,0,
10,8.99058,0.299973,-0.0357326,0.000713978,0,
10,8.99188,0.27786,-0.0357324,0.000623528,0,
10,8.99304,0.253845,-0.0357329,0.000513397,0,
10,8.99408,0.227744,-0.0357326,0.000378018,0,
10,8.99501,0.19975,-0.0357331,0.000243694,0,
10,8.99583,0.170793,-0.0357327,0.000130896,0,
10,8.99658,0.142208,-0.0357332,5.68553e-05,0,
10,8.99724,0.115219,-0.0357327,1.97714e-05,0,
10,8.99784,0.0905037,-0.0357333,5.45336e-06,0,
10,8.99837,0.0682182,-0.0357327,1.14566e-06,0,
10,8.99885,0.0482397,-0.0357334,1.64226e-07,0,
10,8.99927,0.0303555,-0.0357327,1.24711e-08,0,
10,8.99966,0.0143455,-0.0357335,2.75965e-10,0,
10,9,0,-0.0357326,0,0,

0.0416667,0,0,-0.233029,0,3.20241e-06,
0.0833333,0,0,-0.233196,0,5.43088e-06,
0.125,0,0,-0.233131,0,7.08318e-06,
0.166667,0,0,-0.233185,0,1.16598e-05,
0.208333,0,0,-0.233195,0,1.62883e-05,
0.25,0,0,-0.233246,0,2.12651e-05,
0.291667,0,0,-0.233293,0,2.5662e-05,
0.333333,0,0,-0.233359,0,2.95292e-05,
0.375,0,0,-0.233429,0,3.28289e-05,
0.416667,0,0,-0.233508,0,3.59969e-05,
0.458333,0,0,-0.233596,0,3.94712e-05,
0.5,0,0,-0.233695,0,4.37276e-05,
0.541667,0,0,-0.233811,0,4.90912e-05,
0.583333,0,0,-0.233946,0,5.5698e-05,
0.625,0,0,-0.234105,0,6.34479e-05,
0.666667,0,0,-0.234289,0,7.20082e-05,
0.708333,0,0,-0.2345,0,8.08559e-05,
0.75,0,0,-0.234736,0,8.93441e-05,
0.791667,0,0,-0.234995,0,9.6805e-05,
0.833333,0,0,-0.235273,0,0.000102682,
0.875,0,0,-0.235567,0,0.000106684,
0.916667,0,0,-0.235882,0,0.000108695,
0.958333,0,0,-0.236228,0,0.000108594,
1,0,0,-0.236624,0,0.000105968,
1.04167,0,0,-0.2371,0,9.96546e-05,
1.08333,0,0,-0.237683,0,8.76385e-05,
1.125,0,0,-0.238402,0,6.72792e-05,
1.16667,0,0,-0.239269,0,3.58447e-05,
1.20833,0,0,-0.240284,0,-8.62184e-06,
1.25,0,0,-0.241427,0,-6.65332e-05,
1.29167,0,0,-0.242663,0,-0.000136462,
1.33333,0,0,-0.243949,0,-0.000215481,
1.375,0,0,-0.24524,0,-0.000299985,
1.41667,0,0,-0.246497,0,-0.000386592,
1.45833,0,0,-0.247687,0,-0.000472752,
1.5,0,0,-0.248786,0,-0.000556916,
1.54167,0,0,-0.249775,0,-0.000638356,
1.58333,0,0,-0.250643,0,-0.000716864,
1.625,0,0,-0.251381,0,-0.000792473,
1.66667,0,0,-0.251979,0,-0.000865287,
1.70833,0,0,-0.252434,0,-0.000935396,
1.75,0,0,-0.252739,0,-0.00100285,
1.79167,0,0,-0.25289,0,-0.00106766,
1.83333,0,0,-0.252884,0,-0.00112979,
1.875,0,0,-0.252719,0,-0.00118921,
1.91667,0,0,-0.252392,0,-0.00124585,
1.95833,0,0,-0.251903,0,-0.00129964,
2,0,0,-0.251252,0,-0.00135055,
2.04167,0,0,-0.25044,0,-0.00139853,
2.08333,0,0,-0.249468,0,-0.00144355,
2.125,0,0,-0.24834,0,-0.00148561,
2.16667,0,0,-0.247059,0,-0.00152473,
2.20833,0,0,-0.245628,0,-0.00156091,
2.25,0,0,-0.244052,0,-0.00159418,
2.29167,0,0,-0.242335,0,-0.00162458,
2.33333,0,0,-0.240481,0,-0.00165216,
2.375,0,0,-0.238497,0,-0.00167695,
2.41667,0,0,-0.236388,0,-0.00169901,
2.45833,0,0,-0.234158,0,-0.00171836,
2.5,0,0,-0.231813,0,-0.00173508,
2.54167,0,0,-0.22936,0,-0.00174919,
2.58333,0,0,-0.226805,0,-0.00176077,
2.625,0,0,-0.224153,0,-0.0017699,
2.66667,0,0,-0.221412,0,-0.00177666,
2.70833,0,0,-0.218586,0,-0.00178114,
2.75,0,0,-0.215682,0,-0.00178344,
2.79167,0,0,-0.212707,0,-0.00178364,
2.83333,0,0,-0.209665,0,-0.00178183,
2.875,0,0,-0.206563,0,-0.00177808,
2.91667,0,0,-0.203406,0,-0.00177248,
2.95833,0,0,-0.2002,0,-0.0017651,
3,0,0,-0.19695,0,-0.00175603,
3.04167,0,0,-0.193661,0,-0.00174537,
3.08333,0,0,-0.190338,0,-0.00173319,
3.125,0,0,-0.186986,0,-0.00171957,
3.16667,0,0,-0.183608,0,-0.00170459,
3.20833,0,0,-0.18021,0,-0.00168832,
3.25,0,0,-0.176795,0,-0.00167082,
3.29167,0,0,-0.173368,0,-0.00165217,
3.33333,0,0,-0.169931,0,-0.00163244,
3.375,0,0,-0.166488,0,-0.00161168,
3.41667,0,0,-0.163043,0,-0.00158998,
3.45833,0,0,-0.159597,0,-0.00156737,
3.5,0,0,-0.156154,0,-0.00154392,
3.54167,0,0,-0.152717,0,-0.00151966,
3.58333,0,0,-0.149287,0,-0.00149464,
3.625,0,0,-0.145868,0,-0.00146891,
3.66667,0,0,-0.14246,0,-0.00144251,
3.70833,0,0,-0.139066,0,-0.00141549,
3.75,0,0,-0.135688,0,-0.00138789,
3.79167,0,0,-0.132326,0,-0.00135973,
3.83333,0,0,-0.128983,0,-0.00133105,
3.875,0,0,-0.125659,0,-0.00130187,
3.91667,0,0,-0.122355,0,-0.00127223,
3.95833,0,0,-0.119074,0,-0.00124213,
4,0,0,-0.115814,0,-0.00121161,
4.04167,0,0,-0.112578,0,-0.00118069,
4.08333,0,0,-0.109366,0,-0.00114939,
4.125,0,0,-0.106178,0,-0.00111772,
4.16667,0,0,-0.103015,0,-0.00108569,
4.20833,0,0,-0.099877,0,-0.00105332,
4.25,0,0,-0.0967649,0,-0.00102062,
4.29167,0,0,-0.0936789,0,-0.00098759,
4.33333,0,0,-0.0906192,0,-0.000954237,
4.375,0,0,-0.0875863,0,-0.000920567,
4.41667,0,0,-0.0845803,0,-0.000886585,
4.45833,0,0,-0.0816014,0,-0.000852299,
4.5,0,0,-0.0786498,0,-0.000817718,
4.54167,0,0,-0.0757256,0,-0.000782845,
4.58333,0,0,-0.0728289,0,-0.000747683,
4.625,0,0,-0.0699597,0,-0.000712227,
4.66667,0,0,-0.0671182,0,-0.000676473,
4.70833,0,0,-0.0643045,0,-0.000640414,
4.75,0,0,-0.0615189,0,-0.000604048,
4.79167,0,0,-0.0587616,0,-0.000567374,
4.83333,0,0,-0.0560328,0,-0.00053039,
4.875,0,0,-0.0533328,0,-0.00049309,
4.91667,0,0,-0.0506619,0,-0.000455461,
4.95833,0,0,-0.0480208,0,-0.000417489,
5,0,0,-0.0454102,0,-0.000379158,
5.04167,0,0,-0.0428313,0,-0.000340461,
5.08333,0,0,-0.0402855,0,-0.00030141,
5.125,0,0,-0.0377746,0,-0.000262044,
5.16667,0,0,-0.0353006,0,-0.000222441,
5.20833,0,0,-0.0328656,0,-0.000182711,
5.25,0,0,-0.0304705,0,-0.000142961,
5.29167,0,0,-0.0281152,0,-0.00010325,
5.33333,0,0,-0.0257993,0,-6.35782e-05,
5.375,0,0,-0.0235226,0,-2.39238e-05,
5.41667,0,0,-0.0212851,0,1.57354e-05,
5.45833,0,0,-0.0190871,0,5.54092e-05,
5.5,0,0,-0.016929,0,9.50988e-05,
5.54167,0,0,-0.0148113,0,0.000134798,
5.58333,0,0,-0.0127346,0,0.000174498,
5.625,0,0,-0.0106997,0,0.000214186,
5.66667,0,0,-0.00870726,0,0.000253843,
5.70833,0,0,-0.00675812,0,0.000293449,
5.75,0,0,-0.00485306,0,0.000332981,
5.79167,0,0,-0.00299293,0,0.000372412,
5.83333,0,0,-0.00117861,0,0.000411711,
5.875,0,0,0.000589073,0,0.000450848,
5.91667,0,0,0.00230928,0,0.000489789,
5.95833,0,0,0.00398114,0,0.000528497,
6,0,0,0.00560382,0,0.000566936,
6.04167,0,0,0.00717651,0,0.000605066,
6.08333,0,0,0.00869846,0,0.00064285,
6.125,0,0,0.0101689,0,0.000680247,
6.16667,0,0,0.0115873,0,0.000717217,
6.20833,0,0,0.012953,0,0.000753722,
6.25,0,0,0.0142656,0,0.000789722,
6.29167,0,0,0.0155246,0,0.000825181,
6.33333,0,0,0.0167297,0,0.000860062,
6.375,0,0,0.0178806,0,0.000894328,
6.41667,0,0,0.0189772,0,0.000927948,
6.45833,0,0,0.0200192,0,0.000960888,
6.5,0,0,0.0210066,0,0.000993119,
6.54167,0,0,0.0219394,0,0.00102461,
6.58333,0,0,0.0228177,0,0.00105534,
6.625,0,0,0.0236415,0,0.00108527,
6.66667,0,0,0.024411,0,0.00111438,
6.70833,0,0,0.0251264,0,0.00114266,
6.75,0,0,0.0257879,0,0.00117008,
6.79167,0,0,0.0263957,0,0.00119661,
6.83333,0,0,0.0269503,0,0.00122226,
6.875,0,0,0.0274518,0,0.001247,
6.91667,0,0,0.0279008,0,0.00127082,
6.95833,0,0,0.0282978,0,0.0012937,
7,0,0,0.0286434,0,0.00131564,
7.04167,0,0,0.0289381,0,0.00133663,
7.08333,0,0,0.0291826,0,0.00135663,
7.125,0,0,0.0293774,0,0.00137564,
7.16667,0,0,0.0295232,0,0.00139363,
7.20833,0,0,0.0296206,0,0.0014106,
7.25,0,0,0.0296704,0,0.00142655,
7.29167,0,0,0.0296732,0,0.00144147,
7.33333,0,0,0.0296298,0,0.00145536,
7.375,0,0,0.0295409,0,0.00146824,
7.41667,0,0,0.0294072,0,0.0014801,
7.45833,0,0,0.0292293,0,0.00149096,
7.5,0,0,0.029008,0,0.00150081,
7.54167,0,0,0.0287439,0,0.00150967,
7.58333,0,0,0.0284377,0,0.00151754,
7.625,0,0,0.0280899,0,0.00152443,
7.66667,0,0,0.0277011,0,0.00153037,
7.70833,0,0,0.0272718,0,0.00153535,
7.75,0,0,0.0268026,0,0.00153941,
7.79167,0,0,0.0262939,0,0.00154255,
7.83333,0,0,0.0257454,0,0.00154479,
7.875,0,0,0.0251571,0,0.0015462,
7.91667,0,0,0.0245418,0,0.00154752,
7.95833,0,0,0.0238157,0,0.00154689,
8,0,0,0.0231797,0,0.00154577,
8.04171,0,0,0.0225486,0,0.00154491,
8.08368,0,0,0.0217413,0,0.00154301,
8.12617,0,0,0.0209448,0,0.0015382,
8.16946,0,0,0.0200947,0,0.00153244,
8.21382,0,0,0.0191782,0,0.00152563,
8.25952,0,0,0.0181966,0,0.00151768,
8.30685,0,0,0.0171407,0,0.00150869,
8.35611,0,0,0.0160012,0,0.00149869,
8.40762,0,0,0.0147685,0,0.00148769,
8.46168,0,0,0.013432,0,0.0014757,
8.51865,0,0,0.0119802,0,0.00146279,
8.57889,0,0,0.0104015,0,0.00144904,
8.64276,0,0,0.00868369,0,0.00143459,
8.71067,0,0,0.00681489,0,0.00141965,
8.78306,0,0,0.00478366,0,0.00140448,
8.86037,0,0,0.00257922,0,0.00138942,
8.94309,0,0,0.000191263,0,0.00137482,
9.03174,0,0,-0.00239084,0,0.00136104,
9.12689,0,0,-0.00518083,0,0.00134832,
9.22912,0,0,-0.00819887,0,0.00133667,
9.33908,0,0,-0.0114691,0,0.00132571,
9.45746,0,0,-0.0150072,0,0.00131465,
9.58501,0,0,-0.0187976,0,0.00130248,
9.72253,0,0,-0.0227494,0,0.00128835,
9.87088,0,0,-0.0266307,0,0.00127246,
10.031,0,0,-0.0300257,0,0.00125705,
10.2039,0,0,-0.0323346,0,0.00124703,
10.3906,0,0,-0.0328405,0,0.00124993,
10.5924,0,0,-0.030897,0,0.00127445,
10.8105,0,0,-0.026166,0,0.00132763,
11.0463,0,0,-0.01883,0,0.00141175,
11.3012,0,0,-0.00965229,0,0.00152229,
11.5769,0,0,0.000193269,0,0.00164865,
11.8751,0,0,0.00945999,0,0.00177723,
12.1977,0,0,0.0171798,0,0.00189545,
12.5466,0,0,0.0228393,0,0.00199471,
12.9242,0,0,0.0263489,0,0.00207123,
13.3327,0,0,0.0279036,0,0.00212523,
13.7748,0,0,0.0278463,0,0.00215964,
14.2532,0,0,0.0265846,0,0.00217916,
14.7709,0,0,0.0245431,0,0.00218926,
15.3312,0,0,0.0221173,0,0.00219367,
15.9377,0,0,0.0196266,0,0.0021954,
16.594,0,0,0.0172813,0,0.00219697,
17.3044,0,0,0.0151896,0,0.00219968,
18.0733,0,0,0.013403,0,0.00220342,
18.9056,0,0,0.0119447,0,0.0022074,
19.8064,0,0,0.0108011,0,0.002211,
20.7816,0,0,0.00991251,0,0.00221412,
21.8371,0,0,0.00919706,0,0.00221678,
22.9796,0,0,0.00859342,0,0.0022189,
24.2163,0,0,0.00806974,0,0.00222166,
25.5551,0,0,0.00759952,0,0.00222575,
27.0042,0,0,0.00715188,0,0.00223126,
28.5729,0,0,0.00670049,0,0.00223824,
30.271,0,0,0.00622607,0,0.00224744,
32.1091,0,0,0.00571356,0,0.00225781,
34.0989,0,0,0.00514974,0,0.00226885,
36.2529,0,0,0.00451641,0,0.00227963,
38.5845,0,0,0.00380347,0,0.00228881,
41.1085,0,0,0.00304364,0,0.00229755,
43.8407,0,0,0.00207381,0,0.00230502,
46.7983,0,0,0.00107802,0,0.00231186,
50,0,0,0.00214616,0,0.00232929,

