441adb05bbfc1aad9988f0a90ced9ea14843bc00 
X,Z,x_velocity,cp,uw_b,cf,
1,0,0,-0.235234,0,0,
1,9,0,-0.12742,0,0,
1,1.01284,0.482236,-0.228186,-0.00912786,0,
1,0.000308731,0.000539157,-0.235233,-7.18616e-15,0,
1,0.000654158,0.00112601,-0.235234,-3.1716e-13,0,
1,0.00104139,0.00176362,-0.235233,-4.08729e-12,0,
1,0.00147619,0.00245387,-0.235234,-2.8024e-11,0,
1,0.00196502,0.00319716,-0.235233,-1.32872e-10,0,
1,0.00251518,0.00399193,-0.235233,-4.95774e-10,0,
1,0.0031349,0.00483366,-0.235233,-1.56193e-09,0,
1,0.00383341,0.0057138,-0.235233,-4.32678e-09,0,
1,0.00462115,0.00661804,-0.235233,-1.07834e-08,0,
1,0.00550983,0.00752432,-0.235233,-2.44277e-08,0,
1,0.00651264,0.00839972,-0.235233,-5.01661e-08,0,
1,0.00764438,0.00919671,-0.235233,-9.12842e-08,0,
1,0.00892169,0.00984818,-0.235232,-1.36652e-07,0,
1,0.0103632,0.010263,-0.235232,-1.21655e-07,0,
1,0.0119898,0.0103255,-0.235231,1.66178e-07,0,
1,0.0138248,0.00990817,-0.23523,1.25167e-06,0,
1,0.0158944,0.00890457,-0.235228,4.10139e-06,0,
1,0.0182274,0.00727278,-0.235226,9.90033e-06,0,
1,0.0208562,0.00504934,-0.235222,1.93383e-05,0,
1,0.0238164,0.00231226,-0.235215,3.21066e-05,0,
1,0.0271475,-0.000864151,-0.235206,4.77208e-05,0,
1,0.0308929,-0.00442536,-0.235194,6.58495e-05,0,
1,0.0351001,-0.0083441,-0.235178,8.53743e-05,0,
1,0.0398209,-0.0126142,-0.235158,0.000105362,0,
1,0.0451115,-0.017235,-0.235136,0.000125102,0,
1,0.0510323,-0.0221967,-0.23511,0.000143857,0,
1,0.057648,-0.0274672,-0.235082,0.000160748,0,
1,0.0650269,-0.0329828,-0.235053,0.000174747,0,
1,0.0732406,-0.0386446,-0.235024,0.000184723,0,
1,0.0823632,-0.0443202,-0.234998,0.000189536,0,
1,0.0924701,-0.0498516,-0.234978,0.000188173,0,
1,0.103636,-0.0550691,-0.234966,0.000179904,0,
1,0.115935,-0.0598077,-0.234967,0.00016441,0,
1,0.129436,-0.0639244,-0.234984,0.000141871,0,
1,0.144202,-0.0673106,-0.235019,0.000112903,0,
1,0.160284,-0.0698994,-0.235076,7.84821e-05,0,
1,0.177724,-0.0716649,-0.235154,3.97914e-05,0,
1,0.196544,-0.0726157,-0.235254,-1.95687e-06,0,
1,0.21675,-0.0727847,-0.235374,-4.56519e-05,0,
1,0.238323,-0.0722204,-0.235513,-9.03438e-05,0,
1,0.26122,-0.070979,-0.235665,-0.000135232,0,
1,0.28537,-0.0691201,-0.235827,-0.000179612,0,
1,0.310673,-0.0667039,-0.235994,-0.000222818,0,
1,0.337003,-0.063791,-0.236161,-0.00026418,0,
1,0.364206,-0.0604429,-0.236321,-0.000303016,0,
1,0.392107,-0.0567221,-0.23647,-0.000338622,0,
1,0.420509,-0.0526932,-0.236603,-0.00037027,0,
1,0.449206,-0.0484232,-0.236716,-0.000397234,0,
1,0.477982,-0.0439811,-0.236806,-0.000418806,0,
1,0.506624,-0.0394368,-0.236871,-0.000434343,0,
1,0.534925,-0.0348584,-0.236911,-0.000443335,0,
1,0.562692,-0.0303071,-0.236925,-0.000445568,0,
1,0.589754,-0.0258295,-0.236915,-0.000441382,0,
1,0.615961,-0.0214466,-0.236882,-0.000432202,0,
1,0.641193,-0.0171386,-0.236824,-0.000421256,0,
1,0.665359,-0.0128256,-0.236742,-0.000413769,0,
1,0.688396,-0.00834918,-0.23663,-0.000421458,0,
1,0.710271,-0.00342213,-0.236484,-0.000456913,0,
1,0.730976,0.00246872,-0.236302,-0.000540895,0,
1,0.750529,0.0101212,-0.23609,-0.000701027,0,
1,0.768969,0.0205451,-0.235854,-0.000968293,0,
1,0.78635,0.0346104,-0.235609,-0.00136918,0,
1,0.802743,0.0524858,-0.235351,-0.00191946,0,
1,0.818232,0.0734174,-0.235086,-0.00259914,0,
1,0.832689,0.0959435,-0.234813,-0.00334651,0,
1,0.846039,0.118755,-0.234544,-0.0040952,0,
1,0.858357,0.141143,-0.234273,-0.00480696,0,
1,0.869723,0.162717,-0.234003,-0.00546568,0,
1,0.880212,0.183278,-0.233733,-0.00606463,0,
1,0.889898,0.202732,-0.233465,-0.00660188,0,
1,0.898852,0.221053,-0.233201,-0.0070787,0,
1,0.907141,0.238252,-0.232942,-0.00749816,0,
1,0.914826,0.254366,-0.232691,-0.00786589,0,
1,0.921966,0.269452,-0.232447,-0.00818557,0,
1,0.928616,0.283589,-0.232209,-0.00846076,0,
1,0.934823,0.296869,-0.231978,-0.00869672,0,
1,0.940633,0.309386,-0.231751,-0.00889814,0,
1,0.946088,0.321234,-0.231528,-0.00906747,0,
1,0.951224,0.332498,-0.23131,-0.00921003,0,
1,0.956076,0.343251,-0.231097,-0.00932889,0,
1,0.960675,0.353557,-0.230889,-0.0094264,0,
1,0.965047,0.363471,-0.230685,-0.00950456,0,
1,0.969219,0.373044,-0.230486,-0.00956505,0,
1,0.973211,0.382321,-0.230291,-0.0096093,0,
1,0.977045,0.391341,-0.230101,-0.00963848,0,
1,0.980739,0.400142,-0.229914,-0.00965356,0,
1,0.984308,0.408756,-0.22973,-0.0096553,0,
1,0.987768,0.417214,-0.22955,-0.00964432,0,
1,0.991131,0.425544,-0.229372,-0.00962107,0,
1,0.99441,0.433772,-0.229197,-0.00958587,0,
1,0.997615,0.441922,-0.229025,-0.00953891,0,
1,1.00076,0.450015,-0.228854,-0.00948027,0,
1,1.00384,0.458074,-0.228685,-0.00940992,0,
1,1.00688,0.466118,-0.228517,-0.00932773,0,
1,1.00988,0.474166,-0.228351,-0.00923362,0,
1,1.01581,0.490436,-0.22802,-0.00900775,0,
1,1.01882,0.498879,-0.227852,-0.00886962,0,
1,1.02188,0.507594,-0.227681,-0.00871272,0,
1,1.025,0.516613,-0.227507,-0.00853503,0,
1,1.02818,0.525961,-0.227332,-0.00833516,0,
1,1.03144,0.535664,-0.227155,-0.00811218,0,
1,1.03478,0.545744,-0.226978,-0.00786278,0,
1,1.03822,0.556221,-0.226799,-0.00758465,0,
1,1.04177,0.567115,-0.226619,-0.00727544,0,
1,1.04544,0.578438,-0.226439,-0.00693281,0,
1,1.04925,0.590197,-0.226259,-0.00655472,0,
1,1.05321,0.602382,-0.226078,-0.0061398,0,
1,1.05735,0.614962,-0.2259,-0.00568783,0,
1,1.06169,0.627875,-0.225724,-0.00520075,0,
1,1.06626,0.641012,-0.225552,-0.00468379,0,
1,1.07108,0.654208,-0.225387,-0.00414693,0,
1,1.07618,0.667234,-0.22523,-0.00360601,0,
1,1.0816,0.679805,-0.225084,-0.00308268,0,
1,1.08738,0.69162,-0.224952,-0.00260166,0,
1,1.09357,0.70243,-0.224834,-0.00218531,0,
1,1.10022,0.712116,-0.224731,-0.00184777,0,
1,1.10739,0.72072,-0.224637,-0.00159202,0,
1,1.11514,0.728423,-0.224549,-0.00141114,0,
1,1.12354,0.735472,-0.22446,-0.00129206,0,
1,1.13268,0.742114,-0.224363,-0.0012195,0,
1,1.14266,0.748555,-0.224253,-0.00117888,0,
1,1.15357,0.754954,-0.224125,-0.00115805,0,
1,1.16554,0.761422,-0.223974,-0.0011479,0,
1,1.1787,0.76803,-0.223798,-0.00114246,0,
1,1.1932,0.774822,-0.223593,-0.00113799,0,
1,1.2092,0.781825,-0.223353,-0.00113243,0,
1,1.22689,0.789057,-0.223073,-0.00112478,0,
1,1.24659,0.796567,-0.222747,-0.00111418,0,
1,1.26879,0.804441,-0.22236,-0.00110177,0,
1,1.29378,0.812687,-0.221905,-0.00108747,0,
1,1.3219,0.821304,-0.221366,-0.00107118,0,
1,1.35351,0.830304,-0.22074,-0.0010539,0,
1,1.389,0.839721,-0.21998,-0.00102474,0,
1,1.42882,0.849591,-0.219076,-0.000981806,0,
1,1.47342,0.859936,-0.218041,-0.000939484,0,
1,1.52332,0.87081,-0.216843,-0.00089519,0,
1,1.57905,0.882313,-0.215461,-0.000847297,0,
1,1.64119,0.89458,-0.213871,-0.000793844,0,
1,1.71033,0.907767,-0.212052,-0.00073259,0,
1,1.78711,0.922017,-0.209981,-0.000661164,0,
1,1.87215,0.937384,-0.207634,-0.000578268,0,
1,1.9661,0.953706,-0.204995,-0.000484429,0,
1,2.06959,0.970433,-0.202034,-0.000384384,0,
1,2.18321,0.986563,-0.198779,-0.000275985,0,
1,2.30752,1.00078,-0.195272,-0.000141916,0,
1,2.44299,1.0115,-0.191496,-4.74863e-05,0,
1,2.59002,1.01734,-0.187514,-4.50192e-06,0,
1,2.74885,1.01815,-0.183415,1.13272e-06,0,
1,2.91959,1.01572,-0.17927,1.03873e-07,0,
1,3.10217,1.01252,-0.175143,5.61286e-08,0,
1,3.2963,1.00992,-0.171079,4.43729e-08,0,
1,3.50146,1.00806,-0.167112,3.55636e-08,0,
1,3.7169,1.00656,-0.163279,3.10998e-08,0,
1,3.94163,1.00512,-0.159612,2.88831e-08,0,
1,4.17441,1.00368,-0.15614,2.69583e-08,0,
1,4.41376,1.00228,-0.152885,2.47887e-08,0,
1,4.65805,1.00098,-0.149864,2.24967e-08,0,
1,4.90545,0.999797,-0.147083,2.03356e-08,0,
1,5.15407,0.998722,-0.144546,1.83721e-08,0,
1,5.40194,0.997756,-0.14225,1.66473e-08,0,
1,5.64716,0.996888,-0.140187,1.52281e-08,0,
1,5.88785,0.996091,-0.138346,1.42068e-08,0,
1,6.12229,0.995331,-0.136716,1.33527e-08,0,
1,6.34896,0.994639,-0.13528,1.18348e-08,0,
1,6.56652,0.994207,-0.134022,9.16569e-09,0,
1,6.77388,0.994338,-0.132925,1.82623e-09,0,
1,6.97022,0.994982,-0.131971,1.00709e-08,0,
1,7.15495,0.994988,-0.131142,1.78182e-06,0,
1,7.32773,0.991865,-0.130429,1.85508e-05,0,
1,7.48842,0.983042,-0.129821,7.80988e-05,0,
1,7.63711,0.968004,-0.129325,0.000211581,0,
1,7.77403,0.948763,-0.128904,0.000400559,0,
1,7.89956,0.927688,-0.12855,0.000557804,0,
1,8.01417,0.906414,-0.128281,0.000713577,0,
1,8.11843,0.886136,-0.128055,0.000847792,0,
1,8.21296,0.867337,-0.127881,0.000955664,0,
1,8.29839,0.849999,-0.127743,0.00103971,0,
1,8.3754,0.833867,-0.127638,0.0011046,0,
1,8.44464,0.818636,-0.127558,0.0011553,0,
1,8.50675,0.804035,-0.1275,0.00119661,0,
1,8.56236,0.789835,-0.127457,0.00122705,0,
1,8.61206,0.775874,-0.127426,0.00125428,0,
1,8.6564,0.762075,-0.127404,0.00127908,0,
1,8.69591,0.748402,-0.12739,0.00130026,0,
1,8.73107,0.734828,-0.12738,0.00131807,0,
1,8.76232,0.721329,-0.127375,0.00133283,0,
1,8.79007,0.707882,-0.127373,0.00134481,0,
1,8.81469,0.69447,-0.127373,0.00135424,0,
1,8.83651,0.681074,-0.127374,0.00136129,0,
1,8.85584,0.667679,-0.127376,0.00136613,0,
1,8.87295,0.654268,-0.127379,0.00136889,0,
1,8.8881,0.640824,-0.127383,0.00136968,0,
1,8.90149,0.627327,-0.127386,0.00136861,0,
1,8.91333,0.613758,-0.12739,0.00136577,0,
1,8.92379,0.600092,-0.127393,0.0013612,0,
1,8.93303,0.586304,-0.127397,0.00135495,0,
1,8.9412,0.572361,-0.1274,0.001347,0,
1,8.9484,0.558228,-0.127402,0.00133733,0,
1,8.95476,0.543864,-0.127405,0.00132583,0,
1,8.96038,0.529221,-0.127407,0.00131235,0,
1,8.96533,0.514241,-0.127409,0.00129664,0,
1,8.9697,0.498859,-0.127411,0.00127837,0,
1,8.97356,0.482995,-0.127413,0.00125705,0,
1,8.97696,0.466558,-0.127414,0.00123201,0,
1,8.97996,0.449436,-0.127415,0.00120235,0,
1,8.98261,0.431497,-0.127416,0.00116687,0,
1,8.98494,0.412583,-0.127417,0.00112475,0,
1,8.98699,0.392479,-0.127417,0.00107138,0,
1,8.98881,0.370886,-0.127418,0.00100199,0,
1,8.99041,0.347498,-0.127418,0.000916968,0,
1,8.99182,0.322079,-0.127419,0.000813404,0,
1,8.99306,0.294449,-0.127419,0.000689519,0,
1,8.99416,0.264397,-0.127419,0.000530376,0,
1,8.99512,0.231873,-0.127419,0.000350215,0,
1,8.99597,0.197714,-0.127419,0.000191684,0,
1,8.99672,0.163683,-0.127419,8.31477e-05,0,
1,8.99739,0.131565,-0.12742,2.82299e-05,0,
1,8.99797,0.102414,-0.127419,7.4807e-06,0,
1,8.99848,0.076481,-0.12742,1.49849e-06,0,
1,8.99894,0.0535862,-0.127419,2.04482e-07,0,
1,8.99934,0.0334172,-0.12742,1.48247e-08,0,
1,8.99969,0.0156559,-0.127419,3.17159e-10,0,

4,0,0,-0.120496,0,0,
4,9,0,-0.0964709,0,0,
4,1.05136,0.677688,-0.127155,-0.00433092,0,
4,0.000303409,-0.00690323,-0.1205,8.44442e-11,0,
4,0.00062865,-0.0141514,-0.120497,3.44903e-09,0,
4,0.000979511,-0.0217971,-0.1205,4.02114e-08,0,
4,0.00136016,-0.0298874,-0.120498,2.49645e-07,0,
4,0.00177519,-0.0384605,-0.120501,1.07729e-06,0,
4,0.0022297,-0.0475334,-0.120499,3.66971e-06,0,
4,0.00272934,-0.0570723,-0.120501,1.05108e-05,0,
4,0.00328037,-0.0669365,-0.1205,2.59787e-05,0,
4,0.00388979,-0.0767982,-0.120503,5.54304e-05,0,
4,0.00456537,-0.0861093,-0.120503,0.000100731,0,
4,0.00531578,-0.0942504,-0.120507,0.00015441,0,
4,0.0061507,-0.100837,-0.120511,0.000201669,0,
4,0.0070809,-0.105872,-0.12052,0.000231167,0,
4,0.00811839,-0.109605,-0.12053,0.000240734,0,
4,0.00927657,-0.11234,-0.120547,0.000233726,0,
4,0.0105703,-0.11433,-0.120566,0.000214236,0,
4,0.0120162,-0.11576,-0.120592,0.000185209,0,
4,0.0136326,-0.116754,-0.120624,0.000148354,0,
4,0.0154398,-0.1174,-0.120662,0.000104499,0,
4,0.0174603,-0.117753,-0.120708,5.39072e-05,0,
4,0.0197189,-0.117853,-0.120762,-3.52072e-06,0,
4,0.0222427,-0.117724,-0.120826,-6.81238e-05,0,
4,0.0250617,-0.117383,-0.1209,-0.000140414,0,
4,0.0282081,-0.116837,-0.120986,-0.000221035,0,
4,0.0317171,-0.116089,-0.121085,-0.00031074,0,
4,0.0356266,-0.11514,-0.121199,-0.000410371,0,
4,0.039977,-0.113984,-0.121328,-0.000520855,0,
4,0.0448114,-0.112615,-0.121474,-0.000643183,0,
4,0.0501747,-0.111022,-0.121639,-0.000778405,0,
4,0.056114,-0.109192,-0.121823,-0.000927607,0,
4,0.062677,-0.107112,-0.122027,-0.0010919,0,
4,0.0699123,-0.104763,-0.122252,-0.00127239,0,
4,0.0778675,-0.102127,-0.122498,-0.00147015,0,
4,0.0865883,-0.0991824,-0.122764,-0.00168619,0,
4,0.0961173,-0.0959066,-0.123051,-0.00192139,0,
4,0.106492,-0.0922752,-0.123356,-0.00217649,0,
4,0.117744,-0.0882626,-0.123678,-0.00245202,0,
4,0.129894,-0.0838427,-0.124014,-0.00274825,0,
4,0.142956,-0.0789899,-0.124362,-0.00306512,0,
4,0.156928,-0.0736795,-0.124718,-0.00340226,0,
4,0.171798,-0.0678896,-0.125079,-0.00375885,0,
4,0.187537,-0.0616022,-0.125443,-0.00413373,0,
4,0.2041,-0.0548054,-0.125805,-0.00452533,0,
4,0.221432,-0.047495,-0.126164,-0.00493175,0,
4,0.239458,-0.0396771,-0.126516,-0.00535099,0,
4,0.258095,-0.0313687,-0.12686,-0.00578116,0,
4,0.27725,-0.0225971,-0.127194,-0.00622092,0,
4,0.296825,-0.0133943,-0.127515,-0.00666815,0,
4,0.316717,-0.003786,-0.127827,-0.00711587,0,
4,0.336828,0.00620981,-0.128131,-0.00755654,0,
4,0.357066,0.0165657,-0.128426,-0.00799293,0,
4,0.377348,0.0272325,-0.128705,-0.0084279,0,
4,0.397605,0.0381532,-0.128965,-0.00885768,0,
4,0.417786,0.0492874,-0.129269,-0.00937666,0,
4,0.437857,0.0608509,-0.129186,-0.00979052,0,
4,0.457804,0.0733536,-0.128645,-0.0100104,0,
4,0.477632,0.0871828,-0.128187,-0.0102287,0,
4,0.497368,0.102315,-0.127918,-0.0104328,0,
4,0.517057,0.118514,-0.127807,-0.0106102,0,
4,0.536763,0.135534,-0.127788,-0.0107532,0,
4,0.556564,0.153239,-0.127806,-0.0108581,0,
4,0.576557,0.17163,-0.127823,-0.0109237,0,
4,0.596848,0.190812,-0.127826,-0.0109494,0,
4,0.617561,0.210948,-0.127814,-0.0109331,0,
4,0.637962,0.231402,-0.127791,-0.010875,0,
4,0.657495,0.251638,-0.127764,-0.0107789,0,
4,0.676218,0.271668,-0.12774,-0.0106477,0,
4,0.694189,0.291487,-0.127719,-0.0104843,0,
4,0.711463,0.311081,-0.127702,-0.0102918,0,
4,0.728096,0.330427,-0.127688,-0.0100739,0,
4,0.744138,0.349498,-0.127675,-0.00983503,0,
4,0.759639,0.368255,-0.127664,-0.00958018,0,
4,0.774643,0.386646,-0.127653,-0.00931515,0,
4,0.789195,0.404615,-0.127641,-0.00904438,0,
4,0.803334,0.422112,-0.127629,-0.00877118,0,
4,0.817097,0.439097,-0.127614,-0.00849834,0,
4,0.830518,0.455543,-0.127598,-0.00822813,0,
4,0.843629,0.471433,-0.127579,-0.00796235,0,
4,0.856459,0.48676,-0.127557,-0.00770246,0,
4,0.869035,0.50152,-0.127534,-0.00744964,0,
4,0.881383,0.515712,-0.12751,-0.00720485,0,
4,0.893524,0.529343,-0.127485,-0.00696883,0,
4,0.905481,0.542425,-0.127462,-0.00674212,0,
4,0.917272,0.554974,-0.127441,-0.00652505,0,
4,0.928915,0.567017,-0.127423,-0.00631767,0,
4,0.940428,0.578584,-0.127408,-0.00611987,0,
4,0.951826,0.58971,-0.127395,-0.00593215,0,
4,0.963124,0.600431,-0.127383,-0.00575415,0,
4,0.974334,0.610785,-0.127371,-0.00558497,0,
4,0.98547,0.620811,-0.127357,-0.00542356,0,
4,0.996544,0.630562,-0.127341,-0.0052686,0,
4,1.00757,0.640104,-0.127317,-0.00511825,0,
4,1.01855,0.649555,-0.127281,-0.00492565,0,
4,1.0295,0.658983,-0.127241,-0.00474066,0,
4,1.04044,0.668369,-0.127199,-0.00454224,0,
4,1.0623,0.686928,-0.127109,-0.00410779,0,
4,1.07328,0.69607,-0.127059,-0.00387442,0,
4,1.08432,0.705076,-0.127007,-0.00363298,0,
4,1.09543,0.713903,-0.126952,-0.00338603,0,
4,1.10661,0.722505,-0.126894,-0.00313664,0,
4,1.11788,0.730832,-0.126833,-0.00288831,0,
4,1.12925,0.738834,-0.126768,-0.00264485,0,
4,1.14073,0.746464,-0.1267,-0.00241023,0,
4,1.15233,0.753683,-0.126628,-0.00218832,0,
4,1.16408,0.76046,-0.126551,-0.0019826,0,
4,1.17599,0.76678,-0.126471,-0.00179589,0,
4,1.18806,0.772644,-0.126387,-0.00163008,0,
4,1.20034,0.778069,-0.126298,-0.00148603,0,
4,1.21282,0.783089,-0.126206,-0.0013636,0,
4,1.22554,0.787749,-0.126109,-0.00126174,0,
4,1.23852,0.792098,-0.12601,-0.00117872,0,
4,1.25179,0.796193,-0.125906,-0.00111239,0,
4,1.26537,0.800084,-0.125799,-0.00106041,0,
4,1.2793,0.803823,-0.125689,-0.0010204,0,
4,1.29362,0.807454,-0.125576,-0.000990099,0,
4,1.30836,0.811017,-0.125458,-0.000967444,0,
4,1.32357,0.814547,-0.125337,-0.000950607,0,
4,1.3393,0.818076,-0.125211,-0.000938012,0,
4,1.3556,0.82163,-0.125081,-0.000928322,0,
4,1.37252,0.825232,-0.124945,-0.000920467,0,
4,1.39015,0.828903,-0.124805,-0.000913595,0,
4,1.40855,0.832665,-0.124654,-0.000908891,0,
4,1.42781,0.836553,-0.124505,-0.000900742,0,
4,1.44801,0.840633,-0.124362,-0.000883718,0,
4,1.46926,0.844949,-0.124207,-0.000866012,0,
4,1.49167,0.849508,-0.12404,-0.000847543,0,
4,1.51537,0.854306,-0.123859,-0.000828057,0,
4,1.54091,0.859425,-0.123658,-0.000807594,0,
4,1.56949,0.865065,-0.123432,-0.000785709,0,
4,1.60144,0.871286,-0.123176,-0.000761556,0,
4,1.63713,0.878128,-0.122887,-0.00073459,0,
4,1.67693,0.88562,-0.122559,-0.00070432,0,
4,1.72128,0.893776,-0.12219,-0.000670476,0,
4,1.77062,0.902589,-0.121772,-0.000632905,0,
4,1.82542,0.912014,-0.121304,-0.00059149,0,
4,1.88618,0.921976,-0.120773,-0.000546069,0,
4,1.95343,0.932418,-0.120195,-0.000476178,0,
4,2.02768,0.943211,-0.119562,-0.000394525,0,
4,2.10949,0.954,-0.118858,-0.000305668,0,
4,2.19939,0.964226,-0.118089,-0.000215839,0,
4,2.29789,0.973222,-0.117251,-0.000133991,0,
4,2.40551,0.980306,-0.11635,-6.85463e-05,0,
4,2.52268,0.984933,-0.115393,-2.4654e-05,0,
4,2.64979,0.986917,-0.11439,-2.69531e-06,0,
4,2.78715,0.986633,-0.113354,2.96687e-06,0,
4,2.93497,0.985003,-0.112294,1.72165e-06,0,
4,3.09333,0.983155,-0.111224,3.53419e-07,0,
4,3.26217,0.981876,-0.110153,3.56413e-08,0,
4,3.44125,0.98132,-0.109095,8.03026e-09,0,
4,3.63018,0.981195,-0.108058,4.33646e-09,0,
4,3.82836,0.98115,-0.107049,4.15431e-09,0,
4,4.03501,0.981006,-0.106077,4.96785e-09,0,
4,4.24915,0.980758,-0.105147,5.43455e-09,0,
4,4.46961,0.980472,-0.104265,5.30839e-09,0,
4,4.69507,0.9802,-0.103435,4.85377e-09,0,
4,4.92406,0.979961,-0.102658,4.37532e-09,0,
4,5.15502,0.979748,-0.101937,4.01205e-09,0,
4,5.3863,0.979551,-0.101272,3.84007e-09,0,
4,5.61626,0.979357,-0.100662,3.98422e-09,0,
4,5.84328,0.979149,-0.100107,4.78821e-09,0,
4,6.06579,0.978931,-0.0996048,7.07573e-09,0,
4,6.28238,0.978768,-0.0991525,9.57967e-09,0,
4,6.49173,0.978821,-0.0987473,-1.74979e-08,0,
4,6.69275,0.979257,-0.0983853,-1.96408e-07,0,
4,6.88453,0.979915,-0.0980618,-2.48048e-07,0,
4,7.06634,0.979856,-0.0977717,4.13e-06,0,
4,7.23771,0.977237,-0.0975153,2.7304e-05,0,
4,7.39831,0.970011,-0.0972891,9.01343e-05,0,
4,7.54803,0.957235,-0.0971041,0.000207021,0,
4,7.68693,0.93976,-0.0969472,0.000355,0,
4,7.81519,0.919451,-0.0968037,0.000496221,0,
4,7.93313,0.898234,-0.0966932,0.000644891,0,
4,8.04115,0.877649,-0.0965937,0.000782325,0,
4,8.13974,0.858458,-0.0965144,0.000898227,0,
4,8.22941,0.840788,-0.0964515,0.000991348,0,
4,8.31073,0.824437,-0.0964049,0.00106496,0,
4,8.38429,0.809091,-0.0963727,0.00112311,0,
4,8.45065,0.794447,-0.0963521,0.00117005,0,
4,8.5104,0.780255,-0.0963409,0.00120931,0,
4,8.56407,0.766328,-0.0963371,0.00123983,0,
4,8.61222,0.752559,-0.096338,0.00126851,0,
4,8.65533,0.738917,-0.0963417,0.00129318,0,
4,8.69387,0.725386,-0.0963477,0.00131369,0,
4,8.7283,0.711951,-0.096355,0.00133035,0,
4,8.75901,0.6986,-0.0963633,0.00134344,0,
4,8.78637,0.685322,-0.0963721,0.0013532,0,
4,8.81074,0.672109,-0.0963809,0.00135984,0,
4,8.83242,0.658951,-0.0963897,0.00136357,0,
4,8.85169,0.645841,-0.0963981,0.00136462,0,
4,8.86881,0.632767,-0.0964062,0.0013632,0,
4,8.88402,0.619718,-0.0964137,0.00135954,0,
4,8.89751,0.606676,-0.0964206,0.00135384,0,
4,8.90949,0.593625,-0.096427,0.00134632,0,
4,8.92011,0.580542,-0.0964328,0.00133713,0,
4,8.92952,0.5674,-0.0964379,0.00132643,0,
4,8.93787,0.554171,-0.0964426,0.0013143,0,
4,8.94526,0.540818,-0.0964467,0.0013008,0,
4,8.95182,0.527302,-0.0964503,0.00128592,0,
4,8.95762,0.513577,-0.0964535,0.00126957,0,
4,8.96276,0.49959,-0.0964563,0.00125159,0,
4,8.96731,0.48528,-0.0964587,0.00123173,0,
4,8.97134,0.470577,-0.0964607,0.00120962,0,
4,8.97491,0.455398,-0.0964625,0.00118473,0,
4,8.97807,0.439649,-0.096464,0.00115635,0,
4,8.98087,0.423217,-0.0964653,0.00112355,0,
4,8.98334,0.405967,-0.0964664,0.00108507,0,
4,8.98553,0.387741,-0.0964673,0.00103979,0,
4,8.98747,0.368333,-0.096468,0.000983905,0,
4,8.98919,0.347463,-0.0964687,0.000912257,0,
4,8.9907,0.324853,-0.0964691,0.000825932,0,
4,8.99205,0.300304,-0.0964696,0.000722806,0,
4,8.99324,0.27366,-0.0964698,0.000598969,0,
4,8.99429,0.24472,-0.0964701,0.000440513,0,
4,8.99522,0.213666,-0.0964702,0.000281886,0,
4,8.99605,0.181605,-0.0964704,0.000148639,0,
4,8.99677,0.150145,-0.0964703,6.26427e-05,0,
4,8.99742,0.120732,-0.0964706,2.097e-05,0,
4,8.99799,0.0941153,-0.0964704,5.55137e-06,0,
4,8.9985,0.0704122,-0.0964707,1.11956e-06,0,
4,8.99894,0.0494292,-0.0964704,1.54299e-07,0,
4,8.99934,0.0308839,-0.0964708,1.13013e-08,0,
4,8.99969,0.014496,-0.0964704,2.43602e-10,0,

6,0,0,0.0061377,0,0,
6,9,0,-0.0732112,0,0,
6,1.07704,0.708267,-0.00884651,-0.00233213,0,
6,0.000299862,0.00283765,0.00613144,-3.73365e-11,0,
6,0.000611645,0.00584364,0.00613641,-1.49501e-09,0,
6,0.000938257,0.00905316,0.00613152,-1.67916e-08,0,
6,0.00128281,0.0125043,0.00613528,-1.00405e-07,0,
6,0.00164864,0.0162386,0.00613139,-4.19465e-07,0,
6,0.00203939,0.0202986,0.00613422,-1.39572e-06,0,
6,0.00245897,0.024721,0.00613101,-3.96131e-06,0,
6,0.00291168,0.0295217,0.00613307,-9.93043e-06,0,
6,0.00340221,0.0346672,0.00613014,-2.22697e-05,0,
6,0.00393573,0.0400365,0.00613121,-4.45541e-05,0,
6,0.00451788,0.045404,0.00612768,-7.87786e-05,0,
6,0.00515491,0.0504901,0.00612662,-0.000122634,0,
6,0.00585371,0.055075,0.00612074,-0.000169896,0,
6,0.00662185,0.0590747,0.00611563,-0.000214549,0,
6,0.00746774,0.0625233,0.00610542,-0.000253892,0,
6,0.00840063,0.0655105,0.00609445,-0.000288167,0,
6,0.00943073,0.0681345,0.00607828,-0.00031886,0,
6,0.0105693,0.0704808,0.00605991,-0.000347582,0,
6,0.0118288,0.072618,0.0060361,-0.000375687,0,
6,0.0132228,0.0745997,0.00600858,-0.000404239,0,
6,0.0147664,0.0764671,0.00597503,-0.000434078,0,
6,0.016476,0.078253,0.00593615,-0.000465904,0,
6,0.0183694,0.0799834,0.00589023,-0.000500328,0,
6,0.0204662,0.0816798,0.00583718,-0.000537913,0,
6,0.0227875,0.0833602,0.00577561,-0.000579208,0,
6,0.0253561,0.0850403,0.00570491,-0.000624758,0,
6,0.0281964,0.0867342,0.00562381,-0.000675121,0,
6,0.0313344,0.0884543,0.00553137,-0.000730876,0,
6,0.0347975,0.0902127,0.00542633,-0.000792622,0,
6,0.0386145,0.0920204,0.00530758,-0.000860985,0,
6,0.042815,0.0938883,0.00517389,-0.000936611,0,
6,0.0474296,0.0958268,0.00502412,-0.00102016,0,
6,0.0524888,0.0978461,0.00485717,-0.00111232,0,
6,0.0580229,0.0999563,0.00467208,-0.00121376,0,
6,0.0640611,0.102167,0.00446802,-0.00132515,0,
6,0.0706309,0.104489,0.00424443,-0.00144712,0,
6,0.077757,0.10693,0.004001,-0.00158026,0,
6,0.0854609,0.109501,0.00373776,-0.0017251,0,
6,0.0937597,0.112209,0.00345512,-0.00188208,0,
6,0.102665,0.115062,0.0031539,-0.00205153,0,
6,0.112183,0.118069,0.00283534,-0.00223364,0,
6,0.122315,0.121236,0.00250108,-0.00242848,0,
6,0.133052,0.124569,0.00215311,-0.00263594,0,
6,0.144384,0.128074,0.00179376,-0.00285579,0,
6,0.156292,0.131755,0.00142555,-0.00308761,0,
6,0.168754,0.135616,0.00105113,-0.00333088,0,
6,0.181744,0.139662,0.000673157,-0.00358494,0,
6,0.195237,0.143897,0.000294181,-0.00384908,0,
6,0.209207,0.148325,-8.34369e-05,-0.00412255,0,
6,0.223631,0.152953,-0.000457623,-0.0044046,0,
6,0.238493,0.157788,-0.000826643,-0.00469455,0,
6,0.253785,0.162843,-0.00118914,-0.0049918,0,
6,0.269507,0.168131,-0.00154414,-0.00529587,0,
6,0.28567,0.173671,-0.00189104,-0.00560643,0,
6,0.3023,0.179488,-0.00222961,-0.0059233,0,
6,0.319433,0.185612,-0.00256037,-0.00624708,0,
6,0.337122,0.192083,-0.00288077,-0.00657827,0,
6,0.355433,0.198953,-0.00318423,-0.00691613,0,
6,0.374445,0.20629,-0.00346309,-0.00726041,0,
6,0.394252,0.214186,-0.00371029,-0.00760906,0,
6,0.414961,0.222756,-0.00391863,-0.00795962,0,
6,0.436695,0.23214,-0.00408158,-0.0083103,0,
6,0.459585,0.242508,-0.00432314,-0.00871689,0,
6,0.48378,0.254214,-0.00413695,-0.00911762,0,
6,0.508144,0.267361,-0.00333046,-0.00917074,0,
6,0.531799,0.282059,-0.00261558,-0.00920064,0,
6,0.554791,0.298263,-0.00222476,-0.00921864,0,
6,0.577166,0.315542,-0.00209231,-0.00920562,0,
6,0.598964,0.333402,-0.00211978,-0.00914845,0,
6,0.620228,0.351487,-0.00221653,-0.00904178,0,
6,0.640996,0.369626,-0.00232966,-0.00888647,0,
6,0.661304,0.387765,-0.00243928,-0.00868639,0,
6,0.681188,0.40589,-0.00254687,-0.00844692,0,
6,0.700681,0.423969,-0.00266271,-0.00817497,0,
6,0.719813,0.441932,-0.00279654,-0.0078782,0,
6,0.738612,0.459677,-0.00295308,-0.00756358,0,
6,0.757107,0.477097,-0.00313227,-0.00723719,0,
6,0.775322,0.494101,-0.00333164,-0.00690427,0,
6,0.793282,0.51062,-0.00354819,-0.00656932,0,
6,0.811008,0.526607,-0.00377973,-0.00623626,0,
6,0.828521,0.542025,-0.00402465,-0.00590859,0,
6,0.845842,0.556832,-0.00428312,-0.00559388,0,
6,0.862989,0.570989,-0.00455421,-0.00529501,0,
6,0.879979,0.584486,-0.00483552,-0.0050106,0,
6,0.896829,0.597346,-0.00512596,-0.00473966,0,
6,0.913555,0.609612,-0.00542494,-0.00448128,0,
6,0.930172,0.621333,-0.00573235,-0.00423463,0,
6,0.946694,0.632552,-0.00604813,-0.00399885,0,
6,0.963136,0.643309,-0.00637201,-0.00377298,0,
6,0.97951,0.653636,-0.00670394,-0.00355592,0,
6,0.99583,0.66357,-0.00704317,-0.00334622,0,
6,1.01211,0.673156,-0.00739066,-0.00313721,0,
6,1.02836,0.682435,-0.00774534,-0.0029262,0,
6,1.04459,0.691403,-0.00810597,-0.00272266,0,
6,1.06081,0.700025,-0.00847323,-0.00252378,0,
6,1.09329,0.716103,-0.0092259,-0.00215028,0,
6,1.10959,0.723516,-0.00961115,-0.00198061,0,
6,1.12595,0.730494,-0.0100021,-0.00182511,0,
6,1.14238,0.737035,-0.0103983,-0.00168521,0,
6,1.1589,0.743152,-0.0107997,-0.00156166,0,
6,1.17551,0.748869,-0.011206,-0.00145454,0,
6,1.19223,0.754219,-0.011617,-0.00136327,0,
6,1.20907,0.759244,-0.0120328,-0.00128676,0,
6,1.22605,0.763985,-0.0124532,-0.00122355,0,
6,1.24318,0.768489,-0.0128784,-0.00117197,0,
6,1.26048,0.772795,-0.0133082,-0.00113027,0,
6,1.27797,0.776944,-0.0137436,-0.00109669,0,
6,1.29566,0.780969,-0.0141828,-0.00106967,0,
6,1.31357,0.7849,-0.0146304,-0.00104772,0,
6,1.33173,0.788761,-0.0150767,-0.00103398,0,
6,1.35015,0.792609,-0.0155387,-0.0010204,0,
6,1.36886,0.796563,-0.0160251,-0.000990594,0,
6,1.38788,0.800714,-0.0165168,-0.000961098,0,
6,1.40725,0.805035,-0.0170126,-0.000934806,0,
6,1.42698,0.809446,-0.017511,-0.000911259,0,
6,1.44712,0.813883,-0.0180153,-0.000889847,0,
6,1.46769,0.818319,-0.0185281,-0.000869475,0,
6,1.48874,0.822763,-0.0190522,-0.00084964,0,
6,1.5103,0.827238,-0.0195887,-0.000829727,0,
6,1.53242,0.83177,-0.0201387,-0.000809407,0,
6,1.55515,0.836372,-0.0207029,-0.000788571,0,
6,1.57854,0.841055,-0.0212822,-0.000767223,0,
6,1.60265,0.84582,-0.0218775,-0.000745391,0,
6,1.62754,0.850669,-0.0224902,-0.000723053,0,
6,1.65329,0.855602,-0.0231212,-0.000700245,0,
6,1.67998,0.860618,-0.0237726,-0.00067691,0,
6,1.70768,0.86572,-0.0244444,-0.000653099,0,
6,1.73712,0.871006,-0.0251578,-0.000628721,0,
6,1.76996,0.876711,-0.0259456,-0.000602533,0,
6,1.80655,0.882865,-0.0268202,-0.000573728,0,
6,1.84728,0.88945,-0.0277808,-0.000542345,0,
6,1.89255,0.89646,-0.0288456,-0.000502302,0,
6,1.9428,0.903913,-0.0300197,-0.000449288,0,
6,1.99849,0.91175,-0.0313002,-0.000390543,0,
6,2.06009,0.919781,-0.0326959,-0.000325998,0,
6,2.1281,0.927734,-0.0342068,-0.000259,0,
6,2.20301,0.935284,-0.0358318,-0.000193911,0,
6,2.28535,0.942065,-0.0375658,-0.000134885,0,
6,2.37559,0.947718,-0.0393993,-8.51652e-05,0,
6,2.47424,0.951957,-0.0413179,-4.72737e-05,0,
6,2.58172,0.954651,-0.0433023,-2.21738e-05,0,
6,2.69844,0.955913,-0.0453291,-8.55568e-06,0,
6,2.82473,0.956132,-0.0473731,-2.92507e-06,0,
6,2.96084,0.955902,-0.0494101,-1.18084e-06,0,
6,3.10691,0.95582,-0.0514182,-5.72166e-07,0,
6,3.26296,0.956253,-0.0533797,-2.26115e-07,0,
6,3.42888,0.957219,-0.0552787,-7.01996e-08,0,
6,3.60438,0.958482,-0.0571003,-3.19735e-08,0,
6,3.78902,0.959756,-0.0588295,-2.52718e-08,0,
6,3.98218,0.960862,-0.0604534,-2.13289e-08,0,
6,4.18307,0.961768,-0.0619619,-1.79662e-08,0,
6,4.39071,0.962527,-0.0633486,-1.55014e-08,0,
6,4.60398,0.9632,-0.0646109,-1.36945e-08,0,
6,4.82159,0.963818,-0.0657495,-1.22596e-08,0,
6,5.04218,0.964385,-0.0667677,-1.10825e-08,0,
6,5.26426,0.964891,-0.0676709,-1.03677e-08,0,
6,5.48633,0.965326,-0.0684664,-1.0734e-08,0,
6,5.70687,0.965683,-0.0691622,-1.36943e-08,0,
6,5.92439,0.965967,-0.0697671,-2.34953e-08,0,
6,6.1375,0.966225,-0.0702901,-5.57645e-08,0,
6,6.34489,0.966569,-0.0707398,-1.75184e-07,0,
6,6.5454,0.967142,-0.0711245,-5.65008e-07,0,
6,6.73802,0.967932,-0.0714512,-1.21703e-06,0,
6,6.92195,0.968445,-0.0717271,3.17522e-07,0,
6,7.09653,0.967454,-0.0719578,1.3403e-05,0,
6,7.26132,0.963208,-0.072153,5.46941e-05,0,
6,7.41603,0.954239,-0.072312,0.000139948,0,
6,7.56054,0.940272,-0.0724516,0.000274764,0,
6,7.6949,0.922262,-0.0725657,0.000395588,0,
6,7.81927,0.901801,-0.0726481,0.000530121,0,
6,7.93391,0.880749,-0.0727158,0.000669034,0,
6,8.0392,0.86055,-0.0727616,0.000795926,0,
6,8.13555,0.841849,-0.0727991,0.00090323,0,
6,8.22344,0.824675,-0.0728292,0.000990412,0,
6,8.30339,0.808757,-0.072858,0.00106063,0,
6,8.37592,0.793755,-0.0728858,0.00111733,0,
6,8.44155,0.779363,-0.0729134,0.00116413,0,
6,8.50082,0.765355,-0.0729402,0.0012039,0,
6,8.55423,0.751585,-0.0729659,0.00123837,0,
6,8.60229,0.737972,-0.07299,0.00126835,0,
6,8.64545,0.724484,-0.0730126,0.0012942,0,
6,8.68417,0.711109,-0.0730338,0.00131494,0,
6,8.71885,0.69784,-0.0730534,0.00133114,0,
6,8.74989,0.684673,-0.0730712,0.00134316,0,
6,8.77763,0.671607,-0.0730875,0.00135133,0,
6,8.80241,0.658637,-0.0731023,0.00135599,0,
6,8.82452,0.645759,-0.0731156,0.00135744,0,
6,8.84423,0.632966,-0.0731277,0.001356,0,
6,8.86181,0.62025,-0.0731385,0.00135197,0,
6,8.87746,0.607598,-0.0731481,0.00134566,0,
6,8.89139,0.594996,-0.0731567,0.00133735,0,
6,8.90379,0.582426,-0.0731643,0.0013273,0,
6,8.91482,0.569865,-0.073171,0.00131574,0,
6,8.92463,0.557287,-0.0731769,0.00130287,0,
6,8.93334,0.544665,-0.073182,0.00128882,0,
6,8.94109,0.531964,-0.0731865,0.00127368,0,
6,8.94798,0.519146,-0.0731903,0.0012575,0,
6,8.95409,0.506169,-0.0731937,0.00124023,0,
6,8.95953,0.492985,-0.0731966,0.00122178,0,
6,8.96435,0.479539,-0.073199,0.00120197,0,
6,8.96863,0.465769,-0.0732011,0.0011805,0,
6,8.97244,0.451604,-0.0732029,0.00115699,0,
6,8.97581,0.436961,-0.0732044,0.00113088,0,
6,8.97881,0.421746,-0.0732056,0.00110144,0,
6,8.98147,0.405846,-0.0732067,0.0010677,0,
6,8.98383,0.38913,-0.0732076,0.00102841,0,
6,8.98593,0.371442,-0.0732083,0.000982387,0,
6,8.98779,0.352581,-0.0732089,0.000925808,0,
6,8.98944,0.332284,-0.0732095,0.000854201,0,
6,8.9909,0.310301,-0.0732098,0.000768706,0,
6,8.9922,0.286458,-0.0732102,0.000667646,0,
6,8.99336,0.260595,-0.0732103,0.000543704,0,
6,8.99438,0.232555,-0.0732106,0.000392228,0,
6,8.99529,0.202655,-0.0732106,0.000245143,0,
6,8.99609,0.172037,-0.0732108,0.000126376,0,
6,8.99681,0.142216,-0.0732107,5.24319e-05,0,
6,8.99744,0.114447,-0.0732109,1.74434e-05,0,
6,8.99801,0.089332,-0.0732107,4.62441e-06,0,
6,8.9985,0.0669321,-0.073211,9.37924e-07,0,
6,8.99895,0.0470561,-0.0732108,1.30209e-07,0,
6,8.99934,0.0294436,-0.0732111,9.60613e-09,0,
6,8.99969,0.0138391,-0.0732108,2.08167e-10,0,

10,0,0,-0.0111146,0,0,
10,0.000296632,0.00745513,-0.0111055,-3.76482e-11,0,
10,0.000596102,0.0149529,-0.0111138,-1.39053e-09,0,
10,0.000900397,0.0225438,-0.0111062,-1.40926e-08,0,
10,0.00121153,0.0302781,-0.011113,-7.5511e-08,0,
10,0.00153158,0.0382059,-0.0111069,-2.81766e-07,0,
10,0.00186264,0.0463762,-0.0111124,-8.36321e-07,0,
10,0.00220692,0.0548352,-0.0111073,-2.12161e-06,0,
10,0.00256668,0.0636227,-0.0111119,-4.79563e-06,0,
10,0.00294431,0.0727659,-0.0111077,-9.90065e-06,0,
10,0.00334229,0.0822707,-0.0111115,-1.89375e-05,0,
10,0.00376326,0.0921082,-0.011108,-3.38071e-05,0,
10,0.00421,0.102203,-0.0111112,-5.64876e-05,0,
10,0.00468544,0.112426,-0.0111082,-8.83909e-05,0,
10,0.00519274,0.122601,-0.0111109,-0.000129595,0,
10,0.00573524,0.132526,-0.0111084,-0.000178428,0,
10,0.00631651,0.142014,-0.0111106,-0.000231795,0,
10,0.00694041,0.150917,-0.0111083,-0.00028612,0,
10,0.00761104,0.159147,-0.0111101,-0.000338331,0,
10,0.00833284,0.166675,-0.0111082,-0.000386398,0,
10,0.00911058,0.173515,-0.0111095,-0.000429385,0,
10,0.0099494,0.179713,-0.0111077,-0.000467208,0,
10,0.0108548,0.185332,-0.0111086,-0.00050032,0,
10,0.0118329,0.190438,-0.011107,-0.000529443,0,
10,0.0128901,0.195099,-0.0111073,-0.000555389,0,
10,0.0140333,0.199377,-0.0111058,-0.000578948,0,
10,0.0152702,0.203329,-0.0111057,-0.000600841,0,
10,0.0166089,0.207002,-0.0111042,-0.000621697,0,
10,0.0180584,0.210441,-0.0111035,-0.000642063,0,
10,0.0196282,0.213681,-0.0111019,-0.00066241,0,
10,0.0213288,0.216756,-0.0111007,-0.000683149,0,
10,0.0231714,0.219691,-0.0110989,-0.000704642,0,
10,0.0251682,0.222513,-0.0110973,-0.000727221,0,
10,0.0273326,0.22524,-0.0110951,-0.000751193,0,
10,0.0296789,0.227893,-0.0110929,-0.000776851,0,
10,0.0322227,0.230488,-0.0110904,-0.000804483,0,
10,0.0349809,0.23304,-0.0110876,-0.000834375,0,
10,0.0379719,0.235564,-0.0110845,-0.000866818,0,
10,0.0412155,0.238072,-0.0110812,-0.000902114,0,
10,0.0447333,0.240577,-0.0110775,-0.000940578,0,
10,0.0485489,0.243091,-0.0110735,-0.00098254,0,
10,0.0526875,0.245626,-0.0110691,-0.00102835,0,
10,0.0571768,0.248193,-0.0110644,-0.00107839,0,
10,0.0620466,0.250805,-0.0110593,-0.00113306,0,
10,0.0673295,0.253473,-0.0110539,-0.00119279,0,
10,0.0730607,0.256211,-0.0110481,-0.00125804,0,
10,0.0792784,0.25903,-0.0110421,-0.0013293,0,
10,0.0860241,0.261945,-0.0110358,-0.00140712,0,
10,0.0933428,0.26497,-0.0110293,-0.00149206,0,
10,0.101283,0.268122,-0.0110227,-0.00158474,0,
10,0.109899,0.271416,-0.0110162,-0.00168581,0,
10,0.119247,0.274872,-0.01101,-0.00179598,0,
10,0.12939,0.278509,-0.0110042,-0.00191599,0,
10,0.140395,0.28235,-0.0109994,-0.00204663,0,
10,0.152337,0.286418,-0.0109957,-0.00218873,0,
10,0.165296,0.290742,-0.010994,-0.00234316,0,
10,0.179357,0.29535,-0.0109947,-0.00251082,0,
10,0.194615,0.300276,-0.0109988,-0.00269263,0,
10,0.211171,0.305557,-0.0110073,-0.00288955,0,
10,0.229138,0.311234,-0.0110216,-0.0031025,0,
10,0.248635,0.317354,-0.011043,-0.00333241,0,
10,0.269793,0.323968,-0.0110738,-0.00358015,0,
10,0.292753,0.331135,-0.0111152,-0.0038465,0,
10,0.317669,0.338919,-0.011171,-0.00413098,0,
10,0.344708,0.347389,-0.0112405,-0.00443435,0,
10,0.372405,0.356109,-0.0113251,-0.00474076,0,
10,0.399623,0.364735,-0.0114187,-0.00503625,0,
10,0.426397,0.373278,-0.0115215,-0.00532037,0,
10,0.452757,0.381753,-0.0116232,-0.00559563,0,
10,0.478735,0.390171,-0.011727,-0.00587342,0,
10,0.504358,0.398573,-0.0119263,-0.00616719,0,
10,0.529657,0.407127,-0.0123285,-0.00632993,0,
10,0.554656,0.416017,-0.0128904,-0.00646879,0,
10,0.579382,0.425288,-0.0135048,-0.00658479,0,
10,0.603859,0.434894,-0.0141191,-0.00669255,0,
10,0.628112,0.444753,-0.0147054,-0.00679025,0,
10,0.652163,0.454785,-0.0152613,-0.0068756,0,
10,0.676035,0.464934,-0.015793,-0.0069467,0,
10,0.699751,0.475167,-0.0163019,-0.00700212,0,
10,0.72333,0.485479,-0.0167899,-0.00704081,0,
10,0.746795,0.495883,-0.0172552,-0.00706216,0,
10,0.770165,0.506409,-0.0176948,-0.00706552,0,
10,0.79346,0.517099,-0.018105,-0.00705009,0,
10,0.816699,0.528,-0.0184823,-0.00701481,0,
10,0.839903,0.539168,-0.0188242,-0.00695831,0,
10,0.863088,0.55066,-0.0191296,-0.00687894,0,
10,0.886275,0.562535,-0.0193988,-0.00677483,0,
10,0.909481,0.574853,-0.0196334,-0.00664394,0,
10,0.932723,0.587671,-0.0198363,-0.00648419,0,
10,0.956021,0.60104,-0.0200108,-0.00629362,0,
10,0.97939,0.614994,-0.0201608,-0.00607095,0,
10,1.00285,0.629536,-0.0202903,-0.005817,0,
10,1.02641,0.644618,-0.0204027,-0.00553436,0,
10,1.0501,0.660136,-0.0205004,-0.00522668,0,
10,1.07392,0.675924,-0.0205849,-0.00489889,0,
10,1.0979,0.691769,-0.0206561,-0.00455729,0,
10,1.12205,0.70742,-0.0207143,-0.00420944,0,
10,1.14639,0.722601,-0.0207605,-0.00387021,0,
10,1.17093,0.737064,-0.0207931,-0.0035474,0,
10,1.19568,0.750668,-0.0208082,-0.00324117,0,
10,1.22066,0.763391,-0.0208008,-0.00295362,0,
10,1.24589,0.775286,-0.0207688,-0.00268519,0,
10,1.27137,0.786446,-0.0207082,-0.00243467,0,
10,1.29713,0.796982,-0.0206212,-0.0021998,0,
10,1.32317,0.807022,-0.0204896,-0.00196384,0,
10,1.34951,0.816651,-0.020329,-0.00172702,0,
10,1.37616,0.825821,-0.0201663,-0.00150672,0,
10,1.40313,0.834425,-0.0199982,-0.00130253,0,
10,1.43043,0.842385,-0.0198293,-0.00112116,0,
10,1.45807,0.849676,-0.0196618,-0.000966981,0,
10,1.48607,0.856331,-0.0194941,-0.000842679,0,
10,1.51444,0.862445,-0.0193286,-0.000749593,0,
10,1.54318,0.868233,-0.0191506,-0.0006572,0,
10,1.57231,0.873851,-0.0189653,-0.000581483,0,
10,1.60184,0.879281,-0.0187897,-0.000518893,0,
10,1.63178,0.884479,-0.0186196,-0.0004678,0,
10,1.66213,0.889444,-0.0184563,-0.000426385,0,
10,1.69292,0.89421,-0.018296,-0.000392418,0,
10,1.72416,0.898809,-0.0181402,-0.000363739,0,
10,1.75585,0.903256,-0.0179889,-0.000338667,0,
10,1.78802,0.907553,-0.0178428,-0.000316057,0,
10,1.82067,0.911698,-0.0177023,-0.000295157,0,
10,1.85383,0.915684,-0.017567,-0.000275496,0,
10,1.88751,0.919503,-0.0174387,-0.000256853,0,
10,1.92173,0.923155,-0.0173145,-0.000239362,0,
10,1.95652,0.926667,-0.0171955,-0.000219416,0,
10,1.9919,0.93008,-0.0170815,-0.000198583,0,
10,2.02791,0.933392,-0.0169741,-0.000177852,0,
10,2.06456,0.936571,-0.0168739,-0.000156202,0,
10,2.10268,0.939636,-0.0167813,-0.000133312,0,
10,2.1443,0.94266,-0.0166913,-0.00011,0,
10,2.18977,0.945576,-0.0166075,-8.67425e-05,0,
10,2.23946,0.948279,-0.0165327,-6.40581e-05,0,
10,2.29376,0.950657,-0.0164712,-4.30681e-05,0,
10,2.35309,0.952598,-0.0164275,-2.47977e-05,0,
10,2.4179,0.953999,-0.0164078,-1.00746e-05,0,
10,2.48863,0.95478,-0.0164183,5.40046e-07,0,
10,2.56575,0.954903,-0.0164666,6.87524e-06,0,
10,2.64971,0.954396,-0.01656,9.26992e-06,0,
10,2.74098,0.953366,-0.0167061,8.63085e-06,0,
10,2.83997,0.952002,-0.016912,6.30078e-06,0,
10,2.94709,0.950552,-0.0171833,3.66919e-06,0,
10,3.06269,0.949266,-0.0175243,1.67835e-06,0,
10,3.18706,0.948331,-0.0179377,5.83474e-07,0,
10,3.3204,0.947815,-0.0184241,1.46202e-07,0,
10,3.46281,0.947661,-0.0189825,2.38355e-08,0,
10,3.61427,0.94773,-0.0196101,1.55551e-09,0,
10,3.77463,0.947872,-0.0203021,-6.42305e-10,0,
10,3.94358,0.947983,-0.0210519,-5.50788e-10,0,
10,4.12067,0.948033,-0.0218505,-5.19361e-10,0,
10,4.30525,0.948049,-0.0226879,-9.09713e-10,0,
10,4.49655,0.948076,-0.0235522,-1.71995e-09,0,
10,4.6936,0.94815,-0.0244312,-2.78564e-09,0,
10,4.89531,0.948277,-0.0253125,-4.06754e-09,0,
10,5.10047,0.948444,-0.026184,-5.92212e-09,0,
10,5.30776,0.948628,-0.0270345,-9.38799e-09,0,
10,5.51581,0.948808,-0.0278541,-1.67807e-08,0,
10,5.72323,0.948976,-0.0286345,-3.38644e-08,0,
10,5.92863,0.94915,-0.029369,-7.93092e-08,0,
10,6.13069,0.949392,-0.0300528,-2.16984e-07,0,
10,6.32816,0.949795,-0.0306826,-6.05505e-07,0,
10,6.51991,0.950397,-0.0312573,-1.32954e-06,0,
10,6.70495,0.950985,-0.031777,-1.21137e-06,0,
10,6.88244,0.950865,-0.0322427,4.86906e-06,0,
10,7.0517,0.948822,-0.0326567,2.77298e-05,0,
10,7.21224,0.943459,-0.0330188,8.10134e-05,0,
10,7.3637,0.933851,-0.0333342,0.000174755,0,
10,7.5059,0.920004,-0.0336061,0.000302117,0,
10,7.63878,0.902482,-0.033838,0.0004136,0,
10,7.76243,0.882358,-0.0340375,0.000538165,0,
10,7.87701,0.861407,-0.0341974,0.000666978,0,
10,7.9828,0.84114,-0.0343309,0.000784739,0,
10,8.08014,0.822328,-0.034438,0.000885265,0,
10,8.16941,0.805091,-0.0345272,0.000968383,0,
10,8.25106,0.789182,-0.0346017,0.001037,0,
10,8.32554,0.774243,-0.0346663,0.00109385,0,
10,8.39331,0.759943,-0.0347223,0.00114167,0,
10,8.45484,0.746038,-0.0347715,0.00118289,0,
10,8.5106,0.732382,-0.0348143,0.00121879,0,
10,8.56104,0.718908,-0.0348515,0.00124989,0,
10,8.60659,0.705605,-0.0348838,0.00127634,0,
10,8.64767,0.692492,-0.0349119,0.0012982,0,
10,8.68467,0.679591,-0.0349368,0.00131559,0,
10,8.71795,0.66689,-0.0349589,0.00132481,0,
10,8.74786,0.654363,-0.0349781,0.00132996,0,
10,8.77471,0.642005,-0.034995,0.00133131,0,
10,8.79881,0.629814,-0.0350095,0.00132898,0,
10,8.8204,0.617786,-0.0350223,0.00132345,0,
10,8.83975,0.60591,-0.0350333,0.00131521,0,
10,8.85708,0.594175,-0.0350429,0.00130475,0,
10,8.87259,0.582564,-0.0350511,0.00129248,0,
10,8.88646,0.571056,-0.0350582,0.0012788,0,
10,8.89886,0.559628,-0.0350642,0.00126404,0,
10,8.90995,0.548254,-0.0350694,0.00124846,0,
10,8.91986,0.536904,-0.0350738,0.00123229,0,
10,8.92872,0.525546,-0.0350776,0.00121566,0,
10,8.93663,0.514146,-0.0350808,0.00119866,0,
10,8.94369,0.502666,-0.0350835,0.00118132,0,
10,8.95,0.491066,-0.0350857,0.00116361,0,
10,8.95564,0.479302,-0.0350876,0.00114541,0,
10,8.96067,0.467325,-0.0350891,0.00112661,0,
10,8.96517,0.455083,-0.0350905,0.00110694,0,
10,8.96918,0.442516,-0.0350915,0.00108609,0,
10,8.97276,0.429559,-0.0350925,0.00106363,0,
10,8.97596,0.416134,-0.0350932,0.00103903,0,
10,8.97882,0.402154,-0.0350939,0.00101158,0,
10,8.98137,0.387516,-0.0350943,0.000980398,0,
10,8.98365,0.3721,-0.0350949,0.000944318,0,
10,8.98569,0.355764,-0.0350951,0.00090224,0,
10,8.9875,0.338328,-0.0350956,0.00085121,0,
10,8.98913,0.319553,-0.0350955,0.000786627,0,
10,8.99058,0.299203,-0.035096,0.000710014,0,
10,8.99188,0.277115,-0.0350958,0.000619874,0,
10,8.99304,0.253131,-0.0350963,0.000510078,0,
10,8.99408,0.227071,-0.035096,0.000375167,0,
10,8.99501,0.199129,-0.0350965,0.000241534,0,
10,8.99583,0.170239,-0.0350961,0.000129552,0,
10,8.99658,0.141735,-0.0350966,5.62042e-05,0,
10,8.99724,0.114832,-0.0350961,1.95297e-05,0,
10,8.99784,0.0901989,-0.0350967,5.38453e-06,0,
10,8.99837,0.0679887,-0.0350961,1.13102e-06,0,
10,8.99885,0.0480777,-0.0350968,1.62122e-07,0,
10,8.99927,0.0302537,-0.0350961,1.23114e-08,0,
10,8.99966,0.0142975,-0.0350969,2.72432e-10,0,
10,9,0,-0.035096,0,0,

0.0416667,0,0,-0.232231,0,3.19885e-06,
0.0833333,0,0,-0.232398,0,5.20118e-06,
0.125,0,0,-0.232329,0,6.62544e-06,
0.166667,0,0,-0.232381,0,1.10372e-05,
0.208333,0,0,-0.232385,0,1.55795e-05,
0.25,0,0,-0.232431,0,2.05725e-05,
0.291667,0,0,-0.232471,0,2.50002e-05,
0.333333,0,0,-0.232529,0,2.88325e-05,
0.375,0,0,-0.232589,0,3.18946e-05,
0.416667,0,0,-0.232657,0,3.45514e-05,
0.458333,0,0,-0.23273,0,3.71969e-05,
0.5,0,0,-0.232811,0,4.03302e-05,
0.541667,0,0,-0.232903,0,4.43325e-05,
0.583333,0,0,-0.233009,0,4.94452e-05,
0.625,0,0,-0.233134,0,5.57064e-05,
0.666667,0,0,-0.23328,0,6.29537e-05,
0.708333,0,0,-0.233449,0,7.0844e-05,
0.75,0,0,-0.233642,0,7.88914e-05,
0.791667,0,0,-0.233858,0,8.6534e-05,
0.833333,0,0,-0.234094,0,9.32048e-05,
0.875,0,0,-0.234349,0,9.84225e-05,
0.916667,0,0,-0.23462,0,0.000101933,
0.958333,0,0,-0.234912,0,0.000103663,
1,0,0,-0.235234,0,0.000103495,
1.04167,0,0,-0.235605,0,0.000100984,
1.08333,0,0,-0.236047,0,9.51255e-05,
1.125,0,0,-0.236584,0,8.43517e-05,
1.16667,0,0,-0.237239,0,6.66075e-05,
1.20833,0,0,-0.238024,0,3.97325e-05,
1.25,0,0,-0.238939,0,2.11915e-06,
1.29167,0,0,-0.239972,0,-4.67401e-05,
1.33333,0,0,-0.241098,0,-0.000105994,
1.375,0,0,-0.242284,0,-0.000173613,
1.41667,0,0,-0.243495,0,-0.00024693,
1.45833,0,0,-0.2447,0,-0.000323276,
1.5,0,0,-0.245868,0,-0.000400478,
1.54167,0,0,-0.246978,0,-0.000477059,
1.58333,0,0,-0.248013,0,-0.000552192,
1.625,0,0,-0.248958,0,-0.000625507,
1.66667,0,0,-0.249804,0,-0.000696892,
1.70833,0,0,-0.250541,0,-0.00076635,
1.75,0,0,-0.251163,0,-0.000833905,
1.79167,0,0,-0.251663,0,-0.000899569,
1.83333,0,0,-0.252036,0,-0.000963324,
1.875,0,0,-0.252276,0,-0.00102513,
1.91667,0,0,-0.25238,0,-0.00108492,
1.95833,0,0,-0.252344,0,-0.00114264,
2,0,0,-0.252164,0,-0.00119819,
2.04167,0,0,-0.25184,0,-0.00125152,
2.08333,0,0,-0.251369,0,-0.00130258,
2.125,0,0,-0.250752,0,-0.00135132,
2.16667,0,0,-0.249989,0,-0.00139771,
2.20833,0,0,-0.24908,0,-0.00144176,
2.25,0,0,-0.248026,0,-0.00148344,
2.29167,0,0,-0.246829,0,-0.00152277,
2.33333,0,0,-0.24549,0,-0.00155974,
2.375,0,0,-0.244012,0,-0.00159436,
2.41667,0,0,-0.242397,0,-0.00162662,
2.45833,0,0,-0.240647,0,-0.00165653,
2.5,0,0,-0.238765,0,-0.0016841,
2.54167,0,0,-0.236754,0,-0.00170933,
2.58333,0,0,-0.234617,0,-0.00173222,
2.625,0,0,-0.232357,0,-0.00175277,
2.66667,0,0,-0.229978,0,-0.00177099,
2.70833,0,0,-0.227484,0,-0.00178687,
2.75,0,0,-0.22488,0,-0.00180043,
2.79167,0,0,-0.222168,0,-0.00181167,
2.83333,0,0,-0.219355,0,-0.0018206,
2.875,0,0,-0.216445,0,-0.00182725,
2.91667,0,0,-0.213443,0,-0.00183165,
2.95833,0,0,-0.210356,0,-0.00183385,
3,0,0,-0.207188,0,-0.0018339,
3.04167,0,0,-0.203946,0,-0.00183185,
3.08333,0,0,-0.200634,0,-0.00182776,
3.125,0,0,-0.197258,0,-0.00182168,
3.16667,0,0,-0.193825,0,-0.00181367,
3.20833,0,0,-0.190339,0,-0.00180381,
3.25,0,0,-0.186806,0,-0.00179214,
3.29167,0,0,-0.183231,0,-0.00177875,
3.33333,0,0,-0.17962,0,-0.00176371,
3.375,0,0,-0.175978,0,-0.00174707,
3.41667,0,0,-0.172309,0,-0.0017289,
3.45833,0,0,-0.168619,0,-0.00170927,
3.5,0,0,-0.164911,0,-0.00168824,
3.54167,0,0,-0.161191,0,-0.00166588,
3.58333,0,0,-0.157462,0,-0.00164224,
3.625,0,0,-0.153729,0,-0.0016174,
3.66667,0,0,-0.149995,0,-0.0015914,
3.70833,0,0,-0.146264,0,-0.0015643,
3.75,0,0,-0.142539,0,-0.00153616,
3.79167,0,0,-0.138824,0,-0.00150704,
3.83333,0,0,-0.135122,0,-0.00147697,
3.875,0,0,-0.131436,0,-0.00144603,
3.91667,0,0,-0.127767,0,-0.00141426,
3.95833,0,0,-0.12412,0,-0.00138172,
4,0,0,-0.120496,0,-0.00134846,
4.04167,0,0,-0.116897,0,-0.00131452,
4.08333,0,0,-0.113325,0,-0.00127996,
4.125,0,0,-0.109782,0,-0.00124482,
4.16667,0,0,-0.106269,0,-0.00120914,
4.20833,0,0,-0.102788,0,-0.00117295,
4.25,0,0,-0.0993397,0,-0.00113627,
4.29167,0,0,-0.0959253,0,-0.00109914,
4.33333,0,0,-0.0925458,0,-0.00106157,
4.375,0,0,-0.0892024,0,-0.00102358,
4.41667,0,0,-0.0858958,0,-0.000985201,
4.45833,0,0,-0.0826269,0,-0.000946443,
4.5,0,0,-0.0793965,0,-0.000907331,
4.54167,0,0,-0.0762051,0,-0.000867878,
4.58333,0,0,-0.0730534,0,-0.000828101,
4.625,0,0,-0.069942,0,-0.000788015,
4.66667,0,0,-0.0668715,0,-0.000747639,
4.70833,0,0,-0.0638423,0,-0.00070699,
4.75,0,0,-0.0608549,0,-0.000666082,
4.79167,0,0,-0.0579096,0,-0.000624925,
4.83333,0,0,-0.0550069,0,-0.000583523,
4.875,0,0,-0.052147,0,-0.000541877,
4.91667,0,0,-0.0493306,0,-0.000499981,
4.95833,0,0,-0.0465583,0,-0.000457827,
5,0,0,-0.043831,0,-0.000415401,
5.04167,0,0,-0.0411497,0,-0.000372689,
5.08333,0,0,-0.0385161,0,-0.000329689,
5.125,0,0,-0.0359323,0,-0.000286424,
5.16667,0,0,-0.0334012,0,-0.000242982,
5.20833,0,0,-0.0309261,0,-0.00019953,
5.25,0,0,-0.0285092,0,-0.000156294,
5.29167,0,0,-0.0261505,0,-0.000113457,
5.33333,0,0,-0.0238481,0,-7.10859e-05,
5.375,0,0,-0.0216005,0,-2.91598e-05,
5.41667,0,0,-0.0194062,0,1.23683e-05,
5.45833,0,0,-0.0172639,0,5.35363e-05,
5.5,0,0,-0.0151727,0,9.43699e-05,
5.54167,0,0,-0.0131317,0,0.000134886,
5.58333,0,0,-0.0111402,0,0.000175097,
5.625,0,0,-0.00919767,0,0.00021501,
5.66667,0,0,-0.0073036,0,0.000254631,
5.70833,0,0,-0.0054576,0,0.000293963,
5.75,0,0,-0.00365935,0,0.000333007,
5.79167,0,0,-0.00190861,0,0.000371761,
5.83333,0,0,-0.000205186,0,0.000410219,
5.875,0,0,0.00145106,0,0.000448375,
5.91667,0,0,0.00306022,0,0.000486219,
5.95833,0,0,0.00462236,0,0.000523737,
6,0,0,0.00613755,0,0.000560916,
6.04167,0,0,0.0076058,0,0.00059774,
6.08333,0,0,0.00902716,0,0.00063419,
6.125,0,0,0.0104017,0,0.000670248,
6.16667,0,0,0.0117294,0,0.000705895,
6.20833,0,0,0.0130104,0,0.00074111,
6.25,0,0,0.0142449,0,0.000775874,
6.29167,0,0,0.0154328,0,0.000810167,
6.33333,0,0,0.0165745,0,0.00084397,
6.375,0,0,0.0176701,0,0.000877263,
6.41667,0,0,0.0187198,0,0.000910028,
6.45833,0,0,0.0197239,0,0.000942247,
6.5,0,0,0.0206827,0,0.000973901,
6.54167,0,0,0.0215964,0,0.00100497,
6.58333,0,0,0.0224654,0,0.00103545,
6.625,0,0,0.02329,0,0.00106531,
6.66667,0,0,0.0240706,0,0.00109454,
6.70833,0,0,0.0248077,0,0.00112313,
6.75,0,0,0.0255015,0,0.00115107,
6.79167,0,0,0.0261526,0,0.00117834,
6.83333,0,0,0.0267613,0,0.00120493,
6.875,0,0,0.0273281,0,0.00123085,
6.91667,0,0,0.0278534,0,0.00125607,
6.95833,0,0,0.0283377,0,0.0012806,
7,0,0,0.0287813,0,0.00130444,
7.04167,0,0,0.0291849,0,0.00132757,
7.08333,0,0,0.0295488,0,0.00134998,
7.125,0,0,0.0298734,0,0.00137167,
7.16667,0,0,0.030159,0,0.0013926,
7.20833,0,0,0.030406,0,0.00141277,
7.25,0,0,0.0306148,0,0.00143217,
7.29167,0,0,0.0307858,0,0.00145077,
7.33333,0,0,0.0309193,0,0.00146857,
7.375,0,0,0.031016,0,0.00148557,
7.41667,0,0,0.0310761,0,0.00150177,
7.45833,0,0,0.0311002,0,0.00151716,
7.5,0,0,0.0310886,0,0.00153176,
7.54167,0,0,0.0310417,0,0.00154555,
7.58333,0,0,0.0309599,0,0.00155855,
7.625,0,0,0.0308437,0,0.00157075,
7.66667,0,0,0.0306932,0,0.00158217,
7.70833,0,0,0.030509,0,0.0015928,
7.75,0,0,0.0302913,0,0.00160267,
7.79167,0,0,0.0300404,0,0.00161176,
7.83333,0,0,0.0297559,0,0.00162008,
7.875,0,0,0.0294379,0,0.00162769,
7.91667,0,0,0.0290979,0,0.00163532,
7.95833,0,0,0.0286557,0,0.00164124,
8,0,0,0.028307,0,0.00164701,
8.04171,0,0,0.0279715,0,0.00165305,
8.08368,0,0,0.0274671,0,0.00165821,
8.12617,0,0,0.0269824,0,0.00166062,
8.16946,0,0,0.0264566,0,0.0016622,
8.21382,0,0,0.0258783,0,0.0016629,
8.25952,0,0,0.0252511,0,0.00166263,
8.30685,0,0,0.024568,0,0.0016615,
8.35611,0,0,0.0238218,0,0.00165951,
8.40762,0,0,0.0230049,0,0.00165664,
8.46168,0,0,0.0221084,0,0.00165286,
8.51865,0,0,0.0211223,0,0.00164811,
8.57889,0,0,0.0200356,0,0.00164235,
8.64276,0,0,0.0188364,0,0.00163552,
8.71067,0,0,0.0175118,0,0.00162759,
8.78306,0,0,0.0160481,0,0.00161853,
8.86037,0,0,0.0144315,0,0.00160836,
8.94309,0,0,0.0126481,0,0.00159714,
9.03174,0,0,0.0106851,0,0.001585,
9.12689,0,0,0.00853159,0,0.00157213,
9.22912,0,0,0.00618012,0,0.0015588,
9.33908,0,0,0.00362835,0,0.00154534,
9.45746,0,0,0.000880393,0,0.00153215,
9.58501,0,0,-0.00205313,0,0.0015196,
9.72253,0,0,-0.00515765,0,0.00150798,
9.87088,0,0,-0.00841191,0,0.0014973,
10.031,0,0,-0.0117634,0,0.00148734,
10.2039,0,0,-0.0150805,0,0.00147805,
10.3906,0,0,-0.0181007,0,0.0014702,
10.5924,0,0,-0.0203835,0,0.00146618,
10.8105,0,0,-0.0213014,0,0.00147078,
11.0463,0,0,-0.0201486,0,0.00149106,
11.3012,0,0,-0.0164216,0,0.00153432,
11.5769,0,0,-0.0101793,0,0.00160409,
11.8751,0,0,-0.00219256,0,0.00169686,
12.1977,0,0,0.00628138,0,0.00180219,
12.5466,0,0,0.0139513,0,0.00190657,
12.9242,0,0,0.0198806,0,0.00199824,
13.3327,0,0,0.023649,0,0.00207025,
13.7748,0,0,0.0253048,0,0.00212107,
14.2532,0,0,0.0252121,0,0.00215356,
14.7709,0,0,0.0238885,0,0.00217296,
15.3312,0,0,0.0218735,0,0.00218356,
15.9377,0,0,0.0196215,0,0.00218919,
16.594,0,0,0.0174332,0,0.00219302,
17.3044,0,0,0.0154522,0,0.00219674,
18.0733,0,0,0.013724,0,0.00220057,
18.9056,0,0,0.0122587,0,0.00220385,
19.8064,0,0,0.0110505,0,0.00220635,
20.7816,0,0,0.010072,0,0.00220861,
21.8371,0,0,0.00927837,0,0.0022111,
22.9796,0,0,0.00862741,0,0.00221379,
24.2163,0,0,0.00808402,0,0.00221755,
25.5551,0,0,0.00760822,0,0.00222274,
27.0042,0,0,0.00715869,0,0.00222916,
28.5729,0,0,0.00670489,0,0.00223677,
30.271,0,0,0.00622768,0,0.00224638,
32.1091,0,0,0.00571277,0,0.00225702,
34.0989,0,0,0.00514711,0,0.00226823,
36.2529,0,0,0.00451248,0,0.00227913,
38.5845,0,0,0.00379958,0,0.00228836,
41.1085,0,0,0.00304056,0,0.00229707,
43.8407,0,0,0.00207079,0,0.0023045,
46.7983,0,0,0.00107609,0,0.00231146,
50,0,0,0.00214948,0,0.00232894,

