c93b86579854eaa65b9344174f1deed70ff273b0 
X,Z,x_velocity,cp,uw_b,cf,
1,0,0,-0.23679,0,0,
1,9,0,-0.127085,0,0,
1,1.01284,0.480739,-0.229344,-0.0095652,0,
1,0.000308731,0.000537031,-0.236789,-1.03865e-14,0,
1,0.000654158,0.00111883,-0.23679,-4.56038e-13,0,
1,0.00104139,0.00174739,-0.236789,-5.84022e-12,0,
1,0.00147619,0.00242314,-0.23679,-3.97348e-11,0,
1,0.00196502,0.00314457,-0.236789,-1.86585e-10,0,
1,0.00251518,0.00390761,-0.236789,-6.87625e-10,0,
1,0.0031349,0.00470434,-0.236789,-2.1313e-09,0,
1,0.00383341,0.00552175,-0.236789,-5.77368e-09,0,
1,0.00462115,0.00633952,-0.236789,-1.39344e-08,0,
1,0.00550983,0.00712752,-0.236789,-3.00362e-08,0,
1,0.00651264,0.00784193,-0.236788,-5.66305e-08,0,
1,0.00764438,0.00842075,-0.236788,-8.63063e-08,0,
1,0.00892169,0.00877826,-0.236787,-7.20775e-08,0,
1,0.0103632,0.00880208,-0.236787,1.50824e-07,0,
1,0.0119898,0.0083589,-0.236786,1.02536e-06,0,
1,0.0138248,0.00732071,-0.236784,3.4752e-06,0,
1,0.0158944,0.00561103,-0.236781,8.87438e-06,0,
1,0.0182274,0.00324199,-0.236777,1.8412e-05,0,
1,0.0208562,0.000299445,-0.23677,3.23399e-05,0,
1,0.0238164,-0.00311701,-0.23676,4.96343e-05,0,
1,0.0271475,-0.00693579,-0.236747,6.94343e-05,0,
1,0.0308929,-0.0111207,-0.23673,9.06058e-05,0,
1,0.0351001,-0.0156608,-0.236709,0.000112348,0,
1,0.0398209,-0.0205504,-0.236685,0.000133948,0,
1,0.0451115,-0.0257732,-0.236657,0.000154635,0,
1,0.0510323,-0.0312905,-0.236628,0.000173498,0,
1,0.057648,-0.0370335,-0.236598,0.000189479,0,
1,0.0650269,-0.0428997,-0.236569,0.000201411,0,
1,0.0732406,-0.0487562,-0.236544,0.000208115,0,
1,0.0823632,-0.0544471,-0.236525,0.000208524,0,
1,0.0924701,-0.0598066,-0.236515,0.000201852,0,
1,0.103636,-0.0646753,-0.23652,0.000187727,0,
1,0.115935,-0.0689159,-0.236542,0.000166226,0,
1,0.129436,-0.0724265,-0.236584,0.000137898,0,
1,0.144202,-0.0751461,-0.236649,0.000103676,0,
1,0.160284,-0.077053,-0.236739,6.4704e-05,0,
1,0.177724,-0.0781572,-0.236853,2.2141e-05,0,
1,0.196544,-0.0784913,-0.236991,-2.29799e-05,0,
1,0.21675,-0.0781004,-0.237151,-6.98128e-05,0,
1,0.238323,-0.0770353,-0.237329,-0.000117678,0,
1,0.26122,-0.0753482,-0.237522,-0.000165993,0,
1,0.28537,-0.0730906,-0.237725,-0.000214199,0,
1,0.310673,-0.0703133,-0.237932,-0.000261704,0,
1,0.337003,-0.067067,-0.238138,-0.000307866,0,
1,0.364206,-0.0634035,-0.238337,-0.000351982,0,
1,0.392107,-0.0593765,-0.238523,-0.000393272,0,
1,0.420509,-0.0550425,-0.238692,-0.000430905,0,
1,0.449206,-0.0504609,-0.23884,-0.000464011,0,
1,0.477982,-0.0456932,-0.238962,-0.000491729,0,
1,0.506624,-0.0408015,-0.239056,-0.000513257,0,
1,0.534925,-0.0358438,-0.239123,-0.000528068,0,
1,0.562692,-0.030865,-0.239161,-0.000536158,0,
1,0.589754,-0.0258841,-0.239171,-0.000538768,0,
1,0.615961,-0.0208725,-0.239151,-0.000538951,0,
1,0.641193,-0.0157375,-0.239099,-0.000541493,0,
1,0.665359,-0.0103223,-0.239006,-0.000563336,0,
1,0.688396,-0.00436367,-0.238867,-0.000614767,0,
1,0.710271,0.00258293,-0.23868,-0.000716822,0,
1,0.730976,0.0111349,-0.238449,-0.000894882,0,
1,0.750529,0.0219728,-0.238185,-0.00117452,0,
1,0.768969,0.035606,-0.237898,-0.00157468,0,
1,0.78635,0.0520987,-0.237598,-0.00210194,0,
1,0.802743,0.0710059,-0.237284,-0.00273912,0,
1,0.818232,0.0916111,-0.236969,-0.00344648,0,
1,0.832689,0.112944,-0.236648,-0.00417871,0,
1,0.846039,0.134188,-0.23633,-0.00489471,0,
1,0.858357,0.154923,-0.236014,-0.00557014,0,
1,0.869723,0.17489,-0.235702,-0.00619384,0,
1,0.880212,0.193939,-0.235394,-0.00676058,0,
1,0.889898,0.211991,-0.235092,-0.00726865,0,
1,0.898852,0.229018,-0.234798,-0.00771935,0,
1,0.907141,0.245024,-0.234513,-0.00811854,0,
1,0.914826,0.260049,-0.234237,-0.00846654,0,
1,0.921966,0.274162,-0.233968,-0.00876798,0,
1,0.928616,0.287449,-0.233704,-0.00902797,0,
1,0.934823,0.300003,-0.233445,-0.00924915,0,
1,0.940633,0.311908,-0.233192,-0.00943825,0,
1,0.946088,0.32324,-0.232945,-0.00959891,0,
1,0.951224,0.334064,-0.232704,-0.00973407,0,
1,0.956076,0.344439,-0.23247,-0.00984623,0,
1,0.960675,0.354416,-0.232242,-0.00993758,0,
1,0.965047,0.364043,-0.23202,-0.01001,0,
1,0.969219,0.373362,-0.231804,-0.010065,0,
1,0.973211,0.382413,-0.231593,-0.0101041,0,
1,0.977045,0.391231,-0.231387,-0.0101282,0,
1,0.980739,0.399849,-0.231185,-0.0101384,0,
1,0.984308,0.408297,-0.230988,-0.0101353,0,
1,0.987768,0.416603,-0.230795,-0.0101196,0,
1,0.991131,0.424794,-0.230605,-0.0100917,0,
1,0.99441,0.432894,-0.230418,-0.0100518,0,
1,0.997615,0.440924,-0.230234,-0.0100001,0,
1,1.00076,0.448906,-0.230052,-0.00993676,0,
1,1.00384,0.45686,-0.229872,-0.00986168,0,
1,1.00688,0.464805,-0.229694,-0.00977472,0,
1,1.00988,0.472759,-0.229518,-0.00967578,0,
1,1.01581,0.488851,-0.229169,-0.00944014,0,
1,1.01882,0.497208,-0.228991,-0.00929704,0,
1,1.02188,0.505838,-0.22881,-0.00913478,0,
1,1.025,0.514772,-0.228627,-0.00895149,0,
1,1.02818,0.524039,-0.228443,-0.00874542,0,
1,1.03144,0.533665,-0.228256,-0.00851597,0,
1,1.03478,0.543673,-0.228069,-0.00825954,0,
1,1.03822,0.554087,-0.22788,-0.00797369,0,
1,1.04177,0.564928,-0.22769,-0.00765584,0,
1,1.04544,0.576214,-0.227499,-0.00730344,0,
1,1.04925,0.587956,-0.227308,-0.00691408,0,
1,1.05321,0.600149,-0.227117,-0.00648597,0,
1,1.05735,0.612773,-0.226926,-0.0060183,0,
1,1.06169,0.625773,-0.226739,-0.00551228,0,
1,1.06626,0.639054,-0.226555,-0.00497231,0,
1,1.07108,0.65246,-0.226377,-0.00440754,0,
1,1.07618,0.665767,-0.226208,-0.00383341,0,
1,1.0816,0.678685,-0.226049,-0.00327205,0,
1,1.08738,0.690891,-0.225905,-0.00275014,0,
1,1.09357,0.702098,-0.225775,-0.00229338,0,
1,1.10022,0.712137,-0.225661,-0.00191955,0,
1,1.10739,0.721019,-0.225558,-0.0016342,0,
1,1.11514,0.728912,-0.225462,-0.00143143,0,
1,1.12354,0.736072,-0.225366,-0.0012977,0,
1,1.13268,0.742766,-0.225263,-0.00121608,0,
1,1.14266,0.749223,-0.225147,-0.00117031,0,
1,1.15357,0.755616,-0.225012,-0.00114686,0,
1,1.16554,0.762066,-0.224854,-0.00113553,0,
1,1.1787,0.768652,-0.224669,-0.00112954,0,
1,1.1932,0.77542,-0.224454,-0.00112502,0,
1,1.2092,0.7824,-0.224202,-0.00111951,0,
1,1.22689,0.789608,-0.223909,-0.00111196,0,
1,1.24659,0.797096,-0.223567,-0.00110148,0,
1,1.26879,0.80495,-0.223163,-0.00108919,0,
1,1.29378,0.813176,-0.222684,-0.00107513,0,
1,1.3219,0.821776,-0.222122,-0.00105942,0,
1,1.35351,0.830765,-0.221459,-0.00104312,0,
1,1.389,0.84018,-0.220655,-0.00100331,0,
1,1.42882,0.850042,-0.219713,-0.000961429,0,
1,1.47342,0.860368,-0.218632,-0.000920115,0,
1,1.52332,0.871218,-0.217381,-0.000876954,0,
1,1.57905,0.882697,-0.215941,-0.000830417,0,
1,1.64119,0.894937,-0.214287,-0.000778446,0,
1,1.71033,0.908094,-0.212397,-0.000718811,0,
1,1.78711,0.922313,-0.21025,-0.000649108,0,
1,1.87215,0.937648,-0.207824,-0.000568018,0,
1,1.9661,0.953933,-0.205103,-0.000476065,0,
1,2.06959,0.970617,-0.202059,-0.00037788,0,
1,2.18321,0.986694,-0.198721,-0.00027208,0,
1,2.30752,1.00084,-0.195134,-0.000139465,0,
1,2.44299,1.01149,-0.191284,-4.63649e-05,0,
1,2.59002,1.01726,-0.187234,-4.23229e-06,0,
1,2.74885,1.01802,-0.183077,1.14484e-06,0,
1,2.91959,1.01557,-0.178883,1.04234e-07,0,
1,3.10217,1.01235,-0.174716,5.64055e-08,0,
1,3.2963,1.00975,-0.170621,4.45327e-08,0,
1,3.50146,1.00789,-0.166634,3.5645e-08,0,
1,3.7169,1.00639,-0.162787,3.11181e-08,0,
1,3.94163,1.00495,-0.159113,2.88509e-08,0,
1,4.17441,1.00351,-0.155641,2.6887e-08,0,
1,4.41376,1.00212,-0.15239,2.46898e-08,0,
1,4.65805,1.00082,-0.149376,2.23786e-08,0,
1,4.90545,0.999642,-0.146605,2.02058e-08,0,
1,5.15407,0.998575,-0.144079,1.82363e-08,0,
1,5.40194,0.997616,-0.141795,1.65104e-08,0,
1,5.64716,0.996756,-0.139744,1.50936e-08,0,
1,5.88785,0.995966,-0.137916,1.40772e-08,0,
1,6.12229,0.995213,-0.136297,1.32283e-08,0,
1,6.34896,0.994527,-0.134871,1.17133e-08,0,
1,6.56652,0.994102,-0.133623,9.02489e-09,0,
1,6.77388,0.994238,-0.132536,1.43802e-09,0,
1,6.97022,0.994887,-0.13159,8.51608e-09,0,
1,7.15495,0.994896,-0.130768,1.78817e-06,0,
1,7.32773,0.991771,-0.130061,1.86451e-05,0,
1,7.48842,0.98294,-0.129459,7.84816e-05,0,
1,7.63711,0.967891,-0.128968,0.000212615,0,
1,7.77403,0.948642,-0.128551,0.000403184,0,
1,7.89956,0.927571,-0.1282,0.000561257,0,
1,8.01417,0.906306,-0.127934,0.000717688,0,
1,8.11843,0.886035,-0.12771,0.000852438,0,
1,8.21296,0.867244,-0.127538,0.000960643,0,
1,8.29839,0.849916,-0.127401,0.00104479,0,
1,8.3754,0.833798,-0.127298,0.00110961,0,
1,8.44464,0.818586,-0.127219,0.00116012,0,
1,8.50675,0.804003,-0.127162,0.00120117,0,
1,8.56236,0.78981,-0.12712,0.00122961,0,
1,8.61206,0.775842,-0.127089,0.00125712,0,
1,8.6564,0.762038,-0.127068,0.00128165,0,
1,8.69591,0.748363,-0.127054,0.00130257,0,
1,8.73107,0.734787,-0.127045,0.00132016,0,
1,8.76232,0.721286,-0.12704,0.00133473,0,
1,8.79007,0.707839,-0.127037,0.00134654,0,
1,8.81469,0.694428,-0.127037,0.0013558,0,
1,8.83651,0.681033,-0.127039,0.00136271,0,
1,8.85584,0.66764,-0.127041,0.0013674,0,
1,8.87295,0.654231,-0.127044,0.00137003,0,
1,8.8881,0.640789,-0.127048,0.0013707,0,
1,8.90149,0.627295,-0.127051,0.00136952,0,
1,8.91333,0.613728,-0.127055,0.00136658,0,
1,8.92379,0.600065,-0.127058,0.00136192,0,
1,8.93303,0.586279,-0.127062,0.00135558,0,
1,8.9412,0.572339,-0.127065,0.00134756,0,
1,8.9484,0.558209,-0.127068,0.00133782,0,
1,8.95476,0.543848,-0.12707,0.00132626,0,
1,8.96038,0.529207,-0.127072,0.00131273,0,
1,8.96533,0.51423,-0.127074,0.00129697,0,
1,8.9697,0.49885,-0.127076,0.00127866,0,
1,8.97356,0.482988,-0.127078,0.0012573,0,
1,8.97696,0.466553,-0.127079,0.00123223,0,
1,8.97996,0.449433,-0.12708,0.00120254,0,
1,8.98261,0.431496,-0.127081,0.00116705,0,
1,8.98494,0.412584,-0.127082,0.0011249,0,
1,8.98699,0.392481,-0.127082,0.00107154,0,
1,8.98881,0.370889,-0.127083,0.00100213,0,
1,8.99041,0.347504,-0.127083,0.000917088,0,
1,8.99182,0.322085,-0.127084,0.000813508,0,
1,8.99306,0.294457,-0.127084,0.000689611,0,
1,8.99416,0.264405,-0.127084,0.00053045,0,
1,8.99512,0.231881,-0.127084,0.000350273,0,
1,8.99597,0.197721,-0.127085,0.00019172,0,
1,8.99672,0.163689,-0.127084,8.31657e-05,0,
1,8.99739,0.13157,-0.127085,2.82364e-05,0,
1,8.99797,0.102418,-0.127084,7.48247e-06,0,
1,8.99848,0.0764836,-0.127085,1.49885e-06,0,
1,8.99894,0.0535879,-0.127085,2.04531e-07,0,
1,8.99934,0.0334182,-0.127085,1.48282e-08,0,
1,8.99969,0.0156564,-0.127085,3.17233e-10,0,

4,0,0,-0.114714,0,0,
4,9,0,-0.0961609,0,0,
4,1.05136,0.676174,-0.121985,-0.00432344,0,
4,0.000303409,-0.00640719,-0.114718,8.55132e-11,0,
4,0.00062865,-0.0131294,-0.114715,3.48985e-09,0,
4,0.000979511,-0.0202141,-0.114718,4.06504e-08,0,
4,0.00136016,-0.0277032,-0.114716,2.52117e-07,0,
4,0.00177519,-0.0356295,-0.114719,1.08671e-06,0,
4,0.0022297,-0.0440042,-0.114717,3.69636e-06,0,
4,0.00272934,-0.0527873,-0.114719,1.05623e-05,0,
4,0.00328037,-0.061832,-0.114718,2.59902e-05,0,
4,0.00388979,-0.0708093,-0.114721,5.49964e-05,0,
4,0.00456537,-0.0791884,-0.114721,9.86033e-05,0,
4,0.00531578,-0.0864045,-0.114725,0.000148451,0,
4,0.0061507,-0.092152,-0.11473,0.000190092,0,
4,0.0070809,-0.0964863,-0.114739,0.000213819,0,
4,0.00811839,-0.0996657,-0.11475,0.000218784,0,
4,0.00927657,-0.101971,-0.114767,0.000208618,0,
4,0.0105703,-0.103626,-0.114787,0.000187115,0,
4,0.0120162,-0.10479,-0.114814,0.000156838,0,
4,0.0136326,-0.105572,-0.114845,0.000119201,0,
4,0.0154398,-0.106044,-0.114885,7.48372e-05,0,
4,0.0174603,-0.106255,-0.114931,2.38846e-05,0,
4,0.0197189,-0.106236,-0.114986,-3.38374e-05,0,
4,0.0222427,-0.106008,-0.11505,-9.87247e-05,0,
4,0.0250617,-0.105584,-0.115126,-0.000171331,0,
4,0.0282081,-0.104969,-0.115213,-0.000252333,0,
4,0.0317171,-0.104166,-0.115314,-0.000342514,0,
4,0.0356266,-0.103173,-0.11543,-0.000442746,0,
4,0.039977,-0.101985,-0.115562,-0.000553981,0,
4,0.0448114,-0.100595,-0.115711,-0.000677243,0,
4,0.0501747,-0.098993,-0.11588,-0.000813613,0,
4,0.056114,-0.0971679,-0.11607,-0.000964217,0,
4,0.062677,-0.0951059,-0.11628,-0.0011302,0,
4,0.0699123,-0.0927915,-0.116514,-0.00131272,0,
4,0.0778675,-0.0902076,-0.11677,-0.0015129,0,
4,0.0865883,-0.0873357,-0.117049,-0.00173179,0,
4,0.0961173,-0.0841559,-0.11735,-0.00197034,0,
4,0.106492,-0.0806472,-0.117673,-0.00222936,0,
4,0.117744,-0.0767881,-0.118015,-0.00250944,0,
4,0.129894,-0.0725567,-0.118375,-0.00281091,0,
4,0.142956,-0.067932,-0.118749,-0.0031338,0,
4,0.156928,-0.0628938,-0.119135,-0.00347776,0,
4,0.171798,-0.0574248,-0.119528,-0.00384208,0,
4,0.187537,-0.0515108,-0.119926,-0.00422561,0,
4,0.2041,-0.0451425,-0.120323,-0.00462681,0,
4,0.221432,-0.0383171,-0.120718,-0.00504379,0,
4,0.239458,-0.0310388,-0.121105,-0.00547451,0,
4,0.258095,-0.0233195,-0.121483,-0.00591691,0,
4,0.27725,-0.0151768,-0.121848,-0.00636874,0,
4,0.296825,-0.00662991,-0.122199,-0.00682586,0,
4,0.316717,0.00230408,-0.122538,-0.0072824,0,
4,0.336828,0.0116043,-0.122862,-0.00773662,0,
4,0.357066,0.0212387,-0.123173,-0.00819009,0,
4,0.377348,0.0311677,-0.123451,-0.00864206,0,
4,0.397605,0.0413576,-0.123777,-0.00910028,0,
4,0.417786,0.0518132,-0.123925,-0.00973709,0,
4,0.437857,0.0629472,-0.123532,-0.00994965,0,
4,0.457804,0.0753435,-0.122888,-0.0101683,0,
4,0.477632,0.0891507,-0.122448,-0.0103908,0,
4,0.497368,0.1042,-0.122218,-0.0105979,0,
4,0.517057,0.120205,-0.122142,-0.010776,0,
4,0.536763,0.136931,-0.122145,-0.0109177,0,
4,0.556564,0.154286,-0.122171,-0.0110205,0,
4,0.576557,0.172309,-0.122188,-0.0110841,0,
4,0.596848,0.19113,-0.122189,-0.011108,0,
4,0.617561,0.210923,-0.122175,-0.0110902,0,
4,0.637962,0.231066,-0.122152,-0.0110306,0,
4,0.657495,0.251028,-0.122127,-0.010933,0,
4,0.676218,0.270818,-0.122107,-0.0108002,0,
4,0.694189,0.29043,-0.122091,-0.0106347,0,
4,0.711463,0.309847,-0.122079,-0.0104395,0,
4,0.728096,0.329051,-0.12207,-0.0102179,0,
4,0.744138,0.348014,-0.122064,-0.00997416,0,
4,0.759639,0.366697,-0.12206,-0.00971294,0,
4,0.774643,0.385049,-0.122056,-0.00944003,0,
4,0.789195,0.403007,-0.122054,-0.00916038,0,
4,0.803334,0.420513,-0.122051,-0.00887763,0,
4,0.817097,0.437518,-0.122048,-0.00859486,0,
4,0.830518,0.453986,-0.122044,-0.00831464,0,
4,0.843629,0.469895,-0.122038,-0.00803903,0,
4,0.856459,0.485235,-0.122032,-0.00776969,0,
4,0.869035,0.5,-0.122025,-0.00750792,0,
4,0.881383,0.514194,-0.122019,-0.0072547,0,
4,0.893524,0.527827,-0.122014,-0.00701073,0,
4,0.905481,0.540914,-0.122011,-0.00677646,0,
4,0.917272,0.553477,-0.122012,-0.00655206,0,
4,0.928915,0.565544,-0.122016,-0.00633745,0,
4,0.940428,0.577147,-0.122023,-0.00613294,0,
4,0.951826,0.588318,-0.12203,-0.005939,0,
4,0.963124,0.599087,-0.122038,-0.0057547,0,
4,0.974334,0.609489,-0.122046,-0.00557907,0,
4,0.98547,0.619559,-0.122052,-0.00541105,0,
4,0.996544,0.629341,-0.122057,-0.00524939,0,
4,1.00757,0.638889,-0.122057,-0.00509245,0,
4,1.01855,0.648288,-0.122047,-0.00491888,0,
4,1.0295,0.657628,-0.122029,-0.00472625,0,
4,1.04044,0.666931,-0.122008,-0.00453141,0,
4,1.0623,0.685343,-0.121961,-0.00410337,0,
4,1.07328,0.69442,-0.121935,-0.00387281,0,
4,1.08432,0.703368,-0.121906,-0.00363395,0,
4,1.09543,0.712143,-0.121875,-0.00338937,0,
4,1.10661,0.720701,-0.121842,-0.00314212,0,
4,1.11788,0.728992,-0.121806,-0.00289566,0,
4,1.12925,0.736966,-0.121768,-0.00265378,0,
4,1.14073,0.744578,-0.121726,-0.00242041,0,
4,1.15233,0.751787,-0.121682,-0.00219939,0,
4,1.16408,0.758561,-0.121634,-0.00199421,0,
4,1.17599,0.764886,-0.121582,-0.00180769,0,
4,1.18806,0.770759,-0.121527,-0.00164176,0,
4,1.20034,0.776198,-0.121469,-0.00149736,0,
4,1.21282,0.781234,-0.121407,-0.0013744,0,
4,1.22554,0.785909,-0.121343,-0.00127188,0,
4,1.23852,0.790275,-0.121275,-0.00118817,0,
4,1.25179,0.794384,-0.121204,-0.00112114,0,
4,1.26537,0.798288,-0.121131,-0.00106848,0,
4,1.2793,0.802037,-0.121055,-0.00102784,0,
4,1.29362,0.805677,-0.120976,-0.00099698,0,
4,1.30836,0.809248,-0.120895,-0.000973823,0,
4,1.32357,0.812784,-0.12081,-0.000956548,0,
4,1.3393,0.816317,-0.120722,-0.000943557,0,
4,1.3556,0.819873,-0.12063,-0.000933549,0,
4,1.37252,0.823477,-0.120535,-0.000925336,0,
4,1.39015,0.827149,-0.120433,-0.000919204,0,
4,1.40855,0.830916,-0.12033,-0.000915585,0,
4,1.42781,0.834845,-0.120236,-0.00089831,0,
4,1.44801,0.838996,-0.120139,-0.000880681,0,
4,1.46926,0.843382,-0.120031,-0.000862487,0,
4,1.49167,0.847998,-0.119912,-0.00084348,0,
4,1.51537,0.852842,-0.119782,-0.000823811,0,
4,1.54091,0.857998,-0.119637,-0.000803409,0,
4,1.56949,0.863673,-0.119472,-0.000781706,0,
4,1.60144,0.869927,-0.119284,-0.000757793,0,
4,1.63713,0.876803,-0.119069,-0.000731135,0,
4,1.67693,0.88433,-0.118824,-0.000701227,0,
4,1.72128,0.892524,-0.118545,-0.000667655,0,
4,1.77062,0.901378,-0.118224,-0.000630323,0,
4,1.82542,0.910846,-0.117863,-0.000589094,0,
4,1.88618,0.920847,-0.117446,-0.00054387,0,
4,1.95343,0.931315,-0.116989,-0.000477042,0,
4,2.02768,0.942127,-0.116487,-0.000395262,0,
4,2.10949,0.952944,-0.115922,-0.000306387,0,
4,2.19939,0.963201,-0.115299,-0.000216458,0,
4,2.29789,0.972226,-0.114613,-0.000134653,0,
4,2.40551,0.979337,-0.113868,-6.92785e-05,0,
4,2.52268,0.983995,-0.113071,-2.53665e-05,0,
4,2.64979,0.986023,-0.112228,-3.27291e-06,0,
4,2.78715,0.985796,-0.11135,2.61385e-06,0,
4,2.93497,0.984237,-0.110445,1.58125e-06,0,
4,3.09333,0.982464,-0.109522,3.22573e-07,0,
4,3.26217,0.981258,-0.108593,3.15022e-08,0,
4,3.44125,0.98077,-0.107669,6.46163e-09,0,
4,3.63018,0.980705,-0.106757,3.00817e-09,0,
4,3.82836,0.980716,-0.105865,2.9884e-09,0,
4,4.03501,0.980623,-0.105,3.94212e-09,0,
4,4.24915,0.980422,-0.104168,4.53269e-09,0,
4,4.46961,0.980178,-0.103374,4.51708e-09,0,
4,4.69507,0.979944,-0.102623,4.16354e-09,0,
4,4.92406,0.979738,-0.101916,3.77509e-09,0,
4,5.15502,0.979554,-0.101257,3.49002e-09,0,
4,5.3863,0.979383,-0.100647,3.38054e-09,0,
4,5.61626,0.97921,-0.100084,3.56396e-09,0,
4,5.84328,0.979022,-0.0995706,4.35554e-09,0,
4,6.06579,0.97882,-0.0991037,6.48155e-09,0,
4,6.28238,0.97867,-0.0986821,8.36724e-09,0,
4,6.49173,0.978735,-0.0983033,-2.07825e-08,0,
4,6.69275,0.97918,-0.0979638,-2.05887e-07,0,
4,6.88453,0.979847,-0.0976595,-2.68702e-07,0,
4,7.06634,0.979795,-0.0973858,4.12168e-06,0,
4,7.23771,0.977179,-0.0971433,2.74278e-05,0,
4,7.39831,0.969949,-0.096929,9.06494e-05,0,
4,7.54803,0.957163,-0.0967538,0.000208247,0,
4,7.68693,0.93968,-0.0966048,0.00035783,0,
4,7.81519,0.919374,-0.0964678,0.00050008,0,
4,7.93313,0.89817,-0.0963625,0.000649598,0,
4,8.04115,0.8776,-0.0962674,0.000787685,0,
4,8.13974,0.858425,-0.0961915,0.000904022,0,
4,8.22941,0.840774,-0.0961313,0.00099734,0,
4,8.31073,0.824447,-0.096087,0.00107095,0,
4,8.38429,0.80913,-0.0960565,0.00112895,0,
4,8.45065,0.794516,-0.0960377,0.00117566,0,
4,8.5104,0.780345,-0.0960276,0.00121331,0,
4,8.56407,0.766419,-0.0960246,0.00124363,0,
4,8.61222,0.752646,-0.0960265,0.00127235,0,
4,8.65533,0.739001,-0.0960306,0.0012967,0,
4,8.69387,0.725468,-0.0960371,0.00131685,0,
4,8.7283,0.712034,-0.0960447,0.00133319,0,
4,8.75901,0.698685,-0.0960533,0.00134599,0,
4,8.78637,0.68541,-0.0960621,0.00135549,0,
4,8.81074,0.672202,-0.0960712,0.0013619,0,
4,8.83242,0.659049,-0.09608,0.00136543,0,
4,8.85169,0.645945,-0.0960885,0.00136629,0,
4,8.86881,0.632877,-0.0960965,0.0013647,0,
4,8.88402,0.619833,-0.0961041,0.00136088,0,
4,8.89751,0.606797,-0.096111,0.00135505,0,
4,8.90949,0.593751,-0.0961174,0.00134741,0,
4,8.92011,0.580674,-0.0961231,0.00133812,0,
4,8.92952,0.567538,-0.0961283,0.00132733,0,
4,8.93787,0.554313,-0.0961329,0.00131513,0,
4,8.94526,0.540965,-0.096137,0.00130157,0,
4,8.95182,0.527453,-0.0961406,0.00128663,0,
4,8.95762,0.513731,-0.0961437,0.00127024,0,
4,8.96276,0.499747,-0.0961465,0.00125223,0,
4,8.96731,0.485439,-0.0961489,0.00123235,0,
4,8.97134,0.470737,-0.0961509,0.00121022,0,
4,8.97491,0.45556,-0.0961527,0.00118531,0,
4,8.97807,0.439811,-0.0961542,0.00115694,0,
4,8.98087,0.423379,-0.0961555,0.00112413,0,
4,8.98334,0.406128,-0.0961565,0.00108565,0,
4,8.98553,0.387901,-0.0961574,0.00104036,0,
4,8.98747,0.36849,-0.0961581,0.000984488,0,
4,8.98919,0.347617,-0.0961588,0.00091283,0,
4,8.9907,0.325003,-0.0961592,0.000826488,0,
4,8.99205,0.30045,-0.0961597,0.000723337,0,
4,8.99324,0.2738,-0.0961599,0.00059949,0,
4,8.99429,0.244851,-0.0961602,0.000440971,0,
4,8.99522,0.213788,-0.0961602,0.000282243,0,
4,8.99605,0.181713,-0.0961605,0.000148863,0,
4,8.99677,0.150238,-0.0961604,6.27507e-05,0,
4,8.99742,0.120809,-0.0961606,2.10092e-05,0,
4,8.99799,0.0941756,-0.0961605,5.56221e-06,0,
4,8.9985,0.0704578,-0.0961607,1.12179e-06,0,
4,8.99894,0.0494614,-0.0961605,1.54609e-07,0,
4,8.99934,0.0309041,-0.0961608,1.13241e-08,0,
4,8.99969,0.0145055,-0.0961605,2.44096e-10,0,

6,0,0,0.00616418,0,0,
6,9,0,-0.073037,0,0,
6,1.07704,0.706033,-0.00802998,-0.00241351,0,
6,0.000299862,0.00310101,0.00615799,-4.23107e-11,0,
6,0.000611645,0.00637905,0.00616292,-1.69059e-09,0,
6,0.000938257,0.00987164,0.00615808,-1.89477e-08,0,
6,0.00128281,0.0136192,0.0061618,-1.13049e-07,0,
6,0.00164864,0.0176654,0.00615795,-4.71193e-07,0,
6,0.00203939,0.0220544,0.00616075,-1.56383e-06,0,
6,0.00245897,0.0268235,0.00615757,-4.42499e-06,0,
6,0.00291168,0.031986,0.00615961,-1.10503e-05,0,
6,0.00340221,0.0375002,0.00615671,-2.46557e-05,0,
6,0.00393573,0.0432298,0.00615775,-4.90044e-05,0,
6,0.00451788,0.0489283,0.00615423,-8.59698e-05,0,
6,0.00515491,0.0542994,0.00615315,-0.000132725,0,
6,0.00585371,0.059118,0.00614728,-0.000182469,0,
6,0.00662185,0.0633058,0.00614217,-0.000228933,0,
6,0.00746774,0.0669059,0.00613203,-0.000269473,0,
6,0.00840063,0.0700168,0.00612113,-0.000304488,0,
6,0.00943073,0.0727432,0.0061051,-0.000335603,0,
6,0.0105693,0.0751757,0.00608689,-0.000364527,0,
6,0.0118288,0.0773864,0.0060633,-0.000392675,0,
6,0.0132228,0.0794312,0.00603605,-0.00042115,0,
6,0.0147664,0.0813534,0.00600284,-0.00045082,0,
6,0.016476,0.083187,0.00596435,-0.000482398,0,
6,0.0183694,0.0849591,0.0059189,-0.000516507,0,
6,0.0204662,0.0866918,0.00586638,-0.000553715,0,
6,0.0227875,0.0884039,0.00580544,-0.000594573,0,
6,0.0253561,0.0901114,0.00573544,-0.000639627,0,
6,0.0281964,0.0918286,0.00565515,-0.000689434,0,
6,0.0313344,0.0935683,0.0055636,-0.00074457,0,
6,0.0347975,0.0953426,0.00545957,-0.000805631,0,
6,0.0386145,0.0971627,0.00534193,-0.000873237,0,
6,0.042815,0.0990393,0.00520946,-0.00094803,0,
6,0.0474296,0.100983,0.00506102,-0.00103067,0,
6,0.0524888,0.103004,0.00489551,-0.00112182,0,
6,0.0580229,0.105112,0.00471194,-0.00122216,0,
6,0.0640611,0.107317,0.0045095,-0.00133235,0,
6,0.0706309,0.109628,0.00428759,-0.001453,0,
6,0.077757,0.112055,0.00404589,-0.00158471,0,
6,0.0854609,0.114607,0.00378441,-0.00172799,0,
6,0.0937597,0.117291,0.00350352,-0.00188329,0,
6,0.102665,0.120117,0.00320401,-0.00205091,0,
6,0.112183,0.12309,0.00288707,-0.00223106,0,
6,0.122315,0.126217,0.00255429,-0.00242381,0,
6,0.133052,0.129505,0.00220764,-0.00262906,0,
6,0.144384,0.132959,0.00184937,-0.00284657,0,
6,0.156292,0.136582,0.00148197,-0.00307595,0,
6,0.168754,0.140378,0.00110803,-0.00331668,0,
6,0.181744,0.144352,0.000730162,-0.00356815,0,
6,0.195237,0.148508,0.000350893,-0.00382965,0,
6,0.209207,0.152848,-2.74509e-05,-0.00410048,0,
6,0.223631,0.157381,-0.000402813,-0.00437992,0,
6,0.238493,0.162112,-0.000773464,-0.00466731,0,
6,0.253785,0.167053,-0.00113803,-0.0049621,0,
6,0.269507,0.172217,-0.00149554,-0.00526385,0,
6,0.28567,0.177623,-0.0018453,-0.00557227,0,
6,0.3023,0.183294,-0.00218707,-0.00588721,0,
6,0.319433,0.18926,-0.00252122,-0.00620931,0,
6,0.337122,0.195557,-0.00284505,-0.00653907,0,
6,0.355433,0.202237,-0.00315186,-0.00687586,0,
6,0.374445,0.209367,-0.00343377,-0.00721957,0,
6,0.394252,0.217032,-0.003683,-0.00756848,0,
6,0.414961,0.225344,-0.00389376,-0.00792109,0,
6,0.436695,0.234438,-0.00405324,-0.00827586,0,
6,0.459585,0.244478,-0.00427712,-0.00866124,0,
6,0.48378,0.255733,-0.00418972,-0.00914141,0,
6,0.508144,0.268266,-0.0034587,-0.00919104,0,
6,0.531799,0.282258,-0.00262531,-0.00922176,0,
6,0.554791,0.297753,-0.00213019,-0.00925095,0,
6,0.577166,0.314385,-0.00192399,-0.00925685,0,
6,0.598964,0.331672,-0.0019042,-0.00922277,0,
6,0.620228,0.349246,-0.00196965,-0.00914076,0,
6,0.640996,0.366917,-0.00205749,-0.00900987,0,
6,0.661304,0.384625,-0.00214197,-0.00883291,0,
6,0.681188,0.40236,-0.0022219,-0.00861432,0,
6,0.700681,0.420108,-0.00230724,-0.00835972,0,
6,0.719813,0.437814,-0.00240895,-0.0080761,0,
6,0.738612,0.455388,-0.00253346,-0.00777062,0,
6,0.757107,0.47272,-0.00268189,-0.00744961,0,
6,0.775322,0.489708,-0.00285212,-0.00711861,0,
6,0.793282,0.50627,-0.00304099,-0.00678247,0,
6,0.811008,0.522346,-0.00324617,-0.00644548,0,
6,0.828521,0.537891,-0.00346574,-0.00611148,0,
6,0.845842,0.55286,-0.00370062,-0.00578508,0,
6,0.862989,0.567207,-0.00395024,-0.00547517,0,
6,0.879979,0.580899,-0.00421116,-0.00518006,0,
6,0.896829,0.593944,-0.00448173,-0.00489859,0,
6,0.913555,0.606379,-0.00476116,-0.00462988,0,
6,0.930172,0.618252,-0.0050494,-0.00437316,0,
6,0.946694,0.629609,-0.00534647,-0.00412766,0,
6,0.963136,0.64049,-0.00565239,-0.00389257,0,
6,0.97951,0.650928,-0.00596683,-0.00366694,0,
6,0.99583,0.660955,-0.00628996,-0.00344958,0,
6,1.01211,0.67061,-0.00662096,-0.00323892,0,
6,1.02836,0.679944,-0.00696189,-0.0030227,0,
6,1.04459,0.688978,-0.00731142,-0.00281386,0,
6,1.06081,0.697686,-0.00766708,-0.00261044,0,
6,1.09329,0.71399,-0.00839941,-0.00222559,0,
6,1.10959,0.721537,-0.00877552,-0.00204915,0,
6,1.12595,0.728655,-0.00915789,-0.00188636,0,
6,1.14238,0.735339,-0.00954624,-0.00173889,0,
6,1.1589,0.741594,-0.00994025,-0.00160778,0,
6,1.17551,0.747439,-0.0103397,-0.00149335,0,
6,1.19223,0.752904,-0.0107444,-0.00139527,0,
6,1.20907,0.758026,-0.0111542,-0.0013126,0,
6,1.22605,0.762849,-0.0115691,-0.00124399,0,
6,1.24318,0.767415,-0.0119889,-0.00118779,0,
6,1.26048,0.77177,-0.0124141,-0.00114223,0,
6,1.27797,0.775952,-0.0128441,-0.00110559,0,
6,1.29566,0.779998,-0.0132803,-0.00107615,0,
6,1.31357,0.783941,-0.0137201,-0.00105362,0,
6,1.33173,0.787817,-0.0141678,-0.00104374,0,
6,1.35015,0.791735,-0.014636,-0.001013,0,
6,1.36886,0.795821,-0.0151196,-0.000981306,0,
6,1.38788,0.800091,-0.0156064,-0.000952181,0,
6,1.40725,0.804482,-0.0160962,-0.000926296,0,
6,1.42698,0.808919,-0.0165899,-0.000903127,0,
6,1.44712,0.813353,-0.017091,-0.000881895,0,
6,1.46769,0.817781,-0.017602,-0.000861304,0,
6,1.48874,0.822224,-0.018125,-0.000841036,0,
6,1.5103,0.826706,-0.0186609,-0.000820668,0,
6,1.53242,0.831249,-0.0192105,-0.00079998,0,
6,1.55515,0.835865,-0.0197746,-0.000778889,0,
6,1.57854,0.84056,-0.020354,-0.00075738,0,
6,1.60265,0.845338,-0.0209498,-0.000735439,0,
6,1.62754,0.850199,-0.0215634,-0.000713016,0,
6,1.65329,0.855145,-0.0221959,-0.000690147,0,
6,1.67998,0.860177,-0.0228492,-0.000666739,0,
6,1.70768,0.865296,-0.0235238,-0.000642849,0,
6,1.73712,0.870602,-0.0242401,-0.000618352,0,
6,1.76996,0.876331,-0.0250332,-0.000591973,0,
6,1.80655,0.882515,-0.0259119,-0.000563085,0,
6,1.84728,0.889133,-0.0268835,-0.000531757,0,
6,1.89255,0.896152,-0.0279514,-0.000497568,0,
6,1.9428,0.903585,-0.0291303,-0.00044617,0,
6,1.99849,0.911405,-0.0304252,-0.000388533,0,
6,2.06009,0.919446,-0.0318327,-0.000325184,0,
6,2.1281,0.927427,-0.0333599,-0.000258979,0,
6,2.20301,0.935008,-0.0350026,-0.000194519,0,
6,2.28535,0.941822,-0.0367578,-0.000135649,0,
6,2.37559,0.947507,-0.0386156,-8.58695e-05,0,
6,2.47424,0.95178,-0.0405616,-4.78331e-05,0,
6,2.58172,0.954507,-0.0425761,-2.25621e-05,0,
6,2.69844,0.9558,-0.0446356,-8.7892e-06,0,
6,2.82473,0.956048,-0.0467146,-3.04412e-06,0,
6,2.96084,0.955843,-0.048788,-1.2304e-06,0,
6,3.10691,0.955782,-0.0508337,-5.88374e-07,0,
6,3.26296,0.956231,-0.0528332,-2.30301e-07,0,
6,3.42888,0.957211,-0.05477,-7.13275e-08,0,
6,3.60438,0.958489,-0.0566285,-3.2539e-08,0,
6,3.78902,0.959777,-0.0583934,-2.5717e-08,0,
6,3.98218,0.960895,-0.060051,-2.16916e-08,0,
6,4.18307,0.961812,-0.0615909,-1.82532e-08,0,
6,4.39071,0.96258,-0.0630064,-1.57233e-08,0,
6,4.60398,0.96326,-0.0642947,-1.3864e-08,0,
6,4.82159,0.963883,-0.0654563,-1.23872e-08,0,
6,5.04218,0.964453,-0.0664948,-1.11766e-08,0,
6,5.26426,0.964962,-0.0674157,-1.04356e-08,0,
6,5.48633,0.965398,-0.0682262,-1.0783e-08,0,
6,5.70687,0.965756,-0.0689349,-1.37322e-08,0,
6,5.92439,0.966039,-0.0695506,-2.35216e-08,0,
6,6.1375,0.966296,-0.0700824,-5.57611e-08,0,
6,6.34489,0.966639,-0.0705394,-1.75237e-07,0,
6,6.5454,0.96721,-0.0709299,-5.65995e-07,0,
6,6.73802,0.967999,-0.0712612,-1.21986e-06,0,
6,6.92195,0.968511,-0.0715407,3.27844e-07,0,
6,7.09653,0.967519,-0.0717742,1.35017e-05,0,
6,7.26132,0.963269,-0.0719716,5.50536e-05,0,
6,7.41603,0.954291,-0.072132,0.000140807,0,
6,7.56054,0.940314,-0.0722731,0.000276327,0,
6,7.6949,0.922299,-0.0723885,0.000398448,0,
6,7.81927,0.901845,-0.0724711,0.000533852,0,
6,7.93391,0.880807,-0.0725395,0.000673499,0,
6,8.0392,0.860626,-0.0725857,0.00080091,0,
6,8.13555,0.841946,-0.0726237,0.000908536,0,
6,8.22344,0.824795,-0.0726541,0.000995844,0,
6,8.30339,0.808906,-0.0726832,0.00106604,0,
6,8.37592,0.793935,-0.0727111,0.00112263,0,
6,8.44155,0.779573,-0.0727389,0.00116926,0,
6,8.50082,0.765588,-0.0727659,0.00120885,0,
6,8.55423,0.751831,-0.0727918,0.00124311,0,
6,8.60229,0.738222,-0.0728161,0.00127285,0,
6,8.64545,0.724734,-0.072839,0.00129824,0,
6,8.68417,0.711357,-0.0728605,0.00131852,0,
6,8.71885,0.698089,-0.07288,0.00133432,0,
6,8.74989,0.684926,-0.0728978,0.00134598,0,
6,8.77763,0.671864,-0.072914,0.00135385,0,
6,8.80241,0.6589,-0.0729287,0.00135824,0,
6,8.82452,0.646029,-0.072942,0.00135946,0,
6,8.84423,0.633243,-0.072954,0.00135782,0,
6,8.86181,0.620533,-0.0729648,0.00135361,0,
6,8.87746,0.607889,-0.0729743,0.00134715,0,
6,8.89139,0.595293,-0.0729829,0.00133872,0,
6,8.90379,0.582729,-0.0729904,0.00132856,0,
6,8.91482,0.570173,-0.0729971,0.00131692,0,
6,8.92463,0.557601,-0.0730029,0.00130398,0,
6,8.93334,0.544982,-0.073008,0.00128987,0,
6,8.94109,0.532284,-0.0730124,0.0012747,0,
6,8.94798,0.519469,-0.0730163,0.00125848,0,
6,8.95409,0.506494,-0.0730196,0.0012412,0,
6,8.95953,0.49331,-0.0730224,0.00122274,0,
6,8.96435,0.479864,-0.0730249,0.00120293,0,
6,8.96863,0.466093,-0.073027,0.00118146,0,
6,8.97244,0.451926,-0.0730287,0.00115796,0,
6,8.97581,0.437281,-0.0730302,0.00113186,0,
6,8.97881,0.422062,-0.0730314,0.00110243,0,
6,8.98147,0.406158,-0.0730325,0.0010687,0,
6,8.98383,0.389436,-0.0730334,0.00102941,0,
6,8.98593,0.371742,-0.0730341,0.000983408,0,
6,8.98779,0.352874,-0.0730347,0.000926821,0,
6,8.98944,0.33257,-0.0730352,0.000855202,0,
6,8.9909,0.310576,-0.0730355,0.000769682,0,
6,8.9922,0.286722,-0.0730359,0.000668576,0,
6,8.99336,0.260846,-0.073036,0.000544626,0,
6,8.99438,0.232792,-0.0730363,0.000393018,0,
6,8.99529,0.202872,-0.0730363,0.000245739,0,
6,8.99609,0.172229,-0.0730366,0.000126738,0,
6,8.99681,0.14238,-0.0730365,5.26017e-05,0,
6,8.99744,0.114582,-0.0730367,1.75042e-05,0,
6,8.99801,0.0894384,-0.0730365,4.64116e-06,0,
6,8.9985,0.0670125,-0.0730368,9.41384e-07,0,
6,8.99895,0.047113,-0.0730365,1.30694e-07,0,
6,8.99934,0.0294794,-0.0730369,9.64204e-09,0,
6,8.99969,0.013856,-0.0730365,2.08947e-10,0,

10,0,0,-0.0161875,0,0,
10,0.000296632,0.00721418,-0.0161786,-3.49031e-11,0,
10,0.000596102,0.0144675,-0.0161866,-1.28874e-09,0,
10,0.000900397,0.0218086,-0.0161793,-1.30568e-08,0,
10,0.00121153,0.0292863,-0.0161859,-6.99386e-08,0,
10,0.00153158,0.0369486,-0.0161799,-2.60903e-07,0,
10,0.00186264,0.0448431,-0.0161853,-7.74269e-07,0,
10,0.00220692,0.0530142,-0.0161804,-1.96425e-06,0,
10,0.00256668,0.0615007,-0.0161848,-4.44148e-06,0,
10,0.00294431,0.0703297,-0.0161808,-9.17707e-06,0,
10,0.00334229,0.0795078,-0.0161845,-1.75793e-05,0,
10,0.00376326,0.0890098,-0.0161811,-3.14539e-05,0,
10,0.00421,0.0987654,-0.0161842,-5.27206e-05,0,
10,0.00468544,0.108652,-0.0161813,-8.28176e-05,0,
10,0.00519274,0.1185,-0.0161839,-0.000121953,0,
10,0.00573524,0.128114,-0.0161814,-0.000168644,0,
10,0.00631651,0.137307,-0.0161835,-0.000219962,0,
10,0.00694041,0.145932,-0.0161813,-0.000272418,0,
10,0.00761104,0.153901,-0.016183,-0.000322949,0,
10,0.00833284,0.161183,-0.0161811,-0.000369501,0,
10,0.00911058,0.167792,-0.0161822,-0.000411108,0,
10,0.0099494,0.173774,-0.0161805,-0.00044767,0,
10,0.0108548,0.179191,-0.0161811,-0.00047963,0,
10,0.0118329,0.18411,-0.0161795,-0.000507705,0,
10,0.0128901,0.188598,-0.0161796,-0.0005327,0,
10,0.0140333,0.192717,-0.0161779,-0.000555394,0,
10,0.0152702,0.19652,-0.0161775,-0.000576494,0,
10,0.0166089,0.200057,-0.0161758,-0.000596617,0,
10,0.0180584,0.20337,-0.0161748,-0.000616294,0,
10,0.0196282,0.206493,-0.0161729,-0.000635982,0,
10,0.0213288,0.209458,-0.0161713,-0.000656076,0,
10,0.0231714,0.212292,-0.0161691,-0.000676929,0,
10,0.0251682,0.215018,-0.016167,-0.000698859,0,
10,0.0273326,0.217656,-0.0161643,-0.000722161,0,
10,0.0296789,0.220225,-0.0161616,-0.000747118,0,
10,0.0322227,0.22274,-0.0161584,-0.000774008,0,
10,0.0349809,0.225217,-0.016155,-0.000803105,0,
10,0.0379719,0.227669,-0.0161512,-0.000834693,0,
10,0.0412155,0.230108,-0.016147,-0.000869062,0,
10,0.0447333,0.232548,-0.0161424,-0.000906516,0,
10,0.0485489,0.235,-0.0161375,-0.000947377,0,
10,0.0526875,0.237475,-0.0161321,-0.000991985,0,
10,0.0571768,0.239985,-0.0161263,-0.0010407,0,
10,0.0620466,0.242541,-0.0161201,-0.00109392,0,
10,0.0673295,0.245156,-0.0161134,-0.00115206,0,
10,0.0730607,0.247841,-0.0161063,-0.00121556,0,
10,0.0792784,0.25061,-0.0160989,-0.00128491,0,
10,0.0860241,0.253476,-0.0160911,-0.00136063,0,
10,0.0933428,0.256454,-0.016083,-0.00144328,0,
10,0.101283,0.259559,-0.0160748,-0.00153344,0,
10,0.109899,0.262808,-0.0160667,-0.00163176,0,
10,0.119247,0.26622,-0.0160587,-0.00173892,0,
10,0.12939,0.269814,-0.0160512,-0.00185563,0,
10,0.140395,0.273613,-0.0160447,-0.00198267,0,
10,0.152337,0.27764,-0.0160394,-0.00212084,0,
10,0.165296,0.281923,-0.0160361,-0.00227097,0,
10,0.179357,0.286491,-0.0160356,-0.00243393,0,
10,0.194615,0.291378,-0.0160387,-0.0026106,0,
10,0.211171,0.296619,-0.0160466,-0.00280188,0,
10,0.229138,0.302255,-0.0160609,-0.00300865,0,
10,0.248635,0.308332,-0.016083,-0.00323175,0,
10,0.269793,0.314901,-0.0161155,-0.00347196,0,
10,0.292753,0.322018,-0.0161597,-0.00372997,0,
10,0.317669,0.329746,-0.0162202,-0.00400526,0,
10,0.344708,0.338149,-0.0162955,-0.00429878,0,
10,0.372405,0.346796,-0.0163862,-0.00459547,0,
10,0.399623,0.355342,-0.016494,-0.00488237,0,
10,0.426397,0.363801,-0.0165868,-0.00516035,0,
10,0.452757,0.372189,-0.0167278,-0.00549061,0,
10,0.478735,0.380701,-0.0170949,-0.00567655,0,
10,0.504358,0.389614,-0.0176614,-0.00582854,0,
10,0.529657,0.399019,-0.0182861,-0.00597326,0,
10,0.554656,0.408872,-0.0189082,-0.00611527,0,
10,0.579382,0.419065,-0.019503,-0.00625042,0,
10,0.603859,0.429479,-0.0200762,-0.0063743,0,
10,0.628112,0.440015,-0.0206327,-0.00648359,0,
10,0.652163,0.450601,-0.0211792,-0.00657625,0,
10,0.676035,0.4612,-0.0217175,-0.0066514,0,
10,0.699751,0.471801,-0.0222469,-0.00670879,0,
10,0.72333,0.482415,-0.0227647,-0.00674848,0,
10,0.746795,0.49307,-0.0232662,-0.00677062,0,
10,0.770165,0.503803,-0.0237463,-0.00677517,0,
10,0.79346,0.514662,-0.0242,-0.00676183,0,
10,0.816699,0.525699,-0.0246227,-0.00673,0,
10,0.839903,0.53697,-0.0250107,-0.00667873,0,
10,0.863088,0.548534,-0.0253617,-0.00660673,0,
10,0.886275,0.560451,-0.0256746,-0.00651246,0,
10,0.909481,0.572784,-0.0259494,-0.00639413,0,
10,0.932723,0.585592,-0.0261871,-0.00624975,0,
10,0.956021,0.598932,-0.0263895,-0.00607735,0,
10,0.97939,0.612846,-0.0265588,-0.00587522,0,
10,1.00285,0.627353,-0.0266976,-0.00564336,0,
10,1.02641,0.642424,-0.0268085,-0.00538342,0,
10,1.0501,0.657975,-0.0268938,-0.00509858,0,
10,1.07392,0.67386,-0.0269551,-0.00479302,0,
10,1.0979,0.689877,-0.0269929,-0.00447231,0,
10,1.12205,0.705784,-0.0270073,-0.00414325,0,
10,1.14639,0.721321,-0.0269983,-0.00381333,0,
10,1.17093,0.736224,-0.0269679,-0.00349964,0,
10,1.19568,0.750296,-0.0269155,-0.00320174,0,
10,1.22066,0.763465,-0.0268368,-0.00292127,0,
10,1.24589,0.775757,-0.0267309,-0.00265932,0,
10,1.27137,0.787252,-0.0265953,-0.00241515,0,
10,1.29713,0.79805,-0.0264311,-0.00218688,0,
10,1.32317,0.808262,-0.026235,-0.00197218,0,
10,1.34951,0.818026,-0.0259982,-0.00174337,0,
10,1.37616,0.82739,-0.0257416,-0.00152653,0,
10,1.40313,0.836254,-0.0254812,-0.00132197,0,
10,1.43043,0.844511,-0.0252142,-0.00113487,0,
10,1.45807,0.852103,-0.0249474,-0.000971393,0,
10,1.48607,0.859026,-0.0246784,-0.000836243,0,
10,1.51444,0.865348,-0.0244114,-0.000734955,0,
10,1.54318,0.871281,-0.024134,-0.00063552,0,
10,1.57231,0.87701,-0.0238491,-0.000553718,0,
10,1.60184,0.882535,-0.02357,-0.000486554,0,
10,1.63178,0.887804,-0.0232965,-0.000432408,0,
10,1.66213,0.892811,-0.0230295,-0.000389517,0,
10,1.69292,0.897591,-0.0227665,-0.000355433,0,
10,1.72416,0.902181,-0.0225083,-0.00032761,0,
10,1.75585,0.906604,-0.022255,-0.000303975,0,
10,1.78802,0.910864,-0.0220077,-0.000283104,0,
10,1.82067,0.914957,-0.0217664,-0.000264088,0,
10,1.85383,0.918877,-0.0215319,-0.000246378,0,
10,1.88751,0.922615,-0.0213042,-0.00022968,0,
10,1.92173,0.926169,-0.0210842,-0.000213987,0,
10,1.95652,0.929553,-0.0208707,-0.000199492,0,
10,1.9919,0.932814,-0.0206618,-0.000180613,0,
10,2.02791,0.935985,-0.0204606,-0.000162683,0,
10,2.06456,0.939045,-0.020267,-0.00014389,0,
10,2.10268,0.942009,-0.02008,-0.000123442,0,
10,2.1443,0.944946,-0.0198899,-0.000102132,0,
10,2.18977,0.947785,-0.0197004,-8.04459e-05,0,
10,2.23946,0.950419,-0.0195142,-5.89599e-05,0,
10,2.29376,0.952733,-0.0193359,-3.88681e-05,0,
10,2.35309,0.954609,-0.0191705,-2.12879e-05,0,
10,2.4179,0.955942,-0.0190246,-7.13081e-06,0,
10,2.48863,0.95665,-0.0189052,2.98382e-06,0,
10,2.56575,0.956693,-0.0188207,8.85391e-06,0,
10,2.64971,0.956099,-0.0187797,1.08101e-05,0,
10,2.74098,0.954974,-0.0187911,9.7619e-06,0,
10,2.83997,0.953509,-0.0188628,7.06641e-06,0,
10,2.94709,0.951953,-0.0190016,4.13541e-06,0,
10,3.06269,0.95056,-0.0192128,1.92865e-06,0,
10,3.18706,0.949519,-0.0194997,7.0063e-07,0,
10,3.3204,0.948902,-0.0198639,1.94071e-07,0,
10,3.46281,0.948654,-0.020305,4.13358e-08,0,
10,3.61427,0.948638,-0.0208206,7.86808e-09,0,
10,3.77463,0.948701,-0.0214065,2.21039e-09,0,
10,3.94358,0.948741,-0.0220563,1.35367e-09,0,
10,4.12067,0.948724,-0.0227617,1.0714e-09,0,
10,4.30525,0.948679,-0.0235127,4.96213e-10,0,
10,4.49655,0.94865,-0.0242976,-4.56578e-10,0,
10,4.6936,0.948673,-0.025104,-1.61787e-09,0,
10,4.89531,0.948755,-0.0259192,-2.9171e-09,0,
10,5.10047,0.948882,-0.026731,-4.64387e-09,0,
10,5.30776,0.94903,-0.0275276,-7.70121e-09,0,
10,5.51581,0.949178,-0.028299,-1.41347e-08,0,
10,5.72323,0.949317,-0.0290362,-2.91951e-08,0,
10,5.92863,0.949466,-0.0297323,-7.06815e-08,0,
10,6.13069,0.949686,-0.030382,-2.01335e-07,0,
10,6.32816,0.95007,-0.0309817,-5.78883e-07,0,
10,6.51991,0.950656,-0.0315298,-1.28592e-06,0,
10,6.70495,0.951228,-0.0320259,-1.13008e-06,0,
10,6.88244,0.951092,-0.0324708,5.0554e-06,0,
10,7.0517,0.949032,-0.0328664,2.816e-05,0,
10,7.21224,0.943646,-0.0332125,8.18742e-05,0,
10,7.3637,0.934012,-0.033514,0.000176228,0,
10,7.5059,0.92014,-0.0337741,0.000304275,0,
10,7.63878,0.902601,-0.033996,0.000416554,0,
10,7.76243,0.882474,-0.0341873,0.000541858,0,
10,7.87701,0.861534,-0.0343404,0.000671261,0,
10,7.9828,0.841289,-0.0344683,0.000789345,0,
10,8.08014,0.822504,-0.0345707,0.00088997,0,
10,8.16941,0.805296,-0.0346562,0.000973052,0,
10,8.25106,0.789417,-0.0347277,0.00104156,0,
10,8.32554,0.774508,-0.0347898,0.00109829,0,
10,8.39331,0.760236,-0.0348439,0.001146,0,
10,8.45484,0.746355,-0.0348915,0.00118711,0,
10,8.5106,0.732718,-0.0349331,0.00122289,0,
10,8.56104,0.719259,-0.0349694,0.00125388,0,
10,8.60659,0.705966,-0.035001,0.00128021,0,
10,8.64767,0.692859,-0.0350286,0.00130191,0,
10,8.68467,0.679962,-0.035053,0.00131914,0,
10,8.71795,0.667262,-0.0350748,0.00132809,0,
10,8.74786,0.654735,-0.0350938,0.0013331,0,
10,8.77471,0.642376,-0.0351104,0.00133425,0,
10,8.79881,0.630185,-0.0351249,0.00133173,0,
10,8.8204,0.618156,-0.0351376,0.00132602,0,
10,8.83975,0.606279,-0.0351485,0.00131763,0,
10,8.85708,0.594543,-0.035158,0.00130702,0,
10,8.87259,0.58293,-0.0351662,0.00129463,0,
10,8.88646,0.57142,-0.0351733,0.00128084,0,
10,8.89886,0.55999,-0.0351794,0.00126598,0,
10,8.90995,0.548613,-0.0351846,0.00125033,0,
10,8.91986,0.537259,-0.035189,0.00123408,0,
10,8.92872,0.525898,-0.0351928,0.00121738,0,
10,8.93663,0.514494,-0.035196,0.00120033,0,
10,8.94369,0.503009,-0.0351987,0.00118294,0,
10,8.95,0.491404,-0.0352009,0.00116518,0,
10,8.95564,0.479635,-0.0352029,0.00114694,0,
10,8.96067,0.467653,-0.0352044,0.0011281,0,
10,8.96517,0.455405,-0.0352058,0.00110839,0,
10,8.96918,0.442833,-0.0352069,0.0010875,0,
10,8.97276,0.42987,-0.0352079,0.00106501,0,
10,8.97596,0.416439,-0.0352086,0.00104038,0,
10,8.97882,0.402452,-0.0352093,0.0010129,0,
10,8.98137,0.387808,-0.0352097,0.000981681,0,
10,8.98365,0.372385,-0.0352103,0.000945569,0,
10,8.98569,0.356041,-0.0352105,0.000903456,0,
10,8.9875,0.338598,-0.035211,0.000852399,0,
10,8.98913,0.319815,-0.035211,0.00078777,0,
10,8.99058,0.299456,-0.0352114,0.000711101,0,
10,8.99188,0.277358,-0.0352113,0.000620888,0,
10,8.99304,0.253363,-0.0352117,0.000511038,0,
10,8.99408,0.227289,-0.0352115,0.00037599,0,
10,8.99501,0.199331,-0.0352119,0.000242161,0,
10,8.99583,0.170419,-0.0352116,0.000129945,0,
10,8.99658,0.141889,-0.035212,5.63953e-05,0,
10,8.99724,0.114958,-0.0352116,1.9601e-05,0,
10,8.99784,0.0902991,-0.0352121,5.40491e-06,0,
10,8.99837,0.0680645,-0.0352116,1.13537e-06,0,
10,8.99885,0.0481315,-0.0352122,1.62749e-07,0,
10,8.99927,0.0302877,-0.0352115,1.23591e-08,0,
10,8.99966,0.0143135,-0.0352123,2.73489e-10,0,
10,9,0,-0.0352115,0,0,

0.0416667,0,0,-0.233437,0,3.17423e-06,
0.0833333,0,0,-0.233602,0,5.28908e-06,
0.125,0,0,-0.233537,0,6.82957e-06,
0.166667,0,0,-0.233589,0,1.12844e-05,
0.208333,0,0,-0.233597,0,1.58112e-05,
0.25,0,0,-0.233645,0,2.07098e-05,
0.291667,0,0,-0.233689,0,2.50308e-05,
0.333333,0,0,-0.23375,0,2.87985e-05,
0.375,0,0,-0.233815,0,3.19347e-05,
0.416667,0,0,-0.233888,0,3.48507e-05,
0.458333,0,0,-0.233969,0,3.79676e-05,
0.5,0,0,-0.23406,0,4.17646e-05,
0.541667,0,0,-0.234165,0,4.65845e-05,
0.583333,0,0,-0.234287,0,5.26002e-05,
0.625,0,0,-0.234431,0,5.97623e-05,
0.666667,0,0,-0.234599,0,6.78001e-05,
0.708333,0,0,-0.234793,0,7.6255e-05,
0.75,0,0,-0.235012,0,8.45354e-05,
0.791667,0,0,-0.235253,0,9.20099e-05,
0.833333,0,0,-0.235515,0,9.81006e-05,
0.875,0,0,-0.235795,0,0.000102422,
0.916667,0,0,-0.236093,0,0.000104825,
0.958333,0,0,-0.236419,0,0.000105181,
1,0,0,-0.23679,0,0.000103087,
1.04167,0,0,-0.237227,0,9.76357e-05,
1.08333,0,0,-0.237759,0,8.71861e-05,
1.125,0,0,-0.23841,0,6.94381e-05,
1.16667,0,0,-0.239196,0,4.19165e-05,
1.20833,0,0,-0.24012,0,2.68146e-06,
1.25,0,0,-0.241166,0,-4.89654e-05,
1.29167,0,0,-0.242308,0,-0.000112101,
1.33333,0,0,-0.243506,0,-0.000184355,
1.375,0,0,-0.244722,0,-0.000262561,
1.41667,0,0,-0.245919,0,-0.000343558,
1.45833,0,0,-0.247066,0,-0.000424815,
1.5,0,0,-0.248138,0,-0.000504682,
1.54167,0,0,-0.24912,0,-0.000582307,
1.58333,0,0,-0.249999,0,-0.000657393,
1.625,0,0,-0.250764,0,-0.000729933,
1.66667,0,0,-0.25141,0,-0.000800036,
1.70833,0,0,-0.251931,0,-0.00086782,
1.75,0,0,-0.252322,0,-0.000933377,
1.79167,0,0,-0.252579,0,-0.000996754,
1.83333,0,0,-0.252697,0,-0.00105797,
1.875,0,0,-0.252674,0,-0.001117,
1.91667,0,0,-0.252506,0,-0.00117382,
1.95833,0,0,-0.252192,0,-0.00122838,
2,0,0,-0.251731,0,-0.00128065,
2.04167,0,0,-0.251121,0,-0.00133058,
2.08333,0,0,-0.250362,0,-0.00137814,
2.125,0,0,-0.249456,0,-0.00142332,
2.16667,0,0,-0.248401,0,-0.00146608,
2.20833,0,0,-0.2472,0,-0.00150642,
2.25,0,0,-0.245855,0,-0.00154432,
2.29167,0,0,-0.244366,0,-0.00157977,
2.33333,0,0,-0.242737,0,-0.00161274,
2.375,0,0,-0.24097,0,-0.00164324,
2.41667,0,0,-0.239068,0,-0.00167124,
2.45833,0,0,-0.237034,0,-0.00169674,
2.5,0,0,-0.234873,0,-0.00171973,
2.54167,0,0,-0.232587,0,-0.00174021,
2.58333,0,0,-0.230183,0,-0.00175817,
2.625,0,0,-0.227663,0,-0.00177363,
2.66667,0,0,-0.225034,0,-0.00178661,
2.70833,0,0,-0.2223,0,-0.00179716,
2.75,0,0,-0.219468,0,-0.00180533,
2.79167,0,0,-0.216541,0,-0.00181116,
2.83333,0,0,-0.213527,0,-0.00181469,
2.875,0,0,-0.210431,0,-0.00181599,
2.91667,0,0,-0.207258,0,-0.00181509,
2.95833,0,0,-0.204015,0,-0.00181208,
3,0,0,-0.200707,0,-0.001807,
3.04167,0,0,-0.197341,0,-0.00179994,
3.08333,0,0,-0.193921,0,-0.00179097,
3.125,0,0,-0.190454,0,-0.00178017,
3.16667,0,0,-0.186945,0,-0.0017676,
3.20833,0,0,-0.183399,0,-0.00175333,
3.25,0,0,-0.179822,0,-0.00173746,
3.29167,0,0,-0.176218,0,-0.00172004,
3.33333,0,0,-0.172592,0,-0.00170114,
3.375,0,0,-0.168949,0,-0.00168085,
3.41667,0,0,-0.165293,0,-0.00165923,
3.45833,0,0,-0.161629,0,-0.00163635,
3.5,0,0,-0.15796,0,-0.00161229,
3.54167,0,0,-0.154289,0,-0.00158711,
3.58333,0,0,-0.150621,0,-0.00156086,
3.625,0,0,-0.146959,0,-0.00153361,
3.66667,0,0,-0.143306,0,-0.00150541,
3.70833,0,0,-0.139664,0,-0.00147631,
3.75,0,0,-0.136037,0,-0.00144636,
3.79167,0,0,-0.132427,0,-0.00141561,
3.83333,0,0,-0.128837,0,-0.00138412,
3.875,0,0,-0.125268,0,-0.00135192,
3.91667,0,0,-0.121724,0,-0.00131907,
3.95833,0,0,-0.118205,0,-0.0012856,
4,0,0,-0.114714,0,-0.00125157,
4.04167,0,0,-0.111252,0,-0.001217,
4.08333,0,0,-0.10782,0,-0.00118194,
4.125,0,0,-0.104421,0,-0.00114643,
4.16667,0,0,-0.101054,0,-0.00111049,
4.20833,0,0,-0.0977215,0,-0.00107415,
4.25,0,0,-0.0944237,0,-0.00103743,
4.29167,0,0,-0.0911615,0,-0.00100036,
4.33333,0,0,-0.0879358,0,-0.000962964,
4.375,0,0,-0.0847472,0,-0.000925254,
4.41667,0,0,-0.0815963,0,-0.000887247,
4.45833,0,0,-0.0784837,0,-0.000848957,
4.5,0,0,-0.0754098,0,-0.000810401,
4.54167,0,0,-0.0723752,0,-0.000771595,
4.58333,0,0,-0.0693803,0,-0.000732555,
4.625,0,0,-0.0664253,0,-0.000693295,
4.66667,0,0,-0.0635106,0,-0.000653823,
4.70833,0,0,-0.0606365,0,-0.00061415,
4.75,0,0,-0.0578032,0,-0.000574282,
4.79167,0,0,-0.0550111,0,-0.000534225,
4.83333,0,0,-0.0522605,0,-0.000493981,
4.875,0,0,-0.0495518,0,-0.000453547,
4.91667,0,0,-0.0468854,0,-0.00041292,
4.95833,0,0,-0.0442621,0,-0.000372096,
5,0,0,-0.0416827,0,-0.000331081,
5.04167,0,0,-0.0391485,0,-0.000289892,
5.08333,0,0,-0.0366608,0,-0.000248574,
5.125,0,0,-0.0342216,0,-0.000207216,
5.16667,0,0,-0.0318322,0,-0.000165941,
5.20833,0,0,-0.0294929,0,-0.000124866,
5.25,0,0,-0.027203,0,-8.40492e-05,
5.29167,0,0,-0.0249615,0,-4.34919e-05,
5.33333,0,0,-0.0227674,0,-3.17273e-06,
5.375,0,0,-0.0206202,0,3.69291e-05,
5.41667,0,0,-0.0185192,0,7.68249e-05,
5.45833,0,0,-0.016464,0,0.000116521,
5.5,0,0,-0.0144542,0,0.000156022,
5.54167,0,0,-0.0124895,0,0.000195329,
5.58333,0,0,-0.0105698,0,0.000234439,
5.625,0,0,-0.00869492,0,0.00027335,
5.66667,0,0,-0.00686471,0,0.000312055,
5.70833,0,0,-0.00507917,0,0.000350546,
5.75,0,0,-0.00333832,0,0.000388815,
5.79167,0,0,-0.00164222,0,0.000426851,
5.83333,0,0,9.07801e-06,0,0.000464638,
5.875,0,0,0.00161547,0,0.000502163,
5.91667,0,0,0.00317683,0,0.000539407,
5.95833,0,0,0.00469306,0,0.000576351,
6,0,0,0.00616404,0,0.000612976,
6.04167,0,0,0.00758963,0,0.000649261,
6.08333,0,0,0.00896973,0,0.000685183,
6.125,0,0,0.0103042,0,0.000720719,
6.16667,0,0,0.0115931,0,0.000755846,
6.20833,0,0,0.0128362,0,0.000790542,
6.25,0,0,0.0140335,0,0.000824783,
6.29167,0,0,0.0151851,0,0.000858545,
6.33333,0,0,0.016291,0,0.000891806,
6.375,0,0,0.0173513,0,0.000924543,
6.41667,0,0,0.0183659,0,0.000956732,
6.45833,0,0,0.0193351,0,0.000988351,
6.5,0,0,0.0202589,0,0.00101938,
6.54167,0,0,0.0211377,0,0.00104979,
6.58333,0,0,0.0219715,0,0.00107957,
6.625,0,0,0.0227607,0,0.00110869,
6.66667,0,0,0.0235054,0,0.00113715,
6.70833,0,0,0.0242059,0,0.00116491,
6.75,0,0,0.0248627,0,0.00119196,
6.79167,0,0,0.025476,0,0.0012183,
6.83333,0,0,0.0260461,0,0.00124392,
6.875,0,0,0.0265735,0,0.00126879,
6.91667,0,0,0.0270586,0,0.00129293,
6.95833,0,0,0.0275019,0,0.00131632,
7,0,0,0.0279038,0,0.00133895,
7.04167,0,0,0.0282647,0,0.00136083,
7.08333,0,0,0.0285851,0,0.00138193,
7.125,0,0,0.0288653,0,0.00140223,
7.16667,0,0,0.0291055,0,0.00142172,
7.20833,0,0,0.0293063,0,0.0014404,
7.25,0,0,0.0294679,0,0.00145824,
7.29167,0,0,0.0295909,0,0.00147525,
7.33333,0,0,0.0296756,0,0.00149143,
7.375,0,0,0.0297224,0,0.00150677,
7.41667,0,0,0.0297319,0,0.00152127,
7.45833,0,0,0.0297043,0,0.00153494,
7.5,0,0,0.0296401,0,0.00154779,
7.54167,0,0,0.0295398,0,0.0015598,
7.58333,0,0,0.0294036,0,0.00157098,
7.625,0,0,0.0292321,0,0.00158134,
7.66667,0,0,0.0290255,0,0.00159089,
7.70833,0,0,0.0287842,0,0.00159963,
7.75,0,0,0.0285086,0,0.00160757,
7.79167,0,0,0.028199,0,0.00161472,
7.83333,0,0,0.0278549,0,0.00162107,
7.875,0,0,0.0274764,0,0.0016267,
7.91667,0,0,0.0270753,0,0.00163234,
7.95833,0,0,0.0265703,0,0.00163622,
8,0,0,0.0261592,0,0.00163989,
8.04171,0,0,0.0257602,0,0.00164381,
8.08368,0,0,0.0251909,0,0.00164681,
8.12617,0,0,0.0246395,0,0.00164698,
8.16946,0,0,0.0240447,0,0.00164627,
8.21382,0,0,0.0233946,0,0.00164461,
8.25952,0,0,0.0226923,0,0.00164193,
8.30685,0,0,0.0219304,0,0.00163832,
8.35611,0,0,0.021101,0,0.0016338,
8.40762,0,0,0.0201958,0,0.00162835,
8.46168,0,0,0.0192055,0,0.00162193,
8.51865,0,0,0.0181194,0,0.0016145,
8.57889,0,0,0.016926,0,0.00160602,
8.64276,0,0,0.0156129,0,0.00159646,
8.71067,0,0,0.0141671,0,0.00158582,
8.78306,0,0,0.0125752,0,0.00157415,
8.86037,0,0,0.0108238,0,0.00156155,
8.94309,0,0,0.00890027,0,0.00154818,
9.03174,0,0,0.00679342,0,0.00153428,
9.12689,0,0,0.00449499,0,0.00152015,
9.22912,0,0,0.00200039,0,0.00150617,
9.33908,0,0,-0.000690638,0,0.00149272,
9.45746,0,0,-0.00357515,0,0.0014802,
9.58501,0,0,-0.00665082,0,0.00146884,
9.72253,0,0,-0.00991588,0,0.00145854,
9.87088,0,0,-0.0133499,0,0.00144883,
10.031,0,0,-0.0168686,0,0.00143924,
10.2039,0,0,-0.0202667,0,0.00142995,
10.3906,0,0,-0.0231721,0,0.00142256,
10.5924,0,0,-0.0250099,0,0.00142088,
10.8105,0,0,-0.0250362,0,0.00143153,
11.0463,0,0,-0.0225435,0,0.00146287,
11.3012,0,0,-0.0172238,0,0.00152164,
11.5769,0,0,-0.00947575,0,0.00160854,
11.8751,0,0,-0.000388634,0,0.00171617,
12.1977,0,0,0.00863133,0,0.00183121,
12.5466,0,0,0.0163411,0,0.00193939,
12.9242,0,0,0.021973,0,0.00203003,
13.3327,0,0,0.0252961,0,0.00209811,
13.7748,0,0,0.0265009,0,0.00214393,
14.2532,0,0,0.0260257,0,0.00217158,
14.7709,0,0,0.0244093,0,0.00218688,
15.3312,0,0,0.0221829,0,0.00219427,
15.9377,0,0,0.0197811,0,0.00219745,
16.594,0,0,0.0174862,0,0.00219946,
17.3044,0,0,0.0154314,0,0.00220188,
18.0733,0,0,0.0136584,0,0.00220469,
18.9056,0,0,0.0121766,0,0.00220723,
19.8064,0,0,0.0109754,0,0.00220923,
20.7816,0,0,0.010016,0,0.00221111,
21.8371,0,0,0.009242,0,0.00221322,
22.9796,0,0,0.00860427,0,0.0022155,
24.2163,0,0,0.00806674,0,0.00221885,
25.5551,0,0,0.00759245,0,0.00222369,
27.0042,0,0,0.00714286,0,0.00222984,
28.5729,0,0,0.00668899,0,0.00223725,
30.271,0,0,0.00621208,0,0.00224672,
32.1091,0,0,0.00569786,0,0.00225726,
34.0989,0,0,0.00513332,0,0.0022684,
36.2529,0,0,0.00450022,0,0.00227925,
38.5845,0,0,0.00378903,0,0.00228845,
41.1085,0,0,0.00303193,0,0.00229716,
43.8407,0,0,0.00206451,0,0.00230457,
46.7983,0,0,0.00107266,0,0.00231145,
50,0,0,0.00214807,0,0.002329,

