f38bfc1e197d513d8db64b791051a1939a4f7247 
X,Z,x_velocity,cp,uw_b,cf,
1,0,0,-0.221038,0,0,
1,9,0,-0.130233,0,0,
1,1.01284,0.47793,-0.189188,-0.00403883,0,
1,0.000308731,0.00032725,-0.221037,-2.28555e-15,0,
1,0.000654158,0.000681868,-0.221038,-1.00422e-13,0,
1,0.00104139,0.00106545,-0.221037,-1.28844e-12,0,
1,0.00147619,0.00147889,-0.221038,-8.7972e-12,0,
1,0.00196502,0.00192237,-0.221037,-4.15581e-11,0,
1,0.00251518,0.00239505,-0.221038,-1.54633e-10,0,
1,0.0031349,0.00289465,-0.221037,-4.86502e-10,0,
1,0.00383341,0.00341692,-0.221038,-1.34871e-09,0,
1,0.00462115,0.00395482,-0.221037,-3.37477e-09,0,
1,0.00550983,0.00449748,-0.221038,-7.71392e-09,0,
1,0.00651264,0.00502851,-0.221037,-1.61198e-08,0,
1,0.00764438,0.00552394,-0.221037,-3.03396e-08,0,
1,0.00892169,0.00594917,-0.221037,-4.89602e-08,0,
1,0.0103632,0.00625567,-0.221037,-5.68139e-08,0,
1,0.0119898,0.00637813,-0.221037,3.79371e-09,0,
1,0.0138248,0.0062357,-0.221037,2.96077e-07,0,
1,0.0158944,0.00574285,-0.221036,1.18612e-06,0,
1,0.0182274,0.00483393,-0.221035,3.29596e-06,0,
1,0.0208562,0.00349125,-0.221033,7.32984e-06,0,
1,0.0238164,0.00175141,-0.22103,1.36429e-05,0,
1,0.0271475,-0.000321324,-0.221026,2.20373e-05,0,
1,0.0308929,-0.00266949,-0.22102,3.20482e-05,0,
1,0.0351001,-0.00526082,-0.221011,4.30446e-05,0,
1,0.0398209,-0.00808645,-0.221,5.45418e-05,0,
1,0.0451115,-0.0111493,-0.220986,6.6178e-05,0,
1,0.0510323,-0.0144527,-0.220971,7.75972e-05,0,
1,0.057648,-0.0179911,-0.220953,8.83823e-05,0,
1,0.0650269,-0.0217427,-0.220933,9.80311e-05,0,
1,0.0732406,-0.0256653,-0.220912,0.000105964,0,
1,0.0823632,-0.0296927,-0.220892,0.000111554,0,
1,0.0924701,-0.0337364,-0.220872,0.000114198,0,
1,0.103636,-0.03769,-0.220855,0.000113349,0,
1,0.115935,-0.0414381,-0.220843,0.000108599,0,
1,0.129436,-0.0448669,-0.220837,9.97481e-05,0,
1,0.144202,-0.0478749,-0.22084,8.68315e-05,0,
1,0.160284,-0.0503811,-0.220854,7.01164e-05,0,
1,0.177724,-0.052329,-0.220879,5.00556e-05,0,
1,0.196544,-0.0536877,-0.220916,2.72186e-05,0,
1,0.21675,-0.0544484,-0.220963,2.22221e-06,0,
1,0.238323,-0.0546207,-0.221021,-2.43216e-05,0,
1,0.26122,-0.0542272,-0.221086,-5.18312e-05,0,
1,0.28537,-0.0533004,-0.221156,-7.97583e-05,0,
1,0.310673,-0.0518793,-0.221226,-0.000107582,0,
1,0.337003,-0.0500079,-0.221292,-0.000134804,0,
1,0.364206,-0.0477346,-0.22135,-0.000160969,0,
1,0.392107,-0.0451112,-0.221393,-0.000185651,0,
1,0.420509,-0.0421928,-0.221418,-0.000208467,0,
1,0.449206,-0.0390371,-0.221417,-0.000229093,0,
1,0.477982,-0.0357031,-0.221386,-0.000247287,0,
1,0.506624,-0.0322497,-0.221318,-0.000262917,0,
1,0.534925,-0.0287331,-0.221205,-0.000276003,0,
1,0.562692,-0.0252027,-0.221042,-0.000286738,0,
1,0.589754,-0.0216957,-0.220817,-0.000295554,0,
1,0.615961,-0.0182282,-0.22052,-0.00030328,0,
1,0.641193,-0.0147865,-0.220139,-0.000311369,0,
1,0.665359,-0.0113157,-0.219656,-0.000322008,0,
1,0.688396,-0.00771043,-0.21906,-0.00033852,0,
1,0.710271,-0.00381201,-0.218339,-0.000367861,0,
1,0.730976,0.000637882,-0.217483,-0.000414347,0,
1,0.750529,0.0060502,-0.216491,-0.000488158,0,
1,0.768969,0.0129756,-0.215373,-0.000601129,0,
1,0.78635,0.0220012,-0.214152,-0.000770561,0,
1,0.802743,0.0335194,-0.212852,-0.00101962,0,
1,0.818232,0.0475625,-0.211512,-0.00136205,0,
1,0.832689,0.0636804,-0.210166,-0.00179635,0,
1,0.846039,0.0811987,-0.208859,-0.00230108,0,
1,0.858357,0.0995171,-0.207605,-0.00284363,0,
1,0.869723,0.118095,-0.206408,-0.00338839,0,
1,0.880212,0.136498,-0.205269,-0.00390491,0,
1,0.889898,0.154421,-0.204181,-0.00437327,0,
1,0.898852,0.17168,-0.203143,-0.00478346,0,
1,0.907141,0.188181,-0.202149,-0.00513333,0,
1,0.914826,0.203905,-0.201197,-0.00542573,0,
1,0.921966,0.218878,-0.200283,-0.00566534,0,
1,0.928616,0.23315,-0.199393,-0.00585859,0,
1,0.934823,0.246796,-0.198512,-0.0060027,0,
1,0.940633,0.25991,-0.19763,-0.0061018,0,
1,0.946088,0.272588,-0.196753,-0.0061608,0,
1,0.951224,0.28492,-0.195887,-0.00618483,0,
1,0.956076,0.296972,-0.195043,-0.0061818,0,
1,0.960675,0.308797,-0.194229,-0.00615059,0,
1,0.965047,0.32045,-0.193451,-0.00609106,0,
1,0.969219,0.331984,-0.192718,-0.00600832,0,
1,0.973211,0.343442,-0.19204,-0.00590693,0,
1,0.977045,0.354854,-0.191425,-0.00579001,0,
1,0.980739,0.366238,-0.190878,-0.00566024,0,
1,0.984308,0.377604,-0.190404,-0.00552003,0,
1,0.987768,0.388953,-0.190004,-0.00537142,0,
1,0.991131,0.400283,-0.189677,-0.00521615,0,
1,0.99441,0.411584,-0.189421,-0.00505569,0,
1,0.997615,0.422844,-0.189233,-0.00489124,0,
1,1.00076,0.434047,-0.18911,-0.00472379,0,
1,1.00384,0.445176,-0.189048,-0.00455414,0,
1,1.00688,0.456212,-0.189043,-0.00438298,0,
1,1.00988,0.467136,-0.18909,-0.00421109,0,
1,1.01581,0.488692,-0.189334,-0.00386473,0,
1,1.01882,0.499518,-0.189527,-0.00368852,0,
1,1.02188,0.510385,-0.18977,-0.00351134,0,
1,1.025,0.52127,-0.19006,-0.00333443,0,
1,1.02818,0.532147,-0.190399,-0.00315971,0,
1,1.03144,0.542985,-0.190786,-0.00298962,0,
1,1.03478,0.553753,-0.191221,-0.00282686,0,
1,1.03822,0.56441,-0.191702,-0.00267566,0,
1,1.04177,0.574917,-0.192228,-0.00253909,0,
1,1.04544,0.585261,-0.192797,-0.00241189,0,
1,1.04925,0.595452,-0.193405,-0.0022953,0,
1,1.05321,0.605498,-0.19405,-0.00218793,0,
1,1.05735,0.615401,-0.194732,-0.00208837,0,
1,1.06169,0.625157,-0.195448,-0.00199552,0,
1,1.06626,0.634755,-0.196198,-0.00190864,0,
1,1.07108,0.644182,-0.196981,-0.00182755,0,
1,1.07618,0.653421,-0.197795,-0.00175247,0,
1,1.0816,0.662464,-0.19864,-0.0016839,0,
1,1.08738,0.671309,-0.199514,-0.00162228,0,
1,1.09357,0.679963,-0.200414,-0.00156838,0,
1,1.10022,0.688438,-0.20134,-0.00152356,0,
1,1.10739,0.696754,-0.202287,-0.00148859,0,
1,1.11514,0.704937,-0.203251,-0.00146222,0,
1,1.12354,0.713026,-0.204224,-0.00144233,0,
1,1.13268,0.721067,-0.205199,-0.00142673,0,
1,1.14266,0.7291,-0.206165,-0.00141306,0,
1,1.15357,0.737161,-0.20711,-0.0013991,0,
1,1.16554,0.745277,-0.208022,-0.00138303,0,
1,1.1787,0.753468,-0.208887,-0.0013635,0,
1,1.1932,0.761747,-0.209689,-0.00133975,0,
1,1.2092,0.770125,-0.210413,-0.00131163,0,
1,1.22689,0.778611,-0.211042,-0.00127913,0,
1,1.24659,0.787257,-0.211567,-0.00124189,0,
1,1.26879,0.796154,-0.211972,-0.00120192,0,
1,1.29378,0.805308,-0.212252,-0.00116187,0,
1,1.3219,0.814749,-0.212361,-0.00111503,0,
1,1.35351,0.824515,-0.212282,-0.00104166,0,
1,1.389,0.834597,-0.212053,-0.000981332,0,
1,1.42882,0.845018,-0.211657,-0.000929202,0,
1,1.47342,0.855856,-0.21109,-0.000881496,0,
1,1.52332,0.867204,-0.210346,-0.000835717,0,
1,1.57905,0.879169,-0.20942,-0.000789328,0,
1,1.64119,0.891878,-0.208303,-0.000739867,0,
1,1.71033,0.905465,-0.206985,-0.000684743,0,
1,1.78711,0.92005,-0.205453,-0.000621311,0,
1,1.87215,0.93568,-0.203687,-0.000547392,0,
1,1.9661,0.952212,-0.201672,-0.000462434,0,
1,2.06959,0.969146,-0.199383,-0.000370648,0,
1,2.18321,0.985509,-0.196828,-0.000273965,0,
1,2.30752,0.999992,-0.194051,-0.000142966,0,
1,2.44299,1.01105,-0.191023,-4.97872e-05,0,
1,2.59002,1.01727,-0.187777,-6.0659e-06,0,
1,2.74885,1.01846,-0.184388,8.6501e-07,0,
1,2.91959,1.01634,-0.180908,9.37178e-08,0,
1,3.10217,1.01334,-0.177386,5.15951e-08,0,
1,3.2963,1.0109,-0.173861,4.09385e-08,0,
1,3.50146,1.00917,-0.170361,3.28479e-08,0,
1,3.7169,1.00778,-0.166916,2.897e-08,0,
1,3.94163,1.00643,-0.163556,2.72827e-08,0,
1,4.17441,1.00506,-0.160313,2.58387e-08,0,
1,4.41376,1.00371,-0.157212,2.40734e-08,0,
1,4.65805,1.00244,-0.154274,2.21079e-08,0,
1,4.90545,1.00127,-0.151515,2.02004e-08,0,
1,5.15407,1.00019,-0.148948,1.84317e-08,0,
1,5.40194,0.999218,-0.146582,1.68563e-08,0,
1,5.64716,0.998334,-0.144419,1.55468e-08,0,
1,5.88785,0.997517,-0.142459,1.46065e-08,0,
1,6.12229,0.996735,-0.140698,1.38081e-08,0,
1,6.34896,0.996018,-0.139128,1.23357e-08,0,
1,6.56652,0.995559,-0.137738,9.78752e-09,0,
1,6.77388,0.99566,-0.136515,3.62392e-09,0,
1,6.97022,0.996283,-0.135445,1.6841e-08,0,
1,7.15495,0.996283,-0.134511,1.78886e-06,0,
1,7.32773,0.993166,-0.133703,1.8629e-05,0,
1,7.48842,0.984348,-0.133016,7.86628e-05,0,
1,7.63711,0.969316,-0.132448,0.000213449,0,
1,7.77403,0.950154,-0.131968,0.000413649,0,
1,7.89956,0.929302,-0.131568,0.00057496,0,
1,8.01417,0.908309,-0.131258,0.00073164,0,
1,8.11843,0.888246,-0.131005,0.00086451,0,
1,8.21296,0.869584,-0.130807,0.000969578,0,
1,8.29839,0.852344,-0.130654,0.00105008,0,
1,8.3754,0.836228,-0.130534,0.00109749,0,
1,8.44464,0.820881,-0.130439,0.00113992,0,
1,8.50675,0.806091,-0.130369,0.00117764,0,
1,8.56236,0.791727,-0.130315,0.00121007,0,
1,8.61206,0.777688,-0.130276,0.00123776,0,
1,8.6564,0.763897,-0.130247,0.00126136,0,
1,8.69591,0.750294,-0.130227,0.00128138,0,
1,8.73107,0.736829,-0.130214,0.00129822,0,
1,8.76232,0.723464,-0.130205,0.00131219,0,
1,8.79007,0.710166,-0.130199,0.00132354,0,
1,8.81469,0.696909,-0.130197,0.00133248,0,
1,8.83651,0.683669,-0.130196,0.00133918,0,
1,8.85584,0.670425,-0.130197,0.00134379,0,
1,8.87295,0.657158,-0.130199,0.00134644,0,
1,8.8881,0.643847,-0.130201,0.00134724,0,
1,8.90149,0.630471,-0.130204,0.00134628,0,
1,8.91333,0.61701,-0.130206,0.00134362,0,
1,8.92379,0.603436,-0.130209,0.00133932,0,
1,8.93303,0.589723,-0.130212,0.00133339,0,
1,8.9412,0.575838,-0.130214,0.00132582,0,
1,8.9484,0.561743,-0.130217,0.00131655,0,
1,8.95476,0.547397,-0.130219,0.00130548,0,
1,8.96038,0.532747,-0.130221,0.00129242,0,
1,8.96533,0.517736,-0.130223,0.00127711,0,
1,8.9697,0.502292,-0.130225,0.00125917,0,
1,8.97356,0.486333,-0.130226,0.00123807,0,
1,8.97696,0.46976,-0.130227,0.0012131,0,
1,8.97996,0.452456,-0.130228,0.00118329,0,
1,8.98261,0.434278,-0.130229,0.00114735,0,
1,8.98494,0.415054,-0.13023,0.00110445,0,
1,8.98699,0.394546,-0.130231,0.00104857,0,
1,8.98881,0.372442,-0.130231,0.000977281,0,
1,8.99041,0.348452,-0.130232,0.000889903,0,
1,8.99182,0.322355,-0.130232,0.00078406,0,
1,8.99306,0.293992,-0.130232,0.000656356,0,
1,8.99416,0.263219,-0.130232,0.000497416,0,
1,8.99512,0.230204,-0.130232,0.000328296,0,
1,8.99597,0.195915,-0.130233,0.000178484,0,
1,8.99672,0.162011,-0.130233,7.69222e-05,0,
1,8.99739,0.130155,-0.130233,2.60009e-05,0,
1,8.99797,0.101299,-0.130233,6.87454e-06,0,
1,8.99848,0.0756459,-0.130233,1.37588e-06,0,
1,8.99894,0.0530019,-0.130233,1.87708e-07,0,
1,8.99934,0.0330536,-0.130233,1.36083e-08,0,
1,8.99969,0.015486,-0.130233,2.91148e-10,0,

4,0,0,-0.176117,0,0,
4,9,0,-0.10041,0,0,
4,1.05136,0.695401,-0.176728,-0.00373663,0,
4,0.000303409,-0.00833566,-0.176116,5.67374e-11,0,
4,0.00062865,-0.0171491,-0.176117,2.3344e-09,0,
4,0.000979511,-0.0265176,-0.176117,2.74345e-08,0,
4,0.00136016,-0.036516,-0.176117,1.71811e-07,0,
4,0.00177519,-0.0472154,-0.176117,7.48609e-07,0,
4,0.0022297,-0.0586747,-0.176117,2.57947e-06,0,
4,0.00272934,-0.0709184,-0.176117,7.50485e-06,0,
4,0.00328037,-0.0838925,-0.176117,1.90236e-05,0,
4,0.00388979,-0.0973891,-0.176117,4.2397e-05,0,
4,0.00456537,-0.110962,-0.176118,8.26651e-05,0,
4,0.00531578,-0.123928,-0.176118,0.000139796,0,
4,0.0061507,-0.135546,-0.17612,0.000204913,0,
4,0.0070809,-0.145321,-0.176122,0.000263857,0,
4,0.00811839,-0.153154,-0.176125,0.000305688,0,
4,0.00927657,-0.159247,-0.17613,0.000326962,0,
4,0.0105703,-0.163923,-0.176137,0.000329684,0,
4,0.0120162,-0.167493,-0.176145,0.000317599,0,
4,0.0136326,-0.170209,-0.176157,0.000294012,0,
4,0.0154398,-0.172258,-0.176172,0.000261187,0,
4,0.0174603,-0.173773,-0.17619,0.000220453,0,
4,0.0197189,-0.17485,-0.176211,0.000172463,0,
4,0.0222427,-0.175554,-0.176238,0.000117416,0,
4,0.0250617,-0.17593,-0.176268,5.5206e-05,0,
4,0.0282081,-0.176008,-0.176305,-1.44831e-05,0,
4,0.0317171,-0.17581,-0.176347,-9.21157e-05,0,
4,0.0356266,-0.175346,-0.176397,-0.000178266,0,
4,0.039977,-0.174621,-0.176453,-0.000273592,0,
4,0.0448114,-0.173636,-0.176518,-0.000378815,0,
4,0.0501747,-0.172386,-0.176592,-0.000494696,0,
4,0.056114,-0.170863,-0.176676,-0.000622026,0,
4,0.062677,-0.169056,-0.17677,-0.000761596,0,
4,0.0699123,-0.166949,-0.176874,-0.000914179,0,
4,0.0778675,-0.164524,-0.17699,-0.0010805,0,
4,0.0865883,-0.161763,-0.177117,-0.00126121,0,
4,0.0961173,-0.158642,-0.177257,-0.00145683,0,
4,0.106492,-0.155136,-0.177407,-0.00166774,0,
4,0.117744,-0.151219,-0.17757,-0.00189412,0,
4,0.129894,-0.146863,-0.177744,-0.00213591,0,
4,0.142956,-0.142039,-0.177929,-0.00239276,0,
4,0.156928,-0.13672,-0.178125,-0.00266402,0,
4,0.171798,-0.130878,-0.17833,-0.00294868,0,
4,0.187537,-0.124492,-0.178545,-0.00324537,0,
4,0.2041,-0.117541,-0.178768,-0.00355237,0,
4,0.221432,-0.110012,-0.179,-0.00386763,0,
4,0.239458,-0.101899,-0.179239,-0.00418884,0,
4,0.258095,-0.0932061,-0.179485,-0.00451344,0,
4,0.27725,-0.0839456,-0.179737,-0.0048388,0,
4,0.296825,-0.0741409,-0.179993,-0.00516222,0,
4,0.316717,-0.063826,-0.180253,-0.0054811,0,
4,0.336828,-0.0530449,-0.180518,-0.00579307,0,
4,0.357066,-0.0418517,-0.180776,-0.00609638,0,
4,0.377348,-0.0303082,-0.181059,-0.00642868,0,
4,0.397605,-0.0183467,-0.181258,-0.00675685,0,
4,0.417786,-0.00560561,-0.181328,-0.0069478,0,
4,0.437857,0.00825285,-0.181404,-0.00714629,0,
4,0.457804,0.0232246,-0.181507,-0.00733996,0,
4,0.477632,0.0391507,-0.181631,-0.00752103,0,
4,0.497368,0.05587,-0.181761,-0.00768616,0,
4,0.517057,0.0732998,-0.181888,-0.00783494,0,
4,0.536763,0.0914478,-0.182009,-0.00796781,0,
4,0.556564,0.110383,-0.182129,-0.00808378,0,
4,0.576557,0.130197,-0.182251,-0.00817901,0,
4,0.596848,0.150978,-0.182371,-0.00824624,0,
4,0.617561,0.172799,-0.182487,-0.00827605,0,
4,0.637962,0.194877,-0.18256,-0.00826102,0,
4,0.657495,0.216597,-0.182564,-0.00820341,0,
4,0.676218,0.238021,-0.182498,-0.00811275,0,
4,0.694189,0.259263,-0.182366,-0.00800337,0,
4,0.711463,0.28046,-0.182198,-0.00789042,0,
4,0.728096,0.301704,-0.182032,-0.00778573,0,
4,0.744138,0.322997,-0.181904,-0.00769501,0,
4,0.759639,0.344214,-0.181839,-0.00761726,0,
4,0.774643,0.365134,-0.181834,-0.00754478,0,
4,0.789195,0.385506,-0.181864,-0.00746442,0,
4,0.803334,0.405126,-0.181902,-0.00736839,0,
4,0.817097,0.423862,-0.181924,-0.00725419,0,
4,0.830518,0.44166,-0.181908,-0.00712388,0,
4,0.843629,0.458544,-0.181832,-0.00697823,0,
4,0.856459,0.474604,-0.181682,-0.00681936,0,
4,0.869035,0.489961,-0.181467,-0.00665489,0,
4,0.881383,0.504733,-0.181206,-0.00649228,0,
4,0.893524,0.519016,-0.180921,-0.00633733,0,
4,0.905481,0.532871,-0.180634,-0.00619353,0,
4,0.917272,0.546337,-0.180356,-0.00606202,0,
4,0.928915,0.559437,-0.180091,-0.00594205,0,
4,0.940428,0.572195,-0.179836,-0.00583187,0,
4,0.951826,0.584652,-0.179585,-0.00572956,0,
4,0.963124,0.596893,-0.179318,-0.00563412,0,
4,0.974334,0.609113,-0.179016,-0.00546526,0,
4,0.98547,0.62145,-0.178699,-0.00529441,0,
4,0.996544,0.633876,-0.178382,-0.00509612,0,
4,1.00757,0.646343,-0.178059,-0.00486924,0,
4,1.01855,0.658795,-0.177732,-0.00461626,0,
4,1.0295,0.671171,-0.177401,-0.00434051,0,
4,1.04044,0.683399,-0.177066,-0.00404586,0,
4,1.0623,0.707105,-0.176385,-0.00341752,0,
4,1.07328,0.718433,-0.176036,-0.00309433,0,
4,1.08432,0.729277,-0.175683,-0.0027739,0,
4,1.09543,0.739529,-0.175324,-0.0024636,0,
4,1.10661,0.749092,-0.174959,-0.00217094,0,
4,1.11788,0.757889,-0.174589,-0.0019028,0,
4,1.12925,0.765873,-0.174213,-0.00166456,0,
4,1.14073,0.77304,-0.173831,-0.00145953,0,
4,1.15233,0.779431,-0.173443,-0.00128857,0,
4,1.16408,0.785119,-0.173049,-0.0011503,0,
4,1.17599,0.790203,-0.172649,-0.00104164,0,
4,1.18806,0.79479,-0.172242,-0.000958494,0,
4,1.20034,0.798982,-0.171828,-0.000896432,0,
4,1.21282,0.802871,-0.171407,-0.000851152,0,
4,1.22554,0.806533,-0.170979,-0.000818816,0,
4,1.23852,0.810032,-0.170543,-0.000796171,0,
4,1.25179,0.813416,-0.170099,-0.000780616,0,
4,1.26537,0.816724,-0.169646,-0.000770401,0,
4,1.2793,0.819987,-0.169183,-0.000763449,0,
4,1.29362,0.823231,-0.168711,-0.000758664,0,
4,1.30836,0.82648,-0.168225,-0.000755974,0,
4,1.32357,0.829758,-0.167732,-0.000754442,0,
4,1.3393,0.833106,-0.167234,-0.000745668,0,
4,1.3556,0.836558,-0.166722,-0.000737748,0,
4,1.37252,0.84012,-0.16619,-0.000729995,0,
4,1.39015,0.843795,-0.165638,-0.000722042,0,
4,1.40855,0.847587,-0.165064,-0.000713861,0,
4,1.42781,0.851507,-0.164467,-0.000705393,0,
4,1.44801,0.855569,-0.163846,-0.000696564,0,
4,1.46926,0.859789,-0.163199,-0.000687263,0,
4,1.49167,0.864187,-0.162523,-0.000677386,0,
4,1.51537,0.868786,-0.161817,-0.000666705,0,
4,1.54091,0.87368,-0.161062,-0.000654811,0,
4,1.56949,0.879071,-0.16023,-0.000641524,0,
4,1.60144,0.885013,-0.15931,-0.000626477,0,
4,1.63713,0.891544,-0.1583,-0.000609066,0,
4,1.67693,0.898689,-0.157191,-0.000588867,0,
4,1.72128,0.906468,-0.155979,-0.000565392,0,
4,1.77062,0.914881,-0.154655,-0.000538103,0,
4,1.82542,0.923901,-0.15322,-0.00050651,0,
4,1.88618,0.933462,-0.15166,-0.000470395,0,
4,1.95343,0.943499,-0.14999,-0.000416262,0,
4,2.02768,0.953888,-0.148211,-0.00034718,0,
4,2.10949,0.964302,-0.146312,-0.000270211,0,
4,2.19939,0.974197,-0.144306,-0.000190584,0,
4,2.29789,0.982909,-0.142201,-0.000116706,0,
4,2.40551,0.98974,-0.140016,-5.68494e-05,0,
4,2.52268,0.994111,-0.137773,-1.69467e-05,0,
4,2.64979,0.995788,-0.135499,2.03364e-06,0,
4,2.78715,0.995104,-0.133222,5.45399e-06,0,
4,2.93497,0.992969,-0.130968,2.68228e-06,0,
4,3.09333,0.990538,-0.128756,5.77249e-07,0,
4,3.26217,0.988657,-0.126602,6.905e-08,0,
4,3.44125,0.987535,-0.124518,2.11552e-08,0,
4,3.63018,0.986902,-0.122512,1.53251e-08,0,
4,3.82836,0.986401,-0.12059,1.37818e-08,0,
4,4.03501,0.98584,-0.118757,1.35355e-08,0,
4,4.24915,0.985205,-0.117019,1.31207e-08,0,
4,4.46961,0.98456,-0.115378,1.22163e-08,0,
4,4.69507,0.983959,-0.113835,1.10377e-08,0,
4,4.92406,0.98342,-0.112392,9.90504e-09,0,
4,5.15502,0.982937,-0.111048,8.96914e-09,0,
4,5.3863,0.982497,-0.109802,8.34787e-09,0,
4,5.61626,0.982087,-0.108653,8.25667e-09,0,
4,5.84328,0.981687,-0.107599,9.38561e-09,0,
4,6.06579,0.981298,-0.10664,1.37681e-08,0,
4,6.28238,0.980983,-0.10577,2.38502e-08,0,
4,6.49173,0.980903,-0.104987,1.9692e-08,0,
4,6.69275,0.981221,-0.104286,-1.0012e-07,0,
4,6.88453,0.981779,-0.103659,-1.19474e-08,0,
4,7.06634,0.981632,-0.103101,4.74019e-06,0,
4,7.23771,0.978924,-0.102608,2.89526e-05,0,
4,7.39831,0.971587,-0.102179,9.41895e-05,0,
4,7.54803,0.958669,-0.101817,0.000215251,0,
4,7.68693,0.941091,-0.101513,0.000377753,0,
4,7.81519,0.920841,-0.101249,0.000527798,0,
4,7.93313,0.899851,-0.101037,0.000681724,0,
4,8.04115,0.879591,-0.100857,0.000821126,0,
4,8.13974,0.860778,-0.100714,0.000935827,0,
4,8.22941,0.843464,-0.100599,0.00102222,0,
4,8.31073,0.827267,-0.100511,0.00107333,0,
4,8.38429,0.811809,-0.100449,0.00112224,0,
4,8.45065,0.796914,-0.100401,0.00116499,0,
4,8.5104,0.782462,-0.100367,0.00120178,0,
4,8.56407,0.768355,-0.100344,0.00123334,0,
4,8.61222,0.754518,-0.100329,0.0012603,0,
4,8.65533,0.740893,-0.100321,0.00128316,0,
4,8.69387,0.727434,-0.100318,0.00130226,0,
4,8.7283,0.714106,-0.100318,0.0013179,0,
4,8.75901,0.70088,-0.10032,0.00133029,0,
4,8.78637,0.687736,-0.100324,0.00133965,0,
4,8.81074,0.674657,-0.10033,0.00134614,0,
4,8.83242,0.661627,-0.100336,0.00134996,0,
4,8.85169,0.648632,-0.100343,0.0013513,0,
4,8.86881,0.63566,-0.100349,0.00135031,0,
4,8.88402,0.622695,-0.100355,0.0013472,0,
4,8.89751,0.609722,-0.100362,0.00134213,0,
4,8.90949,0.596722,-0.100367,0.00133526,0,
4,8.92011,0.583672,-0.100373,0.00132672,0,
4,8.92952,0.570549,-0.100377,0.00131663,0,
4,8.93787,0.557322,-0.100382,0.00130507,0,
4,8.94526,0.543957,-0.100386,0.00129206,0,
4,8.95182,0.530415,-0.100389,0.00127758,0,
4,8.95762,0.516649,-0.100393,0.00126156,0,
4,8.96276,0.502608,-0.100395,0.00124382,0,
4,8.96731,0.488228,-0.100398,0.0012241,0,
4,8.97134,0.473438,-0.1004,0.00120202,0,
4,8.97491,0.458154,-0.100402,0.00117704,0,
4,8.97807,0.442275,-0.100403,0.00114844,0,
4,8.98087,0.425682,-0.100404,0.00111523,0,
4,8.98334,0.408236,-0.100405,0.00107609,0,
4,8.98553,0.389766,-0.100406,0.00102972,0,
4,8.98747,0.370056,-0.100407,0.000972311,0,
4,8.98919,0.348823,-0.100408,0.000899106,0,
4,8.9907,0.325795,-0.100408,0.000811039,0,
4,8.99205,0.30078,-0.100409,0.000706406,0,
4,8.99324,0.273604,-0.100409,0.000576494,0,
4,8.99429,0.244185,-0.100409,0.000425491,0,
4,8.99522,0.212885,-0.100409,0.000271471,0,
4,8.99605,0.180759,-0.100409,0.000142604,0,
4,8.99677,0.14936,-0.100409,5.99008e-05,0,
4,8.99742,0.120068,-0.100409,2.00091e-05,0,
4,8.99799,0.0935879,-0.10041,5.29133e-06,0,
4,8.9985,0.0700153,-0.10041,1.06666e-06,0,
4,8.99894,0.04915,-0.10041,1.46988e-07,0,
4,8.99934,0.0307093,-0.10041,1.07654e-08,0,
4,8.99969,0.014414,-0.10041,2.32049e-10,0,

6,0,0,-0.0109483,0,0,
6,9,0,-0.0767169,0,0,
6,1.07704,0.724185,-0.025426,-0.00136843,0,
6,0.000299862,-0.000601472,-0.0109561,4.54619e-12,0,
6,0.000611645,-0.00113846,-0.0109499,1.50919e-10,0,
6,0.000938257,-0.00160536,-0.010956,1.34747e-09,0,
6,0.00128281,-0.00199357,-0.0109513,5.98535e-09,0,
6,0.00164864,-0.00229047,-0.0109561,1.63368e-08,0,
6,0.00203939,-0.00247882,-0.0109525,2.53264e-08,0,
6,0.00245897,-0.0025362,-0.0109565,-1.17366e-08,0,
6,0.00291168,-0.00243533,-0.0109538,-2.45682e-07,0,
6,0.00340221,-0.00214664,-0.0109573,-1.06731e-06,0,
6,0.00393573,-0.00164569,-0.0109556,-3.28713e-06,0,
6,0.00451788,-0.000927111,-0.0109594,-8.18004e-06,0,
6,0.00515491,-1.92958e-05,-0.0109597,-1.70533e-05,0,
6,0.00585371,0.00101659,-0.0109655,-3.03848e-05,0,
6,0.00662185,0.00211076,-0.0109698,-4.74519e-05,0,
6,0.00746774,0.00321166,-0.0109801,-6.70132e-05,0,
6,0.00840063,0.0042943,-0.0109907,-8.81786e-05,0,
6,0.00943073,0.00535341,-0.0110073,-0.000110648,0,
6,0.0105693,0.00639404,-0.0110259,-0.000134522,0,
6,0.0118288,0.00742543,-0.0110507,-0.000160088,0,
6,0.0132228,0.00845786,-0.0110792,-0.000187701,0,
6,0.0147664,0.00950147,-0.0111142,-0.000217743,0,
6,0.016476,0.0105659,-0.0111547,-0.000250607,0,
6,0.0183694,0.0116602,-0.0112028,-0.000286703,0,
6,0.0204662,0.0127932,-0.0112581,-0.000326458,0,
6,0.0227875,0.0139733,-0.0113222,-0.000370326,0,
6,0.0253561,0.015209,-0.0113957,-0.000418786,0,
6,0.0281964,0.0165088,-0.0114797,-0.00047235,0,
6,0.0313344,0.0178812,-0.0115751,-0.000531561,0,
6,0.0347975,0.0193352,-0.0116829,-0.000596995,0,
6,0.0386145,0.0208799,-0.0118041,-0.000669256,0,
6,0.042815,0.022525,-0.0119397,-0.000748973,0,
6,0.0474296,0.0242803,-0.0120904,-0.000836795,0,
6,0.0524888,0.0261565,-0.0122568,-0.000933377,0,
6,0.0580229,0.0281643,-0.0124394,-0.00103937,0,
6,0.0640611,0.0303151,-0.0126383,-0.00115542,0,
6,0.0706309,0.0326206,-0.0128532,-0.0012821,0,
6,0.077757,0.0350929,-0.0130836,-0.00141997,0,
6,0.0854609,0.0377444,-0.0133285,-0.00156947,0,
6,0.0937597,0.0405874,-0.0135862,-0.00173093,0,
6,0.102665,0.0436347,-0.0138549,-0.00190459,0,
6,0.112183,0.0468988,-0.0141321,-0.00209048,0,
6,0.122315,0.0503918,-0.0144151,-0.00228851,0,
6,0.133052,0.054126,-0.0147008,-0.00249836,0,
6,0.144384,0.058113,-0.0149862,-0.00271958,0,
6,0.156292,0.0623642,-0.015268,-0.00295151,0,
6,0.168754,0.066891,-0.0155432,-0.00319336,0,
6,0.181744,0.0717046,-0.0158089,-0.00344422,0,
6,0.195237,0.0768172,-0.0160627,-0.00370309,0,
6,0.209207,0.0822417,-0.0163023,-0.00396896,0,
6,0.223631,0.0879933,-0.0165262,-0.00424082,0,
6,0.238493,0.0940902,-0.0167331,-0.00451775,0,
6,0.253785,0.100555,-0.0169219,-0.00479893,0,
6,0.269507,0.107416,-0.0170923,-0.00508369,0,
6,0.28567,0.114709,-0.0172439,-0.00537154,0,
6,0.3023,0.122478,-0.0173767,-0.00566215,0,
6,0.319433,0.13078,-0.0174914,-0.00595534,0,
6,0.337122,0.139685,-0.0175886,-0.00625103,0,
6,0.355433,0.149275,-0.0176729,-0.00655023,0,
6,0.374445,0.159656,-0.0177353,-0.00684961,0,
6,0.394252,0.170953,-0.0178059,-0.00714967,0,
6,0.414961,0.183317,-0.0178929,-0.00751782,0,
6,0.436695,0.197147,-0.0177134,-0.00770662,0,
6,0.459585,0.212955,-0.0173427,-0.00783801,0,
6,0.48378,0.230947,-0.0171256,-0.00796547,0,
6,0.508144,0.250152,-0.0169991,-0.008052,0,
6,0.531799,0.269753,-0.0168821,-0.00808128,0,
6,0.554791,0.28973,-0.0167477,-0.00806125,0,
6,0.577166,0.310108,-0.0166284,-0.00800595,0,
6,0.598964,0.330835,-0.0165747,-0.00792594,0,
6,0.620228,0.351732,-0.0166188,-0.00782315,0,
6,0.640996,0.372527,-0.0167591,-0.00769225,0,
6,0.661304,0.392949,-0.0169653,-0.00752577,0,
6,0.681188,0.412819,-0.0171955,-0.00731908,0,
6,0.700681,0.432087,-0.0174141,-0.00707331,0,
6,0.719813,0.450803,-0.0176056,-0.00679542,0,
6,0.738612,0.469057,-0.0177767,-0.00649633,0,
6,0.757107,0.486917,-0.017949,-0.00618792,0,
6,0.775322,0.504389,-0.0181466,-0.00588011,0,
6,0.793282,0.521412,-0.0183857,-0.00557913,0,
6,0.811008,0.537887,-0.0186701,-0.00528748,0,
6,0.828521,0.553711,-0.0189932,-0.00500762,0,
6,0.845842,0.568814,-0.0193442,-0.00474001,0,
6,0.862989,0.58319,-0.0197128,-0.0044812,0,
6,0.879979,0.596894,-0.0200932,-0.00422888,0,
6,0.896829,0.610018,-0.0204827,-0.00398135,0,
6,0.913555,0.622673,-0.0208825,-0.00373629,0,
6,0.930172,0.634989,-0.0212905,-0.00346814,0,
6,0.946694,0.647017,-0.0217091,-0.00320429,0,
6,0.963136,0.658697,-0.0221413,-0.00293627,0,
6,0.97951,0.669948,-0.0225844,-0.00266763,0,
6,0.99583,0.680685,-0.0230386,-0.00240417,0,
6,1.01211,0.690823,-0.0235021,-0.00215216,0,
6,1.02836,0.700287,-0.0239741,-0.00191786,0,
6,1.04459,0.709015,-0.0244529,-0.00170679,0,
6,1.06081,0.716979,-0.0249374,-0.001523,0,
6,1.09329,0.730681,-0.0259182,-0.00124277,0,
6,1.10959,0.736543,-0.0264129,-0.0011438,0,
6,1.12595,0.741863,-0.0269102,-0.00106821,0,
6,1.14238,0.746739,-0.0274077,-0.00101432,0,
6,1.1589,0.751295,-0.0279107,-0.00097127,0,
6,1.17551,0.755682,-0.0284234,-0.000934819,0,
6,1.19223,0.760035,-0.0289433,-0.000902865,0,
6,1.20907,0.76442,-0.0294674,-0.000876242,0,
6,1.22605,0.768826,-0.029991,-0.000855734,0,
6,1.24318,0.773198,-0.0305123,-0.000840574,0,
6,1.26048,0.777491,-0.0310311,-0.000829211,0,
6,1.27797,0.7817,-0.0315494,-0.000819443,0,
6,1.29566,0.785856,-0.0320696,-0.00080966,0,
6,1.31357,0.789998,-0.0325936,-0.000799319,0,
6,1.33173,0.794159,-0.0331225,-0.000788605,0,
6,1.35015,0.79835,-0.0336565,-0.000777874,0,
6,1.36886,0.802574,-0.0341955,-0.000767315,0,
6,1.38788,0.806829,-0.0347394,-0.000756889,0,
6,1.40725,0.811114,-0.0352883,-0.000746412,0,
6,1.42698,0.815435,-0.0358428,-0.000735664,0,
6,1.44712,0.819799,-0.0364037,-0.000724504,0,
6,1.46769,0.824212,-0.0369717,-0.000712855,0,
6,1.48874,0.828681,-0.0375473,-0.000700656,0,
6,1.5103,0.833213,-0.0381313,-0.000687849,0,
6,1.53242,0.837811,-0.0387243,-0.00067437,0,
6,1.55515,0.842481,-0.039327,-0.000660202,0,
6,1.57854,0.847226,-0.0399403,-0.000645365,0,
6,1.60265,0.85205,-0.040565,-0.000629869,0,
6,1.62754,0.856954,-0.0412023,-0.000613707,0,
6,1.65329,0.861942,-0.041853,-0.000596867,0,
6,1.67998,0.867015,-0.0425185,-0.0005793,0,
6,1.70768,0.872177,-0.043199,-0.000561163,0,
6,1.73712,0.877529,-0.0439137,-0.000542581,0,
6,1.76996,0.883309,-0.0446963,-0.000522263,0,
6,1.80655,0.889548,-0.0455523,-0.000499858,0,
6,1.84728,0.89622,-0.0464863,-0.000475452,0,
6,1.89255,0.903279,-0.0474959,-0.000448643,0,
6,1.9428,0.910702,-0.0485935,-0.000412406,0,
6,1.99849,0.918475,-0.0497805,-0.000361048,0,
6,2.06009,0.926469,-0.0510461,-0.000304527,0,
6,2.1281,0.9344,-0.0523931,-0.000243983,0,
6,2.20301,0.941924,-0.0538131,-0.000183533,0,
6,2.28535,0.948672,-0.0552974,-0.000127546,0,
6,2.37559,0.954283,-0.056833,-7.98482e-05,0,
6,2.47424,0.958458,-0.0584031,-4.33585e-05,0,
6,2.58172,0.961053,-0.0599883,-1.93114e-05,0,
6,2.69844,0.962166,-0.0615668,-6.56013e-06,0,
6,2.82473,0.96218,-0.063117,-1.67213e-06,0,
6,2.96084,0.961689,-0.0646191,-5.19931e-07,0,
6,3.10691,0.961301,-0.066057,-3.00497e-07,0,
6,3.26296,0.961402,-0.0674188,-1.42956e-07,0,
6,3.42888,0.962031,-0.0686955,-4.87086e-08,0,
6,3.60438,0.962962,-0.0698792,-2.29334e-08,0,
6,3.78902,0.963912,-0.0709631,-1.78243e-08,0,
6,3.98218,0.964704,-0.0719419,-1.4382e-08,0,
6,4.18307,0.965304,-0.0728132,-1.14786e-08,0,
6,4.39071,0.96577,-0.073577,-9.48181e-09,0,
6,4.60398,0.966165,-0.0742359,-8.16595e-09,0,
6,4.82159,0.966524,-0.0747946,-7.2089e-09,0,
6,5.04218,0.966854,-0.0752596,-6.43365e-09,0,
6,5.26426,0.967146,-0.0756391,-5.91177e-09,0,
6,5.48633,0.967388,-0.0759421,-5.96063e-09,0,
6,5.70687,0.967573,-0.0761783,-7.33252e-09,0,
6,5.92439,0.967705,-0.0763575,-1.2381e-08,0,
6,6.1375,0.96783,-0.076489,-3.26933e-08,0,
6,6.34489,0.968059,-0.0765813,-1.26326e-07,0,
6,6.5454,0.968533,-0.076642,-4.67495e-07,0,
6,6.73802,0.969235,-0.0766767,-1.01035e-06,0,
6,6.92195,0.969655,-0.076691,9.00558e-07,0,
6,7.09653,0.968544,-0.0766892,1.52058e-05,0,
6,7.26132,0.964122,-0.0766803,5.94212e-05,0,
6,7.41603,0.954911,-0.0766598,0.000149755,0,
6,7.56054,0.940682,-0.076649,0.000290313,0,
6,7.6949,0.922516,-0.0766373,0.000425462,0,
6,7.81927,0.902115,-0.0766073,0.00056597,0,
6,7.93391,0.881328,-0.0765849,0.000707671,0,
6,8.0392,0.861552,-0.0765543,0.000833964,0,
6,8.13555,0.843352,-0.0765319,0.000938471,0,
6,8.22344,0.826606,-0.0765122,0.00101866,0,
6,8.30339,0.810837,-0.0765048,0.00107009,0,
6,8.37592,0.795681,-0.0765065,0.00112089,0,
6,8.44155,0.781005,-0.0765097,0.00116529,0,
6,8.50082,0.766717,-0.0765172,0.00120345,0,
6,8.55423,0.752741,-0.0765264,0.00123611,0,
6,8.60229,0.739018,-0.0765377,0.00126387,0,
6,8.64545,0.725501,-0.0765499,0.00128713,0,
6,8.68417,0.712154,-0.0765628,0.00130622,0,
6,8.71885,0.698951,-0.0765758,0.00132137,0,
6,8.74989,0.68587,-0.0765888,0.0013328,0,
6,8.77763,0.672899,-0.0766013,0.00134074,0,
6,8.80241,0.660024,-0.0766133,0.0013454,0,
6,8.82452,0.647235,-0.0766247,0.00134703,0,
6,8.84423,0.634523,-0.0766352,0.00134587,0,
6,8.86181,0.621875,-0.076645,0.00134219,0,
6,8.87746,0.60928,-0.0766539,0.00133625,0,
6,8.89139,0.596723,-0.076662,0.0013283,0,
6,8.90379,0.584185,-0.0766693,0.00131858,0,
6,8.91482,0.571646,-0.0766759,0.00130731,0,
6,8.92463,0.559081,-0.0766817,0.00129465,0,
6,8.93334,0.546461,-0.0766869,0.00128075,0,
6,8.94109,0.533753,-0.0766914,0.0012657,0,
6,8.94798,0.52092,-0.0766953,0.00124953,0,
6,8.95409,0.507919,-0.0766988,0.00123221,0,
6,8.95953,0.494702,-0.0767017,0.00121364,0,
6,8.96435,0.481213,-0.0767043,0.00119363,0,
6,8.96863,0.467388,-0.0767065,0.0011719,0,
6,8.97244,0.453154,-0.0767084,0.00114804,0,
6,8.97581,0.438425,-0.07671,0.00112148,0,
6,8.97881,0.423101,-0.0767113,0.00109148,0,
6,8.98147,0.407063,-0.0767124,0.001057,0,
6,8.98383,0.390172,-0.0767134,0.00101673,0,
6,8.98593,0.372262,-0.0767141,0.000969167,0,
6,8.98779,0.353126,-0.0767148,0.000911225,0,
6,8.98944,0.332503,-0.0767153,0.000837864,0,
6,8.9909,0.310141,-0.0767157,0.00075055,0,
6,8.9922,0.285867,-0.076716,0.000646954,0,
6,8.99336,0.259516,-0.0767163,0.000518443,0,
6,8.99438,0.231073,-0.0767164,0.000374789,0,
6,8.99529,0.20102,-0.0767166,0.000233163,0,
6,8.99609,0.170447,-0.0767166,0.000119548,0,
6,8.99681,0.140803,-0.0767167,4.93715e-05,0,
6,8.99744,0.113269,-0.0767167,1.63764e-05,0,
6,8.99801,0.0883973,-0.0767168,4.33487e-06,0,
6,8.9985,0.0662257,-0.0767168,8.786e-07,0,
6,8.99895,0.0465567,-0.0767169,1.21938e-07,0,
6,8.99934,0.0291297,-0.0767168,8.99474e-09,0,
6,8.99969,0.013691,-0.0767169,1.949e-10,0,

10,0,0,0.00497803,0,0,
10,0.000296632,0.00637218,0.00496691,-2.76659e-11,0,
10,0.000596102,0.0128137,0.00497701,-1.02699e-09,0,
10,0.000900397,0.0193675,0.00496771,-1.04587e-08,0,
10,0.00121153,0.0260767,0.00497601,-5.63054e-08,0,
10,0.00153158,0.0329852,0.00496833,-2.11102e-07,0,
10,0.00186264,0.0401366,0.00497515,-6.29709e-07,0,
10,0.00220692,0.0475732,0.00496878,-1.60623e-06,0,
10,0.00256668,0.0553325,0.0049744,-3.65373e-06,0,
10,0.00294431,0.0634431,0.00496907,-7.60089e-06,0,
10,0.00334229,0.0719164,0.00497371,-1.4676e-05,0,
10,0.00376326,0.080736,0.00496919,-2.65059e-05,0,
10,0.00421,0.0898451,0.00497302,-4.49138e-05,0,
10,0.00468544,0.0991375,0.00496907,-7.14256e-05,0,
10,0.00519274,0.108459,0.00497216,-0.000106569,0,
10,0.00573524,0.117623,0.00496856,-0.000149329,0,
10,0.00631651,0.126444,0.00497086,-0.000197206,0,
10,0.00694041,0.134768,0.00496738,-0.000246943,0,
10,0.00761104,0.142495,0.00496874,-0.000295487,0,
10,0.00833284,0.149581,0.00496512,-0.000340651,0,
10,0.00911058,0.156027,0.00496532,-0.000381295,0,
10,0.0099494,0.161872,0.00496125,-0.000417156,0,
10,0.0108548,0.167168,0.00496004,-0.000448555,0,
10,0.0118329,0.171978,0.0049552,-0.00047612,0,
10,0.0128901,0.176366,0.00495229,-0.000500597,0,
10,0.0140333,0.180391,0.00494632,-0.000522729,0,
10,0.0152702,0.184104,0.00494142,-0.000543198,0,
10,0.0166089,0.187554,0.00493389,-0.000562606,0,
10,0.0180584,0.190781,0.00492666,-0.000581471,0,
10,0.0196282,0.193821,0.00491711,-0.000600243,0,
10,0.0213288,0.196703,0.00490716,-0.000619312,0,
10,0.0231714,0.199455,0.00489502,-0.000639022,0,
10,0.0251682,0.202099,0.00488187,-0.000659687,0,
10,0.0273326,0.204655,0.00486651,-0.000681595,0,
10,0.0296789,0.207142,0.00484958,-0.000705023,0,
10,0.0322227,0.209576,0.00483027,-0.000730238,0,
10,0.0349809,0.211972,0.00480886,-0.000757507,0,
10,0.0379719,0.214343,0.00478478,-0.000787102,0,
10,0.0412155,0.216702,0.00475807,-0.000819302,0,
10,0.0447333,0.219063,0.00472828,-0.000854395,0,
10,0.0485489,0.221437,0.0046953,-0.000892687,0,
10,0.0526875,0.223836,0.00465876,-0.000934498,0,
10,0.0571768,0.226273,0.00461842,-0.00098017,0,
10,0.0620466,0.22876,0.00457395,-0.00103006,0,
10,0.0673295,0.23131,0.00452506,-0.00108457,0,
10,0.0730607,0.233938,0.00447139,-0.00114409,0,
10,0.0792784,0.236657,0.00441262,-0.00120908,0,
10,0.0860241,0.239485,0.00434838,-0.00127999,0,
10,0.0933428,0.242438,0.00427831,-0.00135733,0,
10,0.101283,0.245535,0.00420204,-0.00144161,0,
10,0.109899,0.248798,0.00411919,-0.00153338,0,
10,0.119247,0.252251,0.00402936,-0.00163324,0,
10,0.12939,0.25592,0.00393215,-0.00174177,0,
10,0.140395,0.259835,0.00382713,-0.00185958,0,
10,0.152337,0.264031,0.00371386,-0.0019873,0,
10,0.165296,0.268547,0.00359182,-0.00212555,0,
10,0.179357,0.273427,0.00346058,-0.00227489,0,
10,0.194615,0.278723,0.00331937,-0.00243588,0,
10,0.211171,0.284495,0.00316781,-0.00260893,0,
10,0.229138,0.290811,0.00300458,-0.00279434,0,
10,0.248635,0.29775,0.00282971,-0.00299219,0,
10,0.269793,0.305405,0.00264032,-0.00320222,0,
10,0.292753,0.31388,0.00243841,-0.00342373,0,
10,0.317669,0.323298,0.00221632,-0.00365402,0,
10,0.344708,0.333791,0.00198211,-0.00388921,0,
10,0.372405,0.344858,0.0017349,-0.00412667,0,
10,0.399623,0.3561,0.00151516,-0.00437843,0,
10,0.426397,0.367783,0.00135598,-0.00452102,0,
10,0.452757,0.380174,0.0011954,-0.00466779,0,
10,0.478735,0.393222,0.0010076,-0.00480613,0,
10,0.504358,0.406758,0.000808053,-0.00492565,0,
10,0.529657,0.42063,0.000606145,-0.00502108,0,
10,0.554656,0.434747,0.000414724,-0.00509058,0,
10,0.579382,0.449078,0.000238771,-0.00513416,0,
10,0.603859,0.463634,8.13368e-05,-0.0051521,0,
10,0.628112,0.478439,-5.76745e-05,-0.00514436,0,
10,0.652163,0.493517,-0.000178913,-0.00511053,0,
10,0.676035,0.508881,-0.000283607,-0.00505007,0,
10,0.699751,0.524523,-0.000372924,-0.00496272,0,
10,0.72333,0.540417,-0.000448114,-0.004849,0,
10,0.746795,0.556508,-0.000510441,-0.00471019,0,
10,0.770165,0.572722,-0.000561232,-0.00454811,0,
10,0.79346,0.588963,-0.00060189,-0.0043651,0,
10,0.816699,0.605125,-0.00063381,-0.00416404,0,
10,0.839903,0.621091,-0.000658577,-0.00394833,0,
10,0.863088,0.636737,-0.000677473,-0.00372177,0,
10,0.886275,0.651932,-0.000692305,-0.00348852,0,
10,0.909481,0.666533,-0.00070369,-0.00325823,0,
10,0.932723,0.680417,-0.000712658,-0.00303349,0,
10,0.956021,0.693522,-0.000721072,-0.00281557,0,
10,0.97939,0.705853,-0.000730023,-0.00260575,0,
10,1.00285,0.717454,-0.000740283,-0.00240466,0,
10,1.02641,0.728395,-0.000751816,-0.00221209,0,
10,1.0501,0.738752,-0.000763984,-0.00202734,0,
10,1.07392,0.748589,-0.000776018,-0.00185022,0,
10,1.0979,0.757949,-0.000787687,-0.00168056,0,
10,1.12205,0.766852,-0.000796332,-0.00151639,0,
10,1.14639,0.775283,-0.000804601,-0.00136221,0,
10,1.17093,0.783206,-0.00081519,-0.00122281,0,
10,1.19568,0.790624,-0.000831306,-0.00109535,0,
10,1.22066,0.797599,-0.000852448,-0.000982001,0,
10,1.24589,0.804206,-0.000875701,-0.000883465,0,
10,1.27137,0.810497,-0.000902199,-0.000799201,0,
10,1.29713,0.816497,-0.000932094,-0.000728388,0,
10,1.32317,0.822226,-0.000966707,-0.000669837,0,
10,1.34951,0.827709,-0.00100652,-0.00062192,0,
10,1.37616,0.83299,-0.00105189,-0.000582706,0,
10,1.40313,0.838121,-0.0011028,-0.000550212,0,
10,1.43043,0.843146,-0.00115929,-0.000522651,0,
10,1.45807,0.848098,-0.00122152,-0.000498573,0,
10,1.48607,0.852991,-0.00128972,-0.000476896,0,
10,1.51444,0.857832,-0.00136416,-0.000456862,0,
10,1.54318,0.862621,-0.00144505,-0.000437959,0,
10,1.57231,0.867356,-0.00153261,-0.000419838,0,
10,1.60184,0.872033,-0.00162702,-0.000402259,0,
10,1.63178,0.876642,-0.00172853,-0.00038505,0,
10,1.66213,0.881174,-0.00183725,-0.000368098,0,
10,1.69292,0.885617,-0.00195349,-0.000351334,0,
10,1.72416,0.889956,-0.00207717,-0.000334729,0,
10,1.75585,0.894175,-0.00220875,-0.0003183,0,
10,1.78802,0.898252,-0.00234768,-0.000302106,0,
10,1.82067,0.902168,-0.00249534,-0.000286251,0,
10,1.85383,0.905916,-0.00265001,-0.00027086,0,
10,1.88751,0.909521,-0.00281644,-0.000252917,0,
10,1.92173,0.913034,-0.00299351,-0.0002325,0,
10,1.95652,0.916468,-0.00317842,-0.000212394,0,
10,1.9919,0.919795,-0.00337307,-0.000191338,0,
10,2.02791,0.922981,-0.00357748,-0.000169712,0,
10,2.06456,0.925997,-0.00379116,-0.00014789,0,
10,2.10268,0.928868,-0.0040209,-0.000125768,0,
10,2.1443,0.93167,-0.00427743,-0.000103959,0,
10,2.18977,0.934345,-0.00456652,-8.2702e-05,0,
10,2.23946,0.936804,-0.00489054,-6.24132e-05,0,
10,2.29376,0.938955,-0.00525505,-4.39911e-05,0,
10,2.35309,0.940711,-0.00566363,-2.8174e-05,0,
10,2.4179,0.941994,-0.00612168,-1.55149e-05,0,
10,2.48863,0.942753,-0.00663333,-6.32994e-06,0,
10,2.56575,0.942978,-0.00720349,-6.0422e-07,0,
10,2.64971,0.942717,-0.00783593,2.08051e-06,0,
10,2.74098,0.942085,-0.00853433,2.53491e-06,0,
10,2.83997,0.941261,-0.00930107,1.79558e-06,0,
10,2.94709,0.94046,-0.0101378,8.11035e-07,0,
10,3.06269,0.939885,-0.0110449,1.40351e-07,0,
10,3.18706,0.939666,-0.0120212,-1.1764e-07,0,
10,3.3204,0.939829,-0.0130642,-1.29476e-07,0,
10,3.46281,0.940296,-0.0141691,-7.48917e-08,0,
10,3.61427,0.940928,-0.0153292,-3.52543e-08,0,
10,3.77463,0.941585,-0.0165353,-1.87408e-08,0,
10,3.94358,0.942179,-0.0177763,-1.34994e-08,0,
10,4.12067,0.942686,-0.0190395,-1.17624e-08,0,
10,4.30525,0.943136,-0.0203112,-1.11611e-08,0,
10,4.49655,0.943573,-0.0215771,-1.12254e-08,0,
10,4.6936,0.944026,-0.0228233,-1.18897e-08,0,
10,4.89531,0.944502,-0.0240366,-1.34657e-08,0,
10,5.10047,0.944985,-0.0252049,-1.70399e-08,0,
10,5.30776,0.945453,-0.026318,-2.51586e-08,0,
10,5.51581,0.945888,-0.0273674,-4.30682e-08,0,
10,5.72323,0.946285,-0.0283468,-8.25848e-08,0,
10,5.92863,0.946667,-0.0292522,-1.74882e-07,0,
10,6.13069,0.947099,-0.0300816,-4.08895e-07,0,
10,6.32816,0.947676,-0.030835,-9.79729e-07,0,
10,6.51991,0.94843,-0.0315145,-1.96332e-06,0,
10,6.70495,0.949124,-0.0321232,-1.94307e-06,0,
10,6.88244,0.949027,-0.0326647,4.81931e-06,0,
10,7.0517,0.946888,-0.0331435,2.97861e-05,0,
10,7.21224,0.941299,-0.0335596,8.64431e-05,0,
10,7.3637,0.931372,-0.0339195,0.00018364,0,
10,7.5059,0.917192,-0.0342258,0.000311232,0,
10,7.63878,0.899448,-0.0344806,0.000425535,0,
10,7.76243,0.879348,-0.034697,0.000550383,0,
10,7.87701,0.858701,-0.0348664,0.000676021,0,
10,7.9828,0.838941,-0.0350054,0.000787643,0,
10,8.08014,0.820684,-0.0351146,0.000881197,0,
10,8.16941,0.803885,-0.0352048,0.000958624,0,
10,8.25106,0.788189,-0.0352797,0.0010239,0,
10,8.32554,0.773226,-0.0353448,0.00108022,0,
10,8.39331,0.758739,-0.0354012,0.0011292,0,
10,8.45484,0.744589,-0.0354501,0.00117164,0,
10,8.5106,0.730718,-0.0354921,0.00120811,0,
10,8.56104,0.717101,-0.0355281,0.00123914,0,
10,8.60659,0.703731,-0.0355594,0.00126513,0,
10,8.64767,0.690601,-0.0355867,0.00128639,0,
10,8.68467,0.677707,-0.0356113,0.00130301,0,
10,8.71795,0.665021,-0.0356338,0.00131198,0,
10,8.74786,0.652521,-0.0356531,0.00131721,0,
10,8.77471,0.640202,-0.0356702,0.0013182,0,
10,8.79881,0.628059,-0.035685,0.0013155,0,
10,8.8204,0.616083,-0.035698,0.00130965,0,
10,8.83975,0.604262,-0.0357092,0.00130116,0,
10,8.85708,0.592583,-0.0357189,0.00129047,0,
10,8.87259,0.581026,-0.0357273,0.00127803,0,
10,8.88646,0.569572,-0.0357345,0.0012642,0,
10,8.89886,0.558196,-0.0357407,0.0012493,0,
10,8.90995,0.546871,-0.035746,0.0012336,0,
10,8.91986,0.535567,-0.0357505,0.00121728,0,
10,8.92872,0.524254,-0.0357543,0.00120051,0,
10,8.93663,0.512895,-0.0357576,0.00118337,0,
10,8.94369,0.501452,-0.0357603,0.00116587,0,
10,8.95,0.489886,-0.0357626,0.00114798,0,
10,8.95564,0.478149,-0.0357646,0.00112959,0,
10,8.96067,0.466194,-0.0357661,0.00111058,0,
10,8.96517,0.453966,-0.0357675,0.00109067,0,
10,8.96918,0.441404,-0.0357686,0.00106955,0,
10,8.97276,0.428438,-0.0357696,0.00104678,0,
10,8.97596,0.41499,-0.0357703,0.0010218,0,
10,8.97882,0.400966,-0.035771,0.000993886,0,
10,8.98137,0.386258,-0.0357715,0.000962106,0,
10,8.98365,0.370741,-0.035772,0.000925245,0,
10,8.98569,0.354263,-0.0357722,0.000881883,0,
10,8.9875,0.336642,-0.0357727,0.000829894,0,
10,8.98913,0.317643,-0.0357727,0.000764056,0,
10,8.99058,0.297031,-0.0357731,0.000686244,0,
10,8.99188,0.274643,-0.0357731,0.000594218,0,
10,8.99304,0.250314,-0.0357734,0.000480766,0,
10,8.99408,0.223993,-0.0357732,0.000353476,0,
10,8.99501,0.196039,-0.0357736,0.000225909,0,
10,8.99583,0.16735,-0.0357733,0.000120155,0,
10,8.99658,0.139198,-0.0357737,5.17461e-05,0,
10,8.99724,0.112718,-0.0357733,1.78915e-05,0,
10,8.99784,0.0885167,-0.0357738,4.91965e-06,0,
10,8.99837,0.0667117,-0.0357733,1.03212e-06,0,
10,8.99885,0.0471705,-0.0357738,1.47871e-07,0,
10,8.99927,0.0296807,-0.0357733,1.12267e-08,0,
10,8.99966,0.0140257,-0.0357739,2.48394e-10,0,
10,9,0,-0.0357733,0,0,

0.0416667,0,0,-0.218702,0,1.77076e-06,
0.0833333,0,0,-0.218818,0,3.19463e-06,
0.125,0,0,-0.218789,0,4.11239e-06,
0.166667,0,0,-0.218837,0,7.09957e-06,
0.208333,0,0,-0.218866,0,1.04094e-05,
0.25,0,0,-0.218918,0,1.41946e-05,
0.291667,0,0,-0.218976,0,1.76591e-05,
0.333333,0,0,-0.219043,0,2.05103e-05,
0.375,0,0,-0.219116,0,2.24888e-05,
0.416667,0,0,-0.21919,0,2.37059e-05,
0.458333,0,0,-0.219267,0,2.44591e-05,
0.5,0,0,-0.219345,0,2.51334e-05,
0.541667,0,0,-0.219427,0,2.61129e-05,
0.583333,0,0,-0.219513,0,2.76702e-05,
0.625,0,0,-0.219607,0,2.99659e-05,
0.666667,0,0,-0.21971,0,3.30105e-05,
0.708333,0,0,-0.219823,0,3.67146e-05,
0.75,0,0,-0.219949,0,4.09043e-05,
0.791667,0,0,-0.220087,0,4.53741e-05,
0.833333,0,0,-0.22024,0,4.98806e-05,
0.875,0,0,-0.22041,0,5.41498e-05,
0.916667,0,0,-0.220596,0,5.79123e-05,
0.958333,0,0,-0.220804,0,6.09123e-05,
1,0,0,-0.221038,0,6.28198e-05,
1.04167,0,0,-0.221304,0,6.32268e-05,
1.08333,0,0,-0.22161,0,6.16649e-05,
1.125,0,0,-0.221963,0,5.75748e-05,
1.16667,0,0,-0.22237,0,5.0346e-05,
1.20833,0,0,-0.222837,0,3.93942e-05,
1.25,0,0,-0.223365,0,2.42434e-05,
1.29167,0,0,-0.223954,0,4.62015e-06,
1.33333,0,0,-0.224598,0,-1.94906e-05,
1.375,0,0,-0.22529,0,-4.78359e-05,
1.41667,0,0,-0.226022,0,-7.99464e-05,
1.45833,0,0,-0.226784,0,-0.000115215,
1.5,0,0,-0.227566,0,-0.000152989,
1.54167,0,0,-0.22836,0,-0.000192647,
1.58333,0,0,-0.229157,0,-0.000233648,
1.625,0,0,-0.22995,0,-0.000275563,
1.66667,0,0,-0.230733,0,-0.000318068,
1.70833,0,0,-0.231499,0,-0.000360934,
1.75,0,0,-0.232245,0,-0.000404001,
1.79167,0,0,-0.232965,0,-0.000447161,
1.83333,0,0,-0.233655,0,-0.000490335,
1.875,0,0,-0.23431,0,-0.00053346,
1.91667,0,0,-0.234927,0,-0.000576482,
1.95833,0,0,-0.2355,0,-0.000619347,
2,0,0,-0.236027,0,-0.000662,
2.04167,0,0,-0.236503,0,-0.000704386,
2.08333,0,0,-0.236926,0,-0.000746451,
2.125,0,0,-0.237293,0,-0.000788138,
2.16667,0,0,-0.2376,0,-0.000829395,
2.20833,0,0,-0.237845,0,-0.000870168,
2.25,0,0,-0.238027,0,-0.000910404,
2.29167,0,0,-0.238142,0,-0.000950052,
2.33333,0,0,-0.238188,0,-0.000989055,
2.375,0,0,-0.238163,0,-0.00102736,
2.41667,0,0,-0.238065,0,-0.0010649,
2.45833,0,0,-0.23789,0,-0.00110161,
2.5,0,0,-0.237636,0,-0.00113742,
2.54167,0,0,-0.2373,0,-0.00117226,
2.58333,0,0,-0.23688,0,-0.00120607,
2.625,0,0,-0.236373,0,-0.00123877,
2.66667,0,0,-0.235777,0,-0.00127029,
2.70833,0,0,-0.23509,0,-0.00130058,
2.75,0,0,-0.234311,0,-0.00132958,
2.79167,0,0,-0.233439,0,-0.00135725,
2.83333,0,0,-0.232475,0,-0.00138353,
2.875,0,0,-0.231419,0,-0.00140841,
2.91667,0,0,-0.230273,0,-0.00143187,
2.95833,0,0,-0.229038,0,-0.00145391,
3,0,0,-0.227717,0,-0.00147454,
3.04167,0,0,-0.226313,0,-0.00149378,
3.08333,0,0,-0.224828,0,-0.00151164,
3.125,0,0,-0.223267,0,-0.00152815,
3.16667,0,0,-0.22163,0,-0.00154336,
3.20833,0,0,-0.219923,0,-0.00155731,
3.25,0,0,-0.218148,0,-0.00157003,
3.29167,0,0,-0.216306,0,-0.00158158,
3.33333,0,0,-0.214402,0,-0.00159199,
3.375,0,0,-0.212435,0,-0.00160132,
3.41667,0,0,-0.210409,0,-0.00160961,
3.45833,0,0,-0.208325,0,-0.00161688,
3.5,0,0,-0.206183,0,-0.00162317,
3.54167,0,0,-0.203984,0,-0.0016285,
3.58333,0,0,-0.201729,0,-0.0016329,
3.625,0,0,-0.199419,0,-0.00163638,
3.66667,0,0,-0.197054,0,-0.00163896,
3.70833,0,0,-0.194633,0,-0.00164064,
3.75,0,0,-0.192157,0,-0.00164145,
3.79167,0,0,-0.189626,0,-0.00164139,
3.83333,0,0,-0.187039,0,-0.00164047,
3.875,0,0,-0.184395,0,-0.00163869,
3.91667,0,0,-0.181695,0,-0.00163606,
3.95833,0,0,-0.178935,0,-0.00163256,
4,0,0,-0.176117,0,-0.00162819,
4.04167,0,0,-0.173238,0,-0.00162292,
4.08333,0,0,-0.170298,0,-0.00161672,
4.125,0,0,-0.167295,0,-0.00160956,
4.16667,0,0,-0.164228,0,-0.00160141,
4.20833,0,0,-0.161096,0,-0.00159222,
4.25,0,0,-0.1579,0,-0.00158196,
4.29167,0,0,-0.154638,0,-0.00157057,
4.33333,0,0,-0.15131,0,-0.00155801,
4.375,0,0,-0.147918,0,-0.00154425,
4.41667,0,0,-0.144462,0,-0.00152922,
4.45833,0,0,-0.140942,0,-0.0015129,
4.5,0,0,-0.137362,0,-0.00149522,
4.54167,0,0,-0.133724,0,-0.00147616,
4.58333,0,0,-0.13003,0,-0.00145569,
4.625,0,0,-0.126284,0,-0.00143376,
4.66667,0,0,-0.122491,0,-0.00141037,
4.70833,0,0,-0.118655,0,-0.0013855,
4.75,0,0,-0.11478,0,-0.00135914,
4.79167,0,0,-0.110872,0,-0.0013313,
4.83333,0,0,-0.106938,0,-0.00130198,
4.875,0,0,-0.102983,0,-0.0012712,
4.91667,0,0,-0.0990145,0,-0.00123899,
4.95833,0,0,-0.0950384,0,-0.00120538,
5,0,0,-0.0910621,0,-0.00117042,
5.04167,0,0,-0.0870926,0,-0.00113415,
5.08333,0,0,-0.083137,0,-0.00109664,
5.125,0,0,-0.0792024,0,-0.00105796,
5.16667,0,0,-0.0752958,0,-0.00101818,
5.20833,0,0,-0.0714241,0,-0.000977376,
5.25,0,0,-0.0675937,0,-0.000935641,
5.29167,0,0,-0.063811,0,-0.00089306,
5.33333,0,0,-0.0600818,0,-0.000849723,
5.375,0,0,-0.0564118,0,-0.000805722,
5.41667,0,0,-0.052806,0,-0.000761149,
5.45833,0,0,-0.0492689,0,-0.000716091,
5.5,0,0,-0.0458048,0,-0.000670634,
5.54167,0,0,-0.0424174,0,-0.000624857,
5.58333,0,0,-0.0391099,0,-0.000578835,
5.625,0,0,-0.0358851,0,-0.000532631,
5.66667,0,0,-0.0327455,0,-0.0004863,
5.70833,0,0,-0.0296933,0,-0.000439891,
5.75,0,0,-0.0267306,0,-0.000393447,
5.79167,0,0,-0.0238594,0,-0.000347016,
5.83333,0,0,-0.0210818,0,-0.000300666,
5.875,0,0,-0.0184003,0,-0.000254505,
5.91667,0,0,-0.0158173,0,-0.000208702,
5.95833,0,0,-0.0133338,0,-0.000163452,
6,0,0,-0.0109485,0,-0.000118894,
6.04167,0,0,-0.00865943,0,-7.50772e-05,
6.08333,0,0,-0.00646436,0,-3.19937e-05,
6.125,0,0,-0.00436133,0,1.03739e-05,
6.16667,0,0,-0.0023485,0,5.20314e-05,
6.20833,0,0,-0.000424153,0,9.29747e-05,
6.25,0,0,0.00141341,0,0.000133193,
6.29167,0,0,0.00316586,0,0.000172675,
6.33333,0,0,0.00483483,0,0.000211404,
6.375,0,0,0.00642196,0,0.000249368,
6.41667,0,0,0.00792891,0,0.00028655,
6.45833,0,0,0.00935734,0,0.000322937,
6.5,0,0,0.0107089,0,0.000358513,
6.54167,0,0,0.0119853,0,0.000393265,
6.58333,0,0,0.0131881,0,0.000427179,
6.625,0,0,0.0143191,0,0.000460242,
6.66667,0,0,0.0153798,0,0.000492444,
6.70833,0,0,0.0163721,0,0.000523773,
6.75,0,0,0.0172975,0,0.000554219,
6.79167,0,0,0.0181576,0,0.000583772,
6.83333,0,0,0.0189542,0,0.000612425,
6.875,0,0,0.0196887,0,0.000640171,
6.91667,0,0,0.020363,0,0.000667003,
6.95833,0,0,0.0209784,0,0.000692918,
7,0,0,0.0215368,0,0.000717913,
7.04167,0,0,0.0220395,0,0.00074199,
7.08333,0,0,0.0224882,0,0.000765153,
7.125,0,0,0.0228845,0,0.000787407,
7.16667,0,0,0.0232298,0,0.000808764,
7.20833,0,0,0.0235255,0,0.000829233,
7.25,0,0,0.0237732,0,0.000848826,
7.29167,0,0,0.0239744,0,0.000867558,
7.33333,0,0,0.0241306,0,0.00088544,
7.375,0,0,0.024243,0,0.000902483,
7.41667,0,0,0.0243129,0,0.00091869,
7.45833,0,0,0.0243417,0,0.000934069,
7.5,0,0,0.0243305,0,0.000948626,
7.54167,0,0,0.0242807,0,0.000962378,
7.58333,0,0,0.0241936,0,0.000975342,
7.625,0,0,0.0240704,0,0.000987543,
7.66667,0,0,0.0239125,0,0.00099901,
7.70833,0,0,0.0237211,0,0.00100977,
7.75,0,0,0.0234974,0,0.00101986,
7.79167,0,0,0.0232426,0,0.00102931,
7.83333,0,0,0.0229575,0,0.00103815,
7.875,0,0,0.022643,0,0.00104648,
7.91667,0,0,0.0223117,0,0.00105486,
7.95833,0,0,0.021892,0,0.00106167,
8,0,0,0.0215538,0,0.001068,
8.04171,0,0,0.0212247,0,0.00107519,
8.08368,0,0,0.0207556,0,0.00108188,
8.12617,0,0,0.0203134,0,0.00108657,
8.16946,0,0,0.019838,0,0.00109103,
8.21382,0,0,0.0193261,0,0.00109516,
8.25952,0,0,0.0187815,0,0.00109896,
8.30685,0,0,0.0182002,0,0.00110258,
8.35611,0,0,0.017579,0,0.00110608,
8.40762,0,0,0.0169149,0,0.00110952,
8.46168,0,0,0.0162047,0,0.00111295,
8.51865,0,0,0.0154457,0,0.00111643,
8.57889,0,0,0.0146354,0,0.00111999,
8.64276,0,0,0.0137726,0,0.00112371,
8.71067,0,0,0.0128573,0,0.00112765,
8.78306,0,0,0.0118917,0,0.0011319,
8.86037,0,0,0.0108814,0,0.00113656,
8.94309,0,0,0.00983604,0,0.00114179,
9.03174,0,0,0.00877132,0,0.00114775,
9.12689,0,0,0.00771021,0,0.00115471,
9.22912,0,0,0.00668553,0,0.00116296,
9.33908,0,0,0.00574354,0,0.00117295,
9.45746,0,0,0.00494751,0,0.00118527,
9.58501,0,0,0.00438126,0,0.00120078,
9.72253,0,0,0.00414836,0,0.00122065,
9.87088,0,0,0.00436143,0,0.00124633,
10.031,0,0,0.00512605,0,0.0012794,
10.2039,0,0,0.00651334,0,0.00132123,
10.3906,0,0,0.00853188,0,0.00137257,
10.5924,0,0,0.0111179,0,0.00143321,
10.8105,0,0,0.0141297,0,0.00150184,
11.0463,0,0,0.0173526,0,0.00157601,
11.3012,0,0,0.0205214,0,0.00165226,
11.5769,0,0,0.0233583,0,0.0017267,
11.8751,0,0,0.025619,0,0.00179572,
12.1977,0,0,0.0271233,0,0.0018565,
12.5466,0,0,0.0277774,0,0.00190743,
12.9242,0,0,0.0275871,0,0.00194815,
13.3327,0,0,0.0266457,0,0.00197951,
13.7748,0,0,0.0251123,0,0.00200323,
14.2532,0,0,0.0231912,0,0.00202145,
14.7709,0,0,0.0210963,0,0.00203626,
15.3312,0,0,0.0190049,0,0.00204924,
15.9377,0,0,0.0170373,0,0.00206129,
16.594,0,0,0.0152712,0,0.00207283,
17.3044,0,0,0.0137683,0,0.0020841,
18.0733,0,0,0.012572,0,0.00209531,
18.9056,0,0,0.0116752,0,0.00210643,
19.8064,0,0,0.0109964,0,0.00211699,
20.7816,0,0,0.0104076,0,0.00212634,
21.8371,0,0,0.00980462,0,0.00213415,
22.9796,0,0,0.00915978,0,0.00214068,
24.2163,0,0,0.00851071,0,0.00214655,
25.5551,0,0,0.0079085,0,0.00215252,
27.0042,0,0,0.00737305,0,0.00215916,
28.5729,0,0,0.00688556,0,0.00216687,
30.271,0,0,0.0064077,0,0.00217583,
32.1091,0,0,0.00590195,0,0.00218601,
34.0989,0,0,0.00533925,0,0.00219732,
36.2529,0,0,0.00469183,0,0.00220956,
38.5845,0,0,0.00394596,0,0.00222252,
41.1085,0,0,0.0031396,0,0.00223599,
43.8407,0,0,0.00212897,0,0.00224774,
46.7983,0,0,0.00108504,0,0.00225541,
50,0,0,0.00199727,0,0.00227212,

