a9b440e3dab1000305f84b223c6b04259df8a313 
X,Z,x_velocity,cp,uw_b,cf,
1,0,0,-0.234058,0,0,
1,9,0,-0.12729,0,0,
1,8.99969,0.0153533,-0.12729,2.83329e-10,0,
1,8.99934,0.0327724,-0.12729,1.32441e-08,0,
1,8.99894,0.0525533,-0.12729,1.82703e-07,0,
1,8.99848,0.0750091,-0.12729,1.3395e-06,0,
1,8.99797,0.100452,-0.12729,6.6965e-06,0,
1,8.99739,0.129081,-0.12729,2.5358e-05,0,
1,8.99672,0.160704,-0.12729,7.51823e-05,0,
1,8.99597,0.194392,-0.12729,0.000174977,0,
1,8.99512,0.228501,-0.12729,0.000322908,0,
1,8.99416,0.261375,-0.12729,0.000490651,0,
1,8.99306,0.292034,-0.127289,0.000648764,0,
1,8.99182,0.320298,-0.127289,0.000776436,0,
1,8.99041,0.346303,-0.127289,0.000882016,0,
1,8.98881,0.370213,-0.127288,0.000969289,0,
1,8.98699,0.392246,-0.127288,0.00104058,0,
1,8.98494,0.412692,-0.127287,0.00109642,0,
1,8.98261,0.431861,-0.127286,0.00113952,0,
1,8.97996,0.44999,-0.127285,0.00117563,0,
1,8.97696,0.46725,-0.127284,0.00120564,0,
1,8.97356,0.483783,-0.127282,0.00123081,0,
1,8.9697,0.499708,-0.127281,0.00125212,0,
1,8.96533,0.515124,-0.127279,0.00127027,0,
1,8.96038,0.530112,-0.127277,0.00128578,0,
1,8.95476,0.544744,-0.127274,0.00129903,0,
1,8.9484,0.559078,-0.127272,0.00131027,0,
1,8.9412,0.573165,-0.127269,0.00131967,0,
1,8.93303,0.587049,-0.127265,0.00132734,0,
1,8.92379,0.600765,-0.127262,0.00133334,0,
1,8.91333,0.614347,-0.127259,0.00133766,0,
1,8.90149,0.627822,-0.127255,0.00134029,0,
1,8.8881,0.641214,-0.127252,0.00134116,0,
1,8.87295,0.654546,-0.127249,0.0013402,0,
1,8.85584,0.667839,-0.127246,0.00133733,0,
1,8.83651,0.68111,-0.127244,0.00133242,0,
1,8.81469,0.69438,-0.127243,0.00132536,0,
1,8.79007,0.707668,-0.127244,0.00131598,0,
1,8.76232,0.720998,-0.127247,0.00130413,0,
1,8.73107,0.734394,-0.127253,0.00128959,0,
1,8.69591,0.747888,-0.127264,0.00127211,0,
1,8.6564,0.761519,-0.12728,0.00125138,0,
1,8.61206,0.775332,-0.127304,0.00122697,0,
1,8.56236,0.789387,-0.127338,0.00119847,0,
1,8.50675,0.80376,-0.127384,0.00116542,0,
1,8.44464,0.818552,-0.127446,0.00112802,0,
1,8.3754,0.833912,-0.12753,0.00108917,0,
1,8.29839,0.850131,-0.127639,0.00102709,0,
1,8.21296,0.867549,-0.127779,0.000947299,0,
1,8.11843,0.886373,-0.12796,0.000844559,0,
1,8.01417,0.906577,-0.128192,0.000715459,0,
1,7.89956,0.92769,-0.128475,0.00056407,0,
1,7.77403,0.948603,-0.128843,0.000408268,0,
1,7.63711,0.967731,-0.129288,0.000211749,0,
1,7.48842,0.982699,-0.129815,7.85968e-05,0,
1,7.32773,0.991528,-0.130446,1.88888e-05,0,
1,7.15495,0.994719,-0.131181,1.87879e-06,0,
1,6.97022,0.99477,-0.132033,2.29733e-08,0,
1,6.77388,0.994148,-0.133019,3.61608e-09,0,
1,6.56652,0.99403,-0.134153,9.81764e-09,0,
1,6.34896,0.994483,-0.135452,1.24714e-08,0,
1,6.12229,0.995208,-0.136928,1.40578e-08,0,
1,5.88784,0.996007,-0.138598,1.49303e-08,0,
1,5.64716,0.996844,-0.140476,1.59406e-08,0,
1,5.40194,0.99775,-0.142575,1.73441e-08,0,
1,5.15407,0.998754,-0.144902,1.91033e-08,0,
1,4.90545,0.999865,-0.147463,2.10238e-08,0,
1,4.65805,1.00109,-0.15026,2.31021e-08,0,
1,4.41376,1.00242,-0.153288,2.52992e-08,0,
1,4.17441,1.00384,-0.156537,2.73706e-08,0,
1,3.94163,1.00529,-0.15999,2.91826e-08,0,
1,3.7169,1.00674,-0.163626,3.13118e-08,0,
1,3.50146,1.00825,-0.167412,3.57083e-08,0,
1,3.29629,1.01012,-0.171318,4.4412e-08,0,
1,3.10217,1.01273,-0.175314,5.58116e-08,0,
1,2.91959,1.01591,-0.17937,9.80012e-08,0,
1,2.74885,1.01828,-0.183442,1.03696e-06,0,
1,2.59002,1.01748,-0.187464,-4.16572e-06,0,
1,2.44299,1.01176,-0.191365,-4.48077e-05,0,
1,2.30752,1.0012,-0.19507,-0.000134999,0,
1,2.18321,0.987149,-0.198514,-0.000263477,0,
1,2.06959,0.971173,-0.201719,-0.000370584,0,
1,1.9661,0.954568,-0.204654,-0.000465069,0,
1,1.87215,0.938303,-0.207284,-0.000552659,0,
1,1.78711,0.922915,-0.209639,-0.000629312,0,
1,1.71033,0.908571,-0.211735,-0.00069487,0,
1,1.64119,0.895243,-0.213591,-0.00075096,0,
1,1.57905,0.882818,-0.215229,-0.000799866,0,
1,1.52332,0.87117,-0.216669,-0.000843812,0,
1,1.47342,0.860183,-0.217931,-0.000884735,0,
1,1.42882,0.849763,-0.219036,-0.000924071,0,
1,1.389,0.839844,-0.220011,-0.000964157,0,
1,1.35351,0.830394,-0.220849,-0.000997646,0,
1,1.3219,0.821386,-0.221553,-0.0010142,0,
1,1.29378,0.812786,-0.222165,-0.00102916,0,
1,1.26878,0.804575,-0.222694,-0.00104216,0,
1,1.24659,0.796746,-0.22315,-0.00105329,0,
1,1.22689,0.789288,-0.223545,-0.0010626,0,
1,1.2092,0.782112,-0.223889,-0.00106908,0,
1,1.1932,0.775166,-0.224191,-0.00107363,0,
1,1.1787,0.768426,-0.224456,-0.00107735,0,
1,1.16554,0.761862,-0.224689,-0.00108257,0,
1,1.15357,0.755426,-0.224893,-0.00109257,0,
1,1.14266,0.749043,-0.225073,-0.00111292,0,
1,1.13268,0.742603,-0.225232,-0.00115144,0,
1,1.12354,0.735956,-0.225375,-0.00121788,0,
1,1.11514,0.728911,-0.225507,-0.00132357,0,
1,1.10739,0.721254,-0.225633,-0.00147965,0,
1,1.10022,0.712778,-0.225759,-0.00169499,0,
1,1.09357,0.703329,-0.225887,-0.00197336,0,
1,1.08738,0.692861,-0.226019,-0.00231219,0,
1,1.0816,0.681455,-0.226157,-0.00270142,0,
1,1.07618,0.669299,-0.2263,-0.00312532,0,
1,1.07107,0.656637,-0.226447,-0.00356603,0,
1,1.06626,0.643716,-0.226598,-0.0040071,0,
1,1.06169,0.630747,-0.226749,-0.00443574,0,
1,1.05735,0.617892,-0.226902,-0.00484323,0,
1,1.05321,0.605264,-0.227054,-0.0052245,0,
1,1.04925,0.592936,-0.227205,-0.00557715,0,
1,1.04544,0.580949,-0.227355,-0.00590064,0,
1,1.04177,0.569323,-0.227503,-0.00619557,0,
1,1.03822,0.558063,-0.227649,-0.00646323,0,
1,1.03478,0.547161,-0.227793,-0.0067052,0,
1,1.03144,0.536607,-0.227935,-0.00692323,0,
1,1.02818,0.526383,-0.228076,-0.00711905,0,
1,1.025,0.516473,-0.228214,-0.00729434,0,
1,1.02188,0.506859,-0.228351,-0.00745065,0,
1,1.01882,0.497521,-0.228486,-0.00758941,0,
1,1.01581,0.488444,-0.228619,-0.00771207,0,
1,1.01284,0.47961,-0.228751,-0.00781956,0,
1,1.00988,0.470909,-0.228883,-0.00791385,0,
1,1.00688,0.462233,-0.229017,-0.00799702,0,
1,1.00384,0.453569,-0.229151,-0.00806884,0,
1,1.00076,0.4449,-0.229287,-0.00812937,0,
1,0.997615,0.436205,-0.229424,-0.00817848,0,
1,0.99441,0.427463,-0.229563,-0.00821653,0,
1,0.991131,0.418651,-0.229703,-0.00824351,0,
1,0.987768,0.409745,-0.229845,-0.00825926,0,
1,0.984308,0.400718,-0.22999,-0.00826352,0,
1,0.980739,0.391542,-0.230136,-0.0082559,0,
1,0.977045,0.382187,-0.230286,-0.00823588,0,
1,0.973211,0.372619,-0.230439,-0.00820277,0,
1,0.969219,0.362803,-0.230596,-0.00815574,0,
1,0.965047,0.3527,-0.230756,-0.00809375,0,
1,0.960675,0.342266,-0.230921,-0.00801553,0,
1,0.956077,0.331455,-0.23109,-0.00791961,0,
1,0.951224,0.320214,-0.231264,-0.00780411,0,
1,0.946088,0.308487,-0.231444,-0.00766628,0,
1,0.940633,0.296213,-0.231629,-0.00750408,0,
1,0.934823,0.283331,-0.23182,-0.00731474,0,
1,0.928616,0.269783,-0.232018,-0.00709515,0,
1,0.921967,0.255521,-0.232223,-0.00684249,0,
1,0.914826,0.240512,-0.232436,-0.00655567,0,
1,0.907141,0.224744,-0.232657,-0.00623082,0,
1,0.898852,0.20822,-0.232885,-0.00586593,0,
1,0.889898,0.190971,-0.233121,-0.00546004,0,
1,0.880212,0.173063,-0.233363,-0.0050137,0,
1,0.869723,0.154612,-0.233611,-0.00452975,0,
1,0.858358,0.135799,-0.233865,-0.00401427,0,
1,0.846039,0.116889,-0.234125,-0.00347779,0,
1,0.83269,0.0982514,-0.23439,-0.00293626,0,
1,0.818232,0.0803684,-0.23466,-0.00241524,0,
1,0.802744,0.0639295,-0.234923,-0.00194508,0,
1,0.78635,0.0495179,-0.235182,-0.001548,0,
1,0.768969,0.0372947,-0.235424,-0.00123651,0,
1,0.75053,0.0271539,-0.235645,-0.00100911,0,
1,0.730977,0.0187526,-0.235838,-0.000854253,0,
1,0.710271,0.0116381,-0.235997,-0.00075668,0,
1,0.688397,0.00537828,-0.236117,-0.000700596,0,
1,0.66536,-0.000363137,-0.236203,-0.000671278,0,
1,0.641194,-0.00579768,-0.236255,-0.000664949,0,
1,0.615961,-0.0110695,-0.236277,-0.000664237,0,
1,0.589754,-0.0162936,-0.236275,-0.00066398,0,
1,0.562692,-0.0215335,-0.236251,-0.000660062,0,
1,0.534925,-0.0268017,-0.236207,-0.000650022,0,
1,0.506624,-0.0320751,-0.236142,-0.000632884,0,
1,0.477982,-0.0373084,-0.236056,-0.000608563,0,
1,0.449206,-0.0424456,-0.235949,-0.000577598,0,
1,0.420509,-0.0474274,-0.235823,-0.000540842,0,
1,0.392107,-0.0521966,-0.23568,-0.000499316,0,
1,0.364206,-0.0567009,-0.235523,-0.000454108,0,
1,0.337003,-0.060895,-0.235356,-0.000406318,0,
1,0.310673,-0.0647412,-0.235184,-0.000357015,0,
1,0.28537,-0.0682098,-0.235011,-0.000307198,0,
1,0.26122,-0.071279,-0.234841,-0.000257771,0,
1,0.238324,-0.0739342,-0.234678,-0.000209515,0,
1,0.21675,-0.076167,-0.234526,-0.000163073,0,
1,0.196544,-0.077974,-0.234388,-0.000118959,0,
1,0.177724,-0.0793557,-0.234264,-7.75666e-05,0,
1,0.160284,-0.0803151,-0.234157,-3.91682e-05,0,
1,0.144202,-0.0808565,-0.234066,-3.93561e-06,0,
1,0.129436,-0.0809847,-0.233993,2.80351e-05,0,
1,0.115935,-0.0807045,-0.233935,5.66942e-05,0,
1,0.103636,-0.0800195,-0.233893,8.20098e-05,0,
1,0.0924701,-0.0789332,-0.233864,0.000103942,0,
1,0.0823633,-0.0774483,-0.233848,0.000122428,0,
1,0.0732406,-0.0755678,-0.233842,0.000137382,0,
1,0.0650269,-0.073296,-0.233845,0.000148704,0,
1,0.057648,-0.0706398,-0.233855,0.000156301,0,
1,0.0510323,-0.0676089,-0.23387,0.000160116,0,
1,0.0451115,-0.0642174,-0.233889,0.000160147,0,
1,0.0398209,-0.060483,-0.23391,0.000156447,0,
1,0.0351001,-0.0564273,-0.233931,0.000149154,0,
1,0.0308929,-0.0520752,-0.233953,0.000138485,0,
1,0.0271475,-0.0474553,-0.233973,0.000124731,0,
1,0.0238164,-0.0426012,-0.233991,0.000108269,0,
1,0.0208562,-0.0375566,-0.234006,8.963e-05,0,
1,0.0182274,-0.0323856,-0.23402,6.96558e-05,0,
1,0.0158944,-0.0271914,-0.234029,4.97347e-05,0,
1,0.0138249,-0.0221337,-0.234037,3.18508e-05,0,
1,0.0119898,-0.0174239,-0.234042,1.7966e-05,0,
1,0.0103632,-0.0132725,-0.234046,8.89738e-06,0,
1,0.00892169,-0.00981227,-0.234047,3.91852e-06,0,
1,0.00764438,-0.00706169,-0.23405,1.56607e-06,0,
1,0.00651264,-0.00495095,-0.23405,5.77673e-07,0,
1,0.00550983,-0.00337199,-0.234052,1.98169e-07,0,
1,0.00462115,-0.00221505,-0.234051,6.3038e-08,0,
1,0.00383341,-0.00138462,-0.234053,1.83528e-08,0,
1,0.0031349,-0.000803238,-0.234053,4.77337e-09,0,
1,0.00251518,-0.000409909,-0.234055,1.06593e-09,0,
1,0.00196502,-0.00015744,-0.234053,1.9121e-10,0,
1,0.00147619,-9.50955e-06,-0.234056,2.4354e-11,0,
1,0.00104139,6.15729e-05,-0.234054,1.65096e-12,0,
1,0.000654158,7.69027e-05,-0.234057,5.95492e-15,0,
1,0.000308731,5.23699e-05,-0.234054,-2.18339e-15,0,

4,0,0,-0.133744,0,0,
4,9,0,-0.0962778,0,0,
4,8.99969,0.0142407,-0.0962775,2.22945e-10,0,
4,8.99934,0.0303408,-0.0962777,1.03436e-08,0,
4,8.99894,0.0485616,-0.0962775,1.41243e-07,0,
4,8.9985,0.0691793,-0.0962776,1.02522e-06,0,
4,8.99799,0.0924753,-0.0962774,5.08896e-06,0,
4,8.99742,0.118652,-0.0962775,1.92714e-05,0,
4,8.99677,0.147627,-0.0962773,5.78482e-05,0,
4,8.99605,0.178722,-0.0962774,0.000138275,0,
4,8.99522,0.210587,-0.0962772,0.000264477,0,
4,8.99429,0.241681,-0.0962771,0.000416345,0,
4,8.99324,0.270937,-0.0962768,0.000565958,0,
4,8.99205,0.29797,-0.0962766,0.000695565,0,
4,8.9907,0.322856,-0.0962761,0.000799644,0,
4,8.98919,0.345771,-0.0962756,0.000887387,0,
4,8.98747,0.366901,-0.0962749,0.000960431,0,
4,8.98553,0.386518,-0.0962742,0.00101769,0,
4,8.98334,0.404901,-0.0962732,0.00106415,0,
4,8.98087,0.422267,-0.096272,0.00110338,0,
4,8.97807,0.438782,-0.0962706,0.00113673,0,
4,8.97491,0.45459,-0.096269,0.0011655,0,
4,8.97134,0.469808,-0.0962671,0.00119068,0,
4,8.96731,0.484536,-0.0962648,0.001213,0,
4,8.96276,0.49886,-0.0962622,0.00123298,0,
4,8.95762,0.512852,-0.0962592,0.00125101,0,
4,8.95182,0.526575,-0.0962557,0.00126733,0,
4,8.94526,0.540081,-0.0962516,0.0012821,0,
4,8.93787,0.553418,-0.0962471,0.00129541,0,
4,8.92952,0.566625,-0.0962422,0.00130725,0,
4,8.92011,0.579737,-0.0962367,0.00131759,0,
4,8.90949,0.592784,-0.0962307,0.00132633,0,
4,8.89751,0.605789,-0.0962241,0.00133336,0,
4,8.88402,0.618777,-0.0962169,0.00133851,0,
4,8.86881,0.631763,-0.0962093,0.00134161,0,
4,8.85169,0.644766,-0.0962012,0.00134249,0,
4,8.83242,0.657797,-0.0961927,0.00134094,0,
4,8.81074,0.670869,-0.0961842,0.00133679,0,
4,8.78637,0.683996,-0.0961757,0.00132984,0,
4,8.75901,0.69719,-0.0961677,0.00131992,0,
4,8.7283,0.710467,-0.0961606,0.00130684,0,
4,8.69387,0.723848,-0.096155,0.00129042,0,
4,8.65533,0.737356,-0.0961516,0.00127042,0,
4,8.61222,0.751027,-0.0961513,0.00124658,0,
4,8.56407,0.764903,-0.0961555,0.00121852,0,
4,8.5104,0.77904,-0.0961653,0.00118575,0,
4,8.45065,0.793509,-0.0961832,0.00114772,0,
4,8.38429,0.808404,-0.0962097,0.00110442,0,
4,8.31073,0.82386,-0.0962512,0.00106028,0,
4,8.22941,0.840189,-0.0963109,0.000991866,0,
4,8.13974,0.857789,-0.0963883,0.000903431,0,
4,8.04115,0.876876,-0.0964892,0.000792192,0,
4,7.93313,0.897317,-0.0966149,0.00065839,0,
4,7.81519,0.918397,-0.0967601,0.000511385,0,
4,7.68693,0.938685,-0.0969448,0.00036881,0,
4,7.54803,0.956292,-0.0971532,0.000213748,0,
4,7.39831,0.969242,-0.0974011,9.40623e-05,0,
4,7.23771,0.976589,-0.0977024,2.89806e-05,0,
4,7.06634,0.979283,-0.0980483,4.68309e-06,0,
4,6.88453,0.979407,-0.0984391,-8.56128e-08,0,
4,6.69275,0.978823,-0.0988753,-1.3683e-07,0,
4,6.49173,0.978473,-0.0993634,8.32925e-09,0,
4,6.28238,0.978512,-0.0999111,2.05434e-08,0,
4,6.06579,0.978775,-0.100524,1.21766e-08,0,
4,5.84328,0.979104,-0.101207,8.03959e-09,0,
4,5.61626,0.979437,-0.101964,6.84949e-09,0,
4,5.3863,0.979771,-0.102796,6.79022e-09,0,
4,5.15502,0.980123,-0.103706,7.19346e-09,0,
4,4.92406,0.980505,-0.104693,7.83778e-09,0,
4,4.69507,0.980928,-0.105756,8.61909e-09,0,
4,4.46961,0.981395,-0.106892,9.39398e-09,0,
4,4.24915,0.981889,-0.108095,9.85246e-09,0,
4,4.03501,0.982356,-0.10936,9.71253e-09,0,
4,3.82836,0.982729,-0.110677,9.19085e-09,0,
4,3.63018,0.983003,-0.112037,9.59036e-09,0,
4,3.44125,0.983347,-0.113428,1.35549e-08,0,
4,3.26217,0.984104,-0.114838,4.63377e-08,0,
4,3.09333,0.985578,-0.116255,4.15395e-07,0,
4,2.93497,0.987635,-0.117665,2.01669e-06,0,
4,2.78715,0.989494,-0.119055,3.89809e-06,0,
4,2.64979,0.990023,-0.120411,-5.77455e-07,0,
4,2.52268,0.988283,-0.121719,-2.07562e-05,0,
4,2.40551,0.983897,-0.122964,-6.22142e-05,0,
4,2.29789,0.97705,-0.124134,-0.000124429,0,
4,2.19939,0.968286,-0.12522,-0.000202268,0,
4,2.10949,0.958273,-0.126218,-0.000288123,0,
4,2.02768,0.947646,-0.127128,-0.000373997,0,
4,1.95343,0.936941,-0.127954,-0.000453178,0,
4,1.88618,0.926551,-0.128698,-0.000523326,0,
4,1.82542,0.916657,-0.129372,-0.000571833,0,
4,1.77062,0.907314,-0.12998,-0.000612038,0,
4,1.72128,0.898577,-0.130519,-0.00064834,0,
4,1.67693,0.890484,-0.131001,-0.000680837,0,
4,1.63713,0.883042,-0.131428,-0.000709819,0,
4,1.60144,0.876239,-0.131809,-0.000735636,0,
4,1.56949,0.870048,-0.132147,-0.000758743,0,
4,1.54091,0.864432,-0.132447,-0.0007796,0,
4,1.51537,0.859334,-0.132714,-0.000798699,0,
4,1.49167,0.854554,-0.132958,-0.000816623,0,
4,1.46926,0.850006,-0.133187,-0.000833552,0,
4,1.44801,0.845686,-0.133401,-0.000849697,0,
4,1.42781,0.841578,-0.133603,-0.000865155,0,
4,1.40855,0.837642,-0.133806,-0.000871766,0,
4,1.39015,0.833829,-0.134003,-0.000877297,0,
4,1.37252,0.830116,-0.13419,-0.000882695,0,
4,1.3556,0.826489,-0.13437,-0.000887492,0,
4,1.3393,0.822929,-0.134543,-0.000892308,0,
4,1.32357,0.819418,-0.13471,-0.000898158,0,
4,1.30836,0.815937,-0.134871,-0.00090584,0,
4,1.29362,0.812462,-0.135027,-0.000916438,0,
4,1.2793,0.808967,-0.135178,-0.000931305,0,
4,1.26537,0.80542,-0.135326,-0.000952089,0,
4,1.25179,0.801784,-0.135469,-0.000980764,0,
4,1.23852,0.798015,-0.135609,-0.00101964,0,
4,1.22554,0.794062,-0.135746,-0.00107136,0,
4,1.21282,0.789867,-0.135879,-0.00113881,0,
4,1.20034,0.785364,-0.136009,-0.00122501,0,
4,1.18806,0.780486,-0.136135,-0.00133291,0,
4,1.17599,0.775165,-0.136258,-0.00146507,0,
4,1.16408,0.769342,-0.136377,-0.00162335,0,
4,1.15233,0.762968,-0.136493,-0.00180851,0,
4,1.14073,0.756017,-0.136605,-0.00202001,0,
4,1.12925,0.748484,-0.136713,-0.00225589,0,
4,1.11788,0.740387,-0.136819,-0.00251287,0,
4,1.10661,0.731766,-0.136921,-0.00278669,0,
4,1.09543,0.72267,-0.137021,-0.00307248,0,
4,1.08432,0.713163,-0.137118,-0.00336517,0,
4,1.07328,0.703307,-0.137213,-0.00365983,0,
4,1.0623,0.693165,-0.137306,-0.00395198,0,
4,1.05136,0.682798,-0.137397,-0.00423765,0,
4,1.04044,0.67224,-0.137486,-0.0045136,0,
4,1.0295,0.661521,-0.137574,-0.00477733,0,
4,1.01855,0.650683,-0.13766,-0.00502638,0,
4,1.00757,0.639761,-0.137745,-0.00525848,0,
4,0.996544,0.628787,-0.137828,-0.00547172,0,
4,0.98547,0.61779,-0.137909,-0.00566468,0,
4,0.974334,0.606793,-0.137992,-0.00585386,0,
4,0.963124,0.595754,-0.138055,-0.0060098,0,
4,0.951826,0.584552,-0.138092,-0.00614499,0,
4,0.940428,0.573083,-0.138124,-0.00628473,0,
4,0.928915,0.561287,-0.138152,-0.00643006,0,
4,0.917272,0.549123,-0.13818,-0.00658164,0,
4,0.905481,0.536558,-0.138209,-0.00673998,0,
4,0.893524,0.523563,-0.138239,-0.00690539,0,
4,0.881383,0.51011,-0.138272,-0.00707803,0,
4,0.869035,0.496175,-0.138306,-0.0072579,0,
4,0.856459,0.48173,-0.138342,-0.00744481,0,
4,0.843629,0.466751,-0.138382,-0.00763836,0,
4,0.830518,0.451215,-0.138424,-0.00783792,0,
4,0.817097,0.435099,-0.138469,-0.00804257,0,
4,0.803334,0.418388,-0.138516,-0.00825108,0,
4,0.789195,0.40107,-0.138567,-0.0084618,0,
4,0.774643,0.383146,-0.138621,-0.00867266,0,
4,0.759639,0.364628,-0.138678,-0.00888105,0,
4,0.744138,0.345546,-0.138738,-0.0090838,0,
4,0.728096,0.325952,-0.138801,-0.00927715,0,
4,0.711463,0.305912,-0.138868,-0.00945681,0,
4,0.694189,0.285503,-0.138938,-0.0096171,0,
4,0.676218,0.264799,-0.139011,-0.00975244,0,
4,0.657495,0.243863,-0.139085,-0.00985809,0,
4,0.637962,0.222743,-0.13916,-0.00993037,0,
4,0.617561,0.20146,-0.13923,-0.00996656,0,
4,0.596848,0.180595,-0.139288,-0.00996406,0,
4,0.576557,0.160815,-0.139333,-0.00992399,0,
4,0.556564,0.141951,-0.139361,-0.00984889,0,
4,0.536763,0.123869,-0.139378,-0.00973989,0,
4,0.517057,0.106507,-0.139402,-0.00959765,0,
4,0.497368,0.089912,-0.139463,-0.00942416,0,
4,0.477632,0.0742444,-0.139605,-0.00922516,0,
4,0.457804,0.0597217,-0.139852,-0.00901145,0,
4,0.437857,0.046482,-0.140207,-0.00879963,0,
4,0.417786,0.034406,-0.14039,-0.0085953,0,
4,0.397605,0.0229833,-0.140242,-0.00808142,0,
4,0.377348,0.0118625,-0.140011,-0.00770292,0,
4,0.357066,0.00106581,-0.139811,-0.00732395,0,
4,0.336828,-0.00937415,-0.13959,-0.00693445,0,
4,0.316717,-0.0194327,-0.139362,-0.00653754,0,
4,0.296825,-0.0290798,-0.139122,-0.00613878,0,
4,0.27725,-0.0382805,-0.138872,-0.00574042,0,
4,0.258095,-0.0470032,-0.138613,-0.00534426,0,
4,0.239458,-0.0552243,-0.138346,-0.00495274,0,
4,0.221432,-0.0629302,-0.138071,-0.00456852,0,
4,0.2041,-0.0701158,-0.137792,-0.00419421,0,
4,0.187537,-0.0767846,-0.137509,-0.0038322,0,
4,0.171798,-0.0829466,-0.137226,-0.00348454,0,
4,0.156928,-0.0886174,-0.136945,-0.00315291,0,
4,0.142956,-0.0938166,-0.136669,-0.00283861,0,
4,0.129894,-0.0985666,-0.1364,-0.00254251,0,
4,0.117744,-0.102891,-0.136141,-0.00226512,0,
4,0.106492,-0.106816,-0.135893,-0.00200661,0,
4,0.0961173,-0.110365,-0.135659,-0.00176683,0,
4,0.0865883,-0.113562,-0.13544,-0.00154538,0,
4,0.0778675,-0.11643,-0.135237,-0.00134166,0,
4,0.0699123,-0.11899,-0.13505,-0.00115491,0,
4,0.062677,-0.121263,-0.134879,-0.000984248,0,
4,0.056114,-0.123264,-0.134725,-0.000828726,0,
4,0.0501747,-0.125011,-0.134586,-0.000687352,0,
4,0.0448114,-0.126516,-0.134463,-0.000559125,0,
4,0.039977,-0.127789,-0.134353,-0.000443058,0,
4,0.0356266,-0.12884,-0.134256,-0.000338197,0,
4,0.0317171,-0.129673,-0.134172,-0.000243635,0,
4,0.0282081,-0.13029,-0.134098,-0.000158531,0,
4,0.0250617,-0.130689,-0.134034,-8.2123e-05,0,
4,0.0222427,-0.130862,-0.133979,-1.37408e-05,0,
4,0.0197189,-0.130796,-0.133933,4.7169e-05,0,
4,0.0174603,-0.130467,-0.133893,0.000101012,0,
4,0.0154398,-0.129843,-0.13386,0.000147989,0,
4,0.0136326,-0.12887,-0.133832,0.00018801,0,
4,0.0120162,-0.127473,-0.13381,0.000220531,0,
4,0.0105703,-0.125541,-0.133791,0.000244319,0,
4,0.00927657,-0.122912,-0.133778,0.000257121,0,
4,0.00811839,-0.119361,-0.133766,0.00025548,0,
4,0.0070809,-0.114598,-0.13376,0.000235474,0,
4,0.0061507,-0.108325,-0.133754,0.000195727,0,
4,0.00531578,-0.100383,-0.133751,0.000142143,0,
4,0.00456537,-0.0909478,-0.133749,8.82513e-05,0,
4,0.00388979,-0.0805569,-0.133749,4.67298e-05,0,
4,0.00328037,-0.0698616,-0.133747,2.13552e-05,0,
4,0.00272934,-0.0593568,-0.133748,8.51293e-06,0,
4,0.0022297,-0.0493081,-0.133746,2.94657e-06,0,
4,0.00177519,-0.0398147,-0.133747,8.60209e-07,0,
4,0.00136016,-0.0308862,-0.133745,1.98525e-07,0,
4,0.000979511,-0.0224913,-0.133747,3.187e-08,0,
4,0.00062865,-0.0145822,-0.133744,2.72562e-09,0,
4,0.000303409,-0.00710458,-0.133747,6.65611e-11,0,

6,0,0,-0.0123475,0,0,
6,9,0,-0.0724376,0,0,
6,8.99969,0.0135206,-0.0724373,1.86612e-10,0,
6,8.99934,0.0287672,-0.0724375,8.6124e-09,0,
6,8.99895,0.0459776,-0.0724373,1.16762e-07,0,
6,8.9985,0.0654027,-0.0724375,8.41459e-07,0,
6,8.99801,0.087301,-0.0724373,4.15389e-06,0,
6,8.99744,0.111872,-0.0724374,1.57133e-05,0,
6,8.99681,0.139087,-0.0724372,4.74945e-05,0,
6,8.99609,0.168422,-0.0724373,0.000115466,0,
6,8.99529,0.198724,-0.0724371,0.000226314,0,
6,8.99438,0.228563,-0.072437,0.000365517,0,
6,8.99336,0.256838,-0.0724368,0.000507552,0,
6,8.9922,0.283053,-0.0724366,0.000635062,0,
6,8.9909,0.307206,-0.0724362,0.00073835,0,
6,8.98944,0.329458,-0.0724358,0.000825179,0,
6,8.98779,0.34998,-0.0724353,0.000898219,0,
6,8.98593,0.369021,-0.0724347,0.000955941,0,
6,8.98383,0.38684,-0.0724338,0.00100342,0,
6,8.98147,0.403643,-0.0724329,0.00104363,0,
6,8.97881,0.419595,-0.0724317,0.00107808,0,
6,8.97581,0.434837,-0.0724303,0.0011081,0,
6,8.97244,0.449485,-0.0724287,0.00113472,0,
6,8.96863,0.463642,-0.0724267,0.00115867,0,
6,8.96435,0.477392,-0.0724244,0.00118054,0,
6,8.95953,0.49081,-0.0724217,0.00120072,0,
6,8.95409,0.503961,-0.0724185,0.00121951,0,
6,8.94798,0.5169,-0.0724147,0.00123707,0,
6,8.94109,0.529677,-0.0724103,0.00125352,0,
6,8.93334,0.542336,-0.0724055,0.00126888,0,
6,8.92463,0.554914,-0.0723999,0.0012831,0,
6,8.91482,0.567446,-0.0723936,0.00129608,0,
6,8.90379,0.579959,-0.0723865,0.00130769,0,
6,8.89139,0.592481,-0.0723784,0.00131771,0,
6,8.87746,0.605032,-0.0723693,0.00132593,0,
6,8.86181,0.61763,-0.0723592,0.0013321,0,
6,8.84423,0.63029,-0.0723479,0.00133593,0,
6,8.82452,0.643025,-0.0723354,0.00133714,0,
6,8.80241,0.655845,-0.0723217,0.00133546,0,
6,8.77763,0.668759,-0.0723068,0.00133062,0,
6,8.74989,0.681775,-0.0722905,0.00132237,0,
6,8.71885,0.694904,-0.072273,0.00131048,0,
6,8.68417,0.70816,-0.0722542,0.00129471,0,
6,8.64545,0.721558,-0.0722343,0.00127486,0,
6,8.60229,0.735123,-0.0722132,0.00125065,0,
6,8.55423,0.748887,-0.0721913,0.00122173,0,
6,8.50082,0.762893,-0.0721683,0.00118765,0,
6,8.44155,0.777193,-0.0721448,0.00114788,0,
6,8.37592,0.791856,-0.0721204,0.00110268,0,
6,8.30339,0.806993,-0.0720967,0.00105616,0,
6,8.22344,0.822885,-0.0720763,0.000989775,0,
6,8.13555,0.839942,-0.0720587,0.000907484,0,
6,8.0392,0.85848,-0.0720369,0.000805391,0,
6,7.93391,0.87851,-0.0720119,0.000683111,0,
6,7.81927,0.899444,-0.0719691,0.000546922,0,
6,7.6949,0.919911,-0.07192,0.000412404,0,
6,7.56054,0.938092,-0.0718406,0.000285619,0,
6,7.41603,0.952325,-0.0717452,0.000147877,0,
6,7.26132,0.961544,-0.0716427,5.88953e-05,0,
6,7.09653,0.965968,-0.0715127,1.50177e-05,0,
6,6.92195,0.967068,-0.0713595,7.33384e-07,0,
6,6.73802,0.966622,-0.0711744,-1.1445e-06,0,
6,6.5454,0.965887,-0.0709541,-5.40719e-07,0,
6,6.34489,0.965372,-0.0706942,-1.57415e-07,0,
6,6.1375,0.965097,-0.0703909,-4.48919e-08,0,
6,5.92439,0.964925,-0.0700392,-1.74438e-08,0,
6,5.70687,0.964745,-0.0696341,-9.77732e-09,0,
6,5.48633,0.964513,-0.06917,-7.41792e-09,0,
6,5.26426,0.964227,-0.0686415,-6.96489e-09,0,
6,5.04218,0.963896,-0.0680434,-7.26698e-09,0,
6,4.82159,0.963533,-0.0673712,-7.8516e-09,0,
6,4.60398,0.963148,-0.0666211,-8.57564e-09,0,
6,4.39071,0.962742,-0.0657906,-9.57111e-09,0,
6,4.18307,0.962287,-0.0648787,-1.11452e-08,0,
6,3.98218,0.961724,-0.0638865,-1.35463e-08,0,
6,3.78902,0.960995,-0.0628168,-1.64878e-08,0,
6,3.60438,0.960118,-0.0616752,-2.07373e-08,0,
6,3.42888,0.959253,-0.0604688,-4.16023e-08,0,
6,3.26296,0.958679,-0.0592064,-1.13015e-07,0,
6,3.10691,0.958645,-0.0578967,-1.83266e-07,0,
6,2.96084,0.959155,-0.0565492,-1.03176e-07,0,
6,2.82473,0.959873,-0.0551749,-4.43641e-07,0,
6,2.69844,0.960209,-0.0537875,-3.70514e-06,0,
6,2.58172,0.959561,-0.0524028,-1.39333e-05,0,
6,2.47424,0.957517,-0.0510373,-3.4725e-05,0,
6,2.37559,0.95394,-0.0497065,-6.75769e-05,0,
6,2.28535,0.948942,-0.0484239,-0.000111682,0,
6,2.20301,0.94279,-0.0471998,-0.000164648,0,
6,2.1281,0.935824,-0.0460426,-0.000223172,0,
6,2.06009,0.928392,-0.0449559,-0.000283406,0,
6,1.99849,0.920817,-0.0439449,-0.000341226,0,
6,1.9428,0.913382,-0.0430051,-0.000393838,0,
6,1.89255,0.90627,-0.0421427,-0.000439865,0,
6,1.84728,0.899527,-0.0413555,-0.000469982,0,
6,1.80655,0.893157,-0.0406321,-0.000497721,0,
6,1.76996,0.887197,-0.0399735,-0.000523329,0,
6,1.73712,0.881673,-0.0393744,-0.000546898,0,
6,1.70768,0.876556,-0.03883,-0.000568677,0,
6,1.67998,0.871618,-0.0383146,-0.000589766,0,
6,1.65329,0.866762,-0.0378126,-0.000610384,0,
6,1.62754,0.861986,-0.0373239,-0.000630467,0,
6,1.60265,0.857287,-0.0368472,-0.000650104,0,
6,1.57854,0.852664,-0.0363818,-0.000669296,0,
6,1.55515,0.848116,-0.0359268,-0.000688025,0,
6,1.53242,0.843641,-0.0354815,-0.000706331,0,
6,1.5103,0.839234,-0.0350451,-0.00072425,0,
6,1.48874,0.83489,-0.034617,-0.0007418,0,
6,1.46769,0.8306,-0.034197,-0.000759004,0,
6,1.44712,0.826348,-0.0337843,-0.000775944,0,
6,1.42698,0.822118,-0.0333784,-0.000792855,0,
6,1.40725,0.817903,-0.0329777,-0.0008102,0,
6,1.38788,0.813713,-0.0325808,-0.000828592,0,
6,1.36886,0.809586,-0.0321854,-0.000848646,0,
6,1.35015,0.80557,-0.0317919,-0.00087033,0,
6,1.33173,0.801692,-0.0313985,-0.000893032,0,
6,1.31357,0.797919,-0.0310183,-0.000914201,0,
6,1.29566,0.794157,-0.0306503,-0.000923574,0,
6,1.27797,0.790333,-0.0302824,-0.000942462,0,
6,1.26048,0.786418,-0.0299183,-0.000966406,0,
6,1.24318,0.782378,-0.0295567,-0.000996728,0,
6,1.22605,0.778172,-0.0291979,-0.0010354,0,
6,1.20907,0.773752,-0.0288416,-0.0010846,0,
6,1.19223,0.769064,-0.0284878,-0.00114671,0,
6,1.17551,0.764049,-0.0281366,-0.00122415,0,
6,1.1589,0.758646,-0.0277879,-0.00131914,0,
6,1.14238,0.752796,-0.0274413,-0.00143345,0,
6,1.12595,0.746448,-0.0270981,-0.00156812,0,
6,1.10959,0.739568,-0.0267582,-0.00172318,0,
6,1.09329,0.732138,-0.0264216,-0.00189754,0,
6,1.07704,0.724162,-0.0260887,-0.00208894,0,
6,1.06081,0.715658,-0.0257594,-0.00229414,0,
6,1.04459,0.706663,-0.0254344,-0.00250925,0,
6,1.02836,0.697227,-0.0251127,-0.00272998,0,
6,1.01211,0.687408,-0.0247969,-0.00295445,0,
6,0.99583,0.677249,-0.0244821,-0.00318148,0,
6,0.97951,0.666735,-0.0241655,-0.00339981,0,
6,0.963136,0.65581,-0.023852,-0.003623,0,
6,0.946694,0.644435,-0.0235419,-0.00385267,0,
6,0.930172,0.632572,-0.0232364,-0.00409018,0,
6,0.913555,0.620177,-0.0229359,-0.00433669,0,
6,0.896829,0.607207,-0.0226409,-0.00459318,0,
6,0.879979,0.593621,-0.022352,-0.00486038,0,
6,0.862989,0.579391,-0.0220699,-0.00513881,0,
6,0.845842,0.564518,-0.0217957,-0.00542899,0,
6,0.828521,0.549035,-0.0215308,-0.00573167,0,
6,0.811008,0.53299,-0.0212762,-0.00604108,0,
6,0.793282,0.516426,-0.0210328,-0.00635239,0,
6,0.775322,0.499374,-0.0208013,-0.00666253,0,
6,0.757107,0.481866,-0.0205828,-0.00696811,0,
6,0.738612,0.463942,-0.0203784,-0.00726542,0,
6,0.719813,0.445655,-0.0201898,-0.00755035,0,
6,0.700681,0.427072,-0.0200189,-0.00781845,0,
6,0.681188,0.40828,-0.0198667,-0.00806498,0,
6,0.661304,0.389368,-0.0197321,-0.00828494,0,
6,0.640996,0.370409,-0.0196101,-0.00847293,0,
6,0.620228,0.351447,-0.0194929,-0.00862356,0,
6,0.598964,0.332498,-0.0193734,-0.00873202,0,
6,0.577166,0.313576,-0.0192548,-0.00879427,0,
6,0.554791,0.294767,-0.0191581,-0.00880781,0,
6,0.531799,0.27629,-0.0191344,-0.00877446,0,
6,0.508144,0.258519,-0.0192326,-0.00870217,0,
6,0.48378,0.241849,-0.0195094,-0.00860657,0,
6,0.459585,0.226937,-0.0197915,-0.0084905,0,
6,0.436695,0.213889,-0.0197271,-0.00809349,0,
6,0.414961,0.202057,-0.0194873,-0.00775144,0,
6,0.394252,0.191179,-0.0193052,-0.0074351,0,
6,0.374445,0.181115,-0.0191059,-0.00711919,0,
6,0.355433,0.171758,-0.0189092,-0.00680664,0,
6,0.337122,0.163021,-0.0187103,-0.00649577,0,
6,0.319433,0.154829,-0.0185078,-0.00618695,0,
6,0.3023,0.147121,-0.0183007,-0.00588054,0,
6,0.28567,0.139847,-0.0180878,-0.00557691,0,
6,0.269507,0.132966,-0.0178686,-0.00527646,0,
6,0.253785,0.126444,-0.0176424,-0.00497972,0,
6,0.238493,0.120255,-0.0174091,-0.00468732,0,
6,0.223631,0.114379,-0.0171688,-0.00439998,0,
6,0.209207,0.108798,-0.016922,-0.00411857,0,
6,0.195237,0.103501,-0.0166696,-0.003844,0,
6,0.181744,0.0984771,-0.0164127,-0.00357724,0,
6,0.168754,0.0937169,-0.0161529,-0.00331927,0,
6,0.156292,0.0892125,-0.015892,-0.003071,0,
6,0.144384,0.0849562,-0.015632,-0.0028333,0,
6,0.133052,0.0809401,-0.015375,-0.00260687,0,
6,0.122315,0.0771557,-0.0151231,-0.00239231,0,
6,0.112183,0.0735941,-0.0148784,-0.00219003,0,
6,0.102665,0.0702459,-0.0146428,-0.00200026,0,
6,0.0937597,0.0671009,-0.0144179,-0.00182308,0,
6,0.0854609,0.0641485,-0.014205,-0.00165839,0,
6,0.077757,0.0613779,-0.0140052,-0.00150596,0,
6,0.0706309,0.0587779,-0.0138193,-0.00136542,0,
6,0.0640611,0.056337,-0.0136474,-0.0012363,0,
6,0.0580229,0.054044,-0.0134898,-0.00111806,0,
6,0.0524888,0.0518877,-0.0133462,-0.00101008,0,
6,0.0474296,0.0498567,-0.0132161,-0.000911733,0,
6,0.042815,0.0479402,-0.0130991,-0.000822348,0,
6,0.0386145,0.0461274,-0.0129944,-0.000741259,0,
6,0.0347975,0.0444076,-0.0129012,-0.000667805,0,
6,0.0313344,0.0427703,-0.0128186,-0.000601342,0,
6,0.0281964,0.0412052,-0.0127459,-0.000541248,0,
6,0.0253561,0.0397017,-0.0126821,-0.000486927,0,
6,0.0227875,0.0382492,-0.0126264,-0.000437811,0,
6,0.0204662,0.0368368,-0.012578,-0.000393359,0,
6,0.0183694,0.0354526,-0.0125363,-0.000353052,0,
6,0.016476,0.0340841,-0.0125003,-0.000316389,0,
6,0.0147664,0.0327171,-0.0124699,-0.000282877,0,
6,0.0132228,0.0313352,-0.0124437,-0.000252015,0,
6,0.0118288,0.0299196,-0.0124224,-0.00022328,0,
6,0.0105693,0.0284471,-0.0124041,-0.000196102,0,
6,0.00943073,0.0268902,-0.01239,-0.000169846,0,
6,0.00840063,0.0252168,-0.012378,-0.00014384,0,
6,0.00746774,0.0233925,-0.0123698,-0.000117512,0,
6,0.00662185,0.0213891,-0.0123626,-9.0779e-05,0,
6,0.00585371,0.0192028,-0.012359,-6.46519e-05,0,
6,0.00515491,0.0168781,-0.0123552,-4.14248e-05,0,
6,0.00451788,0.0145155,-0.0123545,-2.35509e-05,0,
6,0.00393573,0.0122403,-0.0123522,-1.18967e-05,0,
6,0.00340221,0.0101517,-0.0123528,-5.39775e-06,0,
6,0.00291168,0.0082966,-0.0123509,-2.21948e-06,0,
6,0.00245897,0.00667866,-0.0123522,-8.25505e-07,0,
6,0.00203939,0.00527822,-0.0123501,-2.72856e-07,0,
6,0.00164864,0.00406762,-0.0123518,-7.71196e-08,0,
6,0.00128281,0.00301898,-0.0123493,-1.73635e-08,0,
6,0.000938257,0.00210738,-0.0123516,-2.72784e-09,0,
6,0.000611645,0.00131161,-0.0123484,-2.27606e-10,0,
6,0.000299862,0.000614104,-0.0123516,-5.31032e-12,0,

10,0.000296632,0.00852018,0.0273517,-4.96717e-11,0,
10,0.000596102,0.0171189,0.0273523,-1.84086e-09,0,
10,0.000900397,0.0258532,0.0273516,-1.87159e-08,0,
10,0.00121153,0.0347804,0.0273521,-1.00567e-07,0,
10,0.00153158,0.0439577,0.0273516,-3.7612e-07,0,
10,0.00186264,0.0534416,0.027352,-1.11795e-06,0,
10,0.00220692,0.0632846,0.0273515,-2.83625e-06,0,
10,0.00256668,0.0735306,0.0273519,-6.39893e-06,0,
10,0.00294431,0.0842074,0.0273514,-1.31507e-05,0,
10,0.00334229,0.0953143,0.0273517,-2.49557e-05,0,
10,0.00376326,0.106809,0.0273513,-4.40313e-05,0,
10,0.00421,0.118593,0.0273514,-7.24448e-05,0,
10,0.00468544,0.130513,0.027351,-0.000111314,0,
10,0.00519274,0.142369,0.027351,-0.000160073,0,
10,0.00573524,0.153945,0.0273505,-0.000216331,0,
10,0.00631651,0.165048,0.0273502,-0.000276524,0,
10,0.00694041,0.175529,0.0273494,-0.000336961,0,
10,0.00761104,0.185297,0.0273488,-0.000394678,0,
10,0.00833284,0.194313,0.0273475,-0.000447777,0,
10,0.00911058,0.202582,0.0273463,-0.000495365,0,
10,0.0099494,0.210137,0.0273444,-0.0005373,0,
10,0.0108548,0.217029,0.0273422,-0.000573928,0,
10,0.0118329,0.223319,0.0273394,-0.000605865,0,
10,0.0128901,0.229071,0.0273361,-0.000633845,0,
10,0.0140333,0.234348,0.027332,-0.000658622,0,
10,0.0152702,0.239207,0.0273272,-0.000680914,0,
10,0.0166089,0.243702,0.0273214,-0.000701378,0,
10,0.0180584,0.247883,0.0273147,-0.000720597,0,
10,0.0196282,0.251791,0.0273069,-0.000739085,0,
10,0.0213288,0.255464,0.0272979,-0.000757293,0,
10,0.0231714,0.258935,0.0272874,-0.000775621,0,
10,0.0251682,0.262234,0.0272756,-0.000794427,0,
10,0.0273326,0.265387,0.027262,-0.000814038,0,
10,0.0296789,0.268415,0.0272466,-0.00083476,0,
10,0.0322227,0.271341,0.0272292,-0.000856883,0,
10,0.0349809,0.274181,0.0272096,-0.000880691,0,
10,0.0379719,0.276953,0.0271876,-0.000906466,0,
10,0.0412155,0.279673,0.027163,-0.000934493,0,
10,0.0447333,0.282355,0.0271355,-0.000965066,0,
10,0.0485489,0.285013,0.0271049,-0.000998491,0,
10,0.0526875,0.287661,0.027071,-0.00103509,0,
10,0.0571768,0.29031,0.0270334,-0.0010752,0,
10,0.0620466,0.292975,0.0269919,-0.00111918,0,
10,0.0673295,0.295669,0.0269463,-0.00116743,0,
10,0.0730607,0.298404,0.0268962,-0.00122034,0,
10,0.0792784,0.301195,0.0268413,-0.00127837,0,
10,0.0860241,0.304057,0.0267814,-0.00134199,0,
10,0.0933428,0.307005,0.0267163,-0.0014117,0,
10,0.101283,0.310057,0.0266456,-0.00148804,0,
10,0.109899,0.313231,0.0265691,-0.0015716,0,
10,0.119247,0.316547,0.0264868,-0.00166298,0,
10,0.12939,0.320029,0.0263984,-0.00176282,0,
10,0.140395,0.323701,0.0263038,-0.00187179,0,
10,0.152337,0.327593,0.0262032,-0.00199058,0,
10,0.165296,0.331737,0.0260963,-0.0021199,0,
10,0.179357,0.336169,0.0259835,-0.00226043,0,
10,0.194615,0.340933,0.0258649,-0.00241286,0,
10,0.211171,0.346077,0.0257407,-0.00257781,0,
10,0.229138,0.351657,0.025611,-0.00275579,0,
10,0.248635,0.357738,0.0254767,-0.00294717,0,
10,0.269793,0.364394,0.0253369,-0.0031521,0,
10,0.292753,0.371712,0.025194,-0.0033704,0,
10,0.317669,0.379793,0.0250443,-0.00360019,0,
10,0.344708,0.388745,0.0248931,-0.00383876,0,
10,0.372405,0.398142,0.024746,-0.00407498,0,
10,0.399623,0.407616,0.0246057,-0.00429767,0,
10,0.426397,0.417174,0.0244727,-0.0045047,0,
10,0.452757,0.426825,0.024347,-0.00469586,0,
10,0.478735,0.436584,0.0242301,-0.0048695,0,
10,0.504358,0.446476,0.0241243,-0.00502449,0,
10,0.529657,0.456532,0.0240265,-0.00515838,0,
10,0.554656,0.466778,0.0239404,-0.00527186,0,
10,0.579382,0.477235,0.0238486,-0.00536771,0,
10,0.603859,0.487928,0.0237771,-0.00550473,0,
10,0.628112,0.499153,0.0237932,-0.00547743,0,
10,0.652163,0.511293,0.0238358,-0.00542051,0,
10,0.676035,0.524376,0.0238298,-0.00534042,0,
10,0.699751,0.538189,0.0237816,-0.00523344,0,
10,0.72333,0.552444,0.0236972,-0.00509809,0,
10,0.746795,0.566903,0.0235923,-0.0049356,0,
10,0.770165,0.581417,0.0234746,-0.00474889,0,
10,0.79346,0.5959,0.0233487,-0.00454148,0,
10,0.816699,0.610295,0.0232151,-0.00431704,0,
10,0.839903,0.624535,0.0230727,-0.00407943,0,
10,0.863088,0.638531,0.0229204,-0.00383292,0,
10,0.886275,0.652163,0.0227554,-0.00358469,0,
10,0.909481,0.665296,0.0225771,-0.00334389,0,
10,0.932723,0.677831,0.0223893,-0.00311067,0,
10,0.956021,0.689736,0.0221945,-0.00288544,0,
10,0.97939,0.701028,0.021994,-0.00266891,0,
10,1.00285,0.711744,0.021788,-0.00246185,0,
10,1.02641,0.721917,0.0215759,-0.00226486,0,
10,1.0501,0.731574,0.0213578,-0.00207845,0,
10,1.07392,0.740737,0.0211332,-0.00190298,0,
10,1.0979,0.749429,0.0209033,-0.00173844,0,
10,1.12205,0.757678,0.0206682,-0.00158045,0,
10,1.14639,0.76549,0.0204248,-0.00143794,0,
10,1.17093,0.772849,0.0201735,-0.0013097,0,
10,1.19568,0.779761,0.0199138,-0.00119708,0,
10,1.22066,0.78625,0.0196473,-0.00110225,0,
10,1.24589,0.79238,0.0193733,-0.00102428,0,
10,1.27137,0.798286,0.019094,-0.000949321,0,
10,1.29713,0.804092,0.0188109,-0.000882853,0,
10,1.32317,0.809829,0.0185213,-0.000824357,0,
10,1.34951,0.815466,0.0182246,-0.000773278,0,
10,1.37616,0.820966,0.0179202,-0.00072866,0,
10,1.40313,0.826323,0.0176086,-0.000689226,0,
10,1.43043,0.831564,0.0172901,-0.000653721,0,
10,1.45807,0.836727,0.0169652,-0.000621169,0,
10,1.48607,0.841835,0.0166335,-0.000590915,0,
10,1.51444,0.846893,0.0162949,-0.000562514,0,
10,1.54318,0.851894,0.0159491,-0.000535612,0,
10,1.57231,0.856824,0.015596,-0.000509899,0,
10,1.60184,0.861677,0.0152356,-0.000485122,0,
10,1.63178,0.866445,0.0148679,-0.000461098,0,
10,1.66213,0.871123,0.0144928,-0.000437736,0,
10,1.69292,0.875699,0.0141103,-0.000415028,0,
10,1.72416,0.880153,0.0137204,-0.000393036,0,
10,1.75585,0.884461,0.0133233,-0.000371862,0,
10,1.78802,0.888602,0.0129188,-0.000351527,0,
10,1.82067,0.892571,0.0125074,-0.000331786,0,
10,1.85383,0.896417,0.012087,-0.000307078,0,
10,1.88751,0.900186,0.0116585,-0.000282907,0,
10,1.92173,0.903875,0.0112233,-0.00025857,0,
10,1.95652,0.907454,0.0107791,-0.000233444,0,
10,1.9919,0.910892,0.0103277,-0.000207968,0,
10,2.02791,0.914156,0.00986686,-0.000182776,0,
10,2.06456,0.917222,0.00939911,-0.00015827,0,
10,2.10268,0.920121,0.00891053,-0.000134212,0,
10,2.1443,0.922936,0.00837974,-0.000111085,0,
10,2.18977,0.925614,0.00780001,-8.90694e-05,0,
10,2.23946,0.928074,0.00716971,-6.84223e-05,0,
10,2.29376,0.930232,0.00648367,-4.98589e-05,0,
10,2.35309,0.932015,0.00573973,-3.39387e-05,0,
10,2.4179,0.933357,0.00493403,-2.10921e-05,0,
10,2.48863,0.934222,0.00406487,-1.1563e-05,0,
10,2.56575,0.93461,0.00313001,-5.30254e-06,0,
10,2.64971,0.93458,0.00212896,-1.89329e-06,0,
10,2.74098,0.934253,0.00106132,-5.69248e-07,0,
10,2.83997,0.933804,-7.19123e-05,-3.9341e-07,0,
10,2.94709,0.933432,-0.00126939,-5.51717e-07,0,
10,3.06269,0.933314,-0.00252864,-5.95761e-07,0,
10,3.18706,0.933552,-0.00384649,-4.59724e-07,0,
10,3.3204,0.934142,-0.0052183,-2.67204e-07,0,
10,3.46281,0.934992,-0.00663792,-1.25011e-07,0,
10,3.61427,0.935958,-0.00809718,-5.44404e-08,0,
10,3.77463,0.93691,-0.00958607,-2.87132e-08,0,
10,3.94358,0.93777,-0.011093,-2.08594e-08,0,
10,4.12067,0.938528,-0.0126052,-1.8162e-08,0,
10,4.30525,0.939216,-0.0141097,-1.69673e-08,0,
10,4.49655,0.939876,-0.0155933,-1.65738e-08,0,
10,4.6936,0.940536,-0.0170433,-1.69856e-08,0,
10,4.89531,0.941198,-0.018448,-1.87127e-08,0,
10,5.10047,0.941846,-0.0197966,-2.32334e-08,0,
10,5.30776,0.942463,-0.0210801,-3.38377e-08,0,
10,5.51581,0.94303,-0.0222911,-5.72673e-08,0,
10,5.72323,0.943544,-0.0234239,-1.08161e-07,0,
10,5.92863,0.94403,-0.0244749,-2.22747e-07,0,
10,6.13069,0.944553,-0.0254424,-4.97543e-07,0,
10,6.32816,0.94521,-0.0263266,-1.13567e-06,0,
10,6.51991,0.946033,-0.0271292,-2.21651e-06,0,
10,6.70495,0.946788,-0.0278534,-2.34062e-06,0,
10,6.88244,0.946752,-0.0285025,4.12386e-06,0,
10,7.0517,0.944682,-0.0290803,2.84218e-05,0,
10,7.21224,0.939179,-0.0295865,8.38899e-05,0,
10,7.3637,0.92936,-0.030027,0.000179373,0,
10,7.5059,0.915295,-0.0304047,0.00030465,0,
10,7.63878,0.897626,-0.0307223,0.000415448,0,
10,7.76243,0.877509,-0.0309922,0.000537132,0,
10,7.87701,0.856721,-0.0312076,0.00066029,0,
10,7.9828,0.8367,-0.0313857,0.000770576,0,
10,8.08014,0.818123,-0.0315279,0.000863614,0,
10,8.16941,0.801031,-0.0316454,0.000940689,0,
10,8.25106,0.785137,-0.0317421,0.00100546,0,
10,8.32554,0.770089,-0.0318244,0.00106123,0,
10,8.39331,0.755599,-0.0318944,0.00111009,0,
10,8.45484,0.741482,-0.0319546,0.00115305,0,
10,8.5106,0.72764,-0.0320058,0.00119053,0,
10,8.56104,0.714035,-0.0320496,0.00122271,0,
10,8.60659,0.700664,-0.032087,0.00124973,0,
10,8.64767,0.687539,-0.0321192,0.00127181,0,
10,8.68467,0.674667,-0.0321473,0.00128922,0,
10,8.71795,0.662029,-0.032172,0.00129887,0,
10,8.74786,0.649589,-0.0321932,0.00130383,0,
10,8.77471,0.637337,-0.0322116,0.00130495,0,
10,8.79881,0.625265,-0.0322273,0.00130229,0,
10,8.8204,0.613365,-0.0322408,0.0012964,0,
10,8.83975,0.601626,-0.0322523,0.0012878,0,
10,8.85708,0.590032,-0.0322622,0.00127701,0,
10,8.87259,0.578565,-0.0322706,0.00126447,0,
10,8.88646,0.567202,-0.0322776,0.00125057,0,
10,8.89886,0.555918,-0.0322837,0.00123566,0,
10,8.90995,0.544685,-0.0322887,0.00122,0,
10,8.91986,0.533474,-0.0322929,0.0012038,0,
10,8.92872,0.52225,-0.0322965,0.0011872,0,
10,8.93663,0.510977,-0.0322996,0.00117029,0,
10,8.94369,0.499618,-0.0323022,0.00115307,0,
10,8.95,0.488129,-0.0323043,0.00113549,0,
10,8.95564,0.476467,-0.032306,0.0011175,0,
10,8.96067,0.464582,-0.0323074,0.00109888,0,
10,8.96517,0.452419,-0.0323087,0.00107939,0,
10,8.96918,0.439918,-0.0323095,0.00105869,0,
10,8.97276,0.427009,-0.0323104,0.00103635,0,
10,8.97596,0.413612,-0.0323109,0.00101181,0,
10,8.97882,0.399636,-0.0323116,0.000984327,0,
10,8.98137,0.384972,-0.0323119,0.000952974,0,
10,8.98365,0.369494,-0.0323124,0.000916535,0,
10,8.98569,0.353051,-0.0323125,0.000873675,0,
10,8.9875,0.33546,-0.032313,0.00082179,0,
10,8.98913,0.316485,-0.0323129,0.000756413,0,
10,8.99058,0.295897,-0.0323134,0.000679102,0,
10,8.99188,0.273539,-0.0323131,0.00058772,0,
10,8.99304,0.249251,-0.0323136,0.00047492,0,
10,8.99408,0.222985,-0.0323132,0.000348574,0,
10,8.99501,0.195109,-0.0323138,0.000222288,0,
10,8.99583,0.166523,-0.0323133,0.000117959,0,
10,8.99658,0.138495,-0.0323139,5.07049e-05,0,
10,8.99724,0.112146,-0.0323133,1.75109e-05,0,
10,8.99784,0.0880685,-0.032314,4.81235e-06,0,
10,8.99837,0.066376,-0.0323132,1.00943e-06,0,
10,8.99885,0.0469345,-0.0323141,1.4462e-07,0,
10,8.99927,0.029533,-0.0323132,1.09802e-08,0,
10,8.99966,0.0139563,-0.0323142,2.42953e-10,0,
10,0,0,0.0273525,0,0,
10,9,0,-0.0323131,0,0,

0.004,0,0,-0.229866,0,-6.47656e-08,
0.00868226,0,0,-0.229863,0,-2.18058e-07,
0.014062,0,0,-0.229865,0,-4.02601e-07,
0.0201548,0,0,-0.229864,0,-8.53357e-07,
0.0269766,0,0,-0.229864,0,-1.30201e-06,
0.0345437,0,0,-0.229863,0,-1.71627e-06,
0.0428729,0,0,-0.229861,0,-1.86809e-06,
0.051981,0,0,-0.229859,0,-1.59958e-06,
0.0618853,0,0,-0.229856,0,-6.9803e-07,
0.0726036,0,0,-0.229853,0,1.0089e-06,
0.0841536,0,0,-0.22985,0,3.63809e-06,
0.0965535,0,0,-0.229849,0,7.21953e-06,
0.109822,0,0,-0.22985,0,1.16493e-05,
0.123977,0,0,-0.229855,0,1.67203e-05,
0.139037,0,0,-0.229865,0,2.21142e-05,
0.155022,0,0,-0.22988,0,2.74822e-05,
0.171949,0,0,-0.229899,0,3.24658e-05,
0.189839,0,0,-0.229924,0,3.67712e-05,
0.208709,0,0,-0.229952,0,4.01773e-05,
0.228579,0,0,-0.229982,0,4.25706e-05,
0.249467,0,0,-0.230014,0,4.39318e-05,
0.271391,0,0,-0.230046,0,4.43418e-05,
0.29437,0,0,-0.230077,0,4.39607e-05,
0.31842,0,0,-0.230106,0,4.30215e-05,
0.343559,0,0,-0.230135,0,4.18175e-05,
0.369804,0,0,-0.230161,0,4.06835e-05,
0.39717,0,0,-0.230188,0,3.99524e-05,
0.425672,0,0,-0.230215,0,3.99128e-05,
0.455324,0,0,-0.230247,0,4.07657e-05,
0.48614,0,0,-0.230285,0,4.25969e-05,
0.518132,0,0,-0.230332,0,4.53735e-05,
0.551309,0,0,-0.230393,0,4.89665e-05,
0.585683,0,0,-0.230471,0,5.31939e-05,
0.621259,0,0,-0.23057,0,5.78455e-05,
0.658046,0,0,-0.230695,0,6.26873e-05,
0.696047,0,0,-0.230853,0,6.73886e-05,
0.735265,0,0,-0.231053,0,7.14025e-05,
0.7757,0,0,-0.231308,0,7.38987e-05,
0.817352,0,0,-0.231634,0,7.36861e-05,
0.860215,0,0,-0.232048,0,6.9198e-05,
0.904285,0,0,-0.232569,0,5.86575e-05,
0.949552,0,0,-0.233212,0,4.03745e-05,
0.996004,0,0,-0.233983,0,1.31244e-05,
1.04363,0,0,-0.234877,0,-2.34904e-05,
1.09241,0,0,-0.23588,0,-6.88835e-05,
1.14232,0,0,-0.236967,0,-0.000121644,
1.19335,0,0,-0.23811,0,-0.000179944,
1.24546,0,0,-0.239282,0,-0.000242004,
1.29863,0,0,-0.240454,0,-0.000306418,
1.35283,0,0,-0.241604,0,-0.000372254,
1.40802,0,0,-0.24271,0,-0.00043898,
1.46416,0,0,-0.24375,0,-0.000506312,
1.52121,0,0,-0.244705,0,-0.000574083,
1.57913,0,0,-0.245556,0,-0.000642143,
1.63787,0,0,-0.246285,0,-0.000710319,
1.69739,0,0,-0.246872,0,-0.000778401,
1.75761,0,0,-0.247298,0,-0.000846139,
1.81851,0,0,-0.247545,0,-0.000913248,
1.88,0,0,-0.247596,0,-0.000979416,
1.94204,0,0,-0.247436,0,-0.00104431,
2.00457,0,0,-0.247048,0,-0.00110758,
2.06751,0,0,-0.246421,0,-0.00116886,
2.13081,0,0,-0.245544,0,-0.00122782,
2.19439,0,0,-0.24441,0,-0.00128411,
2.25819,0,0,-0.243014,0,-0.00133741,
2.32214,0,0,-0.241354,0,-0.00138743,
2.38617,0,0,-0.239431,0,-0.0014339,
2.4502,0,0,-0.23725,0,-0.00147659,
2.51418,0,0,-0.234818,0,-0.0015153,
2.57803,0,0,-0.232146,0,-0.0015499,
2.64167,0,0,-0.229246,0,-0.00158031,
2.70505,0,0,-0.226134,0,-0.00160651,
2.76808,0,0,-0.222827,0,-0.00162854,
2.83072,0,0,-0.219343,0,-0.00164648,
2.89288,0,0,-0.215701,0,-0.00166044,
2.95451,0,0,-0.211922,0,-0.00167056,
3.01555,0,0,-0.208025,0,-0.00167702,
3.07594,0,0,-0.204031,0,-0.00168,
3.13561,0,0,-0.199961,0,-0.00167973,
3.19453,0,0,-0.195832,0,-0.00167644,
3.25262,0,0,-0.191665,0,-0.00167034,
3.30985,0,0,-0.187477,0,-0.00166169,
3.36617,0,0,-0.183284,0,-0.00165069,
3.42154,0,0,-0.179102,0,-0.00163757,
3.47591,0,0,-0.174944,0,-0.00162255,
3.52925,0,0,-0.170825,0,-0.00160586,
3.58152,0,0,-0.166756,0,-0.0015877,
3.6327,0,0,-0.162747,0,-0.00156828,
3.68276,0,0,-0.158808,0,-0.00154777,
3.73167,0,0,-0.154947,0,-0.00152637,
3.77941,0,0,-0.151171,0,-0.00150424,
3.82596,0,0,-0.147487,0,-0.00148155,
3.8713,0,0,-0.143898,0,-0.00145843,
3.91543,0,0,-0.140406,0,-0.00143491,
3.95833,0,0,-0.137033,0,-0.00141142,
4,0,0,-0.133744,0,-0.00138774,
4.04167,0,0,-0.130474,0,-0.00136331,
4.08333,0,0,-0.127217,0,-0.00133827,
4.125,0,0,-0.123974,0,-0.00131263,
4.16667,0,0,-0.120748,0,-0.00128637,
4.20833,0,0,-0.11754,0,-0.00125952,
4.25,0,0,-0.114352,0,-0.00123212,
4.29167,0,0,-0.111185,0,-0.00120418,
4.33333,0,0,-0.108041,0,-0.00117575,
4.375,0,0,-0.104923,0,-0.00114684,
4.41667,0,0,-0.10183,0,-0.00111748,
4.45833,0,0,-0.0987653,0,-0.00108769,
4.5,0,0,-0.0957295,0,-0.0010575,
4.54167,0,0,-0.0927239,0,-0.00102693,
4.58333,0,0,-0.0897497,0,-0.000995994,
4.625,0,0,-0.0868082,0,-0.000964727,
4.66667,0,0,-0.0839003,0,-0.000933147,
4.70833,0,0,-0.0810272,0,-0.000901276,
4.75,0,0,-0.0781897,0,-0.000869137,
4.79167,0,0,-0.0753888,0,-0.000836753,
4.83333,0,0,-0.0726253,0,-0.000804146,
4.875,0,0,-0.0698999,0,-0.000771339,
4.91667,0,0,-0.0672133,0,-0.000738351,
4.95833,0,0,-0.0645662,0,-0.0007052,
5,0,0,-0.0619591,0,-0.000671904,
5.04167,0,0,-0.0593925,0,-0.00063848,
5.08333,0,0,-0.056867,0,-0.000604945,
5.125,0,0,-0.054383,0,-0.000571316,
5.16667,0,0,-0.051941,0,-0.00053761,
5.20833,0,0,-0.0495413,0,-0.000503843,
5.25,0,0,-0.0471843,0,-0.000470034,
5.29167,0,0,-0.0448704,0,-0.0004362,
5.33333,0,0,-0.0425998,0,-0.000402355,
5.375,0,0,-0.0403728,0,-0.000368513,
5.41667,0,0,-0.0381897,0,-0.000334685,
5.45833,0,0,-0.036051,0,-0.000300884,
5.5,0,0,-0.0339569,0,-0.000267128,
5.54167,0,0,-0.0319081,0,-0.000233445,
5.58333,0,0,-0.0299049,0,-0.000199876,
5.625,0,0,-0.0279479,0,-0.000166479,
5.66667,0,0,-0.026037,0,-0.000133313,
5.70833,0,0,-0.0241721,0,-0.000100427,
5.75,0,0,-0.0223523,0,-6.78432e-05,
5.79167,0,0,-0.0205771,0,-3.55654e-05,
5.83333,0,0,-0.0188458,0,-3.58806e-06,
5.875,0,0,-0.0171577,0,2.8094e-05,
5.91667,0,0,-0.0155124,0,5.94826e-05,
5.95833,0,0,-0.0139092,0,9.05764e-05,
6,0,0,-0.0123476,0,0.000121373,
6.04167,0,0,-0.010827,0,0.000151868,
6.08333,0,0,-0.00934689,0,0.00018206,
6.125,0,0,-0.00790662,0,0.000211946,
6.16667,0,0,-0.00650567,0,0.000241523,
6.20833,0,0,-0.00514348,0,0.000270789,
6.25,0,0,-0.00381948,0,0.000299741,
6.29167,0,0,-0.0025331,0,0.000328373,
6.33333,0,0,-0.00128376,0,0.000356682,
6.375,0,0,-7.08716e-05,0,0.000384665,
6.41667,0,0,0.00110617,0,0.000412316,
6.45833,0,0,0.00224796,0,0.000439632,
6.5,0,0,0.00335512,0,0.00046661,
6.54167,0,0,0.00442828,0,0.000493248,
6.58333,0,0,0.00546807,0,0.000519543,
6.625,0,0,0.00647511,0,0.000545492,
6.66667,0,0,0.00745004,0,0.000571094,
6.70833,0,0,0.0083935,0,0.000596346,
6.75,0,0,0.00930614,0,0.000621249,
6.79167,0,0,0.0101886,0,0.000645801,
6.83333,0,0,0.0110415,0,0.000670003,
6.875,0,0,0.0118655,0,0.000693856,
6.91667,0,0,0.0126613,0,0.000717362,
6.95833,0,0,0.0134294,0,0.00074052,
7,0,0,0.0141705,0,0.000763333,
7.04167,0,0,0.0148851,0,0.000785801,
7.08333,0,0,0.015574,0,0.000807926,
7.125,0,0,0.0162377,0,0.000829712,
7.16667,0,0,0.0168768,0,0.000851161,
7.20833,0,0,0.0174918,0,0.000872276,
7.25,0,0,0.0180834,0,0.000893061,
7.29167,0,0,0.0186521,0,0.000913525,
7.33333,0,0,0.0191987,0,0.000933677,
7.375,0,0,0.0197235,0,0.000953526,
7.41667,0,0,0.0202272,0,0.000973079,
7.45833,0,0,0.0207103,0,0.000992336,
7.5,0,0,0.0211731,0,0.0010113,
7.54167,0,0,0.0216163,0,0.00102997,
7.58333,0,0,0.0220402,0,0.00104834,
7.625,0,0,0.0224453,0,0.00106641,
7.66667,0,0,0.022832,0,0.0010842,
7.70833,0,0,0.0232008,0,0.0011017,
7.75,0,0,0.0235519,0,0.00111893,
7.79167,0,0,0.0238858,0,0.00113588,
7.83333,0,0,0.0242023,0,0.00115255,
7.875,0,0,0.0245012,0,0.001169,
7.91667,0,0,0.0247938,0,0.00118582,
7.95833,0,0,0.0250084,0,0.00120147,
8,0,0,0.0253144,0,0.00121717,
8.04171,0,0,0.0256429,0,0.00123395,
8.08368,0,0,0.0258368,0,0.00125051,
8.12617,0,0,0.0260743,0,0.00126529,
8.16946,0,0,0.0262978,0,0.00128015,
8.21382,0,0,0.0265057,0,0.00129501,
8.25952,0,0,0.0267061,0,0.0013099,
8.30685,0,0,0.0268983,0,0.00132496,
8.35611,0,0,0.0270824,0,0.00134031,
8.40762,0,0,0.0272585,0,0.00135602,
8.46168,0,0,0.027426,0,0.00137214,
8.51865,0,0,0.0275843,0,0.00138873,
8.57889,0,0,0.0277322,0,0.00140584,
8.64276,0,0,0.0278683,0,0.00142349,
8.71067,0,0,0.0279907,0,0.00144173,
8.78306,0,0,0.0280973,0,0.00146058,
8.86037,0,0,0.0281857,0,0.00148005,
8.94309,0,0,0.028253,0,0.00150016,
9.03174,0,0,0.028296,0,0.00152091,
9.12689,0,0,0.0283113,0,0.00154229,
9.22912,0,0,0.028295,0,0.00156428,
9.33908,0,0,0.0282431,0,0.00158687,
9.45746,0,0,0.0281513,0,0.00161003,
9.58501,0,0,0.0280149,0,0.00163369,
9.72253,0,0,0.0278295,0,0.00165781,
9.87088,0,0,0.0275909,0,0.00168231,
10.031,0,0,0.0272952,0,0.00170711,
10.2039,0,0,0.0269388,0,0.00173214,
10.3906,0,0,0.0265177,0,0.0017573,
10.5924,0,0,0.0260298,0,0.00178248,
10.8105,0,0,0.0254743,0,0.00180757,
11.0463,0,0,0.02485,0,0.00183246,
11.3012,0,0,0.0241582,0,0.00185704,
11.5769,0,0,0.0234026,0,0.0018812,
11.8751,0,0,0.0225862,0,0.00190483,
12.1977,0,0,0.0217158,0,0.00192786,
12.5466,0,0,0.020799,0,0.0019502,
12.9242,0,0,0.0198446,0,0.0019718,
13.3327,0,0,0.0188635,0,0.0019926,
13.7748,0,0,0.0178677,0,0.00201257,
14.2532,0,0,0.0168694,0,0.0020317,
14.7709,0,0,0.0158818,0,0.00204998,
15.3312,0,0,0.0149175,0,0.00206745,
15.9377,0,0,0.0139878,0,0.00208413,
16.594,0,0,0.013104,0,0.00210007,
17.3044,0,0,0.0122741,0,0.00211535,
18.0733,0,0,0.0115046,0,0.00213002,
18.9056,0,0,0.0107983,0,0.00214404,
19.8064,0,0,0.0101549,0,0.00215725,
20.7816,0,0,0.00957294,0,0.00216977,
21.8371,0,0,0.00904599,0,0.00218195,
22.9796,0,0,0.00856441,0,0.00219398,
24.2163,0,0,0.0081172,0,0.00220598,
25.5551,0,0,0.00769011,0,0.00221803,
27.0042,0,0,0.00726757,0,0.00223025,
28.5729,0,0,0.00683215,0,0.00224265,
30.271,0,0,0.00636632,0,0.00225526,
32.1091,0,0,0.00585386,0,0.00226802,
34.0989,0,0,0.00528017,0,0.00228086,
36.2529,0,0,0.00462801,0,0.00229384,
38.5845,0,0,0.00388992,0,0.00230694,
41.1085,0,0,0.00310614,0,0.00232001,
43.8407,0,0,0.00211601,0,0.00233078,
46.7983,0,0,0.00109072,0,0.00233695,
50,0,0,0.00215748,0,0.00235365,

