c940a05f7c10da9238112be6c3c4268821a62a8d 
X,Z,x_velocity,cp,uw_b,cf,
1,0,0,-0.217751,0,0,
1,9,0,-0.131851,0,0,
1,1.01284,0.483797,-0.209156,-0.00329049,0,
1,0.000308731,0.000252982,-0.217752,-1.34657e-15,0,
1,0.000654158,0.00052668,-0.217751,-5.90506e-14,0,
1,0.00104139,0.000822065,-0.217752,-7.55625e-13,0,
1,0.00147619,0.00113949,-0.217751,-5.14115e-12,0,
1,0.00196502,0.00147864,-0.217752,-2.41768e-11,0,
1,0.00251518,0.00183829,-0.217751,-8.94404e-11,0,
1,0.0031349,0.00221601,-0.217752,-2.79351e-10,0,
1,0.00383341,0.00260772,-0.217751,-7.67351e-10,0,
1,0.00462115,0.00300708,-0.217752,-1.89772e-09,0,
1,0.00550983,0.00340477,-0.217751,-4.27156e-09,0,
1,0.00651264,0.0037872,-0.217752,-8.73654e-09,0,
1,0.00764438,0.00413498,-0.217751,-1.58959e-08,0,
1,0.00892169,0.00442059,-0.217751,-2.39811e-08,0,
1,0.0103632,0.00460567,-0.217751,-2.20409e-08,0,
1,0.0119898,0.00463842,-0.217751,2.84137e-08,0,
1,0.0138248,0.0044534,-0.217751,2.34735e-07,0,
1,0.0158944,0.00397782,-0.21775,8.43409e-07,0,
1,0.0182274,0.00314901,-0.217749,2.30136e-06,0,
1,0.0208562,0.0019387,-0.217748,5.18514e-06,0,
1,0.0238164,0.000366632,-0.217746,9.91029e-06,0,
1,0.0271475,-0.00151362,-0.217742,1.64767e-05,0,
1,0.0308929,-0.00364548,-0.217737,2.44791e-05,0,
1,0.0351001,-0.00599139,-0.217729,3.33744e-05,0,
1,0.0398209,-0.00853584,-0.21772,4.27341e-05,0,
1,0.0451115,-0.0112766,-0.217708,5.22253e-05,0,
1,0.0510323,-0.0142137,-0.217694,6.1536e-05,0,
1,0.057648,-0.0173412,-0.217679,7.03243e-05,0,
1,0.0650269,-0.02064,-0.217662,7.81965e-05,0,
1,0.0732406,-0.0240745,-0.217644,8.47088e-05,0,
1,0.0823632,-0.0275902,-0.217627,8.93881e-05,0,
1,0.0924701,-0.0311142,-0.217611,9.17702e-05,0,
1,0.103636,-0.0345591,-0.217599,9.14578e-05,0,
1,0.115935,-0.0378292,-0.217592,8.81488e-05,0,
1,0.129436,-0.0408289,-0.217591,8.16886e-05,0,
1,0.144202,-0.0434712,-0.217599,7.20955e-05,0,
1,0.160284,-0.0456851,-0.217617,5.95544e-05,0,
1,0.177724,-0.0474191,-0.217646,4.43826e-05,0,
1,0.196544,-0.0486428,-0.217686,2.69767e-05,0,
1,0.21675,-0.0493447,-0.217737,7.76139e-06,0,
1,0.238323,-0.0495293,-0.217798,-1.2845e-05,0,
1,0.26122,-0.0492132,-0.217866,-3.44423e-05,0,
1,0.28537,-0.048422,-0.217941,-5.66411e-05,0,
1,0.310673,-0.0471883,-0.218018,-7.90474e-05,0,
1,0.337003,-0.04555,-0.218094,-0.00010125,0,
1,0.364206,-0.0435498,-0.218168,-0.000122825,0,
1,0.392107,-0.0412353,-0.218235,-0.000143327,0,
1,0.420509,-0.0386579,-0.218293,-0.000162297,0,
1,0.449206,-0.0358728,-0.218339,-0.00017928,0,
1,0.477982,-0.032938,-0.218373,-0.000193842,0,
1,0.506624,-0.0299121,-0.218392,-0.000205608,0,
1,0.534925,-0.0268521,-0.218396,-0.000214307,0,
1,0.562692,-0.0238091,-0.218382,-0.00021985,0,
1,0.589754,-0.020823,-0.218349,-0.000222455,0,
1,0.615961,-0.0179154,-0.218293,-0.000222807,0,
1,0.641193,-0.0150832,-0.21821,-0.000222255,0,
1,0.665359,-0.0122916,-0.218094,-0.000222882,0,
1,0.688396,-0.00946935,-0.21794,-0.000227082,0,
1,0.710271,-0.00650758,-0.217744,-0.000239837,0,
1,0.730976,-0.00323219,-0.2175,-0.000264726,0,
1,0.750529,0.000639357,-0.217208,-0.000308133,0,
1,0.768969,0.00551658,-0.216873,-0.000377137,0,
1,0.78635,0.0119101,-0.216515,-0.000479055,0,
1,0.802743,0.0202843,-0.216152,-0.000627994,0,
1,0.818232,0.0308627,-0.215809,-0.00083614,0,
1,0.832689,0.0434589,-0.21549,-0.00110709,0,
1,0.846039,0.0576249,-0.215203,-0.00143067,0,
1,0.858357,0.0728934,-0.214945,-0.00178613,0,
1,0.869723,0.0888019,-0.214706,-0.00215096,0,
1,0.880212,0.104948,-0.21448,-0.00250415,0,
1,0.889898,0.121026,-0.214256,-0.00283071,0,
1,0.898852,0.136836,-0.214027,-0.00312314,0,
1,0.907141,0.152276,-0.213788,-0.00338,0,
1,0.914826,0.167313,-0.213534,-0.00360349,0,
1,0.921966,0.181964,-0.213262,-0.00379777,0,
1,0.928616,0.196278,-0.212962,-0.00396353,0,
1,0.934823,0.210329,-0.212625,-0.00410142,0,
1,0.940633,0.224205,-0.212256,-0.00421221,0,
1,0.946088,0.23799,-0.211864,-0.00430036,0,
1,0.951224,0.251752,-0.211462,-0.00436537,0,
1,0.956076,0.265544,-0.211065,-0.00441011,0,
1,0.960675,0.279403,-0.210686,-0.00443587,0,
1,0.965047,0.293345,-0.210334,-0.00444357,0,
1,0.969219,0.307367,-0.210017,-0.00443417,0,
1,0.973211,0.321455,-0.20974,-0.00440877,0,
1,0.977045,0.335581,-0.209506,-0.00436856,0,
1,0.980739,0.349711,-0.209314,-0.00431478,0,
1,0.984308,0.363809,-0.209162,-0.00424867,0,
1,0.987768,0.377835,-0.209048,-0.00417152,0,
1,0.991131,0.391753,-0.208968,-0.00408454,0,
1,0.99441,0.405527,-0.20892,-0.00398889,0,
1,0.997615,0.419129,-0.208901,-0.00388566,0,
1,1.00076,0.432532,-0.208908,-0.00377589,0,
1,1.00384,0.445715,-0.208938,-0.00366055,0,
1,1.00688,0.458662,-0.208991,-0.00354058,0,
1,1.00988,0.471359,-0.209064,-0.00341707,0,
1,1.01581,0.4961,-0.209265,-0.00316025,0,
1,1.01882,0.508387,-0.209392,-0.00302653,0,
1,1.02188,0.520642,-0.209537,-0.00289002,0,
1,1.025,0.532849,-0.209699,-0.0027514,0,
1,1.02818,0.544989,-0.209878,-0.00261167,0,
1,1.03144,0.557039,-0.210072,-0.00247194,0,
1,1.03478,0.568972,-0.21028,-0.00233346,0,
1,1.03822,0.580756,-0.2105,-0.00219765,0,
1,1.04177,0.59235,-0.210729,-0.00206607,0,
1,1.04544,0.603711,-0.210964,-0.00194067,0,
1,1.04925,0.614796,-0.211203,-0.00182205,0,
1,1.05321,0.625565,-0.211442,-0.0017097,0,
1,1.05735,0.635984,-0.211679,-0.00160328,0,
1,1.06169,0.646014,-0.211912,-0.00150348,0,
1,1.06626,0.655611,-0.212139,-0.00141204,0,
1,1.07108,0.664744,-0.212357,-0.00132973,0,
1,1.07618,0.673403,-0.212566,-0.00125795,0,
1,1.0816,0.681605,-0.212763,-0.00119774,0,
1,1.08738,0.689389,-0.212949,-0.00114972,0,
1,1.09357,0.696812,-0.213121,-0.0011139,0,
1,1.10022,0.703945,-0.21328,-0.00108965,0,
1,1.10739,0.710867,-0.213425,-0.00107568,0,
1,1.11514,0.717656,-0.213553,-0.0010702,0,
1,1.12354,0.724382,-0.213663,-0.00107108,0,
1,1.13268,0.731108,-0.213752,-0.00107605,0,
1,1.14266,0.737886,-0.213816,-0.00108296,0,
1,1.15357,0.744756,-0.21385,-0.00108985,0,
1,1.16554,0.751748,-0.21385,-0.00109516,0,
1,1.1787,0.758883,-0.213812,-0.00109783,0,
1,1.1932,0.766177,-0.21373,-0.0010973,0,
1,1.2092,0.773643,-0.213602,-0.00109365,0,
1,1.22689,0.781293,-0.213424,-0.00108703,0,
1,1.24659,0.789181,-0.213189,-0.00107719,0,
1,1.26879,0.797401,-0.2129,-0.00106554,0,
1,1.29378,0.805965,-0.212545,-0.00105268,0,
1,1.3219,0.814886,-0.212133,-0.00103869,0,
1,1.35351,0.824192,-0.211638,-0.00102067,0,
1,1.389,0.833923,-0.21105,-0.000980427,0,
1,1.42882,0.844103,-0.21039,-0.000944119,0,
1,1.47342,0.854773,-0.209642,-0.000908584,0,
1,1.52332,0.866014,-0.208789,-0.000870723,0,
1,1.57905,0.87792,-0.207815,-0.00082874,0,
1,1.64119,0.890605,-0.2067,-0.000780811,0,
1,1.71033,0.904193,-0.205423,-0.000724829,0,
1,1.78711,0.9188,-0.203963,-0.000658436,0,
1,1.87215,0.93447,-0.2023,-0.00058012,0,
1,1.9661,0.95107,-0.200416,-0.00049034,0,
1,2.06959,0.9681,-0.198277,-0.000393566,0,
1,2.18321,0.984608,-0.1959,-0.000287879,0,
1,2.30752,0.999304,-0.193314,-0.000152306,0,
1,2.44299,1.01062,-0.190483,-5.42018e-05,0,
1,2.59002,1.0171,-0.187443,-7.19528e-06,0,
1,2.74885,1.01848,-0.184261,7.93129e-07,0,
1,2.91959,1.01647,-0.180982,9.11261e-08,0,
1,3.10217,1.01355,-0.177652,4.98506e-08,0,
1,3.2963,1.01116,-0.174307,3.94994e-08,0,
1,3.50146,1.00949,-0.170972,3.1639e-08,0,
1,3.7169,1.00816,-0.167677,2.79793e-08,0,
1,3.94163,1.00686,-0.164455,2.64997e-08,0,
1,4.17441,1.00552,-0.161334,2.52491e-08,0,
1,4.41376,1.0042,-0.158343,2.36515e-08,0,
1,4.65805,1.00295,-0.155503,2.18316e-08,0,
1,4.90545,1.00178,-0.152831,2.00455e-08,0,
1,5.15407,1.00071,-0.150339,1.83762e-08,0,
1,5.40194,0.999741,-0.148036,1.68755e-08,0,
1,5.64716,0.998855,-0.145925,1.56216e-08,0,
1,5.88785,0.998032,-0.144006,1.47215e-08,0,
1,6.12229,0.997243,-0.142277,1.39554e-08,0,
1,6.34896,0.996517,-0.140731,1.25052e-08,0,
1,6.56652,0.996048,-0.139358,9.97909e-09,0,
1,6.77388,0.996138,-0.138148,4.26989e-09,0,
1,6.97022,0.996752,-0.137085,1.89504e-08,0,
1,7.15495,0.996751,-0.136155,1.74896e-06,0,
1,7.32773,0.993655,-0.135348,1.82581e-05,0,
1,7.48842,0.984886,-0.13466,7.73018e-05,0,
1,7.63711,0.969923,-0.134091,0.000210026,0,
1,7.77403,0.950818,-0.13361,0.000405631,0,
1,7.89956,0.92998,-0.133208,0.000562179,0,
1,8.01417,0.908956,-0.132897,0.000714452,0,
1,8.11843,0.888833,-0.13264,0.000844307,0,
1,8.21296,0.87008,-0.13244,0.000947727,0,
1,8.29839,0.852728,-0.132283,0.00102804,0,
1,8.3754,0.836559,-0.13216,0.00108771,0,
1,8.44464,0.82123,-0.132063,0.00112793,0,
1,8.50675,0.806463,-0.131993,0.00116594,0,
1,8.56236,0.792117,-0.131938,0.00119908,0,
1,8.61206,0.778091,-0.131898,0.00122757,0,
1,8.6564,0.764309,-0.131869,0.00125195,0,
1,8.69591,0.75071,-0.131848,0.00127269,0,
1,8.73107,0.737246,-0.131834,0.00129018,0,
1,8.76232,0.723879,-0.131825,0.00130476,0,
1,8.79007,0.710578,-0.131819,0.0013167,0,
1,8.81469,0.697316,-0.131816,0.00132619,0,
1,8.83651,0.684071,-0.131815,0.00133343,0,
1,8.85584,0.67082,-0.131816,0.00133856,0,
1,8.87295,0.657545,-0.131817,0.0013417,0,
1,8.8881,0.644225,-0.13182,0.00134296,0,
1,8.90149,0.630841,-0.131822,0.00134244,0,
1,8.91333,0.617369,-0.131825,0.0013402,0,
1,8.92379,0.603785,-0.131828,0.00133628,0,
1,8.93303,0.590061,-0.13183,0.00133071,0,
1,8.9412,0.576164,-0.131833,0.00132348,0,
1,8.9484,0.562059,-0.131835,0.00131452,0,
1,8.95476,0.5477,-0.131837,0.00130373,0,
1,8.96038,0.533039,-0.13184,0.00129093,0,
1,8.96533,0.518015,-0.131841,0.00127585,0,
1,8.9697,0.502559,-0.131843,0.00125812,0,
1,8.97356,0.486588,-0.131844,0.00123721,0,
1,8.97696,0.470003,-0.131846,0.0012124,0,
1,8.97996,0.452687,-0.131847,0.00118273,0,
1,8.98261,0.434496,-0.131848,0.00114692,0,
1,8.98494,0.41526,-0.131848,0.00110418,0,
1,8.98699,0.394737,-0.131849,0.00104823,0,
1,8.98881,0.372617,-0.13185,0.000977029,0,
1,8.99041,0.348609,-0.13185,0.000889722,0,
1,8.99182,0.322496,-0.13185,0.000783933,0,
1,8.99306,0.294119,-0.131851,0.000656356,0,
1,8.99416,0.263334,-0.131851,0.000497436,0,
1,8.99512,0.230307,-0.131851,0.000328334,0,
1,8.99597,0.196006,-0.131851,0.000178521,0,
1,8.99672,0.16209,-0.131851,7.6946e-05,0,
1,8.99739,0.130221,-0.131851,2.60113e-05,0,
1,8.99797,0.101353,-0.131851,6.87779e-06,0,
1,8.99848,0.0756878,-0.131851,1.3766e-06,0,
1,8.99894,0.0530323,-0.131852,1.87815e-07,0,
1,8.99934,0.0330733,-0.131851,1.36166e-08,0,
1,8.99969,0.0154954,-0.131852,2.91335e-10,0,

4,0,0,-0.190874,0,0,
4,9,0,-0.102618,0,0,
4,1.05136,0.695782,-0.187294,-0.00376057,0,
4,0.000303409,-0.0084271,-0.190874,4.16588e-11,0,
4,0.00062865,-0.0173482,-0.190874,1.71635e-09,0,
4,0.000979511,-0.0268451,-0.190874,2.02041e-08,0,
4,0.00136016,-0.0369983,-0.190874,1.26782e-07,0,
4,0.00177519,-0.0478872,-0.190874,5.53805e-07,0,
4,0.0022297,-0.0595834,-0.190874,1.91485e-06,0,
4,0.00272934,-0.0721345,-0.190874,5.60093e-06,0,
4,0.00328037,-0.0855297,-0.190874,1.43263e-05,0,
4,0.00388979,-0.0996381,-0.190874,3.24337e-05,0,
4,0.00456537,-0.114128,-0.190875,6.4885e-05,0,
4,0.00531578,-0.128425,-0.190875,0.000113903,0,
4,0.0061507,-0.141796,-0.190875,0.00017498,0,
4,0.0070809,-0.15359,-0.190876,0.000237142,0,
4,0.00811839,-0.16346,-0.190878,0.000288685,0,
4,0.00927657,-0.171401,-0.19088,0.000322693,0,
4,0.0105703,-0.177639,-0.190884,0.000337958,0,
4,0.0120162,-0.18248,-0.190889,0.000336699,0,
4,0.0136326,-0.186213,-0.190896,0.000322058,0,
4,0.0154398,-0.189077,-0.190905,0.000296724,0,
4,0.0174603,-0.191249,-0.190917,0.00026255,0,
4,0.0197189,-0.192862,-0.190931,0.000220627,0,
4,0.0222427,-0.194008,-0.190947,0.000171483,0,
4,0.0250617,-0.194753,-0.190968,0.000115253,0,
4,0.0282081,-0.195143,-0.190992,5.18024e-05,0,
4,0.0317171,-0.195209,-0.19102,-1.9185e-05,0,
4,0.0356266,-0.19497,-0.191053,-9.81562e-05,0,
4,0.039977,-0.194437,-0.191091,-0.00018565,0,
4,0.0448114,-0.193614,-0.191135,-0.000282268,0,
4,0.0501747,-0.192499,-0.191186,-0.000388653,0,
4,0.056114,-0.191086,-0.191243,-0.000505466,0,
4,0.062677,-0.189364,-0.191308,-0.000633366,0,
4,0.0699123,-0.187318,-0.19138,-0.000772983,0,
4,0.0778675,-0.184931,-0.191461,-0.000924894,0,
4,0.0865883,-0.18218,-0.19155,-0.00108959,0,
4,0.0961173,-0.179041,-0.191649,-0.00126746,0,
4,0.106492,-0.175487,-0.191756,-0.00145873,0,
4,0.117744,-0.171488,-0.191873,-0.00166345,0,
4,0.129894,-0.167013,-0.191999,-0.00188145,0,
4,0.142956,-0.16203,-0.192134,-0.0021123,0,
4,0.156928,-0.156506,-0.192279,-0.00235534,0,
4,0.171798,-0.150409,-0.192432,-0.00260957,0,
4,0.187537,-0.14371,-0.192593,-0.00287373,0,
4,0.2041,-0.136381,-0.192763,-0.00314627,0,
4,0.221432,-0.128402,-0.19294,-0.0034254,0,
4,0.239458,-0.119759,-0.193124,-0.00370914,0,
4,0.258095,-0.110443,-0.193313,-0.00399537,0,
4,0.27725,-0.100458,-0.193507,-0.00428195,0,
4,0.296825,-0.089813,-0.193702,-0.00456681,0,
4,0.316717,-0.0785268,-0.193897,-0.00484804,0,
4,0.336828,-0.0666261,-0.194089,-0.00512398,0,
4,0.357066,-0.0541445,-0.194277,-0.00539348,0,
4,0.377348,-0.0411217,-0.19445,-0.00565537,0,
4,0.397605,-0.0276075,-0.194622,-0.00591302,0,
4,0.417786,-0.0136489,-0.19476,-0.00622061,0,
4,0.437857,0.000942078,-0.194808,-0.00641086,0,
4,0.457804,0.0164372,-0.194819,-0.00660523,0,
4,0.477632,0.0328528,-0.194843,-0.00679618,0,
4,0.497368,0.0500777,-0.194872,-0.00697505,0,
4,0.517057,0.0679858,-0.194901,-0.00713627,0,
4,0.536763,0.0864972,-0.194918,-0.00727586,0,
4,0.556564,0.105599,-0.194914,-0.00739092,0,
4,0.576557,0.125339,-0.194883,-0.00747869,0,
4,0.596848,0.145811,-0.194816,-0.0075363,0,
4,0.617561,0.167142,-0.19471,-0.0075612,0,
4,0.637962,0.188651,-0.194546,-0.0075534,0,
4,0.657495,0.209809,-0.194328,-0.00751859,0,
4,0.676218,0.230699,-0.194064,-0.00746482,0,
4,0.694189,0.251414,-0.193761,-0.00740186,0,
4,0.711463,0.272035,-0.193445,-0.00733976,0,
4,0.728096,0.292592,-0.193144,-0.00728742,0,
4,0.744138,0.313046,-0.192888,-0.00725075,0,
4,0.759639,0.333275,-0.192696,-0.00723098,0,
4,0.774643,0.353106,-0.192568,-0.00722403,0,
4,0.789195,0.372367,-0.192492,-0.00722133,0,
4,0.803334,0.390915,-0.192451,-0.00721963,0,
4,0.817097,0.40866,-0.192431,-0.00721647,0,
4,0.830518,0.425573,-0.192413,-0.0072101,0,
4,0.843629,0.441689,-0.19238,-0.00719883,0,
4,0.856459,0.457093,-0.192317,-0.00718152,0,
4,0.869035,0.471898,-0.192218,-0.00716062,0,
4,0.881383,0.486225,-0.19208,-0.00713932,0,
4,0.893524,0.500218,-0.1919,-0.00712118,0,
4,0.905481,0.514103,-0.191636,-0.00702937,0,
4,0.917272,0.528054,-0.191327,-0.00693023,0,
4,0.928915,0.542088,-0.191028,-0.00680853,0,
4,0.940428,0.556192,-0.190716,-0.006656,0,
4,0.951826,0.570348,-0.190398,-0.00647412,0,
4,0.963124,0.584541,-0.190073,-0.00626406,0,
4,0.974334,0.598753,-0.189741,-0.006027,0,
4,0.98547,0.61296,-0.189403,-0.00576419,0,
4,0.996544,0.627134,-0.18906,-0.00547697,0,
4,1.00757,0.641237,-0.188713,-0.0051675,0,
4,1.01855,0.65522,-0.188362,-0.00483765,0,
4,1.0295,0.669024,-0.188008,-0.00449048,0,
4,1.04044,0.682575,-0.187652,-0.00412988,0,
4,1.0623,0.708561,-0.186934,-0.00338801,0,
4,1.07328,0.720811,-0.18657,-0.00301923,0,
4,1.08432,0.732402,-0.186204,-0.00266251,0,
4,1.09543,0.743207,-0.185834,-0.00232661,0,
4,1.10661,0.75312,-0.185459,-0.00201986,0,
4,1.11788,0.76207,-0.18508,-0.00174896,0,
4,1.12925,0.770042,-0.184695,-0.00151797,0,
4,1.14073,0.777076,-0.184304,-0.00132779,0,
4,1.15233,0.783263,-0.183908,-0.00117642,0,
4,1.16408,0.788726,-0.183505,-0.00105964,0,
4,1.17599,0.793598,-0.183095,-0.000972123,0,
4,1.18806,0.798007,-0.182678,-0.000908268,0,
4,1.20034,0.802065,-0.182255,-0.000862787,0,
4,1.21282,0.805862,-0.181824,-0.000831161,0,
4,1.22554,0.809472,-0.181385,-0.000809694,0,
4,1.23852,0.812951,-0.180938,-0.000795486,0,
4,1.25179,0.816339,-0.180482,-0.000786777,0,
4,1.26537,0.819671,-0.180017,-0.000781328,0,
4,1.2793,0.822974,-0.179541,-0.000778045,0,
4,1.29362,0.82627,-0.179055,-0.000775931,0,
4,1.30836,0.829576,-0.178556,-0.000774206,0,
4,1.32357,0.832908,-0.178043,-0.000772405,0,
4,1.3393,0.836279,-0.177515,-0.000771495,0,
4,1.3556,0.839714,-0.176977,-0.00076633,0,
4,1.37252,0.843241,-0.176425,-0.00075926,0,
4,1.39015,0.846878,-0.175852,-0.000751995,0,
4,1.40855,0.850636,-0.175256,-0.0007442,0,
4,1.42781,0.854524,-0.174634,-0.000735686,0,
4,1.44801,0.858557,-0.173986,-0.000726497,0,
4,1.46926,0.86275,-0.173309,-0.000716642,0,
4,1.49167,0.867121,-0.1726,-0.000706105,0,
4,1.51537,0.871693,-0.171858,-0.0006947,0,
4,1.54091,0.876562,-0.171063,-0.000682015,0,
4,1.56949,0.881928,-0.170184,-0.000667867,0,
4,1.60144,0.887849,-0.169211,-0.000651914,0,
4,1.63713,0.894361,-0.168139,-0.000633555,0,
4,1.67693,0.901491,-0.166958,-0.000612371,0,
4,1.72128,0.909257,-0.165662,-0.000587932,0,
4,1.77062,0.91766,-0.164243,-0.000559715,0,
4,1.82542,0.926674,-0.162695,-0.000527291,0,
4,1.88618,0.93625,-0.161009,-0.000490366,0,
4,1.95343,0.946348,-0.15919,-0.000430372,0,
4,2.02768,0.956827,-0.157235,-0.00035988,0,
4,2.10949,0.967336,-0.155136,-0.000280666,0,
4,2.19939,0.977344,-0.152902,-0.000198595,0,
4,2.29789,0.986195,-0.15054,-0.000122016,0,
4,2.40551,0.993175,-0.148067,-5.94141e-05,0,
4,2.52268,0.997668,-0.145508,-1.71974e-05,0,
4,2.64979,0.999398,-0.142894,3.05192e-06,0,
4,2.78715,0.998666,-0.140256,6.55854e-06,0,
4,2.93497,0.99638,-0.137626,3.23643e-06,0,
4,3.09333,0.993729,-0.13503,7.09537e-07,0,
4,3.26217,0.991606,-0.13249,8.54531e-08,0,
4,3.44125,0.990254,-0.130021,2.65957e-08,0,
4,3.63018,0.989407,-0.127638,2.00597e-08,0,
4,3.82836,0.988706,-0.125352,1.81196e-08,0,
4,4.03501,0.987953,-0.123176,1.75331e-08,0,
4,4.24915,0.987134,-0.121119,1.67939e-08,0,
4,4.46961,0.986315,-0.119187,1.55746e-08,0,
4,4.69507,0.985553,-0.117384,1.40777e-08,0,
4,4.92406,0.984866,-0.115712,1.26403e-08,0,
4,5.15502,0.984249,-0.11417,1.14248e-08,0,
4,5.3863,0.983689,-0.112756,1.05729e-08,0,
4,5.61626,0.983172,-0.111466,1.03433e-08,0,
4,5.84328,0.982678,-0.110297,1.15753e-08,0,
4,6.06579,0.982206,-0.109243,1.68178e-08,0,
4,6.28238,0.981819,-0.108298,3.01815e-08,0,
4,6.49173,0.981674,-0.107453,3.69272e-08,0,
4,6.69275,0.981936,-0.106702,-5.1596e-08,0,
4,6.88453,0.982446,-0.106035,9.51069e-08,0,
4,7.06634,0.982266,-0.105442,4.84314e-06,0,
4,7.23771,0.979547,-0.104921,2.86983e-05,0,
4,7.39831,0.972231,-0.104468,9.28053e-05,0,
4,7.54803,0.95937,-0.104087,0.000211578,0,
4,7.68693,0.941866,-0.103767,0.000369396,0,
4,7.81519,0.921663,-0.103491,0.000513809,0,
4,7.93313,0.900651,-0.10327,0.000662345,0,
4,8.04115,0.880275,-0.103084,0.000797512,0,
4,8.13974,0.86126,-0.102933,0.000909752,0,
4,8.22941,0.843736,-0.102818,0.000998685,0,
4,8.31073,0.827457,-0.102726,0.00106108,0,
4,8.38429,0.81202,-0.102658,0.00110688,0,
4,8.45065,0.797148,-0.10261,0.00115019,0,
4,8.5104,0.78271,-0.102574,0.00118786,0,
4,8.56407,0.76861,-0.102551,0.0012203,0,
4,8.61222,0.754774,-0.102535,0.00124814,0,
4,8.65533,0.741144,-0.102527,0.00127185,0,
4,8.69387,0.727676,-0.102523,0.00129178,0,
4,8.7283,0.714333,-0.102523,0.00130821,0,
4,8.75901,0.701091,-0.102525,0.00132138,0,
4,8.78637,0.687927,-0.10253,0.00133148,0,
4,8.81074,0.674825,-0.102536,0.0013387,0,
4,8.83242,0.66177,-0.102542,0.00134321,0,
4,8.85169,0.64875,-0.102549,0.0013452,0,
4,8.86881,0.635751,-0.102555,0.00134484,0,
4,8.88402,0.622759,-0.102562,0.00134231,0,
4,8.89751,0.609759,-0.102568,0.00133777,0,
4,8.90949,0.596731,-0.102574,0.00133138,0,
4,8.92011,0.583655,-0.10258,0.00132328,0,
4,8.92952,0.570506,-0.102585,0.00131358,0,
4,8.93787,0.557254,-0.102589,0.00130236,0,
4,8.94526,0.543865,-0.102594,0.00128965,0,
4,8.95182,0.5303,-0.102597,0.00127543,0,
4,8.95762,0.516514,-0.1026,0.00125962,0,
4,8.96276,0.502454,-0.102603,0.00124206,0,
4,8.96731,0.488057,-0.102606,0.00122249,0,
4,8.97134,0.473251,-0.102608,0.00120052,0,
4,8.97491,0.457953,-0.10261,0.00117564,0,
4,8.97807,0.442061,-0.102612,0.00114711,0,
4,8.98087,0.425459,-0.102613,0.00111395,0,
4,8.98334,0.408004,-0.102614,0.00107485,0,
4,8.98553,0.389528,-0.102615,0.00102854,0,
4,8.98747,0.369812,-0.102616,0.000971021,0,
4,8.98919,0.348574,-0.102616,0.000897859,0,
4,8.9907,0.325542,-0.102617,0.000809836,0,
4,8.99205,0.300528,-0.102617,0.000705261,0,
4,8.99324,0.273357,-0.102618,0.000575419,0,
4,8.99429,0.243947,-0.102618,0.000424545,0,
4,8.99522,0.212663,-0.102618,0.000270742,0,
4,8.99605,0.18056,-0.102618,0.00014215,0,
4,8.99677,0.149189,-0.102619,5.96844e-05,0,
4,8.99742,0.119928,-0.102618,1.9931e-05,0,
4,8.99799,0.0934771,-0.102619,5.26984e-06,0,
4,8.9985,0.0699319,-0.102618,1.06225e-06,0,
4,8.99894,0.0490913,-0.102619,1.46376e-07,0,
4,8.99934,0.0306725,-0.102618,1.07205e-08,0,
4,8.99969,0.0143967,-0.102619,2.31078e-10,0,

6,0,0,-0.0405862,0,0,
6,9,0,-0.0786254,0,0,
6,1.07704,0.738977,-0.054039,-0.00147761,0,
6,0.000299862,-0.00312943,-0.0405944,2.09547e-11,0,
6,0.000611645,-0.00627007,-0.0405877,7.93599e-10,0,
6,0.000938257,-0.00943707,-0.0405942,8.4035e-09,0,
6,0.00128281,-0.0126424,-0.0405891,4.72024e-08,0,
6,0.00164864,-0.0158938,-0.0405942,1.84504e-07,0,
6,0.00203939,-0.0191929,-0.0405903,5.7219e-07,0,
6,0.00245897,-0.0225321,-0.0405945,1.50962e-06,0,
6,0.00291168,-0.0258883,-0.0405916,3.51901e-06,0,
6,0.00340221,-0.0292138,-0.0405952,7.37632e-06,0,
6,0.00393573,-0.0324256,-0.0405933,1.39319e-05,0,
6,0.00451788,-0.0353999,-0.040597,2.34702e-05,0,
6,0.00515491,-0.0379906,-0.0405968,3.46951e-05,0,
6,0.00585371,-0.0400804,-0.0406022,4.44035e-05,0,
6,0.00662185,-0.0416322,-0.0406057,4.896e-05,0,
6,0.00746774,-0.0426924,-0.0406152,4.63756e-05,0,
6,0.00840063,-0.0433492,-0.0406246,3.67277e-05,0,
6,0.00943073,-0.0436921,-0.0406401,2.10949e-05,0,
6,0.0105693,-0.0437924,-0.0406572,5.62383e-07,0,
6,0.0118288,-0.0437014,-0.0406806,-2.41457e-05,0,
6,0.0132228,-0.0434535,-0.0407073,-5.26675e-05,0,
6,0.0147664,-0.0430713,-0.0407406,-8.49091e-05,0,
6,0.016476,-0.0425689,-0.0407789,-0.000120958,0,
6,0.0183694,-0.0419543,-0.0408245,-0.000161026,0,
6,0.0204662,-0.0412316,-0.040877,-0.000205414,0,
6,0.0227875,-0.0404014,-0.040938,-0.000254491,0,
6,0.0253561,-0.0394622,-0.0410077,-0.000308683,0,
6,0.0281964,-0.0384104,-0.0410874,-0.00036846,0,
6,0.0313344,-0.0372409,-0.0411777,-0.000434336,0,
6,0.0347975,-0.0359472,-0.0412796,-0.000506858,0,
6,0.0386145,-0.0345214,-0.0413938,-0.000586604,0,
6,0.042815,-0.0329544,-0.0415212,-0.000674168,0,
6,0.0474296,-0.0312363,-0.0416623,-0.000770159,0,
6,0.0524888,-0.0293556,-0.0418176,-0.000875183,0,
6,0.0580229,-0.0273003,-0.0419873,-0.000989829,0,
6,0.0640611,-0.0250571,-0.0421713,-0.00111465,0,
6,0.0706309,-0.0226121,-0.0423694,-0.00125015,0,
6,0.077757,-0.0199508,-0.0425808,-0.00139677,0,
6,0.0854609,-0.0170581,-0.0428045,-0.00155484,0,
6,0.0937597,-0.0139188,-0.0430391,-0.00172463,0,
6,0.102665,-0.0105177,-0.0432828,-0.00190634,0,
6,0.112183,-0.00683886,-0.0435333,-0.00209997,0,
6,0.122315,-0.00286537,-0.0437882,-0.00230501,0,
6,0.133052,0.0014211,-0.0440452,-0.00252058,0,
6,0.144384,0.00603806,-0.0443016,-0.0027464,0,
6,0.156292,0.011,-0.0445544,-0.00298229,0,
6,0.168754,0.0163186,-0.0448012,-0.00322748,0,
6,0.181744,0.022005,-0.04504,-0.00348088,0,
6,0.195237,0.0280707,-0.0452696,-0.00374128,0,
6,0.209207,0.0345291,-0.0454898,-0.00400737,0,
6,0.223631,0.0413956,-0.0457005,-0.00427786,0,
6,0.238493,0.048689,-0.0459023,-0.00455144,0,
6,0.253785,0.0564322,-0.0460962,-0.00482686,0,
6,0.269507,0.0646532,-0.0462836,-0.00510292,0,
6,0.28567,0.0733871,-0.046466,-0.00537852,0,
6,0.3023,0.0826769,-0.0466452,-0.00565258,0,
6,0.319433,0.0925749,-0.0468236,-0.0059241,0,
6,0.337122,0.103145,-0.0470018,-0.00619201,0,
6,0.355433,0.114463,-0.0471863,-0.00645566,0,
6,0.374445,0.126622,-0.0473654,-0.00671331,0,
6,0.394252,0.139728,-0.0475771,-0.00697062,0,
6,0.414961,0.153932,-0.047764,-0.00730563,0,
6,0.436695,0.169741,-0.0477155,-0.00742568,0,
6,0.459585,0.187819,-0.0475523,-0.00753169,0,
6,0.48378,0.208429,-0.0475127,-0.00762936,0,
6,0.508144,0.230465,-0.0475809,-0.00769372,0,
6,0.531799,0.252836,-0.0477164,-0.00771014,0,
6,0.554791,0.275272,-0.0478724,-0.0076739,0,
6,0.577166,0.297619,-0.0480196,-0.00758605,0,
6,0.598964,0.319813,-0.048143,-0.00745172,0,
6,0.620228,0.341839,-0.048241,-0.00727861,0,
6,0.640996,0.363699,-0.0483218,-0.00707556,0,
6,0.661304,0.385382,-0.0484003,-0.00685149,0,
6,0.681188,0.406844,-0.0484937,-0.00661439,0,
6,0.700681,0.427999,-0.0486159,-0.00637054,0,
6,0.719813,0.448726,-0.0487736,-0.00612422,0,
6,0.738612,0.468897,-0.0489656,-0.00587797,0,
6,0.757107,0.488406,-0.0491845,-0.00563327,0,
6,0.775322,0.507188,-0.0494207,-0.00539116,0,
6,0.793282,0.525226,-0.0496662,-0.00515268,0,
6,0.811008,0.542537,-0.0499158,-0.00491883,0,
6,0.828521,0.559151,-0.0501684,-0.00469049,0,
6,0.845842,0.575097,-0.0504221,-0.00446939,0,
6,0.862989,0.590391,-0.0506766,-0.00425718,0,
6,0.879979,0.605046,-0.050934,-0.00405213,0,
6,0.896829,0.619088,-0.0511958,-0.00385217,0,
6,0.913555,0.632559,-0.0514611,-0.00365484,0,
6,0.930172,0.645518,-0.0517305,-0.00345711,0,
6,0.946694,0.658053,-0.0519951,-0.00324249,0,
6,0.963136,0.670227,-0.0522547,-0.00300828,0,
6,0.97951,0.681997,-0.0525158,-0.00276967,0,
6,0.99583,0.693254,-0.0527757,-0.00252544,0,
6,1.01211,0.703897,-0.0530345,-0.00228348,0,
6,1.02836,0.713837,-0.0532907,-0.00205165,0,
6,1.04459,0.72301,-0.0535439,-0.00183683,0,
6,1.06081,0.731388,-0.0537934,-0.0016444,0,
6,1.09329,0.745825,-0.054281,-0.00133763,0,
6,1.10959,0.752008,-0.0545198,-0.00122373,0,
6,1.12595,0.757614,-0.0547562,-0.0011337,0,
6,1.14238,0.762742,-0.0549911,-0.00106449,0,
6,1.1589,0.767482,-0.0552251,-0.00101267,0,
6,1.17551,0.77192,-0.055459,-0.000974819,0,
6,1.19223,0.776125,-0.0556936,-0.000947823,0,
6,1.20907,0.780156,-0.0559283,-0.000928964,0,
6,1.22605,0.78406,-0.0561664,-0.00091596,0,
6,1.24318,0.787871,-0.0563997,-0.000909461,0,
6,1.26048,0.791638,-0.0566487,-0.000904669,0,
6,1.27797,0.795445,-0.0569206,-0.000886816,0,
6,1.29566,0.799355,-0.0571901,-0.000869282,0,
6,1.31357,0.803353,-0.0574537,-0.000853558,0,
6,1.33173,0.80739,-0.0577113,-0.000839732,0,
6,1.35015,0.811431,-0.0579669,-0.000827453,0,
6,1.36886,0.815462,-0.0582241,-0.000815961,0,
6,1.38788,0.819496,-0.0584846,-0.00080461,0,
6,1.40725,0.823548,-0.0587489,-0.000793005,0,
6,1.42698,0.827634,-0.0590169,-0.000780988,0,
6,1.44712,0.831763,-0.0592883,-0.000768518,0,
6,1.46769,0.83594,-0.0595632,-0.000755576,0,
6,1.48874,0.840169,-0.0598419,-0.00074213,0,
6,1.5103,0.844454,-0.0601248,-0.000728129,0,
6,1.53242,0.8488,-0.0604123,-0.000713517,0,
6,1.55515,0.85321,-0.0607047,-0.000698241,0,
6,1.57854,0.85769,-0.0610026,-0.000682251,0,
6,1.60265,0.862244,-0.0613063,-0.000665499,0,
6,1.62754,0.866877,-0.0616164,-0.000647933,0,
6,1.65329,0.871592,-0.0619333,-0.000629506,0,
6,1.67998,0.876394,-0.0622575,-0.000610183,0,
6,1.70768,0.881288,-0.062589,-0.000590092,0,
6,1.73712,0.886371,-0.0629369,-0.000568992,0,
6,1.76996,0.891875,-0.0633177,-0.000545911,0,
6,1.80655,0.89783,-0.0637345,-0.000520382,0,
6,1.84728,0.904222,-0.0641888,-0.000492252,0,
6,1.89255,0.911024,-0.0646812,-0.000461224,0,
6,1.9428,0.918238,-0.0652185,-0.000413409,0,
6,1.99849,0.925809,-0.0658,-0.000359543,0,
6,2.06009,0.933553,-0.0664201,-0.000299922,0,
6,2.1281,0.941201,-0.0670804,-0.000237513,0,
6,2.20301,0.948432,-0.0677763,-0.000176265,0,
6,2.28535,0.954883,-0.0685044,-0.000120115,0,
6,2.37559,0.960187,-0.0692578,-7.27527e-05,0,
6,2.47424,0.964035,-0.0700288,-3.70559e-05,0,
6,2.58172,0.96627,-0.0708074,-1.42107e-05,0,
6,2.69844,0.966985,-0.0715825,-2.92886e-06,0,
6,2.82473,0.966566,-0.0723426,4.85391e-07,0,
6,2.96084,0.965626,-0.0730768,4.85283e-07,0,
6,3.10691,0.964797,-0.0737764,4.80547e-08,0,
6,3.26296,0.964488,-0.0744351,-5.31466e-08,0,
6,3.42888,0.964746,-0.0750488,-2.76456e-08,0,
6,3.60438,0.965346,-0.0756138,-1.42203e-08,0,
6,3.78902,0.965999,-0.0761271,-1.11268e-08,0,
6,3.98218,0.966522,-0.0765863,-8.63996e-09,0,
6,4.18307,0.966882,-0.0769908,-6.54347e-09,0,
6,4.39071,0.967134,-0.0773413,-5.25082e-09,0,
6,4.60398,0.967343,-0.0776399,-4.55543e-09,0,
6,4.82159,0.967542,-0.0778895,-4.12476e-09,0,
6,5.04218,0.967733,-0.0780939,-3.76123e-09,0,
6,5.26426,0.967906,-0.0782573,-3.47781e-09,0,
6,5.48633,0.968048,-0.0783845,-3.44756e-09,0,
6,5.70687,0.968148,-0.0784804,-4.06331e-09,0,
6,5.92439,0.968209,-0.0785495,-6.7989e-09,0,
6,6.1375,0.968274,-0.0785964,-2.12489e-08,0,
6,6.34489,0.968455,-0.0786248,-1.01105e-07,0,
6,6.5454,0.968888,-0.0786378,-4.11907e-07,0,
6,6.73802,0.969554,-0.0786376,-8.99195e-07,0,
6,6.92195,0.969943,-0.0786266,1.05853e-06,0,
6,7.09653,0.968808,-0.0786064,1.52345e-05,0,
6,7.26132,0.964381,-0.0785844,5.88061e-05,0,
6,7.41603,0.955196,-0.0785549,0.00014755,0,
6,7.56054,0.941024,-0.0785384,0.000285381,0,
6,7.6949,0.922923,-0.0785239,0.000415974,0,
6,7.81927,0.902542,-0.0784936,0.000552156,0,
6,7.93391,0.881687,-0.0784714,0.000689944,0,
6,8.0392,0.861735,-0.078443,0.000813524,0,
6,8.13555,0.843288,-0.0784204,0.000916466,0,
6,8.22344,0.826329,-0.078404,0.000999053,0,
6,8.30339,0.81049,-0.0783963,0.00105819,0,
6,8.37592,0.79536,-0.078396,0.00110612,0,
6,8.44155,0.780704,-0.0784022,0.0011513,0,
6,8.50082,0.766424,-0.0784101,0.00119049,0,
6,8.55423,0.752446,-0.0784212,0.00122407,0,
6,8.60229,0.738712,-0.0784334,0.00125269,0,
6,8.64545,0.725177,-0.078447,0.0012768,0,
6,8.68417,0.711806,-0.0784609,0.00129672,0,
6,8.71885,0.698573,-0.078475,0.00131269,0,
6,8.74989,0.68546,-0.0784889,0.00132491,0,
6,8.77763,0.672452,-0.0785024,0.00133359,0,
6,8.80241,0.659539,-0.0785152,0.00133896,0,
6,8.82452,0.64671,-0.0785273,0.00134125,0,
6,8.84423,0.633956,-0.0785386,0.0013407,0,
6,8.86181,0.621268,-0.078549,0.00133757,0,
6,8.87746,0.608634,-0.0785585,0.00133211,0,
6,8.89139,0.596038,-0.0785671,0.00132459,0,
6,8.90379,0.583464,-0.0785749,0.00131523,0,
6,8.91482,0.57089,-0.0785819,0.00130425,0,
6,8.92463,0.558293,-0.0785881,0.00129184,0,
6,8.93334,0.545645,-0.0785936,0.00127813,0,
6,8.94109,0.532911,-0.0785985,0.00126321,0,
6,8.94798,0.520056,-0.0786027,0.00124713,0,
6,8.95409,0.507037,-0.0786064,0.00122987,0,
6,8.95953,0.493805,-0.0786096,0.00121131,0,
6,8.96435,0.480304,-0.0786124,0.0011913,0,
6,8.96863,0.466472,-0.0786147,0.00116954,0,
6,8.97244,0.452233,-0.0786168,0.00114563,0,
6,8.97581,0.437503,-0.0786184,0.00111901,0,
6,8.97881,0.422181,-0.0786199,0.00108894,0,
6,8.98147,0.406149,-0.078621,0.0010544,0,
6,8.98383,0.389267,-0.0786222,0.00101406,0,
6,8.98593,0.37137,-0.0786229,0.000966429,0,
6,8.98779,0.352251,-0.0786237,0.000908453,0,
6,8.98944,0.331648,-0.0786241,0.0008351,0,
6,8.9909,0.309312,-0.0786248,0.000747834,0,
6,8.9922,0.285068,-0.0786249,0.0006442,0,
6,8.99336,0.258752,-0.0786254,0.000515866,0,
6,8.99438,0.230355,-0.0786253,0.000372547,0,
6,8.99529,0.20036,-0.0786258,0.000231474,0,
6,8.99609,0.169861,-0.0786255,0.000118524,0,
6,8.99681,0.140302,-0.078626,4.88935e-05,0,
6,8.99744,0.112858,-0.0786256,1.62055e-05,0,
6,8.99801,0.0880714,-0.0786262,4.2878e-06,0,
6,8.9985,0.065979,-0.0786256,8.68871e-07,0,
6,8.99895,0.0463817,-0.0786263,1.20575e-07,0,
6,8.99934,0.0290195,-0.0786255,8.89353e-09,0,
6,8.99969,0.0136389,-0.0786265,1.92697e-10,0,

10,0,0,0.0276637,0,0,
10,0.000296632,0.00737596,0.0276582,-3.45126e-11,0,
10,0.000596102,0.0148192,0.0276631,-1.27894e-09,0,
10,0.000900397,0.022379,0.0276585,-1.30025e-08,0,
10,0.00121153,0.030105,0.0276626,-6.9878e-08,0,
10,0.00153158,0.0380472,0.0276588,-2.61486e-07,0,
10,0.00186264,0.0462549,0.0276621,-7.78207e-07,0,
10,0.00220692,0.0547753,0.0276589,-1.97919e-06,0,
10,0.00256668,0.0636496,0.0276617,-4.48451e-06,0,
10,0.00294431,0.0729079,0.027659,-9.28005e-06,0,
10,0.00334229,0.0825597,0.0276613,-1.77927e-05,0,
10,0.00376326,0.0925822,0.027659,-3.18457e-05,0,
10,0.00421,0.102907,0.0276609,-5.33711e-05,0,
10,0.00468544,0.113415,0.0276588,-8.38198e-05,0,
10,0.00519274,0.123935,0.0276603,-0.000123436,0,
10,0.00573524,0.134271,0.0276583,-0.00017082,0,
10,0.00631651,0.14423,0.0276593,-0.000223161,0,
10,0.00694041,0.153655,0.0276572,-0.000277065,0,
10,0.00761104,0.16244,0.0276575,-0.000329477,0,
10,0.00833284,0.170537,0.0276552,-0.000378244,0,
10,0.00911058,0.177941,0.0276546,-0.000422221,0,
10,0.0099494,0.184682,0.0276517,-0.000461096,0,
10,0.0108548,0.190811,0.0276499,-0.000495126,0,
10,0.0118329,0.196389,0.0276461,-0.000524888,0,
10,0.0128901,0.201478,0.0276429,-0.000551103,0,
10,0.0140333,0.206141,0.0276378,-0.000574519,0,
10,0.0152702,0.210434,0.0276329,-0.000595842,0,
10,0.0166089,0.214409,0.0276261,-0.000615715,0,
10,0.0180584,0.218113,0.027619,-0.000634702,0,
10,0.0196282,0.221584,0.0276102,-0.000653295,0,
10,0.0213288,0.224858,0.0276005,-0.000671927,0,
10,0.0231714,0.227965,0.027589,-0.000690979,0,
10,0.0251682,0.230933,0.0275762,-0.000710794,0,
10,0.0273326,0.233784,0.0275614,-0.00073169,0,
10,0.0296789,0.236541,0.0275449,-0.000753964,0,
10,0.0322227,0.239221,0.0275262,-0.000777903,0,
10,0.0349809,0.241842,0.0275053,-0.000803791,0,
10,0.0379719,0.244419,0.0274819,-0.000831914,0,
10,0.0412155,0.246967,0.0274558,-0.000862563,0,
10,0.0447333,0.249501,0.0274268,-0.000896039,0,
10,0.0485489,0.252033,0.0273946,-0.000932659,0,
10,0.0526875,0.254577,0.0273591,-0.000972757,0,
10,0.0571768,0.257147,0.0273199,-0.00101669,0,
10,0.0620466,0.259756,0.0272768,-0.00106482,0,
10,0.0673295,0.262418,0.0272296,-0.00111757,0,
10,0.0730607,0.265147,0.0271779,-0.00117536,0,
10,0.0792784,0.267959,0.0271217,-0.00123864,0,
10,0.0860241,0.270872,0.0270605,-0.00130791,0,
10,0.0933428,0.273902,0.0269943,-0.00138368,0,
10,0.101283,0.277071,0.0269229,-0.0014665,0,
10,0.109899,0.280401,0.026846,-0.00155696,0,
10,0.119247,0.283916,0.0267636,-0.00165564,0,
10,0.12939,0.287645,0.0266756,-0.00176319,0,
10,0.140395,0.29162,0.0265819,-0.00188022,0,
10,0.152337,0.295877,0.0264827,-0.00200738,0,
10,0.165296,0.300457,0.0263778,-0.00214527,0,
10,0.179357,0.30541,0.0262674,-0.00229447,0,
10,0.194615,0.310789,0.0261515,-0.00245547,0,
10,0.211171,0.31666,0.0260304,-0.00262861,0,
10,0.229138,0.323098,0.0259038,-0.00281407,0,
10,0.248635,0.330188,0.0257723,-0.00301174,0,
10,0.269793,0.338032,0.0256343,-0.00322112,0,
10,0.292753,0.346746,0.025492,-0.00344114,0,
10,0.317669,0.356466,0.0253402,-0.00366853,0,
10,0.344708,0.367337,0.0251841,-0.00389837,0,
10,0.372405,0.378848,0.025028,-0.00412061,0,
10,0.399623,0.390546,0.0248751,-0.00432402,0,
10,0.426397,0.40242,0.0247262,-0.00450431,0,
10,0.452757,0.414463,0.0245795,-0.00466333,0,
10,0.478735,0.426671,0.0244352,-0.0047988,0,
10,0.504358,0.439047,0.0242949,-0.0049097,0,
10,0.529657,0.451591,0.0241536,-0.00499729,0,
10,0.554656,0.464304,0.0240171,-0.00509042,0,
10,0.579382,0.477329,0.0239003,-0.0051227,0,
10,0.603859,0.490955,0.0238,-0.00508176,0,
10,0.628112,0.505308,0.0236989,-0.00501465,0,
10,0.652163,0.520257,0.0235859,-0.00491887,0,
10,0.676035,0.535577,0.0234629,-0.00479426,0,
10,0.699751,0.551061,0.0233311,-0.00464271,0,
10,0.72333,0.566573,0.0231929,-0.00446725,0,
10,0.746795,0.582024,0.0230489,-0.00427123,0,
10,0.770165,0.597352,0.0228994,-0.00405807,0,
10,0.79346,0.612485,0.0227435,-0.00383144,0,
10,0.816699,0.62733,0.0225808,-0.00359544,0,
10,0.839903,0.64176,0.0224093,-0.00335729,0,
10,0.863088,0.655634,0.0222284,-0.00312515,0,
10,0.886275,0.668841,0.0220404,-0.00289978,0,
10,0.909481,0.681338,0.0218471,-0.00268205,0,
10,0.932723,0.693132,0.0216496,-0.00247301,0,
10,0.956021,0.704248,0.0214483,-0.00227352,0,
10,0.97939,0.714718,0.0212432,-0.00208426,0,
10,1.00285,0.72457,0.0210341,-0.00190583,0,
10,1.02641,0.733834,0.0208208,-0.0017388,0,
10,1.0501,0.742539,0.0206026,-0.00158374,0,
10,1.07392,0.750723,0.0203794,-0.00143707,0,
10,1.0979,0.758401,0.0201491,-0.00130666,0,
10,1.12205,0.765573,0.0199105,-0.00119184,0,
10,1.14639,0.772265,0.0196647,-0.00109661,0,
10,1.17093,0.778575,0.019414,-0.00100946,0,
10,1.19568,0.784629,0.0191593,-0.000933932,0,
10,1.22066,0.790498,0.0188986,-0.000868799,0,
10,1.24589,0.796205,0.0186305,-0.00081304,0,
10,1.27137,0.801749,0.0183542,-0.000765561,0,
10,1.29713,0.807134,0.01807,-0.000725022,0,
10,1.32317,0.812385,0.0177784,-0.000689939,0,
10,1.34951,0.817539,0.0174803,-0.000658914,0,
10,1.37616,0.822634,0.0171757,-0.000630817,0,
10,1.40313,0.827693,0.0168644,-0.000604825,0,
10,1.43043,0.832722,0.016546,-0.000580368,0,
10,1.45807,0.837723,0.0162203,-0.000557044,0,
10,1.48607,0.842691,0.015887,-0.000534569,0,
10,1.51444,0.847624,0.0155461,-0.000512739,0,
10,1.54318,0.852518,0.0151973,-0.000491413,0,
10,1.57231,0.857366,0.0148405,-0.000470496,0,
10,1.60184,0.862158,0.0144754,-0.000449922,0,
10,1.63178,0.866884,0.0141019,-0.000429651,0,
10,1.66213,0.871532,0.0137198,-0.000409666,0,
10,1.69292,0.876091,0.0133292,-0.000389995,0,
10,1.72416,0.880544,0.0129298,-0.000370715,0,
10,1.75585,0.884869,0.0125222,-0.000351966,0,
10,1.78802,0.889036,0.0121056,-0.000333888,0,
10,1.82067,0.893024,0.0116817,-0.000316495,0,
10,1.85383,0.896847,0.0112472,-0.000297183,0,
10,1.88751,0.900565,0.0108015,-0.000274057,0,
10,1.92173,0.904211,0.0103484,-0.000251957,0,
10,1.95652,0.907765,0.009885,-0.000229134,0,
10,1.9919,0.911194,0.00941292,-0.000205576,0,
10,2.02791,0.914466,0.00893011,-0.000181858,0,
10,2.06456,0.91755,0.0084388,-0.000158383,0,
10,2.10268,0.920478,0.00792471,-0.00013504,0,
10,2.1443,0.923331,0.00736472,-0.000112383,0,
10,2.18977,0.926056,0.00675167,-9.06079e-05,0,
10,2.23946,0.928572,0.00608341,-7.00227e-05,0,
10,2.29376,0.930795,0.00535415,-5.13881e-05,0,
10,2.35309,0.932647,0.00456116,-3.52886e-05,0,
10,2.4179,0.934062,0.00369999,-2.21687e-05,0,
10,2.48863,0.934995,0.00276841,-1.2311e-05,0,
10,2.56575,0.935441,0.0017637,-5.7327e-06,0,
10,2.64971,0.935451,0.000685034,-2.07454e-06,0,
10,2.74098,0.935143,-0.00046815,-6.01219e-07,0,
10,2.83997,0.934689,-0.00169477,-3.71168e-07,0,
10,2.94709,0.934294,-0.00299318,-5.35673e-07,0,
10,3.06269,0.934142,-0.00436031,-6.02924e-07,0,
10,3.18706,0.934347,-0.0057922,-4.79523e-07,0,
10,3.3204,0.93492,-0.00728317,-2.84695e-07,0,
10,3.46281,0.935774,-0.00882584,-1.34642e-07,0,
10,3.61427,0.936765,-0.0104106,-5.83767e-08,0,
10,3.77463,0.937758,-0.0120258,-3.02702e-08,0,
10,3.94358,0.938665,-0.013658,-2.17742e-08,0,
10,4.12067,0.939468,-0.0152927,-1.89504e-08,0,
10,4.30525,0.940197,-0.016915,-1.77227e-08,0,
10,4.49655,0.940893,-0.0185101,-1.7291e-08,0,
10,4.6936,0.941587,-0.020064,-1.76728e-08,0,
10,4.89531,0.942281,-0.0215639,-1.93936e-08,0,
10,5.10047,0.942962,-0.0229982,-2.39676e-08,0,
10,5.30776,0.943608,-0.0243575,-3.48087e-08,0,
10,5.51581,0.944202,-0.0256342,-5.87774e-08,0,
10,5.72323,0.94474,-0.0268231,-1.10905e-07,0,
10,5.92863,0.945248,-0.027921,-2.28302e-07,0,
10,6.13069,0.945793,-0.028927,-5.09605e-07,0,
10,6.32816,0.946471,-0.029842,-1.16087e-06,0,
10,6.51991,0.947313,-0.0306688,-2.26161e-06,0,
10,6.70495,0.948079,-0.0314116,-2.39304e-06,0,
10,6.88244,0.948041,-0.0320744,4.13933e-06,0,
10,7.0517,0.945953,-0.032662,2.86519e-05,0,
10,7.21224,0.940419,-0.033175,8.44731e-05,0,
10,7.3637,0.930566,-0.0336196,0.000180351,0,
10,7.5059,0.916478,-0.0339992,0.000306566,0,
10,7.63878,0.898818,-0.0343173,0.000418413,0,
10,7.76243,0.878748,-0.0345866,0.000540925,0,
10,7.87701,0.858034,-0.0348004,0.00066468,0,
10,7.9828,0.838108,-0.0349762,0.000775254,0,
10,8.08014,0.819632,-0.035116,0.000868337,0,
10,8.16941,0.802631,-0.0352312,0.000945383,0,
10,8.25106,0.786801,-0.0353262,0.00101018,0,
10,8.32554,0.771781,-0.0354074,0.00106606,0,
10,8.39331,0.75729,-0.0354768,0.00111501,0,
10,8.45484,0.743156,-0.0355366,0.00115795,0,
10,8.5106,0.729293,-0.0355876,0.00119529,0,
10,8.56104,0.715667,-0.0356313,0.00122734,0,
10,8.60659,0.702271,-0.0356687,0.00125434,0,
10,8.64767,0.689112,-0.035701,0.00127655,0,
10,8.68467,0.67619,-0.0357292,0.00129423,0,
10,8.71795,0.663486,-0.0357543,0.00130478,0,
10,8.74786,0.650973,-0.0357763,0.00131052,0,
10,8.77471,0.638638,-0.0357952,0.00131232,0,
10,8.79881,0.626478,-0.0358116,0.00131028,0,
10,8.8204,0.614486,-0.0358258,0.00130494,0,
10,8.83975,0.602651,-0.035838,0.00129682,0,
10,8.85708,0.59096,-0.0358484,0.0012864,0,
10,8.87259,0.579395,-0.0358574,0.00127412,0,
10,8.88646,0.567936,-0.0358651,0.00126038,0,
10,8.89886,0.556558,-0.0358716,0.00124551,0,
10,8.90995,0.545235,-0.0358772,0.0012298,0,
10,8.91986,0.533938,-0.0358818,0.00121344,0,
10,8.92872,0.522634,-0.0358858,0.00119661,0,
10,8.93663,0.511287,-0.0358891,0.00117939,0,
10,8.94369,0.499861,-0.0358919,0.00116181,0,
10,8.95,0.488312,-0.0358942,0.00114384,0,
10,8.95564,0.476597,-0.0358962,0.00112537,0,
10,8.96067,0.464665,-0.0358978,0.00110628,0,
10,8.96517,0.452462,-0.0358992,0.00108631,0,
10,8.96918,0.439927,-0.0359002,0.00106512,0,
10,8.97276,0.426991,-0.0359013,0.0010423,0,
10,8.97596,0.413573,-0.0359019,0.00101729,0,
10,8.97882,0.399581,-0.0359027,0.000989353,0,
10,8.98137,0.384908,-0.035903,0.000957563,0,
10,8.98365,0.369425,-0.0359037,0.000920708,0,
10,8.98569,0.352984,-0.0359037,0.00087733,0,
10,8.9875,0.335402,-0.0359044,0.000825501,0,
10,8.98913,0.316447,-0.0359041,0.000759758,0,
10,8.99058,0.295883,-0.0359049,0.000682099,0,
10,8.99188,0.273544,-0.0359044,0.000590099,0,
10,8.99304,0.249269,-0.0359052,0.000476981,0,
10,8.99408,0.223012,-0.0359046,0.000350208,0,
10,8.99501,0.195138,-0.0359054,0.000223429,0,
10,8.99583,0.166548,-0.0359046,0.000118614,0,
10,8.99658,0.138511,-0.0359055,5.10008e-05,0,
10,8.99724,0.112152,-0.0359046,1.76146e-05,0,
10,8.99784,0.0880669,-0.0359056,4.84057e-06,0,
10,8.99837,0.06637,-0.0359045,1.01524e-06,0,
10,8.99885,0.0469272,-0.0359058,1.45432e-07,0,
10,8.99927,0.0295266,-0.0359044,1.10406e-08,0,
10,8.99966,0.0139525,-0.035906,2.44261e-10,0,
10,9,0,-0.0359043,0,0,

0.0416667,0,0,-0.215784,0,2.72238e-06,
0.0833333,0,0,-0.215908,0,3.68919e-06,
0.125,0,0,-0.215874,0,4.48758e-06,
0.166667,0,0,-0.215925,0,7.54956e-06,
0.208333,0,0,-0.21595,0,1.08884e-05,
0.25,0,0,-0.216003,0,1.47133e-05,
0.291667,0,0,-0.216058,0,1.81867e-05,
0.333333,0,0,-0.216123,0,2.10331e-05,
0.375,0,0,-0.216192,0,2.29304e-05,
0.416667,0,0,-0.216262,0,2.39596e-05,
0.458333,0,0,-0.216332,0,2.43661e-05,
0.5,0,0,-0.216402,0,2.45187e-05,
0.541667,0,0,-0.216472,0,2.47842e-05,
0.583333,0,0,-0.216545,0,2.54399e-05,
0.625,0,0,-0.216622,0,2.6655e-05,
0.666667,0,0,-0.216705,0,2.84645e-05,
0.708333,0,0,-0.216796,0,3.08101e-05,
0.75,0,0,-0.216895,0,3.35586e-05,
0.791667,0,0,-0.217003,0,3.65471e-05,
0.833333,0,0,-0.217123,0,3.95984e-05,
0.875,0,0,-0.217254,0,4.25438e-05,
0.916667,0,0,-0.2174,0,4.51931e-05,
0.958333,0,0,-0.217564,0,4.73038e-05,
1,0,0,-0.217751,0,4.85634e-05,
1.04167,0,0,-0.217966,0,4.85694e-05,
1.08333,0,0,-0.218216,0,4.68304e-05,
1.125,0,0,-0.218506,0,4.28171e-05,
1.16667,0,0,-0.218841,0,3.60305e-05,
1.20833,0,0,-0.219224,0,2.60862e-05,
1.25,0,0,-0.219653,0,1.27931e-05,
1.29167,0,0,-0.220127,0,-3.80576e-06,
1.33333,0,0,-0.220641,0,-2.34422e-05,
1.375,0,0,-0.22119,0,-4.56904e-05,
1.41667,0,0,-0.221766,0,-7.00517e-05,
1.45833,0,0,-0.222364,0,-9.60427e-05,
1.5,0,0,-0.222978,0,-0.000123255,
1.54167,0,0,-0.223604,0,-0.000151382,
1.58333,0,0,-0.224237,0,-0.000180215,
1.625,0,0,-0.224875,0,-0.000209629,
1.66667,0,0,-0.225514,0,-0.000239551,
1.70833,0,0,-0.226152,0,-0.000269944,
1.75,0,0,-0.226787,0,-0.000300786,
1.79167,0,0,-0.227415,0,-0.00033206,
1.83333,0,0,-0.228034,0,-0.00036374,
1.875,0,0,-0.22864,0,-0.000395796,
1.91667,0,0,-0.229229,0,-0.000428183,
1.95833,0,0,-0.229798,0,-0.000460849,
2,0,0,-0.230344,0,-0.000493734,
2.04167,0,0,-0.230863,0,-0.000526775,
2.08333,0,0,-0.231353,0,-0.000559909,
2.125,0,0,-0.231811,0,-0.000593077,
2.16667,0,0,-0.232234,0,-0.000626226,
2.20833,0,0,-0.232622,0,-0.000659314,
2.25,0,0,-0.232971,0,-0.000692307,
2.29167,0,0,-0.233281,0,-0.00072518,
2.33333,0,0,-0.23355,0,-0.000757914,
2.375,0,0,-0.233777,0,-0.000790496,
2.41667,0,0,-0.23396,0,-0.000822915,
2.45833,0,0,-0.234097,0,-0.000855162,
2.5,0,0,-0.234185,0,-0.000887222,
2.54167,0,0,-0.234223,0,-0.000919078,
2.58333,0,0,-0.234207,0,-0.000950703,
2.625,0,0,-0.234135,0,-0.000982066,
2.66667,0,0,-0.234004,0,-0.00101313,
2.70833,0,0,-0.233812,0,-0.00104384,
2.75,0,0,-0.233556,0,-0.00107415,
2.79167,0,0,-0.233234,0,-0.00110401,
2.83333,0,0,-0.232844,0,-0.00113337,
2.875,0,0,-0.232386,0,-0.00116218,
2.91667,0,0,-0.231859,0,-0.00119041,
2.95833,0,0,-0.231261,0,-0.00121804,
3,0,0,-0.230592,0,-0.00124503,
3.04167,0,0,-0.229852,0,-0.0012714,
3.08333,0,0,-0.22904,0,-0.00129713,
3.125,0,0,-0.228156,0,-0.00132222,
3.16667,0,0,-0.227199,0,-0.00134668,
3.20833,0,0,-0.226168,0,-0.00137049,
3.25,0,0,-0.225061,0,-0.00139364,
3.29167,0,0,-0.223877,0,-0.00141611,
3.33333,0,0,-0.222615,0,-0.00143787,
3.375,0,0,-0.221271,0,-0.00145886,
3.41667,0,0,-0.219845,0,-0.00147904,
3.45833,0,0,-0.218334,0,-0.00149835,
3.5,0,0,-0.216737,0,-0.00151672,
3.54167,0,0,-0.215052,0,-0.00153408,
3.58333,0,0,-0.21328,0,-0.00155039,
3.625,0,0,-0.211419,0,-0.00156559,
3.66667,0,0,-0.209471,0,-0.00157962,
3.70833,0,0,-0.207435,0,-0.00159245,
3.75,0,0,-0.205313,0,-0.00160404,
3.79167,0,0,-0.203105,0,-0.00161435,
3.83333,0,0,-0.200815,0,-0.00162336,
3.875,0,0,-0.198445,0,-0.00163105,
3.91667,0,0,-0.195996,0,-0.0016374,
3.95833,0,0,-0.193471,0,-0.00164239,
4,0,0,-0.190875,0,-0.00164602,
4.04167,0,0,-0.188209,0,-0.00164828,
4.08333,0,0,-0.185478,0,-0.00164918,
4.125,0,0,-0.182686,0,-0.00164872,
4.16667,0,0,-0.179835,0,-0.00164692,
4.20833,0,0,-0.176931,0,-0.00164379,
4.25,0,0,-0.173978,0,-0.00163934,
4.29167,0,0,-0.170979,0,-0.0016336,
4.33333,0,0,-0.167939,0,-0.00162661,
4.375,0,0,-0.164862,0,-0.00161839,
4.41667,0,0,-0.161754,0,-0.00160899,
4.45833,0,0,-0.158617,0,-0.00159844,
4.5,0,0,-0.155457,0,-0.00158679,
4.54167,0,0,-0.152278,0,-0.00157409,
4.58333,0,0,-0.149082,0,-0.00156038,
4.625,0,0,-0.145873,0,-0.00154569,
4.66667,0,0,-0.142655,0,-0.00153008,
4.70833,0,0,-0.13943,0,-0.00151358,
4.75,0,0,-0.136201,0,-0.00149623,
4.79167,0,0,-0.132969,0,-0.00147806,
4.83333,0,0,-0.129736,0,-0.00145911,
4.875,0,0,-0.126502,0,-0.00143939,
4.91667,0,0,-0.12327,0,-0.00141892,
4.95833,0,0,-0.120039,0,-0.00139772,
5,0,0,-0.116808,0,-0.00137579,
5.04167,0,0,-0.113579,0,-0.00135313,
5.08333,0,0,-0.110351,0,-0.00132973,
5.125,0,0,-0.107123,0,-0.0013056,
5.16667,0,0,-0.103895,0,-0.00128072,
5.20833,0,0,-0.100667,0,-0.00125508,
5.25,0,0,-0.0974393,0,-0.00122866,
5.29167,0,0,-0.094211,0,-0.00120146,
5.33333,0,0,-0.0909825,0,-0.00117346,
5.375,0,0,-0.0877542,0,-0.00114464,
5.41667,0,0,-0.084527,0,-0.00111501,
5.45833,0,0,-0.0813017,0,-0.00108454,
5.5,0,0,-0.0780798,0,-0.00105325,
5.54167,0,0,-0.074863,0,-0.00102112,
5.58333,0,0,-0.0716532,0,-0.000988172,
5.625,0,0,-0.068453,0,-0.000954407,
5.66667,0,0,-0.0652649,0,-0.000919847,
5.70833,0,0,-0.0620919,0,-0.000884513,
5.75,0,0,-0.0589371,0,-0.000848434,
5.79167,0,0,-0.0558039,0,-0.000811642,
5.83333,0,0,-0.0526958,0,-0.000774178,
5.875,0,0,-0.0496164,0,-0.000736084,
5.91667,0,0,-0.0465693,0,-0.00069741,
5.95833,0,0,-0.0435581,0,-0.000658206,
6,0,0,-0.0405865,0,-0.000618525,
6.04167,0,0,-0.0376578,0,-0.00057842,
6.08333,0,0,-0.0347757,0,-0.000537944,
6.125,0,0,-0.0319433,0,-0.000497147,
6.16667,0,0,-0.0291639,0,-0.000456074,
6.20833,0,0,-0.0264407,0,-0.000414771,
6.25,0,0,-0.0237769,0,-0.000373281,
6.29167,0,0,-0.0211756,0,-0.000331659,
6.33333,0,0,-0.0186403,0,-0.000289974,
6.375,0,0,-0.0161745,0,-0.000248336,
6.41667,0,0,-0.0137817,0,-0.000206899,
6.45833,0,0,-0.011464,0,-0.000165841,
6.5,0,0,-0.00922223,0,-0.000125295,
6.54167,0,0,-0.00705577,0,-8.53196e-05,
6.58333,0,0,-0.00496401,0,-4.59176e-05,
6.625,0,0,-0.00294633,0,-7.07898e-06,
6.66667,0,0,-0.0010021,0,3.1202e-05,
6.70833,0,0,0.000869382,0,6.89165e-05,
6.75,0,0,0.00266888,0,0.000106055,
6.79167,0,0,0.00439727,0,0.000142604,
6.83333,0,0,0.00605553,0,0.000178552,
6.875,0,0,0.00764472,0,0.000213888,
6.91667,0,0,0.009166,0,0.0002486,
6.95833,0,0,0.0106206,0,0.000282679,
7,0,0,0.0120099,0,0.000316117,
7.04167,0,0,0.0133353,0,0.000348908,
7.08333,0,0,0.0145982,0,0.000381047,
7.125,0,0,0.0158001,0,0.000412529,
7.16667,0,0,0.0169425,0,0.000443354,
7.20833,0,0,0.018027,0,0.00047352,
7.25,0,0,0.0190553,0,0.000503029,
7.29167,0,0,0.0200288,0,0.000531882,
7.33333,0,0,0.0209493,0,0.000560083,
7.375,0,0,0.0218182,0,0.000587637,
7.41667,0,0,0.0226373,0,0.000614547,
7.45833,0,0,0.0234081,0,0.000640819,
7.5,0,0,0.0241321,0,0.00066646,
7.54167,0,0,0.024811,0,0.000691479,
7.58333,0,0,0.0254462,0,0.000715885,
7.625,0,0,0.0260393,0,0.000739694,
7.66667,0,0,0.0265917,0,0.000762923,
7.70833,0,0,0.0271049,0,0.000785592,
7.75,0,0,0.0275804,0,0.000807728,
7.79167,0,0,0.0280194,0,0.000829349,
7.83333,0,0,0.0284229,0,0.000850466,
7.875,0,0,0.0287917,0,0.000871133,
7.91667,0,0,0.0291373,0,0.000891848,
7.95833,0,0,0.029396,0,0.000911176,
8,0,0,0.0297185,0,0.000930095,
8.04171,0,0,0.0300452,0,0.000949925,
8.08368,0,0,0.0302367,0,0.000969353,
8.12617,0,0,0.0304557,0,0.000986996,
8.16946,0,0,0.0306462,0,0.00100458,
8.21382,0,0,0.0308099,0,0.00102202,
8.25952,0,0,0.030953,0,0.00103935,
8.30685,0,0,0.0310743,0,0.00105673,
8.35611,0,0,0.0311731,0,0.00107425,
8.40762,0,0,0.0312487,0,0.00109199,
8.46168,0,0,0.0312997,0,0.00111,
8.51865,0,0,0.031324,0,0.00112835,
8.57889,0,0,0.0313195,0,0.00114709,
8.64276,0,0,0.0312838,0,0.00116625,
8.71067,0,0,0.031214,0,0.00118589,
8.78306,0,0,0.0311074,0,0.00120604,
8.86037,0,0,0.0309615,0,0.00122674,
8.94309,0,0,0.0307741,0,0.00124804,
9.03174,0,0,0.0305438,0,0.00126999,
9.12689,0,0,0.0302702,0,0.00129265,
9.22912,0,0,0.0299545,0,0.0013161,
9.33908,0,0,0.0295999,0,0.00134042,
9.45746,0,0,0.0292125,0,0.00136572,
9.58501,0,0,0.0288018,0,0.00139213,
9.72253,0,0,0.0283816,0,0.0014198,
9.87088,0,0,0.0279702,0,0.0014489,
10.031,0,0,0.0275902,0,0.00147962,
10.2039,0,0,0.0272673,0,0.00151215,
10.3906,0,0,0.0270276,0,0.00154664,
10.5924,0,0,0.026892,0,0.00158318,
10.8105,0,0,0.0268692,0,0.00162168,
11.0463,0,0,0.0269448,0,0.00166184,
11.3012,0,0,0.0270745,0,0.00170302,
11.5769,0,0,0.0271873,0,0.0017443,
11.8751,0,0,0.0271946,0,0.00178457,
12.1977,0,0,0.0269948,0,0.00182269,
12.5466,0,0,0.0264872,0,0.00185754,
12.9242,0,0,0.0256012,0,0.00188826,
13.3327,0,0,0.024326,0,0.00191447,
13.7748,0,0,0.0227228,0,0.00193644,
14.2532,0,0,0.0209099,0,0.00195499,
14.7709,0,0,0.0190308,0,0.00197122,
15.3312,0,0,0.017209,0,0.00198612,
15.9377,0,0,0.0155181,0,0.00200033,
16.594,0,0,0.0139946,0,0.00201409,
17.3044,0,0,0.0126746,0,0.00202753,
18.0733,0,0,0.0116104,0,0.00204084,
18.9056,0,0,0.0108381,0,0.00205415,
19.8064,0,0,0.0103272,0,0.00206729,
20.7816,0,0,0.00996686,0,0.00208005,
21.8371,0,0,0.00961953,0,0.00209221,
22.9796,0,0,0.00919446,0,0.00210372,
24.2163,0,0,0.00868,0,0.00211479,
25.5551,0,0,0.00811823,0,0.00212574,
27.0042,0,0,0.00755711,0,0.00213692,
28.5729,0,0,0.00701775,0,0.00214866,
30.271,0,0,0.00649136,0,0.0021611,
32.1091,0,0,0.00595354,0,0.00217421,
34.0989,0,0,0.00537584,0,0.00218792,
36.2529,0,0,0.00472644,0,0.00220206,
38.5845,0,0,0.00398506,0,0.00221648,
41.1085,0,0,0.00318078,0,0.00223103,
43.8407,0,0,0.00216646,0,0.00224361,
46.7983,0,0,0.00110959,0,0.00225203,
50,0,0,0.00197357,0,0.00226913,

