a4f110311ffcaf3826fbe7384fe056eae9b2323e 
X,Z,x_velocity,cp,uw_b,cf,
1,0,0,-0.237053,0,0,
1,9,0,-0.126981,0,0,
1,1.01284,0.48182,-0.229647,-0.00952954,0,
1,0.000308731,0.000534527,-0.237052,-1.01694e-14,0,
1,0.000654158,0.00111376,-0.237053,-4.46621e-13,0,
1,0.00104139,0.00173971,-0.237052,-5.72138e-12,0,
1,0.00147619,0.00241287,-0.237053,-3.89405e-11,0,
1,0.00196502,0.00313184,-0.237052,-1.82935e-10,0,
1,0.00251518,0.00389262,-0.237052,-6.74546e-10,0,
1,0.0031349,0.00468749,-0.237052,-2.09222e-09,0,
1,0.00383341,0.00550361,-0.237052,-5.67301e-09,0,
1,0.00462115,0.00632094,-0.237052,-1.37089e-08,0,
1,0.00550983,0.0071097,-0.237052,-2.96067e-08,0,
1,0.00651264,0.0078265,-0.237051,-5.60037e-08,0,
1,0.00764438,0.00840986,-0.237051,-8.59673e-08,0,
1,0.00892169,0.00877461,-0.23705,-7.41594e-08,0,
1,0.0103632,0.00880886,-0.23705,1.3971e-07,0,
1,0.0119898,0.00837933,-0.237049,9.8906e-07,0,
1,0.0138248,0.00735701,-0.237047,3.38366e-06,0,
1,0.0158944,0.00566317,-0.237044,8.68958e-06,0,
1,0.0182274,0.00330716,-0.23704,1.81089e-05,0,
1,0.0208562,0.000372963,-0.237033,3.19144e-05,0,
1,0.0238164,-0.00303965,-0.237023,4.91424e-05,0,
1,0.0271475,-0.00685758,-0.23701,6.8938e-05,0,
1,0.0308929,-0.0110436,-0.236993,9.01553e-05,0,
1,0.0351001,-0.0155862,-0.236972,0.00011198,0,
1,0.0398209,-0.0204788,-0.236948,0.000133685,0,
1,0.0451115,-0.0257045,-0.23692,0.00015449,0,
1,0.0510323,-0.0312236,-0.236891,0.000173478,0,
1,0.057648,-0.0369662,-0.236861,0.00018958,0,
1,0.0650269,-0.0428291,-0.236832,0.000201619,0,
1,0.0732406,-0.0486787,-0.236806,0.000208402,0,
1,0.0823632,-0.0543593,-0.236786,0.000208852,0,
1,0.0924701,-0.059706,-0.236777,0.000202161,0,
1,0.103636,-0.0645612,-0.236781,0.000187938,0,
1,0.115935,-0.0687894,-0.236803,0.000166291,0,
1,0.129436,-0.0722891,-0.236845,0.000137777,0,
1,0.144202,-0.0749993,-0.236911,0.00010333,0,
1,0.160284,-0.0768977,-0.237001,6.40941e-05,0,
1,0.177724,-0.0779937,-0.237116,2.12332e-05,0,
1,0.196544,-0.0783191,-0.237255,-2.42153e-05,0,
1,0.21675,-0.0779185,-0.237415,-7.14012e-05,0,
1,0.238323,-0.0768425,-0.237594,-0.000119642,0,
1,0.26122,-0.0751431,-0.237788,-0.000168355,0,
1,0.28537,-0.0728722,-0.237991,-0.000216981,0,
1,0.310673,-0.0700807,-0.238199,-0.000264925,0,
1,0.337003,-0.0668197,-0.238406,-0.000311546,0,
1,0.364206,-0.0631413,-0.238605,-0.000356124,0,
1,0.392107,-0.0590997,-0.238792,-0.000397864,0,
1,0.420509,-0.0547519,-0.238962,-0.000435915,0,
1,0.449206,-0.0501578,-0.239109,-0.000469395,0,
1,0.477982,-0.0453793,-0.239231,-0.000497423,0,
1,0.506624,-0.0404791,-0.239325,-0.000519189,0,
1,0.534925,-0.0355155,-0.239392,-0.000534142,0,
1,0.562692,-0.0305345,-0.23943,-0.000542253,0,
1,0.589754,-0.0255567,-0.23944,-0.000544696,0,
1,0.615961,-0.0205574,-0.239419,-0.000544443,0,
1,0.641193,-0.0154496,-0.239367,-0.000546132,0,
1,0.665359,-0.010085,-0.239275,-0.000565864,0,
1,0.688396,-0.00421627,-0.239137,-0.000613861,0,
1,0.710271,0.00258029,-0.238951,-0.000710243,0,
1,0.730976,0.0109092,-0.238719,-0.00087989,0,
1,0.750529,0.0214654,-0.238453,-0.00114853,0,
1,0.768969,0.0348103,-0.238165,-0.00153642,0,
1,0.78635,0.0510777,-0.237862,-0.00205242,0,
1,0.802743,0.0698666,-0.237547,-0.00268203,0,
1,0.818232,0.0904592,-0.237231,-0.00338614,0,
1,0.832689,0.111857,-0.23691,-0.00411839,0,
1,0.846039,0.133214,-0.236594,-0.00483622,0,
1,0.858357,0.154085,-0.23628,-0.00551429,0,
1,0.869723,0.174199,-0.23597,-0.00614092,0,
1,0.880212,0.193397,-0.235664,-0.00671059,0,
1,0.889898,0.211596,-0.235364,-0.00722145,0,
1,0.898852,0.228764,-0.235073,-0.00767469,0,
1,0.907141,0.244906,-0.23479,-0.00807565,0,
1,0.914826,0.260057,-0.234515,-0.00842559,0,
1,0.921966,0.274285,-0.234248,-0.00872859,0,
1,0.928616,0.287675,-0.233986,-0.00898984,0,
1,0.934823,0.300319,-0.23373,-0.00921248,0,
1,0.940633,0.312303,-0.233478,-0.00940231,0,
1,0.946088,0.323705,-0.233233,-0.00956358,0,
1,0.951224,0.334591,-0.232994,-0.00969922,0,
1,0.956076,0.345022,-0.232762,-0.00981177,0,
1,0.960675,0.35505,-0.232535,-0.00990343,0,
1,0.965047,0.364724,-0.232315,-0.00997606,0,
1,0.969219,0.374085,-0.2321,-0.0100313,0,
1,0.973211,0.383175,-0.23189,-0.0100704,0,
1,0.977045,0.39203,-0.231685,-0.0100946,0,
1,0.980739,0.400682,-0.231484,-0.0101048,0,
1,0.984308,0.409161,-0.231288,-0.0101017,0,
1,0.987768,0.417498,-0.231095,-0.0100859,0,
1,0.991131,0.425717,-0.230906,-0.0100578,0,
1,0.99441,0.433842,-0.23072,-0.0100177,0,
1,0.997615,0.441897,-0.230536,-0.0099659,0,
1,1.00076,0.449903,-0.230355,-0.00990233,0,
1,1.00384,0.45788,-0.230175,-0.00982699,0,
1,1.00688,0.465846,-0.229998,-0.00973975,0,
1,1.00988,0.473821,-0.229822,-0.00964049,0,
1,1.01581,0.489952,-0.229472,-0.00940408,0,
1,1.01882,0.498327,-0.229294,-0.00926048,0,
1,1.02188,0.506975,-0.229113,-0.00909769,0,
1,1.025,0.515927,-0.22893,-0.00891383,0,
1,1.02818,0.52521,-0.228745,-0.0087073,0,
1,1.03144,0.53485,-0.228558,-0.00847728,0,
1,1.03478,0.544871,-0.22837,-0.00822028,0,
1,1.03822,0.555294,-0.228181,-0.00793389,0,
1,1.04177,0.566142,-0.22799,-0.00761556,0,
1,1.04544,0.577431,-0.227798,-0.00726275,0,
1,1.04925,0.58917,-0.227605,-0.00687314,0,
1,1.05321,0.601355,-0.227413,-0.00644499,0,
1,1.05735,0.613963,-0.227221,-0.0059776,0,
1,1.06169,0.626939,-0.227031,-0.00547231,0,
1,1.06626,0.640183,-0.226845,-0.00493371,0,
1,1.07108,0.653539,-0.226665,-0.00437115,0,
1,1.07618,0.666782,-0.226493,-0.00380027,0,
1,1.0816,0.67962,-0.226331,-0.00324332,0,
1,1.08738,0.691734,-0.226183,-0.00272687,0,
1,1.09357,0.702841,-0.22605,-0.00227619,0,
1,1.10022,0.712785,-0.225931,-0.00190843,0,
1,1.10739,0.721583,-0.225824,-0.00162852,0,
1,1.11514,0.729409,-0.225722,-0.00143002,0,
1,1.12354,0.736518,-0.22562,-0.0012993,0,
1,1.13268,0.743176,-0.22551,-0.00121962,0,
1,1.14266,0.749605,-0.225386,-0.00117507,0,
1,1.15357,0.755977,-0.225243,-0.0011523,0,
1,1.16554,0.762409,-0.225076,-0.00114133,0,
1,1.1787,0.768977,-0.224881,-0.00113555,0,
1,1.1932,0.775729,-0.224656,-0.00113103,0,
1,1.2092,0.782692,-0.224394,-0.00112545,0,
1,1.22689,0.789884,-0.22409,-0.00111778,0,
1,1.24659,0.797354,-0.223736,-0.00110713,0,
1,1.26879,0.80519,-0.22332,-0.00109466,0,
1,1.29378,0.813396,-0.22283,-0.00108027,0,
1,1.3219,0.821975,-0.222252,-0.0010639,0,
1,1.35351,0.830936,-0.221582,-0.00104662,0,
1,1.389,0.840316,-0.220771,-0.00101546,0,
1,1.42882,0.850146,-0.219812,-0.000972827,0,
1,1.47342,0.860449,-0.218716,-0.000930833,0,
1,1.52332,0.87128,-0.21745,-0.00088692,0,
1,1.57905,0.882742,-0.215994,-0.000839558,0,
1,1.64119,0.894966,-0.214324,-0.000786771,0,
1,1.71033,0.908108,-0.212418,-0.000726288,0,
1,1.78711,0.922313,-0.210256,-0.000655696,0,
1,1.87215,0.937634,-0.207814,-0.000573652,0,
1,1.9661,0.953905,-0.205079,-0.000480635,0,
1,2.06959,0.970577,-0.20202,-0.000381334,0,
1,2.18321,0.986646,-0.19867,-0.000273422,0,
1,2.30752,1.00079,-0.195071,-0.000140273,0,
1,2.44299,1.01145,-0.19121,-4.66646e-05,0,
1,2.59002,1.01723,-0.187151,-4.25341e-06,0,
1,2.74885,1.01798,-0.182986,1.15436e-06,0,
1,2.91959,1.01553,-0.178784,1.04526e-07,0,
1,3.10217,1.01231,-0.174611,5.64314e-08,0,
1,3.2963,1.00971,-0.170513,4.45375e-08,0,
1,3.50146,1.00784,-0.166522,3.56412e-08,0,
1,3.7169,1.00634,-0.162673,3.11109e-08,0,
1,3.94163,1.00491,-0.158998,2.88407e-08,0,
1,4.17441,1.00347,-0.155525,2.68738e-08,0,
1,4.41376,1.00208,-0.152275,2.46744e-08,0,
1,4.65805,1.00078,-0.149261,2.23625e-08,0,
1,4.90545,0.999603,-0.146491,2.01899e-08,0,
1,5.15407,0.998537,-0.143967,1.8221e-08,0,
1,5.40194,0.997579,-0.141684,1.64957e-08,0,
1,5.64716,0.99672,-0.139634,1.50796e-08,0,
1,5.88785,0.99593,-0.137807,1.40635e-08,0,
1,6.12229,0.995178,-0.136189,1.3215e-08,0,
1,6.34896,0.994493,-0.134765,1.16993e-08,0,
1,6.56652,0.994068,-0.133518,9.0036e-09,0,
1,6.77388,0.994205,-0.132431,1.3999e-09,0,
1,6.97022,0.994854,-0.131486,8.34005e-09,0,
1,7.15495,0.994863,-0.130665,1.78016e-06,0,
1,7.32773,0.991741,-0.129958,1.85668e-05,0,
1,7.48842,0.982916,-0.129357,7.81574e-05,0,
1,7.63711,0.967877,-0.128866,0.000211685,0,
1,7.77403,0.948635,-0.128449,0.000400545,0,
1,7.89956,0.92756,-0.128099,0.000557783,0,
1,8.01417,0.906287,-0.127832,0.000713533,0,
1,8.11843,0.886009,-0.127608,0.000847722,0,
1,8.21296,0.867211,-0.127436,0.000955573,0,
1,8.29839,0.849873,-0.127299,0.00103961,0,
1,8.3754,0.833742,-0.127195,0.0011045,0,
1,8.44464,0.81851,-0.127116,0.0011552,0,
1,8.50675,0.803908,-0.127059,0.00119653,0,
1,8.56236,0.789708,-0.127016,0.00122712,0,
1,8.61206,0.775747,-0.126986,0.00125433,0,
1,8.6564,0.761948,-0.126965,0.00127915,0,
1,8.69591,0.748275,-0.12695,0.00130034,0,
1,8.73107,0.7347,-0.126941,0.00131815,0,
1,8.76232,0.7212,-0.126936,0.00133291,0,
1,8.79007,0.707753,-0.126934,0.00134488,0,
1,8.81469,0.69434,-0.126934,0.0013543,0,
1,8.83651,0.680945,-0.126935,0.00136134,0,
1,8.85584,0.66755,-0.126938,0.00136616,0,
1,8.87295,0.654139,-0.126941,0.0013689,0,
1,8.8881,0.640695,-0.126944,0.00136967,0,
1,8.90149,0.627199,-0.126948,0.00136858,0,
1,8.91333,0.613631,-0.126951,0.00136571,0,
1,8.92379,0.599966,-0.126955,0.00136111,0,
1,8.93303,0.586179,-0.126958,0.00135483,0,
1,8.9412,0.572238,-0.126961,0.00134686,0,
1,8.9484,0.558107,-0.126964,0.00133716,0,
1,8.95476,0.543745,-0.126966,0.00132563,0,
1,8.96038,0.529104,-0.126969,0.00131212,0,
1,8.96533,0.514127,-0.126971,0.00129639,0,
1,8.9697,0.498747,-0.126972,0.0012781,0,
1,8.97356,0.482886,-0.126974,0.00125676,0,
1,8.97696,0.466451,-0.126975,0.0012317,0,
1,8.97996,0.449332,-0.126976,0.00120202,0,
1,8.98261,0.431396,-0.126977,0.00116653,0,
1,8.98494,0.412486,-0.126978,0.0011244,0,
1,8.98699,0.392384,-0.126979,0.00107103,0,
1,8.98881,0.370794,-0.126979,0.00100163,0,
1,8.99041,0.34741,-0.12698,0.000916605,0,
1,8.99182,0.321994,-0.12698,0.000813042,0,
1,8.99306,0.294368,-0.12698,0.00068917,0,
1,8.99416,0.264319,-0.126981,0.000530007,0,
1,8.99512,0.2318,-0.126981,0.00034994,0,
1,8.99597,0.197648,-0.126981,0.000191506,0,
1,8.99672,0.163625,-0.126981,8.30595e-05,0,
1,8.99739,0.131518,-0.126981,2.81972e-05,0,
1,8.99797,0.102377,-0.126981,7.47165e-06,0,
1,8.99848,0.0764528,-0.126981,1.49664e-06,0,
1,8.99894,0.0535663,-0.126981,2.04228e-07,0,
1,8.99934,0.0334047,-0.126981,1.48061e-08,0,
1,8.99969,0.01565,-0.126981,3.16761e-10,0,

4,0,0,-0.113751,0,0,
4,9,0,-0.096037,0,0,
4,1.05136,0.675748,-0.121126,-0.00438143,0,
4,0.000303409,-0.00636871,-0.113756,8.67151e-11,0,
4,0.00062865,-0.0130496,-0.113752,3.53837e-09,0,
4,0.000979511,-0.0200896,-0.113756,4.12084e-08,0,
4,0.00136016,-0.0275301,-0.113753,2.55525e-07,0,
4,0.00177519,-0.035403,-0.113756,1.10111e-06,0,
4,0.0022297,-0.0437185,-0.113754,3.7439e-06,0,
4,0.00272934,-0.0524349,-0.113757,1.06909e-05,0,
4,0.00328037,-0.0614029,-0.113756,2.6274e-05,0,
4,0.00388979,-0.0702899,-0.113758,5.54754e-05,0,
4,0.00456537,-0.0785642,-0.113759,9.91332e-05,0,
4,0.00531578,-0.0856678,-0.113763,0.000148634,0,
4,0.0061507,-0.0913083,-0.113768,0.000189514,0,
4,0.0070809,-0.0955509,-0.113777,0.000212334,0,
4,0.00811839,-0.0986565,-0.113788,0.000216482,0,
4,0.00927657,-0.100903,-0.113805,0.000205655,0,
4,0.0105703,-0.102512,-0.113826,0.00018361,0,
4,0.0120162,-0.103639,-0.113853,0.000152858,0,
4,0.0136326,-0.104389,-0.113885,0.000114772,0,
4,0.0154398,-0.104834,-0.113925,6.99561e-05,0,
4,0.0174603,-0.105021,-0.113971,1.85269e-05,0,
4,0.0197189,-0.104981,-0.114027,-3.97109e-05,0,
4,0.0222427,-0.104734,-0.114092,-0.000105166,0,
4,0.0250617,-0.104292,-0.114169,-0.000178402,0,
4,0.0282081,-0.103661,-0.114257,-0.000260106,0,
4,0.0317171,-0.102842,-0.114359,-0.000351072,0,
4,0.0356266,-0.101834,-0.114476,-0.000452182,0,
4,0.039977,-0.100631,-0.11461,-0.000564399,0,
4,0.0448114,-0.099227,-0.114761,-0.000688756,0,
4,0.0501747,-0.0976113,-0.114932,-0.000826347,0,
4,0.056114,-0.0957725,-0.115124,-0.000978307,0,
4,0.062677,-0.0936968,-0.115337,-0.0011458,0,
4,0.0699123,-0.0913687,-0.115573,-0.00132998,0,
4,0.0778675,-0.0887711,-0.115832,-0.00153198,0,
4,0.0865883,-0.0858854,-0.116114,-0.00175288,0,
4,0.0961173,-0.0826916,-0.116419,-0.00199362,0,
4,0.106492,-0.0791686,-0.116745,-0.00225502,0,
4,0.117744,-0.0752949,-0.117091,-0.00253766,0,
4,0.129894,-0.0710486,-0.117455,-0.00284188,0,
4,0.142956,-0.0664084,-0.117833,-0.00316769,0,
4,0.156928,-0.0613543,-0.118223,-0.00351475,0,
4,0.171798,-0.0558687,-0.11862,-0.0038823,0,
4,0.187537,-0.0499376,-0.119021,-0.00426919,0,
4,0.2041,-0.0435517,-0.119423,-0.00467386,0,
4,0.221432,-0.0367083,-0.11982,-0.00509443,0,
4,0.239458,-0.0294118,-0.120211,-0.00552885,0,
4,0.258095,-0.021674,-0.120591,-0.0059751,0,
4,0.27725,-0.013512,-0.120959,-0.00643075,0,
4,0.296825,-0.00494373,-0.121313,-0.0068911,0,
4,0.316717,0.00401422,-0.121654,-0.00735055,0,
4,0.336828,0.0133394,-0.121979,-0.007808,0,
4,0.357066,0.0229967,-0.122289,-0.00826358,0,
4,0.377348,0.0329434,-0.122571,-0.00871616,0,
4,0.397605,0.0431403,-0.12285,-0.00916414,0,
4,0.417786,0.0535716,-0.123129,-0.00973612,0,
4,0.437857,0.0645288,-0.122929,-0.0100976,0,
4,0.457804,0.07655,-0.122257,-0.0103167,0,
4,0.477632,0.0899613,-0.121723,-0.0105367,0,
4,0.497368,0.104702,-0.121416,-0.0107434,0,
4,0.517057,0.120517,-0.12129,-0.0109236,0,
4,0.536763,0.137151,-0.121268,-0.011069,0,
4,0.556564,0.154468,-0.121285,-0.0111759,0,
4,0.576557,0.172471,-0.121302,-0.011243,0,
4,0.596848,0.191268,-0.121305,-0.0112695,0,
4,0.617561,0.211026,-0.121291,-0.0112533,0,
4,0.637962,0.231127,-0.121266,-0.0111945,0,
4,0.657495,0.251047,-0.121238,-0.0110969,0,
4,0.676218,0.2708,-0.121213,-0.0109632,0,
4,0.694189,0.290381,-0.121193,-0.0107962,0,
4,0.711463,0.309775,-0.121178,-0.0105989,0,
4,0.728096,0.328962,-0.121167,-0.0103746,0,
4,0.744138,0.347913,-0.121159,-0.0101274,0,
4,0.759639,0.366587,-0.121154,-0.00986237,0,
4,0.774643,0.384931,-0.12115,-0.00958521,0,
4,0.789195,0.402885,-0.121147,-0.00930099,0,
4,0.803334,0.420388,-0.121145,-0.00901345,0,
4,0.817097,0.437391,-0.121142,-0.00872574,0,
4,0.830518,0.453859,-0.121139,-0.0084405,0,
4,0.843629,0.469768,-0.121134,-0.00815984,0,
4,0.856459,0.485107,-0.121129,-0.0078855,0,
4,0.869035,0.49987,-0.121124,-0.00761883,0,
4,0.881383,0.514059,-0.121119,-0.00736086,0,
4,0.893524,0.527684,-0.121116,-0.00711234,0,
4,0.905481,0.540758,-0.121115,-0.00687377,0,
4,0.917272,0.553305,-0.121118,-0.00664535,0,
4,0.928915,0.565352,-0.121124,-0.00642704,0,
4,0.940428,0.576931,-0.121133,-0.00621915,0,
4,0.951826,0.588073,-0.121144,-0.00602218,0,
4,0.963124,0.598812,-0.121155,-0.0058352,0,
4,0.974334,0.609181,-0.121166,-0.00565727,0,
4,0.98547,0.619219,-0.121176,-0.00548733,0,
4,0.996544,0.62897,-0.121184,-0.00532407,0,
4,1.00757,0.638492,-0.121186,-0.00516576,0,
4,1.01855,0.64788,-0.121178,-0.00498394,0,
4,1.0295,0.657216,-0.121162,-0.0047907,0,
4,1.04044,0.666513,-0.121145,-0.00459247,0,
4,1.0623,0.684908,-0.121105,-0.00415855,0,
4,1.07328,0.693976,-0.121082,-0.00392541,0,
4,1.08432,0.702916,-0.121058,-0.00368412,0,
4,1.09543,0.711685,-0.121031,-0.00343721,0,
4,1.10661,0.72024,-0.121001,-0.00318764,0,
4,1.11788,0.728532,-0.12097,-0.00293884,0,
4,1.12925,0.736512,-0.120935,-0.00269451,0,
4,1.14073,0.744135,-0.120898,-0.00245856,0,
4,1.15233,0.75136,-0.120857,-0.00223481,0,
4,1.16408,0.758155,-0.120814,-0.00202677,0,
4,1.17599,0.764504,-0.120767,-0.0018373,0,
4,1.18806,0.770405,-0.120717,-0.00166842,0,
4,1.20034,0.775872,-0.120664,-0.00152113,0,
4,1.21282,0.780936,-0.120607,-0.00139544,0,
4,1.22554,0.785638,-0.120548,-0.00129042,0,
4,1.23852,0.790028,-0.120485,-0.00120449,0,
4,1.25179,0.794158,-0.12042,-0.00113555,0,
4,1.26537,0.798081,-0.120352,-0.00108129,0,
4,1.2793,0.801847,-0.120282,-0.00103936,0,
4,1.29362,0.8055,-0.120209,-0.00100746,0,
4,1.30836,0.809083,-0.120133,-0.000983499,0,
4,1.32357,0.81263,-0.120055,-0.000965611,0,
4,1.3393,0.816173,-0.119973,-0.000952162,0,
4,1.3556,0.819739,-0.119889,-0.000941784,0,
4,1.37252,0.823352,-0.1198,-0.000933337,0,
4,1.39015,0.827034,-0.119708,-0.000926058,0,
4,1.40855,0.830806,-0.119606,-0.000922158,0,
4,1.42781,0.834714,-0.119511,-0.000910505,0,
4,1.44801,0.838824,-0.119423,-0.000892887,0,
4,1.46926,0.843175,-0.119324,-0.000874606,0,
4,1.49167,0.847767,-0.119214,-0.000855599,0,
4,1.51537,0.852596,-0.119094,-0.000835692,0,
4,1.54091,0.857745,-0.118959,-0.000814909,0,
4,1.56949,0.863417,-0.118805,-0.000792712,0,
4,1.60144,0.869672,-0.118628,-0.000768224,0,
4,1.63713,0.876549,-0.118427,-0.000740918,0,
4,1.67693,0.884079,-0.118195,-0.000710298,0,
4,1.72128,0.892276,-0.117931,-0.000676044,0,
4,1.77062,0.901132,-0.117627,-0.00063804,0,
4,1.82542,0.910602,-0.117284,-0.000596155,0,
4,1.88618,0.920609,-0.116886,-0.00055023,0,
4,1.95343,0.931094,-0.11645,-0.000480925,0,
4,2.02768,0.941929,-0.11597,-0.000398487,0,
4,2.10949,0.952763,-0.115427,-0.000308858,0,
4,2.19939,0.963032,-0.114828,-0.000218305,0,
4,2.29789,0.97207,-0.114166,-0.000135886,0,
4,2.40551,0.979196,-0.113446,-6.9993e-05,0,
4,2.52268,0.983869,-0.112673,-2.57048e-05,0,
4,2.64979,0.985908,-0.111855,-3.38141e-06,0,
4,2.78715,0.985689,-0.110999,2.60036e-06,0,
4,2.93497,0.984135,-0.110116,1.58387e-06,0,
4,3.09333,0.982368,-0.109215,3.22839e-07,0,
4,3.26217,0.981167,-0.108305,3.12979e-08,0,
4,3.44125,0.980685,-0.107398,6.32578e-09,0,
4,3.63018,0.980626,-0.106502,2.89928e-09,0,
4,3.82836,0.980641,-0.105625,2.89965e-09,0,
4,4.03501,0.980551,-0.104773,3.86721e-09,0,
4,4.24915,0.980353,-0.103953,4.467e-09,0,
4,4.46961,0.980113,-0.10317,4.45819e-09,0,
4,4.69507,0.979882,-0.102428,4.11033e-09,0,
4,4.92406,0.979678,-0.10173,3.72653e-09,0,
4,5.15502,0.979497,-0.101079,3.44509e-09,0,
4,5.3863,0.979328,-0.100475,3.33786e-09,0,
4,5.61626,0.979157,-0.0999191,3.52085e-09,0,
4,5.84328,0.978971,-0.0994106,4.3038e-09,0,
4,6.06579,0.978771,-0.0989486,6.39359e-09,0,
4,6.28238,0.978623,-0.0985314,8.17299e-09,0,
4,6.49173,0.978689,-0.0981564,-2.11162e-08,0,
4,6.69275,0.979136,-0.0978204,-2.05965e-07,0,
4,6.88453,0.979804,-0.0975192,-2.70952e-07,0,
4,7.06634,0.979754,-0.0972483,4.08413e-06,0,
4,7.23771,0.977143,-0.0970084,2.72272e-05,0,
4,7.39831,0.969926,-0.0967962,9.00131e-05,0,
4,7.54803,0.957158,-0.0966229,0.000206842,0,
4,7.68693,0.93969,-0.0964757,0.000354563,0,
4,7.81519,0.919385,-0.09634,0.000495757,0,
4,7.93313,0.898172,-0.0962359,0.000644405,0,
4,8.04115,0.877589,-0.0961415,0.000781822,0,
4,8.13974,0.8584,-0.0960664,0.000897717,0,
4,8.22941,0.840731,-0.0960067,0.000990846,0,
4,8.31073,0.82438,-0.0959628,0.00106449,0,
4,8.38429,0.809034,-0.0959326,0.00112267,0,
4,8.45065,0.794389,-0.0959136,0.00116966,0,
4,8.5104,0.780198,-0.0959036,0.00120897,0,
4,8.56407,0.766272,-0.0959007,0.00123983,0,
4,8.61222,0.752506,-0.0959023,0.00126847,0,
4,8.65533,0.738868,-0.0959066,0.00129318,0,
4,8.69387,0.72534,-0.0959131,0.00131372,0,
4,8.7283,0.711908,-0.0959208,0.00133039,0,
4,8.75901,0.69856,-0.0959293,0.00134348,0,
4,8.78637,0.685285,-0.0959382,0.00135322,0,
4,8.81074,0.672075,-0.0959472,0.00135984,0,
4,8.83242,0.658921,-0.095956,0.00136355,0,
4,8.85169,0.645814,-0.0959646,0.00136457,0,
4,8.86881,0.632744,-0.0959726,0.00136312,0,
4,8.88402,0.619698,-0.0959801,0.00135943,0,
4,8.89751,0.60666,-0.0959871,0.00135372,0,
4,8.90949,0.593613,-0.0959934,0.00134617,0,
4,8.92011,0.580533,-0.0959992,0.00133697,0,
4,8.92952,0.567396,-0.0960043,0.00132625,0,
4,8.93787,0.55417,-0.096009,0.00131412,0,
4,8.94526,0.540821,-0.0960131,0.00130062,0,
4,8.95182,0.527309,-0.0960167,0.00128573,0,
4,8.95762,0.513587,-0.0960198,0.00126938,0,
4,8.96276,0.499602,-0.0960226,0.00125141,0,
4,8.96731,0.485295,-0.096025,0.00123156,0,
4,8.97134,0.470594,-0.096027,0.00120946,0,
4,8.97491,0.455418,-0.0960288,0.00118458,0,
4,8.97807,0.439671,-0.0960303,0.00115623,0,
4,8.98087,0.42324,-0.0960316,0.00112344,0,
4,8.98334,0.405991,-0.0960326,0.00108498,0,
4,8.98553,0.387766,-0.0960335,0.00103972,0,
4,8.98747,0.368358,-0.0960342,0.000983843,0,
4,8.98919,0.347488,-0.0960349,0.000912212,0,
4,8.9907,0.324878,-0.0960353,0.000825901,0,
4,8.99205,0.300328,-0.0960358,0.000722788,0,
4,8.99324,0.273684,-0.096036,0.000598975,0,
4,8.99429,0.244742,-0.0960363,0.000440524,0,
4,8.99522,0.213687,-0.0960363,0.000281901,0,
4,8.99605,0.181624,-0.0960366,0.000148651,0,
4,8.99677,0.150162,-0.0960365,6.26497e-05,0,
4,8.99742,0.120746,-0.0960367,2.09728e-05,0,
4,8.99799,0.0941268,-0.0960365,5.55223e-06,0,
4,8.9985,0.0704212,-0.0960368,1.11975e-06,0,
4,8.99894,0.0494357,-0.0960366,1.54327e-07,0,
4,8.99934,0.030888,-0.0960369,1.13034e-08,0,
4,8.99969,0.014498,-0.0960366,2.43648e-10,0,

6,0,0,0.00592544,0,0,
6,9,0,-0.0729209,0,0,
6,1.07704,0.705956,-0.00840945,-0.00245577,0,
6,0.000299862,0.00311839,0.00591944,-4.17385e-11,0,
6,0.000611645,0.00641325,0.00592421,-1.66697e-09,0,
6,0.000938257,0.00992219,0.00591952,-1.86749e-08,0,
6,0.00128281,0.0136857,0.00592312,-1.11378e-07,0,
6,0.00164864,0.0177475,0.00591938,-4.6407e-07,0,
6,0.00203939,0.0221521,0.0059221,-1.53981e-06,0,
6,0.00245897,0.0269371,0.00591901,-4.35676e-06,0,
6,0.00291168,0.0321166,0.00592099,-1.08829e-05,0,
6,0.00340221,0.0376508,0.00591817,-2.43023e-05,0,
6,0.00393573,0.0434058,0.00591918,-4.8378e-05,0,
6,0.00451788,0.0491374,0.00591577,-8.50657e-05,0,
6,0.00515491,0.0545485,0.00591471,-0.00013168,0,
6,0.00585371,0.0594101,0.00590901,-0.000181491,0,
6,0.00662185,0.063639,0.00590402,-0.000228164,0,
6,0.00746774,0.0672757,0.00589413,-0.000268946,0,
6,0.00840063,0.0704178,0.00588347,-0.00030417,0,
6,0.00943073,0.0731707,0.00586778,-0.000335442,0,
6,0.0105693,0.0756256,0.00584993,-0.000364475,0,
6,0.0118288,0.0778555,0.00582681,-0.000392696,0,
6,0.0132228,0.079917,0.00580007,-0.000421218,0,
6,0.0147664,0.0818541,0.00576749,-0.000450918,0,
6,0.016476,0.0837009,0.00572969,-0.000482515,0,
6,0.0183694,0.0854851,0.00568505,-0.000516634,0,
6,0.0204662,0.087229,0.00563345,-0.000553848,0,
6,0.0227875,0.0889515,0.00557355,-0.000594709,0,
6,0.0253561,0.0906689,0.00550474,-0.000639766,0,
6,0.0281964,0.0923954,0.00542577,-0.000689577,0,
6,0.0313344,0.0941441,0.00533572,-0.000744718,0,
6,0.0347975,0.095927,0.00523336,-0.000805787,0,
6,0.0386145,0.0977555,0.00511757,-0.000873407,0,
6,0.042815,0.0996404,0.00498714,-0.000948219,0,
6,0.0474296,0.101592,0.00484095,-0.00103088,0,
6,0.0524888,0.103621,0.0046779,-0.00112207,0,
6,0.0580229,0.105737,0.004497,-0.00122246,0,
6,0.0640611,0.10795,0.00429745,-0.0013327,0,
6,0.0706309,0.110269,0.00407863,-0.00145342,0,
6,0.077757,0.112703,0.00384023,-0.00158521,0,
6,0.0854609,0.115262,0.00358223,-0.0017286,0,
6,0.0937597,0.117954,0.003305,-0.00188401,0,
6,0.102665,0.120786,0.00300932,-0.00205177,0,
6,0.112183,0.123767,0.00269636,-0.00223209,0,
6,0.122315,0.126901,0.00236769,-0.00242502,0,
6,0.133052,0.130196,0.00202526,-0.00263047,0,
6,0.144384,0.133657,0.00167131,-0.0028482,0,
6,0.156292,0.137286,0.00130832,-0.00307782,0,
6,0.168754,0.14109,0.000938873,-0.00331882,0,
6,0.181744,0.145071,0.000565575,-0.00357055,0,
6,0.195237,0.149233,0.000190941,-0.00383233,0,
6,0.209207,0.153581,-0.000182704,-0.00410343,0,
6,0.223631,0.15812,-0.000553305,-0.00438313,0,
6,0.238493,0.16286,-0.000919138,-0.00467077,0,
6,0.253785,0.167809,-0.00127884,-0.00496577,0,
6,0.269507,0.172982,-0.00163141,-0.0052677,0,
6,0.28567,0.178397,-0.00197622,-0.00557626,0,
6,0.3023,0.184078,-0.00231284,-0.00589132,0,
6,0.319433,0.190055,-0.00264172,-0.00621296,0,
6,0.337122,0.196364,-0.00296206,-0.00654286,0,
6,0.355433,0.203054,-0.00326863,-0.00687997,0,
6,0.374445,0.210187,-0.00355373,-0.00722423,0,
6,0.394252,0.217847,-0.00380861,-0.00757496,0,
6,0.414961,0.226143,-0.00402761,-0.00792889,0,
6,0.436695,0.235206,-0.00419368,-0.00828459,0,
6,0.459585,0.245197,-0.00436822,-0.00864581,0,
6,0.48378,0.256321,-0.00448557,-0.00913185,0,
6,0.508144,0.268543,-0.0040222,-0.00928608,0,
6,0.531799,0.282064,-0.00313653,-0.00931965,0,
6,0.554791,0.297121,-0.00254324,-0.0093439,0,
6,0.577166,0.313459,-0.00226431,-0.00934575,0,
6,0.598964,0.330607,-0.002204,-0.00931001,0,
6,0.620228,0.348145,-0.00225791,-0.00922818,0,
6,0.640996,0.365821,-0.00235213,-0.00909813,0,
6,0.661304,0.383535,-0.00245054,-0.0089219,0,
6,0.681188,0.401265,-0.00254447,-0.00870348,0,
6,0.700681,0.419001,-0.00264048,-0.00844825,0,
6,0.719813,0.436702,-0.00274929,-0.0081631,0,
6,0.738612,0.454285,-0.00287871,-0.00785529,0,
6,0.757107,0.471647,-0.00303133,-0.00753132,0,
6,0.775322,0.488683,-0.00320589,-0.00719693,0,
6,0.793282,0.505307,-0.00339947,-0.00685715,0,
6,0.811008,0.521452,-0.00360948,-0.00651637,0,
6,0.828521,0.537069,-0.00383382,-0.00617851,0,
6,0.845842,0.552114,-0.00407289,-0.0058478,0,
6,0.862989,0.566538,-0.00432614,-0.00553401,0,
6,0.879979,0.580304,-0.00459042,-0.00523546,0,
6,0.896829,0.59342,-0.00486401,-0.00495093,0,
6,0.913555,0.60592,-0.00514612,-0.00467951,0,
6,0.930172,0.617853,-0.00543664,-0.00442042,0,
6,0.946694,0.629265,-0.00573561,-0.00417287,0,
6,0.963136,0.640196,-0.00604299,-0.00393607,0,
6,0.97951,0.650681,-0.00635847,-0.0037091,0,
6,0.99583,0.660749,-0.00668191,-0.00349085,0,
6,1.01211,0.670437,-0.0070126,-0.00327985,0,
6,1.02836,0.679791,-0.00735143,-0.00306713,0,
6,1.04459,0.688842,-0.0076977,-0.00285679,0,
6,1.06081,0.697575,-0.00805016,-0.00265337,0,
6,1.09329,0.713956,-0.00877514,-0.0022665,0,
6,1.10959,0.721553,-0.00914729,-0.00208814,0,
6,1.12595,0.728726,-0.0095256,-0.00192292,0,
6,1.14238,0.735469,-0.00990978,-0.00177263,0,
6,1.1589,0.741784,-0.0102996,-0.00163845,0,
6,1.17551,0.747689,-0.0106948,-0.00152084,0,
6,1.19223,0.753212,-0.0110952,-0.00141959,0,
6,1.20907,0.758389,-0.0115007,-0.00133391,0,
6,1.22605,0.763261,-0.0119112,-0.00126251,0,
6,1.24318,0.767872,-0.0123269,-0.00120383,0,
6,1.26048,0.772266,-0.0127475,-0.00115613,0,
6,1.27797,0.776483,-0.0131738,-0.00111762,0,
6,1.29566,0.78056,-0.0136043,-0.00108664,0,
6,1.31357,0.784529,-0.0140431,-0.00106159,0,
6,1.33173,0.788419,-0.0144814,-0.00104496,0,
6,1.35015,0.792282,-0.0149345,-0.00103115,0,
6,1.36886,0.796242,-0.015411,-0.00100018,0,
6,1.38788,0.800396,-0.0158937,-0.000969463,0,
6,1.40725,0.804724,-0.016381,-0.000942039,0,
6,1.42698,0.809146,-0.0168714,-0.000917541,0,
6,1.44712,0.813593,-0.0173677,-0.000895384,0,
6,1.46769,0.818037,-0.0178728,-0.000874439,0,
6,1.48874,0.822486,-0.0183891,-0.000854003,0,
6,1.5103,0.826965,-0.018918,-0.000833608,0,
6,1.53242,0.831498,-0.0194605,-0.000812896,0,
6,1.55515,0.836101,-0.0200174,-0.000791724,0,
6,1.57854,0.840785,-0.0205895,-0.00077007,0,
6,1.60265,0.845552,-0.0211778,-0.000747945,0,
6,1.62754,0.850403,-0.0217836,-0.00072532,0,
6,1.65329,0.85534,-0.022408,-0.000702242,0,
6,1.67998,0.860361,-0.023053,-0.000678623,0,
6,1.70768,0.865469,-0.0237188,-0.000654532,0,
6,1.73712,0.870764,-0.024426,-0.000629832,0,
6,1.76996,0.876479,-0.0252081,-0.000603253,0,
6,1.80655,0.882646,-0.026076,-0.000574096,0,
6,1.84728,0.889245,-0.0270317,-0.00054249,0,
6,1.89255,0.896255,-0.0280895,-0.000505858,0,
6,1.9428,0.903695,-0.0292571,-0.000452308,0,
6,1.99849,0.911523,-0.0305334,-0.00039366,0,
6,2.06009,0.91956,-0.0319247,-0.000329074,0,
6,2.1281,0.927531,-0.0334336,-0.000261653,0,
6,2.20301,0.935104,-0.0350579,-0.000195942,0,
6,2.28535,0.94191,-0.0367937,-0.000136333,0,
6,2.37559,0.947588,-0.0386312,-8.61363e-05,0,
6,2.47424,0.95185,-0.0405566,-4.78735e-05,0,
6,2.58172,0.954565,-0.0425506,-2.25012e-05,0,
6,2.69844,0.955843,-0.0445898,-8.70752e-06,0,
6,2.82473,0.956074,-0.0466494,-2.98622e-06,0,
6,2.96084,0.955852,-0.0487046,-1.20464e-06,0,
6,3.10691,0.955775,-0.0507335,-5.81483e-07,0,
6,3.26296,0.956211,-0.0527179,-2.29184e-07,0,
6,3.42888,0.957182,-0.0546416,-7.1058e-08,0,
6,3.60438,0.958451,-0.0564891,-3.23476e-08,0,
6,3.78902,0.959731,-0.058245,-2.55692e-08,0,
6,3.98218,0.960845,-0.0598958,-2.15848e-08,0,
6,4.18307,0.961758,-0.0614309,-1.81827e-08,0,
6,4.39071,0.962523,-0.0628435,-1.56839e-08,0,
6,4.60398,0.963201,-0.0641306,-1.38495e-08,0,
6,4.82159,0.963824,-0.0652923,-1.23916e-08,0,
6,5.04218,0.964395,-0.066332,-1.11948e-08,0,
6,5.26426,0.964905,-0.0672548,-1.04632e-08,0,
6,5.48633,0.965343,-0.0680679,-1.08177e-08,0,
6,5.70687,0.965703,-0.0687794,-1.37768e-08,0,
6,5.92439,0.965988,-0.0693982,-2.35933e-08,0,
6,6.1375,0.966247,-0.0699334,-5.58792e-08,0,
6,6.34489,0.966592,-0.0703937,-1.75202e-07,0,
6,6.5454,0.967165,-0.0707875,-5.6473e-07,0,
6,6.73802,0.967956,-0.0711221,-1.21797e-06,0,
6,6.92195,0.968471,-0.0714047,3.05748e-07,0,
6,7.09653,0.967485,-0.0716411,1.33559e-05,0,
6,7.26132,0.963248,-0.0718413,5.45754e-05,0,
6,7.41603,0.954291,-0.0720046,0.00013973,0,
6,7.56054,0.940337,-0.0721475,0.000274457,0,
6,7.6949,0.922338,-0.0722643,0.000395039,0,
6,7.81927,0.901882,-0.0723493,0.000529572,0,
6,7.93391,0.880833,-0.072419,0.00066851,0,
6,8.0392,0.860634,-0.0724666,0.000795446,0,
6,8.13555,0.841933,-0.0725055,0.000902795,0,
6,8.22344,0.824759,-0.0725367,0.000990024,0,
6,8.30339,0.80884,-0.0725665,0.00106029,0,
6,8.37592,0.793838,-0.0725949,0.00111704,0,
6,8.44155,0.779446,-0.0726231,0.00116388,0,
6,8.50082,0.765439,-0.0726502,0.00120369,0,
6,8.55423,0.751671,-0.0726761,0.00123818,0,
6,8.60229,0.738062,-0.0727004,0.00126819,0,
6,8.64545,0.72458,-0.072723,0.00129407,0,
6,8.68417,0.711212,-0.0727442,0.00131493,0,
6,8.71885,0.697949,-0.0727639,0.00133114,0,
6,8.74989,0.684789,-0.0727817,0.00134317,0,
6,8.77763,0.671728,-0.072798,0.00135134,0,
6,8.80241,0.658764,-0.0728127,0.00135598,0,
6,8.82452,0.645892,-0.072826,0.00135741,0,
6,8.84423,0.633105,-0.072838,0.00135595,0,
6,8.86181,0.620394,-0.0728487,0.0013519,0,
6,8.87746,0.607747,-0.0728583,0.00134558,0,
6,8.89139,0.59515,-0.0728668,0.00133727,0,
6,8.90379,0.582584,-0.0728744,0.00132722,0,
6,8.91482,0.570028,-0.072881,0.00131567,0,
6,8.92463,0.557454,-0.0728868,0.00130281,0,
6,8.93334,0.544835,-0.0728919,0.00128878,0,
6,8.94109,0.532137,-0.0728964,0.00127366,0,
6,8.94798,0.519321,-0.0729002,0.0012575,0,
6,8.95409,0.506346,-0.0729035,0.00124027,0,
6,8.95953,0.493163,-0.0729064,0.00122185,0,
6,8.96435,0.479718,-0.0729088,0.00120207,0,
6,8.96863,0.465948,-0.0729109,0.00118064,0,
6,8.97244,0.451782,-0.0729126,0.00115717,0,
6,8.97581,0.437139,-0.0729141,0.00113109,0,
6,8.97881,0.421922,-0.0729154,0.00110169,0,
6,8.98147,0.406019,-0.0729164,0.00106799,0,
6,8.98383,0.3893,-0.0729173,0.00102872,0,
6,8.98593,0.371609,-0.072918,0.000982743,0,
6,8.98779,0.352744,-0.0729186,0.000926157,0,
6,8.98944,0.332442,-0.0729191,0.000854569,0,
6,8.9909,0.310452,-0.0729194,0.000769084,0,
6,8.9922,0.286602,-0.0729198,0.000668021,0,
6,8.99336,0.260732,-0.0729199,0.000544113,0,
6,8.99438,0.232684,-0.0729202,0.000392581,0,
6,8.99529,0.202773,-0.0729202,0.000245414,0,
6,8.99609,0.172142,-0.0729205,0.000126543,0,
6,8.99681,0.142306,-0.0729204,5.25114e-05,0,
6,8.99744,0.114522,-0.0729206,1.74722e-05,0,
6,8.99801,0.0893911,-0.0729204,4.63241e-06,0,
6,8.9985,0.0669771,-0.0729207,9.39587e-07,0,
6,8.99895,0.0470881,-0.0729204,1.30443e-07,0,
6,8.99934,0.0294638,-0.0729208,9.62355e-09,0,
6,8.99969,0.0138487,-0.0729204,2.08547e-10,0,

10,0,0,-0.0139382,0,0,
10,0.000296632,0.00736044,-0.0139292,-3.70453e-11,0,
10,0.000596102,0.0147627,-0.0139374,-1.36819e-09,0,
10,0.000900397,0.0222564,-0.0139299,-1.38655e-08,0,
10,0.00121153,0.0298914,-0.0139366,-7.42912e-08,0,
10,0.00153158,0.0377171,-0.0139305,-2.7721e-07,0,
10,0.00186264,0.0457819,-0.013936,-8.22816e-07,0,
10,0.00220692,0.0541313,-0.013931,-2.08753e-06,0,
10,0.00256668,0.0628047,-0.0139355,-4.71949e-06,0,
10,0.00294431,0.0718292,-0.0139314,-9.74662e-06,0,
10,0.00334229,0.0812102,-0.0139352,-1.8652e-05,0,
10,0.00376326,0.0909196,-0.0139317,-3.33196e-05,0,
10,0.00421,0.100883,-0.0139348,-5.57192e-05,0,
10,0.00468544,0.110971,-0.0139319,-8.72688e-05,0,
10,0.00519274,0.121009,-0.0139345,-0.000128067,0,
10,0.00573524,0.130797,-0.013932,-0.000176464,0,
10,0.00631651,0.140147,-0.0139342,-0.000229377,0,
10,0.00694041,0.148914,-0.013932,-0.000283235,0,
10,0.00761104,0.15701,-0.0139337,-0.000334964,0,
10,0.00833284,0.164408,-0.0139317,-0.000382541,0,
10,0.00911058,0.171125,-0.013933,-0.000425046,0,
10,0.0099494,0.177206,-0.0139312,-0.000462412,0,
10,0.0108548,0.182716,-0.013932,-0.000495108,0,
10,0.0118329,0.187722,-0.0139304,-0.000523868,0,
10,0.0128901,0.192291,-0.0139306,-0.000549508,0,
10,0.0140333,0.196485,-0.0139291,-0.000572818,0,
10,0.0152702,0.200359,-0.0139288,-0.000594513,0,
10,0.0166089,0.203962,-0.0139272,-0.00061522,0,
10,0.0180584,0.207336,-0.0139265,-0.000635476,0,
10,0.0196282,0.210518,-0.0139247,-0.000655748,0,
10,0.0213288,0.213538,-0.0139234,-0.00067644,0,
10,0.0231714,0.216424,-0.0139214,-0.00069791,0,
10,0.0251682,0.219199,-0.0139196,-0.000720484,0,
10,0.0273326,0.221884,-0.0139172,-0.000744467,0,
10,0.0296789,0.224497,-0.0139148,-0.000770148,0,
10,0.0322227,0.227055,-0.013912,-0.000797811,0,
10,0.0349809,0.229572,-0.013909,-0.000827742,0,
10,0.0379719,0.232064,-0.0139056,-0.00086023,0,
10,0.0412155,0.234541,-0.0139019,-0.000895573,0,
10,0.0447333,0.237017,-0.0138978,-0.000934086,0,
10,0.0485489,0.239504,-0.0138934,-0.000976099,0,
10,0.0526875,0.242013,-0.0138886,-0.00102196,0,
10,0.0571768,0.244557,-0.0138834,-0.00107205,0,
10,0.0620466,0.247145,-0.0138778,-0.00112676,0,
10,0.0673295,0.249791,-0.0138718,-0.00118653,0,
10,0.0730607,0.252508,-0.0138653,-0.00125182,0,
10,0.0792784,0.255307,-0.0138586,-0.00132312,0,
10,0.0860241,0.258202,-0.0138515,-0.00140097,0,
10,0.0933428,0.261209,-0.0138442,-0.00148595,0,
10,0.101283,0.264342,-0.0138367,-0.00157865,0,
10,0.109899,0.267619,-0.0138292,-0.00167976,0,
10,0.119247,0.271058,-0.0138219,-0.00178995,0,
10,0.12939,0.274679,-0.013815,-0.00190999,0,
10,0.140395,0.278504,-0.0138088,-0.00204067,0,
10,0.152337,0.282558,-0.0138038,-0.00218281,0,
10,0.165296,0.286867,-0.0138006,-0.00233729,0,
10,0.179357,0.291461,-0.0137998,-0.00250503,0,
10,0.194615,0.296374,-0.0138022,-0.00268694,0,
10,0.211171,0.301643,-0.013809,-0.00288397,0,
10,0.229138,0.307308,-0.0138215,-0.00309708,0,
10,0.248635,0.313417,-0.0138412,-0.00332717,0,
10,0.269793,0.32002,-0.0138701,-0.00357513,0,
10,0.292753,0.327176,-0.0139098,-0.00384176,0,
10,0.317669,0.334949,-0.0139642,-0.00412664,0,
10,0.344708,0.343407,-0.0140323,-0.00443056,0,
10,0.372405,0.352115,-0.014116,-0.00473767,0,
10,0.399623,0.360728,-0.0142095,-0.00503364,0,
10,0.426397,0.369256,-0.0143133,-0.00531752,0,
10,0.452757,0.377711,-0.014409,-0.00559141,0,
10,0.478735,0.386104,-0.0145322,-0.00589054,0,
10,0.504358,0.394542,-0.0148044,-0.00613414,0,
10,0.529657,0.40323,-0.0152865,-0.00630026,0,
10,0.554656,0.412311,-0.0158906,-0.00643023,0,
10,0.579382,0.421792,-0.0165156,-0.00655402,0,
10,0.603859,0.4316,-0.0171239,-0.00666986,0,
10,0.628112,0.44164,-0.0177014,-0.00677511,0,
10,0.652163,0.451828,-0.0182559,-0.00686717,0,
10,0.676035,0.462107,-0.0187897,-0.0069441,0,
10,0.699751,0.472443,-0.0193073,-0.00700461,0,
10,0.72333,0.482832,-0.0198083,-0.0070481,0,
10,0.746795,0.493285,-0.0202906,-0.0070742,0,
10,0.770165,0.503831,-0.0207506,-0.00708252,0,
10,0.79346,0.51451,-0.021184,-0.00707257,0,
10,0.816699,0.52537,-0.0215867,-0.00704355,0,
10,0.839903,0.536463,-0.0219553,-0.00699436,0,
10,0.863088,0.547845,-0.0222876,-0.00692358,0,
10,0.886275,0.559575,-0.022583,-0.00682952,0,
10,0.909481,0.571714,-0.0228419,-0.00671026,0,
10,0.932723,0.584321,-0.0230661,-0.00656373,0,
10,0.956021,0.597452,-0.0232581,-0.00638783,0,
10,0.97939,0.611152,-0.023421,-0.00618078,0,
10,1.00285,0.625442,-0.0235584,-0.00594224,0,
10,1.02641,0.640304,-0.0236735,-0.00567383,0,
10,1.0501,0.655663,-0.0237694,-0.00537858,0,
10,1.07392,0.671382,-0.0238482,-0.00506063,0,
10,1.0979,0.687269,-0.0239109,-0.00472555,0,
10,1.12205,0.703087,-0.0239574,-0.00438034,0,
10,1.14639,0.718574,-0.0239878,-0.00403286,0,
10,1.17093,0.733457,-0.0240034,-0.00370229,0,
10,1.19568,0.747531,-0.0240023,-0.0033874,0,
10,1.22066,0.760718,-0.0239788,-0.00309026,0,
10,1.24589,0.773042,-0.0239308,-0.00281233,0,
10,1.27137,0.784581,-0.023854,-0.00255316,0,
10,1.29713,0.795435,-0.0237498,-0.00231095,0,
10,1.32317,0.805716,-0.0236103,-0.00208216,0,
10,1.34951,0.815556,-0.0234285,-0.00184034,0,
10,1.37616,0.82499,-0.0232299,-0.00161271,0,
10,1.40313,0.833919,-0.0230274,-0.00139871,0,
10,1.43043,0.842242,-0.0228205,-0.00120364,0,
10,1.45807,0.849903,-0.0226122,-0.00103354,0,
10,1.48607,0.8569,-0.0224058,-0.000891671,0,
10,1.51444,0.863288,-0.0221975,-0.000783173,0,
10,1.54318,0.869228,-0.0219829,-0.000689119,0,
10,1.57231,0.874918,-0.0217613,-0.00060464,0,
10,1.60184,0.880429,-0.0215388,-0.000535171,0,
10,1.63178,0.885719,-0.0213247,-0.000478129,0,
10,1.66213,0.890765,-0.0211159,-0.000431879,0,
10,1.69292,0.895585,-0.0209121,-0.000394375,0,
10,1.72416,0.900216,-0.0207118,-0.000363349,0,
10,1.75585,0.904681,-0.020516,-0.0003368,0,
10,1.78802,0.908992,-0.0203249,-0.000313276,0,
10,1.82067,0.913148,-0.0201394,-0.000291805,0,
10,1.85383,0.917142,-0.0199591,-0.000271787,0,
10,1.88751,0.920969,-0.0197855,-0.000252881,0,
10,1.92173,0.924623,-0.0196169,-0.000235112,0,
10,1.95652,0.92812,-0.0194542,-0.000216954,0,
10,1.9919,0.931505,-0.0192955,-0.000195971,0,
10,2.02791,0.934792,-0.0191431,-0.00017573,0,
10,2.06456,0.937952,-0.0189979,-0.000154619,0,
10,2.10268,0.941004,-0.0188592,-0.000132152,0,
10,2.1443,0.944022,-0.0187199,-0.000109124,0,
10,2.18977,0.946936,-0.0185834,-8.60069e-05,0,
10,2.23946,0.949641,-0.0184523,-6.33399e-05,0,
10,2.29376,0.952022,-0.0183309,-4.2281e-05,0,
10,2.35309,0.953965,-0.0182238,-2.3907e-05,0,
10,2.4179,0.955362,-0.0181372,-9.0933e-06,0,
10,2.48863,0.956131,-0.0180778,1.56389e-06,0,
10,2.56575,0.956233,-0.0180535,7.87419e-06,0,
10,2.64971,0.955694,-0.0180724,1.01716e-05,0,
10,2.74098,0.954619,-0.0181424,9.37153e-06,0,
10,2.83997,0.953199,-0.0182709,6.84256e-06,0,
10,2.94709,0.951683,-0.0184644,4.01411e-06,0,
10,3.06269,0.950326,-0.0187275,1.8662e-06,0,
10,3.18706,0.949319,-0.0190634,6.70514e-07,0,
10,3.3204,0.948732,-0.0194732,1.80925e-07,0,
10,3.46281,0.948513,-0.0199563,3.62453e-08,0,
10,3.61427,0.948523,-0.0205104,5.99783e-09,0,
10,3.77463,0.94861,-0.0211311,1.38903e-09,0,
10,3.94358,0.94867,-0.0218122,8.3797e-10,0,
10,4.12067,0.948671,-0.0225452,6.73312e-10,0,
10,4.30525,0.94864,-0.0233203,1.73788e-10,0,
10,4.49655,0.948624,-0.024126,-7.20967e-10,0,
10,4.6936,0.948657,-0.0249504,-1.83919e-09,0,
10,4.89531,0.948747,-0.0257811,-3.11053e-09,0,
10,5.10047,0.94888,-0.026606,-4.82643e-09,0,
10,5.30776,0.949033,-0.0274139,-7.89279e-09,0,
10,5.51581,0.949185,-0.0281948,-1.43557e-08,0,
10,5.72323,0.949328,-0.0289401,-2.94429e-08,0,
10,5.92863,0.949479,-0.0296429,-7.07958e-08,0,
10,6.13069,0.949701,-0.0302982,-2.00505e-07,0,
10,6.32816,0.950086,-0.0309026,-5.74866e-07,0,
10,6.51991,0.950672,-0.0314545,-1.27771e-06,0,
10,6.70495,0.951246,-0.031954,-1.13588e-06,0,
10,6.88244,0.951117,-0.0324017,4.96077e-06,0,
10,7.0517,0.949071,-0.0327998,2.78253e-05,0,
10,7.21224,0.94371,-0.033148,8.11123e-05,0,
10,7.3637,0.934108,-0.0334514,0.000174886,0,
10,7.5059,0.920268,-0.0337131,0.000302229,0,
10,7.63878,0.902752,-0.0339366,0.000413793,0,
10,7.76243,0.882629,-0.0341292,0.000538467,0,
10,7.87701,0.861676,-0.0342834,0.000667415,0,
10,7.9828,0.841407,-0.0344123,0.000785319,0,
10,8.08014,0.822593,-0.0345157,0.000885959,0,
10,8.16941,0.805354,-0.034602,0.000969155,0,
10,8.25106,0.789444,-0.0346741,0.00103781,0,
10,8.32554,0.774505,-0.0347367,0.00109468,0,
10,8.39331,0.760205,-0.0347912,0.00114249,0,
10,8.45484,0.746301,-0.0348392,0.00118368,0,
10,8.5106,0.732646,-0.034881,0.00121954,0,
10,8.56104,0.719175,-0.0349173,0.00125061,0,
10,8.60659,0.705875,-0.034949,0.00127701,0,
10,8.64767,0.692767,-0.0349766,0.00129881,0,
10,8.68467,0.67987,-0.0350011,0.00131616,0,
10,8.71795,0.667173,-0.0350229,0.00132527,0,
10,8.74786,0.654649,-0.0350419,0.0013304,0,
10,8.77471,0.642293,-0.0350585,0.00133173,0,
10,8.79881,0.630105,-0.035073,0.00132938,0,
10,8.8204,0.618077,-0.0350856,0.00132385,0,
10,8.83975,0.606203,-0.0350966,0.00131562,0,
10,8.85708,0.594468,-0.0351061,0.00130516,0,
10,8.87259,0.582856,-0.0351143,0.00129291,0,
10,8.88646,0.571347,-0.0351213,0.00127925,0,
10,8.89886,0.559918,-0.0351274,0.00126451,0,
10,8.90995,0.548541,-0.0351326,0.00124896,0,
10,8.91986,0.537189,-0.035137,0.00123281,0,
10,8.92872,0.525828,-0.0351407,0.00121621,0,
10,8.93663,0.514424,-0.0351439,0.00119924,0,
10,8.94369,0.502941,-0.0351466,0.00118193,0,
10,8.95,0.491336,-0.0351488,0.00116423,0,
10,8.95564,0.479567,-0.0351508,0.00114606,0,
10,8.96067,0.467585,-0.0351523,0.00112728,0,
10,8.96517,0.455338,-0.0351537,0.00110763,0,
10,8.96918,0.442767,-0.0351547,0.00108679,0,
10,8.97276,0.429804,-0.0351558,0.00106434,0,
10,8.97596,0.416374,-0.0351564,0.00103975,0,
10,8.97882,0.402388,-0.0351572,0.00101231,0,
10,8.98137,0.387743,-0.0351575,0.000981129,0,
10,8.98365,0.372321,-0.0351581,0.000945051,0,
10,8.98569,0.355979,-0.0351583,0.00090298,0,
10,8.9875,0.338536,-0.0351588,0.000851919,0,
10,8.98913,0.319753,-0.0351588,0.000787326,0,
10,8.99058,0.299395,-0.0351592,0.000710692,0,
10,8.99188,0.277298,-0.0351591,0.000620518,0,
10,8.99304,0.253305,-0.0351595,0.000510718,0,
10,8.99408,0.227234,-0.0351593,0.000375715,0,
10,8.99501,0.19928,-0.0351597,0.000241955,0,
10,8.99583,0.170373,-0.0351594,0.000129817,0,
10,8.99658,0.14185,-0.0351598,5.63341e-05,0,
10,8.99724,0.114927,-0.0351594,1.95784e-05,0,
10,8.99784,0.0902745,-0.0351599,5.39851e-06,0,
10,8.99837,0.0680461,-0.0351594,1.13402e-06,0,
10,8.99885,0.0481186,-0.03516,1.62555e-07,0,
10,8.99927,0.0302796,-0.0351593,1.23444e-08,0,
10,8.99966,0.0143098,-0.0351601,2.73165e-10,0,
10,9,0,-0.0351593,0,0,

0.0416667,0,0,-0.233739,0,3.17575e-06,
0.0833333,0,0,-0.233904,0,5.27331e-06,
0.125,0,0,-0.233838,0,6.79806e-06,
0.166667,0,0,-0.23389,0,1.12407e-05,
0.208333,0,0,-0.233898,0,1.57606e-05,
0.25,0,0,-0.233946,0,2.06588e-05,
0.291667,0,0,-0.233989,0,2.49807e-05,
0.333333,0,0,-0.23405,0,2.87458e-05,
0.375,0,0,-0.234114,0,3.18687e-05,
0.416667,0,0,-0.234186,0,3.47582e-05,
0.458333,0,0,-0.234266,0,3.78349e-05,
0.5,0,0,-0.234356,0,4.15807e-05,
0.541667,0,0,-0.23446,0,4.63422e-05,
0.583333,0,0,-0.23458,0,5.2298e-05,
0.625,0,0,-0.234723,0,5.94047e-05,
0.666667,0,0,-0.234889,0,6.73968e-05,
0.708333,0,0,-0.23508,0,7.58182e-05,
0.75,0,0,-0.235296,0,8.40773e-05,
0.791667,0,0,-0.235535,0,9.15409e-05,
0.833333,0,0,-0.235794,0,9.76271e-05,
0.875,0,0,-0.23607,0,0.000101941,
0.916667,0,0,-0.236365,0,0.000104338,
0.958333,0,0,-0.236687,0,0.000104694,
1,0,0,-0.237053,0,0.000102606,
1.04167,0,0,-0.237485,0,9.717e-05,
1.08333,0,0,-0.238012,0,8.67132e-05,
1.125,0,0,-0.238658,0,6.88732e-05,
1.16667,0,0,-0.239441,0,4.1107e-05,
1.20833,0,0,-0.240361,0,1.41437e-06,
1.25,0,0,-0.241405,0,-5.09279e-05,
1.29167,0,0,-0.242543,0,-0.000114967,
1.33333,0,0,-0.243738,0,-0.00018826,
1.375,0,0,-0.244948,0,-0.000267543,
1.41667,0,0,-0.246135,0,-0.000349569,
1.45833,0,0,-0.24727,0,-0.000431751,
1.5,0,0,-0.248327,0,-0.000512416,
1.54167,0,0,-0.24929,0,-0.000590715,
1.58333,0,0,-0.250147,0,-0.00066636,
1.625,0,0,-0.250887,0,-0.000739361,
1.66667,0,0,-0.251506,0,-0.000809834,
1.70833,0,0,-0.251997,0,-0.000877902,
1.75,0,0,-0.252355,0,-0.000943655,
1.79167,0,0,-0.252576,0,-0.00100714,
1.83333,0,0,-0.252658,0,-0.00106838,
1.875,0,0,-0.252596,0,-0.00112734,
1.91667,0,0,-0.252389,0,-0.00118401,
1.95833,0,0,-0.252036,0,-0.00123835,
2,0,0,-0.251534,0,-0.00129031,
2.04167,0,0,-0.250884,0,-0.00133989,
2.08333,0,0,-0.250086,0,-0.00138705,
2.125,0,0,-0.24914,0,-0.00143179,
2.16667,0,0,-0.248048,0,-0.00147409,
2.20833,0,0,-0.24681,0,-0.00151396,
2.25,0,0,-0.245429,0,-0.00155137,
2.29167,0,0,-0.243907,0,-0.00158632,
2.33333,0,0,-0.242246,0,-0.0016188,
2.375,0,0,-0.240448,0,-0.0016488,
2.41667,0,0,-0.238518,0,-0.00167631,
2.45833,0,0,-0.236457,0,-0.00170132,
2.5,0,0,-0.234271,0,-0.00172383,
2.54167,0,0,-0.231963,0,-0.00174385,
2.58333,0,0,-0.229537,0,-0.00176137,
2.625,0,0,-0.226998,0,-0.00177643,
2.66667,0,0,-0.224351,0,-0.00178906,
2.70833,0,0,-0.221601,0,-0.00179928,
2.75,0,0,-0.218753,0,-0.00180714,
2.79167,0,0,-0.215812,0,-0.00181268,
2.83333,0,0,-0.212785,0,-0.00181593,
2.875,0,0,-0.209676,0,-0.00181694,
2.91667,0,0,-0.206491,0,-0.00181578,
2.95833,0,0,-0.203237,0,-0.00181251,
3,0,0,-0.199918,0,-0.00180718,
3.04167,0,0,-0.196542,0,-0.00179989,
3.08333,0,0,-0.193112,0,-0.00179068,
3.125,0,0,-0.189636,0,-0.00177963,
3.16667,0,0,-0.186118,0,-0.00176681,
3.20833,0,0,-0.182563,0,-0.00175229,
3.25,0,0,-0.178976,0,-0.00173616,
3.29167,0,0,-0.175364,0,-0.00171847,
3.33333,0,0,-0.171729,0,-0.00169931,
3.375,0,0,-0.168078,0,-0.00167874,
3.41667,0,0,-0.164414,0,-0.00165684,
3.45833,0,0,-0.160741,0,-0.00163368,
3.5,0,0,-0.157063,0,-0.00160932,
3.54167,0,0,-0.153385,0,-0.00158382,
3.58333,0,0,-0.149709,0,-0.00155724,
3.625,0,0,-0.146039,0,-0.00152964,
3.66667,0,0,-0.142379,0,-0.00150107,
3.70833,0,0,-0.13873,0,-0.00147159,
3.75,0,0,-0.135097,0,-0.00144126,
3.79167,0,0,-0.131482,0,-0.00141012,
3.83333,0,0,-0.127887,0,-0.00137822,
3.875,0,0,-0.124314,0,-0.00134562,
3.91667,0,0,-0.120766,0,-0.00131236,
3.95833,0,0,-0.117245,0,-0.00127849,
4,0,0,-0.113752,0,-0.00124405,
4.04167,0,0,-0.110289,0,-0.00120908,
4.08333,0,0,-0.106857,0,-0.00117363,
4.125,0,0,-0.103458,0,-0.00113772,
4.16667,0,0,-0.100093,0,-0.00110139,
4.20833,0,0,-0.0967629,0,-0.00106465,
4.25,0,0,-0.0934687,0,-0.00102755,
4.29167,0,0,-0.0902113,0,-0.000990101,
4.33333,0,0,-0.0869915,0,-0.000952322,
4.375,0,0,-0.08381,0,-0.000914233,
4.41667,0,0,-0.0806675,0,-0.000875854,
4.45833,0,0,-0.0775648,0,-0.000837208,
4.5,0,0,-0.0745021,0,-0.000798313,
4.54167,0,0,-0.0714801,0,-0.000759187,
4.58333,0,0,-0.0684991,0,-0.000719845,
4.625,0,0,-0.0655594,0,-0.0006803,
4.66667,0,0,-0.0626615,0,-0.000640566,
4.70833,0,0,-0.0598056,0,-0.000600654,
4.75,0,0,-0.0569921,0,-0.000560573,
4.79167,0,0,-0.0542211,0,-0.000520327,
4.83333,0,0,-0.0514931,0,-0.000479918,
4.875,0,0,-0.0488085,0,-0.000439347,
4.91667,0,0,-0.0461678,0,-0.00039861,
4.95833,0,0,-0.0435718,0,-0.000357709,
5,0,0,-0.0410213,0,-0.000316649,
5.04167,0,0,-0.0385177,0,-0.000275455,
5.08333,0,0,-0.0360624,0,-0.000234185,
5.125,0,0,-0.0336572,0,-0.000192941,
5.16667,0,0,-0.0313031,0,-0.000151853,
5.20833,0,0,-0.0289999,0,-0.000111023,
5.25,0,0,-0.0267466,0,-7.049e-05,
5.29167,0,0,-0.0245423,0,-3.02458e-05,
5.33333,0,0,-0.0223861,0,9.73168e-06,
5.375,0,0,-0.0202771,0,4.94604e-05,
5.41667,0,0,-0.0182149,0,8.89517e-05,
5.45833,0,0,-0.0161989,0,0.000128212,
5.5,0,0,-0.0142286,0,0.000167243,
5.54167,0,0,-0.0123037,0,0.000206046,
5.58333,0,0,-0.010424,0,0.00024462,
5.625,0,0,-0.00858906,0,0.000282964,
5.66667,0,0,-0.00679883,0,0.000321072,
5.70833,0,0,-0.00505312,0,0.000358939,
5.75,0,0,-0.00335183,0,0.000396558,
5.79167,0,0,-0.00169488,0,0.000433918,
5.83333,0,0,-8.22419e-05,0,0.00047101,
5.875,0,0,0.00148611,0,0.00050782,
5.91667,0,0,0.00301016,0,0.000544334,
5.95833,0,0,0.0044899,0,0.000580537,
6,0,0,0.00592531,0,0.000616412,
6.04167,0,0,0.00731637,0,0.000651941,
6.08333,0,0,0.00866307,0,0.000687105,
6.125,0,0,0.00996543,0,0.000721884,
6.16667,0,0,0.0112234,0,0.00075626,
6.20833,0,0,0.0124371,0,0.000790213,
6.25,0,0,0.0136065,0,0.000823722,
6.29167,0,0,0.0147317,0,0.000856768,
6.33333,0,0,0.0158127,0,0.00088933,
6.375,0,0,0.0168497,0,0.000921389,
6.41667,0,0,0.0178428,0,0.000952925,
6.45833,0,0,0.0187921,0,0.000983918,
6.5,0,0,0.0196979,0,0.00101435,
6.54167,0,0,0.0205603,0,0.0010442,
6.58333,0,0,0.0213796,0,0.00107345,
6.625,0,0,0.0221561,0,0.00110209,
6.66667,0,0,0.0228901,0,0.0011301,
6.70833,0,0,0.0235819,0,0.00115747,
6.75,0,0,0.0242318,0,0.00118418,
6.79167,0,0,0.0248403,0,0.00121022,
6.83333,0,0,0.0254076,0,0.00123558,
6.875,0,0,0.0259342,0,0.00126027,
6.91667,0,0,0.0264204,0,0.00128426,
6.95833,0,0,0.0268667,0,0.00130757,
7,0,0,0.0272734,0,0.00133017,
7.04167,0,0,0.027641,0,0.00135206,
7.08333,0,0,0.0279697,0,0.00137322,
7.125,0,0,0.02826,0,0.00139365,
7.16667,0,0,0.028512,0,0.00141331,
7.20833,0,0,0.0287261,0,0.00143219,
7.25,0,0,0.0289028,0,0.00145029,
7.29167,0,0,0.0290424,0,0.00146761,
7.33333,0,0,0.0291454,0,0.00148412,
7.375,0,0,0.0292121,0,0.00149985,
7.41667,0,0,0.029243,0,0.00151478,
7.45833,0,0,0.0292385,0,0.00152892,
7.5,0,0,0.0291989,0,0.00154227,
7.54167,0,0,0.0291246,0,0.00155483,
7.58333,0,0,0.029016,0,0.0015666,
7.625,0,0,0.0288734,0,0.00157759,
7.66667,0,0,0.0286971,0,0.00158781,
7.70833,0,0,0.0284875,0,0.00159726,
7.75,0,0,0.0282449,0,0.00160595,
7.79167,0,0,0.0279696,0,0.0016139,
7.83333,0,0,0.0276611,0,0.00162108,
7.875,0,0,0.0273194,0,0.00162758,
7.91667,0,0,0.0269562,0,0.00163413,
7.95833,0,0,0.0264906,0,0.00163897,
8,0,0,0.0261195,0,0.00164366,
8.04171,0,0,0.0257617,0,0.00164865,
8.08368,0,0,0.025235,0,0.00165276,
8.12617,0,0,0.0247279,0,0.00165412,
8.16946,0,0,0.0241796,0,0.00165467,
8.21382,0,0,0.0235783,0,0.00165434,
8.25952,0,0,0.0229276,0,0.00165305,
8.30685,0,0,0.0222205,0,0.00165091,
8.35611,0,0,0.0214496,0,0.00164793,
8.40762,0,0,0.0206071,0,0.00164409,
8.46168,0,0,0.0196841,0,0.00163936,
8.51865,0,0,0.0186705,0,0.00163369,
8.57889,0,0,0.0175552,0,0.00162704,
8.64276,0,0,0.0163261,0,0.00161937,
8.71067,0,0,0.0149704,0,0.00161063,
8.78306,0,0,0.0134746,0,0.00160082,
8.86037,0,0,0.0118251,0,0.00158998,
8.94309,0,0,0.0100086,0,0.00157819,
9.03174,0,0,0.00801323,0,0.0015656,
9.12689,0,0,0.00582925,0,0.00155242,
9.22912,0,0,0.00345075,0,0.00153893,
9.33908,0,0,0.000876627,0,0.00152548,
9.45746,0,0,-0.00188851,0,0.00151245,
9.58501,0,0,-0.00483574,0,0.00150019,
9.72253,0,0,-0.00795481,0,0.00148888,
9.87088,0,0,-0.0112262,0,0.00147838,
10.031,0,0,-0.0145892,0,0.0014684,
10.2039,0,0,-0.0178928,0,0.00145894,
10.3906,0,0,-0.0208465,0,0.00145096,
10.5924,0,0,-0.0229739,0,0.00144721,
10.8105,0,0,-0.0236124,0,0.00145294,
11.0463,0,0,-0.0220436,0,0.00147563,
11.3012,0,0,-0.017793,0,0.00152264,
11.5769,0,0,-0.010991,0,0.00159707,
11.8751,0,0,-0.00249646,0,0.00169457,
12.1977,0,0,0.00636916,0,0.00180389,
12.5466,0,0,0.0142933,0,0.00191108,
12.9242,0,0,0.0203542,0,0.00200436,
13.3327,0,0,0.024165,0,0.00207704,
13.7748,0,0,0.0258097,0,0.00212791,
14.2532,0,0,0.0256783,0,0.00216007,
14.7709,0,0,0.0243011,0,0.00217891,
15.3312,0,0,0.0222203,0,0.0021888,
15.9377,0,0,0.0198911,0,0.00219358,
16.594,0,0,0.0176197,0,0.00219649,
17.3044,0,0,0.0155611,0,0.00219936,
18.0733,0,0,0.0137717,0,0.0022024,
18.9056,0,0,0.0122668,0,0.00220508,
19.8064,0,0,0.0110385,0,0.00220719,
20.7816,0,0,0.0100526,0,0.00220921,
21.8371,0,0,0.00925697,0,0.00221155,
22.9796,0,0,0.00860537,0,0.00221413,
24.2163,0,0,0.00806133,0,0.00221779,
25.5551,0,0,0.00758505,0,0.00222291,
27.0042,0,0,0.0071356,0,0.00222928,
28.5729,0,0,0.00668254,0,0.00223685,
30.271,0,0,0.00620666,0,0.00224642,
32.1091,0,0,0.0056935,0,0.00225704,
34.0989,0,0,0.00512992,0,0.00226823,
36.2529,0,0,0.00449761,0,0.00227912,
38.5845,0,0,0.0037872,0,0.00228834,
41.1085,0,0,0.00303081,0,0.00229706,
43.8407,0,0,0.00206373,0,0.00230447,
46.7983,0,0,0.00107221,0,0.00231136,
50,0,0,0.00214838,0,0.00232894,

