58a2ed71488b30ee8977f3e63dcc676af36d0ae9 
X,Z,x_velocity,cp,uw_b,cf,
1,0,0,-0.237336,0,0,
1,9,0,-0.127006,0,0,
1,1.01284,0.481295,-0.229741,-0.00956821,0,
1,0.000308731,0.000537809,-0.237335,-1.13313e-14,0,
1,0.000654158,0.00112016,-0.237336,-4.97237e-13,0,
1,0.00104139,0.00174891,-0.237335,-6.36324e-12,0,
1,0.00147619,0.0024243,-0.237335,-4.32528e-11,0,
1,0.00196502,0.00314457,-0.237335,-2.02854e-10,0,
1,0.00251518,0.00390525,-0.237335,-7.46332e-10,0,
1,0.0031349,0.00469792,-0.237335,-2.30784e-09,0,
1,0.00383341,0.0055088,-0.237335,-6.23033e-09,0,
1,0.00462115,0.0063165,-0.237334,-1.49555e-08,0,
1,0.00550983,0.00708934,-0.237334,-3.19415e-08,0,
1,0.00651264,0.00778127,-0.237334,-5.91504e-08,0,
1,0.00764438,0.00832715,-0.237334,-8.61513e-08,0,
1,0.00892169,0.00863705,-0.237333,-5.54298e-08,0,
1,0.0103632,0.00859378,-0.237332,2.27382e-07,0,
1,0.0119898,0.00806048,-0.237331,1.27151e-06,0,
1,0.0138248,0.00691033,-0.237329,4.10631e-06,0,
1,0.0158944,0.00507514,-0.237326,1.01912e-05,0,
1,0.0182274,0.00257841,-0.237321,2.06709e-05,0,
1,0.0208562,-0.000487848,-0.237313,3.56389e-05,0,
1,0.0238164,-0.00402261,-0.237303,5.41964e-05,0,
1,0.0271475,-0.00795742,-0.237288,7.50874e-05,0,
1,0.0308929,-0.0122601,-0.23727,9.72088e-05,0,
1,0.0351001,-0.01692,-0.237248,0.000119778,0,
1,0.0398209,-0.0219294,-0.237222,0.000142087,0,
1,0.0451115,-0.0272673,-0.237194,0.000163341,0,
1,0.0510323,-0.0328889,-0.237163,0.000182584,0,
1,0.057648,-0.0387183,-0.237132,0.000198704,0,
1,0.0650269,-0.0446468,-0.237103,0.000210481,0,
1,0.0732406,-0.0505362,-0.237077,0.000216689,0,
1,0.0823632,-0.0562282,-0.237059,0.000216241,0,
1,0.0924701,-0.0615581,-0.237052,0.000208347,0,
1,0.103636,-0.0663704,-0.237059,0.000192664,0,
1,0.115935,-0.0705339,-0.237086,0.000169354,0,
1,0.129436,-0.0739528,-0.237134,0.000139046,0,
1,0.144202,-0.0765717,-0.237207,0.00010274,0,
1,0.160284,-0.078373,-0.237306,6.1627e-05,0,
1,0.177724,-0.0793695,-0.23743,1.6889e-05,0,
1,0.196544,-0.0795951,-0.237579,-3.04379e-05,0,
1,0.21675,-0.079095,-0.237751,-7.95156e-05,0,
1,0.238323,-0.0779197,-0.237941,-0.000129673,0,
1,0.26122,-0.0761206,-0.238146,-0.000180328,0,
1,0.28537,-0.0737487,-0.23836,-0.000230916,0,
1,0.310673,-0.070854,-0.238579,-0.000280831,0,
1,0.337003,-0.0674873,-0.238795,-0.000329374,0,
1,0.364206,-0.0637002,-0.239004,-0.000375752,0,
1,0.392107,-0.0595472,-0.239199,-0.000419094,0,
1,0.420509,-0.0550855,-0.239375,-0.000458477,0,
1,0.449206,-0.0503758,-0.239528,-0.000492947,0,
1,0.477982,-0.0454808,-0.239654,-0.00052157,0,
1,0.506624,-0.0404638,-0.239751,-0.000543494,0,
1,0.534925,-0.0353838,-0.239818,-0.000558189,0,
1,0.562692,-0.0302859,-0.239855,-0.000565729,0,
1,0.589754,-0.0251878,-0.239862,-0.000567576,0,
1,0.615961,-0.0200575,-0.239836,-0.000567122,0,
1,0.641193,-0.0147964,-0.239774,-0.000569546,0,
1,0.665359,-0.00924276,-0.239669,-0.000592926,0,
1,0.688396,-0.0031283,-0.239515,-0.000647582,0,
1,0.710271,0.00399415,-0.23931,-0.000755107,0,
1,0.730976,0.0127351,-0.23906,-0.00094079,0,
1,0.750529,0.0237537,-0.238776,-0.00122938,0,
1,0.768969,0.0375259,-0.23847,-0.00163862,0,
1,0.78635,0.0540852,-0.238152,-0.00217344,0,
1,0.802743,0.0729814,-0.237823,-0.0028148,0,
1,0.818232,0.0935175,-0.237494,-0.00352297,0,
1,0.832689,0.114748,-0.23716,-0.0042538,0,
1,0.846039,0.135877,-0.236832,-0.00496713,0,
1,0.858357,0.156491,-0.236507,-0.00563921,0,
1,0.869723,0.176337,-0.236187,-0.00625921,0,
1,0.880212,0.195268,-0.235872,-0.00682208,0,
1,0.889898,0.213205,-0.235564,-0.00732622,0,
1,0.898852,0.230119,-0.235264,-0.00777344,0,
1,0.907141,0.246018,-0.234974,-0.00816911,0,
1,0.914826,0.260944,-0.234692,-0.00851344,0,
1,0.921966,0.27497,-0.234418,-0.0088116,0,
1,0.928616,0.288186,-0.23415,-0.00906814,0,
1,0.934823,0.300681,-0.233887,-0.0092867,0,
1,0.940633,0.312541,-0.233629,-0.00947364,0,
1,0.946088,0.323836,-0.233379,-0.00963229,0,
1,0.951224,0.334632,-0.233134,-0.00976554,0,
1,0.956076,0.344984,-0.232897,-0.00987587,0,
1,0.960675,0.354944,-0.232666,-0.00996545,0,
1,0.965047,0.364558,-0.232441,-0.0100361,0,
1,0.969219,0.373867,-0.232222,-0.0100895,0,
1,0.973211,0.382911,-0.232009,-0.0101269,0,
1,0.977045,0.391724,-0.231801,-0.0101494,0,
1,0.980739,0.40034,-0.231598,-0.0101579,0,
1,0.984308,0.408789,-0.231399,-0.0101533,0,
1,0.987768,0.417097,-0.231203,-0.0101359,0,
1,0.991131,0.425291,-0.231012,-0.0101064,0,
1,0.99441,0.433395,-0.230823,-0.0100649,0,
1,0.997615,0.441432,-0.230637,-0.0100116,0,
1,1.00076,0.449421,-0.230454,-0.00994662,0,
1,1.00384,0.457384,-0.230273,-0.00986986,0,
1,1.00688,0.465338,-0.230094,-0.00978121,0,
1,1.00988,0.473303,-0.229917,-0.00968055,0,
1,1.01581,0.48942,-0.229565,-0.00944132,0,
1,1.01882,0.49779,-0.229386,-0.00929626,0,
1,1.02188,0.506436,-0.229204,-0.00913196,0,
1,1.025,0.515386,-0.22902,-0.00894652,0,
1,1.02818,0.52467,-0.228834,-0.00873833,0,
1,1.03144,0.534313,-0.228646,-0.00850659,0,
1,1.03478,0.544338,-0.228458,-0.00824778,0,
1,1.03822,0.554768,-0.228268,-0.00795948,0,
1,1.04177,0.565626,-0.228076,-0.00763914,0,
1,1.04544,0.576927,-0.227884,-0.00728424,0,
1,1.04925,0.58868,-0.227692,-0.00689242,0,
1,1.05321,0.600883,-0.227499,-0.00646199,0,
1,1.05735,0.61351,-0.227307,-0.00599226,0,
1,1.06169,0.626507,-0.227118,-0.00548462,0,
1,1.06626,0.639774,-0.226932,-0.00494369,0,
1,1.07108,0.653154,-0.226752,-0.00437887,0,
1,1.07618,0.666421,-0.22658,-0.00380577,0,
1,1.0816,0.679286,-0.226419,-0.00324655,0,
1,1.08738,0.69143,-0.226271,-0.00272764,0,
1,1.09357,0.70257,-0.226137,-0.00227418,0,
1,1.10022,0.712548,-0.226018,-0.00190339,0,
1,1.10739,0.721379,-0.225909,-0.0016204,0,
1,1.11514,0.72923,-0.225807,-0.00141961,0,
1,1.12354,0.736357,-0.225703,-0.00128731,0,
1,1.13268,0.743023,-0.225592,-0.00120672,0,
1,1.14266,0.749457,-0.225467,-0.00116147,0,
1,1.15357,0.755831,-0.225323,-0.0011383,0,
1,1.16554,0.762265,-0.225154,-0.00112712,0,
1,1.1787,0.768835,-0.224958,-0.00112122,0,
1,1.1932,0.775589,-0.22473,-0.00111686,0,
1,1.2092,0.782554,-0.224464,-0.00111157,0,
1,1.22689,0.78975,-0.224157,-0.00110431,0,
1,1.24659,0.797226,-0.223797,-0.00109421,0,
1,1.26879,0.805068,-0.223375,-0.00108229,0,
1,1.29378,0.813284,-0.222875,-0.00106873,0,
1,1.3219,0.821877,-0.222294,-0.00105374,0,
1,1.35351,0.830863,-0.221598,-0.0010375,0,
1,1.389,0.840278,-0.220761,-0.000993532,0,
1,1.42882,0.850135,-0.219794,-0.000952422,0,
1,1.47342,0.860452,-0.218682,-0.000911825,0,
1,1.52332,0.871294,-0.217399,-0.000869484,0,
1,1.57905,0.882764,-0.215924,-0.00082383,0,
1,1.64119,0.894994,-0.214235,-0.000772829,0,
1,1.71033,0.908141,-0.21231,-0.000714246,0,
1,1.78711,0.922348,-0.210128,-0.000645605,0,
1,1.87215,0.937669,-0.207669,-0.000565474,0,
1,1.9661,0.95394,-0.204915,-0.000474283,0,
1,2.06959,0.970608,-0.201842,-0.00037649,0,
1,2.18321,0.986666,-0.198479,-0.000270691,0,
1,2.30752,1.00079,-0.194871,-0.000138483,0,
1,2.44299,1.01141,-0.191006,-4.5951e-05,0,
1,2.59002,1.01716,-0.186946,-4.16094e-06,0,
1,2.74885,1.01791,-0.182783,1.14275e-06,0,
1,2.91959,1.01546,-0.178587,1.03986e-07,0,
1,3.10217,1.01224,-0.174423,5.62885e-08,0,
1,3.2963,1.00964,-0.170335,4.44032e-08,0,
1,3.50146,1.00779,-0.166357,3.55065e-08,0,
1,3.7169,1.00629,-0.162522,3.09749e-08,0,
1,3.94163,1.00486,-0.158861,2.87088e-08,0,
1,4.17441,1.00343,-0.155403,2.67503e-08,0,
1,4.41376,1.00204,-0.152167,2.45615e-08,0,
1,4.65805,1.00076,-0.149167,2.22562e-08,0,
1,4.90545,0.999584,-0.14641,2.0089e-08,0,
1,5.15407,0.998523,-0.143898,1.8125e-08,0,
1,5.40194,0.99757,-0.141626,1.64092e-08,0,
1,5.64716,0.996714,-0.139587,1.50032e-08,0,
1,5.88785,0.995929,-0.137769,1.39982e-08,0,
1,6.12229,0.99518,-0.136159,1.31561e-08,0,
1,6.34896,0.994497,-0.134742,1.16453e-08,0,
1,6.56652,0.994075,-0.133502,8.94947e-09,0,
1,6.77388,0.994213,-0.13242,1.24322e-09,0,
1,6.97022,0.994865,-0.13148,7.73243e-09,0,
1,7.15495,0.994876,-0.130663,1.79196e-06,0,
1,7.32773,0.99175,-0.12996,1.87026e-05,0,
1,7.48842,0.982913,-0.129362,7.8727e-05,0,
1,7.63711,0.967855,-0.128873,0.00021331,0,
1,7.77403,0.948601,-0.128459,0.000405235,0,
1,7.89956,0.927532,-0.12811,0.000564025,0,
1,8.01417,0.906271,-0.127846,0.0007211,0,
1,8.11843,0.886006,-0.127624,0.000856418,0,
1,8.21296,0.86722,-0.127453,0.000965051,0,
1,8.29839,0.849901,-0.127318,0.00104942,0,
1,8.3754,0.833799,-0.127215,0.00111425,0,
1,8.44464,0.818607,-0.127138,0.00116465,0,
1,8.50675,0.804043,-0.12708,0.00120497,0,
1,8.56236,0.789853,-0.127038,0.00123202,0,
1,8.61206,0.77588,-0.127009,0.00125975,0,
1,8.6564,0.762071,-0.126988,0.00128401,0,
1,8.69591,0.748393,-0.126974,0.00130466,0,
1,8.73107,0.734816,-0.126965,0.00132204,0,
1,8.76232,0.721315,-0.12696,0.00133643,0,
1,8.79007,0.707869,-0.126958,0.00134809,0,
1,8.81469,0.694458,-0.126958,0.00135721,0,
1,8.83651,0.681065,-0.126959,0.00136398,0,
1,8.85584,0.667673,-0.126962,0.00136856,0,
1,8.87295,0.654266,-0.126965,0.00137108,0,
1,8.8881,0.640826,-0.126969,0.00137165,0,
1,8.90149,0.627334,-0.126972,0.00137038,0,
1,8.91333,0.613769,-0.126976,0.00136736,0,
1,8.92379,0.600108,-0.126979,0.00136263,0,
1,8.93303,0.586324,-0.126983,0.00135623,0,
1,8.9412,0.572386,-0.126986,0.00134815,0,
1,8.9484,0.558258,-0.126988,0.00133836,0,
1,8.95476,0.543898,-0.126991,0.00132676,0,
1,8.96038,0.529258,-0.126993,0.00131319,0,
1,8.96533,0.514282,-0.126995,0.00129741,0,
1,8.9697,0.498903,-0.126997,0.00127907,0,
1,8.97356,0.483043,-0.126998,0.00125769,0,
1,8.97696,0.466608,-0.127,0.0012326,0,
1,8.97996,0.449488,-0.127001,0.0012029,0,
1,8.98261,0.431551,-0.127002,0.00116739,0,
1,8.98494,0.412639,-0.127003,0.00112522,0,
1,8.98699,0.392536,-0.127003,0.00107187,0,
1,8.98881,0.370945,-0.127004,0.00100245,0,
1,8.99041,0.347558,-0.127004,0.000917393,0,
1,8.99182,0.322139,-0.127005,0.0008138,0,
1,8.99306,0.29451,-0.127005,0.000689885,0,
1,8.99416,0.264456,-0.127005,0.00053072,0,
1,8.99512,0.231929,-0.127005,0.000350478,0,
1,8.99597,0.197765,-0.127005,0.000191852,0,
1,8.99672,0.163727,-0.127005,8.32308e-05,0,
1,8.99739,0.131601,-0.127006,2.82604e-05,0,
1,8.99797,0.102442,-0.127005,7.4891e-06,0,
1,8.99848,0.0765021,-0.127006,1.5002e-06,0,
1,8.99894,0.0536009,-0.127005,2.04716e-07,0,
1,8.99934,0.0334264,-0.127006,1.48417e-08,0,
1,8.99969,0.0156602,-0.127005,3.17522e-10,0,

4,0,0,-0.112915,0,0,
4,9,0,-0.0961447,0,0,
4,1.05136,0.674627,-0.120575,-0.00441796,0,
4,0.000303409,-0.00621281,-0.112919,7.90466e-11,0,
4,0.00062865,-0.012731,-0.112916,3.22592e-09,0,
4,0.000979511,-0.0196007,-0.112919,3.7576e-08,0,
4,0.00136016,-0.0268622,-0.112917,2.33056e-07,0,
4,0.00177519,-0.0345477,-0.11292,1.00472e-06,0,
4,0.0022297,-0.0426684,-0.112918,3.4192e-06,0,
4,0.00272934,-0.0511881,-0.11292,9.78251e-06,0,
4,0.00328037,-0.0599701,-0.112919,2.41352e-05,0,
4,0.00388979,-0.0687048,-0.112922,5.13095e-05,0,
4,0.00456537,-0.0768848,-0.112922,9.26037e-05,0,
4,0.00531578,-0.083957,-0.112926,0.000140446,0,
4,0.0061507,-0.0896058,-0.11293,0.000180961,0,
4,0.0070809,-0.0938685,-0.112939,0.000204327,0,
4,0.00811839,-0.0969907,-0.11295,0.000209327,0,
4,0.00927657,-0.0992468,-0.112966,0.000199364,0,
4,0.0105703,-0.100859,-0.112985,0.000178144,0,
4,0.0120162,-0.101984,-0.113011,0.000148202,0,
4,0.0136326,-0.102731,-0.113041,0.000110947,0,
4,0.0154398,-0.103171,-0.113079,6.7008e-05,0,
4,0.0174603,-0.103351,-0.113124,1.65204e-05,0,
4,0.0197189,-0.103305,-0.113177,-4.06961e-05,0,
4,0.0222427,-0.103051,-0.113239,-0.000105037,0,
4,0.0250617,-0.102602,-0.113312,-0.000177055,0,
4,0.0282081,-0.101964,-0.113397,-0.000257427,0,
4,0.0317171,-0.10114,-0.113494,-0.000346932,0,
4,0.0356266,-0.100126,-0.113606,-0.000446441,0,
4,0.039977,-0.098919,-0.113734,-0.000556906,0,
4,0.0448114,-0.0975108,-0.113879,-0.000679348,0,
4,0.0501747,-0.0958919,-0.114043,-0.000814847,0,
4,0.056114,-0.0940509,-0.114227,-0.000964526,0,
4,0.062677,-0.0919739,-0.114432,-0.00112953,0,
4,0.0699123,-0.0896459,-0.114659,-0.00131102,0,
4,0.0778675,-0.0870497,-0.114909,-0.00151011,0,
4,0.0865883,-0.084167,-0.11518,-0.00172786,0,
4,0.0961173,-0.080978,-0.115474,-0.00196523,0,
4,0.106492,-0.0774619,-0.115789,-0.00222301,0,
4,0.117744,-0.0735975,-0.116124,-0.0025018,0,
4,0.129894,-0.0693631,-0.116476,-0.00280194,0,
4,0.142956,-0.0647379,-0.116843,-0.00312345,0,
4,0.156928,-0.0597022,-0.117221,-0.003466,0,
4,0.171798,-0.0542389,-0.117608,-0.00382885,0,
4,0.187537,-0.0483342,-0.117999,-0.00421087,0,
4,0.2041,-0.0419796,-0.118391,-0.00461052,0,
4,0.221432,-0.0351726,-0.11878,-0.00502595,0,
4,0.239458,-0.0279183,-0.119164,-0.00545517,0,
4,0.258095,-0.0202289,-0.119538,-0.00589622,0,
4,0.27725,-0.0121218,-0.119901,-0.00634663,0,
4,0.296825,-0.00361443,-0.120253,-0.00680144,0,
4,0.316717,0.00527651,-0.120592,-0.0072554,0,
4,0.336828,0.0145274,-0.120918,-0.00770823,0,
4,0.357066,0.0241023,-0.121229,-0.00816009,0,
4,0.377348,0.0339586,-0.121513,-0.00860971,0,
4,0.397605,0.0440584,-0.12185,-0.00907195,0,
4,0.417786,0.0544137,-0.121995,-0.00969365,0,
4,0.437857,0.0654351,-0.121632,-0.00991687,0,
4,0.457804,0.077683,-0.121076,-0.0101474,0,
4,0.477632,0.0912788,-0.120712,-0.0103822,0,
4,0.497368,0.106041,-0.120537,-0.0106026,0,
4,0.517057,0.12169,-0.120499,-0.0107951,0,
4,0.536763,0.138017,-0.120527,-0.0109526,0,
4,0.556564,0.154949,-0.12057,-0.0110725,0,
4,0.576557,0.172541,-0.120602,-0.0111547,0,
4,0.596848,0.190934,-0.120616,-0.0111985,0,
4,0.617561,0.210302,-0.120616,-0.0112017,0,
4,0.637962,0.230042,-0.120604,-0.0111631,0,
4,0.657495,0.249635,-0.120589,-0.0110856,0,
4,0.676218,0.269093,-0.120576,-0.0109715,0,
4,0.694189,0.288409,-0.120566,-0.0108231,0,
4,0.711463,0.307572,-0.120558,-0.010643,0,
4,0.728096,0.326562,-0.120551,-0.0104342,0,
4,0.744138,0.345355,-0.120546,-0.0102002,0,
4,0.759639,0.363911,-0.120541,-0.00994579,0,
4,0.774643,0.382179,-0.120538,-0.0096763,0,
4,0.789195,0.400094,-0.120535,-0.00939738,0,
4,0.803334,0.417587,-0.120533,-0.00911307,0,
4,0.817097,0.434602,-0.120531,-0.0088269,0,
4,0.830518,0.451093,-0.120529,-0.00854188,0,
4,0.843629,0.467032,-0.120527,-0.0082605,0,
4,0.856459,0.482404,-0.120525,-0.00798478,0,
4,0.869035,0.497202,-0.120524,-0.0077163,0,
4,0.881383,0.51143,-0.120524,-0.00745626,0,
4,0.893524,0.525099,-0.120525,-0.00720548,0,
4,0.905481,0.538228,-0.12053,-0.00696448,0,
4,0.917272,0.55084,-0.120537,-0.00673345,0,
4,0.928915,0.562966,-0.120549,-0.00651231,0,
4,0.940428,0.574637,-0.120562,-0.00630083,0,
4,0.951826,0.585885,-0.120577,-0.0061001,0,
4,0.963124,0.596739,-0.120592,-0.00590918,0,
4,0.974334,0.607231,-0.120606,-0.00572705,0,
4,0.98547,0.617394,-0.120618,-0.00555262,0,
4,0.996544,0.62727,-0.120628,-0.00538459,0,
4,1.00757,0.636915,-0.120633,-0.0052213,0,
4,1.01855,0.646417,-0.120626,-0.00503774,0,
4,1.0295,0.655865,-0.120611,-0.00483791,0,
4,1.04044,0.665277,-0.120593,-0.00463456,0,
4,1.0623,0.683904,-0.120555,-0.0041892,0,
4,1.07328,0.693088,-0.120532,-0.00394996,0,
4,1.08432,0.702141,-0.120508,-0.00370252,0,
4,1.09543,0.71102,-0.120482,-0.00344954,0,
4,1.10661,0.719678,-0.120454,-0.00319416,0,
4,1.11788,0.728065,-0.120424,-0.00293996,0,
4,1.12925,0.736131,-0.120391,-0.00269082,0,
4,1.14073,0.743828,-0.120355,-0.00245077,0,
4,1.15233,0.751114,-0.120316,-0.00222375,0,
4,1.16408,0.757957,-0.120274,-0.00201334,0,
4,1.17599,0.764339,-0.120229,-0.00182238,0,
4,1.18806,0.770261,-0.120181,-0.00165284,0,
4,1.20034,0.775738,-0.12013,-0.00150558,0,
4,1.21282,0.780803,-0.120075,-0.00138045,0,
4,1.22554,0.7855,-0.120018,-0.00127637,0,
4,1.23852,0.789882,-0.119958,-0.00119156,0,
4,1.25179,0.794002,-0.119895,-0.00112381,0,
4,1.26537,0.797914,-0.119829,-0.00107072,0,
4,1.2793,0.801669,-0.119762,-0.00102985,0,
4,1.29362,0.805313,-0.119691,-0.000998889,0,
4,1.30836,0.808886,-0.119618,-0.000975736,0,
4,1.32357,0.812424,-0.119543,-0.000958526,0,
4,1.3393,0.815959,-0.119464,-0.000945638,0,
4,1.3556,0.819517,-0.119382,-0.00093575,0,
4,1.37252,0.823122,-0.119297,-0.00092765,0,
4,1.39015,0.826796,-0.119204,-0.000921877,0,
4,1.40855,0.830567,-0.119113,-0.00091776,0,
4,1.42781,0.834504,-0.119031,-0.000900411,0,
4,1.44801,0.838666,-0.118945,-0.000882604,0,
4,1.46926,0.843066,-0.11885,-0.000864202,0,
4,1.49167,0.847696,-0.118743,-0.000844991,0,
4,1.51537,0.85255,-0.118627,-0.000825182,0,
4,1.54091,0.857716,-0.118496,-0.000804717,0,
4,1.56949,0.863399,-0.118348,-0.000783011,0,
4,1.60144,0.869659,-0.118177,-0.000759136,0,
4,1.63713,0.876539,-0.117983,-0.000732538,0,
4,1.67693,0.88407,-0.11776,-0.000702685,0,
4,1.72128,0.892269,-0.117505,-0.000669124,0,
4,1.77062,0.901127,-0.117213,-0.000631759,0,
4,1.82542,0.9106,-0.116882,-0.000590444,0,
4,1.88618,0.920608,-0.116498,-0.000545109,0,
4,1.95343,0.931084,-0.116077,-0.000477862,0,
4,2.02768,0.941908,-0.115614,-0.000395875,0,
4,2.10949,0.952736,-0.11509,-0.000306781,0,
4,2.19939,0.963003,-0.114511,-0.00021673,0,
4,2.29789,0.972037,-0.113872,-0.000134852,0,
4,2.40551,0.979158,-0.113176,-6.94238e-05,0,
4,2.52268,0.983825,-0.112428,-2.55034e-05,0,
4,2.64979,0.985864,-0.111636,-3.39855e-06,0,
4,2.78715,0.985652,-0.110808,2.52859e-06,0,
4,2.93497,0.984109,-0.109952,1.54636e-06,0,
4,3.09333,0.982355,-0.109077,3.15143e-07,0,
4,3.26217,0.981165,-0.108193,3.05779e-08,0,
4,3.44125,0.98069,-0.107312,6.12362e-09,0,
4,3.63018,0.980638,-0.106441,2.72592e-09,0,
4,3.82836,0.98066,-0.105586,2.74185e-09,0,
4,4.03501,0.980578,-0.104755,3.72739e-09,0,
4,4.24915,0.980386,-0.103953,4.34728e-09,0,
4,4.46961,0.980151,-0.103187,4.358e-09,0,
4,4.69507,0.979924,-0.10246,4.02804e-09,0,
4,4.92406,0.979724,-0.101776,3.65992e-09,0,
4,5.15502,0.979546,-0.101135,3.39209e-09,0,
4,5.3863,0.979379,-0.100541,3.2963e-09,0,
4,5.61626,0.979211,-0.0999933,3.48901e-09,0,
4,5.84328,0.979026,-0.0994916,4.28164e-09,0,
4,6.06579,0.978826,-0.0990351,6.38721e-09,0,
4,6.28238,0.978679,-0.0986222,8.18306e-09,0,
4,6.49173,0.978746,-0.0982507,-2.13528e-08,0,
4,6.69275,0.979193,-0.0979174,-2.07927e-07,0,
4,6.88453,0.979861,-0.0976183,-2.72447e-07,0,
4,7.06634,0.979809,-0.0973491,4.1362e-06,0,
4,7.23771,0.977191,-0.0971103,2.75486e-05,0,
4,7.39831,0.969954,-0.0968992,9.10734e-05,0,
4,7.54803,0.957156,-0.0967265,0.000209241,0,
4,7.68693,0.939661,-0.0965795,0.000360178,0,
4,7.81519,0.919353,-0.0964443,0.000503305,0,
4,7.93313,0.898154,-0.0963402,0.000653586,0,
4,8.04115,0.877593,-0.0962462,0.000792326,0,
4,8.13974,0.85843,-0.0961711,0.000909145,0,
4,8.22941,0.840795,-0.0961117,0.00100272,0,
4,8.31073,0.824491,-0.096068,0.00107638,0,
4,8.38429,0.809206,-0.0960379,0.0011343,0,
4,8.45065,0.794625,-0.0960196,0.00118082,0,
4,8.5104,0.780467,-0.0960104,0.00121625,0,
4,8.56407,0.766538,-0.0960079,0.00124704,0,
4,8.61222,0.75276,-0.0960099,0.00127556,0,
4,8.65533,0.739112,-0.0960143,0.00129965,0,
4,8.69387,0.725577,-0.0960208,0.00131953,0,
4,8.7283,0.712142,-0.0960285,0.00133561,0,
4,8.75901,0.698794,-0.0960371,0.00134817,0,
4,8.78637,0.685521,-0.0960461,0.00135746,0,
4,8.81074,0.672315,-0.0960551,0.00136367,0,
4,8.83242,0.659166,-0.0960639,0.00136703,0,
4,8.85169,0.646065,-0.0960724,0.00136774,0,
4,8.86881,0.633,-0.0960805,0.00136602,0,
4,8.88402,0.61996,-0.096088,0.00136208,0,
4,8.89751,0.606928,-0.0960949,0.00135615,0,
4,8.90949,0.593886,-0.0961013,0.00134841,0,
4,8.92011,0.580812,-0.096107,0.00133904,0,
4,8.92952,0.567679,-0.0961122,0.00132818,0,
4,8.93787,0.554457,-0.0961168,0.00131593,0,
4,8.94526,0.541111,-0.0961209,0.00130232,0,
4,8.95182,0.527601,-0.0961244,0.00128734,0,
4,8.95762,0.513881,-0.0961276,0.00127091,0,
4,8.96276,0.499897,-0.0961303,0.00125288,0,
4,8.96731,0.48559,-0.0961327,0.00123298,0,
4,8.97134,0.470889,-0.0961347,0.00121083,0,
4,8.97491,0.455711,-0.0961365,0.00118591,0,
4,8.97807,0.439962,-0.096138,0.00115753,0,
4,8.98087,0.423527,-0.0961393,0.00112471,0,
4,8.98334,0.406275,-0.0961403,0.00108622,0,
4,8.98553,0.388046,-0.0961412,0.00104093,0,
4,8.98747,0.368633,-0.0961419,0.000985058,0,
4,8.98919,0.347757,-0.0961426,0.000913385,0,
4,8.9907,0.325139,-0.096143,0.000827023,0,
4,8.99205,0.30058,-0.0961435,0.000723843,0,
4,8.99324,0.273924,-0.0961437,0.000599981,0,
4,8.99429,0.244969,-0.096144,0.000441401,0,
4,8.99522,0.213896,-0.096144,0.000282575,0,
4,8.99605,0.18181,-0.0961443,0.000149071,0,
4,8.99677,0.150321,-0.0961442,6.28502e-05,0,
4,8.99742,0.120876,-0.0961444,2.10453e-05,0,
4,8.99799,0.094229,-0.0961442,5.57215e-06,0,
4,8.9985,0.070498,-0.0961445,1.12384e-06,0,
4,8.99894,0.0494899,-0.0961443,1.54893e-07,0,
4,8.99934,0.030922,-0.0961446,1.1345e-08,0,
4,8.99969,0.0145139,-0.0961443,2.44547e-10,0,

6,0,0,0.00524601,0,0,
6,9,0,-0.0731014,0,0,
6,1.07704,0.705136,-0.00872917,-0.00245355,0,
6,0.000299862,0.00303009,0.00523991,-3.79145e-11,0,
6,0.000611645,0.00623382,0.00524477,-1.51525e-09,0,
6,0.000938257,0.00964793,0.00524,-1.6986e-08,0,
6,0.00128281,0.013312,0.00524366,-1.0137e-07,0,
6,0.00164864,0.0172691,0.00523988,-4.22668e-07,0,
6,0.00203939,0.0215631,0.00524264,-1.40371e-06,0,
6,0.00245897,0.0262324,0.00523952,-3.97734e-06,0,
6,0.00291168,0.0312941,0.00524154,-9.95973e-06,0,
6,0.00340221,0.0367157,0.0052387,-2.23362e-05,0,
6,0.00393573,0.0423765,0.00523978,-4.47653e-05,0,
6,0.00451788,0.0480465,0.00523642,-7.94381e-05,0,
6,0.00515491,0.0534345,0.00523551,-0.000124252,0,
6,0.00585371,0.0583036,0.00522996,-0.000172935,0,
6,0.00662185,0.0625556,0.00522522,-0.000219123,0,
6,0.00746774,0.0662188,0.00521558,-0.000259752,0,
6,0.00840063,0.069385,0.00520526,-0.000294896,0,
6,0.00943073,0.0721574,0.00518992,-0.000326042,0,
6,0.0105693,0.0746274,0.0051725,-0.000354868,0,
6,0.0118288,0.0768688,0.00514982,-0.000382798,0,
6,0.0132228,0.0789387,0.00512362,-0.000410952,0,
6,0.0147664,0.0808818,0.00509161,-0.000440207,0,
6,0.016476,0.0827329,0.00505449,-0.000471287,0,
6,0.0183694,0.0845199,0.00501059,-0.000504813,0,
6,0.0204662,0.0862654,0.00495984,-0.000541356,0,
6,0.0227875,0.0879886,0.00490089,-0.000581461,0,
6,0.0253561,0.0897059,0.00483316,-0.000625672,0,
6,0.0281964,0.0914316,0.00475541,-0.000674539,0,
6,0.0313344,0.093179,0.00466673,-0.000728629,0,
6,0.0347975,0.0949602,0.00456589,-0.000788531,0,
6,0.0386145,0.0967864,0.00445181,-0.000854856,0,
6,0.042815,0.0986685,0.00432329,-0.000928236,0,
6,0.0474296,0.100617,0.0041792,-0.00100932,0,
6,0.0524888,0.102642,0.00401846,-0.00109877,0,
6,0.0580229,0.104754,0.0038401,-0.00119725,0,
6,0.0640611,0.106963,0.00364329,-0.00130539,0,
6,0.0706309,0.109277,0.00342743,-0.00142383,0,
6,0.077757,0.111706,0.00319218,-0.00155314,0,
6,0.0854609,0.114259,0.00293752,-0.00169384,0,
6,0.0937597,0.116945,0.00266378,-0.00184634,0,
6,0.102665,0.11977,0.00237171,-0.00201098,0,
6,0.112183,0.122743,0.00206243,-0.00218796,0,
6,0.122315,0.125869,0.00173746,-0.00237733,0,
6,0.133052,0.129154,0.00139872,-0.00257901,0,
6,0.144384,0.132604,0.00104837,-0.00279278,0,
6,0.156292,0.136223,0.000688847,-0.00301824,0,
6,0.168754,0.140013,0.000322683,-0.00325489,0,
6,0.181744,0.14398,-4.75536e-05,-0.00350214,0,
6,0.195237,0.148126,-0.000419378,-0.00375929,0,
6,0.209207,0.152457,-0.000790481,-0.00402565,0,
6,0.223631,0.156978,-0.00115881,-0.00430051,0,
6,0.238493,0.161696,-0.00152261,-0.00458323,0,
6,0.253785,0.166622,-0.00188049,-0.00487327,0,
6,0.269507,0.17177,-0.00223142,-0.0051702,0,
6,0.28567,0.177157,-0.00257466,-0.00547375,0,
6,0.3023,0.182808,-0.00290982,-0.00578378,0,
6,0.319433,0.188751,-0.00323724,-0.00610082,0,
6,0.337122,0.195024,-0.00355456,-0.00642565,0,
6,0.355433,0.201677,-0.00385521,-0.00675764,0,
6,0.374445,0.208774,-0.00413178,-0.00709682,0,
6,0.394252,0.216402,-0.00437691,-0.00744182,0,
6,0.414961,0.22467,-0.00457203,-0.00778961,0,
6,0.436695,0.23371,-0.00475914,-0.00814556,0,
6,0.459585,0.24369,-0.00494415,-0.00862717,0,
6,0.48378,0.255125,-0.00455437,-0.00884077,0,
6,0.508144,0.268169,-0.00364669,-0.00891615,0,
6,0.531799,0.282667,-0.00303978,-0.00899127,0,
6,0.554791,0.298404,-0.00275486,-0.00905467,0,
6,0.577166,0.314935,-0.00269305,-0.00908677,0,
6,0.598964,0.331865,-0.00274138,-0.00907499,0,
6,0.620228,0.348964,-0.002823,-0.00901464,0,
6,0.640996,0.366148,-0.00290192,-0.00890649,0,
6,0.661304,0.383413,-0.00297121,-0.00875368,0,
6,0.681188,0.400763,-0.00303879,-0.00856003,0,
6,0.700681,0.41818,-0.0031161,-0.00832999,0,
6,0.719813,0.435603,-0.00321227,-0.00806921,0,
6,0.738612,0.452939,-0.0033319,-0.00778428,0,
6,0.757107,0.47008,-0.00347515,-0.00748131,0,
6,0.775322,0.486925,-0.00363968,-0.00716574,0,
6,0.793282,0.503393,-0.00382267,-0.00684237,0,
6,0.811008,0.519423,-0.00402178,-0.00651548,0,
6,0.828521,0.534969,-0.00423568,-0.00618892,0,
6,0.845842,0.549991,-0.00446326,-0.00586626,0,
6,0.862989,0.564441,-0.00470515,-0.00555524,0,
6,0.879979,0.578274,-0.00496052,-0.00525893,0,
6,0.896829,0.591475,-0.00522657,-0.0049759,0,
6,0.913555,0.604066,-0.00550209,-0.00470522,0,
6,0.930172,0.616087,-0.00578648,-0.0044461,0,
6,0.946694,0.627588,-0.00607965,-0.00419779,0,
6,0.963136,0.63861,-0.00638162,-0.00395949,0,
6,0.97951,0.64919,-0.00669214,-0.00373031,0,
6,0.99583,0.659362,-0.00701131,-0.00350917,0,
6,1.01211,0.669158,-0.00733838,-0.00329464,0,
6,1.02836,0.678623,-0.00767484,-0.00307885,0,
6,1.04459,0.687788,-0.00801955,-0.00286393,0,
6,1.06081,0.696638,-0.00837069,-0.00265595,0,
6,1.09329,0.713248,-0.0090944,-0.00225947,0,
6,1.10959,0.720949,-0.00946645,-0.00207647,0,
6,1.12595,0.728216,-0.00984494,-0.00190705,0,
6,1.14238,0.735037,-0.0102295,-0.00175316,0,
6,1.1589,0.741415,-0.0106199,-0.0016161,0,
6,1.17551,0.747365,-0.0110158,-0.00149638,0,
6,1.19223,0.752917,-0.011417,-0.00139378,0,
6,1.20907,0.758108,-0.0118232,-0.00130739,0,
6,1.22605,0.762982,-0.0122346,-0.00123581,0,
6,1.24318,0.767586,-0.0126508,-0.0011773,0,
6,1.26048,0.771964,-0.0130725,-0.00112996,0,
6,1.27797,0.776159,-0.0134983,-0.00109193,0,
6,1.29566,0.78021,-0.0139321,-0.00106137,0,
6,1.31357,0.784148,-0.0143653,-0.00104023,0,
6,1.33173,0.788033,-0.0148129,-0.00102358,0,
6,1.35015,0.791984,-0.0152837,-0.000992291,0,
6,1.36886,0.796109,-0.015762,-0.000960909,0,
6,1.38788,0.800407,-0.0162451,-0.000932512,0,
6,1.40725,0.804809,-0.0167304,-0.000907192,0,
6,1.42698,0.809247,-0.0172202,-0.000884471,0,
6,1.44712,0.81368,-0.0177173,-0.000863582,0,
6,1.46769,0.818109,-0.0182246,-0.000843312,0,
6,1.48874,0.822553,-0.0187436,-0.000823327,0,
6,1.5103,0.827037,-0.0192753,-0.000803327,0,
6,1.53242,0.831581,-0.0198206,-0.000783091,0,
6,1.55515,0.836197,-0.0203801,-0.000762516,0,
6,1.57854,0.840891,-0.0209548,-0.000741566,0,
6,1.60265,0.845667,-0.0215456,-0.00072022,0,
6,1.62754,0.850527,-0.0221541,-0.000698428,0,
6,1.65329,0.855472,-0.0227812,-0.000676186,0,
6,1.67998,0.860504,-0.0234288,-0.000653471,0,
6,1.70768,0.865623,-0.0240975,-0.00063032,0,
6,1.73712,0.87093,-0.0248072,-0.000606684,0,
6,1.76996,0.876661,-0.025593,-0.00058135,0,
6,1.80655,0.882847,-0.026463,-0.000553559,0,
6,1.84728,0.889468,-0.0274253,-0.000523439,0,
6,1.89255,0.896488,-0.0284812,-0.000490665,0,
6,1.9428,0.903911,-0.0296468,-0.000442563,0,
6,1.99849,0.911717,-0.0309278,-0.000386093,0,
6,2.06009,0.919749,-0.0323192,-0.000323938,0,
6,2.1281,0.927725,-0.0338293,-0.000258468,0,
6,2.20301,0.935303,-0.0354536,-0.000194189,0,
6,2.28535,0.942115,-0.0371892,-0.000135376,0,
6,2.37559,0.947799,-0.0390262,-8.56111e-05,0,
6,2.47424,0.952067,-0.0409506,-4.75977e-05,0,
6,2.58172,0.954787,-0.0429429,-2.23714e-05,0,
6,2.69844,0.956071,-0.04498,-8.65483e-06,0,
6,2.82473,0.956306,-0.0470364,-2.96416e-06,0,
6,2.96084,0.956086,-0.0490875,-1.19077e-06,0,
6,3.10691,0.956008,-0.0511115,-5.72768e-07,0,
6,3.26296,0.95644,-0.0530899,-2.25676e-07,0,
6,3.42888,0.957404,-0.0550066,-7.02161e-08,0,
6,3.60438,0.958666,-0.0568462,-3.21164e-08,0,
6,3.78902,0.959939,-0.0585934,-2.53948e-08,0,
6,3.98218,0.961045,-0.0602348,-2.14092e-08,0,
6,4.18307,0.96195,-0.0617599,-1.80024e-08,0,
6,4.39071,0.962707,-0.0631621,-1.54995e-08,0,
6,4.60398,0.963377,-0.0644385,-1.36657e-08,0,
6,4.82159,0.963991,-0.0655896,-1.22119e-08,0,
6,5.04218,0.964553,-0.0666187,-1.10202e-08,0,
6,5.26426,0.965055,-0.0675314,-1.02899e-08,0,
6,5.48633,0.965486,-0.0683347,-1.06321e-08,0,
6,5.70687,0.965838,-0.069037,-1.35401e-08,0,
6,5.92439,0.966117,-0.0696471,-2.32016e-08,0,
6,6.1375,0.966369,-0.0701741,-5.51265e-08,0,
6,6.34489,0.966708,-0.0706269,-1.74016e-07,0,
6,6.5454,0.967276,-0.0710138,-5.64163e-07,0,
6,6.73802,0.968062,-0.0713422,-1.21694e-06,0,
6,6.92195,0.968572,-0.071619,3.45174e-07,0,
6,7.09653,0.967576,-0.0718502,1.35913e-05,0,
6,7.26132,0.963319,-0.0720457,5.53478e-05,0,
6,7.41603,0.954329,-0.0722043,0.000141493,0,
6,7.56054,0.940337,-0.0723441,0.000277567,0,
6,7.6949,0.922312,-0.0724587,0.00040075,0,
6,7.81927,0.901857,-0.0725399,0.000536847,0,
6,7.93391,0.880826,-0.0726074,0.000677099,0,
6,8.0392,0.860656,-0.0726528,0.00080496,0,
6,8.13555,0.841992,-0.0726901,0.000912889,0,
6,8.22344,0.824864,-0.0727198,0.00100033,0,
6,8.30339,0.809003,-0.0727485,0.00107052,0,
6,8.37592,0.794065,-0.072776,0.00112703,0,
6,8.44155,0.779734,-0.0728035,0.00117355,0,
6,8.50082,0.765769,-0.0728303,0.00121301,0,
6,8.55423,0.752018,-0.0728563,0.00124711,0,
6,8.60229,0.738408,-0.072881,0.00127657,0,
6,8.64545,0.724914,-0.0729042,0.00130135,0,
6,8.68417,0.711535,-0.0729255,0.00132129,0,
6,8.71885,0.698266,-0.0729449,0.00133677,0,
6,8.74989,0.685104,-0.0729627,0.00134816,0,
6,8.77763,0.672044,-0.0729788,0.00135581,0,
6,8.80241,0.659083,-0.0729935,0.00136,0,
6,8.82452,0.646215,-0.0730068,0.00136105,0,
6,8.84423,0.633433,-0.0730187,0.00135926,0,
6,8.86181,0.620728,-0.0730294,0.00135492,0,
6,8.87746,0.608087,-0.073039,0.00134835,0,
6,8.89139,0.595495,-0.0730475,0.00133982,0,
6,8.90379,0.582934,-0.073055,0.00132958,0,
6,8.91482,0.570381,-0.0730616,0.00131787,0,
6,8.92463,0.557812,-0.0730674,0.00130488,0,
6,8.93334,0.545195,-0.0730725,0.00129073,0,
6,8.94109,0.532499,-0.0730769,0.00127552,0,
6,8.94798,0.519685,-0.0730808,0.00125928,0,
6,8.95409,0.50671,-0.0730841,0.00124198,0,
6,8.95953,0.493526,-0.0730869,0.00122351,0,
6,8.96435,0.480079,-0.0730893,0.00120368,0,
6,8.96863,0.466307,-0.0730914,0.00118221,0,
6,8.97244,0.452139,-0.0730932,0.0011587,0,
6,8.97581,0.437491,-0.0730947,0.0011326,0,
6,8.97881,0.42227,-0.0730959,0.00110317,0,
6,8.98147,0.406362,-0.073097,0.00106944,0,
6,8.98383,0.389637,-0.0730978,0.00103015,0,
6,8.98593,0.371939,-0.0730986,0.000984143,0,
6,8.98779,0.353067,-0.0730991,0.00092755,0,
6,8.98944,0.332757,-0.0730997,0.000855916,0,
6,8.9909,0.310757,-0.0731,0.000770371,0,
6,8.9922,0.286896,-0.0731004,0.000669228,0,
6,8.99336,0.261011,-0.0731005,0.000545263,0,
6,8.99438,0.232947,-0.0731008,0.000393562,0,
6,8.99529,0.203014,-0.0731008,0.000246147,0,
6,8.99609,0.172355,-0.073101,0.000126986,0,
6,8.99681,0.142488,-0.0731009,5.27173e-05,0,
6,8.99744,0.11467,-0.0731011,1.75455e-05,0,
6,8.99801,0.0895078,-0.0731009,4.65252e-06,0,
6,8.9985,0.0670648,-0.0731012,9.43726e-07,0,
6,8.99895,0.04715,-0.073101,1.31021e-07,0,
6,8.99934,0.0295027,-0.0731013,9.66629e-09,0,
6,8.99969,0.013867,-0.0731009,2.09475e-10,0,

10,0,0,-0.0172431,0,0,
10,0.000296632,0.0071205,-0.0172351,-3.43741e-11,0,
10,0.000596102,0.014281,-0.0172423,-1.26946e-09,0,
10,0.000900397,0.0215296,-0.0172357,-1.28645e-08,0,
10,0.00121153,0.0289148,-0.0172416,-6.89273e-08,0,
10,0.00153158,0.0364842,-0.0172363,-2.57213e-07,0,
10,0.00186264,0.0442851,-0.0172411,-7.6362e-07,0,
10,0.00220692,0.0523618,-0.0172367,-1.93817e-06,0,
10,0.00256668,0.060753,-0.0172407,-4.38513e-06,0,
10,0.00294431,0.0694861,-0.017237,-9.06728e-06,0,
10,0.00334229,0.0785682,-0.0172403,-1.73844e-05,0,
10,0.00376326,0.0879747,-0.0172373,-3.11374e-05,0,
10,0.00421,0.0976365,-0.01724,-5.22506e-05,0,
10,0.00468544,0.107432,-0.0172375,-8.21792e-05,0,
10,0.00519274,0.117193,-0.0172398,-0.000121157,0,
10,0.00573524,0.126724,-0.0172375,-0.000167725,0,
10,0.00631651,0.135838,-0.0172394,-0.000218966,0,
10,0.00694041,0.14439,-0.0172375,-0.00027139,0,
10,0.00761104,0.152291,-0.0172389,-0.000321928,0,
10,0.00833284,0.15951,-0.0172372,-0.000368521,0,
10,0.00911058,0.166063,-0.0172382,-0.000410209,0,
10,0.0099494,0.171995,-0.0172366,-0.000446893,0,
10,0.0108548,0.177368,-0.0172372,-0.00047902,0,
10,0.0118329,0.182248,-0.0172357,-0.00050731,0,
10,0.0128901,0.186703,-0.0172357,-0.000532567,0,
10,0.0140333,0.190794,-0.0172342,-0.000555569,0,
10,0.0152702,0.194573,-0.0172338,-0.00057702,0,
10,0.0166089,0.19809,-0.0172322,-0.000597536,0,
10,0.0180584,0.201386,-0.0172313,-0.000617644,0,
10,0.0196282,0.204496,-0.0172296,-0.000637801,0,
10,0.0213288,0.20745,-0.0172281,-0.000658402,0,
10,0.0231714,0.210275,-0.0172261,-0.000679798,0,
10,0.0251682,0.212995,-0.0172242,-0.000702309,0,
10,0.0273326,0.215629,-0.0172218,-0.000726233,0,
10,0.0296789,0.218195,-0.0172193,-0.000751852,0,
10,0.0322227,0.220709,-0.0172164,-0.000779446,0,
10,0.0349809,0.223186,-0.0172133,-0.000809294,0,
10,0.0379719,0.22564,-0.0172099,-0.000841678,0,
10,0.0412155,0.228083,-0.0172062,-0.000876893,0,
10,0.0447333,0.230527,-0.0172021,-0.000915245,0,
10,0.0485489,0.232984,-0.0171978,-0.000957057,0,
10,0.0526875,0.235465,-0.017193,-0.00100267,0,
10,0.0571768,0.237982,-0.017188,-0.00105246,0,
10,0.0620466,0.240547,-0.0171826,-0.0011068,0,
10,0.0673295,0.243171,-0.0171769,-0.00116612,0,
10,0.0730607,0.245867,-0.0171709,-0.00123086,0,
10,0.0792784,0.248647,-0.0171647,-0.00130151,0,
10,0.0860241,0.251525,-0.0171584,-0.00137858,0,
10,0.0933428,0.254516,-0.0171519,-0.00146262,0,
10,0.101283,0.257634,-0.0171456,-0.00155422,0,
10,0.109899,0.260897,-0.0171395,-0.00165402,0,
10,0.119247,0.264323,-0.0171339,-0.00176266,0,
10,0.12939,0.267932,-0.0171291,-0.00188087,0,
10,0.140395,0.271746,-0.0171256,-0.00200938,0,
10,0.152337,0.275788,-0.0171238,-0.00214896,0,
10,0.165296,0.280085,-0.0171245,-0.00230043,0,
10,0.179357,0.284668,-0.0171283,-0.00246461,0,
10,0.194615,0.289567,-0.0171364,-0.00264233,0,
10,0.211171,0.29482,-0.0171498,-0.00283443,0,
10,0.229138,0.300468,-0.0171703,-0.00304171,0,
10,0.248635,0.306554,-0.0171993,-0.00326492,0,
10,0.269793,0.313129,-0.0172394,-0.00350474,0,
10,0.292753,0.320249,-0.0172919,-0.0037617,0,
10,0.317669,0.327976,-0.0173616,-0.00403504,0,
10,0.344708,0.336373,-0.0174464,-0.00432552,0,
10,0.372405,0.345005,-0.0175475,-0.00461776,0,
10,0.399623,0.353531,-0.0176641,-0.00489906,0,
10,0.426397,0.361962,-0.0177629,-0.00518162,0,
10,0.452757,0.37035,-0.017936,-0.00548723,0,
10,0.478735,0.378899,-0.0183436,-0.00566617,0,
10,0.504358,0.387852,-0.0189179,-0.00580875,0,
10,0.529657,0.397275,-0.0195259,-0.00595103,0,
10,0.554656,0.407106,-0.0201214,-0.00608994,0,
10,0.579382,0.417239,-0.0206886,-0.00622116,0,
10,0.603859,0.427566,-0.0212329,-0.00634057,0,
10,0.628112,0.438003,-0.0217605,-0.00644516,0,
10,0.652163,0.448495,-0.0222768,-0.00653321,0,
10,0.676035,0.459021,-0.022783,-0.00660391,0,
10,0.699751,0.469579,-0.0232782,-0.00665699,0,
10,0.72333,0.480191,-0.0237591,-0.00669238,0,
10,0.746795,0.490889,-0.0242211,-0.00670996,0,
10,0.770165,0.501716,-0.0246595,-0.00670941,0,
10,0.79346,0.512722,-0.0250695,-0.00669012,0,
10,0.816699,0.52396,-0.0254472,-0.00665123,0,
10,0.839903,0.535487,-0.0257898,-0.00659157,0,
10,0.863088,0.547364,-0.026096,-0.00650979,0,
10,0.886275,0.559651,-0.0263654,-0.00640432,0,
10,0.909481,0.572409,-0.0265988,-0.00627347,0,
10,0.932723,0.585696,-0.0267977,-0.00611545,0,
10,0.956021,0.599563,-0.0269642,-0.00592856,0,
10,0.97939,0.614041,-0.0271003,-0.00571211,0,
10,1.00285,0.629128,-0.0272083,-0.00546679,0,
10,1.02641,0.644768,-0.0272899,-0.00519543,0,
10,1.0501,0.660841,-0.0273465,-0.00490174,0,
10,1.07392,0.677165,-0.0273786,-0.00459064,0,
10,1.0979,0.693506,-0.0273858,-0.00426829,0,
10,1.12205,0.709594,-0.027369,-0.00394192,0,
10,1.14639,0.725146,-0.0273288,-0.00362326,0,
10,1.17093,0.739909,-0.0272661,-0.00332185,0,
10,1.19568,0.753734,-0.0271803,-0.00303699,0,
10,1.22066,0.7666,-0.0270685,-0.00277025,0,
10,1.24589,0.778566,-0.0269315,-0.00252174,0,
10,1.27137,0.789731,-0.0267673,-0.00229013,0,
10,1.29713,0.80022,-0.0265796,-0.00207329,0,
10,1.32317,0.81017,-0.0263585,-0.00186073,0,
10,1.34951,0.819704,-0.0261093,-0.00163943,0,
10,1.37616,0.828812,-0.0258533,-0.00143473,0,
10,1.40313,0.837387,-0.025592,-0.00124269,0,
10,1.43043,0.845347,-0.0253285,-0.0010698,0,
10,1.45807,0.852656,-0.0250648,-0.00092141,0,
10,1.48607,0.859335,-0.0248008,-0.000806757,0,
10,1.51444,0.865548,-0.0245289,-0.000698808,0,
10,1.54318,0.87149,-0.0242503,-0.000606531,0,
10,1.57231,0.877198,-0.0239734,-0.000530537,0,
10,1.60184,0.882639,-0.0237028,-0.000469066,0,
10,1.63178,0.887799,-0.0234379,-0.000420445,0,
10,1.66213,0.892713,-0.0231776,-0.000382186,0,
10,1.69292,0.897427,-0.0229214,-0.000351499,0,
10,1.72416,0.901973,-0.0226701,-0.000325963,0,
10,1.75585,0.906361,-0.0224241,-0.000303849,0,
10,1.78802,0.910595,-0.0221841,-0.000284033,0,
10,1.82067,0.914669,-0.0219503,-0.000265787,0,
10,1.85383,0.918579,-0.0217231,-0.000248646,0,
10,1.88751,0.922316,-0.0215029,-0.000232346,0,
10,1.92173,0.925879,-0.02129,-0.000216889,0,
10,1.95652,0.929277,-0.0210837,-0.00020248,0,
10,1.9919,0.932557,-0.0208823,-0.000183468,0,
10,2.02791,0.935747,-0.0206885,-0.000165275,0,
10,2.06456,0.938826,-0.0205022,-0.000146165,0,
10,2.10268,0.941809,-0.0203226,-0.000125388,0,
10,2.1443,0.944764,-0.0201403,-0.000103771,0,
10,2.18977,0.947622,-0.019959,-8.18149e-05,0,
10,2.23946,0.950274,-0.0197811,-6.00982e-05,0,
10,2.29376,0.952606,-0.0196115,-3.98132e-05,0,
10,2.35309,0.9545,-0.0194548,-2.20701e-05,0,
10,2.4179,0.955852,-0.0193176,-7.77263e-06,0,
10,2.48863,0.956579,-0.0192067,2.46647e-06,0,
10,2.56575,0.956641,-0.0191303,8.44804e-06,0,
10,2.64971,0.956066,-0.0190969,1.05053e-05,0,
10,2.74098,0.954961,-0.019115,9.54737e-06,0,
10,2.83997,0.953514,-0.0191922,6.92824e-06,0,
10,2.94709,0.951976,-0.0193354,4.05601e-06,0,
10,3.06269,0.950598,-0.0195494,1.88882e-06,0,
10,3.18706,0.949572,-0.0198378,6.83422e-07,0,
10,3.3204,0.948967,-0.0202019,1.8767e-07,0,
10,3.46281,0.94873,-0.0206414,3.92302e-08,0,
10,3.61427,0.948723,-0.021154,7.19019e-09,0,
10,3.77463,0.948794,-0.0217356,1.94032e-09,0,
10,3.94358,0.94884,-0.0223799,1.2004e-09,0,
10,4.12067,0.948829,-0.0230789,9.69745e-10,0,
10,4.30525,0.948786,-0.0238223,4.32533e-10,0,
10,4.49655,0.94876,-0.0245989,-4.88604e-10,0,
10,4.6936,0.948784,-0.0253965,-1.62362e-09,0,
10,4.89531,0.948865,-0.0262026,-2.89984e-09,0,
10,5.10047,0.948991,-0.027005,-4.60129e-09,0,
10,5.30776,0.949137,-0.0277925,-7.61494e-09,0,
10,5.51581,0.949283,-0.0285548,-1.39565e-08,0,
10,5.72323,0.94942,-0.0292834,-2.88091e-08,0,
10,5.92863,0.949567,-0.0299712,-6.98654e-08,0,
10,6.13069,0.949784,-0.0306131,-1.99834e-07,0,
10,6.32816,0.950166,-0.0312054,-5.76736e-07,0,
10,6.51991,0.950748,-0.0317465,-1.28246e-06,0,
10,6.70495,0.951318,-0.0322362,-1.11543e-06,0,
10,6.88244,0.951178,-0.0326752,5.11877e-06,0,
10,7.0517,0.94911,-0.0330655,2.83513e-05,0,
10,7.21224,0.943711,-0.0334069,8.22946e-05,0,
10,7.3637,0.934059,-0.0337043,0.000176966,0,
10,7.5059,0.920169,-0.0339607,0.000305348,0,
10,7.63878,0.902616,-0.0341794,0.000418122,0,
10,7.76243,0.882485,-0.034368,0.000543892,0,
10,7.87701,0.861551,-0.0345187,0.000673675,0,
10,7.9828,0.841322,-0.0346445,0.000791942,0,
10,8.08014,0.822559,-0.0347453,0.000892575,0,
10,8.16941,0.805377,-0.0348294,0.000975574,0,
10,8.25106,0.789527,-0.0348996,0.00104399,0,
10,8.32554,0.774647,-0.0349606,0.00110065,0,
10,8.39331,0.760402,-0.0350139,0.00114832,0,
10,8.45484,0.746545,-0.035061,0.00118942,0,
10,8.5106,0.732926,-0.0351021,0.0012252,0,
10,8.56104,0.719479,-0.035138,0.00125619,0,
10,8.60659,0.706193,-0.0351693,0.00128249,0,
10,8.64767,0.693091,-0.0351966,0.00130415,0,
10,8.68467,0.680195,-0.0352209,0.00132131,0,
10,8.71795,0.667495,-0.0352425,0.00133017,0,
10,8.74786,0.654968,-0.0352613,0.00133507,0,
10,8.77471,0.642609,-0.0352779,0.00133611,0,
10,8.79881,0.630418,-0.0352923,0.00133347,0,
10,8.8204,0.618388,-0.0353049,0.00132765,0,
10,8.83975,0.606512,-0.0353158,0.00131915,0,
10,8.85708,0.594775,-0.0353253,0.00130846,0,
10,8.87259,0.583162,-0.0353335,0.00129599,0,
10,8.88646,0.571651,-0.0353406,0.00128213,0,
10,8.89886,0.560219,-0.0353467,0.00126721,0,
10,8.90995,0.548841,-0.0353519,0.0012515,0,
10,8.91986,0.537486,-0.0353563,0.00123521,0,
10,8.92872,0.526122,-0.0353601,0.00121848,0,
10,8.93663,0.514716,-0.0353633,0.00120139,0,
10,8.94369,0.503229,-0.035366,0.00118397,0,
10,8.95,0.491621,-0.0353683,0.00116618,0,
10,8.95564,0.479848,-0.0353702,0.00114792,0,
10,8.96067,0.467863,-0.0353718,0.00112905,0,
10,8.96517,0.455612,-0.0353732,0.00110932,0,
10,8.96918,0.443036,-0.0353742,0.00108841,0,
10,8.97276,0.430069,-0.0353752,0.0010659,0,
10,8.97596,0.416635,-0.0353759,0.00104125,0,
10,8.97882,0.402644,-0.0353767,0.00101375,0,
10,8.98137,0.387996,-0.0353771,0.000982512,0,
10,8.98365,0.372568,-0.0353777,0.000946381,0,
10,8.98569,0.35622,-0.0353778,0.000904245,0,
10,8.9875,0.338773,-0.0353783,0.000853176,0,
10,8.98913,0.319985,-0.0353783,0.000788517,0,
10,8.99058,0.29962,-0.0353788,0.000711812,0,
10,8.99188,0.277516,-0.0353786,0.000621553,0,
10,8.99304,0.253514,-0.0353791,0.000511665,0,
10,8.99408,0.227431,-0.0353788,0.000376529,0,
10,8.99501,0.199461,-0.0353793,0.000242573,0,
10,8.99583,0.170535,-0.0353789,0.000130202,0,
10,8.99658,0.141988,-0.0353794,5.65208e-05,0,
10,8.99724,0.11504,-0.0353789,1.96478e-05,0,
10,8.99784,0.0903637,-0.0353795,5.41828e-06,0,
10,8.99837,0.0681133,-0.0353789,1.13822e-06,0,
10,8.99885,0.0481661,-0.0353796,1.6316e-07,0,
10,8.99927,0.0303094,-0.0353789,1.23903e-08,0,
10,8.99966,0.0143238,-0.0353797,2.74181e-10,0,
10,9,0,-0.0353788,0,0,

0.0416667,0,0,-0.233947,0,3.19752e-06,
0.0833333,0,0,-0.234113,0,5.33307e-06,
0.125,0,0,-0.234047,0,6.89863e-06,
0.166667,0,0,-0.234099,0,1.13925e-05,
0.208333,0,0,-0.234108,0,1.59579e-05,
0.25,0,0,-0.234157,0,2.08949e-05,
0.291667,0,0,-0.234201,0,2.5253e-05,
0.333333,0,0,-0.234264,0,2.9059e-05,
0.375,0,0,-0.23433,0,3.22413e-05,
0.416667,0,0,-0.234404,0,3.52198e-05,
0.458333,0,0,-0.234486,0,3.84249e-05,
0.5,0,0,-0.234579,0,4.2341e-05,
0.541667,0,0,-0.234687,0,4.73106e-05,
0.583333,0,0,-0.234812,0,5.34991e-05,
0.625,0,0,-0.234959,0,6.08421e-05,
0.666667,0,0,-0.23513,0,6.90453e-05,
0.708333,0,0,-0.235328,0,7.76204e-05,
0.75,0,0,-0.235549,0,8.59463e-05,
0.791667,0,0,-0.235793,0,9.33677e-05,
0.833333,0,0,-0.236057,0,9.93012e-05,
0.875,0,0,-0.236337,0,0.000103397,
0.916667,0,0,-0.236635,0,0.000105543,
0.958333,0,0,-0.236962,0,0.000105634,
1,0,0,-0.237336,0,0.000103236,
1.04167,0,0,-0.237783,0,9.7241e-05,
1.08333,0,0,-0.238331,0,8.57266e-05,
1.125,0,0,-0.239009,0,6.6074e-05,
1.16667,0,0,-0.239831,0,3.55017e-05,
1.20833,0,0,-0.240797,0,-8.05985e-06,
1.25,0,0,-0.241889,0,-6.51671e-05,
1.29167,0,0,-0.243073,0,-0.000134499,
1.33333,0,0,-0.244306,0,-0.000213151,
1.375,0,0,-0.245543,0,-0.000297458,
1.41667,0,0,-0.246745,0,-0.000383928,
1.45833,0,0,-0.24788,0,-0.000469909,
1.5,0,0,-0.248924,0,-0.000553782,
1.54167,0,0,-0.249858,0,-0.0006348,
1.58333,0,0,-0.250673,0,-0.000712767,
1.625,0,0,-0.251358,0,-0.000787746,
1.66667,0,0,-0.251909,0,-0.000859876,
1.70833,0,0,-0.252319,0,-0.000929282,
1.75,0,0,-0.252584,0,-0.00099604,
1.79167,0,0,-0.2527,0,-0.00106018,
1.83333,0,0,-0.252666,0,-0.00112171,
1.875,0,0,-0.252478,0,-0.00118058,
1.91667,0,0,-0.252136,0,-0.00123678,
1.95833,0,0,-0.251638,0,-0.00129026,
2,0,0,-0.250986,0,-0.001341,
2.04167,0,0,-0.250179,0,-0.00138898,
2.08333,0,0,-0.24922,0,-0.00143421,
2.125,0,0,-0.248111,0,-0.00147669,
2.16667,0,0,-0.246855,0,-0.00151645,
2.20833,0,0,-0.245453,0,-0.00155348,
2.25,0,0,-0.243909,0,-0.00158781,
2.29167,0,0,-0.242228,0,-0.00161946,
2.33333,0,0,-0.240412,0,-0.00164845,
2.375,0,0,-0.238466,0,-0.00167479,
2.41667,0,0,-0.236394,0,-0.00169853,
2.45833,0,0,-0.234201,0,-0.00171968,
2.5,0,0,-0.231891,0,-0.00173829,
2.54167,0,0,-0.229469,0,-0.0017544,
2.58333,0,0,-0.22694,0,-0.00176806,
2.625,0,0,-0.224309,0,-0.00177932,
2.66667,0,0,-0.221582,0,-0.00178824,
2.70833,0,0,-0.218763,0,-0.00179485,
2.75,0,0,-0.215858,0,-0.00179922,
2.79167,0,0,-0.212872,0,-0.00180139,
2.83333,0,0,-0.209812,0,-0.00180144,
2.875,0,0,-0.206682,0,-0.00179943,
2.91667,0,0,-0.203489,0,-0.00179543,
2.95833,0,0,-0.200237,0,-0.00178952,
3,0,0,-0.196933,0,-0.00178177,
3.04167,0,0,-0.19358,0,-0.00177225,
3.08333,0,0,-0.190185,0,-0.00176102,
3.125,0,0,-0.186752,0,-0.00174817,
3.16667,0,0,-0.183286,0,-0.00173375,
3.20833,0,0,-0.179792,0,-0.00171785,
3.25,0,0,-0.176274,0,-0.00170052,
3.29167,0,0,-0.172737,0,-0.00168184,
3.33333,0,0,-0.169184,0,-0.00166187,
3.375,0,0,-0.16562,0,-0.00164068,
3.41667,0,0,-0.162048,0,-0.00161833,
3.45833,0,0,-0.158472,0,-0.00159488,
3.5,0,0,-0.154895,0,-0.0015704,
3.54167,0,0,-0.151321,0,-0.00154493,
3.58333,0,0,-0.147752,0,-0.00151852,
3.625,0,0,-0.144192,0,-0.00149123,
3.66667,0,0,-0.140643,0,-0.00146311,
3.70833,0,0,-0.137108,0,-0.00143421,
3.75,0,0,-0.133588,0,-0.00140457,
3.79167,0,0,-0.130087,0,-0.00137423,
3.83333,0,0,-0.126605,0,-0.00134325,
3.875,0,0,-0.123146,0,-0.00131166,
3.91667,0,0,-0.11971,0,-0.0012795,
3.95833,0,0,-0.116299,0,-0.0012468,
4,0,0,-0.112915,0,-0.0012136,
4.04167,0,0,-0.109559,0,-0.00117994,
4.08333,0,0,-0.106232,0,-0.00114583,
4.125,0,0,-0.102934,0,-0.0011113,
4.16667,0,0,-0.0996682,0,-0.00107637,
4.20833,0,0,-0.0964342,0,-0.00104107,
4.25,0,0,-0.0932329,0,-0.00100542,
4.29167,0,0,-0.0900654,0,-0.000969428,
4.33333,0,0,-0.0869322,0,-0.000933123,
4.375,0,0,-0.0838339,0,-0.00089652,
4.41667,0,0,-0.0807712,0,-0.000859636,
4.45833,0,0,-0.0777444,0,-0.000822483,
4.5,0,0,-0.0747542,0,-0.000785075,
4.54167,0,0,-0.0718008,0,-0.000747426,
4.58333,0,0,-0.0688848,0,-0.000709553,
4.625,0,0,-0.0660064,0,-0.000671469,
4.66667,0,0,-0.0631659,0,-0.000633184,
4.70833,0,0,-0.0603636,0,-0.000594706,
4.75,0,0,-0.0575996,0,-0.000556037,
4.79167,0,0,-0.0548744,0,-0.000517177,
4.83333,0,0,-0.0521883,0,-0.000478126,
4.875,0,0,-0.0495417,0,-0.000438884,
4.91667,0,0,-0.0469352,0,-0.000399446,
4.95833,0,0,-0.0443695,0,-0.00035981,
5,0,0,-0.0418454,0,-0.000319979,
5.04167,0,0,-0.0393643,0,-0.000279972,
5.08333,0,0,-0.0369278,0,-0.000239842,
5.125,0,0,-0.0345376,0,-0.000199683,
5.16667,0,0,-0.0321949,0,-0.000159617,
5.20833,0,0,-0.0298999,0,-0.000119747,
5.25,0,0,-0.0276517,0,-8.01157e-05,
5.29167,0,0,-0.0254497,0,-4.07194e-05,
5.33333,0,0,-0.0232929,0,-1.53588e-06,
5.375,0,0,-0.021181,0,3.74551e-05,
5.41667,0,0,-0.0191134,0,7.62633e-05,
5.45833,0,0,-0.0170898,0,0.000114895,
5.5,0,0,-0.01511,0,0.000153352,
5.54167,0,0,-0.0131739,0,0.000191633,
5.58333,0,0,-0.0112813,0,0.000229734,
5.625,0,0,-0.00943212,0,0.000267652,
5.66667,0,0,-0.00762644,0,0.000305378,
5.70833,0,0,-0.00586425,0,0.000342904,
5.75,0,0,-0.00414561,0,0.000380221,
5.79167,0,0,-0.00247059,0,0.000417317,
5.83333,0,0,-0.000839301,0,0.000454178,
5.875,0,0,0.000748122,0,0.000490789,
5.91667,0,0,0.00229156,0,0.000527135,
5.95833,0,0,0.00379086,0,0.000563199,
6,0,0,0.00524587,0,0.000598962,
6.04167,0,0,0.00665644,0,0.000634406,
6.08333,0,0,0.00802243,0,0.000669511,
6.125,0,0,0.00934374,0,0.000704255,
6.16667,0,0,0.0106202,0,0.000738617,
6.20833,0,0,0.0118519,0,0.000772578,
6.25,0,0,0.0130386,0,0.000806116,
6.29167,0,0,0.0141804,0,0.00083921,
6.33333,0,0,0.0152772,0,0.00087184,
6.375,0,0,0.0163291,0,0.000903984,
6.41667,0,0,0.0173361,0,0.000935622,
6.45833,0,0,0.0182982,0,0.000966735,
6.5,0,0,0.0192157,0,0.000997301,
6.54167,0,0,0.0200885,0,0.0010273,
6.58333,0,0,0.0209167,0,0.00105671,
6.625,0,0,0.0217005,0,0.00108552,
6.66667,0,0,0.0224401,0,0.0011137,
6.70833,0,0,0.0231355,0,0.00114123,
6.75,0,0,0.0237871,0,0.0011681,
6.79167,0,0,0.024395,0,0.00119429,
6.83333,0,0,0.0249595,0,0.00121979,
6.875,0,0,0.0254808,0,0.00124458,
6.91667,0,0,0.0259593,0,0.00126865,
6.95833,0,0,0.0263954,0,0.00129199,
7,0,0,0.0267895,0,0.00131459,
7.04167,0,0,0.0271421,0,0.00133644,
7.08333,0,0,0.0274535,0,0.00135751,
7.125,0,0,0.027724,0,0.0013778,
7.16667,0,0,0.0279542,0,0.00139727,
7.20833,0,0,0.0281445,0,0.00141593,
7.25,0,0,0.0282954,0,0.00143375,
7.29167,0,0,0.0284074,0,0.00145075,
7.33333,0,0,0.0284811,0,0.00146691,
7.375,0,0,0.0285169,0,0.00148225,
7.41667,0,0,0.0285155,0,0.00149677,
7.45833,0,0,0.0284772,0,0.00151047,
7.5,0,0,0.0284026,0,0.00152335,
7.54167,0,0,0.0282921,0,0.00153543,
7.58333,0,0,0.0281462,0,0.0015467,
7.625,0,0,0.0279652,0,0.00155718,
7.66667,0,0,0.0277496,0,0.00156688,
7.70833,0,0,0.0274996,0,0.00157579,
7.75,0,0,0.0272157,0,0.00158394,
7.79167,0,0,0.0268982,0,0.00159134,
7.83333,0,0,0.0265466,0,0.00159797,
7.875,0,0,0.0261609,0,0.00160392,
7.91667,0,0,0.0257531,0,0.00160989,
7.95833,0,0,0.0252419,0,0.00161416,
8,0,0,0.0248242,0,0.00161821,
8.04171,0,0,0.0244181,0,0.00162258,
8.08368,0,0,0.0238426,0,0.00162605,
8.12617,0,0,0.0232854,0,0.00162676,
8.16946,0,0,0.0226849,0,0.00162664,
8.21382,0,0,0.0220294,0,0.00162562,
8.25952,0,0,0.0213217,0,0.00162362,
8.30685,0,0,0.0205545,0,0.00162074,
8.35611,0,0,0.0197199,0,0.00161699,
8.40762,0,0,0.0188097,0,0.00161234,
8.46168,0,0,0.0178144,0,0.00160676,
8.51865,0,0,0.0167235,0,0.00160018,
8.57889,0,0,0.0155256,0,0.00159256,
8.64276,0,0,0.0142084,0,0.00158384,
8.71067,0,0,0.012759,0,0.00157399,
8.78306,0,0,0.0111643,0,0.00156302,
8.86037,0,0,0.00941096,0,0.001551,
8.94309,0,0,0.00748657,0,0.00153804,
9.03174,0,0,0.00538032,0,0.00152432,
9.12689,0,0,0.00308439,0,0.0015101,
9.22912,0,0,0.000595188,0,0.0014957,
9.33908,0,0,-0.00208585,0,0.00148149,
9.45746,0,0,-0.00495239,0,0.00146783,
9.58501,0,0,-0.00799495,0,0.00145499,
9.72253,0,0,-0.0112002,0,0.00144295,
9.87088,0,0,-0.0145331,0,0.00143143,
10.031,0,0,-0.0178936,0,0.00142021,
10.2039,0,0,-0.0210648,0,0.00140971,
10.3906,0,0,-0.0236678,0,0.00140181,
10.5924,0,0,-0.0251395,0,0.00140063,
10.8105,0,0,-0.0247966,0,0.00141271,
11.0463,0,0,-0.0220419,0,0.00144571,
11.3012,0,0,-0.0166748,0,0.00150518,
11.5769,0,0,-0.00912197,0,0.00159105,
11.8751,0,0,-0.00039077,0,0.00169613,
12.1977,0,0,0.00825324,0,0.00180819,
12.5466,0,0,0.0156903,0,0.00191425,
12.9242,0,0,0.0212108,0,0.00200442,
13.3327,0,0,0.0245781,0,0.00207378,
13.7748,0,0,0.0259357,0,0.00212218,
14.2532,0,0,0.0256641,0,0.00215309,
14.7709,0,0,0.0242484,0,0.00217172,
15.3312,0,0,0.0221818,0,0.00218208,
15.9377,0,0,0.019882,0,0.0021877,
16.594,0,0,0.0176309,0,0.00219153,
17.3044,0,0,0.0155744,0,0.00219525,
18.0733,0,0,0.0137745,0,0.00219916,
18.9056,0,0,0.0122566,0,0.00220269,
19.8064,0,0,0.0110209,0,0.00220559,
20.7816,0,0,0.010035,0,0.00220831,
21.8371,0,0,0.00924306,0,0.00221117,
22.9796,0,0,0.00859555,0,0.00221404,
24.2163,0,0,0.00805409,0,0.00221783,
25.5551,0,0,0.00757942,0,0.00222297,
27.0042,0,0,0.00713176,0,0.00222933,
28.5729,0,0,0.00668084,0,0.00223687,
30.271,0,0,0.00620713,0,0.00224644,
32.1091,0,0,0.00569585,0,0.00225705,
34.0989,0,0,0.00513355,0,0.00226826,
36.2529,0,0,0.00450184,0,0.00227916,
38.5845,0,0,0.00379124,0,0.00228839,
41.1085,0,0,0.00303414,0,0.00229713,
43.8407,0,0,0.00206631,0,0.00230458,
46.7983,0,0,0.00107356,0,0.00231146,
50,0,0,0.00214732,0,0.00232901,

