b0c999b7652d68ce200cec1df55cd399d4083054 
X,Z,x_velocity,cp,uw_b,cf,
1,0,0,-0.225002,0,0,
1,9,0,-0.130585,0,0,
1,8.99969,0.0154127,-0.130584,2.86385e-10,0,
1,8.99934,0.0328985,-0.130584,1.33863e-08,0,
1,8.99894,0.052754,-0.130584,1.84651e-07,0,
1,8.99848,0.0752932,-0.130584,1.35362e-06,0,
1,8.99797,0.100829,-0.130584,6.76533e-06,0,
1,8.99739,0.129557,-0.130584,2.56053e-05,0,
1,8.99672,0.161283,-0.130584,7.58472e-05,0,
1,8.99597,0.195069,-0.130584,0.000176304,0,
1,8.99512,0.229262,-0.130584,0.000324916,0,
1,8.99416,0.262206,-0.130584,0.000493122,0,
1,8.99306,0.292926,-0.130584,0.000651489,0,
1,8.99182,0.321249,-0.130583,0.000778964,0,
1,8.99041,0.347314,-0.130583,0.000884542,0,
1,8.98881,0.371281,-0.130583,0.000971726,0,
1,8.98699,0.393367,-0.130582,0.00104285,0,
1,8.98494,0.41386,-0.130581,0.00109881,0,
1,8.98261,0.43307,-0.13058,0.00114156,0,
1,8.97996,0.451238,-0.130579,0.00117739,0,
1,8.97696,0.468536,-0.130578,0.00120707,0,
1,8.97356,0.485106,-0.130577,0.00123187,0,
1,8.9697,0.501066,-0.130575,0.00125276,0,
1,8.96533,0.516515,-0.130574,0.00127045,0,
1,8.96038,0.531535,-0.130572,0.00128546,0,
1,8.95476,0.546196,-0.130569,0.00129815,0,
1,8.9484,0.560558,-0.130567,0.00130879,0,
1,8.9412,0.57467,-0.130564,0.00131754,0,
1,8.93303,0.588577,-0.130561,0.00132452,0,
1,8.92379,0.602314,-0.130558,0.00132978,0,
1,8.91333,0.615913,-0.130555,0.00133332,0,
1,8.90149,0.629403,-0.130552,0.00133513,0,
1,8.8881,0.642808,-0.130549,0.00133514,0,
1,8.87295,0.65615,-0.130546,0.00133329,0,
1,8.85584,0.669448,-0.130544,0.00132947,0,
1,8.83651,0.682721,-0.130542,0.00132358,0,
1,8.81469,0.69599,-0.130542,0.00131549,0,
1,8.79007,0.709273,-0.130543,0.00130503,0,
1,8.76232,0.722593,-0.130547,0.00129202,0,
1,8.73107,0.735974,-0.130555,0.00127623,0,
1,8.69591,0.749447,-0.130567,0.00125739,0,
1,8.6564,0.763047,-0.130584,0.00123514,0,
1,8.61206,0.776821,-0.13061,0.00120908,0,
1,8.56236,0.790825,-0.130645,0.00117887,0,
1,8.50675,0.805137,-0.130694,0.00114576,0,
1,8.44464,0.819898,-0.13076,0.00110491,0,
1,8.3754,0.835328,-0.130846,0.00105333,0,
1,8.29839,0.851671,-0.130959,0.000990099,0,
1,8.21296,0.869171,-0.131106,0.00091072,0,
1,8.11843,0.888019,-0.131292,0.000809971,0,
1,8.01417,0.908215,-0.131532,0.000684406,0,
1,7.89956,0.929313,-0.13182,0.000537486,0,
1,7.77403,0.950186,-0.132196,0.000387741,0,
1,7.63711,0.969221,-0.132647,0.000204362,0,
1,7.48842,0.984093,-0.133179,7.56544e-05,0,
1,7.32773,0.992872,-0.133818,1.80881e-05,0,
1,7.15495,0.996049,-0.13456,1.78259e-06,0,
1,6.97022,0.996102,-0.135421,2.29564e-08,0,
1,6.77388,0.995485,-0.136415,3.70253e-09,0,
1,6.56652,0.995369,-0.137557,9.69999e-09,0,
1,6.34896,0.995825,-0.138861,1.24759e-08,0,
1,6.12229,0.996553,-0.140341,1.40706e-08,0,
1,5.88784,0.997352,-0.14201,1.4905e-08,0,
1,5.64716,0.998186,-0.14388,1.58582e-08,0,
1,5.40194,0.999086,-0.145961,1.71882e-08,0,
1,5.15407,1.00008,-0.148259,1.88859e-08,0,
1,4.90545,1.00117,-0.150776,2.06596e-08,0,
1,4.65805,1.00237,-0.153508,2.25406e-08,0,
1,4.41376,1.00366,-0.156447,2.44982e-08,0,
1,4.17441,1.00503,-0.159579,2.63008e-08,0,
1,3.94163,1.00642,-0.162882,2.77874e-08,0,
1,3.7169,1.00779,-0.166329,2.9576e-08,0,
1,3.50146,1.00921,-0.169886,3.36131e-08,0,
1,3.29629,1.01099,-0.173519,4.1911e-08,0,
1,3.10217,1.0135,-0.177198,5.25741e-08,0,
1,2.91959,1.01653,-0.180892,9.63962e-08,0,
1,2.74885,1.01862,-0.184559,9.15142e-07,0,
1,2.59002,1.01735,-0.188138,-6.67247e-06,0,
1,2.44299,1.01102,-0.191566,-5.3884e-05,0,
1,2.30752,0.999846,-0.194778,-0.000153169,0,
1,2.18321,0.9853,-0.197719,-0.000290307,0,
1,2.06959,0.968964,-0.200423,-0.000408659,0,
1,1.9661,0.952108,-0.20287,-0.000511377,0,
1,1.87215,0.935654,-0.20503,-0.000607207,0,
1,1.78711,0.920109,-0.206939,-0.000691603,0,
1,1.71033,0.905627,-0.208614,-0.000764483,0,
1,1.64119,0.892173,-0.210078,-0.000827371,0,
1,1.57905,0.879636,-0.211353,-0.000882425,0,
1,1.52332,0.867886,-0.21246,-0.0009319,0,
1,1.47342,0.856814,-0.213422,-0.000977901,0,
1,1.42882,0.846331,-0.214237,-0.0010096,0,
1,1.389,0.836352,-0.214923,-0.00103455,0,
1,1.35351,0.826813,-0.215514,-0.0010577,0,
1,1.3219,0.817681,-0.216017,-0.00107833,0,
1,1.29378,0.808936,-0.216446,-0.00109625,0,
1,1.26878,0.800568,-0.216812,-0.00111154,0,
1,1.24659,0.792575,-0.217123,-0.00112461,0,
1,1.22689,0.784948,-0.217388,-0.0011356,0,
1,1.2092,0.777601,-0.217616,-0.00114349,0,
1,1.1932,0.770483,-0.217813,-0.00114898,0,
1,1.1787,0.76358,-0.217984,-0.00115272,0,
1,1.16554,0.756871,-0.218131,-0.00115558,0,
1,1.15357,0.750325,-0.218258,-0.00115937,0,
1,1.14266,0.743899,-0.218367,-0.00116735,0,
1,1.13268,0.737525,-0.218461,-0.00118364,0,
1,1.12354,0.731112,-0.218542,-0.00121398,0,
1,1.11514,0.724539,-0.218614,-0.00126537,0,
1,1.10739,0.717658,-0.21868,-0.00134562,0,
1,1.10022,0.710298,-0.218743,-0.00146259,0,
1,1.09357,0.702286,-0.218807,-0.00162298,0,
1,1.08738,0.693478,-0.218876,-0.00183087,0,
1,1.0816,0.683795,-0.21895,-0.00208622,0,
1,1.07618,0.673246,-0.219031,-0.00238408,0,
1,1.07107,0.661932,-0.219119,-0.00271498,0,
1,1.06626,0.650017,-0.219213,-0.00306675,0,
1,1.06169,0.637692,-0.219312,-0.00342683,0,
1,1.05735,0.625142,-0.219415,-0.00378423,0,
1,1.05321,0.612524,-0.21952,-0.00413046,0,
1,1.04925,0.59996,-0.219628,-0.00445974,0,
1,1.04544,0.587538,-0.219737,-0.00476851,0,
1,1.04177,0.575319,-0.219846,-0.00505498,0,
1,1.03822,0.563339,-0.219955,-0.00531856,0,
1,1.03478,0.551619,-0.220064,-0.00555946,0,
1,1.03144,0.540168,-0.220172,-0.00577838,0,
1,1.02818,0.528986,-0.220279,-0.00597631,0,
1,1.025,0.518067,-0.220386,-0.00615436,0,
1,1.02188,0.507402,-0.220492,-0.00631368,0,
1,1.01882,0.496982,-0.220597,-0.0064554,0,
1,1.01581,0.486794,-0.220701,-0.00658076,0,
1,1.01284,0.476826,-0.220804,-0.00669032,0,
1,1.00988,0.466959,-0.220907,-0.00678593,0,
1,1.00688,0.457077,-0.221012,-0.00686968,0,
1,1.00384,0.447172,-0.221119,-0.0069419,0,
1,1.00076,0.437232,-0.221226,-0.00700176,0,
1,0.997615,0.427239,-0.221335,-0.00704925,0,
1,0.99441,0.417172,-0.221445,-0.00708406,0,
1,0.991131,0.407007,-0.221557,-0.00710632,0,
1,0.987768,0.396717,-0.221669,-0.0071159,0,
1,0.984308,0.386274,-0.221784,-0.00711247,0,
1,0.980739,0.375646,-0.2219,-0.00709556,0,
1,0.977045,0.3648,-0.222018,-0.00706455,0,
1,0.973211,0.353699,-0.222138,-0.00701869,0,
1,0.969219,0.342302,-0.22226,-0.00695702,0,
1,0.965047,0.330567,-0.222384,-0.00687841,0,
1,0.960675,0.318444,-0.222511,-0.00678146,0,
1,0.956077,0.305881,-0.22264,-0.0066638,0,
1,0.951224,0.292822,-0.222771,-0.00652396,0,
1,0.946088,0.279212,-0.222906,-0.00635976,0,
1,0.940633,0.265005,-0.223044,-0.00617007,0,
1,0.934823,0.250161,-0.223184,-0.00595232,0,
1,0.928616,0.234646,-0.223328,-0.00570378,0,
1,0.921967,0.218432,-0.223474,-0.00542222,0,
1,0.914826,0.201506,-0.223623,-0.00510566,0,
1,0.907141,0.183866,-0.223772,-0.00475261,0,
1,0.898852,0.165537,-0.223921,-0.00436239,0,
1,0.889898,0.146577,-0.224069,-0.00393561,0,
1,0.880212,0.127097,-0.224215,-0.00347478,0,
1,0.869723,0.107288,-0.22436,-0.00298547,0,
1,0.858358,0.0874627,-0.224503,-0.00247814,0,
1,0.846039,0.0681258,-0.224647,-0.00197142,0,
1,0.83269,0.0500294,-0.224796,-0.00149552,0,
1,0.818232,0.0341257,-0.224951,-0.00109128,0,
1,0.802744,0.0213073,-0.225105,-0.000784513,0,
1,0.78635,0.0117402,-0.22527,-0.000568876,0,
1,0.768969,0.00477864,-0.225433,-0.000428273,0,
1,0.75053,-0.000424112,-0.225592,-0.000343988,0,
1,0.730977,-0.00458293,-0.225736,-0.000298304,0,
1,0.710271,-0.0081909,-0.225866,-0.000276984,0,
1,0.688397,-0.0115519,-0.225977,-0.000270305,0,
1,0.66536,-0.0148431,-0.226072,-0.000271199,0,
1,0.641194,-0.0181708,-0.22615,-0.000274412,0,
1,0.615961,-0.0215913,-0.226211,-0.000276856,0,
1,0.589754,-0.0251195,-0.226255,-0.000276464,0,
1,0.562692,-0.0287397,-0.22628,-0.000272186,0,
1,0.534925,-0.0324128,-0.226284,-0.000263669,0,
1,0.506624,-0.0360842,-0.226265,-0.000251025,0,
1,0.477982,-0.0396891,-0.226223,-0.000234625,0,
1,0.449206,-0.043158,-0.226157,-0.000214979,0,
1,0.420509,-0.0464189,-0.226067,-0.000192647,0,
1,0.392107,-0.0494002,-0.225957,-0.000168186,0,
1,0.364206,-0.052031,-0.22583,-0.000142118,0,
1,0.337003,-0.0542421,-0.22569,-0.000114899,0,
1,0.310673,-0.0559661,-0.225544,-8.69371e-05,0,
1,0.28537,-0.0571384,-0.225398,-5.86059e-05,0,
1,0.26122,-0.0576988,-0.225257,-3.02837e-05,0,
1,0.238324,-0.0575946,-0.225127,-2.41029e-06,0,
1,0.21675,-0.0567863,-0.225013,2.4461e-05,0,
1,0.196544,-0.055254,-0.22492,4.9644e-05,0,
1,0.177724,-0.0530053,-0.224848,7.2354e-05,0,
1,0.160284,-0.0500809,-0.224797,9.17966e-05,0,
1,0.144202,-0.0465572,-0.224768,0.000107286,0,
1,0.129436,-0.0425429,-0.224757,0.000118353,0,
1,0.115935,-0.0381709,-0.22476,0.000124801,0,
1,0.103636,-0.0335862,-0.224774,0.000126766,0,
1,0.0924701,-0.0289322,-0.224796,0.000124659,0,
1,0.0823633,-0.0243389,-0.224822,0.00011908,0,
1,0.0732406,-0.019913,-0.224849,0.000110726,0,
1,0.0650269,-0.0157325,-0.224876,0.000100308,0,
1,0.057648,-0.0118467,-0.224901,8.84975e-05,0,
1,0.0510323,-0.00827841,-0.224924,7.58899e-05,0,
1,0.0451115,-0.00503086,-0.224943,6.30204e-05,0,
1,0.0398209,-0.00209449,-0.22496,5.04032e-05,0,
1,0.0351001,0.000541907,-0.224973,3.86984e-05,0,
1,0.0308929,0.00288436,-0.224983,2.78961e-05,0,
1,0.0271475,0.00492783,-0.22499,1.83883e-05,0,
1,0.0238164,0.0066443,-0.224995,1.06569e-05,0,
1,0.0208562,0.00798422,-0.224998,5.16901e-06,0,
1,0.0182274,0.00889749,-0.225,1.9437e-06,0,
1,0.0158944,0.0093689,-0.225001,4.41129e-07,0,
1,0.0138249,0.00943794,-0.225001,-7.7695e-08,0,
1,0.0119898,0.0091846,-0.225002,-1.72832e-07,0,
1,0.0103632,0.00870005,-0.225002,-1.37318e-07,0,
1,0.00892169,0.00806519,-0.225002,-8.47292e-08,0,
1,0.00764438,0.00734321,-0.225002,-4.58333e-08,0,
1,0.00651264,0.00658018,-0.225002,-2.26219e-08,0,
1,0.00550983,0.00580854,-0.225002,-1.03318e-08,0,
1,0.00462115,0.0050504,-0.225002,-4.37361e-09,0,
1,0.00383341,0.00432045,-0.225002,-1.70435e-09,0,
1,0.0031349,0.00362786,-0.225002,-6.02297e-10,0,
1,0.00251518,0.00297793,-0.225002,-1.88134e-10,0,
1,0.00196502,0.00237307,-0.225002,-4.98006e-11,0,
1,0.00147619,0.00181374,-0.225002,-1.04013e-11,0,
1,0.00104139,0.00129897,-0.225002,-1.5052e-12,0,
1,0.000654158,0.000826868,-0.225002,-1.16057e-13,0,
1,0.000308731,0.000394916,-0.225002,-2.61581e-15,0,

4,0,0,-0.169003,0,0,
4,9,0,-0.100296,0,0,
4,8.99969,0.0142873,-0.100296,2.25195e-10,0,
4,8.99934,0.03044,-0.100296,1.04479e-08,0,
4,8.99894,0.04872,-0.100296,1.42663e-07,0,
4,8.9985,0.0694045,-0.100296,1.03547e-06,0,
4,8.99799,0.0927751,-0.100296,5.13898e-06,0,
4,8.99742,0.119034,-0.100296,1.94537e-05,0,
4,8.99677,0.148095,-0.100296,5.83545e-05,0,
4,8.99605,0.179275,-0.100296,0.000139341,0,
4,8.99522,0.211216,-0.100295,0.000266191,0,
4,8.99429,0.242373,-0.100295,0.000418572,0,
4,8.99324,0.271685,-0.100295,0.000568516,0,
4,8.99205,0.298773,-0.100295,0.00069806,0,
4,8.9907,0.323715,-0.100294,0.000802223,0,
4,8.98919,0.346686,-0.100294,0.00088997,0,
4,8.98747,0.36787,-0.100293,0.000962942,0,
4,8.98553,0.387538,-0.100292,0.00102041,0,
4,8.98334,0.40597,-0.100291,0.00106665,0,
4,8.98087,0.423383,-0.10029,0.00110569,0,
4,8.97807,0.439949,-0.100289,0.00113881,0,
4,8.97491,0.455806,-0.100287,0.0011673,0,
4,8.97134,0.471075,-0.100285,0.00119214,0,
4,8.96731,0.485855,-0.100283,0.00121406,0,
4,8.96276,0.500231,-0.10028,0.00123357,0,
4,8.95762,0.514276,-0.100277,0.00125105,0,
4,8.95182,0.528051,-0.100274,0.00126675,0,
4,8.94526,0.541609,-0.10027,0.00128081,0,
4,8.93787,0.554997,-0.100266,0.00129332,0,
4,8.92952,0.568254,-0.100261,0.00130428,0,
4,8.92011,0.581414,-0.100256,0.00131365,0,
4,8.90949,0.594506,-0.10025,0.00132134,0,
4,8.89751,0.607554,-0.100243,0.00132722,0,
4,8.88402,0.62058,-0.100237,0.00133114,0,
4,8.86881,0.633602,-0.100229,0.00133294,0,
4,8.85169,0.646634,-0.100222,0.00133243,0,
4,8.83242,0.65969,-0.100214,0.00132945,0,
4,8.81074,0.672781,-0.100207,0.00132379,0,
4,8.78637,0.685919,-0.100199,0.00131529,0,
4,8.75901,0.699116,-0.100193,0.00130375,0,
4,8.7283,0.712389,-0.100188,0.00128899,0,
4,8.69387,0.725755,-0.100185,0.00127079,0,
4,8.65533,0.739238,-0.100185,0.0012489,0,
4,8.61222,0.75287,-0.100189,0.001223,0,
4,8.56407,0.766692,-0.100198,0.00119273,0,
4,8.5104,0.780758,-0.100215,0.00115801,0,
4,8.45065,0.795148,-0.10024,0.0011202,0,
4,8.38429,0.81002,-0.100279,0.00107229,0,
4,8.31073,0.825605,-0.100334,0.00101488,0,
4,8.22941,0.842164,-0.100408,0.000944528,0,
4,8.13974,0.859958,-0.100506,0.000856877,0,
4,8.04115,0.879162,-0.100628,0.000748315,0,
4,7.93313,0.899665,-0.100782,0.000619118,0,
4,7.81519,0.920761,-0.100959,0.00047844,0,
4,7.68693,0.940983,-0.101186,0.000343692,0,
4,7.54803,0.958433,-0.101443,0.000202513,0,
4,7.39831,0.971223,-0.10175,8.89711e-05,0,
4,7.23771,0.978478,-0.102124,2.74584e-05,0,
4,7.06634,0.981149,-0.102553,4.54334e-06,0,
4,6.88453,0.981297,-0.103041,2.35399e-08,0,
4,6.69275,0.980762,-0.103589,-7.81235e-08,0,
4,6.49173,0.980473,-0.104206,2.68145e-08,0,
4,6.28238,0.98058,-0.104902,2.65995e-08,0,
4,6.06579,0.980921,-0.105685,1.51223e-08,0,
4,5.84328,0.981338,-0.106563,1.02686e-08,0,
4,5.61626,0.98177,-0.107541,9.03613e-09,0,
4,5.3863,0.982217,-0.108624,9.16791e-09,0,
4,5.15502,0.982696,-0.109817,9.85187e-09,0,
4,4.92406,0.983223,-0.111123,1.08212e-08,0,
4,4.69507,0.983807,-0.112542,1.19784e-08,0,
4,4.46961,0.984453,-0.114074,1.3179e-08,0,
4,4.24915,0.985143,-0.115717,1.4122e-08,0,
4,4.03501,0.985823,-0.117464,1.45223e-08,0,
4,3.82836,0.986423,-0.119308,1.46534e-08,0,
4,3.63018,0.986951,-0.121239,1.59477e-08,0,
4,3.44125,0.987591,-0.123245,2.14602e-08,0,
4,3.26217,0.988707,-0.125313,7.32958e-08,0,
4,3.09333,0.990586,-0.127427,6.40431e-07,0,
4,2.93497,0.993021,-0.129572,2.95078e-06,0,
4,2.78715,0.995131,-0.131729,5.71681e-06,0,
4,2.64979,0.99572,-0.133877,1.10534e-06,0,
4,2.52268,0.99387,-0.135991,-2.07524e-05,0,
4,2.40551,0.989274,-0.138046,-6.47815e-05,0,
4,2.29789,0.982204,-0.140017,-0.000129239,0,
4,2.19939,0.973269,-0.141887,-0.000207774,0,
4,2.10949,0.963169,-0.143642,-0.000292431,0,
4,2.02768,0.952539,-0.145279,-0.000375685,0,
4,1.95343,0.941889,-0.146795,-0.000451548,0,
4,1.88618,0.931589,-0.148191,-0.000517863,0,
4,1.82542,0.921819,-0.149477,-0.000563748,0,
4,1.77062,0.912637,-0.150655,-0.000601817,0,
4,1.72128,0.904092,-0.151724,-0.000635995,0,
4,1.67693,0.89621,-0.152694,-0.000666383,0,
4,1.63713,0.888989,-0.153573,-0.000693379,0,
4,1.60144,0.882404,-0.154367,-0.000717357,0,
4,1.56949,0.876425,-0.155083,-0.000738715,0,
4,1.54091,0.871012,-0.155727,-0.000757953,0,
4,1.51537,0.86611,-0.156307,-0.000775356,0,
4,1.49167,0.861526,-0.156846,-0.00079141,0,
4,1.46926,0.857166,-0.157358,-0.000806649,0,
4,1.44801,0.852997,-0.157853,-0.000816794,0,
4,1.42781,0.848978,-0.158331,-0.000823613,0,
4,1.40855,0.845088,-0.158788,-0.000829754,0,
4,1.39015,0.84131,-0.159227,-0.000834559,0,
4,1.37252,0.837631,-0.15965,-0.000838487,0,
4,1.3556,0.834034,-0.160059,-0.000842021,0,
4,1.3393,0.830501,-0.160454,-0.000845745,0,
4,1.32357,0.827014,-0.160837,-0.000850531,0,
4,1.30836,0.823554,-0.16121,-0.000857123,0,
4,1.29362,0.820097,-0.161572,-0.000866548,0,
4,1.2793,0.816617,-0.161925,-0.000880103,0,
4,1.26537,0.813081,-0.16227,-0.000899399,0,
4,1.25179,0.809452,-0.162608,-0.000926399,0,
4,1.23852,0.805684,-0.162938,-0.000963448,0,
4,1.22554,0.801725,-0.163262,-0.00101328,0,
4,1.21282,0.79751,-0.16358,-0.00107897,0,
4,1.20034,0.792969,-0.163891,-0.00116384,0,
4,1.18806,0.788026,-0.164197,-0.00127123,0,
4,1.17599,0.782602,-0.164497,-0.00140418,0,
4,1.16408,0.776623,-0.164791,-0.00156508,0,
4,1.15233,0.770031,-0.165079,-0.0017552,0,
4,1.14073,0.762786,-0.165361,-0.00197437,0,
4,1.12925,0.754875,-0.165637,-0.00222082,0,
4,1.11788,0.746314,-0.165908,-0.00249125,0,
4,1.10661,0.737141,-0.166173,-0.00278111,0,
4,1.09543,0.727413,-0.166433,-0.00308507,0,
4,1.08432,0.717198,-0.166688,-0.00339752,0,
4,1.07328,0.706569,-0.166938,-0.00371297,0,
4,1.0623,0.695598,-0.167183,-0.00402641,0,
4,1.05136,0.684353,-0.167423,-0.00433343,0,
4,1.04044,0.672876,-0.167659,-0.00463048,0,
4,1.0295,0.661201,-0.167891,-0.0049148,0,
4,1.01855,0.649373,-0.16812,-0.00518378,0,
4,1.00757,0.637433,-0.168345,-0.00543509,0,
4,0.996544,0.625416,-0.168566,-0.00566702,0,
4,0.98547,0.61335,-0.168784,-0.00587769,0,
4,0.974334,0.601263,-0.168997,-0.00606576,0,
4,0.963124,0.589176,-0.169208,-0.00622996,0,
4,0.951826,0.577109,-0.169413,-0.00636929,0,
4,0.940428,0.56508,-0.169622,-0.00649918,0,
4,0.928915,0.553045,-0.169801,-0.0066016,0,
4,0.917272,0.540858,-0.169936,-0.00666669,0,
4,0.905481,0.528375,-0.170061,-0.00673891,0,
4,0.893524,0.515515,-0.170183,-0.00681845,0,
4,0.881383,0.502224,-0.170307,-0.00690533,0,
4,0.869035,0.488464,-0.170433,-0.00699941,0,
4,0.856459,0.474201,-0.170562,-0.00710032,0,
4,0.843629,0.459404,-0.170696,-0.00720749,0,
4,0.830518,0.444049,-0.170833,-0.00732019,0,
4,0.817097,0.428115,-0.170973,-0.00743754,0,
4,0.803334,0.411584,-0.171115,-0.00755859,0,
4,0.789195,0.394445,-0.171258,-0.00768229,0,
4,0.774643,0.376685,-0.171402,-0.00780748,0,
4,0.759639,0.358298,-0.171545,-0.00793282,0,
4,0.744138,0.339281,-0.171689,-0.00805668,0,
4,0.728096,0.319639,-0.171832,-0.008177,0,
4,0.711463,0.29939,-0.171976,-0.00829143,0,
4,0.694189,0.278567,-0.172122,-0.0083969,0,
4,0.676218,0.257218,-0.172269,-0.00848916,0,
4,0.657495,0.235399,-0.172416,-0.00856366,0,
4,0.637962,0.213162,-0.172565,-0.00861612,0,
4,0.617561,0.190553,-0.172708,-0.0086431,0,
4,0.596848,0.168221,-0.172837,-0.00864134,0,
4,0.576557,0.14692,-0.172949,-0.0086103,0,
4,0.556564,0.126524,-0.173044,-0.00855126,0,
4,0.536763,0.106928,-0.173126,-0.00846497,0,
4,0.517057,0.0880883,-0.173209,-0.00835183,0,
4,0.497368,0.0700334,-0.17331,-0.00821277,0,
4,0.477632,0.0528688,-0.173456,-0.00805069,0,
4,0.457804,0.0367279,-0.173651,-0.00787132,0,
4,0.437857,0.0216741,-0.173898,-0.00768528,0,
4,0.417786,0.00755542,-0.173961,-0.00746106,0,
4,0.397605,-0.00600098,-0.173825,-0.00709847,0,
4,0.377348,-0.0192358,-0.173697,-0.00678474,0,
4,0.357066,-0.0321279,-0.17356,-0.00646778,0,
4,0.336828,-0.0446074,-0.173403,-0.0061455,0,
4,0.316717,-0.0565985,-0.173235,-0.00581628,0,
4,0.296825,-0.0680357,-0.173056,-0.0054805,0,
4,0.27725,-0.078869,-0.172867,-0.00514022,0,
4,0.258095,-0.0890628,-0.172671,-0.00479789,0,
4,0.239458,-0.0985956,-0.172468,-0.00445618,0,
4,0.221432,-0.107458,-0.17226,-0.00411782,0,
4,0.2041,-0.115654,-0.17205,-0.00378545,0,
4,0.187537,-0.123194,-0.171838,-0.0034615,0,
4,0.171798,-0.130099,-0.171626,-0.00314813,0,
4,0.156928,-0.136395,-0.171416,-0.00284719,0,
4,0.142956,-0.142113,-0.171209,-0.00256014,0,
4,0.129894,-0.147285,-0.171008,-0.0022881,0,
4,0.117744,-0.151946,-0.170814,-0.0020318,0,
4,0.106492,-0.15613,-0.170628,-0.00179166,0,
4,0.0961173,-0.15987,-0.170452,-0.0015678,0,
4,0.0865883,-0.163196,-0.170287,-0.00136006,0,
4,0.0778675,-0.166138,-0.170133,-0.00116808,0,
4,0.0699123,-0.168721,-0.169991,-0.000991333,0,
4,0.062677,-0.17097,-0.169861,-0.000829161,0,
4,0.056114,-0.172904,-0.169743,-0.00068081,0,
4,0.0501747,-0.174541,-0.169637,-0.000545474,0,
4,0.0448114,-0.175894,-0.169542,-0.000422318,0,
4,0.039977,-0.176973,-0.169458,-0.000310506,0,
4,0.0356266,-0.177785,-0.169384,-0.000209225,0,
4,0.0317171,-0.17833,-0.169319,-0.000117702,0,
4,0.0282081,-0.178606,-0.169263,-3.52258e-05,0,
4,0.0250617,-0.178602,-0.169214,3.88315e-05,0,
4,0.0222427,-0.178298,-0.169172,0.000104988,0,
4,0.0197189,-0.177667,-0.169137,0.000163613,0,
4,0.0174603,-0.176665,-0.169107,0.000214869,0,
4,0.0154398,-0.175227,-0.169083,0.000258613,0,
4,0.0136326,-0.173262,-0.169062,0.000294254,0,
4,0.0120162,-0.170638,-0.169046,0.000320524,0,
4,0.0105703,-0.16717,-0.169033,0.000335202,0,
4,0.00927657,-0.162609,-0.169024,0.000334956,0,
4,0.00811839,-0.156636,-0.169017,0.000315839,0,
4,0.0070809,-0.148914,-0.169012,0.000275357,0,
4,0.0061507,-0.139206,-0.169009,0.0002163,0,
4,0.00531578,-0.12757,-0.169007,0.000149347,0,
4,0.00456537,-0.114472,-0.169006,8.93021e-05,0,
4,0.00388979,-0.100655,-0.169006,4.6218e-05,0,
4,0.00328037,-0.0868384,-0.169005,2.08758e-05,0,
4,0.00272934,-0.0735031,-0.169005,8.27346e-06,0,
4,0.0022297,-0.0608819,-0.169004,2.85285e-06,0,
4,0.00177519,-0.0490422,-0.169005,8.29974e-07,0,
4,0.00136016,-0.0379655,-0.169004,1.9087e-07,0,
4,0.000979511,-0.0275955,-0.169005,3.05329e-08,0,
4,0.00062865,-0.0178618,-0.169004,2.60246e-09,0,
4,0.000303409,-0.00868931,-0.169005,6.33566e-11,0,

6,0,0,-0.0239372,0,0,
6,9,0,-0.0762189,0,0,
6,8.99969,0.0135341,-0.0762186,1.87473e-10,0,
6,8.99934,0.0287965,-0.0762188,8.65241e-09,0,
6,8.99895,0.0460253,-0.0762186,1.17308e-07,0,
6,8.9985,0.065472,-0.0762188,8.4542e-07,0,
6,8.99801,0.0873954,-0.0762185,4.17342e-06,0,
6,8.99744,0.111995,-0.0762187,1.57859e-05,0,
6,8.99681,0.139243,-0.0762185,4.77035e-05,0,
6,8.99609,0.16861,-0.0762185,0.00011593,0,
6,8.99529,0.198941,-0.0762183,0.000227108,0,
6,8.99438,0.228805,-0.0762183,0.000366616,0,
6,8.99336,0.257102,-0.076218,0.000508873,0,
6,8.9922,0.283338,-0.0762178,0.000636544,0,
6,8.9909,0.307515,-0.0762174,0.000739878,0,
6,8.98944,0.329792,-0.076217,0.000826782,0,
6,8.98779,0.350341,-0.0762164,0.000899864,0,
6,8.98593,0.369411,-0.0762158,0.00095775,0,
6,8.98383,0.387261,-0.0762149,0.00100522,0,
6,8.98147,0.404098,-0.076214,0.00104543,0,
6,8.97881,0.420087,-0.0762127,0.00107985,0,
6,8.97581,0.435369,-0.0762113,0.00110981,0,
6,8.97244,0.450061,-0.0762096,0.00113633,0,
6,8.96863,0.464264,-0.0762076,0.00116013,0,
6,8.96435,0.478065,-0.0762052,0.00118179,0,
6,8.95953,0.491537,-0.0762024,0.0012017,0,
6,8.95409,0.504744,-0.0761992,0.00122014,0,
6,8.94798,0.517743,-0.0761954,0.00123727,0,
6,8.94109,0.530582,-0.0761911,0.0012532,0,
6,8.93334,0.543304,-0.0761861,0.00126793,0,
6,8.92463,0.555947,-0.0761805,0.00128142,0,
6,8.91482,0.568545,-0.076174,0.00129355,0,
6,8.90379,0.581124,-0.0761668,0.00130418,0,
6,8.89139,0.59371,-0.0761586,0.00131312,0,
6,8.87746,0.606324,-0.0761495,0.00132013,0,
6,8.86181,0.618982,-0.0761394,0.00132495,0,
6,8.84423,0.631697,-0.0761283,0.00132734,0,
6,8.82452,0.644482,-0.0761161,0.001327,0,
6,8.80241,0.657345,-0.0761029,0.00132367,0,
6,8.77763,0.670294,-0.0760887,0.00131709,0,
6,8.74989,0.683335,-0.0760734,0.00130702,0,
6,8.71885,0.696479,-0.0760572,0.00129322,0,
6,8.68417,0.709735,-0.0760403,0.00127545,0,
6,8.64545,0.72312,-0.0760227,0.00125347,0,
6,8.60229,0.736654,-0.0760047,0.00122696,0,
6,8.55423,0.750368,-0.0759866,0.00119565,0,
6,8.50082,0.764303,-0.0759687,0.00115983,0,
6,8.44155,0.778529,-0.0759524,0.00111883,0,
6,8.37592,0.793175,-0.0759383,0.00107117,0,
6,8.30339,0.808439,-0.0759269,0.00101514,0,
6,8.22344,0.82458,-0.0759184,0.000947881,0,
6,8.13555,0.841897,-0.0759138,0.000865647,0,
6,8.0392,0.860639,-0.0759089,0.000765026,0,
6,7.93391,0.880797,-0.0759039,0.000645778,0,
6,7.81927,0.901784,-0.0758879,0.000514478,0,
6,7.6949,0.922219,-0.0758671,0.000386178,0,
6,7.56054,0.940264,-0.0758317,0.000270612,0,
6,7.41603,0.95431,-0.0757872,0.000139549,0,
6,7.26132,0.963381,-0.0757402,5.53987e-05,0,
6,7.09653,0.967731,-0.0756782,1.4178e-05,0,
6,6.92195,0.96882,-0.0756026,8.27818e-07,0,
6,6.73802,0.968401,-0.0755062,-9.52529e-07,0,
6,6.5454,0.967711,-0.0753866,-4.40301e-07,0,
6,6.34489,0.967249,-0.0752406,-1.17756e-07,0,
6,6.1375,0.967033,-0.0750655,-2.94299e-08,0,
6,5.92439,0.966925,-0.0748577,-1.07086e-08,0,
6,5.70687,0.966816,-0.0746129,-6.23444e-09,0,
6,5.48633,0.966664,-0.0743264,-5.00771e-09,0,
6,5.26426,0.966464,-0.0739934,-4.88981e-09,0,
6,5.04218,0.966227,-0.0736087,-5.19901e-09,0,
6,4.82159,0.965966,-0.0731677,-5.6543e-09,0,
6,4.60398,0.965691,-0.072666,-6.21109e-09,0,
6,4.39071,0.965402,-0.0720998,-7.05092e-09,0,
6,4.18307,0.965066,-0.0714665,-8.5175e-09,0,
6,3.98218,0.96462,-0.0707648,-1.08268e-08,0,
6,3.78902,0.964008,-0.0699949,-1.36182e-08,0,
6,3.60438,0.963255,-0.069159,-1.75021e-08,0,
6,3.42888,0.962536,-0.068261,-3.61232e-08,0,
6,3.26296,0.962146,-0.0673059,-8.68764e-08,0,
6,3.10691,0.962323,-0.066299,-5.76281e-08,0,
6,2.96084,0.963035,-0.0652467,2.39077e-07,0,
6,2.82473,0.963884,-0.0641571,2.63651e-09,0,
6,2.69844,0.964236,-0.0630419,-3.81292e-06,0,
6,2.58172,0.963475,-0.0619147,-1.57499e-05,0,
6,2.47424,0.961209,-0.0607901,-3.95374e-05,0,
6,2.37559,0.957342,-0.0596822,-7.64807e-05,0,
6,2.28535,0.95203,-0.0586038,-0.000125404,0,
6,2.20301,0.945577,-0.0575653,-0.000183422,0,
6,2.1281,0.938347,-0.0565749,-0.000246795,0,
6,2.06009,0.930692,-0.0556388,-0.000311591,0,
6,1.99849,0.922925,-0.0547594,-0.000374015,0,
6,1.9428,0.915304,-0.0539412,-0.000430967,0,
6,1.89255,0.908021,-0.0531789,-0.000481784,0,
6,1.84728,0.901163,-0.0524804,-0.000523817,0,
6,1.80655,0.894726,-0.051845,-0.000554097,0,
6,1.76996,0.888714,-0.0512582,-0.000581851,0,
6,1.73712,0.883144,-0.0507244,-0.000607267,0,
6,1.70768,0.877989,-0.0502357,-0.000630801,0,
6,1.67998,0.87302,-0.0497717,-0.000653627,0,
6,1.65329,0.86814,-0.0493176,-0.000675931,0,
6,1.62754,0.863346,-0.0488741,-0.000697672,0,
6,1.60265,0.858638,-0.0484397,-0.000718909,0,
6,1.57854,0.854014,-0.0480142,-0.000739596,0,
6,1.55515,0.849472,-0.0475968,-0.000759773,0,
6,1.53242,0.845009,-0.0471871,-0.000779456,0,
6,1.5103,0.840616,-0.0467846,-0.000798635,0,
6,1.48874,0.836282,-0.0463891,-0.000817318,0,
6,1.46769,0.83199,-0.0459996,-0.000835641,0,
6,1.44712,0.827733,-0.0456151,-0.000853962,0,
6,1.42698,0.823523,-0.045233,-0.000872863,0,
6,1.40725,0.819398,-0.0448522,-0.000892738,0,
6,1.38788,0.815405,-0.0444705,-0.00091366,0,
6,1.36886,0.811552,-0.044098,-0.000934369,0,
6,1.35015,0.807771,-0.0437382,-0.000936752,0,
6,1.33173,0.803997,-0.0433812,-0.000945622,0,
6,1.31357,0.800211,-0.0430264,-0.000956189,0,
6,1.29566,0.796395,-0.0426744,-0.000968613,0,
6,1.27797,0.79253,-0.0423246,-0.000983911,0,
6,1.26048,0.78859,-0.0419769,-0.00100328,0,
6,1.24318,0.784545,-0.0416311,-0.00102827,0,
6,1.22605,0.780356,-0.0412872,-0.00106071,0,
6,1.20907,0.775981,-0.0409448,-0.00110277,0,
6,1.19223,0.771365,-0.0406041,-0.00115684,0,
6,1.17551,0.76645,-0.0402648,-0.00122545,0,
6,1.1589,0.761173,-0.039927,-0.00131111,0,
6,1.14238,0.755467,-0.0395907,-0.00141607,0,
6,1.12595,0.749271,-0.0392559,-0.00154201,0,
6,1.10959,0.742532,-0.0389228,-0.00168976,0,
6,1.09329,0.735215,-0.0385917,-0.00185902,0,
6,1.07704,0.727303,-0.0382628,-0.00204828,0,
6,1.06081,0.718798,-0.0379363,-0.00225478,0,
6,1.04459,0.709718,-0.0376124,-0.00247481,0,
6,1.02836,0.700107,-0.0372913,-0.00270387,0,
6,1.01211,0.690019,-0.0369734,-0.00293703,0,
6,0.99583,0.679516,-0.036659,-0.00316929,0,
6,0.97951,0.668663,-0.0363477,-0.00339622,0,
6,0.963136,0.657522,-0.0360413,-0.00362779,0,
6,0.946694,0.646066,-0.0357301,-0.00383402,0,
6,0.930172,0.634194,-0.0354135,-0.00404059,0,
6,0.913555,0.621828,-0.0351004,-0.00425366,0,
6,0.896829,0.608915,-0.0347905,-0.00447524,0,
6,0.879979,0.595413,-0.0344856,-0.00470682,0,
6,0.862989,0.581298,-0.0341858,-0.00494951,0,
6,0.845842,0.566563,-0.0338917,-0.00520419,0,
6,0.828521,0.551221,-0.0336049,-0.00547148,0,
6,0.811008,0.535281,-0.0333274,-0.00574674,0,
6,0.793282,0.518748,-0.0330605,-0.00602849,0,
6,0.775322,0.50163,-0.0328051,-0.0063149,0,
6,0.757107,0.483939,-0.0325619,-0.00660361,0,
6,0.738612,0.465701,-0.0323319,-0.00689169,0,
6,0.719813,0.446951,-0.032116,-0.00717567,0,
6,0.700681,0.427736,-0.0319151,-0.0074516,0,
6,0.681188,0.40811,-0.0317293,-0.00771517,0,
6,0.661304,0.388126,-0.0315565,-0.00796174,0,
6,0.640996,0.367827,-0.0313935,-0.00818637,0,
6,0.620228,0.347247,-0.031237,-0.00838365,0,
6,0.598964,0.326433,-0.0310895,-0.00854755,0,
6,0.577166,0.305495,-0.030966,-0.00867165,0,
6,0.554791,0.284668,-0.0308991,-0.00875097,0,
6,0.531799,0.264345,-0.0309337,-0.00878332,0,
6,0.508144,0.244973,-0.0310889,-0.00877137,0,
6,0.48378,0.226774,-0.0313288,-0.00871579,0,
6,0.459585,0.210028,-0.0312814,-0.00844264,0,
6,0.436695,0.194926,-0.0310479,-0.0081368,0,
6,0.414961,0.181101,-0.0308911,-0.00785973,0,
6,0.394252,0.168377,-0.0307135,-0.00757181,0,
6,0.374445,0.156605,-0.0305437,-0.00728018,0,
6,0.355433,0.14567,-0.0303754,-0.00698527,0,
6,0.337122,0.135472,-0.030207,-0.00668763,0,
6,0.319433,0.125928,-0.0300366,-0.0063882,0,
6,0.3023,0.11697,-0.0298625,-0.00608773,0,
6,0.28567,0.108539,-0.0296832,-0.00578693,0,
6,0.269507,0.100589,-0.0294974,-0.00548651,0,
6,0.253785,0.0930816,-0.0293041,-0.00518724,0,
6,0.238493,0.0859863,-0.0291025,-0.00488999,0,
6,0.223631,0.0792793,-0.0288921,-0.00459574,0,
6,0.209207,0.0729414,-0.0286729,-0.00430558,0,
6,0.195237,0.0669569,-0.0284451,-0.00402066,0,
6,0.181744,0.0613128,-0.0282093,-0.00374219,0,
6,0.168754,0.0559974,-0.0279668,-0.0034714,0,
6,0.156292,0.0509997,-0.0277191,-0.00320946,0,
6,0.144384,0.0463089,-0.0274679,-0.00295745,0,
6,0.133052,0.0419139,-0.0272156,-0.00271633,0,
6,0.122315,0.0378031,-0.0269643,-0.00248691,0,
6,0.112183,0.0339643,-0.0267165,-0.00226979,0,
6,0.102665,0.0303849,-0.0264743,-0.00206539,0,
6,0.0937597,0.0270516,-0.0262401,-0.00187394,0,
6,0.0854609,0.023951,-0.0260156,-0.00169546,0,
6,0.077757,0.0210694,-0.0258025,-0.00152981,0,
6,0.0706309,0.0183932,-0.0256019,-0.00137669,0,
6,0.0640611,0.015909,-0.0254147,-0.00123569,0,
6,0.0580229,0.0136036,-0.0252414,-0.00110628,0,
6,0.0524888,0.0114643,-0.0250822,-0.000987874,0,
6,0.0474296,0.00947886,-0.024937,-0.000879813,0,
6,0.042815,0.00763562,-0.0248054,-0.000781425,0,
6,0.0386145,0.00592351,-0.0246868,-0.000692018,0,
6,0.0347975,0.00433211,-0.0245807,-0.000610907,0,
6,0.0313344,0.0028516,-0.0244862,-0.000537427,0,
6,0.0281964,0.00147286,-0.0244027,-0.000470939,0,
6,0.0253561,0.00018737,-0.024329,-0.000410841,0,
6,0.0227875,-0.00101287,-0.0242646,-0.000356501,0,
6,0.0204662,-0.00213537,-0.0242083,-0.000307391,0,
6,0.0183694,-0.00318697,-0.0241597,-0.000263024,0,
6,0.016476,-0.00417386,-0.0241175,-0.000222922,0,
6,0.0147664,-0.00510151,-0.0240819,-0.000186657,0,
6,0.0132228,-0.00597451,-0.0240512,-0.000153847,0,
6,0.0118288,-0.00679618,-0.024026,-0.000124157,0,
6,0.0105693,-0.0075679,-0.0240044,-9.7317e-05,0,
6,0.00943073,-0.00828786,-0.0239878,-7.3151e-05,0,
6,0.00840063,-0.00894898,-0.0239735,-5.16384e-05,0,
6,0.00746774,-0.00953554,-0.0239638,-3.30079e-05,0,
6,0.00662185,-0.0100189,-0.0239552,-1.78103e-05,0,
6,0.00585371,-0.0103553,-0.0239509,-6.78154e-06,0,
6,0.00515491,-0.0104921,-0.0239463,-2.87864e-07,0,
6,0.00451788,-0.0103879,-0.0239455,2.30883e-06,0,
6,0.00393573,-0.0100347,-0.0239428,2.50966e-06,0,
6,0.00340221,-0.00945991,-0.0239436,1.79714e-06,0,
6,0.00291168,-0.00870918,-0.0239413,1.03231e-06,0,
6,0.00245897,-0.0078279,-0.0239428,5.02405e-07,0,
6,0.00203939,-0.00685253,-0.0239403,2.08668e-07,0,
6,0.00164864,-0.00580939,-0.0239424,7.21343e-08,0,
6,0.00128281,-0.00471627,-0.0239393,1.94962e-08,0,
6,0.000938257,-0.00358436,-0.0239421,3.62931e-09,0,
6,0.000611645,-0.00241988,-0.0239383,3.557e-10,0,
6,0.000299862,-0.00122524,-0.0239421,9.69172e-12,0,

10,0.000296632,0.0082133,0.0305096,-4.57936e-11,0,
10,0.000596102,0.016502,0.0305103,-1.69707e-09,0,
10,0.000900397,0.024921,0.0305096,-1.72537e-08,0,
10,0.00121153,0.0335256,0.0305101,-9.2714e-08,0,
10,0.00153158,0.0423711,0.0305095,-3.468e-07,0,
10,0.00186264,0.051512,0.03051,-1.03116e-06,0,
10,0.00220692,0.0609992,0.0305094,-2.61781e-06,0,
10,0.00256668,0.070876,0.0305098,-5.9129e-06,0,
10,0.00294431,0.0811704,0.0305093,-1.2174e-05,0,
10,0.00334229,0.0918842,0.0305096,-2.31638e-05,0,
10,0.00376326,0.102979,0.0305092,-4.1018e-05,0,
10,0.00421,0.114364,0.0305093,-6.77941e-05,0,
10,0.00468544,0.125892,0.0305089,-0.000104713,0,
10,0.00519274,0.137368,0.0305089,-0.00015141,0,
10,0.00573524,0.148581,0.0305083,-0.000205706,0,
10,0.00631651,0.159336,0.030508,-0.000264168,0,
10,0.00694041,0.169482,0.0305071,-0.000323135,0,
10,0.00761104,0.178926,0.0305063,-0.000379597,0,
10,0.00833284,0.187629,0.0305049,-0.000431593,0,
10,0.00911058,0.195596,0.0305035,-0.000478188,0,
10,0.0099494,0.202861,0.0305013,-0.000519224,0,
10,0.0108548,0.209478,0.0304989,-0.000555051,0,
10,0.0118329,0.215509,0.0304957,-0.000586297,0,
10,0.0128901,0.221018,0.030492,-0.000613712,0,
10,0.0140333,0.226068,0.0304873,-0.000638062,0,
10,0.0152702,0.230719,0.030482,-0.000660071,0,
10,0.0166089,0.235022,0.0304755,-0.000680397,0,
10,0.0180584,0.239026,0.030468,-0.000699622,0,
10,0.0196282,0.242773,0.0304593,-0.000718257,0,
10,0.0213288,0.2463,0.0304492,-0.000736748,0,
10,0.0231714,0.249638,0.0304376,-0.000755492,0,
10,0.0251682,0.252815,0.0304244,-0.000774846,0,
10,0.0273326,0.255858,0.0304094,-0.000795135,0,
10,0.0296789,0.258788,0.0303924,-0.000816666,0,
10,0.0322227,0.261626,0.0303732,-0.000839731,0,
10,0.0349809,0.264388,0.0303516,-0.000864619,0,
10,0.0379719,0.267091,0.0303275,-0.000891617,0,
10,0.0412155,0.269752,0.0303005,-0.000921018,0,
10,0.0447333,0.272383,0.0302704,-0.000953125,0,
10,0.0485489,0.274999,0.030237,-0.000988252,0,
10,0.0526875,0.277614,0.0302,-0.00102673,0,
10,0.0571768,0.28024,0.0301592,-0.00106892,0,
10,0.0620466,0.282892,0.0301142,-0.00111519,0,
10,0.0673295,0.285581,0.0300648,-0.00116594,0,
10,0.0730607,0.288323,0.0300107,-0.00122159,0,
10,0.0792784,0.291132,0.0299516,-0.00128262,0,
10,0.0860241,0.294024,0.0298873,-0.00134951,0,
10,0.0933428,0.297016,0.0298176,-0.00142278,0,
10,0.101283,0.300127,0.0297423,-0.00150299,0,
10,0.109899,0.303376,0.0296612,-0.00159073,0,
10,0.119247,0.306786,0.0295741,-0.00168662,0,
10,0.12939,0.310382,0.029481,-0.0017913,0,
10,0.140395,0.314193,0.0293819,-0.00190546,0,
10,0.152337,0.318251,0.029277,-0.00202975,0,
10,0.165296,0.322593,0.0291662,-0.00216487,0,
10,0.179357,0.32726,0.0290498,-0.00231146,0,
10,0.194615,0.332301,0.028928,-0.00247012,0,
10,0.211171,0.337772,0.0288013,-0.00264136,0,
10,0.229138,0.343738,0.0286696,-0.00282554,0,
10,0.248635,0.350273,0.0285339,-0.00302281,0,
10,0.269793,0.357463,0.0283932,-0.00323301,0,
10,0.292753,0.365409,0.0282499,-0.00345551,0,
10,0.317669,0.374228,0.0280996,-0.00368778,0,
10,0.344708,0.384045,0.0279481,-0.00392596,0,
10,0.372405,0.394395,0.0277999,-0.00415924,0,
10,0.399623,0.404875,0.0276572,-0.00437631,0,
10,0.426397,0.415481,0.0275209,-0.00457361,0,
10,0.452757,0.426217,0.0273888,-0.00475278,0,
10,0.478735,0.437088,0.0272632,-0.00491131,0,
10,0.504358,0.448109,0.0271437,-0.00504761,0,
10,0.529657,0.459298,0.0270312,-0.0051614,0,
10,0.554656,0.470669,0.0269184,-0.00525272,0,
10,0.579382,0.48223,0.0268143,-0.00532107,0,
10,0.603859,0.493984,0.0266933,-0.00538699,0,
10,0.628112,0.506028,0.026618,-0.00543249,0,
10,0.652163,0.518682,0.0266164,-0.00535298,0,
10,0.676035,0.532216,0.0265961,-0.00524394,0,
10,0.699751,0.54655,0.0265384,-0.0051047,0,
10,0.72333,0.56141,0.0264411,-0.00493599,0,
10,0.746795,0.576483,0.0263147,-0.00474112,0,
10,0.770165,0.591524,0.0261687,-0.00452476,0,
10,0.79346,0.606371,0.0260099,-0.00429194,0,
10,0.816699,0.620924,0.0258407,-0.00404755,0,
10,0.839903,0.635097,0.0256612,-0.00379658,0,
10,0.863088,0.648784,0.0254691,-0.00355109,0,
10,0.886275,0.661879,0.0252649,-0.00331365,0,
10,0.909481,0.674325,0.0250515,-0.0030848,0,
10,0.932723,0.686118,0.0248307,-0.00286515,0,
10,0.956021,0.69729,0.0246035,-0.00265539,0,
10,0.97939,0.707875,0.0243696,-0.00245614,0,
10,1.00285,0.717907,0.024129,-0.00226795,0,
10,1.02641,0.727409,0.0238812,-0.00209127,0,
10,1.0501,0.7364,0.0236267,-0.00192646,0,
10,1.07392,0.744906,0.0233649,-0.00177363,0,
10,1.0979,0.752961,0.0230986,-0.00162839,0,
10,1.12205,0.760589,0.0228254,-0.00149585,0,
10,1.14639,0.767789,0.0225431,-0.00137664,0,
10,1.17093,0.774571,0.0222532,-0.00127092,0,
10,1.19568,0.780957,0.0219554,-0.00117911,0,
10,1.22066,0.786985,0.0216498,-0.00110084,0,
10,1.24589,0.792701,0.0213379,-0.00103514,0,
10,1.27137,0.798156,0.0210178,-0.000980702,0,
10,1.29713,0.803403,0.0206935,-0.000940151,0,
10,1.32317,0.80854,0.0203633,-0.000899625,0,
10,1.34951,0.813699,0.0200264,-0.000857628,0,
10,1.37616,0.81894,0.0196855,-0.000818465,0,
10,1.40313,0.824226,0.0193363,-0.000782287,0,
10,1.43043,0.829479,0.0189795,-0.000748884,0,
10,1.45807,0.834651,0.018614,-0.000717649,0,
10,1.48607,0.839736,0.0182413,-0.000687881,0,
10,1.51444,0.844757,0.0178612,-0.000659082,0,
10,1.54318,0.849729,0.017474,-0.000631049,0,
10,1.57231,0.85465,0.0170792,-0.000603773,0,
10,1.60184,0.859499,0.0166768,-0.000577301,0,
10,1.63178,0.864245,0.0162665,-0.000551677,0,
10,1.66213,0.868861,0.0158488,-0.000526905,0,
10,1.69292,0.873331,0.0154229,-0.000502897,0,
10,1.72416,0.877657,0.0149905,-0.000479318,0,
10,1.75585,0.881878,0.0145485,-0.000451855,0,
10,1.78802,0.886044,0.0140979,-0.000423718,0,
10,1.82067,0.890161,0.0136404,-0.000395608,0,
10,1.85383,0.894213,0.013174,-0.000366359,0,
10,1.88751,0.898175,0.0126994,-0.000336185,0,
10,1.92173,0.902026,0.0122162,-0.000305451,0,
10,1.95652,0.905739,0.011724,-0.000274591,0,
10,1.9919,0.909291,0.0112236,-0.000244075,0,
10,2.02791,0.912659,0.0107133,-0.000214448,0,
10,2.06456,0.915823,0.0101954,-0.000185933,0,
10,2.10268,0.918823,0.00965494,-0.00015811,0,
10,2.1443,0.921749,0.00906795,-0.000131345,0,
10,2.18977,0.924549,0.00842726,-0.000105765,0,
10,2.23946,0.927141,0.00773113,-8.16733e-05,0,
10,2.29376,0.929443,0.00697399,-5.99007e-05,0,
10,2.35309,0.931371,0.0061536,-4.11511e-05,0,
10,2.4179,0.932856,0.00526594,-2.59662e-05,0,
10,2.48863,0.933851,0.00430938,-1.464e-05,0,
10,2.56575,0.934352,0.0032818,-7.106e-06,0,
10,2.64971,0.934412,0.00218299,-2.87575e-06,0,
10,2.74098,0.934148,0.00101299,-1.08228e-06,0,
10,2.83997,0.93374,-0.000226659,-6.75648e-07,0,
10,2.94709,0.933392,-0.00153396,-7.3322e-07,0,
10,3.06269,0.933291,-0.00290569,-7.2473e-07,0,
10,3.18706,0.93355,-0.00433789,-5.45388e-07,0,
10,3.3204,0.934174,-0.00582505,-3.14857e-07,0,
10,3.46281,0.935072,-0.00736009,-1.46626e-07,0,
10,3.61427,0.936098,-0.0089338,-6.27599e-08,0,
10,3.77463,0.937114,-0.010535,-3.20136e-08,0,
10,3.94358,0.938036,-0.0121511,-2.26944e-08,0,
10,4.12067,0.93885,-0.0137681,-1.95605e-08,0,
10,4.30525,0.939588,-0.015372,-1.8149e-08,0,
10,4.49655,0.940294,-0.016949,-1.76171e-08,0,
10,4.6936,0.940995,-0.0184856,-1.794e-08,0,
10,4.89531,0.941695,-0.0199699,-1.96096e-08,0,
10,5.10047,0.942379,-0.0213908,-2.40786e-08,0,
10,5.30776,0.943027,-0.0227394,-3.45893e-08,0,
10,5.51581,0.943623,-0.0240083,-5.78509e-08,0,
10,5.72323,0.944163,-0.0251925,-1.08269e-07,0,
10,5.92863,0.944671,-0.0262886,-2.21007e-07,0,
10,6.13069,0.945215,-0.0272956,-4.88474e-07,0,
10,6.32816,0.945889,-0.028214,-1.10443e-06,0,
10,6.51991,0.946727,-0.0290463,-2.15228e-06,0,
10,6.70495,0.947498,-0.0297961,-2.33768e-06,0,
10,6.88244,0.947491,-0.0304672,3.66609e-06,0,
10,7.0517,0.945479,-0.0310637,2.67338e-05,0,
10,7.21224,0.940076,-0.0315863,8.01777e-05,0,
10,7.3637,0.930395,-0.0320406,0.000173226,0,
10,7.5059,0.916476,-0.0324311,0.000296689,0,
10,7.63878,0.898908,-0.0327619,0.000404186,0,
10,7.76243,0.878794,-0.0330425,0.000523084,0,
10,7.87701,0.857901,-0.0332677,0.000644618,0,
10,7.9828,0.837687,-0.0334538,0.00075498,0,
10,8.08014,0.818866,-0.0336032,0.000849111,0,
10,8.16941,0.801521,-0.033727,0.000927466,0,
10,8.25106,0.785405,-0.0338292,0.000993177,0,
10,8.32554,0.770195,-0.033916,0.00104946,0,
10,8.39331,0.75561,-0.0339896,0.00109858,0,
10,8.45484,0.741453,-0.0340529,0.00114182,0,
10,8.5106,0.727603,-0.0341068,0.0011798,0,
10,8.56104,0.713998,-0.0341532,0.00121276,0,
10,8.60659,0.70062,-0.0341929,0.0012408,0,
10,8.64767,0.687475,-0.0342274,0.00126404,0,
10,8.68467,0.674567,-0.0342572,0.00128228,0,
10,8.71795,0.661872,-0.0342831,0.00129237,0,
10,8.74786,0.649362,-0.0343056,0.00129893,0,
10,8.77471,0.637034,-0.0343249,0.0013012,0,
10,8.79881,0.624884,-0.0343416,0.00129961,0,
10,8.8204,0.612904,-0.034356,0.00129469,0,
10,8.83975,0.601086,-0.0343683,0.00128694,0,
10,8.85708,0.589414,-0.0343788,0.00127683,0,
10,8.87259,0.577872,-0.0343879,0.00126483,0,
10,8.88646,0.566439,-0.0343955,0.00125133,0,
10,8.89886,0.55509,-0.034402,0.00123667,0,
10,8.90995,0.543798,-0.0344075,0.00122115,0,
10,8.91986,0.532534,-0.0344121,0.00120499,0,
10,8.92872,0.521264,-0.034416,0.00118834,0,
10,8.93663,0.509952,-0.0344192,0.00117131,0,
10,8.94369,0.498561,-0.0344219,0.00115392,0,
10,8.95,0.487047,-0.0344241,0.00113614,0,
10,8.95564,0.475366,-0.034426,0.00111789,0,
10,8.96067,0.463467,-0.0344275,0.00109901,0,
10,8.96517,0.451297,-0.0344289,0.00107925,0,
10,8.96918,0.438794,-0.0344298,0.00105828,0,
10,8.97276,0.425889,-0.0344308,0.00103568,0,
10,8.97596,0.4125,-0.0344314,0.00101088,0,
10,8.97882,0.398536,-0.0344321,0.000983158,0,
10,8.98137,0.38389,-0.0344324,0.000951582,0,
10,8.98365,0.368433,-0.034433,0.000914941,0,
10,8.98569,0.352016,-0.0344331,0.000871824,0,
10,8.9875,0.334457,-0.0344336,0.00082004,0,
10,8.98913,0.315521,-0.0344335,0.000754557,0,
10,8.99058,0.294978,-0.034434,0.000677194,0,
10,8.99188,0.272667,-0.0344337,0.000585552,0,
10,8.99304,0.248425,-0.0344343,0.000472856,0,
10,8.99408,0.222213,-0.0344339,0.00034672,0,
10,8.99501,0.194402,-0.0344344,0.000220834,0,
10,8.99583,0.165893,-0.0344339,0.000117031,0,
10,8.99658,0.137953,-0.0344345,5.02473e-05,0,
10,8.99724,0.111697,-0.0344339,1.73382e-05,0,
10,8.99784,0.0877094,-0.0344346,4.76247e-06,0,
10,8.99837,0.0661015,-0.0344339,9.98692e-07,0,
10,8.99885,0.0467382,-0.0344347,1.43058e-07,0,
10,8.99927,0.0294082,-0.0344339,1.08606e-08,0,
10,8.99966,0.0138967,-0.0344349,2.40286e-10,0,
10,0,0,0.0305105,0,0,
10,9,0,-0.0344338,0,0,

0.004,0,0,-0.223879,0,-9.31823e-08,
0.00868226,0,0,-0.223875,0,-1.82447e-07,
0.014062,0,0,-0.223878,0,-2.93159e-07,
0.0201548,0,0,-0.223876,0,-7.23657e-07,
0.0269766,0,0,-0.223878,0,-1.2769e-06,
0.0345437,0,0,-0.223877,0,-2.03346e-06,
0.0428729,0,0,-0.223876,0,-2.83123e-06,
0.051981,0,0,-0.223875,0,-3.61455e-06,
0.0618853,0,0,-0.223873,0,-4.19586e-06,
0.0726036,0,0,-0.223869,0,-4.40887e-06,
0.0841536,0,0,-0.223865,0,-4.01933e-06,
0.0965535,0,0,-0.22386,0,-2.81374e-06,
0.109822,0,0,-0.223855,0,-6.04733e-07,
0.123977,0,0,-0.223851,0,2.7001e-06,
0.139037,0,0,-0.223848,0,7.06564e-06,
0.155022,0,0,-0.22385,0,1.23119e-05,
0.171949,0,0,-0.223857,0,1.81252e-05,
0.189839,0,0,-0.223869,0,2.41089e-05,
0.208709,0,0,-0.223887,0,2.98342e-05,
0.228579,0,0,-0.223911,0,3.49073e-05,
0.249467,0,0,-0.22394,0,3.90065e-05,
0.271391,0,0,-0.223971,0,4.19165e-05,
0.29437,0,0,-0.224004,0,4.35335e-05,
0.31842,0,0,-0.224036,0,4.38679e-05,
0.343559,0,0,-0.224065,0,4.3029e-05,
0.369804,0,0,-0.224092,0,4.12111e-05,
0.39717,0,0,-0.224114,0,3.86724e-05,
0.425672,0,0,-0.224132,0,3.5717e-05,
0.455324,0,0,-0.224146,0,3.26789e-05,
0.48614,0,0,-0.224156,0,2.99111e-05,
0.518132,0,0,-0.224164,0,2.77752e-05,
0.551309,0,0,-0.22417,0,2.66262e-05,
0.585683,0,0,-0.224176,0,2.67421e-05,
0.621259,0,0,-0.224186,0,2.82434e-05,
0.658046,0,0,-0.224204,0,3.10657e-05,
0.696047,0,0,-0.224231,0,3.50048e-05,
0.735265,0,0,-0.224271,0,3.98001e-05,
0.7757,0,0,-0.224327,0,4.52044e-05,
0.817352,0,0,-0.224401,0,5.10254e-05,
0.860215,0,0,-0.224497,0,5.7147e-05,
0.904285,0,0,-0.224621,0,6.34537e-05,
0.949552,0,0,-0.224778,0,6.96995e-05,
0.996004,0,0,-0.22498,0,7.54377e-05,
1.04363,0,0,-0.22524,0,7.98718e-05,
1.09241,0,0,-0.225579,0,8.16657e-05,
1.14232,0,0,-0.22602,0,7.89492e-05,
1.19335,0,0,-0.226588,0,6.95314e-05,
1.24546,0,0,-0.227299,0,5.12895e-05,
1.29863,0,0,-0.228162,0,2.27285e-05,
1.35283,0,0,-0.229166,0,-1.64696e-05,
1.40802,0,0,-0.230287,0,-6.52292e-05,
1.46416,0,0,-0.23149,0,-0.000121382,
1.52121,0,0,-0.232739,0,-0.000182342,
1.57913,0,0,-0.234001,0,-0.000245801,
1.63787,0,0,-0.235247,0,-0.00031014,
1.69739,0,0,-0.236454,0,-0.00037447,
1.75761,0,0,-0.237602,0,-0.000438433,
1.81851,0,0,-0.238676,0,-0.000501952,
1.88,0,0,-0.239661,0,-0.000565036,
1.94204,0,0,-0.240544,0,-0.000627687,
2.00457,0,0,-0.241312,0,-0.000689873,
2.06751,0,0,-0.241954,0,-0.000751531,
2.13081,0,0,-0.242457,0,-0.000812578,
2.19439,0,0,-0.242811,0,-0.000872917,
2.25819,0,0,-0.243006,0,-0.000932445,
2.32214,0,0,-0.243032,0,-0.000991046,
2.38617,0,0,-0.242881,0,-0.00104859,
2.4502,0,0,-0.242545,0,-0.00110495,
2.51418,0,0,-0.242016,0,-0.00115997,
2.57803,0,0,-0.241289,0,-0.00121349,
2.64167,0,0,-0.240359,0,-0.00126536,
2.70505,0,0,-0.239224,0,-0.00131541,
2.76808,0,0,-0.23788,0,-0.00136348,
2.83072,0,0,-0.236329,0,-0.00140937,
2.89288,0,0,-0.23457,0,-0.00145289,
2.95451,0,0,-0.232607,0,-0.00149383,
3.01555,0,0,-0.230446,0,-0.00153201,
3.07594,0,0,-0.228092,0,-0.00156725,
3.13561,0,0,-0.225556,0,-0.0015994,
3.19453,0,0,-0.222848,0,-0.00162832,
3.25262,0,0,-0.219982,0,-0.00165394,
3.30985,0,0,-0.216972,0,-0.00167622,
3.36617,0,0,-0.213835,0,-0.00169517,
3.42154,0,0,-0.210587,0,-0.00171083,
3.47591,0,0,-0.207246,0,-0.00172329,
3.52925,0,0,-0.203829,0,-0.00173268,
3.58152,0,0,-0.200354,0,-0.00173915,
3.6327,0,0,-0.196838,0,-0.00174287,
3.68276,0,0,-0.193298,0,-0.00174403,
3.73167,0,0,-0.189749,0,-0.00174283,
3.77941,0,0,-0.186205,0,-0.00173946,
3.82596,0,0,-0.182681,0,-0.00173414,
3.8713,0,0,-0.179188,0,-0.00172707,
3.91543,0,0,-0.175734,0,-0.00171832,
3.95833,0,0,-0.172348,0,-0.00170841,
4,0,0,-0.169003,0,-0.00169727,
4.04167,0,0,-0.165636,0,-0.00168459,
4.08333,0,0,-0.16224,0,-0.00167063,
4.125,0,0,-0.158821,0,-0.00165537,
4.16667,0,0,-0.155382,0,-0.00163885,
4.20833,0,0,-0.151928,0,-0.00162111,
4.25,0,0,-0.148461,0,-0.0016022,
4.29167,0,0,-0.144986,0,-0.00158217,
4.33333,0,0,-0.141505,0,-0.00156106,
4.375,0,0,-0.138023,0,-0.00153892,
4.41667,0,0,-0.134543,0,-0.00151578,
4.45833,0,0,-0.131067,0,-0.00149171,
4.5,0,0,-0.127598,0,-0.00146672,
4.54167,0,0,-0.12414,0,-0.00144087,
4.58333,0,0,-0.120695,0,-0.0014142,
4.625,0,0,-0.117266,0,-0.00138675,
4.66667,0,0,-0.113855,0,-0.00135854,
4.70833,0,0,-0.110464,0,-0.00132963,
4.75,0,0,-0.107096,0,-0.00130004,
4.79167,0,0,-0.103753,0,-0.00126982,
4.83333,0,0,-0.100438,0,-0.00123899,
4.875,0,0,-0.0971506,0,-0.00120759,
4.91667,0,0,-0.0938942,0,-0.00117564,
4.95833,0,0,-0.0906703,0,-0.00114317,
5,0,0,-0.0874803,0,-0.00111022,
5.04167,0,0,-0.0843259,0,-0.00107681,
5.08333,0,0,-0.0812086,0,-0.00104296,
5.125,0,0,-0.0781297,0,-0.00100872,
5.16667,0,0,-0.0750905,0,-0.000974101,
5.20833,0,0,-0.0720923,0,-0.000939139,
5.25,0,0,-0.0691362,0,-0.00090386,
5.29167,0,0,-0.0662231,0,-0.000868293,
5.33333,0,0,-0.0633541,0,-0.000832466,
5.375,0,0,-0.06053,0,-0.000796403,
5.41667,0,0,-0.0577514,0,-0.00076013,
5.45833,0,0,-0.0550192,0,-0.000723668,
5.5,0,0,-0.052334,0,-0.000687042,
5.54167,0,0,-0.0496962,0,-0.000650275,
5.58333,0,0,-0.0471065,0,-0.000613389,
5.625,0,0,-0.0445653,0,-0.000576407,
5.66667,0,0,-0.042073,0,-0.000539348,
5.70833,0,0,-0.0396298,0,-0.000502233,
5.75,0,0,-0.0372363,0,-0.000465081,
5.79167,0,0,-0.0348926,0,-0.000427907,
5.83333,0,0,-0.0325992,0,-0.000390724,
5.875,0,0,-0.0303563,0,-0.000353543,
5.91667,0,0,-0.0281646,0,-0.000316375,
5.95833,0,0,-0.0260246,0,-0.000279237,
6,0,0,-0.0239374,0,-0.000242168,
6.04167,0,0,-0.0219038,0,-0.000205235,
6.08333,0,0,-0.019925,0,-0.000168549,
6.125,0,0,-0.0180013,0,-0.000132236,
6.16667,0,0,-0.0161318,0,-9.63926e-05,
6.20833,0,0,-0.0143153,0,-6.106e-05,
6.25,0,0,-0.0125506,0,-2.62336e-05,
6.29167,0,0,-0.0108361,0,8.10999e-06,
6.33333,0,0,-0.00917088,0,4.19935e-05,
6.375,0,0,-0.00755372,0,7.54331e-05,
6.41667,0,0,-0.00598365,0,0.000108439,
6.45833,0,0,-0.00445969,0,0.000141018,
6.5,0,0,-0.00298092,0,0.000173175,
6.54167,0,0,-0.00154643,0,0.000204913,
6.58333,0,0,-0.000155325,0,0.000236235,
6.625,0,0,0.00119325,0,0.000267145,
6.66667,0,0,0.00250016,0,0.000297645,
6.70833,0,0,0.00376621,0,0.000327738,
6.75,0,0,0.00499225,0,0.000357425,
6.79167,0,0,0.00617906,0,0.000386708,
6.83333,0,0,0.00732747,0,0.000415587,
6.875,0,0,0.00843825,0,0.000444064,
6.91667,0,0,0.00951221,0,0.000472139,
6.95833,0,0,0.0105501,0,0.000499813,
7,0,0,0.0115528,0,0.000527089,
7.04167,0,0,0.0125209,0,0.000553968,
7.08333,0,0,0.0134552,0,0.000580451,
7.125,0,0,0.0143566,0,0.000606539,
7.16667,0,0,0.0152257,0,0.000632233,
7.20833,0,0,0.0160633,0,0.000657536,
7.25,0,0,0.0168701,0,0.000682448,
7.29167,0,0,0.0176468,0,0.000706972,
7.33333,0,0,0.0183942,0,0.00073111,
7.375,0,0,0.019113,0,0.000754867,
7.41667,0,0,0.0198037,0,0.000778245,
7.45833,0,0,0.0204672,0,0.00080125,
7.5,0,0,0.0211039,0,0.000823886,
7.54167,0,0,0.0217147,0,0.000846161,
7.58333,0,0,0.0223002,0,0.000868087,
7.625,0,0,0.022861,0,0.000889677,
7.66667,0,0,0.0233976,0,0.000910944,
7.70833,0,0,0.0239107,0,0.000931895,
7.75,0,0,0.0244006,0,0.000952534,
7.79167,0,0,0.0248678,0,0.000972859,
7.83333,0,0,0.0253123,0,0.000992864,
7.875,0,0,0.0257342,0,0.0010126,
7.91667,0,0,0.0261442,0,0.00103259,
7.95833,0,0,0.0264759,0,0.0010514,
8,0,0,0.0268859,0,0.0010701,
8.04171,0,0,0.0273118,0,0.00108981,
8.08368,0,0,0.0276066,0,0.00110928,
8.12617,0,0,0.0279391,0,0.00112704,
8.16946,0,0,0.0282539,0,0.00114489,
8.21382,0,0,0.0285514,0,0.00116274,
8.25952,0,0,0.0288392,0,0.00118064,
8.30685,0,0,0.0291169,0,0.00119876,
8.35611,0,0,0.0293848,0,0.00121718,
8.40762,0,0,0.029643,0,0.001236,
8.46168,0,0,0.029891,0,0.00125528,
8.51865,0,0,0.0301278,0,0.00127508,
8.57889,0,0,0.0303523,0,0.00129544,
8.64276,0,0,0.0305626,0,0.00131642,
8.71067,0,0,0.0307567,0,0.00133804,
8.78306,0,0,0.0309318,0,0.00136034,
8.86037,0,0,0.0310849,0,0.00138332,
8.94309,0,0,0.0312126,0,0.00140698,
9.03174,0,0,0.0313107,0,0.00143134,
9.12689,0,0,0.031375,0,0.00145637,
9.22912,0,0,0.0314006,0,0.00148204,
9.33908,0,0,0.0313826,0,0.00150832,
9.45746,0,0,0.0313156,0,0.00153514,
9.58501,0,0,0.0311942,0,0.00156245,
9.72253,0,0,0.031013,0,0.00159017,
9.87088,0,0,0.0307663,0,0.00161821,
10.031,0,0,0.0304491,0,0.00164647,
10.2039,0,0,0.030057,0,0.00167482,
10.3906,0,0,0.0295866,0,0.00170315,
10.5924,0,0,0.0290343,0,0.00173132,
10.8105,0,0,0.0283994,0,0.0017592,
11.0463,0,0,0.0276822,0,0.00178667,
11.3012,0,0,0.0268835,0,0.00181359,
11.5769,0,0,0.0260076,0,0.00183986,
11.8751,0,0,0.0250599,0,0.00186538,
12.1977,0,0,0.0240475,0,0.00189005,
12.5466,0,0,0.0229806,0,0.0019138,
12.9242,0,0,0.0218701,0,0.00193658,
13.3327,0,0,0.020729,0,0.00195836,
13.7748,0,0,0.0195717,0,0.00197911,
14.2532,0,0,0.0184127,0,0.00199885,
14.7709,0,0,0.0172678,0,0.0020176,
15.3312,0,0,0.0161515,0,0.00203541,
15.9377,0,0,0.0150772,0,0.00205234,
16.594,0,0,0.0140578,0,0.00206845,
17.3044,0,0,0.0131026,0,0.00208384,
18.0733,0,0,0.012219,0,0.00209854,
18.9056,0,0,0.0114107,0,0.00211248,
19.8064,0,0,0.0106781,0,0.00212563,
20.7816,0,0,0.0100188,0,0.00213821,
21.8371,0,0,0.00942572,0,0.00215053,
22.9796,0,0,0.00888885,0,0.00216282,
24.2163,0,0,0.00839483,0,0.00217518,
25.5551,0,0,0.00792851,0,0.00218763,
27.0042,0,0,0.00747294,0,0.00220029,
28.5729,0,0,0.00701003,0,0.00221323,
30.271,0,0,0.00652136,0,0.00222646,
32.1091,0,0,0.00598908,0,0.00223992,
34.0989,0,0,0.00539752,0,0.00225351,
36.2529,0,0,0.00472881,0,0.0022672,
38.5845,0,0,0.00397424,0,0.00228089,
41.1085,0,0,0.0031702,0,0.0022944,
43.8407,0,0,0.00216167,0,0.00230553,
46.7983,0,0,0.00111286,0,0.00231223,
50,0,0,0.002069,0,0.00232839,

