aa4ed99eb3c659ce6d5bf3eb9725d3ac4d993347 
X,Z,x_velocity,cp,uw_b,cf,
1,0,0,-0.219218,0,0,
1,9,0,-0.131157,0,0,
1,1.01284,0.484153,-0.222355,-0.00631516,0,
1,0.000308731,0.000215833,-0.21922,-1.2601e-15,0,
1,0.000654158,0.000452565,-0.219218,-5.60535e-14,0,
1,0.00104139,0.000711862,-0.219219,-7.28348e-13,0,
1,0.00147619,0.000994945,-0.219218,-5.03705e-12,0,
1,0.00196502,0.0013025,-0.219219,-2.40993e-11,0,
1,0.00251518,0.00163446,-0.219218,-9.07817e-11,0,
1,0.0031349,0.00198957,-0.219219,-2.88928e-10,0,
1,0.00383341,0.00236491,-0.219219,-8.09188e-10,0,
1,0.00462115,0.0027551,-0.219219,-2.04108e-09,0,
1,0.00550983,0.00315137,-0.219219,-4.68664e-09,0,
1,0.00651264,0.00354,-0.219219,-9.77909e-09,0,
1,0.00764438,0.00390044,-0.219218,-1.81583e-08,0,
1,0.00892169,0.00420255,-0.219219,-2.80199e-08,0,
1,0.0103632,0.00440351,-0.219218,-2.68305e-08,0,
1,0.0119898,0.00444477,-0.219218,3.0766e-08,0,
1,0.0138248,0.00425223,-0.219218,2.72762e-07,0,
1,0.0158944,0.00374408,-0.219217,9.92929e-07,0,
1,0.0182274,0.00285157,-0.219216,2.71652e-06,0,
1,0.0208562,0.00154629,-0.219215,6.09884e-06,0,
1,0.0238164,-0.00014725,-0.219212,1.15747e-05,0,
1,0.0271475,-0.00217124,-0.219208,1.90361e-05,0,
1,0.0308929,-0.00446884,-0.219201,2.79694e-05,0,
1,0.0351001,-0.00700453,-0.219193,3.78038e-05,0,
1,0.0398209,-0.00976373,-0.219182,4.80845e-05,0,
1,0.0451115,-0.0127423,-0.219168,5.84427e-05,0,
1,0.0510323,-0.0159352,-0.219152,6.85171e-05,0,
1,0.057648,-0.0193278,-0.219134,7.79046e-05,0,
1,0.0650269,-0.0228895,-0.219114,8.61432e-05,0,
1,0.0732406,-0.0265711,-0.219093,9.27207e-05,0,
1,0.0823632,-0.0303036,-0.219073,9.71039e-05,0,
1,0.0924701,-0.0340017,-0.219054,9.87865e-05,0,
1,0.103636,-0.0375686,-0.219039,9.73497e-05,0,
1,0.115935,-0.040904,-0.21903,9.25214e-05,0,
1,0.129436,-0.0439126,-0.219029,8.42185e-05,0,
1,0.144202,-0.0465115,-0.219039,7.25729e-05,0,
1,0.160284,-0.0486365,-0.21906,5.78765e-05,0,
1,0.177724,-0.0502448,-0.219095,4.05425e-05,0,
1,0.196544,-0.0513154,-0.219143,2.10412e-05,0,
1,0.21675,-0.0518459,-0.219203,-1.59689e-07,0,
1,0.238323,-0.0518488,-0.219276,-2.26304e-05,0,
1,0.26122,-0.0513476,-0.219358,-4.59822e-05,0,
1,0.28537,-0.0503736,-0.219446,-6.98481e-05,0,
1,0.310673,-0.048964,-0.219539,-9.38523e-05,0,
1,0.337003,-0.0471606,-0.219633,-0.000117587,0,
1,0.364206,-0.0450096,-0.219725,-0.000140598,0,
1,0.392107,-0.042561,-0.219813,-0.000162395,0,
1,0.420509,-0.0398692,-0.219894,-0.00018244,0,
1,0.449206,-0.0369914,-0.219969,-0.000200163,0,
1,0.477982,-0.0339877,-0.220037,-0.000214988,0,
1,0.506624,-0.0309189,-0.220098,-0.000226354,0,
1,0.534925,-0.0278442,-0.220156,-0.000233769,0,
1,0.562692,-0.0248183,-0.220211,-0.000236891,0,
1,0.589754,-0.0218858,-0.220266,-0.000235704,0,
1,0.615961,-0.0190749,-0.220322,-0.000230765,0,
1,0.641193,-0.0163894,-0.220379,-0.000223535,0,
1,0.665359,-0.0138,-0.220432,-0.00021664,0,
1,0.688396,-0.0112372,-0.220479,-0.000213347,0,
1,0.710271,-0.00858979,-0.220521,-0.000220444,0,
1,0.730976,-0.00567058,-0.220548,-0.000244104,0,
1,0.750529,-0.00214156,-0.220562,-0.00029501,0,
1,0.768969,0.00254638,-0.220571,-0.000387112,0,
1,0.78635,0.00916792,-0.220592,-0.000538048,0,
1,0.802743,0.0185602,-0.220642,-0.000769703,0,
1,0.818232,0.031232,-0.220739,-0.00110396,0,
1,0.832689,0.0468816,-0.220882,-0.00154189,0,
1,0.846039,0.0645931,-0.221078,-0.0020517,0,
1,0.858357,0.0834104,-0.221321,-0.00258927,0,
1,0.869723,0.102551,-0.221589,-0.00311371,0,
1,0.880212,0.121496,-0.221862,-0.00360266,0,
1,0.889898,0.139948,-0.222124,-0.00404781,0,
1,0.898852,0.157769,-0.222367,-0.00444962,0,
1,0.907141,0.174918,-0.222586,-0.00481246,0,
1,0.914826,0.19141,-0.222777,-0.00514157,0,
1,0.921966,0.207288,-0.222942,-0.00544146,0,
1,0.928616,0.222602,-0.223081,-0.00571546,0,
1,0.934823,0.237406,-0.223197,-0.00596693,0,
1,0.940633,0.251754,-0.223283,-0.00619439,0,
1,0.946088,0.265706,-0.223337,-0.00639715,0,
1,0.951224,0.279319,-0.223358,-0.00657534,0,
1,0.956076,0.292646,-0.223352,-0.00672902,0,
1,0.960675,0.305728,-0.223323,-0.00685831,0,
1,0.965047,0.318602,-0.223277,-0.00696344,0,
1,0.969219,0.331294,-0.223219,-0.00704481,0,
1,0.973211,0.343823,-0.223154,-0.00710303,0,
1,0.977045,0.356202,-0.223085,-0.00713933,0,
1,0.980739,0.368441,-0.223016,-0.00715458,0,
1,0.984308,0.380545,-0.222946,-0.00714915,0,
1,0.987768,0.392522,-0.222876,-0.00712392,0,
1,0.991131,0.404376,-0.222806,-0.00707974,0,
1,0.99441,0.416113,-0.222737,-0.00701747,0,
1,0.997615,0.427736,-0.222669,-0.00693799,0,
1,1.00076,0.439247,-0.222602,-0.00684218,0,
1,1.00384,0.450646,-0.222537,-0.00673098,0,
1,1.00688,0.461933,-0.222475,-0.00660536,0,
1,1.00988,0.473103,-0.222413,-0.00646649,0,
1,1.01581,0.495196,-0.222301,-0.00615023,0,
1,1.01882,0.506344,-0.222245,-0.00597123,0,
1,1.02188,0.517585,-0.222192,-0.0057788,0,
1,1.025,0.528908,-0.222139,-0.00557347,0,
1,1.02818,0.540296,-0.222086,-0.00535614,0,
1,1.03144,0.551732,-0.222034,-0.00512791,0,
1,1.03478,0.563196,-0.221982,-0.00489004,0,
1,1.03822,0.574662,-0.221928,-0.00464404,0,
1,1.04177,0.586104,-0.221873,-0.0043916,0,
1,1.04544,0.597491,-0.221814,-0.0041346,0,
1,1.04925,0.608786,-0.221751,-0.0038751,0,
1,1.05321,0.619952,-0.221681,-0.00361531,0,
1,1.05735,0.630947,-0.221602,-0.00335754,0,
1,1.06169,0.641726,-0.221512,-0.0031042,0,
1,1.06626,0.652245,-0.221409,-0.0028577,0,
1,1.07108,0.662459,-0.221289,-0.00262043,0,
1,1.07618,0.672329,-0.22115,-0.00239472,0,
1,1.0816,0.68182,-0.220988,-0.00218272,0,
1,1.08738,0.69091,-0.220802,-0.00198642,0,
1,1.09357,0.699587,-0.220589,-0.00180746,0,
1,1.10022,0.707856,-0.220346,-0.00164713,0,
1,1.10739,0.715738,-0.220073,-0.00150623,0,
1,1.11514,0.723272,-0.219766,-0.00138504,0,
1,1.12354,0.730506,-0.219426,-0.00128326,0,
1,1.13268,0.737502,-0.219051,-0.00120006,0,
1,1.14266,0.744326,-0.21864,-0.00113411,0,
1,1.15357,0.751046,-0.218193,-0.00108363,0,
1,1.16554,0.757728,-0.217709,-0.00104661,0,
1,1.1787,0.764431,-0.217189,-0.00102084,0,
1,1.1932,0.77121,-0.216635,-0.00100412,0,
1,1.2092,0.778112,-0.216048,-0.000994457,0,
1,1.22689,0.78518,-0.215433,-0.000989715,0,
1,1.24659,0.792486,-0.214784,-0.000987729,0,
1,1.26879,0.800136,-0.214107,-0.000988665,0,
1,1.29378,0.808157,-0.213399,-0.000991228,0,
1,1.3219,0.816576,-0.212668,-0.000993125,0,
1,1.35351,0.825425,-0.211912,-0.000992768,0,
1,1.389,0.834739,-0.211125,-0.000988726,0,
1,1.42882,0.844555,-0.210305,-0.000980475,0,
1,1.47342,0.854933,-0.20942,-0.000963293,0,
1,1.52332,0.865951,-0.208449,-0.000928622,0,
1,1.57905,0.877691,-0.207389,-0.000886914,0,
1,1.64119,0.890257,-0.206209,-0.000836535,0,
1,1.71033,0.903769,-0.204883,-0.000775911,0,
1,1.78711,0.918332,-0.203385,-0.000703642,0,
1,1.87215,0.933973,-0.201688,-0.000618829,0,
1,1.9661,0.95054,-0.19977,-0.000522008,0,
1,2.06959,0.967529,-0.19759,-0.000418026,0,
1,2.18321,0.984022,-0.195179,-0.000298199,0,
1,2.30752,0.998758,-0.19255,-0.000158752,0,
1,2.44299,1.01015,-0.189663,-5.68613e-05,0,
1,2.59002,1.01667,-0.186567,-7.57893e-06,0,
1,2.74885,1.01806,-0.183326,8.27257e-07,0,
1,2.91959,1.01604,-0.179991,9.25279e-08,0,
1,3.10217,1.01311,-0.176611,4.98863e-08,0,
1,3.2963,1.01073,-0.173221,3.94454e-08,0,
1,3.50146,1.00906,-0.16985,3.15742e-08,0,
1,3.7169,1.00773,-0.16653,2.79298e-08,0,
1,3.94163,1.00644,-0.163293,2.64128e-08,0,
1,4.17441,1.00511,-0.16017,2.51139e-08,0,
1,4.41376,1.0038,-0.157187,2.34588e-08,0,
1,4.65805,1.00255,-0.154365,2.16179e-08,0,
1,4.90545,1.00141,-0.15172,1.98238e-08,0,
1,5.15407,1.00035,-0.149261,1.81593e-08,0,
1,5.40194,0.999389,-0.146995,1.66501e-08,0,
1,5.64716,0.998517,-0.144924,1.53889e-08,0,
1,5.88785,0.997708,-0.143046,1.44866e-08,0,
1,6.12229,0.996931,-0.141357,1.37255e-08,0,
1,6.34896,0.996217,-0.139847,1.22678e-08,0,
1,6.56652,0.995758,-0.138508,9.64894e-09,0,
1,6.77388,0.995858,-0.137327,3.5513e-09,0,
1,6.97022,0.996478,-0.136291,1.55127e-08,0,
1,7.15495,0.996486,-0.135384,1.67666e-06,0,
1,7.32773,0.993413,-0.134597,1.76295e-05,0,
1,7.48842,0.984698,-0.133925,7.47897e-05,0,
1,7.63711,0.969818,-0.133371,0.000203069,0,
1,7.77403,0.95077,-0.1329,0.000385428,0,
1,7.89956,0.929914,-0.132503,0.000535021,0,
1,8.01417,0.908834,-0.132198,0.00068198,0,
1,8.11843,0.888653,-0.131942,0.000807649,0,
1,8.21296,0.869817,-0.131743,0.000908543,0,
1,8.29839,0.852326,-0.131585,0.000988075,0,
1,8.3754,0.835988,-0.131462,0.00105147,0,
1,8.44464,0.820559,-0.131368,0.0011032,0,
1,8.50675,0.805803,-0.131296,0.001145,0,
1,8.56236,0.7915,-0.131242,0.00117808,0,
1,8.61206,0.777506,-0.131202,0.0012084,0,
1,8.6564,0.763741,-0.131173,0.00123455,0,
1,8.69591,0.75015,-0.131153,0.00125686,0,
1,8.73107,0.736686,-0.131139,0.00127576,0,
1,8.76232,0.723314,-0.13113,0.00129161,0,
1,8.79007,0.710004,-0.131124,0.00130469,0,
1,8.81469,0.696729,-0.131121,0.00131523,0,
1,8.83651,0.683468,-0.131121,0.00132341,0,
1,8.85584,0.670202,-0.131121,0.00132939,0,
1,8.87295,0.65691,-0.131123,0.00133331,0,
1,8.8881,0.643573,-0.131125,0.00133527,0,
1,8.90149,0.630172,-0.131127,0.00133537,0,
1,8.91333,0.616685,-0.13113,0.00133368,0,
1,8.92379,0.603087,-0.131133,0.00133025,0,
1,8.93303,0.58935,-0.131136,0.00132511,0,
1,8.9412,0.575443,-0.131138,0.00131824,0,
1,8.9484,0.561328,-0.131141,0.00130961,0,
1,8.95476,0.546963,-0.131143,0.00129909,0,
1,8.96038,0.532296,-0.131145,0.00128653,0,
1,8.96533,0.517269,-0.131147,0.00127165,0,
1,8.9697,0.501812,-0.131149,0.00125408,0,
1,8.97356,0.485842,-0.13115,0.00123332,0,
1,8.97696,0.469261,-0.131151,0.00120863,0,
1,8.97996,0.451949,-0.131152,0.00117906,0,
1,8.98261,0.433766,-0.131153,0.00114334,0,
1,8.98494,0.414539,-0.131154,0.00110072,0,
1,8.98699,0.394026,-0.131155,0.00104472,0,
1,8.98881,0.371916,-0.131155,0.000973643,0,
1,8.99041,0.347923,-0.131156,0.000886469,0,
1,8.99182,0.321829,-0.131156,0.000780851,0,
1,8.99306,0.293476,-0.131156,0.000653426,0,
1,8.99416,0.262723,-0.131157,0.000494848,0,
1,8.99512,0.22974,-0.131157,0.000326293,0,
1,8.99597,0.195498,-0.131157,0.000177205,0,
1,8.99672,0.161654,-0.131157,7.62985e-05,0,
1,8.99739,0.129864,-0.131157,2.57736e-05,0,
1,8.99797,0.101072,-0.131157,6.81228e-06,0,
1,8.99848,0.0754769,-0.131157,1.36326e-06,0,
1,8.99894,0.052884,-0.131157,1.85981e-07,0,
1,8.99934,0.0329804,-0.131157,1.34833e-08,0,
1,8.99969,0.0154518,-0.131157,2.88477e-10,0,

4,0,0,-0.179518,0,0,
4,9,0,-0.101643,0,0,
4,1.05136,0.687755,-0.176056,-0.00417198,0,
4,0.000303409,-0.00847545,-0.179518,5.33672e-11,0,
4,0.00062865,-0.0174318,-0.179518,2.19466e-09,0,
4,0.000979511,-0.0269477,-0.179518,2.57826e-08,0,
4,0.00136016,-0.0370995,-0.179518,1.61427e-07,0,
4,0.00177519,-0.0479606,-0.179518,7.03331e-07,0,
4,0.0022297,-0.0595929,-0.179518,2.42406e-06,0,
4,0.00272934,-0.0720269,-0.179518,7.05834e-06,0,
4,0.00328037,-0.0852195,-0.179518,1.79251e-05,0,
4,0.00388979,-0.0989815,-0.179519,4.00983e-05,0,
4,0.00456537,-0.112894,-0.179519,7.86913e-05,0,
4,0.00531578,-0.126291,-0.17952,0.000134356,0,
4,0.0061507,-0.138423,-0.179521,0.000199302,0,
4,0.0070809,-0.148745,-0.179523,0.000259913,0,
4,0.00811839,-0.157093,-0.179526,0.000304708,0,
4,0.00927657,-0.16363,-0.179531,0.000329222,0,
4,0.0105703,-0.168665,-0.179537,0.000334744,0,
4,0.0120162,-0.172518,-0.179546,0.000324797,0,
4,0.0136326,-0.175455,-0.179558,0.000302759,0,
4,0.0154398,-0.177675,-0.179572,0.00027105,0,
4,0.0174603,-0.179326,-0.17959,0.00023114,0,
4,0.0197189,-0.180509,-0.179612,0.000183791,0,
4,0.0222427,-0.181297,-0.179638,0.000129274,0,
4,0.0250617,-0.18174,-0.179669,6.75405e-05,0,
4,0.0282081,-0.181871,-0.179706,-1.68315e-06,0,
4,0.0317171,-0.181715,-0.179749,-7.88226e-05,0,
4,0.0356266,-0.181283,-0.179798,-0.000164414,0,
4,0.039977,-0.180582,-0.179855,-0.000259074,0,
4,0.0448114,-0.179614,-0.179921,-0.000363474,0,
4,0.0501747,-0.178374,-0.179995,-0.000478322,0,
4,0.056114,-0.176856,-0.180078,-0.000604338,0,
4,0.062677,-0.175048,-0.180172,-0.000742236,0,
4,0.0699123,-0.172935,-0.180276,-0.000892695,0,
4,0.0778675,-0.170502,-0.180391,-0.00105634,0,
4,0.0865883,-0.167727,-0.180517,-0.00123369,0,
4,0.0961173,-0.164589,-0.180654,-0.00142516,0,
4,0.106492,-0.161062,-0.180801,-0.001631,0,
4,0.117744,-0.15712,-0.180959,-0.00185125,0,
4,0.129894,-0.152736,-0.181126,-0.00208574,0,
4,0.142956,-0.147879,-0.181301,-0.00233402,0,
4,0.156928,-0.142521,-0.181483,-0.00259539,0,
4,0.171798,-0.136634,-0.181671,-0.00286882,0,
4,0.187537,-0.13019,-0.181864,-0.00315298,0,
4,0.2041,-0.123167,-0.182059,-0.00344626,0,
4,0.221432,-0.115545,-0.182255,-0.00374678,0,
4,0.239458,-0.10731,-0.182451,-0.00405243,0,
4,0.258095,-0.0984554,-0.182644,-0.00436095,0,
4,0.27725,-0.088981,-0.182832,-0.00467001,0,
4,0.296825,-0.0788951,-0.183014,-0.00497725,0,
4,0.316717,-0.0682134,-0.183188,-0.00528038,0,
4,0.336828,-0.0569589,-0.183351,-0.0055773,0,
4,0.357066,-0.0451609,-0.183504,-0.00586608,0,
4,0.377348,-0.0328535,-0.183633,-0.0061455,0,
4,0.397605,-0.0200731,-0.183781,-0.00644866,0,
4,0.417786,-0.00672322,-0.18381,-0.00671921,0,
4,0.437857,0.00748985,-0.18368,-0.00690931,0,
4,0.457804,0.022797,-0.183562,-0.00709871,0,
4,0.477632,0.0391877,-0.183469,-0.00727869,0,
4,0.497368,0.0565437,-0.183401,-0.00744343,0,
4,0.517057,0.0747427,-0.183344,-0.00758991,0,
4,0.536763,0.0937173,-0.183283,-0.00771675,0,
4,0.556564,0.113472,-0.183208,-0.00782343,0,
4,0.576557,0.134073,-0.183112,-0.00790939,0,
4,0.596848,0.155631,-0.182993,-0.00797352,0,
4,0.617561,0.178273,-0.182853,-0.00801456,0,
4,0.637962,0.201225,-0.182692,-0.00803147,0,
4,0.657495,0.223821,-0.18252,-0.00802557,0,
4,0.676218,0.246003,-0.182343,-0.00799947,0,
4,0.694189,0.267709,-0.182161,-0.00795677,0,
4,0.711463,0.288881,-0.181977,-0.00790136,0,
4,0.728096,0.30947,-0.181792,-0.0078371,0,
4,0.744138,0.329442,-0.181607,-0.00776677,0,
4,0.759639,0.348778,-0.181423,-0.00769242,0,
4,0.774643,0.36747,-0.181242,-0.00761606,0,
4,0.789195,0.385516,-0.181065,-0.00753935,0,
4,0.803334,0.402919,-0.180895,-0.00746374,0,
4,0.817097,0.419687,-0.180731,-0.0073905,0,
4,0.830518,0.435832,-0.180575,-0.00732076,0,
4,0.843629,0.451375,-0.180425,-0.00725552,0,
4,0.856459,0.466344,-0.18028,-0.00719561,0,
4,0.869035,0.480774,-0.180137,-0.00714159,0,
4,0.881383,0.494709,-0.179991,-0.00709376,0,
4,0.893524,0.508212,-0.179836,-0.00705229,0,
4,0.905481,0.521377,-0.179665,-0.00701715,0,
4,0.917272,0.534384,-0.179429,-0.00692804,0,
4,0.928915,0.547392,-0.179156,-0.00681856,0,
4,0.940428,0.560435,-0.178893,-0.00669367,0,
4,0.951826,0.573495,-0.178621,-0.00654073,0,
4,0.963124,0.586553,-0.178348,-0.00636115,0,
4,0.974334,0.599589,-0.178071,-0.00615639,0,
4,0.98547,0.61258,-0.177792,-0.00592796,0,
4,0.996544,0.6255,-0.177509,-0.00567745,0,
4,1.00757,0.638318,-0.177224,-0.00540685,0,
4,1.01855,0.650998,-0.176936,-0.00511829,0,
4,1.0295,0.663497,-0.176645,-0.00481416,0,
4,1.04044,0.675768,-0.176352,-0.0044976,0,
4,1.0623,0.699415,-0.175758,-0.00384093,0,
4,1.07328,0.710696,-0.175455,-0.00350891,0,
4,1.08432,0.721523,-0.175149,-0.00318121,0,
4,1.09543,0.731817,-0.174838,-0.00286351,0,
4,1.10661,0.741508,-0.174522,-0.0025616,0,
4,1.11788,0.750537,-0.174202,-0.00228088,0,
4,1.12925,0.758865,-0.173875,-0.00202583,0,
4,1.14073,0.766479,-0.173543,-0.00179958,0,
4,1.15233,0.773394,-0.173204,-0.00160365,0,
4,1.16408,0.779653,-0.172858,-0.00143787,0,
4,1.17599,0.78532,-0.172506,-0.00130067,0,
4,1.18806,0.790473,-0.172147,-0.00118943,0,
4,1.20034,0.795193,-0.171782,-0.00110091,0,
4,1.21282,0.799559,-0.171409,-0.00103169,0,
4,1.22554,0.803645,-0.171029,-0.000978412,0,
4,1.23852,0.807515,-0.170641,-0.000938005,0,
4,1.25179,0.811224,-0.170246,-0.000907781,0,
4,1.26537,0.814817,-0.169842,-0.000885457,0,
4,1.2793,0.818334,-0.16943,-0.000869135,0,
4,1.29362,0.821807,-0.169008,-0.000857266,0,
4,1.30836,0.825263,-0.168575,-0.000848606,0,
4,1.32357,0.828727,-0.168131,-0.00084217,0,
4,1.3393,0.832217,-0.167674,-0.000837215,0,
4,1.3556,0.835753,-0.167204,-0.000833066,0,
4,1.37252,0.839351,-0.166718,-0.000829043,0,
4,1.39015,0.843029,-0.166215,-0.000824717,0,
4,1.40855,0.846803,-0.165694,-0.000819661,0,
4,1.42781,0.850687,-0.165154,-0.000813431,0,
4,1.44801,0.854697,-0.164589,-0.000806081,0,
4,1.46926,0.858848,-0.164003,-0.0007981,0,
4,1.49167,0.863177,-0.163396,-0.000782936,0,
4,1.51537,0.867721,-0.162764,-0.000767162,0,
4,1.54091,0.872578,-0.162084,-0.000750184,0,
4,1.56949,0.877943,-0.161332,-0.000731486,0,
4,1.60144,0.883871,-0.160498,-0.000710795,0,
4,1.63713,0.890402,-0.159578,-0.000687583,0,
4,1.67693,0.89757,-0.158564,-0.000661434,0,
4,1.72128,0.9054,-0.15745,-0.000631946,0,
4,1.77062,0.913901,-0.156229,-0.000598669,0,
4,1.82542,0.923048,-0.154892,-0.000561464,0,
4,1.88618,0.932795,-0.15344,-0.000517224,0,
4,1.95343,0.943087,-0.151871,-0.000451927,0,
4,2.02768,0.953745,-0.150178,-0.00037683,0,
4,2.10949,0.964406,-0.148363,-0.00029404,0,
4,2.19939,0.974562,-0.146429,-0.000209424,0,
4,2.29789,0.983576,-0.144383,-0.000130517,0,
4,2.40551,0.990734,-0.142238,-6.54695e-05,0,
4,2.52268,0.995412,-0.140016,-2.08729e-05,0,
4,2.64979,0.997323,-0.137742,1.33308e-06,0,
4,2.78715,0.996757,-0.135444,6.00504e-06,0,
4,2.93497,0.994623,-0.133149,3.11047e-06,0,
4,3.09333,0.99212,-0.130877,6.81925e-07,0,
4,3.26217,0.990146,-0.128647,7.88885e-08,0,
4,3.44125,0.988941,-0.126474,2.32481e-08,0,
4,3.63018,0.988231,-0.12437,1.72877e-08,0,
4,3.82836,0.987653,-0.122346,1.5744e-08,0,
4,4.03501,0.987009,-0.120412,1.5473e-08,0,
4,4.24915,0.986289,-0.118577,1.49769e-08,0,
4,4.46961,0.985559,-0.116847,1.39473e-08,0,
4,4.69507,0.984875,-0.115226,1.2663e-08,0,
4,4.92406,0.984257,-0.113717,1.14294e-08,0,
4,5.15502,0.9837,-0.11232,1.03964e-08,0,
4,5.3863,0.983193,-0.111034,9.65869e-09,0,
4,5.61626,0.982721,-0.109856,9.46481e-09,0,
4,5.84328,0.982266,-0.108785,1.05851e-08,0,
4,6.06579,0.981828,-0.107815,1.52252e-08,0,
4,6.28238,0.981469,-0.106943,2.66243e-08,0,
4,6.49173,0.981349,-0.106162,2.89689e-08,0,
4,6.69275,0.981631,-0.105465,-6.59949e-08,0,
4,6.88453,0.98216,-0.104845,4.2938e-08,0,
4,7.06634,0.982006,-0.104293,4.46514e-06,0,
4,7.23771,0.979344,-0.103807,2.69482e-05,0,
4,7.39831,0.972137,-0.103382,8.75078e-05,0,
4,7.54803,0.95944,-0.103027,0.000199858,0,
4,7.68693,0.942084,-0.102729,0.00034128,0,
4,7.81519,0.921915,-0.102468,0.000475837,0,
4,7.93313,0.900835,-0.102261,0.000616451,0,
4,8.04115,0.880329,-0.102084,0.000745734,0,
4,8.13974,0.861116,-0.101942,0.000854414,0,
4,8.22941,0.843312,-0.101829,0.000942206,0,
4,8.31073,0.826744,-0.101742,0.00101272,0,
4,8.38429,0.811153,-0.101676,0.00107029,0,
4,8.45065,0.796282,-0.101628,0.00111836,0,
4,8.5104,0.781905,-0.101595,0.00115678,0,
4,8.56407,0.76786,-0.101572,0.00119127,0,
4,8.61222,0.754059,-0.101558,0.00122164,0,
4,8.65533,0.740447,-0.10155,0.00124764,0,
4,8.69387,0.726983,-0.101547,0.00126962,0,
4,8.7283,0.713636,-0.101547,0.0012879,0,
4,8.75901,0.700381,-0.10155,0.00130275,0,
4,8.78637,0.6872,-0.101555,0.00131439,0,
4,8.81074,0.674076,-0.10156,0.00132301,0,
4,8.83242,0.660998,-0.101567,0.00132881,0,
4,8.85169,0.647953,-0.101573,0.00133197,0,
4,8.86881,0.634929,-0.10158,0.00133267,0,
4,8.88402,0.621913,-0.101587,0.00133109,0,
4,8.89751,0.608889,-0.101593,0.0013274,0,
4,8.90949,0.595841,-0.101599,0.00132178,0,
4,8.92011,0.582746,-0.101604,0.00131435,0,
4,8.92952,0.56958,-0.101609,0.00130525,0,
4,8.93787,0.556314,-0.101614,0.00129455,0,
4,8.94526,0.542915,-0.101618,0.0012823,0,
4,8.95182,0.529342,-0.101622,0.00126848,0,
4,8.95762,0.515551,-0.101625,0.00125302,0,
4,8.96276,0.501487,-0.101628,0.00123577,0,
4,8.96731,0.48709,-0.10163,0.00121646,0,
4,8.97134,0.472287,-0.101633,0.00119474,0,
4,8.97491,0.456993,-0.101635,0.00117006,0,
4,8.97807,0.441109,-0.101636,0.00114172,0,
4,8.98087,0.424515,-0.101637,0.00110873,0,
4,8.98334,0.407072,-0.101639,0.0010698,0,
4,8.98553,0.388609,-0.10164,0.00102369,0,
4,8.98747,0.368906,-0.10164,0.000966135,0,
4,8.98919,0.347681,-0.101641,0.000893176,0,
4,8.9907,0.324668,-0.101642,0.000805381,0,
4,8.99205,0.299678,-0.101642,0.000701095,0,
4,8.99324,0.27254,-0.101642,0.00057155,0,
4,8.99429,0.243173,-0.101642,0.00042122,0,
4,8.99522,0.211948,-0.101643,0.00026823,0,
4,8.99605,0.179924,-0.101643,0.00014061,0,
4,8.99677,0.148648,-0.101643,5.89597e-05,0,
4,8.99742,0.119487,-0.101643,1.9672e-05,0,
4,8.99799,0.0931319,-0.101643,5.19907e-06,0,
4,8.9985,0.0696733,-0.101643,1.0478e-06,0,
4,8.99894,0.0489097,-0.101643,1.44377e-07,0,
4,8.99934,0.030559,-0.101643,1.05739e-08,0,
4,8.99969,0.0143434,-0.101643,2.27918e-10,0,

6,0,0,-0.0333796,0,0,
6,9,0,-0.077819,0,0,
6,1.07704,0.72834,-0.0458311,-0.00202734,0,
6,0.000299862,-0.0019751,-0.0333831,1.40322e-11,0,
6,0.000611645,-0.00394798,-0.0333805,5.28675e-10,0,
6,0.000938257,-0.00592611,-0.0333833,5.56313e-09,0,
6,0.00128281,-0.00791432,-0.0333814,3.10095e-08,0,
6,0.00164864,-0.00991387,-0.0333836,1.20066e-07,0,
6,0.00203939,-0.011921,-0.0333822,3.6793e-07,0,
6,0.00245897,-0.0139244,-0.033384,9.5585e-07,0,
6,0.00291168,-0.0159015,-0.0333831,2.18283e-06,0,
6,0.00340221,-0.0178125,-0.0333848,4.44774e-06,0,
6,0.00393573,-0.0195955,-0.0333844,8.06824e-06,0,
6,0.00451788,-0.0211666,-0.0333864,1.28105e-05,0,
6,0.00515491,-0.0224386,-0.0333873,1.73142e-05,0,
6,0.00585371,-0.0233553,-0.0333911,1.91946e-05,0,
6,0.00662185,-0.0239178,-0.033395,1.62643e-05,0,
6,0.00746774,-0.0241741,-0.0334023,7.69964e-06,0,
6,0.00840063,-0.0241882,-0.033411,-6.08794e-06,0,
6,0.00943073,-0.0240163,-0.0334236,-2.42963e-05,0,
6,0.0105693,-0.0236996,-0.0334386,-4.62951e-05,0,
6,0.0118288,-0.0232654,-0.033458,-7.17598e-05,0,
6,0.0132228,-0.0227303,-0.0334808,-0.000100619,0,
6,0.0147664,-0.022104,-0.0335086,-0.000132979,0,
6,0.016476,-0.0213911,-0.033541,-0.000169065,0,
6,0.0183694,-0.0205929,-0.0335793,-0.000209187,0,
6,0.0204662,-0.0197082,-0.0336236,-0.000253723,0,
6,0.0227875,-0.0187339,-0.0336749,-0.000303104,0,
6,0.0253561,-0.0176657,-0.0337337,-0.000357812,0,
6,0.0281964,-0.0164979,-0.033801,-0.000418373,0,
6,0.0313344,-0.0152237,-0.0338773,-0.000485354,0,
6,0.0347975,-0.0138355,-0.0339637,-0.000559362,0,
6,0.0386145,-0.0123248,-0.0340606,-0.000641033,0,
6,0.042815,-0.010682,-0.0341691,-0.00073103,0,
6,0.0474296,-0.00889714,-0.0342895,-0.000830034,0,
6,0.0524888,-0.0069591,-0.0344225,-0.000938732,0,
6,0.0580229,-0.00485631,-0.0345683,-0.00105781,0,
6,0.0640611,-0.00257646,-0.0347271,-0.00118795,0,
6,0.0706309,-0.000106491,-0.0348986,-0.00132968,0,
6,0.077757,0.0025673,-0.0350823,-0.00148352,0,
6,0.0854609,0.00545882,-0.0352775,-0.00165,0,
6,0.0937597,0.008582,-0.0354828,-0.00182944,0,
6,0.102665,0.0119508,-0.0356968,-0.00202201,0,
6,0.112183,0.0155791,-0.0359175,-0.00222769,0,
6,0.122315,0.0194808,-0.036143,-0.00244629,0,
6,0.133052,0.0236692,-0.0363711,-0.00267742,0,
6,0.144384,0.0281575,-0.0365995,-0.00292047,0,
6,0.156292,0.0329583,-0.036826,-0.00317467,0,
6,0.168754,0.0380838,-0.0370484,-0.00343907,0,
6,0.181744,0.043546,-0.037265,-0.00371257,0,
6,0.195237,0.0493573,-0.0374743,-0.00399399,0,
6,0.209207,0.0555307,-0.037675,-0.00428209,0,
6,0.223631,0.0620811,-0.0378663,-0.00457561,0,
6,0.238493,0.069026,-0.0380479,-0.00487333,0,
6,0.253785,0.0763865,-0.0382196,-0.00517411,0,
6,0.269507,0.0841892,-0.0383817,-0.00547686,0,
6,0.28567,0.0924671,-0.0385348,-0.0057806,0,
6,0.3023,0.101261,-0.0386795,-0.00608444,0,
6,0.319433,0.110623,-0.0388168,-0.00638748,0,
6,0.337122,0.120614,-0.0389477,-0.00668886,0,
6,0.355433,0.13131,-0.0390733,-0.00698759,0,
6,0.374445,0.1428,-0.0391951,-0.00728253,0,
6,0.394252,0.155189,-0.0393132,-0.00757214,0,
6,0.414961,0.168603,-0.0394332,-0.00785492,0,
6,0.436695,0.183185,-0.0395437,-0.00812736,0,
6,0.459585,0.199097,-0.0396771,-0.00838863,0,
6,0.48378,0.216534,-0.0398082,-0.00871235,0,
6,0.508144,0.235097,-0.039715,-0.0088057,0,
6,0.531799,0.254556,-0.0394919,-0.00882822,0,
6,0.554791,0.274871,-0.0393861,-0.00880996,0,
6,0.577166,0.295712,-0.0393684,-0.00874656,0,
6,0.598964,0.31674,-0.0394148,-0.00863916,0,
6,0.620228,0.337728,-0.0394908,-0.00849154,0,
6,0.640996,0.358559,-0.0395819,-0.00830911,0,
6,0.661304,0.379178,-0.0396851,-0.00809723,0,
6,0.681188,0.399541,-0.0398032,-0.00786099,0,
6,0.700681,0.419594,-0.0399394,-0.00760531,0,
6,0.719813,0.439275,-0.0400951,-0.00733494,0,
6,0.738612,0.458517,-0.0402701,-0.0070545,0,
6,0.757107,0.477262,-0.0404629,-0.0067683,0,
6,0.775322,0.495461,-0.0406723,-0.00648021,0,
6,0.793282,0.51308,-0.0408973,-0.00619357,0,
6,0.811008,0.530097,-0.0411371,-0.00591106,0,
6,0.828521,0.546501,-0.0413907,-0.00563473,0,
6,0.845842,0.562288,-0.0416574,-0.00536607,0,
6,0.862989,0.577453,-0.0419342,-0.00510805,0,
6,0.879979,0.591992,-0.0422184,-0.00486222,0,
6,0.896829,0.605908,-0.0425086,-0.00462748,0,
6,0.913555,0.619224,-0.0428039,-0.00440233,0,
6,0.930172,0.631987,-0.0431019,-0.00418467,0,
6,0.946694,0.644275,-0.0434021,-0.00397126,0,
6,0.963136,0.656214,-0.0436933,-0.00372812,0,
6,0.97951,0.667873,-0.0439826,-0.00348444,0,
6,0.99583,0.6792,-0.0442805,-0.00323408,0,
6,1.01211,0.690119,-0.0445816,-0.00297905,0,
6,1.02836,0.700555,-0.0448882,-0.0027251,0,
6,1.04459,0.71044,-0.0451987,-0.00247817,0,
6,1.06081,0.719716,-0.0455132,-0.00224394,0,
6,1.09329,0.736301,-0.046152,-0.00183217,0,
6,1.10959,0.743609,-0.0464756,-0.00166087,0,
6,1.12595,0.750295,-0.0468015,-0.00151435,0,
6,1.14238,0.756412,-0.0471293,-0.00139207,0,
6,1.1589,0.762027,-0.0474586,-0.00129236,0,
6,1.17551,0.767215,-0.0477892,-0.00121271,0,
6,1.19223,0.77205,-0.048121,-0.00115023,0,
6,1.20907,0.776599,-0.0484539,-0.00110195,0,
6,1.22605,0.780924,-0.0487878,-0.00106503,0,
6,1.24318,0.785077,-0.0491228,-0.00103692,0,
6,1.26048,0.789101,-0.049459,-0.00101542,0,
6,1.27797,0.793031,-0.0497963,-0.000998731,0,
6,1.29566,0.796897,-0.0501353,-0.000985381,0,
6,1.31357,0.800719,-0.0504752,-0.000974262,0,
6,1.33173,0.804517,-0.0508185,-0.000964515,0,
6,1.35015,0.808305,-0.0511597,-0.000957517,0,
6,1.36886,0.812116,-0.051509,-0.000950058,0,
6,1.38788,0.81602,-0.0518706,-0.000929234,0,
6,1.40725,0.820064,-0.0522323,-0.000908541,0,
6,1.42698,0.82422,-0.0525953,-0.000889009,0,
6,1.44712,0.828443,-0.0529588,-0.000870338,0,
6,1.46769,0.832704,-0.053325,-0.000851961,0,
6,1.48874,0.837003,-0.0536954,-0.000833367,0,
6,1.5103,0.84135,-0.054071,-0.000814309,0,
6,1.53242,0.845761,-0.0544523,-0.000794726,0,
6,1.55515,0.850247,-0.0548395,-0.000774632,0,
6,1.57854,0.854812,-0.0552331,-0.000754028,0,
6,1.60265,0.859462,-0.0556334,-0.000732889,0,
6,1.62754,0.864198,-0.0560412,-0.000711167,0,
6,1.65329,0.869023,-0.0564566,-0.000688881,0,
6,1.67998,0.873939,-0.0568808,-0.000666014,0,
6,1.70768,0.878948,-0.0573133,-0.000642606,0,
6,1.73712,0.88415,-0.0577675,-0.000618446,0,
6,1.76996,0.889776,-0.0582624,-0.000592345,0,
6,1.80655,0.895855,-0.0588042,-0.000563837,0,
6,1.84728,0.902367,-0.0593888,-0.000532867,0,
6,1.89255,0.909295,-0.0600281,-0.000494419,0,
6,1.9428,0.916644,-0.0607233,-0.000442644,0,
6,1.99849,0.924351,-0.061466,-0.000385156,0,
6,2.06009,0.932231,-0.0622595,-0.000321769,0,
6,2.1281,0.940021,-0.0630999,-0.000255465,0,
6,2.20301,0.947402,-0.063983,-0.000190273,0,
6,2.28535,0.954012,-0.0649025,-0.000130339,0,
6,2.37559,0.95948,-0.0658498,-7.9602e-05,0,
6,2.47424,0.963484,-0.0668146,-4.11461e-05,0,
6,2.58172,0.965853,-0.0677845,-1.62635e-05,0,
6,2.69844,0.966669,-0.0687467,-3.70543e-06,0,
6,2.82473,0.966313,-0.0696875,2.93265e-07,0,
6,2.96084,0.965403,-0.070595,4.53167e-07,0,
6,3.10691,0.964586,-0.071459,3.39898e-08,0,
6,3.26296,0.964286,-0.0722729,-6.13121e-08,0,
6,3.42888,0.964559,-0.073032,-3.01328e-08,0,
6,3.60438,0.965176,-0.0737326,-1.50483e-08,0,
6,3.78902,0.965844,-0.0743712,-1.16753e-08,0,
6,3.98218,0.966379,-0.0749456,-9.03449e-09,0,
6,4.18307,0.966749,-0.0754548,-6.81676e-09,0,
6,4.39071,0.967008,-0.0758999,-5.4425e-09,0,
6,4.60398,0.967223,-0.076283,-4.71012e-09,0,
6,4.82159,0.967428,-0.0766078,-4.26252e-09,0,
6,5.04218,0.967624,-0.0768784,-3.8911e-09,0,
6,5.26426,0.967802,-0.0771001,-3.59131e-09,0,
6,5.48633,0.967948,-0.077278,-3.53347e-09,0,
6,5.70687,0.968052,-0.0774178,-4.13054e-09,0,
6,5.92439,0.968117,-0.0775248,-6.84305e-09,0,
6,6.1375,0.968186,-0.0776042,-2.0865e-08,0,
6,6.34489,0.968368,-0.0776606,-9.68923e-08,0,
6,6.5454,0.968803,-0.0776979,-3.91324e-07,0,
6,6.73802,0.969471,-0.0777187,-8.63776e-07,0,
6,6.92195,0.969875,-0.077726,8.98356e-07,0,
6,7.09653,0.968788,-0.0777221,1.40057e-05,0,
6,7.26132,0.964468,-0.0777138,5.45889e-05,0,
6,7.41603,0.955463,-0.0776989,0.000137715,0,
6,7.56054,0.941505,-0.0776909,0.000268161,0,
6,7.6949,0.923544,-0.0776821,0.000383578,0,
6,7.81927,0.903163,-0.0776643,0.000511764,0,
6,7.93391,0.882193,-0.077649,0.000643149,0,
6,8.0392,0.862027,-0.0776278,0.000762643,0,
6,8.13555,0.84327,-0.0776112,0.000863512,0,
6,8.22344,0.825937,-0.077598,0.000945958,0,
6,8.30339,0.809783,-0.0775919,0.00101339,0,
6,8.37592,0.794514,-0.0775911,0.00106952,0,
6,8.44155,0.779873,-0.0775956,0.00111726,0,
6,8.50082,0.765663,-0.0776034,0.00115853,0,
6,8.55423,0.751751,-0.0776145,0.00119425,0,
6,8.60229,0.73806,-0.0776275,0.00122558,0,
6,8.64545,0.724548,-0.0776412,0.00125215,0,
6,8.68417,0.711184,-0.0776553,0.00127422,0,
6,8.71885,0.697946,-0.0776695,0.00129211,0,
6,8.74989,0.68482,-0.0776834,0.00130606,0,
6,8.77763,0.671792,-0.0776968,0.00131633,0,
6,8.80241,0.658855,-0.0777096,0.00132313,0,
6,8.82452,0.646,-0.0777216,0.00132672,0,
6,8.84423,0.633219,-0.0777327,0.00132734,0,
6,8.86181,0.620504,-0.077743,0.00132526,0,
6,8.87746,0.607843,-0.0777525,0.00132075,0,
6,8.89139,0.595223,-0.077761,0.00131407,0,
6,8.90379,0.582627,-0.0777687,0.00130546,0,
6,8.91482,0.570035,-0.0777756,0.00129514,0,
6,8.92463,0.557421,-0.0777818,0.00128331,0,
6,8.93334,0.544759,-0.0777872,0.00127012,0,
6,8.94109,0.532015,-0.077792,0.00125566,0,
6,8.94798,0.519153,-0.0777962,0.00123998,0,
6,8.95409,0.506128,-0.0777998,0.00122307,0,
6,8.95953,0.492894,-0.077803,0.00120484,0,
6,8.96435,0.479394,-0.0778057,0.0011851,0,
6,8.96863,0.465563,-0.077808,0.0011636,0,
6,8.97244,0.451329,-0.07781,0.00113992,0,
6,8.97581,0.436605,-0.0778117,0.00111351,0,
6,8.97881,0.421291,-0.0778131,0.00108363,0,
6,8.98147,0.405269,-0.0778143,0.00104927,0,
6,8.98383,0.388398,-0.0778153,0.0010091,0,
6,8.98593,0.370514,-0.0778161,0.000961683,0,
6,8.98779,0.351407,-0.0778168,0.00090368,0,
6,8.98944,0.330817,-0.0778173,0.000830545,0,
6,8.9909,0.308496,-0.0778178,0.000743526,0,
6,8.9922,0.284275,-0.0778181,0.000640181,0,
6,8.99336,0.25799,-0.0778184,0.000512213,0,
6,8.99438,0.229635,-0.0778185,0.000369473,0,
6,8.99529,0.199699,-0.0778187,0.000229227,0,
6,8.99609,0.169277,-0.0778188,0.000117195,0,
6,8.99681,0.139808,-0.0778189,4.82867e-05,0,
6,8.99744,0.112457,-0.0778189,1.59923e-05,0,
6,8.99801,0.0877581,-0.077819,4.22983e-06,0,
6,8.9985,0.0657447,-0.077819,8.57011e-07,0,
6,8.99895,0.0462174,-0.077819,1.18925e-07,0,
6,8.99934,0.0289169,-0.077819,8.77195e-09,0,
6,8.99969,0.0135908,-0.0778191,1.90066e-10,0,

10,0,0,0.0312446,0,0,
10,0.000296632,0.00776801,0.0312415,-4.11106e-11,0,
10,0.000596102,0.0156104,0.0312441,-1.52412e-09,0,
10,0.000900397,0.0235791,0.0312416,-1.55017e-08,0,
10,0.00121153,0.0317265,0.0312438,-8.33387e-08,0,
10,0.00153158,0.0401051,0.0312417,-3.1192e-07,0,
10,0.00186264,0.0487668,0.0312435,-9.28244e-07,0,
10,0.00220692,0.0577604,0.0312417,-2.35951e-06,0,
10,0.00256668,0.0671282,0.0312432,-5.33944e-06,0,
10,0.00294431,0.0768984,0.0312417,-1.1023e-05,0,
10,0.00334229,0.0870754,0.0312429,-2.10527e-05,0,
10,0.00376326,0.0976261,0.0312416,-3.7464e-05,0,
10,0.00421,0.108468,0.0312425,-6.22969e-05,0,
10,0.00468544,0.119461,0.0312413,-9.68887e-05,0,
10,0.00519274,0.130418,0.0312419,-0.000141108,0,
10,0.00573524,0.141133,0.0312406,-0.00019303,0,
10,0.00631651,0.15141,0.0312408,-0.00024939,0,
10,0.00694041,0.161097,0.0312393,-0.000306559,0,
10,0.00761104,0.170099,0.0312389,-0.000361475,0,
10,0.00833284,0.178377,0.0312368,-0.000412109,0,
10,0.00911058,0.185936,0.0312355,-0.000457479,0,
10,0.0099494,0.192815,0.0312327,-0.000497416,0,
10,0.0108548,0.199067,0.0312301,-0.000532277,0,
10,0.0118329,0.204756,0.0312261,-0.000562712,0,
10,0.0128901,0.209948,0.0312221,-0.000589484,0,
10,0.0140333,0.214705,0.0312165,-0.000613369,0,
10,0.0152702,0.219086,0.0312105,-0.000635093,0,
10,0.0166089,0.223142,0.0312029,-0.000655307,0,
10,0.0180584,0.22692,0.0311944,-0.000674586,0,
10,0.0196282,0.23046,0.0311843,-0.00069343,0,
10,0.0213288,0.233797,0.031173,-0.000712275,0,
10,0.0231714,0.236962,0.0311597,-0.000731511,0,
10,0.0251682,0.239982,0.0311448,-0.000751486,0,
10,0.0273326,0.24288,0.0311277,-0.000772521,0,
10,0.0296789,0.245678,0.0311085,-0.00079492,0,
10,0.0322227,0.248395,0.0310869,-0.000818974,0,
10,0.0349809,0.251048,0.0310626,-0.000844974,0,
10,0.0379719,0.253652,0.0310355,-0.000873209,0,
10,0.0412155,0.256222,0.0310052,-0.000903978,0,
10,0.0447333,0.258773,0.0309715,-0.000937588,0,
10,0.0485489,0.261317,0.0309342,-0.000974363,0,
10,0.0526875,0.263868,0.030893,-0.00101465,0,
10,0.0571768,0.266439,0.0308476,-0.0010588,0,
10,0.0620466,0.269043,0.0307977,-0.00110721,0,
10,0.0673295,0.271694,0.030743,-0.00116029,0,
10,0.0730607,0.274407,0.0306832,-0.00121848,0,
10,0.0792784,0.277196,0.0306182,-0.00128227,0,
10,0.0860241,0.280077,0.0305477,-0.00135215,0,
10,0.0933428,0.283069,0.0304715,-0.00142867,0,
10,0.101283,0.286191,0.0303894,-0.00151241,0,
10,0.109899,0.289465,0.0303013,-0.00160396,0,
10,0.119247,0.292914,0.0302073,-0.00170396,0,
10,0.12939,0.296565,0.0301073,-0.00181308,0,
10,0.140395,0.30045,0.0300014,-0.00193199,0,
10,0.152337,0.304604,0.02989,-0.00206137,0,
10,0.165296,0.309067,0.0297731,-0.00220189,0,
10,0.179357,0.313884,0.0296513,-0.00235416,0,
10,0.194615,0.319111,0.0295248,-0.00251875,0,
10,0.211171,0.324808,0.0293945,-0.00269608,0,
10,0.229138,0.331049,0.0292603,-0.0028864,0,
10,0.248635,0.337917,0.0291235,-0.00308968,0,
10,0.269793,0.34551,0.028983,-0.00330552,0,
10,0.292753,0.353942,0.0288415,-0.00353296,0,
10,0.317669,0.363345,0.0286943,-0.00376891,0,
10,0.344708,0.373863,0.0285475,-0.00400845,0,
10,0.372405,0.385006,0.0284051,-0.00424106,0,
10,0.399623,0.396335,0.0282682,-0.00445528,0,
10,0.426397,0.407847,0.0281377,-0.00464669,0,
10,0.452757,0.419537,0.0280104,-0.00481709,0,
10,0.478735,0.431404,0.0278876,-0.00496397,0,
10,0.504358,0.443452,0.0277681,-0.0050864,0,
10,0.529657,0.455685,0.0276513,-0.00518495,0,
10,0.554656,0.468104,0.0275324,-0.00525919,0,
10,0.579382,0.480707,0.0274172,-0.00530857,0,
10,0.603859,0.49349,0.0272906,-0.00533673,0,
10,0.628112,0.506468,0.0271773,-0.00538345,0,
10,0.652163,0.5199,0.0271352,-0.00529009,0,
10,0.676035,0.534086,0.027109,-0.00516027,0,
10,0.699751,0.548974,0.027039,-0.00500088,0,
10,0.72333,0.56429,0.0269294,-0.00481374,0,
10,0.746795,0.579718,0.0267851,-0.00460281,0,
10,0.770165,0.595008,0.0266194,-0.0043731,0,
10,0.79346,0.609999,0.0264382,-0.00412993,0,
10,0.816699,0.624585,0.0262449,-0.00387864,0,
10,0.839903,0.638661,0.0260379,-0.00363108,0,
10,0.863088,0.65213,0.0258172,-0.00339087,0,
10,0.886275,0.664933,0.0255856,-0.00315886,0,
10,0.909481,0.677066,0.0253447,-0.00293578,0,
10,0.932723,0.688553,0.0250954,-0.00272245,0,
10,0.956021,0.699429,0.0248379,-0.00251967,0,
10,0.97939,0.709723,0.024572,-0.00232817,0,
10,1.00285,0.719458,0.0242976,-0.00214852,0,
10,1.02641,0.728655,0.0240151,-0.00198114,0,
10,1.0501,0.737341,0.0237241,-0.0018261,0,
10,1.07392,0.745558,0.0234271,-0.00167906,0,
10,1.0979,0.753335,0.0231225,-0.00154461,0,
10,1.12205,0.760677,0.0228089,-0.00142372,0,
10,1.14639,0.767591,0.0224873,-0.00131624,0,
10,1.17093,0.7741,0.0221578,-0.00122258,0,
10,1.19568,0.78024,0.0218205,-0.00114242,0,
10,1.22066,0.786056,0.0214766,-0.00107486,0,
10,1.24589,0.791599,0.021125,-0.00101864,0,
10,1.27137,0.79692,0.0207686,-0.000974854,0,
10,1.29713,0.802099,0.0204057,-0.000937804,0,
10,1.32317,0.807271,0.0200371,-0.000894898,0,
10,1.34951,0.812533,0.0196646,-0.000854647,0,
10,1.37616,0.81786,0.0192843,-0.000817564,0,
10,1.40313,0.823175,0.0188967,-0.00078354,0,
10,1.43043,0.828419,0.0185009,-0.000751911,0,
10,1.45807,0.833578,0.0180979,-0.000721849,0,
10,1.48607,0.838672,0.0176877,-0.000692749,0,
10,1.51444,0.843726,0.0172705,-0.000664351,0,
10,1.54318,0.848746,0.016846,-0.000636628,0,
10,1.57231,0.853721,0.016414,-0.0006096,0,
10,1.60184,0.85863,0.0159744,-0.000583266,0,
10,1.63178,0.86345,0.0155272,-0.000557617,0,
10,1.66213,0.868157,0.0150729,-0.000532691,0,
10,1.69292,0.87273,0.0146112,-0.00050851,0,
10,1.72416,0.877152,0.0141426,-0.000484987,0,
10,1.75585,0.881433,0.013666,-0.000461435,0,
10,1.78802,0.885623,0.0131799,-0.000432033,0,
10,1.82067,0.889761,0.012686,-0.000403925,0,
10,1.85383,0.893841,0.0121848,-0.000375129,0,
10,1.88751,0.897841,0.0116749,-0.000345272,0,
10,1.92173,0.901736,0.0111574,-0.000314659,0,
10,1.95652,0.9055,0.010631,-0.000283711,0,
10,1.9919,0.909109,0.0100969,-0.000252922,0,
10,2.02791,0.912538,0.00955326,-0.000222869,0,
10,2.06456,0.915767,0.00900247,-0.00019381,0,
10,2.10268,0.918836,0.00842884,-0.000165337,0,
10,2.1443,0.921836,0.00780699,-0.000137834,0,
10,2.18977,0.924716,0.00712961,-0.000111443,0,
10,2.23946,0.927394,0.0063952,-8.64915e-05,0,
10,2.29376,0.929783,0.00559824,-6.38485e-05,0,
10,2.35309,0.9318,0.00473676,-4.4254e-05,0,
10,2.4179,0.933372,0.00380699,-2.8286e-05,0,
10,2.48863,0.93445,0.00280768,-1.62699e-05,0,
10,2.56575,0.935025,0.00173709,-8.16605e-06,0,
10,2.64971,0.935146,0.000595565,-3.50353e-06,0,
10,2.74098,0.934929,-0.000616353,-1.41793e-06,0,
10,2.83997,0.93455,-0.00189651,-8.4133e-07,0,
10,2.94709,0.934217,-0.00324233,-8.1507e-07,0,
10,3.06269,0.934119,-0.00465,-7.68894e-07,0,
10,3.18706,0.934375,-0.00611503,-5.70317e-07,0,
10,3.3204,0.934998,-0.00763143,-3.27661e-07,0,
10,3.46281,0.935899,-0.00919167,-1.52114e-07,0,
10,3.61427,0.936935,-0.0107861,-6.47803e-08,0,
10,3.77463,0.937965,-0.0124034,-3.28043e-08,0,
10,3.94358,0.938901,-0.0140304,-2.31107e-08,0,
10,4.12067,0.939726,-0.0156531,-1.98104e-08,0,
10,4.30525,0.940469,-0.0172573,-1.82714e-08,0,
10,4.49655,0.941174,-0.0188291,-1.76287e-08,0,
10,4.6936,0.941873,-0.0203554,-1.78391e-08,0,
10,4.89531,0.942568,-0.0218242,-1.93512e-08,0,
10,5.10047,0.943248,-0.0232253,-2.35389e-08,0,
10,5.30776,0.94389,-0.02455,-3.35022e-08,0,
10,5.51581,0.94448,-0.0257918,-5.56866e-08,0,
10,5.72323,0.945013,-0.0269462,-1.03992e-07,0,
10,5.92863,0.945514,-0.0280108,-2.12578e-07,0,
10,6.13069,0.946051,-0.0289853,-4.71931e-07,0,
10,6.32816,0.94672,-0.0298711,-1.07357e-06,0,
10,6.51991,0.947554,-0.0306713,-2.1054e-06,0,
10,6.70495,0.948326,-0.03139,-2.30365e-06,0,
10,6.88244,0.948326,-0.0320316,3.58733e-06,0,
10,7.0517,0.946336,-0.0326005,2.63566e-05,0,
10,7.21224,0.940974,-0.033098,7.928e-05,0,
10,7.3637,0.931352,-0.0335295,0.000171649,0,
10,7.5059,0.9175,-0.0338998,0.000294848,0,
10,7.63878,0.899998,-0.0342132,0.000402164,0,
10,7.76243,0.879931,-0.0344787,0.000521007,0,
10,7.87701,0.859058,-0.0346911,0.00064269,0,
10,7.9828,0.838841,-0.0348663,0.000753388,0,
10,8.08014,0.820003,-0.0350065,0.00084786,0,
10,8.16941,0.802639,-0.0351224,0.00092647,0,
10,8.25106,0.786509,-0.0352182,0.000992328,0,
10,8.32554,0.771291,-0.0352997,0.00104866,0,
10,8.39331,0.756706,-0.035369,0.00109778,0,
10,8.45484,0.742555,-0.0354287,0.00114099,0,
10,8.5106,0.728714,-0.0354799,0.00117896,0,
10,8.56104,0.715121,-0.035524,0.00121194,0,
10,8.60659,0.701753,-0.0355619,0.00124007,0,
10,8.64767,0.688614,-0.0355949,0.00126345,0,
10,8.68467,0.675708,-0.0356236,0.00128199,0,
10,8.71795,0.66301,-0.0356486,0.0012924,0,
10,8.74786,0.650493,-0.0356704,0.00129931,0,
10,8.77471,0.638153,-0.0356892,0.00130194,0,
10,8.79881,0.625987,-0.0357056,0.00130074,0,
10,8.8204,0.613988,-0.0357196,0.0012962,0,
10,8.83975,0.602146,-0.0357317,0.0012888,0,
10,8.85708,0.590448,-0.0357421,0.00127903,0,
10,8.87259,0.578878,-0.035751,0.00126733,0,
10,8.88646,0.567414,-0.0357585,0.00125409,0,
10,8.89886,0.556034,-0.035765,0.00123965,0,
10,8.90995,0.54471,-0.0357705,0.00122431,0,
10,8.91986,0.533413,-0.0357751,0.00120829,0,
10,8.92872,0.522111,-0.035779,0.00119175,0,
10,8.93663,0.510767,-0.0357822,0.00117478,0,
10,8.94369,0.499345,-0.035785,0.00115743,0,
10,8.95,0.487801,-0.0357872,0.00113966,0,
10,8.95564,0.476091,-0.0357892,0.0011214,0,
10,8.96067,0.464166,-0.0357907,0.00110248,0,
10,8.96517,0.45197,-0.035792,0.00108268,0,
10,8.96918,0.439442,-0.0357931,0.00106165,0,
10,8.97276,0.426513,-0.035794,0.00103897,0,
10,8.97596,0.413102,-0.0357947,0.00101409,0,
10,8.97882,0.399118,-0.0357954,0.000986287,0,
10,8.98137,0.384452,-0.0357957,0.00095462,0,
10,8.98365,0.368977,-0.0357963,0.000917884,0,
10,8.98569,0.352543,-0.0357964,0.000874653,0,
10,8.9875,0.334969,-0.0357969,0.000822822,0,
10,8.98913,0.316019,-0.0357969,0.000757216,0,
10,8.99058,0.295461,-0.0357973,0.000679708,0,
10,8.99188,0.273133,-0.0357971,0.000587901,0,
10,8.99304,0.248872,-0.0357976,0.000474986,0,
10,8.99408,0.222635,-0.0357973,0.000348523,0,
10,8.99501,0.19479,-0.0357978,0.000222176,0,
10,8.99583,0.166238,-0.0357974,0.000117851,0,
10,8.99658,0.138247,-0.0357979,5.06373e-05,0,
10,8.99724,0.111936,-0.0357974,1.74813e-05,0,
10,8.99784,0.0878975,-0.0357979,4.80292e-06,0,
10,8.99837,0.0662429,-0.0357974,1.00726e-06,0,
10,8.99885,0.0468377,-0.035798,1.44289e-07,0,
10,8.99927,0.0294706,-0.0357973,1.09539e-08,0,
10,8.99966,0.0139261,-0.0357981,2.42348e-10,0,
10,9,0,-0.0357973,0,0,

0.0416667,0,0,-0.219254,0,1.81532e-06,
0.0833333,0,0,-0.219328,0,1.46653e-06,
0.125,0,0,-0.219293,0,1.1546e-06,
0.166667,0,0,-0.219305,0,2.79137e-06,
0.208333,0,0,-0.219296,0,5.05084e-06,
0.25,0,0,-0.219297,0,7.93114e-06,
0.291667,0,0,-0.219297,0,1.06072e-05,
0.333333,0,0,-0.219298,0,1.26514e-05,
0.375,0,0,-0.219295,0,1.3746e-05,
0.416667,0,0,-0.219284,0,1.39516e-05,
0.458333,0,0,-0.219268,0,1.35504e-05,
0.5,0,0,-0.219243,0,1.2931e-05,
0.541667,0,0,-0.219214,0,1.24969e-05,
0.583333,0,0,-0.21918,0,1.2561e-05,
0.625,0,0,-0.219146,0,1.33366e-05,
0.666667,0,0,-0.219114,0,1.49013e-05,
0.708333,0,0,-0.219085,0,1.72346e-05,
0.75,0,0,-0.219064,0,2.02295e-05,
0.791667,0,0,-0.219051,0,2.3739e-05,
0.833333,0,0,-0.219049,0,2.7588e-05,
0.875,0,0,-0.219061,0,3.15789e-05,
0.916667,0,0,-0.21909,0,3.54594e-05,
0.958333,0,0,-0.219141,0,3.88936e-05,
1,0,0,-0.219218,0,4.1432e-05,
1.04167,0,0,-0.219329,0,4.25053e-05,
1.08333,0,0,-0.219479,0,4.1448e-05,
1.125,0,0,-0.219678,0,3.75563e-05,
1.16667,0,0,-0.219929,0,3.01759e-05,
1.20833,0,0,-0.220236,0,1.88136e-05,
1.25,0,0,-0.220601,0,3.245e-06,
1.29167,0,0,-0.22102,0,-1.64241e-05,
1.33333,0,0,-0.221488,0,-3.97637e-05,
1.375,0,0,-0.221996,0,-6.61155e-05,
1.41667,0,0,-0.222536,0,-9.47259e-05,
1.45833,0,0,-0.2231,0,-0.000124882,
1.5,0,0,-0.223681,0,-0.000156003,
1.54167,0,0,-0.224272,0,-0.000187676,
1.58333,0,0,-0.224869,0,-0.000219647,
1.625,0,0,-0.225467,0,-0.000251779,
1.66667,0,0,-0.226064,0,-0.000284012,
1.70833,0,0,-0.226656,0,-0.000316333,
1.75,0,0,-0.227242,0,-0.000348744,
1.79167,0,0,-0.227818,0,-0.000381253,
1.83333,0,0,-0.228383,0,-0.000413863,
1.875,0,0,-0.228932,0,-0.000446571,
1.91667,0,0,-0.229464,0,-0.000479366,
1.95833,0,0,-0.229975,0,-0.000512229,
2,0,0,-0.230463,0,-0.000545137,
2.04167,0,0,-0.230925,0,-0.000578065,
2.08333,0,0,-0.231357,0,-0.000610986,
2.125,0,0,-0.231757,0,-0.000643876,
2.16667,0,0,-0.232123,0,-0.000676712,
2.20833,0,0,-0.232452,0,-0.000709477,
2.25,0,0,-0.232741,0,-0.000742154,
2.29167,0,0,-0.232989,0,-0.000774735,
2.33333,0,0,-0.233194,0,-0.000807209,
2.375,0,0,-0.233352,0,-0.000839571,
2.41667,0,0,-0.233462,0,-0.000871816,
2.45833,0,0,-0.233521,0,-0.000903936,
2.5,0,0,-0.233526,0,-0.000935922,
2.54167,0,0,-0.233475,0,-0.000967761,
2.58333,0,0,-0.233365,0,-0.000999437,
2.625,0,0,-0.233191,0,-0.00103093,
2.66667,0,0,-0.232952,0,-0.0010622,
2.70833,0,0,-0.232645,0,-0.00109323,
2.75,0,0,-0.232265,0,-0.00112397,
2.79167,0,0,-0.23181,0,-0.00115438,
2.83333,0,0,-0.231277,0,-0.00118443,
2.875,0,0,-0.230664,0,-0.00121405,
2.91667,0,0,-0.229967,0,-0.00124321,
2.95833,0,0,-0.229186,0,-0.00127186,
3,0,0,-0.228317,0,-0.00129994,
3.04167,0,0,-0.227359,0,-0.0013274,
3.08333,0,0,-0.226309,0,-0.00135418,
3.125,0,0,-0.225168,0,-0.00138023,
3.16667,0,0,-0.223932,0,-0.00140549,
3.20833,0,0,-0.222602,0,-0.0014299,
3.25,0,0,-0.221175,0,-0.00145341,
3.29167,0,0,-0.219652,0,-0.00147593,
3.33333,0,0,-0.218031,0,-0.00149742,
3.375,0,0,-0.216312,0,-0.0015178,
3.41667,0,0,-0.214495,0,-0.00153702,
3.45833,0,0,-0.212581,0,-0.001555,
3.5,0,0,-0.210569,0,-0.00157168,
3.54167,0,0,-0.208461,0,-0.00158701,
3.58333,0,0,-0.206257,0,-0.00160094,
3.625,0,0,-0.203961,0,-0.00161342,
3.66667,0,0,-0.201572,0,-0.0016244,
3.70833,0,0,-0.199095,0,-0.00163386,
3.75,0,0,-0.196531,0,-0.00164176,
3.79167,0,0,-0.193883,0,-0.00164807,
3.83333,0,0,-0.191156,0,-0.00165279,
3.875,0,0,-0.188351,0,-0.00165589,
3.91667,0,0,-0.185474,0,-0.00165737,
3.95833,0,0,-0.182529,0,-0.00165724,
4,0,0,-0.179518,0,-0.0016555,
4.04167,0,0,-0.176447,0,-0.00165216,
4.08333,0,0,-0.17332,0,-0.00164724,
4.125,0,0,-0.170141,0,-0.00164076,
4.16667,0,0,-0.166915,0,-0.00163274,
4.20833,0,0,-0.163645,0,-0.0016232,
4.25,0,0,-0.160338,0,-0.0016122,
4.29167,0,0,-0.156996,0,-0.00159974,
4.33333,0,0,-0.153624,0,-0.00158587,
4.375,0,0,-0.150227,0,-0.00157064,
4.41667,0,0,-0.146809,0,-0.00155407,
4.45833,0,0,-0.143374,0,-0.00153621,
4.5,0,0,-0.139926,0,-0.00151711,
4.54167,0,0,-0.13647,0,-0.0014968,
4.58333,0,0,-0.13301,0,-0.00147535,
4.625,0,0,-0.12955,0,-0.00145279,
4.66667,0,0,-0.126093,0,-0.00142918,
4.70833,0,0,-0.122643,0,-0.00140456,
4.75,0,0,-0.119205,0,-0.00137898,
4.79167,0,0,-0.115781,0,-0.0013525,
4.83333,0,0,-0.112374,0,-0.00132516,
4.875,0,0,-0.108989,0,-0.00129701,
4.91667,0,0,-0.105628,0,-0.0012681,
4.95833,0,0,-0.102294,0,-0.00123849,
5,0,0,-0.0989899,0,-0.0012082,
5.04167,0,0,-0.0957182,0,-0.00117731,
5.08333,0,0,-0.0924815,0,-0.00114584,
5.125,0,0,-0.089282,0,-0.00111384,
5.16667,0,0,-0.0861221,0,-0.00108137,
5.20833,0,0,-0.0830036,0,-0.00104846,
5.25,0,0,-0.0799287,0,-0.00101515,
5.29167,0,0,-0.0768989,0,-0.000981499,
5.33333,0,0,-0.0739159,0,-0.000947534,
5.375,0,0,-0.0709813,0,-0.000913299,
5.41667,0,0,-0.0680963,0,-0.000878832,
5.45833,0,0,-0.0652622,0,-0.00084417,
5.5,0,0,-0.0624801,0,-0.00080935,
5.54167,0,0,-0.0597509,0,-0.000774406,
5.58333,0,0,-0.0570755,0,-0.000739371,
5.625,0,0,-0.0544545,0,-0.000704276,
5.66667,0,0,-0.0518886,0,-0.000669153,
5.70833,0,0,-0.0493783,0,-0.00063403,
5.75,0,0,-0.0469239,0,-0.000598935,
5.79167,0,0,-0.0445257,0,-0.000563895,
5.83333,0,0,-0.0421838,0,-0.000528937,
5.875,0,0,-0.0398984,0,-0.000494083,
5.91667,0,0,-0.0376694,0,-0.000459358,
5.95833,0,0,-0.0354966,0,-0.000424783,
6,0,0,-0.0333798,0,-0.000390378,
6.04167,0,0,-0.0313188,0,-0.000356162,
6.08333,0,0,-0.0293132,0,-0.000322153,
6.125,0,0,-0.0273627,0,-0.000288367,
6.16667,0,0,-0.0254666,0,-0.000254821,
6.20833,0,0,-0.0236247,0,-0.000221533,
6.25,0,0,-0.0218364,0,-0.000188527,
6.29167,0,0,-0.020101,0,-0.000155834,
6.33333,0,0,-0.018418,0,-0.000123484,
6.375,0,0,-0.0167861,0,-9.15074e-05,
6.41667,0,0,-0.0152045,0,-5.99198e-05,
6.45833,0,0,-0.0136718,0,-2.87274e-05,
6.5,0,0,-0.0121868,0,2.07107e-06,
6.54167,0,0,-0.0107484,0,3.24769e-05,
6.58333,0,0,-0.0093553,0,6.24943e-05,
6.625,0,0,-0.00800629,0,9.21254e-05,
6.66667,0,0,-0.00670013,0,0.000121373,
6.70833,0,0,-0.0054356,0,0.000150239,
6.75,0,0,-0.00421146,0,0.000178728,
6.79167,0,0,-0.00302649,0,0.000206842,
6.83333,0,0,-0.00187943,0,0.000234587,
6.875,0,0,-0.000769076,0,0.000261967,
6.91667,0,0,0.000305806,0,0.000288986,
6.95833,0,0,0.00134643,0,0.00031565,
7,0,0,0.002354,0,0.000341963,
7.04167,0,0,0.00332971,0,0.000367931,
7.08333,0,0,0.00427474,0,0.000393561,
7.125,0,0,0.00519023,0,0.000418857,
7.16667,0,0,0.00607733,0,0.000443825,
7.20833,0,0,0.00693714,0,0.000468472,
7.25,0,0,0.00777075,0,0.000492803,
7.29167,0,0,0.00857923,0,0.000516823,
7.33333,0,0,0.00936359,0,0.000540539,
7.375,0,0,0.0101248,0,0.000563956,
7.41667,0,0,0.0108639,0,0.00058708,
7.45833,0,0,0.0115817,0,0.000609917,
7.5,0,0,0.0122792,0,0.000632473,
7.54167,0,0,0.0129572,0,0.000654753,
7.58333,0,0,0.0136165,0,0.000676767,
7.625,0,0,0.0142577,0,0.00069852,
7.66667,0,0,0.0148816,0,0.000720024,
7.70833,0,0,0.0154889,0,0.00074129,
7.75,0,0,0.0160801,0,0.000762337,
7.79167,0,0,0.0166558,0,0.000783179,
7.83333,0,0,0.0172159,0,0.000803823,
7.875,0,0,0.0177606,0,0.00082432,
7.91667,0,0,0.0182999,0,0.000845138,
7.95833,0,0,0.0187726,0,0.000864918,
8,0,0,0.0193213,0,0.000884589,
8.04171,0,0,0.0198892,0,0.000905392,
8.08368,0,0,0.0203425,0,0.00092607,
8.12617,0,0,0.0208385,0,0.000945297,
8.16946,0,0,0.0213248,0,0.000964739,
8.21382,0,0,0.0218051,0,0.00098432,
8.25952,0,0,0.022287,0,0.0010041,
8.30685,0,0,0.0227717,0,0.00102425,
8.35611,0,0,0.0232608,0,0.00104488,
8.40762,0,0,0.0237561,0,0.00106608,
8.46168,0,0,0.0242586,0,0.00108795,
8.51865,0,0,0.0247689,0,0.00111056,
8.57889,0,0,0.0252875,0,0.001134,
8.64276,0,0,0.0258138,0,0.00115833,
8.71067,0,0,0.026347,0,0.0011836,
8.78306,0,0,0.0268853,0,0.00120988,
8.86037,0,0,0.0274257,0,0.00123719,
8.94309,0,0,0.0279643,0,0.00126555,
9.03174,0,0,0.0284955,0,0.00129496,
9.12689,0,0,0.0290125,0,0.0013254,
9.22912,0,0,0.0295063,0,0.00135681,
9.33908,0,0,0.0299662,0,0.00138912,
9.45746,0,0,0.0303794,0,0.00142219,
9.58501,0,0,0.0307315,0,0.00145589,
9.72253,0,0,0.0310065,0,0.00149003,
9.87088,0,0,0.0311874,0,0.00152437,
10.031,0,0,0.0312583,0,0.00155868,
10.2039,0,0,0.0312042,0,0.00159269,
10.3906,0,0,0.0310124,0,0.00162617,
10.5924,0,0,0.0306751,0,0.00165887,
10.8105,0,0,0.0301879,0,0.00169062,
11.0463,0,0,0.0295508,0,0.00172122,
11.3012,0,0,0.0287699,0,0.00175056,
11.5769,0,0,0.0278535,0,0.00177853,
11.8751,0,0,0.0268139,0,0.00180507,
12.1977,0,0,0.025665,0,0.00183015,
12.5466,0,0,0.0244224,0,0.00185375,
12.9242,0,0,0.0231048,0,0.00187589,
13.3327,0,0,0.0217339,0,0.00189662,
13.7748,0,0,0.0203347,0,0.00191601,
14.2532,0,0,0.0189359,0,0.00193418,
14.7709,0,0,0.0175677,0,0.00195128,
15.3312,0,0,0.0162596,0,0.00196747,
15.9377,0,0,0.0150381,0,0.00198291,
16.594,0,0,0.0139241,0,0.00199774,
17.3044,0,0,0.012932,0,0.00201208,
18.0733,0,0,0.0120658,0,0.002026,
18.9056,0,0,0.0113151,0,0.00203944,
19.8064,0,0,0.0106549,0,0.00205226,
20.7816,0,0,0.0100515,0,0.00206462,
21.8371,0,0,0.00947631,0,0.00207674,
22.9796,0,0,0.00891559,0,0.00208891,
24.2163,0,0,0.00837146,0,0.00210128,
25.5551,0,0,0.00785152,0,0.00211391,
27.0042,0,0,0.00735686,0,0.00212683,
28.5729,0,0,0.00687595,0,0.00214018,
30.271,0,0,0.00638659,0,0.00215398,
32.1091,0,0,0.00586367,0,0.00216821,
34.0989,0,0,0.00528585,0,0.00218285,
36.2529,0,0,0.00463225,0,0.00219778,
38.5845,0,0,0.00389359,0,0.00221285,
41.1085,0,0,0.00310454,0,0.00222797,
43.8407,0,0,0.00211564,0,0.00224101,
46.7983,0,0,0.0010875,0,0.00224988,
50,0,0,0.0019692,0,0.00226759,

