d20d7c64fa6a39ad55f76aefb9a19cbe8b87ff17 
X,Z,x_velocity,cp,uw_b,cf,
1,0,0,-0.228741,0,0,
1,9,0,-0.129091,0,0,
1,8.99969,0.0153725,-0.129091,2.84142e-10,0,
1,8.99934,0.0328131,-0.129091,1.32818e-08,0,
1,8.99894,0.0526178,-0.129091,1.83217e-07,0,
1,8.99848,0.0751001,-0.129091,1.34321e-06,0,
1,8.99797,0.100572,-0.129091,6.71444e-06,0,
1,8.99739,0.129232,-0.129091,2.54218e-05,0,
1,8.99672,0.160888,-0.129091,7.53511e-05,0,
1,8.99597,0.194607,-0.129091,0.000175306,0,
1,8.99512,0.228744,-0.129091,0.000323392,0,
1,8.99416,0.261644,-0.129091,0.000491224,0,
1,8.99306,0.292327,-0.129091,0.000649376,0,
1,8.99182,0.320615,-0.12909,0.000776895,0,
1,8.99041,0.346648,-0.12909,0.000882425,0,
1,8.98881,0.370586,-0.12909,0.000969611,0,
1,8.98699,0.392645,-0.129089,0.00104078,0,
1,8.98494,0.413114,-0.129088,0.0010967,0,
1,8.98261,0.432304,-0.129087,0.00113958,0,
1,8.97996,0.450453,-0.129086,0.00117551,0,
1,8.97696,0.467733,-0.129085,0.0012053,0,
1,8.97356,0.484287,-0.129084,0.00123023,0,
1,8.9697,0.500232,-0.129082,0.00125127,0,
1,8.96533,0.515667,-0.12908,0.00126911,0,
1,8.96038,0.530676,-0.129078,0.00128428,0,
1,8.95476,0.545327,-0.129076,0.00129715,0,
1,8.9484,0.55968,-0.129073,0.00130797,0,
1,8.9412,0.573786,-0.129071,0.00131691,0,
1,8.93303,0.587687,-0.129068,0.00132408,0,
1,8.92379,0.60142,-0.129065,0.00132953,0,
1,8.91333,0.615018,-0.129061,0.00133326,0,
1,8.90149,0.628508,-0.129058,0.00133525,0,
1,8.8881,0.641915,-0.129054,0.00133544,0,
1,8.87295,0.65526,-0.129051,0.00133375,0,
1,8.85584,0.668563,-0.129049,0.0013301,0,
1,8.83651,0.681843,-0.129047,0.00132437,0,
1,8.81469,0.695119,-0.129047,0.00131642,0,
1,8.79007,0.70841,-0.129048,0.00130609,0,
1,8.76232,0.72174,-0.129052,0.00129322,0,
1,8.73107,0.735131,-0.129059,0.00127756,0,
1,8.69591,0.748616,-0.12907,0.00125884,0,
1,8.6564,0.762228,-0.129088,0.00123673,0,
1,8.61206,0.776015,-0.129113,0.00121079,0,
1,8.56236,0.790032,-0.129148,0.00118068,0,
1,8.50675,0.804357,-0.129197,0.00114736,0,
1,8.44464,0.819123,-0.129262,0.00110778,0,
1,8.3754,0.83455,-0.129347,0.00105636,0,
1,8.29839,0.850891,-0.12946,0.000993224,0,
1,8.21296,0.868392,-0.129606,0.000913877,0,
1,8.11843,0.887244,-0.129791,0.000813069,0,
1,8.01417,0.907448,-0.13003,0.000687359,0,
1,7.89956,0.928558,-0.130318,0.000540213,0,
1,7.77403,0.949449,-0.130694,0.000390088,0,
1,7.63711,0.968513,-0.131144,0.000205974,0,
1,7.48842,0.983421,-0.131676,7.65181e-05,0,
1,7.32773,0.992235,-0.132314,1.8405e-05,0,
1,7.15495,0.995436,-0.133056,1.83551e-06,0,
1,6.97022,0.9955,-0.133917,2.46331e-08,0,
1,6.77388,0.994883,-0.134912,3.78844e-09,0,
1,6.56652,0.994765,-0.136056,9.79807e-09,0,
1,6.34896,0.99522,-0.137363,1.2522e-08,0,
1,6.12229,0.995949,-0.138848,1.41252e-08,0,
1,5.88784,0.996752,-0.140525,1.49851e-08,0,
1,5.64716,0.997591,-0.142407,1.59709e-08,0,
1,5.40194,0.998499,-0.144506,1.73423e-08,0,
1,5.15407,0.999501,-0.146827,1.90636e-08,0,
1,4.90545,1.00061,-0.149376,2.09096e-08,0,
1,4.65805,1.00182,-0.15215,2.28936e-08,0,
1,4.41376,1.00313,-0.155143,2.49712e-08,0,
1,4.17441,1.00453,-0.158342,2.69143e-08,0,
1,3.94163,1.00596,-0.161728,2.8562e-08,0,
1,3.7169,1.00737,-0.165275,3.05202e-08,0,
1,3.50146,1.00884,-0.168951,3.47265e-08,0,
1,3.29629,1.01067,-0.172722,4.3227e-08,0,
1,3.10217,1.01323,-0.176558,5.42334e-08,0,
1,2.91959,1.01634,-0.180427,9.86416e-08,0,
1,2.74885,1.01855,-0.184288,9.97336e-07,0,
1,2.59002,1.01746,-0.188075,-5.70843e-06,0,
1,2.44299,1.01136,-0.191722,-5.08494e-05,0,
1,2.30752,1.00041,-0.195159,-0.000147384,0,
1,2.18321,0.986061,-0.198326,-0.000281766,0,
1,2.06959,0.969888,-0.201251,-0.000397948,0,
1,1.9661,0.953165,-0.203913,-0.0004988,0,
1,1.87215,0.936824,-0.206277,-0.000592894,0,
1,1.78711,0.921378,-0.20838,-0.000675752,0,
1,1.71033,0.906985,-0.210237,-0.00074729,0,
1,1.64119,0.893616,-0.211871,-0.000809038,0,
1,1.57905,0.88116,-0.213302,-0.000863205,0,
1,1.52332,0.869486,-0.214552,-0.000911817,0,
1,1.47342,0.858486,-0.215648,-0.000957207,0,
1,1.42882,0.848074,-0.216587,-0.000993483,0,
1,1.389,0.838174,-0.217384,-0.00101776,0,
1,1.35351,0.82872,-0.218073,-0.00104049,0,
1,1.3219,0.819673,-0.218666,-0.00106107,0,
1,1.29378,0.811014,-0.219175,-0.00107913,0,
1,1.26878,0.802731,-0.219613,-0.00109468,0,
1,1.24659,0.794818,-0.219989,-0.00110803,0,
1,1.22689,0.787271,-0.220311,-0.00111923,0,
1,1.2092,0.780001,-0.220591,-0.00112725,0,
1,1.1932,0.77296,-0.220835,-0.00113281,0,
1,1.1787,0.766131,-0.221048,-0.00113666,0,
1,1.16554,0.759493,-0.221234,-0.00113992,0,
1,1.15357,0.753011,-0.221396,-0.00114494,0,
1,1.14266,0.746633,-0.221537,-0.00115552,0,
1,1.13268,0.740282,-0.22166,-0.00117672,0,
1,1.12354,0.733852,-0.221768,-0.00121547,0,
1,1.11514,0.727202,-0.221865,-0.00128005,0,
1,1.10739,0.720162,-0.221955,-0.0013795,0,
1,1.10022,0.712543,-0.222043,-0.0015225,0,
1,1.09357,0.704165,-0.222131,-0.0017158,0,
1,1.08738,0.694898,-0.222224,-0.0019623,0,
1,1.0816,0.684701,-0.222323,-0.00225953,0,
1,1.07618,0.67364,-0.222429,-0.00259923,0,
1,1.07107,0.661868,-0.22254,-0.00296871,0,
1,1.06626,0.649591,-0.222657,-0.00335352,0,
1,1.06169,0.637018,-0.222777,-0.00374017,0,
1,1.05735,0.624334,-0.2229,-0.00411785,0,
1,1.05321,0.611688,-0.223024,-0.00447891,0,
1,1.04925,0.599187,-0.223149,-0.00481858,0,
1,1.04544,0.586904,-0.223274,-0.00513434,0,
1,1.04177,0.574884,-0.223399,-0.00542525,0,
1,1.03822,0.563152,-0.223523,-0.00569142,0,
1,1.03478,0.55172,-0.223646,-0.00593359,0,
1,1.03144,0.540586,-0.223767,-0.00615287,0,
1,1.02818,0.529747,-0.223888,-0.00635056,0,
1,1.025,0.519191,-0.224007,-0.00652797,0,
1,1.02188,0.508906,-0.224124,-0.00668644,0,
1,1.01882,0.49888,-0.224241,-0.00682723,0,
1,1.01581,0.489097,-0.224356,-0.00695165,0,
1,1.01284,0.479543,-0.22447,-0.00706026,0,
1,1.00988,0.470105,-0.224584,-0.0071552,0,
1,1.00688,0.460669,-0.2247,-0.00723897,0,
1,1.00384,0.451226,-0.224816,-0.00731075,0,
1,1.00076,0.441759,-0.224934,-0.00737048,0,
1,0.997615,0.432251,-0.225054,-0.0074181,0,
1,0.99441,0.422678,-0.225174,-0.00745357,0,
1,0.991131,0.413017,-0.225296,-0.00747705,0,
1,0.987768,0.403242,-0.225419,-0.00748834,0,
1,0.984308,0.393324,-0.225544,-0.00748714,0,
1,0.980739,0.383233,-0.22567,-0.00747301,0,
1,0.977045,0.372935,-0.225799,-0.00744536,0,
1,0.973211,0.362396,-0.225931,-0.00740345,0,
1,0.969219,0.351575,-0.226064,-0.00734636,0,
1,0.965047,0.340431,-0.226201,-0.007273,0,
1,0.960675,0.328915,-0.22634,-0.00718202,0,
1,0.956077,0.316975,-0.226482,-0.00707137,0,
1,0.951224,0.304555,-0.226627,-0.00693907,0,
1,0.946088,0.291598,-0.226776,-0.00678311,0,
1,0.940633,0.278047,-0.226929,-0.00660102,0,
1,0.934823,0.263855,-0.227087,-0.0063913,0,
1,0.928616,0.248985,-0.227249,-0.00615149,0,
1,0.921967,0.23341,-0.227415,-0.00587856,0,
1,0.914826,0.217113,-0.227586,-0.00557028,0,
1,0.907141,0.200094,-0.22776,-0.00522489,0,
1,0.898852,0.182375,-0.227937,-0.00484143,0,
1,0.889898,0.164014,-0.228116,-0.00442018,0,
1,0.880212,0.145117,-0.228297,-0.00396337,0,
1,0.869723,0.125857,-0.22848,-0.00347608,0,
1,0.858358,0.106507,-0.228665,-0.00296768,0,
1,0.846039,0.0874745,-0.228853,-0.00245372,0,
1,0.83269,0.0693278,-0.229045,-0.00195753,0,
1,0.818232,0.0527782,-0.229244,-0.00151223,0,
1,0.802744,0.0386257,-0.229438,-0.00114799,0,
1,0.78635,0.027273,-0.229634,-0.000873862,0,
1,0.768969,0.018453,-0.22982,-0.000682281,0,
1,0.75053,0.0115797,-0.229995,-0.00055736,0,
1,0.730977,0.00601631,-0.230149,-0.000482195,0,
1,0.710271,0.00124219,-0.23028,-0.000441522,0,
1,0.688397,-0.00310505,-0.230388,-0.000422614,0,
1,0.66536,-0.00724788,-0.230475,-0.000419168,0,
1,0.641194,-0.0113269,-0.230541,-0.000421027,0,
1,0.615961,-0.0154372,-0.230587,-0.000424001,0,
1,0.589754,-0.0196281,-0.230615,-0.000424645,0,
1,0.562692,-0.0239095,-0.230623,-0.000420862,0,
1,0.534925,-0.028261,-0.230611,-0.000411708,0,
1,0.506624,-0.0326399,-0.230578,-0.000396971,0,
1,0.477982,-0.0369906,-0.230521,-0.000376933,0,
1,0.449206,-0.0412508,-0.230442,-0.000352166,0,
1,0.420509,-0.0453568,-0.23034,-0.000323408,0,
1,0.392107,-0.0492472,-0.230219,-0.000291476,0,
1,0.364206,-0.0528651,-0.230079,-0.000257211,0,
1,0.337003,-0.0561588,-0.229927,-0.000221442,0,
1,0.310673,-0.0590831,-0.229765,-0.000184942,0,
1,0.28537,-0.0615988,-0.229599,-0.000148402,0,
1,0.26122,-0.0636723,-0.229434,-0.000112404,0,
1,0.238324,-0.065275,-0.229275,-7.74312e-05,0,
1,0.21675,-0.0663819,-0.229125,-4.38754e-05,0,
1,0.196544,-0.0669716,-0.228989,-1.20514e-05,0,
1,0.177724,-0.0670255,-0.228868,1.77628e-05,0,
1,0.160284,-0.066529,-0.228766,4.52816e-05,0,
1,0.144202,-0.065473,-0.228683,7.01753e-05,0,
1,0.129436,-0.063857,-0.22862,9.20588e-05,0,
1,0.115935,-0.061692,-0.228575,0.000110516,0,
1,0.103636,-0.0590039,-0.228547,0.000125155,0,
1,0.0924701,-0.0558352,-0.228534,0.000135679,0,
1,0.0823633,-0.0522453,-0.228533,0.000141942,0,
1,0.0732406,-0.0483076,-0.228542,0.000143972,0,
1,0.0650269,-0.0441049,-0.228558,0.000141995,0,
1,0.057648,-0.0397245,-0.228578,0.000136411,0,
1,0.0510323,-0.0352517,-0.2286,0.00012774,0,
1,0.0451115,-0.0307646,-0.228623,0.000116562,0,
1,0.0398209,-0.0263302,-0.228645,0.000103471,0,
1,0.0351001,-0.022002,-0.228665,8.90337e-05,0,
1,0.0308929,-0.0178211,-0.228683,7.37876e-05,0,
1,0.0271475,-0.0138216,-0.228698,5.82727e-05,0,
1,0.0238164,-0.0100398,-0.228711,4.31273e-05,0,
1,0.0208562,-0.00652927,-0.22872,2.9217e-05,0,
1,0.0182274,-0.00337298,-0.228727,1.76246e-05,0,
1,0.0158944,-0.000678521,-0.228731,9.24454e-06,0,
1,0.0138249,0.00145839,-0.228734,4.16496e-06,0,
1,0.0119898,0.00300197,-0.228735,1.60264e-06,0,
1,0.0103632,0.00399374,-0.228737,5.16539e-07,0,
1,0.00892169,0.00452696,-0.228737,1.2666e-07,0,
1,0.00764438,0.0047093,-0.228738,1.15297e-08,0,
1,0.00651264,0.00463801,-0.228738,-1.18932e-08,0,
1,0.00550983,0.00439161,-0.228739,-1.08644e-08,0,
1,0.00462115,0.00402989,-0.228739,-6.24353e-09,0,
1,0.00383341,0.00359723,-0.22874,-2.91088e-09,0,
1,0.0031349,0.00312582,-0.228739,-1.15873e-09,0,
1,0.00251518,0.00263879,-0.22874,-3.94039e-10,0,
1,0.00196502,0.0021523,-0.228739,-1.11155e-10,0,
1,0.00147619,0.00167742,-0.22874,-2.43886e-11,0,
1,0.00104139,0.00122135,-0.22874,-3.67035e-12,0,
1,0.000654158,0.000788505,-0.228741,-2.9214e-13,0,
1,0.000308731,0.000381181,-0.228739,-6.75945e-15,0,

4,0,0,-0.153491,0,0,
4,9,0,-0.0983808,0,0,
4,8.99969,0.0142432,-0.0983804,2.2294e-10,0,
4,8.99934,0.0303461,-0.0983807,1.03434e-08,0,
4,8.99894,0.0485701,-0.0983804,1.4124e-07,0,
4,8.9985,0.0691915,-0.0983806,1.0252e-06,0,
4,8.99799,0.0924916,-0.0983804,5.08883e-06,0,
4,8.99742,0.118673,-0.0983805,1.92707e-05,0,
4,8.99677,0.147653,-0.0983803,5.7845e-05,0,
4,8.99605,0.178755,-0.0983803,0.000138265,0,
4,8.99522,0.210627,-0.0983801,0.000264451,0,
4,8.99429,0.24173,-0.09838,0.000416296,0,
4,8.99324,0.270997,-0.0983797,0.000565893,0,
4,8.99205,0.298044,-0.0983795,0.000695392,0,
4,8.9907,0.322948,-0.098379,0.000799428,0,
4,8.98919,0.345883,-0.0983785,0.00088711,0,
4,8.98747,0.367035,-0.0983778,0.000960067,0,
4,8.98553,0.386673,-0.098377,0.00101745,0,
4,8.98334,0.405076,-0.098376,0.00106376,0,
4,8.98087,0.422462,-0.0983749,0.00110286,0,
4,8.97807,0.439001,-0.0983735,0.00113606,0,
4,8.97491,0.454832,-0.0983719,0.00116465,0,
4,8.97134,0.470076,-0.0983699,0.00118961,0,
4,8.96731,0.484831,-0.0983677,0.00121166,0,
4,8.96276,0.499184,-0.0983651,0.00123134,0,
4,8.95762,0.513206,-0.0983621,0.001249,0,
4,8.95182,0.52696,-0.0983587,0.00126491,0,
4,8.94526,0.540499,-0.0983548,0.0012792,0,
4,8.93787,0.553869,-0.0983504,0.00129196,0,
4,8.92952,0.56711,-0.0983455,0.00130318,0,
4,8.92011,0.580256,-0.09834,0.00131283,0,
4,8.90949,0.593336,-0.098334,0.00132081,0,
4,8.89751,0.606376,-0.0983273,0.00132699,0,
4,8.88402,0.619395,-0.0983202,0.00133121,0,
4,8.86881,0.632413,-0.0983127,0.00133332,0,
4,8.85169,0.645444,-0.0983049,0.00133311,0,
4,8.83242,0.658501,-0.0982969,0.00133041,0,
4,8.81074,0.671596,-0.0982889,0.00132502,0,
4,8.78637,0.684741,-0.0982812,0.00131677,0,
4,8.75901,0.697947,-0.0982741,0.00130546,0,
4,8.7283,0.711231,-0.0982683,0.00129091,0,
4,8.69387,0.724609,-0.0982641,0.00127291,0,
4,8.65533,0.738107,-0.0982627,0.00125121,0,
4,8.61222,0.751755,-0.0982647,0.0012255,0,
4,8.56407,0.765594,-0.098272,0.00119538,0,
4,8.5104,0.779678,-0.0982853,0.00116055,0,
4,8.45065,0.794081,-0.0983081,0.00112271,0,
4,8.38429,0.808953,-0.0983433,0.00107589,0,
4,8.31073,0.824529,-0.0983925,0.00101862,0,
4,8.22941,0.841079,-0.0984604,0.000948372,0,
4,8.13974,0.858867,-0.0985497,0.000860757,0,
4,8.04115,0.87807,-0.0986624,0.000752138,0,
4,7.93313,0.898576,-0.0988041,0.000622782,0,
4,7.81519,0.919683,-0.0989669,0.000481767,0,
4,7.68693,0.93993,-0.0991748,0.000346539,0,
4,7.54803,0.957419,-0.0994098,0.000204469,0,
4,7.39831,0.970257,-0.0996901,9.00456e-05,0,
4,7.23771,0.977552,-0.100032,2.78453e-05,0,
4,7.06634,0.980242,-0.100423,4.58066e-06,0,
4,6.88453,0.980386,-0.100868,-1.87264e-08,0,
4,6.69275,0.979831,-0.101366,-1.0295e-07,0,
4,6.49173,0.979512,-0.101925,1.84583e-08,0,
4,6.28238,0.979587,-0.102555,2.38461e-08,0,
4,6.06579,0.979892,-0.103262,1.38122e-08,0,
4,5.84328,0.980269,-0.104052,9.2824e-09,0,
4,5.61626,0.980657,-0.104932,8.06637e-09,0,
4,5.3863,0.981053,-0.105903,8.11457e-09,0,
4,5.15502,0.981476,-0.106971,8.67464e-09,0,
4,4.92406,0.981938,-0.108135,9.49705e-09,0,
4,4.69507,0.98245,-0.109396,1.04886e-08,0,
4,4.46961,0.983017,-0.110754,1.15065e-08,0,
4,4.24915,0.98362,-0.112202,1.22499e-08,0,
4,4.03501,0.984205,-0.113737,1.24217e-08,0,
4,3.82836,0.984704,-0.11535,1.22661e-08,0,
4,3.63018,0.985119,-0.117031,1.31687e-08,0,
4,3.44125,0.985628,-0.118768,1.80158e-08,0,
4,3.26217,0.986587,-0.120548,6.18785e-08,0,
4,3.09333,0.988292,-0.122358,5.48358e-07,0,
4,2.93497,0.990568,-0.124183,2.57383e-06,0,
4,2.78715,0.992571,-0.126005,4.9615e-06,0,
4,2.64979,0.993128,-0.127808,2.7887e-07,0,
4,2.52268,0.991311,-0.129571,-2.11991e-05,0,
4,2.40551,0.986788,-0.131273,-6.46754e-05,0,
4,2.29789,0.979798,-0.132895,-0.00012882,0,
4,2.19939,0.970928,-0.134424,-0.000207575,0,
4,2.10949,0.960866,-0.135849,-0.000293082,0,
4,2.02768,0.950242,-0.137169,-0.000377765,0,
4,1.95343,0.93957,-0.138385,-0.000455418,0,
4,1.88618,0.929231,-0.139496,-0.000523607,0,
4,1.82542,0.919412,-0.140515,-0.000572004,0,
4,1.77062,0.910173,-0.141444,-0.000611202,0,
4,1.72128,0.901561,-0.142281,-0.000646479,0,
4,1.67693,0.893607,-0.143037,-0.00067793,0,
4,1.63713,0.886313,-0.143718,-0.000705912,0,
4,1.60144,0.879658,-0.144331,-0.000730787,0,
4,1.56949,0.873611,-0.144881,-0.000752958,0,
4,1.54091,0.868135,-0.145374,-0.000772899,0,
4,1.51537,0.863173,-0.145816,-0.000790978,0,
4,1.49167,0.85853,-0.146225,-0.00080761,0,
4,1.46926,0.854117,-0.146612,-0.000823334,0,
4,1.44801,0.849912,-0.146983,-0.000838489,0,
4,1.42781,0.845875,-0.147343,-0.000844828,0,
4,1.40855,0.841971,-0.14769,-0.000851377,0,
4,1.39015,0.838182,-0.148021,-0.000856779,0,
4,1.37252,0.834494,-0.14834,-0.000861115,0,
4,1.3556,0.830891,-0.148648,-0.000864931,0,
4,1.3393,0.827356,-0.148945,-0.000868717,0,
4,1.32357,0.823871,-0.149232,-0.000873446,0,
4,1.30836,0.820417,-0.149511,-0.000879838,0,
4,1.29362,0.816971,-0.149782,-0.000888915,0,
4,1.2793,0.813508,-0.150046,-0.00090197,0,
4,1.26537,0.809997,-0.150304,-0.000920605,0,
4,1.25179,0.806401,-0.150556,-0.000946767,0,
4,1.23852,0.802677,-0.150802,-0.000982772,0,
4,1.22554,0.798774,-0.151043,-0.00103131,0,
4,1.21282,0.79463,-0.151279,-0.00109539,0,
4,1.20034,0.79018,-0.15151,-0.00117824,0,
4,1.18806,0.78535,-0.151736,-0.00128312,0,
4,1.17599,0.780066,-0.151958,-0.00141298,0,
4,1.16408,0.774259,-0.152174,-0.00157009,0,
4,1.15233,0.767872,-0.152386,-0.00175568,0,
4,1.14073,0.760868,-0.152593,-0.0019696,0,
4,1.12925,0.753235,-0.152795,-0.00221014,0,
4,1.11788,0.744985,-0.152993,-0.00247413,0,
4,1.10661,0.736154,-0.153186,-0.0027572,0,
4,1.09543,0.726794,-0.153375,-0.00305424,0,
4,1.08432,0.71697,-0.15356,-0.00335983,0,
4,1.07328,0.706749,-0.153741,-0.00366867,0,
4,1.0623,0.6962,-0.153918,-0.00397589,0,
4,1.05136,0.685387,-0.154092,-0.00427722,0,
4,1.04044,0.67435,-0.154263,-0.00456918,0,
4,1.0295,0.66312,-0.154431,-0.00484911,0,
4,1.01855,0.651742,-0.154597,-0.00511443,0,
4,1.00757,0.640254,-0.15476,-0.00536279,0,
4,0.996544,0.628688,-0.15492,-0.00559253,0,
4,0.98547,0.617075,-0.155077,-0.00580183,0,
4,0.974334,0.605438,-0.155232,-0.00598926,0,
4,0.963124,0.593801,-0.155382,-0.00615365,0,
4,0.951826,0.582182,-0.155536,-0.00630472,0,
4,0.940428,0.570559,-0.155668,-0.0064414,0,
4,0.928915,0.558805,-0.155762,-0.0065329,0,
4,0.917272,0.546772,-0.155846,-0.00663105,0,
4,0.905481,0.534378,-0.155926,-0.0067366,0,
4,0.893524,0.52157,-0.156006,-0.00684997,0,
4,0.881383,0.50831,-0.156089,-0.00697132,0,
4,0.869035,0.494562,-0.156173,-0.00710061,0,
4,0.856459,0.480293,-0.156262,-0.00723757,0,
4,0.843629,0.465476,-0.156354,-0.00738174,0,
4,0.830518,0.450083,-0.15645,-0.0075325,0,
4,0.817097,0.434093,-0.156549,-0.00768904,0,
4,0.803334,0.417486,-0.15665,-0.00785041,0,
4,0.789195,0.40025,-0.156753,-0.00801549,0,
4,0.774643,0.382373,-0.156858,-0.00818292,0,
4,0.759639,0.363854,-0.156963,-0.00835105,0,
4,0.744138,0.344697,-0.15707,-0.00851782,0,
4,0.728096,0.32492,-0.157178,-0.00868066,0,
4,0.711463,0.30456,-0.157289,-0.00883649,0,
4,0.694189,0.283667,-0.157402,-0.00898147,0,
4,0.676218,0.262307,-0.15752,-0.00911048,0,
4,0.657495,0.240546,-0.15764,-0.00921822,0,
4,0.637962,0.218441,-0.157763,-0.00929989,0,
4,0.617561,0.196033,-0.157883,-0.00935166,0,
4,0.596848,0.173956,-0.157991,-0.00936944,0,
4,0.576557,0.152947,-0.158084,-0.00935239,0,
4,0.556564,0.132868,-0.158163,-0.00930225,0,
4,0.536763,0.113616,-0.158234,-0.00921993,0,
4,0.517057,0.0951584,-0.158314,-0.00910593,0,
4,0.497368,0.0775567,-0.158431,-0.00896154,0,
4,0.477632,0.0609551,-0.158618,-0.0087905,0,
4,0.457804,0.0455214,-0.158886,-0.00860018,0,
4,0.437857,0.0313283,-0.159229,-0.00840367,0,
4,0.417786,0.0182036,-0.159351,-0.00817504,0,
4,0.397605,0.00570263,-0.159197,-0.00773942,0,
4,0.377348,-0.00645644,-0.159024,-0.0073948,0,
4,0.357066,-0.0182618,-0.158862,-0.00703817,0,
4,0.336828,-0.029682,-0.158679,-0.00667356,0,
4,0.316717,-0.0406711,-0.158487,-0.00630428,0,
4,0.296825,-0.0511787,-0.158282,-0.00593047,0,
4,0.27725,-0.0611619,-0.158067,-0.00555394,0,
4,0.258095,-0.0705882,-0.157842,-0.00517719,0,
4,0.239458,-0.0794365,-0.157609,-0.00480302,0,
4,0.221432,-0.0876961,-0.157369,-0.00443426,0,
4,0.2041,-0.0953665,-0.157123,-0.0040736,0,
4,0.187537,-0.102456,-0.156875,-0.00372351,0,
4,0.171798,-0.108978,-0.156625,-0.00338612,0,
4,0.156928,-0.114955,-0.156376,-0.00306324,0,
4,0.142956,-0.12041,-0.15613,-0.00275626,0,
4,0.129894,-0.125371,-0.155891,-0.00246619,0,
4,0.117744,-0.129866,-0.155659,-0.00219367,0,
4,0.106492,-0.133924,-0.155437,-0.001939,0,
4,0.0961173,-0.137574,-0.155227,-0.00170216,0,
4,0.0865883,-0.140841,-0.155029,-0.00148288,0,
4,0.0778675,-0.143753,-0.154846,-0.00128067,0,
4,0.0699123,-0.146331,-0.154676,-0.00109488,0,
4,0.062677,-0.148598,-0.154522,-0.000924728,0,
4,0.056114,-0.150572,-0.154381,-0.000769355,0,
4,0.0501747,-0.15227,-0.154255,-0.000627845,0,
4,0.0448114,-0.153704,-0.154142,-0.000499265,0,
4,0.039977,-0.154885,-0.154042,-0.000382686,0,
4,0.0356266,-0.155821,-0.153954,-0.000277206,0,
4,0.0317171,-0.156514,-0.153877,-0.000181969,0,
4,0.0282081,-0.156966,-0.15381,-9.61782e-05,0,
4,0.0250617,-0.157168,-0.153751,-1.91203e-05,0,
4,0.0222427,-0.157111,-0.153701,4.98195e-05,0,
4,0.0197189,-0.156773,-0.153659,0.000111126,0,
4,0.0174603,-0.156122,-0.153623,0.00016511,0,
4,0.0154398,-0.155112,-0.153593,0.000211838,0,
4,0.0136326,-0.153673,-0.153568,0.00025101,0,
4,0.0120162,-0.151706,-0.153548,0.000281776,0,
4,0.0105703,-0.149067,-0.153532,0.000302448,0,
4,0.00927657,-0.145552,-0.15352,0.000310193,0,
4,0.00811839,-0.140887,-0.15351,0.000301048,0,
4,0.0070809,-0.13474,-0.153504,0.000271195,0,
4,0.0061507,-0.126807,-0.153499,0.000220597,0,
4,0.00531578,-0.116988,-0.153497,0.000157375,0,
4,0.00456537,-0.105576,-0.153495,9.65664e-05,0,
4,0.00388979,-0.0932256,-0.153495,5.08352e-05,0,
4,0.00328037,-0.0806604,-0.153494,2.31816e-05,0,
4,0.00272934,-0.0684085,-0.153494,9.23314e-06,0,
4,0.0022297,-0.056744,-0.153493,3.19289e-06,0,
4,0.00177519,-0.0457615,-0.153494,9.30838e-07,0,
4,0.00136016,-0.0354603,-0.153492,2.14457e-07,0,
4,0.000979511,-0.0257968,-0.153494,3.43646e-08,0,
4,0.00062865,-0.0167104,-0.153492,2.9337e-09,0,
4,0.000303409,-0.00813493,-0.153494,7.15241e-11,0,

6,0,0,-0.0171899,0,0,
6,9,0,-0.074354,0,0,
6,8.99969,0.0135009,-0.0743537,1.8581e-10,0,
6,8.99934,0.0287258,-0.074354,8.57561e-09,0,
6,8.99895,0.0459121,-0.0743537,1.16267e-07,0,
6,8.9985,0.0653106,-0.0743539,8.37933e-07,0,
6,8.99801,0.0871797,-0.0743537,4.13685e-06,0,
6,8.99744,0.111719,-0.0743538,1.56514e-05,0,
6,8.99681,0.138902,-0.0743536,4.7321e-05,0,
6,8.99609,0.168207,-0.0743537,0.000115093,0,
6,8.99529,0.198483,-0.0743535,0.000225694,0,
6,8.99438,0.228302,-0.0743534,0.000364689,0,
6,8.99336,0.256564,-0.0743531,0.000506596,0,
6,8.9922,0.28277,-0.074353,0.000634043,0,
6,8.9909,0.30692,-0.0743526,0.000737304,0,
6,8.98944,0.32917,-0.0743522,0.000824098,0,
6,8.98779,0.349695,-0.0743516,0.000897107,0,
6,8.98593,0.36874,-0.074351,0.000954909,0,
6,8.98383,0.386566,-0.0743501,0.00100236,0,
6,8.98147,0.403378,-0.0743492,0.00104255,0,
6,8.97881,0.419343,-0.074348,0.00107697,0,
6,8.97581,0.434599,-0.0743466,0.00110695,0,
6,8.97244,0.449265,-0.0743449,0.00113349,0,
6,8.96863,0.463442,-0.0743429,0.00115735,0,
6,8.96435,0.477216,-0.0743405,0.00117909,0,
6,8.95953,0.490661,-0.0743378,0.00119909,0,
6,8.95409,0.503842,-0.0743346,0.00121765,0,
6,8.94798,0.516814,-0.0743309,0.00123494,0,
6,8.94109,0.529627,-0.0743265,0.00125104,0,
6,8.93334,0.542324,-0.0743216,0.00126598,0,
6,8.92463,0.554944,-0.0743159,0.0012797,0,
6,8.91482,0.567518,-0.0743095,0.00129211,0,
6,8.90379,0.580076,-0.0743021,0.00130304,0,
6,8.89139,0.592643,-0.0742939,0.00131229,0,
6,8.87746,0.60524,-0.0742846,0.00131964,0,
6,8.86181,0.617884,-0.0742744,0.00132482,0,
6,8.84423,0.630588,-0.0742632,0.00132756,0,
6,8.82452,0.643365,-0.0742508,0.00132759,0,
6,8.80241,0.656223,-0.0742373,0.00132462,0,
6,8.77763,0.66917,-0.0742227,0.00131839,0,
6,8.74989,0.682213,-0.0742069,0.00130864,0,
6,8.71885,0.695361,-0.0741901,0.00129513,0,
6,8.68417,0.708625,-0.0741722,0.00127763,0,
6,8.64545,0.72202,-0.0741534,0.00125589,0,
6,8.60229,0.735568,-0.0741338,0.0012296,0,
6,8.55423,0.749297,-0.0741139,0.00119845,0,
6,8.50082,0.763247,-0.0740933,0.0011625,0,
6,8.44155,0.777484,-0.0740737,0.00112193,0,
6,8.37592,0.792131,-0.0740558,0.00107436,0,
6,8.30339,0.807387,-0.0740397,0.00101844,0,
6,8.22344,0.823517,-0.0740253,0.000951288,0,
6,8.13555,0.840824,-0.0740133,0.000869135,0,
6,8.0392,0.859559,-0.0739992,0.000768531,0,
6,7.93391,0.879716,-0.0739831,0.000649217,0,
6,7.81927,0.90071,-0.0739532,0.000517673,0,
6,7.6949,0.921166,-0.0739155,0.000388977,0,
6,7.56054,0.939246,-0.0738595,0.000272867,0,
6,7.41603,0.953338,-0.0737902,0.000140971,0,
6,7.26132,0.962453,-0.0737139,5.607e-05,0,
6,7.09653,0.966832,-0.0736177,1.43425e-05,0,
6,6.92195,0.967928,-0.073503,7.75048e-07,0,
6,6.73802,0.967498,-0.073362,-1.02883e-06,0,
6,6.5454,0.966784,-0.0731918,-4.83202e-07,0,
6,6.34489,0.966294,-0.0729885,-1.3596e-07,0,
6,6.1375,0.966047,-0.0727488,-3.67942e-08,0,
6,5.92439,0.965906,-0.0724684,-1.39657e-08,0,
6,5.70687,0.965761,-0.0721426,-7.9782e-09,0,
6,5.48633,0.965568,-0.0717661,-6.22314e-09,0,
6,5.26426,0.965324,-0.0713338,-5.96121e-09,0,
6,5.04218,0.965039,-0.0708404,-6.2786e-09,0,
6,4.82159,0.964725,-0.0702812,-6.80348e-09,0,
6,4.60398,0.964393,-0.0696519,-7.45349e-09,0,
6,4.39071,0.964043,-0.0689494,-8.39128e-09,0,
6,4.18307,0.963644,-0.0681716,-9.95187e-09,0,
6,3.98218,0.963136,-0.0673182,-1.2357e-08,0,
6,3.78902,0.96246,-0.0663908,-1.52789e-08,0,
6,3.60438,0.961638,-0.0653931,-1.94944e-08,0,
6,3.42888,0.96084,-0.0643305,-4.02932e-08,0,
6,3.26296,0.960354,-0.0632099,-1.05307e-07,0,
6,3.10691,0.960425,-0.0620383,-1.32257e-07,0,
6,2.96084,0.961037,-0.0608235,4.75663e-08,0,
6,2.82473,0.961817,-0.0595754,-2.81262e-07,0,
6,2.69844,0.962149,-0.0583067,-3.97117e-06,0,
6,2.58172,0.961421,-0.0570326,-1.53999e-05,0,
6,2.47424,0.959231,-0.055769,-3.82723e-05,0,
6,2.37559,0.955469,-0.0545308,-7.40526e-05,0,
6,2.28535,0.950273,-0.0533314,-0.000121829,0,
6,2.20301,0.943935,-0.0521817,-0.00017891,0,
6,2.1281,0.936809,-0.0510899,-0.000241656,0,
6,2.06009,0.929245,-0.0500621,-0.000306142,0,
6,1.99849,0.921553,-0.0491004,-0.00036852,0,
6,1.9428,0.913994,-0.0482083,-0.000425561,0,
6,1.89255,0.906763,-0.0473803,-0.000476478,0,
6,1.84728,0.899949,-0.0466229,-0.000518489,0,
6,1.80655,0.893552,-0.0459348,-0.000548882,0,
6,1.76996,0.887573,-0.0453012,-0.000576742,0,
6,1.73712,0.882031,-0.0447263,-0.000602249,0,
6,1.70768,0.876898,-0.044201,-0.000625852,0,
6,1.67998,0.871948,-0.0437033,-0.000648744,0,
6,1.65329,0.867083,-0.0432172,-0.000671115,0,
6,1.62754,0.862302,-0.0427433,-0.000692913,0,
6,1.60265,0.857604,-0.04228,-0.00071423,0,
6,1.57854,0.852987,-0.0418269,-0.000735017,0,
6,1.55515,0.848451,-0.0413832,-0.000755301,0,
6,1.53242,0.843992,-0.0409482,-0.000775104,0,
6,1.5103,0.839605,-0.0405215,-0.000794418,0,
6,1.48874,0.835279,-0.0401026,-0.000813225,0,
6,1.46769,0.830995,-0.039691,-0.000831615,0,
6,1.44712,0.826741,-0.0392856,-0.000849897,0,
6,1.42698,0.82252,-0.0388845,-0.000868665,0,
6,1.40725,0.818364,-0.0384851,-0.000888545,0,
6,1.38788,0.814328,-0.0380884,-0.000909828,0,
6,1.36886,0.810442,-0.0376919,-0.000931435,0,
6,1.35015,0.80666,-0.0373103,-0.000940496,0,
6,1.33173,0.802903,-0.0369391,-0.000947875,0,
6,1.31357,0.799132,-0.0365659,-0.000959298,0,
6,1.29566,0.795331,-0.036198,-0.000972764,0,
6,1.27797,0.791479,-0.0358319,-0.000989331,0,
6,1.26048,0.787548,-0.0354688,-0.00101027,0,
6,1.24318,0.783509,-0.0351079,-0.00103718,0,
6,1.22605,0.779323,-0.0347493,-0.00107194,0,
6,1.20907,0.774944,-0.0343929,-0.00111669,0,
6,1.19223,0.770321,-0.0340385,-0.00117378,0,
6,1.17551,0.765395,-0.0336862,-0.00124567,0,
6,1.1589,0.760105,-0.0333359,-0.00133472,0,
6,1.14238,0.754389,-0.0329876,-0.00144295,0,
6,1.12595,0.748191,-0.0326415,-0.0015718,0,
6,1.10959,0.741463,-0.0322978,-0.00172179,0,
6,1.09329,0.734178,-0.031957,-0.00189238,0,
6,1.07704,0.726325,-0.0316191,-0.00208186,0,
6,1.06081,0.717909,-0.0312842,-0.00228739,0,
6,1.04459,0.708955,-0.0309527,-0.00250532,0,
6,1.02836,0.699504,-0.0306245,-0.00273134,0,
6,1.01211,0.68961,-0.0303004,-0.00296081,0,
6,0.99583,0.679331,-0.0299793,-0.00318925,0,
6,0.97951,0.668729,-0.0296642,-0.00341876,0,
6,0.963136,0.657822,-0.0293475,-0.00364172,0,
6,0.946694,0.646549,-0.0290256,-0.00385385,0,
6,0.930172,0.634824,-0.0287067,-0.004072,0,
6,0.913555,0.622584,-0.0283913,-0.00429849,0,
6,0.896829,0.609776,-0.0280811,-0.004535,0,
6,0.879979,0.596358,-0.0277763,-0.00478276,0,
6,0.862989,0.582302,-0.0274774,-0.00504267,0,
6,0.845842,0.5676,-0.0271851,-0.00531538,0,
6,0.828521,0.552268,-0.0268999,-0.00560151,0,
6,0.811008,0.536332,-0.026624,-0.00589851,0,
6,0.793282,0.519817,-0.0263594,-0.00620164,0,
6,0.775322,0.502737,-0.0261071,-0.00650852,0,
6,0.757107,0.485114,-0.0258684,-0.00681634,0,
6,0.738612,0.466976,-0.0256447,-0.00712178,0,
6,0.719813,0.448366,-0.0254373,-0.00742094,0,
6,0.700681,0.42934,-0.0252467,-0.00770943,0,
6,0.681188,0.40996,-0.0250723,-0.00798245,0,
6,0.661304,0.390285,-0.0249109,-0.00823489,0,
6,0.640996,0.370361,-0.024758,-0.00846125,0,
6,0.620228,0.350227,-0.0246112,-0.00865552,0,
6,0.598964,0.329946,-0.0244774,-0.00881124,0,
6,0.577166,0.309662,-0.0243798,-0.00892252,0,
6,0.554791,0.289665,-0.0243647,-0.00898619,0,
6,0.531799,0.270381,-0.024472,-0.0090031,0,
6,0.508144,0.252218,-0.0247318,-0.0089815,0,
6,0.48378,0.235261,-0.0249314,-0.0089164,0,
6,0.459585,0.219591,-0.0248183,-0.00853885,0,
6,0.436695,0.2054,-0.0246012,-0.00823749,0,
6,0.414961,0.192437,-0.0244365,-0.00793875,0,
6,0.394252,0.180522,-0.0242493,-0.00763183,0,
6,0.374445,0.169508,-0.024066,-0.0073236,0,
6,0.355433,0.159281,-0.0238822,-0.00701476,0,
6,0.337122,0.149746,-0.0236964,-0.00670507,0,
6,0.319433,0.140822,-0.023507,-0.00639529,0,
6,0.3023,0.132444,-0.0233126,-0.00608604,0,
6,0.28567,0.124554,-0.0231119,-0.00577794,0,
6,0.269507,0.117109,-0.0229041,-0.00547161,0,
6,0.253785,0.110072,-0.0226883,-0.00516774,0,
6,0.238493,0.103412,-0.0224641,-0.00486712,0,
6,0.223631,0.0971084,-0.0222315,-0.00457065,0,
6,0.209207,0.0911413,-0.0219906,-0.00427934,0,
6,0.195237,0.0854962,-0.0217421,-0.00399426,0,
6,0.181744,0.0801607,-0.021487,-0.00371653,0,
6,0.168754,0.075124,-0.0212268,-0.00344727,0,
6,0.156292,0.0703762,-0.0209633,-0.00318756,0,
6,0.144384,0.0659074,-0.0206986,-0.00293838,0,
6,0.133052,0.0617079,-0.0204348,-0.00270058,0,
6,0.122315,0.0577672,-0.0201744,-0.00247485,0,
6,0.112183,0.0540747,-0.0199196,-0.00226172,0,
6,0.102665,0.050619,-0.0196727,-0.0020615,0,
6,0.0937597,0.0473882,-0.0194355,-0.00187433,0,
6,0.0854609,0.0443702,-0.0192098,-0.00170016,0,
6,0.077757,0.0415526,-0.0189969,-0.00153879,0,
6,0.0706309,0.0389229,-0.0187978,-0.00138987,0,
6,0.0640611,0.0364688,-0.018613,-0.00125293,0,
6,0.0580229,0.0341778,-0.0184429,-0.00112743,0,
6,0.0524888,0.0320381,-0.0182874,-0.00101273,0,
6,0.0474296,0.0300379,-0.0181461,-0.000908191,0,
6,0.042815,0.0281658,-0.0180186,-0.000813113,0,
6,0.0386145,0.026411,-0.0179043,-0.000726804,0,
6,0.0347975,0.024763,-0.0178023,-0.000648578,0,
6,0.0313344,0.0232115,-0.0177118,-0.000577766,0,
6,0.0281964,0.0217468,-0.0176319,-0.000513722,0,
6,0.0253561,0.0203593,-0.0175616,-0.000455832,0,
6,0.0227875,0.0190398,-0.0175002,-0.000403511,0,
6,0.0204662,0.017779,-0.0174468,-0.000356208,0,
6,0.0183694,0.0165677,-0.0174006,-0.000313406,0,
6,0.016476,0.0153965,-0.0173607,-0.000274615,0,
6,0.0147664,0.0142556,-0.017327,-0.000239369,0,
6,0.0132228,0.0131346,-0.0172979,-0.000207221,0,
6,0.0118288,0.0120223,-0.0172741,-0.000177738,0,
6,0.0105693,0.0109064,-0.0172537,-0.000150492,0,
6,0.00943073,0.00977383,-0.017238,-0.000125066,0,
6,0.00840063,0.00861125,-0.0172245,-0.00010109,0,
6,0.00746774,0.007408,-0.0172153,-7.83517e-05,0,
6,0.00662185,0.00616188,-0.0172071,-5.70218e-05,0,
6,0.00585371,0.00488949,-0.017203,-3.79228e-05,0,
6,0.00515491,0.00363615,-0.0171986,-2.242e-05,0,
6,0.00451788,0.00247248,-0.0171978,-1.1564e-05,0,
6,0.00393573,0.00146875,-0.0171952,-5.17659e-06,0,
6,0.00340221,0.000665799,-0.0171959,-2.01453e-06,0,
6,0.00291168,6.81411e-05,-0.0171938,-6.77485e-07,0,
6,0.00245897,-0.000343245,-0.0171952,-1.90754e-07,0,
6,0.00203939,-0.000595865,-0.0171928,-4.09988e-08,0,
6,0.00164864,-0.000716796,-0.0171948,-4.77842e-09,0,
6,0.00128281,-0.000729158,-0.0171919,6.08508e-10,0,
6,0.000938257,-0.000651379,-0.0171946,3.88643e-10,0,
6,0.000611645,-0.000497519,-0.017191,5.97823e-11,0,
6,0.000299862,-0.000277887,-0.0171945,2.11531e-12,0,

10,0.000296632,0.00846564,0.0294645,-4.94859e-11,0,
10,0.000596102,0.017009,0.0294652,-1.8339e-09,0,
10,0.000900397,0.0256867,0.0294645,-1.86444e-08,0,
10,0.00121153,0.0345556,0.029465,-1.0018e-07,0,
10,0.00153158,0.0436728,0.0294644,-3.74668e-07,0,
10,0.00186264,0.053094,0.0294649,-1.11365e-06,0,
10,0.00220692,0.0628714,0.0294644,-2.82552e-06,0,
10,0.00256668,0.0730487,0.0294647,-6.37548e-06,0,
10,0.00294431,0.0836531,0.0294643,-1.31051e-05,0,
10,0.00334229,0.0946838,0.0294645,-2.48761e-05,0,
10,0.00376326,0.106098,0.0294641,-4.39061e-05,0,
10,0.00421,0.117797,0.0294643,-7.22671e-05,0,
10,0.00468544,0.129627,0.0294638,-0.000111083,0,
10,0.00519274,0.141386,0.0294638,-0.000159791,0,
10,0.00573524,0.152861,0.0294632,-0.000215991,0,
10,0.00631651,0.163855,0.029463,-0.000276099,0,
10,0.00694041,0.174222,0.0294621,-0.000336409,0,
10,0.00761104,0.183872,0.0294614,-0.000393945,0,
10,0.00833284,0.192769,0.0294601,-0.00044681,0,
10,0.00911058,0.200917,0.0294587,-0.000494125,0,
10,0.0099494,0.208354,0.0294566,-0.000535771,0,
10,0.0108548,0.215133,0.0294544,-0.000572116,0,
10,0.0118329,0.221315,0.0294513,-0.000603799,0,
10,0.0128901,0.226965,0.0294478,-0.000631572,0,
10,0.0140333,0.232147,0.0294433,-0.0006562,0,
10,0.0152702,0.236919,0.0294382,-0.00067841,0,
10,0.0166089,0.241334,0.029432,-0.000698863,0,
10,0.0180584,0.245442,0.0294249,-0.000718143,0,
10,0.0196282,0.249283,0.0294165,-0.000736766,0,
10,0.0213288,0.252897,0.0294069,-0.000755181,0,
10,0.0231714,0.256315,0.0293958,-0.000773789,0,
10,0.0251682,0.259566,0.0293831,-0.000792947,0,
10,0.0273326,0.262675,0.0293687,-0.000812986,0,
10,0.0296789,0.265666,0.0293523,-0.00083421,0,
10,0.0322227,0.268558,0.0293339,-0.000856914,0,
10,0.0349809,0.27137,0.0293131,-0.000881386,0,
10,0.0379719,0.274119,0.0292898,-0.000907911,0,
10,0.0412155,0.276819,0.0292638,-0.000936781,0,
10,0.0447333,0.279485,0.0292348,-0.000968295,0,
10,0.0485489,0.282132,0.0292025,-0.00100277,0,
10,0.0526875,0.284772,0.0291667,-0.00104052,0,
10,0.0571768,0.287419,0.0291271,-0.00108191,0,
10,0.0620466,0.290086,0.0290835,-0.00112731,0,
10,0.0673295,0.292786,0.0290355,-0.00117711,0,
10,0.0730607,0.295533,0.0289829,-0.00123173,0,
10,0.0792784,0.298342,0.0289254,-0.00129163,0,
10,0.0860241,0.301227,0.0288627,-0.00135729,0,
10,0.0933428,0.304205,0.0287946,-0.00142923,0,
10,0.101283,0.307294,0.0287209,-0.001508,0,
10,0.109899,0.310513,0.0286413,-0.0015942,0,
10,0.119247,0.313884,0.0285557,-0.00168843,0,
10,0.12939,0.317431,0.028464,-0.00179135,0,
10,0.140395,0.32118,0.0283662,-0.00190363,0,
10,0.152337,0.325162,0.0282622,-0.00202595,0,
10,0.165296,0.329411,0.0281522,-0.00215902,0,
10,0.179357,0.333967,0.0280363,-0.0023035,0,
10,0.194615,0.338876,0.0279148,-0.00246003,0,
10,0.211171,0.344189,0.0277879,-0.00262918,0,
10,0.229138,0.349966,0.0276557,-0.00281139,0,
10,0.248635,0.356278,0.0275192,-0.00300691,0,
10,0.269793,0.363203,0.0273774,-0.00321573,0,
10,0.292753,0.370836,0.0272326,-0.00343743,0,
10,0.317669,0.379284,0.0270808,-0.00366979,0,
10,0.344708,0.388663,0.0269276,-0.00390953,0,
10,0.372405,0.398528,0.0267782,-0.00414559,0,
10,0.399623,0.408493,0.0266348,-0.00436664,0,
10,0.426397,0.41856,0.0264983,-0.00456958,0,
10,0.452757,0.428733,0.0263671,-0.00475578,0,
10,0.478735,0.439021,0.0262433,-0.00492292,0,
10,0.504358,0.449441,0.0261271,-0.00506998,0,
10,0.529657,0.460017,0.0260198,-0.00519508,0,
10,0.554656,0.470769,0.0259147,-0.00529897,0,
10,0.579382,0.48171,0.0258192,-0.00538098,0,
10,0.603859,0.49285,0.0257097,-0.00545607,0,
10,0.628112,0.504259,0.0256397,-0.00553559,0,
10,0.652163,0.516261,0.0256507,-0.00546896,0,
10,0.676035,0.529192,0.025658,-0.00537383,0,
10,0.699751,0.543029,0.0256245,-0.00524873,0,
10,0.72333,0.557523,0.0255503,-0.00509295,0,
10,0.746795,0.572361,0.0254432,-0.00490878,0,
10,0.770165,0.587275,0.0253145,-0.00470039,0,
10,0.79346,0.602085,0.0251717,-0.00447272,0,
10,0.816699,0.616676,0.0250185,-0.00423066,0,
10,0.839903,0.630961,0.0248561,-0.00397908,0,
10,0.863088,0.644845,0.0246819,-0.00372518,0,
10,0.886275,0.658212,0.0244942,-0.00347923,0,
10,0.909481,0.670966,0.024296,-0.00324181,0,
10,0.932723,0.68307,0.0240897,-0.00301333,0,
10,0.956021,0.694539,0.0238771,-0.00279443,0,
10,0.97939,0.705408,0.0236583,-0.00258573,0,
10,1.00285,0.715715,0.0234334,-0.00238781,0,
10,1.02641,0.725486,0.0232016,-0.00220115,0,
10,1.0501,0.734746,0.0229632,-0.00202616,0,
10,1.07392,0.743513,0.0227177,-0.00186311,0,
10,1.0979,0.751815,0.0224672,-0.00171107,0,
10,1.12205,0.759682,0.0222112,-0.0015669,0,
10,1.14639,0.767124,0.0219466,-0.0014376,0,
10,1.17093,0.774139,0.021674,-0.00132176,0,
10,1.19568,0.78074,0.0213936,-0.00122017,0,
10,1.22066,0.78696,0.0211053,-0.00113288,0,
10,1.24589,0.792839,0.0208105,-0.00105921,0,
10,1.27137,0.798428,0.0205076,-0.000998003,0,
10,1.29713,0.803782,0.0202002,-0.000952428,0,
10,1.32317,0.809008,0.0198874,-0.000905936,0,
10,1.34951,0.814239,0.0195683,-0.000860462,0,
10,1.37616,0.819529,0.0192447,-0.000818574,0,
10,1.40313,0.824841,0.0189134,-0.000780234,0,
10,1.43043,0.830105,0.0185744,-0.000745113,0,
10,1.45807,0.835281,0.0182272,-0.000712527,0,
10,1.48607,0.840366,0.0178729,-0.00068172,0,
10,1.51444,0.845384,0.0175114,-0.000652135,0,
10,1.54318,0.85035,0.0171431,-0.000623505,0,
10,1.57231,0.855262,0.0167674,-0.00059575,0,
10,1.60184,0.860102,0.0163842,-0.000568856,0,
10,1.63178,0.864845,0.0159933,-0.00054282,0,
10,1.66213,0.869464,0.0155951,-0.000517646,0,
10,1.69292,0.87394,0.0151891,-0.000493291,0,
10,1.72416,0.878267,0.0147767,-0.000469573,0,
10,1.75585,0.882468,0.0143552,-0.000444175,0,
10,1.78802,0.886595,0.0139251,-0.000415499,0,
10,1.82067,0.890673,0.0134883,-0.000387742,0,
10,1.85383,0.894688,0.0130431,-0.000359023,0,
10,1.88751,0.898616,0.0125897,-0.000329368,0,
10,1.92173,0.902435,0.0121281,-0.000299121,0,
10,1.95652,0.906118,0.0116577,-0.000268698,0,
10,1.9919,0.909642,0.0111793,-0.000238581,0,
10,2.02791,0.912982,0.0106913,-0.000209323,0,
10,2.06456,0.916119,0.0101958,-0.000181166,0,
10,2.10268,0.919091,0.0096785,-0.000153711,0,
10,2.1443,0.921985,0.00911654,-0.000127341,0,
10,2.18977,0.92475,0.00850291,-0.000102202,0,
10,2.23946,0.927304,0.00783591,-7.86049e-05,0,
10,2.29376,0.929562,0.0071101,-5.73674e-05,0,
10,2.35309,0.931445,0.00632327,-3.91668e-05,0,
10,2.4179,0.932883,0.00547145,-2.45018e-05,0,
10,2.48863,0.933831,0.00455294,-1.36285e-05,0,
10,2.56575,0.934289,0.00356555,-6.45676e-06,0,
10,2.64971,0.934313,0.00250893,-2.4887e-06,0,
10,2.74098,0.934022,0.0013829,-8.64606e-07,0,
10,2.83997,0.933594,0.000188741,-5.5444e-07,0,
10,2.94709,0.933235,-0.00107188,-6.61509e-07,0,
10,3.06269,0.933125,-0.00239611,-6.79192e-07,0,
10,3.18706,0.933374,-0.00378035,-5.17144e-07,0,
10,3.3204,0.933985,-0.0052195,-2.99556e-07,0,
10,3.46281,0.934864,-0.00670693,-1.39786e-07,0,
10,3.61427,0.935866,-0.00823386,-6.01592e-08,0,
10,3.77463,0.936857,-0.00978968,-3.09838e-08,0,
10,3.94358,0.937754,-0.0113621,-2.21102e-08,0,
10,4.12067,0.938545,-0.0129378,-1.91032e-08,0,
10,4.30525,0.939263,-0.014503,-1.7755e-08,0,
10,4.49655,0.939951,-0.0160442,-1.72696e-08,0,
10,4.6936,0.940637,-0.0175483,-1.76268e-08,0,
10,4.89531,0.941323,-0.0190031,-1.93196e-08,0,
10,5.10047,0.941994,-0.0203979,-2.3801e-08,0,
10,5.30776,0.942631,-0.0217235,-3.4311e-08,0,
10,5.51581,0.943216,-0.0229725,-5.75586e-08,0,
10,5.72323,0.943747,-0.0241394,-1.07979e-07,0,
10,5.92863,0.944249,-0.0252209,-2.2093e-07,0,
10,6.13069,0.944786,-0.0262155,-4.89558e-07,0,
10,6.32816,0.945456,-0.0271235,-1.10877e-06,0,
10,6.51991,0.94629,-0.0279472,-2.15845e-06,0,
10,6.70495,0.947056,-0.0286899,-2.32077e-06,0,
10,6.88244,0.947038,-0.0293551,3.7817e-06,0,
10,7.0517,0.945008,-0.0299469,2.70659e-05,0,
10,7.21224,0.93958,-0.0304655,8.0823e-05,0,
10,7.3637,0.929872,-0.0309167,0.000174219,0,
10,7.5059,0.915927,-0.0313045,0.000297704,0,
10,7.63878,0.898339,-0.0316328,0.000405496,0,
10,7.76243,0.878214,-0.0319114,0.000524622,0,
10,7.87701,0.857319,-0.032135,0.000646274,0,
10,7.9828,0.83711,-0.03232,0.000756605,0,
10,8.08014,0.818296,-0.0324684,0.00085063,0,
10,8.16941,0.800959,-0.0325913,0.000928864,0,
10,8.25106,0.784852,-0.0326927,0.000994475,0,
10,8.32554,0.769648,-0.0327788,0.00105069,0,
10,8.39331,0.755067,-0.0328518,0.00109977,0,
10,8.45484,0.740912,-0.0329144,0.00114297,0,
10,8.5106,0.727061,-0.0329678,0.00118088,0,
10,8.56104,0.713456,-0.0330137,0.00121374,0,
10,8.60659,0.700081,-0.0330529,0.00124163,0,
10,8.64767,0.686943,-0.033087,0.00126467,0,
10,8.68467,0.674048,-0.0331164,0.00128274,0,
10,8.71795,0.66137,-0.0331419,0.00129241,0,
10,8.74786,0.64888,-0.033164,0.0012986,0,
10,8.77471,0.636575,-0.033183,0.00130051,0,
10,8.79881,0.62445,-0.0331994,0.00129859,0,
10,8.8204,0.612498,-0.0332134,0.00129336,0,
10,8.83975,0.600709,-0.0332255,0.00128533,0,
10,8.85708,0.589067,-0.0332357,0.001275,0,
10,8.87259,0.577554,-0.0332446,0.00126281,0,
10,8.88646,0.566151,-0.0332522,0.00124917,0,
10,8.89886,0.554831,-0.0332586,0.00123441,0,
10,8.90995,0.543567,-0.0332639,0.00121883,0,
10,8.91986,0.532329,-0.0332684,0.00120264,0,
10,8.92872,0.521084,-0.0332722,0.00118601,0,
10,8.93663,0.509795,-0.0332753,0.00116901,0,
10,8.94369,0.498425,-0.0332779,0.00115168,0,
10,8.95,0.48693,-0.0332801,0.00113397,0,
10,8.95564,0.475266,-0.0332819,0.00111581,0,
10,8.96067,0.463382,-0.0332833,0.00109703,0,
10,8.96517,0.451226,-0.0332846,0.00107738,0,
10,8.96918,0.438734,-0.0332855,0.00105652,0,
10,8.97276,0.425837,-0.0332864,0.00103403,0,
10,8.97596,0.412457,-0.033287,0.00100934,0,
10,8.97882,0.398499,-0.0332877,0.000981733,0,
10,8.98137,0.383857,-0.033288,0.000950263,0,
10,8.98365,0.368403,-0.0332885,0.000913723,0,
10,8.98569,0.351988,-0.0332886,0.000870733,0,
10,8.9875,0.334428,-0.0332891,0.000818937,0,
10,8.98913,0.315489,-0.033289,0.000753547,0,
10,8.99058,0.294943,-0.0332895,0.000676276,0,
10,8.99188,0.272628,-0.0332892,0.00058479,0,
10,8.99304,0.248385,-0.0332897,0.000472187,0,
10,8.99408,0.222173,-0.0332894,0.000346179,0,
10,8.99501,0.194364,-0.0332899,0.000220449,0,
10,8.99583,0.16586,-0.0332894,0.000116807,0,
10,8.99658,0.137927,-0.03329,5.01443e-05,0,
10,8.99724,0.111677,-0.0332894,1.73017e-05,0,
10,8.99784,0.0876962,-0.0332901,4.75243e-06,0,
10,8.99837,0.066093,-0.0332894,9.96611e-07,0,
10,8.99885,0.0467331,-0.0332902,1.42765e-07,0,
10,8.99927,0.0294055,-0.0332893,1.08387e-08,0,
10,8.99966,0.0138957,-0.0332903,2.39811e-10,0,
10,0,0,0.0294653,0,0,
10,9,0,-0.0332892,0,0,

0.004,0,0,-0.226637,0,-7.76541e-08,
0.00868226,0,0,-0.226634,0,-1.88198e-07,
0.014062,0,0,-0.226636,0,-3.24201e-07,
0.0201548,0,0,-0.226635,0,-7.45385e-07,
0.0269766,0,0,-0.226636,0,-1.23609e-06,
0.0345437,0,0,-0.226635,0,-1.82782e-06,
0.0428729,0,0,-0.226634,0,-2.33754e-06,
0.051981,0,0,-0.226632,0,-2.66672e-06,
0.0618853,0,0,-0.22663,0,-2.61802e-06,
0.0726036,0,0,-0.226627,0,-2.02064e-06,
0.0841536,0,0,-0.226623,0,-6.8843e-07,
0.0965535,0,0,-0.226619,0,1.51177e-06,
0.109822,0,0,-0.226617,0,4.63509e-06,
0.123977,0,0,-0.226617,0,8.62991e-06,
0.139037,0,0,-0.226619,0,1.33207e-05,
0.155022,0,0,-0.226627,0,1.84383e-05,
0.171949,0,0,-0.226638,0,2.36434e-05,
0.189839,0,0,-0.226655,0,2.8592e-05,
0.208709,0,0,-0.226677,0,3.2968e-05,
0.228579,0,0,-0.226702,0,3.65327e-05,
0.249467,0,0,-0.22673,0,3.91344e-05,
0.271391,0,0,-0.226759,0,4.07245e-05,
0.29437,0,0,-0.226788,0,4.13447e-05,
0.31842,0,0,-0.226817,0,4.11194e-05,
0.343559,0,0,-0.226843,0,4.02327e-05,
0.369804,0,0,-0.226868,0,3.89094e-05,
0.39717,0,0,-0.22689,0,3.73991e-05,
0.425672,0,0,-0.22691,0,3.59614e-05,
0.455324,0,0,-0.226929,0,3.48653e-05,
0.48614,0,0,-0.226948,0,3.43803e-05,
0.518132,0,0,-0.226969,0,3.47254e-05,
0.551309,0,0,-0.226993,0,3.60404e-05,
0.585683,0,0,-0.227025,0,3.83684e-05,
0.621259,0,0,-0.227066,0,4.16542e-05,
0.658046,0,0,-0.227121,0,4.57652e-05,
0.696047,0,0,-0.227193,0,5.05225e-05,
0.735265,0,0,-0.227285,0,5.57396e-05,
0.7757,0,0,-0.227403,0,6.12048e-05,
0.817352,0,0,-0.227552,0,6.66374e-05,
0.860215,0,0,-0.227742,0,7.16036e-05,
0.904285,0,0,-0.227984,0,7.53373e-05,
0.949552,0,0,-0.228297,0,7.66361e-05,
0.996004,0,0,-0.228698,0,7.38987e-05,
1.04363,0,0,-0.229208,0,6.52421e-05,
1.09241,0,0,-0.229845,0,4.87812e-05,
1.14232,0,0,-0.230615,0,2.30929e-05,
1.19335,0,0,-0.231513,0,-1.23172e-05,
1.24546,0,0,-0.232524,0,-5.67908e-05,
1.29863,0,0,-0.233618,0,-0.000108682,
1.35283,0,0,-0.234766,0,-0.000165846,
1.40802,0,0,-0.235937,0,-0.00022622,
1.46416,0,0,-0.237104,0,-0.000288221,
1.52121,0,0,-0.238245,0,-0.000350871,
1.57913,0,0,-0.239339,0,-0.000413686,
1.63787,0,0,-0.24037,0,-0.000476484,
1.69739,0,0,-0.241321,0,-0.00053921,
1.75761,0,0,-0.24218,0,-0.000601837,
1.81851,0,0,-0.242931,0,-0.000664315,
1.88,0,0,-0.24356,0,-0.000726567,
1.94204,0,0,-0.244056,0,-0.000788487,
2.00457,0,0,-0.244404,0,-0.000849951,
2.06751,0,0,-0.244592,0,-0.000910821,
2.13081,0,0,-0.244609,0,-0.000970945,
2.19439,0,0,-0.244443,0,-0.00103016,
2.25819,0,0,-0.244084,0,-0.00108829,
2.32214,0,0,-0.243523,0,-0.00114515,
2.38617,0,0,-0.242752,0,-0.00120053,
2.4502,0,0,-0.241763,0,-0.00125422,
2.51418,0,0,-0.240551,0,-0.00130599,
2.57803,0,0,-0.239113,0,-0.00135561,
2.64167,0,0,-0.237447,0,-0.00140284,
2.70505,0,0,-0.235553,0,-0.00144742,
2.76808,0,0,-0.233433,0,-0.00148911,
2.83072,0,0,-0.231093,0,-0.00152766,
2.89288,0,0,-0.228539,0,-0.00156287,
2.95451,0,0,-0.225782,0,-0.00159453,
3.01555,0,0,-0.222834,0,-0.00162253,
3.07594,0,0,-0.219712,0,-0.0016468,
3.13561,0,0,-0.21643,0,-0.00166732,
3.19453,0,0,-0.213009,0,-0.00168415,
3.25262,0,0,-0.209466,0,-0.00169738,
3.30985,0,0,-0.20582,0,-0.00170716,
3.36617,0,0,-0.202091,0,-0.00171364,
3.42154,0,0,-0.198297,0,-0.00171698,
3.47591,0,0,-0.194457,0,-0.00171739,
3.52925,0,0,-0.19059,0,-0.00171505,
3.58152,0,0,-0.186711,0,-0.0017102,
3.6327,0,0,-0.182836,0,-0.00170306,
3.68276,0,0,-0.178981,0,-0.00169385,
3.73167,0,0,-0.175158,0,-0.00168279,
3.77941,0,0,-0.17138,0,-0.0016701,
3.82596,0,0,-0.167657,0,-0.00165598,
3.8713,0,0,-0.163999,0,-0.00164064,
3.91543,0,0,-0.16041,0,-0.00162412,
3.95833,0,0,-0.156918,0,-0.00160695,
4,0,0,-0.153491,0,-0.00158899,
4.04167,0,0,-0.150063,0,-0.0015698,
4.08333,0,0,-0.146627,0,-0.0015496,
4.125,0,0,-0.143187,0,-0.00152838,
4.16667,0,0,-0.139747,0,-0.00150615,
4.20833,0,0,-0.136309,0,-0.00148297,
4.25,0,0,-0.132876,0,-0.00145887,
4.29167,0,0,-0.129451,0,-0.0014339,
4.33333,0,0,-0.126036,0,-0.00140809,
4.375,0,0,-0.122635,0,-0.0013815,
4.41667,0,0,-0.11925,0,-0.00135415,
4.45833,0,0,-0.115882,0,-0.00132609,
4.5,0,0,-0.112535,0,-0.00129734,
4.54167,0,0,-0.109211,0,-0.00126795,
4.58333,0,0,-0.105911,0,-0.00123795,
4.625,0,0,-0.102638,0,-0.00120738,
4.66667,0,0,-0.0993927,0,-0.00117627,
4.70833,0,0,-0.0961777,0,-0.00114465,
4.75,0,0,-0.0929943,0,-0.00111256,
4.79167,0,0,-0.0898442,0,-0.00108002,
4.83333,0,0,-0.0867286,0,-0.00104706,
4.875,0,0,-0.0836489,0,-0.0010137,
4.91667,0,0,-0.0806066,0,-0.000979973,
4.95833,0,0,-0.0776027,0,-0.000945906,
5,0,0,-0.0746384,0,-0.000911524,
5.04167,0,0,-0.0717149,0,-0.000876855,
5.08333,0,0,-0.068833,0,-0.000841926,
5.125,0,0,-0.0659937,0,-0.000806765,
5.16667,0,0,-0.0631978,0,-0.000771398,
5.20833,0,0,-0.0604461,0,-0.000735847,
5.25,0,0,-0.0577391,0,-0.000700137,
5.29167,0,0,-0.0550776,0,-0.00066429,
5.33333,0,0,-0.052462,0,-0.000628327,
5.375,0,0,-0.049893,0,-0.000592269,
5.41667,0,0,-0.0473708,0,-0.000556136,
5.45833,0,0,-0.044896,0,-0.00051995,
5.5,0,0,-0.0424689,0,-0.000483731,
5.54167,0,0,-0.0400898,0,-0.000447497,
5.58333,0,0,-0.0377591,0,-0.000411269,
5.625,0,0,-0.035477,0,-0.00037506,
5.66667,0,0,-0.0332439,0,-0.000338888,
5.70833,0,0,-0.0310602,0,-0.000302767,
5.75,0,0,-0.0289262,0,-0.00026672,
5.79167,0,0,-0.0268426,0,-0.000230781,
5.83333,0,0,-0.02481,0,-0.000195006,
5.875,0,0,-0.0228287,0,-0.000159468,
5.91667,0,0,-0.0208987,0,-0.000124245,
5.95833,0,0,-0.0190195,0,-8.93916e-05,
6,0,0,-0.0171901,0,-5.49268e-05,
6.04167,0,0,-0.0154096,0,-2.08486e-05,
6.08333,0,0,-0.0136772,0,1.28509e-05,
6.125,0,0,-0.011992,0,4.61775e-05,
6.16667,0,0,-0.0103532,0,7.91326e-05,
6.20833,0,0,-0.00876004,0,0.000111716,
6.25,0,0,-0.00721178,0,0.000143925,
6.29167,0,0,-0.00570762,0,0.00017576,
6.33333,0,0,-0.00424679,0,0.000207218,
6.375,0,0,-0.00282855,0,0.000238299,
6.41667,0,0,-0.00145213,0,0.000269,
6.45833,0,0,-0.000116765,0,0.00029932,
6.5,0,0,0.0011783,0,0.000329257,
6.54167,0,0,0.00243382,0,0.000358811,
6.58333,0,0,0.00365055,0,0.000387981,
6.625,0,0,0.00482926,0,0.000416766,
6.66667,0,0,0.00597068,0,0.000445168,
6.70833,0,0,0.00707556,0,0.000473186,
6.75,0,0,0.00814464,0,0.00050082,
6.79167,0,0,0.00917866,0,0.000528072,
6.83333,0,0,0.0101783,0,0.000554941,
6.875,0,0,0.0111444,0,0.000581428,
6.91667,0,0,0.0120776,0,0.000607533,
6.95833,0,0,0.0129785,0,0.000633258,
7,0,0,0.0138481,0,0.000658604,
7.04167,0,0,0.0146868,0,0.000683571,
7.08333,0,0,0.0154955,0,0.000708162,
7.125,0,0,0.0162748,0,0.000732378,
7.16667,0,0,0.0170254,0,0.00075622,
7.20833,0,0,0.017748,0,0.000779691,
7.25,0,0,0.0184433,0,0.000802793,
7.29167,0,0,0.0191118,0,0.000825529,
7.33333,0,0,0.0197543,0,0.000847905,
7.375,0,0,0.0203714,0,0.000869924,
7.41667,0,0,0.0209636,0,0.000891593,
7.45833,0,0,0.0215318,0,0.000912924,
7.5,0,0,0.0220764,0,0.000933928,
7.54167,0,0,0.0225981,0,0.000954612,
7.58333,0,0,0.0230973,0,0.000974982,
7.625,0,0,0.0235747,0,0.000995038,
7.66667,0,0,0.0240306,0,0.00101478,
7.70833,0,0,0.0244655,0,0.00103422,
7.75,0,0,0.02488,0,0.00105335,
7.79167,0,0,0.0252742,0,0.00107218,
7.83333,0,0,0.0256483,0,0.00109069,
7.875,0,0,0.0260021,0,0.00110895,
7.91667,0,0,0.0263466,0,0.00112752,
7.95833,0,0,0.0266129,0,0.0011449,
8,0,0,0.0269642,0,0.00116226,
8.04171,0,0,0.027335,0,0.00118064,
8.08368,0,0,0.0275724,0,0.00119878,
8.12617,0,0,0.0278502,0,0.00121518,
8.16946,0,0,0.0281121,0,0.00123165,
8.21382,0,0,0.0283573,0,0.00124813,
8.25952,0,0,0.0285936,0,0.00126463,
8.30685,0,0,0.0288204,0,0.00128134,
8.35611,0,0,0.0290378,0,0.00129833,
8.40762,0,0,0.0292459,0,0.0013157,
8.46168,0,0,0.0294441,0,0.0013335,
8.51865,0,0,0.0296316,0,0.00135178,
8.57889,0,0,0.0298071,0,0.00137061,
8.64276,0,0,0.029969,0,0.00139001,
8.71067,0,0,0.0301152,0,0.00141001,
8.78306,0,0,0.0302434,0,0.00143065,
8.86037,0,0,0.0303505,0,0.00145193,
8.94309,0,0,0.0304335,0,0.00147386,
9.03174,0,0,0.0304887,0,0.00149644,
9.12689,0,0,0.0305121,0,0.00151966,
9.22912,0,0,0.0304995,0,0.00154348,
9.33908,0,0,0.0304463,0,0.00156787,
9.45746,0,0,0.0303478,0,0.0015928,
9.58501,0,0,0.0301991,0,0.0016182,
9.72253,0,0,0.029995,0,0.00164401,
9.87088,0,0,0.0297307,0,0.00167015,
10.031,0,0,0.0294017,0,0.00169652,
10.2039,0,0,0.0290042,0,0.00172303,
10.3906,0,0,0.0285347,0,0.00174956,
10.5924,0,0,0.02799,0,0.00177599,
10.8105,0,0,0.0273699,0,0.00180219,
11.0463,0,0,0.0266747,0,0.00182806,
11.3012,0,0,0.0259046,0,0.00185349,
11.5769,0,0,0.0250641,0,0.00187835,
11.8751,0,0,0.024158,0,0.00190255,
12.1977,0,0,0.0231928,0,0.00192602,
12.5466,0,0,0.022178,0,0.00194867,
12.9242,0,0,0.0211236,0,0.00197045,
13.3327,0,0,0.0200418,0,0.00199134,
13.7748,0,0,0.0189457,0,0.0020113,
14.2532,0,0,0.017849,0,0.00203035,
14.7709,0,0,0.0167662,0,0.0020485,
15.3312,0,0,0.0157104,0,0.00206577,
15.9377,0,0,0.0146951,0,0.00208224,
16.594,0,0,0.0137315,0,0.00209796,
17.3044,0,0,0.0128279,0,0.002113,
18.0733,0,0,0.0119917,0,0.0021274,
18.9056,0,0,0.0112257,0,0.00214108,
19.8064,0,0,0.0105306,0,0.00215398,
20.7816,0,0,0.00990364,0,0.00216627,
21.8371,0,0,0.00933767,0,0.0021783,
22.9796,0,0,0.00882334,0,0.00219024,
24.2163,0,0,0.00834762,0,0.00220219,
25.5551,0,0,0.00789567,0,0.00221422,
27.0042,0,0,0.00745112,0,0.00222641,
28.5729,0,0,0.0069964,0,0.00223882,
30.271,0,0,0.00651353,0,0.00225146,
32.1091,0,0,0.00598494,0,0.00226426,
34.0989,0,0,0.00539549,0,0.00227709,
36.2529,0,0,0.00472746,0,0.00229003,
38.5845,0,0,0.00397277,0,0.00230297,
41.1085,0,0,0.00317027,0,0.00231574,
43.8407,0,0,0.00216167,0,0.00232612,
46.7983,0,0,0.0011137,0,0.00233196,
50,0,0,0.00211701,0,0.00234791,

