8a0a09a7f5f57e6806269db41133da9029d17011 
X,Z,x_velocity,cp,uw_b,cf,
1,0,0,-0.241626,0,0,
1,9,0,-0.12873,0,0,
1,1.01284,0.478197,-0.233785,-0.0106611,0,
1,0.000308731,0.000537806,-0.241625,-1.25228e-14,0,
1,0.000654158,0.00111071,-0.241626,-5.39725e-13,0,
1,0.00104139,0.00171724,-0.241625,-6.75906e-12,0,
1,0.00147619,0.00235344,-0.241625,-4.47421e-11,0,
1,0.00196502,0.00301219,-0.241625,-2.02986e-10,0,
1,0.00251518,0.00368228,-0.241625,-7.15437e-10,0,
1,0.0031349,0.00434683,-0.241624,-2.08769e-09,0,
1,0.00383341,0.00498158,-0.241625,-5.18527e-09,0,
1,0.00462115,0.00555222,-0.241624,-1.09058e-08,0,
1,0.00550983,0.00601137,-0.241624,-1.8153e-08,0,
1,0.00651264,0.00629417,-0.241623,-1.63418e-08,0,
1,0.00764438,0.00631373,-0.241623,3.75163e-08,0,
1,0.00892169,0.00595683,-0.241622,2.797e-07,0,
1,0.0103632,0.00508602,-0.241622,1.07537e-06,0,
1,0.0119898,0.00355673,-0.24162,3.23701e-06,0,
1,0.0138248,0.00125968,-0.241618,8.1529e-06,0,
1,0.0158944,-0.00182765,-0.241615,1.74038e-05,0,
1,0.0182274,-0.00562709,-0.24161,3.17166e-05,0,
1,0.0208562,-0.0100099,-0.241602,5.0357e-05,0,
1,0.0238164,-0.014861,-0.241591,7.18288e-05,0,
1,0.0271475,-0.0201046,-0.241576,9.47453e-05,0,
1,0.0308929,-0.0256896,-0.241557,0.000118048,0,
1,0.0351001,-0.0315656,-0.241535,0.000140825,0,
1,0.0398209,-0.0376631,-0.241509,0.000162138,0,
1,0.0451115,-0.0438839,-0.24148,0.000180983,0,
1,0.0510323,-0.0501031,-0.241448,0.000196364,0,
1,0.057648,-0.0561816,-0.241415,0.000207331,0,
1,0.0650269,-0.0619908,-0.241384,0.000211699,0,
1,0.0732406,-0.0674192,-0.241359,0.000208702,0,
1,0.0823632,-0.0723631,-0.241343,0.000198371,0,
1,0.0924701,-0.0767248,-0.241339,0.000181089,0,
1,0.103636,-0.08042,-0.241351,0.000157688,0,
1,0.115935,-0.0833901,-0.241382,0.000128604,0,
1,0.129436,-0.085608,-0.241436,9.46038e-05,0,
1,0.144202,-0.0870764,-0.241513,5.66857e-05,0,
1,0.160284,-0.08782,-0.241617,1.58483e-05,0,
1,0.177724,-0.0878763,-0.241748,-2.70528e-05,0,
1,0.196544,-0.0872881,-0.241906,-7.135e-05,0,
1,0.21675,-0.0860983,-0.242089,-0.000116533,0,
1,0.238323,-0.0843479,-0.242295,-0.000162183,0,
1,0.26122,-0.0820749,-0.242522,-0.00020791,0,
1,0.28537,-0.0793157,-0.242765,-0.000253305,0,
1,0.310673,-0.0761058,-0.24302,-0.000297916,0,
1,0.337003,-0.0724816,-0.24328,-0.000341223,0,
1,0.364206,-0.0684814,-0.24354,-0.000382646,0,
1,0.392107,-0.0641459,-0.243793,-0.000421573,0,
1,0.420509,-0.0595181,-0.244034,-0.000457397,0,
1,0.449206,-0.0546419,-0.244257,-0.000489594,0,
1,0.477982,-0.0495587,-0.244458,-0.0005179,0,
1,0.506624,-0.0443006,-0.244634,-0.000542636,0,
1,0.534925,-0.0388771,-0.244782,-0.00056538,0,
1,0.562692,-0.033251,-0.244901,-0.000588523,0,
1,0.589754,-0.0273233,-0.244982,-0.000617533,0,
1,0.615961,-0.0209472,-0.24501,-0.000669732,0,
1,0.641193,-0.013902,-0.244979,-0.000753995,0,
1,0.665359,-0.00584177,-0.244881,-0.000887465,0,
1,0.688396,0.00366198,-0.244712,-0.00108998,0,
1,0.710271,0.0150125,-0.244473,-0.00138074,0,
1,0.730976,0.0284689,-0.244172,-0.00177555,0,
1,0.750529,0.0440496,-0.243826,-0.0022809,0,
1,0.768969,0.0615005,-0.243451,-0.00288866,0,
1,0.78635,0.0803791,-0.243061,-0.00357501,0,
1,0.802743,0.100209,-0.242663,-0.00430837,0,
1,0.818232,0.120578,-0.242266,-0.00505885,0,
1,0.832689,0.140889,-0.241868,-0.00579812,0,
1,0.846039,0.16064,-0.241482,-0.0064992,0,
1,0.858357,0.179617,-0.241107,-0.00714676,0,
1,0.869723,0.197685,-0.240747,-0.0077353,0,
1,0.880212,0.214768,-0.240401,-0.00826643,0,
1,0.889898,0.230854,-0.240064,-0.00873701,0,
1,0.898852,0.245991,-0.239737,-0.00914766,0,
1,0.907141,0.260261,-0.239414,-0.00950314,0,
1,0.914826,0.273746,-0.239098,-0.0098132,0,
1,0.921966,0.286517,-0.238789,-0.0100823,0,
1,0.928616,0.29864,-0.238489,-0.0103145,0,
1,0.934823,0.310171,-0.238198,-0.0105136,0,
1,0.940633,0.321164,-0.237917,-0.0106829,0,
1,0.946088,0.33167,-0.237644,-0.0108254,0,
1,0.951224,0.341735,-0.23738,-0.0109439,0,
1,0.956076,0.351402,-0.237125,-0.0110408,0,
1,0.960675,0.360713,-0.236878,-0.011118,0,
1,0.965047,0.369706,-0.236639,-0.0111774,0,
1,0.969219,0.378416,-0.236406,-0.0112205,0,
1,0.973211,0.386876,-0.23618,-0.0112487,0,
1,0.977045,0.395117,-0.23596,-0.0112629,0,
1,0.980739,0.403167,-0.235745,-0.0112642,0,
1,0.984308,0.411053,-0.235535,-0.0112532,0,
1,0.987768,0.4188,-0.235329,-0.0112305,0,
1,0.991131,0.42643,-0.235126,-0.0111967,0,
1,0.99441,0.433965,-0.234928,-0.0111519,0,
1,0.997615,0.441424,-0.234732,-0.0110965,0,
1,1.00076,0.448827,-0.234539,-0.0110305,0,
1,1.00384,0.456189,-0.234347,-0.0109539,0,
1,1.00688,0.463528,-0.234158,-0.0108668,0,
1,1.00988,0.470859,-0.233971,-0.010769,0,
1,1.01581,0.485636,-0.233598,-0.0105403,0,
1,1.01882,0.493278,-0.233408,-0.0104038,0,
1,1.02188,0.501147,-0.233214,-0.0102512,0,
1,1.025,0.509268,-0.233017,-0.0100805,0,
1,1.02818,0.517671,-0.232815,-0.00988995,0,
1,1.03144,0.526392,-0.232609,-0.00967652,0,
1,1.03478,0.535468,-0.232399,-0.00943674,0,
1,1.03822,0.544935,-0.232185,-0.00916925,0,
1,1.04177,0.554826,-0.231969,-0.00887281,0,
1,1.04544,0.565172,-0.23175,-0.00854272,0,
1,1.04925,0.576,-0.231528,-0.00817577,0,
1,1.05321,0.587332,-0.231304,-0.00776874,0,
1,1.05735,0.599182,-0.231078,-0.00731863,0,
1,1.06169,0.611549,-0.230851,-0.0068234,0,
1,1.06626,0.624403,-0.230624,-0.00628237,0,
1,1.07108,0.637676,-0.2304,-0.00569795,0,
1,1.07618,0.651244,-0.230179,-0.00507725,0,
1,1.0816,0.664905,-0.229966,-0.00443438,0,
1,1.08738,0.678374,-0.229765,-0.00379218,0,
1,1.09357,0.691296,-0.229578,-0.00318151,0,
1,1.10022,0.703309,-0.229409,-0.00263588,0,
1,1.10739,0.714148,-0.229259,-0.00218216,0,
1,1.11514,0.723742,-0.229124,-0.00183253,0,
1,1.12354,0.732224,-0.228999,-0.00158306,0,
1,1.13268,0.739864,-0.228873,-0.00141828,0,
1,1.14266,0.746964,-0.228737,-0.00131767,0,
1,1.15357,0.753788,-0.228582,-0.00126089,0,
1,1.16554,0.760535,-0.2284,-0.0012309,0,
1,1.1787,0.767342,-0.228185,-0.00121514,0,
1,1.1932,0.774292,-0.227934,-0.00120566,0,
1,1.2092,0.781433,-0.227639,-0.00119769,0,
1,1.22689,0.788795,-0.227295,-0.00118837,0,
1,1.24659,0.796429,-0.226893,-0.00117618,0,
1,1.26879,0.804423,-0.226419,-0.00116208,0,
1,1.29378,0.812775,-0.225859,-0.00114608,0,
1,1.3219,0.821483,-0.225204,-0.00112842,0,
1,1.35351,0.83055,-0.224433,-0.00111072,0,
1,1.389,0.840013,-0.223506,-0.00106542,0,
1,1.42882,0.849883,-0.22243,-0.00101888,0,
1,1.47342,0.860165,-0.221204,-0.000973316,0,
1,1.52332,0.870923,-0.219797,-0.000925938,0,
1,1.57905,0.882272,-0.218188,-0.000875064,0,
1,1.64119,0.894372,-0.216358,-0.000818471,0,
1,1.71033,0.907409,-0.214285,-0.000753742,0,
1,1.78711,0.921555,-0.211951,-0.000678394,0,
1,1.87215,0.936871,-0.209336,-0.000591273,0,
1,1.9661,0.953179,-0.206427,-0.000493305,0,
1,2.06959,0.969894,-0.203199,-0.000389763,0,
1,2.18321,0.985994,-0.199688,-0.000278403,0,
1,2.30752,1.00016,-0.195944,-0.000142587,0,
1,2.44299,1.01085,-0.191956,-4.75352e-05,0,
1,2.59002,1.01665,-0.187796,-4.3963e-06,0,
1,2.74885,1.01744,-0.183555,1.16925e-06,0,
1,2.91959,1.015,-0.179306,1.04885e-07,0,
1,3.10217,1.01181,-0.175114,5.57587e-08,0,
1,3.2963,1.00924,-0.171022,4.36348e-08,0,
1,3.50146,1.00742,-0.167063,3.45503e-08,0,
1,3.7169,1.00598,-0.163266,2.99089e-08,0,
1,3.94163,1.00461,-0.15966,2.75871e-08,0,
1,4.17441,1.00323,-0.156268,2.56154e-08,0,
1,4.41376,1.00191,-0.153106,2.34445e-08,0,
1,4.65805,1.00068,-0.150184,2.11949e-08,0,
1,4.90545,0.999567,-0.147506,1.91035e-08,0,
1,5.15407,0.99856,-0.145071,1.72294e-08,0,
1,5.40194,0.997655,-0.142872,1.55935e-08,0,
1,5.64716,0.996843,-0.1409,1.42624e-08,0,
1,5.88785,0.996096,-0.139144,1.33297e-08,0,
1,6.12229,0.995381,-0.137589,1.25606e-08,0,
1,6.34896,0.994726,-0.136221,1.10893e-08,0,
1,6.56652,0.994326,-0.135023,8.24936e-09,0,
1,6.77388,0.99448,-0.133978,-1.10317e-10,0,
1,6.97022,0.995148,-0.13307,2.70648e-10,0,
1,7.15495,0.995186,-0.132281,1.67212e-06,0,
1,7.32773,0.992119,-0.131602,1.79076e-05,0,
1,7.48842,0.98338,-0.131023,7.61532e-05,0,
1,7.63711,0.968429,-0.130551,0.000207768,0,
1,7.77403,0.949214,-0.130151,0.00039233,0,
1,7.89956,0.928058,-0.129811,0.000550379,0,
1,8.01417,0.906628,-0.129554,0.000710411,0,
1,8.11843,0.886203,-0.129337,0.000851385,0,
1,8.21296,0.867332,-0.129169,0.000966683,0,
1,8.29839,0.850003,-0.129036,0.00105745,0,
1,8.3754,0.833911,-0.128934,0.00112743,0,
1,8.44464,0.818669,-0.128858,0.00118182,0,
1,8.50675,0.803951,-0.128802,0.0012264,0,
1,8.56236,0.789544,-0.128762,0.00126445,0,
1,8.61206,0.775331,-0.128733,0.00129777,0,
1,8.6564,0.761258,-0.128712,0.0013273,0,
1,8.69591,0.747308,-0.128698,0.0013535,0,
1,8.73107,0.733461,-0.128689,0.00137624,0,
1,8.76232,0.719673,-0.128685,0.00139269,0,
1,8.79007,0.70591,-0.128683,0.00140755,0,
1,8.81469,0.692167,-0.128683,0.00141945,0,
1,8.83651,0.678438,-0.128685,0.00142847,0,
1,8.85584,0.664717,-0.128687,0.00143482,0,
1,8.87295,0.650997,-0.12869,0.00143866,0,
1,8.8881,0.637267,-0.128694,0.00144018,0,
1,8.90149,0.623515,-0.128697,0.00143955,0,
1,8.91333,0.609723,-0.128701,0.00143689,0,
1,8.92379,0.595873,-0.128704,0.00143236,0,
1,8.93303,0.581943,-0.128707,0.00142604,0,
1,8.9412,0.567904,-0.12871,0.00141799,0,
1,8.9484,0.553727,-0.128713,0.00140823,0,
1,8.95476,0.539376,-0.128715,0.00139672,0,
1,8.96038,0.52481,-0.128717,0.00138336,0,
1,8.96533,0.509983,-0.128719,0.00136798,0,
1,8.9697,0.494842,-0.128721,0.00135031,0,
1,8.97356,0.479325,-0.128723,0.00132997,0,
1,8.97696,0.463363,-0.128724,0.00130643,0,
1,8.97996,0.446875,-0.128725,0.00127901,0,
1,8.98261,0.429768,-0.128726,0.00124689,0,
1,8.98494,0.411931,-0.128727,0.00121174,0,
1,8.98699,0.393152,-0.128727,0.00116259,0,
1,8.98881,0.373088,-0.128728,0.00109911,0,
1,8.99041,0.351377,-0.128728,0.00101913,0,
1,8.99182,0.327665,-0.128729,0.000918014,0,
1,8.99306,0.301623,-0.128729,0.000792313,0,
1,8.99416,0.272945,-0.128729,0.000636461,0,
1,8.99512,0.24127,-0.128729,0.000428097,0,
1,8.99597,0.206992,-0.12873,0.000240285,0,
1,8.99672,0.17203,-0.12873,0.000106965,0,
1,8.99739,0.138545,-0.12873,3.69878e-05,0,
1,8.99797,0.107932,-0.12873,9.89775e-06,0,
1,8.99848,0.0806231,-0.12873,1.99071e-06,0,
1,8.99894,0.0564935,-0.12873,2.72017e-07,0,
1,8.99934,0.0352318,-0.12873,1.97281e-08,0,
1,8.99969,0.0165065,-0.12873,4.22107e-10,0,

4,0,0,-0.0956074,0,0,
4,9,0,-0.0983456,0,0,
4,1.05136,0.66071,-0.103694,-0.00467161,0,
4,0.000303409,-0.00516913,-0.0956131,9.43333e-11,0,
4,0.00062865,-0.0105654,-0.0956087,3.82941e-09,0,
4,0.000979511,-0.0162207,-0.0956132,4.43386e-08,0,
4,0.00136016,-0.0221598,-0.0956099,2.73105e-07,0,
4,0.00177519,-0.0283968,-0.0956135,1.16752e-06,0,
4,0.0022297,-0.0349211,-0.0956111,3.92831e-06,0,
4,0.00272934,-0.0416675,-0.0956143,1.10422e-05,0,
4,0.00328037,-0.0484639,-0.0956128,2.64385e-05,0,
4,0.00388979,-0.0549773,-0.0956163,5.34949e-05,0,
4,0.00456537,-0.0607526,-0.095617,8.98784e-05,0,
4,0.00531578,-0.0654252,-0.0956234,0.00012497,0,
4,0.0061507,-0.0689211,-0.0956295,0.000147169,0,
4,0.0070809,-0.0714102,-0.0956423,0.000152343,0,
4,0.00811839,-0.0731323,-0.095657,0.000142686,0,
4,0.00927657,-0.0742913,-0.0956789,0.000121801,0,
4,0.0105703,-0.0750328,-0.0957047,9.23325e-05,0,
4,0.0120162,-0.0754542,-0.0957384,5.5757e-05,0,
4,0.0136326,-0.075619,-0.0957782,1.27229e-05,0,
4,0.0154398,-0.0755686,-0.0958271,-3.66366e-05,0,
4,0.0174603,-0.0753293,-0.0958845,-9.25106e-05,0,
4,0.0197189,-0.0749177,-0.0959529,-0.000155302,0,
4,0.0222427,-0.0743433,-0.0960328,-0.000225568,0,
4,0.0250617,-0.0736107,-0.0961264,-0.000303987,0,
4,0.0282081,-0.0727207,-0.0962348,-0.000391342,0,
4,0.0317171,-0.0716712,-0.0963601,-0.000488503,0,
4,0.0356266,-0.0704579,-0.0965041,-0.000596427,0,
4,0.039977,-0.0690741,-0.0966689,-0.000716142,0,
4,0.0448114,-0.0675119,-0.0968563,-0.000848742,0,
4,0.0501747,-0.0657615,-0.0970685,-0.000995376,0,
4,0.056114,-0.0638118,-0.0973073,-0.00115723,0,
4,0.062677,-0.0616504,-0.0975743,-0.00133549,0,
4,0.0699123,-0.0592639,-0.0978709,-0.00153136,0,
4,0.0778675,-0.0566375,-0.0981982,-0.00174598,0,
4,0.0865883,-0.0537559,-0.0985566,-0.00198041,0,
4,0.0961173,-0.0506031,-0.0989459,-0.00223557,0,
4,0.106492,-0.0471625,-0.099365,-0.00251221,0,
4,0.117744,-0.0434178,-0.0998124,-0.00281083,0,
4,0.129894,-0.0393533,-0.100285,-0.00313164,0,
4,0.142956,-0.0349541,-0.100781,-0.00347448,0,
4,0.156928,-0.0302075,-0.101294,-0.00383884,0,
4,0.171798,-0.0251031,-0.101822,-0.00422379,0,
4,0.187537,-0.0196338,-0.102357,-0.00462803,0,
4,0.2041,-0.0137962,-0.102895,-0.00504981,0,
4,0.221432,-0.00759015,-0.10343,-0.00548667,0,
4,0.239458,-0.00101927,-0.103958,-0.00593548,0,
4,0.258095,0.00590812,-0.104474,-0.00639332,0,
4,0.27725,0.0131771,-0.104973,-0.00685773,0,
4,0.296825,0.0207663,-0.105451,-0.00732594,0,
4,0.316717,0.0286492,-0.105906,-0.00779503,0,
4,0.336828,0.036797,-0.106335,-0.0082647,0,
4,0.357066,0.0451856,-0.106726,-0.00872982,0,
4,0.377348,0.0538026,-0.107067,-0.00918685,0,
4,0.397605,0.0626497,-0.107337,-0.00962789,0,
4,0.417786,0.0717359,-0.107569,-0.010057,0,
4,0.437857,0.0810786,-0.107804,-0.0105581,0,
4,0.457804,0.0908574,-0.107477,-0.0109588,0,
4,0.477632,0.101469,-0.106455,-0.0111181,0,
4,0.497368,0.1133,-0.105424,-0.0112707,0,
4,0.517057,0.126471,-0.104652,-0.01142,0,
4,0.536763,0.140918,-0.104138,-0.0115559,0,
4,0.556564,0.156503,-0.103829,-0.0116692,0,
4,0.576557,0.173104,-0.103652,-0.0117521,0,
4,0.596848,0.190671,-0.103551,-0.0117993,0,
4,0.617561,0.209233,-0.10348,-0.0118064,0,
4,0.637962,0.228123,-0.103423,-0.0117718,0,
4,0.657495,0.246806,-0.103374,-0.0116986,0,
4,0.676218,0.265285,-0.103332,-0.01159,0,
4,0.694189,0.283559,-0.103298,-0.011449,0,
4,0.711463,0.301623,-0.103271,-0.0112782,0,
4,0.728096,0.319475,-0.103252,-0.0110804,0,
4,0.744138,0.337114,-0.103238,-0.0108581,0,
4,0.759639,0.354535,-0.103231,-0.0106141,0,
4,0.774643,0.371731,-0.103228,-0.0103518,0,
4,0.789195,0.388682,-0.103229,-0.0100747,0,
4,0.803334,0.40536,-0.103233,-0.00978715,0,
4,0.817097,0.421728,-0.103241,-0.00949332,0,
4,0.830518,0.437749,-0.103251,-0.00919607,0,
4,0.843629,0.453391,-0.103264,-0.00889779,0,
4,0.856459,0.468631,-0.103278,-0.00860044,0,
4,0.869035,0.483455,-0.103293,-0.0083056,0,
4,0.881383,0.497852,-0.103309,-0.00801452,0,
4,0.893524,0.511817,-0.103326,-0.00772827,0,
4,0.905481,0.525342,-0.103344,-0.00744777,0,
4,0.917272,0.538417,-0.103362,-0.00717395,0,
4,0.928915,0.551022,-0.103378,-0.00691,0,
4,0.940428,0.563138,-0.103393,-0.00665807,0,
4,0.951826,0.57475,-0.103408,-0.00641742,0,
4,0.963124,0.585861,-0.103424,-0.00618777,0,
4,0.974334,0.596492,-0.103443,-0.00596889,0,
4,0.98547,0.606673,-0.103467,-0.00576041,0,
4,0.996544,0.616443,-0.103495,-0.00556178,0,
4,1.00757,0.625845,-0.103527,-0.00537222,0,
4,1.01855,0.634921,-0.103564,-0.00519074,0,
4,1.0295,0.643719,-0.103605,-0.00501606,0,
4,1.04044,0.652292,-0.103647,-0.00484646,0,
4,1.0623,0.669065,-0.103739,-0.00447688,0,
4,1.07328,0.677402,-0.103782,-0.00428502,0,
4,1.08432,0.685702,-0.103827,-0.00408362,0,
4,1.09543,0.693938,-0.103871,-0.00387361,0,
4,1.10661,0.702084,-0.103916,-0.00365645,0,
4,1.11788,0.710105,-0.10396,-0.00343399,0,
4,1.12925,0.717966,-0.104005,-0.0032085,0,
4,1.14073,0.725628,-0.10405,-0.00298268,0,
4,1.15233,0.733052,-0.104095,-0.00275953,0,
4,1.16408,0.740197,-0.10414,-0.00254231,0,
4,1.17599,0.74703,-0.104185,-0.00233435,0,
4,1.18806,0.753521,-0.104229,-0.00213879,0,
4,1.20034,0.759651,-0.104273,-0.00195839,0,
4,1.21282,0.765414,-0.104317,-0.00179531,0,
4,1.22554,0.770816,-0.104361,-0.00165089,0,
4,1.23852,0.775877,-0.104405,-0.00152567,0,
4,1.25179,0.780626,-0.104449,-0.00141933,0,
4,1.26537,0.785102,-0.104494,-0.00133089,0,
4,1.2793,0.789349,-0.104539,-0.00125881,0,
4,1.29362,0.793413,-0.104586,-0.00120122,0,
4,1.30836,0.797337,-0.104634,-0.00115606,0,
4,1.32357,0.801165,-0.104684,-0.00112125,0,
4,1.3393,0.804938,-0.104736,-0.00109477,0,
4,1.3556,0.80869,-0.10479,-0.00107477,0,
4,1.37252,0.812454,-0.104846,-0.00105954,0,
4,1.39015,0.816261,-0.104907,-0.00104786,0,
4,1.40855,0.820137,-0.104962,-0.00104472,0,
4,1.42781,0.824155,-0.105038,-0.00102728,0,
4,1.44801,0.828416,-0.105139,-0.00100258,0,
4,1.46926,0.832962,-0.105234,-0.000978068,0,
4,1.49167,0.837775,-0.105328,-0.000953401,0,
4,1.51537,0.842832,-0.105421,-0.00092835,0,
4,1.54091,0.848209,-0.105517,-0.000902992,0,
4,1.56949,0.854118,-0.10562,-0.000876334,0,
4,1.60144,0.860625,-0.105734,-0.000847493,0,
4,1.63713,0.867778,-0.105856,-0.000815973,0,
4,1.67693,0.875611,-0.105986,-0.000781468,0,
4,1.72128,0.884142,-0.106125,-0.000743619,0,
4,1.77062,0.893367,-0.106268,-0.000702241,0,
4,1.82542,0.903239,-0.106417,-0.000657206,0,
4,1.88618,0.913663,-0.106557,-0.000608354,0,
4,1.95343,0.924555,-0.106711,-0.000541689,0,
4,2.02768,0.935831,-0.106878,-0.000450677,0,
4,2.10949,0.947201,-0.107031,-0.000352914,0,
4,2.19939,0.958097,-0.107174,-0.000253334,0,
4,2.29789,0.967813,-0.107296,-0.000161697,0,
4,2.40551,0.975636,-0.107391,-8.73929e-05,0,
4,2.52268,0.980996,-0.10745,-3.6335e-05,0,
4,2.64979,0.983682,-0.107463,-8.92175e-06,0,
4,2.78715,0.984035,-0.107424,3.33851e-07,0,
4,2.93497,0.982958,-0.107325,9.19711e-07,0,
4,3.09333,0.981582,-0.107164,1.93701e-07,0,
4,3.26217,0.980714,-0.106941,1.24741e-08,0,
4,3.44125,0.98053,-0.106661,-1.12991e-09,0,
4,3.63018,0.980744,-0.106329,-3.09925e-09,0,
4,3.82836,0.981,-0.105949,-1.95428e-09,0,
4,4.03501,0.981113,-0.105528,6.23375e-11,0,
4,4.24915,0.981076,-0.105073,1.58328e-09,0,
4,4.46961,0.980958,-0.104594,2.35127e-09,0,
4,4.69507,0.980816,-0.1041,2.64749e-09,0,
4,4.92406,0.980672,-0.103601,2.78341e-09,0,
4,5.15502,0.980528,-0.103104,2.91299e-09,0,
4,5.3863,0.980377,-0.102618,3.12058e-09,0,
4,5.61626,0.980211,-0.10215,3.54223e-09,0,
4,5.84328,0.980018,-0.101704,4.52702e-09,0,
4,6.06579,0.979803,-0.101285,6.94238e-09,0,
4,6.28238,0.979633,-0.100896,1.0047e-08,0,
4,6.49173,0.979673,-0.100536,-1.2761e-08,0,
4,6.69275,0.980089,-0.100207,-1.75052e-07,0,
4,6.88453,0.980734,-0.0999065,-2.16732e-07,0,
4,7.06634,0.980684,-0.0996315,3.97213e-06,0,
4,7.23771,0.978113,-0.0993849,2.63425e-05,0,
4,7.39831,0.97098,-0.0991635,8.75003e-05,0,
4,7.54803,0.958319,-0.098982,0.000202508,0,
4,7.68693,0.940917,-0.0988279,0.00034537,0,
4,7.81519,0.920571,-0.0986849,0.000486563,0,
4,7.93313,0.899221,-0.098575,0.000638065,0,
4,8.04115,0.87847,-0.0984754,0.00078074,0,
4,8.13974,0.859148,-0.0983959,0.000903169,0,
4,8.22941,0.841418,-0.0983318,0.00100288,0,
4,8.31073,0.82506,-0.0982844,0.00108237,0,
4,8.38429,0.80971,-0.0982517,0.00114498,0,
4,8.45065,0.79501,-0.0982316,0.00119528,0,
4,8.5104,0.780687,-0.0982209,0.00123745,0,
4,8.56407,0.76657,-0.0982167,0.00127387,0,
4,8.61222,0.752575,-0.0982169,0.00130586,0,
4,8.65533,0.738671,-0.0982198,0.00133409,0,
4,8.69387,0.724858,-0.0982247,0.00135887,0,
4,8.7283,0.711148,-0.098231,0.00138037,0,
4,8.75901,0.697535,-0.0982386,0.00139768,0,
4,8.78637,0.683992,-0.0982471,0.00140905,0,
4,8.81074,0.670497,-0.0982559,0.0014182,0,
4,8.83242,0.657051,-0.0982645,0.00142407,0,
4,8.85169,0.643654,-0.0982728,0.00142684,0,
4,8.86881,0.630304,-0.0982806,0.00142681,0,
4,8.88402,0.616993,-0.098288,0.00142426,0,
4,8.89751,0.60371,-0.0982948,0.00141945,0,
4,8.90949,0.590441,-0.0983011,0.00141263,0,
4,8.92011,0.577167,-0.0983068,0.00140403,0,
4,8.92952,0.563867,-0.0983119,0.00139381,0,
4,8.93787,0.550514,-0.0983165,0.00138212,0,
4,8.94526,0.537078,-0.0983207,0.00136902,0,
4,8.95182,0.523525,-0.0983243,0.00135456,0,
4,8.95762,0.509817,-0.0983275,0.00133868,0,
4,8.96276,0.49591,-0.0983302,0.00132129,0,
4,8.96731,0.481754,-0.0983327,0.00130218,0,
4,8.97134,0.467296,-0.0983348,0.00128106,0,
4,8.97491,0.452473,-0.0983366,0.00125755,0,
4,8.97807,0.437212,-0.0983381,0.00123109,0,
4,8.98087,0.421434,-0.0983394,0.00120098,0,
4,8.98334,0.405044,-0.0983405,0.00116637,0,
4,8.98553,0.387934,-0.0983415,0.00112922,0,
4,8.98747,0.369879,-0.0983422,0.00107658,0,
4,8.98919,0.350535,-0.098343,0.00101079,0,
4,8.9907,0.329572,-0.0983435,0.000929173,0,
4,8.99205,0.306678,-0.0983441,0.000827895,0,
4,8.99324,0.281575,-0.0983442,0.000704703,0,
4,8.99429,0.253941,-0.0983447,0.000544749,0,
4,8.99522,0.223548,-0.0983447,0.000353123,0,
4,8.99605,0.19114,-0.0983451,0.000191637,0,
4,8.99677,0.158606,-0.0983449,8.28903e-05,0,
4,8.99742,0.127766,-0.0983453,2.82373e-05,0,
4,8.99799,0.0996712,-0.0983449,7.54337e-06,0,
4,8.9985,0.0745894,-0.0983454,1.52703e-06,0,
4,8.99894,0.0523679,-0.098345,2.10728e-07,0,
4,8.99934,0.0327223,-0.0983455,1.54406e-08,0,
4,8.99969,0.0153598,-0.0983449,3.32876e-10,0,

6,0,0,-0.0083452,0,0,
6,9,0,-0.0756785,0,0,
6,1.07704,0.666989,-0.0121538,-0.00486193,0,
6,0.000299862,0.00332618,-0.0083411,-3.74949e-11,0,
6,0.000611645,0.00678988,-0.00834496,-1.47648e-09,0,
6,0.000938257,0.010428,-0.00834176,-1.63242e-08,0,
6,0.00128281,0.0142799,-0.00834482,-9.61924e-08,0,
6,0.00164864,0.018388,-0.00834234,-3.96564e-07,0,
6,0.00203939,0.0227961,-0.00834479,-1.30449e-06,0,
6,0.00245897,0.0275438,-0.00834286,-3.66992e-06,0,
6,0.00291168,0.0326536,-0.00834491,-9.15589e-06,0,
6,0.00340221,0.0381049,-0.00834346,-2.05535e-05,0,
6,0.00393573,0.0437976,-0.00834536,-4.14679e-05,0,
6,0.00451788,0.0495253,-0.0083446,-7.44893e-05,0,
6,0.00515491,0.0550106,-0.00834695,-0.000118372,0,
6,0.00585371,0.0600105,-0.00834757,-0.000167527,0,
6,0.00662185,0.06441,-0.00835125,-0.000215582,0,
6,0.00746774,0.0682242,-0.00835415,-0.000259064,0,
6,0.00840063,0.0715385,-0.00836002,-0.000297719,0,
6,0.00943073,0.074456,-0.00836597,-0.000332915,0,
6,0.0105693,0.0770699,-0.00837476,-0.000366344,0,
6,0.0118288,0.0794564,-0.00838448,-0.000399501,0,
6,0.0132228,0.0816754,-0.00839705,-0.000433592,0,
6,0.0147664,0.0837736,-0.0084114,-0.000469594,0,
6,0.016476,0.0857879,-0.00842885,-0.000508327,0,
6,0.0183694,0.087748,-0.00844894,-0.000550518,0,
6,0.0204662,0.0896783,-0.00847262,-0.000596851,0,
6,0.0227875,0.0915993,-0.00849988,-0.000647987,0,
6,0.0253561,0.0935291,-0.00853145,-0.000704595,0,
6,0.0281964,0.0954834,-0.00856762,-0.000767356,0,
6,0.0313344,0.0974768,-0.00860904,-0.000836975,0,
6,0.0347975,0.0995226,-0.00865618,-0.000914182,0,
6,0.0386145,0.101634,-0.00870967,-0.000999733,0,
6,0.042815,0.103822,-0.00877007,-0.0010944,0,
6,0.0474296,0.106098,-0.00883798,-0.00119899,0,
6,0.0524888,0.108475,-0.00891398,-0.00131428,0,
6,0.0580229,0.110961,-0.00899862,-0.00144105,0,
6,0.0640611,0.113568,-0.00909238,-0.00158008,0,
6,0.0706309,0.116305,-0.00919566,-0.00173206,0,
6,0.077757,0.119181,-0.00930876,-0.00189762,0,
6,0.0854609,0.122203,-0.00943182,-0.00207732,0,
6,0.0937597,0.12538,-0.00956482,-0.00227156,0,
6,0.102665,0.128717,-0.00970755,-0.00248061,0,
6,0.112183,0.132218,-0.00985961,-0.00270457,0,
6,0.122315,0.135889,-0.0100204,-0.00294336,0,
6,0.133052,0.13973,-0.010189,-0.00319668,0,
6,0.144384,0.143743,-0.0103646,-0.00346407,0,
6,0.156292,0.147929,-0.0105458,-0.00374487,0,
6,0.168754,0.152287,-0.0107316,-0.00403826,0,
6,0.181744,0.156814,-0.0109204,-0.00434329,0,
6,0.195237,0.161511,-0.0111111,-0.00465895,0,
6,0.209207,0.166375,-0.0113024,-0.00498418,0,
6,0.223631,0.171408,-0.0114931,-0.00531795,0,
6,0.238493,0.176612,-0.0116821,-0.00565931,0,
6,0.253785,0.181991,-0.0118687,-0.00600743,0,
6,0.269507,0.187554,-0.0120521,-0.00636165,0,
6,0.28567,0.193313,-0.0122319,-0.00672148,0,
6,0.3023,0.199284,-0.0124077,-0.00708662,0,
6,0.319433,0.205489,-0.0125793,-0.00745695,0,
6,0.337122,0.211955,-0.0127468,-0.00783251,0,
6,0.355433,0.218715,-0.0129101,-0.00821345,0,
6,0.374445,0.225809,-0.0130694,-0.00859996,0,
6,0.394252,0.233284,-0.0132251,-0.00899221,0,
6,0.414961,0.241191,-0.0133775,-0.00939026,0,
6,0.436695,0.249592,-0.0135283,-0.00979493,0,
6,0.459585,0.258555,-0.0136757,-0.0102056,0,
6,0.48378,0.268165,-0.0138059,-0.0106164,0,
6,0.508144,0.278009,-0.0138831,-0.0110042,0,
6,0.531799,0.287764,-0.0138976,-0.0113527,0,
6,0.554791,0.297465,-0.0138608,-0.011662,0,
6,0.577166,0.307145,-0.0137793,-0.0119344,0,
6,0.598964,0.316832,-0.0136589,-0.0121709,0,
6,0.620228,0.326554,-0.0135059,-0.0123725,0,
6,0.640996,0.336335,-0.0133237,-0.0125398,0,
6,0.661304,0.346199,-0.0131093,-0.0126733,0,
6,0.681188,0.356169,-0.0129108,-0.0127799,0,
6,0.700681,0.366274,-0.0127064,-0.0130143,0,
6,0.719813,0.376807,-0.0120707,-0.0129321,0,
6,0.738612,0.388284,-0.01105,-0.0126478,0,
6,0.757107,0.400977,-0.0102141,-0.0123396,0,
6,0.775322,0.414763,-0.00964366,-0.0120262,0,
6,0.793282,0.429322,-0.00926276,-0.0117014,0,
6,0.811008,0.444364,-0.00899235,-0.0113544,0,
6,0.828521,0.459736,-0.00878946,-0.0109773,0,
6,0.845842,0.47539,-0.00864487,-0.0105675,0,
6,0.862989,0.491301,-0.00856579,-0.0101282,0,
6,0.879979,0.507393,-0.00856051,-0.00966666,0,
6,0.896829,0.523521,-0.00863043,-0.00919159,0,
6,0.913555,0.539492,-0.0087701,-0.00871182,0,
6,0.930172,0.555105,-0.00897172,-0.00823577,0,
6,0.946694,0.570185,-0.0092252,-0.00777131,0,
6,0.963136,0.584589,-0.00953295,-0.00733367,0,
6,0.97951,0.598228,-0.00988549,-0.00692748,0,
6,0.99583,0.611096,-0.0102571,-0.00654465,0,
6,1.01211,0.623268,-0.0106343,-0.00618033,0,
6,1.02836,0.634848,-0.0110107,-0.0058315,0,
6,1.04459,0.645942,-0.0113876,-0.00549637,0,
6,1.06081,0.656632,-0.0117668,-0.00517376,0,
6,1.09329,0.67709,-0.0125359,-0.00454655,0,
6,1.10959,0.686998,-0.0129251,-0.00422985,0,
6,1.12595,0.696712,-0.0133397,-0.00392321,0,
6,1.14238,0.706191,-0.0137713,-0.00362162,0,
6,1.1589,0.715391,-0.0142233,-0.00332812,0,
6,1.17551,0.724267,-0.0146943,-0.00304607,0,
6,1.19223,0.732772,-0.0151847,-0.00277886,0,
6,1.20907,0.740869,-0.0156937,-0.00252971,0,
6,1.22605,0.748525,-0.0162208,-0.00230142,0,
6,1.24318,0.755721,-0.0167651,-0.00209609,0,
6,1.26048,0.762453,-0.0173255,-0.00191495,0,
6,1.27797,0.768733,-0.0179007,-0.0017582,0,
6,1.29566,0.774587,-0.0184893,-0.0016251,0,
6,1.31357,0.780055,-0.01909,-0.00151409,0,
6,1.33173,0.785184,-0.0197009,-0.00142299,0,
6,1.35015,0.790026,-0.0203222,-0.00134926,0,
6,1.36886,0.794634,-0.0209502,-0.00129032,0,
6,1.38788,0.799055,-0.02159,-0.00124387,0,
6,1.40725,0.80334,-0.0222287,-0.00121841,0,
6,1.42698,0.807613,-0.0228611,-0.00118727,0,
6,1.44712,0.812118,-0.0234885,-0.00112642,0,
6,1.46769,0.81698,-0.0241229,-0.00107246,0,
6,1.48874,0.822049,-0.0247858,-0.00103019,0,
6,1.5103,0.827109,-0.0254718,-0.000996743,0,
6,1.53242,0.832059,-0.026175,-0.000966746,0,
6,1.55515,0.836939,-0.0268882,-0.000935998,0,
6,1.57854,0.841845,-0.0276108,-0.000903369,0,
6,1.60265,0.846853,-0.0283461,-0.000869497,0,
6,1.62754,0.851989,-0.0290987,-0.000835525,0,
6,1.65329,0.857242,-0.0298705,-0.000801883,0,
6,1.67998,0.862593,-0.0306638,-0.000768856,0,
6,1.70768,0.86803,-0.0314772,-0.00073656,0,
6,1.73712,0.873653,-0.0323373,-0.000704702,0,
6,1.76996,0.879711,-0.0332806,-0.000671458,0,
6,1.80655,0.88623,-0.034315,-0.000636873,0,
6,1.84728,0.893177,-0.0354458,-0.000601602,0,
6,1.89255,0.900497,-0.0366739,-0.000565474,0,
6,1.9428,0.908167,-0.0380045,-0.000523067,0,
6,1.99849,0.916243,-0.0394371,-0.000455093,0,
6,2.06009,0.924668,-0.0409671,-0.000383629,0,
6,2.1281,0.933159,-0.0425982,-0.00030709,0,
6,2.20301,0.941324,-0.044322,-0.000230325,0,
6,2.28535,0.948738,-0.0461268,-0.000159481,0,
6,2.37559,0.95498,-0.0479978,-9.97509e-05,0,
6,2.47424,0.9597,-0.0499143,-5.43477e-05,0,
6,2.58172,0.962707,-0.0518535,-2.4265e-05,0,
6,2.69844,0.964074,-0.0537899,-8.05542e-06,0,
6,2.82473,0.964174,-0.0556987,-1.75502e-06,0,
6,2.96084,0.963628,-0.0575573,-3.55748e-07,0,
6,3.10691,0.963097,-0.0593468,-2.2573e-07,0,
6,3.26296,0.963029,-0.0610525,-1.27369e-07,0,
6,3.42888,0.963503,-0.0626634,-4.47902e-08,0,
6,3.60438,0.964306,-0.0641702,-2.02256e-08,0,
6,3.78902,0.965148,-0.0655659,-1.54165e-08,0,
6,3.98218,0.965837,-0.0668457,-1.21179e-08,0,
6,4.18307,0.966337,-0.0680075,-9.32227e-09,0,
6,4.39071,0.966704,-0.0690525,-7.4449e-09,0,
6,4.60398,0.967005,-0.0699841,-6.29059e-09,0,
6,4.82159,0.967277,-0.0708077,-5.49918e-09,0,
6,5.04218,0.967527,-0.0715303,-4.85763e-09,0,
6,5.26426,0.967747,-0.0721595,-4.36238e-09,0,
6,5.48633,0.967924,-0.0727035,-4.19584e-09,0,
6,5.70687,0.968052,-0.0731709,-4.79408e-09,0,
6,5.92439,0.968132,-0.0735698,-7.60555e-09,0,
6,6.1375,0.968209,-0.0739081,-2.13797e-08,0,
6,6.34489,0.968393,-0.0741931,-9.47957e-08,0,
6,6.5454,0.968823,-0.0744312,-3.81846e-07,0,
6,6.73802,0.969491,-0.0746276,-8.58437e-07,0,
6,6.92195,0.96991,-0.0747878,8.18569e-07,0,
6,7.09653,0.968865,-0.074916,1.37189e-05,0,
6,7.26132,0.964615,-0.0750209,5.42429e-05,0,
6,7.41603,0.955687,-0.0751048,0.000138396,0,
6,7.56054,0.941771,-0.0751773,0.0002702,0,
6,7.6949,0.923755,-0.0752343,0.000389556,0,
6,7.81927,0.90319,-0.0752769,0.000525375,0,
6,7.93391,0.881965,-0.0753093,0.000668058,0,
6,8.0392,0.86158,-0.0753279,0.000800664,0,
6,8.13555,0.842733,-0.0753428,0.00091446,0,
6,8.22344,0.825477,-0.0753547,0.00100794,0,
6,8.30339,0.809527,-0.0753692,0.00108361,0,
6,8.37592,0.794507,-0.0753861,0.00114428,0,
6,8.44155,0.780069,-0.0754061,0.00119383,0,
6,8.50082,0.765957,-0.0754275,0.00123578,0,
6,8.55423,0.752016,-0.075449,0.00127215,0,
6,8.60229,0.738166,-0.0754698,0.00130404,0,
6,8.64545,0.724388,-0.0754892,0.00133198,0,
6,8.68417,0.710692,-0.0755072,0.0013562,0,
6,8.71885,0.697105,-0.0755237,0.00137681,0,
6,8.74989,0.683649,-0.0755394,0.00139394,0,
6,8.77763,0.670314,-0.0755543,0.00140495,0,
6,8.80241,0.657071,-0.0755683,0.00141134,0,
6,8.82452,0.643909,-0.0755812,0.00141511,0,
6,8.84423,0.630828,-0.0755929,0.00141564,0,
6,8.86181,0.617827,-0.0756035,0.0014132,0,
6,8.87746,0.604902,-0.075613,0.00140814,0,
6,8.89139,0.592041,-0.0756215,0.0014008,0,
6,8.90379,0.579233,-0.0756291,0.00139149,0,
6,8.91482,0.566457,-0.0756359,0.0013805,0,
6,8.92463,0.553694,-0.0756418,0.00136805,0,
6,8.93334,0.540917,-0.0756471,0.00135433,0,
6,8.94109,0.528097,-0.0756517,0.00133947,0,
6,8.94798,0.515201,-0.0756557,0.00132354,0,
6,8.95409,0.502193,-0.0756592,0.00130656,0,
6,8.95953,0.489033,-0.0756622,0.00128846,0,
6,8.96435,0.475674,-0.0756648,0.00126911,0,
6,8.96863,0.462067,-0.075667,0.00124829,0,
6,8.97244,0.448157,-0.0756689,0.0012257,0,
6,8.97581,0.433878,-0.0756706,0.00120089,0,
6,8.97881,0.419162,-0.0756719,0.00117332,0,
6,8.98147,0.403926,-0.0756731,0.00114224,0,
6,8.98383,0.388079,-0.075674,0.00110682,0,
6,8.98593,0.371512,-0.0756749,0.00106921,0,
6,8.98779,0.353995,-0.0756755,0.00101487,0,
6,8.98944,0.335186,-0.0756762,0.000948565,0,
6,8.9909,0.314782,-0.0756766,0.000866999,0,
6,8.9922,0.292509,-0.0756771,0.000766964,0,
6,8.99336,0.268129,-0.0756773,0.000647011,0,
6,8.99438,0.241324,-0.0756777,0.000487312,0,
6,8.99529,0.211952,-0.0756776,0.000308985,0,
6,8.99609,0.180926,-0.075678,0.000163708,0,
6,8.99681,0.150055,-0.0756778,6.95569e-05,0,
6,8.99744,0.120947,-0.0756782,2.35036e-05,0,
6,8.99801,0.0944651,-0.0756779,6.28068e-06,0,
6,8.9985,0.070795,-0.0756783,1.27801e-06,0,
6,8.99895,0.0497771,-0.0756779,1.77622e-07,0,
6,8.99934,0.0311483,-0.0756784,1.31086e-08,0,
6,8.99969,0.0146412,-0.0756778,2.84107e-10,0,

10,0,0,0.0133926,0,0,
10,0.000296632,0.00802578,0.0133823,-6.71139e-11,0,
10,0.000596102,0.0161619,0.0133914,-2.49831e-09,0,
10,0.000900397,0.0244621,0.0133829,-2.55099e-08,0,
10,0.00121153,0.0329811,0.0133904,-1.37651e-07,0,
10,0.00153158,0.0417741,0.0133834,-5.16905e-07,0,
10,0.00186264,0.0508946,0.0133896,-1.54226e-06,0,
10,0.00220692,0.0603912,0.0133837,-3.92548e-06,0,
10,0.00256668,0.0703002,0.0133888,-8.87582e-06,0,
10,0.00294431,0.0806348,0.0133838,-1.82466e-05,0,
10,0.00334229,0.0913691,0.0133881,-3.45322e-05,0,
10,0.00376326,0.102421,0.0133837,-6.0504e-05,0,
10,0.00421,0.113642,0.0133872,-9.83396e-05,0,
10,0.00468544,0.124819,0.0133832,-0.000148464,0,
10,0.00519274,0.135711,0.0133857,-0.000208818,0,
10,0.00573524,0.14609,0.0133817,-0.000275252,0,
10,0.00631651,0.155783,0.0133831,-0.000342898,0,
10,0.00694041,0.164692,0.0133787,-0.000407611,0,
10,0.00761104,0.17279,0.0133785,-0.000466734,0,
10,0.00833284,0.180104,0.0133732,-0.000519113,0,
10,0.00911058,0.186693,0.013371,-0.000564714,0,
10,0.0099494,0.192633,0.0133644,-0.000604172,0,
10,0.0108548,0.198004,0.0133596,-0.000638431,0,
10,0.0118329,0.202883,0.013351,-0.000668514,0,
10,0.0128901,0.20734,0.0133432,-0.000695391,0,
10,0.0140333,0.211437,0.0133319,-0.000719929,0,
10,0.0152702,0.215226,0.0133204,-0.000742875,0,
10,0.0166089,0.218755,0.0133057,-0.000764863,0,
10,0.0180584,0.222063,0.0132898,-0.000786435,0,
10,0.0196282,0.225183,0.0132708,-0.000808056,0,
10,0.0213288,0.228144,0.0132497,-0.000830132,0,
10,0.0231714,0.230971,0.0132252,-0.000853029,0,
10,0.0251682,0.233685,0.0131979,-0.00087708,0,
10,0.0273326,0.236306,0.0131668,-0.000902603,0,
10,0.0296789,0.238851,0.013132,-0.000929903,0,
10,0.0322227,0.241334,0.0130928,-0.000959283,0,
10,0.0349809,0.243769,0.013049,-0.00099105,0,
10,0.0379719,0.24617,0.0130001,-0.00102552,0,
10,0.0412155,0.248547,0.0129457,-0.00106302,0,
10,0.0447333,0.250913,0.0128851,-0.0011039,0,
10,0.0485489,0.253278,0.012818,-0.00114852,0,
10,0.0526875,0.255653,0.0127437,-0.00119728,0,
10,0.0571768,0.258049,0.0126618,-0.0012506,0,
10,0.0620466,0.260477,0.0125715,-0.00130894,0,
10,0.0673295,0.262947,0.0124723,-0.00137278,0,
10,0.0730607,0.265471,0.0123636,-0.00144264,0,
10,0.0792784,0.268062,0.0122448,-0.00151912,0,
10,0.0860241,0.270732,0.0121152,-0.00160281,0,
10,0.0933428,0.273496,0.0119744,-0.00169438,0,
10,0.101283,0.276368,0.0118218,-0.00179456,0,
10,0.109899,0.279366,0.0116569,-0.0019041,0,
10,0.119247,0.282507,0.0114793,-0.00202383,0,
10,0.12939,0.285813,0.0112889,-0.00215463,0,
10,0.140395,0.289305,0.0110853,-0.00229742,0,
10,0.152337,0.29301,0.0108688,-0.00245318,0,
10,0.165296,0.296957,0.0106393,-0.00262292,0,
10,0.179357,0.301178,0.0103974,-0.00280768,0,
10,0.194615,0.305711,0.0101435,-0.00300851,0,
10,0.211171,0.310598,0.0098786,-0.00322643,0,
10,0.229138,0.31589,0.00960341,-0.00346245,0,
10,0.248635,0.321641,0.00931966,-0.00371743,0,
10,0.269793,0.327917,0.00902763,-0.00399213,0,
10,0.292753,0.334793,0.00873104,-0.00428701,0,
10,0.317669,0.342353,0.00842659,-0.00460112,0,
10,0.344708,0.350693,0.00812197,-0.00493375,0,
10,0.372405,0.359411,0.00783812,-0.00527092,0,
10,0.399623,0.368188,0.00759912,-0.00559295,0,
10,0.426397,0.377078,0.00741852,-0.00589056,0,
10,0.452757,0.386138,0.00728923,-0.00616719,0,
10,0.478735,0.39542,0.00720306,-0.00642091,0,
10,0.504358,0.404966,0.00715731,-0.0066505,0,
10,0.529657,0.414816,0.00710415,-0.00688651,0,
10,0.554656,0.425103,0.00726227,-0.00712576,0,
10,0.579382,0.43629,0.00777361,-0.00709457,0,
10,0.603859,0.44886,0.00829149,-0.00703273,0,
10,0.628112,0.462789,0.00860444,-0.00694482,0,
10,0.652163,0.477712,0.00874952,-0.00682564,0,
10,0.676035,0.493191,0.00878359,-0.00667137,0,
10,0.699751,0.508905,0.00876649,-0.0064817,0,
10,0.72333,0.524695,0.00873005,-0.00625914,0,
10,0.746795,0.540501,0.00868398,-0.00600803,0,
10,0.770165,0.556287,0.00862345,-0.00573369,0,
10,0.79346,0.571991,0.00853985,-0.00544223,0,
10,0.816699,0.587509,0.00842767,-0.00514024,0,
10,0.839903,0.602707,0.0082857,-0.00483448,0,
10,0.863088,0.617442,0.00811713,-0.00453616,0,
10,0.886275,0.631593,0.00792825,-0.00425258,0,
10,0.909481,0.645106,0.00772472,-0.00398264,0,
10,0.932723,0.658005,0.00750949,-0.00372479,0,
10,0.956021,0.670348,0.00728226,-0.00347811,0,
10,0.97939,0.682192,0.00704169,-0.00324249,0,
10,1.00285,0.693568,0.006787,-0.00301842,0,
10,1.02641,0.70449,0.00651868,-0.00280655,0,
10,1.0501,0.714957,0.00623808,-0.00260728,0,
10,1.07392,0.724973,0.00594678,-0.0024207,0,
10,1.0979,0.734546,0.00564608,-0.00224659,0,
10,1.12205,0.743694,0.00533691,-0.00208449,0,
10,1.14639,0.752434,0.00501982,-0.00193387,0,
10,1.17093,0.760788,0.00469513,-0.00179408,0,
10,1.19568,0.768782,0.00436292,-0.00166441,0,
10,1.22066,0.776443,0.00402306,-0.00154414,0,
10,1.24589,0.783804,0.00367543,-0.00143253,0,
10,1.27137,0.790899,0.00332009,-0.00132895,0,
10,1.29713,0.797763,0.00295757,-0.00123292,0,
10,1.32317,0.804427,0.00258893,-0.00114413,0,
10,1.34951,0.810917,0.00221566,-0.00106238,0,
10,1.37616,0.817248,0.00183929,-0.000987518,0,
10,1.40313,0.823429,0.00146112,-0.000919317,0,
10,1.43043,0.829461,0.00108187,-0.000857426,0,
10,1.45807,0.835344,0.000701779,-0.000801349,0,
10,1.48607,0.841079,0.000320637,-0.000750486,0,
10,1.51444,0.84667,-6.18702e-05,-0.0007042,0,
10,1.54318,0.852123,-0.00044595,-0.000661987,0,
10,1.57231,0.857448,-0.000831703,-0.000623328,0,
10,1.60184,0.862652,-0.00121912,-0.000587719,0,
10,1.63178,0.867743,-0.00160803,-0.000554727,0,
10,1.66213,0.872721,-0.00199814,-0.000524014,0,
10,1.69292,0.877585,-0.00238906,-0.000495338,0,
10,1.72416,0.882324,-0.00278033,-0.00046854,0,
10,1.75585,0.886925,-0.00317142,-0.000443516,0,
10,1.78802,0.891372,-0.00356192,-0.000420118,0,
10,1.82067,0.895655,-0.00395226,-0.000397987,0,
10,1.85383,0.89978,-0.0043439,-0.000376202,0,
10,1.88751,0.90379,-0.0047428,-0.000349373,0,
10,1.92173,0.907724,-0.00514561,-0.000321166,0,
10,1.95652,0.911571,-0.00554884,-0.000292497,0,
10,1.9919,0.915295,-0.00595369,-0.000262917,0,
10,2.02791,0.918861,-0.00636029,-0.000233213,0,
10,2.06456,0.92224,-0.00676784,-0.00020392,0,
10,2.10268,0.92547,-0.00718695,-0.000174807,0,
10,2.1443,0.928644,-0.00763543,-0.000146346,0,
10,2.18977,0.931706,-0.00811806,-0.000118731,0,
10,2.23946,0.934564,-0.00863395,-9.24082e-05,0,
10,2.29376,0.937125,-0.00918643,-6.83172e-05,0,
10,2.35309,0.939294,-0.00977524,-4.72655e-05,0,
10,2.4179,0.94099,-0.0104022,-2.99179e-05,0,
10,2.48863,0.942153,-0.011067,-1.67072e-05,0,
10,2.56575,0.942764,-0.0117701,-7.69823e-06,0,
10,2.64971,0.942862,-0.0125107,-2.48452e-06,0,
10,2.74098,0.942557,-0.0132883,-2.17647e-07,0,
10,2.83997,0.942022,-0.0141018,2.30922e-07,0,
10,2.94709,0.941472,-0.0149503,-4.02844e-08,0,
10,3.06269,0.941112,-0.0158325,-3.05686e-07,0,
10,3.18706,0.94108,-0.0167477,-3.36049e-07,0,
10,3.3204,0.941408,-0.0176942,-2.23522e-07,0,
10,3.46281,0.942018,-0.0186701,-1.08446e-07,0,
10,3.61427,0.942767,-0.0196721,-4.55268e-08,0,
10,3.77463,0.943512,-0.0206956,-2.1984e-08,0,
10,3.94358,0.944161,-0.0217346,-1.47239e-08,0,
10,4.12067,0.944693,-0.0227823,-1.21273e-08,0,
10,4.30525,0.945141,-0.023831,-1.09564e-08,0,
10,4.49655,0.945555,-0.0248726,-1.05653e-08,0,
10,4.6936,0.945971,-0.0258985,-1.08277e-08,0,
10,4.89531,0.946397,-0.0269005,-1.19185e-08,0,
10,5.10047,0.946823,-0.0278705,-1.46427e-08,0,
10,5.30776,0.947231,-0.0288012,-2.0952e-08,0,
10,5.51581,0.947604,-0.0296864,-3.49e-08,0,
10,5.72323,0.947939,-0.0305208,-6.5738e-08,0,
10,5.92863,0.948259,-0.0313005,-1.38919e-07,0,
10,6.13069,0.948632,-0.0320227,-3.30268e-07,0,
10,6.32816,0.949152,-0.0326862,-8.12796e-07,0,
10,6.51991,0.949855,-0.0332909,-1.66832e-06,0,
10,6.70495,0.950517,-0.0338384,-1.66534e-06,0,
10,6.88244,0.950437,-0.0343299,4.40944e-06,0,
10,7.0517,0.948397,-0.0347684,2.74316e-05,0,
10,7.21224,0.943008,-0.0351526,8.10435e-05,0,
10,7.3637,0.933371,-0.0354882,0.000175431,0,
10,7.5059,0.919483,-0.0357785,0.000299916,0,
10,7.63878,0.901865,-0.0360246,0.000411462,0,
10,7.76243,0.881587,-0.0362359,0.00053758,0,
10,7.87701,0.860456,-0.0364031,0.000669911,0,
10,7.9828,0.840013,-0.0365423,0.000792981,0,
10,8.08014,0.821058,-0.0366525,0.000899859,0,
10,8.16941,0.803727,-0.0367445,0.000989405,0,
10,8.25106,0.787774,-0.0368212,0.00106383,0,
10,8.32554,0.772825,-0.0368889,0.00112501,0,
10,8.39331,0.758517,-0.0369485,0.00117565,0,
10,8.45484,0.744575,-0.0370019,0.00121879,0,
10,8.5106,0.730826,-0.0370489,0.00125617,0,
10,8.56104,0.717182,-0.0370902,0.00128859,0,
10,8.60659,0.703619,-0.037126,0.00131634,0,
10,8.64767,0.690156,-0.0371571,0.0013395,0,
10,8.68467,0.676841,-0.037184,0.00135813,0,
10,8.71795,0.663731,-0.0372072,0.00137242,0,
10,8.74786,0.650867,-0.0372279,0.0013827,0,
10,8.77471,0.638227,-0.0372463,0.00138444,0,
10,8.79881,0.625765,-0.0372622,0.00138202,0,
10,8.8204,0.613459,-0.0372762,0.00137751,0,
10,8.83975,0.601309,-0.0372882,0.00137011,0,
10,8.85708,0.589307,-0.0372987,0.00136025,0,
10,8.87259,0.577442,-0.0373076,0.0013484,0,
10,8.88646,0.565698,-0.0373153,0.00133495,0,
10,8.89886,0.554054,-0.0373218,0.00132027,0,
10,8.90995,0.542486,-0.0373275,0.00130467,0,
10,8.91986,0.53097,-0.0373322,0.00128838,0,
10,8.92872,0.519475,-0.0373363,0.00127158,0,
10,8.93663,0.50797,-0.0373397,0.00125439,0,
10,8.94369,0.496421,-0.0373426,0.00123686,0,
10,8.95,0.484793,-0.037345,0.00121899,0,
10,8.95564,0.473047,-0.0373471,0.00120069,0,
10,8.96067,0.461142,-0.0373488,0.00118188,0,
10,8.96517,0.449033,-0.0373503,0.00116235,0,
10,8.96918,0.436673,-0.0373514,0.00114184,0,
10,8.97276,0.424008,-0.0373525,0.00112,0,
10,8.97596,0.410978,-0.0373532,0.0010964,0,
10,8.97882,0.397519,-0.037354,0.00107049,0,
10,8.98137,0.383553,-0.0373544,0.00104158,0,
10,8.98365,0.368996,-0.037355,0.00100884,0,
10,8.98569,0.353748,-0.0373552,0.000974017,0,
10,8.9875,0.337604,-0.0373557,0.000925031,0,
10,8.98913,0.320253,-0.0373557,0.000865052,0,
10,8.99058,0.301416,-0.0373562,0.000791957,0,
10,8.99188,0.280845,-0.0373561,0.000702985,0,
10,8.99304,0.258318,-0.0373566,0.000596798,0,
10,8.99408,0.233525,-0.0373563,0.000456362,0,
10,8.99501,0.206267,-0.0373568,0.000296828,0,
10,8.99583,0.177242,-0.0373564,0.000162923,0,
10,8.99658,0.14802,-0.0373569,7.21703e-05,0,
10,8.99724,0.120104,-0.0373564,2.54354e-05,0,
10,8.99784,0.0943954,-0.037357,7.06525e-06,0,
10,8.99837,0.0711647,-0.0373564,1.48867e-06,0,
10,8.99885,0.0503259,-0.0373571,2.13604e-07,0,
10,8.99927,0.0316686,-0.0373564,1.62249e-08,0,
10,8.99966,0.0149661,-0.0373573,3.59046e-10,0,
10,9,0,-0.0373563,0,0,

0.0416667,0,0,-0.237309,0,2.26806e-06,
0.0833333,0,0,-0.237424,0,4.03028e-06,
0.125,0,0,-0.237385,0,5.34702e-06,
0.166667,0,0,-0.237421,0,8.65209e-06,
0.208333,0,0,-0.237438,0,1.18673e-05,
0.25,0,0,-0.237477,0,1.50607e-05,
0.291667,0,0,-0.237519,0,1.76212e-05,
0.333333,0,0,-0.237569,0,1.96259e-05,
0.375,0,0,-0.237626,0,2.12281e-05,
0.416667,0,0,-0.237687,0,2.28374e-05,
0.458333,0,0,-0.237759,0,2.48925e-05,
0.5,0,0,-0.237843,0,2.77938e-05,
0.541667,0,0,-0.237945,0,3.18586e-05,
0.583333,0,0,-0.238069,0,3.72762e-05,
0.625,0,0,-0.238222,0,4.41382e-05,
0.666667,0,0,-0.23841,0,5.24097e-05,
0.708333,0,0,-0.238637,0,6.19164e-05,
0.75,0,0,-0.23891,0,7.22675e-05,
0.791667,0,0,-0.239232,0,8.28198e-05,
0.833333,0,0,-0.239605,0,9.2676e-05,
0.875,0,0,-0.240031,0,0.00010077,
0.916667,0,0,-0.240507,0,0.000105971,
0.958333,0,0,-0.241038,0,0.000107157,
1,0,0,-0.241626,0,0.000103235,
1.04167,0,0,-0.242281,0,9.31108e-05,
1.08333,0,0,-0.243014,0,7.55975e-05,
1.125,0,0,-0.243837,0,4.93755e-05,
1.16667,0,0,-0.244756,0,1.30763e-05,
1.20833,0,0,-0.245769,0,-3.43438e-05,
1.25,0,0,-0.246859,0,-9.30608e-05,
1.29167,0,0,-0.247998,0,-0.000162105,
1.33333,0,0,-0.249153,0,-0.000239505,
1.375,0,0,-0.250287,0,-0.000322705,
1.41667,0,0,-0.251368,0,-0.00040908,
1.45833,0,0,-0.252366,0,-0.000496366,
1.5,0,0,-0.253257,0,-0.000582877,
1.54167,0,0,-0.254024,0,-0.000667512,
1.58333,0,0,-0.254654,0,-0.000749643,
1.625,0,0,-0.255138,0,-0.000828957,
1.66667,0,0,-0.255468,0,-0.000905329,
1.70833,0,0,-0.255639,0,-0.000978722,
1.75,0,0,-0.255648,0,-0.00104914,
1.79167,0,0,-0.25549,0,-0.0011166,
1.83333,0,0,-0.255164,0,-0.00118111,
1.875,0,0,-0.254668,0,-0.00124268,
1.91667,0,0,-0.254001,0,-0.0013013,
1.95833,0,0,-0.253163,0,-0.00135696,
2,0,0,-0.252154,0,-0.00140963,
2.04167,0,0,-0.250974,0,-0.00145928,
2.08333,0,0,-0.249625,0,-0.00150587,
2.125,0,0,-0.24811,0,-0.00154936,
2.16667,0,0,-0.24643,0,-0.00158972,
2.20833,0,0,-0.244589,0,-0.00162692,
2.25,0,0,-0.242592,0,-0.00166095,
2.29167,0,0,-0.240442,0,-0.00169183,
2.33333,0,0,-0.238145,0,-0.00171957,
2.375,0,0,-0.235706,0,-0.00174417,
2.41667,0,0,-0.233131,0,-0.00176566,
2.45833,0,0,-0.230425,0,-0.00178407,
2.5,0,0,-0.227597,0,-0.00179943,
2.54167,0,0,-0.224652,0,-0.0018118,
2.58333,0,0,-0.221597,0,-0.00182126,
2.625,0,0,-0.218439,0,-0.00182789,
2.66667,0,0,-0.215186,0,-0.00183177,
2.70833,0,0,-0.211845,0,-0.00183298,
2.75,0,0,-0.208422,0,-0.0018316,
2.79167,0,0,-0.204925,0,-0.00182772,
2.83333,0,0,-0.20136,0,-0.00182144,
2.875,0,0,-0.197735,0,-0.00181286,
2.91667,0,0,-0.194056,0,-0.00180207,
2.95833,0,0,-0.190329,0,-0.00178919,
3,0,0,-0.18656,0,-0.00177429,
3.04167,0,0,-0.182756,0,-0.00175748,
3.08333,0,0,-0.178921,0,-0.00173883,
3.125,0,0,-0.175062,0,-0.00171845,
3.16667,0,0,-0.171182,0,-0.0016964,
3.20833,0,0,-0.167288,0,-0.00167278,
3.25,0,0,-0.163384,0,-0.00164765,
3.29167,0,0,-0.159473,0,-0.00162109,
3.33333,0,0,-0.155562,0,-0.00159317,
3.375,0,0,-0.151652,0,-0.00156395,
3.41667,0,0,-0.14775,0,-0.0015335,
3.45833,0,0,-0.143857,0,-0.00150188,
3.5,0,0,-0.139978,0,-0.00146914,
3.54167,0,0,-0.136115,0,-0.00143534,
3.58333,0,0,-0.132273,0,-0.00140053,
3.625,0,0,-0.128455,0,-0.00136477,
3.66667,0,0,-0.124663,0,-0.00132811,
3.70833,0,0,-0.120901,0,-0.00129062,
3.75,0,0,-0.117171,0,-0.00125236,
3.79167,0,0,-0.113476,0,-0.00121339,
3.83333,0,0,-0.109818,0,-0.00117376,
3.875,0,0,-0.106201,0,-0.00113354,
3.91667,0,0,-0.102625,0,-0.00109277,
3.95833,0,0,-0.0990933,0,-0.00105151,
4,0,0,-0.0956077,0,-0.0010098,
4.04167,0,0,-0.0921701,0,-0.000967689,
4.08333,0,0,-0.0887823,0,-0.000925222,
4.125,0,0,-0.085446,0,-0.000882442,
4.16667,0,0,-0.0821632,0,-0.000839392,
4.20833,0,0,-0.0789354,0,-0.000796114,
4.25,0,0,-0.0757644,0,-0.000752652,
4.29167,0,0,-0.0726518,0,-0.000709049,
4.33333,0,0,-0.0695993,0,-0.000665346,
4.375,0,0,-0.0666085,0,-0.000621586,
4.41667,0,0,-0.063681,0,-0.000577812,
4.45833,0,0,-0.0608184,0,-0.000534067,
4.5,0,0,-0.0580223,0,-0.000490395,
4.54167,0,0,-0.0552944,0,-0.000446839,
4.58333,0,0,-0.0526362,0,-0.000403443,
4.625,0,0,-0.0500493,0,-0.00036025,
4.66667,0,0,-0.0475354,0,-0.000317307,
4.70833,0,0,-0.0450961,0,-0.000274666,
4.75,0,0,-0.0427331,0,-0.000232386,
4.79167,0,0,-0.0404478,0,-0.00019054,
4.83333,0,0,-0.0382416,0,-0.000149208,
4.875,0,0,-0.0361155,0,-0.000108474,
4.91667,0,0,-0.0340699,0,-6.84037e-05,
4.95833,0,0,-0.0321053,0,-2.90494e-05,
5,0,0,-0.0302219,0,9.55054e-06,
5.04167,0,0,-0.0284199,0,4.73605e-05,
5.08333,0,0,-0.0266996,0,8.43486e-05,
5.125,0,0,-0.0250608,0,0.000120483,
5.16667,0,0,-0.0235034,0,0.000155736,
5.20833,0,0,-0.0220274,0,0.000190079,
5.25,0,0,-0.0206323,0,0.000223489,
5.29167,0,0,-0.0193176,0,0.000255945,
5.33333,0,0,-0.018083,0,0.000287431,
5.375,0,0,-0.0169275,0,0.000317931,
5.41667,0,0,-0.0158506,0,0.000347436,
5.45833,0,0,-0.0148513,0,0.000375937,
5.5,0,0,-0.0139285,0,0.000403432,
5.54167,0,0,-0.0130813,0,0.000429918,
5.58333,0,0,-0.0123084,0,0.0004554,
5.625,0,0,-0.0116085,0,0.000479882,
5.66667,0,0,-0.0109803,0,0.000503373,
5.70833,0,0,-0.0104224,0,0.000525884,
5.75,0,0,-0.00993316,0,0.000547429,
5.79167,0,0,-0.00951105,0,0.000568024,
5.83333,0,0,-0.00915435,0,0.000587688,
5.875,0,0,-0.00886129,0,0.000606442,
5.91667,0,0,-0.00863003,0,0.000624307,
5.95833,0,0,-0.00845866,0,0.000641309,
6,0,0,-0.0083452,0,0.000657473,
6.04167,0,0,-0.0082876,0,0.000672826,
6.08333,0,0,-0.00828374,0,0.000687398,
6.125,0,0,-0.00833144,0,0.000701221,
6.16667,0,0,-0.00842854,0,0.00071433,
6.20833,0,0,-0.00857293,0,0.00072676,
6.25,0,0,-0.00876256,0,0.000738541,
6.29167,0,0,-0.00899543,0,0.000749705,
6.33333,0,0,-0.00926957,0,0.000760278,
6.375,0,0,-0.00958305,0,0.000770286,
6.41667,0,0,-0.00993396,0,0.000779755,
6.45833,0,0,-0.0103204,0,0.000788711,
6.5,0,0,-0.0107406,0,0.000797178,
6.54167,0,0,-0.0111928,0,0.000805181,
6.58333,0,0,-0.0116753,0,0.000812744,
6.625,0,0,-0.0121864,0,0.000819891,
6.66667,0,0,-0.0127245,0,0.000826642,
6.70833,0,0,-0.013288,0,0.000833019,
6.75,0,0,-0.0138755,0,0.00083904,
6.79167,0,0,-0.0144853,0,0.000844721,
6.83333,0,0,-0.0151158,0,0.000850079,
6.875,0,0,-0.0157655,0,0.000855127,
6.91667,0,0,-0.0164325,0,0.000859879,
6.95833,0,0,-0.0171152,0,0.000864347,
7,0,0,-0.0178116,0,0.000868545,
7.04167,0,0,-0.0185199,0,0.000872484,
7.08333,0,0,-0.0192379,0,0.000876178,
7.125,0,0,-0.0199634,0,0.000879639,
7.16667,0,0,-0.0206942,0,0.000882881,
7.20833,0,0,-0.0214279,0,0.000885918,
7.25,0,0,-0.022162,0,0.000888765,
7.29167,0,0,-0.0228937,0,0.000891438,
7.33333,0,0,-0.0236204,0,0.000893954,
7.375,0,0,-0.0243392,0,0.000896333,
7.41667,0,0,-0.0250472,0,0.000898594,
7.45833,0,0,-0.0257413,0,0.000900759,
7.5,0,0,-0.0264185,0,0.000902851,
7.54167,0,0,-0.0270755,0,0.000904894,
7.58333,0,0,-0.0277092,0,0.000906917,
7.625,0,0,-0.0283162,0,0.000908948,
7.66667,0,0,-0.0288933,0,0.000911017,
7.70833,0,0,-0.0294372,0,0.000913157,
7.75,0,0,-0.0299445,0,0.000915401,
7.79167,0,0,-0.0304119,0,0.000917784,
7.83333,0,0,-0.0308369,0,0.000920327,
7.875,0,0,-0.0312155,0,0.000923115,
7.91667,0,0,-0.0315365,0,0.000926606,
7.95833,0,0,-0.0318564,0,0.000929418,
8,0,0,-0.0320288,0,0.000932569,
8.04171,0,0,-0.0321181,0,0.000937097,
8.08368,0,0,-0.0322409,0,0.000942039,
8.12617,0,0,-0.0322566,0,0.00094625,
8.16946,0,0,-0.0322072,0,0.000951217,
8.21382,0,0,-0.032086,0,0.00095688,
8.25952,0,0,-0.031879,0,0.000963286,
8.30685,0,0,-0.0315764,0,0.000970599,
8.35611,0,0,-0.031165,0,0.000978963,
8.40762,0,0,-0.0306289,0,0.000988544,
8.46168,0,0,-0.0299496,0,0.000999551,
8.51865,0,0,-0.0291057,0,0.00101223,
8.57889,0,0,-0.0280732,0,0.00102688,
8.64276,0,0,-0.0268257,0,0.00104385,
8.71067,0,0,-0.0253353,0,0.00106352,
8.78306,0,0,-0.0235741,0,0.00108632,
8.86037,0,0,-0.0215149,0,0.00111269,
8.94309,0,0,-0.0191345,0,0.00114306,
9.03174,0,0,-0.0164156,0,0.00117786,
9.12689,0,0,-0.0133518,0,0.00121746,
9.22912,0,0,-0.00995342,0,0.00126205,
9.33908,0,0,-0.0062493,0,0.00131167,
9.45746,0,0,-0.00229211,0,0.00136607,
9.58501,0,0,0.00183915,0,0.00142471,
9.72253,0,0,0.00604262,0,0.00148673,
9.87088,0,0,0.0101943,0,0.00155097,
10.031,0,0,0.0141603,0,0.00161599,
10.2039,0,0,0.017804,0,0.00168025,
10.3906,0,0,0.0210025,0,0.00174219,
10.5924,0,0,0.0236572,0,0.00180049,
10.8105,0,0,0.0256944,0,0.001854,
11.0463,0,0,0.0270791,0,0.00190187,
11.3012,0,0,0.0278148,0,0.00194372,
11.5769,0,0,0.0279412,0,0.00198003,
11.8751,0,0,0.0275292,0,0.00201266,
12.1977,0,0,0.026669,0,0.00204393,
12.5466,0,0,0.0254571,0,0.00207406,
12.9242,0,0,0.0239939,0,0.00210133,
13.3327,0,0,0.0223823,0,0.00212422,
13.7748,0,0,0.0207126,0,0.00214447,
14.2532,0,0,0.0190532,0,0.00216399,
14.7709,0,0,0.0174511,0,0.00218246,
15.3312,0,0,0.0159341,0,0.00219928,
15.9377,0,0,0.0145209,0,0.00221396,
16.594,0,0,0.0132224,0,0.00222657,
17.3044,0,0,0.0120416,0,0.00223738,
18.0733,0,0,0.0109784,0,0.00224654,
18.9056,0,0,0.010037,0,0.0022544,
19.8064,0,0,0.00922796,0,0.00226219,
20.7816,0,0,0.0085509,0,0.00227094,
21.8371,0,0,0.00798431,0,0.00228178,
22.9796,0,0,0.00749741,0,0.00229407,
24.2163,0,0,0.00706374,0,0.00230657,
25.5551,0,0,0.00666472,0,0.00231895,
27.0042,0,0,0.0062835,0,0.00233143,
28.5729,0,0,0.00590064,0,0.00234425,
30.271,0,0,0.00549584,0,0.00235713,
32.1091,0,0,0.00505306,0,0.0023685,
34.0989,0,0,0.00456087,0,0.00237971,
36.2529,0,0,0.0040013,0,0.00239287,
38.5845,0,0,0.00336463,0,0.00240814,
41.1085,0,0,0.00268613,0,0.00242389,
43.8407,0,0,0.00180565,0,0.00243762,
46.7983,0,0,0.000914935,0,0.00244737,
50,0,0,0.00208607,0,0.00246282,

