dcba911da122b8e768998f669adebbbf03263feb 
X,Z,x_velocity,cp,uw_b,cf,
1,0,0,-0.234936,0,0,
1,9,0,-0.127916,0,0,
1,1.01284,0.476286,-0.227265,-0.00928684,0,
1,0.000308731,0.000564384,-0.234936,-9.45562e-15,0,
1,0.000654158,0.00117803,-0.234936,-4.16822e-13,0,
1,0.00104139,0.00184388,-0.234936,-5.36374e-12,0,
1,0.00147619,0.00256351,-0.234936,-3.67085e-11,0,
1,0.00196502,0.00333685,-0.234936,-1.73645e-10,0,
1,0.00251518,0.00416156,-0.234936,-6.45977e-10,0,
1,0.0031349,0.00503199,-0.234936,-2.02712e-09,0,
1,0.00383341,0.00593791,-0.234936,-5.58513e-09,0,
1,0.00462115,0.00686261,-0.234935,-1.38121e-08,0,
1,0.00550983,0.00778061,-0.234935,-3.09215e-08,0,
1,0.00651264,0.00865413,-0.234935,-6.22682e-08,0,
1,0.00764438,0.00942887,-0.234935,-1.09152e-07,0,
1,0.00892169,0.0100286,-0.234934,-1.49071e-07,0,
1,0.0103632,0.0103511,-0.234934,-7.87288e-08,0,
1,0.0119898,0.0102701,-0.234933,4.14565e-07,0,
1,0.0138248,0.00965459,-0.234932,2.04849e-06,0,
1,0.0158944,0.00840927,-0.23493,6.02008e-06,0,
1,0.0182274,0.00651652,-0.234926,1.35717e-05,0,
1,0.0208562,0.00403634,-0.234921,2.5127e-05,0,
1,0.0238164,0.00105938,-0.234913,4.01177e-05,0,
1,0.0271475,-0.00233914,-0.234901,5.78277e-05,0,
1,0.0308929,-0.00611017,-0.234886,7.7956e-05,0,
1,0.0351001,-0.0102366,-0.234867,9.92099e-05,0,
1,0.0398209,-0.0147218,-0.234845,0.000120765,0,
1,0.0451115,-0.019568,-0.23482,0.000141857,0,
1,0.0510323,-0.0247639,-0.234791,0.000161667,0,
1,0.057648,-0.0302727,-0.234761,0.000179225,0,
1,0.0650269,-0.0360236,-0.234731,0.000193405,0,
1,0.0732406,-0.0419082,-0.234702,0.00020299,0,
1,0.0823632,-0.0477821,-0.234677,0.000206806,0,
1,0.0924701,-0.0534745,-0.234659,0.000203803,0,
1,0.103636,-0.0588043,-0.234652,0.00019324,0,
1,0.115935,-0.0635999,-0.234659,0.000174841,0,
1,0.129436,-0.0677171,-0.234684,0.000148861,0,
1,0.144202,-0.0710525,-0.23473,0.000116073,0,
1,0.160284,-0.0735482,-0.234798,7.76253e-05,0,
1,0.177724,-0.0751881,-0.23489,3.48549e-05,0,
1,0.196544,-0.0759899,-0.235006,-1.09135e-05,0,
1,0.21675,-0.0759938,-0.235142,-5.84965e-05,0,
1,0.238323,-0.075253,-0.235297,-0.000106896,0,
1,0.26122,-0.0738265,-0.235465,-0.000155268,0,
1,0.28537,-0.0717748,-0.235644,-0.000202858,0,
1,0.310673,-0.0691586,-0.235826,-0.00024894,0,
1,0.337003,-0.0660384,-0.236006,-0.00029279,0,
1,0.364206,-0.0624756,-0.236178,-0.00033363,0,
1,0.392107,-0.0585331,-0.236336,-0.000370642,0,
1,0.420509,-0.0542766,-0.236476,-0.000402992,0,
1,0.449206,-0.0497748,-0.236592,-0.000429869,0,
1,0.477982,-0.0450989,-0.236682,-0.000450505,0,
1,0.506624,-0.0403217,-0.236744,-0.000464244,0,
1,0.534925,-0.0355141,-0.236776,-0.000470624,0,
1,0.562692,-0.0307385,-0.236779,-0.000469636,0,
1,0.589754,-0.0260383,-0.236753,-0.000462053,0,
1,0.615961,-0.0214227,-0.236701,-0.000450248,0,
1,0.641193,-0.0168449,-0.23662,-0.00043886,0,
1,0.665359,-0.0121786,-0.236507,-0.00043526,0,
1,0.688396,-0.00718969,-0.236356,-0.000456086,0,
1,0.710271,-0.00145803,-0.236169,-0.000517377,0,
1,0.730976,0.00569821,-0.235942,-0.000645897,0,
1,0.750529,0.015178,-0.235689,-0.00087229,0,
1,0.768969,0.027839,-0.235417,-0.00122439,0,
1,0.78635,0.0440316,-0.235138,-0.00171887,0,
1,0.802743,0.0632914,-0.234845,-0.00234996,0,
1,0.818232,0.0846078,-0.234551,-0.00307204,0,
1,0.832689,0.106713,-0.234251,-0.00382406,0,
1,0.846039,0.128636,-0.233955,-0.00455599,0,
1,0.858357,0.149912,-0.233659,-0.00524271,0,
1,0.869723,0.170289,-0.233364,-0.00587401,0,
1,0.880212,0.189638,-0.233071,-0.0064453,0,
1,0.889898,0.207904,-0.232782,-0.00695612,0,
1,0.898852,0.225076,-0.2325,-0.00740842,0,
1,0.907141,0.241178,-0.232226,-0.007808,0,
1,0.914826,0.256258,-0.231958,-0.00815687,0,
1,0.921966,0.270394,-0.231699,-0.00845899,0,
1,0.928616,0.283678,-0.231445,-0.00871962,0,
1,0.934823,0.296208,-0.231197,-0.00894198,0,
1,0.940633,0.308074,-0.230955,-0.00913161,0,
1,0.946088,0.319359,-0.230719,-0.00929282,0,
1,0.951224,0.33013,-0.230489,-0.00942858,0,
1,0.956076,0.340449,-0.230265,-0.00954142,0,
1,0.960675,0.35037,-0.230047,-0.00963354,0,
1,0.965047,0.359942,-0.229834,-0.0097068,0,
1,0.969219,0.369208,-0.229627,-0.00976282,0,
1,0.973211,0.378208,-0.229425,-0.00980294,0,
1,0.977045,0.386978,-0.229227,-0.00982829,0,
1,0.980739,0.395553,-0.229034,-0.00983979,0,
1,0.984308,0.403962,-0.228844,-0.00983817,0,
1,0.987768,0.412234,-0.228659,-0.00982402,0,
1,0.991131,0.420395,-0.228476,-0.00979777,0,
1,0.99441,0.428469,-0.228296,-0.00975971,0,
1,0.997615,0.436479,-0.228119,-0.00971002,0,
1,1.00076,0.444448,-0.227945,-0.00964876,0,
1,1.00384,0.452393,-0.227772,-0.00957589,0,
1,1.00688,0.460336,-0.227601,-0.00949128,0,
1,1.00988,0.468295,-0.227432,-0.0093948,0,
1,1.01581,0.484417,-0.227097,-0.00916454,0,
1,1.01882,0.492801,-0.226927,-0.00902435,0,
1,1.02188,0.501469,-0.226755,-0.00886525,0,
1,1.025,0.510451,-0.22658,-0.00868533,0,
1,1.02818,0.519778,-0.226405,-0.00848278,0,
1,1.03144,0.529477,-0.226228,-0.00825704,0,
1,1.03478,0.539572,-0.226051,-0.00800449,0,
1,1.03822,0.550087,-0.225873,-0.0077227,0,
1,1.04177,0.561046,-0.225696,-0.00740914,0,
1,1.04544,0.572463,-0.225518,-0.00706129,0,
1,1.04925,0.58435,-0.225341,-0.00667687,0,
1,1.05321,0.596699,-0.225166,-0.00625425,0,
1,1.05735,0.609484,-0.224993,-0.00579296,0,
1,1.06169,0.622645,-0.224824,-0.00529465,0,
1,1.06626,0.636074,-0.224661,-0.0047643,0,
1,1.07108,0.649605,-0.224505,-0.00421172,0,
1,1.07618,0.663003,-0.224359,-0.00365281,0,
1,1.0816,0.675971,-0.224226,-0.00310952,0,
1,1.08738,0.688189,-0.224107,-0.00260738,0,
1,1.09357,0.699387,-0.224004,-0.00217006,0,
1,1.10022,0.70942,-0.223916,-0.00181308,0,
1,1.10739,0.718309,-0.223841,-0.00154228,0,
1,1.11514,0.726226,-0.223775,-0.00135152,0,
1,1.12354,0.733426,-0.223709,-0.00122705,0,
1,1.13268,0.740177,-0.223637,-0.00115208,0,
1,1.14266,0.746705,-0.223553,-0.00111072,0,
1,1.15357,0.75318,-0.223452,-0.0010907,0,
1,1.16554,0.759716,-0.22333,-0.00108239,0,
1,1.1787,0.766387,-0.223184,-0.00107948,0,
1,1.1932,0.773242,-0.223009,-0.0010777,0,
1,1.2092,0.780311,-0.222798,-0.00107491,0,
1,1.22689,0.787615,-0.222547,-0.00107012,0,
1,1.24659,0.795206,-0.222251,-0.00106234,0,
1,1.26879,0.803169,-0.221889,-0.00105303,0,
1,1.29378,0.811517,-0.221469,-0.00104453,0,
1,1.3219,0.820293,-0.220928,-0.00101574,0,
1,1.35351,0.82951,-0.220264,-0.000967416,0,
1,1.389,0.839126,-0.219513,-0.000925732,0,
1,1.42882,0.849136,-0.218637,-0.000887272,0,
1,1.47342,0.859593,-0.217618,-0.000849516,0,
1,1.52332,0.87057,-0.216435,-0.000810413,0,
1,1.57905,0.882166,-0.215066,-0.000768242,0,
1,1.64119,0.894515,-0.213488,-0.00072152,0,
1,1.71033,0.907775,-0.211679,-0.000668178,0,
1,1.78711,0.922092,-0.209616,-0.000605426,0,
1,1.87215,0.937522,-0.207278,-0.000531699,0,
1,1.9661,0.953899,-0.204646,-0.000447294,0,
1,2.06959,0.970669,-0.201703,-0.000355707,0,
1,2.18321,0.986796,-0.198453,-0.000262161,0,
1,2.30752,1.00093,-0.194959,-0.000133569,0,
1,2.44299,1.01154,-0.191216,-4.42883e-05,0,
1,2.59002,1.01728,-0.187266,-4.14866e-06,0,
1,2.74885,1.01807,-0.183206,1.07048e-06,0,
1,2.91959,1.01567,-0.179103,1.01499e-07,0,
1,3.10217,1.01249,-0.175019,5.56185e-08,0,
1,3.2963,1.00991,-0.171001,4.39649e-08,0,
1,3.50146,1.00807,-0.167082,3.51911e-08,0,
1,3.7169,1.00659,-0.163296,3.07405e-08,0,
1,3.94163,1.00517,-0.159674,2.85447e-08,0,
1,4.17441,1.00374,-0.156246,2.66505e-08,0,
1,4.41376,1.00236,-0.153033,2.45141e-08,0,
1,4.65805,1.00107,-0.150051,2.22478e-08,0,
1,4.90545,0.999897,-0.147306,2.01083e-08,0,
1,5.15407,0.998834,-0.144801,1.8164e-08,0,
1,5.40194,0.997878,-0.142534,1.64635e-08,0,
1,5.64716,0.997019,-0.140496,1.50685e-08,0,
1,5.88785,0.996229,-0.138679,1.40718e-08,0,
1,6.12229,0.995476,-0.137068,1.32351e-08,0,
1,6.34896,0.994789,-0.135649,1.17332e-08,0,
1,6.56652,0.994362,-0.134406,9.07515e-09,0,
1,6.77388,0.994496,-0.133322,1.52078e-09,0,
1,6.97022,0.995146,-0.132379,8.77766e-09,0,
1,7.15495,0.995155,-0.131561,1.82443e-06,0,
1,7.32773,0.992019,-0.130855,1.90524e-05,0,
1,7.48842,0.983142,-0.130255,8.03067e-05,0,
1,7.63711,0.968007,-0.129764,0.000218046,0,
1,7.77403,0.948689,-0.129349,0.000419763,0,
1,7.89956,0.927626,-0.129001,0.000586495,0,
1,8.01417,0.906423,-0.128736,0.000750496,0,
1,8.11843,0.886222,-0.128517,0.000890805,0,
1,8.21296,0.867504,-0.128349,0.00100234,0,
1,8.29839,0.850281,-0.128217,0.0010877,0,
1,8.3754,0.834325,-0.128119,0.00115234,0,
1,8.44464,0.819296,-0.128043,0.00119915,0,
1,8.50675,0.804802,-0.127985,0.00122462,0,
1,8.56236,0.790588,-0.127946,0.00125369,0,
1,8.61206,0.776584,-0.127917,0.00127983,0,
1,8.6564,0.762754,-0.127897,0.00130222,0,
1,8.69591,0.749063,-0.127883,0.00132115,0,
1,8.73107,0.735482,-0.127874,0.00133697,0,
1,8.76232,0.721983,-0.12787,0.00134996,0,
1,8.79007,0.708543,-0.127868,0.00136037,0,
1,8.81469,0.695142,-0.127868,0.00136837,0,
1,8.83651,0.681762,-0.127869,0.00137415,0,
1,8.85584,0.668385,-0.127872,0.00137782,0,
1,8.87295,0.654993,-0.127875,0.00137954,0,
1,8.8881,0.641568,-0.127879,0.0013794,0,
1,8.90149,0.628091,-0.127882,0.00137751,0,
1,8.91333,0.61454,-0.127886,0.00137393,0,
1,8.92379,0.600892,-0.127889,0.00136873,0,
1,8.93303,0.587119,-0.127893,0.00136192,0,
1,8.9412,0.57319,-0.127896,0.0013535,0,
1,8.9484,0.559069,-0.127898,0.00134343,0,
1,8.95476,0.544714,-0.127901,0.00133159,0,
1,8.96038,0.530077,-0.127903,0.00131782,0,
1,8.96533,0.515101,-0.127905,0.00130188,0,
1,8.9697,0.49972,-0.127907,0.0012834,0,
1,8.97356,0.483856,-0.127908,0.00126191,0,
1,8.97696,0.467415,-0.12791,0.00123673,0,
1,8.97996,0.450287,-0.127911,0.00120695,0,
1,8.98261,0.432341,-0.127912,0.00117138,0,
1,8.98494,0.413418,-0.127913,0.00112913,0,
1,8.98699,0.393304,-0.127913,0.00107582,0,
1,8.98881,0.371701,-0.127914,0.00100632,0,
1,8.99041,0.348301,-0.127914,0.000921175,0,
1,8.99182,0.322865,-0.127915,0.000817457,0,
1,8.99306,0.295214,-0.127915,0.000693348,0,
1,8.99416,0.265134,-0.127915,0.000534211,0,
1,8.99512,0.232572,-0.127915,0.000353108,0,
1,8.99597,0.198348,-0.127915,0.000193549,0,
1,8.99672,0.16423,-0.127915,8.40706e-05,0,
1,8.99739,0.132015,-0.127915,2.85703e-05,0,
1,8.99797,0.102768,-0.127915,7.57481e-06,0,
1,8.99848,0.0767467,-0.127915,1.51768e-06,0,
1,8.99894,0.053773,-0.127915,2.07119e-07,0,
1,8.99934,0.033534,-0.127916,1.50163e-08,0,
1,8.99969,0.0157107,-0.127915,3.21264e-10,0,

4,0,0,-0.121592,0,0,
4,9,0,-0.0972907,0,0,
4,1.05136,0.676605,-0.128815,-0.00417571,0,
4,0.000303409,-0.00653292,-0.121596,6.21563e-11,0,
4,0.00062865,-0.0133993,-0.121593,2.54147e-09,0,
4,0.000979511,-0.0206506,-0.121596,2.9667e-08,0,
4,0.00136016,-0.0283333,-0.121594,1.84462e-07,0,
4,0.00177519,-0.0364874,-0.121597,7.97728e-07,0,
4,0.0022297,-0.0451363,-0.121595,2.72731e-06,0,
4,0.00272934,-0.0542645,-0.121597,7.86524e-06,0,
4,0.00328037,-0.0637722,-0.121596,1.96957e-05,0,
4,0.00388979,-0.0734052,-0.121598,4.30026e-05,0,
4,0.00456537,-0.0826999,-0.121598,8.09047e-05,0,
4,0.00531578,-0.0910598,-0.121601,0.000129459,0,
4,0.0061507,-0.0980147,-0.121604,0.000176539,0,
4,0.0070809,-0.103439,-0.121611,0.000209821,0,
4,0.00811839,-0.107507,-0.121619,0.000224517,0,
4,0.00927657,-0.110503,-0.121632,0.000222422,0,
4,0.0105703,-0.112688,-0.121647,0.000207303,0,
4,0.0120162,-0.114264,-0.121669,0.000182275,0,
4,0.0136326,-0.11537,-0.121694,0.000149283,0,
4,0.0154398,-0.116103,-0.121725,0.000109341,0,
4,0.0174603,-0.116527,-0.121763,6.28464e-05,0,
4,0.0197189,-0.116685,-0.121807,9.79834e-06,0,
4,0.0222427,-0.116606,-0.12186,-5.00662e-05,0,
4,0.0250617,-0.116308,-0.121921,-0.000117194,0,
4,0.0282081,-0.115802,-0.121993,-0.000192169,0,
4,0.0317171,-0.115092,-0.122075,-0.000275687,0,
4,0.0356266,-0.114179,-0.12217,-0.000368537,0,
4,0.039977,-0.113058,-0.122278,-0.000471588,0,
4,0.0448114,-0.111724,-0.1224,-0.000585778,0,
4,0.0501747,-0.110167,-0.122538,-0.000712102,0,
4,0.056114,-0.108375,-0.122692,-0.000851598,0,
4,0.062677,-0.106335,-0.122864,-0.00100533,0,
4,0.0699123,-0.104029,-0.123054,-0.00117436,0,
4,0.0778675,-0.101441,-0.123263,-0.00135972,0,
4,0.0865883,-0.0985487,-0.12349,-0.00156241,0,
4,0.0961173,-0.0953318,-0.123735,-0.0017833,0,
4,0.106492,-0.0917671,-0.123997,-0.00202314,0,
4,0.117744,-0.0878306,-0.124275,-0.00228247,0,
4,0.129894,-0.0834979,-0.124567,-0.00256162,0,
4,0.142956,-0.0787453,-0.124871,-0.0028606,0,
4,0.156928,-0.07355,-0.125185,-0.0031791,0,
4,0.171798,-0.0678922,-0.125506,-0.00351645,0,
4,0.187537,-0.0617557,-0.125831,-0.00387158,0,
4,0.2041,-0.05513,-0.126158,-0.00424303,0,
4,0.221432,-0.0480122,-0.126485,-0.00462903,0,
4,0.239458,-0.040409,-0.126809,-0.00502755,0,
4,0.258095,-0.032338,-0.127128,-0.00543666,0,
4,0.27725,-0.0238286,-0.127442,-0.00585495,0,
4,0.296825,-0.0149175,-0.127747,-0.00628141,0,
4,0.316717,-0.00563855,-0.128044,-0.00671109,0,
4,0.336828,0.00398686,-0.128339,-0.00713425,0,
4,0.357066,0.0139354,-0.12862,-0.00755208,0,
4,0.377348,0.0241633,-0.128945,-0.00803027,0,
4,0.397605,0.03477,-0.129033,-0.00852366,0,
4,0.417786,0.0462084,-0.12878,-0.00876723,0,
4,0.437857,0.0588978,-0.128553,-0.00902502,0,
4,0.457804,0.0727671,-0.128474,-0.00928187,0,
4,0.477632,0.0875077,-0.128505,-0.00952102,0,
4,0.497368,0.102826,-0.128596,-0.00973224,0,
4,0.517057,0.118569,-0.1287,-0.00991181,0,
4,0.536763,0.134736,-0.128794,-0.01006,0,
4,0.556564,0.151423,-0.12887,-0.010178,0,
4,0.576557,0.168778,-0.12893,-0.0102661,0,
4,0.596848,0.186964,-0.12898,-0.0103231,0,
4,0.617561,0.206148,-0.129027,-0.0103461,0,
4,0.637962,0.225711,-0.129068,-0.0103327,0,
4,0.657495,0.245125,-0.129103,-0.0102842,0,
4,0.676218,0.264398,-0.129135,-0.0102021,0,
4,0.694189,0.28353,-0.129163,-0.0100879,0,
4,0.711463,0.302524,-0.129185,-0.00994335,0,
4,0.728096,0.321378,-0.129201,-0.0097705,0,
4,0.744138,0.340085,-0.129211,-0.009572,0,
4,0.759639,0.358623,-0.129214,-0.00935134,0,
4,0.774643,0.376952,-0.129213,-0.00911296,0,
4,0.789195,0.395008,-0.129207,-0.00886253,0,
4,0.803334,0.412716,-0.129199,-0.00860512,0,
4,0.817097,0.429997,-0.12919,-0.00834421,0,
4,0.830518,0.446787,-0.129181,-0.00808302,0,
4,0.843629,0.463039,-0.129172,-0.00782418,0,
4,0.856459,0.478727,-0.129163,-0.00756977,0,
4,0.869035,0.493838,-0.129155,-0.00732137,0,
4,0.881383,0.508375,-0.129147,-0.00708009,0,
4,0.893524,0.522355,-0.129139,-0.00684666,0,
4,0.905481,0.535798,-0.12913,-0.00662144,0,
4,0.917272,0.548737,-0.129122,-0.00640453,0,
4,0.928915,0.561204,-0.129114,-0.00619574,0,
4,0.940428,0.573234,-0.129105,-0.00599473,0,
4,0.951826,0.584857,-0.129095,-0.00580261,0,
4,0.963124,0.596097,-0.129081,-0.00561859,0,
4,0.974334,0.606981,-0.129065,-0.00544156,0,
4,0.98547,0.617537,-0.129047,-0.00527044,0,
4,0.996544,0.627796,-0.129025,-0.00510408,0,
4,1.00757,0.637799,-0.129,-0.00494115,0,
4,1.01855,0.647603,-0.128967,-0.00478007,0,
4,1.0295,0.657306,-0.128921,-0.00458577,0,
4,1.04044,0.666978,-0.128869,-0.00438625,0,
4,1.0623,0.686166,-0.128759,-0.00395103,0,
4,1.07328,0.695633,-0.128699,-0.00371436,0,
4,1.08432,0.704959,-0.128636,-0.00346852,0,
4,1.09543,0.714089,-0.128571,-0.00321681,0,
4,1.10661,0.722966,-0.128502,-0.00296305,0,
4,1.11788,0.731529,-0.128429,-0.00271151,0,
4,1.12925,0.739719,-0.128353,-0.00246671,0,
4,1.14073,0.747481,-0.128273,-0.00223319,0,
4,1.15233,0.754771,-0.128189,-0.00201516,0,
4,1.16408,0.761561,-0.128101,-0.00181618,0,
4,1.17599,0.76784,-0.128009,-0.00163876,0,
4,1.18806,0.77362,-0.127912,-0.00148426,0,
4,1.20034,0.778931,-0.127811,-0.00135279,0,
4,1.21282,0.783819,-0.127706,-0.00124341,0,
4,1.22554,0.788341,-0.127597,-0.00115435,0,
4,1.23852,0.792557,-0.127484,-0.00108332,0,
4,1.25179,0.796527,-0.127368,-0.00102778,0,
4,1.26537,0.800307,-0.127248,-0.000985205,0,
4,1.2793,0.803947,-0.127124,-0.000953166,0,
4,1.29362,0.807491,-0.126997,-0.000929467,0,
4,1.30836,0.810977,-0.126866,-0.000912211,0,
4,1.32357,0.814439,-0.12673,-0.000899696,0,
4,1.3393,0.817904,-0.126589,-0.000890903,0,
4,1.3556,0.821398,-0.126442,-0.00089032,0,
4,1.37252,0.824986,-0.126304,-0.000875495,0,
4,1.39015,0.828746,-0.12617,-0.000859452,0,
4,1.40855,0.832706,-0.126025,-0.000842555,0,
4,1.42781,0.836857,-0.125868,-0.000825062,0,
4,1.44801,0.84118,-0.125698,-0.000807271,0,
4,1.46926,0.845666,-0.125517,-0.000789518,0,
4,1.49167,0.850322,-0.125324,-0.000772041,0,
4,1.51537,0.85517,-0.125119,-0.000754671,0,
4,1.54091,0.860313,-0.124896,-0.000736915,0,
4,1.56949,0.865966,-0.124646,-0.000718128,0,
4,1.60144,0.872193,-0.124364,-0.000697364,0,
4,1.63713,0.879039,-0.124048,-0.000674193,0,
4,1.67693,0.886533,-0.123693,-0.000648132,0,
4,1.72128,0.894698,-0.123294,-0.000618509,0,
4,1.77062,0.903527,-0.122846,-0.000585086,0,
4,1.82542,0.912973,-0.122347,-0.000547696,0,
4,1.88618,0.922935,-0.121783,-0.00050641,0,
4,1.95343,0.933303,-0.121169,-0.000452753,0,
4,2.02768,0.94397,-0.120506,-0.000374461,0,
4,2.10949,0.954659,-0.119774,-0.000290193,0,
4,2.19939,0.964819,-0.118977,-0.000204501,0,
4,2.29789,0.973755,-0.118116,-0.000126476,0,
4,2.40551,0.980769,-0.117193,-6.42371e-05,0,
4,2.52268,0.985329,-0.11622,-2.28332e-05,0,
4,2.64979,0.987269,-0.115206,-2.37545e-06,0,
4,2.78715,0.986974,-0.114162,2.78711e-06,0,
4,2.93497,0.985357,-0.113101,1.59678e-06,0,
4,3.09333,0.983526,-0.112032,3.29544e-07,0,
4,3.26217,0.982254,-0.110967,3.43868e-08,0,
4,3.44125,0.981696,-0.109918,7.99406e-09,0,
4,3.63018,0.98157,-0.108891,4.27988e-09,0,
4,3.82836,0.981527,-0.107894,4.06748e-09,0,
4,4.03501,0.981388,-0.106932,4.88305e-09,0,
4,4.24915,0.981144,-0.106013,5.3755e-09,0,
4,4.46961,0.98086,-0.105139,5.28209e-09,0,
4,4.69507,0.980589,-0.104314,4.85922e-09,0,
4,4.92406,0.980348,-0.103542,4.40927e-09,0,
4,5.15502,0.980133,-0.102823,4.07164e-09,0,
4,5.3863,0.979932,-0.102158,3.9237e-09,0,
4,5.61626,0.979733,-0.101546,4.0966e-09,0,
4,5.84328,0.97952,-0.100988,4.96054e-09,0,
4,6.06579,0.979296,-0.100481,7.43484e-09,0,
4,6.28238,0.979125,-0.100023,1.04658e-08,0,
4,6.49173,0.979172,-0.0996121,-1.60481e-08,0,
4,6.69275,0.979602,-0.0992438,-1.97348e-07,0,
4,6.88453,0.980255,-0.0989138,-2.38452e-07,0,
4,7.06634,0.980186,-0.0986174,4.36115e-06,0,
4,7.23771,0.97753,-0.0983545,2.8625e-05,0,
4,7.39831,0.970214,-0.0981235,9.45208e-05,0,
4,7.54803,0.957284,-0.0979328,0.000217478,0,
4,7.68693,0.939648,-0.0977709,0.000379592,0,
4,7.81519,0.919273,-0.0976242,0.000532137,0,
4,7.93313,0.898103,-0.0975094,0.000690826,0,
4,8.04115,0.87764,-0.0974075,0.000836288,0,
4,8.13974,0.858623,-0.0973254,0.000957442,0,
4,8.22941,0.841186,-0.0972619,0.00105299,0,
4,8.31073,0.825135,-0.0972144,0.00112675,0,
4,8.38429,0.810115,-0.0971841,0.00118345,0,
4,8.45065,0.795688,-0.0971674,0.0012154,0,
4,8.5104,0.781534,-0.0971591,0.00124682,0,
4,8.56407,0.767559,-0.0971566,0.00127712,0,
4,8.61222,0.753742,-0.0971575,0.00130289,0,
4,8.65533,0.740068,-0.0971616,0.00132433,0,
4,8.69387,0.726519,-0.0971676,0.00134188,0,
4,8.7283,0.713079,-0.0971752,0.00135587,0,
4,8.75901,0.699734,-0.0971835,0.00136658,0,
4,8.78637,0.686471,-0.0971923,0.00137422,0,
4,8.81074,0.673278,-0.0972013,0.00137896,0,
4,8.83242,0.660146,-0.09721,0.001381,0,
4,8.85169,0.647063,-0.0972185,0.00138053,0,
4,8.86881,0.634017,-0.0972265,0.00137777,0,
4,8.88402,0.620995,-0.097234,0.00137291,0,
4,8.89751,0.607981,-0.097241,0.00136615,0,
4,8.90949,0.594955,-0.0972473,0.00135769,0,
4,8.92011,0.581894,-0.097253,0.00134769,0,
4,8.92952,0.568773,-0.0972582,0.00133627,0,
4,8.93787,0.55556,-0.0972628,0.00132352,0,
4,8.94526,0.542221,-0.0972669,0.00130949,0,
4,8.95182,0.528715,-0.0972704,0.00129415,0,
4,8.95762,0.514997,-0.0972736,0.0012774,0,
4,8.96276,0.501012,-0.0972763,0.00125909,0,
4,8.96731,0.486701,-0.0972787,0.00123894,0,
4,8.97134,0.471994,-0.0972807,0.00121659,0,
4,8.97491,0.456808,-0.0972825,0.00119149,0,
4,8.97807,0.441047,-0.097284,0.00116293,0,
4,8.98087,0.424599,-0.0972853,0.00112996,0,
4,8.98334,0.407331,-0.0972863,0.00109133,0,
4,8.98553,0.389082,-0.0972872,0.00104585,0,
4,8.98747,0.369648,-0.0972879,0.000989988,0,
4,8.98919,0.34875,-0.0972886,0.00091811,0,
4,8.9907,0.326105,-0.097289,0.000831514,0,
4,8.99205,0.301513,-0.0972895,0.000728044,0,
4,8.99324,0.274815,-0.0972896,0.000603923,0,
4,8.99429,0.245809,-0.09729,0.000444829,0,
4,8.99522,0.21467,-0.09729,0.000285201,0,
4,8.99605,0.182498,-0.0972903,0.000150704,0,
4,8.99677,0.150907,-0.0972902,6.36281e-05,0,
4,8.99742,0.121355,-0.0972904,2.13256e-05,0,
4,8.99799,0.0946046,-0.0972902,5.64911e-06,0,
4,8.9985,0.0707798,-0.0972905,1.13959e-06,0,
4,8.99894,0.049688,-0.0972903,1.57075e-07,0,
4,8.99934,0.0310459,-0.0972906,1.15051e-08,0,
4,8.99969,0.0145721,-0.0972903,2.48e-10,0,

6,0,0,0.00556736,0,0,
6,9,0,-0.0741971,0,0,
6,1.07704,0.705237,-0.00774616,-0.00220955,0,
6,0.000299862,0.00252874,0.00556004,-2.99589e-11,0,
6,0.000611645,0.00522162,0.0055659,-1.20577e-09,0,
6,0.000938257,0.00811124,0.00556019,-1.36089e-08,0,
6,0.00128281,0.0112332,0.00556462,-8.17519e-08,0,
6,0.00164864,0.0146267,0.00556009,-3.4308e-07,0,
6,0.00203939,0.0183325,0.00556344,-1.14686e-06,0,
6,0.00245897,0.0223876,0.00555972,-3.27201e-06,0,
6,0.00291168,0.0268123,0.0055622,-8.25706e-06,0,
6,0.00340221,0.0315853,0.00555886,-1.86889e-05,0,
6,0.00393573,0.0366088,0.00556027,-3.78754e-05,0,
6,0.00451788,0.0416855,0.00555642,-6.80834e-05,0,
6,0.00515491,0.046554,0.00555566,-0.000107935,0,
6,0.00585371,0.0509897,0.00554951,-0.00015211,0,
6,0.00662185,0.0548882,0.00554457,-0.000194767,0,
6,0.00746774,0.0582634,0.005534,-0.000232838,0,
6,0.00840063,0.0611918,0.00552295,-0.000266161,0,
6,0.00943073,0.0637647,0.0055062,-0.000295986,0,
6,0.0105693,0.0660645,0.00548739,-0.00032381,0,
6,0.0118288,0.068158,0.00546271,-0.000350934,0,
6,0.0132228,0.0700979,0.00543433,-0.000378394,0,
6,0.0147664,0.071925,0.00539956,-0.00040701,0,
6,0.016476,0.0736716,0.00535935,-0.000437459,0,
6,0.0183694,0.0753634,0.00531176,-0.000470333,0,
6,0.0204662,0.0770217,0.00525684,-0.000506175,0,
6,0.0227875,0.0786643,0.00519307,-0.000545508,0,
6,0.0253561,0.0803068,0.00511989,-0.000588854,0,
6,0.0281964,0.0819628,0.00503598,-0.000636744,0,
6,0.0313344,0.0836449,0.00494039,-0.000689727,0,
6,0.0347975,0.0853647,0.00483185,-0.000748372,0,
6,0.0386145,0.0871335,0.00470924,-0.000813271,0,
6,0.042815,0.0889617,0.00457134,-0.000885038,0,
6,0.0474296,0.0908598,0.00441702,-0.000964303,0,
6,0.0524888,0.092838,0.00424519,-0.0010517,0,
6,0.0580229,0.0949062,0.00405492,-0.00114788,0,
6,0.0640611,0.0970745,0.00384545,-0.00125347,0,
6,0.0706309,0.0993523,0.00361624,-0.00136907,0,
6,0.077757,0.101749,0.00336707,-0.00149523,0,
6,0.0854609,0.104274,0.00309804,-0.00163247,0,
6,0.0937597,0.106937,0.00280963,-0.00178119,0,
6,0.102665,0.109744,0.00250274,-0.00194172,0,
6,0.112183,0.112704,0.00217866,-0.00211425,0,
6,0.122315,0.115824,0.0018391,-0.00229886,0,
6,0.133052,0.11911,0.00148609,-0.00249546,0,
6,0.144384,0.122567,0.00112195,-0.00270386,0,
6,0.156292,0.1262,0.000749192,-0.00292369,0,
6,0.168754,0.130014,0.000370422,-0.0031545,0,
6,0.181744,0.134013,-1.17661e-05,-0.00339571,0,
6,0.195237,0.1382,-0.000394895,-0.00364672,0,
6,0.209207,0.142581,-0.000776698,-0.00390686,0,
6,0.223631,0.147162,-0.00115519,-0.00417551,0,
6,0.238493,0.15195,-0.00152873,-0.00445209,0,
6,0.253785,0.156958,-0.00189605,-0.00473612,0,
6,0.269507,0.162199,-0.00225618,-0.00502726,0,
6,0.28567,0.167693,-0.00260867,-0.00532528,0,
6,0.3023,0.173464,-0.00295427,-0.00563118,0,
6,0.319433,0.179545,-0.00328687,-0.00594567,0,
6,0.337122,0.185985,-0.00359204,-0.0062654,0,
6,0.355433,0.192851,-0.00385092,-0.0065876,0,
6,0.374445,0.200227,-0.00407894,-0.00691523,0,
6,0.394252,0.208217,-0.00435006,-0.00731954,0,
6,0.414961,0.217117,-0.00408861,-0.00766871,0,
6,0.436695,0.227516,-0.0031594,-0.007762,0,
6,0.459585,0.240029,-0.00236642,-0.00788117,0,
6,0.48378,0.25481,-0.00194613,-0.00804742,0,
6,0.508144,0.270908,-0.00182744,-0.00821953,0,
6,0.531799,0.287415,-0.00184904,-0.00835647,0,
6,0.554791,0.304131,-0.00189748,-0.00844297,0,
6,0.577166,0.320991,-0.0019286,-0.00847807,0,
6,0.598964,0.337991,-0.00193739,-0.008466,0,
6,0.620228,0.355136,-0.00193689,-0.00841102,0,
6,0.640996,0.372408,-0.00194037,-0.00831589,0,
6,0.661304,0.389768,-0.00195622,-0.00818248,0,
6,0.681188,0.407153,-0.00198864,-0.00801305,0,
6,0.700681,0.424491,-0.00204012,-0.00781131,0,
6,0.719813,0.441693,-0.00211257,-0.00758257,0,
6,0.738612,0.458671,-0.00220685,-0.00733226,0,
6,0.757107,0.475342,-0.00232264,-0.0070652,0,
6,0.775322,0.491643,-0.00245909,-0.00678571,0,
6,0.793282,0.507525,-0.00261541,-0.00649774,0,
6,0.811008,0.522954,-0.00279092,-0.0062049,0,
6,0.828521,0.537903,-0.00298534,-0.00591052,0,
6,0.845842,0.552345,-0.00319783,-0.00561774,0,
6,0.862989,0.566248,-0.00342915,-0.00533185,0,
6,0.879979,0.579575,-0.00367823,-0.00505775,0,
6,0.896829,0.592315,-0.00394166,-0.00479415,0,
6,0.913555,0.604488,-0.00421844,-0.00454013,0,
6,0.930172,0.616138,-0.00450793,-0.00429476,0,
6,0.946694,0.627327,-0.00481198,-0.00405672,0,
6,0.963136,0.638121,-0.00513006,-0.00382398,0,
6,0.97951,0.648606,-0.00547003,-0.00358222,0,
6,0.99583,0.658837,-0.0058262,-0.00334299,0,
6,1.01211,0.668803,-0.00618989,-0.00310698,0,
6,1.02836,0.678468,-0.00656513,-0.00287283,0,
6,1.04459,0.68779,-0.00694956,-0.00264316,0,
6,1.06081,0.696728,-0.00734358,-0.00242101,0,
6,1.09329,0.713286,-0.00815699,-0.00201183,0,
6,1.10959,0.720847,-0.00857537,-0.00183064,0,
6,1.12595,0.727905,-0.00900065,-0.00166814,0,
6,1.14238,0.734459,-0.00943198,-0.00152559,0,
6,1.1589,0.740525,-0.00986883,-0.00140326,0,
6,1.17551,0.746138,-0.0103105,-0.00130039,0,
6,1.19223,0.751341,-0.010757,-0.00121539,0,
6,1.20907,0.756188,-0.0112072,-0.00114662,0,
6,1.22605,0.760735,-0.0116624,-0.00109281,0,
6,1.24318,0.765062,-0.0121281,-0.00104746,0,
6,1.26048,0.769267,-0.0126072,-0.00100785,0,
6,1.27797,0.773447,-0.0130991,-0.000971623,0,
6,1.29566,0.777674,-0.0136002,-0.000938197,0,
6,1.31357,0.781983,-0.014106,-0.000907955,0,
6,1.33173,0.786362,-0.0146141,-0.000881222,0,
6,1.35015,0.790778,-0.0151241,-0.000857797,0,
6,1.36886,0.795197,-0.0156376,-0.000836998,0,
6,1.38788,0.799597,-0.0161566,-0.000818228,0,
6,1.40725,0.803979,-0.0166835,-0.000800413,0,
6,1.42698,0.808362,-0.0172205,-0.000782721,0,
6,1.44712,0.812767,-0.0177685,-0.000764882,0,
6,1.46769,0.817214,-0.0183278,-0.000747161,0,
6,1.48874,0.821712,-0.018899,-0.000729501,0,
6,1.5103,0.826272,-0.0194825,-0.000711828,0,
6,1.53242,0.830898,-0.0200794,-0.000694065,0,
6,1.55515,0.835597,-0.0206907,-0.000676147,0,
6,1.57854,0.840372,-0.0213174,-0.000658028,0,
6,1.60265,0.845226,-0.0219607,-0.000639678,0,
6,1.62754,0.850164,-0.0226223,-0.000621067,0,
6,1.65329,0.855187,-0.0233032,-0.000602161,0,
6,1.67998,0.860295,-0.0240055,-0.000582886,0,
6,1.70768,0.865493,-0.0247294,-0.000563457,0,
6,1.73712,0.870879,-0.0254964,-0.000544125,0,
6,1.76996,0.876686,-0.0263438,-0.000523864,0,
6,1.80655,0.882948,-0.0272802,-0.000501692,0,
6,1.84728,0.889635,-0.0283127,-0.000478019,0,
6,1.89255,0.896698,-0.0294427,-0.000452501,0,
6,1.9428,0.904112,-0.0306863,-0.000418345,0,
6,1.99849,0.911887,-0.0320504,-0.000366304,0,
6,2.06009,0.919916,-0.033528,-0.000309695,0,
6,2.1281,0.927918,-0.0351262,-0.000248881,0,
6,2.20301,0.935537,-0.0368413,-0.000187899,0,
6,2.28535,0.942391,-0.0386671,-0.000131364,0,
6,2.37559,0.948117,-0.0405927,-8.32598e-05,0,
6,2.47424,0.952427,-0.0426013,-4.64575e-05,0,
6,2.58172,0.955194,-0.0446714,-2.20214e-05,0,
6,2.69844,0.956531,-0.0467775,-8.68235e-06,0,
6,2.82473,0.956827,-0.0488923,-3.05572e-06,0,
6,2.96084,0.956666,-0.05099,-1.22421e-06,0,
6,3.10691,0.956636,-0.0530476,-5.67562e-07,0,
6,3.26296,0.957098,-0.0550463,-2.1877e-07,0,
6,3.42888,0.958076,-0.0569701,-6.84198e-08,0,
6,3.60438,0.959342,-0.058804,-3.1838e-08,0,
6,3.78902,0.960612,-0.0605337,-2.51361e-08,0,
6,3.98218,0.961709,-0.0621471,-2.10386e-08,0,
6,4.18307,0.962599,-0.0636353,-1.75322e-08,0,
6,4.39071,0.963336,-0.0649935,-1.49499e-08,0,
6,4.60398,0.96398,-0.0662206,-1.30646e-08,0,
6,4.82159,0.964566,-0.0673191,-1.15842e-08,0,
6,5.04218,0.965099,-0.0682939,-1.03803e-08,0,
6,5.26426,0.965571,-0.069152,-9.63005e-09,0,
6,5.48633,0.965972,-0.0699017,-9.89987e-09,0,
6,5.70687,0.966295,-0.0705524,-1.25634e-08,0,
6,5.92439,0.966548,-0.0711137,-2.1503e-08,0,
6,6.1375,0.966775,-0.0715951,-5.16727e-08,0,
6,6.34489,0.967092,-0.0720057,-1.67675e-07,0,
6,6.5454,0.96764,-0.0723539,-5.55885e-07,0,
6,6.73802,0.968408,-0.072647,-1.1969e-06,0,
6,6.92195,0.968895,-0.072892,5.12052e-07,0,
6,7.09653,0.967856,-0.0730944,1.44638e-05,0,
6,7.26132,0.963513,-0.0732646,5.82105e-05,0,
6,7.41603,0.954378,-0.0733998,0.000148279,0,
6,7.56054,0.9402,-0.0735211,0.000290042,0,
6,7.6949,0.922019,-0.0736205,0.000423052,0,
6,7.81927,0.901504,-0.0736851,0.000566637,0,
6,7.93391,0.880517,-0.07374,0.000713479,0,
6,8.0392,0.860482,-0.0737741,0.000846104,0,
6,8.13555,0.842026,-0.0738021,0.000956976,0,
6,8.22344,0.825165,-0.0738246,0.00104559,0,
6,8.30339,0.809607,-0.0738475,0.0011157,0,
6,8.37592,0.794953,-0.0738716,0.00117136,0,
6,8.44155,0.780807,-0.0738985,0.00121235,0,
6,8.50082,0.766887,-0.0739269,0.00124625,0,
6,8.55423,0.753096,-0.0739538,0.00127889,0,
6,8.60229,0.739434,-0.0739781,0.00130604,0,
6,8.64545,0.725902,-0.0740008,0.00132797,0,
6,8.68417,0.712497,-0.0740215,0.00134527,0,
6,8.71885,0.699215,-0.0740406,0.00135841,0,
6,8.74989,0.68605,-0.0740581,0.00136775,0,
6,8.77763,0.672994,-0.0740741,0.00137357,0,
6,8.80241,0.660043,-0.0740887,0.00137616,0,
6,8.82452,0.647188,-0.0741019,0.00137578,0,
6,8.84423,0.634421,-0.0741138,0.00137273,0,
6,8.86181,0.621731,-0.0741245,0.00136729,0,
6,8.87746,0.609106,-0.0741341,0.00135975,0,
6,8.89139,0.596529,-0.0741426,0.00135036,0,
6,8.90379,0.583981,-0.0741502,0.00133938,0,
6,8.91482,0.57144,-0.0741569,0.00132701,0,
6,8.92463,0.558879,-0.0741627,0.00131344,0,
6,8.93334,0.546269,-0.0741678,0.00129879,0,
6,8.94109,0.533577,-0.0741723,0.00128314,0,
6,8.94798,0.520764,-0.0741762,0.00126652,0,
6,8.95409,0.507789,-0.0741795,0.00124888,0,
6,8.95953,0.494602,-0.0741824,0.0012301,0,
6,8.96435,0.48115,-0.0741848,0.00121001,0,
6,8.96863,0.467371,-0.074187,0.0011883,0,
6,8.97244,0.453193,-0.0741887,0.00116457,0,
6,8.97581,0.438534,-0.0741903,0.00113827,0,
6,8.97881,0.423299,-0.0741915,0.00110865,0,
6,8.98147,0.407376,-0.0741926,0.00107475,0,
6,8.98383,0.390634,-0.0741934,0.00103529,0,
6,8.98593,0.372917,-0.0741942,0.000989067,0,
6,8.98779,0.354024,-0.0741947,0.00093247,0,
6,8.98944,0.333693,-0.0741953,0.000860606,0,
6,8.9909,0.311668,-0.0741956,0.000774799,0,
6,8.9922,0.287774,-0.074196,0.000673335,0,
6,8.99336,0.26185,-0.0741962,0.000549056,0,
6,8.99438,0.233736,-0.0741965,0.000396794,0,
6,8.99529,0.203738,-0.0741965,0.00024855,0,
6,8.99609,0.172996,-0.0741967,0.000128431,0,
6,8.99681,0.143031,-0.0741966,5.33869e-05,0,
6,8.99744,0.115112,-0.0741968,1.77832e-05,0,
6,8.99801,0.0898543,-0.0741966,4.7175e-06,0,
6,8.9985,0.0673245,-0.0741969,9.57063e-07,0,
6,8.99895,0.0473325,-0.0741966,1.32879e-07,0,
6,8.99934,0.0296168,-0.074197,9.80343e-09,0,
6,8.99969,0.0139206,-0.0741966,2.12446e-10,0,

10,0,0,-0.0304403,0,0,
10,0.000296632,0.00604458,-0.0304456,-2.55624e-11,0,
10,0.000596102,0.0121291,-0.0304405,-9.44986e-10,0,
10,0.000900397,0.018295,-0.0304452,-9.58612e-09,0,
10,0.00121153,0.0245839,-0.0304409,-5.14191e-08,0,
10,0.00153158,0.0310372,-0.0304448,-1.92135e-07,0,
10,0.00186264,0.0376957,-0.0304412,-5.71413e-07,0,
10,0.00220692,0.0445989,-0.0304445,-1.4539e-06,0,
10,0.00256668,0.0517817,-0.0304415,-3.30119e-06,0,
10,0.00294431,0.0592707,-0.0304443,-6.86122e-06,0,
10,0.00334229,0.0670768,-0.0304418,-1.32507e-05,0,
10,0.00376326,0.0751857,-0.0304442,-2.39682e-05,0,
10,0.00421,0.0835453,-0.030442,-4.07295e-05,0,
10,0.00468544,0.0920576,-0.0304441,-6.50261e-05,0,
10,0.00519274,0.100578,-0.0304422,-9.74545e-05,0,
10,0.00573524,0.108931,-0.030444,-0.000137146,0,
10,0.00631651,0.116941,-0.0304424,-0.000181752,0,
10,0.00694041,0.124465,-0.030444,-0.000228126,0,
10,0.00761104,0.131413,-0.0304426,-0.000273294,0,
10,0.00833284,0.137751,-0.0304439,-0.000315161,0,
10,0.00911058,0.143492,-0.0304427,-0.000352697,0,
10,0.0099494,0.14868,-0.0304438,-0.000385753,0,
10,0.0108548,0.153373,-0.0304429,-0.000414736,0,
10,0.0118329,0.157633,-0.0304437,-0.000440325,0,
10,0.0128901,0.161524,-0.0304431,-0.000463276,0,
10,0.0140333,0.1651,-0.0304438,-0.000484312,0,
10,0.0152702,0.168411,-0.0304434,-0.000504078,0,
10,0.0166089,0.171499,-0.0304441,-0.00052313,0,
10,0.0180584,0.174403,-0.030444,-0.000541941,0,
10,0.0196282,0.177152,-0.0304447,-0.000560914,0,
10,0.0213288,0.179775,-0.030445,-0.000580398,0,
10,0.0231714,0.182293,-0.0304459,-0.000600703,0,
10,0.0251682,0.184727,-0.0304466,-0.000622108,0,
10,0.0273326,0.187096,-0.0304479,-0.000644874,0,
10,0.0296789,0.189414,-0.0304492,-0.000669248,0,
10,0.0322227,0.191696,-0.030451,-0.000695474,0,
10,0.0349809,0.193955,-0.030453,-0.000723793,0,
10,0.0379719,0.196204,-0.0304556,-0.000754449,0,
10,0.0412155,0.198453,-0.0304588,-0.000787695,0,
10,0.0447333,0.200714,-0.0304626,-0.00082379,0,
10,0.0485489,0.202997,-0.0304672,-0.000863004,0,
10,0.0526875,0.205313,-0.0304727,-0.000905621,0,
10,0.0571768,0.207673,-0.0304794,-0.000951939,0,
10,0.0620466,0.210089,-0.0304874,-0.00100227,0,
10,0.0673295,0.21257,-0.030497,-0.00105694,0,
10,0.0730607,0.215129,-0.0305085,-0.00111629,0,
10,0.0792784,0.217778,-0.0305222,-0.00118068,0,
10,0.0860241,0.22053,-0.0305385,-0.00125048,0,
10,0.0933428,0.223399,-0.030558,-0.00132607,0,
10,0.101283,0.2264,-0.0305813,-0.00140784,0,
10,0.109899,0.229549,-0.030609,-0.00149617,0,
10,0.119247,0.232863,-0.030642,-0.00159145,0,
10,0.12939,0.236361,-0.0306813,-0.00169406,0,
10,0.140395,0.240064,-0.030728,-0.00180432,0,
10,0.152337,0.243993,-0.0307837,-0.00192254,0,
10,0.165296,0.248173,-0.03085,-0.00204894,0,
10,0.179357,0.252629,-0.0309288,-0.00218366,0,
10,0.194615,0.257391,-0.0310225,-0.0023267,0,
10,0.211171,0.262488,-0.0311342,-0.00247787,0,
10,0.229138,0.267955,-0.0312663,-0.00263673,0,
10,0.248635,0.273825,-0.0314242,-0.00280252,0,
10,0.269793,0.280137,-0.0316098,-0.00297399,0,
10,0.292753,0.286931,-0.0318328,-0.00315017,0,
10,0.317669,0.29425,-0.0320911,-0.00341016,0,
10,0.344708,0.302482,-0.0324522,-0.00354547,0,
10,0.372405,0.311774,-0.0329198,-0.00367786,0,
10,0.399623,0.322035,-0.0333932,-0.00382792,0,
10,0.426397,0.333246,-0.0338744,-0.00398179,0,
10,0.452757,0.345217,-0.0343574,-0.00413189,0,
10,0.478735,0.357689,-0.0348469,-0.0042735,0,
10,0.504358,0.370409,-0.0353433,-0.0044041,0,
10,0.529657,0.383184,-0.0358456,-0.00452163,0,
10,0.554656,0.395899,-0.036352,-0.00462599,0,
10,0.579382,0.408499,-0.036859,-0.00471796,0,
10,0.603859,0.420976,-0.0373618,-0.00479848,0,
10,0.628112,0.433348,-0.0378545,-0.00486825,0,
10,0.652163,0.445656,-0.0383304,-0.00492767,0,
10,0.676035,0.457951,-0.0387828,-0.00497671,0,
10,0.699751,0.470291,-0.0392048,-0.005015,0,
10,0.72333,0.482738,-0.0395902,-0.00504178,0,
10,0.746795,0.495361,-0.0399332,-0.005056,0,
10,0.770165,0.508228,-0.0402292,-0.00505632,0,
10,0.79346,0.521409,-0.0404742,-0.00504114,0,
10,0.816699,0.534971,-0.0406654,-0.00500864,0,
10,0.839903,0.54898,-0.040801,-0.00495687,0,
10,0.863088,0.563495,-0.0408799,-0.00488376,0,
10,0.886275,0.578561,-0.0409021,-0.00478729,0,
10,0.909481,0.594204,-0.040868,-0.00466567,0,
10,0.932723,0.610412,-0.0407786,-0.00451795,0,
10,0.956021,0.627125,-0.0406358,-0.00434482,0,
10,0.97939,0.644216,-0.0404427,-0.00414843,0,
10,1.00285,0.661495,-0.040204,-0.00393181,0,
10,1.02641,0.678722,-0.039925,-0.00369889,0,
10,1.0501,0.695633,-0.0396117,-0.00345433,0,
10,1.07392,0.711968,-0.0392684,-0.00320273,0,
10,1.0979,0.727496,-0.038899,-0.00295391,0,
10,1.12205,0.742053,-0.0385097,-0.00271156,0,
10,1.14639,0.755576,-0.038106,-0.00247825,0,
10,1.17093,0.768087,-0.037691,-0.00225699,0,
10,1.19568,0.779671,-0.0372654,-0.00204937,0,
10,1.22066,0.790441,-0.0368292,-0.00185544,0,
10,1.24589,0.800512,-0.0363814,-0.00167406,0,
10,1.27137,0.809992,-0.0359217,-0.00150334,0,
10,1.29713,0.81896,-0.0354491,-0.00134073,0,
10,1.32317,0.827456,-0.034962,-0.00118253,0,
10,1.34951,0.835469,-0.0344665,-0.00103603,0,
10,1.37616,0.842983,-0.0339715,-0.000899479,0,
10,1.40313,0.850039,-0.0334736,-0.000775566,0,
10,1.43043,0.856683,-0.0329718,-0.000666625,0,
10,1.45807,0.862937,-0.0324696,-0.000573406,0,
10,1.48607,0.868801,-0.031969,-0.000496504,0,
10,1.51444,0.87429,-0.0314729,-0.000435578,0,
10,1.54318,0.879452,-0.0309823,-0.000388855,0,
10,1.57231,0.884356,-0.0304981,-0.000353446,0,
10,1.60184,0.889072,-0.0300207,-0.000326165,0,
10,1.63178,0.893646,-0.0295506,-0.000304266,0,
10,1.66213,0.898101,-0.0290884,-0.000285774,0,
10,1.69292,0.902443,-0.0286347,-0.000269424,0,
10,1.72416,0.906667,-0.0281899,-0.000254443,0,
10,1.75585,0.910765,-0.0277543,-0.000240354,0,
10,1.78802,0.914724,-0.0273286,-0.000226868,0,
10,1.82067,0.918531,-0.026913,-0.000213828,0,
10,1.85383,0.922175,-0.0265084,-0.000201175,0,
10,1.88751,0.925651,-0.0261148,-0.00018892,0,
10,1.92173,0.928959,-0.0257334,-0.000177162,0,
10,1.95652,0.932109,-0.0253629,-0.000166201,0,
10,1.9919,0.935138,-0.0250054,-0.000152469,0,
10,2.02791,0.938082,-0.0246605,-0.000137427,0,
10,2.06456,0.940931,-0.0243266,-0.000121633,0,
10,2.10268,0.943693,-0.0239999,-0.000103985,0,
10,2.1443,0.946425,-0.0236644,-8.53541e-05,0,
10,2.18977,0.949053,-0.0233247,-6.62606e-05,0,
10,2.23946,0.95147,-0.0229836,-4.73276e-05,0,
10,2.29376,0.953562,-0.0226468,-2.97321e-05,0,
10,2.35309,0.955217,-0.02232,-1.45255e-05,0,
10,2.4179,0.956337,-0.0220109,-2.53541e-06,0,
10,2.48863,0.956846,-0.021728,5.72051e-06,0,
10,2.56575,0.956718,-0.0214809,1.01355e-05,0,
10,2.64971,0.955987,-0.0212797,1.11103e-05,0,
10,2.74098,0.954766,-0.0211345,9.54578e-06,0,
10,2.83997,0.953245,-0.0210545,6.70872e-06,0,
10,2.94709,0.951667,-0.0210476,3.85246e-06,0,
10,3.06269,0.950273,-0.0211198,1.77717e-06,0,
10,3.18706,0.949239,-0.0212755,6.43823e-07,0,
10,3.3204,0.948626,-0.0215173,1.79722e-07,0,
10,3.46281,0.948377,-0.0218455,3.91857e-08,0,
10,3.61427,0.948354,-0.022258,7.77699e-09,0,
10,3.77463,0.948412,-0.0227508,2.22689e-09,0,
10,3.94358,0.948449,-0.0233171,1.29302e-09,0,
10,4.12067,0.948435,-0.0239482,9.29939e-10,0,
10,4.30525,0.948397,-0.0246336,2.92729e-10,0,
10,4.49655,0.948378,-0.0253609,-7.01452e-10,0,
10,4.6936,0.948412,-0.0261171,-1.90064e-09,0,
10,4.89531,0.948506,-0.0268888,-3.26629e-09,0,
10,5.10047,0.948645,-0.0276629,-5.14674e-09,0,
10,5.30776,0.948805,-0.0284271,-8.55926e-09,0,
10,5.51581,0.948964,-0.0291706,-1.5806e-08,0,
10,5.72323,0.949115,-0.0298839,-3.27385e-08,0,
10,5.92863,0.949276,-0.0305594,-7.88576e-08,0,
10,6.13069,0.949508,-0.0311913,-2.21872e-07,0,
10,6.32816,0.949905,-0.0317756,-6.29295e-07,0,
10,6.51991,0.950502,-0.03231,-1.37717e-06,0,
10,6.70495,0.951074,-0.0327944,-1.15499e-06,0,
10,6.88244,0.950906,-0.0332288,5.56384e-06,0,
10,7.0517,0.948757,-0.0336154,3.01933e-05,0,
10,7.21224,0.943206,-0.0339532,8.67162e-05,0,
10,7.3637,0.933341,-0.0342474,0.000185054,0,
10,7.5059,0.919212,-0.0345004,0.000316655,0,
10,7.63878,0.901454,-0.0347143,0.000434278,0,
10,7.76243,0.881221,-0.0348988,0.000564559,0,
10,7.87701,0.860323,-0.0350445,0.000697916,0,
10,7.9828,0.840257,-0.0351656,0.000818012,0,
10,8.08014,0.821749,-0.0352616,0.00091907,0,
10,8.16941,0.804871,-0.0353414,0.00100181,0,
10,8.25106,0.789333,-0.0354079,0.00106985,0,
10,8.32554,0.774735,-0.0354663,0.00112635,0,
10,8.39331,0.760714,-0.0355178,0.00117406,0,
10,8.45484,0.747011,-0.035564,0.0012152,0,
10,8.5106,0.733481,-0.0356048,0.00125085,0,
10,8.56104,0.720072,-0.0356406,0.00128137,0,
10,8.60659,0.706793,-0.0356717,0.00130685,0,
10,8.64767,0.69368,-0.035699,0.00132739,0,
10,8.68467,0.680765,-0.0357231,0.00134323,0,
10,8.71795,0.668045,-0.0357448,0.0013506,0,
10,8.74786,0.655498,-0.0357638,0.00135414,0,
10,8.77471,0.643124,-0.0357805,0.00135368,0,
10,8.79881,0.63092,-0.0357951,0.0013496,0,
10,8.8204,0.618882,-0.0358079,0.00134244,0,
10,8.83975,0.606998,-0.035819,0.0013327,0,
10,8.85708,0.595256,-0.0358286,0.00132088,0,
10,8.87259,0.583639,-0.035837,0.0013074,0,
10,8.88646,0.572124,-0.0358442,0.00129263,0,
10,8.89886,0.560689,-0.0358504,0.0012769,0,
10,8.90995,0.549306,-0.0358557,0.00126045,0,
10,8.91986,0.537948,-0.0358603,0.00124349,0,
10,8.92872,0.52658,-0.0358642,0.00122615,0,
10,8.93663,0.51517,-0.0358675,0.00120852,0,
10,8.94369,0.503679,-0.0358703,0.0011906,0,
10,8.95,0.492068,-0.0358726,0.00117237,0,
10,8.95564,0.480291,-0.0358746,0.00115368,0,
10,8.96067,0.468302,-0.0358763,0.00113444,0,
10,8.96517,0.456047,-0.0358777,0.00111436,0,
10,8.96918,0.443468,-0.0358788,0.00109313,0,
10,8.97276,0.430497,-0.0358799,0.00107032,0,
10,8.97596,0.417058,-0.0358806,0.00104539,0,
10,8.97882,0.403064,-0.0358814,0.00101764,0,
10,8.98137,0.388411,-0.0358818,0.000986167,0,
10,8.98365,0.372978,-0.0358824,0.000949812,0,
10,8.98569,0.356625,-0.0358826,0.000907392,0,
10,8.9875,0.339173,-0.0358831,0.000856348,0,
10,8.98913,0.320384,-0.0358831,0.000791455,0,
10,8.99058,0.300016,-0.0358836,0.000714513,0,
10,8.99188,0.277904,-0.0358835,0.000624003,0,
10,8.99304,0.253888,-0.0358839,0.000513774,0,
10,8.99408,0.227786,-0.0358837,0.000378343,0,
10,8.99501,0.199789,-0.0358841,0.000243935,0,
10,8.99583,0.170827,-0.0358838,0.000131042,0,
10,8.99658,0.142236,-0.0358843,5.69245e-05,0,
10,8.99724,0.115241,-0.0358838,1.97966e-05,0,
10,8.99784,0.0905207,-0.0358844,5.46041e-06,0,
10,8.99837,0.0682304,-0.0358838,1.14713e-06,0,
10,8.99885,0.0482479,-0.0358845,1.64436e-07,0,
10,8.99927,0.0303604,-0.0358837,1.24869e-08,0,
10,8.99966,0.0143477,-0.0358846,2.76309e-10,0,
10,9,0,-0.0358837,0,0,

0.0416667,0,0,-0.23165,0,3.24735e-06,
0.0833333,0,0,-0.231819,0,5.38638e-06,
0.125,0,0,-0.231752,0,6.94479e-06,
0.166667,0,0,-0.231805,0,1.15114e-05,
0.208333,0,0,-0.231812,0,1.61815e-05,
0.25,0,0,-0.231861,0,2.1273e-05,
0.291667,0,0,-0.231905,0,2.57905e-05,
0.333333,0,0,-0.231968,0,2.97344e-05,
0.375,0,0,-0.232034,0,3.29796e-05,
0.416667,0,0,-0.232109,0,3.59242e-05,
0.458333,0,0,-0.23219,0,3.89865e-05,
0.5,0,0,-0.232281,0,4.26655e-05,
0.541667,0,0,-0.232385,0,4.73267e-05,
0.583333,0,0,-0.232506,0,5.31741e-05,
0.625,0,0,-0.232647,0,6.01945e-05,
0.666667,0,0,-0.232812,0,6.81602e-05,
0.708333,0,0,-0.233002,0,7.66557e-05,
0.75,0,0,-0.233217,0,8.51245e-05,
0.791667,0,0,-0.233454,0,9.29489e-05,
0.833333,0,0,-0.233712,0,9.95385e-05,
0.875,0,0,-0.233986,0,0.000104486,
0.916667,0,0,-0.234275,0,0.000107666,
0.958333,0,0,-0.234588,0,0.000109014,
1,0,0,-0.234936,0,0.000108338,
1.04167,0,0,-0.235341,0,0.000105148,
1.08333,0,0,-0.235832,0,9.82086e-05,
1.125,0,0,-0.236438,0,8.54572e-05,
1.16667,0,0,-0.23718,0,6.43781e-05,
1.20833,0,0,-0.238072,0,3.25257e-05,
1.25,0,0,-0.23911,0,-1.17528e-05,
1.29167,0,0,-0.240273,0,-6.86783e-05,
1.33333,0,0,-0.241531,0,-0.000136845,
1.375,0,0,-0.242842,0,-0.000213583,
1.41667,0,0,-0.244167,0,-0.000295683,
1.45833,0,0,-0.245468,0,-0.000380164,
1.5,0,0,-0.246713,0,-0.000464766,
1.54167,0,0,-0.247879,0,-0.000548069,
1.58333,0,0,-0.248946,0,-0.00062935,
1.625,0,0,-0.2499,0,-0.000708317,
1.66667,0,0,-0.250729,0,-0.000784888,
1.70833,0,0,-0.251423,0,-0.000859045,
1.75,0,0,-0.251975,0,-0.000930761,
1.79167,0,0,-0.252376,0,-0.000999979,
1.83333,0,0,-0.252621,0,-0.00106661,
1.875,0,0,-0.252705,0,-0.00113055,
1.91667,0,0,-0.252624,0,-0.00119166,
1.95833,0,0,-0.252375,0,-0.00124985,
2,0,0,-0.251957,0,-0.00130499,
2.04167,0,0,-0.25137,0,-0.001357,
2.08333,0,0,-0.250617,0,-0.00140583,
2.125,0,0,-0.249698,0,-0.00145146,
2.16667,0,0,-0.248618,0,-0.00149389,
2.20833,0,0,-0.24738,0,-0.00153314,
2.25,0,0,-0.245989,0,-0.00156927,
2.29167,0,0,-0.244451,0,-0.00160232,
2.33333,0,0,-0.24277,0,-0.00163235,
2.375,0,0,-0.240953,0,-0.00165945,
2.41667,0,0,-0.239005,0,-0.00168367,
2.45833,0,0,-0.236931,0,-0.0017051,
2.5,0,0,-0.234739,0,-0.0017238,
2.54167,0,0,-0.232434,0,-0.00173986,
2.58333,0,0,-0.230023,0,-0.00175336,
2.625,0,0,-0.227511,0,-0.00176439,
2.66667,0,0,-0.224905,0,-0.00177306,
2.70833,0,0,-0.22221,0,-0.00177947,
2.75,0,0,-0.219434,0,-0.00178369,
2.79167,0,0,-0.216581,0,-0.00178583,
2.83333,0,0,-0.213658,0,-0.00178595,
2.875,0,0,-0.210671,0,-0.00178413,
2.91667,0,0,-0.207624,0,-0.00178047,
2.95833,0,0,-0.204525,0,-0.00177505,
3,0,0,-0.201378,0,-0.00176796,
3.04167,0,0,-0.198188,0,-0.00175928,
3.08333,0,0,-0.19496,0,-0.00174911,
3.125,0,0,-0.1917,0,-0.00173751,
3.16667,0,0,-0.188411,0,-0.00172458,
3.20833,0,0,-0.185097,0,-0.00171038,
3.25,0,0,-0.181763,0,-0.00169499,
3.29167,0,0,-0.178413,0,-0.00167847,
3.33333,0,0,-0.17505,0,-0.0016609,
3.375,0,0,-0.171678,0,-0.00164233,
3.41667,0,0,-0.168299,0,-0.00162282,
3.45833,0,0,-0.164916,0,-0.00160242,
3.5,0,0,-0.161533,0,-0.00158118,
3.54167,0,0,-0.158151,0,-0.00155914,
3.58333,0,0,-0.154773,0,-0.00153636,
3.625,0,0,-0.151402,0,-0.00151288,
3.66667,0,0,-0.148039,0,-0.00148875,
3.70833,0,0,-0.144685,0,-0.00146401,
3.75,0,0,-0.141343,0,-0.00143869,
3.79167,0,0,-0.138013,0,-0.00141283,
3.83333,0,0,-0.134698,0,-0.00138643,
3.875,0,0,-0.131397,0,-0.00135955,
3.91667,0,0,-0.128112,0,-0.00133219,
3.95833,0,0,-0.124844,0,-0.00130438,
4,0,0,-0.121593,0,-0.00127613,
4.04167,0,0,-0.118359,0,-0.00124747,
4.08333,0,0,-0.115144,0,-0.00121841,
4.125,0,0,-0.111947,0,-0.00118894,
4.16667,0,0,-0.108768,0,-0.00115908,
4.20833,0,0,-0.105609,0,-0.00112883,
4.25,0,0,-0.102469,0,-0.00109819,
4.29167,0,0,-0.0993488,0,-0.00106716,
4.33333,0,0,-0.0962481,0,-0.00103575,
4.375,0,0,-0.0931671,0,-0.00100396,
4.41667,0,0,-0.090106,0,-0.000971776,
4.45833,0,0,-0.0870651,0,-0.000939204,
4.5,0,0,-0.0840443,0,-0.000906238,
4.54167,0,0,-0.0810439,0,-0.000872876,
4.58333,0,0,-0.0780641,0,-0.000839117,
4.625,0,0,-0.0751049,0,-0.000804962,
4.66667,0,0,-0.0721665,0,-0.000770412,
4.70833,0,0,-0.0692491,0,-0.000735469,
4.75,0,0,-0.0663527,0,-0.00070013,
4.79167,0,0,-0.0634773,0,-0.000664386,
4.83333,0,0,-0.0606233,0,-0.000628224,
4.875,0,0,-0.0577907,0,-0.000591625,
4.91667,0,0,-0.0549802,0,-0.000554568,
4.95833,0,0,-0.0521922,0,-0.00051703,
5,0,0,-0.0494276,0,-0.000478987,
5.04167,0,0,-0.0466875,0,-0.000440417,
5.08333,0,0,-0.0439732,0,-0.000401302,
5.125,0,0,-0.0412866,0,-0.000361629,
5.16667,0,0,-0.03863,0,-0.000321405,
5.20833,0,0,-0.0360064,0,-0.000280672,
5.25,0,0,-0.0334194,0,-0.000239535,
5.29167,0,0,-0.0308732,0,-0.000198171,
5.33333,0,0,-0.0283699,0,-0.000156776,
5.375,0,0,-0.0259099,0,-0.000115467,
5.41667,0,0,-0.0234925,0,-7.42542e-05,
5.45833,0,0,-0.0211174,0,-3.30915e-05,
5.5,0,0,-0.0187846,0,8.06798e-06,
5.54167,0,0,-0.0164947,0,4.92461e-05,
5.58333,0,0,-0.0142484,0,9.04497e-05,
5.625,0,0,-0.0120467,0,0.000131675,
5.66667,0,0,-0.0098905,0,0.000172911,
5.70833,0,0,-0.00778111,0,0.000214138,
5.75,0,0,-0.00571975,0,0.000255332,
5.79167,0,0,-0.0037077,0,0.000296464,
5.83333,0,0,-0.00174631,0,0.000337501,
5.875,0,0,0.000163109,0,0.000378402,
5.91667,0,0,0.0020193,0,0.000419127,
5.95833,0,0,0.00382105,0,0.000459631,
6,0,0,0.00556719,0,0.000499865,
6.04167,0,0,0.00725669,0,0.000539782,
6.08333,0,0,0.00888857,0,0.000579332,
6.125,0,0,0.010462,0,0.000618466,
6.16667,0,0,0.0119762,0,0.000657133,
6.20833,0,0,0.0134306,0,0.000695285,
6.25,0,0,0.0148246,0,0.000732876,
6.29167,0,0,0.016158,0,0.000769862,
6.33333,0,0,0.0174304,0,0.000806199,
6.375,0,0,0.0186417,0,0.00084185,
6.41667,0,0,0.0197918,0,0.000876776,
6.45833,0,0,0.0208806,0,0.000910945,
6.5,0,0,0.0219085,0,0.000944323,
6.54167,0,0,0.0228754,0,0.000976882,
6.58333,0,0,0.0237818,0,0.00100859,
6.625,0,0,0.0246282,0,0.00103943,
6.66667,0,0,0.0254148,0,0.00106938,
6.70833,0,0,0.0261423,0,0.00109841,
6.75,0,0,0.0268113,0,0.00112651,
6.79167,0,0,0.0274223,0,0.00115367,
6.83333,0,0,0.027976,0,0.00117987,
6.875,0,0,0.028473,0,0.0012051,
6.91667,0,0,0.0289142,0,0.00122935,
6.95833,0,0,0.0293002,0,0.00125262,
7,0,0,0.029632,0,0.00127489,
7.04167,0,0,0.0299105,0,0.00129616,
7.08333,0,0,0.0301363,0,0.00131641,
7.125,0,0,0.0303101,0,0.00133564,
7.16667,0,0,0.0304329,0,0.00135381,
7.20833,0,0,0.0305052,0,0.00137094,
7.25,0,0,0.0305279,0,0.001387,
7.29167,0,0,0.0305018,0,0.001402,
7.33333,0,0,0.0304277,0,0.00141595,
7.375,0,0,0.0303064,0,0.00142884,
7.41667,0,0,0.0301386,0,0.00144069,
7.45833,0,0,0.0299249,0,0.0014515,
7.5,0,0,0.0296662,0,0.00146128,
7.54167,0,0,0.0293629,0,0.00147003,
7.58333,0,0,0.0290156,0,0.00147776,
7.625,0,0,0.028625,0,0.00148448,
7.66667,0,0,0.0281914,0,0.0014902,
7.70833,0,0,0.0277153,0,0.00149494,
7.75,0,0,0.0271973,0,0.00149872,
7.79167,0,0,0.0266377,0,0.00150155,
7.83333,0,0,0.0260362,0,0.00150344,
7.875,0,0,0.0253929,0,0.00150447,
7.91667,0,0,0.0247208,0,0.00150538,
7.95833,0,0,0.023936,0,0.00150429,
8,0,0,0.023239,0,0.00150263,
8.04171,0,0,0.0225441,0,0.00150126,
8.08368,0,0,0.0216719,0,0.00149885,
8.12617,0,0,0.0208087,0,0.00149354,
8.16946,0,0,0.0198892,0,0.0014873,
8.21382,0,0,0.0189006,0,0.00148001,
8.25952,0,0,0.0178439,0,0.00147161,
8.30685,0,0,0.0167098,0,0.00146221,
8.35611,0,0,0.0154888,0,0.00145186,
8.40762,0,0,0.0141711,0,0.00144058,
8.46168,0,0,0.0127464,0,0.00142843,
8.51865,0,0,0.0112033,0,0.00141548,
8.57889,0,0,0.00953056,0,0.00140186,
8.64276,0,0,0.00771656,0,0.00138774,
8.71067,0,0,0.00574983,0,0.00137333,
8.78306,0,0,0.00361899,0,0.0013589,
8.86037,0,0,0.00131245,0,0.00134476,
8.94309,0,0,-0.00118213,0,0.00133117,
9.03174,0,0,-0.00387899,0,0.00131834,
9.12689,0,0,-0.00679633,0,0.00130627,
9.22912,0,0,-0.00995567,0,0.00129463,
9.33908,0,0,-0.0133735,0,0.00128274,
9.45746,0,0,-0.0170444,0,0.00126963,
9.58501,0,0,-0.0209043,0,0.00125437,
9.72253,0,0,-0.0247716,0,0.00123686,
9.87088,0,0,-0.0282952,0,0.00121884,
10.031,0,0,-0.0309552,0,0.00120464,
10.2039,0,0,-0.0321414,0,0.0012009,
10.3906,0,0,-0.0312823,0,0.00121528,
10.5924,0,0,-0.027994,0,0.0012546,
10.8105,0,0,-0.0222406,0,0.00132261,
11.0463,0,0,-0.0144349,0,0.00141807,
11.3012,0,0,-0.00541402,0,0.00153422,
11.5769,0,0,0.00374898,0,0.00166019,
11.8751,0,0,0.0120455,0,0.001784,
12.1977,0,0,0.0187775,0,0.00189575,
12.5466,0,0,0.0236247,0,0.00198926,
12.9242,0,0,0.0265725,0,0.00206208,
13.3327,0,0,0.0278028,0,0.00211456,
13.7748,0,0,0.0276041,0,0.00214907,
14.2532,0,0,0.0263231,0,0.00216956,
14.7709,0,0,0.0243277,0,0.00218087,
15.3312,0,0,0.0219675,0,0.00218632,
15.9377,0,0,0.0195295,0,0.0021889,
16.594,0,0,0.017211,0,0.00219115,
17.3044,0,0,0.015129,0,0.00219459,
18.0733,0,0,0.0133493,0,0.00219935,
18.9056,0,0,0.0119046,0,0.00220457,
19.8064,0,0,0.0107787,0,0.00220942,
20.7816,0,0,0.00990339,0,0.00221355,
21.8371,0,0,0.00919535,0,0.00221681,
22.9796,0,0,0.00859574,0,0.00221918,
24.2163,0,0,0.00807477,0,0.00222194,
25.5551,0,0,0.00760738,0,0.00222595,
27.0042,0,0,0.007163,0,0.00223137,
28.5729,0,0,0.00671464,0,0.00223831,
30.271,0,0,0.00624235,0,0.0022475,
32.1091,0,0,0.00573082,0,0.00225788,
34.0989,0,0,0.00516682,0,0.00226894,
36.2529,0,0,0.00453238,0,0.00227973,
38.5845,0,0,0.00381728,0,0.00228893,
41.1085,0,0,0.0030547,0,0.00229769,
43.8407,0,0,0.00208224,0,0.00230521,
46.7983,0,0,0.00108275,0,0.00231211,
50,0,0,0.00214566,0,0.00232941,

