f484428de4d456f65bad715de83c2f55013ae0dd 
X,Z,x_velocity,cp,uw_b,cf,
1,0,0,-0.238754,0,0,
1,9,0,-0.126472,0,0,
1,1.01284,0.482894,-0.231182,-0.00981084,0,
1,0.000308731,0.000508292,-0.238753,-1.25188e-14,0,
1,0.000654158,0.00105592,-0.238754,-5.46281e-13,0,
1,0.00104139,0.00164356,-0.238753,-6.94317e-12,0,
1,0.00147619,0.00227005,-0.238753,-4.67941e-11,0,
1,0.00196502,0.00293183,-0.238753,-2.17092e-10,0,
1,0.00251518,0.00362224,-0.238753,-7.87429e-10,0,
1,0.0031349,0.00433,-0.238752,-2.38821e-09,0,
1,0.00383341,0.00503776,-0.238753,-6.27107e-09,0,
1,0.00462115,0.00571953,-0.238752,-1.44249e-08,0,
1,0.00550983,0.00633771,-0.238752,-2.86297e-08,0,
1,0.00651264,0.00683863,-0.238751,-4.54477e-08,0,
1,0.00764438,0.00714762,-0.238751,-3.86892e-08,0,
1,0.00892169,0.00716364,-0.23875,9.10112e-08,0,
1,0.0103632,0.0067592,-0.238749,6.35825e-07,0,
1,0.0119898,0.00579366,-0.238748,2.29e-06,0,
1,0.0138248,0.00415121,-0.238745,6.31806e-06,0,
1,0.0158944,0.00179137,-0.238741,1.42687e-05,0,
1,0.0182274,-0.00123058,-0.238735,2.70599e-05,0,
1,0.0208562,-0.0048034,-0.238726,4.43559e-05,0,
1,0.0238164,-0.00882379,-0.238714,6.47794e-05,0,
1,0.0271475,-0.0132285,-0.238697,8.70124e-05,0,
1,0.0308929,-0.0179867,-0.238677,0.000110074,0,
1,0.0351001,-0.0230799,-0.238653,0.000133177,0,
1,0.0398209,-0.0284821,-0.238626,0.000155528,0,
1,0.0451115,-0.0341472,-0.238596,0.00017622,0,
1,0.0510323,-0.0400017,-0.238566,0.000194202,0,
1,0.057648,-0.0459418,-0.238537,0.00020831,0,
1,0.0650269,-0.0518379,-0.238511,0.000217351,0,
1,0.0732406,-0.0575419,-0.238492,0.000220226,0,
1,0.0823632,-0.0629005,-0.238482,0.000216084,0,
1,0.0924701,-0.0677696,-0.238485,0.000204462,0,
1,0.103636,-0.0720272,-0.238506,0.000185373,0,
1,0.115935,-0.0755829,-0.238548,0.000159327,0,
1,0.129436,-0.0783827,-0.238613,0.000127168,0,
1,0.144202,-0.0804067,-0.238704,8.994e-05,0,
1,0.160284,-0.0816635,-0.23882,4.87047e-05,0,
1,0.177724,-0.0821811,-0.238963,4.39537e-06,0,
1,0.196544,-0.0819988,-0.239129,-4.22493e-05,0,
1,0.21675,-0.0811603,-0.239318,-9.06667e-05,0,
1,0.238323,-0.07971,-0.239525,-0.0001404,0,
1,0.26122,-0.0776914,-0.239747,-0.000191012,0,
1,0.28537,-0.0751465,-0.239978,-0.000242023,0,
1,0.310673,-0.0721172,-0.240214,-0.000292879,0,
1,0.337003,-0.068646,-0.24045,-0.000342939,0,
1,0.364206,-0.0647772,-0.240678,-0.000391471,0,
1,0.392107,-0.0605575,-0.240895,-0.000437689,0,
1,0.420509,-0.0560361,-0.241094,-0.000480778,0,
1,0.449206,-0.0512645,-0.241273,-0.000519953,0,
1,0.477982,-0.0462942,-0.241427,-0.000554513,0,
1,0.506624,-0.0411737,-0.241554,-0.000584007,0,
1,0.534925,-0.0359416,-0.241653,-0.000608458,0,
1,0.562692,-0.0306153,-0.241725,-0.000628986,0,
1,0.589754,-0.0251701,-0.241765,-0.000647981,0,
1,0.615961,-0.0195183,-0.241773,-0.000667372,0,
1,0.641193,-0.0135315,-0.241738,-0.000704941,0,
1,0.665359,-0.00703389,-0.241649,-0.000767479,0,
1,0.688396,0.000268793,-0.241502,-0.000869752,0,
1,0.710271,0.00878998,-0.241294,-0.00103197,0,
1,0.730976,0.0190036,-0.241031,-0.0012754,0,
1,0.750529,0.031325,-0.240724,-0.00161858,0,
1,0.768969,0.0459477,-0.240385,-0.0020713,0,
1,0.78635,0.0627445,-0.240029,-0.00262869,0,
1,0.802743,0.081329,-0.239663,-0.00326822,0,
1,0.818232,0.101214,-0.239297,-0.003958,0,
1,0.832689,0.121662,-0.238929,-0.00466461,0,
1,0.846039,0.142016,-0.238569,-0.00535482,0,
1,0.858357,0.161925,-0.238216,-0.00600716,0,
1,0.869723,0.181153,-0.23787,-0.00661107,0,
1,0.880212,0.199553,-0.237534,-0.00716075,0,
1,0.889898,0.217038,-0.237207,-0.00765445,0,
1,0.898852,0.233567,-0.23689,-0.00809425,0,
1,0.907141,0.249142,-0.236583,-0.0084825,0,
1,0.914826,0.263801,-0.236287,-0.00882078,0,
1,0.921966,0.277614,-0.235998,-0.00911403,0,
1,0.928616,0.290661,-0.235717,-0.00936538,0,
1,0.934823,0.303027,-0.235442,-0.00958081,0,
1,0.940633,0.314784,-0.235175,-0.00976499,0,
1,0.946088,0.325998,-0.234916,-0.00992111,0,
1,0.951224,0.336728,-0.234664,-0.010052,0,
1,0.956076,0.347027,-0.234419,-0.01016,0,
1,0.960675,0.356942,-0.234182,-0.0102472,0,
1,0.965047,0.366517,-0.233951,-0.0103156,0,
1,0.969219,0.375794,-0.233727,-0.0103666,0,
1,0.973211,0.384809,-0.233509,-0.0104016,0,
1,0.977045,0.393596,-0.233295,-0.0104217,0,
1,0.980739,0.402187,-0.233087,-0.0104279,0,
1,0.984308,0.410612,-0.232883,-0.0104207,0,
1,0.987768,0.418898,-0.232683,-0.0104008,0,
1,0.991131,0.427069,-0.232487,-0.0103687,0,
1,0.99441,0.435151,-0.232294,-0.0103245,0,
1,0.997615,0.443164,-0.232103,-0.0102685,0,
1,1.00076,0.451129,-0.231915,-0.0102008,0,
1,1.00384,0.459067,-0.231729,-0.0101212,0,
1,1.00688,0.466995,-0.231545,-0.0100297,0,
1,1.00988,0.474931,-0.231362,-0.00992614,0,
1,1.01581,0.490987,-0.231,-0.00968089,0,
1,1.01882,0.499324,-0.230815,-0.00953261,0,
1,1.02188,0.507933,-0.230627,-0.00936492,0,
1,1.025,0.516843,-0.230436,-0.00917592,0,
1,1.02818,0.526084,-0.230243,-0.00896409,0,
1,1.03144,0.53568,-0.230048,-0.00872841,0,
1,1.03478,0.545657,-0.229852,-0.0084654,0,
1,1.03822,0.556038,-0.229653,-0.00817252,0,
1,1.04177,0.566845,-0.229453,-0.00784713,0,
1,1.04544,0.578099,-0.229251,-0.00748653,0,
1,1.04925,0.589811,-0.229048,-0.00708815,0,
1,1.05321,0.601982,-0.228843,-0.00664996,0,
1,1.05735,0.614593,-0.228639,-0.00617088,0,
1,1.06169,0.627596,-0.228437,-0.00565175,0,
1,1.06626,0.640898,-0.228237,-0.00509664,0,
1,1.07108,0.654348,-0.228042,-0.00451448,0,
1,1.07618,0.667722,-0.227854,-0.00392091,0,
1,1.0816,0.680723,-0.227677,-0.00333901,0,
1,1.08738,0.69301,-0.227514,-0.00279737,0,
1,1.09357,0.704273,-0.227366,-0.00232405,0,
1,1.10022,0.714327,-0.227234,-0.00193855,0,
1,1.10739,0.723177,-0.227114,-0.00164673,0,
1,1.11514,0.731003,-0.227,-0.0014416,0,
1,1.12354,0.73808,-0.226885,-0.00130797,0,
1,1.13268,0.744688,-0.226762,-0.00122776,0,
1,1.14266,0.751062,-0.226622,-0.00118381,0,
1,1.15357,0.757379,-0.226461,-0.00116196,0,
1,1.16554,0.763761,-0.226274,-0.00115178,0,
1,1.1787,0.770281,-0.226057,-0.00114672,0,
1,1.1932,0.776988,-0.225807,-0.00114224,0,
1,1.2092,0.783907,-0.225518,-0.00113645,0,
1,1.22689,0.791055,-0.225185,-0.00112823,0,
1,1.24659,0.798478,-0.224798,-0.0011168,0,
1,1.26879,0.806263,-0.224345,-0.00110324,0,
1,1.29378,0.814411,-0.223815,-0.00108766,0,
1,1.3219,0.822924,-0.223194,-0.00106974,0,
1,1.35351,0.83181,-0.222468,-0.00104993,0,
1,1.389,0.841088,-0.221623,-0.00102937,0,
1,1.42882,0.850806,-0.220619,-0.000991495,0,
1,1.47342,0.861016,-0.21945,-0.000947778,0,
1,1.52332,0.871769,-0.218114,-0.000902659,0,
1,1.57905,0.883157,-0.216582,-0.000853781,0,
1,1.64119,0.895315,-0.214833,-0.000799467,0,
1,1.71033,0.908396,-0.212845,-0.000737482,0,
1,1.78711,0.922542,-0.210597,-0.000665416,0,
1,1.87215,0.937803,-0.208069,-0.000581852,0,
1,1.9661,0.954013,-0.205245,-0.000487144,0,
1,2.06959,0.970623,-0.202097,-0.000386043,0,
1,2.18321,0.986642,-0.198662,-0.000274532,0,
1,2.30752,1.00076,-0.194978,-0.000140949,0,
1,2.44299,1.0114,-0.191034,-4.6809e-05,0,
1,2.59002,1.01714,-0.186899,-4.13791e-06,0,
1,2.74885,1.01786,-0.182665,1.1948e-06,0,
1,2.91959,1.01537,-0.178404,1.05945e-07,0,
1,3.10217,1.01214,-0.17418,5.68346e-08,0,
1,3.2963,1.00952,-0.17004,4.48007e-08,0,
1,3.50146,1.00765,-0.166016,3.5835e-08,0,
1,3.7169,1.00614,-0.162142,3.12623e-08,0,
1,3.94163,1.0047,-0.158448,2.89341e-08,0,
1,4.17441,1.00326,-0.154963,2.69096e-08,0,
1,4.41376,1.00187,-0.151705,2.46498e-08,0,
1,4.65805,1.00058,-0.148689,2.23148e-08,0,
1,4.90545,0.999407,-0.145919,2.01314e-08,0,
1,5.15407,0.998345,-0.143396,1.81652e-08,0,
1,5.40194,0.997392,-0.141117,1.64275e-08,0,
1,5.64716,0.996537,-0.139073,1.49993e-08,0,
1,5.88785,0.995753,-0.137252,1.39783e-08,0,
1,6.12229,0.995005,-0.13564,1.31298e-08,0,
1,6.34896,0.994324,-0.134221,1.16099e-08,0,
1,6.56652,0.993904,-0.13298,8.87782e-09,0,
1,6.77388,0.994044,-0.131898,1.11585e-09,0,
1,6.97022,0.994697,-0.130959,7.11632e-09,0,
1,7.15495,0.994709,-0.130143,1.75512e-06,0,
1,7.32773,0.991592,-0.12944,1.83381e-05,0,
1,7.48842,0.982783,-0.128842,7.72028e-05,0,
1,7.63711,0.967769,-0.128354,0.000209039,0,
1,7.77403,0.948542,-0.12794,0.000393117,0,
1,7.89956,0.927457,-0.12759,0.000548147,0,
1,8.01417,0.906164,-0.127325,0.000702105,0,
1,8.11843,0.885869,-0.127101,0.00083487,0,
1,8.21296,0.867055,-0.126929,0.0009418,0,
1,8.29839,0.849696,-0.126792,0.00102549,0,
1,8.3754,0.833531,-0.126687,0.00109051,0,
1,8.44464,0.818249,-0.126608,0.00114168,0,
1,8.50675,0.803589,-0.12655,0.00118372,0,
1,8.56236,0.789358,-0.126507,0.00121941,0,
1,8.61206,0.775402,-0.126476,0.00124703,0,
1,8.6564,0.761617,-0.126455,0.00127201,0,
1,8.69591,0.747954,-0.126441,0.00129391,0,
1,8.73107,0.734386,-0.126432,0.00131241,0,
1,8.76232,0.720888,-0.126426,0.00132777,0,
1,8.79007,0.707441,-0.126424,0.00134027,0,
1,8.81469,0.694027,-0.126424,0.00135014,0,
1,8.83651,0.680628,-0.126426,0.00135757,0,
1,8.85584,0.667229,-0.126428,0.00136274,0,
1,8.87295,0.653814,-0.126431,0.00136577,0,
1,8.8881,0.640365,-0.126435,0.0013668,0,
1,8.90149,0.626865,-0.126438,0.00136594,0,
1,8.91333,0.613292,-0.126442,0.00136326,0,
1,8.92379,0.599624,-0.126445,0.00135883,0,
1,8.93303,0.585833,-0.126449,0.00135269,0,
1,8.9412,0.57189,-0.126452,0.00134483,0,
1,8.9484,0.557758,-0.126455,0.00133522,0,
1,8.95476,0.543395,-0.126457,0.00132377,0,
1,8.96038,0.528754,-0.126459,0.00131033,0,
1,8.96533,0.513778,-0.126461,0.00129465,0,
1,8.9697,0.498401,-0.126463,0.0012764,0,
1,8.97356,0.482543,-0.126465,0.00125509,0,
1,8.97696,0.466111,-0.126466,0.00123005,0,
1,8.97996,0.448996,-0.126467,0.0012004,0,
1,8.98261,0.431065,-0.126468,0.00116493,0,
1,8.98494,0.41216,-0.126469,0.00112281,0,
1,8.98699,0.392063,-0.126469,0.00106944,0,
1,8.98881,0.370479,-0.12647,0.00100007,0,
1,8.99041,0.347101,-0.12647,0.000915069,0,
1,8.99182,0.321693,-0.126471,0.000811553,0,
1,8.99306,0.294076,-0.126471,0.000687758,0,
1,8.99416,0.264038,-0.126471,0.000528578,0,
1,8.99512,0.231534,-0.126471,0.000348865,0,
1,8.99597,0.197407,-0.126472,0.000190813,0,
1,8.99672,0.163417,-0.126472,8.27172e-05,0,
1,8.99739,0.131347,-0.126472,2.8071e-05,0,
1,8.99797,0.102242,-0.126472,7.43676e-06,0,
1,8.99848,0.0763516,-0.126472,1.48952e-06,0,
1,8.99894,0.0534951,-0.126472,2.0325e-07,0,
1,8.99934,0.0333602,-0.126472,1.4735e-08,0,
1,8.99969,0.0156291,-0.126472,3.15237e-10,0,

4,0,0,-0.1078,0,0,
4,9,0,-0.0954411,0,0,
4,1.05136,0.674526,-0.115664,-0.00445006,0,
4,0.000303409,-0.00597543,-0.107805,9.68003e-11,0,
4,0.00062865,-0.012236,-0.107801,3.94468e-09,0,
4,0.000979511,-0.0188239,-0.107805,4.58714e-08,0,
4,0.00136016,-0.025775,-0.107802,2.83937e-07,0,
4,0.00177519,-0.0331152,-0.107806,1.22078e-06,0,
4,0.0022297,-0.0408458,-0.107804,4.13661e-06,0,
4,0.00272934,-0.0489121,-0.107806,1.17409e-05,0,
4,0.00328037,-0.0571441,-0.107805,2.85267e-05,0,
4,0.00388979,-0.0651866,-0.107808,5.90394e-05,0,
4,0.00456537,-0.0725136,-0.107808,0.000102418,0,
4,0.00531578,-0.0786393,-0.107814,0.000148146,0,
4,0.0061507,-0.0833836,-0.107819,0.000182247,0,
4,0.0070809,-0.0868835,-0.107829,0.000197809,0,
4,0.00811839,-0.0894065,-0.107842,0.000196006,0,
4,0.00927657,-0.0912033,-0.107861,0.000180805,0,
4,0.0105703,-0.0924619,-0.107883,0.000155558,0,
4,0.0120162,-0.0933116,-0.107912,0.000122319,0,
4,0.0136326,-0.0938388,-0.107947,8.21233e-05,0,
4,0.0154398,-0.0941005,-0.10799,3.53529e-05,0,
4,0.0174603,-0.0941346,-0.10804,-1.80222e-05,0,
4,0.0197189,-0.0939653,-0.108099,-7.82999e-05,0,
4,0.0222427,-0.0936081,-0.108169,-0.000145965,0,
4,0.0250617,-0.0930714,-0.108251,-0.000221644,0,
4,0.0282081,-0.0923592,-0.108346,-0.000306081,0,
4,0.0317171,-0.0914714,-0.108455,-0.000400122,0,
4,0.0356266,-0.0904051,-0.10858,-0.000504701,0,
4,0.039977,-0.0891548,-0.108723,-0.000620838,0,
4,0.0448114,-0.0877128,-0.108886,-0.000749622,0,
4,0.0501747,-0.0860697,-0.10907,-0.000892208,0,
4,0.056114,-0.084214,-0.109277,-0.0010498,0,
4,0.062677,-0.082133,-0.109508,-0.00122361,0,
4,0.0699123,-0.0798123,-0.109764,-0.00141489,0,
4,0.0778675,-0.0772361,-0.110046,-0.00162484,0,
4,0.0865883,-0.0743876,-0.110355,-0.0018546,0,
4,0.0961173,-0.071249,-0.110689,-0.00210521,0,
4,0.106492,-0.0678017,-0.111048,-0.00237754,0,
4,0.117744,-0.0640266,-0.111431,-0.00267225,0,
4,0.129894,-0.0599049,-0.111834,-0.00298974,0,
4,0.142956,-0.0554182,-0.112255,-0.00333007,0,
4,0.156928,-0.0505495,-0.11269,-0.00369293,0,
4,0.171798,-0.0452837,-0.113136,-0.00407758,0,
4,0.187537,-0.0396088,-0.113586,-0.00448285,0,
4,0.2041,-0.0335166,-0.114037,-0.00490713,0,
4,0.221432,-0.0270037,-0.114484,-0.00534844,0,
4,0.239458,-0.0200718,-0.114922,-0.00580451,0,
4,0.258095,-0.0127277,-0.115348,-0.00627261,0,
4,0.27725,-0.00498156,-0.115759,-0.00674911,0,
4,0.296825,0.00315275,-0.116152,-0.00722998,0,
4,0.316717,0.0116564,-0.116526,-0.00771258,0,
4,0.336828,0.0205038,-0.116879,-0.00819468,0,
4,0.357066,0.0296647,-0.117211,-0.00867382,0,
4,0.377348,0.0391082,-0.117521,-0.00915022,0,
4,0.397605,0.0488118,-0.117793,-0.00961896,0,
4,0.417786,0.0587678,-0.118113,-0.0100984,0,
4,0.437857,0.069022,-0.118184,-0.0107381,0,
4,0.457804,0.0799917,-0.117619,-0.0109373,0,
4,0.477632,0.0922595,-0.116774,-0.0111315,0,
4,0.497368,0.106025,-0.116151,-0.011322,0,
4,0.517057,0.121185,-0.115781,-0.0114929,0,
4,0.536763,0.137492,-0.115608,-0.0116319,0,
4,0.556564,0.154716,-0.11555,-0.0117317,0,
4,0.576557,0.172744,-0.115537,-0.0117886,0,
4,0.596848,0.191599,-0.115529,-0.011801,0,
4,0.617561,0.211403,-0.115509,-0.0117668,0,
4,0.637962,0.231525,-0.115473,-0.0116871,0,
4,0.657495,0.25145,-0.115431,-0.0115668,0,
4,0.676218,0.271209,-0.115392,-0.0114095,0,
4,0.694189,0.290804,-0.11536,-0.0112182,0,
4,0.711463,0.310224,-0.115337,-0.0109961,0,
4,0.728096,0.329443,-0.115321,-0.010747,0,
4,0.744138,0.348428,-0.115313,-0.0104754,0,
4,0.759639,0.367132,-0.115309,-0.0101867,0,
4,0.774643,0.385497,-0.115311,-0.00988703,0,
4,0.789195,0.40346,-0.115315,-0.00958124,0,
4,0.803334,0.420964,-0.115321,-0.00927315,0,
4,0.817097,0.43796,-0.115328,-0.00896596,0,
4,0.830518,0.454414,-0.115335,-0.00866229,0,
4,0.843629,0.470303,-0.115342,-0.00836428,0,
4,0.856459,0.485616,-0.11535,-0.00807363,0,
4,0.869035,0.500346,-0.115358,-0.0077917,0,
4,0.881383,0.514494,-0.115367,-0.0075195,0,
4,0.893524,0.528069,-0.115379,-0.00725777,0,
4,0.905481,0.541084,-0.115394,-0.00700696,0,
4,0.917272,0.553564,-0.115413,-0.00676726,0,
4,0.928915,0.565534,-0.115437,-0.00653865,0,
4,0.940428,0.577024,-0.115464,-0.00632246,0,
4,0.951826,0.588067,-0.115492,-0.00611798,0,
4,0.963124,0.598695,-0.115522,-0.00592435,0,
4,0.974334,0.608946,-0.115552,-0.00574067,0,
4,0.98547,0.618858,-0.115582,-0.00556586,0,
4,0.996544,0.628477,-0.115611,-0.00539863,0,
4,1.00757,0.637862,-0.115635,-0.00523715,0,
4,1.01855,0.647106,-0.115648,-0.00505426,0,
4,1.0295,0.656293,-0.115655,-0.00485927,0,
4,1.04044,0.66544,-0.11566,-0.00466078,0,
4,1.0623,0.683541,-0.115667,-0.00422796,0,
4,1.07328,0.69247,-0.115669,-0.00399584,0,
4,1.08432,0.70128,-0.115668,-0.00375565,0,
4,1.09543,0.709932,-0.115667,-0.00350967,0,
4,1.10661,0.718385,-0.115663,-0.00326069,0,
4,1.11788,0.726594,-0.115658,-0.00301186,0,
4,1.12925,0.734513,-0.115651,-0.00276671,0,
4,1.14073,0.742097,-0.115642,-0.00252899,0,
4,1.15233,0.749306,-0.11563,-0.00230244,0,
4,1.16408,0.756108,-0.115616,-0.00209059,0,
4,1.17599,0.762482,-0.115599,-0.00189644,0,
4,1.18806,0.768421,-0.11558,-0.00172222,0,
4,1.20034,0.773936,-0.115558,-0.00156923,0,
4,1.21282,0.779052,-0.115534,-0.00143778,0,
4,1.22554,0.783806,-0.115507,-0.00132724,0,
4,1.23852,0.788244,-0.115478,-0.00123622,0,
4,1.25179,0.792417,-0.115447,-0.0011628,0,
4,1.26537,0.796376,-0.115414,-0.00110472,0,
4,1.2793,0.800172,-0.11538,-0.00105961,0,
4,1.29362,0.803849,-0.115344,-0.00102517,0,
4,1.30836,0.80745,-0.115305,-0.000999206,0,
4,1.32357,0.811011,-0.115265,-0.000979762,0,
4,1.3393,0.814565,-0.115223,-0.000965111,0,
4,1.3556,0.81814,-0.115179,-0.000953784,0,
4,1.37252,0.821761,-0.115132,-0.000944564,0,
4,1.39015,0.82545,-0.115084,-0.000936528,0,
4,1.40855,0.829229,-0.115027,-0.000931875,0,
4,1.42781,0.83314,-0.114977,-0.000920827,0,
4,1.44801,0.837253,-0.114936,-0.000902393,0,
4,1.46926,0.841608,-0.114886,-0.000883603,0,
4,1.49167,0.846204,-0.114828,-0.000864283,0,
4,1.51537,0.851036,-0.114762,-0.000844182,0,
4,1.54091,0.856188,-0.114685,-0.000823219,0,
4,1.56949,0.861867,-0.114596,-0.000800738,0,
4,1.60144,0.868134,-0.11449,-0.000775849,0,
4,1.63713,0.875032,-0.114366,-0.000748037,0,
4,1.67693,0.882589,-0.11422,-0.000716864,0,
4,1.72128,0.89082,-0.114049,-0.00068208,0,
4,1.77062,0.899715,-0.113846,-0.000643574,0,
4,1.82542,0.909227,-0.113612,-0.000601252,0,
4,1.88618,0.919279,-0.113331,-0.000554871,0,
4,1.95343,0.929807,-0.113021,-0.000486114,0,
4,2.02768,0.940685,-0.112674,-0.000403249,0,
4,2.10949,0.951564,-0.112273,-0.000313253,0,
4,2.19939,0.961879,-0.111821,-0.000222207,0,
4,2.29789,0.970963,-0.111313,-0.000139072,0,
4,2.40551,0.97814,-0.110751,-7.21769e-05,0,
4,2.52268,0.982867,-0.110137,-2.70061e-05,0,
4,2.64979,0.984962,-0.109478,-4.04521e-06,0,
4,2.78715,0.9848,-0.108778,2.32771e-06,0,
4,2.93497,0.983306,-0.108045,1.49839e-06,0,
4,3.09333,0.981602,-0.107286,3.03488e-07,0,
4,3.26217,0.980467,-0.106511,2.80057e-08,0,
4,3.44125,0.980046,-0.10573,4.89951e-09,0,
4,3.63018,0.980043,-0.104952,1.70226e-09,0,
4,3.82836,0.980108,-0.104183,1.86819e-09,0,
4,4.03501,0.980063,-0.103431,2.9691e-09,0,
4,4.24915,0.979906,-0.102701,3.67624e-09,0,
4,4.46961,0.979702,-0.101999,3.75837e-09,0,
4,4.69507,0.979505,-0.101331,3.49315e-09,0,
4,4.92406,0.979332,-0.100699,3.18392e-09,0,
4,5.15502,0.979177,-0.100106,2.96789e-09,0,
4,5.3863,0.979032,-0.0995542,2.90801e-09,0,
4,5.61626,0.978883,-0.0990442,3.11076e-09,0,
4,5.84328,0.978715,-0.0985762,3.8558e-09,0,
4,6.06579,0.978531,-0.0981498,5.72364e-09,0,
4,6.28238,0.978398,-0.0977636,6.7612e-09,0,
4,6.49173,0.978477,-0.0974158,-2.42131e-08,0,
4,6.69275,0.978934,-0.0971036,-2.11502e-07,0,
4,6.88453,0.979612,-0.0968231,-2.90486e-07,0,
4,7.06634,0.979574,-0.0965702,3.94272e-06,0,
4,7.23771,0.976985,-0.0963459,2.65727e-05,0,
4,7.39831,0.969805,-0.0961466,8.80799e-05,0,
4,7.54803,0.957091,-0.0959847,0.000202843,0,
4,7.68693,0.939665,-0.0958476,0.000345292,0,
4,7.81519,0.919364,-0.0957194,0.000483927,0,
4,7.93313,0.898128,-0.0956215,0.000630362,0,
4,8.04115,0.877512,-0.0955319,0.000766037,0,
4,8.13974,0.858288,-0.0954608,0.000880737,0,
4,8.22941,0.84058,-0.0954042,0.000973323,0,
4,8.31073,0.824177,-0.0953627,0.00104702,0,
4,8.38429,0.808762,-0.0953343,0.00110568,0,
4,8.45065,0.794036,-0.0953166,0.00115341,0,
4,8.5104,0.779771,-0.0953072,0.0011936,0,
4,8.56407,0.765811,-0.0953037,0.00122826,0,
4,8.61222,0.752057,-0.0953049,0.00125847,0,
4,8.65533,0.738443,-0.0953096,0.00128338,0,
4,8.69387,0.724933,-0.0953164,0.00130494,0,
4,8.7283,0.711512,-0.0953243,0.00132255,0,
4,8.75901,0.698169,-0.095333,0.00133643,0,
4,8.78637,0.684897,-0.0953421,0.00134686,0,
4,8.81074,0.671687,-0.0953512,0.00135407,0,
4,8.83242,0.658532,-0.0953601,0.00135829,0,
4,8.85169,0.645422,-0.0953686,0.00135977,0,
4,8.86881,0.632349,-0.0953767,0.00135872,0,
4,8.88402,0.619299,-0.0953842,0.00135538,0,
4,8.89751,0.606258,-0.0953912,0.00134997,0,
4,8.90949,0.593208,-0.0953975,0.00134269,0,
4,8.92011,0.580126,-0.0954033,0.00133372,0,
4,8.92952,0.566987,-0.0954084,0.00132321,0,
4,8.93787,0.55376,-0.095413,0.00131125,0,
4,8.94526,0.540411,-0.0954171,0.00129791,0,
4,8.95182,0.526899,-0.0954207,0.00128316,0,
4,8.95762,0.513178,-0.0954239,0.00126693,0,
4,8.96276,0.499196,-0.0954266,0.00124906,0,
4,8.96731,0.484891,-0.095429,0.00122931,0,
4,8.97134,0.470194,-0.0954311,0.00120729,0,
4,8.97491,0.455022,-0.0954328,0.00118248,0,
4,8.97807,0.43928,-0.0954343,0.0011542,0,
4,8.98087,0.422855,-0.0954356,0.00112148,0,
4,8.98334,0.405613,-0.0954366,0.00108307,0,
4,8.98553,0.387396,-0.0954376,0.00103789,0,
4,8.98747,0.367996,-0.0954382,0.000982017,0,
4,8.98919,0.347134,-0.0954389,0.000910466,0,
4,8.9907,0.324533,-0.0954393,0.000824247,0,
4,8.99205,0.299996,-0.0954398,0.000721245,0,
4,8.99324,0.273367,-0.09544,0.000597537,0,
4,8.99429,0.244443,-0.0954403,0.000439277,0,
4,8.99522,0.213412,-0.0954403,0.000280949,0,
4,8.99605,0.181379,-0.0954406,0.000148061,0,
4,8.99677,0.149954,-0.0954405,6.23699e-05,0,
4,8.99742,0.120577,-0.0954407,2.08723e-05,0,
4,8.99799,0.0939939,-0.0954406,5.52467e-06,0,
4,8.9985,0.0703216,-0.0954408,1.11412e-06,0,
4,8.99894,0.0493658,-0.0954406,1.53547e-07,0,
4,8.99934,0.0308443,-0.0954409,1.12462e-08,0,
4,8.99969,0.0144774,-0.0954406,2.42416e-10,0,

6,0,0,0.00610454,0,0,
6,9,0,-0.072398,0,0,
6,1.07704,0.704381,-0.00810263,-0.00260777,0,
6,0.000299862,0.00345693,0.00609909,-4.84045e-11,0,
6,0.000611645,0.00709906,0.0061034,-1.92772e-09,0,
6,0.000938257,0.0109669,0.00609915,-2.15356e-08,0,
6,0.00128281,0.0151039,0.00610239,-1.28081e-07,0,
6,0.00164864,0.0195564,0.006099,-5.32137e-07,0,
6,0.00203939,0.0243711,0.00610144,-1.76022e-06,0,
6,0.00245897,0.0295861,0.00609864,-4.96265e-06,0,
6,0.00291168,0.0352122,0.0061004,-1.2341e-05,0,
6,0.00340221,0.0411997,0.00609781,-2.73959e-05,0,
6,0.00393573,0.0473953,0.00609866,-5.4119e-05,0,
6,0.00451788,0.0535296,0.00609546,-9.42923e-05,0,
6,0.00515491,0.0592858,0.00609431,-0.000144568,0,
6,0.00585371,0.0644298,0.00608886,-0.000197509,0,
6,0.00662185,0.0688861,0.00608392,-0.0002465,0,
6,0.00746774,0.0727069,0.00607441,-0.000288879,0,
6,0.00840063,0.0760005,0.00606402,-0.00032518,0,
6,0.00943073,0.0788801,0.00604891,-0.000357179,0,
6,0.0105693,0.0814429,0.00603161,-0.000386709,0,
6,0.0118288,0.0837658,0.00600932,-0.000415272,0,
6,0.0132228,0.0859086,0.00598345,-0.000444032,0,
6,0.0147664,0.0879172,0.00595199,-0.000473901,0,
6,0.016476,0.0898277,0.00591546,-0.000505621,0,
6,0.0183694,0.0916688,0.00587232,-0.000539832,0,
6,0.0204662,0.0934638,0.00582242,-0.000577123,0,
6,0.0227875,0.0952322,0.00576449,-0.000618053,0,
6,0.0253561,0.0969909,0.0056979,-0.000663179,0,
6,0.0281964,0.0987546,0.00562145,-0.000713067,0,
6,0.0313344,0.100537,0.00553423,-0.000768298,0,
6,0.0347975,0.102349,0.00543503,-0.000829476,0,
6,0.0386145,0.104204,0.00532275,-0.000897228,0,
6,0.042815,0.106111,0.0051962,-0.000972201,0,
6,0.0474296,0.108082,0.00505427,-0.00105506,0,
6,0.0524888,0.110127,0.00489587,-0.00114648,0,
6,0.0580229,0.112255,0.00472002,-0.00124714,0,
6,0.0640611,0.114477,0.0045259,-0.00135771,0,
6,0.0706309,0.116801,0.00431291,-0.00147881,0,
6,0.077757,0.119237,0.0040807,-0.00161103,0,
6,0.0854609,0.121794,0.00382926,-0.00175491,0,
6,0.0937597,0.12448,0.00355894,-0.00191088,0,
6,0.102665,0.127302,0.00327046,-0.00207926,0,
6,0.112183,0.130267,0.002965,-0.00226026,0,
6,0.122315,0.133383,0.00264408,-0.00245394,0,
6,0.133052,0.136654,0.00230964,-0.0026602,0,
6,0.144384,0.140087,0.00196389,-0.00287881,0,
6,0.156292,0.143684,0.00160927,-0.00310937,0,
6,0.168754,0.147451,0.00124833,-0.00335135,0,
6,0.181744,0.15139,0.000883649,-0.00360412,0,
6,0.195237,0.155506,0.000517694,-0.003867,0,
6,0.209207,0.159804,0.000152741,-0.00413923,0,
6,0.223631,0.164289,-0.000209217,-0.00442012,0,
6,0.238493,0.16897,-0.000566525,-0.00470899,0,
6,0.253785,0.173856,-0.000917905,-0.00500528,0,
6,0.269507,0.178962,-0.00126246,-0.00530856,0,
6,0.28567,0.184306,-0.00159968,-0.00561853,0,
6,0.3023,0.189911,-0.00192938,-0.00593507,0,
6,0.319433,0.195807,-0.00225159,-0.00625821,0,
6,0.337122,0.20203,-0.0025671,-0.00658817,0,
6,0.355433,0.208624,-0.00287583,-0.00692676,0,
6,0.374445,0.215645,-0.00317332,-0.00727313,0,
6,0.394252,0.223166,-0.00345241,-0.00762714,0,
6,0.414961,0.231283,-0.00370443,-0.0079881,0,
6,0.436695,0.240117,-0.0039215,-0.00835163,0,
6,0.459585,0.249824,-0.00410577,-0.00871496,0,
6,0.48378,0.260587,-0.00423505,-0.00906231,0,
6,0.508144,0.272013,-0.00441801,-0.00941513,0,
6,0.531799,0.283789,-0.00436713,-0.00987511,0,
6,0.554791,0.296371,-0.00374694,-0.0098824,0,
6,0.577166,0.310358,-0.00295607,-0.00984996,0,
6,0.598964,0.325857,-0.00244307,-0.00979408,0,
6,0.620228,0.342573,-0.00219927,-0.00970314,0,
6,0.640996,0.360048,-0.00215426,-0.0095693,0,
6,0.661304,0.377874,-0.00222017,-0.00939002,0,
6,0.681188,0.39579,-0.00233295,-0.00916703,0,
6,0.700681,0.413674,-0.00245833,-0.00890471,0,
6,0.719813,0.431473,-0.00258594,-0.00860922,0,
6,0.738612,0.449147,-0.00271904,-0.00828747,0,
6,0.757107,0.466639,-0.00286474,-0.00794618,0,
6,0.775322,0.48387,-0.00302832,-0.00759162,0,
6,0.793282,0.500751,-0.00321153,-0.00722957,0,
6,0.811008,0.517198,-0.00341367,-0.00686527,0,
6,0.828521,0.533137,-0.00363238,-0.00650347,0,
6,0.845842,0.548501,-0.00386739,-0.00614977,0,
6,0.862989,0.563223,-0.00411714,-0.00581456,0,
6,0.879979,0.577261,-0.00437755,-0.00549618,0,
6,0.896829,0.590619,-0.00464674,-0.00519341,0,
6,0.913555,0.603336,-0.00492385,-0.00490531,0,
6,0.930172,0.615462,-0.0052089,-0.00463109,0,
6,0.946694,0.627046,-0.00550202,-0.00437,0,
6,0.963136,0.638128,-0.00580319,-0.00412133,0,
6,0.97951,0.648741,-0.00611214,-0.00388429,0,
6,0.99583,0.658913,-0.00642842,-0.00365792,0,
6,1.01211,0.668675,-0.00675144,-0.00344096,0,
6,1.02836,0.678066,-0.00708065,-0.0032317,0,
6,1.04459,0.687141,-0.00741513,-0.00301581,0,
6,1.06081,0.695922,-0.00775555,-0.00280916,0,
6,1.09329,0.712488,-0.00845603,-0.00241311,0,
6,1.10959,0.720218,-0.00881591,-0.00222773,0,
6,1.12595,0.727548,-0.00918202,-0.00205402,0,
6,1.14238,0.734464,-0.00955418,-0.00189401,0,
6,1.1589,0.740962,-0.00993216,-0.00174923,0,
6,1.17551,0.747053,-0.0103158,-0.00162056,0,
6,1.19223,0.752756,-0.0107049,-0.00150825,0,
6,1.20907,0.758102,-0.0110994,-0.0014119,0,
6,1.22605,0.763128,-0.0114993,-0.0013306,0,
6,1.24318,0.767875,-0.0119044,-0.00126302,0,
6,1.26048,0.772386,-0.012315,-0.00120759,0,
6,1.27797,0.776702,-0.0127307,-0.00116264,0,
6,1.29566,0.780863,-0.0131525,-0.00112643,0,
6,1.31357,0.784903,-0.0135788,-0.00109738,0,
6,1.33173,0.788854,-0.0140139,-0.00107394,0,
6,1.35015,0.792742,-0.0144489,-0.00105857,0,
6,1.36886,0.79662,-0.0148984,-0.00104674,0,
6,1.38788,0.800613,-0.0153697,-0.00101435,0,
6,1.40725,0.804817,-0.0158459,-0.000982917,0,
6,1.42698,0.809192,-0.0163274,-0.000955366,0,
6,1.44712,0.813646,-0.0168132,-0.000930901,0,
6,1.46769,0.81811,-0.0173066,-0.000908682,0,
6,1.48874,0.822567,-0.0178101,-0.000887408,0,
6,1.5103,0.827036,-0.0183259,-0.000866499,0,
6,1.53242,0.83155,-0.0188552,-0.000845307,0,
6,1.55515,0.836133,-0.0193989,-0.000823586,0,
6,1.57854,0.840801,-0.0199577,-0.000801313,0,
6,1.60265,0.845556,-0.0205326,-0.000778558,0,
6,1.62754,0.850399,-0.0211247,-0.000755345,0,
6,1.65329,0.855327,-0.0217351,-0.000731722,0,
6,1.67998,0.86034,-0.0223659,-0.000707631,0,
6,1.70768,0.865437,-0.023017,-0.000683109,0,
6,1.73712,0.870717,-0.0237092,-0.000658126,0,
6,1.76996,0.876411,-0.024474,-0.000631378,0,
6,1.80655,0.882546,-0.0253242,-0.000601945,0,
6,1.84728,0.889106,-0.0262584,-0.000569682,0,
6,1.89255,0.896097,-0.0272978,-0.000524525,0,
6,1.9428,0.903539,-0.028447,-0.000470154,0,
6,1.99849,0.911363,-0.0297018,-0.000409498,0,
6,2.06009,0.919384,-0.0310731,-0.000342675,0,
6,2.1281,0.927339,-0.0325608,-0.000272814,0,
6,2.20301,0.934904,-0.0341657,-0.00020421,0,
6,2.28535,0.941712,-0.0358832,-0.000141438,0,
6,2.37559,0.947399,-0.0377044,-8.86833e-05,0,
6,2.47424,0.95167,-0.0396154,-4.88684e-05,0,
6,2.58172,0.954386,-0.0415972,-2.28074e-05,0,
6,2.69844,0.955658,-0.0436274,-8.75973e-06,0,
6,2.82473,0.955876,-0.0456812,-2.9781e-06,0,
6,2.96084,0.955639,-0.0477345,-1.20204e-06,0,
6,3.10691,0.955549,-0.0497656,-5.86846e-07,0,
6,3.26296,0.955977,-0.0517562,-2.32983e-07,0,
6,3.42888,0.956945,-0.05369,-7.21678e-08,0,
6,3.60438,0.958215,-0.0555513,-3.26581e-08,0,
6,3.78902,0.959498,-0.0573245,-2.581e-08,0,
6,3.98218,0.960615,-0.0589954,-2.18297e-08,0,
6,4.18307,0.961534,-0.060553,-1.84339e-08,0,
6,4.39071,0.962307,-0.0619899,-1.59431e-08,0,
6,4.60398,0.962994,-0.0633022,-1.41165e-08,0,
6,4.82159,0.963627,-0.0644898,-1.26656e-08,0,
6,5.04218,0.964209,-0.0655552,-1.14766e-08,0,
6,5.26426,0.964729,-0.0665032,-1.07381e-08,0,
6,5.48633,0.965178,-0.0673406,-1.10752e-08,0,
6,5.70687,0.965547,-0.0680753,-1.40588e-08,0,
6,5.92439,0.965842,-0.0687158,-2.39968e-08,0,
6,6.1375,0.966109,-0.069271,-5.64825e-08,0,
6,6.34489,0.966461,-0.0697497,-1.75171e-07,0,
6,6.5454,0.967041,-0.0701602,-5.60268e-07,0,
6,6.73802,0.967838,-0.0705099,-1.21153e-06,0,
6,6.92195,0.968363,-0.0708061,2.36686e-07,0,
6,7.09653,0.967398,-0.0710547,1.29195e-05,0,
6,7.26132,0.963201,-0.0712653,5.31961e-05,0,
6,7.41603,0.954307,-0.0714397,0.000136728,0,
6,7.56054,0.940422,-0.0715893,0.000267803,0,
6,7.6949,0.922463,-0.0717106,0.000385609,0,
6,7.81927,0.902005,-0.0718041,0.000518051,0,
6,7.93391,0.880926,-0.0718786,0.000655254,0,
6,8.0392,0.860684,-0.0719309,0.000781022,0,
6,8.13555,0.841934,-0.0719734,0.000887671,0,
6,8.22344,0.824703,-0.0720076,0.000974705,0,
6,8.30339,0.808718,-0.0720397,0.00104519,0,
6,8.37592,0.793639,-0.07207,0.00110242,0,
6,8.44155,0.77917,-0.0720996,0.00114986,0,
6,8.50082,0.765095,-0.0721276,0.00119031,0,
6,8.55423,0.75128,-0.0721539,0.00122543,0,
6,8.60229,0.737649,-0.0721783,0.00125606,0,
6,8.64545,0.724166,-0.0722008,0.00128262,0,
6,8.68417,0.710815,-0.0722217,0.00130534,0,
6,8.71885,0.697576,-0.0722413,0.00132203,0,
6,8.74989,0.684433,-0.0722593,0.00133505,0,
6,8.77763,0.671384,-0.0722756,0.00134412,0,
6,8.80241,0.658426,-0.0722903,0.00134952,0,
6,8.82452,0.645558,-0.0723036,0.00135159,0,
6,8.84423,0.632773,-0.0723156,0.00135068,0,
6,8.86181,0.620062,-0.0723263,0.0013471,0,
6,8.87746,0.607416,-0.0723358,0.00134118,0,
6,8.89139,0.594818,-0.0723443,0.00133321,0,
6,8.90379,0.582251,-0.0723518,0.00132347,0,
6,8.91482,0.569694,-0.0723584,0.00131219,0,
6,8.92463,0.557121,-0.0723642,0.00129956,0,
6,8.93334,0.544502,-0.0723693,0.00128573,0,
6,8.94109,0.531805,-0.0723737,0.0012708,0,
6,8.94798,0.518991,-0.0723775,0.0012548,0,
6,8.95409,0.506018,-0.0723808,0.00123771,0,
6,8.95953,0.492837,-0.0723836,0.00121943,0,
6,8.96435,0.479395,-0.072386,0.00119977,0,
6,8.96863,0.465628,-0.0723881,0.00117845,0,
6,8.97244,0.451466,-0.0723898,0.00115507,0,
6,8.97581,0.436826,-0.0723913,0.00112908,0,
6,8.97881,0.421614,-0.0723925,0.00109977,0,
6,8.98147,0.405717,-0.0723936,0.00106614,0,
6,8.98383,0.389003,-0.0723944,0.00102696,0,
6,8.98593,0.371317,-0.0723952,0.000981077,0,
6,8.98779,0.352458,-0.0723957,0.000924493,0,
6,8.98944,0.332162,-0.0723963,0.000852997,0,
6,8.9909,0.310179,-0.0723966,0.000767613,0,
6,8.9922,0.286338,-0.072397,0.000666668,0,
6,8.99336,0.260479,-0.0723971,0.000542889,0,
6,8.99438,0.232446,-0.0723974,0.000391541,0,
6,8.99529,0.202555,-0.0723973,0.000244646,0,
6,8.99609,0.171949,-0.0723976,0.000126085,0,
6,8.99681,0.142143,-0.0723975,5.22999e-05,0,
6,8.99744,0.11439,-0.0723977,1.73974e-05,0,
6,8.99801,0.0892879,-0.0723975,4.61204e-06,0,
6,8.9985,0.0668999,-0.0723978,9.35415e-07,0,
6,8.99895,0.047034,-0.0723975,1.29863e-07,0,
6,8.99934,0.0294301,-0.0723979,9.5808e-09,0,
6,8.99969,0.0138329,-0.0723975,2.07622e-10,0,

10,0,0,-0.0113159,0,0,
10,0.000296632,0.00764045,-0.0113069,-4.20995e-11,0,
10,0.000596102,0.0153273,-0.0113151,-1.55549e-09,0,
10,0.000900397,0.0231123,-0.0113076,-1.57701e-08,0,
10,0.00121153,0.0310472,-0.0113144,-8.45283e-08,0,
10,0.00153158,0.0391834,-0.0113082,-3.15505e-07,0,
10,0.00186264,0.0475713,-0.0113138,-9.36615e-07,0,
10,0.00220692,0.056258,-0.0113087,-2.37585e-06,0,
10,0.00256668,0.0652832,-0.0113133,-5.36771e-06,0,
10,0.00294431,0.074673,-0.011309,-1.10693e-05,0,
10,0.00334229,0.0844292,-0.0113129,-2.11295e-05,0,
10,0.00376326,0.0945161,-0.0113093,-3.75977e-05,0,
10,0.00421,0.104848,-0.0113126,-6.25301e-05,0,
10,0.00468544,0.115282,-0.0113095,-9.72602e-05,0,
10,0.00519274,0.12563,-0.0113123,-0.000141597,0,
10,0.00573524,0.135685,-0.0113097,-0.00019349,0,
10,0.00631651,0.145258,-0.0113119,-0.000249509,0,
10,0.00694041,0.154208,-0.0113097,-0.000305914,0,
10,0.00761104,0.162456,-0.0113115,-0.000359639,0,
10,0.00833284,0.169983,-0.0113095,-0.000408769,0,
10,0.00911058,0.176811,-0.0113109,-0.000452511,0,
10,0.0099494,0.182994,-0.0113092,-0.000490907,0,
10,0.0108548,0.188595,-0.0113101,-0.000524504,0,
10,0.0118329,0.193687,-0.0113086,-0.000554087,0,
10,0.0128901,0.198336,-0.011309,-0.000580503,0,
10,0.0140333,0.202606,-0.0113077,-0.000604564,0,
10,0.0152702,0.206552,-0.0113076,-0.000626998,0,
10,0.0166089,0.210223,-0.0113063,-0.000648444,0,
10,0.0180584,0.213662,-0.0113058,-0.000669449,0,
10,0.0196282,0.216906,-0.0113044,-0.000690486,0,
10,0.0213288,0.219984,-0.0113035,-0.000711969,0,
10,0.0231714,0.222926,-0.0113019,-0.000734264,0,
10,0.0251682,0.225754,-0.0113006,-0.000757707,0,
10,0.0273326,0.22849,-0.0112987,-0.000782608,0,
10,0.0296789,0.231151,-0.0112969,-0.000809267,0,
10,0.0322227,0.233755,-0.0112947,-0.000837977,0,
10,0.0349809,0.236317,-0.0112924,-0.000869032,0,
10,0.0379719,0.23885,-0.0112898,-0.000902731,0,
10,0.0412155,0.241368,-0.0112869,-0.000939383,0,
10,0.0447333,0.243882,-0.0112837,-0.000979314,0,
10,0.0485489,0.246406,-0.0112803,-0.00102286,0,
10,0.0526875,0.24895,-0.0112765,-0.0010704,0,
10,0.0571768,0.251526,-0.0112724,-0.0011223,0,
10,0.0620466,0.254146,-0.011268,-0.00117899,0,
10,0.0673295,0.256822,-0.0112632,-0.00124091,0,
10,0.0730607,0.259566,-0.0112581,-0.00130854,0,
10,0.0792784,0.262392,-0.0112526,-0.0013824,0,
10,0.0860241,0.265313,-0.0112469,-0.00146303,0,
10,0.0933428,0.268343,-0.011241,-0.00155104,0,
10,0.101283,0.271498,-0.0112349,-0.00164706,0,
10,0.109899,0.274795,-0.0112287,-0.00175177,0,
10,0.119247,0.278253,-0.0112226,-0.00186591,0,
10,0.12939,0.281891,-0.0112168,-0.00199026,0,
10,0.140395,0.285732,-0.0112115,-0.00212565,0,
10,0.152337,0.2898,-0.0112071,-0.00227295,0,
10,0.165296,0.294123,-0.0112041,-0.00243308,0,
10,0.179357,0.29873,-0.0112029,-0.002607,0,
10,0.194615,0.303655,-0.0112044,-0.00279571,0,
10,0.211171,0.308937,-0.0112093,-0.00300022,0,
10,0.229138,0.314616,-0.011219,-0.00322155,0,
10,0.248635,0.32074,-0.0112344,-0.00346071,0,
10,0.269793,0.327363,-0.0112577,-0.00371864,0,
10,0.292753,0.334545,-0.01129,-0.00399623,0,
10,0.317669,0.342351,-0.0113349,-0.00429307,0,
10,0.344708,0.350853,-0.0113919,-0.00460985,0,
10,0.372405,0.359616,-0.011463,-0.00493015,0,
10,0.399623,0.368293,-0.011544,-0.00523942,0,
10,0.426397,0.376897,-0.0116321,-0.00553681,0,
10,0.452757,0.385439,-0.0117268,-0.00582344,0,
10,0.478735,0.39393,-0.0118278,-0.00609936,0,
10,0.504358,0.402375,-0.0119334,-0.00636504,0,
10,0.529657,0.410783,-0.0120236,-0.00662102,0,
10,0.554656,0.419159,-0.0121612,-0.00690178,0,
10,0.579382,0.427594,-0.0124471,-0.00711478,0,
10,0.603859,0.436249,-0.0129171,-0.0072621,0,
10,0.628112,0.445229,-0.0135006,-0.00736697,0,
10,0.652163,0.454544,-0.0141043,-0.00745641,0,
10,0.676035,0.464144,-0.0147019,-0.00753366,0,
10,0.699751,0.473963,-0.0152699,-0.00759795,0,
10,0.72333,0.483948,-0.0158066,-0.00764818,0,
10,0.746795,0.494061,-0.0163155,-0.00768335,0,
10,0.770165,0.504286,-0.016796,-0.00770257,0,
10,0.79346,0.514628,-0.0172482,-0.00770497,0,
10,0.816699,0.525107,-0.0176698,-0.00768975,0,
10,0.839903,0.535756,-0.0180578,-0.00765594,0,
10,0.863088,0.546616,-0.0184095,-0.00760221,0,
10,0.886275,0.557738,-0.0187232,-0.00752687,0,
10,0.909481,0.569174,-0.0189984,-0.00742789,0,
10,0.932723,0.580982,-0.0192363,-0.0073029,0,
10,0.956021,0.593219,-0.0194393,-0.00714931,0,
10,0.97939,0.605943,-0.019611,-0.00696451,0,
10,1.00285,0.6192,-0.0197556,-0.00674631,0,
10,1.02641,0.633018,-0.0198779,-0.00649418,0,
10,1.0501,0.647383,-0.0199829,-0.00620917,0,
10,1.07392,0.662234,-0.0200754,-0.00589367,0,
10,1.0979,0.677453,-0.0201588,-0.00555149,0,
10,1.12205,0.692861,-0.0202359,-0.00518825,0,
10,1.14639,0.708232,-0.0203086,-0.00481155,0,
10,1.17093,0.723293,-0.0203794,-0.00443563,0,
10,1.19568,0.737771,-0.0204482,-0.00407496,0,
10,1.22066,0.751481,-0.0205087,-0.00372913,0,
10,1.24589,0.764363,-0.0205542,-0.00340159,0,
10,1.27137,0.776445,-0.0205793,-0.00309422,0,
10,1.29713,0.787807,-0.0205786,-0.00280672,0,
10,1.32317,0.798552,-0.0205497,-0.00253705,0,
10,1.34951,0.808803,-0.020473,-0.00226775,0,
10,1.37616,0.818651,-0.0203613,-0.00199794,0,
10,1.40313,0.828058,-0.0202449,-0.00174695,0,
10,1.43043,0.836917,-0.0201237,-0.00151329,0,
10,1.45807,0.845143,-0.0200006,-0.00130395,0,
10,1.48607,0.852697,-0.0198778,-0.00112402,0,
10,1.51444,0.859591,-0.0197552,-0.000975457,0,
10,1.54318,0.865891,-0.0196351,-0.000857114,0,
10,1.57231,0.871694,-0.0195136,-0.000767207,0,
10,1.60184,0.877134,-0.0193898,-0.000696836,0,
10,1.63178,0.882376,-0.0192572,-0.000629687,0,
10,1.66213,0.887498,-0.0191218,-0.000573276,0,
10,1.69292,0.892465,-0.0189947,-0.000524562,0,
10,1.72416,0.897232,-0.0188725,-0.000482284,0,
10,1.75585,0.90179,-0.0187557,-0.000445437,0,
10,1.78802,0.906154,-0.0186417,-0.000412969,0,
10,1.82067,0.910344,-0.0185314,-0.000383911,0,
10,1.85383,0.914382,-0.0184231,-0.000357613,0,
10,1.88751,0.918303,-0.0183154,-0.000330905,0,
10,1.92173,0.922143,-0.0182087,-0.000303646,0,
10,1.95652,0.925904,-0.0181064,-0.000276527,0,
10,1.9919,0.929562,-0.0180086,-0.000248621,0,
10,2.02791,0.933089,-0.0179166,-0.000220333,0,
10,2.06456,0.936457,-0.0178291,-0.000191879,0,
10,2.10268,0.939697,-0.0177481,-0.000162815,0,
10,2.1443,0.942897,-0.017668,-0.000133854,0,
10,2.18977,0.945992,-0.0175926,-0.000105431,0,
10,2.23946,0.94888,-0.017524,-7.80286e-05,0,
10,2.29376,0.951445,-0.0174662,-5.28224e-05,0,
10,2.35309,0.953567,-0.0174233,-3.09659e-05,0,
10,2.4179,0.95513,-0.017401,-1.34212e-05,0,
10,2.48863,0.956043,-0.0174051,-8.0775e-07,0,
10,2.56575,0.956261,-0.0174431,6.75216e-06,0,
10,2.64971,0.955808,-0.017522,9.74704e-06,0,
10,2.74098,0.954794,-0.0176492,9.27567e-06,0,
10,2.83997,0.953414,-0.0178314,6.86467e-06,0,
10,2.94709,0.951922,-0.0180743,4.05354e-06,0,
10,3.06269,0.950579,-0.0183825,1.88964e-06,0,
10,3.18706,0.949579,-0.0187588,6.78185e-07,0,
10,3.3204,0.948999,-0.019204,1.81693e-07,0,
10,3.46281,0.948786,-0.0197176,3.57274e-08,0,
10,3.61427,0.948802,-0.0202969,5.69888e-09,0,
10,3.77463,0.948894,-0.0209379,1.30507e-09,0,
10,3.94358,0.948956,-0.0216346,8.5845e-10,0,
10,4.12067,0.948956,-0.0223791,7.66487e-10,0,
10,4.30525,0.94892,-0.0231619,3.22236e-10,0,
10,4.49655,0.948897,-0.0239724,-5.33544e-10,0,
10,4.6936,0.948921,-0.0247989,-1.61809e-09,0,
10,4.89531,0.949001,-0.0256296,-2.839e-09,0,
10,5.10047,0.949124,-0.026453,-4.44487e-09,0,
10,5.30776,0.949267,-0.0272581,-7.25585e-09,0,
10,5.51581,0.949409,-0.0280354,-1.31378e-08,0,
10,5.72323,0.949541,-0.0287765,-2.69094e-08,0,
10,5.92863,0.949683,-0.029475,-6.51417e-08,0,
10,6.13069,0.949894,-0.0301259,-1.87061e-07,0,
10,6.32816,0.950269,-0.0307261,-5.43644e-07,0,
10,6.51991,0.950846,-0.031274,-1.22158e-06,0,
10,6.70495,0.951417,-0.0317698,-1.10187e-06,0,
10,6.88244,0.9513,-0.0322142,4.77394e-06,0,
10,7.0517,0.949289,-0.0326092,2.70279e-05,0,
10,7.21224,0.943992,-0.0329548,7.92423e-05,0,
10,7.3637,0.934477,-0.033256,0.000171593,0,
10,7.5059,0.920723,-0.0335162,0.000296878,0,
10,7.63878,0.90326,-0.0337386,0.000406664,0,
10,7.76243,0.883142,-0.0339305,0.000529885,0,
10,7.87701,0.862152,-0.0340845,0.000657842,0,
10,7.9828,0.841821,-0.0342135,0.000775479,0,
10,8.08014,0.822936,-0.034317,0.000876304,0,
10,8.16941,0.805622,-0.0344037,0.000959907,0,
10,8.25106,0.789637,-0.0344761,0.00102903,0,
10,8.32554,0.774623,-0.0345392,0.00108631,0,
10,8.39331,0.760252,-0.0345939,0.00113447,0,
10,8.45484,0.746283,-0.0346421,0.00117593,0,
10,8.5106,0.732576,-0.0346839,0.001212,0,
10,8.56104,0.719065,-0.0347203,0.00124323,0,
10,8.60659,0.705739,-0.0347519,0.00126978,0,
10,8.64767,0.692617,-0.0347795,0.00129174,0,
10,8.68467,0.679718,-0.0348039,0.00130928,0,
10,8.71795,0.667026,-0.0348256,0.00131871,0,
10,8.74786,0.654511,-0.0348444,0.001324,0,
10,8.77471,0.642163,-0.0348611,0.00132568,0,
10,8.79881,0.629981,-0.0348755,0.00132372,0,
10,8.8204,0.617959,-0.0348881,0.00131857,0,
10,8.83975,0.606089,-0.0348989,0.00131072,0,
10,8.85708,0.594358,-0.0349084,0.00130063,0,
10,8.87259,0.582749,-0.0349165,0.00128872,0,
10,8.88646,0.571242,-0.0349236,0.00127538,0,
10,8.89886,0.559815,-0.0349296,0.00126094,0,
10,8.90995,0.548439,-0.0349347,0.00124567,0,
10,8.91986,0.537088,-0.0349391,0.00122977,0,
10,8.92872,0.525727,-0.0349429,0.0012134,0,
10,8.93663,0.514324,-0.034946,0.00119664,0,
10,8.94369,0.502841,-0.0349487,0.00117952,0,
10,8.95,0.491236,-0.0349509,0.00116201,0,
10,8.95564,0.479467,-0.0349528,0.00114401,0,
10,8.96067,0.467485,-0.0349543,0.00112538,0,
10,8.96517,0.455237,-0.0349557,0.00110586,0,
10,8.96918,0.442665,-0.0349567,0.00108515,0,
10,8.97276,0.429701,-0.0349577,0.00106282,0,
10,8.97596,0.41627,-0.0349584,0.00103834,0,
10,8.97882,0.402284,-0.0349591,0.001011,0,
10,8.98137,0.387639,-0.0349595,0.000979907,0,
10,8.98365,0.372217,-0.0349601,0.000943915,0,
10,8.98569,0.355874,-0.0349603,0.000901956,0,
10,8.9875,0.338431,-0.0349607,0.000850871,0,
10,8.98913,0.319647,-0.0349607,0.000786365,0,
10,8.99058,0.299287,-0.0349612,0.000709817,0,
10,8.99188,0.277191,-0.034961,0.000619731,0,
10,8.99304,0.253201,-0.0349615,0.000510062,0,
10,8.99408,0.227135,-0.0349612,0.000375149,0,
10,8.99501,0.199188,-0.0349617,0.000241533,0,
10,8.99583,0.170292,-0.0349613,0.000129558,0,
10,8.99658,0.141781,-0.0349618,5.62103e-05,0,
10,8.99724,0.114871,-0.0349613,1.95329e-05,0,
10,8.99784,0.0902313,-0.0349619,5.3857e-06,0,
10,8.99837,0.0680142,-0.0349613,1.13131e-06,0,
10,8.99885,0.0480964,-0.0349619,1.62169e-07,0,
10,8.99927,0.0302659,-0.0349613,1.23152e-08,0,
10,8.99966,0.0143034,-0.0349621,2.72523e-10,0,
10,9,0,-0.0349612,0,0,

0.0416667,0,0,-0.235224,0,3.1159e-06,
0.0833333,0,0,-0.235385,0,5.24817e-06,
0.125,0,0,-0.235323,0,6.8203e-06,
0.166667,0,0,-0.235373,0,1.122e-05,
0.208333,0,0,-0.235383,0,1.56571e-05,
0.25,0,0,-0.235431,0,2.04113e-05,
0.291667,0,0,-0.235476,0,2.45922e-05,
0.333333,0,0,-0.235538,0,2.82624e-05,
0.375,0,0,-0.235604,0,3.14102e-05,
0.416667,0,0,-0.235679,0,3.44706e-05,
0.458333,0,0,-0.235762,0,3.78754e-05,
0.5,0,0,-0.235857,0,4.20804e-05,
0.541667,0,0,-0.235968,0,4.73936e-05,
0.583333,0,0,-0.236099,0,5.3931e-05,
0.625,0,0,-0.236253,0,6.157e-05,
0.666667,0,0,-0.236432,0,6.99503e-05,
0.708333,0,0,-0.236638,0,7.85232e-05,
0.75,0,0,-0.236868,0,8.66259e-05,
0.791667,0,0,-0.237121,0,9.35995e-05,
0.833333,0,0,-0.237394,0,9.88985e-05,
0.875,0,0,-0.237685,0,0.0001022,
0.916667,0,0,-0.237998,0,0.000103339,
0.958333,0,0,-0.238348,0,0.000102043,
1,0,0,-0.238754,0,9.75703e-05,
1.04167,0,0,-0.239244,0,8.84079e-05,
1.08333,0,0,-0.239844,0,7.22538e-05,
1.125,0,0,-0.240576,0,4.6405e-05,
1.16667,0,0,-0.241446,0,8.50783e-06,
1.20833,0,0,-0.242441,0,-4.25684e-05,
1.25,0,0,-0.243535,0,-0.000106169,
1.29167,0,0,-0.244687,0,-0.000179904,
1.33333,0,0,-0.245855,0,-0.000260307,
1.375,0,0,-0.246999,0,-0.000343773,
1.41667,0,0,-0.248085,0,-0.00042735,
1.45833,0,0,-0.249089,0,-0.000509107,
1.5,0,0,-0.249994,0,-0.000588077,
1.54167,0,0,-0.250788,0,-0.000663968,
1.58333,0,0,-0.251463,0,-0.00073685,
1.625,0,0,-0.252013,0,-0.000806924,
1.66667,0,0,-0.252436,0,-0.000874398,
1.70833,0,0,-0.252727,0,-0.000939444,
1.75,0,0,-0.252883,0,-0.00100218,
1.79167,0,0,-0.252902,0,-0.00106268,
1.83333,0,0,-0.252781,0,-0.00112097,
1.875,0,0,-0.252518,0,-0.00117708,
1.91667,0,0,-0.252112,0,-0.001231,
1.95833,0,0,-0.251562,0,-0.00128271,
2,0,0,-0.250866,0,-0.00133219,
2.04167,0,0,-0.250025,0,-0.00137942,
2.08333,0,0,-0.249038,0,-0.00142439,
2.125,0,0,-0.247906,0,-0.00146706,
2.16667,0,0,-0.246629,0,-0.0015074,
2.20833,0,0,-0.245208,0,-0.00154539,
2.25,0,0,-0.243646,0,-0.00158098,
2.29167,0,0,-0.241943,0,-0.00161414,
2.33333,0,0,-0.240103,0,-0.00164484,
2.375,0,0,-0.238127,0,-0.00167305,
2.41667,0,0,-0.236019,0,-0.00169875,
2.45833,0,0,-0.233783,0,-0.00172189,
2.5,0,0,-0.231421,0,-0.00174248,
2.54167,0,0,-0.22894,0,-0.00176049,
2.58333,0,0,-0.226342,0,-0.00177593,
2.625,0,0,-0.223634,0,-0.00178882,
2.66667,0,0,-0.220821,0,-0.0017992,
2.70833,0,0,-0.217908,0,-0.0018071,
2.75,0,0,-0.2149,0,-0.00181256,
2.79167,0,0,-0.211803,0,-0.00181563,
2.83333,0,0,-0.208624,0,-0.00181634,
2.875,0,0,-0.205368,0,-0.00181476,
2.91667,0,0,-0.202041,0,-0.00181095,
2.95833,0,0,-0.19865,0,-0.00180497,
3,0,0,-0.1952,0,-0.0017969,
3.04167,0,0,-0.191698,0,-0.00178681,
3.08333,0,0,-0.188148,0,-0.00177477,
3.125,0,0,-0.184558,0,-0.00176086,
3.16667,0,0,-0.180931,0,-0.00174515,
3.20833,0,0,-0.177275,0,-0.00172773,
3.25,0,0,-0.173594,0,-0.00170866,
3.29167,0,0,-0.169892,0,-0.00168803,
3.33333,0,0,-0.166176,0,-0.00166592,
3.375,0,0,-0.162449,0,-0.00164241,
3.41667,0,0,-0.158717,0,-0.00161756,
3.45833,0,0,-0.154982,0,-0.00159147,
3.5,0,0,-0.15125,0,-0.00156419,
3.54167,0,0,-0.147523,0,-0.0015358,
3.58333,0,0,-0.143806,0,-0.00150636,
3.625,0,0,-0.140102,0,-0.00147594,
3.66667,0,0,-0.136413,0,-0.00144459,
3.70833,0,0,-0.132744,0,-0.00141238,
3.75,0,0,-0.129096,0,-0.00137936,
3.79167,0,0,-0.125473,0,-0.00134558,
3.83333,0,0,-0.121876,0,-0.0013111,
3.875,0,0,-0.118309,0,-0.00127598,
3.91667,0,0,-0.114772,0,-0.00124026,
3.95833,0,0,-0.111269,0,-0.00120399,
4,0,0,-0.107801,0,-0.00116723,
4.04167,0,0,-0.104368,0,-0.00113001,
4.08333,0,0,-0.100974,0,-0.00109237,
4.125,0,0,-0.0976178,0,-0.00105436,
4.16667,0,0,-0.0943021,0,-0.001016,
4.20833,0,0,-0.0910275,0,-0.000977337,
4.25,0,0,-0.0877949,0,-0.000938386,
4.29167,0,0,-0.0846051,0,-0.000899178,
4.33333,0,0,-0.0814591,0,-0.000859743,
4.375,0,0,-0.0783573,0,-0.000820105,
4.41667,0,0,-0.0753005,0,-0.000780291,
4.45833,0,0,-0.0722891,0,-0.000740325,
4.5,0,0,-0.0693236,0,-0.000700231,
4.54167,0,0,-0.0664042,0,-0.000660029,
4.58333,0,0,-0.0635314,0,-0.000619739,
4.625,0,0,-0.0607053,0,-0.000579377,
4.66667,0,0,-0.0579262,0,-0.00053896,
4.70833,0,0,-0.0551943,0,-0.000498501,
4.75,0,0,-0.0525098,0,-0.000458012,
4.79167,0,0,-0.0498728,0,-0.000417503,
4.83333,0,0,-0.0472835,0,-0.000376984,
4.875,0,0,-0.0447422,0,-0.000336468,
4.91667,0,0,-0.0422491,0,-0.000295968,
4.95833,0,0,-0.0398046,0,-0.000255507,
5,0,0,-0.0374091,0,-0.000215118,
5.04167,0,0,-0.0350631,0,-0.000174853,
5.08333,0,0,-0.0327667,0,-0.000134766,
5.125,0,0,-0.0305193,0,-9.4896e-05,
5.16667,0,0,-0.0283206,0,-5.52586e-05,
5.20833,0,0,-0.0261698,0,-1.58558e-05,
5.25,0,0,-0.0240664,0,2.33145e-05,
5.29167,0,0,-0.02201,0,6.2253e-05,
5.33333,0,0,-0.02,0,0.000100959,
5.375,0,0,-0.018036,0,0.00013943,
5.41667,0,0,-0.0161176,0,0.000177664,
5.45833,0,0,-0.0142445,0,0.000215655,
5.5,0,0,-0.0124163,0,0.000253399,
5.54167,0,0,-0.0106328,0,0.000290889,
5.58333,0,0,-0.00889359,0,0.000328116,
5.625,0,0,-0.00719858,0,0.000365071,
5.66667,0,0,-0.00554748,0,0.000401744,
5.70833,0,0,-0.00394011,0,0.000438122,
5.75,0,0,-0.00237627,0,0.000474192,
5.79167,0,0,-0.000855759,0,0.000509939,
5.83333,0,0,0.000621627,0,0.00054535,
5.875,0,0,0.0020561,0,0.000580409,
5.91667,0,0,0.00344789,0,0.000615102,
5.95833,0,0,0.00479724,0,0.000649414,
6,0,0,0.00610442,0,0.00068333,
6.04167,0,0,0.0073697,0,0.000716837,
6.08333,0,0,0.00859337,0,0.000749921,
6.125,0,0,0.00977575,0,0.000782568,
6.16667,0,0,0.0109171,0,0.000814766,
6.20833,0,0,0.0120179,0,0.000846504,
6.25,0,0,0.0130783,0,0.000877768,
6.29167,0,0,0.0140986,0,0.000908547,
6.33333,0,0,0.0150793,0,0.000938832,
6.375,0,0,0.0160206,0,0.000968609,
6.41667,0,0,0.0169228,0,0.00099787,
6.45833,0,0,0.0177862,0,0.0010266,
6.5,0,0,0.0186112,0,0.0010548,
6.54167,0,0,0.019398,0,0.00108245,
6.58333,0,0,0.0201469,0,0.00110953,
6.625,0,0,0.0208582,0,0.00113605,
6.66667,0,0,0.0215322,0,0.001162,
6.70833,0,0,0.0221691,0,0.00118736,
6.75,0,0,0.0227692,0,0.00121212,
6.79167,0,0,0.0233327,0,0.00123629,
6.83333,0,0,0.0238598,0,0.00125985,
6.875,0,0,0.0243509,0,0.0012828,
6.91667,0,0,0.0248061,0,0.00130514,
6.95833,0,0,0.0252259,0,0.00132686,
7,0,0,0.0256104,0,0.00134796,
7.04167,0,0,0.0259597,0,0.00136841,
7.08333,0,0,0.0262742,0,0.00138821,
7.125,0,0,0.026554,0,0.00140733,
7.16667,0,0,0.0267994,0,0.00142576,
7.20833,0,0,0.0270106,0,0.00144349,
7.25,0,0,0.0271879,0,0.00146052,
7.29167,0,0,0.0273317,0,0.00147685,
7.33333,0,0,0.0274423,0,0.00149248,
7.375,0,0,0.0275199,0,0.0015074,
7.41667,0,0,0.027565,0,0.00152162,
7.45833,0,0,0.0275778,0,0.00153514,
7.5,0,0,0.0275587,0,0.00154796,
7.54167,0,0,0.0275079,0,0.00156009,
7.58333,0,0,0.0274258,0,0.00157153,
7.625,0,0,0.0273127,0,0.00158229,
7.66667,0,0,0.0271688,0,0.00159238,
7.70833,0,0,0.0269944,0,0.0016018,
7.75,0,0,0.0267898,0,0.00161057,
7.79167,0,0,0.0265554,0,0.0016187,
7.83333,0,0,0.0262906,0,0.00162617,
7.875,0,0,0.0259954,0,0.00163308,
7.91667,0,0,0.0256815,0,0.00164012,
7.95833,0,0,0.0252676,0,0.00164558,
8,0,0,0.0249514,0,0.001651,
8.04171,0,0,0.0246515,0,0.00165685,
8.08368,0,0,0.0241852,0,0.00166196,
8.12617,0,0,0.0237421,0,0.00166445,
8.16946,0,0,0.0232617,0,0.00166627,
8.21382,0,0,0.0227327,0,0.00166737,
8.25952,0,0,0.0221592,0,0.00166768,
8.30685,0,0,0.0215348,0,0.00166731,
8.35611,0,0,0.0208528,0,0.00166627,
8.40762,0,0,0.0201062,0,0.00166455,
8.46168,0,0,0.0192868,0,0.00166212,
8.51865,0,0,0.0183855,0,0.00165895,
8.57889,0,0,0.017392,0,0.00165498,
8.64276,0,0,0.0162952,0,0.00165016,
8.71067,0,0,0.0150833,0,0.00164445,
8.78306,0,0,0.0137434,0,0.0016378,
8.86037,0,0,0.0122624,0,0.00163017,
8.94309,0,0,0.0106276,0,0.00162156,
9.03174,0,0,0.00882682,0,0.001612,
9.12689,0,0,0.0068499,0,0.00160158,
9.22912,0,0,0.00468934,0,0.00159047,
9.33908,0,0,0.0023417,0,0.00157889,
9.45746,0,0,-0.000191268,0,0.00156715,
9.58501,0,0,-0.00290204,0,0.00155559,
9.72253,0,0,-0.0057775,0,0.00154452,
9.87088,0,0,-0.00879716,0,0.00153413,
10.031,0,0,-0.0119205,0,0.0015244,
10.2039,0,0,-0.0150555,0,0.00151535,
10.3906,0,0,-0.0180149,0,0.00150736,
10.5924,0,0,-0.0204696,0,0.00150185,
10.8105,0,0,-0.021907,0,0.00150204,
11.0463,0,0,-0.0216499,0,0.00151348,
11.3012,0,0,-0.0190342,0,0.00154344,
11.5769,0,0,-0.0137618,0,0.00159801,
11.8751,0,0,-0.00623412,0,0.00167792,
12.1977,0,0,0.00244579,0,0.00177633,
12.5466,0,0,0.0108629,0,0.00188072,
12.9242,0,0,0.0177993,0,0.00197775,
13.3327,0,0,0.0225597,0,0.00205772,
13.7748,0,0,0.025018,0,0.00211655,
14.2532,0,0,0.0254755,0,0.00215547,
14.7709,0,0,0.0244591,0,0.00217904,
15.3312,0,0,0.0225495,0,0.00219165,
15.9377,0,0,0.0202564,0,0.00219744,
16.594,0,0,0.0179429,0,0.00220018,
17.3044,0,0,0.0158167,0,0.00220224,
18.0733,0,0,0.0139663,0,0.00220425,
18.9056,0,0,0.0124142,0,0.00220594,
19.8064,0,0,0.0111452,0,0.00220723,
20.7816,0,0,0.0101186,0,0.00220864,
21.8371,0,0,0.00928563,0,0.00221063,
22.9796,0,0,0.00860651,0,0.00221312,
24.2163,0,0,0.00804653,0,0.00221688,
25.5551,0,0,0.00756297,0,0.00222218,
27.0042,0,0,0.00711097,0,0.00222874,
28.5729,0,0,0.0066574,0,0.00223644,
30.271,0,0,0.00618191,0,0.00224611,
32.1091,0,0,0.00566982,0,0.00225678,
34.0989,0,0,0.00510786,0,0.00226802,
36.2529,0,0,0.00447771,0,0.00227893,
38.5845,0,0,0.00377026,0,0.00228815,
41.1085,0,0,0.00301739,0,0.00229686,
43.8407,0,0,0.00205372,0,0.00230425,
46.7983,0,0,0.0010667,0,0.00231108,
50,0,0,0.00214846,0,0.00232881,

