df4043709055e5f26bdf1bcb668148c608fc9b8b 
X,Z,x_velocity,cp,uw_b,cf,
1,0,0,-0.225145,0,0,
1,9,0,-0.130506,0,0,
1,8.99969,0.0154103,-0.130506,2.8626e-10,0,
1,8.99934,0.0328933,-0.130506,1.33805e-08,0,
1,8.99894,0.0527457,-0.130506,1.84572e-07,0,
1,8.99848,0.0752815,-0.130506,1.35305e-06,0,
1,8.99797,0.100813,-0.130506,6.76253e-06,0,
1,8.99739,0.129537,-0.130506,2.55953e-05,0,
1,8.99672,0.16126,-0.130506,7.58204e-05,0,
1,8.99597,0.195041,-0.130506,0.00017625,0,
1,8.99512,0.229231,-0.130506,0.000324836,0,
1,8.99416,0.262173,-0.130506,0.000493023,0,
1,8.99306,0.29289,-0.130506,0.00065138,0,
1,8.99182,0.32121,-0.130505,0.000778863,0,
1,8.99041,0.347273,-0.130505,0.000884441,0,
1,8.98881,0.371238,-0.130505,0.000971629,0,
1,8.98699,0.393322,-0.130504,0.00104276,0,
1,8.98494,0.413813,-0.130503,0.00109871,0,
1,8.98261,0.433022,-0.130502,0.00114148,0,
1,8.97996,0.451189,-0.130501,0.00117732,0,
1,8.97696,0.468486,-0.1305,0.00120701,0,
1,8.97356,0.485055,-0.130499,0.00123182,0,
1,8.9697,0.501014,-0.130497,0.00125273,0,
1,8.96533,0.516462,-0.130496,0.00127043,0,
1,8.96038,0.531481,-0.130494,0.00128546,0,
1,8.95476,0.546142,-0.130491,0.00129816,0,
1,8.9484,0.560503,-0.130489,0.00130882,0,
1,8.9412,0.574615,-0.130486,0.0013176,0,
1,8.93303,0.588521,-0.130483,0.0013246,0,
1,8.92379,0.602258,-0.13048,0.00132988,0,
1,8.91333,0.615857,-0.130477,0.00133344,0,
1,8.90149,0.629347,-0.130474,0.00133527,0,
1,8.8881,0.642752,-0.130471,0.0013353,0,
1,8.87295,0.656094,-0.130468,0.00133347,0,
1,8.85584,0.669392,-0.130465,0.00132968,0,
1,8.83651,0.682666,-0.130464,0.00132382,0,
1,8.81469,0.695935,-0.130464,0.00131575,0,
1,8.79007,0.709219,-0.130465,0.00130532,0,
1,8.76232,0.72254,-0.130469,0.00129235,0,
1,8.73107,0.735922,-0.130476,0.00127659,0,
1,8.69591,0.749396,-0.130488,0.00125779,0,
1,8.6564,0.762998,-0.130506,0.00123559,0,
1,8.61206,0.776774,-0.130532,0.00120957,0,
1,8.56236,0.79078,-0.130567,0.0011794,0,
1,8.50675,0.805094,-0.130616,0.00114622,0,
1,8.44464,0.819855,-0.130682,0.00110584,0,
1,8.3754,0.835282,-0.130768,0.00105431,0,
1,8.29839,0.851623,-0.130881,0.000991089,0,
1,8.21296,0.869123,-0.131028,0.000911694,0,
1,8.11843,0.887972,-0.131214,0.000810889,0,
1,8.01417,0.908169,-0.131454,0.000685232,0,
1,7.89956,0.929269,-0.131743,0.000538201,0,
1,7.77403,0.950143,-0.13212,0.000388317,0,
1,7.63711,0.969181,-0.132571,0.000204584,0,
1,7.48842,0.984057,-0.133104,7.57512e-05,0,
1,7.32773,0.992838,-0.133744,1.81195e-05,0,
1,7.15495,0.996016,-0.134487,1.78757e-06,0,
1,6.97022,0.99607,-0.13535,2.32811e-08,0,
1,6.77388,0.995453,-0.136345,3.77108e-09,0,
1,6.56652,0.995338,-0.13749,9.73403e-09,0,
1,6.34896,0.995795,-0.138796,1.25005e-08,0,
1,6.12229,0.996524,-0.140279,1.40962e-08,0,
1,5.88784,0.997325,-0.141951,1.49341e-08,0,
1,5.64716,0.998161,-0.143825,1.58919e-08,0,
1,5.40194,0.999063,-0.145911,1.72276e-08,0,
1,5.15407,1.00006,-0.148215,1.89464e-08,0,
1,4.90545,1.00115,-0.150738,2.07264e-08,0,
1,4.65805,1.00235,-0.153477,2.2608e-08,0,
1,4.41376,1.00365,-0.156424,2.45696e-08,0,
1,4.17441,1.00502,-0.159565,2.638e-08,0,
1,3.94163,1.00642,-0.162878,2.78761e-08,0,
1,3.7169,1.00779,-0.166336,2.96731e-08,0,
1,3.50146,1.00921,-0.169904,3.37161e-08,0,
1,3.29629,1.011,-0.17355,4.2019e-08,0,
1,3.10217,1.01351,-0.177241,5.2692e-08,0,
1,2.91959,1.01655,-0.180946,9.64446e-08,0,
1,2.74885,1.01864,-0.184625,9.18643e-07,0,
1,2.59002,1.01739,-0.188215,-6.60559e-06,0,
1,2.44299,1.01107,-0.191652,-5.36539e-05,0,
1,2.30752,0.999914,-0.194873,-0.000152728,0,
1,2.18321,0.985377,-0.19782,-0.000289691,0,
1,2.06959,0.969046,-0.200528,-0.00040772,0,
1,1.9661,0.95219,-0.202978,-0.000510295,0,
1,1.87215,0.935735,-0.205138,-0.000606033,0,
1,1.78711,0.920187,-0.207046,-0.00069039,0,
1,1.71033,0.905701,-0.208719,-0.000763271,0,
1,1.64119,0.892242,-0.210179,-0.000826187,0,
1,1.57905,0.8797,-0.21145,-0.000881298,0,
1,1.52332,0.867943,-0.21255,-0.000930793,0,
1,1.47342,0.856864,-0.213507,-0.000976851,0,
1,1.42882,0.846374,-0.214316,-0.00100964,0,
1,1.389,0.836391,-0.214995,-0.00103445,0,
1,1.35351,0.826849,-0.215579,-0.00105749,0,
1,1.3219,0.817716,-0.216076,-0.00107808,0,
1,1.29378,0.80897,-0.216498,-0.00109598,0,
1,1.26878,0.800602,-0.216858,-0.00111126,0,
1,1.24659,0.792607,-0.217162,-0.00112432,0,
1,1.22689,0.784981,-0.217422,-0.00113527,0,
1,1.2092,0.777634,-0.217644,-0.00114309,0,
1,1.1932,0.770516,-0.217837,-0.00114849,0,
1,1.1787,0.763613,-0.218002,-0.00115214,0,
1,1.16554,0.756903,-0.218145,-0.001155,0,
1,1.15357,0.750356,-0.218267,-0.00115897,0,
1,1.14266,0.743924,-0.218372,-0.0011675,0,
1,1.13268,0.737538,-0.218463,-0.00118493,0,
1,1.12354,0.731103,-0.21854,-0.00121731,0,
1,1.11514,0.724492,-0.218609,-0.00127199,0,
1,1.10739,0.717551,-0.218672,-0.00135713,0,
1,1.10022,0.710103,-0.218734,-0.00148085,0,
1,1.09357,0.701972,-0.218797,-0.00164994,0,
1,1.08738,0.693018,-0.218864,-0.00186827,0,
1,1.0816,0.683168,-0.218939,-0.00213522,0,
1,1.07618,0.672448,-0.21902,-0.00244501,0,
1,1.07107,0.660972,-0.219109,-0.00278729,0,
1,1.06626,0.648919,-0.219204,-0.00314916,0,
1,1.06169,0.636486,-0.219304,-0.00351772,0,
1,1.05735,0.62386,-0.219408,-0.0038819,0,
1,1.05321,0.611196,-0.219515,-0.00423342,0,
1,1.04925,0.598613,-0.219624,-0.00456669,0,
1,1.04544,0.586196,-0.219734,-0.00487845,0,
1,1.04177,0.574,-0.219844,-0.00516712,0,
1,1.03822,0.562059,-0.219955,-0.00543232,0,
1,1.03478,0.550391,-0.220065,-0.0056744,0,
1,1.03144,0.539003,-0.220175,-0.00589419,0,
1,1.02818,0.527892,-0.220284,-0.00609275,0,
1,1.025,0.517052,-0.220392,-0.00627127,0,
1,1.02188,0.506473,-0.220499,-0.00643093,0,
1,1.01882,0.496143,-0.220606,-0.00657293,0,
1,1.01581,0.486051,-0.220711,-0.0066985,0,
1,1.01284,0.476182,-0.220816,-0.00680822,0,
1,1.00988,0.466419,-0.220921,-0.00690396,0,
1,1.00688,0.456648,-0.221027,-0.00698813,0,
1,1.00384,0.446859,-0.221135,-0.0070605,0,
1,1.00076,0.437039,-0.221245,-0.00712055,0,
1,0.997615,0.427171,-0.221355,-0.00716829,0,
1,0.99441,0.417232,-0.221467,-0.00720339,0,
1,0.991131,0.407197,-0.22158,-0.00722608,0,
1,0.987768,0.397041,-0.221694,-0.0072362,0,
1,0.984308,0.386734,-0.22181,-0.0072334,0,
1,0.980739,0.376244,-0.221928,-0.00721723,0,
1,0.977045,0.365538,-0.222047,-0.00718707,0,
1,0.973211,0.354578,-0.222169,-0.00714217,0,
1,0.969219,0.343325,-0.222293,-0.00708157,0,
1,0.965047,0.331732,-0.222418,-0.00700411,0,
1,0.960675,0.319751,-0.222547,-0.00690837,0,
1,0.956077,0.307327,-0.222677,-0.00679201,0,
1,0.951224,0.294403,-0.22281,-0.0066535,0,
1,0.946088,0.280921,-0.222946,-0.00649058,0,
1,0.940633,0.266829,-0.223084,-0.00630148,0,
1,0.934823,0.252082,-0.223226,-0.00608443,0,
1,0.928616,0.236644,-0.223372,-0.00583617,0,
1,0.921967,0.220483,-0.223519,-0.00555426,0,
1,0.914826,0.203577,-0.223669,-0.0052365,0,
1,0.907141,0.18592,-0.223819,-0.00488112,0,
1,0.898852,0.167527,-0.223969,-0.00448711,0,
1,0.889898,0.148444,-0.224119,-0.00405461,0,
1,0.880212,0.128767,-0.224266,-0.00358562,0,
1,0.869723,0.108671,-0.224411,-0.00308502,0,
1,0.858358,0.0884529,-0.224553,-0.00256258,0,
1,0.846039,0.06861,-0.224697,-0.00203663,0,
1,0.83269,0.0499219,-0.224844,-0.00153889,0,
1,0.818232,0.0334257,-0.224998,-0.00111467,0,
1,0.802744,0.020133,-0.225152,-0.00079317,0,
1,0.78635,0.01027,-0.225318,-0.0005673,0,
1,0.768969,0.00316784,-0.225484,-0.000420632,0,
1,0.75053,-0.00207469,-0.225648,-0.000333394,0,
1,0.730977,-0.00622097,-0.225799,-0.000286535,0,
1,0.710271,-0.00979534,-0.225934,-0.000264901,0,
1,0.688397,-0.0131181,-0.226051,-0.000258171,0,
1,0.66536,-0.0163736,-0.226152,-0.000259016,0,
1,0.641194,-0.0196694,-0.226235,-0.000262116,0,
1,0.615961,-0.0230596,-0.226302,-0.000264367,0,
1,0.589754,-0.0265561,-0.22635,-0.000263758,0,
1,0.562692,-0.0301395,-0.226379,-0.000259302,0,
1,0.534925,-0.0337675,-0.226385,-0.0002507,0,
1,0.506624,-0.0373824,-0.226369,-0.000238092,0,
1,0.477982,-0.0409169,-0.226327,-0.000221863,0,
1,0.449206,-0.0442985,-0.22626,-0.000202515,0,
1,0.420509,-0.0474521,-0.22617,-0.000180584,0,
1,0.392107,-0.0503021,-0.226058,-0.000156587,0,
1,0.364206,-0.0527731,-0.225928,-0.000130993,0,
1,0.337003,-0.0547904,-0.225787,-0.000104208,0,
1,0.310673,-0.056281,-0.225639,-7.6603e-05,0,
1,0.28537,-0.0571749,-0.225491,-4.8536e-05,0,
1,0.26122,-0.0574083,-0.225351,-2.04093e-05,0,
1,0.238324,-0.0569283,-0.225224,7.2675e-06,0,
1,0.21675,-0.0557007,-0.225115,3.38356e-05,0,
1,0.196544,-0.0537178,-0.225027,5.84933e-05,0,
1,0.177724,-0.0510063,-0.224961,8.03663e-05,0,
1,0.160284,-0.0476317,-0.224919,9.86242e-05,0,
1,0.144202,-0.0436976,-0.224896,0.000112612,0,
1,0.129436,-0.0393379,-0.224892,0.000121944,0,
1,0.115935,-0.0347052,-0.224901,0.000126563,0,
1,0.103636,-0.0299554,-0.22492,0.000126746,0,
1,0.0924701,-0.0252337,-0.224944,0.00012302,0,
1,0.0823633,-0.0206629,-0.224972,0.000116065,0,
1,0.0732406,-0.0163357,-0.225,0.00010662,0,
1,0.0650269,-0.0123135,-0.225028,9.54071e-05,0,
1,0.057648,-0.00862764,-0.225052,8.3089e-05,0,
1,0.0510323,-0.00528616,-0.225074,7.02762e-05,0,
1,0.0451115,-0.00228056,-0.225093,5.75661e-05,0,
1,0.0398209,0.000403367,-0.225108,4.57373e-05,0,
1,0.0351001,0.00278191,-0.22512,3.44751e-05,0,
1,0.0308929,0.00486778,-0.225129,2.43095e-05,0,
1,0.0271475,0.00665553,-0.225135,1.54963e-05,0,
1,0.0238164,0.0081175,-0.225139,8.54942e-06,0,
1,0.0208562,0.00920609,-0.225142,3.8328e-06,0,
1,0.0182274,0.00987886,-0.225143,1.22209e-06,0,
1,0.0158944,0.0101329,-0.225144,1.09038e-07,0,
1,0.0138249,0.0100176,-0.225145,-2.0963e-07,0,
1,0.0119898,0.00961611,-0.225145,-2.18466e-07,0,
1,0.0103632,0.00901661,-0.225145,-1.50641e-07,0,
1,0.00892169,0.0082944,-0.225145,-8.75176e-08,0,
1,0.00764438,0.00750686,-0.225145,-4.58066e-08,0,
1,0.00651264,0.00669506,-0.225145,-2.2148e-08,0,
1,0.00550983,0.00588744,-0.225145,-9.97496e-09,0,
1,0.00462115,0.00510305,-0.225145,-4.18028e-09,0,
1,0.00383341,0.00435422,-0.225145,-1.61677e-09,0,
1,0.0031349,0.00364832,-0.225145,-5.68018e-10,0,
1,0.00251518,0.00298925,-0.225145,-1.76607e-10,0,
1,0.00196502,0.00237839,-0.225145,-4.65745e-11,0,
1,0.00147619,0.00181539,-0.225145,-9.6977e-12,0,
1,0.00104139,0.00129866,-0.225145,-1.39979e-12,0,
1,0.000654158,0.00082585,-0.225145,-1.07698e-13,0,
1,0.000308731,0.00039409,-0.225145,-2.423e-15,0,

4,0,0,-0.168283,0,0,
4,9,0,-0.100161,0,0,
4,8.99969,0.0142837,-0.100161,2.2503e-10,0,
4,8.99934,0.0304323,-0.100161,1.04403e-08,0,
4,8.99894,0.0487079,-0.100161,1.4256e-07,0,
4,8.9985,0.0693873,-0.100161,1.03472e-06,0,
4,8.99799,0.0927524,-0.100161,5.13535e-06,0,
4,8.99742,0.119005,-0.100161,1.94405e-05,0,
4,8.99677,0.14806,-0.100161,5.83181e-05,0,
4,8.99605,0.179234,-0.100161,0.000139264,0,
4,8.99522,0.211169,-0.100161,0.000266069,0,
4,8.99429,0.242322,-0.100161,0.000418415,0,
4,8.99324,0.27163,-0.10016,0.000568337,0,
4,8.99205,0.298714,-0.10016,0.000697886,0,
4,8.9907,0.323653,-0.100159,0.000802044,0,
4,8.98919,0.34662,-0.100159,0.000889791,0,
4,8.98747,0.367802,-0.100158,0.000962767,0,
4,8.98553,0.387468,-0.100158,0.00102023,0,
4,8.98334,0.405897,-0.100157,0.00106648,0,
4,8.98087,0.423308,-0.100155,0.00110553,0,
4,8.97807,0.439871,-0.100154,0.00113866,0,
4,8.97491,0.455727,-0.100152,0.00116717,0,
4,8.97134,0.470994,-0.10015,0.00119203,0,
4,8.96731,0.485772,-0.100148,0.00121396,0,
4,8.96276,0.500146,-0.100146,0.00123349,0,
4,8.95762,0.514189,-0.100143,0.001251,0,
4,8.95182,0.527963,-0.100139,0.00126672,0,
4,8.94526,0.54152,-0.100135,0.00128081,0,
4,8.93787,0.554906,-0.100131,0.00129335,0,
4,8.92952,0.568162,-0.100126,0.00130434,0,
4,8.92011,0.581321,-0.100121,0.00131374,0,
4,8.90949,0.594412,-0.100115,0.00132146,0,
4,8.89751,0.60746,-0.100108,0.00132738,0,
4,8.88402,0.620486,-0.100102,0.00133133,0,
4,8.86881,0.633508,-0.100094,0.00133317,0,
4,8.85169,0.64654,-0.100087,0.00133271,0,
4,8.83242,0.659596,-0.100079,0.00132976,0,
4,8.81074,0.672688,-0.100071,0.00132414,0,
4,8.78637,0.685827,-0.100064,0.00131568,0,
4,8.75901,0.699026,-0.100058,0.00130419,0,
4,8.7283,0.712299,-0.100053,0.00128947,0,
4,8.69387,0.725667,-0.10005,0.00127133,0,
4,8.65533,0.739152,-0.100049,0.0012495,0,
4,8.61222,0.752787,-0.100053,0.00122368,0,
4,8.56407,0.766613,-0.100062,0.00119349,0,
4,8.5104,0.780683,-0.100078,0.00115872,0,
4,8.45065,0.795075,-0.100104,0.00112121,0,
4,8.38429,0.809943,-0.100144,0.00107356,0,
4,8.31073,0.825523,-0.100198,0.00101619,0,
4,8.22941,0.842078,-0.100272,0.000945861,0,
4,8.13974,0.85987,-0.100368,0.000858187,0,
4,8.04115,0.879073,-0.10049,0.000749554,0,
4,7.93313,0.899576,-0.100643,0.000620244,0,
4,7.81519,0.920673,-0.10082,0.000479415,0,
4,7.68693,0.940897,-0.101046,0.000344495,0,
4,7.54803,0.958353,-0.101302,0.000202866,0,
4,7.39831,0.971149,-0.101608,8.91496e-05,0,
4,7.23771,0.978409,-0.10198,2.752e-05,0,
4,7.06634,0.981082,-0.102408,4.55345e-06,0,
4,6.88453,0.98123,-0.102893,2.17811e-08,0,
4,6.69275,0.980694,-0.103439,-7.942e-08,0,
4,6.49173,0.980403,-0.104054,2.64691e-08,0,
4,6.28238,0.980509,-0.104747,2.65108e-08,0,
4,6.06579,0.980848,-0.105526,1.50753e-08,0,
4,5.84328,0.981263,-0.1064,1.02257e-08,0,
4,5.61626,0.981693,-0.107374,8.992e-09,0,
4,5.3863,0.982138,-0.108453,9.12152e-09,0,
4,5.15502,0.982615,-0.109641,9.80221e-09,0,
4,4.92406,0.983139,-0.110941,1.07667e-08,0,
4,4.69507,0.98372,-0.112354,1.19176e-08,0,
4,4.46961,0.984363,-0.11388,1.3111e-08,0,
4,4.24915,0.98505,-0.115515,1.40471e-08,0,
4,4.03501,0.985726,-0.117256,1.44404e-08,0,
4,3.82836,0.986322,-0.119092,1.45621e-08,0,
4,3.63018,0.986846,-0.121016,1.584e-08,0,
4,3.44125,0.987482,-0.123014,2.13161e-08,0,
4,3.26217,0.988591,-0.125073,7.26232e-08,0,
4,3.09333,0.990462,-0.127179,6.34347e-07,0,
4,2.93497,0.992891,-0.129315,2.92768e-06,0,
4,2.78715,0.995,-0.131463,5.68506e-06,0,
4,2.64979,0.995595,-0.133601,1.11892e-06,0,
4,2.52268,0.993756,-0.135707,-2.06225e-05,0,
4,2.40551,0.989174,-0.137753,-6.44947e-05,0,
4,2.29789,0.982119,-0.139715,-0.000128807,0,
4,2.19939,0.973196,-0.141575,-0.000207245,0,
4,2.10949,0.963106,-0.143322,-0.000291861,0,
4,2.02768,0.952482,-0.14495,-0.000375123,0,
4,1.95343,0.941834,-0.146459,-0.000451027,0,
4,1.88618,0.931535,-0.147847,-0.00051739,0,
4,1.82542,0.921766,-0.149125,-0.000563563,0,
4,1.77062,0.912583,-0.150296,-0.000601642,0,
4,1.72128,0.904035,-0.151358,-0.000635834,0,
4,1.67693,0.89615,-0.152323,-0.000666235,0,
4,1.63713,0.888924,-0.153196,-0.000693244,0,
4,1.60144,0.882335,-0.153984,-0.000717234,0,
4,1.56949,0.876351,-0.154695,-0.000738604,0,
4,1.54091,0.870934,-0.155334,-0.000757853,0,
4,1.51537,0.866029,-0.15591,-0.000775266,0,
4,1.49167,0.861441,-0.156445,-0.00079133,0,
4,1.46926,0.85708,-0.156952,-0.000806577,0,
4,1.44801,0.852909,-0.157444,-0.000816664,0,
4,1.42781,0.848891,-0.157918,-0.000823396,0,
4,1.40855,0.845,-0.158371,-0.000829488,0,
4,1.39015,0.841222,-0.158807,-0.000834266,0,
4,1.37252,0.837543,-0.159227,-0.000838203,0,
4,1.3556,0.833944,-0.159632,-0.000841782,0,
4,1.3393,0.83041,-0.160024,-0.000845662,0,
4,1.32357,0.82692,-0.160404,-0.000850688,0,
4,1.30836,0.823455,-0.160773,-0.000857652,0,
4,1.29362,0.819992,-0.161132,-0.000867628,0,
4,1.2793,0.816501,-0.161482,-0.00088197,0,
4,1.26537,0.812952,-0.161824,-0.000902349,0,
4,1.25179,0.809304,-0.162159,-0.000930792,0,
4,1.23852,0.805511,-0.162486,-0.000969705,0,
4,1.22554,0.801518,-0.162807,-0.00102187,0,
4,1.21282,0.797262,-0.163122,-0.00109041,0,
4,1.20034,0.79267,-0.16343,-0.00117861,0,
4,1.18806,0.787666,-0.163733,-0.00128974,0,
4,1.17599,0.782173,-0.164029,-0.00142672,0,
4,1.16408,0.776121,-0.164319,-0.00159169,0,
4,1.15233,0.769454,-0.164604,-0.00178563,0,
4,1.14073,0.762138,-0.164882,-0.00200806,0,
4,1.12925,0.754167,-0.165155,-0.0022569,0,
4,1.11788,0.74556,-0.165422,-0.0025286,0,
4,1.10661,0.736358,-0.165683,-0.00281847,0,
4,1.09543,0.72662,-0.165938,-0.00312115,0,
4,1.08432,0.716416,-0.166189,-0.00343107,0,
4,1.07328,0.705817,-0.166434,-0.00374287,0,
4,1.0623,0.694895,-0.166675,-0.00405172,0,
4,1.05136,0.683715,-0.166911,-0.00435336,0,
4,1.04044,0.672318,-0.167142,-0.0046444,0,
4,1.0295,0.660736,-0.16737,-0.00492227,0,
4,1.01855,0.649014,-0.167594,-0.00518445,0,
4,1.00757,0.637188,-0.167814,-0.00542881,0,
4,0.996544,0.625295,-0.16803,-0.00565367,0,
4,0.98547,0.613361,-0.168243,-0.0058573,0,
4,0.974334,0.601412,-0.168451,-0.00603849,0,
4,0.963124,0.589469,-0.168657,-0.00619606,0,
4,0.951826,0.577551,-0.168857,-0.00632929,0,
4,0.940428,0.565674,-0.169059,-0.00646454,0,
4,0.928915,0.553754,-0.169227,-0.00654645,0,
4,0.917272,0.541631,-0.169355,-0.00661649,0,
4,0.905481,0.52919,-0.169479,-0.00669368,0,
4,0.893524,0.516363,-0.1696,-0.00677816,0,
4,0.881383,0.5031,-0.169723,-0.00686989,0,
4,0.869035,0.489364,-0.169849,-0.00696866,0,
4,0.856459,0.47512,-0.16998,-0.00707406,0,
4,0.843629,0.460341,-0.170114,-0.00718551,0,
4,0.830518,0.445004,-0.170251,-0.00730228,0,
4,0.817097,0.42909,-0.170391,-0.00742353,0,
4,0.803334,0.412585,-0.170532,-0.00754834,0,
4,0.789195,0.395475,-0.170673,-0.00767573,0,
4,0.774643,0.377752,-0.170814,-0.00780463,0,
4,0.759639,0.359407,-0.170954,-0.0079338,0,
4,0.744138,0.340435,-0.171094,-0.00806167,0,
4,0.728096,0.320838,-0.171233,-0.00818629,0,
4,0.711463,0.300632,-0.171374,-0.00830533,0,
4,0.694189,0.279849,-0.171516,-0.00841566,0,
4,0.676218,0.258535,-0.171661,-0.00851297,0,
4,0.657495,0.236744,-0.171806,-0.00859254,0,
4,0.637962,0.214531,-0.171953,-0.00864994,0,
4,0.617561,0.191941,-0.172095,-0.00868157,0,
4,0.596848,0.169623,-0.172223,-0.00868386,0,
4,0.576557,0.148334,-0.172335,-0.00865609,0,
4,0.556564,0.127947,-0.172429,-0.0085995,0,
4,0.536763,0.108361,-0.172512,-0.00851486,0,
4,0.517057,0.0895356,-0.172597,-0.00840265,0,
4,0.497368,0.0715051,-0.172705,-0.00826409,0,
4,0.477632,0.0543788,-0.172862,-0.00810235,0,
4,0.457804,0.0382873,-0.173071,-0.00792357,0,
4,0.437857,0.0232745,-0.173329,-0.0077381,0,
4,0.417786,0.0091434,-0.173367,-0.00748829,0,
4,0.397605,-0.0044763,-0.173207,-0.00713406,0,
4,0.377348,-0.0177996,-0.173078,-0.00681903,0,
4,0.357066,-0.030807,-0.172932,-0.00649887,0,
4,0.336828,-0.0434263,-0.17277,-0.00617493,0,
4,0.316717,-0.0555727,-0.172597,-0.00584467,0,
4,0.296825,-0.0671719,-0.172413,-0.00550798,0,
4,0.27725,-0.0781667,-0.17222,-0.00516671,0,
4,0.258095,-0.0885164,-0.172019,-0.00482328,0,
4,0.239458,-0.098196,-0.171813,-0.00448035,0,
4,0.221432,-0.107194,-0.171602,-0.00414065,0,
4,0.2041,-0.115513,-0.171388,-0.00380684,0,
4,0.187537,-0.123163,-0.171173,-0.00348139,0,
4,0.171798,-0.130165,-0.170959,-0.0031665,0,
4,0.156928,-0.136545,-0.170746,-0.00286404,0,
4,0.142956,-0.142337,-0.170536,-0.00257551,0,
4,0.129894,-0.147572,-0.170332,-0.00230203,0,
4,0.117744,-0.152287,-0.170135,-0.00204438,0,
4,0.106492,-0.156516,-0.169946,-0.00180296,0,
4,0.0961173,-0.160294,-0.169767,-0.00157791,0,
4,0.0865883,-0.163653,-0.169599,-0.00136907,0,
4,0.0778675,-0.166622,-0.169442,-0.00117608,0,
4,0.0699123,-0.169229,-0.169297,-0.000998409,0,
4,0.062677,-0.171497,-0.169164,-0.000835394,0,
4,0.056114,-0.173448,-0.169044,-0.000686275,0,
4,0.0501747,-0.1751,-0.168935,-0.000550239,0,
4,0.0448114,-0.176465,-0.168838,-0.000426445,0,
4,0.039977,-0.177556,-0.168751,-0.000314052,0,
4,0.0356266,-0.178377,-0.168675,-0.000212238,0,
4,0.0317171,-0.178931,-0.168608,-0.000120226,0,
4,0.0282081,-0.179215,-0.16855,-3.72997e-05,0,
4,0.0250617,-0.179218,-0.1685,3.71745e-05,0,
4,0.0222427,-0.178921,-0.168457,0.000103719,0,
4,0.0197189,-0.178296,-0.168421,0.000162707,0,
4,0.0174603,-0.177299,-0.16839,0.000214304,0,
4,0.0154398,-0.175866,-0.168365,0.000258372,0,
4,0.0136326,-0.173905,-0.168344,0.000294321,0,
4,0.0120162,-0.171285,-0.168328,0.000320884,0,
4,0.0105703,-0.167821,-0.168314,0.000335837,0,
4,0.00927657,-0.16326,-0.168305,0.000335839,0,
4,0.00811839,-0.157286,-0.168297,0.000316921,0,
4,0.0070809,-0.149557,-0.168292,0.00027655,0,
4,0.0061507,-0.139835,-0.168289,0.000217466,0,
4,0.00531578,-0.128174,-0.168287,0.000150328,0,
4,0.00456537,-0.115038,-0.168286,8.99951e-05,0,
4,0.00388979,-0.101172,-0.168286,4.66255e-05,0,
4,0.00328037,-0.0872982,-0.168285,2.10773e-05,0,
4,0.00272934,-0.0739021,-0.168285,8.35836e-06,0,
4,0.0022297,-0.0612193,-0.168284,2.88336e-06,0,
4,0.00177519,-0.0493189,-0.168285,8.39108e-07,0,
4,0.00136016,-0.038183,-0.168284,1.93015e-07,0,
4,0.000979511,-0.0277558,-0.168285,3.08817e-08,0,
4,0.00062865,-0.0179668,-0.168283,2.6326e-09,0,
4,0.000303409,-0.00874099,-0.168285,6.4099e-11,0,

6,0,0,-0.0227753,0,0,
6,9,0,-0.0760628,0,0,
6,8.99969,0.0135306,-0.0760625,1.87319e-10,0,
6,8.99934,0.0287891,-0.0760627,8.64532e-09,0,
6,8.99895,0.0460135,-0.0760625,1.17212e-07,0,
6,8.9985,0.0654553,-0.0760626,8.44733e-07,0,
6,8.99801,0.0873733,-0.0760624,4.17008e-06,0,
6,8.99744,0.111967,-0.0760625,1.57737e-05,0,
6,8.99681,0.139208,-0.0760624,4.76689e-05,0,
6,8.99609,0.168569,-0.0760624,0.000115855,0,
6,8.99529,0.198895,-0.0760622,0.000226983,0,
6,8.99438,0.228754,-0.0760622,0.000366447,0,
6,8.99336,0.257048,-0.0760619,0.000508676,0,
6,8.9922,0.28328,-0.0760617,0.00063633,0,
6,8.9909,0.307454,-0.0760613,0.000739667,0,
6,8.98944,0.329728,-0.0760609,0.000826567,0,
6,8.98779,0.350274,-0.0760603,0.000899647,0,
6,8.98593,0.369341,-0.0760597,0.000957523,0,
6,8.98383,0.387189,-0.0760588,0.001005,0,
6,8.98147,0.404023,-0.0760578,0.00104521,0,
6,8.97881,0.42001,-0.0760566,0.00107964,0,
6,8.97581,0.435289,-0.0760552,0.00110962,0,
6,8.97244,0.449978,-0.0760535,0.00113614,0,
6,8.96863,0.464179,-0.0760515,0.00115996,0,
6,8.96435,0.477978,-0.0760491,0.00118164,0,
6,8.95953,0.491447,-0.0760463,0.00120157,0,
6,8.95409,0.504652,-0.076043,0.00122002,0,
6,8.94798,0.517649,-0.0760393,0.00123718,0,
6,8.94109,0.530486,-0.076035,0.00125313,0,
6,8.93334,0.543206,-0.07603,0.00126789,0,
6,8.92463,0.555848,-0.0760243,0.00128141,0,
6,8.91482,0.568444,-0.0760179,0.00129358,0,
6,8.90379,0.581022,-0.0760106,0.00130425,0,
6,8.89139,0.593607,-0.0760024,0.00131322,0,
6,8.87746,0.606219,-0.0759932,0.00132027,0,
6,8.86181,0.618876,-0.0759831,0.00132514,0,
6,8.84423,0.631592,-0.075972,0.00132757,0,
6,8.82452,0.644377,-0.0759598,0.00132727,0,
6,8.80241,0.65724,-0.0759465,0.00132399,0,
6,8.77763,0.670189,-0.0759322,0.00131746,0,
6,8.74989,0.683232,-0.0759169,0.00130744,0,
6,8.71885,0.696376,-0.0759007,0.00129369,0,
6,8.68417,0.709635,-0.0758836,0.00127598,0,
6,8.64545,0.723022,-0.0758659,0.00125406,0,
6,8.60229,0.73656,-0.0758477,0.00122764,0,
6,8.55423,0.750278,-0.0758294,0.00119641,0,
6,8.50082,0.764217,-0.0758112,0.0011605,0,
6,8.44155,0.778444,-0.0757944,0.00111993,0,
6,8.37592,0.793087,-0.0757799,0.00107231,0,
6,8.30339,0.808345,-0.0757682,0.00101634,0,
6,8.22344,0.82448,-0.0757592,0.000949114,0,
6,8.13555,0.841793,-0.0757539,0.000866886,0,
6,8.0392,0.860532,-0.0757481,0.00076623,0,
6,7.93391,0.880689,-0.0757423,0.00064691,0,
6,7.81927,0.901675,-0.075725,0.000515493,0,
6,7.6949,0.922113,-0.075703,0.000387052,0,
6,7.56054,0.940163,-0.0756654,0.00027131,0,
6,7.41603,0.954217,-0.0756184,0.000139818,0,
6,7.26132,0.963294,-0.0755689,5.55177e-05,0,
6,7.09653,0.967648,-0.0755037,1.42078e-05,0,
6,6.92195,0.968737,-0.0754244,8.23692e-07,0,
6,6.73802,0.968318,-0.0753239,-9.60683e-07,0,
6,6.5454,0.967625,-0.0751994,-4.44787e-07,0,
6,6.34489,0.967161,-0.0750478,-1.19609e-07,0,
6,6.1375,0.966942,-0.0748664,-3.01737e-08,0,
6,5.92439,0.96683,-0.0746514,-1.10398e-08,0,
6,5.70687,0.966717,-0.0743984,-6.41358e-09,0,
6,5.48633,0.96656,-0.0741027,-5.13419e-09,0,
6,5.26426,0.966356,-0.0737593,-5.00333e-09,0,
6,5.04218,0.966114,-0.0733632,-5.31578e-09,0,
6,4.82159,0.965846,-0.0729094,-5.78116e-09,0,
6,4.60398,0.965565,-0.0723935,-6.35097e-09,0,
6,4.39071,0.965269,-0.0718118,-7.20483e-09,0,
6,4.18307,0.964925,-0.0711617,-8.68543e-09,0,
6,3.98218,0.964472,-0.0704418,-1.10093e-08,0,
6,3.78902,0.963851,-0.0696524,-1.38198e-08,0,
6,3.60438,0.963089,-0.0687957,-1.77492e-08,0,
6,3.42888,0.962359,-0.0678759,-3.66713e-08,0,
6,3.26296,0.961955,-0.066898,-8.94949e-08,0,
6,3.10691,0.962117,-0.0658677,-6.89103e-08,0,
6,2.96084,0.962815,-0.0647912,2.08076e-07,0,
6,2.82473,0.963654,-0.0636773,-4.86801e-08,0,
6,2.69844,0.964,-0.0625375,-3.8562e-06,0,
6,2.58172,0.963239,-0.0613858,-1.57301e-05,0,
6,2.47424,0.960979,-0.0602371,-3.93903e-05,0,
6,2.37559,0.957121,-0.0591058,-7.61502e-05,0,
6,2.28535,0.951819,-0.0580049,-0.000124861,0,
6,2.20301,0.945376,-0.0569449,-0.000182664,0,
6,2.1281,0.938154,-0.0559342,-0.00024585,0,
6,2.06009,0.930506,-0.0549791,-0.000310516,0,
6,1.99849,0.922743,-0.054082,-0.000372903,0,
6,1.9428,0.915122,-0.0532473,-0.000429902,0,
6,1.89255,0.907837,-0.0524701,-0.000480699,0,
6,1.84728,0.900977,-0.0517576,-0.000523443,0,
6,1.80655,0.894544,-0.0511094,-0.000553697,0,
6,1.76996,0.888534,-0.0505112,-0.000581407,0,
6,1.73712,0.882965,-0.049967,-0.000606783,0,
6,1.70768,0.877811,-0.0494689,-0.000630278,0,
6,1.67998,0.872842,-0.048996,-0.000653073,0,
6,1.65329,0.867961,-0.0485333,-0.000675351,0,
6,1.62754,0.863166,-0.0480814,-0.000697069,0,
6,1.60265,0.858456,-0.0476389,-0.000718289,0,
6,1.57854,0.85383,-0.0472054,-0.000738965,0,
6,1.55515,0.849286,-0.0467803,-0.000759134,0,
6,1.53242,0.84482,-0.046363,-0.00077881,0,
6,1.5103,0.840424,-0.0459531,-0.000797981,0,
6,1.48874,0.836086,-0.0455502,-0.000816656,0,
6,1.46769,0.831789,-0.0451536,-0.000834983,0,
6,1.44712,0.827527,-0.0447621,-0.000853345,0,
6,1.42698,0.823312,-0.0443728,-0.000872343,0,
6,1.40725,0.819186,-0.0439852,-0.000892359,0,
6,1.38788,0.815194,-0.0435962,-0.000913371,0,
6,1.36886,0.811341,-0.043218,-0.000933562,0,
6,1.35015,0.807558,-0.0428523,-0.000935925,0,
6,1.33173,0.80378,-0.0424883,-0.000945047,0,
6,1.31357,0.799988,-0.0421272,-0.000955795,0,
6,1.29566,0.796166,-0.0417688,-0.000968472,0,
6,1.27797,0.792294,-0.0414126,-0.000984098,0,
6,1.26048,0.788346,-0.0410587,-0.00100388,0,
6,1.24318,0.78429,-0.0407067,-0.00102939,0,
6,1.22605,0.78009,-0.0403565,-0.00106246,0,
6,1.20907,0.775699,-0.0400081,-0.00110523,0,
6,1.19223,0.771066,-0.0396612,-0.00116008,0,
6,1.17551,0.766133,-0.0393159,-0.00122951,0,
6,1.1589,0.760835,-0.0389721,-0.00131597,0,
6,1.14238,0.755108,-0.0386299,-0.00142162,0,
6,1.12595,0.748893,-0.0382892,-0.00154806,0,
6,1.10959,0.742138,-0.0379503,-0.00169602,0,
6,1.09329,0.73481,-0.0376134,-0.00186514,0,
6,1.07704,0.726893,-0.0372788,-0.00205383,0,
6,1.06081,0.718391,-0.0369466,-0.00225935,0,
6,1.04459,0.709324,-0.0366171,-0.002478,0,
6,1.02836,0.699734,-0.0362905,-0.00270538,0,
6,1.01211,0.689674,-0.0359672,-0.00293667,0,
6,0.99583,0.679207,-0.0356472,-0.003167,0,
6,0.97951,0.668395,-0.0353309,-0.00339213,0,
6,0.963136,0.6573,-0.0350187,-0.00362283,0,
6,0.946694,0.645887,-0.0347018,-0.00382674,0,
6,0.930172,0.634054,-0.0343806,-0.00403309,0,
6,0.913555,0.621727,-0.0340628,-0.00424616,0,
6,0.896829,0.608854,-0.0337485,-0.00446789,0,
6,0.879979,0.595394,-0.0334392,-0.00469969,0,
6,0.862989,0.581322,-0.0331351,-0.00494265,0,
6,0.845842,0.566631,-0.0328369,-0.00519767,0,
6,0.828521,0.551334,-0.0325459,-0.00546547,0,
6,0.811008,0.53544,-0.0322641,-0.00574149,0,
6,0.793282,0.518956,-0.031993,-0.00602407,0,
6,0.775322,0.501888,-0.0317334,-0.00631142,0,
6,0.757107,0.484249,-0.0314862,-0.00660121,0,
6,0.738612,0.466062,-0.0312522,-0.00689053,0,
6,0.719813,0.447361,-0.0310326,-0.00717595,0,
6,0.700681,0.428194,-0.0308282,-0.00745354,0,
6,0.681188,0.408614,-0.0306391,-0.00771896,0,
6,0.661304,0.388676,-0.0304635,-0.00796756,0,
6,0.640996,0.368423,-0.0302979,-0.00819433,0,
6,0.620228,0.347891,-0.0301389,-0.00839376,0,
6,0.598964,0.327123,-0.0299887,-0.00855971,0,
6,0.577166,0.30623,-0.0298622,-0.00868562,0,
6,0.554791,0.285447,-0.0297922,-0.00876648,0,
6,0.531799,0.265172,-0.0298262,-0.00880016,0,
6,0.508144,0.245864,-0.0299843,-0.00878936,0,
6,0.48378,0.227761,-0.0302382,-0.00873535,0,
6,0.459585,0.211153,-0.0302005,-0.00847091,0,
6,0.436695,0.196202,-0.0299655,-0.00815739,0,
6,0.414961,0.182519,-0.029807,-0.00787899,0,
6,0.394252,0.169923,-0.0296272,-0.00759003,0,
6,0.374445,0.158266,-0.0294543,-0.00729708,0,
6,0.355433,0.14743,-0.0292831,-0.00700165,0,
6,0.337122,0.137321,-0.0291119,-0.00670366,0,
6,0.319433,0.127855,-0.0289388,-0.006404,0,
6,0.3023,0.118964,-0.0287621,-0.00610338,0,
6,0.28567,0.110592,-0.0285803,-0.00580246,0,
6,0.269507,0.102694,-0.0283921,-0.00550194,0,
6,0.253785,0.0952307,-0.0281965,-0.00520255,0,
6,0.238493,0.088174,-0.0279926,-0.00490515,0,
6,0.223631,0.0815002,-0.0277799,-0.0046107,0,
6,0.209207,0.0751905,-0.0275583,-0.00432029,0,
6,0.195237,0.0692298,-0.0273281,-0.00403507,0,
6,0.181744,0.0636056,-0.02709,-0.00375626,0,
6,0.168754,0.0583065,-0.0268451,-0.00348508,0,
6,0.156292,0.053322,-0.0265949,-0.0032227,0,
6,0.144384,0.0486416,-0.0263413,-0.00297023,0,
6,0.133052,0.0442546,-0.0260865,-0.00272863,0,
6,0.122315,0.0401497,-0.0258328,-0.00249873,0,
6,0.112183,0.0363149,-0.0255825,-0.00228112,0,
6,0.102665,0.0327378,-0.025338,-0.00207626,0,
6,0.0937597,0.0294054,-0.0251015,-0.00188436,0,
6,0.0854609,0.0263042,-0.0248748,-0.00170546,0,
6,0.077757,0.023421,-0.0246596,-0.00153941,0,
6,0.0706309,0.020742,-0.024457,-0.00138594,0,
6,0.0640611,0.0182539,-0.024268,-0.00124462,0,
6,0.0580229,0.0159437,-0.024093,-0.00111492,0,
6,0.0524888,0.0137986,-0.0239323,-0.000996254,0,
6,0.0474296,0.0118064,-0.0237856,-0.00088797,0,
6,0.042815,0.00995531,-0.0236528,-0.000789388,0,
6,0.0386145,0.00823431,-0.0235331,-0.000699816,0,
6,0.0347975,0.00663285,-0.023426,-0.000618564,0,
6,0.0313344,0.00514099,-0.0233306,-0.000544958,0,
6,0.0281964,0.00374941,-0.0232462,-0.00047835,0,
6,0.0253561,0.00244938,-0.0231717,-0.000418125,0,
6,0.0227875,0.00123276,-0.0231066,-0.000363703,0,
6,0.0204662,9.19622e-05,-0.0230497,-0.000314549,0,
6,0.0183694,-0.000980102,-0.0230006,-0.000270108,0,
6,0.016476,-0.00199007,-0.022958,-0.000229935,0,
6,0.0147664,-0.00294389,-0.0229219,-0.000193599,0,
6,0.0132228,-0.0038468,-0.0228909,-0.000160698,0,
6,0.0118288,-0.00470301,-0.0228654,-0.000130882,0,
6,0.0105693,-0.00551517,-0.0228436,-0.000103862,0,
6,0.00943073,-0.00628324,-0.0228267,-7.94314e-05,0,
6,0.00840063,-0.00700253,-0.0228122,-5.75263e-05,0,
6,0.00746774,-0.00766045,-0.0228024,-3.83228e-05,0,
6,0.00662185,-0.00823197,-0.0227937,-2.23291e-05,0,
6,0.00585371,-0.00867633,-0.0227893,-1.02993e-05,0,
6,0.00515491,-0.00894139,-0.0227846,-2.72947e-06,0,
6,0.00451788,-0.00898178,-0.0227838,8.18066e-07,0,
6,0.00393573,-0.00878172,-0.022781,1.70531e-06,0,
6,0.00340221,-0.00836088,-0.0227818,1.40799e-06,0,
6,0.00291168,-0.00775947,-0.0227795,8.61558e-07,0,
6,0.00245897,-0.00702028,-0.022781,4.34514e-07,0,
6,0.00203939,-0.00617907,-0.0227785,1.84637e-07,0,
6,0.00164864,-0.00526245,-0.0227806,6.4848e-08,0,
6,0.00128281,-0.00428893,-0.0227775,1.77331e-08,0,
6,0.000938257,-0.0032706,-0.0227803,3.33096e-09,0,
6,0.000611645,-0.0022146,-0.0227765,3.28812e-10,0,
6,0.000299862,-0.00112424,-0.0227803,9.01185e-12,0,

10,0.000296632,0.00827067,0.0305003,-4.67013e-11,0,
10,0.000596102,0.0166172,0.030501,-1.73069e-09,0,
10,0.000900397,0.0250949,0.0305003,-1.75954e-08,0,
10,0.00121153,0.0337594,0.0305008,-9.45478e-08,0,
10,0.00153158,0.0426665,0.0305002,-3.53644e-07,0,
10,0.00186264,0.0518707,0.0305007,-1.05142e-06,0,
10,0.00220692,0.0614235,0.0305002,-2.66885e-06,0,
10,0.00256668,0.0713681,0.0305005,-6.02671e-06,0,
10,0.00294431,0.0817322,0.0305001,-1.24035e-05,0,
10,0.00334229,0.092517,0.0305003,-2.3587e-05,0,
10,0.00376326,0.103683,0.0304999,-4.17342e-05,0,
10,0.00421,0.115137,0.0305001,-6.8908e-05,0,
10,0.00468544,0.12673,0.0304996,-0.000106307,0,
10,0.00519274,0.138266,0.0304996,-0.000153514,0,
10,0.00573524,0.149533,0.030499,-0.000208294,0,
10,0.00631651,0.160334,0.0304987,-0.000267172,0,
10,0.00694041,0.170521,0.0304978,-0.000326471,0,
10,0.00761104,0.180002,0.030497,-0.000383185,0,
10,0.00833284,0.188738,0.0304957,-0.000435375,0,
10,0.00911058,0.196735,0.0304942,-0.000482118,0,
10,0.0099494,0.204028,0.0304921,-0.000523271,0,
10,0.0108548,0.210671,0.0304897,-0.000559191,0,
10,0.0118329,0.216726,0.0304865,-0.000590515,0,
10,0.0128901,0.222257,0.0304828,-0.000617992,0,
10,0.0140333,0.227328,0.0304781,-0.000642391,0,
10,0.0152702,0.231998,0.0304728,-0.000664439,0,
10,0.0166089,0.236319,0.0304663,-0.000684793,0,
10,0.0180584,0.24034,0.0304589,-0.000704037,0,
10,0.0196282,0.244102,0.0304501,-0.000722683,0,
10,0.0213288,0.247642,0.0304401,-0.000741178,0,
10,0.0231714,0.250993,0.0304286,-0.000759919,0,
10,0.0251682,0.254183,0.0304154,-0.000779263,0,
10,0.0273326,0.257237,0.0304004,-0.000799538,0,
10,0.0296789,0.260177,0.0303835,-0.000821049,0,
10,0.0322227,0.263024,0.0303643,-0.000844089,0,
10,0.0349809,0.265794,0.0303428,-0.000868948,0,
10,0.0379719,0.268506,0.0303187,-0.000895913,0,
10,0.0412155,0.271173,0.0302918,-0.000925276,0,
10,0.0447333,0.273811,0.0302618,-0.00095734,0,
10,0.0485489,0.276433,0.0302284,-0.000992422,0,
10,0.0526875,0.279053,0.0301915,-0.00103085,0,
10,0.0571768,0.281683,0.0301507,-0.00107298,0,
10,0.0620466,0.284338,0.0301058,-0.00111919,0,
10,0.0673295,0.28703,0.0300565,-0.00116988,0,
10,0.0730607,0.289774,0.0300024,-0.00122547,0,
10,0.0792784,0.292584,0.0299434,-0.00128643,0,
10,0.0860241,0.295476,0.0298792,-0.00135324,0,
10,0.0933428,0.298467,0.0298095,-0.00142643,0,
10,0.101283,0.301575,0.0297341,-0.00150655,0,
10,0.109899,0.30482,0.0296529,-0.00159421,0,
10,0.119247,0.308225,0.0295658,-0.00169001,0,
10,0.12939,0.311814,0.0294726,-0.0017946,0,
10,0.140395,0.315616,0.0293733,-0.00190867,0,
10,0.152337,0.319662,0.029268,-0.00203288,0,
10,0.165296,0.323989,0.0291569,-0.00216792,0,
10,0.179357,0.328639,0.02904,-0.00231446,0,
10,0.194615,0.333658,0.0289176,-0.00247309,0,
10,0.211171,0.339102,0.0287902,-0.00264434,0,
10,0.229138,0.345035,0.0286577,-0.00282859,0,
10,0.248635,0.351529,0.028521,-0.003026,0,
10,0.269793,0.358671,0.0283793,-0.00323645,0,
10,0.292753,0.366558,0.0282347,-0.00345936,0,
10,0.317669,0.375305,0.0280831,-0.00369225,0,
10,0.344708,0.385035,0.0279302,-0.00393141,0,
10,0.372405,0.395286,0.0277806,-0.00416593,0,
10,0.399623,0.405658,0.0276368,-0.00438443,0,
10,0.426397,0.41615,0.0274994,-0.00458365,0,
10,0.452757,0.426763,0.0273668,-0.00476476,0,
10,0.478735,0.437506,0.0272412,-0.00492544,0,
10,0.504358,0.448396,0.0271224,-0.00506414,0,
10,0.529657,0.459453,0.0270112,-0.00518023,0,
10,0.554656,0.470691,0.0269005,-0.00527381,0,
10,0.579382,0.48212,0.0267985,-0.00534445,0,
10,0.603859,0.493746,0.0266805,-0.00542122,0,
10,0.628112,0.505702,0.0266151,-0.00545398,0,
10,0.652163,0.518327,0.0266224,-0.00537476,0,
10,0.676035,0.53186,0.0266049,-0.00526596,0,
10,0.699751,0.546197,0.0265494,-0.00512668,0,
10,0.72333,0.56105,0.0264529,-0.00495776,0,
10,0.746795,0.576108,0.026328,-0.00476256,0,
10,0.770165,0.591132,0.0261836,-0.00454581,0,
10,0.79346,0.605967,0.0260267,-0.0043125,0,
10,0.816699,0.620516,0.0258595,-0.0040675,0,
10,0.839903,0.634695,0.0256821,-0.00381571,0,
10,0.863088,0.648399,0.0254922,-0.00356882,0,
10,0.886275,0.661519,0.0252898,-0.00333013,0,
10,0.909481,0.673993,0.0250781,-0.00310016,0,
10,0.932723,0.685814,0.0248589,-0.00287946,0,
10,0.956021,0.697011,0.0246332,-0.00266868,0,
10,0.97939,0.707623,0.024401,-0.00246842,0,
10,1.00285,0.717681,0.0241622,-0.00227921,0,
10,1.02641,0.727209,0.0239161,-0.0021015,0,
10,1.0501,0.736229,0.0236634,-0.00193563,0,
10,1.07392,0.744763,0.0234034,-0.00178171,0,
10,1.0979,0.752848,0.0231388,-0.00163548,0,
10,1.12205,0.760504,0.0228675,-0.00150172,0,
10,1.14639,0.767734,0.022587,-0.00138135,0,
10,1.17093,0.774543,0.0222988,-0.0012745,0,
10,1.19568,0.780954,0.0220028,-0.00118162,0,
10,1.22066,0.787004,0.021699,-0.00110237,0,
10,1.24589,0.792739,0.0213887,-0.00103581,0,
10,1.27137,0.79821,0.0210703,-0.000980631,0,
10,1.29713,0.80347,0.0207475,-0.000939258,0,
10,1.32317,0.808614,0.0204188,-0.000898766,0,
10,1.34951,0.813776,0.0200836,-0.000856475,0,
10,1.37616,0.819018,0.0197443,-0.000817062,0,
10,1.40313,0.824305,0.0193969,-0.000780683,0,
10,1.43043,0.82956,0.0190417,-0.000747128,0,
10,1.45807,0.834732,0.0186779,-0.000715787,0,
10,1.48607,0.839818,0.0183068,-0.000685955,0,
10,1.51444,0.844837,0.0179284,-0.000657123,0,
10,1.54318,0.849806,0.0175429,-0.000629078,0,
10,1.57231,0.854723,0.0171497,-0.000601806,0,
10,1.60184,0.859566,0.016749,-0.000575352,0,
10,1.63178,0.864306,0.0163403,-0.000549759,0,
10,1.66213,0.868917,0.0159243,-0.000525025,0,
10,1.69292,0.87338,0.0155001,-0.000501054,0,
10,1.72416,0.877701,0.0150693,-0.000477497,0,
10,1.75585,0.881921,0.0146289,-0.000449873,0,
10,1.78802,0.886086,0.0141801,-0.00042186,0,
10,1.82067,0.890204,0.0137243,-0.00039376,0,
10,1.85383,0.894254,0.0132596,-0.000364521,0,
10,1.88751,0.898215,0.0127866,-0.000334371,0,
10,1.92173,0.902062,0.0123052,-0.00030368,0,
10,1.95652,0.905772,0.0118147,-0.000272882,0,
10,1.9919,0.90932,0.0113159,-0.00024245,0,
10,2.02791,0.912683,0.0108073,-0.000212926,0,
10,2.06456,0.915842,0.0102911,-0.000184532,0,
10,2.10268,0.918836,0.00975233,-0.000156847,0,
10,2.1443,0.921754,0.00916717,-0.000130236,0,
10,2.18977,0.924546,0.00852844,-0.000104821,0,
10,2.23946,0.927129,0.00783438,-8.09037e-05,0,
10,2.29376,0.929422,0.00707944,-5.93031e-05,0,
10,2.35309,0.931341,0.00626138,-4.07138e-05,0,
10,2.4179,0.932817,0.00537616,-2.56669e-05,0,
10,2.48863,0.933804,0.00442213,-1.44517e-05,0,
10,2.56575,0.934298,0.00339716,-6.99974e-06,0,
10,2.64971,0.934352,0.00230102,-2.82348e-06,0,
10,2.74098,0.934085,0.00113369,-1.06005e-06,0,
10,2.83997,0.933676,-0.000103286,-6.66228e-07,0,
10,2.94709,0.933328,-0.00140798,-7.27312e-07,0,
10,3.06269,0.933229,-0.0027772,-7.19575e-07,0,
10,3.18706,0.933488,-0.00420702,-5.41352e-07,0,
10,3.3204,0.934113,-0.00569199,-3.12437e-07,0,
10,3.46281,0.935011,-0.00722503,-1.45527e-07,0,
10,3.61427,0.936036,-0.00879698,-6.23602e-08,0,
10,3.77463,0.937051,-0.0103967,-3.18725e-08,0,
10,3.94358,0.937972,-0.0120115,-2.2627e-08,0,
10,4.12067,0.938785,-0.0136276,-1.95156e-08,0,
10,4.30525,0.939523,-0.0152309,-1.8116e-08,0,
10,4.49655,0.940228,-0.0168075,-1.75929e-08,0,
10,4.6936,0.940929,-0.0183441,-1.79237e-08,0,
10,4.89531,0.941629,-0.0198285,-1.96029e-08,0,
10,5.10047,0.942313,-0.0212498,-2.40879e-08,0,
10,5.30776,0.942962,-0.0225989,-3.46303e-08,0,
10,5.51581,0.943558,-0.0238686,-5.7959e-08,0,
10,5.72323,0.944098,-0.0250535,-1.08523e-07,0,
10,5.92863,0.944607,-0.0261505,-2.2159e-07,0,
10,6.13069,0.945151,-0.0271583,-4.89815e-07,0,
10,6.32816,0.945826,-0.0280776,-1.10734e-06,0,
10,6.51991,0.946664,-0.0289108,-2.15721e-06,0,
10,6.70495,0.947435,-0.0296615,-2.3407e-06,0,
10,6.88244,0.947427,-0.0303334,3.67995e-06,0,
10,7.0517,0.945412,-0.0309306,2.67918e-05,0,
10,7.21224,0.940003,-0.0314539,8.03081e-05,0,
10,7.3637,0.930315,-0.0319089,0.000173441,0,
10,7.5059,0.916388,-0.0322998,0.000297103,0,
10,7.63878,0.898815,-0.0326309,0.000404684,0,
10,7.76243,0.8787,-0.0329118,0.000523643,0,
10,7.87701,0.857808,-0.0331372,0.000645205,0,
10,7.9828,0.837598,-0.0333236,0.000755548,0,
10,8.08014,0.818781,-0.0334731,0.000849634,0,
10,8.16941,0.801441,-0.0335969,0.000927935,0,
10,8.25106,0.785331,-0.0336992,0.000993598,0,
10,8.32554,0.770125,-0.033786,0.00104985,0,
10,8.39331,0.755544,-0.0338597,0.00109894,0,
10,8.45484,0.741388,-0.033923,0.00114217,0,
10,8.5106,0.727538,-0.0339769,0.00118013,0,
10,8.56104,0.713932,-0.0340233,0.00121308,0,
10,8.60659,0.700552,-0.0340631,0.0012411,0,
10,8.64767,0.687406,-0.0340975,0.00126431,0,
10,8.68467,0.674497,-0.0341273,0.00128255,0,
10,8.71795,0.661802,-0.0341532,0.00129259,0,
10,8.74786,0.649292,-0.0341757,0.00129911,0,
10,8.77471,0.636964,-0.034195,0.00130133,0,
10,8.79881,0.624814,-0.0342117,0.0012997,0,
10,8.8204,0.612836,-0.0342261,0.00129473,0,
10,8.83975,0.601019,-0.0342384,0.00128694,0,
10,8.85708,0.589349,-0.0342489,0.0012768,0,
10,8.87259,0.577809,-0.0342579,0.00126476,0,
10,8.88646,0.566378,-0.0342656,0.00125123,0,
10,8.89886,0.555032,-0.0342721,0.00123655,0,
10,8.90995,0.543743,-0.0342776,0.00122101,0,
10,8.91986,0.532481,-0.0342822,0.00120483,0,
10,8.92872,0.521213,-0.0342861,0.00118817,0,
10,8.93663,0.509904,-0.0342893,0.00117112,0,
10,8.94369,0.498514,-0.034292,0.00115373,0,
10,8.95,0.487002,-0.0342942,0.00113594,0,
10,8.95564,0.475323,-0.0342961,0.00111769,0,
10,8.96067,0.463427,-0.0342976,0.00109881,0,
10,8.96517,0.451259,-0.0342989,0.00107905,0,
10,8.96918,0.438758,-0.0342999,0.00105808,0,
10,8.97276,0.425853,-0.0343009,0.00103548,0,
10,8.97596,0.412466,-0.0343014,0.00101069,0,
10,8.97882,0.398504,-0.0343022,0.000982975,0,
10,8.98137,0.383859,-0.0343025,0.000951404,0,
10,8.98365,0.368403,-0.034303,0.000914768,0,
10,8.98569,0.351987,-0.0343031,0.000871659,0,
10,8.9875,0.334429,-0.0343036,0.000819878,0,
10,8.98913,0.315494,-0.0343035,0.000754402,0,
10,8.99058,0.294952,-0.034304,0.000677048,0,
10,8.99188,0.272641,-0.0343038,0.000585416,0,
10,8.99304,0.248401,-0.0343043,0.000472733,0,
10,8.99408,0.22219,-0.0343039,0.000346616,0,
10,8.99501,0.194381,-0.0343045,0.000220757,0,
10,8.99583,0.165875,-0.034304,0.000116985,0,
10,8.99658,0.137938,-0.0343046,5.02252e-05,0,
10,8.99724,0.111684,-0.034304,1.73302e-05,0,
10,8.99784,0.0876995,-0.0343047,4.76019e-06,0,
10,8.99837,0.0660942,-0.034304,9.98211e-07,0,
10,8.99885,0.0467331,-0.0343048,1.4299e-07,0,
10,8.99927,0.029405,-0.0343039,1.08554e-08,0,
10,8.99966,0.0138952,-0.0343049,2.40172e-10,0,
10,0,0,0.0305012,0,0,
10,9,0,-0.0343038,0,0,

0.004,0,0,-0.224117,0,-1.01943e-07,
0.00868226,0,0,-0.224113,0,-1.91715e-07,
0.014062,0,0,-0.224116,0,-3.02909e-07,
0.0201548,0,0,-0.224114,0,-7.59587e-07,
0.0269766,0,0,-0.224116,0,-1.35728e-06,
0.0345437,0,0,-0.224115,0,-2.19246e-06,
0.0428729,0,0,-0.224115,0,-3.09935e-06,
0.051981,0,0,-0.224113,0,-4.03017e-06,
0.0618853,0,0,-0.224111,0,-4.79108e-06,
0.0726036,0,0,-0.224107,0,-5.20935e-06,
0.0841536,0,0,-0.224102,0,-5.02843e-06,
0.0965535,0,0,-0.224097,0,-4.00492e-06,
0.109822,0,0,-0.224091,0,-1.90991e-06,
0.123977,0,0,-0.224085,0,1.38955e-06,
0.139037,0,0,-0.224082,0,5.8913e-06,
0.155022,0,0,-0.224082,0,1.14279e-05,
0.171949,0,0,-0.224088,0,1.76744e-05,
0.189839,0,0,-0.2241,0,2.41982e-05,
0.208709,0,0,-0.224119,0,3.05181e-05,
0.228579,0,0,-0.224144,0,3.61802e-05,
0.249467,0,0,-0.224174,0,4.08044e-05,
0.271391,0,0,-0.224208,0,4.41264e-05,
0.29437,0,0,-0.224243,0,4.60048e-05,
0.31842,0,0,-0.224278,0,4.64267e-05,
0.343559,0,0,-0.22431,0,4.54914e-05,
0.369804,0,0,-0.224338,0,4.3396e-05,
0.39717,0,0,-0.224362,0,4.04114e-05,
0.425672,0,0,-0.22438,0,3.6862e-05,
0.455324,0,0,-0.224393,0,3.31043e-05,
0.48614,0,0,-0.224401,0,2.95202e-05,
0.518132,0,0,-0.224406,0,2.65141e-05,
0.551309,0,0,-0.224408,0,2.45168e-05,
0.585683,0,0,-0.224409,0,2.39313e-05,
0.621259,0,0,-0.224412,0,2.5009e-05,
0.658046,0,0,-0.224421,0,2.77528e-05,
0.696047,0,0,-0.224441,0,3.19166e-05,
0.735265,0,0,-0.224475,0,3.71155e-05,
0.7757,0,0,-0.224524,0,4.29626e-05,
0.817352,0,0,-0.224591,0,4.91693e-05,
0.860215,0,0,-0.22468,0,5.55949e-05,
0.904285,0,0,-0.224793,0,6.21891e-05,
0.949552,0,0,-0.224938,0,6.88275e-05,
0.996004,0,0,-0.225125,0,7.51926e-05,
1.04363,0,0,-0.225365,0,8.06584e-05,
1.09241,0,0,-0.225679,0,8.4078e-05,
1.14232,0,0,-0.226091,0,8.36894e-05,
1.19335,0,0,-0.226626,0,7.7259e-05,
1.24546,0,0,-0.227309,0,6.24215e-05,
1.29863,0,0,-0.228151,0,3.72204e-05,
1.35283,0,0,-0.22915,0,7.48956e-07,
1.40802,0,0,-0.230284,0,-4.64245e-05,
1.46416,0,0,-0.231519,0,-0.000102355,
1.52121,0,0,-0.232817,0,-0.000164346,
1.57913,0,0,-0.234139,0,-0.000229744,
1.63787,0,0,-0.235453,0,-0.000296528,
1.69739,0,0,-0.236733,0,-0.000363491,
1.75761,0,0,-0.237957,0,-0.000430095,
1.81851,0,0,-0.239105,0,-0.00049619,
1.88,0,0,-0.240164,0,-0.000561776,
1.94204,0,0,-0.241117,0,-0.000626866,
2.00457,0,0,-0.241952,0,-0.000691437,
2.06751,0,0,-0.242656,0,-0.000755429,
2.13081,0,0,-0.243215,0,-0.000818754,
2.19439,0,0,-0.243619,0,-0.00088131,
2.25819,0,0,-0.243857,0,-0.000942977,
2.32214,0,0,-0.243917,0,-0.00100362,
2.38617,0,0,-0.243792,0,-0.00106311,
2.4502,0,0,-0.243471,0,-0.00112126,
2.51418,0,0,-0.242948,0,-0.00117794,
2.57803,0,0,-0.242218,0,-0.00123296,
2.64167,0,0,-0.241275,0,-0.00128616,
2.70505,0,0,-0.240116,0,-0.00133737,
2.76808,0,0,-0.23874,0,-0.00138641,
2.83072,0,0,-0.237147,0,-0.00143307,
2.89288,0,0,-0.235337,0,-0.00147716,
2.95451,0,0,-0.233316,0,-0.00151847,
3.01555,0,0,-0.23109,0,-0.00155682,
3.07594,0,0,-0.228665,0,-0.00159205,
3.13561,0,0,-0.226054,0,-0.001624,
3.19453,0,0,-0.223267,0,-0.00165258,
3.25262,0,0,-0.220319,0,-0.0016777,
3.30985,0,0,-0.217226,0,-0.00169935,
3.36617,0,0,-0.214005,0,-0.00171756,
3.42154,0,0,-0.210673,0,-0.00173239,
3.47591,0,0,-0.20725,0,-0.00174396,
3.52925,0,0,-0.203753,0,-0.00175242,
3.58152,0,0,-0.200199,0,-0.00175792,
3.6327,0,0,-0.196608,0,-0.00176066,
3.68276,0,0,-0.192995,0,-0.00176083,
3.73167,0,0,-0.189376,0,-0.00175863,
3.77941,0,0,-0.185766,0,-0.00175427,
3.82596,0,0,-0.182178,0,-0.00174797,
3.8713,0,0,-0.178626,0,-0.00173993,
3.91543,0,0,-0.175116,0,-0.00173023,
3.95833,0,0,-0.171678,0,-0.0017194,
4,0,0,-0.168283,0,-0.00170736,
4.04167,0,0,-0.164868,0,-0.0016938,
4.08333,0,0,-0.161427,0,-0.00167896,
4.125,0,0,-0.157964,0,-0.00166283,
4.16667,0,0,-0.154484,0,-0.00164546,
4.20833,0,0,-0.15099,0,-0.00162687,
4.25,0,0,-0.147485,0,-0.00160712,
4.29167,0,0,-0.143974,0,-0.00158627,
4.33333,0,0,-0.14046,0,-0.00156435,
4.375,0,0,-0.136947,0,-0.00154141,
4.41667,0,0,-0.133436,0,-0.00151749,
4.45833,0,0,-0.129933,0,-0.00149264,
4.5,0,0,-0.126438,0,-0.0014669,
4.54167,0,0,-0.122956,0,-0.00144031,
4.58333,0,0,-0.119489,0,-0.00141291,
4.625,0,0,-0.11604,0,-0.00138474,
4.66667,0,0,-0.11261,0,-0.00135583,
4.70833,0,0,-0.109203,0,-0.00132623,
4.75,0,0,-0.105821,0,-0.00129598,
4.79167,0,0,-0.102465,0,-0.0012651,
4.83333,0,0,-0.0991372,0,-0.00123362,
4.875,0,0,-0.0958402,0,-0.00120159,
4.91667,0,0,-0.0925754,0,-0.00116902,
4.95833,0,0,-0.0893444,0,-0.00113595,
5,0,0,-0.0861489,0,-0.0011024,
5.04167,0,0,-0.0829903,0,-0.00106841,
5.08333,0,0,-0.0798701,0,-0.001034,
5.125,0,0,-0.0767896,0,-0.000999191,
5.16667,0,0,-0.0737501,0,-0.000964022,
5.20833,0,0,-0.0707527,0,-0.000928518,
5.25,0,0,-0.0677984,0,-0.000892706,
5.29167,0,0,-0.0648883,0,-0.000856613,
5.33333,0,0,-0.0620233,0,-0.000820267,
5.375,0,0,-0.0592041,0,-0.000783695,
5.41667,0,0,-0.0564314,0,-0.00074692,
5.45833,0,0,-0.0537059,0,-0.000709966,
5.5,0,0,-0.0510282,0,-0.000672858,
5.54167,0,0,-0.0483987,0,-0.000635617,
5.58333,0,0,-0.0458179,0,-0.000598264,
5.625,0,0,-0.0432862,0,-0.000560818,
5.66667,0,0,-0.040804,0,-0.000523297,
5.70833,0,0,-0.0383715,0,-0.000485719,
5.75,0,0,-0.0359892,0,-0.000448098,
5.79167,0,0,-0.0336573,0,-0.000410446,
5.83333,0,0,-0.0313764,0,-0.000372775,
5.875,0,0,-0.029147,0,-0.000335093,
5.91667,0,0,-0.0269697,0,-0.000297414,
5.95833,0,0,-0.0248455,0,-0.000259765,
6,0,0,-0.0227755,0,-0.000222206,
6.04167,0,0,-0.0207612,0,-0.000184842,
6.08333,0,0,-0.0188032,0,-0.000147816,
6.125,0,0,-0.0169016,0,-0.000111265,
6.16667,0,0,-0.0150549,0,-7.52628e-05,
6.20833,0,0,-0.0132616,0,-3.98195e-05,
6.25,0,0,-0.0115201,0,-4.91083e-06,
6.29167,0,0,-0.00982925,0,2.94925e-05,
6.33333,0,0,-0.00818766,0,6.34137e-05,
6.375,0,0,-0.00659421,0,9.68693e-05,
6.41667,0,0,-0.00504783,0,0.000129871,
6.45833,0,0,-0.00354752,0,0.000162428,
6.5,0,0,-0.0020923,0,0.000194546,
6.54167,0,0,-0.000681233,0,0.00022623,
6.58333,0,0,0.000686611,0,0.000257484,
6.625,0,0,0.00201213,0,0.000288313,
6.66667,0,0,0.0032962,0,0.000318719,
6.70833,0,0,0.00453969,0,0.000348708,
6.75,0,0,0.00574344,0,0.00037828,
6.79167,0,0,0.00690827,0,0.00040744,
6.83333,0,0,0.00803501,0,0.000436188,
6.875,0,0,0.00912447,0,0.000464527,
6.91667,0,0,0.0101774,0,0.000492458,
6.95833,0,0,0.0111947,0,0.000519983,
7,0,0,0.0121771,0,0.000547105,
7.04167,0,0,0.0131254,0,0.000573825,
7.08333,0,0,0.0140403,0,0.000600145,
7.125,0,0,0.0149226,0,0.000626068,
7.16667,0,0,0.015773,0,0.000651594,
7.20833,0,0,0.0165923,0,0.000676727,
7.25,0,0,0.0173812,0,0.000701468,
7.29167,0,0,0.0181404,0,0.000725819,
7.33333,0,0,0.0188707,0,0.000749784,
7.375,0,0,0.0195728,0,0.000773367,
7.41667,0,0,0.0202473,0,0.000796572,
7.45833,0,0,0.0208948,0,0.000819403,
7.5,0,0,0.021516,0,0.000841868,
7.54167,0,0,0.0221117,0,0.000863975,
7.58333,0,0,0.0226825,0,0.000885738,
7.625,0,0,0.023229,0,0.000907169,
7.66667,0,0,0.0237517,0,0.000928277,
7.70833,0,0,0.0242511,0,0.000949069,
7.75,0,0,0.0247278,0,0.000969548,
7.79167,0,0,0.0251821,0,0.000989713,
7.83333,0,0,0.025614,0,0.00100956,
7.875,0,0,0.0260236,0,0.00102913,
7.91667,0,0,0.0264217,0,0.00104897,
7.95833,0,0,0.0267415,0,0.00106762,
8,0,0,0.0271407,0,0.00108618,
8.04171,0,0,0.0275563,0,0.00110574,
8.08368,0,0,0.0278404,0,0.00112506,
8.12617,0,0,0.0281626,0,0.00114267,
8.16946,0,0,0.0284673,0,0.00116036,
8.21382,0,0,0.0287547,0,0.00117806,
8.25952,0,0,0.0290325,0,0.00119581,
8.30685,0,0,0.0293001,0,0.00121376,
8.35611,0,0,0.0295579,0,0.00123203,
8.40762,0,0,0.0298059,0,0.00125069,
8.46168,0,0,0.0300437,0,0.0012698,
8.51865,0,0,0.0302702,0,0.00128943,
8.57889,0,0,0.0304843,0,0.00130963,
8.64276,0,0,0.0306841,0,0.00133043,
8.71067,0,0,0.0308675,0,0.00135187,
8.78306,0,0,0.0310319,0,0.00137398,
8.86037,0,0,0.0311743,0,0.00139677,
8.94309,0,0,0.0312911,0,0.00142025,
9.03174,0,0,0.0313784,0,0.00144441,
9.12689,0,0,0.0314319,0,0.00146924,
9.22912,0,0,0.0314469,0,0.00149471,
9.33908,0,0,0.0314184,0,0.00152078,
9.45746,0,0,0.0313411,0,0.0015474,
9.58501,0,0,0.0312098,0,0.0015745,
9.72253,0,0,0.0310191,0,0.00160201,
9.87088,0,0,0.0307636,0,0.00162984,
10.031,0,0,0.0304382,0,0.00165789,
10.2039,0,0,0.0300386,0,0.00168605,
10.3906,0,0,0.0295614,0,0.00171419,
10.5924,0,0,0.0290036,0,0.00174219,
10.8105,0,0,0.0283636,0,0.00176991,
11.0463,0,0,0.0276424,0,0.00179722,
11.3012,0,0,0.0268412,0,0.00182401,
11.5769,0,0,0.0259635,0,0.00185017,
11.8751,0,0,0.0250149,0,0.00187558,
12.1977,0,0,0.0240027,0,0.00190016,
12.5466,0,0,0.0229371,0,0.00192383,
12.9242,0,0,0.0218287,0,0.00194656,
13.3327,0,0,0.0206903,0,0.00196828,
13.7748,0,0,0.0195365,0,0.00198901,
14.2532,0,0,0.0183814,0,0.00200872,
14.7709,0,0,0.0172407,0,0.00202746,
15.3312,0,0,0.0161286,0,0.00204525,
15.9377,0,0,0.0150592,0,0.00206216,
16.594,0,0,0.0140444,0,0.00207826,
17.3044,0,0,0.0130935,0,0.00209364,
18.0733,0,0,0.0122139,0,0.00210832,
18.9056,0,0,0.0114089,0,0.00212225,
19.8064,0,0,0.0106797,0,0.00213536,
20.7816,0,0,0.0100232,0,0.00214788,
21.8371,0,0,0.00943238,0,0.00216014,
22.9796,0,0,0.00889726,0,0.00217235,
24.2163,0,0,0.00840452,0,0.0021846,
25.5551,0,0,0.0079391,0,0.00219694,
27.0042,0,0,0.00748392,0,0.00220947,
28.5729,0,0,0.00702119,0,0.00222227,
30.271,0,0,0.00653232,0,0.00223534,
32.1091,0,0,0.0059993,0,0.00224861,
34.0989,0,0,0.00540672,0,0.00226198,
36.2529,0,0,0.0047367,0,0.00227544,
38.5845,0,0,0.0039805,0,0.0022889,
41.1085,0,0,0.00317504,0,0.00230217,
43.8407,0,0,0.00216477,0,0.00231305,
46.7983,0,0,0.0011147,0,0.00231949,
50,0,0,0.00208234,0,0.0023355,

