650fd288d22fc43ddf32fb8e3d27bf4e16eae604 
X,Z,x_velocity,cp,uw_b,cf,
1,0,0,-0.234752,0,0,
1,9,0,-0.127841,0,0,
1,1.01284,0.477407,-0.227217,-0.00926095,0,
1,0.000308731,0.00055663,-0.234751,-8.6473e-15,0,
1,0.000654158,0.00116204,-0.234752,-3.81328e-13,0,
1,0.00104139,0.00181923,-0.234751,-4.9092e-12,0,
1,0.00147619,0.00252985,-0.234752,-3.36165e-11,0,
1,0.00196502,0.00329399,-0.234751,-1.59132e-10,0,
1,0.00251518,0.00410958,-0.234751,-5.92537e-10,0,
1,0.0031349,0.00497133,-0.234751,-1.86173e-09,0,
1,0.00383341,0.00586955,-0.234751,-5.13827e-09,0,
1,0.00462115,0.00678836,-0.234751,-1.2739e-08,0,
1,0.00550983,0.00770342,-0.234751,-2.86312e-08,0,
1,0.00651264,0.00857862,-0.234751,-5.80447e-08,0,
1,0.00764438,0.00936202,-0.23475,-1.03107e-07,0,
1,0.00892169,0.00998066,-0.23475,-1.45758e-07,0,
1,0.0103632,0.0103363,-0.23475,-9.75847e-08,0,
1,0.0119898,0.0103067,-0.234749,3.15842e-07,0,
1,0.0138248,0.00976217,-0.234748,1.73926e-06,0,
1,0.0158944,0.00860384,-0.234746,5.28337e-06,0,
1,0.0182274,0.00680583,-0.234743,1.21667e-05,0,
1,0.0208562,0.00442,-0.234737,2.28933e-05,0,
1,0.0238164,0.00153241,-0.23473,3.69172e-05,0,
1,0.0271475,-0.00178049,-0.23472,5.37542e-05,0,
1,0.0308929,-0.00546499,-0.234706,7.31459e-05,0,
1,0.0351001,-0.00950057,-0.234688,9.37522e-05,0,
1,0.0398209,-0.0138895,-0.234667,0.000114725,0,
1,0.0451115,-0.0186347,-0.234642,0.000135313,0,
1,0.0510323,-0.023727,-0.234615,0.000154726,0,
1,0.057648,-0.029133,-0.234586,0.000172032,0,
1,0.0650269,-0.0347861,-0.234556,0.00018615,0,
1,0.0732406,-0.0405831,-0.234527,0.000195903,0,
1,0.0823632,-0.046385,-0.234502,0.000200138,0,
1,0.0924701,-0.0520259,-0.234483,0.000197849,0,
1,0.103636,-0.0573276,-0.234474,0.000188305,0,
1,0.115935,-0.0621193,-0.234478,0.0001712,0,
1,0.129436,-0.0662557,-0.234499,0.000146744,0,
1,0.144202,-0.0696301,-0.23454,0.000115636,0,
1,0.160284,-0.0721809,-0.234603,7.89584e-05,0,
1,0.177724,-0.0738883,-0.234688,3.79862e-05,0,
1,0.196544,-0.0747665,-0.234796,-5.99693e-06,0,
1,0.21675,-0.0748533,-0.234924,-5.18316e-05,0,
1,0.238323,-0.0742003,-0.23507,-9.8532e-05,0,
1,0.26122,-0.0728656,-0.235231,-0.000145262,0,
1,0.28537,-0.0709095,-0.235401,-0.000191276,0,
1,0.310673,-0.0683926,-0.235575,-0.000235858,0,
1,0.337003,-0.0653755,-0.235748,-0.000278286,0,
1,0.364206,-0.0619192,-0.235914,-0.000317837,0,
1,0.392107,-0.0580866,-0.236068,-0.000353752,0,
1,0.420509,-0.0539426,-0.236204,-0.000385255,0,
1,0.449206,-0.0495548,-0.236319,-0.000411588,0,
1,0.477982,-0.0449936,-0.236409,-0.000432032,0,
1,0.506624,-0.04033,-0.236472,-0.000445966,0,
1,0.534925,-0.0356334,-0.236507,-0.000452943,0,
1,0.562692,-0.0309653,-0.236514,-0.000452918,0,
1,0.589754,-0.026369,-0.236495,-0.000446539,0,
1,0.615961,-0.0218563,-0.236451,-0.000435884,0,
1,0.641193,-0.0173872,-0.23638,-0.00042513,0,
1,0.665359,-0.0128467,-0.236279,-0.000420967,0,
1,0.688396,-0.00801797,-0.236144,-0.000438934,0,
1,0.710271,-0.00250926,-0.235972,-0.000494005,0,
1,0.730976,0.00433065,-0.235763,-0.000611754,0,
1,0.750529,0.0133908,-0.235526,-0.000822444,0,
1,0.768969,0.0255753,-0.235268,-0.00115526,0,
1,0.78635,0.0413491,-0.235002,-0.00162914,0,
1,0.802743,0.0603668,-0.234719,-0.00224375,0,
1,0.818232,0.0816528,-0.234433,-0.00295803,0,
1,0.832689,0.103895,-0.234138,-0.00370986,0,
1,0.846039,0.126055,-0.233847,-0.0044467,0,
1,0.858357,0.147615,-0.233555,-0.00514018,0,
1,0.869723,0.168295,-0.233263,-0.00577889,0,
1,0.880212,0.18795,-0.232973,-0.00635759,0,
1,0.889898,0.206514,-0.232686,-0.00687548,0,
1,0.898852,0.223976,-0.232406,-0.0073343,0,
1,0.907141,0.240353,-0.232132,-0.0077387,0,
1,0.914826,0.255691,-0.231866,-0.00809289,0,
1,0.921966,0.27006,-0.231608,-0.0083995,0,
1,0.928616,0.28355,-0.231358,-0.00866388,0,
1,0.934823,0.296257,-0.231113,-0.00889049,0,
1,0.940633,0.308275,-0.230874,-0.00908257,0,
1,0.946088,0.31969,-0.230641,-0.00924587,0,
1,0.951224,0.330574,-0.230413,-0.00938346,0,
1,0.956076,0.340991,-0.230191,-0.00949794,0,
1,0.960675,0.350999,-0.229975,-0.00959153,0,
1,0.965047,0.360646,-0.229764,-0.00966614,0,
1,0.969219,0.369978,-0.229559,-0.00972341,0,
1,0.973211,0.379037,-0.229359,-0.00976471,0,
1,0.977045,0.387859,-0.229163,-0.00979117,0,
1,0.980739,0.396478,-0.228971,-0.00980374,0,
1,0.984308,0.404927,-0.228784,-0.00980316,0,
1,0.987768,0.413233,-0.2286,-0.00979002,0,
1,0.991131,0.421423,-0.228419,-0.00976476,0,
1,0.99441,0.429522,-0.22824,-0.00972769,0,
1,0.997615,0.437553,-0.228065,-0.00967899,0,
1,1.00076,0.445538,-0.227892,-0.00961873,0,
1,1.00384,0.453497,-0.22772,-0.00954687,0,
1,1.00688,0.461449,-0.227551,-0.00946328,0,
1,1.00988,0.469413,-0.227383,-0.00936786,0,
1,1.01581,0.485537,-0.227051,-0.00913977,0,
1,1.01882,0.493916,-0.226881,-0.00900075,0,
1,1.02188,0.502575,-0.22671,-0.00884294,0,
1,1.025,0.511545,-0.226537,-0.0086644,0,
1,1.02818,0.520854,-0.226362,-0.00846338,0,
1,1.03144,0.530531,-0.226186,-0.00823931,0,
1,1.03478,0.540598,-0.22601,-0.00798863,0,
1,1.03822,0.551079,-0.225833,-0.00770892,0,
1,1.04177,0.561996,-0.225656,-0.00739769,0,
1,1.04544,0.573365,-0.225479,-0.00705244,0,
1,1.04925,0.585196,-0.225302,-0.00667092,0,
1,1.05321,0.597483,-0.225127,-0.00625152,0,
1,1.05735,0.6102,-0.224954,-0.00579371,0,
1,1.06169,0.623287,-0.224785,-0.00529909,0,
1,1.06626,0.63664,-0.224622,-0.00477251,0,
1,1.07108,0.650097,-0.224466,-0.00422357,0,
1,1.07618,0.663425,-0.224319,-0.0036679,0,
1,1.0816,0.676334,-0.224186,-0.00312722,0,
1,1.08738,0.688507,-0.224067,-0.0026269,0,
1,1.09357,0.699672,-0.223964,-0.00219065,0,
1,1.10022,0.709684,-0.223876,-0.00183423,0,
1,1.10739,0.718564,-0.223801,-0.00156294,0,
1,1.11514,0.726478,-0.223734,-0.00137108,0,
1,1.12354,0.733681,-0.223668,-0.00124518,0,
1,1.13268,0.740434,-0.223596,-0.00116875,0,
1,1.14266,0.746963,-0.223512,-0.00112614,0,
1,1.15357,0.753437,-0.223411,-0.00110481,0,
1,1.16554,0.759971,-0.22329,-0.00109524,0,
1,1.1787,0.766639,-0.223144,-0.00109116,0,
1,1.1932,0.773489,-0.22297,-0.00108869,0,
1,1.2092,0.78055,-0.222762,-0.00108538,0,
1,1.22689,0.787842,-0.222513,-0.00108014,0,
1,1.24659,0.795419,-0.22222,-0.00107207,0,
1,1.26879,0.803367,-0.221863,-0.00106243,0,
1,1.29378,0.811697,-0.221447,-0.00105247,0,
1,1.3219,0.82043,-0.220926,-0.0010378,0,
1,1.35351,0.829601,-0.220277,-0.000989219,0,
1,1.389,0.839192,-0.219532,-0.000946635,0,
1,1.42882,0.849184,-0.218668,-0.000907583,0,
1,1.47342,0.859624,-0.217661,-0.000869013,0,
1,1.52332,0.870587,-0.216491,-0.000829052,0,
1,1.57905,0.882172,-0.215136,-0.000786018,0,
1,1.64119,0.89451,-0.213572,-0.000738278,0,
1,1.71033,0.907758,-0.211778,-0.000683282,0,
1,1.78711,0.922064,-0.209729,-0.000618517,0,
1,1.87215,0.937485,-0.207406,-0.000542566,0,
1,1.9661,0.953855,-0.204787,-0.000455937,0,
1,2.06959,0.970622,-0.201854,-0.000362687,0,
1,2.18321,0.986758,-0.198615,-0.000266159,0,
1,2.30752,1.00092,-0.195129,-0.000135729,0,
1,2.44299,1.01157,-0.191386,-4.5114e-05,0,
1,2.59002,1.01734,-0.187435,-4.25048e-06,0,
1,2.74885,1.01813,-0.18337,1.08348e-06,0,
1,2.91959,1.01573,-0.179259,1.02068e-07,0,
1,3.10217,1.01254,-0.175166,5.57777e-08,0,
1,3.2963,1.00996,-0.171135,4.41081e-08,0,
1,3.50146,1.00811,-0.167202,3.53301e-08,0,
1,3.7169,1.00662,-0.163401,3.08785e-08,0,
1,3.94163,1.00519,-0.159764,2.86785e-08,0,
1,4.17441,1.00376,-0.156321,2.67767e-08,0,
1,4.41376,1.00237,-0.153094,2.46311e-08,0,
1,4.65805,1.00108,-0.150096,2.23558e-08,0,
1,4.90545,0.9999,-0.147338,2.02077e-08,0,
1,5.15407,0.998832,-0.144821,1.82549e-08,0,
1,5.40194,0.997871,-0.142542,1.65452e-08,0,
1,5.64716,0.997007,-0.140494,1.51412e-08,0,
1,5.88785,0.996214,-0.138667,1.41359e-08,0,
1,6.12229,0.995458,-0.137048,1.32921e-08,0,
1,6.34896,0.994769,-0.135622,1.17849e-08,0,
1,6.56652,0.994339,-0.134373,9.13071e-09,0,
1,6.77388,0.994471,-0.133284,1.6744e-09,0,
1,6.97022,0.995119,-0.132336,9.46104e-09,0,
1,7.15495,0.995127,-0.131513,1.81785e-06,0,
1,7.32773,0.991992,-0.130803,1.89565e-05,0,
1,7.48842,0.983128,-0.130201,7.98637e-05,0,
1,7.63711,0.968018,-0.129707,0.000216716,0,
1,7.77403,0.948724,-0.129289,0.000416133,0,
1,7.89956,0.927666,-0.12894,0.000580481,0,
1,8.01417,0.906448,-0.128674,0.000741502,0,
1,8.11843,0.886222,-0.128453,0.000879677,0,
1,8.21296,0.867475,-0.128282,0.000990105,0,
1,8.29839,0.850213,-0.128148,0.00107516,0,
1,8.3754,0.834203,-0.128046,0.00113989,0,
1,8.44464,0.819126,-0.127971,0.00118946,0,
1,8.50675,0.804618,-0.127915,0.00121763,0,
1,8.56236,0.790414,-0.127873,0.00124634,0,
1,8.61206,0.776421,-0.127844,0.00127319,0,
1,8.6564,0.762597,-0.127823,0.00129625,0,
1,8.69591,0.748909,-0.127809,0.00131573,0,
1,8.73107,0.735328,-0.1278,0.00133202,0,
1,8.76232,0.721828,-0.127795,0.00134545,0,
1,8.79007,0.708386,-0.127793,0.00135624,0,
1,8.81469,0.694981,-0.127793,0.00136461,0,
1,8.83651,0.681597,-0.127795,0.00137072,0,
1,8.85584,0.668214,-0.127797,0.0013747,0,
1,8.87295,0.654817,-0.1278,0.00137669,0,
1,8.8881,0.641386,-0.127804,0.00137681,0,
1,8.90149,0.627904,-0.127807,0.00137514,0,
1,8.91333,0.614348,-0.127811,0.00137176,0,
1,8.92379,0.600694,-0.127814,0.00136673,0,
1,8.93303,0.586917,-0.127818,0.00136007,0,
1,8.9412,0.572984,-0.127821,0.00135179,0,
1,8.9484,0.558859,-0.127823,0.00134182,0,
1,8.95476,0.544501,-0.127826,0.00133007,0,
1,8.96038,0.529862,-0.127828,0.00131638,0,
1,8.96533,0.514885,-0.12783,0.00130051,0,
1,8.9697,0.499503,-0.127832,0.00128209,0,
1,8.97356,0.483638,-0.127833,0.00126065,0,
1,8.97696,0.467198,-0.127835,0.00123551,0,
1,8.97996,0.450071,-0.127836,0.00120576,0,
1,8.98261,0.432127,-0.127837,0.00117021,0,
1,8.98494,0.413206,-0.127838,0.001128,0,
1,8.98699,0.393094,-0.127838,0.00107467,0,
1,8.98881,0.371494,-0.127839,0.0010052,0,
1,8.99041,0.348097,-0.127839,0.000920093,0,
1,8.99182,0.322665,-0.12784,0.000816415,0,
1,8.99306,0.295019,-0.12784,0.000692365,0,
1,8.99416,0.264946,-0.12784,0.000533227,0,
1,8.99512,0.232393,-0.12784,0.000352366,0,
1,8.99597,0.198186,-0.12784,0.00019307,0,
1,8.99672,0.16409,-0.12784,8.38334e-05,0,
1,8.99739,0.1319,-0.12784,2.84828e-05,0,
1,8.99797,0.102678,-0.12784,7.55061e-06,0,
1,8.99848,0.0766788,-0.127841,1.51275e-06,0,
1,8.99894,0.0537252,-0.12784,2.06441e-07,0,
1,8.99934,0.0335041,-0.127841,1.4967e-08,0,
1,8.99969,0.0156967,-0.12784,3.20209e-10,0,

4,0,0,-0.122052,0,0,
4,9,0,-0.0971203,0,0,
4,1.05136,0.677306,-0.129006,-0.00418308,0,
4,0.000303409,-0.00669278,-0.122056,6.81531e-11,0,
4,0.00062865,-0.0137254,-0.122053,2.78589e-09,0,
4,0.000979511,-0.02115,-0.122056,3.25101e-08,0,
4,0.00136016,-0.0290139,-0.122053,2.02062e-07,0,
4,0.00177519,-0.0373572,-0.122056,8.73355e-07,0,
4,0.0022297,-0.0462022,-0.122054,2.98303e-06,0,
4,0.00272934,-0.0555288,-0.122057,8.58731e-06,0,
4,0.00328037,-0.0652268,-0.122055,2.14308e-05,0,
4,0.00388979,-0.0750214,-0.122058,4.65129e-05,0,
4,0.00456537,-0.0844226,-0.122058,8.67269e-05,0,
4,0.00531578,-0.0928201,-0.122061,0.000137239,0,
4,0.0061507,-0.0997586,-0.122064,0.000185072,0,
4,0.0070809,-0.105144,-0.122072,0.000217958,0,
4,0.00811839,-0.109174,-0.12208,0.000231726,0,
4,0.00927657,-0.112141,-0.122094,0.000228623,0,
4,0.0105703,-0.114308,-0.122111,0.000212558,0,
4,0.0120162,-0.115872,-0.122133,0.000186641,0,
4,0.0136326,-0.116972,-0.12216,0.000152778,0,
4,0.0154398,-0.117703,-0.122194,0.00011195,0,
4,0.0174603,-0.118126,-0.122233,6.45299e-05,0,
4,0.0197189,-0.118286,-0.122281,1.04981e-05,0,
4,0.0222427,-0.118209,-0.122336,-5.04221e-05,0,
4,0.0250617,-0.117915,-0.122402,-0.000118689,0,
4,0.0282081,-0.117412,-0.122477,-0.000194898,0,
4,0.0317171,-0.116705,-0.122564,-0.000279755,0,
4,0.0356266,-0.115794,-0.122664,-0.000374057,0,
4,0.039977,-0.114677,-0.122778,-0.000478683,0,
4,0.0448114,-0.113345,-0.122907,-0.000594582,0,
4,0.0501747,-0.11179,-0.123052,-0.000722755,0,
4,0.056114,-0.11,-0.123215,-0.00086425,0,
4,0.062677,-0.10796,-0.123396,-0.00102014,0,
4,0.0699123,-0.105654,-0.123595,-0.00119148,0,
4,0.0778675,-0.103063,-0.123814,-0.00137934,0,
4,0.0865883,-0.100168,-0.124051,-0.00158468,0,
4,0.0961173,-0.0969455,-0.124307,-0.0018084,0,
4,0.106492,-0.0933728,-0.124581,-0.00205123,0,
4,0.117744,-0.0894253,-0.12487,-0.00231373,0,
4,0.129894,-0.0850781,-0.125174,-0.00259619,0,
4,0.142956,-0.0803067,-0.12549,-0.00289863,0,
4,0.156928,-0.0750878,-0.125815,-0.00322073,0,
4,0.171798,-0.0694005,-0.126146,-0.00356179,0,
4,0.187537,-0.0632279,-0.126481,-0.00392074,0,
4,0.2041,-0.0565585,-0.126816,-0.0042961,0,
4,0.221432,-0.0493887,-0.12715,-0.00468609,0,
4,0.239458,-0.041724,-0.12748,-0.0050887,0,
4,0.258095,-0.0335813,-0.127805,-0.005502,0,
4,0.27725,-0.0249887,-0.128121,-0.00592459,0,
4,0.296825,-0.0159819,-0.128429,-0.0063555,0,
4,0.316717,-0.0065936,-0.128726,-0.00679021,0,
4,0.336828,0.00315559,-0.129021,-0.00721984,0,
4,0.357066,0.0132456,-0.129295,-0.00764408,0,
4,0.377348,0.0236347,-0.129611,-0.00807638,0,
4,0.397605,0.0342841,-0.129815,-0.00868615,0,
4,0.417786,0.0455917,-0.129629,-0.00891552,0,
4,0.437857,0.0581196,-0.129278,-0.0091579,0,
4,0.457804,0.0719294,-0.129088,-0.00940798,0,
4,0.477632,0.0867699,-0.129035,-0.00964529,0,
4,0.497368,0.102327,-0.129074,-0.00985602,0,
4,0.517057,0.118395,-0.129149,-0.0100338,0,
4,0.536763,0.134919,-0.129224,-0.0101776,0,
4,0.556564,0.151966,-0.129284,-0.0102884,0,
4,0.576557,0.169674,-0.129326,-0.0103669,0,
4,0.596848,0.188207,-0.129356,-0.0104121,0,
4,0.617561,0.207736,-0.12938,-0.0104213,0,
4,0.637962,0.227634,-0.129399,-0.0103929,0,
4,0.657495,0.247363,-0.129414,-0.0103289,0,
4,0.676218,0.266929,-0.129429,-0.0102314,0,
4,0.694189,0.286328,-0.129441,-0.0101021,0,
4,0.711463,0.305558,-0.129452,-0.0099432,0,
4,0.728096,0.32461,-0.12946,-0.00975718,0,
4,0.744138,0.343471,-0.129464,-0.00954711,0,
4,0.759639,0.362112,-0.129464,-0.00931686,0,
4,0.774643,0.380486,-0.12946,-0.00907137,0,
4,0.789195,0.398529,-0.129452,-0.00881648,0,
4,0.803334,0.416172,-0.129442,-0.00855602,0,
4,0.817097,0.43335,-0.12943,-0.00829348,0,
4,0.830518,0.450015,-0.129416,-0.00803182,0,
4,0.843629,0.466132,-0.1294,-0.00777348,0,
4,0.856459,0.481683,-0.129385,-0.00752034,0,
4,0.869035,0.496661,-0.129369,-0.00727384,0,
4,0.881383,0.51107,-0.129353,-0.00703499,0,
4,0.893524,0.524923,-0.129339,-0.00680446,0,
4,0.905481,0.538237,-0.129325,-0.0065826,0,
4,0.917272,0.551039,-0.129313,-0.00636949,0,
4,0.928915,0.56336,-0.129302,-0.00616495,0,
4,0.940428,0.575235,-0.129291,-0.00596861,0,
4,0.951826,0.586694,-0.12928,-0.00578127,0,
4,0.963124,0.597768,-0.129267,-0.00560229,0,
4,0.974334,0.608484,-0.129252,-0.00543062,0,
4,0.98547,0.618876,-0.129235,-0.00526515,0,
4,0.996544,0.628979,-0.129214,-0.00510468,0,
4,1.00757,0.63884,-0.129189,-0.00494779,0,
4,1.01855,0.648532,-0.129155,-0.00478485,0,
4,1.0295,0.658156,-0.129109,-0.0045881,0,
4,1.04044,0.667758,-0.129058,-0.00439296,0,
4,1.0623,0.686782,-0.128951,-0.00395975,0,
4,1.07328,0.69616,-0.128893,-0.00372502,0,
4,1.08432,0.705396,-0.128833,-0.00348154,0,
4,1.09543,0.714438,-0.128769,-0.00323242,0,
4,1.10661,0.723232,-0.128702,-0.00298126,0,
4,1.11788,0.73172,-0.128631,-0.00273212,0,
4,1.12925,0.739846,-0.128557,-0.00248931,0,
4,1.14073,0.747559,-0.128479,-0.0022572,0,
4,1.15233,0.754814,-0.128397,-0.00203989,0,
4,1.16408,0.761583,-0.128311,-0.00184087,0,
4,1.17599,0.767856,-0.12822,-0.00166273,0,
4,1.18806,0.773642,-0.128125,-0.00150693,0,
4,1.20034,0.778967,-0.128025,-0.00137375,0,
4,1.21282,0.783874,-0.127921,-0.00126244,0,
4,1.22554,0.788418,-0.127814,-0.00117139,0,
4,1.23852,0.792656,-0.127702,-0.00109844,0,
4,1.25179,0.796647,-0.127587,-0.00104116,0,
4,1.26537,0.800446,-0.127468,-0.000997039,0,
4,1.2793,0.804102,-0.127345,-0.000963684,0,
4,1.29362,0.80766,-0.127218,-0.000938898,0,
4,1.30836,0.81116,-0.127088,-0.000920711,0,
4,1.32357,0.814633,-0.126953,-0.000907469,0,
4,1.3393,0.818108,-0.126814,-0.000897636,0,
4,1.3556,0.82161,-0.126665,-0.000892054,0,
4,1.37252,0.825172,-0.12652,-0.000888327,0,
4,1.39015,0.82887,-0.126384,-0.000872222,0,
4,1.40855,0.832766,-0.126241,-0.000855735,0,
4,1.42781,0.836869,-0.126087,-0.000838685,0,
4,1.44801,0.841164,-0.125921,-0.000821033,0,
4,1.46926,0.845637,-0.125741,-0.000803088,0,
4,1.49167,0.850289,-0.125549,-0.000785211,0,
4,1.51537,0.855136,-0.125345,-0.000767384,0,
4,1.54091,0.860277,-0.125121,-0.000749185,0,
4,1.56949,0.865928,-0.124871,-0.000729955,0,
4,1.60144,0.872151,-0.124589,-0.000708735,0,
4,1.63713,0.878991,-0.124272,-0.000685049,0,
4,1.67693,0.886479,-0.123914,-0.000658406,0,
4,1.72128,0.894635,-0.123514,-0.000628137,0,
4,1.77062,0.903453,-0.123062,-0.000594076,0,
4,1.82542,0.912887,-0.122559,-0.000556028,0,
4,1.88618,0.922841,-0.121988,-0.000514105,0,
4,1.95343,0.933215,-0.121368,-0.000457183,0,
4,2.02768,0.943904,-0.120696,-0.000378417,0,
4,2.10949,0.954612,-0.119952,-0.000293293,0,
4,2.19939,0.964783,-0.119143,-0.000206752,0,
4,2.29789,0.973727,-0.118265,-0.000127972,0,
4,2.40551,0.980751,-0.117326,-6.50735e-05,0,
4,2.52268,0.98532,-0.116333,-2.31428e-05,0,
4,2.64979,0.987263,-0.115298,-2.3777e-06,0,
4,2.78715,0.986962,-0.114233,2.86499e-06,0,
4,2.93497,0.985334,-0.113149,1.63812e-06,0,
4,3.09333,0.983491,-0.112058,3.37667e-07,0,
4,3.26217,0.98221,-0.110971,3.50611e-08,0,
4,3.44125,0.981646,-0.109899,8.16293e-09,0,
4,3.63018,0.981514,-0.108851,4.42634e-09,0,
4,3.82836,0.981465,-0.107834,4.20179e-09,0,
4,4.03501,0.98132,-0.106854,4.99969e-09,0,
4,4.24915,0.981071,-0.105917,5.47078e-09,0,
4,4.46961,0.980783,-0.105029,5.35625e-09,0,
4,4.69507,0.980509,-0.104193,4.91415e-09,0,
4,4.92406,0.980265,-0.10341,4.44758e-09,0,
4,5.15502,0.980048,-0.102682,4.09577e-09,0,
4,5.3863,0.979847,-0.10201,3.93598e-09,0,
4,5.61626,0.979647,-0.101393,4.09837e-09,0,
4,5.84328,0.979435,-0.10083,4.94916e-09,0,
4,6.06579,0.979211,-0.100319,7.39271e-09,0,
4,6.28238,0.979041,-0.0998589,1.0339e-08,0,
4,6.49173,0.979089,-0.099446,-1.62636e-08,0,
4,6.69275,0.979519,-0.0990767,-1.97102e-07,0,
4,6.88453,0.980173,-0.098746,-2.39849e-07,0,
4,7.06634,0.980105,-0.0984494,4.31947e-06,0,
4,7.23771,0.977456,-0.0981865,2.83776e-05,0,
4,7.39831,0.970159,-0.0979556,9.36726e-05,0,
4,7.54803,0.957263,-0.0977652,0.000215349,0,
4,7.68693,0.939672,-0.0976035,0.000374626,0,
4,7.81519,0.919329,-0.0974568,0.000524122,0,
4,7.93313,0.898163,-0.0973425,0.000679751,0,
4,8.04115,0.877672,-0.097241,0.000822561,0,
4,8.13974,0.858599,-0.0971594,0.000941958,0,
4,8.22941,0.84108,-0.0970958,0.00103665,0,
4,8.31073,0.82493,-0.0970483,0.00111025,0,
4,8.38429,0.80982,-0.0970171,0.0011673,0,
4,8.45065,0.79536,-0.0969981,0.00120587,0,
4,8.5104,0.781221,-0.0969889,0.00123647,0,
4,8.56407,0.767259,-0.0969865,0.00126761,0,
4,8.61222,0.753451,-0.0969872,0.00129426,0,
4,8.65533,0.739781,-0.0969913,0.00131645,0,
4,8.69387,0.726233,-0.0969972,0.00133467,0,
4,8.7283,0.712791,-0.0970047,0.00134929,0,
4,8.75901,0.699442,-0.097013,0.00136058,0,
4,8.78637,0.686174,-0.0970218,0.00136875,0,
4,8.81074,0.672974,-0.0970307,0.00137397,0,
4,8.83242,0.659834,-0.0970395,0.00137645,0,
4,8.85169,0.646743,-0.097048,0.00137638,0,
4,8.86881,0.633688,-0.097056,0.00137396,0,
4,8.88402,0.620658,-0.0970635,0.00136941,0,
4,8.89751,0.607635,-0.0970704,0.00136293,0,
4,8.90949,0.594601,-0.0970768,0.00135472,0,
4,8.92011,0.581534,-0.0970825,0.00134493,0,
4,8.92952,0.568406,-0.0970877,0.0013337,0,
4,8.93787,0.555189,-0.0970923,0.00132111,0,
4,8.94526,0.541845,-0.0970964,0.00130722,0,
4,8.95182,0.528336,-0.0971,0.00129199,0,
4,8.95762,0.514615,-0.0971032,0.00127535,0,
4,8.96276,0.500629,-0.0971059,0.00125713,0,
4,8.96731,0.486318,-0.0971083,0.00123705,0,
4,8.97134,0.471611,-0.0971103,0.00121476,0,
4,8.97491,0.456427,-0.0971121,0.00118971,0,
4,8.97807,0.440669,-0.0971136,0.0011612,0,
4,8.98087,0.424225,-0.0971149,0.00112827,0,
4,8.98334,0.406962,-0.0971159,0.00108968,0,
4,8.98553,0.388719,-0.0971168,0.00104424,0,
4,8.98747,0.369292,-0.0971175,0.000988373,0,
4,8.98919,0.348401,-0.0971182,0.000916554,0,
4,8.9907,0.325766,-0.0971186,0.000830027,0,
4,8.99205,0.301185,-0.0971191,0.000726647,0,
4,8.99324,0.274502,-0.0971193,0.000602597,0,
4,8.99429,0.245514,-0.0971196,0.000443672,0,
4,8.99522,0.214398,-0.0971196,0.000284311,0,
4,8.99605,0.182256,-0.0971199,0.000150148,0,
4,8.99677,0.150701,-0.0971198,6.33627e-05,0,
4,8.99742,0.121186,-0.09712,2.12297e-05,0,
4,8.99799,0.0944718,-0.0971199,5.62272e-06,0,
4,8.9985,0.07068,-0.0971201,1.13418e-06,0,
4,8.99894,0.0496177,-0.0971199,1.56325e-07,0,
4,8.99934,0.0310018,-0.0971202,1.145e-08,0,
4,8.99969,0.0145514,-0.0971199,2.46811e-10,0,

6,0,0,0.00588244,0,0,
6,9,0,-0.0739593,0,0,
6,1.07704,0.706593,-0.00785061,-0.00219943,0,
6,0.000299862,0.00259616,0.00587524,-3.23344e-11,0,
6,0.000611645,0.00535793,0.00588101,-1.30005e-09,0,
6,0.000938257,0.00831858,0.00587539,-1.46589e-08,0,
6,0.00128281,0.0115143,0.00587975,-8.7979e-08,0,
6,0.00164864,0.0149848,0.00587528,-3.6887e-07,0,
6,0.00203939,0.0187713,0.00587858,-1.23179e-06,0,
6,0.00245897,0.0229104,0.00587491,-3.50953e-06,0,
6,0.00291168,0.0274205,0.00587734,-8.83815e-06,0,
6,0.00340221,0.0322757,0.00587403,-1.99377e-05,0,
6,0.00393573,0.0373697,0.00587539,-4.02008e-05,0,
6,0.00451788,0.0424953,0.00587153,-7.17667e-05,0,
6,0.00515491,0.0473861,0.00587068,-0.000112881,0,
6,0.00585371,0.0518219,0.00586446,-0.000157891,0,
6,0.00662185,0.0557086,0.00585938,-0.000200943,0,
6,0.00746774,0.0590683,0.00584872,-0.000239166,0,
6,0.00840063,0.0619825,0.00583751,-0.000272582,0,
6,0.00943073,0.064544,0.00582066,-0.000302528,0,
6,0.0105693,0.0668351,0.00580171,-0.000330532,0,
6,0.0118288,0.0689225,0.00577693,-0.0003579,0,
6,0.0132228,0.0708582,0.00574842,-0.000385662,0,
6,0.0147664,0.0726829,0.00571355,-0.000414639,0,
6,0.016476,0.0744284,0.00567322,-0.000445508,0,
6,0.0183694,0.0761202,0.00562552,-0.000478861,0,
6,0.0204662,0.0777794,0.00557048,-0.000515244,0,
6,0.0227875,0.0794237,0.00550659,-0.000555185,0,
6,0.0253561,0.0810685,0.00543328,-0.000599211,0,
6,0.0281964,0.0827275,0.00534922,-0.000647857,0,
6,0.0313344,0.0844131,0.00525347,-0.00070168,0,
6,0.0347975,0.086137,0.00514474,-0.000761255,0,
6,0.0386145,0.0879102,0.00502191,-0.000827181,0,
6,0.042815,0.0897435,0.00488375,-0.000900079,0,
6,0.0474296,0.0916471,0.0047291,-0.000980584,0,
6,0.0524888,0.0936312,0.00455689,-0.00106934,0,
6,0.0580229,0.0957058,0.00436615,-0.00116701,0,
6,0.0640611,0.0978808,0.00415609,-0.0012742,0,
6,0.0706309,0.100166,0.00392619,-0.00139154,0,
6,0.077757,0.10257,0.00367616,-0.00151959,0,
6,0.0854609,0.105103,0.00340611,-0.00165884,0,
6,0.0937597,0.107774,0.00311648,-0.00180972,0,
6,0.102665,0.11059,0.00280815,-0.00197254,0,
6,0.112183,0.113558,0.00248239,-0.00214749,0,
6,0.122315,0.116687,0.00214088,-0.00233464,0,
6,0.133052,0.119982,0.00178565,-0.0025339,0,
6,0.144384,0.123448,0.001419,-0.00274505,0,
6,0.156292,0.12709,0.00104344,-0.00296771,0,
6,0.168754,0.130913,0.000661589,-0.00320142,0,
6,0.181744,0.13492,0.00027604,-0.00344558,0,
6,0.195237,0.139115,-0.000110713,-0.00369955,0,
6,0.209207,0.143504,-0.000496386,-0.00396266,0,
6,0.223631,0.148092,-0.000878971,-0.00423424,0,
6,0.238493,0.152888,-0.00125679,-0.00451371,0,
6,0.253785,0.157902,-0.00162857,-0.00480055,0,
6,0.269507,0.163148,-0.0019933,-0.00509439,0,
6,0.28567,0.168646,-0.00235046,-0.00539499,0,
6,0.3023,0.17442,-0.00270076,-0.00570325,0,
6,0.319433,0.180503,-0.00303829,-0.00601991,0,
6,0.337122,0.186941,-0.00334916,-0.00634218,0,
6,0.355433,0.193802,-0.00362277,-0.00666864,0,
6,0.374445,0.20117,-0.00384189,-0.00699908,0,
6,0.394252,0.209146,-0.00408044,-0.00734255,0,
6,0.414961,0.21787,-0.00420437,-0.00782952,0,
6,0.436695,0.227828,-0.00367648,-0.00798771,0,
6,0.459585,0.239751,-0.00271789,-0.00808051,0,
6,0.48378,0.254077,-0.00206424,-0.00821349,0,
6,0.508144,0.270021,-0.00179339,-0.00836061,0,
6,0.531799,0.286631,-0.00175259,-0.00848211,0,
6,0.554791,0.303583,-0.00179825,-0.00855778,0,
6,0.577166,0.320714,-0.00185354,-0.0085814,0,
6,0.598964,0.337979,-0.00189023,-0.00855471,0,
6,0.620228,0.355375,-0.00191191,-0.00848187,0,
6,0.640996,0.372899,-0.0019315,-0.00836661,0,
6,0.661304,0.390519,-0.00196074,-0.00821197,0,
6,0.681188,0.408175,-0.00200676,-0.00802115,0,
6,0.700681,0.425786,-0.00207346,-0.00779881,0,
6,0.719813,0.443255,-0.00216269,-0.00755098,0,
6,0.738612,0.460481,-0.00227445,-0.00728343,0,
6,0.757107,0.477377,-0.00240751,-0.00700123,0,
6,0.775322,0.493873,-0.00256042,-0.00670891,0,
6,0.793282,0.50992,-0.00273191,-0.00641045,0,
6,0.811008,0.525483,-0.00292099,-0.00610945,0,
6,0.828521,0.540533,-0.003127,-0.0058092,0,
6,0.845842,0.555041,-0.00334897,-0.00551278,0,
6,0.862989,0.56897,-0.00358694,-0.00522825,0,
6,0.879979,0.58229,-0.00383974,-0.00495591,0,
6,0.896829,0.595002,-0.00410501,-0.00469462,0,
6,0.913555,0.607137,-0.00438212,-0.00444355,0,
6,0.930172,0.618744,-0.00467059,-0.00420184,0,
6,0.946694,0.629875,-0.00497194,-0.00396833,0,
6,0.963136,0.640588,-0.00528533,-0.00374141,0,
6,0.97951,0.650945,-0.00561937,-0.0035159,0,
6,0.99583,0.661016,-0.00597012,-0.00328197,0,
6,1.01211,0.670817,-0.00632779,-0.00305619,0,
6,1.02836,0.680314,-0.00669572,-0.00283253,0,
6,1.04459,0.689469,-0.00707231,-0.00261327,0,
6,1.06081,0.698241,-0.00745749,-0.00240127,0,
6,1.09329,0.714495,-0.0082513,-0.00201053,0,
6,1.10959,0.721927,-0.00865909,-0.00183709,0,
6,1.12595,0.728877,-0.00907341,-0.00168107,0,
6,1.14238,0.735347,-0.00949361,-0.00154363,0,
6,1.1589,0.741356,-0.00991924,-0.00142507,0,
6,1.17551,0.746935,-0.0103498,-0.0013248,0,
6,1.19223,0.752128,-0.0107852,-0.00124151,0,
6,1.20907,0.756983,-0.011225,-0.00117339,0,
6,1.22605,0.761551,-0.0116697,-0.00111831,0,
6,1.24318,0.765882,-0.0121183,-0.00107466,0,
6,1.26048,0.770023,-0.0125717,-0.00104507,0,
6,1.27797,0.774068,-0.0130419,-0.00101108,0,
6,1.29566,0.778134,-0.0135303,-0.000977766,0,
6,1.31357,0.782299,-0.0140274,-0.000945673,0,
6,1.33173,0.786584,-0.0145289,-0.000916059,0,
6,1.35015,0.790958,-0.0150317,-0.000889651,0,
6,1.36886,0.795371,-0.0155371,-0.000866232,0,
6,1.38788,0.799783,-0.0160468,-0.000845215,0,
6,1.40725,0.804177,-0.0165635,-0.000825847,0,
6,1.42698,0.808561,-0.0170895,-0.000807074,0,
6,1.44712,0.812955,-0.0176266,-0.000788245,0,
6,1.46769,0.817381,-0.0181753,-0.000769436,0,
6,1.48874,0.821857,-0.0187361,-0.000750617,0,
6,1.5103,0.826391,-0.0193097,-0.000731706,0,
6,1.53242,0.830992,-0.0198968,-0.000712633,0,
6,1.55515,0.835666,-0.0204983,-0.000693346,0,
6,1.57854,0.840417,-0.0211153,-0.000673818,0,
6,1.60265,0.845249,-0.0217489,-0.000654047,0,
6,1.62754,0.850165,-0.0224005,-0.000634046,0,
6,1.65329,0.855167,-0.023071,-0.000613872,0,
6,1.67998,0.860256,-0.0237624,-0.000593577,0,
6,1.70768,0.865433,-0.0244752,-0.000573231,0,
6,1.73712,0.870797,-0.0252303,-0.000553023,0,
6,1.76996,0.876583,-0.0260649,-0.00053191,0,
6,1.80655,0.882824,-0.026987,-0.000508895,0,
6,1.84728,0.889491,-0.0280047,-0.000484362,0,
6,1.89255,0.896538,-0.0291184,-0.000457873,0,
6,1.9428,0.903948,-0.0303456,-0.000421006,0,
6,1.99849,0.911725,-0.0316926,-0.000368705,0,
6,2.06009,0.919748,-0.0331523,-0.000311463,0,
6,2.1281,0.927735,-0.034733,-0.000250104,0,
6,2.20301,0.935332,-0.0364302,-0.000188767,0,
6,2.28535,0.942164,-0.0382389,-0.000131984,0,
6,2.37559,0.94787,-0.0401483,-8.36751e-05,0,
6,2.47424,0.952163,-0.0421419,-4.66955e-05,0,
6,2.58172,0.954915,-0.0441989,-2.21256e-05,0,
6,2.69844,0.95624,-0.046294,-8.71384e-06,0,
6,2.82473,0.956524,-0.0484006,-3.06629e-06,0,
6,2.96084,0.956356,-0.0504927,-1.235e-06,0,
6,3.10691,0.956325,-0.052548,-5.76472e-07,0,
6,3.26296,0.95679,-0.0545476,-2.22651e-07,0,
6,3.42888,0.957776,-0.0564754,-6.93862e-08,0,
6,3.60438,0.959051,-0.058316,-3.21156e-08,0,
6,3.78902,0.96033,-0.0600549,-2.53664e-08,0,
6,3.98218,0.961438,-0.0616795,-2.12826e-08,0,
6,4.18307,0.96234,-0.0631806,-1.77901e-08,0,
6,4.39071,0.963088,-0.0645529,-1.52173e-08,0,
6,4.60398,0.963745,-0.065795,-1.33331e-08,0,
6,4.82159,0.964344,-0.0669089,-1.1848e-08,0,
6,5.04218,0.96489,-0.0678991,-1.06382e-08,0,
6,5.26426,0.965374,-0.0687724,-9.89058e-09,0,
6,5.48633,0.965787,-0.0695369,-1.01911e-08,0,
6,5.70687,0.966121,-0.0702017,-1.29635e-08,0,
6,5.92439,0.966383,-0.0707763,-2.22211e-08,0,
6,6.1375,0.96662,-0.0712701,-5.31985e-08,0,
6,6.34489,0.966945,-0.0716922,-1.70859e-07,0,
6,6.5454,0.967501,-0.072051,-5.61577e-07,0,
6,6.73802,0.968275,-0.0723536,-1.20841e-06,0,
6,6.92195,0.968769,-0.0726072,4.6342e-07,0,
6,7.09653,0.96774,-0.0728173,1.42436e-05,0,
6,7.26132,0.963417,-0.0729943,5.74862e-05,0,
6,7.41603,0.95432,-0.0731355,0.000146489,0,
6,7.56054,0.940194,-0.0732617,0.00028655,0,
6,7.6949,0.922066,-0.0733654,0.000416931,0,
6,7.81927,0.901584,-0.0734341,0.000558012,0,
6,7.93391,0.880596,-0.0734925,0.000702465,0,
6,8.0392,0.860521,-0.0735296,0.000833234,0,
6,8.13555,0.841987,-0.0735602,0.000942898,0,
6,8.22344,0.825021,-0.0735846,0.00103095,0,
6,8.30339,0.809346,-0.0736091,0.00110094,0,
6,8.37592,0.794593,-0.0736336,0.0011568,0,
6,8.44155,0.780403,-0.0736597,0.00120234,0,
6,8.50082,0.76649,-0.0736877,0.0012358,0,
6,8.55423,0.752713,-0.073715,0.00126878,0,
6,8.60229,0.739062,-0.0737395,0.00129677,0,
6,8.64545,0.725536,-0.0737624,0.00131954,0,
6,8.68417,0.712135,-0.0737832,0.00133762,0,
6,8.71885,0.698852,-0.0738025,0.00135149,0,
6,8.74989,0.685683,-0.0738201,0.00136148,0,
6,8.77763,0.672621,-0.0738361,0.00136788,0,
6,8.80241,0.659663,-0.0738507,0.00137099,0,
6,8.82452,0.646799,-0.073864,0.00137107,0,
6,8.84423,0.634024,-0.0738759,0.00136843,0,
6,8.86181,0.621325,-0.0738867,0.00136335,0,
6,8.87746,0.608691,-0.0738963,0.00135611,0,
6,8.89139,0.596106,-0.0739048,0.00134699,0,
6,8.90379,0.583551,-0.0739124,0.00133625,0,
6,8.91482,0.571003,-0.0739191,0.00132409,0,
6,8.92463,0.558437,-0.073925,0.00131069,0,
6,8.93334,0.545823,-0.0739301,0.00129619,0,
6,8.94109,0.533128,-0.0739346,0.00128067,0,
6,8.94798,0.520313,-0.0739384,0.00126415,0,
6,8.95409,0.507337,-0.0739418,0.0012466,0,
6,8.95953,0.494151,-0.0739447,0.00122791,0,
6,8.96435,0.4807,-0.0739471,0.00120788,0,
6,8.96863,0.466923,-0.0739492,0.00118623,0,
6,8.97244,0.452748,-0.073951,0.00116255,0,
6,8.97581,0.438094,-0.0739525,0.00113629,0,
6,8.97881,0.422865,-0.0739538,0.00110671,0,
6,8.98147,0.406948,-0.0739549,0.00107285,0,
6,8.98383,0.390213,-0.0739557,0.00103343,0,
6,8.98593,0.372504,-0.0739565,0.000987253,0,
6,8.98779,0.35362,-0.073957,0.000930661,0,
6,8.98944,0.333299,-0.0739576,0.000858862,0,
6,8.9909,0.311286,-0.0739579,0.000773136,0,
6,8.9922,0.287407,-0.0739583,0.000671779,0,
6,8.99336,0.2615,-0.0739584,0.000547584,0,
6,8.99438,0.233406,-0.0739587,0.000395537,0,
6,8.99529,0.203436,-0.0739587,0.000247611,0,
6,8.99609,0.172728,-0.0739589,0.000127863,0,
6,8.99681,0.142803,-0.0739588,5.31224e-05,0,
6,8.99744,0.114926,-0.0739591,1.76889e-05,0,
6,8.99801,0.0897081,-0.0739589,4.69166e-06,0,
6,8.9985,0.0672146,-0.0739592,9.51746e-07,0,
6,8.99895,0.047255,-0.0739589,1.32137e-07,0,
6,8.99934,0.0295682,-0.0739592,9.74858e-09,0,
6,8.99969,0.0138978,-0.0739589,2.11256e-10,0,

10,0,0,-0.0260743,0,0,
10,0.000296632,0.00641641,-0.0260732,-2.73597e-11,0,
10,0.000596102,0.0128682,-0.026074,-1.01031e-09,0,
10,0.000900397,0.0193991,-0.0260733,-1.02372e-08,0,
10,0.00121153,0.0260527,-0.0260739,-5.48465e-08,0,
10,0.00153158,0.0328723,-0.0260734,-2.04681e-07,0,
10,0.00186264,0.0399006,-0.0260738,-6.07868e-07,0,
10,0.00220692,0.0471782,-0.0260734,-1.54416e-06,0,
10,0.00256668,0.0547412,-0.0260737,-3.49948e-06,0,
10,0.00294431,0.0626165,-0.0260735,-7.25687e-06,0,
10,0.00334229,0.0708146,-0.0260737,-1.3977e-05,0,
10,0.00376326,0.0793194,-0.0260735,-2.52019e-05,0,
10,0.00421,0.0880763,-0.0260737,-4.26733e-05,0,
10,0.00468544,0.0969833,-0.0260736,-6.78712e-05,0,
10,0.00519274,0.105892,-0.0260736,-0.000101338,0,
10,0.00573524,0.114623,-0.0260736,-0.000142131,0,
10,0.00631651,0.122998,-0.0260735,-0.00018784,0,
10,0.00694041,0.130871,-0.0260734,-0.000235283,0,
10,0.00761104,0.138149,-0.0260732,-0.000281469,0,
10,0.00833284,0.144796,-0.026073,-0.000324281,0,
10,0.00911058,0.150823,-0.0260727,-0.000362658,0,
10,0.0099494,0.156271,-0.0260724,-0.000396418,0,
10,0.0108548,0.1612,-0.0260719,-0.000425947,0,
10,0.0118329,0.165674,-0.0260715,-0.000451915,0,
10,0.0128901,0.169755,-0.0260708,-0.000475083,0,
10,0.0140333,0.173503,-0.0260702,-0.000496187,0,
10,0.0152702,0.176967,-0.0260694,-0.000515888,0,
10,0.0166089,0.180194,-0.0260686,-0.000534759,0,
10,0.0180584,0.183222,-0.0260675,-0.00055329,0,
10,0.0196282,0.186083,-0.0260665,-0.000571898,0,
10,0.0213288,0.188807,-0.0260653,-0.000590945,0,
10,0.0231714,0.191417,-0.0260641,-0.000610747,0,
10,0.0251682,0.193935,-0.0260628,-0.000631593,0,
10,0.0273326,0.19638,-0.0260614,-0.000653749,0,
10,0.0296789,0.198768,-0.0260599,-0.000677467,0,
10,0.0322227,0.201114,-0.0260585,-0.000702995,0,
10,0.0349809,0.203432,-0.0260569,-0.000730578,0,
10,0.0379719,0.205735,-0.0260554,-0.000760464,0,
10,0.0412155,0.208034,-0.0260539,-0.00079291,0,
10,0.0447333,0.21034,-0.0260525,-0.00082818,0,
10,0.0485489,0.212665,-0.0260513,-0.000866551,0,
10,0.0526875,0.21502,-0.0260503,-0.000908314,0,
10,0.0571768,0.217416,-0.0260496,-0.000953775,0,
10,0.0620466,0.219863,-0.0260493,-0.00100326,0,
10,0.0673295,0.222374,-0.0260496,-0.00105711,0,
10,0.0730607,0.22496,-0.0260507,-0.00111569,0,
10,0.0792784,0.227633,-0.0260528,-0.00117938,0,
10,0.0860241,0.230408,-0.0260561,-0.00124858,0,
10,0.0933428,0.233297,-0.026061,-0.0013237,0,
10,0.101283,0.236316,-0.0260678,-0.00140519,0,
10,0.109899,0.239481,-0.0260772,-0.00149349,0,
10,0.119247,0.24281,-0.0260897,-0.00158906,0,
10,0.12939,0.246322,-0.026106,-0.00169235,0,
10,0.140395,0.250037,-0.0261271,-0.00180382,0,
10,0.152337,0.253979,-0.0261539,-0.00192391,0,
10,0.165296,0.258171,-0.026188,-0.002053,0,
10,0.179357,0.262642,-0.0262307,-0.00219146,0,
10,0.194615,0.267421,-0.026284,-0.00233954,0,
10,0.211171,0.272539,-0.0263501,-0.00249738,0,
10,0.229138,0.278033,-0.0264318,-0.00266496,0,
10,0.248635,0.283939,-0.0265319,-0.00284201,0,
10,0.269793,0.290299,-0.0266544,-0.00302798,0,
10,0.292753,0.297156,-0.0268033,-0.00322186,0,
10,0.317669,0.304555,-0.0269811,-0.00342656,0,
10,0.344708,0.312561,-0.0272024,-0.00371667,0,
10,0.372405,0.321132,-0.0275904,-0.0038423,0,
10,0.399623,0.33044,-0.028101,-0.00398342,0,
10,0.426397,0.340645,-0.0286105,-0.00414006,0,
10,0.452757,0.351665,-0.0291276,-0.00430286,0,
10,0.478735,0.363285,-0.0296448,-0.00446317,0,
10,0.504358,0.375259,-0.030169,-0.00461329,0,
10,0.529657,0.387382,-0.0307005,-0.00474879,0,
10,0.554656,0.399511,-0.0312404,-0.00486785,0,
10,0.579382,0.411566,-0.0317866,-0.00497029,0,
10,0.603859,0.423514,-0.0323356,-0.00505673,0,
10,0.628112,0.43536,-0.032882,-0.00512806,0,
10,0.652163,0.447128,-0.0334198,-0.00518511,0,
10,0.676035,0.458859,-0.0339423,-0.00522849,0,
10,0.699751,0.470604,-0.0344427,-0.00525852,0,
10,0.72333,0.482418,-0.0349146,-0.00527523,0,
10,0.746795,0.494363,-0.0353521,-0.00527833,0,
10,0.770165,0.506502,-0.03575,-0.00526723,0,
10,0.79346,0.518903,-0.0361039,-0.0052411,0,
10,0.816699,0.531632,-0.0364103,-0.00519884,0,
10,0.839903,0.544758,-0.0366667,-0.00513917,0,
10,0.863088,0.558346,-0.0368713,-0.00506073,0,
10,0.886275,0.572458,-0.037023,-0.00496197,0,
10,0.909481,0.587143,-0.0371211,-0.00484127,0,
10,0.932723,0.602433,-0.0371655,-0.0046973,0,
10,0.956021,0.61832,-0.0371566,-0.00452962,0,
10,0.97939,0.634746,-0.0370954,-0.00433942,0,
10,1.00285,0.651581,-0.0369841,-0.00412942,0,
10,1.02641,0.668625,-0.036826,-0.003903,0,
10,1.0501,0.685626,-0.0366249,-0.00366431,0,
10,1.07392,0.702309,-0.0363853,-0.00341811,0,
10,1.0979,0.718404,-0.036112,-0.00316933,0,
10,1.12205,0.73368,-0.0358096,-0.00292543,0,
10,1.14639,0.747968,-0.0354846,-0.00269124,0,
10,1.17093,0.761211,-0.0351435,-0.00246654,0,
10,1.19568,0.773453,-0.0347891,-0.00225283,0,
10,1.22066,0.784797,-0.0344215,-0.00205119,0,
10,1.24589,0.795369,-0.0340409,-0.00186127,0,
10,1.27137,0.805294,-0.0336453,-0.00168192,0,
10,1.29713,0.81468,-0.0332357,-0.00151126,0,
10,1.32317,0.823621,-0.032803,-0.00133552,0,
10,1.34951,0.83212,-0.0323564,-0.0011706,0,
10,1.37616,0.840086,-0.0319074,-0.00101821,0,
10,1.40313,0.847471,-0.0314557,-0.000884084,0,
10,1.43043,0.854339,-0.0310055,-0.000759233,0,
10,1.45807,0.860807,-0.0305501,-0.000650842,0,
10,1.48607,0.866928,-0.0300928,-0.000559189,0,
10,1.51444,0.872704,-0.0296375,-0.000483913,0,
10,1.54318,0.878133,-0.0291868,-0.000424411,0,
10,1.57231,0.883247,-0.0287419,-0.000378833,0,
10,1.60184,0.888108,-0.0283031,-0.000344268,0,
10,1.63178,0.892778,-0.0278707,-0.000317541,0,
10,1.66213,0.8973,-0.0274453,-0.00029597,0,
10,1.69292,0.901694,-0.0270277,-0.000277658,0,
10,1.72416,0.905961,-0.0266182,-0.000261404,0,
10,1.75585,0.910096,-0.0262173,-0.000246467,0,
10,1.78802,0.91409,-0.0258256,-0.000232393,0,
10,1.82067,0.91793,-0.0254435,-0.000218918,0,
10,1.85383,0.921605,-0.0250717,-0.000205917,0,
10,1.88751,0.92511,-0.0247102,-0.00019337,0,
10,1.92173,0.928444,-0.0243605,-0.000181365,0,
10,1.95652,0.931619,-0.0240207,-0.000170214,0,
10,1.9919,0.934674,-0.0236926,-0.000156102,0,
10,2.02791,0.937647,-0.023376,-0.00014086,0,
10,2.06456,0.940525,-0.0230697,-0.0001248,0,
10,2.10268,0.943318,-0.0227709,-0.000106824,0,
10,2.1443,0.946081,-0.0224646,-8.78233e-05,0,
10,2.18977,0.948743,-0.0221555,-6.83414e-05,0,
10,2.23946,0.951194,-0.0218462,-4.90101e-05,0,
10,2.29376,0.953321,-0.0215424,-3.10202e-05,0,
10,2.35309,0.955011,-0.0212498,-1.54386e-05,0,
10,2.4179,0.956163,-0.0209761,-3.10676e-06,0,
10,2.48863,0.956703,-0.0207295,5.44058e-06,0,
10,2.56575,0.9566,-0.0205197,1.00776e-05,0,
10,2.64971,0.955888,-0.0203565,1.11895e-05,0,
10,2.74098,0.954679,-0.0202495,9.67847e-06,0,
10,2.83997,0.953163,-0.0202078,6.83093e-06,0,
10,2.94709,0.951584,-0.0202391,3.9333e-06,0,
10,3.06269,0.950186,-0.0203497,1.81678e-06,0,
10,3.18706,0.949149,-0.0205437,6.578e-07,0,
10,3.3204,0.948535,-0.0208231,1.8296e-07,0,
10,3.46281,0.948287,-0.0211878,3.95021e-08,0,
10,3.61427,0.948267,-0.0216355,7.66553e-09,0,
10,3.77463,0.948328,-0.0221619,2.12484e-09,0,
10,3.94358,0.948369,-0.0227603,1.21242e-09,0,
10,4.12067,0.948358,-0.0234219,8.58025e-10,0,
10,4.30525,0.948322,-0.024136,2.24336e-10,0,
10,4.49655,0.948307,-0.0248902,-7.68891e-10,0,
10,4.6936,0.948344,-0.0256715,-1.96832e-09,0,
10,4.89531,0.94844,-0.0264665,-3.33486e-09,0,
10,5.10047,0.948582,-0.0272621,-5.21781e-09,0,
10,5.30776,0.948744,-0.0280461,-8.63801e-09,0,
10,5.51581,0.948907,-0.0288074,-1.59017e-08,0,
10,5.72323,0.94906,-0.0295367,-3.2852e-08,0,
10,5.92863,0.949223,-0.0302265,-7.88597e-08,0,
10,6.13069,0.949456,-0.0308712,-2.20969e-07,0,
10,6.32816,0.949855,-0.031467,-6.25106e-07,0,
10,6.51991,0.950452,-0.0320119,-1.36914e-06,0,
10,6.70495,0.951028,-0.0325055,-1.16917e-06,0,
10,6.88244,0.95087,-0.0329484,5.41679e-06,0,
10,7.0517,0.948743,-0.0333423,2.96669e-05,0,
10,7.21224,0.943234,-0.0336867,8.54675e-05,0,
10,7.3637,0.933428,-0.0339867,0.000182723,0,
10,7.5059,0.91937,-0.0342448,0.00031356,0,
10,7.63878,0.901684,-0.0344638,0.000429637,0,
10,7.76243,0.881498,-0.0346525,0.000558406,0,
10,7.87701,0.860605,-0.0348022,0.000690503,0,
10,7.9828,0.840495,-0.0349269,0.000809872,0,
10,8.08014,0.8219,-0.0350261,0.000910674,0,
10,8.16941,0.804911,-0.0351087,0.000993379,0,
10,8.25106,0.789256,-0.0351775,0.0010614,0,
10,8.32554,0.774555,-0.0352376,0.0011178,0,
10,8.39331,0.760457,-0.0352903,0.00116535,0,
10,8.45484,0.746707,-0.0353373,0.00120636,0,
10,8.5106,0.733154,-0.0353786,0.00124201,0,
10,8.56104,0.719738,-0.0354147,0.00127271,0,
10,8.60659,0.706459,-0.0354462,0.00129853,0,
10,8.64767,0.693349,-0.0354737,0.00131952,0,
10,8.68467,0.680438,-0.0354981,0.00133589,0,
10,8.71795,0.667721,-0.0355199,0.00134393,0,
10,8.74786,0.655178,-0.035539,0.00134793,0,
10,8.77471,0.642807,-0.0355558,0.001348,0,
10,8.79881,0.630605,-0.0355704,0.00134441,0,
10,8.8204,0.618568,-0.0355831,0.00133769,0,
10,8.83975,0.606685,-0.0355942,0.00132835,0,
10,8.85708,0.594943,-0.0356038,0.00131688,0,
10,8.87259,0.583326,-0.0356122,0.0013037,0,
10,8.88646,0.571812,-0.0356193,0.0012892,0,
10,8.89886,0.560378,-0.0356255,0.0012737,0,
10,8.90995,0.548998,-0.0356308,0.00125747,0,
10,8.91986,0.537641,-0.0356353,0.00124069,0,
10,8.92872,0.526276,-0.0356392,0.00122352,0,
10,8.93663,0.514869,-0.0356424,0.00120603,0,
10,8.94369,0.503381,-0.0356452,0.00118825,0,
10,8.95,0.491773,-0.0356475,0.00117013,0,
10,8.95564,0.480001,-0.0356495,0.00115156,0,
10,8.96067,0.468015,-0.0356511,0.00113241,0,
10,8.96517,0.455765,-0.0356526,0.00111243,0,
10,8.96918,0.443189,-0.0356536,0.00109128,0,
10,8.97276,0.430223,-0.0356547,0.00106856,0,
10,8.97596,0.416789,-0.0356554,0.0010437,0,
10,8.97882,0.402799,-0.0356562,0.00101603,0,
10,8.98137,0.388151,-0.0356566,0.00098462,0,
10,8.98365,0.372724,-0.0356572,0.000948331,0,
10,8.98569,0.356376,-0.0356573,0.000905993,0,
10,8.9875,0.33893,-0.0356579,0.000854958,0,
10,8.98913,0.320145,-0.0356579,0.000790144,0,
10,8.99058,0.299783,-0.0356583,0.000713286,0,
10,8.99188,0.277679,-0.0356582,0.000622873,0,
10,8.99304,0.253673,-0.0356586,0.000512751,0,
10,8.99408,0.227582,-0.0356584,0.000377464,0,
10,8.99501,0.199601,-0.0356588,0.000243269,0,
10,8.99583,0.17066,-0.0356585,0.000130628,0,
10,8.99658,0.142094,-0.035659,5.67239e-05,0,
10,8.99724,0.115124,-0.0356585,1.97222e-05,0,
10,8.99784,0.0904289,-0.0356591,5.43922e-06,0,
10,8.99837,0.0681614,-0.0356585,1.14263e-06,0,
10,8.99885,0.0481993,-0.0356592,1.63789e-07,0,
10,8.99927,0.0303299,-0.0356584,1.24378e-08,0,
10,8.99966,0.0143333,-0.0356593,2.75224e-10,0,
10,9,0,-0.0356584,0,0,

0.0416667,0,0,-0.231549,0,3.2239e-06,
0.0833333,0,0,-0.231717,0,5.32458e-06,
0.125,0,0,-0.231649,0,6.84356e-06,
0.166667,0,0,-0.231702,0,1.13587e-05,
0.208333,0,0,-0.231709,0,1.59835e-05,
0.25,0,0,-0.231757,0,2.10347e-05,
0.291667,0,0,-0.231799,0,2.55134e-05,
0.333333,0,0,-0.231861,0,2.94121e-05,
0.375,0,0,-0.231925,0,3.25934e-05,
0.416667,0,0,-0.231997,0,3.54454e-05,
0.458333,0,0,-0.232076,0,3.83783e-05,
0.5,0,0,-0.232164,0,4.18897e-05,
0.541667,0,0,-0.232264,0,4.6348e-05,
0.583333,0,0,-0.23238,0,5.19669e-05,
0.625,0,0,-0.232517,0,5.87478e-05,
0.666667,0,0,-0.232676,0,6.64835e-05,
0.708333,0,0,-0.23286,0,7.47835e-05,
0.75,0,0,-0.233068,0,8.31179e-05,
0.791667,0,0,-0.233298,0,9.08929e-05,
0.833333,0,0,-0.23355,0,9.75275e-05,
0.875,0,0,-0.233819,0,0.000102587,
0.916667,0,0,-0.234103,0,0.000105903,
0.958333,0,0,-0.234411,0,0.000107381,
1,0,0,-0.234752,0,0.000106849,
1.04167,0,0,-0.235145,0,0.0001039,
1.08333,0,0,-0.23562,0,9.74219e-05,
1.125,0,0,-0.236201,0,8.55694e-05,
1.16667,0,0,-0.236911,0,6.60789e-05,
1.20833,0,0,-0.237763,0,3.66685e-05,
1.25,0,0,-0.238754,0,-4.28105e-06,
1.29167,0,0,-0.239868,0,-5.71205e-05,
1.33333,0,0,-0.241077,0,-0.000120726,
1.375,0,0,-0.242345,0,-0.00019277,
1.41667,0,0,-0.243635,0,-0.00027035,
1.45833,0,0,-0.244912,0,-0.000350678,
1.5,0,0,-0.246146,0,-0.000431561,
1.54167,0,0,-0.247313,0,-0.000511569,
1.58333,0,0,-0.248394,0,-0.000589932,
1.625,0,0,-0.249376,0,-0.000666316,
1.66667,0,0,-0.250247,0,-0.000740617,
1.70833,0,0,-0.250996,0,-0.000812815,
1.75,0,0,-0.251617,0,-0.000882897,
1.79167,0,0,-0.2521,0,-0.000950826,
1.83333,0,0,-0.252441,0,-0.00101654,
1.875,0,0,-0.252634,0,-0.00107994,
1.91667,0,0,-0.252673,0,-0.00114094,
1.95833,0,0,-0.252555,0,-0.00119942,
2,0,0,-0.252279,0,-0.00125528,
2.04167,0,0,-0.251842,0,-0.00130843,
2.08333,0,0,-0.251245,0,-0.0013588,
2.125,0,0,-0.250488,0,-0.00140635,
2.16667,0,0,-0.249572,0,-0.00145104,
2.20833,0,0,-0.248501,0,-0.00149289,
2.25,0,0,-0.247278,0,-0.0015319,
2.29167,0,0,-0.245904,0,-0.00156809,
2.33333,0,0,-0.244386,0,-0.00160149,
2.375,0,0,-0.242726,0,-0.00163215,
2.41667,0,0,-0.240929,0,-0.00166009,
2.45833,0,0,-0.238999,0,-0.00168536,
2.5,0,0,-0.236942,0,-0.001708,
2.54167,0,0,-0.234763,0,-0.00172805,
2.58333,0,0,-0.232466,0,-0.00174555,
2.625,0,0,-0.230057,0,-0.00176054,
2.66667,0,0,-0.227542,0,-0.0017731,
2.70833,0,0,-0.224927,0,-0.00178328,
2.75,0,0,-0.222216,0,-0.00179116,
2.79167,0,0,-0.219417,0,-0.00179682,
2.83333,0,0,-0.216534,0,-0.00180031,
2.875,0,0,-0.213573,0,-0.00180171,
2.91667,0,0,-0.21054,0,-0.00180107,
2.95833,0,0,-0.207441,0,-0.00179847,
3,0,0,-0.204283,0,-0.00179399,
3.04167,0,0,-0.201069,0,-0.00178771,
3.08333,0,0,-0.197806,0,-0.00177971,
3.125,0,0,-0.1945,0,-0.00177008,
3.16667,0,0,-0.191154,0,-0.00175889,
3.20833,0,0,-0.187775,0,-0.00174621,
3.25,0,0,-0.184366,0,-0.00173213,
3.29167,0,0,-0.180932,0,-0.0017167,
3.33333,0,0,-0.177478,0,-0.00170001,
3.375,0,0,-0.174008,0,-0.00168212,
3.41667,0,0,-0.170524,0,-0.00166309,
3.45833,0,0,-0.167032,0,-0.00164298,
3.5,0,0,-0.163534,0,-0.00162186,
3.54167,0,0,-0.160033,0,-0.00159978,
3.58333,0,0,-0.156533,0,-0.00157681,
3.625,0,0,-0.153036,0,-0.001553,
3.66667,0,0,-0.149544,0,-0.00152839,
3.70833,0,0,-0.146061,0,-0.00150302,
3.75,0,0,-0.142587,0,-0.00147694,
3.79167,0,0,-0.139125,0,-0.00145018,
3.83333,0,0,-0.135677,0,-0.00142278,
3.875,0,0,-0.132245,0,-0.00139476,
3.91667,0,0,-0.128829,0,-0.00136617,
3.95833,0,0,-0.125431,0,-0.00133702,
4,0,0,-0.122052,0,-0.00130736,
4.04167,0,0,-0.118693,0,-0.00127719,
4.08333,0,0,-0.115355,0,-0.00124654,
4.125,0,0,-0.112039,0,-0.00121543,
4.16667,0,0,-0.108745,0,-0.00118388,
4.20833,0,0,-0.105475,0,-0.0011519,
4.25,0,0,-0.102227,0,-0.0011195,
4.29167,0,0,-0.0990043,0,-0.0010867,
4.33333,0,0,-0.0958056,0,-0.0010535,
4.375,0,0,-0.0926317,0,-0.00101991,
4.41667,0,0,-0.089483,0,-0.000985947,
4.45833,0,0,-0.0863597,0,-0.000951606,
4.5,0,0,-0.0832619,0,-0.000916895,
4.54167,0,0,-0.08019,0,-0.000881813,
4.58333,0,0,-0.0771443,0,-0.000846355,
4.625,0,0,-0.0741248,0,-0.000810519,
4.66667,0,0,-0.071132,0,-0.000774301,
4.70833,0,0,-0.0681661,0,-0.000737702,
4.75,0,0,-0.0652274,0,-0.000700725,
4.79167,0,0,-0.0623161,0,-0.000663376,
4.83333,0,0,-0.0594325,0,-0.000625656,
4.875,0,0,-0.0565767,0,-0.000587562,
4.91667,0,0,-0.0537491,0,-0.00054908,
4.95833,0,0,-0.0509501,0,-0.000510189,
5,0,0,-0.0481803,0,-0.00047086,
5.04167,0,0,-0.0454407,0,-0.000431064,
5.08333,0,0,-0.0427328,0,-0.000390776,
5.125,0,0,-0.0400583,0,-0.000349988,
5.16667,0,0,-0.0374196,0,-0.000308718,
5.20833,0,0,-0.0348198,0,-0.000267031,
5.25,0,0,-0.0322626,0,-0.000225062,
5.29167,0,0,-0.0297514,0,-0.000183013,
5.33333,0,0,-0.0272873,0,-0.000141072,
5.375,0,0,-0.0248699,0,-9.93311e-05,
5.41667,0,0,-0.0224981,0,-5.77817e-05,
5.45833,0,0,-0.0201711,0,-1.63739e-05,
5.5,0,0,-0.0178887,0,2.49358e-05,
5.54167,0,0,-0.0156507,0,6.6171e-05,
5.58333,0,0,-0.0134574,0,0.000107341,
5.625,0,0,-0.0113092,0,0.000148447,
5.66667,0,0,-0.00920657,0,0.000189484,
5.70833,0,0,-0.00715021,0,0.000230443,
5.75,0,0,-0.00514085,0,0.000271309,
5.79167,0,0,-0.00317927,0,0.000312062,
5.83333,0,0,-0.0012663,0,0.000352679,
5.875,0,0,0.000597195,0,0.000393133,
5.91667,0,0,0.00241034,0,0.000433391,
5.95833,0,0,0.00417231,0,0.000473421,
6,0,0,0.00588228,0,0.000513188,
6.04167,0,0,0.00753941,0,0.000552653,
6.08333,0,0,0.00914297,0,0.000591778,
6.125,0,0,0.0106923,0,0.000630522,
6.16667,0,0,0.0121866,0,0.000668846,
6.20833,0,0,0.0136255,0,0.00070671,
6.25,0,0,0.0150085,0,0.000744073,
6.29167,0,0,0.016335,0,0.000780897,
6.33333,0,0,0.0176048,0,0.000817143,
6.375,0,0,0.0188177,0,0.000852775,
6.41667,0,0,0.0199734,0,0.000887757,
6.45833,0,0,0.0210719,0,0.000922056,
6.5,0,0,0.0221132,0,0.000955639,
6.54167,0,0,0.0230973,0,0.000988478,
6.58333,0,0,0.0240245,0,0.00102054,
6.625,0,0,0.0248949,0,0.00105181,
6.66667,0,0,0.0257086,0,0.00108225,
6.70833,0,0,0.026466,0,0.00111185,
6.75,0,0,0.0271675,0,0.00114058,
6.79167,0,0,0.0278133,0,0.00116842,
6.83333,0,0,0.0284038,0,0.00119537,
6.875,0,0,0.0289397,0,0.0012214,
6.91667,0,0,0.0294213,0,0.0012465,
6.95833,0,0,0.0298493,0,0.00127066,
7,0,0,0.0302245,0,0.00129387,
7.04167,0,0,0.0305476,0,0.00131612,
7.08333,0,0,0.0308193,0,0.0013374,
7.125,0,0,0.0310405,0,0.00135769,
7.16667,0,0,0.0312117,0,0.00137697,
7.20833,0,0,0.0313337,0,0.00139522,
7.25,0,0,0.0314075,0,0.00141245,
7.29167,0,0,0.0314337,0,0.00142864,
7.33333,0,0,0.0314132,0,0.0014438,
7.375,0,0,0.0313469,0,0.00145793,
7.41667,0,0,0.0312356,0,0.00147104,
7.45833,0,0,0.0310801,0,0.00148313,
7.5,0,0,0.030881,0,0.00149422,
7.54167,0,0,0.0306393,0,0.00150431,
7.58333,0,0,0.0303555,0,0.0015134,
7.625,0,0,0.0300302,0,0.00152151,
7.66667,0,0,0.0296642,0,0.00152866,
7.70833,0,0,0.029258,0,0.00153485,
7.75,0,0,0.0288121,0,0.0015401,
7.79167,0,0,0.028327,0,0.00154443,
7.83333,0,0,0.0278024,0,0.00154783,
7.875,0,0,0.0272383,0,0.0015504,
7.91667,0,0,0.0266474,0,0.00155286,
7.95833,0,0,0.0259466,0,0.00155337,
8,0,0,0.0253355,0,0.0015534,
8.04171,0,0,0.0247298,0,0.00155366,
8.08368,0,0,0.0239486,0,0.00155285,
8.12617,0,0,0.0231788,0,0.00154913,
8.16946,0,0,0.0223565,0,0.00154442,
8.21382,0,0,0.0214689,0,0.00153865,
8.25952,0,0,0.0205174,0,0.00153172,
8.30685,0,0,0.0194928,0,0.00152372,
8.35611,0,0,0.0183859,0,0.00151467,
8.40762,0,0,0.017187,0,0.00150456,
8.46168,0,0,0.0158853,0,0.00149339,
8.51865,0,0,0.0144694,0,0.00148118,
8.57889,0,0,0.0129274,0,0.001468,
8.64276,0,0,0.011247,0,0.00145396,
8.71067,0,0,0.00941614,0,0.00143924,
8.78306,0,0,0.00742341,0,0.00142409,
8.86037,0,0,0.00525821,0,0.00140884,
8.94309,0,0,0.00291067,0,0.00139385,
9.03174,0,0,0.000371164,0,0.00137953,
9.12689,0,0,-0.00237064,0,0.0013662,
9.22912,0,0,-0.00532901,0,0.00135402,
9.33908,0,0,-0.0085233,0,0.00134279,
9.45746,0,0,-0.0119692,0,0.0013319,
9.58501,0,0,-0.0156569,0,0.00132042,
9.72253,0,0,-0.0195124,0,0.00130747,
9.87088,0,0,-0.0233317,0,0.00129302,
10.031,0,0,-0.0267327,0,0.00127896,
10.2039,0,0,-0.0291515,0,0.00126972,
10.3906,0,0,-0.0299014,0,0.00127233,
10.5924,0,0,-0.0283466,0,0.0012951,
10.8105,0,0,-0.0241286,0,0.001345,
11.0463,0,0,-0.0173775,0,0.00142461,
11.3012,0,0,-0.00878232,0,0.00153007,
11.5769,0,0,0.000555981,0,0.00165155,
11.8751,0,0,0.00943712,0,0.0017761,
12.1977,0,0,0.0168993,0,0.00189143,
12.5466,0,0,0.0224094,0,0.00198887,
12.9242,0,0,0.0258517,0,0.00206444,
13.3327,0,0,0.0273961,0,0.00211811,
13.7748,0,0,0.0273637,0,0.00215263,
14.2532,0,0,0.0261464,0,0.00217258,
14.7709,0,0,0.0241599,0,0.00218333,
15.3312,0,0,0.021798,0,0.00218851,
15.9377,0,0,0.0193803,0,0.00219116,
16.594,0,0,0.0171112,0,0.00219365,
17.3044,0,0,0.0150891,0,0.00219721,
18.0733,0,0,0.0133561,0,0.00220167,
18.9056,0,0,0.0119318,0,0.00220618,
19.8064,0,0,0.0108061,0,0.00221013,
20.7816,0,0,0.00992541,0,0.00221349,
21.8371,0,0,0.00921343,0,0.00221631,
22.9796,0,0,0.00861175,0,0.00221856,
24.2163,0,0,0.00808935,0,0.0022214,
25.5551,0,0,0.00761965,0,0.00222557,
27.0042,0,0,0.00717168,0,0.00223114,
28.5729,0,0,0.0067193,0,0.00223816,
30.271,0,0,0.00624349,0,0.00224739,
32.1091,0,0,0.00572938,0,0.00225779,
34.0989,0,0,0.00516383,0,0.00226885,
36.2529,0,0,0.00452865,0,0.00227964,
38.5845,0,0,0.00381371,0,0.00228883,
41.1085,0,0,0.00305175,0,0.00229756,
43.8407,0,0,0.00207974,0,0.00230504,
46.7983,0,0,0.00108133,0,0.00231196,
50,0,0,0.0021471,0,0.00232929,

