e46ef0f1f055f0ca597c79310689be580d33abc3 
X,Z,x_velocity,cp,uw_b,cf,
1,0,0,-0.229665,0,0,
1,9,0,-0.128638,0,0,
1,8.99969,0.0153589,-0.128638,2.83376e-10,0,
1,8.99934,0.0327841,-0.128638,1.32461e-08,0,
1,8.99894,0.0525716,-0.128638,1.82727e-07,0,
1,8.99848,0.0750346,-0.128638,1.33966e-06,0,
1,8.99797,0.100485,-0.128638,6.69706e-06,0,
1,8.99739,0.129122,-0.128638,2.5359e-05,0,
1,8.99672,0.160753,-0.128638,7.51814e-05,0,
1,8.99597,0.19445,-0.128638,0.000174965,0,
1,8.99512,0.228569,-0.128637,0.000322869,0,
1,8.99416,0.261453,-0.128637,0.000490572,0,
1,8.99306,0.292124,-0.128637,0.000648647,0,
1,8.99182,0.320401,-0.128637,0.000776178,0,
1,8.99041,0.346424,-0.128636,0.000881688,0,
1,8.98881,0.370352,-0.128636,0.000968872,0,
1,8.98699,0.392402,-0.128635,0.00104005,0,
1,8.98494,0.412864,-0.128635,0.00109596,0,
1,8.98261,0.432047,-0.128634,0.00113888,0,
1,8.97996,0.450191,-0.128633,0.00117484,0,
1,8.97696,0.467465,-0.128632,0.00120466,0,
1,8.97356,0.484014,-0.12863,0.00122963,0,
1,8.9697,0.499955,-0.128629,0.00125071,0,
1,8.96533,0.515386,-0.128627,0.0012686,0,
1,8.96038,0.530391,-0.128625,0.00128381,0,
1,8.95476,0.545039,-0.128622,0.00129672,0,
1,8.9484,0.55939,-0.12862,0.00130759,0,
1,8.9412,0.573494,-0.128617,0.00131658,0,
1,8.93303,0.587394,-0.128614,0.0013238,0,
1,8.92379,0.601127,-0.128611,0.00132929,0,
1,8.91333,0.614725,-0.128607,0.00133306,0,
1,8.90149,0.628216,-0.128604,0.00133509,0,
1,8.8881,0.641624,-0.128601,0.00133532,0,
1,8.87295,0.65497,-0.128597,0.00133367,0,
1,8.85584,0.668275,-0.128595,0.00133004,0,
1,8.83651,0.681557,-0.128593,0.00132433,0,
1,8.81469,0.694836,-0.128593,0.0013164,0,
1,8.79007,0.708131,-0.128594,0.00130609,0,
1,8.76232,0.721463,-0.128598,0.00129322,0,
1,8.73107,0.734858,-0.128605,0.00127757,0,
1,8.69591,0.748345,-0.128616,0.00125885,0,
1,8.6564,0.761961,-0.128633,0.00123674,0,
1,8.61206,0.77575,-0.128659,0.0012108,0,
1,8.56236,0.78977,-0.128694,0.00118069,0,
1,8.50675,0.804097,-0.128742,0.00114737,0,
1,8.44464,0.818865,-0.128807,0.00110781,0,
1,8.3754,0.834293,-0.128893,0.00105642,0,
1,8.29839,0.850633,-0.129006,0.000993322,0,
1,8.21296,0.868133,-0.129152,0.000914031,0,
1,8.11843,0.886985,-0.129337,0.000813298,0,
1,8.01417,0.907189,-0.129577,0.000687675,0,
1,7.89956,0.928302,-0.129865,0.000540603,0,
1,7.77403,0.9492,-0.130241,0.000390508,0,
1,7.63711,0.968275,-0.130691,0.000206536,0,
1,7.48842,0.983201,-0.131224,7.68488e-05,0,
1,7.32773,0.992036,-0.131863,1.85354e-05,0,
1,7.15495,0.995252,-0.132606,1.85929e-06,0,
1,6.97022,0.995322,-0.133469,2.57236e-08,0,
1,6.77388,0.994706,-0.134465,3.85288e-09,0,
1,6.56652,0.994587,-0.135611,9.84398e-09,0,
1,6.34896,0.995042,-0.136921,1.25503e-08,0,
1,6.12229,0.995773,-0.13841,1.41593e-08,0,
1,5.88784,0.996578,-0.140092,1.50292e-08,0,
1,5.64716,0.99742,-0.14198,1.60264e-08,0,
1,5.40194,0.99833,-0.144087,1.74129e-08,0,
1,5.15407,0.999337,-0.146419,1.9177e-08,0,
1,4.90545,1.00045,-0.148981,2.10454e-08,0,
1,4.65805,1.00167,-0.151772,2.30459e-08,0,
1,4.41376,1.00299,-0.154785,2.51497e-08,0,
1,4.17441,1.0044,-0.158008,2.71286e-08,0,
1,3.94163,1.00584,-0.161423,2.88185e-08,0,
1,3.7169,1.00726,-0.165004,3.0822e-08,0,
1,3.50146,1.00875,-0.168719,3.50885e-08,0,
1,3.29629,1.01059,-0.172534,4.36536e-08,0,
1,3.10217,1.01318,-0.176418,5.47517e-08,0,
1,2.91959,1.0163,-0.180341,9.96023e-08,0,
1,2.74885,1.01855,-0.184259,1.02322e-06,0,
1,2.59002,1.01751,-0.188106,-5.48212e-06,0,
1,2.44299,1.01146,-0.191814,-5.01915e-05,0,
1,2.30752,1.00057,-0.195313,-0.000146167,0,
1,2.18321,0.986265,-0.198539,-0.000279987,0,
1,2.06959,0.970134,-0.201521,-0.000395962,0,
1,1.9661,0.953449,-0.204236,-0.000496572,0,
1,1.87215,0.937139,-0.206649,-0.000590456,0,
1,1.78711,0.921721,-0.208797,-0.000673152,0,
1,1.71033,0.907353,-0.210694,-0.00074458,0,
1,1.64119,0.894007,-0.212363,-0.000806273,0,
1,1.57905,0.881572,-0.213826,-0.000860432,0,
1,1.52332,0.869918,-0.215104,-0.000909072,0,
1,1.47342,0.858937,-0.216222,-0.000954504,0,
1,1.42882,0.848545,-0.217183,-0.00099099,0,
1,1.389,0.838664,-0.217996,-0.00101538,0,
1,1.35351,0.829228,-0.2187,-0.00103825,0,
1,1.3219,0.8202,-0.219306,-0.00105896,0,
1,1.29378,0.811558,-0.219825,-0.00107715,0,
1,1.26878,0.803292,-0.220272,-0.00109279,0,
1,1.24659,0.795397,-0.220655,-0.00110619,0,
1,1.22689,0.787868,-0.220983,-0.00111739,0,
1,1.2092,0.780616,-0.221268,-0.00112533,0,
1,1.1932,0.773593,-0.221517,-0.00113078,0,
1,1.1787,0.766782,-0.221733,-0.00113456,0,
1,1.16554,0.76016,-0.221922,-0.00113793,0,
1,1.15357,0.75369,-0.222086,-0.00114362,0,
1,1.14266,0.747316,-0.222229,-0.0011557,0,
1,1.13268,0.740954,-0.222353,-0.00117986,0,
1,1.12354,0.734487,-0.222463,-0.00122375,0,
1,1.11514,0.727765,-0.222561,-0.00129641,0,
1,1.10739,0.720602,-0.222654,-0.00140761,0,
1,1.10022,0.712801,-0.222745,-0.00156647,0,
1,1.09357,0.704181,-0.222838,-0.00177961,0,
1,1.08738,0.694624,-0.222936,-0.00204904,0,
1,1.0816,0.684116,-0.223041,-0.00237065,0,
1,1.07618,0.672755,-0.223152,-0.00273414,0,
1,1.07107,0.660726,-0.22327,-0.00312501,0,
1,1.06626,0.648251,-0.223393,-0.00352775,0,
1,1.06169,0.635547,-0.223519,-0.0039286,0,
1,1.05735,0.622796,-0.223648,-0.00431702,0,
1,1.05321,0.610139,-0.223778,-0.00468593,0,
1,1.04925,0.597673,-0.223909,-0.00503116,0,
1,1.04544,0.585464,-0.224039,-0.00535074,0,
1,1.04177,0.573549,-0.224169,-0.00564418,0,
1,1.03822,0.561947,-0.224298,-0.00591194,0,
1,1.03478,0.550663,-0.224425,-0.00615503,0,
1,1.03144,0.539694,-0.224552,-0.00637477,0,
1,1.02818,0.529032,-0.224676,-0.00657258,0,
1,1.025,0.518663,-0.2248,-0.00674991,0,
1,1.02188,0.508574,-0.224922,-0.00690816,0,
1,1.01882,0.49875,-0.225043,-0.00704865,0,
1,1.01581,0.489175,-0.225162,-0.00717274,0,
1,1.01284,0.479836,-0.22528,-0.00728096,0,
1,1.00988,0.470618,-0.225399,-0.00737603,0,
1,1.00688,0.461411,-0.225518,-0.00745948,0,
1,1.00384,0.452202,-0.225639,-0.00753103,0,
1,1.00076,0.442976,-0.225761,-0.00759069,0,
1,0.997615,0.433711,-0.225884,-0.00763831,0,
1,0.99441,0.424386,-0.226008,-0.00767409,0,
1,0.991131,0.414975,-0.226134,-0.00769808,0,
1,0.987768,0.405452,-0.226261,-0.00771009,0,
1,0.984308,0.39579,-0.22639,-0.00770981,0,
1,0.980739,0.385956,-0.22652,-0.00769681,0,
1,0.977045,0.375919,-0.226653,-0.0076705,0,
1,0.973211,0.36564,-0.226788,-0.00763014,0,
1,0.969219,0.355081,-0.226925,-0.00757479,0,
1,0.965047,0.344197,-0.227066,-0.00750333,0,
1,0.960675,0.33294,-0.227208,-0.0074144,0,
1,0.956077,0.321255,-0.227354,-0.00730585,0,
1,0.951224,0.309082,-0.227503,-0.00717582,0,
1,0.946088,0.296362,-0.227656,-0.00702211,0,
1,0.940633,0.283033,-0.227813,-0.00684214,0,
1,0.934823,0.269039,-0.227974,-0.00663335,0,
1,0.928616,0.254335,-0.22814,-0.00639447,0,
1,0.921967,0.238886,-0.22831,-0.00612156,0,
1,0.914826,0.222667,-0.228485,-0.00581198,0,
1,0.907141,0.205666,-0.228664,-0.0054635,0,
1,0.898852,0.187893,-0.228846,-0.00507458,0,
1,0.889898,0.169389,-0.229031,-0.00464484,0,
1,0.880212,0.150242,-0.229218,-0.00417569,0,
1,0.869723,0.130605,-0.229406,-0.00367134,0,
1,0.858358,0.110732,-0.229596,-0.00314029,0,
1,0.846039,0.0910235,-0.229789,-0.00259769,0,
1,0.83269,0.072068,-0.229986,-0.00206797,0,
1,0.818232,0.0546506,-0.230191,-0.00158825,0,
1,0.802744,0.0397048,-0.230392,-0.00119486,0,
1,0.78635,0.0277543,-0.230595,-0.000900053,0,
1,0.768969,0.0185577,-0.230789,-0.000695279,0,
1,0.75053,0.0114764,-0.230972,-0.000562744,0,
1,0.730977,0.00580281,-0.231134,-0.000483853,0,
1,0.710271,0.000964339,-0.231273,-0.000441832,0,
1,0.688397,-0.00343069,-0.231388,-0.000422887,0,
1,0.66536,-0.00762004,-0.231481,-0.000419705,0,
1,0.641194,-0.0117522,-0.231553,-0.000421973,0,
1,0.615961,-0.0159232,-0.231604,-0.000425291,0,
1,0.589754,-0.0201797,-0.231636,-0.00042613,0,
1,0.562692,-0.0245284,-0.231647,-0.000422396,0,
1,0.534925,-0.0289459,-0.231636,-0.00041317,0,
1,0.506624,-0.0333871,-0.231603,-0.000398264,0,
1,0.477982,-0.0377945,-0.231545,-0.000377984,0,
1,0.449206,-0.0421042,-0.231462,-0.000352918,0,
1,0.420509,-0.0462516,-0.231356,-0.000323819,0,
1,0.392107,-0.0501748,-0.231228,-0.000291516,0,
1,0.364206,-0.0538161,-0.231082,-0.000256863,0,
1,0.337003,-0.0571238,-0.230922,-0.000220697,0,
1,0.310673,-0.0600524,-0.230752,-0.0001838,0,
1,0.28537,-0.0625622,-0.230577,-0.000146867,0,
1,0.26122,-0.0646194,-0.230403,-0.00011048,0,
1,0.238324,-0.0661947,-0.230234,-7.51195e-05,0,
1,0.21675,-0.0672627,-0.230076,-4.11726e-05,0,
1,0.196544,-0.067801,-0.229932,-8.95275e-06,0,
1,0.177724,-0.0677908,-0.229805,2.12586e-05,0,
1,0.160284,-0.0672173,-0.229697,4.91643e-05,0,
1,0.144202,-0.0660721,-0.229609,7.44137e-05,0,
1,0.129436,-0.0643559,-0.229542,9.65953e-05,0,
1,0.115935,-0.0620822,-0.229495,0.000115267,0,
1,0.103636,-0.0592803,-0.229465,0.000130016,0,
1,0.0924701,-0.055997,-0.229451,0.000140536,0,
1,0.0823633,-0.0522955,-0.22945,0.00014668,0,
1,0.0732406,-0.0482534,-0.229459,0.000148482,0,
1,0.0650269,-0.0439568,-0.229475,0.000146195,0,
1,0.057648,-0.0394955,-0.229496,0.000140245,0,
1,0.0510323,-0.0349562,-0.229519,0.000131175,0,
1,0.0451115,-0.0304176,-0.229543,0.000119586,0,
1,0.0398209,-0.0259458,-0.229566,0.000106086,0,
1,0.0351001,-0.0215931,-0.229587,9.12544e-05,0,
1,0.0308929,-0.0173987,-0.229606,7.56315e-05,0,
1,0.0271475,-0.0133945,-0.229621,5.97593e-05,0,
1,0.0238164,-0.00961448,-0.229634,4.42735e-05,0,
1,0.0208562,-0.00610972,-0.229643,3.00398e-05,0,
1,0.0182274,-0.00296126,-0.22965,1.81529e-05,0,
1,0.0158944,-0.000275857,-0.229655,9.53981e-06,0,
1,0.0138249,0.00184989,-0.229658,4.29101e-06,0,
1,0.0119898,0.00337825,-0.22966,1.64134e-06,0,
1,0.0103632,0.00434936,-0.229661,5.21e-07,0,
1,0.00892169,0.00485688,-0.229662,1.22104e-07,0,
1,0.00764438,0.00500996,-0.229663,6.79664e-09,0,
1,0.00651264,0.00490755,-0.229663,-1.49373e-08,0,
1,0.00550983,0.00462954,-0.229663,-1.24723e-08,0,
1,0.00462115,0.0042367,-0.229663,-6.98936e-09,0,
1,0.00383341,0.00377406,-0.229664,-3.22027e-09,0,
1,0.0031349,0.00327423,-0.229664,-1.27313e-09,0,
1,0.00251518,0.00276055,-0.229664,-4.31015e-10,0,
1,0.00196502,0.00224928,-0.229664,-1.21207e-10,0,
1,0.00147619,0.00175151,-0.229665,-2.65332e-11,0,
1,0.00104139,0.00127439,-0.229664,-3.98609e-12,0,
1,0.000654158,0.000822251,-0.229665,-3.16835e-13,0,
1,0.000308731,0.000397292,-0.229664,-7.32272e-15,0,

4,0,0,-0.149114,0,0,
4,9,0,-0.0977739,0,0,
4,8.99969,0.0142267,-0.0977735,2.221e-10,0,
4,8.99934,0.0303109,-0.0977738,1.03045e-08,0,
4,8.99894,0.0485139,-0.0977735,1.4071e-07,0,
4,8.9985,0.0691118,-0.0977737,1.02138e-06,0,
4,8.99799,0.0923855,-0.0977735,5.07016e-06,0,
4,8.99742,0.118538,-0.0977736,1.92026e-05,0,
4,8.99677,0.147488,-0.0977734,5.76552e-05,0,
4,8.99605,0.17856,-0.0977735,0.000137864,0,
4,8.99522,0.210408,-0.0977732,0.000263802,0,
4,8.99429,0.24149,-0.0977732,0.000415446,0,
4,8.99324,0.27074,-0.0977728,0.000564913,0,
4,8.99205,0.297773,-0.0977726,0.000694393,0,
4,8.9907,0.322664,-0.0977721,0.00079838,0,
4,8.98919,0.345586,-0.0977717,0.000886037,0,
4,8.98747,0.366726,-0.0977709,0.000958985,0,
4,8.98553,0.386354,-0.0977702,0.00101635,0,
4,8.98334,0.404748,-0.0977692,0.00106267,0,
4,8.98087,0.422125,-0.097768,0.00110179,0,
4,8.97807,0.438654,-0.0977666,0.00113501,0,
4,8.97491,0.454477,-0.097765,0.00116363,0,
4,8.97134,0.469713,-0.0977631,0.00118863,0,
4,8.96731,0.484461,-0.0977608,0.00121072,0,
4,8.96276,0.498806,-0.0977582,0.00123045,0,
4,8.95762,0.512822,-0.0977552,0.00124816,0,
4,8.95182,0.52657,-0.0977518,0.00126412,0,
4,8.94526,0.540103,-0.0977479,0.00127848,0,
4,8.93787,0.553468,-0.0977435,0.0012913,0,
4,8.92952,0.566705,-0.0977386,0.00130259,0,
4,8.92011,0.579848,-0.097733,0.00131231,0,
4,8.90949,0.592925,-0.0977269,0.00132035,0,
4,8.89751,0.605963,-0.0977203,0.0013266,0,
4,8.88402,0.618982,-0.0977131,0.00133089,0,
4,8.86881,0.632,-0.0977055,0.00133306,0,
4,8.85169,0.645032,-0.0976976,0.0013329,0,
4,8.83242,0.658091,-0.0976895,0.00133025,0,
4,8.81074,0.671188,-0.0976814,0.00132491,0,
4,8.78637,0.684336,-0.0976735,0.00131668,0,
4,8.75901,0.697546,-0.0976662,0.0013054,0,
4,8.7283,0.710834,-0.0976601,0.00129086,0,
4,8.69387,0.724217,-0.0976556,0.00127286,0,
4,8.65533,0.737719,-0.0976538,0.00125115,0,
4,8.61222,0.751371,-0.0976553,0.00122543,0,
4,8.56407,0.765215,-0.097662,0.00119529,0,
4,8.5104,0.779303,-0.0976745,0.00116044,0,
4,8.45065,0.793709,-0.0976964,0.00112257,0,
4,8.38429,0.808583,-0.0977304,0.00107576,0,
4,8.31073,0.82416,-0.0977782,0.00101852,0,
4,8.22941,0.840709,-0.0978442,0.000948325,0,
4,8.13974,0.858496,-0.0979313,0.000860792,0,
4,8.04115,0.877698,-0.0980412,0.000752282,0,
4,7.93313,0.898205,-0.0981794,0.000623048,0,
4,7.81519,0.919316,-0.0983379,0.00048212,0,
4,7.68693,0.939573,-0.0985406,0.000346939,0,
4,7.54803,0.957079,-0.0987691,0.000204968,0,
4,7.39831,0.969938,-0.0990415,9.03596e-05,0,
4,7.23771,0.977253,-0.0993739,2.79785e-05,0,
4,7.06634,0.979955,-0.0997546,4.60236e-06,0,
4,6.88453,0.9801,-0.100186,-2.9272e-08,0,
4,6.69275,0.979539,-0.10067,-1.10482e-07,0,
4,6.49173,0.979212,-0.101213,1.58492e-08,0,
4,6.28238,0.979276,-0.101823,2.30083e-08,0,
4,6.06579,0.979571,-0.102509,1.34248e-08,0,
4,5.84328,0.979937,-0.103275,8.99317e-09,0,
4,5.61626,0.980312,-0.104126,7.78408e-09,0,
4,5.3863,0.980694,-0.105066,7.80896e-09,0,
4,5.15502,0.9811,-0.106098,8.33398e-09,0,
4,4.92406,0.981544,-0.107222,9.11961e-09,0,
4,4.69507,0.982036,-0.10844,1.00656e-08,0,
4,4.46961,0.98258,-0.109749,1.10268e-08,0,
4,4.24915,0.983159,-0.111144,1.16884e-08,0,
4,4.03501,0.983718,-0.112621,1.1775e-08,0,
4,3.82836,0.984189,-0.114171,1.15309e-08,0,
4,3.63018,0.984573,-0.115784,1.2324e-08,0,
4,3.44125,0.985046,-0.117448,1.70131e-08,0,
4,3.26217,0.985962,-0.119151,5.89717e-08,0,
4,3.09333,0.987621,-0.120881,5.25366e-07,0,
4,2.93497,0.989853,-0.12262,2.47666e-06,0,
4,2.78715,0.991827,-0.124354,4.76141e-06,0,
4,2.64979,0.992375,-0.126066,6.16236e-08,0,
4,2.52268,0.990567,-0.127737,-2.13146e-05,0,
4,2.40551,0.986064,-0.129347,-6.46258e-05,0,
4,2.29789,0.979098,-0.130878,-0.000128628,0,
4,2.19939,0.970249,-0.132317,-0.000207342,0,
4,2.10949,0.960202,-0.133657,-0.000292961,0,
4,2.02768,0.949584,-0.134894,-0.000377945,0,
4,1.95343,0.93891,-0.136032,-0.000456066,0,
4,1.88618,0.928562,-0.137069,-0.000524711,0,
4,1.82542,0.918733,-0.138018,-0.000574619,0,
4,1.77062,0.909484,-0.138883,-0.00061412,0,
4,1.72128,0.90086,-0.139661,-0.000649699,0,
4,1.67693,0.892893,-0.140362,-0.000681453,0,
4,1.63713,0.885585,-0.140992,-0.000709725,0,
4,1.60144,0.878915,-0.141558,-0.000734876,0,
4,1.56949,0.872855,-0.142065,-0.000757305,0,
4,1.54091,0.867366,-0.142519,-0.000777479,0,
4,1.51537,0.862393,-0.142926,-0.000795773,0,
4,1.49167,0.85774,-0.143301,-0.000812622,0,
4,1.46926,0.853319,-0.143656,-0.000828559,0,
4,1.44801,0.849108,-0.143996,-0.000843916,0,
4,1.42781,0.845067,-0.144328,-0.000849963,0,
4,1.40855,0.841159,-0.144646,-0.000856573,0,
4,1.39015,0.837367,-0.144949,-0.000862008,0,
4,1.37252,0.833677,-0.145242,-0.000866421,0,
4,1.3556,0.830072,-0.145523,-0.00087035,0,
4,1.3393,0.826534,-0.145795,-0.00087439,0,
4,1.32357,0.823047,-0.146058,-0.000879453,0,
4,1.30836,0.819589,-0.146313,-0.000886317,0,
4,1.29362,0.816139,-0.146561,-0.000896056,0,
4,1.2793,0.812669,-0.146802,-0.000910019,0,
4,1.26537,0.809148,-0.147038,-0.000929868,0,
4,1.25179,0.805539,-0.147267,-0.000957605,0,
4,1.23852,0.801796,-0.147492,-0.000995591,0,
4,1.22554,0.797869,-0.147712,-0.00104654,0,
4,1.21282,0.793697,-0.147927,-0.00111346,0,
4,1.20034,0.789212,-0.148137,-0.00119953,0,
4,1.18806,0.784344,-0.148343,-0.00130785,0,
4,1.17599,0.779022,-0.148544,-0.00144119,0,
4,1.16408,0.77318,-0.14874,-0.00160153,0,
4,1.15233,0.766767,-0.148932,-0.00178981,0,
4,1.14073,0.759752,-0.149119,-0.00200553,0,
4,1.12925,0.752128,-0.149301,-0.00224673,0,
4,1.11788,0.743911,-0.149479,-0.00251007,0,
4,1.10661,0.73514,-0.149652,-0.00279114,0,
4,1.09543,0.725866,-0.149822,-0.00308488,0,
4,1.08432,0.716153,-0.149988,-0.00338605,0,
4,1.07328,0.706068,-0.15015,-0.00368956,0,
4,1.0623,0.695675,-0.150309,-0.0039908,0,
4,1.05136,0.685035,-0.150464,-0.00428571,0,
4,1.04044,0.674186,-0.150616,-0.00457104,0,
4,1.0295,0.663157,-0.150766,-0.00484432,0,
4,1.01855,0.65199,-0.150914,-0.00510315,0,
4,1.00757,0.640721,-0.151058,-0.00534532,0,
4,0.996544,0.629381,-0.1512,-0.00556931,0,
4,0.98547,0.617997,-0.15134,-0.00577351,0,
4,0.974334,0.606593,-0.151477,-0.00595657,0,
4,0.963124,0.59519,-0.151611,-0.00611764,0,
4,0.951826,0.583803,-0.151746,-0.00627922,0,
4,0.940428,0.572366,-0.151855,-0.00639714,0,
4,0.928915,0.560731,-0.151931,-0.00650012,0,
4,0.917272,0.548787,-0.152003,-0.00661028,0,
4,0.905481,0.536467,-0.152072,-0.00672832,0,
4,0.893524,0.52372,-0.152142,-0.00685459,0,
4,0.881383,0.510509,-0.152215,-0.00698924,0,
4,0.869035,0.496797,-0.152292,-0.00713219,0,
4,0.856459,0.482553,-0.152372,-0.00728316,0,
4,0.843629,0.467748,-0.152456,-0.00744169,0,
4,0.830518,0.452358,-0.152544,-0.00760714,0,
4,0.817097,0.436362,-0.152634,-0.00777867,0,
4,0.803334,0.419744,-0.152726,-0.00795532,0,
4,0.789195,0.402491,-0.15282,-0.00813591,0,
4,0.774643,0.384595,-0.152914,-0.008319,0,
4,0.759639,0.366055,-0.15301,-0.00850285,0,
4,0.744138,0.346881,-0.153106,-0.00868524,0,
4,0.728096,0.327095,-0.153205,-0.00886339,0,
4,0.711463,0.306738,-0.153306,-0.00903397,0,
4,0.694189,0.285871,-0.153412,-0.00919264,0,
4,0.676218,0.264562,-0.153522,-0.00933385,0,
4,0.657495,0.242879,-0.153635,-0.00945196,0,
4,0.637962,0.22088,-0.153752,-0.00954197,0,
4,0.617561,0.198601,-0.153865,-0.00959991,0,
4,0.596848,0.176667,-0.153965,-0.00962143,0,
4,0.576557,0.155809,-0.154052,-0.00960566,0,
4,0.556564,0.13589,-0.154125,-0.0095545,0,
4,0.536763,0.116821,-0.154195,-0.00946908,0,
4,0.517057,0.0985943,-0.154286,-0.00935046,0,
4,0.497368,0.0812962,-0.154429,-0.00920105,0,
4,0.477632,0.0650864,-0.154658,-0.00902567,0,
4,0.457804,0.0501097,-0.154978,-0.00883296,0,
4,0.437857,0.0363525,-0.155334,-0.00863368,0,
4,0.417786,0.0234784,-0.155357,-0.00829501,0,
4,0.397605,0.0110651,-0.155124,-0.0078889,0,
4,0.377348,-0.00104819,-0.154947,-0.00754255,0,
4,0.357066,-0.0128322,-0.154755,-0.00717817,0,
4,0.336828,-0.0242614,-0.154555,-0.00680212,0,
4,0.316717,-0.035293,-0.154344,-0.00642274,0,
4,0.296825,-0.0458704,-0.154123,-0.00604041,0,
4,0.27725,-0.0559415,-0.153894,-0.00565612,0,
4,0.258095,-0.0654655,-0.153656,-0.00527203,0,
4,0.239458,-0.0744149,-0.153411,-0.00489084,0,
4,0.221432,-0.0827746,-0.15316,-0.00451535,0,
4,0.2041,-0.0905409,-0.152904,-0.00414827,0,
4,0.187537,-0.0977199,-0.152645,-0.00379206,0,
4,0.171798,-0.104325,-0.152385,-0.00344892,0,
4,0.156928,-0.110378,-0.152127,-0.00312064,0,
4,0.142956,-0.115901,-0.151873,-0.00280864,0,
4,0.129894,-0.120924,-0.151624,-0.00251395,0,
4,0.117744,-0.125475,-0.151383,-0.0022372,0,
4,0.106492,-0.129583,-0.151152,-0.00197867,0,
4,0.0961173,-0.133278,-0.150934,-0.00173835,0,
4,0.0865883,-0.136588,-0.150728,-0.00151593,0,
4,0.0778675,-0.139538,-0.150537,-0.00131091,0,
4,0.0699123,-0.142154,-0.15036,-0.00112261,0,
4,0.062677,-0.144457,-0.150198,-0.000950223,0,
4,0.056114,-0.146466,-0.150051,-0.000792861,0,
4,0.0501747,-0.148198,-0.149919,-0.000649585,0,
4,0.0448114,-0.149668,-0.149801,-0.000519437,0,
4,0.039977,-0.150886,-0.149696,-0.000401464,0,
4,0.0356266,-0.15186,-0.149603,-0.000294743,0,
4,0.0317171,-0.152594,-0.149522,-0.000198396,0,
4,0.0282081,-0.153089,-0.149451,-0.000111609,0,
4,0.0250617,-0.153341,-0.14939,-3.36451e-05,0,
4,0.0222427,-0.153337,-0.149337,3.61295e-05,0,
4,0.0197189,-0.153059,-0.149293,9.82231e-05,0,
4,0.0174603,-0.152478,-0.149254,0.000152975,0,
4,0.0154398,-0.151549,-0.149223,0.000200485,0,
4,0.0136326,-0.150206,-0.149196,0.000240506,0,
4,0.0120162,-0.148356,-0.149175,0.000272254,0,
4,0.0105703,-0.145859,-0.149158,0.000294135,0,
4,0.00927657,-0.142521,-0.149145,0.000303418,0,
4,0.00811839,-0.138075,-0.149135,0.000296191,0,
4,0.0070809,-0.132194,-0.149128,0.000268492,0,
4,0.0061507,-0.124566,-0.149123,0.000219841,0,
4,0.00531578,-0.11507,-0.149121,0.000157822,0,
4,0.00456537,-0.103968,-0.149118,9.73376e-05,0,
4,0.00388979,-0.0918909,-0.149118,5.14235e-05,0,
4,0.00328037,-0.0795606,-0.149117,2.35009e-05,0,
4,0.00272934,-0.0675107,-0.149117,9.37247e-06,0,
4,0.0022297,-0.0560222,-0.149116,3.24388e-06,0,
4,0.00177519,-0.0451948,-0.149117,9.46344e-07,0,
4,0.00136016,-0.0350315,-0.149115,2.1816e-07,0,
4,0.000979511,-0.0254916,-0.149117,3.49768e-08,0,
4,0.00062865,-0.0165167,-0.149115,2.98744e-09,0,
4,0.000303409,-0.00804234,-0.149117,7.28668e-11,0,

6,0,0,-0.0143937,0,0,
6,9,0,-0.0737431,0,0,
6,8.99969,0.0134867,-0.0737428,1.85119e-10,0,
6,8.99934,0.0286955,-0.073743,8.5437e-09,0,
6,8.99895,0.0458636,-0.0737428,1.15834e-07,0,
6,8.9985,0.0652417,-0.0737429,8.34828e-07,0,
6,8.99801,0.0870877,-0.0737427,4.12169e-06,0,
6,8.99744,0.111602,-0.0737428,1.55958e-05,0,
6,8.99681,0.138758,-0.0737427,4.71628e-05,0,
6,8.99609,0.168036,-0.0737427,0.000114747,0,
6,8.99529,0.198289,-0.0737425,0.000225111,0,
6,8.99438,0.228089,-0.0737425,0.000363895,0,
6,8.99336,0.256336,-0.0737422,0.00050566,0,
6,8.9922,0.28253,-0.073742,0.000633017,0,
6,8.9909,0.306669,-0.0737416,0.000736251,0,
6,8.98944,0.328909,-0.0737413,0.000823003,0,
6,8.98779,0.349424,-0.0737407,0.000895984,0,
6,8.98593,0.36846,-0.0737401,0.000953756,0,
6,8.98383,0.386277,-0.0737392,0.0010012,0,
6,8.98147,0.40308,-0.0737383,0.00104139,0,
6,8.97881,0.419035,-0.0737371,0.00107581,0,
6,8.97581,0.434282,-0.0737357,0.00110579,0,
6,8.97244,0.44894,-0.073734,0.00113234,0,
6,8.96863,0.463108,-0.073732,0.00115622,0,
6,8.96435,0.476873,-0.0737297,0.00117797,0,
6,8.95953,0.49031,-0.0737269,0.00119801,0,
6,8.95409,0.503482,-0.0737237,0.0012166,0,
6,8.94798,0.516447,-0.07372,0.00123393,0,
6,8.94109,0.529252,-0.0737157,0.00125008,0,
6,8.93334,0.541942,-0.0737108,0.00126507,0,
6,8.92463,0.554554,-0.0737051,0.00127886,0,
6,8.91482,0.567122,-0.0736986,0.00129133,0,
6,8.90379,0.579675,-0.0736912,0.00130233,0,
6,8.89139,0.592238,-0.073683,0.00131166,0,
6,8.87746,0.604831,-0.0736737,0.00131908,0,
6,8.86181,0.617472,-0.0736635,0.00132434,0,
6,8.84423,0.630175,-0.0736522,0.00132716,0,
6,8.82452,0.642951,-0.0736398,0.00132725,0,
6,8.80241,0.655809,-0.0736262,0.00132434,0,
6,8.77763,0.668757,-0.0736114,0.00131816,0,
6,8.74989,0.681803,-0.0735954,0.00130845,0,
6,8.71885,0.694954,-0.0735783,0.00129497,0,
6,8.68417,0.708221,-0.0735601,0.00127749,0,
6,8.64545,0.72162,-0.073541,0.00125575,0,
6,8.60229,0.735172,-0.0735209,0.00122946,0,
6,8.55423,0.748905,-0.0735003,0.00119829,0,
6,8.50082,0.76286,-0.073479,0.00116232,0,
6,8.44155,0.7771,-0.0734584,0.0011217,0,
6,8.37592,0.791749,-0.0734392,0.00107412,0,
6,8.30339,0.807007,-0.0734215,0.00101823,0,
6,8.22344,0.823138,-0.0734051,0.000951116,0,
6,8.13555,0.840445,-0.0733906,0.000869039,0,
6,8.0392,0.859178,-0.0733735,0.000768544,0,
6,7.93391,0.879335,-0.0733536,0.000649357,0,
6,7.81927,0.900332,-0.0733191,0.000517915,0,
6,7.6949,0.920796,-0.0732756,0.000389279,0,
6,7.56054,0.938891,-0.0732129,0.000273188,0,
6,7.41603,0.953003,-0.0731354,0.00014131,0,
6,7.26132,0.962138,-0.0730492,5.62516e-05,0,
6,7.09653,0.966531,-0.0729417,1.4395e-05,0,
6,6.92195,0.967633,-0.0728139,7.62103e-07,0,
6,6.73802,0.9672,-0.072658,-1.05225e-06,0,
6,6.5454,0.966479,-0.0724707,-4.97321e-07,0,
6,6.34489,0.965979,-0.0722482,-1.42166e-07,0,
6,6.1375,0.965721,-0.0719867,-3.93333e-08,0,
6,5.92439,0.965568,-0.0716819,-1.50872e-08,0,
6,5.70687,0.96541,-0.0713286,-8.57534e-09,0,
6,5.48633,0.965204,-0.0709216,-6.63581e-09,0,
6,5.26426,0.964945,-0.0704554,-6.32001e-09,0,
6,5.04218,0.964643,-0.0699248,-6.63932e-09,0,
6,4.82159,0.96431,-0.0693248,-7.19129e-09,0,
6,4.60398,0.963958,-0.0686514,-7.87286e-09,0,
6,4.39071,0.963587,-0.0679013,-8.83348e-09,0,
6,4.18307,0.963166,-0.0670728,-1.03912e-08,0,
6,3.98218,0.962634,-0.0661658,-1.27835e-08,0,
6,3.78902,0.961934,-0.0651822,-1.57016e-08,0,
6,3.60438,0.961087,-0.0641261,-2.00223e-08,0,
6,3.42888,0.96026,-0.0630035,-4.17671e-08,0,
6,3.26296,0.95974,-0.0618219,-1.11974e-07,0,
6,3.10691,0.959774,-0.0605888,-1.58409e-07,0,
6,2.96084,0.96035,-0.0593126,-2.20103e-08,0,
6,2.82473,0.961103,-0.0580037,-3.95715e-07,0,
6,2.69844,0.961422,-0.0566754,-4.06447e-06,0,
6,2.58172,0.960696,-0.0553433,-1.53436e-05,0,
6,2.47424,0.958522,-0.0540237,-3.79385e-05,0,
6,2.37559,0.954785,-0.0527323,-7.33618e-05,0,
6,2.28535,0.949617,-0.0514827,-0.000120784,0,
6,2.20301,0.943309,-0.0502862,-0.00017755,0,
6,2.1281,0.936212,-0.049151,-0.00024005,0,
6,2.06009,0.928672,-0.0480834,-0.000304414,0,
6,1.99849,0.920999,-0.0470852,-0.000366888,0,
6,1.9428,0.913449,-0.0461599,-0.000424245,0,
6,1.89255,0.906219,-0.0453021,-0.000475304,0,
6,1.84728,0.89941,-0.0445172,-0.000519409,0,
6,1.80655,0.893025,-0.043804,-0.000549914,0,
6,1.76996,0.887059,-0.0431487,-0.00057781,0,
6,1.73712,0.881528,-0.042554,-0.000603352,0,
6,1.70768,0.876404,-0.0420112,-0.000626978,0,
6,1.67998,0.87146,-0.041497,-0.000649912,0,
6,1.65329,0.8666,-0.040995,-0.000672332,0,
6,1.62754,0.861822,-0.0405058,-0.000694187,0,
6,1.60265,0.857127,-0.0400278,-0.000715573,0,
6,1.57854,0.852512,-0.0395604,-0.000736447,0,
6,1.55515,0.847978,-0.0391029,-0.000756826,0,
6,1.53242,0.843521,-0.0386546,-0.000776724,0,
6,1.5103,0.839135,-0.0382149,-0.000796121,0,
6,1.48874,0.834807,-0.0377836,-0.000814999,0,
6,1.46769,0.830518,-0.0373599,-0.000833481,0,
6,1.44712,0.826258,-0.0369425,-0.00085194,0,
6,1.42698,0.822034,-0.0365294,-0.000871032,0,
6,1.40725,0.817885,-0.0361184,-0.000891323,0,
6,1.38788,0.813865,-0.0357098,-0.000913038,0,
6,1.36886,0.809997,-0.0353043,-0.000934858,0,
6,1.35015,0.806221,-0.0349128,-0.000940699,0,
6,1.33173,0.802458,-0.03453,-0.000949546,0,
6,1.31357,0.798681,-0.0341469,-0.000961373,0,
6,1.29566,0.794873,-0.0337686,-0.000975355,0,
6,1.27797,0.79101,-0.0333925,-0.000992625,0,
6,1.26048,0.787068,-0.0330194,-0.00101447,0,
6,1.24318,0.783014,-0.0326487,-0.0010425,0,
6,1.22605,0.778809,-0.0322805,-0.0010786,0,
6,1.20907,0.774408,-0.0319146,-0.00112491,0,
6,1.19223,0.769759,-0.0315509,-0.00118375,0,
6,1.17551,0.764803,-0.0311893,-0.00125751,0,
6,1.1589,0.759482,-0.03083,-0.00134847,0,
6,1.14238,0.753735,-0.0304728,-0.00145853,0,
6,1.12595,0.747508,-0.0301181,-0.00158898,0,
6,1.10959,0.740758,-0.0297661,-0.00174024,0,
6,1.09329,0.733459,-0.0294171,-0.00191163,0,
6,1.07704,0.725604,-0.0290713,-0.00210139,0,
6,1.06081,0.7172,-0.0287288,-0.0023067,0,
6,1.04459,0.708271,-0.0283898,-0.00252398,0,
6,1.02836,0.69886,-0.0280543,-0.00274909,0,
6,1.01211,0.689018,-0.027723,-0.00297756,0,
6,0.99583,0.678803,-0.0273951,-0.00320518,0,
6,0.97951,0.668271,-0.0270731,-0.00343515,0,
6,0.963136,0.657434,-0.0267495,-0.00365702,0,
6,0.946694,0.646227,-0.0264213,-0.00387086,0,
6,0.930172,0.634569,-0.0260963,-0.0040913,0,
6,0.913555,0.622395,-0.0257749,-0.00432056,0,
6,0.896829,0.609655,-0.025459,-0.00456025,0,
6,0.879979,0.596304,-0.0251487,-0.00481157,0,
6,0.862989,0.582312,-0.0248446,-0.00507538,0,
6,0.845842,0.567671,-0.0245472,-0.00535233,0,
6,0.828521,0.552395,-0.0242573,-0.00564297,0,
6,0.811008,0.536515,-0.0239768,-0.0059452,0,
6,0.793282,0.520059,-0.0237077,-0.00625359,0,
6,0.775322,0.503045,-0.0234511,-0.00656563,0,
6,0.757107,0.485496,-0.0232085,-0.0068784,0,
6,0.738612,0.467441,-0.0229814,-0.00718846,0,
6,0.719813,0.448927,-0.0227712,-0.0074918,0,
6,0.700681,0.430011,-0.0225785,-0.00778391,0,
6,0.681188,0.410758,-0.0224022,-0.00805986,0,
6,0.661304,0.391225,-0.0222387,-0.00831439,0,
6,0.640996,0.371458,-0.0220833,-0.0085418,0,
6,0.620228,0.351496,-0.0219341,-0.00873589,0,
6,0.598964,0.331408,-0.0218004,-0.00889006,0,
6,0.577166,0.311358,-0.0217089,-0.00899867,0,
6,0.554791,0.291663,-0.0217112,-0.00905906,0,
6,0.531799,0.272767,-0.0218473,-0.00907302,0,
6,0.508144,0.255063,-0.0221483,-0.00904972,0,
6,0.48378,0.238575,-0.0223147,-0.00897404,0,
6,0.459585,0.22333,-0.0221649,-0.00857178,0,
6,0.436695,0.209512,-0.0219594,-0.00827163,0,
6,0.414961,0.196894,-0.0217892,-0.00796717,0,
6,0.394252,0.185296,-0.0215966,-0.00765581,0,
6,0.374445,0.17457,-0.0214059,-0.00734359,0,
6,0.355433,0.164603,-0.0212141,-0.00703213,0,
6,0.337122,0.155303,-0.0210204,-0.00672038,0,
6,0.319433,0.146593,-0.020823,-0.00640895,0,
6,0.3023,0.138407,-0.0206206,-0.00609838,0,
6,0.28567,0.130692,-0.0204121,-0.0057892,0,
6,0.269507,0.123405,-0.0201964,-0.005482,0,
6,0.253785,0.11651,-0.0199729,-0.00517742,0,
6,0.238493,0.109979,-0.0197412,-0.00487625,0,
6,0.223631,0.10379,-0.0195011,-0.00457936,0,
6,0.209207,0.0979252,-0.0192529,-0.00428774,0,
6,0.195237,0.0923712,-0.0189975,-0.00400247,0,
6,0.181744,0.087116,-0.0187359,-0.00372465,0,
6,0.168754,0.0821495,-0.0184695,-0.00345541,0,
6,0.156292,0.0774624,-0.0182003,-0.0031958,0,
6,0.144384,0.0730456,-0.0179303,-0.00294682,0,
6,0.133052,0.0688899,-0.0176618,-0.00270931,0,
6,0.122315,0.0649854,-0.0173971,-0.00248395,0,
6,0.112183,0.0613221,-0.0171387,-0.00227125,0,
6,0.102665,0.057889,-0.0168886,-0.00207153,0,
6,0.0937597,0.0546748,-0.0166488,-0.00188491,0,
6,0.0854609,0.0516679,-0.0164209,-0.00171133,0,
6,0.077757,0.0488561,-0.0162063,-0.00155059,0,
6,0.0706309,0.0462274,-0.0160057,-0.00140231,0,
6,0.0640611,0.0437696,-0.0158198,-0.00126602,0,
6,0.0580229,0.0414707,-0.0156488,-0.00114117,0,
6,0.0524888,0.0393187,-0.0154926,-0.00102713,0,
6,0.0474296,0.0373021,-0.0153509,-0.000923225,0,
6,0.042815,0.0354095,-0.0152231,-0.000828764,0,
6,0.0386145,0.0336302,-0.0151085,-0.000743051,0,
6,0.0347975,0.0319534,-0.0150063,-0.000665395,0,
6,0.0313344,0.0303688,-0.0149157,-0.000595122,0,
6,0.0281964,0.0288663,-0.0148357,-0.000531585,0,
6,0.0253561,0.0274362,-0.0147655,-0.000474162,0,
6,0.0227875,0.0260685,-0.0147041,-0.000422268,0,
6,0.0204662,0.0247535,-0.0146506,-0.000375345,0,
6,0.0183694,0.0234811,-0.0146045,-0.000332867,0,
6,0.016476,0.0222407,-0.0145646,-0.000294334,0,
6,0.0147664,0.0210211,-0.0145309,-0.000259266,0,
6,0.0132228,0.0198098,-0.0145019,-0.000227191,0,
6,0.0118288,0.018593,-0.0144781,-0.00019764,0,
6,0.0105693,0.0173546,-0.0144577,-0.00017013,0,
6,0.00943073,0.0160765,-0.0144419,-0.000144163,0,
6,0.00840063,0.0147385,-0.0144284,-0.00011925,0,
6,0.00746774,0.0133211,-0.0144191,-9.50221e-05,0,
6,0.00662185,0.0118112,-0.014411,-7.1506e-05,0,
6,0.00585371,0.0102156,-0.0144068,-4.95232e-05,0,
6,0.00515491,0.00857577,-0.0144024,-3.07531e-05,0,
6,0.00451788,0.00697104,-0.0144015,-1.68407e-05,0,
6,0.00393573,0.00549274,-0.014399,-8.12118e-06,0,
6,0.00340221,0.00420628,-0.0143997,-3.47961e-06,0,
6,0.00291168,0.00313483,-0.0143975,-1.33478e-06,0,
6,0.00245897,0.00226944,-0.0143989,-4.56759e-07,0,
6,0.00203939,0.00158611,-0.0143966,-1.36558e-07,0,
6,0.00164864,0.00105758,-0.0143985,-3.41305e-08,0,
6,0.00128281,0.000658828,-0.0143957,-6.57858e-09,0,
6,0.000938257,0.000368801,-0.0143983,-8.41042e-10,0,
6,0.000611645,0.000170616,-0.0143948,-5.22081e-11,0,
6,0.000299862,5.11303e-05,-0.0143983,-7.44819e-13,0,

10,0.000296632,0.00857556,0.029217,-5.10825e-11,0,
10,0.000596102,0.0172298,0.0292177,-1.89305e-09,0,
10,0.000900397,0.02602,0.029217,-1.92454e-08,0,
10,0.00121153,0.0350038,0.0292175,-1.03406e-07,0,
10,0.00153158,0.044239,0.029217,-3.86701e-07,0,
10,0.00186264,0.0537819,0.0292174,-1.14924e-06,0,
10,0.00220692,0.0636852,0.0292169,-2.91501e-06,0,
10,0.00256668,0.0739928,0.0292172,-6.57441e-06,0,
10,0.00294431,0.0847315,0.0292168,-1.35044e-05,0,
10,0.00334229,0.0958994,0.0292171,-2.56077e-05,0,
10,0.00376326,0.107451,0.0292167,-4.51343e-05,0,
10,0.00421,0.119287,0.0292168,-7.41584e-05,0,
10,0.00468544,0.131248,0.0292164,-0.00011376,0,
10,0.00519274,0.143131,0.0292164,-0.000163291,0,
10,0.00573524,0.154721,0.0292158,-0.000220264,0,
10,0.00631651,0.165823,0.0292155,-0.000281038,0,
10,0.00694041,0.17629,0.0292147,-0.000341892,0,
10,0.00761104,0.186034,0.029214,-0.000399866,0,
10,0.00833284,0.19502,0.0292127,-0.000453092,0,
10,0.00911058,0.203253,0.0292113,-0.000500713,0,
10,0.0099494,0.210771,0.0292093,-0.000542621,0,
10,0.0108548,0.217625,0.0292071,-0.000579194,0,
10,0.0118329,0.223878,0.0292041,-0.00061107,0,
10,0.0128901,0.229595,0.0292006,-0.000639001,0,
10,0.0140333,0.234839,0.0291963,-0.000663752,0,
10,0.0152702,0.239668,0.0291913,-0.000686051,0,
10,0.0166089,0.244137,0.0291852,-0.000706558,0,
10,0.0180584,0.248293,0.0291782,-0.00072586,0,
10,0.0196282,0.25218,0.02917,-0.000744473,0,
10,0.0213288,0.255834,0.0291605,-0.00076285,0,
10,0.0231714,0.25929,0.0291496,-0.000781392,0,
10,0.0251682,0.262575,0.0291372,-0.000800459,0,
10,0.0273326,0.265717,0.029123,-0.000820381,0,
10,0.0296789,0.268737,0.0291069,-0.000841464,0,
10,0.0322227,0.271655,0.0290888,-0.000864003,0,
10,0.0349809,0.274491,0.0290683,-0.000888285,0,
10,0.0379719,0.277261,0.0290454,-0.000914596,0,
10,0.0412155,0.279981,0.0290198,-0.000943227,0,
10,0.0447333,0.282665,0.0289911,-0.000974477,0,
10,0.0485489,0.285327,0.0289593,-0.00100866,0,
10,0.0526875,0.28798,0.028924,-0.00104609,0,
10,0.0571768,0.290638,0.028885,-0.00108713,0,
10,0.0620466,0.293314,0.0288419,-0.00113214,0,
10,0.0673295,0.296021,0.0287945,-0.00118152,0,
10,0.0730607,0.298773,0.0287425,-0.00123569,0,
10,0.0792784,0.301584,0.0286856,-0.00129509,0,
10,0.0860241,0.304469,0.0286235,-0.00136022,0,
10,0.0933428,0.307444,0.028556,-0.00143158,0,
10,0.101283,0.310527,0.0284829,-0.00150973,0,
10,0.109899,0.313736,0.0284039,-0.00159526,0,
10,0.119247,0.317093,0.0283188,-0.00168877,0,
10,0.12939,0.320622,0.0282276,-0.00179092,0,
10,0.140395,0.324348,0.0281302,-0.00190238,0,
10,0.152337,0.328301,0.0280266,-0.00202384,0,
10,0.165296,0.332515,0.0279167,-0.00215601,0,
10,0.179357,0.337028,0.0278009,-0.00229956,0,
10,0.194615,0.341884,0.0276791,-0.00245515,0,
10,0.211171,0.347133,0.0275518,-0.00262337,0,
10,0.229138,0.352833,0.027419,-0.00280469,0,
10,0.248635,0.359052,0.0272815,-0.00299941,0,
10,0.269793,0.365866,0.0271385,-0.00320758,0,
10,0.292753,0.373366,0.0269922,-0.00342886,0,
10,0.317669,0.381655,0.0268388,-0.0036612,0,
10,0.344708,0.390844,0.0266837,-0.00390157,0,
10,0.372405,0.400495,0.0265324,-0.00413877,0,
10,0.399623,0.410231,0.0263874,-0.00436147,0,
10,0.426397,0.420055,0.0262494,-0.00456686,0,
10,0.452757,0.429972,0.0261172,-0.00475597,0,
10,0.478735,0.439993,0.0259931,-0.00492666,0,
10,0.504358,0.450137,0.0258771,-0.00507802,0,
10,0.529657,0.460431,0.0257712,-0.00520783,0,
10,0.554656,0.470897,0.0256685,-0.00531669,0,
10,0.579382,0.481553,0.0255771,-0.00540413,0,
10,0.603859,0.49241,0.02547,-0.00549198,0,
10,0.628112,0.503568,0.0254146,-0.00556776,0,
10,0.652163,0.515369,0.0254441,-0.00550532,0,
10,0.676035,0.528137,0.0254586,-0.00541465,0,
10,0.699751,0.54184,0.0254323,-0.00529391,0,
10,0.72333,0.556226,0.0253633,-0.00514204,0,
10,0.746795,0.570979,0.0252619,-0.0049611,0,
10,0.770165,0.585835,0.0251388,-0.00475521,0,
10,0.79346,0.600613,0.0250017,-0.0045293,0,
10,0.816699,0.615198,0.0248542,-0.00428824,0,
10,0.839903,0.629505,0.0246971,-0.00403685,0,
10,0.863088,0.643444,0.0245289,-0.00378043,0,
10,0.886275,0.656898,0.0243475,-0.00353161,0,
10,0.909481,0.669756,0.0241545,-0.00329154,0,
10,0.932723,0.681969,0.0239531,-0.00306051,0,
10,0.956021,0.693542,0.0237452,-0.00283905,0,
10,0.97939,0.70451,0.0235314,-0.00262774,0,
10,1.00285,0.714911,0.0233115,-0.00242715,0,
10,1.02641,0.724777,0.0230851,-0.00223773,0,
10,1.0501,0.73413,0.022852,-0.00205989,0,
10,1.07392,0.742991,0.0226122,-0.00189393,0,
10,1.0979,0.751381,0.0223666,-0.00173972,0,
10,1.12205,0.759335,0.022116,-0.0015925,0,
10,1.14639,0.766866,0.0218577,-0.00145981,0,
10,1.17093,0.77397,0.0215908,-0.00134056,0,
10,1.19568,0.780657,0.0213164,-0.00123548,0,
10,1.22066,0.786954,0.0210339,-0.00114479,0,
10,1.24589,0.7929,0.0207449,-0.00106795,0,
10,1.27137,0.798544,0.0204477,-0.00100387,0,
10,1.29713,0.80394,0.0201459,-0.000954382,0,
10,1.32317,0.809181,0.0198379,-0.000909535,0,
10,1.34951,0.814399,0.019524,-0.000863201,0,
10,1.37616,0.819673,0.0192065,-0.000820467,0,
10,1.40313,0.824981,0.0188811,-0.000781339,0,
10,1.43043,0.830253,0.0185483,-0.000745556,0,
10,1.45807,0.835439,0.0182071,-0.000712485,0,
10,1.48607,0.84053,0.0178588,-0.000681359,0,
10,1.51444,0.845545,0.0175033,-0.000651571,0,
10,1.54318,0.850503,0.0171411,-0.000622801,0,
10,1.57231,0.855406,0.0167715,-0.000594942,0,
10,1.60184,0.860235,0.0163946,-0.000567981,0,
10,1.63178,0.864964,0.01601,-0.00054192,0,
10,1.66213,0.869569,0.0156183,-0.000516756,0,
10,1.69292,0.874029,0.0152186,-0.000492418,0,
10,1.72416,0.878343,0.0148128,-0.000468678,0,
10,1.75585,0.882539,0.0143977,-0.000442596,0,
10,1.78802,0.886668,0.0139742,-0.000414151,0,
10,1.82067,0.890748,0.0135442,-0.000386341,0,
10,1.85383,0.894764,0.0131056,-0.00035748,0,
10,1.88751,0.898691,0.0126591,-0.000327701,0,
10,1.92173,0.902507,0.0122043,-0.000297366,0,
10,1.95652,0.906186,0.0117407,-0.000266901,0,
10,1.9919,0.909704,0.0112692,-0.000236789,0,
10,2.02791,0.913036,0.0107882,-0.000207578,0,
10,2.06456,0.916165,0.0102997,-0.000179504,0,
10,2.10268,0.919128,0.00978961,-0.000152166,0,
10,2.1443,0.922011,0.0092354,-0.000125937,0,
10,2.18977,0.924765,0.00863014,-0.000100961,0,
10,2.23946,0.927306,0.00797209,-7.75415e-05,0,
10,2.29376,0.929552,0.00725588,-5.64899e-05,0,
10,2.35309,0.931421,0.00647927,-3.8476e-05,0,
10,2.4179,0.932844,0.00563829,-2.39899e-05,0,
10,2.48863,0.933779,0.00473123,-1.32761e-05,0,
10,2.56575,0.934224,0.00375587,-6.23462e-06,0,
10,2.64971,0.934236,0.00271179,-2.36096e-06,0,
10,2.74098,0.933937,0.00159871,-7.95589e-07,0,
10,2.83997,0.933504,0.000417837,-5.1629e-07,0,
10,2.94709,0.93314,-0.000829287,-6.38198e-07,0,
10,3.06269,0.933028,-0.00213992,-6.64361e-07,0,
10,3.18706,0.933274,-0.0035106,-5.08546e-07,0,
10,3.3204,0.933881,-0.00493637,-2.95265e-07,0,
10,3.46281,0.934755,-0.00641071,-1.37793e-07,0,
10,3.61427,0.935751,-0.007925,-5.91384e-08,0,
10,3.77463,0.936734,-0.00946875,-3.03866e-08,0,
10,3.94358,0.937625,-0.0110298,-2.17099e-08,0,
10,4.12067,0.938411,-0.012595,-1.88114e-08,0,
10,4.30525,0.939124,-0.0141506,-1.75371e-08,0,
10,4.49655,0.939807,-0.0156832,-1.71028e-08,0,
10,4.6936,0.940489,-0.0171796,-1.74909e-08,0,
10,4.89531,0.941172,-0.0186279,-1.92009e-08,0,
10,5.10047,0.94184,-0.020017,-2.36919e-08,0,
10,5.30776,0.942474,-0.0213379,-3.42057e-08,0,
10,5.51581,0.943058,-0.022583,-5.74442e-08,0,
10,5.72323,0.943587,-0.0237468,-1.07836e-07,0,
10,5.92863,0.944087,-0.0248259,-2.20775e-07,0,
10,6.13069,0.944625,-0.0258185,-4.89535e-07,0,
10,6.32816,0.945295,-0.0267252,-1.109e-06,0,
10,6.51991,0.946128,-0.0275478,-2.15743e-06,0,
10,6.70495,0.946893,-0.0282898,-2.31089e-06,0,
10,6.88244,0.94687,-0.0289546,3.81802e-06,0,
10,7.0517,0.944832,-0.0295462,2.71517e-05,0,
10,7.21224,0.939391,-0.0300647,8.09735e-05,0,
10,7.3637,0.929669,-0.0305158,0.000174429,0,
10,7.5059,0.915711,-0.0309037,0.000297906,0,
10,7.63878,0.898113,-0.031232,0.000405663,0,
10,7.76243,0.877982,-0.0315107,0.000524737,0,
10,7.87701,0.857084,-0.0317344,0.000646314,0,
10,7.9828,0.836874,-0.0319194,0.000756557,0,
10,8.08014,0.81806,-0.0320679,0.000850506,0,
10,8.16941,0.800722,-0.0321909,0.000928685,0,
10,8.25106,0.784613,-0.0322924,0.000994262,0,
10,8.32554,0.769408,-0.0323785,0.00105046,0,
10,8.39331,0.754825,-0.0324515,0.00109952,0,
10,8.45484,0.740667,-0.0325141,0.00114271,0,
10,8.5106,0.726814,-0.0325674,0.00118062,0,
10,8.56104,0.713208,-0.0326132,0.00121346,0,
10,8.60659,0.699832,-0.0326524,0.00124132,0,
10,8.64767,0.686694,-0.0326864,0.00126432,0,
10,8.68467,0.673801,-0.0327157,0.00128227,0,
10,8.71795,0.661125,-0.0327411,0.00129188,0,
10,8.74786,0.648639,-0.0327632,0.00129801,0,
10,8.77471,0.636339,-0.0327821,0.00129984,0,
10,8.79881,0.62422,-0.0327984,0.00129784,0,
10,8.8204,0.612275,-0.0328124,0.00129254,0,
10,8.83975,0.600492,-0.0328243,0.00128445,0,
10,8.85708,0.588858,-0.0328345,0.00127406,0,
10,8.87259,0.577354,-0.0328434,0.00126182,0,
10,8.88646,0.565958,-0.0328508,0.00124814,0,
10,8.89886,0.554647,-0.0328572,0.00123336,0,
10,8.90995,0.543392,-0.0328625,0.00121776,0,
10,8.91986,0.532162,-0.0328669,0.00120157,0,
10,8.92872,0.520925,-0.0328707,0.00118494,0,
10,8.93663,0.509644,-0.0328738,0.00116795,0,
10,8.94369,0.498281,-0.0328764,0.00115064,0,
10,8.95,0.486793,-0.0328785,0.00113295,0,
10,8.95564,0.475135,-0.0328803,0.00111482,0,
10,8.96067,0.463258,-0.0328817,0.00109607,0,
10,8.96517,0.451107,-0.0328829,0.00107645,0,
10,8.96918,0.43862,-0.0328838,0.00105563,0,
10,8.97276,0.425728,-0.0328847,0.00103318,0,
10,8.97596,0.412352,-0.0328853,0.00100852,0,
10,8.97882,0.398398,-0.032886,0.000980947,0,
10,8.98137,0.383759,-0.0328862,0.000949511,0,
10,8.98365,0.368308,-0.0328868,0.000913006,0,
10,8.98569,0.351895,-0.0328868,0.000870058,0,
10,8.9875,0.334337,-0.0328873,0.000818263,0,
10,8.98913,0.3154,-0.0328872,0.000752911,0,
10,8.99058,0.294855,-0.0328877,0.000675681,0,
10,8.99188,0.272542,-0.0328875,0.000584253,0,
10,8.99304,0.248303,-0.032888,0.000471703,0,
10,8.99408,0.222095,-0.0328876,0.000345774,0,
10,8.99501,0.194292,-0.0328881,0.000220151,0,
10,8.99583,0.165796,-0.0328877,0.000116626,0,
10,8.99658,0.137873,-0.0328882,5.00593e-05,0,
10,8.99724,0.111634,-0.0328876,1.72708e-05,0,
10,8.99784,0.0876623,-0.0328883,4.74374e-06,0,
10,8.99837,0.0660678,-0.0328876,9.94781e-07,0,
10,8.99885,0.0467156,-0.0328884,1.42504e-07,0,
10,8.99927,0.0293946,-0.0328876,1.0819e-08,0,
10,8.99966,0.0138906,-0.0328886,2.39376e-10,0,
10,0,0,0.0292179,0,0,
10,9,0,-0.0328875,0,0,

0.004,0,0,-0.227571,0,-8.59213e-08,
0.00868226,0,0,-0.227568,0,-2.01332e-07,
0.014062,0,0,-0.22757,0,-3.43716e-07,
0.0201548,0,0,-0.227569,0,-7.9815e-07,
0.0269766,0,0,-0.22757,0,-1.33649e-06,
0.0345437,0,0,-0.227569,0,-2.00042e-06,
0.0428729,0,0,-0.227568,0,-2.5968e-06,
0.051981,0,0,-0.227566,0,-3.02547e-06,
0.0618853,0,0,-0.227563,0,-3.07404e-06,
0.0726036,0,0,-0.22756,0,-2.55691e-06,
0.0841536,0,0,-0.227556,0,-1.26433e-06,
0.0965535,0,0,-0.227552,0,9.58883e-07,
0.109822,0,0,-0.227549,0,4.18791e-06,
0.123977,0,0,-0.227548,0,8.37981e-06,
0.139037,0,0,-0.22755,0,1.33544e-05,
0.155022,0,0,-0.227558,0,1.88221e-05,
0.171949,0,0,-0.22757,0,2.44114e-05,
0.189839,0,0,-0.227588,0,2.97394e-05,
0.208709,0,0,-0.227611,0,3.44507e-05,
0.228579,0,0,-0.227637,0,3.82726e-05,
0.249467,0,0,-0.227667,0,4.10281e-05,
0.271391,0,0,-0.227698,0,4.26537e-05,
0.29437,0,0,-0.227729,0,4.31876e-05,
0.31842,0,0,-0.227759,0,4.27617e-05,
0.343559,0,0,-0.227786,0,4.15779e-05,
0.369804,0,0,-0.22781,0,3.98884e-05,
0.39717,0,0,-0.227832,0,3.79778e-05,
0.425672,0,0,-0.227851,0,3.61453e-05,
0.455324,0,0,-0.227869,0,3.46978e-05,
0.48614,0,0,-0.227885,0,3.3942e-05,
0.518132,0,0,-0.227903,0,3.41291e-05,
0.551309,0,0,-0.227925,0,3.54134e-05,
0.585683,0,0,-0.227953,0,3.78323e-05,
0.621259,0,0,-0.227991,0,4.13074e-05,
0.658046,0,0,-0.228044,0,4.56715e-05,
0.696047,0,0,-0.228113,0,5.07138e-05,
0.735265,0,0,-0.228203,0,5.62191e-05,
0.7757,0,0,-0.228319,0,6.19884e-05,
0.817352,0,0,-0.228466,0,6.77904e-05,
0.860215,0,0,-0.228655,0,7.3186e-05,
0.904285,0,0,-0.228899,0,7.7382e-05,
0.949552,0,0,-0.229214,0,7.91862e-05,
0.996004,0,0,-0.229621,0,7.6959e-05,
1.04363,0,0,-0.230143,0,6.86891e-05,
1.09241,0,0,-0.230798,0,5.2322e-05,
1.14232,0,0,-0.231595,0,2.62579e-05,
1.19335,0,0,-0.232531,0,-1.01412e-05,
1.24546,0,0,-0.233588,0,-5.62766e-05,
1.29863,0,0,-0.234737,0,-0.000110459,
1.35283,0,0,-0.235944,0,-0.000170423,
1.40802,0,0,-0.237178,0,-0.000233959,
1.46416,0,0,-0.238409,0,-0.000299362,
1.52121,0,0,-0.239611,0,-0.00036557,
1.57913,0,0,-0.240762,0,-0.000432056,
1.63787,0,0,-0.241844,0,-0.000498611,
1.69739,0,0,-0.242838,0,-0.000565156,
1.75761,0,0,-0.243729,0,-0.000631632,
1.81851,0,0,-0.244499,0,-0.000697949,
1.88,0,0,-0.245133,0,-0.000763981,
1.94204,0,0,-0.245615,0,-0.000829571,
2.00457,0,0,-0.245931,0,-0.000894538,
2.06751,0,0,-0.246067,0,-0.000958686,
2.13081,0,0,-0.246009,0,-0.0010218,
2.19439,0,0,-0.245746,0,-0.00108367,
2.25819,0,0,-0.245267,0,-0.00114405,
2.32214,0,0,-0.244562,0,-0.00120269,
2.38617,0,0,-0.243623,0,-0.00125936,
2.4502,0,0,-0.242446,0,-0.0013138,
2.51418,0,0,-0.241026,0,-0.00136577,
2.57803,0,0,-0.239362,0,-0.00141502,
2.64167,0,0,-0.237455,0,-0.00146131,
2.70505,0,0,-0.235307,0,-0.00150439,
2.76808,0,0,-0.232926,0,-0.00154406,
2.83072,0,0,-0.230318,0,-0.00158011,
2.89288,0,0,-0.227495,0,-0.00161239,
2.95451,0,0,-0.224472,0,-0.00164081,
3.01555,0,0,-0.221263,0,-0.00166531,
3.07594,0,0,-0.217886,0,-0.00168591,
3.13561,0,0,-0.21436,0,-0.00170266,
3.19453,0,0,-0.210704,0,-0.00171568,
3.25262,0,0,-0.206938,0,-0.0017251,
3.30985,0,0,-0.203083,0,-0.0017311,
3.36617,0,0,-0.199157,0,-0.00173383,
3.42154,0,0,-0.195179,0,-0.00173351,
3.47591,0,0,-0.19117,0,-0.00173034,
3.52925,0,0,-0.187145,0,-0.00172453,
3.58152,0,0,-0.183122,0,-0.00171631,
3.6327,0,0,-0.179117,0,-0.00170593,
3.68276,0,0,-0.175143,0,-0.00169361,
3.73167,0,0,-0.171213,0,-0.00167958,
3.77941,0,0,-0.167339,0,-0.00166406,
3.82596,0,0,-0.16353,0,-0.00164725,
3.8713,0,0,-0.159796,0,-0.00162936,
3.91543,0,0,-0.156142,0,-0.00161044,
3.95833,0,0,-0.152592,0,-0.001591,
4,0,0,-0.149114,0,-0.0015709,
4.04167,0,0,-0.145641,0,-0.00154965,
4.08333,0,0,-0.142166,0,-0.00152746,
4.125,0,0,-0.138693,0,-0.00150432,
4.16667,0,0,-0.135224,0,-0.00148023,
4.20833,0,0,-0.131762,0,-0.00145525,
4.25,0,0,-0.128311,0,-0.00142942,
4.29167,0,0,-0.124872,0,-0.00140277,
4.33333,0,0,-0.121448,0,-0.00137536,
4.375,0,0,-0.118042,0,-0.0013472,
4.41667,0,0,-0.114656,0,-0.00131835,
4.45833,0,0,-0.111291,0,-0.00128883,
4.5,0,0,-0.107951,0,-0.00125869,
4.54167,0,0,-0.104638,0,-0.00122795,
4.58333,0,0,-0.101352,0,-0.00119664,
4.625,0,0,-0.0980962,0,-0.00116481,
4.66667,0,0,-0.0948718,0,-0.00113248,
4.70833,0,0,-0.0916805,0,-0.00109969,
4.75,0,0,-0.0885237,0,-0.00106645,
4.79167,0,0,-0.0854029,0,-0.0010328,
4.83333,0,0,-0.0823193,0,-0.000998758,
4.875,0,0,-0.0792743,0,-0.000964357,
4.91667,0,0,-0.0762689,0,-0.000929621,
4.95833,0,0,-0.0733044,0,-0.000894577,
5,0,0,-0.0703817,0,-0.000859251,
5.04167,0,0,-0.0675017,0,-0.000823673,
5.08333,0,0,-0.0646654,0,-0.000787866,
5.125,0,0,-0.0618735,0,-0.000751858,
5.16667,0,0,-0.0591267,0,-0.000715673,
5.20833,0,0,-0.0564256,0,-0.000679336,
5.25,0,0,-0.0537707,0,-0.000642868,
5.29167,0,0,-0.0511626,0,-0.000606293,
5.33333,0,0,-0.0486017,0,-0.000569629,
5.375,0,0,-0.0460884,0,-0.000532894,
5.41667,0,0,-0.0436231,0,-0.000496106,
5.45833,0,0,-0.0412061,0,-0.00045928,
5.5,0,0,-0.0388378,0,-0.000422431,
5.54167,0,0,-0.0365186,0,-0.000385574,
5.58333,0,0,-0.034249,0,-0.00034872,
5.625,0,0,-0.0320295,0,-0.000311886,
5.66667,0,0,-0.0298607,0,-0.000275093,
5.70833,0,0,-0.0277434,0,-0.000238377,
5.75,0,0,-0.0256786,0,-0.000201805,
5.79167,0,0,-0.0236671,0,-0.00016547,
5.83333,0,0,-0.021709,0,-0.000129479,
5.875,0,0,-0.0198037,0,-9.39111e-05,
5.91667,0,0,-0.0179502,0,-5.87962e-05,
5.95833,0,0,-0.0161473,0,-2.41305e-05,
6,0,0,-0.0143939,0,1.01023e-05,
6.04167,0,0,-0.0126891,0,4.39152e-05,
6.08333,0,0,-0.0110319,0,7.73155e-05,
6.125,0,0,-0.00942135,0,0.000110307,
6.16667,0,0,-0.00785665,0,0.000142891,
6.20833,0,0,-0.0063369,0,0.000175071,
6.25,0,0,-0.00486125,0,0.000206846,
6.29167,0,0,-0.00342887,0,0.000238218,
6.33333,0,0,-0.00203892,0,0.000269188,
6.375,0,0,-0.00069058,0,0.000299756,
6.41667,0,0,0.000616958,0,0.000329922,
6.45833,0,0,0.0018845,0,0.000359689,
6.5,0,0,0.00311285,0,0.000389057,
6.54167,0,0,0.00430279,0,0.000418028,
6.58333,0,0,0.0054551,0,0.000446603,
6.625,0,0,0.00657055,0,0.000474783,
6.66667,0,0,0.00764992,0,0.000502569,
6.70833,0,0,0.00869395,0,0.000529962,
6.75,0,0,0.0097034,0,0.000556966,
6.79167,0,0,0.010679,0,0.00058358,
6.83333,0,0,0.0116215,0,0.000609806,
6.875,0,0,0.0125316,0,0.000635647,
6.91667,0,0,0.0134101,0,0.000661103,
6.95833,0,0,0.0142576,0,0.000686176,
7,0,0,0.0150749,0,0.000710869,
7.04167,0,0,0.0158627,0,0.000735182,
7.08333,0,0,0.0166216,0,0.00075912,
7.125,0,0,0.0173524,0,0.000782683,
7.16667,0,0,0.0180557,0,0.000805874,
7.20833,0,0,0.0187322,0,0.000828698,
7.25,0,0,0.0193825,0,0.000851157,
7.29167,0,0,0.0200073,0,0.000873255,
7.33333,0,0,0.0206071,0,0.000894998,
7.375,0,0,0.0211827,0,0.000916393,
7.41667,0,0,0.0217347,0,0.000937452,
7.45833,0,0,0.0222638,0,0.000958186,
7.5,0,0,0.0227704,0,0.000978603,
7.54167,0,0,0.0232551,0,0.000998706,
7.58333,0,0,0.0237184,0,0.00101849,
7.625,0,0,0.0241608,0,0.00103797,
7.66667,0,0,0.0245828,0,0.00105714,
7.70833,0,0,0.0249847,0,0.00107599,
7.75,0,0,0.0253672,0,0.00109455,
7.79167,0,0,0.0257305,0,0.00111281,
7.83333,0,0,0.0260744,0,0.00113076,
7.875,0,0,0.0263991,0,0.00114846,
7.91667,0,0,0.0267155,0,0.00116648,
7.95833,0,0,0.0269534,0,0.00118332,
8,0,0,0.0272792,0,0.00120018,
8.04171,0,0,0.027626,0,0.00121805,
8.08368,0,0,0.0278382,0,0.0012357,
8.12617,0,0,0.028092,0,0.00125158,
8.16946,0,0,0.0283304,0,0.00126753,
8.21382,0,0,0.0285523,0,0.00128348,
8.25952,0,0,0.0287654,0,0.00129945,
8.30685,0,0,0.0289692,0,0.00131561,
8.35611,0,0,0.0291636,0,0.00133206,
8.40762,0,0,0.0293487,0,0.00134887,
8.46168,0,0,0.0295239,0,0.00136611,
8.51865,0,0,0.0296883,0,0.00138382,
8.57889,0,0,0.0298407,0,0.00140205,
8.64276,0,0,0.0299793,0,0.00142085,
8.71067,0,0,0.0301023,0,0.00144024,
8.78306,0,0,0.0302073,0,0.00146023,
8.86037,0,0,0.0302915,0,0.00148086,
8.94309,0,0,0.0303517,0,0.00150212,
9.03174,0,0,0.0303845,0,0.00152402,
9.12689,0,0,0.030386,0,0.00154654,
9.22912,0,0,0.0303522,0,0.00156965,
9.33908,0,0,0.0302785,0,0.00159333,
9.45746,0,0,0.0301605,0,0.00161753,
9.58501,0,0,0.0299936,0,0.0016422,
9.72253,0,0,0.0297729,0,0.00166728,
9.87088,0,0,0.0294937,0,0.00169269,
10.031,0,0,0.0291516,0,0.00171834,
10.2039,0,0,0.0287434,0,0.00174414,
10.3906,0,0,0.0282656,0,0.00176998,
10.5924,0,0,0.0277151,0,0.00179575,
10.8105,0,0,0.0270914,0,0.00182133,
11.0463,0,0,0.0263953,0,0.0018466,
11.3012,0,0,0.0256276,0,0.00187147,
11.5769,0,0,0.0247916,0,0.00189581,
11.8751,0,0,0.0238928,0,0.00191954,
12.1977,0,0,0.0229373,0,0.00194256,
12.5466,0,0,0.0219346,0,0.00196482,
12.9242,0,0,0.0208942,0,0.00198626,
13.3327,0,0,0.0198278,0,0.00200684,
13.7748,0,0,0.0187486,0,0.00202654,
14.2532,0,0,0.0176694,0,0.00204535,
14.7709,0,0,0.0166046,0,0.0020633,
15.3312,0,0,0.0155668,0,0.0020804,
15.9377,0,0,0.0145693,0,0.00209671,
16.594,0,0,0.0136226,0,0.00211229,
17.3044,0,0,0.0127356,0,0.0021272,
18.0733,0,0,0.0119146,0,0.00214149,
18.9056,0,0,0.0111622,0,0.00215507,
19.8064,0,0,0.0104794,0,0.00216786,
20.7816,0,0,0.00986284,0,0.00218003,
21.8371,0,0,0.00930582,0,0.00219193,
22.9796,0,0,0.00879878,0,0.00220371,
24.2163,0,0,0.00832888,0,0.00221545,
25.5551,0,0,0.00788196,0,0.00222727,
27.0042,0,0,0.0074414,0,0.00223925,
28.5729,0,0,0.00698929,0,0.00225141,
30.271,0,0,0.00650781,0,0.00226377,
32.1091,0,0,0.00597983,0,0.00227624,
34.0989,0,0,0.00539069,0,0.00228871,
36.2529,0,0,0.00472301,0,0.00230129,
38.5845,0,0,0.00396863,0,0.0023139,
41.1085,0,0,0.00316681,0,0.00232636,
43.8407,0,0,0.00215821,0,0.00233644,
46.7983,0,0,0.00111189,0,0.00234201,
50,0,0,0.00214016,0,0.00235786,

