e6d3156be87e26e2422102f448e91f24c14aef71 
X,Z,x_velocity,cp,uw_b,cf,
1,0,0,-0.230566,0,0,
1,9,0,-0.128366,0,0,
1,8.99969,0.0153511,-0.128366,2.82935e-10,0,
1,8.99934,0.0327675,-0.128366,1.32255e-08,0,
1,8.99894,0.0525452,-0.128366,1.82445e-07,0,
1,8.99848,0.0749972,-0.128366,1.3376e-06,0,
1,8.99797,0.100436,-0.128366,6.68702e-06,0,
1,8.99739,0.129059,-0.128366,2.53228e-05,0,
1,8.99672,0.160677,-0.128366,7.50831e-05,0,
1,8.99597,0.19436,-0.128366,0.000174766,0,
1,8.99512,0.228468,-0.128366,0.000322565,0,
1,8.99416,0.261344,-0.128365,0.000490192,0,
1,8.99306,0.292008,-0.128365,0.000648223,0,
1,8.99182,0.320278,-0.128365,0.000775758,0,
1,8.99041,0.346295,-0.128365,0.000881256,0,
1,8.98881,0.370218,-0.128364,0.000968438,0,
1,8.98699,0.392263,-0.128363,0.00103962,0,
1,8.98494,0.412721,-0.128363,0.00109553,0,
1,8.98261,0.431901,-0.128362,0.00113846,0,
1,8.97996,0.45004,-0.128361,0.00117443,0,
1,8.97696,0.467312,-0.12836,0.00120428,0,
1,8.97356,0.483858,-0.128358,0.00122927,0,
1,8.9697,0.499796,-0.128357,0.00125037,0,
1,8.96533,0.515225,-0.128355,0.00126828,0,
1,8.96038,0.530227,-0.128353,0.00128352,0,
1,8.95476,0.544874,-0.12835,0.00129646,0,
1,8.9484,0.559223,-0.128348,0.00130735,0,
1,8.9412,0.573326,-0.128345,0.00131637,0,
1,8.93303,0.587225,-0.128342,0.00132361,0,
1,8.92379,0.600958,-0.128339,0.00132913,0,
1,8.91333,0.614556,-0.128335,0.00133293,0,
1,8.90149,0.628047,-0.128332,0.00133498,0,
1,8.8881,0.641455,-0.128329,0.00133523,0,
1,8.87295,0.654802,-0.128325,0.0013336,0,
1,8.85584,0.668108,-0.128323,0.00132998,0,
1,8.83651,0.681391,-0.128321,0.00132428,0,
1,8.81469,0.694671,-0.128321,0.00131636,0,
1,8.79007,0.707968,-0.128322,0.00130605,0,
1,8.76232,0.721301,-0.128325,0.00129318,0,
1,8.73107,0.734698,-0.128332,0.00127753,0,
1,8.69591,0.748186,-0.128344,0.00125881,0,
1,8.6564,0.761804,-0.128361,0.00123668,0,
1,8.61206,0.775594,-0.128386,0.00121073,0,
1,8.56236,0.789615,-0.128421,0.00118062,0,
1,8.50675,0.803942,-0.12847,0.00114732,0,
1,8.44464,0.81871,-0.128534,0.00110761,0,
1,8.3754,0.834139,-0.12862,0.00105623,0,
1,8.29839,0.85048,-0.128733,0.000993163,0,
1,8.21296,0.867978,-0.128879,0.000913928,0,
1,8.11843,0.886828,-0.129064,0.000813279,0,
1,8.01417,0.90703,-0.129303,0.000687755,0,
1,7.89956,0.928143,-0.129591,0.000540765,0,
1,7.77403,0.949044,-0.129967,0.000390709,0,
1,7.63711,0.968126,-0.130417,0.000206935,0,
1,7.48842,0.983064,-0.130949,7.70823e-05,0,
1,7.32773,0.991914,-0.131588,1.86268e-05,0,
1,7.15495,0.995141,-0.132331,1.87537e-06,0,
1,6.97022,0.995216,-0.133193,2.62902e-08,0,
1,6.77388,0.9946,-0.134189,3.83811e-09,0,
1,6.56652,0.99448,-0.135335,9.85027e-09,0,
1,6.34896,0.994934,-0.136645,1.25509e-08,0,
1,6.12229,0.995664,-0.138134,1.41633e-08,0,
1,5.88784,0.996469,-0.139817,1.50377e-08,0,
1,5.64716,0.997312,-0.141706,1.60395e-08,0,
1,5.40194,0.998224,-0.143815,1.74318e-08,0,
1,5.15407,0.999231,-0.14615,1.91874e-08,0,
1,4.90545,1.00034,-0.148717,2.10682e-08,0,
1,4.65805,1.00157,-0.151513,2.3092e-08,0,
1,4.41376,1.00289,-0.154534,2.52202e-08,0,
1,4.17441,1.00431,-0.157768,2.72268e-08,0,
1,3.94163,1.00575,-0.161196,2.89495e-08,0,
1,3.7169,1.00718,-0.164794,3.09912e-08,0,
1,3.50146,1.00867,-0.168529,3.52884e-08,0,
1,3.29629,1.01053,-0.172368,4.38981e-08,0,
1,3.10217,1.01312,-0.176279,5.50625e-08,0,
1,2.91959,1.01626,-0.180234,1.00349e-07,0,
1,2.74885,1.01853,-0.184187,1.04003e-06,0,
1,2.59002,1.01752,-0.188073,-5.34597e-06,0,
1,2.44299,1.0115,-0.191823,-4.97717e-05,0,
1,2.30752,1.00064,-0.195365,-0.000145324,0,
1,2.18321,0.986369,-0.198636,-0.000278661,0,
1,2.06959,0.970269,-0.201663,-0.000394145,0,
1,1.9661,0.953613,-0.204422,-0.00049441,0,
1,1.87215,0.93733,-0.206878,-0.000587943,0,
1,1.78711,0.921937,-0.209067,-0.000670299,0,
1,1.71033,0.907593,-0.211004,-0.000741411,0,
1,1.64119,0.894269,-0.212711,-0.000802819,0,
1,1.57905,0.881857,-0.21421,-0.000856732,0,
1,1.52332,0.870227,-0.21552,-0.000905163,0,
1,1.47342,0.859267,-0.21667,-0.000950428,0,
1,1.42882,0.848895,-0.21766,-0.00098744,0,
1,1.389,0.839034,-0.218501,-0.0010118,0,
1,1.35351,0.829618,-0.219229,-0.00103466,0,
1,1.3219,0.820609,-0.219857,-0.0010554,0,
1,1.29378,0.811986,-0.220398,-0.00107364,0,
1,1.26878,0.803738,-0.220863,-0.00108935,0,
1,1.24659,0.795861,-0.221262,-0.0011028,0,
1,1.22689,0.788348,-0.221606,-0.00111404,0,
1,1.2092,0.781112,-0.221905,-0.00112202,0,
1,1.1932,0.774105,-0.222166,-0.00112749,0,
1,1.1787,0.76731,-0.222394,-0.0011313,0,
1,1.16554,0.760703,-0.222593,-0.00113475,0,
1,1.15357,0.754247,-0.222767,-0.00114071,0,
1,1.14266,0.747882,-0.222918,-0.00115334,0,
1,1.13268,0.741524,-0.223051,-0.00117858,0,
1,1.12354,0.735053,-0.223168,-0.0012243,0,
1,1.11514,0.728312,-0.223274,-0.00129982,0,
1,1.10739,0.721113,-0.223373,-0.00141516,0,
1,1.10022,0.713256,-0.223471,-0.00157952,0,
1,1.09357,0.704557,-0.22357,-0.00179944,0,
1,1.08738,0.694907,-0.223675,-0.00207655,0,
1,1.0816,0.684301,-0.223786,-0.00240608,0,
1,1.07618,0.672849,-0.223903,-0.00277699,0,
1,1.07107,0.660745,-0.224027,-0.00317421,0,
1,1.06626,0.648218,-0.224155,-0.00358193,0,
1,1.06169,0.635484,-0.224286,-0.0039864,0,
1,1.05735,0.622724,-0.22442,-0.00437726,0,
1,1.05321,0.610075,-0.224554,-0.00474766,0,
1,1.04925,0.597633,-0.224689,-0.00509369,0,
1,1.04544,0.585459,-0.224823,-0.00541356,0,
1,1.04177,0.573587,-0.224956,-0.00570696,0,
1,1.03822,0.562035,-0.225088,-0.00597444,0,
1,1.03478,0.550807,-0.225218,-0.00621714,0,
1,1.03144,0.539897,-0.225347,-0.00643641,0,
1,1.02818,0.529295,-0.225475,-0.00663372,0,
1,1.025,0.51899,-0.225601,-0.00681056,0,
1,1.02188,0.508965,-0.225725,-0.00696835,0,
1,1.01882,0.499206,-0.225848,-0.00710842,0,
1,1.01581,0.489698,-0.22597,-0.00723216,0,
1,1.01284,0.480424,-0.22609,-0.00734008,0,
1,1.00988,0.471273,-0.226211,-0.007435,0,
1,1.00688,0.462135,-0.226333,-0.00751831,0,
1,1.00384,0.452996,-0.226456,-0.0075898,0,
1,1.00076,0.443839,-0.22658,-0.00764948,0,
1,0.997615,0.434645,-0.226705,-0.0076972,0,
1,0.99441,0.425391,-0.226831,-0.00773322,0,
1,0.991131,0.416053,-0.226959,-0.00775754,0,
1,0.987768,0.406604,-0.227088,-0.00777,0,
1,0.984308,0.397017,-0.227219,-0.00777027,0,
1,0.980739,0.387262,-0.227352,-0.00775793,0,
1,0.977045,0.377305,-0.227487,-0.00773241,0,
1,0.973211,0.36711,-0.227625,-0.00769296,0,
1,0.969219,0.356639,-0.227765,-0.00763868,0,
1,0.965047,0.345848,-0.227908,-0.00756844,0,
1,0.960675,0.334689,-0.228054,-0.00748091,0,
1,0.956077,0.323109,-0.228204,-0.00737412,0,
1,0.951224,0.311051,-0.228357,-0.00724596,0,
1,0.946088,0.298453,-0.228513,-0.00709441,0,
1,0.940633,0.285257,-0.228674,-0.0069169,0,
1,0.934823,0.271405,-0.22884,-0.00671062,0,
1,0.928616,0.256852,-0.229011,-0.00647471,0,
1,0.921967,0.241566,-0.229188,-0.00620518,0,
1,0.914826,0.225522,-0.229369,-0.00589937,0,
1,0.907141,0.208712,-0.229555,-0.0055551,0,
1,0.898852,0.191149,-0.229745,-0.0051709,0,
1,0.889898,0.172877,-0.229939,-0.00474645,0,
1,0.880212,0.153986,-0.230135,-0.00428328,0,
1,0.869723,0.134631,-0.230335,-0.00378564,0,
1,0.858358,0.11506,-0.230537,-0.00326193,0,
1,0.846039,0.0956491,-0.230743,-0.00272663,0,
1,0.83269,0.0769375,-0.230954,-0.00220217,0,
1,0.818232,0.0596239,-0.231172,-0.00172217,0,
1,0.802744,0.0445555,-0.231386,-0.00132048,0,
1,0.78635,0.0322489,-0.2316,-0.00101159,0,
1,0.768969,0.022554,-0.231801,-0.000791627,0,
1,0.75053,0.0149507,-0.231989,-0.000645398,0,
1,0.730977,0.00880396,-0.232155,-0.000555353,0,
1,0.710271,0.00356214,-0.232293,-0.000505123,0,
1,0.688397,-0.00117305,-0.232407,-0.000480434,0,
1,0.66536,-0.00565092,-0.232495,-0.000474248,0,
1,0.641194,-0.010027,-0.23256,-0.000475,0,
1,0.615961,-0.0144089,-0.232604,-0.000477667,0,
1,0.589754,-0.0188562,-0.232628,-0.00047828,0,
1,0.562692,-0.0233859,-0.232632,-0.000474312,0,
1,0.534925,-0.0279814,-0.232615,-0.000464602,0,
1,0.506624,-0.0326022,-0.232575,-0.00044883,0,
1,0.477982,-0.0371934,-0.232512,-0.00042726,0,
1,0.449206,-0.0416929,-0.232426,-0.000400492,0,
1,0.420509,-0.0460378,-0.232318,-0.000369321,0,
1,0.392107,-0.0501671,-0.232189,-0.000334637,0,
1,0.364206,-0.0540251,-0.232042,-0.000297359,0,
1,0.337003,-0.0575622,-0.231882,-0.000258401,0,
1,0.310673,-0.0607354,-0.231713,-0.000218623,0,
1,0.28537,-0.0635089,-0.23154,-0.000178803,0,
1,0.26122,-0.0658532,-0.231367,-0.000139612,0,
1,0.238324,-0.0677444,-0.231199,-0.000101597,0,
1,0.21675,-0.0691632,-0.231041,-6.52014e-05,0,
1,0.196544,-0.0700937,-0.230896,-3.07633e-05,0,
1,0.177724,-0.0705225,-0.230766,1.45845e-06,0,
1,0.160284,-0.0704388,-0.230654,3.12461e-05,0,
1,0.144202,-0.0698342,-0.23056,5.83793e-05,0,
1,0.129436,-0.0687044,-0.230486,8.26012e-05,0,
1,0.115935,-0.0670511,-0.230431,0.000103608,0,
1,0.103636,-0.0648848,-0.230393,0.000121066,0,
1,0.0924701,-0.0622272,-0.23037,0.000134662,0,
1,0.0823633,-0.0591131,-0.230361,0.00014416,0,
1,0.0732406,-0.0555906,-0.230363,0.000149453,0,
1,0.0650269,-0.0517195,-0.230374,0.000150576,0,
1,0.057648,-0.0475683,-0.23039,0.000147744,0,
1,0.0510323,-0.0432103,-0.230411,0.000141327,0,
1,0.0451115,-0.0387191,-0.230433,0.000131805,0,
1,0.0398209,-0.0341643,-0.230455,0.000119719,0,
1,0.0351001,-0.0296077,-0.230476,0.000105633,0,
1,0.0308929,-0.0251024,-0.230496,9.01015e-05,0,
1,0.0271475,-0.0206944,-0.230513,7.36838e-05,0,
1,0.0238164,-0.0164288,-0.230527,5.70108e-05,0,
1,0.0208562,-0.0123627,-0.230538,4.0921e-05,0,
1,0.0182274,-0.00858003,-0.230547,2.65675e-05,0,
1,0.0158944,-0.00519853,-0.230552,1.5212e-05,0,
1,0.0138249,-0.00234657,-0.230556,7.55972e-06,0,
1,0.0119898,-0.000112088,-0.230558,3.25601e-06,0,
1,0.0103632,0.00149862,-0.23056,1.22194e-06,0,
1,0.00892169,0.00255484,-0.230561,3.96604e-07,0,
1,0.00764438,0.00316343,-0.230562,1.05615e-07,0,
1,0.00651264,0.00343316,-0.230562,1.79208e-08,0,
1,0.00550983,0.00345747,-0.230563,-2.48816e-09,0,
1,0.00462115,0.00331006,-0.230563,-4.3001e-09,0,
1,0.00383341,0.00304701,-0.230564,-2.62137e-09,0,
1,0.0031349,0.00270994,-0.230564,-1.18403e-09,0,
1,0.00251518,0.00232943,-0.230565,-4.33468e-10,0,
1,0.00196502,0.00192749,-0.230564,-1.28325e-10,0,
1,0.00147619,0.00151984,-0.230565,-2.91275e-11,0,
1,0.00104139,0.00111729,-0.230564,-4.49477e-12,0,
1,0.000654158,0.00072712,-0.230566,-3.64696e-13,0,
1,0.000308731,0.00035388,-0.230564,-8.5668e-15,0,

4,0,0,-0.146369,0,0,
4,9,0,-0.0974344,0,0,
4,8.99969,0.0142182,-0.097434,2.21661e-10,0,
4,8.99934,0.0302929,-0.0974343,1.02842e-08,0,
4,8.99894,0.0484851,-0.097434,1.40433e-07,0,
4,8.9985,0.0690707,-0.0974342,1.01938e-06,0,
4,8.99799,0.0923308,-0.0974339,5.06036e-06,0,
4,8.99742,0.118469,-0.0974341,1.91668e-05,0,
4,8.99677,0.147403,-0.0974339,5.75554e-05,0,
4,8.99605,0.17846,-0.0974339,0.000137652,0,
4,8.99522,0.210294,-0.0974337,0.000263459,0,
4,8.99429,0.241366,-0.0974336,0.000414996,0,
4,8.99324,0.270608,-0.0974333,0.000564393,0,
4,8.99205,0.297633,-0.0974331,0.00069386,0,
4,8.9907,0.322517,-0.0974326,0.00079782,0,
4,8.98919,0.345433,-0.0974321,0.000885461,0,
4,8.98747,0.366567,-0.0974314,0.000958403,0,
4,8.98553,0.386189,-0.0974306,0.00101575,0,
4,8.98334,0.404578,-0.0974296,0.00106209,0,
4,8.98087,0.42195,-0.0974285,0.00110121,0,
4,8.97807,0.438475,-0.0974271,0.00113444,0,
4,8.97491,0.454293,-0.0974255,0.00116307,0,
4,8.97134,0.469524,-0.0974235,0.00118809,0,
4,8.96731,0.484268,-0.0974213,0.00121021,0,
4,8.96276,0.498609,-0.0974187,0.00122995,0,
4,8.95762,0.51262,-0.0974157,0.00124769,0,
4,8.95182,0.526364,-0.0974123,0.00126368,0,
4,8.94526,0.539894,-0.0974084,0.00127807,0,
4,8.93787,0.553257,-0.097404,0.00129093,0,
4,8.92952,0.566491,-0.097399,0.00130226,0,
4,8.92011,0.579631,-0.0973935,0.00131202,0,
4,8.90949,0.592707,-0.0973874,0.0013201,0,
4,8.89751,0.605744,-0.0973807,0.00132639,0,
4,8.88402,0.618762,-0.0973735,0.00133072,0,
4,8.86881,0.631779,-0.0973658,0.00133292,0,
4,8.85169,0.644811,-0.0973579,0.00133281,0,
4,8.83242,0.65787,-0.0973497,0.00133019,0,
4,8.81074,0.670969,-0.0973415,0.00132487,0,
4,8.78637,0.684117,-0.0973335,0.00131667,0,
4,8.75901,0.697329,-0.0973261,0.00130539,0,
4,8.7283,0.710618,-0.0973198,0.00129086,0,
4,8.69387,0.724003,-0.0973152,0.00127286,0,
4,8.65533,0.737506,-0.0973131,0.00125114,0,
4,8.61222,0.75116,-0.0973143,0.0012254,0,
4,8.56407,0.765005,-0.0973206,0.00119524,0,
4,8.5104,0.779093,-0.0973326,0.00116039,0,
4,8.45065,0.7935,-0.0973539,0.00112258,0,
4,8.38429,0.808375,-0.0973873,0.00107548,0,
4,8.31073,0.823955,-0.0974341,0.00101824,0,
4,8.22941,0.840505,-0.097499,0.000948079,0,
4,8.13974,0.858291,-0.0975847,0.000860615,0,
4,8.04115,0.87749,-0.0976929,0.000752204,0,
4,7.93313,0.897995,-0.097829,0.000623078,0,
4,7.81519,0.919108,-0.0979848,0.00048222,0,
4,7.68693,0.939369,-0.0981842,0.000347069,0,
4,7.54803,0.956885,-0.0984086,0.000205312,0,
4,7.39831,0.969757,-0.0986762,9.05791e-05,0,
4,7.23771,0.977086,-0.0990029,2.80742e-05,0,
4,7.06634,0.979796,-0.0993769,4.61953e-06,0,
4,6.88453,0.979943,-0.0998009,-3.54906e-08,0,
4,6.69275,0.979379,-0.100275,-1.15248e-07,0,
4,6.49173,0.979045,-0.100808,1.42009e-08,0,
4,6.28238,0.979103,-0.101407,2.24871e-08,0,
4,6.06579,0.979391,-0.102078,1.31879e-08,0,
4,5.84328,0.979751,-0.102829,8.81764e-09,0,
4,5.61626,0.980117,-0.103662,7.61113e-09,0,
4,5.3863,0.980491,-0.104582,7.62244e-09,0,
4,5.15502,0.980887,-0.105591,8.12705e-09,0,
4,4.92406,0.981319,-0.10669,8.88258e-09,0,
4,4.69507,0.981797,-0.107879,9.79732e-09,0,
4,4.46961,0.982327,-0.109155,1.07292e-08,0,
4,4.24915,0.98289,-0.110515,1.13782e-08,0,
4,4.03501,0.983432,-0.111953,1.14465e-08,0,
4,3.82836,0.983884,-0.11346,1.11657e-08,0,
4,3.63018,0.984247,-0.115027,1.18978e-08,0,
4,3.44125,0.984697,-0.116642,1.64608e-08,0,
4,3.26217,0.985586,-0.118292,5.72903e-08,0,
4,3.09333,0.987214,-0.119965,5.12444e-07,0,
4,2.93497,0.989417,-0.121645,2.42182e-06,0,
4,2.78715,0.991369,-0.123317,4.63776e-06,0,
4,2.64979,0.991905,-0.124966,-1.18395e-07,0,
4,2.52268,0.990095,-0.126572,-2.1471e-05,0,
4,2.40551,0.985598,-0.128116,-6.46597e-05,0,
4,2.29789,0.97864,-0.129583,-0.00012848,0,
4,2.19939,0.969798,-0.130959,-0.000207026,0,
4,2.10949,0.959754,-0.132238,-0.000292544,0,
4,2.02768,0.949136,-0.133418,-0.000377453,0,
4,1.95343,0.938461,-0.1345,-0.000455495,0,
4,1.88618,0.928111,-0.135485,-0.000524234,0,
4,1.82542,0.918277,-0.136386,-0.000573004,0,
4,1.77062,0.909016,-0.137205,-0.00061255,0,
4,1.72128,0.900379,-0.13794,-0.000648203,0,
4,1.67693,0.892398,-0.138603,-0.000680052,0,
4,1.63713,0.885076,-0.139197,-0.000708433,0,
4,1.60144,0.878394,-0.13973,-0.000733695,0,
4,1.56949,0.872322,-0.140207,-0.00075624,0,
4,1.54091,0.866822,-0.140634,-0.000776524,0,
4,1.51537,0.861837,-0.141016,-0.000794939,0,
4,1.49167,0.857171,-0.141368,-0.000811928,0,
4,1.46926,0.852736,-0.141701,-0.000828005,0,
4,1.44801,0.848516,-0.142017,-0.000843408,0,
4,1.42781,0.844473,-0.142326,-0.000851569,0,
4,1.40855,0.840567,-0.142625,-0.000857995,0,
4,1.39015,0.836777,-0.142909,-0.000863735,0,
4,1.37252,0.833088,-0.143183,-0.000868376,0,
4,1.3556,0.829484,-0.143446,-0.000872465,0,
4,1.3393,0.825949,-0.143701,-0.000876612,0,
4,1.32357,0.822463,-0.143946,-0.000881721,0,
4,1.30836,0.819009,-0.144185,-0.000888572,0,
4,1.29362,0.815563,-0.144416,-0.000898234,0,
4,1.2793,0.812099,-0.144642,-0.000912054,0,
4,1.26537,0.808585,-0.144861,-0.000931684,0,
4,1.25179,0.804985,-0.145076,-0.000959119,0,
4,1.23852,0.801254,-0.145285,-0.00099671,0,
4,1.22554,0.797341,-0.14549,-0.00104716,0,
4,1.21282,0.793186,-0.145691,-0.00111346,0,
4,1.20034,0.788724,-0.145887,-0.00119877,0,
4,1.18806,0.783883,-0.146078,-0.00130619,0,
4,1.17599,0.778593,-0.146266,-0.00143846,0,
4,1.16408,0.772789,-0.146448,-0.00159761,0,
4,1.15233,0.766421,-0.146627,-0.00178456,0,
4,1.14073,0.759456,-0.1468,-0.00199886,0,
4,1.12925,0.751887,-0.14697,-0.00223858,0,
4,1.11788,0.74373,-0.147135,-0.00250043,0,
4,1.10661,0.735022,-0.147296,-0.00278004,0,
4,1.09543,0.725815,-0.147453,-0.00307242,0,
4,1.08432,0.716172,-0.147607,-0.00337234,0,
4,1.07328,0.706156,-0.147757,-0.00367474,0,
4,1.0623,0.695833,-0.147904,-0.00397503,0,
4,1.05136,0.685264,-0.148048,-0.00426915,0,
4,1.04044,0.674486,-0.148189,-0.00455385,0,
4,1.0295,0.663527,-0.148328,-0.00482666,0,
4,1.01855,0.65243,-0.148465,-0.00508517,0,
4,1.00757,0.64123,-0.148599,-0.00532718,0,
4,0.996544,0.629958,-0.148731,-0.00555109,0,
4,0.98547,0.618642,-0.14886,-0.0057554,0,
4,0.974334,0.607304,-0.148987,-0.00593868,0,
4,0.963124,0.595966,-0.149111,-0.00610016,0,
4,0.951826,0.584644,-0.149235,-0.00626647,0,
4,0.940428,0.573254,-0.149332,-0.00637917,0,
4,0.928915,0.561646,-0.149399,-0.00648636,0,
4,0.917272,0.549719,-0.149461,-0.00660082,0,
4,0.905481,0.53741,-0.149521,-0.00672323,0,
4,0.893524,0.524672,-0.149583,-0.00685399,0,
4,0.881383,0.511468,-0.149648,-0.00699326,0,
4,0.869035,0.497762,-0.149717,-0.00714099,0,
4,0.856459,0.483521,-0.149789,-0.00729693,0,
4,0.843629,0.468718,-0.149865,-0.00746066,0,
4,0.830518,0.453326,-0.149944,-0.00763156,0,
4,0.817097,0.437325,-0.150027,-0.00780883,0,
4,0.803334,0.420697,-0.150112,-0.00799148,0,
4,0.789195,0.403429,-0.150198,-0.00817833,0,
4,0.774643,0.385514,-0.150286,-0.00836792,0,
4,0.759639,0.366952,-0.150375,-0.00855843,0,
4,0.744138,0.347753,-0.150466,-0.00874759,0,
4,0.728096,0.327943,-0.150559,-0.00893252,0,
4,0.711463,0.307565,-0.150655,-0.00910978,0,
4,0.694189,0.286682,-0.150756,-0.00927496,0,
4,0.676218,0.265364,-0.150861,-0.0094224,0,
4,0.657495,0.243683,-0.150971,-0.00954638,0,
4,0.637962,0.221695,-0.151084,-0.00964188,0,
4,0.617561,0.199437,-0.151194,-0.0097049,0,
4,0.596848,0.177531,-0.151293,-0.00973098,0,
4,0.576557,0.156704,-0.151377,-0.00971916,0,
4,0.556564,0.136817,-0.151449,-0.00967142,0,
4,0.536763,0.117777,-0.151518,-0.00958886,0,
4,0.517057,0.0995721,-0.151607,-0.0094724,0,
4,0.497368,0.082292,-0.151752,-0.0093242,0,
4,0.477632,0.0661032,-0.151988,-0.00914898,0,
4,0.457804,0.0511673,-0.152327,-0.00895522,0,
4,0.437857,0.0374988,-0.152726,-0.00875515,0,
4,0.417786,0.0248041,-0.152792,-0.00844935,0,
4,0.397605,0.0126338,-0.152568,-0.00801468,0,
4,0.377348,0.000772815,-0.152385,-0.00765912,0,
4,0.357066,-0.0107502,-0.152194,-0.00728913,0,
4,0.336828,-0.0219087,-0.15199,-0.00690639,0,
4,0.316717,-0.0326666,-0.151776,-0.00651926,0,
4,0.296825,-0.0429761,-0.151551,-0.0061292,0,
4,0.27725,-0.0527919,-0.151315,-0.00573749,0,
4,0.258095,-0.0620778,-0.151071,-0.00534638,0,
4,0.239458,-0.0708092,-0.150818,-0.00495862,0,
4,0.221432,-0.0789725,-0.150558,-0.00457702,0,
4,0.2041,-0.0865645,-0.150293,-0.00420429,0,
4,0.187537,-0.0935908,-0.150024,-0.00384292,0,
4,0.171798,-0.100064,-0.149754,-0.00349506,0,
4,0.156928,-0.106004,-0.149486,-0.00316252,0,
4,0.142956,-0.111433,-0.149221,-0.00284668,0,
4,0.129894,-0.116376,-0.148963,-0.00254853,0,
4,0.117744,-0.120862,-0.148713,-0.00226869,0,
4,0.106492,-0.124919,-0.148474,-0.00200741,0,
4,0.0961173,-0.128573,-0.148247,-0.00176464,0,
4,0.0865883,-0.131852,-0.148034,-0.00154005,0,
4,0.0778675,-0.13478,-0.147836,-0.00133312,0,
4,0.0699123,-0.137381,-0.147653,-0.00114313,0,
4,0.062677,-0.139676,-0.147487,-0.000969266,0,
4,0.056114,-0.141683,-0.147335,-0.000810606,0,
4,0.0501747,-0.143418,-0.147199,-0.000666194,0,
4,0.0448114,-0.144897,-0.147077,-0.000535052,0,
4,0.039977,-0.146128,-0.146969,-0.000416211,0,
4,0.0356266,-0.147121,-0.146874,-0.000308732,0,
4,0.0317171,-0.14788,-0.14679,-0.000211719,0,
4,0.0282081,-0.148405,-0.146717,-0.000124342,0,
4,0.0250617,-0.148692,-0.146654,-4.58509e-05,0,
4,0.0222427,-0.148732,-0.1466,2.44079e-05,0,
4,0.0197189,-0.148508,-0.146554,8.69631e-05,0,
4,0.0174603,-0.147991,-0.146515,0.000142181,0,
4,0.0154398,-0.14714,-0.146482,0.0001902,0,
4,0.0136326,-0.145894,-0.146455,0.000230826,0,
4,0.0120162,-0.144165,-0.146433,0.000263358,0,
4,0.0105703,-0.141822,-0.146415,0.000286315,0,
4,0.00927657,-0.13868,-0.146402,0.000297106,0,
4,0.00811839,-0.134485,-0.146391,0.000291903,0,
4,0.0070809,-0.128916,-0.146384,0.000266602,0,
4,0.0061507,-0.121656,-0.146378,0.000220158,0,
4,0.00531578,-0.112555,-0.146376,0.000159404,0,
4,0.00456537,-0.101835,-0.146374,9.90231e-05,0,
4,0.00388979,-0.090099,-0.146373,5.25752e-05,0,
4,0.00328037,-0.078063,-0.146372,2.40963e-05,0,
4,0.00272934,-0.0662698,-0.146373,9.62402e-06,0,
4,0.0022297,-0.0550096,-0.146371,3.33347e-06,0,
4,0.00177519,-0.0443884,-0.146372,9.72945e-07,0,
4,0.00136016,-0.0344132,-0.14637,2.24377e-07,0,
4,0.000979511,-0.0250459,-0.146372,3.59858e-08,0,
4,0.00062865,-0.0162304,-0.14637,3.07459e-09,0,
4,0.000303409,-0.00790403,-0.146372,7.50136e-11,0,

6,0,0,-0.0135249,0,0,
6,9,0,-0.073418,0,0,
6,8.99969,0.0134802,-0.0734177,1.84792e-10,0,
6,8.99934,0.0286816,-0.0734179,8.52861e-09,0,
6,8.99895,0.0458414,-0.0734177,1.1563e-07,0,
6,8.9985,0.06521,-0.0734178,8.33356e-07,0,
6,8.99801,0.0870454,-0.0734176,4.1145e-06,0,
6,8.99744,0.111548,-0.0734177,1.55693e-05,0,
6,8.99681,0.138691,-0.0734176,4.70875e-05,0,
6,8.99609,0.167957,-0.0734176,0.000114582,0,
6,8.99529,0.198199,-0.0734174,0.000224832,0,
6,8.99438,0.22799,-0.0734174,0.000363514,0,
6,8.99336,0.256231,-0.0734171,0.000505208,0,
6,8.9922,0.282419,-0.0734169,0.000632521,0,
6,8.9909,0.306553,-0.0734165,0.000735738,0,
6,8.98944,0.328788,-0.0734162,0.000822467,0,
6,8.98779,0.349298,-0.0734156,0.000895432,0,
6,8.98593,0.36833,-0.073415,0.000953191,0,
6,8.98383,0.386143,-0.0734141,0.00100063,0,
6,8.98147,0.402941,-0.0734132,0.00104081,0,
6,8.97881,0.418892,-0.073412,0.00107523,0,
6,8.97581,0.434135,-0.0734106,0.00110521,0,
6,8.97244,0.448787,-0.0734089,0.00113177,0,
6,8.96863,0.462951,-0.073407,0.00115565,0,
6,8.96435,0.476712,-0.0734046,0.00117741,0,
6,8.95953,0.490144,-0.0734019,0.00119746,0,
6,8.95409,0.503311,-0.0733987,0.00121607,0,
6,8.94798,0.516271,-0.073395,0.00123341,0,
6,8.94109,0.529072,-0.0733907,0.00124959,0,
6,8.93334,0.541757,-0.0733858,0.00126462,0,
6,8.92463,0.554365,-0.0733801,0.00127844,0,
6,8.91482,0.56693,-0.0733736,0.00129095,0,
6,8.90379,0.579479,-0.0733663,0.00130199,0,
6,8.89139,0.592039,-0.073358,0.00131136,0,
6,8.87746,0.604629,-0.0733487,0.00131884,0,
6,8.86181,0.617267,-0.0733384,0.00132414,0,
6,8.84423,0.629968,-0.0733271,0.00132701,0,
6,8.82452,0.642743,-0.0733147,0.00132715,0,
6,8.80241,0.655601,-0.073301,0.00132428,0,
6,8.77763,0.668548,-0.0732862,0.00131814,0,
6,8.74989,0.681594,-0.0732701,0.00130846,0,
6,8.71885,0.694745,-0.0732529,0.001295,0,
6,8.68417,0.708014,-0.0732345,0.00127753,0,
6,8.64545,0.721413,-0.0732152,0.00125579,0,
6,8.60229,0.734965,-0.0731948,0.00122948,0,
6,8.55423,0.748699,-0.073174,0.00119828,0,
6,8.50082,0.762653,-0.0731523,0.00116235,0,
6,8.44155,0.776894,-0.0731313,0.00112149,0,
6,8.37592,0.791547,-0.0731115,0.0010739,0,
6,8.30339,0.806807,-0.0730929,0.001018,0,
6,8.22344,0.82294,-0.0730755,0.000950907,0,
6,8.13555,0.840246,-0.0730598,0.000868877,0,
6,8.0392,0.858978,-0.0730411,0.000768456,0,
6,7.93391,0.879133,-0.0730192,0.000649354,0,
6,7.81927,0.90013,-0.0729824,0.000517974,0,
6,7.6949,0.920599,-0.0729358,0.000389361,0,
6,7.56054,0.938702,-0.0728701,0.000273272,0,
6,7.41603,0.952825,-0.0727886,0.000141576,0,
6,7.26132,0.961972,-0.0726973,5.63999e-05,0,
6,7.09653,0.966376,-0.0725842,1.44449e-05,0,
6,6.92195,0.967482,-0.0724499,7.60502e-07,0,
6,6.73802,0.967048,-0.0722867,-1.06447e-06,0,
6,6.5454,0.966323,-0.0720911,-5.05008e-07,0,
6,6.34489,0.965818,-0.0718592,-1.45462e-07,0,
6,6.1375,0.965554,-0.0715873,-4.06378e-08,0,
6,5.92439,0.965396,-0.0712706,-1.56512e-08,0,
6,5.70687,0.965233,-0.0709043,-8.87171e-09,0,
6,5.48633,0.96502,-0.0704828,-6.83991e-09,0,
6,5.26426,0.964754,-0.0700007,-6.50142e-09,0,
6,5.04218,0.964444,-0.0694528,-6.82133e-09,0,
6,4.82159,0.964103,-0.0688342,-7.38039e-09,0,
6,4.60398,0.963743,-0.0681408,-8.07713e-09,0,
6,4.39071,0.963362,-0.0673696,-9.06559e-09,0,
6,4.18307,0.962931,-0.0665189,-1.0678e-08,0,
6,3.98218,0.96239,-0.0655888,-1.31408e-08,0,
6,3.78902,0.96168,-0.0645815,-1.61389e-08,0,
6,3.60438,0.960823,-0.0635013,-2.05374e-08,0,
6,3.42888,0.959985,-0.0623547,-4.24956e-08,0,
6,3.26296,0.959452,-0.0611491,-1.14528e-07,0,
6,3.10691,0.959471,-0.0598926,-1.68303e-07,0,
6,2.96084,0.960034,-0.0585937,-4.68449e-08,0,
6,2.82473,0.960777,-0.0572629,-4.35753e-07,0,
6,2.69844,0.961092,-0.0559139,-4.10919e-06,0,
6,2.58172,0.960369,-0.0545623,-1.53803e-05,0,
6,2.47424,0.958206,-0.0532248,-3.79422e-05,0,
6,2.37559,0.954484,-0.0519169,-7.33001e-05,0,
6,2.28535,0.949335,-0.0506526,-0.000120595,0,
6,2.20301,0.943045,-0.0494428,-0.000177204,0,
6,2.1281,0.935965,-0.0482959,-0.000239544,0,
6,2.06009,0.928442,-0.0472179,-0.000303733,0,
6,1.99849,0.920784,-0.0462107,-0.000365972,0,
6,1.9428,0.913251,-0.0452775,-0.000423037,0,
6,1.89255,0.906039,-0.0444127,-0.000473914,0,
6,1.84728,0.899244,-0.043622,-0.000517225,0,
6,1.80655,0.892868,-0.0429041,-0.000547609,0,
6,1.76996,0.886908,-0.0422443,-0.000575439,0,
6,1.73712,0.881381,-0.0416458,-0.00060093,0,
6,1.70768,0.87626,-0.0410996,-0.000624526,0,
6,1.67998,0.871318,-0.0405825,-0.000647441,0,
6,1.65329,0.86646,-0.0400778,-0.000669849,0,
6,1.62754,0.861684,-0.0395861,-0.000691696,0,
6,1.60265,0.85699,-0.0391057,-0.00071308,0,
6,1.57854,0.852376,-0.0386362,-0.00073397,0,
6,1.55515,0.847842,-0.0381767,-0.000754378,0,
6,1.53242,0.843385,-0.0377265,-0.000774325,0,
6,1.5103,0.839001,-0.0372852,-0.00079379,0,
6,1.48874,0.834676,-0.0368522,-0.000812746,0,
6,1.46769,0.830392,-0.036427,-0.00083128,0,
6,1.44712,0.826135,-0.0360085,-0.00084973,0,
6,1.42698,0.821908,-0.0355948,-0.000868745,0,
6,1.40725,0.817747,-0.0351832,-0.000889003,0,
6,1.38788,0.813707,-0.0347746,-0.0009108,0,
6,1.36886,0.809824,-0.0343668,-0.000932989,0,
6,1.35015,0.806044,-0.0339737,-0.000941422,0,
6,1.33173,0.802287,-0.033591,-0.00094939,0,
6,1.31357,0.798516,-0.0332067,-0.000961328,0,
6,1.29566,0.794713,-0.0328279,-0.000975487,0,
6,1.27797,0.790856,-0.0324511,-0.000992981,0,
6,1.26048,0.786919,-0.0320775,-0.00101512,0,
6,1.24318,0.782869,-0.0317064,-0.00104353,0,
6,1.22605,0.778667,-0.0313378,-0.00108011,0,
6,1.20907,0.774268,-0.0309716,-0.001127,0,
6,1.19223,0.76962,-0.0306077,-0.0011865,0,
6,1.17551,0.764665,-0.0302461,-0.001261,0,
6,1.1589,0.759344,-0.0298868,-0.00135274,0,
6,1.14238,0.753596,-0.0295299,-0.00146359,0,
6,1.12595,0.74737,-0.0291754,-0.00159479,0,
6,1.10959,0.740624,-0.0288238,-0.00174667,0,
6,1.09329,0.733332,-0.0284753,-0.00191855,0,
6,1.07704,0.725488,-0.0281301,-0.00210859,0,
6,1.06081,0.717101,-0.0277883,-0.00231397,0,
6,1.04459,0.708195,-0.02745,-0.00253112,0,
6,1.02836,0.698813,-0.0271154,-0.00275594,0,
6,1.01211,0.689005,-0.0267851,-0.00298405,0,
6,0.99583,0.67883,-0.0264583,-0.00321134,0,
6,0.97951,0.668342,-0.0261373,-0.00344258,0,
6,0.963136,0.657542,-0.0258145,-0.00366267,0,
6,0.946694,0.646361,-0.0254874,-0.00387838,0,
6,0.930172,0.634722,-0.0251639,-0.00410114,0,
6,0.913555,0.622565,-0.0248442,-0.00433307,0,
6,0.896829,0.609838,-0.02453,-0.00457572,0,
6,0.879979,0.596496,-0.0242218,-0.00483027,0,
6,0.862989,0.582507,-0.0239198,-0.00509755,0,
6,0.845842,0.567862,-0.0236246,-0.00537816,0,
6,0.828521,0.552574,-0.0233371,-0.00567265,0,
6,0.811008,0.536679,-0.0230593,-0.00597943,0,
6,0.793282,0.520206,-0.0227928,-0.00629238,0,
6,0.775322,0.503179,-0.022539,-0.00660885,0,
6,0.757107,0.485622,-0.0222994,-0.00692581,0,
6,0.738612,0.467568,-0.0220758,-0.00723971,0,
6,0.719813,0.449063,-0.0218694,-0.00754644,0,
6,0.700681,0.430168,-0.0216808,-0.00784141,0,
6,0.681188,0.410946,-0.0215083,-0.0081196,0,
6,0.661304,0.391452,-0.0213481,-0.00837566,0,
6,0.640996,0.371732,-0.0211953,-0.00860382,0,
6,0.620228,0.351825,-0.0210493,-0.00879781,0,
6,0.598964,0.331811,-0.0209217,-0.00895107,0,
6,0.577166,0.311876,-0.0208439,-0.00905825,0,
6,0.554791,0.292362,-0.020872,-0.00911707,0,
6,0.531799,0.273723,-0.0210464,-0.00912964,0,
6,0.508144,0.256314,-0.0213901,-0.00910343,0,
6,0.48378,0.240061,-0.0214942,-0.0089709,0,
6,0.459585,0.224978,-0.0212927,-0.00858628,0,
6,0.436695,0.211295,-0.0211135,-0.00828791,0,
6,0.414961,0.198802,-0.0209403,-0.00798048,0,
6,0.394252,0.187319,-0.0207483,-0.00766592,0,
6,0.374445,0.176701,-0.0205563,-0.00735062,0,
6,0.355433,0.166835,-0.0203627,-0.0070363,0,
6,0.337122,0.157631,-0.0201667,-0.00672204,0,
6,0.319433,0.149011,-0.0199666,-0.00640844,0,
6,0.3023,0.140911,-0.0197613,-0.00609607,0,
6,0.28567,0.133276,-0.0195496,-0.00578542,0,
6,0.269507,0.126063,-0.0193308,-0.00547706,0,
6,0.253785,0.119238,-0.0191041,-0.00517163,0,
6,0.238493,0.112773,-0.0188693,-0.00486989,0,
6,0.223631,0.106644,-0.0186263,-0.00457268,0,
6,0.209207,0.100836,-0.0183756,-0.00428099,0,
6,0.195237,0.0953327,-0.0181178,-0.00399586,0,
6,0.181744,0.0901242,-0.0178541,-0.00371837,0,
6,0.168754,0.0851998,-0.017586,-0.00344961,0,
6,0.156292,0.0805504,-0.0173155,-0.00319063,0,
6,0.144384,0.0761671,-0.0170446,-0.00294237,0,
6,0.133052,0.0720407,-0.0167755,-0.00270566,0,
6,0.122315,0.0681618,-0.0165107,-0.00248116,0,
6,0.112183,0.0645202,-0.0162524,-0.00226935,0,
6,0.102665,0.0611053,-0.0160028,-0.00207052,0,
6,0.0937597,0.0579061,-0.0157636,-0.00188478,0,
6,0.0854609,0.054911,-0.0155366,-0.00171207,0,
6,0.077757,0.0521081,-0.0153229,-0.00155214,0,
6,0.0706309,0.0494855,-0.0151234,-0.00140465,0,
6,0.0640611,0.0470313,-0.0149387,-0.00126911,0,
6,0.0580229,0.0447334,-0.0147688,-0.00114495,0,
6,0.0524888,0.0425801,-0.0146137,-0.00103155,0,
6,0.0474296,0.0405599,-0.0144731,-0.00092824,0,
6,0.042815,0.0386617,-0.0143464,-0.000834327,0,
6,0.0386145,0.0368744,-0.0142328,-0.000749117,0,
6,0.0347975,0.0351875,-0.0141315,-0.000671921,0,
6,0.0313344,0.0335905,-0.0140417,-0.000602067,0,
6,0.0281964,0.0320734,-0.0139625,-0.000538909,0,
6,0.0253561,0.0306262,-0.0138929,-0.00048183,0,
6,0.0227875,0.0292388,-0.0138321,-0.000430241,0,
6,0.0204662,0.0279011,-0.0137792,-0.000383587,0,
6,0.0183694,0.0266027,-0.0137336,-0.000341341,0,
6,0.016476,0.0253327,-0.0136941,-0.000302998,0,
6,0.0147664,0.024079,-0.0136607,-0.000268072,0,
6,0.0132228,0.0228283,-0.013632,-0.000236085,0,
6,0.0118288,0.0215656,-0.0136084,-0.000206551,0,
6,0.0105693,0.0202734,-0.0135882,-0.000178965,0,
6,0.00943073,0.018931,-0.0135727,-0.000152793,0,
6,0.00840063,0.0175154,-0.0135592,-0.000127492,0,
6,0.00746774,0.0160028,-0.0135501,-0.000102623,0,
6,0.00662185,0.0143756,-0.013542,-7.81477e-05,0,
6,0.00585371,0.0126358,-0.0135379,-5.48784e-05,0,
6,0.00515491,0.0108229,-0.0135335,-3.46285e-05,0,
6,0.00451788,0.00901975,-0.0135326,-1.93122e-05,0,
6,0.00393573,0.00732694,-0.0135301,-9.50821e-06,0,
6,0.00340221,0.00582113,-0.0135308,-4.17239e-06,0,
6,0.00291168,0.00453422,-0.0135287,-1.6463e-06,0,
6,0.00245897,0.00346206,-0.01353,-5.82988e-07,0,
6,0.00203939,0.00258237,-0.0135277,-1.81933e-07,0,
6,0.00164864,0.00186792,-0.0135296,-4.80729e-08,0,
6,0.00128281,0.00129282,-0.0135269,-9.99317e-09,0,
6,0.000938257,0.000834872,-0.0135294,-1.42535e-09,0,
6,0.000611645,0.000475904,-0.0135259,-1.05429e-10,0,
6,0.000299862,0.00020149,-0.0135294,-2.1042e-12,0,

10,0.000296632,0.00862667,0.0290651,-5.19808e-11,0,
10,0.000596102,0.0173325,0.0290658,-1.92634e-09,0,
10,0.000900397,0.0261751,0.0290651,-1.95838e-08,0,
10,0.00121153,0.0352125,0.0290656,-1.05223e-07,0,
10,0.00153158,0.0445027,0.0290651,-3.93482e-07,0,
10,0.00186264,0.0541024,0.0290655,-1.16931e-06,0,
10,0.00220692,0.0640646,0.029065,-2.96553e-06,0,
10,0.00256668,0.0744329,0.0290653,-6.68686e-06,0,
10,0.00294431,0.0852341,0.0290649,-1.37305e-05,0,
10,0.00334229,0.0964655,0.0290651,-2.60227e-05,0,
10,0.00376326,0.108081,0.0290647,-4.58325e-05,0,
10,0.00421,0.119978,0.0290649,-7.52361e-05,0,
10,0.00468544,0.131996,0.0290645,-0.000115288,0,
10,0.00519274,0.143932,0.0290644,-0.000165293,0,
10,0.00573524,0.155568,0.0290639,-0.000222708,0,
10,0.00631651,0.16671,0.0290636,-0.000283855,0,
10,0.00694041,0.177213,0.0290628,-0.000345004,0,
10,0.00761104,0.186989,0.0290621,-0.000403203,0,
10,0.00833284,0.196002,0.0290608,-0.000456598,0,
10,0.00911058,0.204262,0.0290595,-0.000504347,0,
10,0.0099494,0.211803,0.0290575,-0.000546357,0,
10,0.0108548,0.218679,0.0290552,-0.00058301,0,
10,0.0118329,0.224953,0.0290523,-0.00061495,0,
10,0.0128901,0.230689,0.0290488,-0.000642932,0,
10,0.0140333,0.23595,0.0290445,-0.000667723,0,
10,0.0152702,0.240796,0.0290395,-0.00069005,0,
10,0.0166089,0.24528,0.0290335,-0.000710577,0,
10,0.0180584,0.24945,0.0290265,-0.000729889,0,
10,0.0196282,0.25335,0.0290183,-0.000748503,0,
10,0.0213288,0.257017,0.0290089,-0.000766873,0,
10,0.0231714,0.260483,0.0289981,-0.0007854,0,
10,0.0251682,0.263779,0.0289857,-0.000804444,0,
10,0.0273326,0.26693,0.0289716,-0.000824336,0,
10,0.0296789,0.269958,0.0289556,-0.000845382,0,
10,0.0322227,0.272884,0.0289375,-0.000867877,0,
10,0.0349809,0.275727,0.0289172,-0.000892107,0,
10,0.0379719,0.278503,0.0288943,-0.00091836,0,
10,0.0412155,0.281228,0.0288688,-0.000946924,0,
10,0.0447333,0.283917,0.0288403,-0.000978099,0,
10,0.0485489,0.286583,0.0288086,-0.0010122,0,
10,0.0526875,0.28924,0.0287735,-0.00104954,0,
10,0.0571768,0.2919,0.0287345,-0.00109048,0,
10,0.0620466,0.294578,0.0286916,-0.00113538,0,
10,0.0673295,0.297286,0.0286444,-0.00118464,0,
10,0.0730607,0.300038,0.0285925,-0.00123867,0,
10,0.0792784,0.302847,0.0285358,-0.00129793,0,
10,0.0860241,0.30573,0.0284739,-0.0013629,0,
10,0.0933428,0.308703,0.0284066,-0.0014341,0,
10,0.101283,0.311781,0.0283337,-0.00151206,0,
10,0.109899,0.314985,0.0282548,-0.00159739,0,
10,0.119247,0.318335,0.0281699,-0.00169069,0,
10,0.12939,0.321855,0.0280789,-0.00179262,0,
10,0.140395,0.325571,0.0279816,-0.00190384,0,
10,0.152337,0.329511,0.027878,-0.00202506,0,
10,0.165296,0.33371,0.0277682,-0.00215696,0,
10,0.179357,0.338204,0.0276524,-0.00230025,0,
10,0.194615,0.343039,0.0275306,-0.00245558,0,
10,0.211171,0.348263,0.0274032,-0.00262354,0,
10,0.229138,0.353934,0.0272703,-0.00280462,0,
10,0.248635,0.360118,0.0271327,-0.00299913,0,
10,0.269793,0.366892,0.0269895,-0.00320714,0,
10,0.292753,0.374345,0.0268431,-0.00342836,0,
10,0.317669,0.382579,0.0266895,-0.00366074,0,
10,0.344708,0.391704,0.0265342,-0.00390135,0,
10,0.372405,0.401286,0.0263828,-0.00413895,0,
10,0.399623,0.410949,0.0262378,-0.00436222,0,
10,0.426397,0.420697,0.0260999,-0.00456835,0,
10,0.452757,0.430537,0.0259677,-0.00475848,0,
10,0.478735,0.440477,0.0258437,-0.00493046,0,
10,0.504358,0.450539,0.0257278,-0.00508345,0,
10,0.529657,0.460747,0.025622,-0.00521523,0,
10,0.554656,0.471125,0.0255203,-0.0053263,0,
10,0.579382,0.481692,0.0254289,-0.00541609,0,
10,0.603859,0.492459,0.0253254,-0.00549507,0,
10,0.628112,0.503481,0.0252565,-0.00559694,0,
10,0.652163,0.515081,0.025274,-0.00553707,0,
10,0.676035,0.527637,0.025299,-0.00544917,0,
10,0.699751,0.541161,0.0252808,-0.00533155,0,
10,0.72333,0.555424,0.0252206,-0.00518267,0,
10,0.746795,0.57011,0.0251248,-0.00500414,0,
10,0.770165,0.58494,0.0250061,-0.00479986,0,
10,0.79346,0.599714,0.0248719,-0.00457477,0,
10,0.816699,0.614309,0.0247271,-0.00433386,0,
10,0.839903,0.628635,0.0245723,-0.00408198,0,
10,0.863088,0.642603,0.0244069,-0.00382418,0,
10,0.886275,0.6561,0.0242286,-0.00357311,0,
10,0.909481,0.669011,0.0240383,-0.00333088,0,
10,0.932723,0.681279,0.0238394,-0.00309771,0,
10,0.956021,0.692907,0.0236339,-0.0028741,0,
10,0.97939,0.703927,0.0234224,-0.00266062,0,
10,1.00285,0.714379,0.023205,-0.00245782,0,
10,1.02641,0.724295,0.0229812,-0.00226618,0,
10,1.0501,0.733698,0.0227507,-0.00208609,0,
10,1.07392,0.742609,0.0225136,-0.00191788,0,
10,1.0979,0.75105,0.0222704,-0.00176152,0,
10,1.12205,0.759054,0.0220224,-0.00161226,0,
10,1.14639,0.766635,0.0217671,-0.00147719,0,
10,1.17093,0.773789,0.021503,-0.00135568,0,
10,1.19568,0.780524,0.0212315,-0.00124839,0,
10,1.22066,0.786865,0.0209517,-0.00115563,0,
10,1.24589,0.79285,0.0206655,-0.00107693,0,
10,1.27137,0.798528,0.020371,-0.00101123,0,
10,1.29713,0.803952,0.0200719,-0.000960264,0,
10,1.32317,0.809213,0.0197665,-0.000914612,0,
10,1.34951,0.814446,0.0194554,-0.000867449,0,
10,1.37616,0.81973,0.0191406,-0.000824019,0,
10,1.40313,0.825046,0.0188181,-0.000784302,0,
10,1.43043,0.830324,0.0184881,-0.000748027,0,
10,1.45807,0.835516,0.0181498,-0.000714553,0,
10,1.48607,0.840612,0.0178044,-0.000683102,0,
10,1.51444,0.845632,0.0174519,-0.000653055,0,
10,1.54318,0.850595,0.0170926,-0.000624074,0,
10,1.57231,0.8555,0.016726,-0.000596042,0,
10,1.60184,0.860331,0.0163521,-0.000568939,0,
10,1.63178,0.865062,0.0159705,-0.000542764,0,
10,1.66213,0.869666,0.015582,-0.000517515,0,
10,1.69292,0.874124,0.0151854,-0.000493124,0,
10,1.72416,0.878433,0.0147828,-0.000469353,0,
10,1.75585,0.882623,0.014371,-0.000443092,0,
10,1.78802,0.886745,0.0139507,-0.000414622,0,
10,1.82067,0.890818,0.013524,-0.000386806,0,
10,1.85383,0.894826,0.0130888,-0.000357963,0,
10,1.88751,0.898747,0.0126456,-0.000328217,0,
10,1.92173,0.902556,0.0121942,-0.000297917,0,
10,1.95652,0.906228,0.0117341,-0.000267482,0,
10,1.9919,0.90974,0.0112661,-0.000237385,0,
10,2.02791,0.913068,0.0107886,-0.00020817,0,
10,2.06456,0.916192,0.0103037,-0.000180074,0,
10,2.10268,0.91915,0.00979735,-0.000152694,0,
10,2.1443,0.922029,0.00924714,-0.00012641,0,
10,2.18977,0.924778,0.00864619,-0.000101365,0,
10,2.23946,0.927315,0.00799279,-7.78688e-05,0,
10,2.29376,0.929556,0.00728159,-5.67343e-05,0,
10,2.35309,0.931421,0.00651035,-3.86385e-05,0,
10,2.4179,0.93284,0.00567512,-2.40784e-05,0,
10,2.48863,0.933772,0.00477417,-1.33076e-05,0,
10,2.56575,0.934214,0.00380527,-6.22988e-06,0,
10,2.64971,0.934224,0.00276798,-2.34036e-06,0,
10,2.74098,0.933923,0.00166201,-7.7429e-07,0,
10,2.83997,0.933487,0.000488511,-5.01186e-07,0,
10,2.94709,0.933121,-0.000751007,-6.29208e-07,0,
10,3.06269,0.933006,-0.00205386,-6.58856e-07,0,
10,3.18706,0.933249,-0.00341664,-5.04878e-07,0,
10,3.3204,0.933853,-0.00483445,-2.93127e-07,0,
10,3.46281,0.934723,-0.00630084,-1.36995e-07,0,
10,3.61427,0.935715,-0.00780728,-5.91092e-08,0,
10,3.77463,0.936695,-0.00934336,-3.05488e-08,0,
10,3.94358,0.937582,-0.010897,-2.18405e-08,0,
10,4.12067,0.938364,-0.0124551,-1.88807e-08,0,
10,4.30525,0.939073,-0.0140041,-1.75597e-08,0,
10,4.49655,0.939754,-0.0155304,-1.70969e-08,0,
10,4.6936,0.940433,-0.0170211,-1.74728e-08,0,
10,4.89531,0.941113,-0.0184642,-1.91801e-08,0,
10,5.10047,0.941779,-0.0198487,-2.3671e-08,0,
10,5.30776,0.942411,-0.0211654,-3.41834e-08,0,
10,5.51581,0.942993,-0.0224068,-5.74238e-08,0,
10,5.72323,0.943521,-0.0235675,-1.0784e-07,0,
10,5.92863,0.944019,-0.0246438,-2.20884e-07,0,
10,6.13069,0.944556,-0.0256342,-4.90006e-07,0,
10,6.32816,0.945225,-0.0265388,-1.11025e-06,0,
10,6.51991,0.946058,-0.0273598,-2.15851e-06,0,
10,6.70495,0.946821,-0.0281005,-2.30445e-06,0,
10,6.88244,0.946795,-0.0287641,3.85152e-06,0,
10,7.0517,0.944751,-0.0293547,2.72408e-05,0,
10,7.21224,0.939303,-0.0298724,8.11427e-05,0,
10,7.3637,0.929572,-0.0303229,0.00017469,0,
10,7.5059,0.915609,-0.0307103,0.000298022,0,
10,7.63878,0.898005,-0.0310381,0.000405786,0,
10,7.76243,0.87787,-0.0313165,0.000524862,0,
10,7.87701,0.856972,-0.0315399,0.000646429,0,
10,7.9828,0.836763,-0.0317248,0.000756657,0,
10,8.08014,0.817949,-0.0318732,0.000850599,0,
10,8.16941,0.800611,-0.0319961,0.000928781,0,
10,8.25106,0.784501,-0.0320974,0.000994365,0,
10,8.32554,0.769294,-0.0321834,0.00105057,0,
10,8.39331,0.754709,-0.0322563,0.00109963,0,
10,8.45484,0.74055,-0.0323189,0.00114282,0,
10,8.5106,0.726697,-0.0323721,0.00118071,0,
10,8.56104,0.713091,-0.0324179,0.00121353,0,
10,8.60659,0.699716,-0.032457,0.00124137,0,
10,8.64767,0.686581,-0.032491,0.00126434,0,
10,8.68467,0.673691,-0.0325202,0.00128221,0,
10,8.71795,0.66102,-0.0325455,0.00129177,0,
10,8.74786,0.648538,-0.0325676,0.00129783,0,
10,8.77471,0.636242,-0.0325864,0.00129961,0,
10,8.79881,0.624128,-0.0326027,0.00129756,0,
10,8.8204,0.612187,-0.0326166,0.00129222,0,
10,8.83975,0.60041,-0.0326285,0.00128408,0,
10,8.85708,0.588781,-0.0326387,0.00127366,0,
10,8.87259,0.577282,-0.0326475,0.0012614,0,
10,8.88646,0.565892,-0.032655,0.0012477,0,
10,8.89886,0.554586,-0.0326613,0.0012329,0,
10,8.90995,0.543336,-0.0326665,0.0012173,0,
10,8.91986,0.532111,-0.0326709,0.00120111,0,
10,8.92872,0.520878,-0.0326747,0.00118447,0,
10,8.93663,0.509601,-0.0326777,0.0011675,0,
10,8.94369,0.498242,-0.0326803,0.0011502,0,
10,8.95,0.486758,-0.0326824,0.00113252,0,
10,8.95564,0.475103,-0.0326842,0.00111441,0,
10,8.96067,0.463228,-0.0326855,0.00109568,0,
10,8.96517,0.45108,-0.0326868,0.00107608,0,
10,8.96918,0.438595,-0.0326877,0.00105528,0,
10,8.97276,0.425705,-0.0326886,0.00103284,0,
10,8.97596,0.41233,-0.0326891,0.00100821,0,
10,8.97882,0.398377,-0.0326898,0.000980649,0,
10,8.98137,0.383739,-0.0326901,0.000949232,0,
10,8.98365,0.368289,-0.0326906,0.000912744,0,
10,8.98569,0.351877,-0.0326907,0.000869819,0,
10,8.9875,0.33432,-0.0326912,0.000818023,0,
10,8.98913,0.315382,-0.0326911,0.000752688,0,
10,8.99058,0.294837,-0.0326915,0.000675475,0,
10,8.99188,0.272524,-0.0326913,0.000584076,0,
10,8.99304,0.248285,-0.0326918,0.000471545,0,
10,8.99408,0.222078,-0.0326914,0.000345644,0,
10,8.99501,0.194276,-0.032692,0.000220057,0,
10,8.99583,0.165782,-0.0326915,0.000116571,0,
10,8.99658,0.137862,-0.0326921,5.00334e-05,0,
10,8.99724,0.111624,-0.0326915,1.72615e-05,0,
10,8.99784,0.0876553,-0.0326921,4.74115e-06,0,
10,8.99837,0.0660628,-0.0326914,9.94239e-07,0,
10,8.99885,0.0467122,-0.0326923,1.42427e-07,0,
10,8.99927,0.0293926,-0.0326914,1.08132e-08,0,
10,8.99966,0.0138897,-0.0326924,2.3925e-10,0,
10,0,0,0.0290659,0,0,
10,9,0,-0.0326913,0,0,

0.004,0,0,-0.228084,0,-7.96018e-08,
0.00868226,0,0,-0.228081,0,-2.01492e-07,
0.014062,0,0,-0.228083,0,-3.51108e-07,
0.0201548,0,0,-0.228082,0,-7.97064e-07,
0.0269766,0,0,-0.228082,0,-1.30625e-06,
0.0345437,0,0,-0.228081,0,-1.90258e-06,
0.0428729,0,0,-0.22808,0,-2.38763e-06,
0.051981,0,0,-0.228078,0,-2.64858e-06,
0.0618853,0,0,-0.228075,0,-2.47455e-06,
0.0726036,0,0,-0.228072,0,-1.68416e-06,
0.0841536,0,0,-0.228068,0,-9.08559e-08,
0.0965535,0,0,-0.228065,0,2.42891e-06,
0.109822,0,0,-0.228063,0,5.90506e-06,
0.123977,0,0,-0.228064,0,1.02524e-05,
0.139037,0,0,-0.228068,0,1.52556e-05,
0.155022,0,0,-0.228077,0,2.0611e-05,
0.171949,0,0,-0.22809,0,2.59541e-05,
0.189839,0,0,-0.228109,0,3.0931e-05,
0.208709,0,0,-0.228133,0,3.52295e-05,
0.228579,0,0,-0.22816,0,3.8628e-05,
0.249467,0,0,-0.228189,0,4.09995e-05,
0.271391,0,0,-0.22822,0,4.23256e-05,
0.29437,0,0,-0.22825,0,4.26783e-05,
0.31842,0,0,-0.228279,0,4.22105e-05,
0.343559,0,0,-0.228306,0,4.1129e-05,
0.369804,0,0,-0.22833,0,3.96809e-05,
0.39717,0,0,-0.228353,0,3.81345e-05,
0.425672,0,0,-0.228374,0,3.67745e-05,
0.455324,0,0,-0.228394,0,3.58992e-05,
0.48614,0,0,-0.228415,0,3.57797e-05,
0.518132,0,0,-0.228438,0,3.66148e-05,
0.551309,0,0,-0.228467,0,3.85024e-05,
0.585683,0,0,-0.228506,0,4.14261e-05,
0.621259,0,0,-0.228556,0,4.52699e-05,
0.658046,0,0,-0.228622,0,4.98535e-05,
0.696047,0,0,-0.228708,0,5.49727e-05,
0.735265,0,0,-0.228819,0,6.04246e-05,
0.7757,0,0,-0.228958,0,6.59664e-05,
0.817352,0,0,-0.229137,0,7.11783e-05,
0.860215,0,0,-0.229365,0,7.536e-05,
0.904285,0,0,-0.229657,0,7.74674e-05,
0.949552,0,0,-0.230034,0,7.60142e-05,
0.996004,0,0,-0.230515,0,6.91296e-05,
1.04363,0,0,-0.23112,0,5.48492e-05,
1.09241,0,0,-0.231859,0,3.15364e-05,
1.14232,0,0,-0.232733,0,-1.64978e-06,
1.19335,0,0,-0.233727,0,-4.44279e-05,
1.24546,0,0,-0.234817,0,-9.54253e-05,
1.29863,0,0,-0.235972,0,-0.000152587,
1.35283,0,0,-0.237161,0,-0.00021376,
1.40802,0,0,-0.238354,0,-0.000277174,
1.46416,0,0,-0.239527,0,-0.000341647,
1.52121,0,0,-0.240657,0,-0.000406543,
1.57913,0,0,-0.241726,0,-0.000471586,
1.63787,0,0,-0.242716,0,-0.000536675,
1.69739,0,0,-0.243612,0,-0.000601757,
1.75761,0,0,-0.244398,0,-0.000666768,
1.81851,0,0,-0.245057,0,-0.00073161,
1.88,0,0,-0.245576,0,-0.000796155,
1.94204,0,0,-0.24594,0,-0.000860251,
2.00457,0,0,-0.246135,0,-0.000923726,
2.06751,0,0,-0.246146,0,-0.000986391,
2.13081,0,0,-0.245962,0,-0.00104804,
2.19439,0,0,-0.245571,0,-0.00110847,
2.25819,0,0,-0.244963,0,-0.00116743,
2.32214,0,0,-0.244127,0,-0.00122469,
2.38617,0,0,-0.243058,0,-0.00127999,
2.4502,0,0,-0.241749,0,-0.00133306,
2.51418,0,0,-0.240197,0,-0.00138365,
2.57803,0,0,-0.238401,0,-0.00143149,
2.64167,0,0,-0.236361,0,-0.00147631,
2.70505,0,0,-0.234081,0,-0.00151785,
2.76808,0,0,-0.231568,0,-0.00155588,
2.83072,0,0,-0.228831,0,-0.00159019,
2.89288,0,0,-0.225883,0,-0.00162064,
2.95451,0,0,-0.222738,0,-0.00164714,
3.01555,0,0,-0.219412,0,-0.00166967,
3.07594,0,0,-0.215924,0,-0.00168824,
3.13561,0,0,-0.212294,0,-0.00170295,
3.19453,0,0,-0.208541,0,-0.0017139,
3.25262,0,0,-0.204686,0,-0.00172127,
3.30985,0,0,-0.200749,0,-0.00172523,
3.36617,0,0,-0.19675,0,-0.00172599,
3.42154,0,0,-0.192707,0,-0.00172373,
3.47591,0,0,-0.18864,0,-0.00171869,
3.52925,0,0,-0.184566,0,-0.00171108,
3.58152,0,0,-0.1805,0,-0.00170114,
3.6327,0,0,-0.176459,0,-0.00168912,
3.68276,0,0,-0.172456,0,-0.00167523,
3.73167,0,0,-0.168503,0,-0.00165972,
3.77941,0,0,-0.164612,0,-0.00164279,
3.82596,0,0,-0.160792,0,-0.00162467,
3.8713,0,0,-0.15705,0,-0.00160555,
3.91543,0,0,-0.153392,0,-0.00158549,
3.95833,0,0,-0.149843,0,-0.00156499,
4,0,0,-0.146369,0,-0.00154388,
4.04167,0,0,-0.142903,0,-0.00152169,
4.08333,0,0,-0.139438,0,-0.00149859,
4.125,0,0,-0.135978,0,-0.00147459,
4.16667,0,0,-0.132524,0,-0.00144968,
4.20833,0,0,-0.129081,0,-0.00142392,
4.25,0,0,-0.12565,0,-0.00139735,
4.29167,0,0,-0.122234,0,-0.00137,
4.33333,0,0,-0.118836,0,-0.00134192,
4.375,0,0,-0.115457,0,-0.00131314,
4.41667,0,0,-0.112101,0,-0.00128371,
4.45833,0,0,-0.108768,0,-0.00125365,
4.5,0,0,-0.105462,0,-0.00122299,
4.54167,0,0,-0.102183,0,-0.00119178,
4.58333,0,0,-0.0989342,0,-0.00116005,
4.625,0,0,-0.0957167,0,-0.00112783,
4.66667,0,0,-0.0925321,0,-0.00109516,
4.70833,0,0,-0.0893819,0,-0.00106206,
4.75,0,0,-0.0862674,0,-0.00102856,
4.79167,0,0,-0.08319,0,-0.000994692,
4.83333,0,0,-0.0801507,0,-0.000960483,
4.875,0,0,-0.0771508,0,-0.000925954,
4.91667,0,0,-0.0741912,0,-0.000891129,
4.95833,0,0,-0.071273,0,-0.000856031,
5,0,0,-0.068397,0,-0.000820684,
5.04167,0,0,-0.0655643,0,-0.000785112,
5.08333,0,0,-0.0627756,0,-0.000749343,
5.125,0,0,-0.0600315,0,-0.000713401,
5.16667,0,0,-0.0573329,0,-0.000677312,
5.20833,0,0,-0.0546802,0,-0.000641102,
5.25,0,0,-0.0520739,0,-0.000604794,
5.29167,0,0,-0.0495146,0,-0.000568411,
5.33333,0,0,-0.0470025,0,-0.000531973,
5.375,0,0,-0.044538,0,-0.000495496,
5.41667,0,0,-0.0421214,0,-0.000458997,
5.45833,0,0,-0.0397531,0,-0.000422489,
5.5,0,0,-0.0374334,0,-0.000385985,
5.54167,0,0,-0.0351627,0,-0.0003495,
5.58333,0,0,-0.0329414,0,-0.000313047,
5.625,0,0,-0.0307701,0,-0.000276649,
5.66667,0,0,-0.0286494,0,-0.000240338,
5.70833,0,0,-0.02658,0,-0.000204168,
5.75,0,0,-0.0245625,0,-0.000168218,
5.79167,0,0,-0.0225971,0,-0.000132572,
5.83333,0,0,-0.0206832,0,-9.72973e-05,
5.875,0,0,-0.01882,0,-6.24228e-05,
5.91667,0,0,-0.0170065,0,-2.79504e-05,
5.95833,0,0,-0.0152418,0,6.12827e-06,
6,0,0,-0.0135251,0,3.98205e-05,
6.04167,0,0,-0.0118554,0,7.31292e-05,
6.08333,0,0,-0.0102321,0,0.000106055,
6.125,0,0,-0.00865424,0,0.000138596,
6.16667,0,0,-0.00712108,0,0.000170752,
6.20833,0,0,-0.00563182,0,0.000202522,
6.25,0,0,-0.00418566,0,0.000233904,
6.29167,0,0,-0.00278184,0,0.000264898,
6.33333,0,0,-0.00141956,0,0.000295503,
6.375,0,0,-9.8043e-05,0,0.000325718,
6.41667,0,0,0.00118348,0,0.000355544,
6.45833,0,0,0.00242579,0,0.000384979,
6.5,0,0,0.00362964,0,0.000414025,
6.54167,0,0,0.00479581,0,0.000442682,
6.58333,0,0,0.00592503,0,0.00047095,
6.625,0,0,0.00701806,0,0.000498831,
6.66667,0,0,0.00807564,0,0.000526324,
6.70833,0,0,0.00909852,0,0.00055343,
6.75,0,0,0.0100874,0,0.000580151,
6.79167,0,0,0.0110431,0,0.000606489,
6.83333,0,0,0.0119662,0,0.000632443,
6.875,0,0,0.0128575,0,0.000658015,
6.91667,0,0,0.0137177,0,0.000683207,
6.95833,0,0,0.0145475,0,0.00070802,
7,0,0,0.0153477,0,0.000732456,
7.04167,0,0,0.0161187,0,0.000756516,
7.08333,0,0,0.0168615,0,0.000780204,
7.125,0,0,0.0175766,0,0.000803521,
7.16667,0,0,0.0182646,0,0.00082647,
7.20833,0,0,0.0189264,0,0.000849054,
7.25,0,0,0.0195624,0,0.000871278,
7.29167,0,0,0.0201733,0,0.000893145,
7.33333,0,0,0.0207597,0,0.00091466,
7.375,0,0,0.0213223,0,0.000935835,
7.41667,0,0,0.0218618,0,0.000956681,
7.45833,0,0,0.0223787,0,0.000977206,
7.5,0,0,0.0228736,0,0.000997417,
7.54167,0,0,0.0233469,0,0.00101731,
7.58333,0,0,0.0237992,0,0.0010369,
7.625,0,0,0.0242309,0,0.00105617,
7.66667,0,0,0.0246426,0,0.00107513,
7.70833,0,0,0.0250346,0,0.00109378,
7.75,0,0,0.0254074,0,0.00111214,
7.79167,0,0,0.0257614,0,0.00113019,
7.83333,0,0,0.0260964,0,0.00114794,
7.875,0,0,0.0264124,0,0.00116544,
7.91667,0,0,0.0267205,0,0.00118328,
7.95833,0,0,0.02695,0,0.00119993,
8,0,0,0.0272684,0,0.00121662,
8.04171,0,0,0.0276083,0,0.00123432,
8.08368,0,0,0.0278132,0,0.0012518,
8.12617,0,0,0.02806,0,0.00126749,
8.16946,0,0,0.0282918,0,0.00128325,
8.21382,0,0,0.0285069,0,0.00129901,
8.25952,0,0,0.0287135,0,0.00131479,
8.30685,0,0,0.0289107,0,0.00133075,
8.35611,0,0,0.0290987,0,0.001347,
8.40762,0,0,0.0292774,0,0.00136361,
8.46168,0,0,0.0294463,0,0.00138063,
8.51865,0,0,0.0296044,0,0.00139813,
8.57889,0,0,0.0297505,0,0.00141614,
8.64276,0,0,0.0298831,0,0.00143471,
8.71067,0,0,0.03,0,0.00145386,
8.78306,0,0,0.030099,0,0.00147362,
8.86037,0,0,0.0301773,0,0.00149399,
8.94309,0,0,0.0302319,0,0.00151499,
9.03174,0,0,0.0302593,0,0.00153662,
9.12689,0,0,0.0302557,0,0.00155886,
9.22912,0,0,0.030217,0,0.00158168,
9.33908,0,0,0.0301391,0,0.00160506,
9.45746,0,0,0.0300174,0,0.00162896,
9.58501,0,0,0.0298472,0,0.00165332,
9.72253,0,0,0.0296238,0,0.00167808,
9.87088,0,0,0.0293426,0,0.00170316,
10.031,0,0,0.0289995,0,0.00172849,
10.2039,0,0,0.028591,0,0.00175396,
10.3906,0,0,0.0281135,0,0.00177948,
10.5924,0,0,0.0275644,0,0.00180491,
10.8105,0,0,0.0269435,0,0.00183016,
11.0463,0,0,0.026251,0,0.00185511,
11.3012,0,0,0.0254873,0,0.00187965,
11.5769,0,0,0.0246568,0,0.00190367,
11.8751,0,0,0.0237641,0,0.00192709,
12.1977,0,0,0.0228155,0,0.00194981,
12.5466,0,0,0.0218202,0,0.00197178,
12.9242,0,0,0.0207878,0,0.00199293,
13.3327,0,0,0.0197299,0,0.00201323,
13.7748,0,0,0.0186594,0,0.00203266,
14.2532,0,0,0.0175891,0,0.00205122,
14.7709,0,0,0.0165333,0,0.00206892,
15.3312,0,0,0.0155044,0,0.00208579,
15.9377,0,0,0.0145153,0,0.00210188,
16.594,0,0,0.0135769,0,0.00211725,
17.3044,0,0,0.0126971,0,0.00213197,
18.0733,0,0,0.0118825,0,0.00214607,
18.9056,0,0,0.0111362,0,0.00215947,
19.8064,0,0,0.0104586,0,0.00217208,
20.7816,0,0,0.0098465,0,0.00218409,
21.8371,0,0,0.00929311,0,0.00219582,
22.9796,0,0,0.00878935,0,0.00220744,
24.2163,0,0,0.00832235,0,0.00221903,
25.5551,0,0,0.00787737,0,0.00223071,
27.0042,0,0,0.00743826,0,0.00224256,
28.5729,0,0,0.00698728,0,0.0022546,
30.271,0,0,0.00650669,0,0.00226682,
32.1091,0,0,0.00597932,0,0.00227916,
34.0989,0,0,0.00539059,0,0.00229152,
36.2529,0,0,0.00472315,0,0.00230398,
38.5845,0,0,0.00396877,0,0.00231648,
41.1085,0,0,0.00316717,0,0.00232885,
43.8407,0,0,0.00215841,0,0.00233881,
46.7983,0,0,0.00111202,0,0.00234424,
50,0,0,0.00214655,0,0.00236008,

