2813b9ea896cf46f9a7a630aaa744a407f9d632c 
X,Z,x_velocity,cp,uw_b,cf,
1,0,0,-0.242035,0,0,
1,9,0,-0.127227,0,0,
1,1.01284,0.475707,-0.234377,-0.0107545,0,
1,0.000308731,0.00043912,-0.242031,-2.72003e-14,0,
1,0.000654158,0.000898632,-0.242034,-1.14833e-12,0,
1,0.00104139,0.00137385,-0.242031,-1.39901e-11,0,
1,0.00147619,0.00185681,-0.242033,-8.91599e-11,0,
1,0.00196502,0.00233519,-0.242031,-3.82972e-10,0,
1,0.00251518,0.00279094,-0.242032,-1.2411e-09,0,
1,0.0031349,0.00319798,-0.242031,-3.14161e-09,0,
1,0.00383341,0.00351967,-0.242031,-5.85061e-09,0,
1,0.00462115,0.00370476,-0.24203,-4.67169e-09,0,
1,0.00550983,0.00368291,-0.24203,2.23471e-08,0,
1,0.00651264,0.00335904,-0.242028,1.52093e-07,0,
1,0.00764438,0.00261024,-0.242028,6.13005e-07,0,
1,0.00892169,0.00129077,-0.242026,1.98696e-06,0,
1,0.0103632,-0.000740898,-0.242024,5.48675e-06,0,
1,0.0119898,-0.00356829,-0.24202,1.30102e-05,0,
1,0.0138248,-0.00716404,-0.242014,2.63048e-05,0,
1,0.0158944,-0.0113979,-0.242005,4.56492e-05,0,
1,0.0182274,-0.0161088,-0.241992,6.95922e-05,0,
1,0.0208562,-0.0211712,-0.241973,9.61118e-05,0,
1,0.0238164,-0.0265102,-0.241951,0.000123582,0,
1,0.0271475,-0.0320816,-0.241923,0.000150861,0,
1,0.0308929,-0.0378486,-0.241893,0.000177018,0,
1,0.0351001,-0.0437645,-0.241858,0.000201131,0,
1,0.0398209,-0.0497641,-0.241823,0.000222192,0,
1,0.0451115,-0.0557611,-0.241787,0.00023911,0,
1,0.0510323,-0.061649,-0.241754,0.000250774,0,
1,0.057648,-0.0673076,-0.241725,0.000256184,0,
1,0.0650269,-0.0726118,-0.241705,0.000254496,0,
1,0.0732406,-0.0774438,-0.241697,0.000245235,0,
1,0.0823632,-0.0817053,-0.241705,0.000228374,0,
1,0.0924701,-0.0853241,-0.241733,0.000204295,0,
1,0.103636,-0.0882549,-0.241786,0.000173737,0,
1,0.115935,-0.0904789,-0.241866,0.000137683,0,
1,0.129436,-0.0919985,-0.241976,9.71455e-05,0,
1,0.144202,-0.0928315,-0.242118,5.30056e-05,0,
1,0.160284,-0.093005,-0.242291,5.91775e-06,0,
1,0.177724,-0.0925497,-0.242495,-4.3713e-05,0,
1,0.196544,-0.0914968,-0.242727,-9.56494e-05,0,
1,0.21675,-0.0898758,-0.242984,-0.00014971,0,
1,0.238323,-0.0877148,-0.243263,-0.000205662,0,
1,0.26122,-0.085041,-0.243557,-0.000263153,0,
1,0.28537,-0.0818821,-0.243862,-0.000321661,0,
1,0.310673,-0.0782673,-0.244172,-0.000380468,0,
1,0.337003,-0.0742286,-0.244479,-0.00043869,0,
1,0.364206,-0.0698014,-0.244777,-0.00049533,0,
1,0.392107,-0.0650242,-0.245059,-0.000549331,0,
1,0.420509,-0.0599386,-0.245321,-0.000599633,0,
1,0.449206,-0.0545872,-0.245556,-0.000645256,0,
1,0.477982,-0.0490118,-0.245762,-0.000685421,0,
1,0.506624,-0.0432478,-0.245934,-0.000719937,0,
1,0.534925,-0.0373137,-0.246072,-0.000749739,0,
1,0.562692,-0.0311919,-0.246172,-0.00077821,0,
1,0.589754,-0.0247906,-0.246231,-0.000810295,0,
1,0.615961,-0.0179213,-0.246234,-0.000853502,0,
1,0.641193,-0.010337,-0.246163,-0.000939533,0,
1,0.665359,-0.00170694,-0.246018,-0.00107345,0,
1,0.688396,0.00841021,-0.245792,-0.00127848,0,
1,0.710271,0.0204367,-0.24549,-0.00157869,0,
1,0.730976,0.0346485,-0.245127,-0.00199278,0,
1,0.750529,0.0510392,-0.244725,-0.00252649,0,
1,0.768969,0.0692533,-0.244293,-0.00316855,0,
1,0.78635,0.0887243,-0.243853,-0.00388694,0,
1,0.802743,0.10889,-0.243413,-0.00464267,0,
1,0.818232,0.129314,-0.242979,-0.00540351,0,
1,0.832689,0.149415,-0.242551,-0.00614131,0,
1,0.846039,0.168739,-0.242139,-0.00683208,0,
1,0.858357,0.187123,-0.241743,-0.007463,0,
1,0.869723,0.204482,-0.241364,-0.00803726,0,
1,0.880212,0.220803,-0.240995,-0.00854855,0,
1,0.889898,0.236154,-0.240632,-0.00899246,0,
1,0.898852,0.250628,-0.240278,-0.00938176,0,
1,0.907141,0.264305,-0.239934,-0.00972281,0,
1,0.914826,0.277256,-0.239602,-0.0100197,0,
1,0.921966,0.289544,-0.239281,-0.0102766,0,
1,0.928616,0.301224,-0.238973,-0.0104974,0,
1,0.934823,0.31235,-0.238678,-0.0106858,0,
1,0.940633,0.322969,-0.238394,-0.0108454,0,
1,0.946088,0.33313,-0.238122,-0.010979,0,
1,0.951224,0.342873,-0.23786,-0.0110893,0,
1,0.956076,0.352241,-0.237608,-0.0111786,0,
1,0.960675,0.361271,-0.237365,-0.0112489,0,
1,0.965047,0.369999,-0.237131,-0.0113021,0,
1,0.969219,0.378459,-0.236904,-0.0113396,0,
1,0.973211,0.386682,-0.236684,-0.0113627,0,
1,0.977045,0.394696,-0.23647,-0.0113725,0,
1,0.980739,0.402531,-0.236262,-0.0113698,0,
1,0.984308,0.410209,-0.236058,-0.0113554,0,
1,0.987768,0.417756,-0.23586,-0.0113299,0,
1,0.991131,0.425192,-0.235665,-0.0112936,0,
1,0.99441,0.432538,-0.235474,-0.0112468,0,
1,0.997615,0.439814,-0.235285,-0.0111899,0,
1,1.00076,0.447036,-0.2351,-0.0111229,0,
1,1.00384,0.454221,-0.234916,-0.0110459,0,
1,1.00688,0.461385,-0.234735,-0.0109587,0,
1,1.00988,0.468542,-0.234555,-0.0108614,0,
1,1.01581,0.482971,-0.234198,-0.0106353,0,
1,1.01882,0.490433,-0.234015,-0.0105011,0,
1,1.02188,0.498115,-0.23383,-0.0103514,0,
1,1.025,0.506043,-0.233641,-0.0101846,0,
1,1.02818,0.514244,-0.233447,-0.00999885,0,
1,1.03144,0.52275,-0.23325,-0.00979208,0,
1,1.03478,0.531598,-0.233048,-0.0095618,0,
1,1.03822,0.540828,-0.232841,-0.00930316,0,
1,1.04177,0.550482,-0.23263,-0.00901404,0,
1,1.04544,0.560595,-0.232415,-0.0086945,0,
1,1.04925,0.571198,-0.232199,-0.00833906,0,
1,1.05321,0.582317,-0.23198,-0.00794445,0,
1,1.05735,0.59397,-0.231758,-0.00750764,0,
1,1.06169,0.606161,-0.231536,-0.00702619,0,
1,1.06626,0.61887,-0.231312,-0.00649914,0,
1,1.07108,0.632044,-0.23109,-0.00592782,0,
1,1.07618,0.645578,-0.23087,-0.00531774,0,
1,1.0816,0.659298,-0.230655,-0.00468039,0,
1,1.08738,0.672952,-0.230448,-0.00403497,0,
1,1.09357,0.686214,-0.230252,-0.00340847,0,
1,1.10022,0.698732,-0.230069,-0.00283235,0,
1,1.10739,0.710203,-0.2299,-0.00233521,0,
1,1.11514,0.720473,-0.229745,-0.00193601,0,
1,1.12354,0.729577,-0.229599,-0.00163971,0,
1,1.13268,0.737718,-0.229456,-0.00143637,0,
1,1.14266,0.745185,-0.229305,-0.00130751,0,
1,1.15357,0.752264,-0.229136,-0.00123214,0,
1,1.16554,0.759192,-0.228942,-0.00119095,0,
1,1.1787,0.766134,-0.228715,-0.00116971,0,
1,1.1932,0.773194,-0.228452,-0.00115868,0,
1,1.2092,0.780434,-0.228143,-0.00115214,0,
1,1.22689,0.787889,-0.227789,-0.00114659,0,
1,1.24659,0.795616,-0.227366,-0.00113956,0,
1,1.26879,0.80371,-0.226887,-0.00113469,0,
1,1.29378,0.812217,-0.226276,-0.001112,0,
1,1.3219,0.821156,-0.225531,-0.00105735,0,
1,1.35351,0.830457,-0.224705,-0.0010127,0,
1,1.389,0.840062,-0.223756,-0.000972697,0,
1,1.42882,0.849996,-0.222665,-0.000935048,0,
1,1.47342,0.860308,-0.221412,-0.000897347,0,
1,1.52332,0.871077,-0.219976,-0.000857505,0,
1,1.57905,0.882422,-0.218335,-0.000813904,0,
1,1.64119,0.894514,-0.216471,-0.00076476,0,
1,1.71033,0.907562,-0.214364,-0.000707417,0,
1,1.78711,0.921768,-0.211995,-0.000638829,0,
1,1.87215,0.93722,-0.209344,-0.000557384,0,
1,1.9661,0.953742,-0.206394,-0.000464056,0,
1,2.06959,0.970717,-0.203137,-0.000364012,0,
1,2.18321,0.987006,-0.199561,-0.000264879,0,
1,2.30752,1.00118,-0.195752,-0.000134644,0,
1,2.44299,1.01168,-0.191718,-4.32552e-05,0,
1,2.59002,1.01725,-0.187498,-3.4389e-06,0,
1,2.74885,1.01786,-0.183196,1.17177e-06,0,
1,2.91959,1.01533,-0.178883,1.05044e-07,0,
1,3.10217,1.01208,-0.174622,5.71629e-08,0,
1,3.2963,1.00946,-0.170458,4.49748e-08,0,
1,3.50146,1.00759,-0.166422,3.58838e-08,0,
1,3.7169,1.00608,-0.162545,3.12072e-08,0,
1,3.94163,1.00464,-0.158857,2.88277e-08,0,
1,4.17441,1.00321,-0.155384,2.67772e-08,0,
1,4.41376,1.00182,-0.152142,2.45195e-08,0,
1,4.65805,1.00054,-0.149144,2.21621e-08,0,
1,4.90545,0.999374,-0.146395,1.99586e-08,0,
1,5.15407,0.99832,-0.143895,1.79701e-08,0,
1,5.40194,0.997376,-0.141637,1.6241e-08,0,
1,5.64716,0.99653,-0.139614,1.48295e-08,0,
1,5.88785,0.995754,-0.137813,1.38249e-08,0,
1,6.12229,0.995015,-0.13622,1.29852e-08,0,
1,6.34896,0.994341,-0.134819,1.14831e-08,0,
1,6.56652,0.993927,-0.133594,8.79027e-09,0,
1,6.77388,0.994075,-0.132527,5.81334e-10,0,
1,6.97022,0.994738,-0.1316,4.81339e-09,0,
1,7.15495,0.994755,-0.130795,1.85043e-06,0,
1,7.32773,0.99161,-0.130102,1.94171e-05,0,
1,7.48842,0.98268,-0.129512,8.21511e-05,0,
1,7.63711,0.967406,-0.129032,0.000224754,0,
1,7.77403,0.947795,-0.128625,0.000428297,0,
1,7.89956,0.926256,-0.128282,0.000605252,0,
1,8.01417,0.904537,-0.128024,0.000783332,0,
1,8.11843,0.883971,-0.127806,0.000938975,0,
1,8.21296,0.865108,-0.127638,0.00106484,0,
1,8.29839,0.84789,-0.127505,0.00116258,0,
1,8.3754,0.831956,-0.127405,0.0012369,0,
1,8.44464,0.816879,-0.127331,0.0012933,0,
1,8.50675,0.802311,-0.127278,0.00133784,0,
1,8.56236,0.788033,-0.127241,0.00137434,0,
1,8.61206,0.773929,-0.127215,0.00140499,0,
1,8.6564,0.759925,-0.127197,0.00142863,0,
1,8.69591,0.745958,-0.127185,0.00144659,0,
1,8.73107,0.732005,-0.127179,0.00146328,0,
1,8.76232,0.718077,-0.127175,0.00147693,0,
1,8.79007,0.704181,-0.127174,0.0014876,0,
1,8.81469,0.690318,-0.127175,0.00149556,0,
1,8.83651,0.676484,-0.127177,0.00150103,0,
1,8.85584,0.662674,-0.12718,0.00150421,0,
1,8.87295,0.648878,-0.127184,0.00150527,0,
1,8.8881,0.635086,-0.127188,0.00150437,0,
1,8.90149,0.621284,-0.127192,0.00150164,0,
1,8.91333,0.607456,-0.127195,0.00149721,0,
1,8.92379,0.593584,-0.127199,0.00149117,0,
1,8.93303,0.579647,-0.127202,0.0014836,0,
1,8.9412,0.565619,-0.127206,0.00147454,0,
1,8.9484,0.551475,-0.127208,0.00146399,0,
1,8.95476,0.537184,-0.127211,0.0014519,0,
1,8.96038,0.522709,-0.127213,0.00143817,0,
1,8.96533,0.508014,-0.127215,0.00142264,0,
1,8.9697,0.493054,-0.127217,0.00140507,0,
1,8.97356,0.47778,-0.127219,0.0013851,0,
1,8.97696,0.462137,-0.12722,0.00136231,0,
1,8.97996,0.446061,-0.127221,0.00133612,0,
1,8.98261,0.429483,-0.127222,0.0013061,0,
1,8.98494,0.412312,-0.127223,0.00127577,0,
1,8.98699,0.394306,-0.127224,0.00122652,0,
1,8.98881,0.375073,-0.127225,0.00116533,0,
1,8.99041,0.35424,-0.127225,0.00108765,0,
1,8.99182,0.331431,-0.127226,0.000988461,0,
1,8.99306,0.306275,-0.127226,0.000863467,0,
1,8.99416,0.278453,-0.127227,0.0007113,0,
1,8.99512,0.247517,-0.127227,0.000498912,0,
1,8.99597,0.213463,-0.127227,0.000282006,0,
1,8.99672,0.177983,-0.127227,0.000127719,0,
1,8.99739,0.143571,-0.127227,4.47485e-05,0,
1,8.99797,0.111918,-0.127227,1.20618e-05,0,
1,8.99848,0.0836169,-0.127227,2.43338e-06,0,
1,8.99894,0.0585943,-0.127227,3.32832e-07,0,
1,8.99934,0.0365425,-0.127227,2.41446e-08,0,
1,8.99969,0.0171208,-0.127227,5.16629e-10,0,

4,0,0,-0.104876,0,0,
4,9,0,-0.0963179,0,0,
4,1.05136,0.672181,-0.113064,-0.00422897,0,
4,0.000303409,-0.00531143,-0.10488,6.5149e-11,0,
4,0.00062865,-0.0108772,-0.104877,2.65533e-09,0,
4,0.000979511,-0.016735,-0.10488,3.08854e-08,0,
4,0.00136016,-0.0229171,-0.104878,1.91269e-07,0,
4,0.00177519,-0.029448,-0.10488,8.2337e-07,0,
4,0.0022297,-0.0363344,-0.104879,2.79886e-06,0,
4,0.00272934,-0.0435423,-0.104881,8.00445e-06,0,
4,0.00328037,-0.0509534,-0.10488,1.97626e-05,0,
4,0.00388979,-0.058304,-0.104882,4.20879e-05,0,
4,0.00456537,-0.0651628,-0.104882,7.60834e-05,0,
4,0.00531578,-0.071059,-0.104886,0.000115303,0,
4,0.0061507,-0.075727,-0.10489,0.00014779,0,
4,0.0070809,-0.0792059,-0.104899,0.000165084,0,
4,0.00811839,-0.0817117,-0.104909,0.00016623,0,
4,0.00927657,-0.0834817,-0.104924,0.000154237,0,
4,0.0105703,-0.0847047,-0.104942,0.000132284,0,
4,0.0120162,-0.085514,-0.104967,0.000102493,0,
4,0.0136326,-0.0859992,-0.104996,6.59944e-05,0,
4,0.0154398,-0.0862196,-0.105032,2.32449e-05,0,
4,0.0174603,-0.0862143,-0.105074,-2.57235e-05,0,
4,0.0197189,-0.0860083,-0.105124,-8.11549e-05,0,
4,0.0222427,-0.0856173,-0.105183,-0.000143482,0,
4,0.0250617,-0.0850501,-0.105253,-0.000213281,0,
4,0.0282081,-0.0843104,-0.105333,-0.00029124,0,
4,0.0317171,-0.0833984,-0.105426,-0.000378147,0,
4,0.0356266,-0.0823107,-0.105532,-0.000474878,0,
4,0.039977,-0.081042,-0.105654,-0.000582386,0,
4,0.0448114,-0.0795842,-0.105793,-0.000701696,0,
4,0.0501747,-0.0779279,-0.105949,-0.000833893,0,
4,0.056114,-0.0760615,-0.106126,-0.000980108,0,
4,0.062677,-0.0739721,-0.106323,-0.0011415,0,
4,0.0699123,-0.0716452,-0.106541,-0.00131923,0,
4,0.0778675,-0.0690653,-0.106783,-0.00151444,0,
4,0.0865883,-0.0662155,-0.107047,-0.00172823,0,
4,0.0961173,-0.0630784,-0.107334,-0.00196156,0,
4,0.106492,-0.0596358,-0.107643,-0.00221528,0,
4,0.117744,-0.0558696,-0.107973,-0.00249004,0,
4,0.129894,-0.0517621,-0.108323,-0.00278621,0,
4,0.142956,-0.0472967,-0.108689,-0.00310389,0,
4,0.156928,-0.0424586,-0.10907,-0.0034428,0,
4,0.171798,-0.0372363,-0.109461,-0.0038023,0,
4,0.187537,-0.031622,-0.10986,-0.00418138,0,
4,0.2041,-0.0256131,-0.110263,-0.00457874,0,
4,0.221432,-0.0192127,-0.110665,-0.00499292,0,
4,0.239458,-0.0124289,-0.111062,-0.00542224,0,
4,0.258095,-0.00527192,-0.111452,-0.00586338,0,
4,0.27725,0.00224778,-0.111832,-0.00631142,0,
4,0.296825,0.010115,-0.1122,-0.00676446,0,
4,0.316717,0.0183039,-0.112552,-0.00722198,0,
4,0.336828,0.0267796,-0.112887,-0.00768408,0,
4,0.357066,0.0355102,-0.113185,-0.00814415,0,
4,0.377348,0.0444752,-0.113476,-0.00860181,0,
4,0.397605,0.0536766,-0.113714,-0.00921001,0,
4,0.417786,0.0634585,-0.113482,-0.00953685,0,
4,0.437857,0.0743695,-0.112875,-0.00977539,0,
4,0.457804,0.0866266,-0.112454,-0.0100303,0,
4,0.477632,0.100047,-0.112265,-0.010283,0,
4,0.497368,0.114289,-0.112238,-0.0105154,0,
4,0.517057,0.129079,-0.112289,-0.0107171,0,
4,0.536763,0.144302,-0.112355,-0.0108851,0,
4,0.556564,0.159989,-0.112407,-0.0110198,0,
4,0.576557,0.176263,-0.112437,-0.0111224,0,
4,0.596848,0.193287,-0.112449,-0.0111929,0,
4,0.617561,0.211232,-0.112453,-0.0112292,0,
4,0.637962,0.229526,-0.112452,-0.0112289,0,
4,0.657495,0.247678,-0.112451,-0.0111931,0,
4,0.676218,0.265695,-0.112454,-0.011124,0,
4,0.694189,0.283576,-0.112459,-0.0110232,0,
4,0.711463,0.301323,-0.112466,-0.0108924,0,
4,0.728096,0.318942,-0.112474,-0.0107333,0,
4,0.744138,0.336442,-0.112483,-0.0105473,0,
4,0.759639,0.353831,-0.112494,-0.0103363,0,
4,0.774643,0.371112,-0.112505,-0.0101021,0,
4,0.789195,0.388273,-0.112519,-0.00984748,0,
4,0.803334,0.405289,-0.112534,-0.0095755,0,
4,0.817097,0.422116,-0.112553,-0.00929021,0,
4,0.830518,0.4387,-0.112573,-0.00899665,0,
4,0.843629,0.45498,-0.112596,-0.00869766,0,
4,0.856459,0.470906,-0.112622,-0.00839599,0,
4,0.869035,0.486439,-0.112648,-0.0080939,0,
4,0.881383,0.501557,-0.112676,-0.00779318,0,
4,0.893524,0.516245,-0.112704,-0.00749516,0,
4,0.905481,0.530489,-0.112732,-0.00720089,0,
4,0.917272,0.544274,-0.112758,-0.00691148,0,
4,0.928915,0.557566,-0.112782,-0.00663416,0,
4,0.940428,0.570328,-0.112803,-0.00636784,0,
4,0.951826,0.582539,-0.112822,-0.00611312,0,
4,0.963124,0.594201,-0.112842,-0.0058692,0,
4,0.974334,0.605334,-0.112863,-0.00563593,0,
4,0.98547,0.615976,-0.112886,-0.00541284,0,
4,0.996544,0.626175,-0.112912,-0.00519914,0,
4,1.00757,0.635979,-0.11294,-0.00499377,0,
4,1.01855,0.645439,-0.11297,-0.00479547,0,
4,1.0295,0.654599,-0.113001,-0.00460287,0,
4,1.04044,0.663501,-0.113033,-0.00441454,0,
4,1.0623,0.680682,-0.113094,-0.00404439,0,
4,1.07328,0.68905,-0.113121,-0.00385895,0,
4,1.08432,0.69732,-0.113141,-0.00365893,0,
4,1.09543,0.705504,-0.113157,-0.00345602,0,
4,1.10661,0.713573,-0.113171,-0.00324838,0,
4,1.11788,0.721485,-0.113184,-0.0030366,0,
4,1.12925,0.729197,-0.113195,-0.00282354,0,
4,1.14073,0.736664,-0.113204,-0.00261242,0,
4,1.15233,0.743841,-0.113211,-0.00240662,0,
4,1.16408,0.75069,-0.113215,-0.00220953,0,
4,1.17599,0.75718,-0.113218,-0.00202432,0,
4,1.18806,0.76329,-0.113217,-0.00185366,0,
4,1.20034,0.769012,-0.113215,-0.00169957,0,
4,1.21282,0.774355,-0.11321,-0.00156324,0,
4,1.22554,0.779338,-0.113202,-0.00144501,0,
4,1.23852,0.783993,-0.113193,-0.00134443,0,
4,1.25179,0.78836,-0.113181,-0.0012604,0,
4,1.26537,0.792481,-0.113168,-0.00119136,0,
4,1.2793,0.796402,-0.113153,-0.00113543,0,
4,1.29362,0.800164,-0.113135,-0.00109102,0,
4,1.30836,0.803812,-0.113116,-0.00106044,0,
4,1.32357,0.807412,-0.113108,-0.00102738,0,
4,1.3393,0.811048,-0.113109,-0.000998697,0,
4,1.3556,0.814779,-0.113108,-0.000972951,0,
4,1.37252,0.818637,-0.113105,-0.000949106,0,
4,1.39015,0.822632,-0.113095,-0.00092657,0,
4,1.40855,0.826758,-0.113079,-0.00090497,0,
4,1.42781,0.831011,-0.113057,-0.000884021,0,
4,1.44801,0.835393,-0.113031,-0.000863705,0,
4,1.46926,0.839918,-0.113001,-0.000843728,0,
4,1.49167,0.844611,-0.112967,-0.000823579,0,
4,1.51537,0.849506,-0.112929,-0.000803056,0,
4,1.54091,0.854712,-0.112884,-0.000781754,0,
4,1.56949,0.860453,-0.112831,-0.000758842,0,
4,1.60144,0.866797,-0.112766,-0.000733825,0,
4,1.63713,0.873792,-0.112688,-0.000706326,0,
4,1.67693,0.881474,-0.112592,-0.00067596,0,
4,1.72128,0.889864,-0.112475,-0.000642398,0,
4,1.77062,0.898957,-0.112334,-0.000605317,0,
4,1.82542,0.908696,-0.11216,-0.0005649,0,
4,1.88618,0.918961,-0.111956,-0.000521097,0,
4,1.95343,0.929572,-0.1117,-0.000473851,0,
4,2.02768,0.940376,-0.11142,-0.000400521,0,
4,2.10949,0.95118,-0.11111,-0.000309655,0,
4,2.19939,0.961504,-0.110742,-0.000218625,0,
4,2.29789,0.97061,-0.110327,-0.000135382,0,
4,2.40551,0.977752,-0.109859,-6.9167e-05,0,
4,2.52268,0.982398,-0.109343,-2.54226e-05,0,
4,2.64979,0.984418,-0.108785,-3.77352e-06,0,
4,2.78715,0.984235,-0.108188,2.0573e-06,0,
4,2.93497,0.982779,-0.107558,1.30603e-06,0,
4,3.09333,0.981143,-0.106903,2.60542e-07,0,
4,3.26217,0.980072,-0.10623,2.38706e-08,0,
4,3.44125,0.979703,-0.10555,3.72086e-09,0,
4,3.63018,0.979743,-0.104869,7.00176e-10,0,
4,3.82836,0.979849,-0.104193,9.35374e-10,0,
4,4.03501,0.979845,-0.103528,2.09508e-09,0,
4,4.24915,0.979728,-0.102882,2.87134e-09,0,
4,4.46961,0.979562,-0.102257,3.02905e-09,0,
4,4.69507,0.979399,-0.10166,2.83986e-09,0,
4,4.92406,0.979257,-0.101092,2.60097e-09,0,
4,5.15502,0.97913,-0.100558,2.44777e-09,0,
4,5.3863,0.979009,-0.100058,2.44398e-09,0,
4,5.61626,0.978882,-0.0995947,2.69134e-09,0,
4,5.84328,0.978733,-0.0991679,3.4482e-09,0,
4,6.06579,0.978565,-0.0987776,5.24029e-09,0,
4,6.28238,0.978445,-0.0984231,5.73452e-09,0,
4,6.49173,0.978537,-0.098103,-2.91394e-08,0,
4,6.69275,0.979007,-0.0978149,-2.34719e-07,0,
4,6.88453,0.979696,-0.0975554,-3.25794e-07,0,
4,7.06634,0.979656,-0.0973206,4.2577e-06,0,
4,7.23771,0.977016,-0.0971121,2.88378e-05,0,
4,7.39831,0.969688,-0.0969264,9.60838e-05,0,
4,7.54803,0.956698,-0.0967769,0.000222868,0,
4,7.68693,0.938893,-0.0966503,0.000383872,0,
4,7.81519,0.91817,-0.0965296,0.000542926,0,
4,7.93313,0.896543,-0.096438,0.00071254,0,
4,8.04115,0.875664,-0.0963528,0.000871206,0,
4,8.13974,0.856372,-0.0962845,0.00100596,0,
4,8.22941,0.838789,-0.0962301,0.00111419,0,
4,8.31073,0.822647,-0.0961913,0.00119922,0,
4,8.38429,0.807533,-0.0961669,0.00126502,0,
4,8.45065,0.793059,-0.0961547,0.00131646,0,
4,8.5104,0.778933,-0.0961514,0.00135812,0,
4,8.56407,0.764979,-0.0961538,0.00139276,0,
4,8.61222,0.75111,-0.0961596,0.00142204,0,
4,8.65533,0.737293,-0.0961677,0.00144696,0,
4,8.69387,0.72352,-0.0961774,0.00146808,0,
4,8.7283,0.709776,-0.0961889,0.0014821,0,
4,8.75901,0.696057,-0.0962007,0.00149338,0,
4,8.78637,0.68238,-0.0962119,0.00150112,0,
4,8.81074,0.668763,-0.0962227,0.00150536,0,
4,8.83242,0.655211,-0.0962329,0.00150646,0,
4,8.85169,0.641729,-0.0962425,0.00150477,0,
4,8.86881,0.628311,-0.0962514,0.00150058,0,
4,8.88402,0.614952,-0.0962596,0.00149417,0,
4,8.89751,0.60164,-0.096267,0.0014858,0,
4,8.90949,0.588361,-0.0962737,0.0014757,0,
4,8.92011,0.575097,-0.0962798,0.00146408,0,
4,8.92952,0.561825,-0.0962851,0.00145111,0,
4,8.93787,0.548521,-0.0962899,0.00143693,0,
4,8.94526,0.535156,-0.096294,0.00142162,0,
4,8.95182,0.521698,-0.0962977,0.00140519,0,
4,8.95762,0.508111,-0.0963008,0.00138763,0,
4,8.96276,0.494356,-0.0963035,0.00136882,0,
4,8.96731,0.480388,-0.0963059,0.00134859,0,
4,8.97134,0.466159,-0.0963078,0.00132667,0,
4,8.97491,0.451613,-0.0963096,0.0013027,0,
4,8.97807,0.43669,-0.096311,0.00127619,0,
4,8.98087,0.421322,-0.0963122,0.00124651,0,
4,8.98334,0.405431,-0.0963132,0.00121301,0,
4,8.98553,0.388924,-0.0963141,0.00117976,0,
4,8.98747,0.371554,-0.0963147,0.00112676,0,
4,8.98919,0.35292,-0.0963155,0.00106194,0,
4,8.9907,0.332662,-0.0963159,0.000981065,0,
4,8.99205,0.310439,-0.0963165,0.000879873,0,
4,8.99324,0.28593,-0.0963166,0.000755389,0,
4,8.99429,0.258798,-0.0963171,0.000596617,0,
4,8.99522,0.228698,-0.096317,0.000393445,0,
4,8.99605,0.196153,-0.0963174,0.000215945,0,
4,8.99677,0.163081,-0.0963172,9.46199e-05,0,
4,8.99742,0.131496,-0.0963176,3.25283e-05,0,
4,8.99799,0.10262,-0.0963173,8.73192e-06,0,
4,8.9985,0.0768055,-0.0963177,1.7712e-06,0,
4,8.99894,0.0539258,-0.0963173,2.44587e-07,0,
4,8.99934,0.0336963,-0.0963178,1.79245e-08,0,
4,8.99969,0.0158171,-0.0963173,3.86444e-10,0,

6,0,0,0.00432974,0,0,
6,9,0,-0.073372,0,0,
6,1.07704,0.699869,-0.00822887,-0.0026085,0,
6,0.000299862,0.00338864,0.00432272,-4.56334e-11,0,
6,0.000611645,0.00696776,0.00432838,-1.8217e-09,0,
6,0.000938257,0.0107775,0.00432289,-2.03955e-08,0,
6,0.00128281,0.014861,0.00432718,-1.21536e-07,0,
6,0.00164864,0.0192647,0.00432282,-5.05818e-07,0,
6,0.00203939,0.024035,0.00432607,-1.67579e-06,0,
6,0.00245897,0.0292108,0.00432249,-4.73197e-06,0,
6,0.00291168,0.0348045,0.00432489,-1.17889e-05,0,
6,0.00340221,0.0407702,0.00432165,-2.62379e-05,0,
6,0.00393573,0.0469609,0.004323,-5.20268e-05,0,
6,0.00451788,0.0531131,0.00431923,-9.11009e-05,0,
6,0.00515491,0.0589095,0.00431845,-0.000140458,0,
6,0.00585371,0.0641078,0.00431245,-0.000192887,0,
6,0.00662185,0.0686212,0.00430768,-0.000241682,0,
6,0.00746774,0.0724942,0.00429755,-0.000283951,0,
6,0.00840063,0.0758321,0.00428703,-0.00032006,0,
6,0.00943073,0.0787478,0.00427115,-0.000351721,0,
6,0.0105693,0.0813394,0.00425337,-0.00038075,0,
6,0.0118288,0.0836852,0.00423009,-0.000408654,0,
6,0.0132228,0.0858459,0.00420335,-0.000436603,0,
6,0.0147664,0.0878683,0.00417061,-0.000465505,0,
6,0.016476,0.0897892,0.00413275,-0.000496099,0,
6,0.0183694,0.0916376,0.00408795,-0.000529014,0,
6,0.0204662,0.0934373,0.00403623,-0.000564824,0,
6,0.0227875,0.0952082,0.00397615,-0.000604072,0,
6,0.0253561,0.0969671,0.00390715,-0.000647293,0,
6,0.0281964,0.098729,0.00382797,-0.000695028,0,
6,0.0313344,0.100507,0.00373767,-0.000747833,0,
6,0.0347975,0.102314,0.003635,-0.00080628,0,
6,0.0386145,0.104161,0.00351885,-0.00087096,0,
6,0.042815,0.106059,0.00338797,-0.000942486,0,
6,0.0474296,0.108018,0.00324122,-0.00102148,0,
6,0.0524888,0.110049,0.00307744,-0.00110858,0,
6,0.0580229,0.112161,0.00289562,-0.00120441,0,
6,0.0640611,0.114364,0.00269485,-0.00130958,0,
6,0.0706309,0.116667,0.00247444,-0.00142469,0,
6,0.077757,0.119079,0.00223397,-0.00155028,0,
6,0.0854609,0.121607,0.00197327,-0.00168683,0,
6,0.0937597,0.124261,0.00169255,-0.00183472,0,
6,0.102665,0.127046,0.00139239,-0.00199427,0,
6,0.112183,0.12997,0.00107375,-0.00216565,0,
6,0.122315,0.133038,0.000737952,-0.00234891,0,
6,0.133052,0.136255,0.000386685,-0.00254397,0,
6,0.144384,0.139624,2.19243e-05,-0.00275062,0,
6,0.156292,0.143149,-0.000354136,-0.0029685,0,
6,0.168754,0.146833,-0.000739171,-0.00319717,0,
6,0.181744,0.150679,-0.00113083,-0.00343607,0,
6,0.195237,0.154688,-0.00152681,-0.00368461,0,
6,0.209207,0.158864,-0.00192501,-0.00394217,0,
6,0.223631,0.163211,-0.00232353,-0.00420818,0,
6,0.238493,0.167735,-0.00272079,-0.00448211,0,
6,0.253785,0.172445,-0.00311555,-0.00476354,0,
6,0.269507,0.177354,-0.00350696,-0.0050522,0,
6,0.28567,0.182476,-0.00389421,-0.00534793,0,
6,0.3023,0.187833,-0.0042777,-0.00565084,0,
6,0.319433,0.19345,-0.00465753,-0.00596348,0,
6,0.337122,0.199366,-0.0050206,-0.00628427,0,
6,0.355433,0.205634,-0.00535383,-0.00660932,0,
6,0.374445,0.212325,-0.00565094,-0.00694081,0,
6,0.394252,0.219523,-0.00591077,-0.00727871,0,
6,0.414961,0.227328,-0.00623544,-0.00766784,0,
6,0.436695,0.235958,-0.00614643,-0.00813292,0,
6,0.459585,0.24598,-0.00536205,-0.00823046,0,
6,0.48378,0.258111,-0.00447184,-0.00834955,0,
6,0.508144,0.271947,-0.00396702,-0.00850473,0,
6,0.531799,0.286716,-0.00378894,-0.00866088,0,
6,0.554791,0.302034,-0.00379217,-0.00878914,0,
6,0.577166,0.31763,-0.00386494,-0.00887451,0,
6,0.598964,0.333383,-0.00393822,-0.00891301,0,
6,0.620228,0.349276,-0.00398949,-0.0089063,0,
6,0.640996,0.365333,-0.00402079,-0.00885715,0,
6,0.661304,0.381581,-0.00404319,-0.0087676,0,
6,0.681188,0.398025,-0.00406685,-0.00863878,0,
6,0.700681,0.414651,-0.00409806,-0.00847142,0,
6,0.719813,0.43142,-0.00413996,-0.00826675,0,
6,0.738612,0.448271,-0.00419437,-0.00802739,0,
6,0.757107,0.465121,-0.00426305,-0.00775805,0,
6,0.775322,0.481863,-0.0043476,-0.00746509,0,
6,0.793282,0.498382,-0.0044486,-0.00715476,0,
6,0.811008,0.514562,-0.00456577,-0.00683283,0,
6,0.828521,0.530304,-0.00469856,-0.00650467,0,
6,0.845842,0.545527,-0.00484668,-0.00617522,0,
6,0.862989,0.560167,-0.00500942,-0.00584902,0,
6,0.879979,0.574164,-0.00518764,-0.00553726,0,
6,0.896829,0.587483,-0.00538032,-0.0052398,0,
6,0.913555,0.600133,-0.00558443,-0.00495479,0,
6,0.930172,0.612164,-0.00579892,-0.00468118,0,
6,0.946694,0.623634,-0.00602331,-0.0044182,0,
6,0.963136,0.634598,-0.00625763,-0.00416526,0,
6,0.97951,0.645096,-0.00650211,-0.00392177,0,
6,0.99583,0.655156,-0.0067568,-0.00368713,0,
6,1.01211,0.664804,-0.00702332,-0.00346056,0,
6,1.02836,0.674068,-0.00730112,-0.00324109,0,
6,1.04459,0.682985,-0.0075989,-0.00302422,0,
6,1.06081,0.691586,-0.0079115,-0.00281078,0,
6,1.09329,0.707815,-0.00855513,-0.00241514,0,
6,1.10959,0.715403,-0.00888799,-0.00223258,0,
6,1.12595,0.722615,-0.00922961,-0.00206463,0,
6,1.14238,0.729452,-0.00957432,-0.00190548,0,
6,1.1589,0.735925,-0.00992252,-0.00175923,0,
6,1.17551,0.742033,-0.0102796,-0.00162909,0,
6,1.19223,0.747774,-0.0106439,-0.00151559,0,
6,1.20907,0.753162,-0.0110157,-0.00141822,0,
6,1.22605,0.758242,-0.0113957,-0.00133524,0,
6,1.24318,0.763076,-0.0117848,-0.00126419,0,
6,1.26048,0.767734,-0.0121834,-0.00120264,0,
6,1.27797,0.772278,-0.012591,-0.00114873,0,
6,1.29566,0.77675,-0.0130063,-0.00110123,0,
6,1.31357,0.781175,-0.0134281,-0.00105933,0,
6,1.33173,0.78556,-0.0138561,-0.0010223,0,
6,1.35015,0.789911,-0.0142904,-0.000989281,0,
6,1.36886,0.794233,-0.0147321,-0.000959339,0,
6,1.38788,0.798539,-0.015182,-0.000931706,0,
6,1.40725,0.802845,-0.0156411,-0.000905664,0,
6,1.42698,0.807172,-0.0161105,-0.000880486,0,
6,1.44712,0.811539,-0.0165908,-0.000855686,0,
6,1.46769,0.815962,-0.0170825,-0.000830992,0,
6,1.48874,0.820452,-0.0175862,-0.000806265,0,
6,1.5103,0.825016,-0.0181025,-0.000781442,0,
6,1.53242,0.829658,-0.0186323,-0.000756492,0,
6,1.55515,0.83438,-0.0191766,-0.000731378,0,
6,1.57854,0.839186,-0.0197367,-0.000706069,0,
6,1.60265,0.844078,-0.0203138,-0.000680554,0,
6,1.62754,0.84906,-0.0209095,-0.000654829,0,
6,1.65329,0.854132,-0.0215248,-0.000628918,0,
6,1.67998,0.859297,-0.022162,-0.000602809,0,
6,1.70768,0.864555,-0.0228214,-0.000576773,0,
6,1.73712,0.870006,-0.0235228,-0.000550683,0,
6,1.76996,0.875886,-0.0243006,-0.000523425,0,
6,1.80655,0.882224,-0.0251645,-0.000495287,0,
6,1.84728,0.888978,-0.0261188,-0.000467042,0,
6,1.89255,0.896085,-0.0271724,-0.000438994,0,
6,1.9428,0.903466,-0.0283273,-0.000411114,0,
6,1.99849,0.911058,-0.0295989,-0.000379718,0,
6,2.06009,0.918872,-0.0309961,-0.00031861,0,
6,2.1281,0.926776,-0.0325123,-0.000256864,0,
6,2.20301,0.934385,-0.0341504,-0.000193965,0,
6,2.28535,0.941245,-0.0359089,-0.000135071,0,
6,2.37559,0.946959,-0.0377759,-8.50537e-05,0,
6,2.47424,0.951234,-0.0397396,-4.71046e-05,0,
6,2.58172,0.953955,-0.0417792,-2.2184e-05,0,
6,2.69844,0.955252,-0.0438718,-8.73859e-06,0,
6,2.82473,0.95553,-0.0459909,-3.12268e-06,0,
6,2.96084,0.955378,-0.0481113,-1.28784e-06,0,
6,3.10691,0.955379,-0.0502101,-6.0361e-07,0,
6,3.26296,0.955886,-0.052268,-2.31753e-07,0,
6,3.42888,0.956915,-0.0542675,-7.21545e-08,0,
6,3.60438,0.958234,-0.0561918,-3.36163e-08,0,
6,3.78902,0.959561,-0.0580238,-2.67064e-08,0,
6,3.98218,0.960719,-0.0597484,-2.25794e-08,0,
6,4.18307,0.961673,-0.0613538,-1.9038e-08,0,
6,4.39071,0.962475,-0.0628322,-1.64047e-08,0,
6,4.60398,0.963184,-0.0641799,-1.44499e-08,0,
6,4.82159,0.963834,-0.0653967,-1.28898e-08,0,
6,5.04218,0.964427,-0.0664858,-1.16145e-08,0,
6,5.26426,0.964954,-0.0674525,-1.08416e-08,0,
6,5.48633,0.965407,-0.0683042,-1.12281e-08,0,
6,5.70687,0.965777,-0.0690494,-1.43813e-08,0,
6,5.92439,0.966071,-0.0696972,-2.47778e-08,0,
6,6.1375,0.966336,-0.0702574,-5.87704e-08,0,
6,6.34489,0.966686,-0.070739,-1.84037e-07,0,
6,6.5454,0.967263,-0.0711511,-5.93509e-07,0,
6,6.73802,0.968058,-0.0715012,-1.27991e-06,0,
6,6.92195,0.968572,-0.071797,3.5674e-07,0,
6,7.09653,0.967563,-0.0720447,1.4302e-05,0,
6,7.26132,0.963245,-0.0722539,5.84466e-05,0,
6,7.41603,0.954123,-0.0724273,0.000150256,0,
6,7.56054,0.939905,-0.0725749,0.000294503,0,
6,7.6949,0.921547,-0.0726926,0.000427958,0,
6,7.81927,0.90068,-0.0727832,0.00057938,0,
6,7.93391,0.879267,-0.0728536,0.000737745,0,
6,8.0392,0.858848,-0.0729014,0.000883617,0,
6,8.13555,0.840115,-0.072939,0.00100763,0,
6,8.22344,0.823075,-0.0729686,0.00110844,0,
6,8.30339,0.807396,-0.0729975,0.00118928,0,
6,8.37592,0.792657,-0.0730267,0.00125342,0,
6,8.44155,0.778483,-0.0730571,0.00130487,0,
6,8.50082,0.7646,-0.0730874,0.00134737,0,
6,8.55423,0.750845,-0.0731164,0.00138318,0,
6,8.60229,0.737142,-0.0731433,0.00141356,0,
6,8.64545,0.723476,-0.0731677,0.00143921,0,
6,8.68417,0.709865,-0.07319,0.00146054,0,
6,8.71885,0.696335,-0.0732103,0.00147785,0,
6,8.74989,0.682896,-0.0732295,0.00148932,0,
6,8.77763,0.669534,-0.0732472,0.00149415,0,
6,8.80241,0.656247,-0.073263,0.00149644,0,
6,8.82452,0.64305,-0.0732769,0.00149509,0,
6,8.84423,0.629952,-0.0732893,0.00149053,0,
6,8.86181,0.616953,-0.0733003,0.00148324,0,
6,8.87746,0.604048,-0.0733099,0.00147367,0,
6,8.89139,0.591226,-0.0733185,0.00146219,0,
6,8.90379,0.578471,-0.073326,0.00144914,0,
6,8.91482,0.565764,-0.0733325,0.00143483,0,
6,8.92463,0.553082,-0.0733383,0.00141946,0,
6,8.93334,0.540399,-0.0733432,0.00140323,0,
6,8.94109,0.527685,-0.0733475,0.00138624,0,
6,8.94798,0.514908,-0.0733513,0.00136853,0,
6,8.95409,0.502032,-0.0733545,0.0013501,0,
6,8.95953,0.489021,-0.0733572,0.00133087,0,
6,8.96435,0.475832,-0.0733596,0.00131069,0,
6,8.96863,0.462421,-0.0733616,0.00128933,0,
6,8.97244,0.448737,-0.0733633,0.0012665,0,
6,8.97581,0.434726,-0.0733648,0.00124177,0,
6,8.97881,0.420327,-0.073366,0.00121464,0,
6,8.98147,0.405474,-0.073367,0.00118447,0,
6,8.98383,0.390089,-0.0733679,0.00115149,0,
6,8.98593,0.374058,-0.0733687,0.00111531,0,
6,8.98779,0.357115,-0.0733692,0.00106157,0,
6,8.98944,0.338886,-0.0733699,0.000996004,0,
6,8.9909,0.319038,-0.0733703,0.00091469,0,
6,8.9922,0.297259,-0.0733707,0.000813945,0,
6,8.99336,0.273264,-0.0733709,0.000691656,0,
6,8.99438,0.246708,-0.0733713,0.000530134,0,
6,8.99529,0.217343,-0.0733712,0.000339457,0,
6,8.99609,0.185962,-0.0733715,0.000182435,0,
6,8.99681,0.154461,-0.0733714,7.84844e-05,0,
6,8.99744,0.124592,-0.0733717,2.67413e-05,0,
6,8.99801,0.0973423,-0.0733714,7.17676e-06,0,
6,8.9985,0.0729596,-0.0733718,1.46298e-06,0,
6,8.99895,0.0513015,-0.0733715,2.03455e-07,0,
6,8.99934,0.032103,-0.0733719,1.50179e-08,0,
6,8.99969,0.0150902,-0.0733714,3.25506e-10,0,

10,0,0,-0.0296224,0,0,
10,0.000296632,0.0067379,-0.029612,-2.90462e-11,0,
10,0.000596102,0.0135004,-0.0296213,-1.07058e-09,0,
10,0.000900397,0.0203331,-0.0296128,-1.08273e-08,0,
10,0.00121153,0.0272811,-0.0296204,-5.78963e-08,0,
10,0.00153158,0.034389,-0.0296135,-2.15632e-07,0,
10,0.00186264,0.0417005,-0.0296197,-6.39049e-07,0,
10,0.00220692,0.0492569,-0.0296141,-1.61972e-06,0,
10,0.00256668,0.0570944,-0.0296191,-3.66176e-06,0,
10,0.00294431,0.0652394,-0.0296145,-7.57294e-06,0,
10,0.00334229,0.0737012,-0.0296186,-1.45423e-05,0,
10,0.00376326,0.0824618,-0.0296148,-2.61354e-05,0,
10,0.00421,0.0914637,-0.0296182,-4.40985e-05,0,
10,0.00468544,0.100602,-0.029615,-6.98829e-05,0,
10,0.00519274,0.109725,-0.0296178,-0.000103969,0,
10,0.00573524,0.118651,-0.029615,-0.000145337,0,
10,0.00631651,0.127203,-0.0296171,-0.000191517,0,
10,0.00694041,0.135233,-0.0296146,-0.000239302,0,
10,0.00761104,0.142651,-0.029616,-0.000285701,0,
10,0.00833284,0.14942,-0.0296136,-0.000328611,0,
10,0.00911058,0.155554,-0.0296143,-0.000366984,0,
10,0.0099494,0.161095,-0.0296119,-0.00040065,0,
10,0.0108548,0.166104,-0.0296117,-0.000430005,0,
10,0.0118329,0.170646,-0.0296091,-0.000455734,0,
10,0.0128901,0.174787,-0.029608,-0.000478606,0,
10,0.0140333,0.178585,-0.029605,-0.000499371,0,
10,0.0152702,0.182094,-0.029603,-0.000518699,0,
10,0.0166089,0.185359,-0.0295994,-0.000537174,0,
10,0.0180584,0.188419,-0.0295963,-0.00055529,0,
10,0.0196282,0.19131,-0.029592,-0.000573469,0,
10,0.0213288,0.194059,-0.0295878,-0.000592077,0,
10,0.0231714,0.196691,-0.0295826,-0.000611435,0,
10,0.0251682,0.19923,-0.0295771,-0.000631831,0,
10,0.0273326,0.201692,-0.0295707,-0.000653533,0,
10,0.0296789,0.204096,-0.0295639,-0.000676797,0,
10,0.0322227,0.206456,-0.0295562,-0.00070187,0,
10,0.0349809,0.208787,-0.0295477,-0.000729,0,
10,0.0379719,0.211101,-0.0295384,-0.000758438,0,
10,0.0412155,0.213409,-0.0295283,-0.000790444,0,
10,0.0447333,0.215725,-0.0295172,-0.000825287,0,
10,0.0485489,0.218057,-0.0295051,-0.00086325,0,
10,0.0526875,0.220419,-0.029492,-0.000904632,0,
10,0.0571768,0.222819,-0.0294779,-0.000949751,0,
10,0.0620466,0.225271,-0.0294626,-0.000998946,0,
10,0.0673295,0.227783,-0.0294463,-0.00105258,0,
10,0.0730607,0.23037,-0.0294289,-0.00111102,0,
10,0.0792784,0.233041,-0.0294103,-0.0011747,0,
10,0.0860241,0.235812,-0.0293908,-0.00124404,0,
10,0.0933428,0.238694,-0.0293702,-0.0013195,0,
10,0.101283,0.241703,-0.0293489,-0.00140157,0,
10,0.109899,0.244854,-0.0293269,-0.00149076,0,
10,0.119247,0.248165,-0.0293046,-0.00158761,0,
10,0.12939,0.251653,-0.0292823,-0.00169266,0,
10,0.140395,0.255338,-0.0292605,-0.00180649,0,
10,0.152337,0.259243,-0.0292397,-0.00192967,0,
10,0.165296,0.26339,-0.0292209,-0.00206275,0,
10,0.179357,0.267804,-0.029205,-0.0022063,0,
10,0.194615,0.272515,-0.0291934,-0.0023608,0,
10,0.211171,0.277551,-0.0291873,-0.00252668,0,
10,0.229138,0.282946,-0.0291895,-0.00270427,0,
10,0.248635,0.288734,-0.0292005,-0.00289372,0,
10,0.269793,0.294954,-0.029227,-0.00309498,0,
10,0.292753,0.301644,-0.0292633,-0.00330765,0,
10,0.317669,0.308846,-0.0293329,-0.00353032,0,
10,0.344708,0.316598,-0.0293897,-0.00379512,0,
10,0.372405,0.324606,-0.0296041,-0.00407147,0,
10,0.399623,0.332961,-0.0301096,-0.0042007,0,
10,0.426397,0.342082,-0.030717,-0.0043532,0,
10,0.452757,0.352058,-0.0313123,-0.00452454,0,
10,0.478735,0.362774,-0.0318935,-0.00470471,0,
10,0.504358,0.374006,-0.0324648,-0.00488332,0,
10,0.529657,0.385509,-0.0330396,-0.00505202,0,
10,0.554656,0.397075,-0.033626,-0.00520529,0,
10,0.579382,0.408555,-0.0342282,-0.00534028,0,
10,0.603859,0.419858,-0.0348458,-0.00545608,0,
10,0.628112,0.430948,-0.0354753,-0.00555299,0,
10,0.652163,0.441824,-0.0361107,-0.00563186,0,
10,0.676035,0.45251,-0.0367449,-0.00569374,0,
10,0.699751,0.463049,-0.03737,-0.00573959,0,
10,0.72333,0.473491,-0.0379782,-0.00577023,0,
10,0.746795,0.483897,-0.0385623,-0.00578621,0,
10,0.770165,0.494327,-0.0391157,-0.00578781,0,
10,0.79346,0.504845,-0.0396328,-0.00577507,0,
10,0.816699,0.515517,-0.0401091,-0.00574771,0,
10,0.839903,0.52641,-0.0405409,-0.00570521,0,
10,0.863088,0.537593,-0.0409259,-0.00564683,0,
10,0.886275,0.549133,-0.041263,-0.00557166,0,
10,0.909481,0.561099,-0.0415519,-0.00547867,0,
10,0.932723,0.573558,-0.0417937,-0.00536682,0,
10,0.956021,0.586576,-0.0419897,-0.00523509,0,
10,0.97939,0.600214,-0.0421416,-0.00508255,0,
10,1.00285,0.614523,-0.0422505,-0.00490834,0,
10,1.02641,0.629538,-0.0423167,-0.00471175,0,
10,1.0501,0.645266,-0.0423396,-0.00449285,0,
10,1.07392,0.661659,-0.0423177,-0.00425348,0,
10,1.0979,0.678595,-0.0422491,-0.00399724,0,
10,1.12205,0.695856,-0.0421326,-0.00372957,0,
10,1.14639,0.713145,-0.0419682,-0.00345588,0,
10,1.17093,0.730122,-0.041757,-0.00318207,0,
10,1.19568,0.746442,-0.0415027,-0.00291537,0,
10,1.22066,0.761815,-0.0412089,-0.002661,0,
10,1.24589,0.776049,-0.0408833,-0.00242656,0,
10,1.27137,0.789093,-0.0405308,-0.00220754,0,
10,1.29713,0.801032,-0.0401514,-0.00200206,0,
10,1.32317,0.812007,-0.0397472,-0.00180804,0,
10,1.34951,0.822161,-0.0393207,-0.00162425,0,
10,1.37616,0.831615,-0.0388737,-0.00144947,0,
10,1.40313,0.840466,-0.0384098,-0.00128254,0,
10,1.43043,0.848785,-0.0379274,-0.00112229,0,
10,1.45807,0.856616,-0.0374334,-0.000972356,0,
10,1.48607,0.863995,-0.0369308,-0.000832477,0,
10,1.51444,0.870966,-0.0364179,-0.000705692,0,
10,1.54318,0.877543,-0.0359009,-0.000594174,0,
10,1.57231,0.883717,-0.0353829,-0.000500166,0,
10,1.60184,0.889474,-0.0348683,-0.000424801,0,
10,1.63178,0.894834,-0.0343584,-0.00036702,0,
10,1.66213,0.899852,-0.0338537,-0.000323764,0,
10,1.69292,0.904602,-0.0333542,-0.000291175,0,
10,1.72416,0.909147,-0.0328602,-0.000265725,0,
10,1.75585,0.913523,-0.0323723,-0.000244762,0,
10,1.78802,0.917744,-0.0318914,-0.000226559,0,
10,1.82067,0.921805,-0.0314181,-0.000210093,0,
10,1.85383,0.925693,-0.030953,-0.000194781,0,
10,1.88751,0.929392,-0.0304967,-0.000180292,0,
10,1.92173,0.932886,-0.0300501,-0.000166444,0,
10,1.95652,0.93616,-0.0296134,-0.000153204,0,
10,1.9919,0.93921,-0.0291882,-0.00014069,0,
10,2.02791,0.942048,-0.0287725,-0.00012939,0,
10,2.06456,0.944717,-0.028367,-0.000116854,0,
10,2.10268,0.947328,-0.027963,-0.00010156,0,
10,2.1443,0.949993,-0.0275428,-8.59384e-05,0,
10,2.18977,0.952645,-0.0271112,-6.85771e-05,0,
10,2.23946,0.955161,-0.0266702,-4.98694e-05,0,
10,2.29376,0.957396,-0.0262253,-3.13034e-05,0,
10,2.35309,0.959199,-0.0257821,-1.45183e-05,0,
10,2.4179,0.960435,-0.0253485,-9.59005e-07,0,
10,2.48863,0.961005,-0.0249338,8.42448e-06,0,
10,2.56575,0.960871,-0.0245484,1.33514e-05,0,
10,2.64971,0.960068,-0.0242037,1.42647e-05,0,
10,2.74098,0.958715,-0.0239108,1.22198e-05,0,
10,2.83997,0.95701,-0.0236805,8.67858e-06,0,
10,2.94709,0.955207,-0.0235223,5.10119e-06,0,
10,3.06269,0.953564,-0.0234435,2.4501e-06,0,
10,3.18706,0.952277,-0.0234495,9.50861e-07,0,
10,3.3204,0.951422,-0.0235431,2.99822e-07,0,
10,3.46281,0.95095,-0.0237252,8.12055e-08,0,
10,3.61427,0.950727,-0.0239944,2.25906e-08,0,
10,3.77463,0.950603,-0.0243475,8.96805e-09,0,
10,3.94358,0.95047,-0.0247791,5.88918e-09,0,
10,4.12067,0.950297,-0.0252815,4.85858e-09,0,
10,4.30525,0.950107,-0.0258449,3.84661e-09,0,
10,4.49655,0.949946,-0.0264578,2.56578e-09,0,
10,4.6936,0.949848,-0.0271075,1.19312e-09,0,
10,4.89531,0.949821,-0.0277806,-1.2729e-10,0,
10,5.10047,0.94985,-0.0284639,-1.52131e-09,0,
10,5.30776,0.949911,-0.029145,-3.55356e-09,0,
10,5.51581,0.949983,-0.0298127,-7.59346e-09,0,
10,5.72323,0.950054,-0.0304574,-1.76032e-08,0,
10,5.92863,0.950143,-0.0310708,-4.92608e-08,0,
10,6.13069,0.950309,-0.0316468,-1.63128e-07,0,
10,6.32816,0.950646,-0.0321809,-5.17301e-07,0,
10,6.51991,0.951191,-0.0326704,-1.19037e-06,0,
10,6.70495,0.951724,-0.0331145,-9.15485e-07,0,
10,6.88244,0.951539,-0.0335126,5.77506e-06,0,
10,7.0517,0.949398,-0.033867,3.03975e-05,0,
10,7.21224,0.943878,-0.0341761,8.74796e-05,0,
10,7.3637,0.934054,-0.0344459,0.000188268,0,
10,7.5059,0.919921,-0.0346797,0.000321305,0,
10,7.63878,0.902024,-0.0348772,0.000444357,0,
10,7.76243,0.881497,-0.035049,0.00058368,0,
10,7.87701,0.860214,-0.0351842,0.000729863,0,
10,7.9828,0.839762,-0.0352978,0.000864576,0,
10,8.08014,0.820931,-0.035387,0.000980023,0,
10,8.16941,0.803819,-0.0354619,0.00107584,0,
10,8.25106,0.788143,-0.0355243,0.00115516,0,
10,8.32554,0.773496,-0.0355802,0.00122037,0,
10,8.39331,0.759493,-0.0356302,0.00127421,0,
10,8.45484,0.745835,-0.035676,0.00131939,0,
10,8.5106,0.732337,-0.035717,0.0013578,0,
10,8.56104,0.71891,-0.0357533,0.00139026,0,
10,8.60659,0.705536,-0.0357851,0.00141709,0,
10,8.64767,0.692251,-0.0358128,0.00143843,0,
10,8.68467,0.679116,-0.0358369,0.00145451,0,
10,8.71795,0.666192,-0.0358581,0.00146576,0,
10,8.74786,0.653508,-0.0358773,0.0014727,0,
10,8.77471,0.641012,-0.035895,0.00146705,0,
10,8.79881,0.628646,-0.0359103,0.00146068,0,
10,8.8204,0.616412,-0.0359235,0.00145196,0,
10,8.83975,0.604319,-0.0359347,0.0014406,0,
10,8.85708,0.592364,-0.0359445,0.00142713,0,
10,8.87259,0.580538,-0.0359528,0.00141203,0,
10,8.88646,0.568826,-0.03596,0.00139572,0,
10,8.89886,0.557211,-0.0359661,0.00137856,0,
10,8.90995,0.545669,-0.0359713,0.00136081,0,
10,8.91986,0.534175,-0.0359758,0.0013427,0,
10,8.92872,0.522702,-0.0359796,0.00132437,0,
10,8.93663,0.51122,-0.0359828,0.00130592,0,
10,8.94369,0.499697,-0.0359856,0.00128736,0,
10,8.95,0.488101,-0.0359879,0.00126867,0,
10,8.95564,0.476395,-0.0359899,0.00124976,0,
10,8.96067,0.464542,-0.0359915,0.00123053,0,
10,8.96517,0.452504,-0.0359929,0.00121076,0,
10,8.96918,0.440236,-0.035994,0.00119019,0,
10,8.97276,0.427695,-0.0359951,0.00116849,0,
10,8.97596,0.414827,-0.0359959,0.00114527,0,
10,8.97882,0.401578,-0.0359967,0.00112,0,
10,8.98137,0.387885,-0.0359972,0.0010921,0,
10,8.98365,0.373678,-0.0359979,0.00106175,0,
10,8.98569,0.358849,-0.0359981,0.00102841,0,
10,8.9875,0.343155,-0.0359988,0.000979358,0,
10,8.98913,0.326253,-0.0359988,0.000920013,0,
10,8.99058,0.307843,-0.0359994,0.000846976,0,
10,8.99188,0.287641,-0.0359993,0.000757043,0,
10,8.99304,0.265383,-0.0359998,0.000648243,0,
10,8.99408,0.240742,-0.0359995,0.000506845,0,
10,8.99501,0.21341,-0.0360002,0.000334554,0,
10,8.99583,0.18392,-0.0359997,0.000186787,0,
10,8.99658,0.153896,-0.0360003,8.40926e-05,0,
10,8.99724,0.125001,-0.0359997,2.99767e-05,0,
10,8.99784,0.0982883,-0.0360004,8.37867e-06,0,
10,8.99837,0.0741131,-0.0359997,1.7702e-06,0,
10,8.99885,0.0524153,-0.0360005,2.54248e-07,0,
10,8.99927,0.0329854,-0.0359997,1.93182e-08,0,
10,8.99966,0.0155892,-0.0360006,4.27552e-10,0,
10,9,0,-0.0359996,0,0,

0.0416667,0,0,-0.237474,0,3.32921e-06,
0.0833333,0,0,-0.237644,0,5.99605e-06,
0.125,0,0,-0.237584,0,8.10516e-06,
0.166667,0,0,-0.237641,0,1.31552e-05,
0.208333,0,0,-0.237662,0,1.81429e-05,
0.25,0,0,-0.23772,0,2.33334e-05,
0.291667,0,0,-0.237781,0,2.79317e-05,
0.333333,0,0,-0.237857,0,3.2137e-05,
0.375,0,0,-0.237943,0,3.61305e-05,
0.416667,0,0,-0.23804,0,4.04589e-05,
0.458333,0,0,-0.238152,0,4.56168e-05,
0.5,0,0,-0.238282,0,5.20013e-05,
0.541667,0,0,-0.238435,0,5.97368e-05,
0.583333,0,0,-0.238613,0,6.85807e-05,
0.625,0,0,-0.238819,0,7.79143e-05,
0.666667,0,0,-0.239051,0,8.68295e-05,
0.708333,0,0,-0.239306,0,9.4418e-05,
0.75,0,0,-0.239578,0,0.000100053,
0.791667,0,0,-0.239867,0,0.000103509,
0.833333,0,0,-0.240178,0,0.000104988,
0.875,0,0,-0.240525,0,0.000104747,
0.916667,0,0,-0.240932,0,0.000102379,
0.958333,0,0,-0.241425,0,9.64464e-05,
1,0,0,-0.242034,0,8.42934e-05,
1.04167,0,0,-0.242788,0,6.2316e-05,
1.08333,0,0,-0.243705,0,2.68246e-05,
1.125,0,0,-0.244786,0,-2.49013e-05,
1.16667,0,0,-0.246011,0,-9.35478e-05,
1.20833,0,0,-0.247334,0,-0.000177156,
1.25,0,0,-0.248695,0,-0.000271495,
1.29167,0,0,-0.250036,0,-0.000371336,
1.33333,0,0,-0.251304,0,-0.000471925,
1.375,0,0,-0.252461,0,-0.000569924,
1.41667,0,0,-0.253479,0,-0.000663577,
1.45833,0,0,-0.254343,0,-0.000752312,
1.5,0,0,-0.255041,0,-0.000836198,
1.54167,0,0,-0.255567,0,-0.00091553,
1.58333,0,0,-0.255918,0,-0.000990614,
1.625,0,0,-0.256091,0,-0.00106169,
1.66667,0,0,-0.256086,0,-0.00112893,
1.70833,0,0,-0.255902,0,-0.00119245,
1.75,0,0,-0.255541,0,-0.00125235,
1.79167,0,0,-0.255003,0,-0.00130869,
1.83333,0,0,-0.254291,0,-0.00136153,
1.875,0,0,-0.253407,0,-0.00141093,
1.91667,0,0,-0.252356,0,-0.00145692,
1.95833,0,0,-0.25114,0,-0.00149957,
2,0,0,-0.249765,0,-0.0015389,
2.04167,0,0,-0.248236,0,-0.00157498,
2.08333,0,0,-0.246558,0,-0.00160783,
2.125,0,0,-0.244736,0,-0.0016375,
2.16667,0,0,-0.242777,0,-0.00166407,
2.20833,0,0,-0.240688,0,-0.00168759,
2.25,0,0,-0.238474,0,-0.00170816,
2.29167,0,0,-0.236143,0,-0.00172586,
2.33333,0,0,-0.2337,0,-0.00174079,
2.375,0,0,-0.231152,0,-0.00175306,
2.41667,0,0,-0.228506,0,-0.00176277,
2.45833,0,0,-0.225768,0,-0.00177003,
2.5,0,0,-0.222945,0,-0.00177493,
2.54167,0,0,-0.220042,0,-0.00177756,
2.58333,0,0,-0.217065,0,-0.00177801,
2.625,0,0,-0.214021,0,-0.00177635,
2.66667,0,0,-0.210916,0,-0.00177268,
2.70833,0,0,-0.207756,0,-0.00176707,
2.75,0,0,-0.204546,0,-0.00175962,
2.79167,0,0,-0.201291,0,-0.00175043,
2.83333,0,0,-0.197998,0,-0.00173958,
2.875,0,0,-0.194672,0,-0.00172717,
2.91667,0,0,-0.191316,0,-0.00171329,
2.95833,0,0,-0.187935,0,-0.00169801,
3,0,0,-0.184535,0,-0.00168142,
3.04167,0,0,-0.181119,0,-0.00166356,
3.08333,0,0,-0.177691,0,-0.00164452,
3.125,0,0,-0.174255,0,-0.00162436,
3.16667,0,0,-0.170814,0,-0.00160316,
3.20833,0,0,-0.167373,0,-0.00158099,
3.25,0,0,-0.163933,0,-0.00155791,
3.29167,0,0,-0.160498,0,-0.00153399,
3.33333,0,0,-0.157071,0,-0.00150927,
3.375,0,0,-0.153654,0,-0.00148379,
3.41667,0,0,-0.15025,0,-0.0014576,
3.45833,0,0,-0.14686,0,-0.00143076,
3.5,0,0,-0.143487,0,-0.00140331,
3.54167,0,0,-0.140132,0,-0.00137531,
3.58333,0,0,-0.136798,0,-0.00134677,
3.625,0,0,-0.133485,0,-0.00131772,
3.66667,0,0,-0.130196,0,-0.00128818,
3.70833,0,0,-0.126931,0,-0.00125817,
3.75,0,0,-0.123693,0,-0.00122771,
3.79167,0,0,-0.120482,0,-0.00119685,
3.83333,0,0,-0.1173,0,-0.00116561,
3.875,0,0,-0.114148,0,-0.00113403,
3.91667,0,0,-0.111026,0,-0.00110214,
3.95833,0,0,-0.107935,0,-0.00106997,
4,0,0,-0.104876,0,-0.00103753,
4.04167,0,0,-0.101849,0,-0.00100487,
4.08333,0,0,-0.0988549,0,-0.000971997,
4.125,0,0,-0.0958933,0,-0.000938942,
4.16667,0,0,-0.0929644,0,-0.000905719,
4.20833,0,0,-0.0900682,0,-0.000872338,
4.25,0,0,-0.0872048,0,-0.000838803,
4.29167,0,0,-0.0843742,0,-0.000805116,
4.33333,0,0,-0.0815762,0,-0.000771278,
4.375,0,0,-0.0788109,0,-0.000737294,
4.41667,0,0,-0.0760781,0,-0.000703166,
4.45833,0,0,-0.0733775,0,-0.0006689,
4.5,0,0,-0.070709,0,-0.000634494,
4.54167,0,0,-0.0680723,0,-0.000599946,
4.58333,0,0,-0.0654673,0,-0.000565249,
4.625,0,0,-0.0628936,0,-0.000530394,
4.66667,0,0,-0.0603513,0,-0.000495373,
4.70833,0,0,-0.05784,0,-0.000460177,
4.75,0,0,-0.0553598,0,-0.000424798,
4.79167,0,0,-0.0529106,0,-0.000389227,
4.83333,0,0,-0.0504924,0,-0.000353452,
4.875,0,0,-0.0481056,0,-0.000317466,
4.91667,0,0,-0.0457508,0,-0.000281273,
4.95833,0,0,-0.0434286,0,-0.000244898,
5,0,0,-0.04114,0,-0.000208397,
5.04167,0,0,-0.0388859,0,-0.000171852,
5.08333,0,0,-0.0366662,0,-0.000135342,
5.125,0,0,-0.0344804,0,-9.89086e-05,
5.16667,0,0,-0.0323273,0,-6.25448e-05,
5.20833,0,0,-0.0302062,0,-2.62234e-05,
5.25,0,0,-0.0281163,0,1.00845e-05,
5.29167,0,0,-0.0260571,0,4.64016e-05,
5.33333,0,0,-0.024028,0,8.27456e-05,
5.375,0,0,-0.0220287,0,0.00011913,
5.41667,0,0,-0.0200591,0,0.000155564,
5.45833,0,0,-0.0181188,0,0.000192054,
5.5,0,0,-0.0162079,0,0.000228605,
5.54167,0,0,-0.0143265,0,0.000265221,
5.58333,0,0,-0.0124745,0,0.0003019,
5.625,0,0,-0.0106524,0,0.000338637,
5.66667,0,0,-0.00886041,0,0.000375425,
5.70833,0,0,-0.00709886,0,0.000412254,
5.75,0,0,-0.00536828,0,0.000449114,
5.79167,0,0,-0.00366924,0,0.000485988,
5.83333,0,0,-0.00200234,0,0.000522856,
5.875,0,0,-0.000368255,0,0.000559701,
5.91667,0,0,0.00123229,0,0.000596497,
5.95833,0,0,0.00279849,0,0.000633219,
6,0,0,0.00432959,0,0.000669838,
6.04167,0,0,0.00582476,0,0.000706322,
6.08333,0,0,0.00728312,0,0.00074264,
6.125,0,0,0.00870376,0,0.000778755,
6.16667,0,0,0.0100858,0,0.000814631,
6.20833,0,0,0.0114282,0,0.000850229,
6.25,0,0,0.01273,0,0.000885511,
6.29167,0,0,0.0139905,0,0.000920435,
6.33333,0,0,0.0152085,0,0.000954961,
6.375,0,0,0.0163833,0,0.000989049,
6.41667,0,0,0.0175141,0,0.00102266,
6.45833,0,0,0.0186,0,0.00105575,
6.5,0,0,0.0196404,0,0.00108829,
6.54167,0,0,0.0206345,0,0.00112023,
6.58333,0,0,0.0215817,0,0.00115154,
6.625,0,0,0.0224814,0,0.00118218,
6.66667,0,0,0.0233331,0,0.00121212,
6.70833,0,0,0.0241363,0,0.00124133,
6.75,0,0,0.0248906,0,0.00126978,
6.79167,0,0,0.0255958,0,0.00129744,
6.83333,0,0,0.0262514,0,0.00132428,
6.875,0,0,0.0268573,0,0.0013503,
6.91667,0,0,0.0274133,0,0.00137545,
6.95833,0,0,0.0279196,0,0.00139973,
7,0,0,0.0283761,0,0.00142312,
7.04167,0,0,0.0287828,0,0.00144559,
7.08333,0,0,0.0291399,0,0.00146711,
7.125,0,0,0.0294472,0,0.00148766,
7.16667,0,0,0.0297052,0,0.00150722,
7.20833,0,0,0.0299139,0,0.00152577,
7.25,0,0,0.0300738,0,0.0015433,
7.29167,0,0,0.0301852,0,0.0015598,
7.33333,0,0,0.0302488,0,0.00157527,
7.375,0,0,0.0302648,0,0.00158972,
7.41667,0,0,0.0302339,0,0.00160313,
7.45833,0,0,0.0301565,0,0.00161552,
7.5,0,0,0.0300332,0,0.00162687,
7.54167,0,0,0.0298643,0,0.0016372,
7.58333,0,0,0.0296503,0,0.0016465,
7.625,0,0,0.0293919,0,0.00165478,
7.66667,0,0,0.0290895,0,0.00166206,
7.70833,0,0,0.0287435,0,0.00166832,
7.75,0,0,0.0283544,0,0.00167359,
7.79167,0,0,0.0279227,0,0.00167787,
7.83333,0,0,0.0274481,0,0.00168116,
7.875,0,0,0.0269305,0,0.00168353,
7.91667,0,0,0.0263827,0,0.00168573,
7.95833,0,0,0.0257199,0,0.00168591,
8,0,0,0.0251477,0,0.00168566,
8.04171,0,0,0.0245807,0,0.00168545,
8.08368,0,0,0.0238306,0,0.00168406,
8.12617,0,0,0.0230896,0,0.00167952,
8.16946,0,0,0.0222942,0,0.0016738,
8.21382,0,0,0.02143,0,0.00166683,
8.25952,0,0,0.0204991,0,0.00165846,
8.30685,0,0,0.0194921,0,0.00164877,
8.35611,0,0,0.0183993,0,0.00163773,
8.40762,0,0,0.0172109,0,0.00162529,
8.46168,0,0,0.0159154,0,0.00161141,
8.51865,0,0,0.0145007,0,0.00159607,
8.57889,0,0,0.0129538,0,0.0015793,
8.64276,0,0,0.0112615,0,0.0015612,
8.71067,0,0,0.00941028,0,0.00154195,
8.78306,0,0,0.00738704,0,0.00152185,
8.86037,0,0,0.00517947,0,0.00150135,
8.94309,0,0,0.00277613,0,0.001481,
9.03174,0,0,0.000165803,0,0.00146143,
9.12689,0,0,-0.00266277,0,0.00144328,
9.22912,0,0,-0.00572474,0,0.00142712,
9.33908,0,0,-0.00904947,0,0.00141314,
9.45746,0,0,-0.0126847,0,0.0014009,
9.58501,0,0,-0.016683,0,0.00138924,
9.72253,0,0,-0.0210672,0,0.00137645,
9.87088,0,0,-0.0257693,0,0.00136093,
10.031,0,0,-0.0305474,0,0.00134225,
10.2039,0,0,-0.0349016,0,0.00132251,
10.3906,0,0,-0.0380394,0,0.00130757,
10.5924,0,0,-0.0389671,0,0.00130712,
10.8105,0,0,-0.0367377,0,0.00133284,
11.0463,0,0,-0.0308483,0,0.00139428,
11.3012,0,0,-0.0216371,0,0.00149365,
11.5769,0,0,-0.0103689,0,0.00162284,
11.8751,0,0,0.00116879,0,0.00176604,
12.1977,0,0,0.0113635,0,0.00190757,
12.5466,0,0,0.0192458,0,0.002038,
12.9242,0,0,0.0245121,0,0.00214998,
13.3327,0,0,0.0273122,0,0.00223824,
13.7748,0,0,0.0280354,0,0.00229938,
14.2532,0,0,0.027182,0,0.00233726,
14.7709,0,0,0.0252828,0,0.00235979,
15.3312,0,0,0.0228314,0,0.00237173,
15.9377,0,0,0.0202251,0,0.0023776,
16.594,0,0,0.0177298,0,0.00238117,
17.3044,0,0,0.0154851,0,0.00238457,
18.0733,0,0,0.0135534,0,0.00238812,
18.9056,0,0,0.0119632,0,0.00239201,
19.8064,0,0,0.0107172,0,0.00239685,
20.7816,0,0,0.00978235,0,0.00240315,
21.8371,0,0,0.00908833,0,0.00241076,
22.9796,0,0,0.00854941,0,0.00241863,
24.2163,0,0,0.00808989,0,0.00242728,
25.5551,0,0,0.00765727,0,0.00243707,
27.0042,0,0,0.00722443,0,0.00244823,
28.5729,0,0,0.00678015,0,0.00245938,
30.271,0,0,0.00631714,0,0.00247002,
32.1091,0,0,0.00582467,0,0.00248046,
34.0989,0,0,0.00528815,0,0.0024913,
36.2529,0,0,0.00468341,0,0.00250248,
38.5845,0,0,0.00399031,0,0.00251213,
41.1085,0,0,0.00322727,0,0.00252027,
43.8407,0,0,0.00221345,0,0.00252739,
46.7983,0,0,0.00117346,0,0.00253364,
50,0,0,0.00231619,0,0.00254988,

