ef9d4aa8115a5ba792adda9b6106327390593cac 
X,Z,x_velocity,cp,uw_b,cf,
1,0,0,-0.222455,0,0,
1,9,0,-0.131885,0,0,
1,8.99969,0.0154554,-0.131884,2.88812e-10,0,
1,8.99934,0.0329891,-0.131885,1.34993e-08,0,
1,8.99894,0.0528985,-0.131884,1.86203e-07,0,
1,8.99848,0.0754981,-0.131885,1.36488e-06,0,
1,8.99797,0.101101,-0.131884,6.82038e-06,0,
1,8.99739,0.129902,-0.131884,2.58039e-05,0,
1,8.99672,0.161703,-0.131884,7.63839e-05,0,
1,8.99597,0.195558,-0.131884,0.000177383,0,
1,8.99512,0.22981,-0.131884,0.000326566,0,
1,8.99416,0.262801,-0.131884,0.000495177,0,
1,8.99306,0.293559,-0.131884,0.00065378,0,
1,8.99182,0.321915,-0.131884,0.000781228,0,
1,8.99041,0.348012,-0.131883,0.000886868,0,
1,8.98881,0.372007,-0.131883,0.000974063,0,
1,8.98699,0.394118,-0.131882,0.00104516,0,
1,8.98494,0.414632,-0.131882,0.00110114,0,
1,8.98261,0.433861,-0.131881,0.0011438,0,
1,8.97996,0.452047,-0.13188,0.00117954,0,
1,8.97696,0.469361,-0.131879,0.00120912,0,
1,8.97356,0.485945,-0.131877,0.00123382,0,
1,8.9697,0.501917,-0.131876,0.0012546,0,
1,8.96533,0.517376,-0.131874,0.00127218,0,
1,8.96038,0.532405,-0.131872,0.00128707,0,
1,8.95476,0.547073,-0.13187,0.00129964,0,
1,8.9484,0.56144,-0.131867,0.00131016,0,
1,8.9412,0.575556,-0.131865,0.00131881,0,
1,8.93303,0.589464,-0.131862,0.00132568,0,
1,8.92379,0.6032,-0.131859,0.00133084,0,
1,8.91333,0.616798,-0.131856,0.0013343,0,
1,8.90149,0.630284,-0.131853,0.00133604,0,
1,8.8881,0.643683,-0.13185,0.001336,0,
1,8.87295,0.657018,-0.131847,0.00133412,0,
1,8.85584,0.670308,-0.131845,0.0013303,0,
1,8.83651,0.683572,-0.131843,0.00132442,0,
1,8.81469,0.696831,-0.131843,0.00131637,0,
1,8.79007,0.710104,-0.131845,0.00130598,0,
1,8.76232,0.723414,-0.131849,0.00129306,0,
1,8.73107,0.736786,-0.131856,0.00127739,0,
1,8.69591,0.75025,-0.131868,0.00125869,0,
1,8.6564,0.763843,-0.131886,0.00123659,0,
1,8.61206,0.777611,-0.131912,0.00121069,0,
1,8.56236,0.791612,-0.131947,0.00118062,0,
1,8.50675,0.805922,-0.131996,0.00114726,0,
1,8.44464,0.820674,-0.132061,0.00110806,0,
1,8.3754,0.836089,-0.132146,0.00105653,0,
1,8.29839,0.852423,-0.132258,0.000993215,0,
1,8.21296,0.86992,-0.132404,0.000913569,0,
1,8.11843,0.888772,-0.132588,0.000812343,0,
1,8.01417,0.908969,-0.132826,0.000686138,0,
1,7.89956,0.930059,-0.133112,0.000538566,0,
1,7.77403,0.950913,-0.133485,0.000388249,0,
1,7.63711,0.969917,-0.133932,0.000203182,0,
1,7.48842,0.984736,-0.134461,7.48345e-05,0,
1,7.32773,0.993452,-0.135094,1.77382e-05,0,
1,7.15495,0.996579,-0.13583,1.71497e-06,0,
1,6.97022,0.996609,-0.136683,1.92084e-08,0,
1,6.77388,0.995987,-0.137668,3.39605e-09,0,
1,6.56652,0.995873,-0.138799,9.51925e-09,0,
1,6.34896,0.996326,-0.140089,1.23404e-08,0,
1,6.12229,0.997047,-0.141551,1.39099e-08,0,
1,5.88784,0.997837,-0.143198,1.47084e-08,0,
1,5.64716,0.99866,-0.145042,1.56226e-08,0,
1,5.40194,0.999546,-0.14709,1.69035e-08,0,
1,5.15407,1.00052,-0.149347,1.85066e-08,0,
1,4.90545,1.00159,-0.151814,2.02078e-08,0,
1,4.65805,1.00276,-0.154487,2.20171e-08,0,
1,4.41376,1.00402,-0.157355,2.38814e-08,0,
1,4.17441,1.00536,-0.160403,2.5567e-08,0,
1,3.94163,1.00671,-0.16361,2.69185e-08,0,
1,3.7169,1.00803,-0.166947,2.85628e-08,0,
1,3.50146,1.0094,-0.17038,3.24496e-08,0,
1,3.29629,1.01112,-0.173878,4.05731e-08,0,
1,3.10217,1.01357,-0.177408,5.09894e-08,0,
1,2.91959,1.01653,-0.180944,9.30653e-08,0,
1,2.74885,1.01853,-0.184445,8.33846e-07,0,
1,2.59002,1.01714,-0.187853,-7.2627e-06,0,
1,2.44299,1.01068,-0.19111,-5.54538e-05,0,
1,2.30752,0.999373,-0.194155,-0.000155961,0,
1,2.18321,0.984701,-0.196936,-0.000294323,0,
1,2.06959,0.968248,-0.19949,-0.000412556,0,
1,1.9661,0.951287,-0.201801,-0.000515423,0,
1,1.87215,0.934742,-0.203835,-0.00061135,0,
1,1.78711,0.919116,-0.205633,-0.000695787,0,
1,1.71033,0.90456,-0.207209,-0.00076863,0,
1,1.64119,0.891036,-0.208586,-0.000831391,0,
1,1.57905,0.878432,-0.209785,-0.000886258,0,
1,1.52332,0.866614,-0.210825,-0.000935389,0,
1,1.47342,0.855475,-0.211732,-0.000981081,0,
1,1.42882,0.844928,-0.212501,-0.00101441,0,
1,1.389,0.834893,-0.213146,-0.00103843,0,
1,1.35351,0.825304,-0.213703,-0.00106075,0,
1,1.3219,0.816126,-0.214176,-0.00108075,0,
1,1.29378,0.807337,-0.214581,-0.0010982,0,
1,1.26878,0.798927,-0.214927,-0.00111317,0,
1,1.24659,0.79089,-0.215221,-0.00112607,0,
1,1.22689,0.78322,-0.215471,-0.00113703,0,
1,1.2092,0.775828,-0.215688,-0.00114503,0,
1,1.1932,0.768664,-0.215875,-0.0011508,0,
1,1.1787,0.761712,-0.216037,-0.00115487,0,
1,1.16554,0.754955,-0.216178,-0.00115795,0,
1,1.15357,0.748366,-0.216299,-0.0011615,0,
1,1.14266,0.741904,-0.216404,-0.00116813,0,
1,1.13268,0.735514,-0.216494,-0.00118121,0,
1,1.12354,0.729118,-0.216573,-0.00120534,0,
1,1.11514,0.722615,-0.216642,-0.00124617,0,
1,1.10739,0.715878,-0.216704,-0.0013101,0,
1,1.10022,0.708762,-0.216763,-0.00140372,0,
1,1.09357,0.701111,-0.216822,-0.001533,0,
1,1.08738,0.692784,-0.216882,-0.00170224,0,
1,1.0816,0.683677,-0.216947,-0.00191295,0,
1,1.07618,0.673753,-0.217017,-0.00216291,0,
1,1.07107,0.663055,-0.217093,-0.0024461,0,
1,1.06626,0.651691,-0.217174,-0.00275346,0,
1,1.06169,0.639814,-0.21726,-0.00307456,0,
1,1.05735,0.62759,-0.21735,-0.00339927,0,
1,1.05321,0.615174,-0.217444,-0.003719,0,
1,1.04925,0.602696,-0.217539,-0.00402726,0,
1,1.04544,0.59026,-0.217636,-0.00431961,0,
1,1.04177,0.577939,-0.217734,-0.00459335,0,
1,1.03822,0.565784,-0.217832,-0.00484709,0,
1,1.03478,0.553829,-0.21793,-0.00508037,0,
1,1.03144,0.542091,-0.218028,-0.00529338,0,
1,1.02818,0.53058,-0.218125,-0.00548666,0,
1,1.025,0.519296,-0.218222,-0.00566103,0,
1,1.02188,0.508237,-0.218319,-0.00581737,0,
1,1.01882,0.497395,-0.218414,-0.00595663,0,
1,1.01581,0.486762,-0.218509,-0.00607991,0,
1,1.01284,0.476328,-0.218602,-0.00618777,0,
1,1.00988,0.46597,-0.218696,-0.00628181,0,
1,1.00688,0.455568,-0.218792,-0.00636383,0,
1,1.00384,0.445113,-0.218889,-0.00643374,0,
1,1.00076,0.434593,-0.218987,-0.00649154,0,
1,0.997615,0.423995,-0.219086,-0.0065372,0,
1,0.99441,0.413302,-0.219187,-0.00657018,0,
1,0.991131,0.402492,-0.219289,-0.00658991,0,
1,0.987768,0.391539,-0.219393,-0.00659654,0,
1,0.984308,0.380417,-0.219498,-0.0065897,0,
1,0.980739,0.369094,-0.219604,-0.00656888,0,
1,0.977045,0.35754,-0.219713,-0.00653347,0,
1,0.973211,0.345719,-0.219823,-0.00648268,0,
1,0.969219,0.333595,-0.219936,-0.00641557,0,
1,0.965047,0.32113,-0.220051,-0.00633104,0,
1,0.960675,0.308281,-0.220168,-0.0062278,0,
1,0.956077,0.295005,-0.220287,-0.00610357,0,
1,0.951224,0.281259,-0.220409,-0.0059576,0,
1,0.946088,0.267007,-0.220534,-0.00578859,0,
1,0.940633,0.252216,-0.220662,-0.00559421,0,
1,0.934823,0.236859,-0.220791,-0.00537261,0,
1,0.928616,0.220914,-0.220924,-0.00512208,0,
1,0.921967,0.20437,-0.221057,-0.00484106,0,
1,0.914826,0.18723,-0.221192,-0.00452845,0,
1,0.907141,0.169517,-0.221327,-0.00418376,0,
1,0.898852,0.151285,-0.221462,-0.00380751,0,
1,0.889898,0.132625,-0.221595,-0.0034017,0,
1,0.880212,0.113692,-0.221726,-0.00297051,0,
1,0.869723,0.0947241,-0.221855,-0.00252132,0,
1,0.858358,0.0760852,-0.221984,-0.00206641,0,
1,0.846039,0.0583069,-0.222113,-0.00162515,0,
1,0.83269,0.0420962,-0.222245,-0.00122444,0,
1,0.818232,0.0282166,-0.222382,-0.000894256,0,
1,0.802744,0.0172379,-0.222519,-0.000648089,0,
1,0.78635,0.00908554,-0.222663,-0.000477274,0,
1,0.768969,0.00309898,-0.222803,-0.000367287,0,
1,0.75053,-0.00145836,-0.222939,-0.000301994,0,
1,0.730977,-0.00517615,-0.22306,-0.00026709,0,
1,0.710271,-0.00845468,-0.223168,-0.000251262,0,
1,0.688397,-0.0115402,-0.22326,-0.000247172,0,
1,0.66536,-0.0145782,-0.223338,-0.000248904,0,
1,0.641194,-0.0176594,-0.223402,-0.000252288,0,
1,0.615961,-0.0208329,-0.223451,-0.00025474,0,
1,0.589754,-0.0241121,-0.223485,-0.000254495,0,
1,0.562692,-0.0274825,-0.223503,-0.000250651,0,
1,0.534925,-0.0309079,-0.223504,-0.000242902,0,
1,0.506624,-0.0343366,-0.223485,-0.000231351,0,
1,0.477982,-0.0377074,-0.223447,-0.00021633,0,
1,0.449206,-0.0409538,-0.223388,-0.000198294,0,
1,0.420509,-0.044007,-0.22331,-0.000177742,0,
1,0.392107,-0.0467976,-0.223215,-0.000155174,0,
1,0.364206,-0.0492576,-0.223106,-0.000131064,0,
1,0.337003,-0.05132,-0.222987,-0.000105833,0,
1,0.310673,-0.0529202,-0.222863,-7.98797e-05,0,
1,0.28537,-0.0539965,-0.222739,-5.35798e-05,0,
1,0.26122,-0.0544917,-0.222622,-2.7323e-05,0,
1,0.238324,-0.0543571,-0.222514,-1.55808e-06,0,
1,0.21675,-0.0535564,-0.222421,2.31688e-05,0,
1,0.196544,-0.0520731,-0.222345,4.62053e-05,0,
1,0.177724,-0.0499168,-0.222288,6.68307e-05,0,
1,0.160284,-0.0471285,-0.22225,8.4338e-05,0,
1,0.144202,-0.0437829,-0.222229,9.8139e-05,0,
1,0.129436,-0.0399847,-0.222224,0.000107857,0,
1,0.115935,-0.0358607,-0.222231,0.000113376,0,
1,0.103636,-0.0315479,-0.222246,0.000114845,0,
1,0.0924701,-0.0271806,-0.222268,0.000112665,0,
1,0.0823633,-0.0228792,-0.222292,0.000107398,0,
1,0.0732406,-0.0187418,-0.222318,9.96875e-05,0,
1,0.0650269,-0.0148392,-0.222342,9.01783e-05,0,
1,0.057648,-0.0112152,-0.222365,7.94715e-05,0,
1,0.0510323,-0.00788908,-0.222386,6.80955e-05,0,
1,0.0451115,-0.00486154,-0.222403,5.65109e-05,0,
1,0.0398209,-0.00212165,-0.222418,4.51304e-05,0,
1,0.0351001,0.000343365,-0.222429,3.44335e-05,0,
1,0.0308929,0.00254006,-0.222438,2.45542e-05,0,
1,0.0271475,0.00446026,-0.222444,1.59353e-05,0,
1,0.0238164,0.00607149,-0.222448,9.05339e-06,0,
1,0.0208562,0.0073218,-0.222451,4.29189e-06,0,
1,0.0182274,0.00816426,-0.222453,1.57421e-06,0,
1,0.0158944,0.0085906,-0.222453,3.43861e-07,0,
1,0.0138249,0.00864467,-0.222454,-6.93871e-08,0,
1,0.0119898,0.00840475,-0.222454,-1.41283e-07,0,
1,0.0103632,0.0079559,-0.222454,-1.10773e-07,0,
1,0.00892169,0.00737194,-0.222455,-6.79794e-08,0,
1,0.00764438,0.00670997,-0.222455,-3.66736e-08,0,
1,0.00651264,0.00601151,-0.222455,-1.80745e-08,0,
1,0.00550983,0.00530581,-0.222455,-8.24791e-09,0,
1,0.00462115,0.00461283,-0.222455,-3.48961e-09,0,
1,0.00383341,0.00394584,-0.222455,-1.35939e-09,0,
1,0.0031349,0.00331314,-0.222455,-4.8028e-10,0,
1,0.00251518,0.00271949,-0.222455,-1.49996e-10,0,
1,0.00196502,0.00216708,-0.222455,-3.97005e-11,0,
1,0.00147619,0.00165627,-0.222455,-8.29116e-12,0,
1,0.00104139,0.00118618,-0.222455,-1.19976e-12,0,
1,0.000654158,0.000755072,-0.222455,-9.25032e-14,0,
1,0.000308731,0.000360626,-0.222455,-2.0849e-15,0,

4,0,0,-0.180721,0,0,
4,9,0,-0.102117,0,0,
4,8.99969,0.014343,-0.102117,2.28048e-10,0,
4,8.99934,0.0305583,-0.102117,1.058e-08,0,
4,8.99894,0.0489089,-0.102117,1.44462e-07,0,
4,8.9985,0.0696726,-0.102117,1.04844e-06,0,
4,8.99799,0.0931317,-0.102117,5.20228e-06,0,
4,8.99742,0.119488,-0.102117,1.96843e-05,0,
4,8.99677,0.14865,-0.102117,5.89957e-05,0,
4,8.99605,0.179927,-0.102117,0.000140692,0,
4,8.99522,0.211952,-0.102117,0.000268371,0,
4,8.99429,0.243176,-0.102116,0.000421419,0,
4,8.99324,0.272542,-0.102116,0.000571792,0,
4,8.99205,0.299678,-0.102116,0.0007014,0,
4,8.9907,0.324665,-0.102115,0.000805723,0,
4,8.98919,0.347675,-0.102115,0.000893555,0,
4,8.98747,0.368896,-0.102114,0.000966556,0,
4,8.98553,0.388597,-0.102113,0.0010241,0,
4,8.98334,0.407058,-0.102112,0.00107027,0,
4,8.98087,0.424501,-0.102111,0.00110926,0,
4,8.97807,0.441093,-0.10211,0.0011423,0,
4,8.97491,0.456976,-0.102108,0.0011707,0,
4,8.97134,0.472269,-0.102106,0.00119544,0,
4,8.96731,0.487072,-0.102104,0.00121724,0,
4,8.96276,0.501469,-0.102102,0.00123662,0,
4,8.95762,0.515532,-0.102099,0.00125395,0,
4,8.95182,0.529324,-0.102095,0.00126949,0,
4,8.94526,0.542897,-0.102092,0.0012834,0,
4,8.93787,0.556297,-0.102087,0.00129574,0,
4,8.92952,0.569563,-0.102082,0.00130653,0,
4,8.92011,0.58273,-0.102077,0.00131573,0,
4,8.90949,0.595826,-0.102071,0.00132326,0,
4,8.89751,0.608876,-0.102065,0.00132899,0,
4,8.88402,0.621901,-0.102058,0.00133278,0,
4,8.86881,0.634918,-0.102051,0.00133448,0,
4,8.85169,0.647943,-0.102044,0.0013339,0,
4,8.83242,0.66099,-0.102037,0.00133087,0,
4,8.81074,0.67407,-0.10203,0.00132521,0,
4,8.78637,0.687195,-0.102023,0.00131675,0,
4,8.75901,0.700379,-0.102017,0.0013053,0,
4,8.7283,0.713638,-0.102013,0.00129067,0,
4,8.69387,0.72699,-0.102011,0.00127266,0,
4,8.65533,0.740461,-0.102012,0.00125102,0,
4,8.61222,0.754082,-0.102017,0.00122542,0,
4,8.56407,0.767897,-0.102028,0.00119544,0,
4,8.5104,0.781959,-0.102047,0.00116076,0,
4,8.45065,0.796343,-0.102075,0.00112286,0,
4,8.38429,0.811194,-0.102118,0.00107707,0,
4,8.31073,0.826753,-0.102176,0.00101974,0,
4,8.22941,0.843293,-0.102255,0.000949243,0,
4,8.13974,0.86108,-0.102359,0.000861184,0,
4,8.04115,0.880283,-0.102489,0.000751941,0,
4,7.93313,0.900781,-0.102652,0.000621884,0,
4,7.81519,0.921861,-0.102842,0.00048038,0,
4,7.68693,0.942051,-0.103083,0.000344899,0,
4,7.54803,0.959458,-0.103359,0.000201828,0,
4,7.39831,0.972188,-0.103688,8.83967e-05,0,
4,7.23771,0.979383,-0.104087,2.7161e-05,0,
4,7.06634,0.982016,-0.104547,4.48819e-06,0,
4,6.88453,0.982156,-0.105069,4.98645e-08,0,
4,6.69275,0.981638,-0.105658,-5.8448e-08,0,
4,6.49173,0.981375,-0.106321,3.36715e-08,0,
4,6.28238,0.981511,-0.10707,2.87767e-08,0,
4,6.06579,0.981881,-0.107914,1.61351e-08,0,
4,5.84328,0.98233,-0.10886,1.10433e-08,0,
4,5.61626,0.982797,-0.109915,9.80438e-09,0,
4,5.3863,0.983284,-0.111086,9.99726e-09,0,
4,5.15502,0.983808,-0.112376,1.07691e-08,0,
4,4.92406,0.984384,-0.11379,1.18442e-08,0,
4,4.69507,0.985024,-0.115328,1.31229e-08,0,
4,4.46961,0.985731,-0.116992,1.4458e-08,0,
4,4.24915,0.986488,-0.118777,1.55465e-08,0,
4,4.03501,0.987237,-0.12068,1.61082e-08,0,
4,3.82836,0.987913,-0.122692,1.64395e-08,0,
4,3.63018,0.988524,-0.124802,1.80103e-08,0,
4,3.44125,0.989262,-0.126999,2.39943e-08,0,
4,3.26217,0.990492,-0.129267,8.12328e-08,0,
4,3.09333,0.992495,-0.131593,7.0358e-07,0,
4,2.93497,0.99504,-0.133958,3.20767e-06,0,
4,2.78715,0.997219,-0.136343,6.22431e-06,0,
4,2.64979,0.997821,-0.138726,1.63822e-06,0,
4,2.52268,0.99593,-0.141078,-2.05865e-05,0,
4,2.40551,0.991262,-0.143369,-6.53593e-05,0,
4,2.29789,0.98411,-0.145574,-0.000130763,0,
4,2.19939,0.975102,-0.147672,-0.000210162,0,
4,2.10949,0.964951,-0.149648,-0.000295296,0,
4,2.02768,0.954293,-0.151496,-0.000378616,0,
4,1.95343,0.943633,-0.153215,-0.000454214,0,
4,1.88618,0.933335,-0.154802,-0.000519837,0,
4,1.82542,0.923581,-0.156266,-0.000566288,0,
4,1.77062,0.914427,-0.157612,-0.000603855,0,
4,1.72128,0.905915,-0.158837,-0.00063743,0,
4,1.67693,0.898071,-0.159953,-0.000667131,0,
4,1.63713,0.890887,-0.160966,-0.000693401,0,
4,1.60144,0.88434,-0.161884,-0.000716638,0,
4,1.56949,0.878396,-0.162714,-0.000737265,0,
4,1.54091,0.873016,-0.163461,-0.000755788,0,
4,1.51537,0.868148,-0.164137,-0.000772507,0,
4,1.49167,0.863594,-0.164764,-0.000787922,0,
4,1.46926,0.859255,-0.165367,-0.000802022,0,
4,1.44801,0.855091,-0.165949,-0.000808899,0,
4,1.42781,0.85107,-0.166505,-0.000815739,0,
4,1.40855,0.847176,-0.16704,-0.000821168,0,
4,1.39015,0.843395,-0.167554,-0.000825379,0,
4,1.37252,0.839711,-0.168049,-0.00082882,0,
4,1.3556,0.836108,-0.168528,-0.000831955,0,
4,1.3393,0.832568,-0.168992,-0.000835256,0,
4,1.32357,0.829073,-0.169442,-0.000839547,0,
4,1.30836,0.825603,-0.16988,-0.000845578,0,
4,1.29362,0.822136,-0.170306,-0.000854246,0,
4,1.2793,0.818646,-0.170722,-0.000866732,0,
4,1.26537,0.815102,-0.171128,-0.000884513,0,
4,1.25179,0.811468,-0.171526,-0.000909407,0,
4,1.23852,0.807699,-0.171916,-0.000943606,0,
4,1.22554,0.803744,-0.172299,-0.000989698,0,
4,1.21282,0.799541,-0.172674,-0.00105065,0,
4,1.20034,0.795018,-0.173043,-0.00112975,0,
4,1.18806,0.790096,-0.173406,-0.00123039,0,
4,1.17599,0.784695,-0.173762,-0.00135587,0,
4,1.16408,0.778732,-0.174112,-0.00150898,0,
4,1.15233,0.772139,-0.174456,-0.00169156,0,
4,1.14073,0.764864,-0.174794,-0.00190415,0,
4,1.12925,0.756885,-0.175126,-0.00214567,0,
4,1.11788,0.748203,-0.175452,-0.00241344,0,
4,1.10661,0.738852,-0.175773,-0.00270333,0,
4,1.09543,0.728884,-0.176088,-0.0030102,0,
4,1.08432,0.718368,-0.176397,-0.0033284,0,
4,1.07328,0.707379,-0.176701,-0.00365225,0,
4,1.0623,0.695994,-0.176999,-0.00397643,0,
4,1.05136,0.684287,-0.177293,-0.00429614,0,
4,1.04044,0.672303,-0.177582,-0.00460746,0,
4,1.0295,0.660082,-0.177867,-0.0049073,0,
4,1.01855,0.647673,-0.178148,-0.00519271,0,
4,1.00757,0.635121,-0.178424,-0.005461,0,
4,0.996544,0.622464,-0.178697,-0.0057102,0,
4,0.98547,0.609735,-0.178966,-0.00593816,0,
4,0.974334,0.596963,-0.17923,-0.00614328,0,
4,0.963124,0.584172,-0.179491,-0.00632404,0,
4,0.951826,0.571385,-0.179749,-0.00647902,0,
4,0.940428,0.558621,-0.179999,-0.00660679,0,
4,0.928915,0.5459,-0.180256,-0.006717,0,
4,0.917272,0.5332,-0.180481,-0.00681168,0,
4,0.905481,0.520378,-0.180647,-0.00684965,0,
4,0.893524,0.507267,-0.180801,-0.00689386,0,
4,0.881383,0.493782,-0.180948,-0.00694437,0,
4,0.869035,0.479871,-0.181096,-0.00700092,0,
4,0.856459,0.465496,-0.181245,-0.0070632,0,
4,0.843629,0.450627,-0.181398,-0.0071307,0,
4,0.830518,0.435235,-0.181555,-0.00720275,0,
4,0.817097,0.419294,-0.181717,-0.00727854,0,
4,0.803334,0.402782,-0.181881,-0.0073571,0,
4,0.789195,0.38568,-0.182049,-0.00743735,0,
4,0.774643,0.367972,-0.182218,-0.00751805,0,
4,0.759639,0.349645,-0.18239,-0.00759779,0,
4,0.744138,0.330693,-0.182562,-0.00767493,0,
4,0.728096,0.311114,-0.182734,-0.00774753,0,
4,0.711463,0.290923,-0.182907,-0.00781358,0,
4,0.694189,0.270144,-0.18308,-0.00787055,0,
4,0.676218,0.248818,-0.183252,-0.00791501,0,
4,0.657495,0.226994,-0.183421,-0.00794342,0,
4,0.637962,0.204725,-0.183588,-0.00795252,0,
4,0.617561,0.182057,-0.183746,-0.00793989,0,
4,0.596848,0.159644,-0.183886,-0.00790414,0,
4,0.576557,0.138245,-0.184007,-0.00784616,0,
4,0.556564,0.117728,-0.184104,-0.0077671,0,
4,0.536763,0.0979743,-0.184183,-0.00766781,0,
4,0.517057,0.0789033,-0.184246,-0.00754865,0,
4,0.497368,0.0604977,-0.184306,-0.00740989,0,
4,0.477632,0.042817,-0.184375,-0.00725267,0,
4,0.457804,0.0259863,-0.184469,-0.00707974,0,
4,0.437857,0.0101395,-0.184588,-0.00689666,0,
4,0.417786,-0.00469332,-0.184718,-0.00671116,0,
4,0.397605,-0.0187336,-0.184699,-0.0064371,0,
4,0.377348,-0.0322546,-0.184569,-0.00614064,0,
4,0.357066,-0.0453187,-0.184457,-0.00586485,0,
4,0.336828,-0.0578657,-0.184319,-0.00557917,0,
4,0.316717,-0.0698439,-0.184172,-0.00528455,0,
4,0.296825,-0.0812117,-0.184014,-0.00498277,0,
4,0.27725,-0.0919378,-0.183847,-0.00467604,0,
4,0.258095,-0.102001,-0.183675,-0.00436673,0,
4,0.239458,-0.11139,-0.183498,-0.00405732,0,
4,0.221432,-0.120104,-0.183318,-0.00375031,0,
4,0.2041,-0.128151,-0.183137,-0.00344811,0,
4,0.187537,-0.135546,-0.182957,-0.00315295,0,
4,0.171798,-0.142312,-0.182778,-0.00286685,0,
4,0.156928,-0.148475,-0.182603,-0.00259151,0,
4,0.142956,-0.154067,-0.182433,-0.00232835,0,
4,0.129894,-0.15912,-0.182269,-0.00207842,0,
4,0.117744,-0.163667,-0.182112,-0.00184248,0,
4,0.106492,-0.167741,-0.181963,-0.00162098,0,
4,0.0961173,-0.171375,-0.181823,-0.0014141,0,
4,0.0865883,-0.174597,-0.181693,-0.00122176,0,
4,0.0778675,-0.177436,-0.181572,-0.00104372,0,
4,0.0699123,-0.179916,-0.181462,-0.00087954,0,
4,0.062677,-0.182059,-0.181361,-0.000728674,0,
4,0.056114,-0.183885,-0.18127,-0.000590484,0,
4,0.0501747,-0.185408,-0.181189,-0.000464269,0,
4,0.0448114,-0.186641,-0.181117,-0.000349302,0,
4,0.039977,-0.187592,-0.181053,-0.000244848,0,
4,0.0356266,-0.188265,-0.180997,-0.000150192,0,
4,0.0317171,-0.188658,-0.180949,-6.46546e-05,0,
4,0.0282081,-0.188764,-0.180907,1.23813e-05,0,
4,0.0250617,-0.188568,-0.18087,8.14483e-05,0,
4,0.0222427,-0.188046,-0.18084,0.000142961,0,
4,0.0197189,-0.18716,-0.180814,0.00019717,0,
4,0.0174603,-0.185857,-0.180792,0.000244089,0,
4,0.0154398,-0.184057,-0.180775,0.000283385,0,
4,0.0136326,-0.18165,-0.18076,0.000314208,0,
4,0.0120162,-0.178479,-0.180749,0.000334971,0,
4,0.0105703,-0.174332,-0.18074,0.000343134,0,
4,0.00927657,-0.168931,-0.180734,0.000335288,0,
4,0.00811839,-0.16195,-0.180729,0.000308114,0,
4,0.0070809,-0.153092,-0.180726,0.000260867,0,
4,0.0061507,-0.142227,-0.180724,0.000198653,0,
4,0.00531578,-0.129563,-0.180723,0.00013319,0,
4,0.00456537,-0.11568,-0.180722,7.7737e-05,0,
4,0.00388979,-0.101338,-0.180722,3.9543e-05,0,
4,0.00328037,-0.087196,-0.180722,1.7665e-05,0,
4,0.00272934,-0.0736654,-0.180722,6.95415e-06,0,
4,0.0022297,-0.0609276,-0.180722,2.38777e-06,0,
4,0.00177519,-0.0490205,-0.180722,6.92603e-07,0,
4,0.00136016,-0.0379096,-0.180721,1.58907e-07,0,
4,0.000979511,-0.0275297,-0.180722,2.53696e-08,0,
4,0.00062865,-0.0178044,-0.180721,2.15861e-09,0,
4,0.000303409,-0.00865486,-0.180722,5.24694e-11,0,

6,0,0,-0.0339364,0,0,
6,9,0,-0.0781075,0,0,
6,8.99969,0.0135852,-0.0781072,1.89945e-10,0,
6,8.99934,0.0289052,-0.0781074,8.76648e-09,0,
6,8.99895,0.0461991,-0.0781072,1.18853e-07,0,
6,8.9985,0.0657192,-0.0781074,8.5651e-07,0,
6,8.99801,0.0877249,-0.0781071,4.22749e-06,0,
6,8.99744,0.112416,-0.0781073,1.59842e-05,0,
6,8.99681,0.139759,-0.0781071,4.82655e-05,0,
6,8.99609,0.16922,-0.0781071,0.000117154,0,
6,8.99529,0.199634,-0.0781069,0.000229167,0,
6,8.99438,0.229564,-0.0781069,0.000369407,0,
6,8.99336,0.257913,-0.0781066,0.000512154,0,
6,8.9922,0.284192,-0.0781064,0.000640133,0,
6,8.9909,0.308407,-0.078106,0.000743545,0,
6,8.98944,0.330721,-0.0781056,0.000830593,0,
6,8.98779,0.351304,-0.078105,0.000903765,0,
6,8.98593,0.370406,-0.0781043,0.000961745,0,
6,8.98383,0.388287,-0.0781035,0.00100922,0,
6,8.98147,0.405153,-0.0781025,0.00104944,0,
6,8.97881,0.421172,-0.0781012,0.00108386,0,
6,8.97581,0.436482,-0.0780998,0.0011138,0,
6,8.97244,0.451203,-0.078098,0.00114027,0,
6,8.96863,0.465434,-0.078096,0.00116402,0,
6,8.96435,0.479261,-0.0780936,0.00118561,0,
6,8.95953,0.49276,-0.0780908,0.00120543,0,
6,8.95409,0.505992,-0.0780875,0.00122376,0,
6,8.94798,0.519014,-0.0780837,0.00124077,0,
6,8.94109,0.531875,-0.0780794,0.00125655,0,
6,8.93334,0.544618,-0.0780744,0.00127112,0,
6,8.92463,0.557279,-0.0780687,0.00128443,0,
6,8.91482,0.569892,-0.0780622,0.00129639,0,
6,8.90379,0.582484,-0.0780549,0.00130684,0,
6,8.89139,0.595081,-0.0780468,0.00131559,0,
6,8.87746,0.607701,-0.0780377,0.00132242,0,
6,8.86181,0.620363,-0.0780279,0.00132708,0,
6,8.84423,0.633079,-0.078017,0.00132932,0,
6,8.82452,0.645861,-0.0780051,0.00132887,0,
6,8.80241,0.658719,-0.0779923,0.00132548,0,
6,8.77763,0.671659,-0.0779786,0.00131888,0,
6,8.74989,0.684691,-0.077964,0.00130883,0,
6,8.71885,0.697823,-0.0779486,0.00129512,0,
6,8.68417,0.711068,-0.0779326,0.00127752,0,
6,8.64545,0.724441,-0.0779164,0.00125577,0,
6,8.60229,0.737967,-0.0778999,0.00122961,0,
6,8.55423,0.751675,-0.077884,0.00119866,0,
6,8.50082,0.765607,-0.0778684,0.00116266,0,
6,8.44155,0.779822,-0.0778547,0.00112307,0,
6,8.37592,0.794441,-0.0778445,0.00107586,0,
6,8.30339,0.809674,-0.0778383,0.00101994,0,
6,8.22344,0.825789,-0.0778362,0.000952626,0,
6,8.13555,0.84309,-0.0778395,0.000870105,0,
6,8.0392,0.861824,-0.0778443,0.000768931,0,
6,7.93391,0.881977,-0.0778517,0.000648944,0,
6,7.81927,0.902949,-0.0778501,0.000516873,0,
6,7.6949,0.923354,-0.077849,0.000387887,0,
6,7.56054,0.941357,-0.0778337,0.000270725,0,
6,7.41603,0.955353,-0.0778146,0.000139114,0,
6,7.26132,0.964369,-0.0777998,5.50939e-05,0,
6,7.09653,0.968676,-0.0777739,1.40854e-05,0,
6,6.92195,0.969747,-0.0777401,8.73631e-07,0,
6,6.73802,0.969337,-0.0776914,-8.84389e-07,0,
6,6.5454,0.968673,-0.077626,-3.98923e-07,0,
6,6.34489,0.968244,-0.0775417,-9.93172e-08,0,
6,6.1375,0.968063,-0.0774365,-2.1818e-08,0,
6,5.92439,0.967992,-0.0773075,-7.30927e-09,0,
6,5.70687,0.967923,-0.0771513,-4.38369e-09,0,
6,5.48633,0.967815,-0.0769639,-3.68593e-09,0,
6,5.26426,0.967665,-0.076741,-3.69879e-09,0,
6,5.04218,0.967483,-0.0764782,-3.97969e-09,0,
6,4.82159,0.967283,-0.0761709,-4.34066e-09,0,
6,4.60398,0.967075,-0.0758151,-4.77447e-09,0,
6,4.39071,0.966857,-0.0754069,-5.48005e-09,0,
6,4.18307,0.966597,-0.0749434,-6.80834e-09,0,
6,3.98218,0.96623,-0.0744226,-8.96859e-09,0,
6,3.78902,0.9657,-0.0738437,-1.15663e-08,0,
6,3.60438,0.965035,-0.0732077,-1.49208e-08,0,
6,3.42888,0.964418,-0.0725167,-2.99064e-08,0,
6,3.26296,0.964143,-0.0717742,-5.9657e-08,0,
6,3.10691,0.964447,-0.0709837,4.61569e-08,0,
6,2.96084,0.96528,-0.0701495,5.08141e-07,0,
6,2.82473,0.966224,-0.0692782,4.62204e-07,0,
6,2.69844,0.966628,-0.0683791,-3.3081e-06,0,
6,2.58172,0.96587,-0.0674639,-1.54747e-05,0,
6,2.47424,0.963564,-0.066545,-3.97551e-05,0,
6,2.37559,0.959628,-0.0656343,-7.73786e-05,0,
6,2.28535,0.954231,-0.0647428,-0.000127099,0,
6,2.20301,0.947692,-0.0638797,-0.000185929,0,
6,2.1281,0.940382,-0.0630528,-0.000250022,0,
6,2.06009,0.932659,-0.0622675,-0.000315329,0,
6,1.99849,0.924838,-0.0615275,-0.000377884,0,
6,1.9428,0.917181,-0.0608361,-0.000434612,0,
6,1.89255,0.909876,-0.06019,-0.000485501,0,
6,1.84728,0.902991,-0.0595969,-0.000523257,0,
6,1.80655,0.896521,-0.0590559,-0.000553489,0,
6,1.76996,0.890483,-0.0585547,-0.000581251,0,
6,1.73712,0.884896,-0.0580976,-0.000606634,0,
6,1.70768,0.87973,-0.0576783,-0.000630096,0,
6,1.67998,0.874756,-0.0572793,-0.000652756,0,
6,1.65329,0.869873,-0.0568882,-0.000674848,0,
6,1.62754,0.865081,-0.0565053,-0.000696343,0,
6,1.60265,0.860376,-0.0561298,-0.000717244,0,
6,1.57854,0.855756,-0.0557614,-0.000737543,0,
6,1.55515,0.851219,-0.0553995,-0.000757283,0,
6,1.53242,0.846759,-0.0550436,-0.000776492,0,
6,1.5103,0.842371,-0.0546935,-0.000795188,0,
6,1.48874,0.838042,-0.0543489,-0.000813406,0,
6,1.46769,0.833761,-0.0540091,-0.00083127,0,
6,1.44712,0.829522,-0.053673,-0.000849039,0,
6,1.42698,0.825331,-0.0533386,-0.000867133,0,
6,1.40725,0.821219,-0.0530044,-0.000885893,0,
6,1.38788,0.817223,-0.0526707,-0.000905495,0,
6,1.36886,0.81336,-0.052339,-0.000925022,0,
6,1.35015,0.809576,-0.0520207,-0.000931413,0,
6,1.33173,0.805806,-0.0517105,-0.000939034,0,
6,1.31357,0.80202,-0.0513989,-0.000949116,0,
6,1.29566,0.798205,-0.0510905,-0.000960767,0,
6,1.27797,0.794341,-0.0507833,-0.000974941,0,
6,1.26048,0.790404,-0.050478,-0.000992795,0,
6,1.24318,0.786364,-0.0501739,-0.00101584,0,
6,1.22605,0.782186,-0.0498712,-0.00104591,0,
6,1.20907,0.777823,-0.0495697,-0.00108516,0,
6,1.19223,0.773225,-0.0492692,-0.00113607,0,
6,1.17551,0.768329,-0.0489698,-0.00120133,0,
6,1.1589,0.76307,-0.0486712,-0.00128368,0,
6,1.14238,0.757375,-0.0483735,-0.00138565,0,
6,1.12595,0.751177,-0.0480767,-0.00150928,0,
6,1.10959,0.744414,-0.0477808,-0.00165576,0,
6,1.09329,0.737044,-0.0474859,-0.00182511,0,
6,1.07704,0.729041,-0.0471929,-0.00201595,0,
6,1.06081,0.720403,-0.0469016,-0.0022255,0,
6,1.04459,0.711147,-0.0466121,-0.0024498,0,
6,1.02836,0.701318,-0.046325,-0.00268392,0,
6,1.01211,0.690974,-0.0460402,-0.00292227,0,
6,0.99583,0.680185,-0.0457585,-0.00315914,0,
6,0.97951,0.669024,-0.0454791,-0.00338927,0,
6,0.963136,0.657564,-0.0452046,-0.00362072,0,
6,0.946694,0.645792,-0.0449243,-0.00382751,0,
6,0.930172,0.633613,-0.0446364,-0.00402884,0,
6,0.913555,0.620945,-0.0443511,-0.00423482,0,
6,0.896829,0.607735,-0.0440682,-0.00444765,0,
6,0.879979,0.593947,-0.0437895,-0.00466895,0,
6,0.862989,0.579563,-0.0435154,-0.00489998,0,
6,0.845842,0.564583,-0.0432462,-0.00514181,0,
6,0.828521,0.549008,-0.042984,-0.00539215,0,
6,0.811008,0.532841,-0.042731,-0.00564912,0,
6,0.793282,0.516079,-0.0424877,-0.00591158,0,
6,0.775322,0.49873,-0.0422547,-0.0061779,0,
6,0.757107,0.480807,-0.0420323,-0.00644589,0,
6,0.738612,0.462332,-0.041821,-0.00671286,0,
6,0.719813,0.443339,-0.0416218,-0.00697563,0,
6,0.700681,0.423869,-0.0414353,-0.00723062,0,
6,0.681188,0.40397,-0.0412623,-0.00747394,0,
6,0.661304,0.383694,-0.041102,-0.00770147,0,
6,0.640996,0.363086,-0.040952,-0.00790883,0,
6,0.620228,0.342181,-0.0408089,-0.00809135,0,
6,0.598964,0.321011,-0.0406706,-0.00824385,0,
6,0.577166,0.299636,-0.0405433,-0.00836062,0,
6,0.554791,0.278193,-0.0404452,-0.00843606,0,
6,0.531799,0.256955,-0.0404189,-0.00846681,0,
6,0.508144,0.236315,-0.0404853,-0.00845304,0,
6,0.48378,0.216616,-0.0406868,-0.0084007,0,
6,0.459585,0.198506,-0.0407028,-0.00826555,0,
6,0.436695,0.182265,-0.0405103,-0.00794029,0,
6,0.414961,0.167385,-0.0403579,-0.0076773,0,
6,0.394252,0.153689,-0.0402115,-0.00740733,0,
6,0.374445,0.141034,-0.0400638,-0.00712948,0,
6,0.355433,0.129294,-0.0399184,-0.00684621,0,
6,0.337122,0.118363,-0.0397716,-0.00655865,0,
6,0.319433,0.108151,-0.0396226,-0.00626798,0,
6,0.3023,0.0985819,-0.03947,-0.00597512,0,
6,0.28567,0.0895935,-0.0393123,-0.00568093,0,
6,0.269507,0.0811343,-0.0391483,-0.00538625,0,
6,0.253785,0.0731629,-0.0389772,-0.00509199,0,
6,0.238493,0.065646,-0.038798,-0.00479911,0,
6,0.223631,0.0585568,-0.0386101,-0.0045087,0,
6,0.209207,0.0518738,-0.0384133,-0.0042219,0,
6,0.195237,0.0455794,-0.0382078,-0.00393995,0,
6,0.181744,0.0396583,-0.0379939,-0.00366413,0,
6,0.168754,0.0340971,-0.0377726,-0.00339571,0,
6,0.156292,0.0288829,-0.0375452,-0.0031359,0,
6,0.144384,0.0240031,-0.0373132,-0.00288583,0,
6,0.133052,0.0194451,-0.0370786,-0.0026465,0,
6,0.122315,0.0151959,-0.0368436,-0.00241874,0,
6,0.112183,0.011242,-0.0366104,-0.00220317,0,
6,0.102665,0.00756969,-0.0363812,-0.00200023,0,
6,0.0937597,0.00416517,-0.0361583,-0.00181016,0,
6,0.0854609,0.00101426,-0.0359438,-0.001633,0,
6,0.077757,-0.00189784,-0.0357396,-0.00146839,0,
6,0.0706309,-0.00458652,-0.0355467,-0.00131594,0,
6,0.0640611,-0.00706679,-0.0353664,-0.00117544,0,
6,0.0580229,-0.00935266,-0.0351991,-0.00104639,0,
6,0.0524888,-0.0114574,-0.0350453,-0.000928189,0,
6,0.0474296,-0.0133935,-0.0349048,-0.000820173,0,
6,0.042815,-0.015173,-0.0347773,-0.000721693,0,
6,0.0386145,-0.0168071,-0.0346624,-0.000632084,0,
6,0.0347975,-0.0183062,-0.0345595,-0.000550687,0,
6,0.0313344,-0.0196799,-0.0344678,-0.000476855,0,
6,0.0281964,-0.0209367,-0.0343866,-0.000409967,0,
6,0.0253561,-0.0220841,-0.034315,-0.000349432,0,
6,0.0227875,-0.0231289,-0.0342524,-0.000294693,0,
6,0.0204662,-0.0240763,-0.0341976,-0.000245239,0,
6,0.0183694,-0.0249302,-0.0341504,-0.000200598,0,
6,0.016476,-0.0256932,-0.0341095,-0.000160353,0,
6,0.0147664,-0.0263654,-0.034075,-0.000124142,0,
6,0.0132228,-0.0269444,-0.0340452,-9.16728e-05,0,
6,0.0118288,-0.0274239,-0.0340209,-6.27455e-05,0,
6,0.0105693,-0.0277918,-0.0340001,-3.72913e-05,0,
6,0.00943073,-0.0280283,-0.0339842,-1.54339e-05,0,
6,0.00840063,-0.0281018,-0.0339705,2.42783e-06,0,
6,0.00746774,-0.0279654,-0.0339614,1.55731e-05,0,
6,0.00662185,-0.0275565,-0.0339533,2.31253e-05,0,
6,0.00585371,-0.0268052,-0.0339494,2.46904e-05,0,
6,0.00515491,-0.025662,-0.0339451,2.12706e-05,0,
6,0.00451788,-0.0241306,-0.0339444,1.53417e-05,0,
6,0.00393573,-0.022278,-0.0339419,9.51148e-06,0,
6,0.00340221,-0.0202038,-0.0339426,5.18851e-06,0,
6,0.00291168,-0.0180009,-0.0339404,2.52753e-06,0,
6,0.00245897,-0.0157372,-0.0339419,1.10075e-06,0,
6,0.00203939,-0.0134546,-0.0339394,4.21945e-07,0,
6,0.00164864,-0.0111765,-0.0339415,1.37248e-07,0,
6,0.00128281,-0.00891362,-0.0339385,3.53564e-08,0,
6,0.000938257,-0.00666883,-0.0339413,6.32991e-09,0,
6,0.000611645,-0.0044396,-0.0339375,6.00537e-10,0,
6,0.000299862,-0.00221967,-0.0339412,1.59177e-11,0,

10,0.000296632,0.00783671,0.0310812,-4.07604e-11,0,
10,0.000596102,0.0157457,0.031082,-1.51062e-09,0,
10,0.000900397,0.0237794,0.0310812,-1.53593e-08,0,
10,0.00121153,0.0319907,0.0310818,-8.25457e-08,0,
10,0.00153158,0.0404323,0.0310811,-3.08851e-07,0,
10,0.00186264,0.0491567,0.0310816,-9.18801e-07,0,
10,0.00220692,0.058213,0.0310811,-2.33471e-06,0,
10,0.00256668,0.067644,0.0310815,-5.2815e-06,0,
10,0.00294431,0.0774784,0.031081,-1.08999e-05,0,
10,0.00334229,0.0877215,0.0310812,-2.08119e-05,0,
10,0.00376326,0.0983418,0.0310808,-3.70297e-05,0,
10,0.00421,0.109258,0.031081,-6.1576e-05,0,
10,0.00468544,0.120334,0.0310805,-9.57919e-05,0,
10,0.00519274,0.131384,0.0310805,-0.000139583,0,
10,0.00573524,0.142203,0.0310798,-0.00019109,0,
10,0.00631651,0.152595,0.0310795,-0.000247117,0,
10,0.00694041,0.162407,0.0310786,-0.000304083,0,
10,0.00761104,0.171541,0.0310778,-0.00035894,0,
10,0.00833284,0.179955,0.0310763,-0.00040964,0,
10,0.00911058,0.18765,0.0310748,-0.000455163,0,
10,0.0099494,0.19466,0.0310725,-0.000495297,0,
10,0.0108548,0.201037,0.0310699,-0.000530361,0,
10,0.0118329,0.206844,0.0310665,-0.000560971,0,
10,0.0128901,0.212145,0.0310626,-0.00058787,0,
10,0.0140333,0.217003,0.0310577,-0.00061182,0,
10,0.0152702,0.221475,0.031052,-0.000633543,0,
10,0.0166089,0.225615,0.0310451,-0.000653689,0,
10,0.0180584,0.229468,0.0310373,-0.000672835,0,
10,0.0196282,0.233076,0.031028,-0.000691484,0,
10,0.0213288,0.236475,0.0310175,-0.000710076,0,
10,0.0231714,0.239696,0.0310053,-0.000729002,0,
10,0.0251682,0.242767,0.0309914,-0.000748613,0,
10,0.0273326,0.245712,0.0309757,-0.00076923,0,
10,0.0296789,0.248553,0.0309579,-0.000791159,0,
10,0.0322227,0.251308,0.0309378,-0.000814689,0,
10,0.0349809,0.253996,0.0309153,-0.000840109,0,
10,0.0379719,0.256632,0.0308901,-0.000867706,0,
10,0.0412155,0.259232,0.030862,-0.000897775,0,
10,0.0447333,0.26181,0.0308307,-0.000930619,0,
10,0.0485489,0.264379,0.0307961,-0.000966557,0,
10,0.0526875,0.266952,0.0307577,-0.00100592,0,
10,0.0571768,0.269544,0.0307154,-0.00104908,0,
10,0.0620466,0.272167,0.0306689,-0.0010964,0,
10,0.0673295,0.274835,0.0306179,-0.00114829,0,
10,0.0730607,0.277562,0.0305622,-0.00120518,0,
10,0.0792784,0.280365,0.0305016,-0.00126755,0,
10,0.0860241,0.283259,0.0304357,-0.00133587,0,
10,0.0933428,0.286261,0.0303644,-0.00141069,0,
10,0.101283,0.289392,0.0302876,-0.00149256,0,
10,0.109899,0.292672,0.0302051,-0.00158207,0,
10,0.119247,0.296126,0.0301168,-0.00167984,0,
10,0.12939,0.299781,0.0300228,-0.00178652,0,
10,0.140395,0.303667,0.0299231,-0.00190276,0,
10,0.152337,0.307818,0.0298178,-0.00202923,0,
10,0.165296,0.312276,0.0297072,-0.00216657,0,
10,0.179357,0.317085,0.0295916,-0.0023154,0,
10,0.194615,0.322299,0.0294711,-0.00247626,0,
10,0.211171,0.327979,0.0293464,-0.00264957,0,
10,0.229138,0.334197,0.0292173,-0.00283558,0,
10,0.248635,0.341034,0.029085,-0.00303427,0,
10,0.269793,0.348589,0.0289483,-0.00324526,0,
10,0.292753,0.356972,0.0288096,-0.00346767,0,
10,0.317669,0.366313,0.0286642,-0.00369845,0,
10,0.344708,0.376754,0.0285179,-0.00393293,0,
10,0.372405,0.387808,0.0283747,-0.00416079,0,
10,0.399623,0.399039,0.0282361,-0.00437076,0,
10,0.426397,0.410444,0.0281033,-0.00455858,0,
10,0.452757,0.422019,0.0279732,-0.00472583,0,
10,0.478735,0.433761,0.0278469,-0.0048708,0,
10,0.504358,0.445676,0.0277235,-0.00499184,0,
10,0.529657,0.457767,0.0276026,-0.00508982,0,
10,0.554656,0.470034,0.0274798,-0.00516433,0,
10,0.579382,0.482478,0.0273605,-0.00521487,0,
10,0.603859,0.495093,0.0272307,-0.00524483,0,
10,0.628112,0.507894,0.0271137,-0.00529405,0,
10,0.652163,0.521135,0.0270589,-0.00520577,0,
10,0.676035,0.535109,0.0270158,-0.0050866,0,
10,0.699751,0.54976,0.0269342,-0.0049393,0,
10,0.72333,0.564829,0.0268187,-0.00476494,0,
10,0.746795,0.580023,0.0266734,-0.00456679,0,
10,0.770165,0.59511,0.0265101,-0.00434927,0,
10,0.79346,0.609942,0.0263337,-0.00411719,0,
10,0.816699,0.62442,0.0261478,-0.00387543,0,
10,0.839903,0.638451,0.0259503,-0.00363267,0,
10,0.863088,0.65193,0.0257401,-0.00339622,0,
10,0.886275,0.664779,0.0255196,-0.00316716,0,
10,0.909481,0.67697,0.0252906,-0.00294627,0,
10,0.932723,0.688519,0.0250545,-0.00273439,0,
10,0.956021,0.699456,0.0248114,-0.00253234,0,
10,0.97939,0.709813,0.0245613,-0.00234083,0,
10,1.00285,0.719615,0.0243037,-0.0021605,0,
10,1.02641,0.728884,0.0240391,-0.00199181,0,
10,1.0501,0.737641,0.0237668,-0.00183506,0,
10,1.07392,0.745921,0.0234895,-0.0016886,0,
10,1.0979,0.753755,0.023206,-0.00155093,0,
10,1.12205,0.761156,0.0229135,-0.00142758,0,
10,1.14639,0.768127,0.0226131,-0.00131735,0,
10,1.17093,0.774687,0.0223047,-0.00122083,0,
10,1.19568,0.780869,0.0219884,-0.00113794,0,
10,1.22066,0.786717,0.0216653,-0.00106794,0,
10,1.24589,0.79228,0.0213343,-0.00100964,0,
10,1.27137,0.797611,0.0209983,-0.00096372,0,
10,1.29713,0.802787,0.0206553,-0.000926341,0,
10,1.32317,0.807939,0.0203066,-0.000883308,0,
10,1.34951,0.813173,0.0199544,-0.00084307,0,
10,1.37616,0.818472,0.0195943,-0.000805935,0,
10,1.40313,0.823766,0.0192265,-0.000771795,0,
10,1.43043,0.82899,0.0188501,-0.00074009,0,
10,1.45807,0.834127,0.018466,-0.00071006,0,
10,1.48607,0.839196,0.0180745,-0.000681091,0,
10,1.51444,0.844221,0.0176757,-0.00065287,0,
10,1.54318,0.849211,0.0172695,-0.00062532,0,
10,1.57231,0.854154,0.0168554,-0.000598442,0,
10,1.60184,0.859031,0.0164334,-0.000572231,0,
10,1.63178,0.863817,0.0160033,-0.000546673,0,
10,1.66213,0.868491,0.0155654,-0.000521792,0,
10,1.69292,0.873033,0.0151197,-0.000497611,0,
10,1.72416,0.877429,0.0146663,-0.000474072,0,
10,1.75585,0.881685,0.0142049,-0.000450773,0,
10,1.78802,0.885851,0.0137342,-0.000421851,0,
10,1.82067,0.889964,0.0132553,-0.000394068,0,
10,1.85383,0.894018,0.0127685,-0.000365643,0,
10,1.88751,0.897992,0.0122727,-0.000336175,0,
10,1.92173,0.901861,0.0117687,-0.000305975,0,
10,1.95652,0.905599,0.0112553,-0.000275472,0,
10,1.9919,0.90918,0.0107336,-0.000245169,0,
10,2.02791,0.91258,0.010202,-0.000215643,0,
10,2.06456,0.915779,0.0096626,-0.000187156,0,
10,2.10268,0.918816,0.00910012,-0.000159312,0,
10,2.1443,0.921781,0.00848954,-0.000132497,0,
10,2.18977,0.924622,0.00782349,-0.000106858,0,
10,2.23946,0.927258,0.00710025,-8.2708e-05,0,
10,2.29376,0.929603,0.00631419,-6.08802e-05,0,
10,2.35309,0.931574,0.00546309,-4.20609e-05,0,
10,2.4179,0.9331,0.00454296,-2.67693e-05,0,
10,2.48863,0.934134,0.00355226,-1.5294e-05,0,
10,2.56575,0.934669,0.00248901,-7.58844e-06,0,
10,2.64971,0.934759,0.00135326,-3.19414e-06,0,
10,2.74098,0.934519,0.000145267,-1.27147e-06,0,
10,2.83997,0.934127,-0.00113305,-7.81995e-07,0,
10,2.94709,0.93379,-0.00247935,-7.95151e-07,0,
10,3.06269,0.933696,-0.00388999,-7.63387e-07,0,
10,3.18706,0.933962,-0.0053606,-5.68969e-07,0,
10,3.3204,0.934596,-0.00688525,-3.27356e-07,0,
10,3.46281,0.935507,-0.00845643,-1.52099e-07,0,
10,3.61427,0.93655,-0.0100645,-6.4846e-08,0,
10,3.77463,0.937584,-0.011698,-3.28875e-08,0,
10,3.94358,0.938525,-0.0133437,-2.32197e-08,0,
10,4.12067,0.939354,-0.0149876,-1.99675e-08,0,
10,4.30525,0.940105,-0.0166154,-1.84833e-08,0,
10,4.49655,0.940821,-0.018213,-1.78947e-08,0,
10,4.6936,0.941531,-0.0197672,-1.81734e-08,0,
10,4.89531,0.942238,-0.0212659,-1.9809e-08,0,
10,5.10047,0.942929,-0.0226984,-2.42527e-08,0,
10,5.30776,0.943582,-0.0240558,-3.4747e-08,0,
10,5.51581,0.944182,-0.0253313,-5.80003e-08,0,
10,5.72323,0.944724,-0.0265199,-1.08391e-07,0,
10,5.92863,0.945234,-0.0276188,-2.20942e-07,0,
10,6.13069,0.945777,-0.028627,-4.87761e-07,0,
10,6.32816,0.946449,-0.0295456,-1.1031e-06,0,
10,6.51991,0.947285,-0.0303771,-2.15568e-06,0,
10,6.70495,0.948059,-0.0311255,-2.36542e-06,0,
10,6.88244,0.948064,-0.0317947,3.58025e-06,0,
10,7.0517,0.946077,-0.032389,2.65615e-05,0,
10,7.21224,0.940707,-0.0329095,7.9914e-05,0,
10,7.3637,0.93106,-0.0333615,0.000172902,0,
10,7.5059,0.917171,-0.0337496,0.000297012,0,
10,7.63878,0.899633,-0.0340784,0.000404915,0,
10,7.76243,0.879546,-0.0343571,0.000524199,0,
10,7.87701,0.858673,-0.0345806,0.000646103,0,
10,7.9828,0.838476,-0.0347651,0.000756727,0,
10,8.08014,0.819674,-0.0349132,0.000850974,0,
10,8.16941,0.802353,-0.0350357,0.000929331,0,
10,8.25106,0.786265,-0.0351369,0.000994988,0,
10,8.32554,0.771082,-0.0352229,0.00105121,0,
10,8.39331,0.756523,-0.0352961,0.00110028,0,
10,8.45484,0.742385,-0.035359,0.0011435,0,
10,8.5106,0.728548,-0.0354127,0.00118147,0,
10,8.56104,0.714952,-0.035459,0.00121443,0,
10,8.60659,0.701577,-0.0354986,0.0012425,0,
10,8.64767,0.688431,-0.035533,0.00126577,0,
10,8.68467,0.675518,-0.0355629,0.0012844,0,
10,8.71795,0.662816,-0.035589,0.00129462,0,
10,8.74786,0.650297,-0.0356116,0.00130132,0,
10,8.77471,0.637956,-0.0356311,0.00130377,0,
10,8.79881,0.625791,-0.0356479,0.00130237,0,
10,8.8204,0.613793,-0.0356624,0.00129764,0,
10,8.83975,0.601954,-0.0356749,0.00129006,0,
10,8.85708,0.59026,-0.0356856,0.00128011,0,
10,8.87259,0.578694,-0.0356948,0.00126824,0,
10,8.88646,0.567235,-0.0357027,0.00125485,0,
10,8.89886,0.55586,-0.0357095,0.00124028,0,
10,8.90995,0.544542,-0.0357151,0.00122482,0,
10,8.91986,0.533251,-0.0357199,0.00120869,0,
10,8.92872,0.521955,-0.0357239,0.00119205,0,
10,8.93663,0.510618,-0.0357273,0.001175,0,
10,8.94369,0.499201,-0.0357301,0.00115758,0,
10,8.95,0.487664,-0.0357324,0.00113974,0,
10,8.95564,0.47596,-0.0357344,0.00112142,0,
10,8.96067,0.46404,-0.035736,0.00110246,0,
10,8.96517,0.45185,-0.0357374,0.00108261,0,
10,8.96918,0.439328,-0.0357384,0.00106155,0,
10,8.97276,0.426404,-0.0357394,0.00103885,0,
10,8.97596,0.412999,-0.03574,0.00101395,0,
10,8.97882,0.39902,-0.0357408,0.000986131,0,
10,8.98137,0.384358,-0.0357411,0.000954452,0,
10,8.98365,0.368888,-0.0357417,0.000917708,0,
10,8.98569,0.352458,-0.0357418,0.000874463,0,
10,8.9875,0.334888,-0.0357424,0.000822661,0,
10,8.98913,0.315943,-0.0357423,0.000757052,0,
10,8.99058,0.29539,-0.0357428,0.000679546,0,
10,8.99188,0.273066,-0.0357425,0.000587725,0,
10,8.99304,0.248809,-0.0357431,0.000474825,0,
10,8.99408,0.222576,-0.0357427,0.000348381,0,
10,8.99501,0.194736,-0.0357433,0.000222067,0,
10,8.99583,0.166189,-0.0357428,0.000117782,0,
10,8.99658,0.138204,-0.0357434,5.06034e-05,0,
10,8.99724,0.111901,-0.0357428,1.74685e-05,0,
10,8.99784,0.0878687,-0.0357435,4.79919e-06,0,
10,8.99837,0.0662205,-0.0357427,1.00645e-06,0,
10,8.99885,0.0468215,-0.0357436,1.4417e-07,0,
10,8.99927,0.0294602,-0.0357427,1.09447e-08,0,
10,8.99966,0.0139211,-0.0357437,2.4214e-10,0,
10,0,0,0.0310822,0,0,
10,9,0,-0.0357426,0,0,

0.004,0,0,-0.221369,0,-7.36027e-08,
0.00868226,0,0,-0.221366,0,-1.51501e-07,
0.014062,0,0,-0.221369,0,-2.47981e-07,
0.0201548,0,0,-0.221368,0,-6.00863e-07,
0.0269766,0,0,-0.221368,0,-1.0432e-06,
0.0345437,0,0,-0.221368,0,-1.63045e-06,
0.0428729,0,0,-0.221367,0,-2.22282e-06,
0.051981,0,0,-0.221366,0,-2.7645e-06,
0.0618853,0,0,-0.221364,0,-3.09806e-06,
0.0726036,0,0,-0.221361,0,-3.08641e-06,
0.0841536,0,0,-0.221358,0,-2.54777e-06,
0.0965535,0,0,-0.221354,0,-1.32389e-06,
0.109822,0,0,-0.22135,0,7.13831e-07,
0.123977,0,0,-0.221348,0,3.6174e-06,
0.139037,0,0,-0.221347,0,7.33899e-06,
0.155022,0,0,-0.221349,0,1.1725e-05,
0.171949,0,0,-0.221355,0,1.65243e-05,
0.189839,0,0,-0.221366,0,2.143e-05,
0.208709,0,0,-0.221381,0,2.61146e-05,
0.228579,0,0,-0.221401,0,3.02811e-05,
0.249467,0,0,-0.221424,0,3.36882e-05,
0.271391,0,0,-0.22145,0,3.61783e-05,
0.29437,0,0,-0.221477,0,3.76797e-05,
0.31842,0,0,-0.221504,0,3.82101e-05,
0.343559,0,0,-0.22153,0,3.7864e-05,
0.369804,0,0,-0.221553,0,3.68012e-05,
0.39717,0,0,-0.221574,0,3.52282e-05,
0.425672,0,0,-0.221592,0,3.33815e-05,
0.455324,0,0,-0.221608,0,3.15121e-05,
0.48614,0,0,-0.221621,0,2.98693e-05,
0.518132,0,0,-0.221633,0,2.86889e-05,
0.551309,0,0,-0.221645,0,2.81869e-05,
0.585683,0,0,-0.221658,0,2.85234e-05,
0.621259,0,0,-0.221675,0,2.97751e-05,
0.658046,0,0,-0.221698,0,3.19377e-05,
0.696047,0,0,-0.221728,0,3.49455e-05,
0.735265,0,0,-0.221769,0,3.86924e-05,
0.7757,0,0,-0.221824,0,4.30525e-05,
0.817352,0,0,-0.221895,0,4.79006e-05,
0.860215,0,0,-0.221987,0,5.31166e-05,
0.904285,0,0,-0.222102,0,5.8558e-05,
0.949552,0,0,-0.222249,0,6.39724e-05,
0.996004,0,0,-0.222435,0,6.89128e-05,
1.04363,0,0,-0.222671,0,7.26629e-05,
1.09241,0,0,-0.222976,0,7.40997e-05,
1.14232,0,0,-0.223367,0,7.16648e-05,
1.19335,0,0,-0.223864,0,6.35328e-05,
1.24546,0,0,-0.224483,0,4.7923e-05,
1.29863,0,0,-0.225231,0,2.35419e-05,
1.35283,0,0,-0.2261,0,-9.97645e-06,
1.40802,0,0,-0.227073,0,-5.18677e-05,
1.46416,0,0,-0.228123,0,-0.000100428,
1.52121,0,0,-0.229219,0,-0.000153521,
1.57913,0,0,-0.230333,0,-0.000209148,
1.63787,0,0,-0.231442,0,-0.000265824,
1.69739,0,0,-0.232525,0,-0.000322666,
1.75761,0,0,-0.233565,0,-0.000379272,
1.81851,0,0,-0.23455,0,-0.00043552,
1.88,0,0,-0.235466,0,-0.000491398,
1.94204,0,0,-0.236304,0,-0.00054691,
2.00457,0,0,-0.237053,0,-0.000602036,
2.06751,0,0,-0.237704,0,-0.000656736,
2.13081,0,0,-0.238247,0,-0.000710952,
2.19439,0,0,-0.238675,0,-0.000764621,
2.25819,0,0,-0.23898,0,-0.000817679,
2.32214,0,0,-0.239155,0,-0.000870062,
2.38617,0,0,-0.239194,0,-0.000921708,
2.4502,0,0,-0.239089,0,-0.000972551,
2.51418,0,0,-0.238836,0,-0.00102252,
2.57803,0,0,-0.23843,0,-0.00107152,
2.64167,0,0,-0.237866,0,-0.00111947,
2.70505,0,0,-0.23714,0,-0.00116624,
2.76808,0,0,-0.236249,0,-0.00121172,
2.83072,0,0,-0.235193,0,-0.00125579,
2.89288,0,0,-0.23397,0,-0.00129832,
2.95451,0,0,-0.232582,0,-0.00133919,
3.01555,0,0,-0.231029,0,-0.00137828,
3.07594,0,0,-0.229315,0,-0.00141546,
3.13561,0,0,-0.227444,0,-0.00145062,
3.19453,0,0,-0.22542,0,-0.00148362,
3.25262,0,0,-0.223252,0,-0.00151435,
3.30985,0,0,-0.220946,0,-0.00154273,
3.36617,0,0,-0.218512,0,-0.00156865,
3.42154,0,0,-0.215961,0,-0.00159208,
3.47591,0,0,-0.213303,0,-0.00161298,
3.52925,0,0,-0.210551,0,-0.00163133,
3.58152,0,0,-0.207719,0,-0.00164716,
3.6327,0,0,-0.204818,0,-0.00166051,
3.68276,0,0,-0.201862,0,-0.00167146,
3.73167,0,0,-0.198866,0,-0.0016801,
3.77941,0,0,-0.195841,0,-0.00168655,
3.82596,0,0,-0.192802,0,-0.00169094,
3.8713,0,0,-0.189759,0,-0.00169338,
3.91543,0,0,-0.186721,0,-0.00169392,
3.95833,0,0,-0.183715,0,-0.00169298,
4,0,0,-0.180721,0,-0.00169054,
4.04167,0,0,-0.177682,0,-0.00168643,
4.08333,0,0,-0.174593,0,-0.00168089,
4.125,0,0,-0.171458,0,-0.00167392,
4.16667,0,0,-0.168281,0,-0.00166553,
4.20833,0,0,-0.165067,0,-0.00165574,
4.25,0,0,-0.161818,0,-0.00164459,
4.29167,0,0,-0.15854,0,-0.00163211,
4.33333,0,0,-0.155235,0,-0.00161834,
4.375,0,0,-0.151908,0,-0.00160332,
4.41667,0,0,-0.148562,0,-0.00158708,
4.45833,0,0,-0.145201,0,-0.00156968,
4.5,0,0,-0.141828,0,-0.00155114,
4.54167,0,0,-0.138447,0,-0.0015315,
4.58333,0,0,-0.135061,0,-0.00151082,
4.625,0,0,-0.131673,0,-0.00148912,
4.66667,0,0,-0.128288,0,-0.00146645,
4.70833,0,0,-0.124906,0,-0.00144285,
4.75,0,0,-0.121532,0,-0.00141836,
4.79167,0,0,-0.118169,0,-0.00139301,
4.83333,0,0,-0.114818,0,-0.00136686,
4.875,0,0,-0.111483,0,-0.00133992,
4.91667,0,0,-0.108166,0,-0.00131225,
4.95833,0,0,-0.10487,0,-0.00128388,
5,0,0,-0.101596,0,-0.00125484,
5.04167,0,0,-0.098347,0,-0.00122517,
5.08333,0,0,-0.0951247,0,-0.0011949,
5.125,0,0,-0.0919311,0,-0.00116408,
5.16667,0,0,-0.0887681,0,-0.00113272,
5.20833,0,0,-0.0856374,0,-0.00110085,
5.25,0,0,-0.0825406,0,-0.00106852,
5.29167,0,0,-0.0794792,0,-0.00103575,
5.33333,0,0,-0.0764548,0,-0.00100257,
5.375,0,0,-0.0734686,0,-0.000969005,
5.41667,0,0,-0.070522,0,-0.000935091,
5.45833,0,0,-0.0676162,0,-0.000900854,
5.5,0,0,-0.0647522,0,-0.000866322,
5.54167,0,0,-0.061931,0,-0.000831522,
5.58333,0,0,-0.0591537,0,-0.000796482,
5.625,0,0,-0.056421,0,-0.00076123,
5.66667,0,0,-0.0537338,0,-0.000725796,
5.70833,0,0,-0.0510927,0,-0.000690204,
5.75,0,0,-0.0484982,0,-0.000654483,
5.79167,0,0,-0.045951,0,-0.000618655,
5.83333,0,0,-0.0434514,0,-0.000582746,
5.875,0,0,-0.0409999,0,-0.000546777,
5.91667,0,0,-0.0385967,0,-0.000510769,
5.95833,0,0,-0.0362422,0,-0.000474742,
6,0,0,-0.0339366,0,-0.000438713,
6.04167,0,0,-0.0316802,0,-0.0004027,
6.08333,0,0,-0.0294732,0,-0.000366717,
6.125,0,0,-0.0273158,0,-0.00033078,
6.16667,0,0,-0.0252085,0,-0.000294908,
6.20833,0,0,-0.0231516,0,-0.000259123,
6.25,0,0,-0.0211456,0,-0.000223465,
6.29167,0,0,-0.0191911,0,-0.000187994,
6.33333,0,0,-0.0172885,0,-0.000152792,
6.375,0,0,-0.0154374,0,-0.000117936,
6.41667,0,0,-0.0136372,0,-8.3478e-05,
6.45833,0,0,-0.0118867,0,-4.94327e-05,
6.5,0,0,-0.0101851,0,-1.57943e-05,
6.54167,0,0,-0.00853128,0,1.74484e-05,
6.58333,0,0,-0.00692444,0,5.03037e-05,
6.625,0,0,-0.00536369,0,8.2776e-05,
6.66667,0,0,-0.0038482,0,0.000114867,
6.70833,0,0,-0.00237716,0,0.000146579,
6.75,0,0,-0.000949776,0,0.00017791,
6.79167,0,0,0.000434749,0,0.000208862,
6.83333,0,0,0.00177719,0,0.000239433,
6.875,0,0,0.00307831,0,0.000269624,
6.91667,0,0,0.00433889,0,0.000299432,
6.95833,0,0,0.00555968,0,0.000328857,
7,0,0,0.00674145,0,0.000357898,
7.04167,0,0,0.00788497,0,0.000386553,
7.08333,0,0,0.00899098,0,0.000414824,
7.125,0,0,0.0100602,0,0.000442709,
7.16667,0,0,0.0110935,0,0.000470208,
7.20833,0,0,0.0120915,0,0.000497321,
7.25,0,0,0.013055,0,0.000524047,
7.29167,0,0,0.0139847,0,0.000550387,
7.33333,0,0,0.0148814,0,0.000576341,
7.375,0,0,0.0157457,0,0.000601908,
7.41667,0,0,0.0165785,0,0.000627091,
7.45833,0,0,0.0173804,0,0.00065189,
7.5,0,0,0.0181521,0,0.000676308,
7.54167,0,0,0.0188944,0,0.000700349,
7.58333,0,0,0.0196078,0,0.000724017,
7.625,0,0,0.020293,0,0.000747319,
7.66667,0,0,0.0209508,0,0.000770263,
7.70833,0,0,0.0215815,0,0.000792863,
7.75,0,0,0.022186,0,0.000815135,
7.79167,0,0,0.0227648,0,0.000837092,
7.83333,0,0,0.0233178,0,0.000858736,
7.875,0,0,0.0238453,0,0.000880115,
7.91667,0,0,0.0243576,0,0.000901719,
7.95833,0,0,0.0247917,0,0.000922151,
8,0,0,0.0252954,0,0.000942386,
8.04171,0,0,0.0258102,0,0.000963649,
8.08368,0,0,0.0261971,0,0.000984665,
8.12617,0,0,0.0266183,0,0.00100406,
8.16946,0,0,0.0270198,0,0.00102354,
8.21382,0,0,0.0274037,0,0.00104305,
8.25952,0,0,0.0277773,0,0.00106262,
8.30685,0,0,0.0281406,0,0.00108243,
8.35611,0,0,0.0284943,0,0.00110257,
8.40762,0,0,0.0288386,0,0.00112314,
8.46168,0,0,0.0291731,0,0.00114421,
8.51865,0,0,0.0294972,0,0.00116584,
8.57889,0,0,0.0298096,0,0.0011881,
8.64276,0,0,0.0301083,0,0.00121103,
8.71067,0,0,0.0303913,0,0.00123466,
8.78306,0,0,0.0306556,0,0.00125904,
8.86037,0,0,0.030898,0,0.00128417,
8.94309,0,0,0.0311145,0,0.00131006,
9.03174,0,0,0.0313006,0,0.00133671,
9.12689,0,0,0.0314515,0,0.0013641,
9.22912,0,0,0.0315618,0,0.00139219,
9.33908,0,0,0.0316256,0,0.00142094,
9.45746,0,0,0.031637,0,0.00145028,
9.58501,0,0,0.0315896,0,0.00148013,
9.72253,0,0,0.0314769,0,0.0015104,
9.87088,0,0,0.0312928,0,0.00154097,
10.031,0,0,0.0310317,0,0.00157171,
10.2039,0,0,0.0306885,0,0.00160251,
10.3906,0,0,0.0302584,0,0.00163321,
10.5924,0,0,0.0297383,0,0.00166368,
10.8105,0,0,0.0291267,0,0.00169377,
11.0463,0,0,0.0284222,0,0.00172334,
11.3012,0,0,0.0276276,0,0.00175225,
11.5769,0,0,0.0267463,0,0.00178037,
11.8751,0,0,0.0257841,0,0.0018076,
12.1977,0,0,0.0247492,0,0.00183384,
12.5466,0,0,0.0236518,0,0.00185903,
12.9242,0,0,0.0225042,0,0.00188312,
13.3327,0,0,0.0213208,0,0.00190608,
13.7748,0,0,0.0201165,0,0.00192791,
14.2532,0,0,0.0189077,0,0.00194862,
14.7709,0,0,0.0177111,0,0.00196826,
15.3312,0,0,0.0165422,0,0.00198687,
15.9377,0,0,0.0154164,0,0.00200453,
16.594,0,0,0.0143468,0,0.00202133,
17.3044,0,0,0.0133444,0,0.00203735,
18.0733,0,0,0.0124168,0,0.00205265,
18.9056,0,0,0.011568,0,0.00206716,
19.8064,0,0,0.0107995,0,0.00208086,
20.7816,0,0,0.0101087,0,0.00209396,
21.8371,0,0,0.00948879,0,0.00210677,
22.9796,0,0,0.00892934,0,0.00211958,
24.2163,0,0,0.00841691,0,0.00213249,
25.5551,0,0,0.00793584,0,0.0021455,
27.0042,0,0,0.00746895,0,0.00215874,
28.5729,0,0,0.00699778,0,0.0021723,
30.271,0,0,0.00650323,0,0.00218619,
32.1091,0,0,0.00596731,0,0.00220038,
34.0989,0,0,0.00537425,0,0.00221484,
36.2529,0,0,0.00470622,0,0.00222941,
38.5845,0,0,0.00395431,0,0.00224405,
41.1085,0,0,0.003153,0,0.0022586,
43.8407,0,0,0.00215039,0,0.00227088,
46.7983,0,0,0.00110657,0,0.00227879,
50,0,0,0.00200349,0,0.00229563,

