48f149c011dddb64562e65bbdc49fe01e656a823 
X,Z,x_velocity,cp,uw_b,cf,
1,0,0,-0.234983,0,0,
1,9,0,-0.12727,0,0,
1,1.01284,0.482539,-0.228105,-0.00906854,0,
1,0.000308731,0.000529132,-0.234983,-7.05397e-15,0,
1,0.000654158,0.00110435,-0.234983,-3.10902e-13,0,
1,0.00104139,0.00172841,-0.234983,-4.00026e-12,0,
1,0.00147619,0.00240283,-0.234983,-2.73758e-11,0,
1,0.00196502,0.0031276,-0.234983,-1.29507e-10,0,
1,0.00251518,0.00390069,-0.234983,-4.81908e-10,0,
1,0.0031349,0.00471701,-0.234983,-1.51314e-09,0,
1,0.00383341,0.0055674,-0.234983,-4.17364e-09,0,
1,0.00462115,0.00643686,-0.234982,-1.03428e-08,0,
1,0.00550983,0.00730258,-0.234982,-2.32438e-08,0,
1,0.00651264,0.00813089,-0.234982,-4.71595e-08,0,
1,0.00764438,0.00887354,-0.234982,-8.40135e-08,0,
1,0.00892169,0.00946292,-0.234982,-1.19859e-07,0,
1,0.0103632,0.00980782,-0.234981,-8.46863e-08,0,
1,0.0119898,0.00979322,-0.23498,2.43047e-07,0,
1,0.0138248,0.00929321,-0.23498,1.40007e-06,0,
1,0.0158944,0.00820398,-0.234978,4.36099e-06,0,
1,0.0182274,0.00648642,-0.234975,1.03023e-05,0,
1,0.0208562,0.00417979,-0.234971,1.9877e-05,0,
1,0.0238164,0.00136675,-0.234964,3.27377e-05,0,
1,0.0271475,-0.00187293,-0.234955,4.8365e-05,0,
1,0.0308929,-0.00548333,-0.234942,6.62675e-05,0,
1,0.0351001,-0.00944202,-0.234926,8.52919e-05,0,
1,0.0398209,-0.0137479,-0.234907,0.000104696,0,
1,0.0451115,-0.0184001,-0.234884,0.000123799,0,
1,0.0510323,-0.0233839,-0.234858,0.000141864,0,
1,0.057648,-0.0286605,-0.234831,0.000158021,0,
1,0.0650269,-0.0341591,-0.234802,0.000171263,0,
1,0.0732406,-0.0397745,-0.234774,0.000180495,0,
1,0.0823632,-0.0453708,-0.234749,0.000184636,0,
1,0.0924701,-0.0507904,-0.234729,0.000182748,0,
1,0.103636,-0.0558682,-0.234719,0.000174183,0,
1,0.115935,-0.0604482,-0.234721,0.000158695,0,
1,0.129436,-0.0643983,-0.234738,0.000136528,0,
1,0.144202,-0.0676218,-0.234775,0.000108315,0,
1,0.160284,-0.0700619,-0.234832,7.49976e-05,0,
1,0.177724,-0.0717001,-0.234911,3.76777e-05,0,
1,0.196544,-0.0725488,-0.235012,-2.54242e-06,0,
1,0.21675,-0.0726422,-0.235133,-4.46743e-05,0,
1,0.238323,-0.0720271,-0.235271,-8.78852e-05,0,
1,0.26122,-0.0707568,-0.235425,-0.000131476,0,
1,0.28537,-0.0688871,-0.235588,-0.000174828,0,
1,0.310673,-0.0664743,-0.235757,-0.000217342,0,
1,0.337003,-0.0635751,-0.235926,-0.000258403,0,
1,0.364206,-0.0602471,-0.236089,-0.000297353,0,
1,0.392107,-0.0565496,-0.236243,-0.000333518,0,
1,0.420509,-0.0525444,-0.236381,-0.000366183,0,
1,0.449206,-0.0482959,-0.236499,-0.000394604,0,
1,0.477982,-0.0438707,-0.236596,-0.000418033,0,
1,0.506624,-0.0393367,-0.236668,-0.000435769,0,
1,0.534925,-0.0347596,-0.236716,-0.000447234,0,
1,0.562692,-0.0301972,-0.236739,-0.000452188,0,
1,0.589754,-0.0256908,-0.236738,-0.000451002,0,
1,0.615961,-0.0212535,-0.236714,-0.00044531,0,
1,0.641193,-0.0168546,-0.236666,-0.000438531,0,
1,0.665359,-0.0124033,-0.236592,-0.000435978,0,
1,0.688396,-0.00773537,-0.236486,-0.000450932,0,
1,0.710271,-0.00255672,-0.236346,-0.000495052,0,
1,0.730976,0.00363941,-0.236168,-0.000589156,0,
1,0.750529,0.0116026,-0.235958,-0.000759336,0,
1,0.768969,0.0222299,-0.235724,-0.00103368,0,
1,0.78635,0.0362377,-0.235479,-0.00143562,0,
1,0.802743,0.0537131,-0.23522,-0.00197606,0,
1,0.818232,0.0739949,-0.234956,-0.00263302,0,
1,0.832689,0.095813,-0.234685,-0.00335266,0,
1,0.846039,0.117998,-0.234417,-0.00407697,0,
1,0.858357,0.139889,-0.234149,-0.0047703,0,
1,0.869723,0.161099,-0.23388,-0.00541618,0,
1,0.880212,0.181411,-0.233612,-0.00600662,0,
1,0.889898,0.200713,-0.233347,-0.00653893,0,
1,0.898852,0.218958,-0.233085,-0.00701329,0,
1,0.907141,0.236144,-0.232829,-0.00743207,0,
1,0.914826,0.252292,-0.232579,-0.00779947,0,
1,0.921966,0.267448,-0.232337,-0.00812059,0,
1,0.928616,0.281676,-0.232103,-0.00839756,0,
1,0.934823,0.295059,-0.231874,-0.00863534,0,
1,0.940633,0.307682,-0.231651,-0.00883848,0,
1,0.946088,0.319634,-0.231432,-0.00901065,0,
1,0.951224,0.330997,-0.231217,-0.00915461,0,
1,0.956076,0.341847,-0.231006,-0.00927473,0,
1,0.960675,0.352248,-0.2308,-0.00937338,0,
1,0.965047,0.362258,-0.230598,-0.00945252,0,
1,0.969219,0.371925,-0.230401,-0.00951385,0,
1,0.973211,0.381297,-0.230207,-0.00955877,0,
1,0.977045,0.390413,-0.230017,-0.00958846,0,
1,0.980739,0.39931,-0.229831,-0.00960386,0,
1,0.984308,0.408023,-0.229648,-0.00960575,0,
1,0.987768,0.416581,-0.229468,-0.00959471,0,
1,0.991131,0.425014,-0.229291,-0.0095712,0,
1,0.99441,0.433348,-0.229117,-0.0095355,0,
1,0.997615,0.441607,-0.228944,-0.0094878,0,
1,1.00076,0.449814,-0.228773,-0.00942815,0,
1,1.00384,0.457991,-0.228604,-0.00935651,0,
1,1.00688,0.466157,-0.228436,-0.00927271,0,
1,1.00988,0.474334,-0.22827,-0.00917663,0,
1,1.01581,0.490883,-0.227939,-0.00894504,0,
1,1.01882,0.499481,-0.22777,-0.00880321,0,
1,1.02188,0.508362,-0.227599,-0.00864213,0,
1,1.025,0.517552,-0.227426,-0.00845974,0,
1,1.02818,0.527076,-0.227251,-0.00825622,0,
1,1.03144,0.536956,-0.227076,-0.00802806,0,
1,1.03478,0.547211,-0.226899,-0.00777309,0,
1,1.03822,0.557864,-0.226721,-0.007489,0,
1,1.04177,0.568931,-0.226541,-0.00717343,0,
1,1.04544,0.580424,-0.226361,-0.00682409,0,
1,1.04925,0.592346,-0.226181,-0.00643905,0,
1,1.05321,0.604684,-0.226001,-0.00601708,0,
1,1.05735,0.617401,-0.225822,-0.0055583,0,
1,1.06169,0.630426,-0.225646,-0.00506515,0,
1,1.06626,0.643641,-0.225474,-0.00454367,0,
1,1.07108,0.656865,-0.225308,-0.00400496,0,
1,1.07618,0.669852,-0.225151,-0.00346631,0,
1,1.0816,0.682306,-0.225006,-0.00295067,0,
1,1.08738,0.693922,-0.224874,-0.00248326,0,
1,1.09357,0.704469,-0.224757,-0.00208548,0,
1,1.10022,0.713859,-0.224653,-0.00176916,0,
1,1.10739,0.722178,-0.224559,-0.00153448,0,
1,1.11514,0.729634,-0.224469,-0.00137226,0,
1,1.12354,0.736487,-0.224377,-0.0012682,0,
1,1.13268,0.742981,-0.224275,-0.00120671,0,
1,1.14266,0.749317,-0.224158,-0.00117362,0,
1,1.15357,0.755641,-0.224023,-0.00115749,0,
1,1.16554,0.762052,-0.223865,-0.00115005,0,
1,1.1787,0.768616,-0.223682,-0.00114606,0,
1,1.1932,0.77537,-0.223469,-0.00114196,0,
1,1.2092,0.782339,-0.223222,-0.00113633,0,
1,1.22689,0.789537,-0.222936,-0.00112828,0,
1,1.24659,0.797012,-0.222603,-0.00111711,0,
1,1.26879,0.804851,-0.222212,-0.00110389,0,
1,1.29378,0.813056,-0.221752,-0.0010887,0,
1,1.3219,0.821633,-0.221212,-0.00107113,0,
1,1.35351,0.830587,-0.220576,-0.00105151,0,
1,1.389,0.839939,-0.219836,-0.00103085,0,
1,1.42882,0.849738,-0.218949,-0.000996181,0,
1,1.47342,0.860036,-0.217906,-0.000952399,0,
1,1.52332,0.870888,-0.21671,-0.000907166,0,
1,1.57905,0.882383,-0.21533,-0.000858095,0,
1,1.64119,0.894652,-0.213744,-0.000803491,0,
1,1.71033,0.907841,-0.211929,-0.000741167,0,
1,1.78711,0.922086,-0.209863,-0.000668814,0,
1,1.87215,0.937431,-0.207522,-0.00058508,0,
1,1.9661,0.953713,-0.20489,-0.00049032,0,
1,2.06959,0.970391,-0.201936,-0.000389209,0,
1,2.18321,0.986488,-0.19869,-0.000277298,0,
1,2.30752,1.0007,-0.19519,-0.000143211,0,
1,2.44299,1.01146,-0.191418,-4.81725e-05,0,
1,2.59002,1.01732,-0.187439,-4.62463e-06,0,
1,2.74885,1.01815,-0.183343,1.14368e-06,0,
1,2.91959,1.01573,-0.179199,1.04363e-07,0,
1,3.10217,1.01252,-0.175071,5.61427e-08,0,
1,3.2963,1.00992,-0.171007,4.43871e-08,0,
1,3.50146,1.00806,-0.167039,3.55891e-08,0,
1,3.7169,1.00656,-0.163204,3.11385e-08,0,
1,3.94163,1.00512,-0.159534,2.89184e-08,0,
1,4.17441,1.00368,-0.15606,2.69861e-08,0,
1,4.41376,1.00228,-0.152803,2.48022e-08,0,
1,4.65805,1.00098,-0.149778,2.25126e-08,0,
1,4.90545,0.999796,-0.146994,2.0358e-08,0,
1,5.15407,0.99872,-0.144454,1.84083e-08,0,
1,5.40194,0.997753,-0.142155,1.66782e-08,0,
1,5.64716,0.996884,-0.140089,1.52505e-08,0,
1,5.88785,0.996086,-0.138245,1.42253e-08,0,
1,6.12229,0.995325,-0.136612,1.33713e-08,0,
1,6.34896,0.994632,-0.135173,1.18506e-08,0,
1,6.56652,0.9942,-0.133912,9.16662e-09,0,
1,6.77388,0.994329,-0.132812,1.89752e-09,0,
1,6.97022,0.994972,-0.131856,1.02452e-08,0,
1,7.15495,0.994978,-0.131025,1.7562e-06,0,
1,7.32773,0.991863,-0.130309,1.82935e-05,0,
1,7.48842,0.983064,-0.1297,7.70086e-05,0,
1,7.63711,0.968069,-0.129202,0.000208411,0,
1,7.77403,0.948879,-0.128779,0.000393174,0,
1,7.89956,0.927852,-0.128423,0.000547204,0,
1,8.01417,0.906617,-0.128152,0.000699654,0,
1,8.11843,0.886354,-0.127924,0.00083084,0,
1,8.21296,0.867539,-0.127748,0.000936364,0,
1,8.29839,0.850157,-0.127608,0.00101896,0,
1,8.3754,0.833967,-0.127501,0.00108331,0,
1,8.44464,0.818676,-0.12742,0.00113411,0,
1,8.50675,0.80403,-0.127359,0.00117586,0,
1,8.56236,0.789818,-0.127315,0.00120907,0,
1,8.61206,0.775876,-0.127282,0.00123625,0,
1,8.6564,0.762113,-0.12726,0.00126133,0,
1,8.69591,0.748486,-0.127245,0.00128271,0,
1,8.73107,0.734965,-0.127235,0.00130063,0,
1,8.76232,0.721525,-0.127229,0.00131543,0,
1,8.79007,0.708141,-0.127226,0.00132741,0,
1,8.81469,0.694793,-0.127225,0.00133678,0,
1,8.83651,0.681465,-0.127226,0.00134374,0,
1,8.85584,0.668137,-0.127228,0.00134846,0,
1,8.87295,0.654793,-0.127231,0.00135107,0,
1,8.8881,0.641415,-0.127234,0.00135171,0,
1,8.90149,0.627984,-0.127237,0.0013505,0,
1,8.91333,0.614477,-0.12724,0.00134751,0,
1,8.92379,0.60087,-0.127244,0.00134283,0,
1,8.93303,0.587136,-0.127247,0.00133649,0,
1,8.9412,0.573241,-0.12725,0.00132851,0,
1,8.9484,0.559147,-0.127252,0.00131884,0,
1,8.95476,0.544812,-0.127255,0.00130739,0,
1,8.96038,0.530185,-0.127257,0.00129398,0,
1,8.96533,0.515205,-0.127259,0.00127837,0,
1,8.9697,0.499804,-0.127261,0.00126017,0,
1,8.97356,0.483899,-0.127262,0.00123888,0,
1,8.97696,0.467392,-0.127264,0.00121379,0,
1,8.97996,0.450168,-0.127265,0.00118393,0,
1,8.98261,0.432086,-0.127266,0.00114805,0,
1,8.98494,0.41298,-0.127267,0.00110531,0,
1,8.98699,0.392617,-0.127267,0.00105008,0,
1,8.98881,0.37069,-0.127268,0.000979314,0,
1,8.99041,0.346908,-0.127268,0.000892644,0,
1,8.99182,0.321052,-0.127269,0.000787604,0,
1,8.99306,0.292978,-0.127269,0.000663346,0,
1,8.99416,0.262491,-0.127269,0.000501301,0,
1,8.99512,0.229672,-0.127269,0.00033076,0,
1,8.99597,0.195514,-0.12727,0.000179824,0,
1,8.99672,0.161698,-0.127269,7.75003e-05,0,
1,8.99739,0.129905,-0.12727,2.61946e-05,0,
1,8.99797,0.101102,-0.12727,6.92505e-06,0,
1,8.99848,0.0754965,-0.12727,1.38584e-06,0,
1,8.99894,0.0528952,-0.12727,1.8905e-07,0,
1,8.99934,0.0329859,-0.12727,1.37046e-08,0,
1,8.99969,0.0154537,-0.12727,2.93189e-10,0,

4,0,0,-0.120611,0,0,
4,9,0,-0.0963191,0,0,
4,1.05136,0.678173,-0.126992,-0.00432316,0,
4,0.000303409,-0.00694463,-0.120615,9.34791e-11,0,
4,0.00062865,-0.0142348,-0.120612,3.81726e-09,0,
4,0.000979511,-0.0219232,-0.120615,4.44936e-08,0,
4,0.00136016,-0.0300565,-0.120613,2.76139e-07,0,
4,0.00177519,-0.0386721,-0.120616,1.19096e-06,0,
4,0.0022297,-0.0477841,-0.120614,4.05245e-06,0,
4,0.00272934,-0.0573517,-0.120616,1.15792e-05,0,
4,0.00328037,-0.0672181,-0.120615,2.84769e-05,0,
4,0.00388979,-0.077029,-0.120618,6.02133e-05,0,
4,0.00456537,-0.0862111,-0.120618,0.000107944,0,
4,0.00531578,-0.0941517,-0.120623,0.000162769,0,
4,0.0061507,-0.100512,-0.120627,0.000209227,0,
4,0.0070809,-0.10534,-0.120636,0.000236769,0,
4,0.00811839,-0.108909,-0.120648,0.000244275,0,
4,0.00927657,-0.111521,-0.120665,0.000235546,0,
4,0.0105703,-0.113421,-0.120685,0.000214679,0,
4,0.0120162,-0.114784,-0.120713,0.000184492,0,
4,0.0136326,-0.115729,-0.120745,0.000146581,0,
4,0.0154398,-0.116338,-0.120785,0.000101691,0,
4,0.0174603,-0.116664,-0.120832,5.00311e-05,0,
4,0.0197189,-0.116743,-0.120889,-8.53581e-06,0,
4,0.0222427,-0.116599,-0.120955,-7.43775e-05,0,
4,0.0250617,-0.116247,-0.121032,-0.000148029,0,
4,0.0282081,-0.115694,-0.121121,-0.000230155,0,
4,0.0317171,-0.114943,-0.121224,-0.000321528,0,
4,0.0356266,-0.113993,-0.121342,-0.00042301,0,
4,0.039977,-0.11284,-0.121476,-0.000535545,0,
4,0.0448114,-0.111476,-0.121628,-0.000660147,0,
4,0.0501747,-0.109892,-0.121799,-0.000797885,0,
4,0.056114,-0.108075,-0.121991,-0.000949867,0,
4,0.062677,-0.106012,-0.122203,-0.00111723,0,
4,0.0699123,-0.103685,-0.122438,-0.00130109,0,
4,0.0778675,-0.101077,-0.122694,-0.00150255,0,
4,0.0865883,-0.0981669,-0.122973,-0.00172263,0,
4,0.0961173,-0.0949335,-0.123273,-0.00196225,0,
4,0.106492,-0.0913536,-0.123592,-0.00222216,0,
4,0.117744,-0.0874029,-0.12393,-0.0025029,0,
4,0.129894,-0.0830569,-0.124283,-0.00280475,0,
4,0.142956,-0.0782912,-0.124649,-0.00312769,0,
4,0.156928,-0.0730825,-0.125024,-0.0034713,0,
4,0.171798,-0.06741,-0.125404,-0.00383481,0,
4,0.187537,-0.0612562,-0.125787,-0.00421702,0,
4,0.2041,-0.054609,-0.126168,-0.00461631,0,
4,0.221432,-0.0474632,-0.126544,-0.00503076,0,
4,0.239458,-0.0398221,-0.126913,-0.0054582,0,
4,0.258095,-0.0316984,-0.127272,-0.00589649,0,
4,0.27725,-0.023114,-0.127619,-0.0063438,0,
4,0.296825,-0.0140954,-0.127953,-0.00679771,0,
4,0.316717,-0.00466672,-0.128273,-0.00725246,0,
4,0.336828,0.00515303,-0.128583,-0.00770147,0,
4,0.357066,0.0153382,-0.128881,-0.00814532,0,
4,0.377348,0.0258467,-0.129166,-0.00858713,0,
4,0.397605,0.0366313,-0.129423,-0.00902251,0,
4,0.417786,0.0476578,-0.129749,-0.00950355,0,
4,0.437857,0.0590384,-0.129726,-0.0100204,0,
4,0.457804,0.0712386,-0.129153,-0.0102271,0,
4,0.477632,0.0847804,-0.128543,-0.0104263,0,
4,0.497368,0.0997633,-0.128131,-0.0106143,0,
4,0.517057,0.116013,-0.127905,-0.0107768,0,
4,0.536763,0.133272,-0.127814,-0.0109045,0,
4,0.556564,0.151353,-0.127791,-0.0109924,0,
4,0.576557,0.170196,-0.127788,-0.0110384,0,
4,0.596848,0.189862,-0.127779,-0.0110417,0,
4,0.617561,0.21049,-0.127757,-0.0110004,0,
4,0.637962,0.231423,-0.127721,-0.010916,0,
4,0.657495,0.252109,-0.127682,-0.0107937,0,
4,0.676218,0.272565,-0.127645,-0.0106368,0,
4,0.694189,0.292781,-0.127614,-0.0104489,0,
4,0.711463,0.312736,-0.127589,-0.0102339,0,
4,0.728096,0.332396,-0.127568,-0.00999643,0,
4,0.744138,0.351721,-0.12755,-0.00974187,0,
4,0.759639,0.370657,-0.127534,-0.00947622,0,
4,0.774643,0.38915,-0.127519,-0.00920449,0,
4,0.789195,0.40715,-0.127504,-0.00893025,0,
4,0.803334,0.424618,-0.127488,-0.0086564,0,
4,0.817097,0.441529,-0.12747,-0.00838522,0,
4,0.830518,0.457868,-0.127449,-0.00811852,0,
4,0.843629,0.47363,-0.127427,-0.00785774,0,
4,0.856459,0.488809,-0.127402,-0.00760404,0,
4,0.869035,0.503407,-0.127377,-0.00735837,0,
4,0.881383,0.517429,-0.127351,-0.00712153,0,
4,0.893524,0.530883,-0.127326,-0.00689415,0,
4,0.905481,0.543783,-0.127302,-0.00667669,0,
4,0.917272,0.556152,-0.127281,-0.0064694,0,
4,0.928915,0.568018,-0.127262,-0.00627232,0,
4,0.940428,0.579414,-0.127247,-0.00608523,0,
4,0.951826,0.59038,-0.127235,-0.00590768,0,
4,0.963124,0.600957,-0.127226,-0.00573903,0,
4,0.974334,0.611188,-0.127216,-0.00557914,0,
4,0.98547,0.621121,-0.127204,-0.00542693,0,
4,0.996544,0.630817,-0.127186,-0.00528082,0,
4,1.00757,0.640375,-0.127156,-0.00511118,0,
4,1.01855,0.649887,-0.127119,-0.00492795,0,
4,1.0295,0.659372,-0.127079,-0.00473993,0,
4,1.04044,0.668809,-0.127037,-0.00453797,0,
4,1.0623,0.68745,-0.126946,-0.00409659,0,
4,1.07328,0.696623,-0.126896,-0.00385991,0,
4,1.08432,0.705652,-0.126844,-0.00361532,0,
4,1.09543,0.714495,-0.126789,-0.00336546,0,
4,1.10661,0.723103,-0.126732,-0.00311347,0,
4,1.11788,0.731427,-0.126671,-0.00286292,0,
4,1.12925,0.739418,-0.126606,-0.0026177,0,
4,1.14073,0.747028,-0.126538,-0.00238185,0,
4,1.15233,0.754217,-0.126466,-0.00215928,0,
4,1.16408,0.760957,-0.126391,-0.0019535,0,
4,1.17599,0.767234,-0.126311,-0.00176729,0,
4,1.18806,0.773051,-0.126227,-0.00160251,0,
4,1.20034,0.778428,-0.12614,-0.00145992,0,
4,1.21282,0.7834,-0.126048,-0.00133928,0,
4,1.22554,0.788014,-0.125953,-0.00123942,0,
4,1.23852,0.792322,-0.125854,-0.00115849,0,
4,1.25179,0.79638,-0.125752,-0.00109426,0,
4,1.26537,0.80024,-0.125647,-0.00104428,0,
4,1.2793,0.803954,-0.125538,-0.0010061,0,
4,1.29362,0.807565,-0.125426,-0.00097742,0,
4,1.30836,0.811114,-0.125311,-0.000956134,0,
4,1.32357,0.814636,-0.125191,-0.000940396,0,
4,1.3393,0.81816,-0.125068,-0.000928627,0,
4,1.3556,0.821712,-0.12494,-0.000919497,0,
4,1.37252,0.825317,-0.124806,-0.000911966,0,
4,1.39015,0.828994,-0.124667,-0.000905198,0,
4,1.40855,0.832762,-0.124519,-0.000899608,0,
4,1.42781,0.836652,-0.124371,-0.00089295,0,
4,1.44801,0.840723,-0.124227,-0.000876309,0,
4,1.46926,0.84502,-0.124073,-0.00085926,0,
4,1.49167,0.849552,-0.123906,-0.00084163,0,
4,1.51537,0.85432,-0.123727,-0.000823054,0,
4,1.54091,0.85941,-0.123529,-0.000803424,0,
4,1.56949,0.865023,-0.123306,-0.00078222,0,
4,1.60144,0.87122,-0.123053,-0.000758593,0,
4,1.63713,0.878044,-0.122767,-0.000732047,0,
4,1.67693,0.885521,-0.122443,-0.000702266,0,
4,1.72128,0.893665,-0.122078,-0.000668959,0,
4,1.77062,0.902468,-0.121665,-0.00063189,0,
4,1.82542,0.911885,-0.121201,-0.000591024,0,
4,1.88618,0.921849,-0.120676,-0.000545998,0,
4,1.95343,0.932307,-0.120104,-0.00047491,0,
4,2.02768,0.943118,-0.119476,-0.000393987,0,
4,2.10949,0.953914,-0.118777,-0.000305781,0,
4,2.19939,0.964144,-0.118013,-0.000216612,0,
4,2.29789,0.973153,-0.11718,-0.000135087,0,
4,2.40551,0.980261,-0.116285,-6.93944e-05,0,
4,2.52268,0.984918,-0.115332,-2.51176e-05,0,
4,2.64979,0.986928,-0.114334,-2.84484e-06,0,
4,2.78715,0.986659,-0.1133,2.97418e-06,0,
4,2.93497,0.985032,-0.112242,1.74691e-06,0,
4,3.09333,0.983182,-0.111172,3.59885e-07,0,
4,3.26217,0.9819,-0.1101,3.60926e-08,0,
4,3.44125,0.981343,-0.109039,8.05773e-09,0,
4,3.63018,0.981218,-0.107999,4.36221e-09,0,
4,3.82836,0.981172,-0.106986,4.19525e-09,0,
4,4.03501,0.981026,-0.106009,5.0227e-09,0,
4,4.24915,0.980776,-0.105074,5.49706e-09,0,
4,4.46961,0.980487,-0.104186,5.37402e-09,0,
4,4.69507,0.980213,-0.103349,4.92049e-09,0,
4,4.92406,0.97997,-0.102567,4.44235e-09,0,
4,5.15502,0.979754,-0.10184,4.07839e-09,0,
4,5.3863,0.979554,-0.101169,3.9041e-09,0,
4,5.61626,0.979358,-0.100554,4.04313e-09,0,
4,5.84328,0.979148,-0.0999942,4.84119e-09,0,
4,6.06579,0.978927,-0.0994873,7.12486e-09,0,
4,6.28238,0.978761,-0.0990309,9.68117e-09,0,
4,6.49173,0.978813,-0.098622,-1.66491e-08,0,
4,6.69275,0.979246,-0.0982567,-1.91558e-07,0,
4,6.88453,0.979903,-0.0979302,-2.42519e-07,0,
4,7.06634,0.979846,-0.0976374,4.04322e-06,0,
4,7.23771,0.977241,-0.0973787,2.67499e-05,0,
4,7.39831,0.970048,-0.0971502,8.83146e-05,0,
4,7.54803,0.957326,-0.0969634,0.000202911,0,
4,7.68693,0.93991,-0.0968053,0.000346464,0,
4,7.81519,0.919647,-0.0966606,0.000484521,0,
4,7.93313,0.898461,-0.0965491,0.000629857,0,
4,8.04115,0.877886,-0.0964489,0.000764172,0,
4,8.13974,0.858678,-0.0963693,0.000877498,0,
4,8.22941,0.840962,-0.096306,0.000968858,0,
4,8.31073,0.82454,-0.0962591,0.00104153,0,
4,8.38429,0.809113,-0.0962263,0.00109948,0,
4,8.45065,0.794393,-0.096205,0.00114669,0,
4,8.5104,0.780152,-0.0961928,0.00118641,0,
4,8.56407,0.766219,-0.0961876,0.0012193,0,
4,8.61222,0.752481,-0.0961876,0.00124766,0,
4,8.65533,0.738886,-0.0961909,0.00127264,0,
4,8.69387,0.725411,-0.0961964,0.00129349,0,
4,8.7283,0.712036,-0.0962035,0.00131049,0,
4,8.75901,0.698747,-0.0962116,0.00132394,0,
4,8.78637,0.685532,-0.0962202,0.00133412,0,
4,8.81074,0.67238,-0.0962289,0.00134127,0,
4,8.83242,0.659279,-0.0962376,0.00134559,0,
4,8.85169,0.64622,-0.096246,0.00134731,0,
4,8.86881,0.63319,-0.096254,0.00134662,0,
4,8.88402,0.620176,-0.0962615,0.00134373,0,
4,8.89751,0.607162,-0.0962684,0.00133883,0,
4,8.90949,0.594131,-0.0962748,0.00133207,0,
4,8.92011,0.58106,-0.0962806,0.00132362,0,
4,8.92952,0.567924,-0.0962859,0.0013136,0,
4,8.93787,0.554693,-0.0962906,0.00130209,0,
4,8.94526,0.541333,-0.0962947,0.00128913,0,
4,8.95182,0.527803,-0.0962984,0.0012747,0,
4,8.95762,0.514059,-0.0963016,0.00125873,0,
4,8.96276,0.500046,-0.0963044,0.00124105,0,
4,8.96731,0.485704,-0.0963069,0.00122142,0,
4,8.97134,0.470962,-0.096309,0.00119945,0,
4,8.97491,0.455734,-0.0963108,0.00117462,0,
4,8.97807,0.439924,-0.0963123,0.00114622,0,
4,8.98087,0.423415,-0.0963136,0.00111328,0,
4,8.98334,0.406069,-0.0963146,0.00107451,0,
4,8.98553,0.387721,-0.0963156,0.00102869,0,
4,8.98747,0.368157,-0.0963163,0.000971963,0,
4,8.98919,0.347099,-0.096317,0.000899594,0,
4,8.9907,0.324276,-0.0963174,0.000812519,0,
4,8.99205,0.299499,-0.0963179,0.000708941,0,
4,8.99324,0.272616,-0.096318,0.000583061,0,
4,8.99429,0.243487,-0.0963184,0.000428808,0,
4,8.99522,0.212381,-0.0963184,0.000273469,0,
4,8.99605,0.180383,-0.0963187,0.000143636,0,
4,8.99677,0.149071,-0.0963186,6.03314e-05,0,
4,8.99742,0.119843,-0.0963188,2.01521e-05,0,
4,8.99799,0.0934145,-0.0963186,5.32894e-06,0,
4,8.9985,0.0698859,-0.0963189,1.07422e-06,0,
4,8.99894,0.0490592,-0.0963187,1.48027e-07,0,
4,8.99934,0.0306524,-0.096319,1.08415e-08,0,
4,8.99969,0.0143872,-0.0963187,2.33686e-10,0,

6,0,0,0.00580348,0,0,
6,9,0,-0.0730472,0,0,
6,1.07704,0.708658,-0.00916374,-0.00237047,0,
6,0.000299862,0.00288307,0.00579763,-3.93503e-11,0,
6,0.000611645,0.00593425,0.00580226,-1.57419e-09,0,
6,0.000938257,0.00918909,0.00579768,-1.76655e-08,0,
6,0.00128281,0.012686,0.00580117,-1.05544e-07,0,
6,0.00164864,0.0164667,0.00579753,-4.40576e-07,0,
6,0.00203939,0.0205738,0.00580016,-1.46469e-06,0,
6,0.00245897,0.0250435,0.00579715,-4.15248e-06,0,
6,0.00291168,0.0298899,0.00579904,-1.03928e-05,0,
6,0.00340221,0.0350757,0.00579627,-2.3247e-05,0,
6,0.00393573,0.0404736,0.00579721,-4.6329e-05,0,
6,0.00451788,0.0458514,0.0057938,-8.14939e-05,0,
6,0.00515491,0.0509278,0.00579262,-0.000126127,0,
6,0.00585371,0.0554886,0.00578683,-0.00017379,0,
6,0.00662185,0.0594584,0.00578163,-0.000218516,0,
6,0.00746774,0.0628775,0.00577153,-0.000257783,0,
6,0.00840063,0.0658385,0.00576055,-0.000291968,0,
6,0.00943073,0.06844,0.00574454,-0.000322613,0,
6,0.0105693,0.0707673,0.00572625,-0.00035134,0,
6,0.0118288,0.0728883,0.00570267,-0.000379499,0,
6,0.0132228,0.074856,0.00567536,-0.000408145,0,
6,0.0147664,0.0767111,0.00564215,-0.000438117,0,
6,0.016476,0.0784859,0.00560361,-0.000470108,0,
6,0.0183694,0.0802062,0.00555814,-0.000504728,0,
6,0.0204662,0.0818931,0.00550559,-0.000542541,0,
6,0.0227875,0.0835646,0.00544463,-0.000584095,0,
6,0.0253561,0.0852361,0.00537461,-0.000629939,0,
6,0.0281964,0.0869215,0.00529432,-0.000680632,0,
6,0.0313344,0.0886334,0.00520278,-0.000736755,0,
6,0.0347975,0.0903834,0.00509879,-0.000798912,0,
6,0.0386145,0.0921827,0.00498123,-0.000867731,0,
6,0.042815,0.0940421,0.0048489,-0.000943863,0,
6,0.0474296,0.0959718,0.00470068,-0.00102798,0,
6,0.0524888,0.0979823,0.00453549,-0.00112076,0,
6,0.0580229,0.100083,0.0043524,-0.00122288,0,
6,0.0640611,0.102285,0.00415064,-0.00133501,0,
6,0.0706309,0.104597,0.00392968,-0.0014578,0,
6,0.077757,0.107029,0.00368925,-0.00159184,0,
6,0.0854609,0.109591,0.00342948,-0.00173765,0,
6,0.0937597,0.11229,0.00315082,-0.00189567,0,
6,0.102665,0.115135,0.00285419,-0.00206623,0,
6,0.112183,0.118134,0.00254089,-0.00224952,0,
6,0.122315,0.121295,0.00221265,-0.0024456,0,
6,0.133052,0.124623,0.00187156,-0.00265435,0,
6,0.144384,0.128125,0.00152,-0.00287552,0,
6,0.156292,0.131806,0.00116057,-0.00310867,0,
6,0.168754,0.13567,0.000795937,-0.00335327,0,
6,0.181744,0.139723,0.000428788,-0.00360863,0,
6,0.195237,0.143969,6.16656e-05,-0.00387401,0,
6,0.209207,0.148414,-0.000303113,-0.00414865,0,
6,0.223631,0.153064,-0.000663541,-0.00443177,0,
6,0.238493,0.15793,-0.00101798,-0.00472265,0,
6,0.253785,0.163022,-0.00136518,-0.00502068,0,
6,0.269507,0.168357,-0.00170431,-0.00532536,0,
6,0.28567,0.173954,-0.00203492,-0.00563633,0,
6,0.3023,0.17984,-0.00235687,-0.0059534,0,
6,0.319433,0.186046,-0.00267045,-0.00627649,0,
6,0.337122,0.192612,-0.00297651,-0.00660653,0,
6,0.355433,0.199589,-0.00327244,-0.00694381,0,
6,0.374445,0.207041,-0.00355159,-0.00728767,0,
6,0.394252,0.215055,-0.00380652,-0.00763773,0,
6,0.414961,0.223744,-0.00402851,-0.00799214,0,
6,0.436695,0.23325,-0.00421227,-0.00834711,0,
6,0.459585,0.243754,-0.00434835,-0.00869375,0,
6,0.48378,0.255457,-0.00449579,-0.00903105,0,
6,0.508144,0.267948,-0.00459903,-0.00948868,0,
6,0.531799,0.281195,-0.00416716,-0.00959331,0,
6,0.554791,0.295813,-0.00332583,-0.00956754,0,
6,0.577166,0.312032,-0.00276127,-0.00951434,0,
6,0.598964,0.329583,-0.00249096,-0.00942525,0,
6,0.620228,0.34796,-0.00243942,-0.00929243,0,
6,0.640996,0.366691,-0.00251081,-0.0091136,0,
6,0.661304,0.38546,-0.00263444,-0.00889118,0,
6,0.681188,0.40411,-0.00277316,-0.00863092,0,
6,0.700681,0.422571,-0.0029155,-0.00834022,0,
6,0.719813,0.440796,-0.00306422,-0.00802628,0,
6,0.738612,0.458734,-0.00322608,-0.00769572,0,
6,0.757107,0.476318,-0.00340608,-0.00735444,0,
6,0.775322,0.493481,-0.00360584,-0.00700769,0,
6,0.793282,0.510161,-0.00382449,-0.00666007,0,
6,0.811008,0.526303,-0.00405981,-0.00631564,0,
6,0.828521,0.54186,-0.00431044,-0.00597821,0,
6,0.845842,0.556779,-0.00457485,-0.00565803,0,
6,0.862989,0.571019,-0.00485034,-0.00535397,0,
6,0.879979,0.58458,-0.00513517,-0.00506502,0,
6,0.896829,0.597492,-0.00542865,-0.00479033,0,
6,0.913555,0.609802,-0.00573063,-0.00452908,0,
6,0.930172,0.621558,-0.00604114,-0.00428044,0,
6,0.946694,0.632803,-0.00636002,-0.00404352,0,
6,0.963136,0.643576,-0.00668692,-0.00381731,0,
6,0.97951,0.653913,-0.00702138,-0.00360054,0,
6,0.99583,0.663855,-0.00736268,-0.00339152,0,
6,1.01211,0.673457,-0.00771033,-0.00317953,0,
6,1.02836,0.68276,-0.00806422,-0.00296875,0,
6,1.04459,0.691751,-0.00842449,-0.00276399,0,
6,1.06081,0.700395,-0.00879107,-0.0025637,0,
6,1.09329,0.716516,-0.00954242,-0.00218685,0,
6,1.10959,0.723951,-0.00992702,-0.00201527,0,
6,1.12595,0.730952,-0.0103173,-0.00185772,0,
6,1.14238,0.737516,-0.010713,-0.00171568,0,
6,1.1589,0.743658,-0.0111139,-0.00158996,0,
6,1.17551,0.7494,-0.0115198,-0.00148069,0,
6,1.19223,0.754775,-0.0119306,-0.00138739,0,
6,1.20907,0.759825,-0.0123462,-0.00130903,0,
6,1.22605,0.764592,-0.0127666,-0.0012442,0,
6,1.24318,0.769121,-0.0131918,-0.00119128,0,
6,1.26048,0.773455,-0.013622,-0.00114853,0,
6,1.27797,0.777633,-0.014057,-0.00111425,0,
6,1.29566,0.78169,-0.0144978,-0.00108681,0,
6,1.31357,0.785658,-0.0149429,-0.00106478,0,
6,1.33173,0.789563,-0.0153961,-0.00104679,0,
6,1.35015,0.793426,-0.0158497,-0.00103489,0,
6,1.36886,0.797292,-0.0163174,-0.00102638,0,
6,1.38788,0.801275,-0.0168062,-0.000996973,0,
6,1.40725,0.805461,-0.0173004,-0.000968268,0,
6,1.42698,0.80981,-0.0177995,-0.000942986,0,
6,1.44712,0.814235,-0.0183028,-0.000920428,0,
6,1.46769,0.818673,-0.0188134,-0.000899809,0,
6,1.48874,0.823111,-0.019334,-0.000880173,0,
6,1.5103,0.827568,-0.0198667,-0.000860498,0,
6,1.53242,0.832075,-0.0204128,-0.000840223,0,
6,1.55515,0.836655,-0.020973,-0.00081918,0,
6,1.57854,0.841319,-0.0215483,-0.000797488,0,
6,1.60265,0.846071,-0.0221393,-0.000775254,0,
6,1.62754,0.850909,-0.0227474,-0.000752475,0,
6,1.65329,0.855831,-0.0233734,-0.000729208,0,
6,1.67998,0.860838,-0.0240195,-0.000705413,0,
6,1.70768,0.865928,-0.0246857,-0.00068119,0,
6,1.73712,0.871199,-0.0253925,-0.000656455,0,
6,1.76996,0.876883,-0.0261735,-0.000629645,0,
6,1.80655,0.883009,-0.0270375,-0.000600331,0,
6,1.84728,0.889572,-0.0279922,-0.000567508,0,
6,1.89255,0.896595,-0.0290514,-0.000517969,0,
6,1.9428,0.904081,-0.0302146,-0.000463793,0,
6,1.99849,0.911931,-0.0314854,-0.000402805,0,
6,2.06009,0.919957,-0.0328703,-0.000336181,0,
6,2.1281,0.927899,-0.0343693,-0.000267135,0,
6,2.20301,0.935443,-0.0359822,-0.000199693,0,
6,2.28535,0.942228,-0.0377034,-0.000138185,0,
6,2.37559,0.947895,-0.0395232,-8.6623e-05,0,
6,2.47424,0.952146,-0.0414266,-4.78195e-05,0,
6,2.58172,0.954845,-0.0433944,-2.23152e-05,0,
6,2.69844,0.956101,-0.0454037,-8.53601e-06,0,
6,2.82473,0.956305,-0.0474297,-2.87482e-06,0,
6,2.96084,0.956053,-0.0494481,-1.15237e-06,0,
6,3.10691,0.955948,-0.0514376,-5.64938e-07,0,
6,3.26296,0.956359,-0.0533804,-2.256e-07,0,
6,3.42888,0.957307,-0.055261,-7.01021e-08,0,
6,3.60438,0.958555,-0.0570648,-3.17325e-08,0,
6,3.78902,0.959815,-0.0587771,-2.50355e-08,0,
6,3.98218,0.960908,-0.0603851,-2.11134e-08,0,
6,4.18307,0.961802,-0.061879,-1.77735e-08,0,
6,4.39071,0.96255,-0.0632526,-1.53349e-08,0,
6,4.60398,0.963214,-0.0645032,-1.35552e-08,0,
6,4.82159,0.963824,-0.0656315,-1.21456e-08,0,
6,5.04218,0.964384,-0.0666408,-1.09887e-08,0,
6,5.26426,0.964885,-0.0675365,-1.02798e-08,0,
6,5.48633,0.965316,-0.0683255,-1.06184e-08,0,
6,5.70687,0.965669,-0.0690161,-1.34966e-08,0,
6,5.92439,0.965951,-0.0696167,-2.30763e-08,0,
6,6.1375,0.966206,-0.0701361,-5.46712e-08,0,
6,6.34489,0.966548,-0.0705829,-1.71551e-07,0,
6,6.5454,0.967119,-0.0709652,-5.53152e-07,0,
6,6.73802,0.967908,-0.0712901,-1.19382e-06,0,
6,6.92195,0.968424,-0.0715644,2.94848e-07,0,
6,7.09653,0.967443,-0.0717939,1.30853e-05,0,
6,7.26132,0.963224,-0.0719881,5.35384e-05,0,
6,7.41603,0.954303,-0.0721472,0.000137187,0,
6,7.56054,0.940398,-0.0722858,0.000269283,0,
6,7.6949,0.922443,-0.0723989,0.00038688,0,
6,7.81927,0.90202,-0.0724826,0.000518594,0,
6,7.93391,0.880987,-0.0725505,0.000654608,0,
6,8.0392,0.860783,-0.0725971,0.00077895,0,
6,8.13555,0.84205,-0.0726354,0.00088419,0,
6,8.22344,0.824816,-0.0726662,0.000969962,0,
6,8.30339,0.808818,-0.0726956,0.00103939,0,
6,8.37592,0.793729,-0.0727236,0.00109587,0,
6,8.44155,0.779262,-0.0727512,0.00114278,0,
6,8.50082,0.765204,-0.0727777,0.00118281,0,
6,8.55423,0.751417,-0.072803,0.00121753,0,
6,8.60229,0.737819,-0.0728267,0.00124776,0,
6,8.64545,0.724369,-0.0728488,0.0012739,0,
6,8.68417,0.711043,-0.0728698,0.00129508,0,
6,8.71885,0.697827,-0.0728892,0.00131185,0,
6,8.74989,0.684714,-0.0729069,0.00132455,0,
6,8.77763,0.671697,-0.0729232,0.00133345,0,
6,8.80241,0.658773,-0.0729379,0.00133886,0,
6,8.82452,0.645936,-0.0729512,0.00134109,0,
6,8.84423,0.633178,-0.0729633,0.00134042,0,
6,8.86181,0.62049,-0.0729741,0.00133714,0,
6,8.87746,0.607862,-0.0729838,0.00133155,0,
6,8.89139,0.595278,-0.0729924,0.00132391,0,
6,8.90379,0.58272,-0.073,0.00131446,0,
6,8.91482,0.570168,-0.0730067,0.00130345,0,
6,8.92463,0.557597,-0.0730126,0.00129105,0,
6,8.93334,0.544976,-0.0730178,0.00127741,0,
6,8.94109,0.532274,-0.0730223,0.00126262,0,
6,8.94798,0.519452,-0.0730262,0.00124672,0,
6,8.95409,0.506467,-0.0730296,0.00122969,0,
6,8.95953,0.493271,-0.0730325,0.00121143,0,
6,8.96435,0.479808,-0.0730349,0.00119175,0,
6,8.96863,0.466015,-0.0730371,0.00117037,0,
6,8.97244,0.451818,-0.0730388,0.00114689,0,
6,8.97581,0.437134,-0.0730404,0.00112075,0,
6,8.97881,0.421864,-0.0730416,0.0010912,0,
6,8.98147,0.405892,-0.0730427,0.00105725,0,
6,8.98383,0.389082,-0.0730435,0.00101759,0,
6,8.98593,0.371272,-0.0730443,0.000970923,0,
6,8.98779,0.352256,-0.0730449,0.000913558,0,
6,8.98944,0.331775,-0.0730454,0.000841187,0,
6,8.9909,0.309582,-0.0730457,0.000754955,0,
6,8.9922,0.285519,-0.0730461,0.000653535,0,
6,8.99336,0.259433,-0.0730463,0.000528013,0,
6,8.99438,0.231229,-0.0730466,0.000380734,0,
6,8.99529,0.201298,-0.0730465,0.000237079,0,
6,8.99609,0.170765,-0.0730468,0.000121719,0,
6,8.99681,0.141106,-0.0730467,5.03297e-05,0,
6,8.99744,0.113531,-0.0730469,1.67082e-05,0,
6,8.99801,0.0886097,-0.0730467,4.42476e-06,0,
6,8.9985,0.0663889,-0.073047,8.97039e-07,0,
6,8.99895,0.0466736,-0.0730467,1.24514e-07,0,
6,8.99934,0.029204,-0.0730471,9.18558e-09,0,
6,8.99969,0.0137264,-0.0730467,1.9905e-10,0,

10,0,0,-0.00808773,0,0,
10,0.000296632,0.00761257,-0.00807957,-4.06771e-11,0,
10,0.000596102,0.0152722,-0.00808698,-1.50308e-09,0,
10,0.000900397,0.0230303,-0.00808023,-1.52401e-08,0,
10,0.00121153,0.0309385,-0.00808634,-8.16932e-08,0,
10,0.00153158,0.0390479,-0.00808077,-3.04944e-07,0,
10,0.00186264,0.0474088,-0.0080858,-9.05334e-07,0,
10,0.00220692,0.0560681,-0.00808121,-2.29677e-06,0,
10,0.00256668,0.065066,-0.00808537,-5.19006e-06,0,
10,0.00294431,0.0744291,-0.00808156,-1.07066e-05,0,
10,0.00334229,0.0841607,-0.00808503,-2.04488e-05,0,
10,0.00376326,0.0942277,-0.00808184,-3.64194e-05,0,
10,0.00421,0.104548,-0.00808476,-6.06499e-05,0,
10,0.00468544,0.114983,-0.00808205,-9.45007e-05,0,
10,0.00519274,0.125348,-0.00808451,-0.000137873,0,
10,0.00573524,0.135438,-0.0080822,-0.000188846,0,
10,0.00631651,0.145063,-0.00808426,-0.000244111,0,
10,0.00694041,0.154079,-0.00808228,-0.000299985,0,
10,0.00761104,0.162403,-0.00808397,-0.000353398,0,
10,0.00833284,0.17001,-0.00808229,-0.000402385,0,
10,0.00911058,0.17692,-0.0080836,-0.000446089,0,
10,0.0099494,0.18318,-0.00808219,-0.000484489,0,
10,0.0108548,0.188855,-0.00808314,-0.000518086,0,
10,0.0118329,0.194014,-0.00808196,-0.000547633,0,
10,0.0128901,0.198723,-0.00808256,-0.00057396,0,
10,0.0140333,0.203047,-0.00808156,-0.000597869,0,
10,0.0152702,0.20704,-0.00808184,-0.000620088,0,
10,0.0166089,0.210754,-0.00808097,-0.000641253,0,
10,0.0180584,0.214229,-0.00808096,-0.000661914,0,
10,0.0196282,0.217504,-0.00808014,-0.000682547,0,
10,0.0213288,0.220611,-0.00807987,-0.000703566,0,
10,0.0231714,0.223576,-0.00807906,-0.000725337,0,
10,0.0251682,0.226425,-0.00807855,-0.000748196,0,
10,0.0273326,0.229179,-0.00807769,-0.000772452,0,
10,0.0296789,0.231855,-0.00807697,-0.000798402,0,
10,0.0322227,0.234472,-0.00807601,-0.000826336,0,
10,0.0349809,0.237044,-0.00807509,-0.000856543,0,
10,0.0379719,0.239585,-0.008074,-0.00088932,0,
10,0.0412155,0.24211,-0.00807289,-0.000924969,0,
10,0.0447333,0.24463,-0.00807167,-0.000963808,0,
10,0.0485489,0.247157,-0.0080704,-0.00100617,0,
10,0.0526875,0.249703,-0.00806905,-0.00105242,0,
10,0.0571768,0.25228,-0.00806766,-0.00110293,0,
10,0.0620466,0.2549,-0.00806623,-0.0011581,0,
10,0.0673295,0.257575,-0.0080648,-0.00121837,0,
10,0.0730607,0.260318,-0.0080634,-0.0012842,0,
10,0.0792784,0.263141,-0.00806209,-0.00135611,0,
10,0.0860241,0.266058,-0.00806094,-0.00143462,0,
10,0.0933428,0.269084,-0.00806002,-0.00152032,0,
10,0.101283,0.272235,-0.00805947,-0.00161382,0,
10,0.109899,0.275529,-0.00805943,-0.00171579,0,
10,0.119247,0.278983,-0.0080601,-0.00182694,0,
10,0.12939,0.282618,-0.00806173,-0.00194803,0,
10,0.140395,0.286456,-0.00806464,-0.00207985,0,
10,0.152337,0.290524,-0.00806924,-0.00222324,0,
10,0.165296,0.294847,-0.00807603,-0.0023791,0,
10,0.179357,0.299458,-0.00808563,-0.00254834,0,
10,0.194615,0.30439,-0.00809888,-0.0027319,0,
10,0.211171,0.309682,-0.00811667,-0.00293074,0,
10,0.229138,0.315378,-0.0081403,-0.00314581,0,
10,0.248635,0.321525,-0.00817102,-0.00337805,0,
10,0.269793,0.32818,-0.00821085,-0.00362833,0,
10,0.292753,0.335404,-0.00826116,-0.00389739,0,
10,0.317669,0.343265,-0.00832556,-0.00418471,0,
10,0.344708,0.351837,-0.00840366,-0.00449067,0,
10,0.372405,0.360684,-0.00849607,-0.00479951,0,
10,0.399623,0.369455,-0.00859797,-0.0050971,0,
10,0.426397,0.378162,-0.00870633,-0.00538238,0,
10,0.452757,0.386816,-0.00882064,-0.00565647,0,
10,0.478735,0.395427,-0.00894145,-0.00591986,0,
10,0.504358,0.404001,-0.00906032,-0.00617406,0,
10,0.529657,0.412548,-0.00917888,-0.00642474,0,
10,0.554656,0.421089,-0.00937597,-0.0067058,0,
10,0.579382,0.429771,-0.00974669,-0.00684925,0,
10,0.603859,0.438774,-0.0102708,-0.00697283,0,
10,0.628112,0.448148,-0.0108572,-0.00706526,0,
10,0.652163,0.457872,-0.0114491,-0.00714558,0,
10,0.676035,0.467882,-0.0120181,-0.00721321,0,
10,0.699751,0.478108,-0.0125526,-0.00726691,0,
10,0.72333,0.488502,-0.013057,-0.00730538,0,
10,0.746795,0.499036,-0.0135307,-0.00732743,0,
10,0.770165,0.509705,-0.0139749,-0.00733201,0,
10,0.79346,0.520524,-0.0143883,-0.00731818,0,
10,0.816699,0.531523,-0.0147691,-0.00728483,0,
10,0.839903,0.542744,-0.0151156,-0.00723062,0,
10,0.863088,0.554235,-0.0154266,-0.00715393,0,
10,0.886275,0.566052,-0.0157022,-0.00705279,0,
10,0.909481,0.57825,-0.0159435,-0.00692502,0,
10,0.932723,0.590888,-0.0161527,-0.00676828,0,
10,0.956021,0.604012,-0.0163329,-0.00658053,0,
10,0.97939,0.617658,-0.0164877,-0.00636075,0,
10,1.00285,0.631828,-0.0166214,-0.00610931,0,
10,1.02641,0.64648,-0.0167381,-0.00582796,0,
10,1.0501,0.661525,-0.0168416,-0.00551954,0,
10,1.07392,0.67682,-0.0169344,-0.00518835,0,
10,1.0979,0.692175,-0.0170186,-0.00484029,0,
10,1.12205,0.707362,-0.0170961,-0.00448275,0,
10,1.14639,0.722119,-0.0171695,-0.00413463,0,
10,1.17093,0.736216,-0.0172366,-0.00379932,0,
10,1.19568,0.749526,-0.017292,-0.00347878,0,
10,1.22066,0.762033,-0.0173309,-0.00317577,0,
10,1.24589,0.773784,-0.0173492,-0.00289114,0,
10,1.27137,0.784863,-0.0173437,-0.00262406,0,
10,1.29713,0.795362,-0.0173116,-0.00237237,0,
10,1.32317,0.805397,-0.0172362,-0.00211531,0,
10,1.34951,0.815019,-0.017135,-0.00186538,0,
10,1.37616,0.824164,-0.0170323,-0.00163163,0,
10,1.40313,0.832732,-0.0169253,-0.00141608,0,
10,1.43043,0.840656,-0.0168179,-0.00122506,0,
10,1.45807,0.847917,-0.0167114,-0.0010626,0,
10,1.48607,0.854546,-0.0166059,-0.000929735,0,
10,1.51444,0.86062,-0.0165037,-0.000824778,0,
10,1.54318,0.866243,-0.0164002,-0.000746596,0,
10,1.57231,0.871556,-0.0162943,-0.000682485,0,
10,1.60184,0.87672,-0.016183,-0.000622464,0,
10,1.63178,0.881795,-0.0160708,-0.000571498,0,
10,1.66213,0.886744,-0.0159667,-0.000527051,0,
10,1.69292,0.891524,-0.0158682,-0.000488074,0,
10,1.72416,0.896123,-0.0157751,-0.000453685,0,
10,1.75585,0.900551,-0.0156862,-0.000422935,0,
10,1.78802,0.90482,-0.0156013,-0.000394967,0,
10,1.82067,0.90894,-0.0155213,-0.000369197,0,
10,1.85383,0.912928,-0.0154441,-0.000345348,0,
10,1.88751,0.91682,-0.0153679,-0.000318707,0,
10,1.92173,0.920641,-0.0152959,-0.000292595,0,
10,1.95652,0.924379,-0.0152297,-0.000265928,0,
10,1.9919,0.928007,-0.0151689,-0.000238474,0,
10,2.02791,0.931495,-0.0151151,-0.00021073,0,
10,2.06456,0.934815,-0.0150667,-0.000182967,0,
10,2.10268,0.937999,-0.0150268,-0.000154808,0,
10,2.1443,0.941133,-0.0149917,-0.000126947,0,
10,2.18977,0.944153,-0.0149658,-9.97662e-05,0,
10,2.23946,0.94696,-0.0149512,-7.37178e-05,0,
10,2.29376,0.949441,-0.0149525,-4.9905e-05,0,
10,2.35309,0.951481,-0.0149739,-2.93789e-05,0,
10,2.4179,0.952972,-0.0150211,-1.29958e-05,0,
10,2.48863,0.953831,-0.0151,-1.27172e-06,0,
10,2.56575,0.954021,-0.0152177,5.73736e-06,0,
10,2.64971,0.953572,-0.0153809,8.5235e-06,0,
10,2.74098,0.952597,-0.0155966,8.12652e-06,0,
10,2.83997,0.951289,-0.0158709,5.96804e-06,0,
10,2.94709,0.949895,-0.0162091,3.46537e-06,0,
10,3.06269,0.948666,-0.0166148,1.56586e-06,0,
10,3.18706,0.947787,-0.0170901,5.28368e-07,0,
10,3.3204,0.947323,-0.0176356,1.22441e-07,0,
10,3.46281,0.947219,-0.0182499,1.47471e-08,0,
10,3.61427,0.947334,-0.0189301,-1.79222e-09,0,
10,3.77463,0.947518,-0.0196711,-2.14455e-09,0,
10,3.94358,0.947667,-0.0204662,-1.53314e-09,0,
10,4.12067,0.94775,-0.0213066,-1.3238e-09,0,
10,4.30525,0.947796,-0.0221819,-1.61074e-09,0,
10,4.49655,0.947851,-0.0230807,-2.34472e-09,0,
10,4.6936,0.947949,-0.0239907,-3.35914e-09,0,
10,4.89531,0.948098,-0.0248997,-4.6236e-09,0,
10,5.10047,0.948284,-0.025796,-6.51525e-09,0,
10,5.30776,0.948485,-0.0266687,-1.01172e-08,0,
10,5.51581,0.948679,-0.0275081,-1.78321e-08,0,
10,5.72323,0.94886,-0.028306,-3.55685e-08,0,
10,5.92863,0.949045,-0.0290561,-8.20811e-08,0,
10,6.13069,0.949297,-0.0297538,-2.20669e-07,0,
10,6.32816,0.949708,-0.030396,-6.07942e-07,0,
10,6.51991,0.950317,-0.0309817,-1.33078e-06,0,
10,6.70495,0.950914,-0.0315113,-1.24654e-06,0,
10,6.88244,0.950808,-0.0319859,4.65729e-06,0,
10,7.0517,0.948794,-0.0324077,2.70406e-05,0,
10,7.21224,0.943477,-0.0327769,7.94348e-05,0,
10,7.3637,0.933931,-0.0330983,0.000171817,0,
10,7.5059,0.920152,-0.0333756,0.00029756,0,
10,7.63878,0.902689,-0.0336123,0.000406959,0,
10,7.76243,0.882601,-0.0338158,0.000529285,0,
10,7.87701,0.861659,-0.0339793,0.000655843,0,
10,7.9828,0.841374,-0.0341158,0.000771777,0,
10,8.08014,0.822519,-0.0342254,0.000870917,0,
10,8.16941,0.805215,-0.0343169,0.000953045,0,
10,8.25106,0.789224,-0.0343932,0.001021,0,
10,8.32554,0.774196,-0.0344592,0.00107754,0,
10,8.39331,0.759813,-0.0345162,0.00112533,0,
10,8.45484,0.745844,-0.0345661,0.00116664,0,
10,8.5106,0.73215,-0.0346094,0.00120267,0,
10,8.56104,0.718664,-0.0346469,0.00123391,0,
10,8.60659,0.705372,-0.0346795,0.00126049,0,
10,8.64767,0.692285,-0.0347079,0.00128252,0,
10,8.68467,0.679418,-0.0347331,0.00130014,0,
10,8.71795,0.66675,-0.0347554,0.00130919,0,
10,8.74786,0.654253,-0.0347747,0.00131496,0,
10,8.77471,0.641926,-0.0347917,0.00131672,0,
10,8.79881,0.629766,-0.0348064,0.00131482,0,
10,8.8204,0.617767,-0.0348192,0.00130973,0,
10,8.83975,0.60592,-0.0348303,0.00130193,0,
10,8.85708,0.594212,-0.0348399,0.00129188,0,
10,8.87259,0.582626,-0.0348481,0.00128002,0,
10,8.88646,0.571142,-0.0348553,0.00126672,0,
10,8.89886,0.559735,-0.0348614,0.00125231,0,
10,8.90995,0.548381,-0.0348666,0.00123707,0,
10,8.91986,0.537048,-0.034871,0.00122121,0,
10,8.92872,0.525705,-0.0348748,0.00120486,0,
10,8.93663,0.514318,-0.0348779,0.00118812,0,
10,8.94369,0.502847,-0.0348806,0.00117102,0,
10,8.95,0.491253,-0.0348828,0.0011535,0,
10,8.95564,0.479489,-0.0348848,0.00113549,0,
10,8.96067,0.467509,-0.0348863,0.00111683,0,
10,8.96517,0.455258,-0.0348877,0.00109727,0,
10,8.96918,0.442676,-0.0348887,0.00107649,0,
10,8.97276,0.429694,-0.0348897,0.00105407,0,
10,8.97596,0.416235,-0.0348904,0.00102945,0,
10,8.97882,0.402207,-0.0348911,0.00100191,0,
10,8.98137,0.387504,-0.0348915,0.000970541,0,
10,8.98365,0.372003,-0.0348921,0.000934152,0,
10,8.98569,0.355557,-0.0348922,0.000891504,0,
10,8.9875,0.337981,-0.0348927,0.000839817,0,
10,8.98913,0.31904,-0.0348927,0.000774607,0,
10,8.99058,0.298502,-0.0348932,0.000697399,0,
10,8.99188,0.276217,-0.034893,0.000606987,0,
10,8.99304,0.25203,-0.0348934,0.000495673,0,
10,8.99408,0.225814,-0.0348932,0.00036445,0,
10,8.99501,0.197837,-0.0348936,0.000233819,0,
10,8.99583,0.169017,-0.0348933,0.000124919,0,
10,8.99658,0.140657,-0.0348937,5.40101e-05,0,
10,8.99724,0.113934,-0.0348933,1.8725e-05,0,
10,8.99784,0.0894865,-0.0348938,5.15664e-06,0,
10,8.99837,0.0674498,-0.0348933,1.08262e-06,0,
10,8.99885,0.0476961,-0.0348939,1.55159e-07,0,
10,8.99927,0.0300134,-0.0348932,1.17821e-08,0,
10,8.99966,0.0141838,-0.034894,2.60715e-10,0,
10,9,0,-0.0348932,0,0,

0.0416667,0,0,-0.232005,0,3.14021e-06,
0.0833333,0,0,-0.232169,0,5.08142e-06,
0.125,0,0,-0.232101,0,6.44608e-06,
0.166667,0,0,-0.232152,0,1.07398e-05,
0.208333,0,0,-0.232156,0,1.51587e-05,
0.25,0,0,-0.2322,0,2.00168e-05,
0.291667,0,0,-0.232239,0,2.43138e-05,
0.333333,0,0,-0.232295,0,2.80201e-05,
0.375,0,0,-0.232352,0,3.0965e-05,
0.416667,0,0,-0.232418,0,3.3506e-05,
0.458333,0,0,-0.232488,0,3.60276e-05,
0.5,0,0,-0.232566,0,3.90165e-05,
0.541667,0,0,-0.232654,0,4.28457e-05,
0.583333,0,0,-0.232757,0,4.77548e-05,
0.625,0,0,-0.232878,0,5.37892e-05,
0.666667,0,0,-0.233019,0,6.08035e-05,
0.708333,0,0,-0.233184,0,6.84819e-05,
0.75,0,0,-0.233373,0,7.63721e-05,
0.791667,0,0,-0.233586,0,8.3938e-05,
0.833333,0,0,-0.233821,0,9.06331e-05,
0.875,0,0,-0.234076,0,9.60186e-05,
0.916667,0,0,-0.234351,0,9.97972e-05,
0.958333,0,0,-0.234651,0,0.000101727,
1,0,0,-0.234983,0,0.000101571,
1.04167,0,0,-0.235363,0,9.8903e-05,
1.08333,0,0,-0.235814,0,9.27586e-05,
1.125,0,0,-0.236355,0,8.16084e-05,
1.16667,0,0,-0.237007,0,6.35825e-05,
1.20833,0,0,-0.237779,0,3.68035e-05,
1.25,0,0,-0.23867,0,-7.90668e-08,
1.29167,0,0,-0.239668,0,-4.73857e-05,
1.33333,0,0,-0.240749,0,-0.000104237,
1.375,0,0,-0.241884,0,-0.000168735,
1.41667,0,0,-0.243041,0,-0.000238448,
1.45833,0,0,-0.24419,0,-0.000310966,
1.5,0,0,-0.245306,0,-0.000384324,
1.54167,0,0,-0.246368,0,-0.000457177,
1.58333,0,0,-0.247361,0,-0.00052876,
1.625,0,0,-0.248272,0,-0.000598724,
1.66667,0,0,-0.249093,0,-0.000666971,
1.70833,0,0,-0.249816,0,-0.000733516,
1.75,0,0,-0.250434,0,-0.000798408,
1.79167,0,0,-0.250942,0,-0.000861691,
1.83333,0,0,-0.251335,0,-0.000923388,
1.875,0,0,-0.251608,0,-0.000983494,
1.91667,0,0,-0.251757,0,-0.00104198,
1.95833,0,0,-0.251777,0,-0.0010988,
2,0,0,-0.251664,0,-0.00115389,
2.04167,0,0,-0.251417,0,-0.00120719,
2.08333,0,0,-0.251032,0,-0.00125863,
2.125,0,0,-0.250507,0,-0.00130813,
2.16667,0,0,-0.249842,0,-0.00135566,
2.20833,0,0,-0.249034,0,-0.00140115,
2.25,0,0,-0.248085,0,-0.00144458,
2.29167,0,0,-0.246994,0,-0.0014859,
2.33333,0,0,-0.245761,0,-0.00152508,
2.375,0,0,-0.244386,0,-0.0015621,
2.41667,0,0,-0.242872,0,-0.0015969,
2.45833,0,0,-0.241219,0,-0.00162947,
2.5,0,0,-0.239429,0,-0.00165977,
2.54167,0,0,-0.237505,0,-0.00168778,
2.58333,0,0,-0.235448,0,-0.00171346,
2.625,0,0,-0.233262,0,-0.00173678,
2.66667,0,0,-0.230949,0,-0.00175772,
2.70833,0,0,-0.228514,0,-0.00177626,
2.75,0,0,-0.22596,0,-0.00179238,
2.79167,0,0,-0.223292,0,-0.00180609,
2.83333,0,0,-0.220514,0,-0.00181737,
2.875,0,0,-0.217631,0,-0.00182624,
2.91667,0,0,-0.214649,0,-0.00183273,
2.95833,0,0,-0.211573,0,-0.00183688,
3,0,0,-0.20841,0,-0.00183873,
3.04167,0,0,-0.205164,0,-0.00183832,
3.08333,0,0,-0.201843,0,-0.00183571,
3.125,0,0,-0.198451,0,-0.00183095,
3.16667,0,0,-0.194995,0,-0.0018241,
3.20833,0,0,-0.191481,0,-0.00181523,
3.25,0,0,-0.187915,0,-0.00180441,
3.29167,0,0,-0.184303,0,-0.00179171,
3.33333,0,0,-0.18065,0,-0.0017772,
3.375,0,0,-0.176962,0,-0.00176096,
3.41667,0,0,-0.173244,0,-0.00174305,
3.45833,0,0,-0.169502,0,-0.00172356,
3.5,0,0,-0.16574,0,-0.00170255,
3.54167,0,0,-0.161963,0,-0.00168009,
3.58333,0,0,-0.158176,0,-0.00165625,
3.625,0,0,-0.154384,0,-0.00163111,
3.66667,0,0,-0.15059,0,-0.00160474,
3.70833,0,0,-0.146798,0,-0.00157719,
3.75,0,0,-0.143012,0,-0.00154852,
3.79167,0,0,-0.139236,0,-0.00151881,
3.83333,0,0,-0.135473,0,-0.0014881,
3.875,0,0,-0.131727,0,-0.00145646,
3.91667,0,0,-0.127999,0,-0.00142395,
3.95833,0,0,-0.124293,0,-0.00139062,
4,0,0,-0.120611,0,-0.00135654,
4.04167,0,0,-0.116956,0,-0.00132175,
4.08333,0,0,-0.113329,0,-0.00128631,
4.125,0,0,-0.109733,0,-0.00125026,
4.16667,0,0,-0.106168,0,-0.00121364,
4.20833,0,0,-0.102638,0,-0.00117649,
4.25,0,0,-0.0991425,0,-0.00113884,
4.29167,0,0,-0.0956836,0,-0.00110071,
4.33333,0,0,-0.0922623,0,-0.00106215,
4.375,0,0,-0.0888798,0,-0.00102317,
4.41667,0,0,-0.0855371,0,-0.000983796,
4.45833,0,0,-0.0822351,0,-0.000944057,
4.5,0,0,-0.0789746,0,-0.000903976,
4.54167,0,0,-0.0757564,0,-0.000863577,
4.58333,0,0,-0.0725812,0,-0.000822884,
4.625,0,0,-0.0694497,0,-0.000781918,
4.66667,0,0,-0.0663624,0,-0.0007407,
4.70833,0,0,-0.0633198,0,-0.000699248,
4.75,0,0,-0.0603225,0,-0.000657577,
4.79167,0,0,-0.0573708,0,-0.000615702,
4.83333,0,0,-0.0544652,0,-0.000573632,
4.875,0,0,-0.0516063,0,-0.000531371,
4.91667,0,0,-0.0487944,0,-0.000488922,
4.95833,0,0,-0.0460302,0,-0.000446281,
5,0,0,-0.0433145,0,-0.000403444,
5.04167,0,0,-0.0406483,0,-0.000360411,
5.08333,0,0,-0.0380329,0,-0.000317187,
5.125,0,0,-0.0354701,0,-0.000273805,
5.16667,0,0,-0.0329621,0,-0.000230349,
5.20833,0,0,-0.0305114,0,-0.000186964,
5.25,0,0,-0.0281192,0,-0.000143826,
5.29167,0,0,-0.0257853,0,-0.000101059,
5.33333,0,0,-0.0235083,0,-5.87046e-05,
5.375,0,0,-0.0212871,0,-1.67444e-05,
5.41667,0,0,-0.0191204,0,2.48495e-05,
5.45833,0,0,-0.0170075,0,6.60967e-05,
5.5,0,0,-0.0149477,0,0.000107007,
5.54167,0,0,-0.0129404,0,0.000147584,
5.58333,0,0,-0.0109849,0,0.000187827,
5.625,0,0,-0.00908095,0,0.000227731,
5.66667,0,0,-0.00722804,0,0.000267289,
5.70833,0,0,-0.00542582,0,0.000306491,
5.75,0,0,-0.00367391,0,0.000345326,
5.79167,0,0,-0.00197194,0,0.000383781,
5.83333,0,0,-0.000319512,0,0.000421843,
5.875,0,0,0.00128377,0,0.000459498,
5.91667,0,0,0.00283835,0,0.000496732,
5.95833,0,0,0.00434471,0,0.000533534,
6,0,0,0.00580334,0,0.00056989,
6.04167,0,0,0.00721473,0,0.000605792,
6.08333,0,0,0.00857941,0,0.000641229,
6.125,0,0,0.00989788,0,0.000676193,
6.16667,0,0,0.0111707,0,0.000710675,
6.20833,0,0,0.0123982,0,0.000744668,
6.25,0,0,0.0135811,0,0.000778164,
6.29167,0,0,0.0147197,0,0.000811155,
6.33333,0,0,0.0158145,0,0.000843634,
6.375,0,0,0.0168659,0,0.000875592,
6.41667,0,0,0.0178743,0,0.000907019,
6.45833,0,0,0.0188401,0,0.000937908,
6.5,0,0,0.0197636,0,0.000968246,
6.54167,0,0,0.0206451,0,0.000998024,
6.58333,0,0,0.0214849,0,0.00102723,
6.625,0,0,0.0222834,0,0.00105585,
6.66667,0,0,0.0230408,0,0.00108388,
6.70833,0,0,0.0237574,0,0.0011113,
6.75,0,0,0.0244335,0,0.0011381,
6.79167,0,0,0.0250694,0,0.00116427,
6.83333,0,0,0.0256654,0,0.0011898,
6.875,0,0,0.0262218,0,0.00121469,
6.91667,0,0,0.0267388,0,0.00123892,
6.95833,0,0,0.0272168,0,0.0012625,
7,0,0,0.0276561,0,0.00128541,
7.04167,0,0,0.0280571,0,0.00130765,
7.08333,0,0,0.0284201,0,0.00132921,
7.125,0,0,0.0287455,0,0.00135008,
7.16667,0,0,0.0290335,0,0.00137023,
7.20833,0,0,0.0292845,0,0.00138966,
7.25,0,0,0.0294988,0,0.00140834,
7.29167,0,0,0.0296769,0,0.00142627,
7.33333,0,0,0.0298191,0,0.00144345,
7.375,0,0,0.0299261,0,0.00145987,
7.41667,0,0,0.0299982,0,0.00147554,
7.45833,0,0,0.0300359,0,0.00149046,
7.5,0,0,0.0300397,0,0.00150464,
7.54167,0,0,0.03001,0,0.00151807,
7.58333,0,0,0.0299472,0,0.00153077,
7.625,0,0,0.0298518,0,0.00154274,
7.66667,0,0,0.0297243,0,0.00155399,
7.70833,0,0,0.0295649,0,0.00156452,
7.75,0,0,0.0293741,0,0.00157436,
7.79167,0,0,0.0291524,0,0.0015835,
7.83333,0,0,0.0288993,0,0.00159195,
7.875,0,0,0.028615,0,0.00159977,
7.91667,0,0,0.0283109,0,0.00160769,
7.95833,0,0,0.0279073,0,0.00161398,
8,0,0,0.0275988,0,0.00162018,
8.04171,0,0,0.0273055,0,0.00162678,
8.08368,0,0,0.0268466,0,0.0016326,
8.12617,0,0,0.0264103,0,0.0016358,
8.16946,0,0,0.0259361,0,0.00163831,
8.21382,0,0,0.0254132,0,0.00164009,
8.25952,0,0,0.0248458,0,0.00164106,
8.30685,0,0,0.0242274,0,0.00164133,
8.35611,0,0,0.0235516,0,0.00164093,
8.40762,0,0,0.0228115,0,0.00163984,
8.46168,0,0,0.021999,0,0.00163803,
8.51865,0,0,0.0211052,0,0.00163547,
8.57889,0,0,0.0201202,0,0.00163211,
8.64276,0,0,0.0190332,0,0.00162791,
8.71067,0,0,0.0178325,0,0.00162283,
8.78306,0,0,0.0165058,0,0.00161686,
8.86037,0,0,0.0150404,0,0.00160999,
8.94309,0,0,0.0134238,0,0.00160224,
9.03174,0,0,0.0116445,0,0.00159366,
9.12689,0,0,0.00969298,0,0.00158438,
9.22912,0,0,0.00756262,0,0.00157457,
9.33908,0,0,0.00525109,0,0.00156446,
9.45746,0,0,0.00276146,0,0.00155435,
9.58501,0,0,0.000102927,0,0.00154456,
9.72253,0,0,-0.00270908,0,0.00153536,
9.87088,0,0,-0.00565036,0,0.00152692,
10.031,0,0,-0.00867284,0,0.00151925,
10.2039,0,0,-0.0116719,0,0.00151245,
10.3906,0,0,-0.0144454,0,0.00150712,
10.5924,0,0,-0.0166522,0,0.00150496,
10.8105,0,0,-0.0177929,0,0.00150941,
11.0463,0,0,-0.0172545,0,0.0015259,
11.3012,0,0,-0.0144968,0,0.00156083,
11.5769,0,0,-0.00936695,0,0.00161877,
11.8751,0,0,-0.00234165,0,0.00169899,
12.1977,0,0,0.00552941,0,0.00179416,
12.5466,0,0,0.0129873,0,0.00189255,
12.9242,0,0,0.0189916,0,0.00198237,
13.3327,0,0,0.0229744,0,0.00205546,
13.7748,0,0,0.0248656,0,0.00210869,
14.2532,0,0,0.0249669,0,0.00214327,
14.7709,0,0,0.0237817,0,0.00216311,
15.3312,0,0,0.0218572,0,0.00217316,
15.9377,0,0,0.0196575,0,0.00217805,
16.594,0,0,0.0174929,0,0.00218074,
17.3044,0,0,0.0155206,0,0.00218236,
18.0733,0,0,0.0137967,0,0.00218336,
18.9056,0,0,0.012335,0,0.00218399,
19.8064,0,0,0.0111284,0,0.00218442,
20.7816,0,0,0.0101466,0,0.00218479,
21.8371,0,0,0.00934499,0,0.0021858,
22.9796,0,0,0.00868106,0,0.00218872,
24.2163,0,0,0.00812148,0,0.00219366,
25.5551,0,0,0.00763171,0,0.00220057,
27.0042,0,0,0.0071721,0,0.00220858,
28.5729,0,0,0.00671006,0,0.00221616,
30.271,0,0,0.006225,0,0.00222359,
32.1091,0,0,0.00570408,0,0.00223123,
34.0989,0,0,0.00513707,0,0.00223963,
36.2529,0,0,0.0045047,0,0.00225019,
38.5845,0,0,0.00379152,0,0.00226287,
41.1085,0,0,0.0030272,0,0.00227568,
43.8407,0,0,0.00205323,0,0.00228432,
46.7983,0,0,0.00105889,0,0.0022885,
50,0,0,0.00212166,0,0.00230219,

