faaae4b92ba028ed7058f111a009f08281576e49 
X,Z,x_velocity,cp,uw_b,cf,
1,0,0,-0.228377,0,0,
1,9,0,-0.129136,0,0,
1,8.99969,0.0153707,-0.129136,2.84015e-10,0,
1,8.99934,0.032809,-0.129136,1.32758e-08,0,
1,8.99894,0.0526114,-0.129136,1.83135e-07,0,
1,8.99848,0.075091,-0.129136,1.34262e-06,0,
1,8.99797,0.10056,-0.129136,6.71152e-06,0,
1,8.99739,0.129217,-0.129136,2.54112e-05,0,
1,8.99672,0.160869,-0.129136,7.53221e-05,0,
1,8.99597,0.194585,-0.129136,0.000175247,0,
1,8.99512,0.22872,-0.129136,0.0003233,0,
1,8.99416,0.261618,-0.129136,0.000491107,0,
1,8.99306,0.2923,-0.129135,0.000649242,0,
1,8.99182,0.320587,-0.129135,0.000776752,0,
1,8.99041,0.34662,-0.129135,0.000882272,0,
1,8.98881,0.370558,-0.129134,0.00096945,0,
1,8.98699,0.392617,-0.129134,0.00104061,0,
1,8.98494,0.413087,-0.129133,0.00109654,0,
1,8.98261,0.432277,-0.129132,0.0011394,0,
1,8.97996,0.450426,-0.129131,0.00117533,0,
1,8.97696,0.467707,-0.12913,0.00120511,0,
1,8.97356,0.484261,-0.129129,0.00123003,0,
1,8.9697,0.500207,-0.129127,0.00125105,0,
1,8.96533,0.515643,-0.129125,0.00126888,0,
1,8.96038,0.530653,-0.129123,0.00128403,0,
1,8.95476,0.545305,-0.129121,0.00129687,0,
1,8.9484,0.559659,-0.129118,0.00130766,0,
1,8.9412,0.573766,-0.129116,0.00131657,0,
1,8.93303,0.587669,-0.129113,0.00132371,0,
1,8.92379,0.601404,-0.129109,0.00132912,0,
1,8.91333,0.615003,-0.129106,0.0013328,0,
1,8.90149,0.628495,-0.129103,0.00133474,0,
1,8.8881,0.641903,-0.1291,0.00133487,0,
1,8.87295,0.655249,-0.129097,0.00133313,0,
1,8.85584,0.668554,-0.129094,0.00132941,0,
1,8.83651,0.681835,-0.129092,0.0013236,0,
1,8.81469,0.695112,-0.129092,0.00131556,0,
1,8.79007,0.708404,-0.129093,0.00130514,0,
1,8.76232,0.721734,-0.129097,0.00129216,0,
1,8.73107,0.735125,-0.129104,0.00127639,0,
1,8.69591,0.748608,-0.129116,0.00125755,0,
1,8.6564,0.762219,-0.129133,0.0012353,0,
1,8.61206,0.776002,-0.129158,0.00120923,0,
1,8.56236,0.790015,-0.129193,0.00117901,0,
1,8.50675,0.804334,-0.129242,0.00114592,0,
1,8.44464,0.819103,-0.129308,0.00110496,0,
1,8.3754,0.834539,-0.129394,0.00105343,0,
1,8.29839,0.850885,-0.129507,0.000990292,0,
1,8.21296,0.868386,-0.129654,0.000911053,0,
1,8.11843,0.887236,-0.12984,0.000810493,0,
1,8.01417,0.907436,-0.13008,0.000685148,0,
1,7.89956,0.928544,-0.130368,0.000538413,0,
1,7.77403,0.949435,-0.130745,0.000388735,0,
1,7.63711,0.9685,-0.131196,0.000205766,0,
1,7.48842,0.983415,-0.131729,7.64966e-05,0,
1,7.32773,0.992243,-0.132369,1.84206e-05,0,
1,7.15495,0.995455,-0.133112,1.84238e-06,0,
1,6.97022,0.995524,-0.133975,2.54104e-08,0,
1,6.77388,0.994908,-0.134971,3.83096e-09,0,
1,6.56652,0.99479,-0.136118,9.81153e-09,0,
1,6.34896,0.995245,-0.137428,1.254e-08,0,
1,6.12229,0.995975,-0.138916,1.41493e-08,0,
1,5.88784,0.99678,-0.140596,1.50122e-08,0,
1,5.64716,0.997621,-0.142481,1.59991e-08,0,
1,5.40194,0.99853,-0.144584,1.73723e-08,0,
1,5.15407,0.999533,-0.146909,1.91221e-08,0,
1,4.90545,1.00064,-0.149462,2.09679e-08,0,
1,4.65805,1.00185,-0.15224,2.29389e-08,0,
1,4.41376,1.00317,-0.155237,2.50062e-08,0,
1,4.17441,1.00457,-0.15844,2.69419e-08,0,
1,3.94163,1.006,-0.161829,2.85829e-08,0,
1,3.7169,1.00741,-0.165379,3.05368e-08,0,
1,3.50146,1.00888,-0.169056,3.4744e-08,0,
1,3.29629,1.01071,-0.172827,4.32451e-08,0,
1,3.10217,1.01328,-0.176661,5.42301e-08,0,
1,2.91959,1.01638,-0.180527,9.92132e-08,0,
1,2.74885,1.01859,-0.184382,1.00048e-06,0,
1,2.59002,1.01748,-0.188161,-5.83911e-06,0,
1,2.44299,1.01134,-0.191796,-5.13876e-05,0,
1,2.30752,1.00036,-0.19522,-0.000148485,0,
1,2.18321,0.985992,-0.198372,-0.000283406,0,
1,2.06959,0.969807,-0.201279,-0.000400517,0,
1,1.9661,0.953081,-0.203922,-0.000502034,0,
1,1.87215,0.936739,-0.206267,-0.000596752,0,
1,1.78711,0.921294,-0.208349,-0.000680168,0,
1,1.71033,0.906903,-0.210186,-0.000752215,0,
1,1.64119,0.893536,-0.211799,-0.000814429,0,
1,1.57905,0.881082,-0.21321,-0.000868986,0,
1,1.52332,0.869414,-0.21444,-0.000918053,0,
1,1.47342,0.858421,-0.215515,-0.000963807,0,
1,1.42882,0.848015,-0.216433,-0.000997104,0,
1,1.389,0.838113,-0.21721,-0.00102212,0,
1,1.35351,0.828651,-0.217883,-0.00104547,0,
1,1.3219,0.819595,-0.218458,-0.0010664,0,
1,1.29378,0.810924,-0.218953,-0.00108465,0,
1,1.26878,0.802629,-0.219376,-0.00110026,0,
1,1.24659,0.794706,-0.219739,-0.0011136,0,
1,1.22689,0.787149,-0.220049,-0.00112475,0,
1,1.2092,0.779871,-0.220318,-0.00113267,0,
1,1.1932,0.772822,-0.220552,-0.00113811,0,
1,1.1787,0.765986,-0.220755,-0.0011418,0,
1,1.16554,0.759343,-0.220932,-0.00114488,0,
1,1.15357,0.752856,-0.221085,-0.00114973,0,
1,1.14266,0.746473,-0.221218,-0.00116021,0,
1,1.13268,0.740116,-0.221333,-0.00118149,0,
1,1.12354,0.733677,-0.221435,-0.00122061,0,
1,1.11514,0.727014,-0.221525,-0.00128603,0,
1,1.10739,0.719952,-0.22161,-0.00138698,0,
1,1.10022,0.7123,-0.221692,-0.00153233,0,
1,1.09357,0.703876,-0.221776,-0.00172895,0,
1,1.08738,0.694551,-0.221865,-0.0019797,0,
1,1.0816,0.684287,-0.221961,-0.00228187,0,
1,1.07618,0.673157,-0.222064,-0.00262682,0,
1,1.07107,0.66132,-0.222173,-0.00300141,0,
1,1.06626,0.648988,-0.222287,-0.00339087,0,
1,1.06169,0.636373,-0.222406,-0.00378153,0,
1,1.05735,0.62366,-0.222527,-0.00416252,0,
1,1.05321,0.610997,-0.222651,-0.00452627,0,
1,1.04925,0.59849,-0.222775,-0.00486809,0,
1,1.04544,0.58621,-0.222899,-0.00518556,0,
1,1.04177,0.574201,-0.223023,-0.00547783,0,
1,1.03822,0.562487,-0.223147,-0.00574508,0,
1,1.03478,0.551077,-0.223269,-0.00598811,0,
1,1.03144,0.539972,-0.22339,-0.00620808,0,
1,1.02818,0.529163,-0.22351,-0.00640631,0,
1,1.025,0.518641,-0.223629,-0.00658416,0,
1,1.02188,0.508393,-0.223746,-0.00674297,0,
1,1.01882,0.498406,-0.223863,-0.00688402,0,
1,1.01581,0.488664,-0.223978,-0.00700863,0,
1,1.01284,0.479154,-0.224092,-0.00711735,0,
1,1.00988,0.469761,-0.224206,-0.00721253,0,
1,1.00688,0.460374,-0.224322,-0.00729631,0,
1,1.00384,0.45098,-0.224439,-0.00736807,0,
1,1.00076,0.441565,-0.224557,-0.00742777,0,
1,0.997615,0.432108,-0.224676,-0.00747533,0,
1,0.99441,0.422588,-0.224796,-0.00751076,0,
1,0.991131,0.412979,-0.224917,-0.00753421,0,
1,0.987768,0.403254,-0.22504,-0.00754547,0,
1,0.984308,0.393387,-0.225165,-0.00754423,0,
1,0.980739,0.383344,-0.225291,-0.00753005,0,
1,0.977045,0.373093,-0.22542,-0.00750234,0,
1,0.973211,0.362597,-0.22555,-0.00746034,0,
1,0.969219,0.351815,-0.225683,-0.00740313,0,
1,0.965047,0.340703,-0.225818,-0.00732956,0,
1,0.960675,0.329212,-0.225957,-0.00723826,0,
1,0.956077,0.317288,-0.226097,-0.00712694,0,
1,0.951224,0.30487,-0.226241,-0.00699393,0,
1,0.946088,0.2919,-0.226388,-0.00683698,0,
1,0.940633,0.278318,-0.226539,-0.00665354,0,
1,0.934823,0.264074,-0.226694,-0.00644194,0,
1,0.928616,0.249125,-0.226853,-0.00619965,0,
1,0.921967,0.233439,-0.227016,-0.00592343,0,
1,0.914826,0.216993,-0.227183,-0.0056108,0,
1,0.907141,0.199778,-0.227353,-0.00525974,0,
1,0.898852,0.181807,-0.227525,-0.00486892,0,
1,0.889898,0.163126,-0.227698,-0.00443821,0,
1,0.880212,0.143828,-0.227872,-0.00396932,0,
1,0.869723,0.124077,-0.228046,-0.00346685,0,
1,0.858358,0.104145,-0.228222,-0.00293987,0,
1,0.846039,0.084462,-0.2284,-0.0024046,0,
1,0.83269,0.065668,-0.228582,-0.00188729,0,
1,0.818232,0.048608,-0.228772,-0.00142693,0,
1,0.802744,0.034232,-0.228959,-0.00105848,0,
1,0.78635,0.0229823,-0.22915,-0.000788735,0,
1,0.768969,0.014487,-0.229334,-0.000605114,0,
1,0.75053,0.00801545,-0.22951,-0.000488957,0,
1,0.730977,0.00283793,-0.229667,-0.000421735,0,
1,0.710271,-0.00160038,-0.229804,-0.000387245,0,
1,0.688397,-0.00566397,-0.229918,-0.000372977,0,
1,0.66536,-0.00957032,-0.230013,-0.000371508,0,
1,0.641194,-0.0134548,-0.230088,-0.000374379,0,
1,0.615961,-0.0174007,-0.230143,-0.000377594,0,
1,0.589754,-0.0214441,-0.23018,-0.000378094,0,
1,0.562692,-0.0255841,-0.230196,-0.00037416,0,
1,0.534925,-0.0297924,-0.23019,-0.000365071,0,
1,0.506624,-0.0340212,-0.230162,-0.000350754,0,
1,0.477982,-0.0382109,-0.230109,-0.000331549,0,
1,0.449206,-0.0422968,-0.230031,-0.000308034,0,
1,0.420509,-0.0462131,-0.229929,-0.000280918,0,
1,0.392107,-0.0498961,-0.229805,-0.000250965,0,
1,0.364206,-0.0532861,-0.229663,-0.000218949,0,
1,0.337003,-0.0563282,-0.229506,-0.000185616,0,
1,0.310673,-0.0589727,-0.22934,-0.000151643,0,
1,0.28537,-0.0611748,-0.229169,-0.000117615,0,
1,0.26122,-0.0628941,-0.229,-8.40197e-05,0,
1,0.238324,-0.0640941,-0.228837,-5.12663e-05,0,
1,0.21675,-0.0647417,-0.228686,-1.97015e-05,0,
1,0.196544,-0.064808,-0.228551,1.03438e-05,0,
1,0.177724,-0.0642699,-0.228434,3.85019e-05,0,
1,0.160284,-0.0631134,-0.228337,6.43316e-05,0,
1,0.144202,-0.0613372,-0.228262,8.73145e-05,0,
1,0.129436,-0.0589575,-0.228208,0.000106896,0,
1,0.115935,-0.0560116,-0.228174,0.000122562,0,
1,0.103636,-0.0525591,-0.228157,0.000133929,0,
1,0.0924701,-0.0486802,-0.228154,0.0001408,0,
1,0.0823633,-0.0444709,-0.228162,0.000143212,0,
1,0.0732406,-0.040036,-0.228178,0.000141445,0,
1,0.0650269,-0.0354815,-0.2282,0.000135973,0,
1,0.057648,-0.0309068,-0.228224,0.000127391,0,
1,0.0510323,-0.026398,-0.228249,0.000116351,0,
1,0.0451115,-0.0220238,-0.228272,0.000103496,0,
1,0.0398209,-0.0178342,-0.228295,8.94243e-05,0,
1,0.0351001,-0.0138621,-0.228314,7.46735e-05,0,
1,0.0308929,-0.010128,-0.228331,5.97403e-05,0,
1,0.0271475,-0.00664947,-0.228344,4.51505e-05,0,
1,0.0238164,-0.00345301,-0.228355,3.15698e-05,0,
1,0.0208562,-0.000589106,-0.228362,1.98965e-05,0,
1,0.0182274,0.00186348,-0.228367,1.09336e-05,0,
1,0.0158944,0.00381679,-0.228371,5.12055e-06,0,
1,0.0138249,0.00521644,-0.228373,1.99357e-06,0,
1,0.0119898,0.00607644,-0.228374,6.12168e-07,0,
1,0.0103632,0.00647281,-0.228375,1.15093e-07,0,
1,0.00892169,0.00650917,-0.228375,-2.0997e-08,0,
1,0.00764438,0.00628642,-0.228376,-3.81174e-08,0,
1,0.00651264,0.0058882,-0.228376,-2.69615e-08,0,
1,0.00550983,0.0053787,-0.228376,-1.48116e-08,0,
1,0.00462115,0.00480513,-0.228376,-7.02287e-09,0,
1,0.00383341,0.00420152,-0.228377,-2.95502e-09,0,
1,0.0031349,0.00359181,-0.228377,-1.1036e-09,0,
1,0.00251518,0.00299255,-0.228377,-3.59356e-10,0,
1,0.00196502,0.00241469,-0.228377,-9.82458e-11,0,
1,0.00147619,0.00186518,-0.228377,-2.10538e-11,0,
1,0.00104139,0.00134791,-0.228377,-3.11094e-12,0,
1,0.000654158,0.000864706,-0.228377,-2.44027e-13,0,
1,0.000308731,0.000415761,-0.228377,-5.57971e-15,0,

4,0,0,-0.154349,0,0,
4,9,0,-0.0984015,0,0,
4,8.99969,0.0142383,-0.0984011,2.22684e-10,0,
4,8.99934,0.0303358,-0.0984014,1.03316e-08,0,
4,8.99894,0.0485536,-0.0984011,1.41079e-07,0,
4,8.9985,0.0691681,-0.0984013,1.02404e-06,0,
4,8.99799,0.0924605,-0.0984011,5.08314e-06,0,
4,8.99742,0.118634,-0.0984012,1.925e-05,0,
4,8.99677,0.147605,-0.098401,5.77872e-05,0,
4,8.99605,0.178698,-0.0984011,0.000138142,0,
4,8.99522,0.210564,-0.0984008,0.000264252,0,
4,8.99429,0.241661,-0.0984008,0.000416035,0,
4,8.99324,0.270924,-0.0984005,0.000565591,0,
4,8.99205,0.297968,-0.0984002,0.000695076,0,
4,8.9907,0.32287,-0.0983997,0.000799093,0,
4,8.98919,0.345803,-0.0983993,0.000886763,0,
4,8.98747,0.366953,-0.0983985,0.000959709,0,
4,8.98553,0.38659,-0.0983978,0.0010171,0,
4,8.98334,0.404992,-0.0983968,0.0010634,0,
4,8.98087,0.422378,-0.0983957,0.00110249,0,
4,8.97807,0.438916,-0.0983942,0.00113568,0,
4,8.97491,0.454748,-0.0983926,0.00116426,0,
4,8.97134,0.469991,-0.0983907,0.00118921,0,
4,8.96731,0.484747,-0.0983885,0.00121126,0,
4,8.96276,0.499101,-0.0983859,0.00123091,0,
4,8.95762,0.513124,-0.0983829,0.00124856,0,
4,8.95182,0.526879,-0.0983795,0.00126444,0,
4,8.94526,0.54042,-0.0983756,0.0012787,0,
4,8.93787,0.553792,-0.0983712,0.00129142,0,
4,8.92952,0.567035,-0.0983663,0.0013026,0,
4,8.92011,0.580183,-0.0983609,0.0013122,0,
4,8.90949,0.593266,-0.0983549,0.00132012,0,
4,8.89751,0.606309,-0.0983483,0.00132623,0,
4,8.88402,0.619331,-0.0983413,0.00133038,0,
4,8.86881,0.632352,-0.0983337,0.00133239,0,
4,8.85169,0.645386,-0.0983258,0.00133209,0,
4,8.83242,0.658446,-0.0983177,0.00132928,0,
4,8.81074,0.671544,-0.0983097,0.00132378,0,
4,8.78637,0.684691,-0.098302,0.0013154,0,
4,8.75901,0.697899,-0.098295,0.00130395,0,
4,8.7283,0.711184,-0.0982891,0.00128925,0,
4,8.69387,0.724562,-0.0982851,0.00127107,0,
4,8.65533,0.738058,-0.0982837,0.00124916,0,
4,8.61222,0.751703,-0.0982859,0.00122321,0,
4,8.56407,0.765538,-0.0982932,0.00119287,0,
4,8.5104,0.779615,-0.0983071,0.00115814,0,
4,8.45065,0.794016,-0.0983298,0.00111995,0,
4,8.38429,0.808898,-0.098365,0.00107203,0,
4,8.31073,0.824491,-0.098415,0.00101467,0,
4,8.22941,0.841053,-0.0984831,0.00094443,0,
4,8.13974,0.858847,-0.0985729,0.000856979,0,
4,8.04115,0.878051,-0.0986861,0.000748692,0,
4,7.93313,0.898558,-0.0988285,0.000619798,0,
4,7.81519,0.919668,-0.098992,0.000479316,0,
4,7.68693,0.939916,-0.0992008,0.000344647,0,
4,7.54803,0.957407,-0.0994366,0.000203861,0,
4,7.39831,0.970248,-0.0997181,8.97993e-05,0,
4,7.23771,0.977552,-0.100061,2.77936e-05,0,
4,7.06634,0.98025,-0.100454,4.58389e-06,0,
4,6.88453,0.980398,-0.100901,-1.38652e-08,0,
4,6.69275,0.979844,-0.101401,-1.01799e-07,0,
4,6.49173,0.979526,-0.101963,1.86344e-08,0,
4,6.28238,0.979601,-0.102596,2.39112e-08,0,
4,6.06579,0.979907,-0.103307,1.38606e-08,0,
4,5.84328,0.980287,-0.104101,9.32447e-09,0,
4,5.61626,0.980676,-0.104986,8.1098e-09,0,
4,5.3863,0.981076,-0.105963,8.16454e-09,0,
4,5.15502,0.981501,-0.107037,8.73354e-09,0,
4,4.92406,0.981966,-0.108209,9.5654e-09,0,
4,4.69507,0.982482,-0.109479,1.05663e-08,0,
4,4.46961,0.983053,-0.110846,1.15936e-08,0,
4,4.24915,0.983661,-0.112307,1.23473e-08,0,
4,4.03501,0.984251,-0.113855,1.25342e-08,0,
4,3.82836,0.984756,-0.115483,1.24003e-08,0,
4,3.63018,0.985178,-0.11718,1.3332e-08,0,
4,3.44125,0.985695,-0.118934,1.82306e-08,0,
4,3.26217,0.986664,-0.120735,6.29639e-08,0,
4,3.09333,0.988382,-0.122566,5.58113e-07,0,
4,2.93497,0.99067,-0.124413,2.61195e-06,0,
4,2.78715,0.99268,-0.12626,5.02641e-06,0,
4,2.64979,0.993237,-0.128088,3.1855e-07,0,
4,2.52268,0.991414,-0.129877,-2.12226e-05,0,
4,2.40551,0.986884,-0.131606,-6.46976e-05,0,
4,2.29789,0.979888,-0.133255,-0.000128666,0,
4,2.19939,0.971015,-0.134809,-0.000207057,0,
4,2.10949,0.960954,-0.13626,-0.000292082,0,
4,2.02768,0.950334,-0.137604,-0.000376204,0,
4,1.95343,0.93967,-0.138842,-0.00045329,0,
4,1.88618,0.929342,-0.139975,-0.000521042,0,
4,1.82542,0.919533,-0.141015,-0.000568537,0,
4,1.77062,0.910301,-0.141963,-0.000607508,0,
4,1.72128,0.901699,-0.142818,-0.000642612,0,
4,1.67693,0.893756,-0.143591,-0.000673941,0,
4,1.63713,0.886473,-0.144287,-0.000701845,0,
4,1.60144,0.879829,-0.144913,-0.00072668,0,
4,1.56949,0.873793,-0.145476,-0.00074884,0,
4,1.54091,0.868327,-0.14598,-0.000768798,0,
4,1.51537,0.863375,-0.146432,-0.000786905,0,
4,1.49167,0.858741,-0.146851,-0.000803572,0,
4,1.46926,0.854337,-0.147247,-0.000819356,0,
4,1.44801,0.850141,-0.147628,-0.000834299,0,
4,1.42781,0.846111,-0.147998,-0.00084032,0,
4,1.40855,0.842212,-0.148352,-0.000846938,0,
4,1.39015,0.838428,-0.148692,-0.000852336,0,
4,1.37252,0.834744,-0.149019,-0.000856722,0,
4,1.3556,0.831145,-0.149334,-0.000860612,0,
4,1.3393,0.827612,-0.149638,-0.000864629,0,
4,1.32357,0.824129,-0.149933,-0.00086963,0,
4,1.30836,0.820675,-0.150219,-0.000876392,0,
4,1.29362,0.817227,-0.150497,-0.000885979,0,
4,1.2793,0.81376,-0.150768,-0.000899728,0,
4,1.26537,0.810241,-0.151032,-0.00091929,0,
4,1.25179,0.806633,-0.15129,-0.00094666,0,
4,1.23852,0.802892,-0.151543,-0.000984205,0,
4,1.22554,0.798964,-0.15179,-0.00103466,0,
4,1.21282,0.79479,-0.152032,-0.00110106,0,
4,1.20034,0.790301,-0.152269,-0.00118663,0,
4,1.18806,0.785424,-0.152501,-0.00129458,0,
4,1.17599,0.780085,-0.152728,-0.00142776,0,
4,1.16408,0.774219,-0.15295,-0.00158828,0,
4,1.15233,0.76777,-0.153166,-0.00177717,0,
4,1.14073,0.760705,-0.153378,-0.00199403,0,
4,1.12925,0.753016,-0.153586,-0.00223693,0,
4,1.11788,0.744719,-0.153788,-0.00250251,0,
4,1.10661,0.735852,-0.153985,-0.00278632,0,
4,1.09543,0.726469,-0.154179,-0.00308318,0,
4,1.08432,0.716634,-0.154368,-0.00338775,0,
4,1.07328,0.706416,-0.154553,-0.0036948,0,
4,1.0623,0.695881,-0.154734,-0.00399961,0,
4,1.05136,0.685093,-0.154912,-0.00429803,0,
4,1.04044,0.674089,-0.155086,-0.00458672,0,
4,1.0295,0.662902,-0.155257,-0.00486315,0,
4,1.01855,0.651572,-0.155426,-0.00512488,0,
4,1.00757,0.640138,-0.155592,-0.00536965,0,
4,0.996544,0.628631,-0.155754,-0.00559601,0,
4,0.98547,0.617079,-0.155914,-0.00580209,0,
4,0.974334,0.605506,-0.156072,-0.00598666,0,
4,0.963124,0.593933,-0.156224,-0.00614864,0,
4,0.951826,0.582378,-0.15638,-0.00629756,0,
4,0.940428,0.570819,-0.156515,-0.00643344,0,
4,0.928915,0.559128,-0.156613,-0.00652405,0,
4,0.917272,0.547157,-0.156701,-0.0066217,0,
4,0.905481,0.534822,-0.156786,-0.00672714,0,
4,0.893524,0.522068,-0.156871,-0.00684072,0,
4,0.881383,0.508854,-0.156958,-0.00696257,0,
4,0.869035,0.495145,-0.157048,-0.00709259,0,
4,0.856459,0.480908,-0.157142,-0.00723043,0,
4,0.843629,0.466115,-0.157239,-0.00737557,0,
4,0.830518,0.450741,-0.15734,-0.00752733,0,
4,0.817097,0.434766,-0.157444,-0.00768489,0,
4,0.803334,0.418172,-0.15755,-0.00784728,0,
4,0.789195,0.400948,-0.157657,-0.0080134,0,
4,0.774643,0.383086,-0.157765,-0.00818196,0,
4,0.759639,0.36458,-0.157873,-0.00835137,0,
4,0.744138,0.345437,-0.157981,-0.00851965,0,
4,0.728096,0.325671,-0.158091,-0.00868429,0,
4,0.711463,0.305317,-0.158203,-0.00884221,0,
4,0.694189,0.284426,-0.158319,-0.00898954,0,
4,0.676218,0.26306,-0.158439,-0.00912107,0,
4,0.657495,0.241285,-0.158562,-0.00923132,0,
4,0.637962,0.219161,-0.158688,-0.00931533,0,
4,0.617561,0.196726,-0.15881,-0.00936908,0,
4,0.596848,0.174615,-0.15892,-0.00938826,0,
4,0.576557,0.153572,-0.159015,-0.00937188,0,
4,0.556564,0.133464,-0.159096,-0.00932162,0,
4,0.536763,0.114203,-0.159173,-0.00923851,0,
4,0.517057,0.0957741,-0.159266,-0.00912339,0,
4,0.497368,0.0782538,-0.159403,-0.00897824,0,
4,0.477632,0.0617893,-0.159617,-0.0088073,0,
4,0.457804,0.0465213,-0.15991,-0.00861837,0,
4,0.437857,0.032448,-0.160245,-0.00842216,0,
4,0.417786,0.0192646,-0.160273,-0.00810563,0,
4,0.397605,0.00656211,-0.16006,-0.0077135,0,
4,0.377348,-0.00583187,-0.159897,-0.00737631,0,
4,0.357066,-0.0178969,-0.159718,-0.0070203,0,
4,0.336828,-0.0296017,-0.15953,-0.00665666,0,
4,0.316717,-0.0408917,-0.159331,-0.00628942,0,
4,0.296825,-0.0517047,-0.159121,-0.00591805,0,
4,0.27725,-0.0619873,-0.158903,-0.00554389,0,
4,0.258095,-0.0716992,-0.158676,-0.00516928,0,
4,0.239458,-0.0808141,-0.158442,-0.00479696,0,
4,0.221432,-0.0893182,-0.158203,-0.00442973,0,
4,0.2041,-0.0972091,-0.157959,-0.00407029,0,
4,0.187537,-0.104494,-0.157713,-0.00372111,0,
4,0.171798,-0.111189,-0.157465,-0.0033844,0,
4,0.156928,-0.117316,-0.157219,-0.00306196,0,
4,0.142956,-0.1229,-0.156977,-0.00275524,0,
4,0.129894,-0.127971,-0.15674,-0.00246528,0,
4,0.117744,-0.132559,-0.156511,-0.00219276,0,
4,0.106492,-0.136694,-0.156291,-0.001938,0,
4,0.0961173,-0.140408,-0.156082,-0.001701,0,
4,0.0865883,-0.143729,-0.155886,-0.00148151,0,
4,0.0778675,-0.146683,-0.155704,-0.00127906,0,
4,0.0699123,-0.149296,-0.155535,-0.001093,0,
4,0.062677,-0.15159,-0.155381,-0.000922574,0,
4,0.056114,-0.153584,-0.155241,-0.000766915,0,
4,0.0501747,-0.155296,-0.155115,-0.000625116,0,
4,0.0448114,-0.15674,-0.155002,-0.000496249,0,
4,0.039977,-0.157926,-0.154902,-0.000379389,0,
4,0.0356266,-0.158862,-0.154813,-0.000273635,0,
4,0.0317171,-0.159552,-0.154736,-0.000178134,0,
4,0.0282081,-0.159995,-0.154668,-9.20932e-05,0,
4,0.0250617,-0.160186,-0.15461,-1.4801e-05,0,
4,0.0222427,-0.160111,-0.15456,5.43521e-05,0,
4,0.0197189,-0.159749,-0.154517,0.000115844,0,
4,0.0174603,-0.159067,-0.154481,0.000169975,0,
4,0.0154398,-0.158018,-0.154451,0.000216793,0,
4,0.0136326,-0.156529,-0.154426,0.000255973,0,
4,0.0120162,-0.154498,-0.154406,0.000286619,0,
4,0.0105703,-0.151775,-0.154389,0.000306984,0,
4,0.00927657,-0.148151,-0.154377,0.000314161,0,
4,0.00811839,-0.143345,-0.154367,0.000304143,0,
4,0.0070809,-0.137022,-0.154362,0.000273188,0,
4,0.0061507,-0.12888,-0.154357,0.000221518,0,
4,0.00531578,-0.118832,-0.154355,0.000157572,0,
4,0.00456537,-0.107189,-0.154353,9.64791e-05,0,
4,0.00388979,-0.0946191,-0.154352,5.0728e-05,0,
4,0.00328037,-0.0818505,-0.154351,2.3122e-05,0,
4,0.00272934,-0.0694105,-0.154352,9.20877e-06,0,
4,0.0022297,-0.0575718,-0.15435,3.18462e-06,0,
4,0.00177519,-0.0464273,-0.154351,9.28468e-07,0,
4,0.00136016,-0.0359753,-0.15435,2.13913e-07,0,
4,0.000979511,-0.0261708,-0.154351,3.42768e-08,0,
4,0.00062865,-0.0169524,-0.154349,2.92611e-09,0,
4,0.000303409,-0.00825258,-0.154351,7.13365e-11,0,

6,0,0,-0.0164509,0,0,
6,9,0,-0.0743474,0,0,
6,8.99969,0.0134941,-0.0743471,1.85499e-10,0,
6,8.99934,0.0287114,-0.0743474,8.56128e-09,0,
6,8.99895,0.0458891,-0.0743471,1.16073e-07,0,
6,8.9985,0.065278,-0.0743473,8.36544e-07,0,
6,8.99801,0.0871364,-0.0743471,4.13009e-06,0,
6,8.99744,0.111664,-0.0743472,1.56267e-05,0,
6,8.99681,0.138835,-0.074347,4.7251e-05,0,
6,8.99609,0.168127,-0.0743471,0.000114941,0,
6,8.99529,0.198393,-0.0743468,0.000225439,0,
6,8.99438,0.228204,-0.0743468,0.000364343,0,
6,8.99336,0.25646,-0.0743465,0.00050619,0,
6,8.9922,0.282661,-0.0743464,0.000633602,0,
6,8.9909,0.306806,-0.074346,0.000736852,0,
6,8.98944,0.329053,-0.0743456,0.00082363,0,
6,8.98779,0.349575,-0.074345,0.000896627,0,
6,8.98593,0.368618,-0.0743444,0.000954427,0,
6,8.98383,0.386442,-0.0743435,0.00100188,0,
6,8.98147,0.403252,-0.0743426,0.00104207,0,
6,8.97881,0.419214,-0.0743414,0.00107648,0,
6,8.97581,0.434469,-0.07434,0.00110646,0,
6,8.97244,0.449134,-0.0743383,0.001133,0,
6,8.96863,0.463311,-0.0743363,0.00115685,0,
6,8.96435,0.477085,-0.0743339,0.00117857,0,
6,8.95953,0.49053,-0.0743312,0.00119857,0,
6,8.95409,0.503711,-0.074328,0.00121712,0,
6,8.94798,0.516684,-0.0743243,0.00123438,0,
6,8.94109,0.529499,-0.07432,0.00125047,0,
6,8.93334,0.542198,-0.074315,0.00126538,0,
6,8.92463,0.554819,-0.0743094,0.00127906,0,
6,8.91482,0.567396,-0.0743029,0.00129143,0,
6,8.90379,0.579957,-0.0742956,0.0013023,0,
6,8.89139,0.592528,-0.0742874,0.00131149,0,
6,8.87746,0.605128,-0.0742782,0.00131877,0,
6,8.86181,0.617775,-0.074268,0.00132386,0,
6,8.84423,0.630483,-0.0742566,0.00132651,0,
6,8.82452,0.643264,-0.0742441,0.00132642,0,
6,8.80241,0.656126,-0.0742305,0.00132333,0,
6,8.77763,0.669076,-0.0742159,0.00131695,0,
6,8.74989,0.682122,-0.0742001,0.00130705,0,
6,8.71885,0.695272,-0.0741831,0.00129337,0,
6,8.68417,0.708537,-0.0741652,0.00127568,0,
6,8.64545,0.721932,-0.0741462,0.00125373,0,
6,8.60229,0.735477,-0.0741269,0.00122711,0,
6,8.55423,0.749201,-0.0741071,0.00119577,0,
6,8.50082,0.763146,-0.0740871,0.00115979,0,
6,8.44155,0.777383,-0.074068,0.00111851,0,
6,8.37592,0.792041,-0.0740498,0.00107081,0,
6,8.30339,0.807316,-0.0740336,0.0010148,0,
6,8.22344,0.823464,-0.0740189,0.000947616,0,
6,8.13555,0.840783,-0.0740067,0.000865547,0,
6,8.0392,0.859524,-0.0739924,0.000765174,0,
6,7.93391,0.879684,-0.0739758,0.000646214,0,
6,7.81927,0.900682,-0.0739458,0.000515122,0,
6,7.6949,0.921141,-0.073907,0.000386912,0,
6,7.56054,0.939223,-0.0738515,0.00027133,0,
6,7.41603,0.953316,-0.0737823,0.000140502,0,
6,7.26132,0.962435,-0.0737049,5.58916e-05,0,
6,7.09653,0.966819,-0.0736084,1.43062e-05,0,
6,6.92195,0.967919,-0.073493,7.78825e-07,0,
6,6.73802,0.96749,-0.0733513,-1.02404e-06,0,
6,6.5454,0.966776,-0.0731802,-4.82008e-07,0,
6,6.34489,0.966285,-0.072976,-1.35906e-07,0,
6,6.1375,0.966037,-0.0727351,-3.6851e-08,0,
6,5.92439,0.965894,-0.0724533,-1.40004e-08,0,
6,5.70687,0.965748,-0.0721259,-8.00179e-09,0,
6,5.48633,0.965555,-0.0717474,-6.24512e-09,0,
6,5.26426,0.965309,-0.0713128,-5.98525e-09,0,
6,5.04218,0.965023,-0.0708166,-6.30613e-09,0,
6,4.82159,0.964707,-0.0702541,-6.83512e-09,0,
6,4.60398,0.964373,-0.0696209,-7.49002e-09,0,
6,4.39071,0.96402,-0.0689139,-8.43418e-09,0,
6,4.18307,0.963619,-0.0681308,-1.00037e-08,0,
6,3.98218,0.963107,-0.0672714,-1.24217e-08,0,
6,3.78902,0.962427,-0.066337,-1.5359e-08,0,
6,3.60438,0.961601,-0.0653314,-1.96202e-08,0,
6,3.42888,0.960798,-0.06426,-4.07419e-08,0,
6,3.26296,0.960309,-0.0631296,-1.06977e-07,0,
6,3.10691,0.960377,-0.0619473,-1.36833e-07,0,
6,2.96084,0.960986,-0.060721,3.50438e-08,0,
6,2.82473,0.961761,-0.0594605,-3.17471e-07,0,
6,2.69844,0.962084,-0.0581788,-4.06121e-06,0,
6,2.58172,0.961343,-0.0568911,-1.55878e-05,0,
6,2.47424,0.95914,-0.0556135,-3.86052e-05,0,
6,2.37559,0.955364,-0.0543613,-7.45749e-05,0,
6,2.28535,0.950156,-0.053148,-0.000122543,0,
6,2.20301,0.943808,-0.0519849,-0.000179754,0,
6,2.1281,0.936675,-0.05088,-0.000242544,0,
6,2.06009,0.929104,-0.0498398,-0.000307022,0,
6,1.99849,0.921407,-0.0488662,-0.000369445,0,
6,1.9428,0.91384,-0.0479628,-0.000426666,0,
6,1.89255,0.906596,-0.0471245,-0.000477625,0,
6,1.84728,0.899775,-0.046357,-0.000521859,0,
6,1.80655,0.89338,-0.0456596,-0.000552274,0,
6,1.76996,0.887403,-0.0450184,-0.000580094,0,
6,1.73712,0.881862,-0.0444359,-0.000605587,0,
6,1.70768,0.876728,-0.0439038,-0.000629191,0,
6,1.67998,0.871776,-0.0433996,-0.000652126,0,
6,1.65329,0.866909,-0.0429071,-0.000674557,0,
6,1.62754,0.862126,-0.0424267,-0.000696435,0,
6,1.60265,0.857425,-0.0419571,-0.000717851,0,
6,1.57854,0.852806,-0.0414978,-0.000738758,0,
6,1.55515,0.848269,-0.0410478,-0.000759179,0,
6,1.53242,0.843809,-0.0406068,-0.000779128,0,
6,1.5103,0.839421,-0.0401741,-0.00079858,0,
6,1.48874,0.835091,-0.0397494,-0.000817516,0,
6,1.46769,0.830801,-0.0393319,-0.000836063,0,
6,1.44712,0.82654,-0.0389207,-0.000854609,0,
6,1.42698,0.822318,-0.0385129,-0.000873825,0,
6,1.40725,0.818177,-0.0381073,-0.000894228,0,
6,1.38788,0.81417,-0.0377023,-0.000915966,0,
6,1.36886,0.810312,-0.0373045,-0.000937629,0,
6,1.35015,0.806536,-0.0369197,-0.000940889,0,
6,1.33173,0.802769,-0.0365401,-0.000950013,0,
6,1.31357,0.79899,-0.0361622,-0.000961333,0,
6,1.29566,0.795181,-0.035788,-0.000974752,0,
6,1.27797,0.791321,-0.0354163,-0.000991364,0,
6,1.26048,0.787383,-0.0350473,-0.00101242,0,
6,1.24318,0.783335,-0.0346807,-0.00103952,0,
6,1.22605,0.77914,-0.0343163,-0.00107453,0,
6,1.20907,0.774752,-0.033954,-0.00111958,0,
6,1.19223,0.770118,-0.0335938,-0.00117703,0,
6,1.17551,0.765182,-0.0332356,-0.0012493,0,
6,1.1589,0.759881,-0.0328794,-0.00133872,0,
6,1.14238,0.754156,-0.0325254,-0.00144729,0,
6,1.12595,0.747948,-0.0321735,-0.00157642,0,
6,1.10959,0.741214,-0.0318241,-0.00172663,0,
6,1.09329,0.733924,-0.0314774,-0.00189736,0,
6,1.07704,0.726069,-0.0311336,-0.00208695,0,
6,1.06081,0.717652,-0.0307929,-0.00229261,0,
6,1.04459,0.708698,-0.0304556,-0.00251076,0,
6,1.02836,0.699248,-0.0301214,-0.00273717,0,
6,1.01211,0.689354,-0.0297916,-0.00296728,0,
6,0.99583,0.679074,-0.0294646,-0.0031966,0,
6,0.97951,0.668467,-0.0291439,-0.00342442,0,
6,0.963136,0.657569,-0.0288223,-0.00365239,0,
6,0.946694,0.646328,-0.0284955,-0.00386263,0,
6,0.930172,0.634645,-0.0281711,-0.00407862,0,
6,0.913555,0.622453,-0.0278499,-0.00430294,0,
6,0.896829,0.609697,-0.0275335,-0.00453735,0,
6,0.879979,0.596336,-0.0272223,-0.00478314,0,
6,0.862989,0.582341,-0.026917,-0.00504126,0,
6,0.845842,0.567704,-0.0266181,-0.00531239,0,
6,0.828521,0.552437,-0.0263265,-0.00559714,0,
6,0.811008,0.536566,-0.0260442,-0.00589299,0,
6,0.793282,0.52011,-0.0257732,-0.00619542,0,
6,0.775322,0.503084,-0.0255146,-0.00650213,0,
6,0.757107,0.485507,-0.0252697,-0.00681038,0,
6,0.738612,0.467408,-0.02504,-0.00711688,0,
6,0.719813,0.448829,-0.0248266,-0.00741775,0,
6,0.700681,0.429826,-0.0246301,-0.00770862,0,
6,0.681188,0.410457,-0.0244495,-0.0079847,0,
6,0.661304,0.390777,-0.0242815,-0.00824085,0,
6,0.640996,0.370828,-0.0241219,-0.00847151,0,
6,0.620228,0.350651,-0.0239694,-0.0086706,0,
6,0.598964,0.330317,-0.0238329,-0.00883139,0,
6,0.577166,0.309991,-0.0237382,-0.00894771,0,
6,0.554791,0.289994,-0.0237341,-0.00901607,0,
6,0.531799,0.27077,-0.023858,-0.00903719,0,
6,0.508144,0.252718,-0.0241399,-0.00901935,0,
6,0.48378,0.235877,-0.0242985,-0.0089519,0,
6,0.459585,0.220285,-0.0241511,-0.00855817,0,
6,0.436695,0.206141,-0.023947,-0.00826451,0,
6,0.414961,0.19322,-0.0237804,-0.00796602,0,
6,0.394252,0.18134,-0.0235926,-0.00765956,0,
6,0.374445,0.170354,-0.0234077,-0.0073516,0,
6,0.355433,0.160146,-0.0232221,-0.00704345,0,
6,0.337122,0.150624,-0.0230348,-0.00673438,0,
6,0.319433,0.141708,-0.0228439,-0.00642506,0,
6,0.3023,0.133332,-0.0226481,-0.0061161,0,
6,0.28567,0.125441,-0.0224462,-0.00580808,0,
6,0.269507,0.117992,-0.022237,-0.00550161,0,
6,0.253785,0.110947,-0.0220199,-0.00519739,0,
6,0.238493,0.104279,-0.0217943,-0.00489621,0,
6,0.223631,0.0979649,-0.02156,-0.00459899,0,
6,0.209207,0.0919863,-0.0213174,-0.00430674,0,
6,0.195237,0.086329,-0.0210669,-0.00402056,0,
6,0.181744,0.080981,-0.0208096,-0.00374161,0,
6,0.168754,0.0759315,-0.020547,-0.00347102,0,
6,0.156292,0.071171,-0.0202808,-0.00320989,0,
6,0.144384,0.0666898,-0.0200132,-0.00295925,0,
6,0.133052,0.0624781,-0.0197464,-0.00271998,0,
6,0.122315,0.0585259,-0.0194827,-0.0024928,0,
6,0.112183,0.0548223,-0.0192246,-0.00227824,0,
6,0.102665,0.0513561,-0.0189744,-0.00207664,0,
6,0.0937597,0.0481154,-0.0187339,-0.00188817,0,
6,0.0854609,0.045088,-0.0185049,-0.00171278,0,
6,0.077757,0.0422617,-0.0182888,-0.00155028,0,
6,0.0706309,0.0396237,-0.0180866,-0.00140032,0,
6,0.0640611,0.0371617,-0.0178989,-0.00126243,0,
6,0.0580229,0.0348634,-0.017726,-0.00113607,0,
6,0.0524888,0.0327166,-0.017568,-0.00102061,0,
6,0.0474296,0.0307096,-0.0174244,-0.000915375,0,
6,0.042815,0.028831,-0.0172947,-0.000819681,0,
6,0.0386145,0.0270698,-0.0171784,-0.000732825,0,
6,0.0347975,0.0254155,-0.0170747,-0.000654115,0,
6,0.0313344,0.0238578,-0.0169826,-0.000582874,0,
6,0.0281964,0.0223869,-0.0169012,-0.000518451,0,
6,0.0253561,0.0209931,-0.0168297,-0.000460225,0,
6,0.0227875,0.0196672,-0.0167672,-0.000407606,0,
6,0.0204662,0.0183998,-0.0167128,-0.000360041,0,
6,0.0183694,0.0171816,-0.0166658,-0.000317004,0,
6,0.016476,0.0160031,-0.0166252,-0.000278002,0,
6,0.0147664,0.0148544,-0.0165908,-0.000242565,0,
6,0.0132228,0.0137248,-0.0165612,-0.000210243,0,
6,0.0118288,0.012603,-0.0165369,-0.000180594,0,
6,0.0105693,0.0114764,-0.0165161,-0.000153184,0,
6,0.00943073,0.0103314,-0.0165,-0.000127588,0,
6,0.00840063,0.00915407,-0.0164862,-0.000103421,0,
6,0.00746774,0.00793284,-0.0164768,-8.04519e-05,0,
6,0.00662185,0.00666433,-0.0164684,-5.88275e-05,0,
6,0.00585371,0.00536377,-0.0164642,-3.93591e-05,0,
6,0.00515491,0.00407563,-0.0164597,-2.34409e-05,0,
6,0.00451788,0.00287111,-0.0164589,-1.21967e-05,0,
6,0.00393573,0.00182282,-0.0164563,-5.51749e-06,0,
6,0.00340221,0.00097454,-0.016457,-2.17647e-06,0,
6,0.00291168,0.000332974,-0.0164548,-7.46377e-07,0,
6,0.00245897,-0.000119791,-0.0164562,-2.17113e-07,0,
6,0.00203939,-0.000410964,-0.0164538,-4.9946e-08,0,
6,0.00164864,-0.000567734,-0.0164558,-7.37635e-09,0,
6,0.00128281,-0.000613501,-0.0164529,6.75209e-12,0,
6,0.000938257,-0.000567017,-0.0164556,2.9119e-10,0,
6,0.000611645,-0.000442667,-0.0164519,5.13789e-11,0,
6,0.000299862,-0.00025106,-0.0164555,1.91208e-12,0,

10,0.000296632,0.0085053,0.0296035,-5.00648e-11,0,
10,0.000596102,0.0170886,0.0296041,-1.85533e-09,0,
10,0.000900397,0.0258067,0.0296035,-1.8862e-08,0,
10,0.00121153,0.0347169,0.029604,-1.01347e-07,0,
10,0.00153158,0.0438763,0.0296034,-3.79019e-07,0,
10,0.00186264,0.0533411,0.0296038,-1.12651e-06,0,
10,0.00220692,0.0631634,0.0296034,-2.85784e-06,0,
10,0.00256668,0.0733871,0.0296037,-6.4473e-06,0,
10,0.00294431,0.0840392,0.0296033,-1.32492e-05,0,
10,0.00334229,0.0951185,0.0296035,-2.51401e-05,0,
10,0.00376326,0.106581,0.0296031,-4.43495e-05,0,
10,0.00421,0.118329,0.0296032,-7.29503e-05,0,
10,0.00468544,0.130204,0.0296028,-0.00011205,0,
10,0.00519274,0.142006,0.0296028,-0.000161056,0,
10,0.00573524,0.15352,0.0296022,-0.000217534,0,
10,0.00631651,0.164551,0.0296019,-0.000277881,0,
10,0.00694041,0.174952,0.0296011,-0.000338382,0,
10,0.00761104,0.184633,0.0296004,-0.000396069,0,
10,0.00833284,0.193558,0.0295991,-0.000449054,0,
10,0.00911058,0.201734,0.0295977,-0.000496468,0,
10,0.0099494,0.209197,0.0295957,-0.000538196,0,
10,0.0108548,0.215999,0.0295934,-0.00057461,0,
10,0.0118329,0.222204,0.0295903,-0.000606351,0,
10,0.0128901,0.227875,0.0295868,-0.00063417,0,
10,0.0140333,0.233076,0.0295824,-0.000658834,0,
10,0.0152702,0.237866,0.0295773,-0.00068107,0,
10,0.0166089,0.242299,0.0295711,-0.000701538,0,
10,0.0180584,0.246422,0.029564,-0.000720826,0,
10,0.0196282,0.250277,0.0295556,-0.000739448,0,
10,0.0213288,0.253904,0.029546,-0.000757855,0,
10,0.0231714,0.257334,0.0295349,-0.000776449,0,
10,0.0251682,0.260596,0.0295223,-0.000795587,0,
10,0.0273326,0.263716,0.0295079,-0.0008156,0,
10,0.0296789,0.266716,0.0294916,-0.000836794,0,
10,0.0322227,0.269617,0.0294732,-0.000859464,0,
10,0.0349809,0.272437,0.0294525,-0.000883896,0,
10,0.0379719,0.275193,0.0294292,-0.000910379,0,
10,0.0412155,0.2779,0.0294032,-0.000939202,0,
10,0.0447333,0.280572,0.0293742,-0.000970666,0,
10,0.0485489,0.283225,0.029342,-0.00100508,0,
10,0.0526875,0.28587,0.0293063,-0.00104278,0,
10,0.0571768,0.288522,0.0292667,-0.00108411,0,
10,0.0620466,0.291193,0.0292232,-0.00112944,0,
10,0.0673295,0.293897,0.0291752,-0.00117917,0,
10,0.0730607,0.296647,0.0291227,-0.00123372,0,
10,0.0792784,0.299458,0.0290652,-0.00129354,0,
10,0.0860241,0.302346,0.0290025,-0.00135911,0,
10,0.0933428,0.305325,0.0289344,-0.00143097,0,
10,0.101283,0.308415,0.0288607,-0.00150965,0,
10,0.109899,0.311634,0.028781,-0.00159575,0,
10,0.119247,0.315004,0.0286954,-0.00168988,0,
10,0.12939,0.318549,0.0286036,-0.00179269,0,
10,0.140395,0.322295,0.0285056,-0.00190486,0,
10,0.152337,0.326272,0.0284015,-0.00202707,0,
10,0.165296,0.330516,0.0282912,-0.00216002,0,
10,0.179357,0.335064,0.028175,-0.00230439,0,
10,0.194615,0.339962,0.028053,-0.00246081,0,
10,0.211171,0.345262,0.0279256,-0.00262987,0,
10,0.229138,0.351023,0.0277927,-0.002812,0,
10,0.248635,0.357313,0.0276554,-0.00300747,0,
10,0.269793,0.364213,0.0275126,-0.00321629,0,
10,0.292753,0.371813,0.0273667,-0.00343806,0,
10,0.317669,0.38022,0.0272137,-0.00367061,0,
10,0.344708,0.38955,0.0270591,-0.00391072,0,
10,0.372405,0.399358,0.0269082,-0.00414729,0,
10,0.399623,0.40926,0.0267634,-0.00436896,0,
10,0.426397,0.419258,0.0266256,-0.00457278,0,
10,0.452757,0.429357,0.0264932,-0.00475992,0,
10,0.478735,0.439566,0.0263685,-0.00492814,0,
10,0.504358,0.449905,0.0262516,-0.00507648,0,
10,0.529657,0.460396,0.0261441,-0.00520284,0,
10,0.554656,0.471062,0.0260391,-0.00530803,0,
10,0.579382,0.481917,0.0259444,-0.00539139,0,
10,0.603859,0.492972,0.0258347,-0.005471,0,
10,0.628112,0.504311,0.0257699,-0.00554745,0,
10,0.652163,0.516266,0.0257878,-0.00548117,0,
10,0.676035,0.52917,0.0257971,-0.00538598,0,
10,0.699751,0.542996,0.0257658,-0.00526026,0,
10,0.72333,0.557493,0.0256927,-0.00510337,0,
10,0.746795,0.572343,0.0255868,-0.00491772,0,
10,0.770165,0.587274,0.0254588,-0.00470768,0,
10,0.79346,0.602101,0.0253164,-0.00447837,0,
10,0.816699,0.616706,0.0251634,-0.00423481,0,
10,0.839903,0.631003,0.0250011,-0.00398196,0,
10,0.863088,0.644893,0.0248269,-0.00372714,0,
10,0.886275,0.658261,0.0246392,-0.00348059,0,
10,0.909481,0.671012,0.024441,-0.00324286,0,
10,0.932723,0.683111,0.0242348,-0.00301431,0,
10,0.956021,0.694574,0.0240223,-0.00279553,0,
10,0.97939,0.705438,0.0238036,-0.00258712,0,
10,1.00285,0.715739,0.0235786,-0.00238958,0,
10,1.02641,0.725507,0.0233467,-0.00220339,0,
10,1.0501,0.734764,0.0231083,-0.0020289,0,
10,1.07392,0.743531,0.0228628,-0.00186637,0,
10,1.0979,0.751833,0.0226123,-0.00171517,0,
10,1.12205,0.759701,0.0223563,-0.00157122,0,
10,1.14639,0.767148,0.022092,-0.00144214,0,
10,1.17093,0.774169,0.0218195,-0.00132635,0,
10,1.19568,0.78078,0.0215393,-0.00122465,0,
10,1.22066,0.787009,0.0212511,-0.00113711,0,
10,1.24589,0.792897,0.0209564,-0.00106307,0,
10,1.27137,0.798493,0.0206536,-0.00100133,0,
10,1.29713,0.803851,0.0203461,-0.00095279,0,
10,1.32317,0.80905,0.0200318,-0.000911783,0,
10,1.34951,0.814223,0.0197119,-0.000866943,0,
10,1.37616,0.819462,0.0193886,-0.000825293,0,
10,1.40313,0.82475,0.0190575,-0.000786932,0,
10,1.43043,0.830019,0.0187189,-0.000751693,0,
10,1.45807,0.835209,0.0183718,-0.000719022,0,
10,1.48607,0.840307,0.0180174,-0.000688197,0,
10,1.51444,0.845328,0.0176558,-0.000658631,0,
10,1.54318,0.85029,0.0172872,-0.00063001,0,
10,1.57231,0.855195,0.0169114,-0.000602257,0,
10,1.60184,0.860025,0.0165282,-0.000575395,0,
10,1.63178,0.86475,0.0161372,-0.000549464,0,
10,1.66213,0.869344,0.015739,-0.000524456,0,
10,1.69292,0.873788,0.015333,-0.000500264,0,
10,1.72416,0.878088,0.0149204,-0.000476513,0,
10,1.75585,0.882289,0.0144985,-0.000448465,0,
10,1.78802,0.886437,0.0140685,-0.000420431,0,
10,1.82067,0.890536,0.0136316,-0.000392215,0,
10,1.85383,0.894566,0.0131861,-0.000362883,0,
10,1.88751,0.898507,0.0127325,-0.000332675,0,
10,1.92173,0.902333,0.0122706,-0.000301956,0,
10,1.95652,0.906022,0.0117999,-0.000271153,0,
10,1.9919,0.909548,0.0113211,-0.000240732,0,
10,2.02791,0.912889,0.0108327,-0.000211229,0,
10,2.06456,0.916026,0.0103368,-0.000182864,0,
10,2.10268,0.918998,0.00981899,-0.000155221,0,
10,2.1443,0.921892,0.00925646,-0.000128665,0,
10,2.18977,0.924658,0.0086422,-0.000103328,0,
10,2.23946,0.927214,0.00797445,-7.95172e-05,0,
10,2.29376,0.929477,0.0072478,-5.80565e-05,0,
10,2.35309,0.931364,0.00645998,-3.96418e-05,0,
10,2.4179,0.932807,0.00560702,-2.47958e-05,0,
10,2.48863,0.933761,0.00468721,-1.37902e-05,0,
10,2.56575,0.934224,0.00369835,-6.53431e-06,0,
10,2.64971,0.934251,0.00264008,-2.52108e-06,0,
10,2.74098,0.933962,0.00151218,-8.76903e-07,0,
10,2.83997,0.933535,0.000315948,-5.59455e-07,0,
10,2.94709,0.933175,-0.000946967,-6.64417e-07,0,
10,3.06269,0.933065,-0.00227371,-6.81544e-07,0,
10,3.18706,0.933314,-0.00366069,-5.1905e-07,0,
10,3.3204,0.933925,-0.00510283,-3.00813e-07,0,
10,3.46281,0.934805,-0.00659345,-1.40414e-07,0,
10,3.61427,0.93581,-0.0081238,-6.0391e-08,0,
10,3.77463,0.936802,-0.00968322,-3.10452e-08,0,
10,3.94358,0.937702,-0.0112594,-2.21209e-08,0,
10,4.12067,0.938495,-0.0128389,-1.91043e-08,0,
10,4.30525,0.939215,-0.0144081,-1.77562e-08,0,
10,4.49655,0.939905,-0.0159533,-1.72722e-08,0,
10,4.6936,0.940592,-0.0174613,-1.76302e-08,0,
10,4.89531,0.94128,-0.0189201,-1.9321e-08,0,
10,5.10047,0.941953,-0.0203187,-2.37932e-08,0,
10,5.30776,0.942591,-0.0216479,-3.42781e-08,0,
10,5.51581,0.943179,-0.0229004,-5.74655e-08,0,
10,5.72323,0.943711,-0.0240707,-1.0775e-07,0,
10,5.92863,0.944214,-0.0251552,-2.20384e-07,0,
10,6.13069,0.944754,-0.0261527,-4.88166e-07,0,
10,6.32816,0.945426,-0.0270634,-1.10507e-06,0,
10,6.51991,0.946261,-0.0278894,-2.1504e-06,0,
10,6.70495,0.947028,-0.0286344,-2.31194e-06,0,
10,6.88244,0.947009,-0.0293017,3.76857e-06,0,
10,7.0517,0.944977,-0.0298952,2.69852e-05,0,
10,7.21224,0.939547,-0.0304155,8.06299e-05,0,
10,7.3637,0.929837,-0.0308681,0.000173886,0,
10,7.5059,0.915893,-0.0312572,0.000297094,0,
10,7.63878,0.898302,-0.0315868,0.000404581,0,
10,7.76243,0.878171,-0.0318666,0.000523442,0,
10,7.87701,0.857269,-0.0320911,0.000644892,0,
10,7.9828,0.83705,-0.0322769,0.000755141,0,
10,8.08014,0.818224,-0.032426,0.000849179,0,
10,8.16941,0.800872,-0.0325496,0.000927479,0,
10,8.25106,0.784749,-0.0326515,0.000993166,0,
10,8.32554,0.76953,-0.0327381,0.00104944,0,
10,8.39331,0.754937,-0.0328115,0.00109856,0,
10,8.45484,0.740772,-0.0328744,0.00114178,0,
10,8.5106,0.726916,-0.032928,0.00117972,0,
10,8.56104,0.713307,-0.0329741,0.00121261,0,
10,8.60659,0.69993,-0.0330135,0.00124055,0,
10,8.64767,0.686791,-0.0330478,0.00126364,0,
10,8.68467,0.673894,-0.0330772,0.00128155,0,
10,8.71795,0.661212,-0.0331028,0.00129137,0,
10,8.74786,0.648719,-0.033125,0.00129765,0,
10,8.77471,0.63641,-0.0331441,0.00129964,0,
10,8.79881,0.624281,-0.0331605,0.00129778,0,
10,8.8204,0.612326,-0.0331747,0.00129261,0,
10,8.83975,0.600533,-0.0331869,0.00128463,0,
10,8.85708,0.588888,-0.0331973,0.00127434,0,
10,8.87259,0.577374,-0.0332061,0.00126218,0,
10,8.88646,0.565969,-0.0332136,0.00124856,0,
10,8.89886,0.554648,-0.0332199,0.00123382,0,
10,8.90995,0.543383,-0.0332253,0.00121825,0,
10,8.91986,0.532145,-0.0332297,0.00120207,0,
10,8.92872,0.5209,-0.0332335,0.00118543,0,
10,8.93663,0.509613,-0.0332366,0.00116844,0,
10,8.94369,0.498243,-0.0332392,0.00115111,0,
10,8.95,0.48675,-0.0332413,0.00113339,0,
10,8.95564,0.475087,-0.0332432,0.00111523,0,
10,8.96067,0.463206,-0.0332446,0.00109645,0,
10,8.96517,0.451052,-0.0332458,0.0010768,0,
10,8.96918,0.438563,-0.0332468,0.00105594,0,
10,8.97276,0.425669,-0.0332477,0.00103344,0,
10,8.97596,0.412291,-0.0332482,0.00100875,0,
10,8.97882,0.398337,-0.0332489,0.000981144,0,
10,8.98137,0.383698,-0.0332492,0.000949675,0,
10,8.98365,0.368248,-0.0332498,0.000913138,0,
10,8.98569,0.351836,-0.0332498,0.000870151,0,
10,8.9875,0.334281,-0.0332503,0.000818364,0,
10,8.98913,0.315346,-0.0332502,0.000752987,0,
10,8.99058,0.294805,-0.0332507,0.000675737,0,
10,8.99188,0.272495,-0.0332505,0.000584263,0,
10,8.99304,0.248259,-0.033251,0.000471702,0,
10,8.99408,0.222054,-0.0332506,0.000345761,0,
10,8.99501,0.194255,-0.0332511,0.000220134,0,
10,8.99583,0.165763,-0.0332507,0.000116612,0,
10,8.99658,0.137844,-0.0332512,5.00505e-05,0,
10,8.99724,0.111609,-0.0332507,1.7267e-05,0,
10,8.99784,0.0876424,-0.0332513,4.74256e-06,0,
10,8.99837,0.0660523,-0.0332506,9.94511e-07,0,
10,8.99885,0.0467043,-0.0332514,1.42463e-07,0,
10,8.99927,0.0293874,-0.0332506,1.08157e-08,0,
10,8.99966,0.0138871,-0.0332516,2.39301e-10,0,
10,0,0,0.0296043,0,0,
10,9,0,-0.0332505,0,0,

0.004,0,0,-0.226635,0,-8.89833e-08,
0.00868226,0,0,-0.226631,0,-1.96202e-07,
0.014062,0,0,-0.226634,0,-3.2888e-07,
0.0201548,0,0,-0.226633,0,-7.78579e-07,
0.0269766,0,0,-0.226633,0,-1.32654e-06,
0.0345437,0,0,-0.226633,0,-2.02803e-06,
0.0428729,0,0,-0.226632,0,-2.69912e-06,
0.051981,0,0,-0.22663,0,-3.25347e-06,
0.0618853,0,0,-0.226627,0,-3.48423e-06,
0.0726036,0,0,-0.226624,0,-3.209e-06,
0.0841536,0,0,-0.22662,0,-2.20576e-06,
0.0965535,0,0,-0.226615,0,-2.9682e-07,
0.109822,0,0,-0.226611,0,2.6313e-06,
0.123977,0,0,-0.22661,0,6.57793e-06,
0.139037,0,0,-0.22661,0,1.14047e-05,
0.155022,0,0,-0.226616,0,1.68493e-05,
0.171949,0,0,-0.226627,0,2.25499e-05,
0.189839,0,0,-0.226643,0,2.81112e-05,
0.208709,0,0,-0.226664,0,3.31484e-05,
0.228579,0,0,-0.226691,0,3.73472e-05,
0.249467,0,0,-0.22672,0,4.0484e-05,
0.271391,0,0,-0.226751,0,4.24496e-05,
0.29437,0,0,-0.226782,0,4.32415e-05,
0.31842,0,0,-0.226812,0,4.29607e-05,
0.343559,0,0,-0.22684,0,4.17894e-05,
0.369804,0,0,-0.226865,0,3.99752e-05,
0.39717,0,0,-0.226886,0,3.78052e-05,
0.425672,0,0,-0.226904,0,3.55936e-05,
0.455324,0,0,-0.22692,0,3.36588e-05,
0.48614,0,0,-0.226934,0,3.2319e-05,
0.518132,0,0,-0.226947,0,3.18706e-05,
0.551309,0,0,-0.226963,0,3.25205e-05,
0.585683,0,0,-0.226984,0,3.43533e-05,
0.621259,0,0,-0.227012,0,3.73314e-05,
0.658046,0,0,-0.227052,0,4.13164e-05,
0.696047,0,0,-0.227107,0,4.61082e-05,
0.735265,0,0,-0.22718,0,5.14926e-05,
0.7757,0,0,-0.227274,0,5.72674e-05,
0.817352,0,0,-0.227396,0,6.32421e-05,
0.860215,0,0,-0.227551,0,6.91822e-05,
0.904285,0,0,-0.22775,0,7.46238e-05,
0.949552,0,0,-0.228007,0,7.86947e-05,
0.996004,0,0,-0.228341,0,8.00698e-05,
1.04363,0,0,-0.228773,0,7.69833e-05,
1.09241,0,0,-0.229327,0,6.73431e-05,
1.14232,0,0,-0.230019,0,4.9087e-05,
1.19335,0,0,-0.230857,0,2.0742e-05,
1.24546,0,0,-0.231833,0,-1.80664e-05,
1.29863,0,0,-0.232926,0,-6.64173e-05,
1.35283,0,0,-0.234103,0,-0.000122348,
1.40802,0,0,-0.235331,0,-0.000183454,
1.46416,0,0,-0.236575,0,-0.000247536,
1.52121,0,0,-0.237809,0,-0.000312994,
1.57913,0,0,-0.239007,0,-0.000378904,
1.63787,0,0,-0.240148,0,-0.000444849,
1.69739,0,0,-0.241216,0,-0.000510689,
1.75761,0,0,-0.242192,0,-0.000576384,
1.81851,0,0,-0.243062,0,-0.000641891,
1.88,0,0,-0.243809,0,-0.000707134,
1.94204,0,0,-0.244421,0,-0.000772002,
2.00457,0,0,-0.244881,0,-0.000836356,
2.06751,0,0,-0.245178,0,-0.00090004,
2.13081,0,0,-0.245297,0,-0.000962881,
2.19439,0,0,-0.245227,0,-0.00102469,
2.25819,0,0,-0.244958,0,-0.00108529,
2.32214,0,0,-0.244478,0,-0.00114445,
2.38617,0,0,-0.243781,0,-0.00120198,
2.4502,0,0,-0.242858,0,-0.00125766,
2.51418,0,0,-0.241706,0,-0.00131125,
2.57803,0,0,-0.240319,0,-0.00136254,
2.64167,0,0,-0.238697,0,-0.00141129,
2.70505,0,0,-0.236841,0,-0.00145727,
2.76808,0,0,-0.234752,0,-0.00150024,
2.83072,0,0,-0.232437,0,-0.00153997,
2.89288,0,0,-0.229902,0,-0.00157626,
2.95451,0,0,-0.227159,0,-0.00160894,
3.01555,0,0,-0.224221,0,-0.0016379,
3.07594,0,0,-0.221102,0,-0.00166307,
3.13561,0,0,-0.21782,0,-0.00168447,
3.19453,0,0,-0.214393,0,-0.00170212,
3.25262,0,0,-0.210839,0,-0.00171613,
3.30985,0,0,-0.207178,0,-0.00172662,
3.36617,0,0,-0.203429,0,-0.00173375,
3.42154,0,0,-0.199612,0,-0.00173769,
3.47591,0,0,-0.195745,0,-0.00173861,
3.52925,0,0,-0.191846,0,-0.00173673,
3.58152,0,0,-0.187934,0,-0.00173227,
3.6327,0,0,-0.184023,0,-0.00172545,
3.68276,0,0,-0.18013,0,-0.0017165,
3.73167,0,0,-0.176267,0,-0.00170563,
3.77941,0,0,-0.172448,0,-0.00169307,
3.82596,0,0,-0.168683,0,-0.00167903,
3.8713,0,0,-0.164983,0,-0.00166372,
3.91543,0,0,-0.161352,0,-0.0016472,
3.95833,0,0,-0.157818,0,-0.00162999,
4,0,0,-0.154349,0,-0.00161197,
4.04167,0,0,-0.150877,0,-0.00159269,
4.08333,0,0,-0.147398,0,-0.00157237,
4.125,0,0,-0.143915,0,-0.001551,
4.16667,0,0,-0.14043,0,-0.0015286,
4.20833,0,0,-0.136947,0,-0.00150521,
4.25,0,0,-0.133469,0,-0.00148087,
4.29167,0,0,-0.129999,0,-0.00145564,
4.33333,0,0,-0.126539,0,-0.00142954,
4.375,0,0,-0.123093,0,-0.00140263,
4.41667,0,0,-0.119663,0,-0.00137495,
4.45833,0,0,-0.116251,0,-0.00134653,
4.5,0,0,-0.112859,0,-0.00131741,
4.54167,0,0,-0.109491,0,-0.00128763,
4.58333,0,0,-0.106148,0,-0.00125723,
4.625,0,0,-0.102831,0,-0.00122623,
4.66667,0,0,-0.0995431,0,-0.00119467,
4.70833,0,0,-0.0962858,0,-0.00116258,
4.75,0,0,-0.0930607,0,-0.00112999,
4.79167,0,0,-0.0898694,0,-0.00109692,
4.83333,0,0,-0.0867134,0,-0.0010634,
4.875,0,0,-0.0835942,0,-0.00102947,
4.91667,0,0,-0.0805131,0,-0.000995162,
4.95833,0,0,-0.0774714,0,-0.000960493,
5,0,0,-0.0744702,0,-0.000925497,
5.04167,0,0,-0.0715105,0,-0.000890201,
5.08333,0,0,-0.0685933,0,-0.000854633,
5.125,0,0,-0.0657196,0,-0.000818816,
5.16667,0,0,-0.0628901,0,-0.000782775,
5.20833,0,0,-0.0601056,0,-0.000746531,
5.25,0,0,-0.0573668,0,-0.000710109,
5.29167,0,0,-0.0546743,0,-0.000673529,
5.33333,0,0,-0.0520287,0,-0.000636812,
5.375,0,0,-0.0494304,0,-0.000599979,
5.41667,0,0,-0.0468801,0,-0.000563054,
5.45833,0,0,-0.0443781,0,-0.000526057,
5.5,0,0,-0.0419249,0,-0.00048901,
5.54167,0,0,-0.0395208,0,-0.000451932,
5.58333,0,0,-0.037166,0,-0.000414841,
5.625,0,0,-0.0348611,0,-0.00037775,
5.66667,0,0,-0.0326064,0,-0.000340673,
5.70833,0,0,-0.0304025,0,-0.000303623,
5.75,0,0,-0.0282499,0,-0.000266622,
5.79167,0,0,-0.0261497,0,-0.000229714,
5.83333,0,0,-0.0241027,0,-0.000192973,
5.875,0,0,-0.0221097,0,-0.000156505,
5.91667,0,0,-0.0201708,0,-0.000120419,
5.95833,0,0,-0.018285,0,-8.47851e-05,
6,0,0,-0.0164511,0,-4.96246e-05,
6.04167,0,0,-0.0146679,0,-1.49267e-05,
6.08333,0,0,-0.0129344,0,1.93276e-05,
6.125,0,0,-0.0112494,0,5.31527e-05,
6.16667,0,0,-0.00961215,0,8.65572e-05,
6.20833,0,0,-0.00802156,0,0.000119546,
6.25,0,0,-0.00647677,0,0.000152121,
6.29167,0,0,-0.00497691,0,0.000184286,
6.33333,0,0,-0.00352111,0,0.000216042,
6.375,0,0,-0.00210851,0,0.00024739,
6.41667,0,0,-0.000738292,0,0.000278331,
6.45833,0,0,0.000590389,0,0.000308867,
6.5,0,0,0.00187835,0,0.000338999,
6.54167,0,0,0.0031264,0,0.000368727,
6.58333,0,0,0.00433534,0,0.000398053,
6.625,0,0,0.00550597,0,0.000426978,
6.66667,0,0,0.00663908,0,0.000455503,
6.70833,0,0,0.00773545,0,0.000483631,
6.75,0,0,0.00879584,0,0.000511362,
6.79167,0,0,0.00982102,0,0.000538698,
6.83333,0,0,0.0108117,0,0.000565642,
6.875,0,0,0.0117687,0,0.000592193,
6.91667,0,0,0.0126928,0,0.000618354,
6.95833,0,0,0.0135845,0,0.000644125,
7,0,0,0.0144448,0,0.000669509,
7.04167,0,0,0.0152743,0,0.000694508,
7.08333,0,0,0.0160737,0,0.000719123,
7.125,0,0,0.0168437,0,0.000743357,
7.16667,0,0,0.017585,0,0.000767211,
7.20833,0,0,0.0182983,0,0.000790689,
7.25,0,0,0.0189843,0,0.000813792,
7.29167,0,0,0.0196436,0,0.000836526,
7.33333,0,0,0.0202769,0,0.000858894,
7.375,0,0,0.0208848,0,0.000880902,
7.41667,0,0,0.021468,0,0.000902556,
7.45833,0,0,0.0220271,0,0.000923871,
7.5,0,0,0.0225628,0,0.000944855,
7.54167,0,0,0.0230756,0,0.000965518,
7.58333,0,0,0.023566,0,0.000985862,
7.625,0,0,0.0240347,0,0.00100589,
7.66667,0,0,0.0244819,0,0.0010256,
7.70833,0,0,0.0249083,0,0.001045,
7.75,0,0,0.0253143,0,0.0010641,
7.79167,0,0,0.0257002,0,0.00108288,
7.83333,0,0,0.0260659,0,0.00110135,
7.875,0,0,0.0264116,0,0.00111957,
7.91667,0,0,0.0267481,0,0.00113809,
7.95833,0,0,0.0270061,0,0.00115542,
8,0,0,0.0273498,0,0.00117274,
8.04171,0,0,0.0277133,0,0.00119106,
8.08368,0,0,0.027943,0,0.00120916,
8.12617,0,0,0.0282133,0,0.0012255,
8.16946,0,0,0.0284677,0,0.00124191,
8.21382,0,0,0.0287053,0,0.00125833,
8.25952,0,0,0.0289338,0,0.00127477,
8.30685,0,0,0.0291528,0,0.00129141,
8.35611,0,0,0.0293622,0,0.00130833,
8.40762,0,0,0.0295621,0,0.00132562,
8.46168,0,0,0.0297519,0,0.00134335,
8.51865,0,0,0.0299307,0,0.00136156,
8.57889,0,0,0.0300973,0,0.0013803,
8.64276,0,0,0.03025,0,0.00139961,
8.71067,0,0,0.0303867,0,0.00141952,
8.78306,0,0,0.030505,0,0.00144005,
8.86037,0,0,0.0306021,0,0.00146122,
8.94309,0,0,0.0306746,0,0.00148305,
9.03174,0,0,0.030719,0,0.00150551,
9.12689,0,0,0.0307314,0,0.0015286,
9.22912,0,0,0.0307075,0,0.00155229,
9.33908,0,0,0.0306427,0,0.00157654,
9.45746,0,0,0.0305324,0,0.00160132,
9.58501,0,0,0.0303718,0,0.00162658,
9.72253,0,0,0.0301556,0,0.00165223,
9.87088,0,0,0.0298793,0,0.00167821,
10.031,0,0,0.0295383,0,0.00170441,
10.2039,0,0,0.0291291,0,0.00173075,
10.3906,0,0,0.0286481,0,0.00175711,
10.5924,0,0,0.0280922,0,0.00178338,
10.8105,0,0,0.027461,0,0.00180943,
11.0463,0,0,0.0267552,0,0.00183514,
11.3012,0,0,0.0259754,0,0.00186041,
11.5769,0,0,0.0251255,0,0.00188513,
11.8751,0,0,0.0242108,0,0.00190921,
12.1977,0,0,0.0232376,0,0.00193255,
12.5466,0,0,0.0222158,0,0.00195509,
12.9242,0,0,0.0211552,0,0.00197677,
13.3327,0,0,0.0200679,0,0.00199757,
13.7748,0,0,0.0189673,0,0.00201746,
14.2532,0,0,0.0178668,0,0.00203644,
14.7709,0,0,0.0167809,0,0.00205454,
15.3312,0,0,0.0157225,0,0.00207179,
15.9377,0,0,0.0147053,0,0.00208822,
16.594,0,0,0.01374,0,0.00210392,
17.3044,0,0,0.0128356,0,0.00211894,
18.0733,0,0,0.0119988,0,0.00213332,
18.9056,0,0,0.0112322,0,0.00214698,
19.8064,0,0,0.010537,0,0.00215985,
20.7816,0,0,0.00991001,0,0.00217211,
21.8371,0,0,0.00934403,0,0.00218411,
22.9796,0,0,0.00882959,0,0.00219602,
24.2163,0,0,0.00835373,0,0.0022079,
25.5551,0,0,0.00790177,0,0.00221988,
27.0042,0,0,0.00745722,0,0.00223201,
28.5729,0,0,0.00700231,0,0.00224435,
30.271,0,0,0.00651902,0,0.0022569,
32.1091,0,0,0.00598984,0,0.00226958,
34.0989,0,0,0.00539963,0,0.0022823,
36.2529,0,0,0.00473077,0,0.0022951,
38.5845,0,0,0.00397528,0,0.00230792,
41.1085,0,0,0.00317213,0,0.00232056,
43.8407,0,0,0.00216258,0,0.00233081,
46.7983,0,0,0.00111415,0,0.00233657,
50,0,0,0.00212484,0,0.00235243,

