fba70d8d56b85ae7b06f6351fa70444f4ecd378b 
X,Z,x_velocity,cp,uw_b,cf,
1,0,0,-0.22742,0,0,
1,9,0,-0.129615,0,0,
1,8.99969,0.0153866,-0.129615,2.84931e-10,0,
1,8.99934,0.032843,-0.129615,1.33185e-08,0,
1,8.99894,0.0526655,-0.129615,1.83722e-07,0,
1,8.99848,0.0751678,-0.129615,1.34688e-06,0,
1,8.99797,0.100662,-0.129615,6.73237e-06,0,
1,8.99739,0.129346,-0.129615,2.54864e-05,0,
1,8.99672,0.161027,-0.129615,7.55261e-05,0,
1,8.99597,0.194769,-0.129615,0.000175659,0,
1,8.99512,0.228926,-0.129615,0.000323931,0,
1,8.99416,0.261841,-0.129615,0.000491896,0,
1,8.99306,0.292537,-0.129614,0.000650124,0,
1,8.99182,0.320837,-0.129614,0.00077763,0,
1,8.99041,0.346882,-0.129614,0.000883177,0,
1,8.98881,0.370829,-0.129613,0.000970364,0,
1,8.98699,0.392898,-0.129613,0.00104152,0,
1,8.98494,0.413375,-0.129612,0.00109745,0,
1,8.98261,0.432572,-0.129611,0.00114029,0,
1,8.97996,0.450728,-0.12961,0.00117618,0,
1,8.97696,0.468014,-0.129609,0.00120594,0,
1,8.97356,0.484574,-0.129608,0.00123083,0,
1,8.9697,0.500524,-0.129606,0.00125182,0,
1,8.96533,0.515964,-0.129604,0.00126961,0,
1,8.96038,0.530976,-0.129602,0.00128472,0,
1,8.95476,0.545631,-0.1296,0.00129753,0,
1,8.9484,0.559987,-0.129598,0.00130829,0,
1,8.9412,0.574095,-0.129595,0.00131717,0,
1,8.93303,0.587998,-0.129592,0.00132428,0,
1,8.92379,0.601733,-0.129589,0.00132966,0,
1,8.91333,0.615331,-0.129585,0.00133333,0,
1,8.90149,0.628821,-0.129582,0.00133526,0,
1,8.8881,0.642227,-0.129579,0.00133539,0,
1,8.87295,0.655571,-0.129576,0.00133365,0,
1,8.85584,0.668872,-0.129573,0.00132995,0,
1,8.83651,0.68215,-0.129572,0.00132417,0,
1,8.81469,0.695424,-0.129571,0.00131617,0,
1,8.79007,0.708713,-0.129573,0.00130581,0,
1,8.76232,0.722039,-0.129576,0.00129289,0,
1,8.73107,0.735427,-0.129584,0.0012772,0,
1,8.69591,0.748907,-0.129595,0.00125845,0,
1,8.6564,0.762516,-0.129613,0.0012363,0,
1,8.61206,0.776299,-0.129638,0.00121032,0,
1,8.56236,0.790312,-0.129673,0.00118018,0,
1,8.50675,0.804633,-0.129722,0.00114692,0,
1,8.44464,0.819398,-0.129787,0.001107,0,
1,8.3754,0.834826,-0.129873,0.00105553,0,
1,8.29839,0.851167,-0.129986,0.000992368,0,
1,8.21296,0.868668,-0.130133,0.000913005,0,
1,8.11843,0.88752,-0.130318,0.000812202,0,
1,8.01417,0.907721,-0.130557,0.000686516,0,
1,7.89956,0.928827,-0.130845,0.000539413,0,
1,7.77403,0.949712,-0.131221,0.000389377,0,
1,7.63711,0.968765,-0.131671,0.000205404,0,
1,7.48842,0.983659,-0.132203,7.62049e-05,0,
1,7.32773,0.992459,-0.132842,1.82883e-05,0,
1,7.15495,0.99565,-0.133584,1.81566e-06,0,
1,6.97022,0.995709,-0.134445,2.39876e-08,0,
1,6.77388,0.995092,-0.13544,3.76926e-09,0,
1,6.56652,0.994975,-0.136584,9.76859e-09,0,
1,6.34896,0.995431,-0.13789,1.25095e-08,0,
1,6.12229,0.99616,-0.139373,1.41093e-08,0,
1,5.88784,0.996961,-0.141048,1.49605e-08,0,
1,5.64716,0.997799,-0.142926,1.59356e-08,0,
1,5.40194,0.998704,-0.145019,1.72931e-08,0,
1,5.15407,0.999703,-0.147333,1.90021e-08,0,
1,4.90545,1.0008,-0.149871,2.0824e-08,0,
1,4.65805,1.00201,-0.152632,2.27753e-08,0,
1,4.41376,1.00332,-0.155607,2.48138e-08,0,
1,4.17441,1.00471,-0.158783,2.671e-08,0,
1,3.94163,1.00612,-0.162142,2.83033e-08,0,
1,3.7169,1.00752,-0.165655,3.02033e-08,0,
1,3.50146,1.00897,-0.169291,3.43505e-08,0,
1,3.29629,1.01078,-0.173016,4.278e-08,0,
1,3.10217,1.01333,-0.176798,5.36699e-08,0,
1,2.91959,1.01641,-0.180608,9.77916e-08,0,
1,2.74885,1.01858,-0.184403,9.68974e-07,0,
1,2.59002,1.01743,-0.18812,-6.01867e-06,0,
1,2.44299,1.01126,-0.191692,-5.18027e-05,0,
1,2.30752,1.00023,-0.195052,-0.000149175,0,
1,2.18321,0.985818,-0.198142,-0.000284402,0,
1,2.06959,0.969589,-0.200991,-0.000401028,0,
1,1.9661,0.952819,-0.203579,-0.000502399,0,
1,1.87215,0.936437,-0.205873,-0.000596987,0,
1,1.78711,0.920956,-0.207909,-0.000680289,0,
1,1.71033,0.906531,-0.209703,-0.000752219,0,
1,1.64119,0.893131,-0.211279,-0.000814298,0,
1,1.57905,0.880646,-0.212657,-0.000868726,0,
1,1.52332,0.868945,-0.213857,-0.000917562,0,
1,1.47342,0.857918,-0.214907,-0.000963145,0,
1,1.42882,0.84748,-0.215805,-0.000998532,0,
1,1.389,0.837552,-0.216563,-0.00102295,0,
1,1.35351,0.828068,-0.217219,-0.00104575,0,
1,1.3219,0.818993,-0.217781,-0.00106631,0,
1,1.29378,0.810304,-0.218263,-0.0010843,0,
1,1.26878,0.801992,-0.218677,-0.00109976,0,
1,1.24659,0.794052,-0.21903,-0.00111303,0,
1,1.22689,0.786478,-0.219333,-0.00112417,0,
1,1.2092,0.779181,-0.219596,-0.00113216,0,
1,1.1932,0.772114,-0.219824,-0.00113771,0,
1,1.1787,0.765259,-0.220023,-0.00114152,0,
1,1.16554,0.758597,-0.220196,-0.00114462,0,
1,1.15357,0.752093,-0.220346,-0.00114916,0,
1,1.14266,0.745699,-0.220476,-0.00115875,0,
1,1.13268,0.739341,-0.220589,-0.00117812,0,
1,1.12354,0.732918,-0.220689,-0.00121376,0,
1,1.11514,0.726297,-0.220777,-0.00127352,0,
1,1.10739,0.719315,-0.220859,-0.00136602,0,
1,1.10022,0.711788,-0.220939,-0.0014997,0,
1,1.09357,0.703538,-0.221019,-0.00168133,0,
1,1.08738,0.694428,-0.221104,-0.00191432,0,
1,1.0816,0.684404,-0.221194,-0.00219711,0,
1,1.07618,0.673509,-0.221292,-0.0025226,0,
1,1.07107,0.661882,-0.221395,-0.00287919,0,
1,1.06626,0.649715,-0.221504,-0.00325312,0,
1,1.06169,0.637213,-0.221617,-0.00363112,0,
1,1.05735,0.624561,-0.221734,-0.00400224,0,
1,1.05321,0.611913,-0.221852,-0.00435852,0,
1,1.04925,0.59938,-0.221971,-0.00469482,0,
1,1.04544,0.587042,-0.22209,-0.00500828,0,
1,1.04177,0.574947,-0.22221,-0.00529768,0,
1,1.03822,0.563126,-0.222329,-0.0055629,0,
1,1.03478,0.551592,-0.222447,-0.00580454,0,
1,1.03144,0.540349,-0.222564,-0.00602356,0,
1,1.02818,0.529391,-0.22268,-0.00622117,0,
1,1.025,0.518711,-0.222795,-0.00639863,0,
1,1.02188,0.508297,-0.222909,-0.0065572,0,
1,1.01882,0.498137,-0.223021,-0.00669813,0,
1,1.01581,0.488218,-0.223133,-0.00682268,0,
1,1.01284,0.478525,-0.223243,-0.00693143,0,
1,1.00988,0.468943,-0.223353,-0.00702631,0,
1,1.00688,0.459358,-0.223465,-0.00711001,0,
1,1.00384,0.449762,-0.223579,-0.00718174,0,
1,1.00076,0.440138,-0.223693,-0.0072413,0,
1,0.997615,0.430471,-0.223809,-0.00728869,0,
1,0.99441,0.420736,-0.223926,-0.00732368,0,
1,0.991131,0.41091,-0.224044,-0.00734652,0,
1,0.987768,0.400967,-0.224164,-0.00735702,0,
1,0.984308,0.390878,-0.224285,-0.00735484,0,
1,0.980739,0.380613,-0.224408,-0.00733955,0,
1,0.977045,0.370138,-0.224533,-0.00731055,0,
1,0.973211,0.359418,-0.22466,-0.00726709,0,
1,0.969219,0.348412,-0.22479,-0.00720824,0,
1,0.965047,0.337079,-0.224922,-0.0071329,0,
1,0.960675,0.32537,-0.225057,-0.00703972,0,
1,0.956077,0.313233,-0.225194,-0.00692652,0,
1,0.951224,0.300612,-0.225335,-0.00679152,0,
1,0.946088,0.28745,-0.225478,-0.00663265,0,
1,0.940633,0.273694,-0.225625,-0.00644752,0,
1,0.934823,0.259301,-0.225777,-0.00623547,0,
1,0.928616,0.244235,-0.225932,-0.00599283,0,
1,0.921967,0.228472,-0.226092,-0.00571721,0,
1,0.914826,0.211995,-0.226254,-0.00540649,0,
1,0.907141,0.194806,-0.22642,-0.00505901,0,
1,0.898852,0.176929,-0.226587,-0.00467397,0,
1,0.889898,0.158423,-0.226756,-0.00425182,0,
1,0.880212,0.139398,-0.226926,-0.00379497,0,
1,0.869723,0.120034,-0.227096,-0.00330873,0,
1,0.858358,0.100615,-0.227267,-0.00280284,0,
1,0.846039,0.0815709,-0.227441,-0.00229355,0,
1,0.83269,0.0635088,-0.227618,-0.00180555,0,
1,0.818232,0.0471906,-0.227801,-0.00137343,0,
1,0.802744,0.0334398,-0.227981,-0.00102681,0,
1,0.78635,0.022613,-0.228165,-0.000771258,0,
1,0.768969,0.0143518,-0.228341,-0.000596033,0,
1,0.75053,0.00799416,-0.228509,-0.000484206,0,
1,0.730977,0.00287343,-0.228658,-0.000418662,0,
1,0.710271,-0.0015276,-0.228788,-0.000384398,0,
1,0.688397,-0.00555598,-0.228895,-0.000369561,0,
1,0.66536,-0.00942114,-0.228984,-0.000367632,0,
1,0.641194,-0.0132547,-0.229054,-0.000369963,0,
1,0.615961,-0.017141,-0.229105,-0.000372771,0,
1,0.589754,-0.0211193,-0.229137,-0.000373047,0,
1,0.562692,-0.0251918,-0.229151,-0.000369051,0,
1,0.534925,-0.0293327,-0.229144,-0.000360044,0,
1,0.506624,-0.0334963,-0.229115,-0.000345929,0,
1,0.477982,-0.0376247,-0.229063,-0.000327029,0,
1,0.449206,-0.0416542,-0.228987,-0.000303906,0,
1,0.420509,-0.04552,-0.228889,-0.000277253,0,
1,0.392107,-0.0491589,-0.22877,-0.000247818,0,
1,0.364206,-0.0525119,-0.228634,-0.000216357,0,
1,0.337003,-0.0555243,-0.228484,-0.000183599,0,
1,0.310673,-0.058147,-0.228325,-0.000150205,0,
1,0.28537,-0.0603354,-0.228162,-0.000116749,0,
1,0.26122,-0.0620496,-0.228001,-8.37169e-05,0,
1,0.238324,-0.0632534,-0.227846,-5.15174e-05,0,
1,0.21675,-0.0639142,-0.227702,-2.04994e-05,0,
1,0.196544,-0.0640034,-0.227574,9.00531e-06,0,
1,0.177724,-0.0634979,-0.227463,3.66329e-05,0,
1,0.160284,-0.0623831,-0.227372,6.19519e-05,0,
1,0.144202,-0.0606571,-0.227301,8.4459e-05,0,
1,0.129436,-0.0583348,-0.227251,0.000103618,0,
1,0.115935,-0.0554519,-0.227219,0.000118933,0,
1,0.103636,-0.0520661,-0.227203,0.000130038,0,
1,0.0924701,-0.0482562,-0.227201,0.000136761,0,
1,0.0823633,-0.0441167,-0.22721,0.000139144,0,
1,0.0732406,-0.0397512,-0.227226,0.000137452,0,
1,0.0650269,-0.0352643,-0.227248,0.000132143,0,
1,0.057648,-0.0307539,-0.227271,0.000123799,0,
1,0.0510323,-0.0263051,-0.227295,0.000113052,0,
1,0.0451115,-0.0219858,-0.227319,0.000100531,0,
1,0.0398209,-0.0178456,-0.22734,8.68181e-05,0,
1,0.0351001,-0.013917,-0.227359,7.24397e-05,0,
1,0.0308929,-0.0102206,-0.227375,5.78818e-05,0,
1,0.0271475,-0.00677441,-0.227388,4.36594e-05,0,
1,0.0238164,-0.00360592,-0.227398,3.04304e-05,0,
1,0.0208562,-0.000766914,-0.227405,1.9075e-05,0,
1,0.0182274,0.00166269,-0.22741,1.04476e-05,0,
1,0.0158944,0.0035955,-0.227413,4.8762e-06,0,
1,0.0138249,0.00498028,-0.227415,1.89641e-06,0,
1,0.0119898,0.00583363,-0.227416,5.84857e-07,0,
1,0.0103632,0.00623217,-0.227417,1.12919e-07,0,
1,0.00892169,0.00627821,-0.227418,-1.72539e-08,0,
1,0.00764438,0.00607061,-0.227418,-3.45809e-08,0,
1,0.00651264,0.00569099,-0.227418,-2.47545e-08,0,
1,0.00550983,0.00520198,-0.227419,-1.36631e-08,0,
1,0.00462115,0.00464965,-0.227419,-6.49469e-09,0,
1,0.00383341,0.00406725,-0.227419,-2.73711e-09,0,
1,0.0031349,0.0034782,-0.227419,-1.02334e-09,0,
1,0.00251518,0.0028987,-0.227419,-3.33483e-10,0,
1,0.00196502,0.00233951,-0.227419,-9.12269e-11,0,
1,0.00147619,0.00180746,-0.227419,-1.95588e-11,0,
1,0.00104139,0.00130643,-0.227419,-2.89113e-12,0,
1,0.000654158,0.000838214,-0.22742,-2.26854e-13,0,
1,0.000308731,0.000403074,-0.227419,-5.18839e-15,0,

4,0,0,-0.158773,0,0,
4,9,0,-0.0990462,0,0,
4,8.99969,0.0142587,-0.0990458,2.23733e-10,0,
4,8.99934,0.030379,-0.0990461,1.03802e-08,0,
4,8.99894,0.0486227,-0.0990458,1.41741e-07,0,
4,8.9985,0.0692662,-0.099046,1.02881e-06,0,
4,8.99799,0.0925911,-0.0990457,5.10648e-06,0,
4,8.99742,0.1188,-0.0990459,1.93351e-05,0,
4,8.99677,0.147808,-0.0990457,5.80245e-05,0,
4,8.99605,0.178938,-0.0990457,0.000138644,0,
4,8.99522,0.210834,-0.0990455,0.000265065,0,
4,8.99429,0.241956,-0.0990454,0.0004171,0,
4,8.99324,0.271238,-0.0990451,0.00056682,0,
4,8.99205,0.298299,-0.0990449,0.000696338,0,
4,8.9907,0.323217,-0.0990444,0.000800419,0,
4,8.98919,0.346164,-0.0990439,0.000888126,0,
4,8.98747,0.367327,-0.0990432,0.00096109,0,
4,8.98553,0.386975,-0.0990424,0.0010185,0,
4,8.98334,0.405388,-0.0990414,0.00106479,0,
4,8.98087,0.422784,-0.0990403,0.00110387,0,
4,8.97807,0.439332,-0.0990389,0.00113704,0,
4,8.97491,0.455172,-0.0990373,0.0011656,0,
4,8.97134,0.470424,-0.0990353,0.00119052,0,
4,8.96731,0.485188,-0.0990331,0.00121253,0,
4,8.96276,0.499549,-0.0990305,0.00123216,0,
4,8.95762,0.513579,-0.0990275,0.00124976,0,
4,8.95182,0.52734,-0.0990241,0.0012656,0,
4,8.94526,0.540886,-0.0990203,0.00127982,0,
4,8.93787,0.554262,-0.0990159,0.00129249,0,
4,8.92952,0.567508,-0.099011,0.00130363,0,
4,8.92011,0.580659,-0.0990055,0.00131319,0,
4,8.90949,0.593743,-0.0989995,0.00132107,0,
4,8.89751,0.606786,-0.098993,0.00132715,0,
4,8.88402,0.619808,-0.0989859,0.00133128,0,
4,8.86881,0.632827,-0.0989784,0.00133329,0,
4,8.85169,0.645858,-0.0989707,0.00133299,0,
4,8.83242,0.658915,-0.0989628,0.0013302,0,
4,8.81074,0.672008,-0.098955,0.00132473,0,
4,8.78637,0.685151,-0.0989475,0.0013164,0,
4,8.75901,0.698354,-0.0989406,0.00130503,0,
4,8.7283,0.711634,-0.0989351,0.00129042,0,
4,8.69387,0.725008,-0.0989313,0.00127236,0,
4,8.65533,0.738501,-0.0989303,0.00125061,0,
4,8.61222,0.752144,-0.098933,0.00122486,0,
4,8.56407,0.765978,-0.098941,0.00119471,0,
4,8.5104,0.780057,-0.0989552,0.0011599,0,
4,8.45065,0.794456,-0.0989793,0.0011222,0,
4,8.38429,0.809327,-0.0990159,0.001075,0,
4,8.31073,0.824906,-0.0990669,0.00101769,0,
4,8.22941,0.841458,-0.0991369,0.000947411,0,
4,8.13974,0.859249,-0.0992289,0.000859775,0,
4,8.04115,0.878452,-0.099345,0.000751152,0,
4,7.93313,0.898957,-0.0994908,0.000621811,0,
4,7.81519,0.92006,-0.0996588,0.000480859,0,
4,7.68693,0.940297,-0.099873,0.000345736,0,
4,7.54803,0.957773,-0.100116,0.00020384,0,
4,7.39831,0.970593,-0.100405,8.96894e-05,0,
4,7.23771,0.977873,-0.100758,2.77127e-05,0,
4,7.06634,0.980555,-0.101163,4.56666e-06,0,
4,6.88453,0.980699,-0.101622,-4.32177e-09,0,
4,6.69275,0.980151,-0.102137,-9.42344e-08,0,
4,6.49173,0.979843,-0.102717,2.14274e-08,0,
4,6.28238,0.979929,-0.103369,2.48243e-08,0,
4,6.06579,0.980247,-0.104103,1.42729e-08,0,
4,5.84328,0.980638,-0.104923,9.62596e-09,0,
4,5.61626,0.98104,-0.105837,8.40251e-09,0,
4,5.3863,0.981454,-0.106847,8.47858e-09,0,
4,5.15502,0.981897,-0.107958,9.08069e-09,0,
4,4.92406,0.982381,-0.109171,9.95339e-09,0,
4,4.69507,0.982918,-0.110487,1.10021e-08,0,
4,4.46961,0.983512,-0.111904,1.20831e-08,0,
4,4.24915,0.984145,-0.113419,1.28959e-08,0,
4,4.03501,0.984763,-0.115027,1.31481e-08,0,
4,3.82836,0.985297,-0.11672,1.30928e-08,0,
4,3.63018,0.98575,-0.118486,1.41287e-08,0,
4,3.44125,0.986304,-0.120315,1.91954e-08,0,
4,3.26217,0.987316,-0.122194,6.56128e-08,0,
4,3.09333,0.98908,-0.124108,5.77981e-07,0,
4,2.93497,0.99141,-0.126042,2.69575e-06,0,
4,2.78715,0.993451,-0.127978,5.21e-06,0,
4,2.64979,0.994021,-0.129898,5.65987e-07,0,
4,2.52268,0.992195,-0.131781,-2.09966e-05,0,
4,2.40551,0.98765,-0.133603,-6.45903e-05,0,
4,2.29789,0.980635,-0.135343,-0.000128751,0,
4,2.19939,0.971745,-0.136987,-0.000207329,0,
4,2.10949,0.96167,-0.138524,-0.000292435,0,
4,2.02768,0.951044,-0.139951,-0.000376478,0,
4,1.95343,0.940381,-0.141268,-0.000453325,0,
4,1.88618,0.930057,-0.142475,-0.000520758,0,
4,1.82542,0.920255,-0.143584,-0.0005675,0,
4,1.77062,0.911032,-0.144596,-0.00060618,0,
4,1.72128,0.902439,-0.145511,-0.000640967,0,
4,1.67693,0.894507,-0.146339,-0.000671948,0,
4,1.63713,0.887234,-0.147086,-0.000699497,0,
4,1.60144,0.8806,-0.147759,-0.000723978,0,
4,1.56949,0.874573,-0.148365,-0.000745795,0,
4,1.54091,0.869115,-0.148908,-0.000765429,0,
4,1.51537,0.86417,-0.149396,-0.000783235,0,
4,1.49167,0.859542,-0.149848,-0.000799599,0,
4,1.46926,0.855143,-0.150276,-0.00081508,0,
4,1.44801,0.85095,-0.150687,-0.000829957,0,
4,1.42781,0.846922,-0.151087,-0.000835846,0,
4,1.40855,0.843024,-0.15147,-0.000842335,0,
4,1.39015,0.83924,-0.151837,-0.000847602,0,
4,1.37252,0.835556,-0.152191,-0.000851836,0,
4,1.3556,0.831955,-0.152532,-0.000855578,0,
4,1.3393,0.828422,-0.152861,-0.000859326,0,
4,1.32357,0.824937,-0.153181,-0.000864034,0,
4,1.30836,0.821481,-0.15349,-0.000870424,0,
4,1.29362,0.818033,-0.153792,-0.000879515,0,
4,1.2793,0.814566,-0.154085,-0.000892599,0,
4,1.26537,0.811049,-0.154372,-0.000911281,0,
4,1.25179,0.807444,-0.154652,-0.000937509,0,
4,1.23852,0.803709,-0.154926,-0.000973608,0,
4,1.22554,0.79979,-0.155194,-0.00102228,0,
4,1.21282,0.795627,-0.155457,-0.00108658,0,
4,1.20034,0.791151,-0.155714,-0.00116976,0,
4,1.18806,0.786288,-0.155967,-0.00127511,0,
4,1.17599,0.780963,-0.156214,-0.00140564,0,
4,1.16408,0.775103,-0.156456,-0.00156367,0,
4,1.15233,0.768652,-0.156693,-0.00175047,0,
4,1.14073,0.76157,-0.156925,-0.00196587,0,
4,1.12925,0.753847,-0.157151,-0.00220815,0,
4,1.11788,0.745494,-0.157373,-0.00247409,0,
4,1.10661,0.736548,-0.15759,-0.00275923,0,
4,1.09543,0.727064,-0.157802,-0.00305838,0,
4,1.08432,0.717107,-0.15801,-0.00336601,0,
4,1.07328,0.706748,-0.158214,-0.00367675,0,
4,1.0623,0.696055,-0.158413,-0.00398566,0,
4,1.05136,0.685096,-0.158609,-0.00428841,0,
4,1.04044,0.67391,-0.158801,-0.00458148,0,
4,1.0295,0.662531,-0.158991,-0.00486218,0,
4,1.01855,0.651002,-0.159177,-0.00512793,0,
4,1.00757,0.639364,-0.15936,-0.00537638,0,
4,0.996544,0.627649,-0.15954,-0.00560598,0,
4,0.98547,0.615887,-0.159717,-0.00581477,0,
4,0.974334,0.604103,-0.159891,-0.00600148,0,
4,0.963124,0.59232,-0.160061,-0.00616484,0,
4,0.951826,0.580556,-0.160233,-0.00630664,0,
4,0.940428,0.568819,-0.16039,-0.00645302,0,
4,0.928915,0.556994,-0.160509,-0.00653318,0,
4,0.917272,0.544912,-0.160609,-0.00661962,0,
4,0.905481,0.532484,-0.160704,-0.00671343,0,
4,0.893524,0.519655,-0.160798,-0.00681486,0,
4,0.881383,0.506382,-0.160893,-0.00692403,0,
4,0.869035,0.492628,-0.160991,-0.0070408,0,
4,0.856459,0.47836,-0.161093,-0.00716485,0,
4,0.843629,0.463547,-0.161199,-0.0072957,0,
4,0.830518,0.448165,-0.161308,-0.0074327,0,
4,0.817097,0.43219,-0.161421,-0.00757507,0,
4,0.803334,0.415607,-0.161536,-0.0077219,0,
4,0.789195,0.3984,-0.161652,-0.00787212,0,
4,0.774643,0.38056,-0.161769,-0.00802452,0,
4,0.759639,0.36208,-0.161886,-0.0081776,0,
4,0.744138,0.342963,-0.162004,-0.00832954,0,
4,0.728096,0.32322,-0.162123,-0.00847803,0,
4,0.711463,0.302879,-0.162243,-0.00862027,0,
4,0.694189,0.281984,-0.162367,-0.00875283,0,
4,0.676218,0.260592,-0.162493,-0.00887096,0,
4,0.657495,0.238765,-0.162622,-0.00896958,0,
4,0.637962,0.216563,-0.162753,-0.009044,0,
4,0.617561,0.194027,-0.162881,-0.00909046,0,
4,0.596848,0.171801,-0.162997,-0.00910496,0,
4,0.576557,0.150632,-0.163099,-0.00908659,0,
4,0.556564,0.130385,-0.163184,-0.00903686,0,
4,0.536763,0.110955,-0.16326,-0.00895657,0,
4,0.517057,0.0923015,-0.163339,-0.00884603,0,
4,0.497368,0.0744688,-0.163446,-0.00870614,0,
4,0.477632,0.057587,-0.163612,-0.00854008,0,
4,0.457804,0.0418209,-0.163845,-0.00835444,0,
4,0.437857,0.0272682,-0.164149,-0.00816192,0,
4,0.417786,0.0138194,-0.16431,-0.00796878,0,
4,0.397605,0.001041,-0.1642,-0.00754354,0,
4,0.377348,-0.0113815,-0.164022,-0.00720329,0,
4,0.357066,-0.0234507,-0.163871,-0.00685753,0,
4,0.336828,-0.0351269,-0.163695,-0.00650593,0,
4,0.316717,-0.0463558,-0.163511,-0.00614909,0,
4,0.296825,-0.0570837,-0.163315,-0.00578705,0,
4,0.27725,-0.0672664,-0.163109,-0.00542173,0,
4,0.258095,-0.0768715,-0.162895,-0.00505567,0,
4,0.239458,-0.085878,-0.162672,-0.00469162,0,
4,0.221432,-0.0942761,-0.162444,-0.00433238,0,
4,0.2041,-0.102066,-0.16221,-0.00398062,0,
4,0.187537,-0.109257,-0.161974,-0.00363878,0,
4,0.171798,-0.115866,-0.161737,-0.003309,0,
4,0.156928,-0.121913,-0.161501,-0.00299309,0,
4,0.142956,-0.127426,-0.161269,-0.00269247,0,
4,0.129894,-0.132431,-0.161042,-0.00240815,0,
4,0.117744,-0.13696,-0.160823,-0.00214082,0,
4,0.106492,-0.141043,-0.160613,-0.0018908,0,
4,0.0961173,-0.144707,-0.160414,-0.00165812,0,
4,0.0865883,-0.147982,-0.160227,-0.00144254,0,
4,0.0778675,-0.150894,-0.160053,-0.0012436,0,
4,0.0699123,-0.153466,-0.159893,-0.00106071,0,
4,0.062677,-0.15572,-0.159747,-0.000893115,0,
4,0.056114,-0.157676,-0.159614,-0.00073999,0,
4,0.0501747,-0.159349,-0.159494,-0.000600455,0,
4,0.0448114,-0.160754,-0.159387,-0.000473609,0,
4,0.039977,-0.161899,-0.159293,-0.000358555,0,
4,0.0356266,-0.162793,-0.159209,-0.000254416,0,
4,0.0317171,-0.163438,-0.159136,-0.000160365,0,
4,0.0282081,-0.163832,-0.159072,-7.56312e-05,0,
4,0.0250617,-0.163969,-0.159017,4.71855e-07,0,
4,0.0222427,-0.163835,-0.15897,6.85298e-05,0,
4,0.0197189,-0.163406,-0.15893,0.000128993,0,
4,0.0174603,-0.162648,-0.158896,0.000182128,0,
4,0.0154398,-0.161508,-0.158868,0.000227942,0,
4,0.0136326,-0.159912,-0.158844,0.000266051,0,
4,0.0120162,-0.157751,-0.158826,0.000295481,0,
4,0.0105703,-0.154868,-0.158811,0.000314381,0,
4,0.00927657,-0.151045,-0.158799,0.000319743,0,
4,0.00811839,-0.145994,-0.158791,0.000307542,0,
4,0.0070809,-0.139376,-0.158785,0.000274263,0,
4,0.0061507,-0.130903,-0.158781,0.000220689,0,
4,0.00531578,-0.120516,-0.158779,0.000155829,0,
4,0.00456537,-0.108564,-0.158777,9.48324e-05,0,
4,0.00388979,-0.0957325,-0.158777,4.96489e-05,0,
4,0.00328037,-0.0827508,-0.158776,2.25702e-05,0,
4,0.00272934,-0.0701349,-0.158776,8.97477e-06,0,
4,0.0022297,-0.0581474,-0.158775,3.10054e-06,0,
4,0.00177519,-0.0468748,-0.158776,9.03264e-07,0,
4,0.00136016,-0.0363108,-0.158774,2.07973e-07,0,
4,0.000979511,-0.0264077,-0.158776,3.33058e-08,0,
4,0.00062865,-0.0171016,-0.158774,2.84175e-09,0,
4,0.000303409,-0.00832332,-0.158776,6.92477e-11,0,

6,0,0,-0.0195593,0,0,
6,9,0,-0.0749986,0,0,
6,8.99969,0.0135126,-0.0749983,1.86399e-10,0,
6,8.99934,0.0287508,-0.0749986,8.6028e-09,0,
6,8.99895,0.0459521,-0.0749983,1.16636e-07,0,
6,8.9985,0.0653676,-0.0749985,8.40584e-07,0,
6,8.99801,0.0872559,-0.0749983,4.1498e-06,0,
6,8.99744,0.111817,-0.0749984,1.56991e-05,0,
6,8.99681,0.139023,-0.0749982,4.74565e-05,0,
6,8.99609,0.168349,-0.0749983,0.00011539,0,
6,8.99529,0.198645,-0.074998,0.000226196,0,
6,8.99438,0.22848,-0.074998,0.000365373,0,
6,8.99336,0.256754,-0.0749977,0.000507405,0,
6,8.9922,0.282971,-0.0749976,0.000634932,0,
6,8.9909,0.307129,-0.0749972,0.000738221,0,
6,8.98944,0.329389,-0.0749968,0.000825056,0,
6,8.98779,0.349922,-0.0749962,0.000898092,0,
6,8.98593,0.368976,-0.0749956,0.000955922,0,
6,8.98383,0.38681,-0.0749947,0.00100338,0,
6,8.98147,0.403631,-0.0749937,0.00104358,0,
6,8.97881,0.419604,-0.0749925,0.00107801,0,
6,8.97581,0.434869,-0.0749911,0.00110798,0,
6,8.97244,0.449544,-0.0749894,0.00113452,0,
6,8.96863,0.46373,-0.0749874,0.00115836,0,
6,8.96435,0.477513,-0.0749851,0.00118007,0,
6,8.95953,0.490967,-0.0749823,0.00120005,0,
6,8.95409,0.504157,-0.0749791,0.00121857,0,
6,8.94798,0.517138,-0.0749753,0.00123581,0,
6,8.94109,0.52996,-0.074971,0.00125186,0,
6,8.93334,0.542666,-0.0749661,0.00126673,0,
6,8.92463,0.555293,-0.0749604,0.00128038,0,
6,8.91482,0.567876,-0.0749539,0.00129269,0,
6,8.90379,0.580441,-0.0749466,0.00130353,0,
6,8.89139,0.593015,-0.0749384,0.00131268,0,
6,8.87746,0.605617,-0.0749291,0.00131992,0,
6,8.86181,0.618265,-0.0749189,0.00132499,0,
6,8.84423,0.630974,-0.0749077,0.00132762,0,
6,8.82452,0.643753,-0.0748955,0.00132753,0,
6,8.80241,0.656613,-0.0748821,0.00132445,0,
6,8.77763,0.66956,-0.0748676,0.00131812,0,
6,8.74989,0.682603,-0.074852,0.00130827,0,
6,8.71885,0.69575,-0.0748353,0.00129468,0,
6,8.68417,0.709011,-0.0748177,0.0012771,0,
6,8.64545,0.722403,-0.0747994,0.0012553,0,
6,8.60229,0.735947,-0.0747803,0.00122896,0,
6,8.55423,0.749671,-0.074761,0.00119778,0,
6,8.50082,0.763617,-0.0747414,0.00116185,0,
6,8.44155,0.777851,-0.0747229,0.00112124,0,
6,8.37592,0.792496,-0.0747062,0.00107364,0,
6,8.30339,0.807754,-0.0746918,0.0010177,0,
6,8.22344,0.823888,-0.0746794,0.000950516,0,
6,8.13555,0.841197,-0.0746699,0.000868328,0,
6,8.0392,0.859934,-0.074659,0.000767698,0,
6,7.93391,0.880091,-0.0746467,0.000648371,0,
6,7.81927,0.901082,-0.0746216,0.00051686,0,
6,7.6949,0.92153,-0.0745899,0.000388243,0,
6,7.56054,0.939598,-0.0745409,0.000272259,0,
6,7.41603,0.953674,-0.07448,0.000140529,0,
6,7.26132,0.962773,-0.0744139,5.58551e-05,0,
6,7.09653,0.967141,-0.0743295,1.42881e-05,0,
6,6.92195,0.968233,-0.0742283,7.92351e-07,0,
6,6.73802,0.967807,-0.0741027,-1.00299e-06,0,
6,6.5454,0.967102,-0.0739499,-4.68438e-07,0,
6,6.34489,0.966622,-0.0737664,-1.2964e-07,0,
6,6.1375,0.966385,-0.0735489,-3.42307e-08,0,
6,5.92439,0.966255,-0.0732935,-1.28336e-08,0,
6,5.70687,0.966123,-0.0729955,-7.37419e-09,0,
6,5.48633,0.965944,-0.07265,-5.80379e-09,0,
6,5.26426,0.965715,-0.0722519,-5.59261e-09,0,
6,5.04218,0.965446,-0.0717959,-5.90781e-09,0,
6,4.82159,0.96515,-0.0712773,-6.40921e-09,0,
6,4.60398,0.964838,-0.0706918,-7.02757e-09,0,
6,4.39071,0.964509,-0.0700361,-7.93218e-09,0,
6,4.18307,0.964132,-0.0693079,-9.46198e-09,0,
6,3.98218,0.963645,-0.0685066,-1.18387e-08,0,
6,3.78902,0.962991,-0.0676333,-1.47233e-08,0,
6,3.60438,0.962193,-0.0666911,-1.88276e-08,0,
6,3.42888,0.961422,-0.065685,-3.88652e-08,0,
6,3.26296,0.960968,-0.0646212,-9.90823e-08,0,
6,3.10691,0.961075,-0.0635062,-1.07398e-07,0,
6,2.96084,0.961721,-0.0623472,1.11543e-07,0,
6,2.82473,0.962526,-0.0611536,-1.8334e-07,0,
6,2.69844,0.962866,-0.0599377,-3.9028e-06,0,
6,2.58172,0.962128,-0.0587142,-1.54692e-05,0,
6,2.47424,0.959916,-0.0574985,-3.85799e-05,0,
6,2.37559,0.956121,-0.0563053,-7.46647e-05,0,
6,2.28535,0.950888,-0.0551477,-0.000122761,0,
6,2.20301,0.944514,-0.0540364,-0.000180115,0,
6,2.1281,0.937354,-0.0529798,-0.000243033,0,
6,2.06009,0.929761,-0.0519838,-0.000307561,0,
6,1.99849,0.922046,-0.0510507,-0.000369841,0,
6,1.9428,0.91447,-0.0501844,-0.000426699,0,
6,1.89255,0.907226,-0.0493794,-0.000477487,0,
6,1.84728,0.900401,-0.0486427,-0.000519021,0,
6,1.80655,0.893991,-0.0479731,-0.000549287,0,
6,1.76996,0.888001,-0.047356,-0.000577039,0,
6,1.73712,0.882449,-0.0467956,-0.000602452,0,
6,1.70768,0.877308,-0.0462832,-0.000625976,0,
6,1.67998,0.872351,-0.0457975,-0.000648789,0,
6,1.65329,0.86748,-0.0453228,-0.000671082,0,
6,1.62754,0.862694,-0.0448596,-0.000692806,0,
6,1.60265,0.857991,-0.0444066,-0.000714045,0,
6,1.57854,0.853371,-0.0439634,-0.000734744,0,
6,1.55515,0.848831,-0.0435291,-0.000754941,0,
6,1.53242,0.84437,-0.0431032,-0.00077466,0,
6,1.5103,0.83998,-0.0426851,-0.000793894,0,
6,1.48874,0.835651,-0.0422746,-0.000812628,0,
6,1.46769,0.831366,-0.041871,-0.00083095,0,
6,1.44712,0.827112,-0.0414733,-0.000849156,0,
6,1.42698,0.822891,-0.0410796,-0.000867824,0,
6,1.40725,0.818737,-0.0406873,-0.000887562,0,
6,1.38788,0.814701,-0.0402973,-0.000908661,0,
6,1.36886,0.810815,-0.0399075,-0.000930053,0,
6,1.35015,0.807031,-0.0395324,-0.000938487,0,
6,1.33173,0.80327,-0.0391675,-0.000945766,0,
6,1.31357,0.799497,-0.0388007,-0.000956839,0,
6,1.29566,0.795694,-0.0384389,-0.000969867,0,
6,1.27797,0.79184,-0.0380787,-0.000985894,0,
6,1.26048,0.787911,-0.0377214,-0.00100617,0,
6,1.24318,0.783874,-0.0373661,-0.00103227,0,
6,1.22605,0.779692,-0.037013,-0.00106607,0,
6,1.20907,0.77532,-0.0366619,-0.00110969,0,
6,1.19223,0.770706,-0.0363126,-0.00116551,0,
6,1.17551,0.765791,-0.0359652,-0.001236,0,
6,1.1589,0.760513,-0.0356197,-0.00132358,0,
6,1.14238,0.754809,-0.0352759,-0.00143035,0,
6,1.12595,0.74862,-0.0349342,-0.00155783,0,
6,1.10959,0.741898,-0.0345945,-0.00170665,0,
6,1.09329,0.734612,-0.0342575,-0.00187636,0,
6,1.07704,0.726749,-0.0339232,-0.00206533,0,
6,1.06081,0.718312,-0.0335917,-0.00227075,0,
6,1.04459,0.709325,-0.0332633,-0.00248895,0,
6,1.02836,0.69983,-0.032938,-0.00271557,0,
6,1.01211,0.68988,-0.0326167,-0.00294584,0,
6,0.99583,0.679535,-0.0322982,-0.00317507,0,
6,0.97951,0.668857,-0.0319856,-0.00340257,0,
6,0.963136,0.657885,-0.031672,-0.00362919,0,
6,0.946694,0.646565,-0.031353,-0.00383796,0,
6,0.930172,0.634802,-0.0310363,-0.004052,0,
6,0.913555,0.622527,-0.0307227,-0.00427385,0,
6,0.896829,0.609689,-0.0304139,-0.00450529,0,
6,0.879979,0.596246,-0.0301101,-0.00474763,0,
6,0.862989,0.582173,-0.0298119,-0.00500182,0,
6,0.845842,0.567461,-0.02952,-0.0052686,0,
6,0.828521,0.552124,-0.0292352,-0.0055486,0,
6,0.811008,0.536184,-0.0289594,-0.0058389,0,
6,0.793282,0.519657,-0.0286948,-0.00613561,0,
6,0.775322,0.502556,-0.0284424,-0.00643656,0,
6,0.757107,0.484897,-0.0282033,-0.00673913,0,
6,0.738612,0.466708,-0.0279785,-0.00704015,0,
6,0.719813,0.448028,-0.0277694,-0.00733589,0,
6,0.700681,0.42891,-0.0275766,-0.00762209,0,
6,0.681188,0.409414,-0.0273997,-0.00789411,0,
6,0.661304,0.389596,-0.027236,-0.00814698,0,
6,0.640996,0.369503,-0.0270815,-0.00837533,0,
6,0.620228,0.349172,-0.0269332,-0.0085733,0,
6,0.598964,0.328662,-0.0267965,-0.00873448,0,
6,0.577166,0.308106,-0.0266915,-0.00885262,0,
6,0.554791,0.287779,-0.0266599,-0.00892388,0,
6,0.531799,0.2681,-0.0267425,-0.008948,0,
6,0.508144,0.249497,-0.0269647,-0.00893155,0,
6,0.48378,0.232105,-0.0272017,-0.00887031,0,
6,0.459585,0.216061,-0.0271274,-0.00852608,0,
6,0.436695,0.201553,-0.026898,-0.00822272,0,
6,0.414961,0.188294,-0.0267372,-0.00793052,0,
6,0.394252,0.176106,-0.026553,-0.00762864,0,
6,0.374445,0.16484,-0.0263743,-0.00732454,0,
6,0.355433,0.15438,-0.0261954,-0.00701904,0,
6,0.337122,0.14463,-0.0260151,-0.0067121,0,
6,0.319433,0.135507,-0.0258314,-0.00640456,0,
6,0.3023,0.126945,-0.0256429,-0.0060971,0,
6,0.28567,0.118885,-0.0254484,-0.00579038,0,
6,0.269507,0.111283,-0.0252467,-0.00548503,0,
6,0.253785,0.1041,-0.0250371,-0.00518178,0,
6,0.238493,0.0973078,-0.024819,-0.00488145,0,
6,0.223631,0.0908819,-0.0245923,-0.00458496,0,
6,0.209207,0.0848037,-0.0243569,-0.00429333,0,
6,0.195237,0.0790579,-0.0241136,-0.00400767,0,
6,0.181744,0.0736317,-0.0238633,-0.00372914,0,
6,0.168754,0.068514,-0.0236073,-0.00345886,0,
6,0.156292,0.0636944,-0.0233474,-0.00319796,0,
6,0.144384,0.0591627,-0.0230856,-0.00294743,0,
6,0.133052,0.0549086,-0.0228242,-0.00270817,0,
6,0.122315,0.0509214,-0.0225654,-0.0024809,0,
6,0.112183,0.0471897,-0.0223117,-0.00226617,0,
6,0.102665,0.0437019,-0.0220652,-0.00206432,0,
6,0.0937597,0.0404456,-0.021828,-0.00187551,0,
6,0.0854609,0.0374083,-0.0216019,-0.00169972,0,
6,0.077757,0.0345772,-0.0213881,-0.00153676,0,
6,0.0706309,0.0319394,-0.0211879,-0.0013863,0,
6,0.0640611,0.0294823,-0.0210018,-0.00124789,0,
6,0.0580229,0.0271933,-0.0208302,-0.00112098,0,
6,0.0524888,0.0250601,-0.0206732,-0.00100495,0,
6,0.0474296,0.023071,-0.0205303,-0.000899151,0,
6,0.042815,0.0212146,-0.0204013,-0.000802894,0,
6,0.0386145,0.0194797,-0.0202855,-0.000715488,0,
6,0.0347975,0.0178561,-0.0201821,-0.000636243,0,
6,0.0313344,0.0163336,-0.0200902,-0.000564491,0,
6,0.0281964,0.0149027,-0.020009,-0.000499584,0,
6,0.0253561,0.0135541,-0.0199377,-0.000440907,0,
6,0.0227875,0.012279,-0.0198753,-0.000387875,0,
6,0.0204662,0.0110688,-0.0198209,-0.000339941,0,
6,0.0183694,0.00991506,-0.0197739,-0.000296589,0,
6,0.016476,0.00880947,-0.0197333,-0.000257336,0,
6,0.0147664,0.00774371,-0.0196989,-0.000221732,0,
6,0.0132228,0.00670932,-0.0196693,-0.000189349,0,
6,0.0118288,0.00569773,-0.0196451,-0.000159787,0,
6,0.0105693,0.00470033,-0.0196243,-0.000132667,0,
6,0.00943073,0.00370889,-0.0196083,-0.000107654,0,
6,0.00840063,0.00271689,-0.0195945,-8.449e-05,0,
6,0.00746774,0.00172228,-0.0195851,-6.31077e-05,0,
6,0.00662185,0.000732979,-0.0195768,-4.38041e-05,0,
6,0.00585371,-0.000225441,-0.0195726,-2.73802e-05,0,
6,0.00515491,-0.00110501,-0.0195681,-1.48835e-05,0,
6,0.00451788,-0.00184436,-0.0195673,-6.80738e-06,0,
6,0.00393573,-0.00239347,-0.0195647,-2.52339e-06,0,
6,0.00340221,-0.00273427,-0.0195654,-6.91165e-07,0,
6,0.00291168,-0.00287921,-0.0195632,-8.1106e-08,0,
6,0.00245897,-0.00285639,-0.0195646,5.19124e-08,0,
6,0.00203939,-0.00269648,-0.0195622,4.66711e-08,0,
6,0.00164864,-0.0024264,-0.0195642,2.22992e-08,0,
6,0.00128281,-0.00206749,-0.0195613,7.27337e-09,0,
6,0.000938257,-0.00163576,-0.019564,1.53458e-09,0,
6,0.000611645,-0.00114264,-0.0195604,1.64627e-10,0,
6,0.000299862,-0.000595771,-0.019564,4.80455e-12,0,

10,0.000296632,0.00839374,0.0298442,-4.85835e-11,0,
10,0.000596102,0.0168646,0.0298448,-1.80046e-09,0,
10,0.000900397,0.0254686,0.0298441,-1.83046e-08,0,
10,0.00121153,0.0342622,0.0298447,-9.83564e-08,0,
10,0.00153158,0.043302,0.0298441,-3.67863e-07,0,
10,0.00186264,0.0526434,0.0298445,-1.09353e-06,0,
10,0.00220692,0.0623381,0.029844,-2.77492e-06,0,
10,0.00256668,0.0724297,0.0298444,-6.26306e-06,0,
10,0.00294431,0.0829455,0.0298439,-1.28796e-05,0,
10,0.00334229,0.0938852,0.0298442,-2.44633e-05,0,
10,0.00376326,0.105207,0.0298438,-4.32139e-05,0,
10,0.00421,0.116814,0.0298439,-7.12024e-05,0,
10,0.00468544,0.128553,0.0298435,-0.000109578,0,
10,0.00519274,0.140225,0.0298435,-0.000157822,0,
10,0.00573524,0.151616,0.0298429,-0.000213584,0,
10,0.00631651,0.16253,0.0298426,-0.000273308,0,
10,0.00694041,0.17282,0.0298417,-0.000333293,0,
10,0.00761104,0.182395,0.029841,-0.000390549,0,
10,0.00833284,0.191218,0.0298396,-0.000443169,0,
10,0.00911058,0.199297,0.0298382,-0.000490262,0,
10,0.0099494,0.206668,0.0298361,-0.000531705,0,
10,0.0108548,0.213382,0.0298338,-0.000567869,0,
10,0.0118329,0.219504,0.0298306,-0.000599395,0,
10,0.0128901,0.225099,0.029827,-0.000627037,0,
10,0.0140333,0.230228,0.0298225,-0.000651565,0,
10,0.0152702,0.234952,0.0298173,-0.000673705,0,
10,0.0166089,0.239323,0.029811,-0.000694119,0,
10,0.0180584,0.24339,0.0298037,-0.000713389,0,
10,0.0196282,0.247194,0.0297951,-0.00073203,0,
10,0.0213288,0.250773,0.0297853,-0.00075049,0,
10,0.0231714,0.25416,0.029774,-0.000769169,0,
10,0.0251682,0.257382,0.0297611,-0.000788424,0,
10,0.0273326,0.260466,0.0297464,-0.000808583,0,
10,0.0296789,0.263433,0.0297298,-0.000829951,0,
10,0.0322227,0.266304,0.029711,-0.000852823,0,
10,0.0349809,0.269097,0.0296899,-0.000877486,0,
10,0.0379719,0.271828,0.0296662,-0.000904228,0,
10,0.0412155,0.274512,0.0296398,-0.000933339,0,
10,0.0447333,0.277165,0.0296103,-0.000965122,0,
10,0.0485489,0.2798,0.0295776,-0.000999891,0,
10,0.0526875,0.28243,0.0295412,-0.00103797,0,
10,0.0571768,0.285069,0.0295011,-0.00107972,0,
10,0.0620466,0.287729,0.0294569,-0.00112551,0,
10,0.0673295,0.290424,0.0294082,-0.00117574,0,
10,0.0730607,0.293169,0.0293549,-0.00123083,0,
10,0.0792784,0.295977,0.0292967,-0.00129124,0,
10,0.0860241,0.298863,0.0292333,-0.00135745,0,
10,0.0933428,0.301845,0.0291644,-0.00142999,0,
10,0.101283,0.304941,0.0290899,-0.00150942,0,
10,0.109899,0.308169,0.0290095,-0.00159632,0,
10,0.119247,0.311553,0.0289232,-0.00169131,0,
10,0.12939,0.315115,0.0288307,-0.00179504,0,
10,0.140395,0.318885,0.0287322,-0.00190819,0,
10,0.152337,0.322892,0.0286275,-0.00203143,0,
10,0.165296,0.327172,0.0285169,-0.00216547,0,
10,0.179357,0.331765,0.0284006,-0.00231097,0,
10,0.194615,0.336718,0.0282785,-0.00246855,0,
10,0.211171,0.342084,0.0281514,-0.00263877,0,
10,0.229138,0.347924,0.028019,-0.00282203,0,
10,0.248635,0.35431,0.0278823,-0.00301856,0,
10,0.269793,0.361324,0.0277405,-0.0032283,0,
10,0.292753,0.369062,0.0275959,-0.00345076,0,
10,0.317669,0.377633,0.0274443,-0.00368362,0,
10,0.344708,0.387159,0.0272913,-0.00392339,0,
10,0.372405,0.397187,0.027142,-0.00415906,0,
10,0.399623,0.407324,0.0269986,-0.0043793,0,
10,0.426397,0.417572,0.0268619,-0.00458086,0,
10,0.452757,0.427933,0.0267303,-0.00476517,0,
10,0.478735,0.438417,0.0266058,-0.00492986,0,
10,0.504358,0.44904,0.0264885,-0.0050737,0,
10,0.529657,0.459823,0.0263795,-0.00519538,0,
10,0.554656,0.470785,0.026272,-0.00529542,0,
10,0.579382,0.481938,0.0261733,-0.00537314,0,
10,0.603859,0.493289,0.0260611,-0.00544092,0,
10,0.628112,0.504898,0.0259838,-0.00551833,0,
10,0.652163,0.517082,0.0259855,-0.00544714,0,
10,0.676035,0.530177,0.025987,-0.00534694,0,
10,0.699751,0.544158,0.0259477,-0.00521657,0,
10,0.72333,0.55877,0.0258681,-0.00505574,0,
10,0.746795,0.573697,0.0257555,-0.00486705,0,
10,0.770165,0.588671,0.0256215,-0.00465486,0,
10,0.79346,0.60351,0.0254732,-0.00442422,0,
10,0.816699,0.618103,0.0253143,-0.00418008,0,
10,0.839903,0.632361,0.025146,-0.0039274,0,
10,0.863088,0.646185,0.0249657,-0.00367545,0,
10,0.886275,0.659462,0.0247722,-0.00343156,0,
10,0.909481,0.672109,0.0245689,-0.00319625,0,
10,0.932723,0.684105,0.0243576,-0.00297002,0,
10,0.956021,0.69547,0.02414,-0.00275351,0,
10,0.97939,0.706241,0.0239161,-0.00254735,0,
10,1.00285,0.716453,0.0236858,-0.0023521,0,
10,1.02641,0.726133,0.0234485,-0.00216824,0,
10,1.0501,0.735302,0.0232047,-0.00199614,0,
10,1.07392,0.743982,0.0229534,-0.00183601,0,
10,1.0979,0.752205,0.0226979,-0.00168518,0,
10,1.12205,0.759997,0.0224363,-0.00154467,0,
10,1.14639,0.76736,0.0221654,-0.00141833,0,
10,1.17093,0.774298,0.0218868,-0.00130562,0,
10,1.19568,0.780827,0.0216003,-0.00120718,0,
10,1.22066,0.786981,0.0213059,-0.0011229,0,
10,1.24589,0.792804,0.0210051,-0.00105196,0,
10,1.27137,0.798348,0.0206961,-0.000993138,0,
10,1.29713,0.803667,0.0203828,-0.000949492,0,
10,1.32317,0.808865,0.020064,-0.000904808,0,
10,1.34951,0.814077,0.0197388,-0.000860454,0,
10,1.37616,0.819354,0.0194092,-0.000819453,0,
10,1.40313,0.824658,0.0190716,-0.000781823,0,
10,1.43043,0.829918,0.0187263,-0.00074726,0,
10,1.45807,0.835091,0.0183727,-0.000715094,0,
10,1.48607,0.840176,0.0180119,-0.000684586,0,
10,1.51444,0.845196,0.017644,-0.000655209,0,
10,1.54318,0.850165,0.0172691,-0.000626724,0,
10,1.57231,0.855082,0.0168866,-0.000599077,0,
10,1.60184,0.859925,0.0164967,-0.000572272,0,
10,1.63178,0.864669,0.0160989,-0.000546322,0,
10,1.66213,0.869286,0.015694,-0.000521234,0,
10,1.69292,0.873759,0.0152809,-0.000496954,0,
10,1.72416,0.878082,0.0148617,-0.00047324,0,
10,1.75585,0.882287,0.014433,-0.000446895,0,
10,1.78802,0.886426,0.0139955,-0.000418364,0,
10,1.82067,0.890516,0.0135516,-0.000390468,0,
10,1.85383,0.894541,0.0130989,-0.000361527,0,
10,1.88751,0.898479,0.0126381,-0.000331664,0,
10,1.92173,0.902306,0.0121689,-0.000301231,0,
10,1.95652,0.905998,0.0116908,-0.000270644,0,
10,1.9919,0.90953,0.0112047,-0.000240378,0,
10,2.02791,0.912878,0.0107089,-0.000210981,0,
10,2.06456,0.916023,0.0102056,-0.000182688,0,
10,2.10268,0.919004,0.00968011,-0.000155095,0,
10,2.1443,0.921908,0.00910938,-0.000128578,0,
10,2.18977,0.924684,0.00848628,-0.000103281,0,
10,2.23946,0.92725,0.00780909,-7.95151e-05,0,
10,2.29376,0.929522,0.00707232,-5.81047e-05,0,
10,2.35309,0.931419,0.00627375,-3.97361e-05,0,
10,2.4179,0.932871,0.00540941,-2.49192e-05,0,
10,2.48863,0.933833,0.0044776,-1.39201e-05,0,
10,2.56575,0.934304,0.00347618,-6.6497e-06,0,
10,2.64971,0.934339,0.00240484,-2.60926e-06,0,
10,2.74098,0.934057,0.00126347,-9.36068e-07,0,
10,2.83997,0.933636,5.34412e-05,-5.9573e-07,0,
10,2.94709,0.933281,-0.00122346,-6.85921e-07,0,
10,3.06269,0.933175,-0.00256425,-6.94201e-07,0,
10,3.18706,0.933428,-0.00396521,-5.2614e-07,0,
10,3.3204,0.934044,-0.00542111,-3.04342e-07,0,
10,3.46281,0.93493,-0.00692514,-1.41936e-07,0,
10,3.61427,0.935941,-0.00846838,-6.10119e-08,0,
10,3.77463,0.93694,-0.01004,-3.13518e-08,0,
10,3.94358,0.937846,-0.0116276,-2.23322e-08,0,
10,4.12067,0.938645,-0.0132178,-1.92775e-08,0,
10,4.30525,0.93937,-0.0147965,-1.79038e-08,0,
10,4.49655,0.940064,-0.0163502,-1.74004e-08,0,
10,4.6936,0.940755,-0.0178656,-1.77452e-08,0,
10,4.89531,0.941445,-0.0193307,-1.94312e-08,0,
10,5.10047,0.942121,-0.0207347,-2.39123e-08,0,
10,5.30776,0.942762,-0.0220683,-3.44327e-08,0,
10,5.51581,0.943351,-0.0233243,-5.77076e-08,0,
10,5.72323,0.943885,-0.0244972,-1.08176e-07,0,
10,5.92863,0.944389,-0.0255839,-2.21157e-07,0,
10,6.13069,0.944929,-0.0265828,-4.89618e-07,0,
10,6.32816,0.945601,-0.0274945,-1.10823e-06,0,
10,6.51991,0.946435,-0.0283212,-2.15818e-06,0,
10,6.70495,0.947203,-0.0290664,-2.32885e-06,0,
10,6.88244,0.947189,-0.0297337,3.74282e-06,0,
10,7.0517,0.945166,-0.0303271,2.69637e-05,0,
10,7.21224,0.939747,-0.0308472,8.06348e-05,0,
10,7.3637,0.930047,-0.0312995,0.000173943,0,
10,7.5059,0.916112,-0.0316882,0.000297485,0,
10,7.63878,0.89853,-0.0320173,0.000405214,0,
10,7.76243,0.87841,-0.0322966,0.000524298,0,
10,7.87701,0.857517,-0.0325208,0.000645942,0,
10,7.9828,0.837307,-0.0327062,0.000756306,0,
10,8.08014,0.818492,-0.0328549,0.00085038,0,
10,8.16941,0.801153,-0.0329781,0.000928661,0,
10,8.25106,0.785044,-0.0330797,0.000994308,0,
10,8.32554,0.769839,-0.0331661,0.00105055,0,
10,8.39331,0.755257,-0.0332393,0.00109963,0,
10,8.45484,0.741102,-0.0333021,0.00114284,0,
10,8.5106,0.727251,-0.0333557,0.00118077,0,
10,8.56104,0.713646,-0.0334018,0.00121366,0,
10,8.60659,0.70027,-0.0334412,0.00124159,0,
10,8.64767,0.687129,-0.0334754,0.00126468,0,
10,8.68467,0.67423,-0.0335049,0.0012828,0,
10,8.71795,0.661546,-0.0335305,0.0012926,0,
10,8.74786,0.649049,-0.0335528,0.00129891,0,
10,8.77471,0.636736,-0.0335719,0.00130092,0,
10,8.79881,0.624603,-0.0335884,0.0012991,0,
10,8.8204,0.612642,-0.0336025,0.00129397,0,
10,8.83975,0.600842,-0.0336146,0.00128602,0,
10,8.85708,0.58919,-0.0336251,0.00127576,0,
10,8.87259,0.577668,-0.033634,0.00126362,0,
10,8.88646,0.566254,-0.0336416,0.00125001,0,
10,8.89886,0.554924,-0.0336481,0.00123529,0,
10,8.90995,0.543651,-0.0336535,0.00121972,0,
10,8.91986,0.532404,-0.033658,0.00120353,0,
10,8.92872,0.52115,-0.0336618,0.00118688,0,
10,8.93663,0.509854,-0.033665,0.00116987,0,
10,8.94369,0.498476,-0.0336677,0.00115252,0,
10,8.95,0.486975,-0.0336698,0.00113477,0,
10,8.95564,0.475305,-0.0336717,0.00111658,0,
10,8.96067,0.463417,-0.0336731,0.00109777,0,
10,8.96517,0.451256,-0.0336744,0.00107807,0,
10,8.96918,0.43876,-0.0336753,0.00105717,0,
10,8.97276,0.42586,-0.0336763,0.00103464,0,
10,8.97596,0.412477,-0.0336768,0.00100991,0,
10,8.97882,0.398517,-0.0336775,0.000982263,0,
10,8.98137,0.383873,-0.0336778,0.000950755,0,
10,8.98365,0.368418,-0.0336784,0.000914178,0,
10,8.98569,0.352003,-0.0336785,0.000871142,0,
10,8.9875,0.334443,-0.033679,0.000819351,0,
10,8.98913,0.315505,-0.0336789,0.000753927,0,
10,8.99058,0.29496,-0.0336794,0.000676623,0,
10,8.99188,0.272646,-0.0336791,0.000585081,0,
10,8.99304,0.248404,-0.0336796,0.000472443,0,
10,8.99408,0.222192,-0.0336793,0.000346387,0,
10,8.99501,0.194382,-0.0336798,0.000220598,0,
10,8.99583,0.165876,-0.0336793,0.000116894,0,
10,8.99658,0.13794,-0.0336799,5.01845e-05,0,
10,8.99724,0.111687,-0.0336793,1.7316e-05,0,
10,8.99784,0.0877029,-0.03368,4.75637e-06,0,
10,8.99837,0.0660976,-0.0336793,9.97431e-07,0,
10,8.99885,0.046736,-0.0336801,1.42881e-07,0,
10,8.99927,0.0294072,-0.0336792,1.08474e-08,0,
10,8.99966,0.0138964,-0.0336802,2.39999e-10,0,
10,0,0,0.029845,0,0,
10,9,0,-0.0336791,0,0,

0.004,0,0,-0.225676,0,-8.12152e-08,
0.00868226,0,0,-0.225672,0,-1.83824e-07,
0.014062,0,0,-0.225675,0,-3.10553e-07,
0.0201548,0,0,-0.225674,0,-7.29023e-07,
0.0269766,0,0,-0.225674,0,-1.23232e-06,
0.0345437,0,0,-0.225674,0,-1.866e-06,
0.0428729,0,0,-0.225673,0,-2.45538e-06,
0.051981,0,0,-0.225671,0,-2.91507e-06,
0.0618853,0,0,-0.225669,0,-3.05169e-06,
0.0726036,0,0,-0.225665,0,-2.6961e-06,
0.0841536,0,0,-0.225661,0,-1.64831e-06,
0.0965535,0,0,-0.225658,0,2.47753e-07,
0.109822,0,0,-0.225654,0,3.08484e-06,
0.123977,0,0,-0.225653,0,6.85126e-06,
0.139037,0,0,-0.225654,0,1.141e-05,
0.155022,0,0,-0.22566,0,1.65155e-05,
0.171949,0,0,-0.22567,0,2.18351e-05,
0.189839,0,0,-0.225686,0,2.70105e-05,
0.208709,0,0,-0.225706,0,3.16956e-05,
0.228579,0,0,-0.22573,0,3.56108e-05,
0.249467,0,0,-0.225758,0,3.85599e-05,
0.271391,0,0,-0.225787,0,4.04514e-05,
0.29437,0,0,-0.225817,0,4.12911e-05,
0.31842,0,0,-0.225845,0,4.11781e-05,
0.343559,0,0,-0.225872,0,4.02841e-05,
0.369804,0,0,-0.225896,0,3.88364e-05,
0.39717,0,0,-0.225918,0,3.70936e-05,
0.425672,0,0,-0.225937,0,3.53311e-05,
0.455324,0,0,-0.225954,0,3.38209e-05,
0.48614,0,0,-0.22597,0,3.2832e-05,
0.518132,0,0,-0.225986,0,3.26109e-05,
0.551309,0,0,-0.226005,0,3.3331e-05,
0.585683,0,0,-0.226028,0,3.50744e-05,
0.621259,0,0,-0.22606,0,3.7831e-05,
0.658046,0,0,-0.226102,0,4.15095e-05,
0.696047,0,0,-0.226158,0,4.59617e-05,
0.735265,0,0,-0.226233,0,5.10103e-05,
0.7757,0,0,-0.226328,0,5.64769e-05,
0.817352,0,0,-0.226451,0,6.21556e-05,
0.860215,0,0,-0.226606,0,6.77651e-05,
0.904285,0,0,-0.226803,0,7.28451e-05,
0.949552,0,0,-0.227057,0,7.65672e-05,
0.996004,0,0,-0.227384,0,7.76481e-05,
1.04363,0,0,-0.227806,0,7.4398e-05,
1.09241,0,0,-0.228342,0,6.4854e-05,
1.14232,0,0,-0.229009,0,4.71067e-05,
1.19335,0,0,-0.229813,0,1.98055e-05,
1.24546,0,0,-0.230748,0,-1.73737e-05,
1.29863,0,0,-0.231792,0,-6.35479e-05,
1.35283,0,0,-0.232916,0,-0.000116864,
1.40802,0,0,-0.234088,0,-0.000175057,
1.46416,0,0,-0.235277,0,-0.000236041,
1.52121,0,0,-0.236456,0,-0.00029829,
1.57913,0,0,-0.237603,0,-0.00036091,
1.63787,0,0,-0.238699,0,-0.000423494,
1.69739,0,0,-0.239728,0,-0.000485911,
1.75761,0,0,-0.240675,0,-0.000548139,
1.81851,0,0,-0.241527,0,-0.000610165,
1.88,0,0,-0.242269,0,-0.000671953,
1.94204,0,0,-0.24289,0,-0.000733436,
2.00457,0,0,-0.243377,0,-0.000794524,
2.06751,0,0,-0.243717,0,-0.00085511,
2.13081,0,0,-0.2439,0,-0.000915072,
2.19439,0,0,-0.243914,0,-0.000974279,
2.25819,0,0,-0.243749,0,-0.00103259,
2.32214,0,0,-0.243395,0,-0.00108984,
2.38617,0,0,-0.242845,0,-0.00114585,
2.4502,0,0,-0.24209,0,-0.00120046,
2.51418,0,0,-0.241124,0,-0.00125345,
2.57803,0,0,-0.239941,0,-0.00130462,
2.64167,0,0,-0.23854,0,-0.00135374,
2.70505,0,0,-0.236918,0,-0.00140059,
2.76808,0,0,-0.235074,0,-0.00144492,
2.83072,0,0,-0.233012,0,-0.00148647,
2.89288,0,0,-0.230736,0,-0.00152502,
2.95451,0,0,-0.228253,0,-0.00156034,
3.01555,0,0,-0.225574,0,-0.00159226,
3.07594,0,0,-0.222711,0,-0.00162064,
3.13561,0,0,-0.219677,0,-0.00164541,
3.19453,0,0,-0.216491,0,-0.00166655,
3.25262,0,0,-0.213168,0,-0.00168411,
3.30985,0,0,-0.209728,0,-0.00169816,
3.36617,0,0,-0.206188,0,-0.00170883,
3.42154,0,0,-0.202569,0,-0.00171628,
3.47591,0,0,-0.198888,0,-0.00172068,
3.52925,0,0,-0.195163,0,-0.00172222,
3.58152,0,0,-0.191411,0,-0.00172108,
3.6327,0,0,-0.187649,0,-0.0017175,
3.68276,0,0,-0.183893,0,-0.00171169,
3.73167,0,0,-0.180156,0,-0.00170386,
3.77941,0,0,-0.176451,0,-0.00169422,
3.82596,0,0,-0.172789,0,-0.00168298,
3.8713,0,0,-0.169182,0,-0.00167033,
3.91543,0,0,-0.165635,0,-0.00165634,
3.95833,0,0,-0.162176,0,-0.00164153,
4,0,0,-0.158774,0,-0.00162578,
4.04167,0,0,-0.155363,0,-0.00160871,
4.08333,0,0,-0.151939,0,-0.00159054,
4.125,0,0,-0.148505,0,-0.00157127,
4.16667,0,0,-0.145064,0,-0.00155091,
4.20833,0,0,-0.14162,0,-0.00152952,
4.25,0,0,-0.138175,0,-0.00150712,
4.29167,0,0,-0.134733,0,-0.00148378,
4.33333,0,0,-0.131297,0,-0.00145952,
4.375,0,0,-0.127869,0,-0.0014344,
4.41667,0,0,-0.124452,0,-0.00140844,
4.45833,0,0,-0.121049,0,-0.00138169,
4.5,0,0,-0.117662,0,-0.00135419,
4.54167,0,0,-0.114294,0,-0.00132598,
4.58333,0,0,-0.110946,0,-0.00129708,
4.625,0,0,-0.107622,0,-0.00126755,
4.66667,0,0,-0.104323,0,-0.00123741,
4.70833,0,0,-0.10105,0,-0.00120669,
4.75,0,0,-0.0978066,0,-0.00117544,
4.79167,0,0,-0.0945933,0,-0.00114366,
4.83333,0,0,-0.0914121,0,-0.00111141,
4.875,0,0,-0.0882645,0,-0.0010787,
4.91667,0,0,-0.085152,0,-0.00104556,
4.95833,0,0,-0.0820761,0,-0.00101203,
5,0,0,-0.0790379,0,-0.000978136,
5.04167,0,0,-0.0760387,0,-0.0009439,
5.08333,0,0,-0.0730796,0,-0.000909354,
5.125,0,0,-0.0701616,0,-0.000874525,
5.16667,0,0,-0.0672856,0,-0.000839435,
5.20833,0,0,-0.0644526,0,-0.000804109,
5.25,0,0,-0.0616633,0,-0.00076857,
5.29167,0,0,-0.0589185,0,-0.00073284,
5.33333,0,0,-0.0562189,0,-0.000696942,
5.375,0,0,-0.0535651,0,-0.000660898,
5.41667,0,0,-0.0509577,0,-0.000624732,
5.45833,0,0,-0.0483973,0,-0.000588466,
5.5,0,0,-0.0458842,0,-0.000552124,
5.54167,0,0,-0.043419,0,-0.000515727,
5.58333,0,0,-0.0410018,0,-0.000479297,
5.625,0,0,-0.0386332,0,-0.000442852,
5.66667,0,0,-0.0363133,0,-0.000406409,
5.70833,0,0,-0.0340425,0,-0.000369982,
5.75,0,0,-0.0318212,0,-0.000333587,
5.79167,0,0,-0.0296497,0,-0.000297242,
5.83333,0,0,-0.0275286,0,-0.000260972,
5.875,0,0,-0.0254585,0,-0.000224816,
5.91667,0,0,-0.0234401,0,-0.000188838,
5.95833,0,0,-0.0214738,0,-0.000153124,
6,0,0,-0.0195595,0,-0.000117755,
6.04167,0,0,-0.0176963,0,-8.27836e-05,
6.08333,0,0,-0.0158832,0,-4.82243e-05,
6.125,0,0,-0.0141194,0,-1.40717e-05,
6.16667,0,0,-0.0124038,0,1.96853e-05,
6.20833,0,0,-0.0107356,0,5.30543e-05,
6.25,0,0,-0.00911391,0,8.60391e-05,
6.29167,0,0,-0.00753792,0,0.000118641,
6.33333,0,0,-0.00600683,0,0.000150862,
6.375,0,0,-0.00451984,0,0.000182701,
6.41667,0,0,-0.00307618,0,0.000214157,
6.45833,0,0,-0.00167506,0,0.00024523,
6.5,0,0,-0.000315725,0,0.000275918,
6.54167,0,0,0.00100262,0,0.00030622,
6.58333,0,0,0.00228073,0,0.000336135,
6.625,0,0,0.00351938,0,0.000365664,
6.66667,0,0,0.00471933,0,0.000394806,
6.70833,0,0,0.00588134,0,0.000423561,
6.75,0,0,0.00700615,0,0.00045193,
6.79167,0,0,0.00809452,0,0.000479913,
6.83333,0,0,0.00914718,0,0.000507509,
6.875,0,0,0.0101649,0,0.00053472,
6.91667,0,0,0.0111484,0,0.000561544,
6.95833,0,0,0.0120983,0,0.000587984,
7,0,0,0.0130155,0,0.00061404,
7.04167,0,0,0.0139006,0,0.000639713,
7.08333,0,0,0.0147544,0,0.000665005,
7.125,0,0,0.0155776,0,0.000689915,
7.16667,0,0,0.0163708,0,0.000714446,
7.20833,0,0,0.0171348,0,0.000738599,
7.25,0,0,0.0178702,0,0.000762377,
7.29167,0,0,0.0185777,0,0.00078578,
7.33333,0,0,0.019258,0,0.000808815,
7.375,0,0,0.0199118,0,0.000831484,
7.41667,0,0,0.0205396,0,0.000853792,
7.45833,0,0,0.0211421,0,0.000875746,
7.5,0,0,0.02172,0,0.000897356,
7.54167,0,0,0.0222738,0,0.000918635,
7.58333,0,0,0.0228043,0,0.000939591,
7.625,0,0,0.0233119,0,0.000960229,
7.66667,0,0,0.0237971,0,0.000980553,
7.70833,0,0,0.0242603,0,0.00100057,
7.75,0,0,0.0247021,0,0.00102027,
7.79167,0,0,0.0251229,0,0.00103967,
7.83333,0,0,0.0255224,0,0.00105874,
7.875,0,0,0.025901,0,0.00107756,
7.91667,0,0,0.0262692,0,0.00109667,
7.95833,0,0,0.0265592,0,0.00111459,
8,0,0,0.0269319,0,0.00113246,
8.04171,0,0,0.0273228,0,0.00115134,
8.08368,0,0,0.0275811,0,0.00116998,
8.12617,0,0,0.0278788,0,0.00118689,
8.16946,0,0,0.02816,0,0.00120388,
8.21382,0,0,0.0284242,0,0.00122087,
8.25952,0,0,0.0286792,0,0.0012379,
8.30685,0,0,0.0289245,0,0.00125514,
8.35611,0,0,0.0291603,0,0.00127267,
8.40762,0,0,0.0293866,0,0.00129058,
8.46168,0,0,0.0296029,0,0.00130894,
8.51865,0,0,0.0298084,0,0.00132779,
8.57889,0,0,0.0300018,0,0.00134719,
8.64276,0,0,0.0301813,0,0.00136718,
8.71067,0,0,0.030345,0,0.00138778,
8.78306,0,0,0.0304903,0,0.00140903,
8.86037,0,0,0.0306144,0,0.00143094,
8.94309,0,0,0.0307137,0,0.00145351,
9.03174,0,0,0.0307847,0,0.00147675,
9.12689,0,0,0.0308232,0,0.00150063,
9.22912,0,0,0.0308247,0,0.00152513,
9.33908,0,0,0.0307845,0,0.00155021,
9.45746,0,0,0.0306978,0,0.00157582,
9.58501,0,0,0.0305594,0,0.00160191,
9.72253,0,0,0.030364,0,0.00162842,
9.87088,0,0,0.0301065,0,0.00165524,
10.031,0,0,0.0297823,0,0.00168229,
10.2039,0,0,0.0293873,0,0.00170945,
10.3906,0,0,0.0289179,0,0.00173662,
10.5924,0,0,0.028371,0,0.00176365,
10.8105,0,0,0.0277463,0,0.00179044,
11.0463,0,0,0.0270437,0,0.00181686,
11.3012,0,0,0.0262638,0,0.00184279,
11.5769,0,0,0.0254111,0,0.00186812,
11.8751,0,0,0.0244903,0,0.00189275,
12.1977,0,0,0.0235087,0,0.00191659,
12.5466,0,0,0.0224756,0,0.00193958,
12.9242,0,0,0.0214013,0,0.00196165,
13.3327,0,0,0.0202984,0,0.00198278,
13.7748,0,0,0.0191805,0,0.00200295,
14.2532,0,0,0.0180614,0,0.00202216,
14.7709,0,0,0.0169562,0,0.00204043,
15.3312,0,0,0.0158788,0,0.0020578,
15.9377,0,0,0.0148421,0,0.00207433,
16.594,0,0,0.013858,0,0.00209008,
17.3044,0,0,0.0129357,0,0.00210514,
18.0733,0,0,0.0120823,0,0.00211954,
18.9056,0,0,0.011301,0,0.00213322,
19.8064,0,0,0.0105921,0,0.00214611,
20.7816,0,0,0.00995338,0,0.00215841,
21.8371,0,0,0.0093776,0,0.00217047,
22.9796,0,0,0.0088551,0,0.00218247,
24.2163,0,0,0.0083728,0,0.0021945,
25.5551,0,0,0.00791563,0,0.00220664,
27.0042,0,0,0.00746696,0,0.00221896,
28.5729,0,0,0.00700907,0,0.00223153,
30.271,0,0,0.00652378,0,0.00224434,
32.1091,0,0,0.0059933,0,0.00225733,
34.0989,0,0,0.0054025,0,0.0022704,
36.2529,0,0,0.0047336,0,0.00228355,
38.5845,0,0,0.00397808,0,0.00229671,
41.1085,0,0,0.00317406,0,0.00230969,
43.8407,0,0,0.00216438,0,0.00232026,
46.7983,0,0,0.0011149,0,0.00232632,
50,0,0,0.00210186,0,0.00234229,

