feb143ab5be01463bb03cdb460b9caf5419626ff 
X,Z,x_velocity,cp,uw_b,cf,
1,0,0,-0.22804,0,0,
1,9,0,-0.129309,0,0,
1,8.99969,0.0153763,-0.129309,2.84331e-10,0,
1,8.99934,0.0328211,-0.129309,1.32906e-08,0,
1,8.99894,0.0526306,-0.129309,1.83338e-07,0,
1,8.99848,0.0751182,-0.129309,1.34408e-06,0,
1,8.99797,0.100596,-0.129309,6.7187e-06,0,
1,8.99739,0.129262,-0.129309,2.5437e-05,0,
1,8.99672,0.160925,-0.129309,7.53921e-05,0,
1,8.99597,0.19465,-0.129309,0.000175388,0,
1,8.99512,0.228793,-0.129309,0.000323515,0,
1,8.99416,0.261697,-0.129309,0.000491375,0,
1,8.99306,0.292384,-0.129309,0.000649541,0,
1,8.99182,0.320676,-0.129308,0.000777046,0,
1,8.99041,0.346713,-0.129308,0.000882573,0,
1,8.98881,0.370655,-0.129307,0.000969752,0,
1,8.98699,0.392718,-0.129307,0.00104091,0,
1,8.98494,0.41319,-0.129306,0.00109684,0,
1,8.98261,0.432383,-0.129305,0.00113969,0,
1,8.97996,0.450535,-0.129304,0.0011756,0,
1,8.97696,0.467818,-0.129303,0.00120537,0,
1,8.97356,0.484374,-0.129302,0.00123027,0,
1,8.9697,0.500322,-0.1293,0.00125128,0,
1,8.96533,0.515759,-0.129298,0.00126909,0,
1,8.96038,0.53077,-0.129296,0.00128422,0,
1,8.95476,0.545423,-0.129294,0.00129704,0,
1,8.9484,0.559778,-0.129292,0.00130781,0,
1,8.9412,0.573886,-0.129289,0.00131671,0,
1,8.93303,0.587789,-0.129286,0.00132382,0,
1,8.92379,0.601524,-0.129283,0.00132921,0,
1,8.91333,0.615124,-0.129279,0.00133288,0,
1,8.90149,0.628615,-0.129276,0.0013348,0,
1,8.8881,0.642023,-0.129273,0.00133492,0,
1,8.87295,0.655368,-0.12927,0.00133316,0,
1,8.85584,0.668672,-0.129267,0.00132943,0,
1,8.83651,0.681952,-0.129266,0.00132361,0,
1,8.81469,0.695228,-0.129265,0.00131557,0,
1,8.79007,0.708519,-0.129266,0.00130515,0,
1,8.76232,0.721847,-0.12927,0.00129217,0,
1,8.73107,0.735237,-0.129277,0.00127639,0,
1,8.69591,0.748719,-0.129289,0.00125755,0,
1,8.6564,0.762328,-0.129306,0.0012353,0,
1,8.61206,0.77611,-0.129332,0.00120923,0,
1,8.56236,0.790122,-0.129367,0.00117901,0,
1,8.50675,0.804441,-0.129416,0.00114591,0,
1,8.44464,0.819209,-0.129481,0.00110494,0,
1,8.3754,0.834645,-0.129567,0.0010534,0,
1,8.29839,0.850992,-0.12968,0.000990232,0,
1,8.21296,0.868494,-0.129827,0.000910955,0,
1,8.11843,0.887345,-0.130012,0.000810346,0,
1,8.01417,0.907545,-0.130252,0.000684948,0,
1,7.89956,0.928653,-0.130541,0.000538172,0,
1,7.77403,0.949541,-0.130917,0.000388486,0,
1,7.63711,0.9686,-0.131367,0.000205457,0,
1,7.48842,0.983506,-0.131899,7.63202e-05,0,
1,7.32773,0.992322,-0.132539,1.83522e-05,0,
1,7.15495,0.995526,-0.133281,1.82992e-06,0,
1,6.97022,0.995591,-0.134143,2.47754e-08,0,
1,6.77388,0.994975,-0.135138,3.78577e-09,0,
1,6.56652,0.994857,-0.136283,9.78439e-09,0,
1,6.34896,0.995312,-0.137591,1.25211e-08,0,
1,6.12229,0.996041,-0.139076,1.41271e-08,0,
1,5.88784,0.996844,-0.140753,1.49849e-08,0,
1,5.64716,0.997683,-0.142635,1.59665e-08,0,
1,5.40194,0.99859,-0.144733,1.73327e-08,0,
1,5.15407,0.999592,-0.147053,1.90609e-08,0,
1,4.90545,1.0007,-0.149599,2.08969e-08,0,
1,4.65805,1.00191,-0.152368,2.2862e-08,0,
1,4.41376,1.00322,-0.155355,2.49191e-08,0,
1,4.17441,1.00462,-0.158546,2.68397e-08,0,
1,3.94163,1.00604,-0.161922,2.84623e-08,0,
1,3.7169,1.00744,-0.165457,3.03957e-08,0,
1,3.50146,1.0089,-0.169116,3.45807e-08,0,
1,3.29629,1.01073,-0.172869,4.30561e-08,0,
1,3.10217,1.01328,-0.176682,5.40077e-08,0,
1,2.91959,1.01638,-0.180526,9.87267e-08,0,
1,2.74885,1.01857,-0.184357,9.89802e-07,0,
1,2.59002,1.01745,-0.188113,-5.91989e-06,0,
1,2.44299,1.01129,-0.191725,-5.16257e-05,0,
1,2.30752,1.0003,-0.195126,-0.000148943,0,
1,2.18321,0.985907,-0.198256,-0.000284093,0,
1,2.06959,0.969708,-0.201143,-0.000401446,0,
1,1.9661,0.952968,-0.203768,-0.00050308,0,
1,1.87215,0.936616,-0.206097,-0.00059789,0,
1,1.78711,0.921161,-0.208166,-0.000681368,0,
1,1.71033,0.906761,-0.20999,-0.000753446,0,
1,1.64119,0.893387,-0.211594,-0.000815665,0,
1,1.57905,0.880926,-0.212997,-0.000870202,0,
1,1.52332,0.869251,-0.21422,-0.000919244,0,
1,1.47342,0.858253,-0.21529,-0.000964949,0,
1,1.42882,0.847841,-0.216204,-0.000997843,0,
1,1.389,0.837935,-0.216978,-0.00102282,0,
1,1.35351,0.828468,-0.217648,-0.00104613,0,
1,1.3219,0.819405,-0.218223,-0.00106701,0,
1,1.29378,0.810729,-0.218717,-0.00108521,0,
1,1.26878,0.802429,-0.21914,-0.00110079,0,
1,1.24659,0.794501,-0.219502,-0.00111411,0,
1,1.22689,0.786939,-0.219813,-0.00112528,0,
1,1.2092,0.779655,-0.220082,-0.00113326,0,
1,1.1932,0.7726,-0.220316,-0.00113877,0,
1,1.1787,0.765759,-0.220521,-0.00114253,0,
1,1.16554,0.75911,-0.220698,-0.00114561,0,
1,1.15357,0.752619,-0.220852,-0.00115018,0,
1,1.14266,0.746237,-0.220986,-0.00115999,0,
1,1.13268,0.739889,-0.221103,-0.00117987,0,
1,1.12354,0.733471,-0.221205,-0.00121649,0,
1,1.11514,0.726848,-0.221296,-0.00127789,0,
1,1.10739,0.719852,-0.221381,-0.00137292,0,
1,1.10022,0.712298,-0.221463,-0.00151016,0,
1,1.09357,0.704006,-0.221546,-0.00169647,0,
1,1.08738,0.694841,-0.221634,-0.00193512,0,
1,1.0816,0.684753,-0.221727,-0.0022242,0,
1,1.07618,0.673796,-0.221827,-0.00255614,0,
1,1.07107,0.662114,-0.221934,-0.00291883,0,
1,1.06626,0.649905,-0.222046,-0.00329813,0,
1,1.06169,0.637378,-0.222162,-0.00368063,0,
1,1.05735,0.624718,-0.222281,-0.00405537,0,
1,1.05321,0.612077,-0.222402,-0.00441448,0,
1,1.04925,0.599564,-0.222523,-0.00475297,0,
1,1.04544,0.587256,-0.222645,-0.00506811,0,
1,1.04177,0.5752,-0.222767,-0.0053588,0,
1,1.03822,0.563425,-0.222888,-0.00562502,0,
1,1.03478,0.551943,-0.223008,-0.00586742,0,
1,1.03144,0.540755,-0.223127,-0.00608705,0,
1,1.02818,0.529857,-0.223245,-0.00628514,0,
1,1.025,0.519239,-0.223362,-0.00646298,0,
1,1.02188,0.50889,-0.223478,-0.00662188,0,
1,1.01882,0.498797,-0.223592,-0.00676307,0,
1,1.01581,0.488946,-0.223705,-0.00688786,0,
1,1.01284,0.479323,-0.223817,-0.00699681,0,
1,1.00988,0.469813,-0.223929,-0.00709195,0,
1,1.00688,0.460303,-0.224043,-0.00717595,0,
1,1.00384,0.450783,-0.224158,-0.00724789,0,
1,1.00076,0.441239,-0.224274,-0.00730771,0,
1,0.997615,0.431651,-0.224391,-0.00735534,0,
1,0.99441,0.421997,-0.224509,-0.00739069,0,
1,0.991131,0.412253,-0.224629,-0.00741394,0,
1,0.987768,0.402391,-0.22475,-0.0074249,0,
1,0.984308,0.392385,-0.224873,-0.00742324,0,
1,0.980739,0.382202,-0.224997,-0.00740852,0,
1,0.977045,0.371809,-0.225124,-0.00738016,0,
1,0.973211,0.361171,-0.225253,-0.00733739,0,
1,0.969219,0.350246,-0.225384,-0.00727929,0,
1,0.965047,0.338992,-0.225518,-0.00720473,0,
1,0.960675,0.327359,-0.225654,-0.00711237,0,
1,0.956077,0.315295,-0.225793,-0.00699994,0,
1,0.951224,0.302742,-0.225935,-0.00686575,0,
1,0.946088,0.289641,-0.22608,-0.00670762,0,
1,0.940633,0.275938,-0.226229,-0.0065231,0,
1,0.934823,0.261586,-0.226382,-0.00631117,0,
1,0.928616,0.246547,-0.22654,-0.00606854,0,
1,0.921967,0.230794,-0.226701,-0.00579252,0,
1,0.914826,0.214307,-0.226866,-0.00548084,0,
1,0.907141,0.197084,-0.227033,-0.00513172,0,
1,0.898852,0.179147,-0.227203,-0.00474414,0,
1,0.889898,0.16055,-0.227374,-0.00431836,0,
1,0.880212,0.141397,-0.227546,-0.00385656,0,
1,0.869723,0.121866,-0.22772,-0.00336386,0,
1,0.858358,0.102241,-0.227894,-0.00284988,0,
1,0.846039,0.0829586,-0.228071,-0.00233113,0,
1,0.83269,0.0646449,-0.228252,-0.00183317,0,
1,0.818232,0.048096,-0.22844,-0.00139234,0,
1,0.802744,0.0341744,-0.228626,-0.00103981,0,
1,0.78635,0.02325,-0.228814,-0.000781023,0,
1,0.768969,0.014944,-0.228995,-0.00060432,0,
1,0.75053,0.00856403,-0.229167,-0.000492057,0,
1,0.730977,0.00342358,-0.22932,-0.000426688,0,
1,0.710271,-0.00100252,-0.229452,-0.000392871,0,
1,0.688397,-0.00506234,-0.229561,-0.000378696,0,
1,0.66536,-0.00896479,-0.229652,-0.000377284,0,
1,0.641194,-0.0128419,-0.229723,-0.000380159,0,
1,0.615961,-0.0167772,-0.229776,-0.000383428,0,
1,0.589754,-0.0208085,-0.229809,-0.000384029,0,
1,0.562692,-0.0249369,-0.229823,-0.000380221,0,
1,0.534925,-0.029136,-0.229817,-0.000371257,0,
1,0.506624,-0.0333594,-0.229788,-0.00035704,0,
1,0.477982,-0.0375489,-0.229735,-0.000337895,0,
1,0.449206,-0.0416407,-0.229659,-0.000314388,0,
1,0.420509,-0.0455698,-0.22956,-0.000287224,0,
1,0.392107,-0.0492731,-0.229439,-0.000257168,0,
1,0.364206,-0.0526916,-0.229301,-0.000225004,0,
1,0.337003,-0.0557713,-0.229149,-0.000191485,0,
1,0.310673,-0.0584633,-0.228988,-0.000157308,0,
1,0.28537,-0.0607243,-0.228822,-0.000123078,0,
1,0.26122,-0.0625154,-0.228658,-8.93017e-05,0,
1,0.238324,-0.0638017,-0.2285,-5.64011e-05,0,
1,0.21675,-0.064552,-0.228353,-2.47306e-05,0,
1,0.196544,-0.0647389,-0.22822,5.38578e-06,0,
1,0.177724,-0.06434,-0.228105,3.36063e-05,0,
1,0.160284,-0.0633403,-0.22801,5.95287e-05,0,
1,0.144202,-0.061736,-0.227935,8.26791e-05,0,
1,0.129436,-0.0595384,-0.227881,0.000102541,0,
1,0.115935,-0.0567778,-0.227846,0.000118619,0,
1,0.103636,-0.0535052,-0.227827,0.000130525,0,
1,0.0924701,-0.0497921,-0.227823,0.000138037,0,
1,0.0823633,-0.045726,-0.22783,0.000141147,0,
1,0.0732406,-0.0414053,-0.227845,0.000140083,0,
1,0.0650269,-0.0369319,-0.227865,0.000135272,0,
1,0.057648,-0.0324035,-0.227888,0.000127273,0,
1,0.0510323,-0.0279072,-0.227912,0.000116713,0,
1,0.0451115,-0.023515,-0.227936,0.000104225,0,
1,0.0398209,-0.0192809,-0.227957,9.04059e-05,0,
1,0.0351001,-0.0152425,-0.227977,7.5796e-05,0,
1,0.0308929,-0.011425,-0.227993,6.08983e-05,0,
1,0.0271475,-0.00784966,-0.228007,4.62414e-05,0,
1,0.0238164,-0.0045469,-0.228017,3.24994e-05,0,
1,0.0208562,-0.00157029,-0.228025,2.05779e-05,0,
1,0.0182274,0.000997315,-0.22803,1.14669e-05,0,
1,0.0158944,0.00306375,-0.228033,5.47143e-06,0,
1,0.0138249,0.00457178,-0.228035,2.18919e-06,0,
1,0.0119898,0.00553158,-0.228036,7.0846e-07,0,
1,0.0103632,0.00601635,-0.228037,1.58402e-07,0,
1,0.00892169,0.00612893,-0.228038,-2.68155e-09,0,
1,0.00764438,0.00597101,-0.228039,-3.07155e-08,0,
1,0.00651264,0.00562762,-0.228039,-2.40869e-08,0,
1,0.00550983,0.00516447,-0.228039,-1.37411e-08,0,
1,0.00462115,0.00463013,-0.228039,-6.64356e-09,0,
1,0.00383341,0.00405984,-0.22804,-2.82877e-09,0,
1,0.0031349,0.00347849,-0.228039,-1.06488e-09,0,
1,0.00251518,0.00290346,-0.22804,-3.48718e-10,0,
1,0.00196502,0.00234637,-0.228039,-9.57421e-11,0,
1,0.00147619,0.00181472,-0.22804,-2.05844e-11,0,
1,0.00104139,0.00131286,-0.228039,-3.04948e-12,0,
1,0.000654158,0.000842996,-0.22804,-2.39708e-13,0,
1,0.000308731,0.000405644,-0.228039,-5.49044e-15,0,

4,0,0,-0.156015,0,0,
4,9,0,-0.0986475,0,0,
4,8.99969,0.0142456,-0.0986471,2.2305e-10,0,
4,8.99934,0.0303513,-0.0986474,1.03485e-08,0,
4,8.99894,0.0485784,-0.0986471,1.4131e-07,0,
4,8.9985,0.0692033,-0.0986473,1.0257e-06,0,
4,8.99799,0.0925073,-0.0986471,5.09127e-06,0,
4,8.99742,0.118693,-0.0986472,1.92796e-05,0,
4,8.99677,0.147678,-0.098647,5.78696e-05,0,
4,8.99605,0.178784,-0.0986471,0.000138316,0,
4,8.99522,0.21066,-0.0986468,0.000264533,0,
4,8.99429,0.241766,-0.0986468,0.000416402,0,
4,8.99324,0.271036,-0.0986464,0.000566014,0,
4,8.99205,0.298087,-0.0986462,0.000695505,0,
4,8.9907,0.322995,-0.0986457,0.000799543,0,
4,8.98919,0.345934,-0.0986453,0.000887222,0,
4,8.98747,0.367089,-0.0986445,0.000960171,0,
4,8.98553,0.38673,-0.0986438,0.00101757,0,
4,8.98334,0.405136,-0.0986428,0.00106386,0,
4,8.98087,0.422526,-0.0986416,0.00110295,0,
4,8.97807,0.439068,-0.0986402,0.00113612,0,
4,8.97491,0.454903,-0.0986386,0.00116469,0,
4,8.97134,0.47015,-0.0986367,0.00118962,0,
4,8.96731,0.484909,-0.0986345,0.00121165,0,
4,8.96276,0.499266,-0.0986319,0.00123129,0,
4,8.95762,0.513292,-0.0986289,0.00124891,0,
4,8.95182,0.527049,-0.0986255,0.00126476,0,
4,8.94526,0.540592,-0.0986216,0.001279,0,
4,8.93787,0.553966,-0.0986172,0.00129169,0,
4,8.92952,0.567211,-0.0986124,0.00130284,0,
4,8.92011,0.58036,-0.0986069,0.00131241,0,
4,8.90949,0.593444,-0.0986009,0.0013203,0,
4,8.89751,0.606487,-0.0985944,0.00132638,0,
4,8.88402,0.61951,-0.0985874,0.00133051,0,
4,8.86881,0.63253,-0.0985798,0.0013325,0,
4,8.85169,0.645563,-0.098572,0.00133217,0,
4,8.83242,0.658622,-0.0985639,0.00132934,0,
4,8.81074,0.671719,-0.0985559,0.00132382,0,
4,8.78637,0.684864,-0.0985483,0.00131543,0,
4,8.75901,0.698071,-0.0985414,0.00130398,0,
4,8.7283,0.711353,-0.0985357,0.00128927,0,
4,8.69387,0.72473,-0.0985318,0.00127109,0,
4,8.65533,0.738224,-0.0985305,0.00124918,0,
4,8.61222,0.751867,-0.098533,0.00122324,0,
4,8.56407,0.7657,-0.0985404,0.00119289,0,
4,8.5104,0.779775,-0.0985546,0.00115817,0,
4,8.45065,0.794175,-0.0985778,0.00111997,0,
4,8.38429,0.809056,-0.0986134,0.00107204,0,
4,8.31073,0.824649,-0.098664,0.00101466,0,
4,8.22941,0.841211,-0.0987327,0.000944384,0,
4,8.13974,0.859007,-0.0988234,0.000856884,0,
4,8.04115,0.878213,-0.0989377,0.000748534,0,
4,7.93313,0.898721,-0.0990813,0.000619576,0,
4,7.81519,0.919829,-0.0992464,0.000479059,0,
4,7.68693,0.940073,-0.0994572,0.000344385,0,
4,7.54803,0.957554,-0.0996955,0.000203575,0,
4,7.39831,0.970384,-0.0999799,8.96212e-05,0,
4,7.23771,0.977677,-0.100326,2.77165e-05,0,
4,7.06634,0.980368,-0.100724,4.56834e-06,0,
4,6.88453,0.980514,-0.101175,-1.06647e-08,0,
4,6.69275,0.979963,-0.10168,-9.88838e-08,0,
4,6.49173,0.979648,-0.102249,1.96202e-08,0,
4,6.28238,0.979727,-0.102888,2.42092e-08,0,
4,6.06579,0.980037,-0.103607,1.39975e-08,0,
4,5.84328,0.980421,-0.104411,9.43019e-09,0,
4,5.61626,0.980815,-0.105306,8.21469e-09,0,
4,5.3863,0.98122,-0.106295,8.27724e-09,0,
4,5.15502,0.981651,-0.107382,8.85779e-09,0,
4,4.92406,0.982123,-0.108569,9.70413e-09,0,
4,4.69507,0.982647,-0.109855,1.07223e-08,0,
4,4.46961,0.983226,-0.11124,1.17691e-08,0,
4,4.24915,0.983843,-0.11272,1.25381e-08,0,
4,4.03501,0.984443,-0.114289,1.27371e-08,0,
4,3.82836,0.984958,-0.115939,1.26193e-08,0,
4,3.63018,0.985391,-0.117661,1.35818e-08,0,
4,3.44125,0.985921,-0.119441,1.85595e-08,0,
4,3.26217,0.986906,-0.121269,6.4023e-08,0,
4,3.09333,0.988641,-0.12313,5.66655e-07,0,
4,2.93497,0.990944,-0.125007,2.6475e-06,0,
4,2.78715,0.992965,-0.126885,5.09757e-06,0,
4,2.64979,0.993524,-0.128746,3.94019e-07,0,
4,2.52268,0.991697,-0.130568,-2.12153e-05,0,
4,2.40551,0.987157,-0.13233,-6.48261e-05,0,
4,2.29789,0.98015,-0.134011,-0.000128964,0,
4,2.19939,0.971267,-0.135598,-0.000207512,0,
4,2.10949,0.961199,-0.137079,-0.000292649,0,
4,2.02768,0.950575,-0.138453,-0.00037684,0,
4,1.95343,0.93991,-0.13972,-0.000453956,0,
4,1.88618,0.929581,-0.14088,-0.00052167,0,
4,1.82542,0.919774,-0.141944,-0.000569221,0,
4,1.77062,0.910547,-0.142916,-0.000608184,0,
4,1.72128,0.90195,-0.143793,-0.000643261,0,
4,1.67693,0.894014,-0.144586,-0.00067455,0,
4,1.63713,0.886737,-0.145301,-0.000702405,0,
4,1.60144,0.880099,-0.145944,-0.000727186,0,
4,1.56949,0.87407,-0.146523,-0.000749287,0,
4,1.54091,0.868609,-0.147042,-0.000769186,0,
4,1.51537,0.863663,-0.147507,-0.000787229,0,
4,1.49167,0.859035,-0.147939,-0.000803834,0,
4,1.46926,0.854636,-0.148346,-0.00081955,0,
4,1.44801,0.850442,-0.148739,-0.000833908,0,
4,1.42781,0.846411,-0.149121,-0.000840127,0,
4,1.40855,0.842512,-0.149486,-0.000846735,0,
4,1.39015,0.838728,-0.149836,-0.000852078,0,
4,1.37252,0.835044,-0.150173,-0.000856391,0,
4,1.3556,0.831444,-0.150498,-0.000860191,0,
4,1.3393,0.827912,-0.150811,-0.000864033,0,
4,1.32357,0.82443,-0.151115,-0.000868814,0,
4,1.30836,0.820978,-0.15141,-0.000875271,0,
4,1.29362,0.817533,-0.151697,-0.000884432,0,
4,1.2793,0.814071,-0.151976,-0.000897593,0,
4,1.26537,0.81056,-0.152249,-0.000916361,0,
4,1.25179,0.806963,-0.152516,-0.00094269,0,
4,1.23852,0.803236,-0.152776,-0.000978905,0,
4,1.22554,0.799328,-0.153031,-0.00102771,0,
4,1.21282,0.795178,-0.153282,-0.00109214,0,
4,1.20034,0.790719,-0.153526,-0.00117544,0,
4,1.18806,0.785876,-0.153766,-0.00128088,0,
4,1.17599,0.780575,-0.154001,-0.00141145,0,
4,1.16408,0.774747,-0.154231,-0.00156944,0,
4,1.15233,0.768334,-0.154456,-0.00175608,0,
4,1.14073,0.7613,-0.154676,-0.00197122,0,
4,1.12925,0.75363,-0.154891,-0.00221314,0,
4,1.11788,0.745339,-0.155101,-0.00247863,0,
4,1.10661,0.736463,-0.155307,-0.00276331,0,
4,1.09543,0.727054,-0.155508,-0.00306201,0,
4,1.08432,0.717177,-0.155705,-0.00336928,0,
4,1.07328,0.706901,-0.155898,-0.0036798,0,
4,1.0623,0.696294,-0.156087,-0.00398868,0,
4,1.05136,0.685422,-0.156272,-0.00429164,0,
4,1.04044,0.674324,-0.156454,-0.00458519,0,
4,1.0295,0.663032,-0.156633,-0.00486667,0,
4,1.01855,0.651591,-0.156809,-0.00513355,0,
4,1.00757,0.640037,-0.156983,-0.00538347,0,
4,0.996544,0.628405,-0.157153,-0.00561493,0,
4,0.98547,0.616724,-0.15732,-0.005826,0,
4,0.974334,0.605018,-0.157486,-0.00601542,0,
4,0.963124,0.593308,-0.157646,-0.00618194,0,
4,0.951826,0.581613,-0.157809,-0.0063277,0,
4,0.940428,0.56994,-0.157957,-0.00647774,0,
4,0.928915,0.558171,-0.158067,-0.00656329,0,
4,0.917272,0.54614,-0.15816,-0.00665545,0,
4,0.905481,0.533757,-0.158249,-0.00675534,0,
4,0.893524,0.520966,-0.158336,-0.0068633,0,
4,0.881383,0.507725,-0.158425,-0.00697945,0,
4,0.869035,0.493996,-0.158517,-0.00710364,0,
4,0.856459,0.479746,-0.158613,-0.00723555,0,
4,0.843629,0.464944,-0.158713,-0.00737468,0,
4,0.830518,0.449564,-0.158817,-0.00752037,0,
4,0.817097,0.433585,-0.158924,-0.00767179,0,
4,0.803334,0.416989,-0.159033,-0.00782798,0,
4,0.789195,0.399763,-0.159144,-0.0079878,0,
4,0.774643,0.381898,-0.159256,-0.00814994,0,
4,0.759639,0.363389,-0.159368,-0.00831278,0,
4,0.744138,0.344241,-0.159482,-0.00847432,0,
4,0.728096,0.324471,-0.159596,-0.00863206,0,
4,0.711463,0.304111,-0.159713,-0.008783,0,
4,0.694189,0.283211,-0.159833,-0.00892338,0,
4,0.676218,0.261832,-0.159957,-0.00904819,0,
4,0.657495,0.240041,-0.160083,-0.00915213,0,
4,0.637962,0.217895,-0.160211,-0.00923038,0,
4,0.617561,0.195434,-0.160335,-0.0092791,0,
4,0.596848,0.173296,-0.160447,-0.00929421,0,
4,0.576557,0.152222,-0.160545,-0.00927486,0,
4,0.556564,0.13208,-0.160627,-0.00922273,0,
4,0.536763,0.112775,-0.160703,-0.00913877,0,
4,0.517057,0.0942842,-0.16079,-0.00902366,0,
4,0.497368,0.0766736,-0.160916,-0.00887899,0,
4,0.477632,0.0600846,-0.161112,-0.00870857,0,
4,0.457804,0.0446649,-0.161383,-0.0085197,0,
4,0.437857,0.030443,-0.16171,-0.0083239,0,
4,0.417786,0.0171717,-0.161764,-0.00804322,0,
4,0.397605,0.00443973,-0.161574,-0.00764486,0,
4,0.377348,-0.00796499,-0.161419,-0.0073092,0,
4,0.357066,-0.0200258,-0.161254,-0.00695782,0,
4,0.336828,-0.0317077,-0.161074,-0.00659945,0,
4,0.316717,-0.0429563,-0.160884,-0.00623642,0,
4,0.296825,-0.0537142,-0.160682,-0.00586858,0,
4,0.27725,-0.0639336,-0.160471,-0.00549769,0,
4,0.258095,-0.0735786,-0.160251,-0.00512621,0,
4,0.239458,-0.0826263,-0.160023,-0.00475692,0,
4,0.221432,-0.0910652,-0.159788,-0.00439265,0,
4,0.2041,-0.0988947,-0.15955,-0.00403607,0,
4,0.187537,-0.106123,-0.159308,-0.00368965,0,
4,0.171798,-0.112766,-0.159065,-0.00335556,0,
4,0.156928,-0.118846,-0.158823,-0.00303561,0,
4,0.142956,-0.124389,-0.158585,-0.00273122,0,
4,0.129894,-0.129423,-0.158352,-0.00244344,0,
4,0.117744,-0.133978,-0.158127,-0.00217293,0,
4,0.106492,-0.138085,-0.157912,-0.00192001,0,
4,0.0961173,-0.141774,-0.157707,-0.00168468,0,
4,0.0865883,-0.145071,-0.157515,-0.00146672,0,
4,0.0778675,-0.148005,-0.157337,-0.00126564,0,
4,0.0699123,-0.150599,-0.157172,-0.00108082,0,
4,0.062677,-0.152876,-0.157021,-0.000911505,0,
4,0.056114,-0.154854,-0.156884,-0.000756841,0,
4,0.0501747,-0.15655,-0.156761,-0.000615933,0,
4,0.0448114,-0.157978,-0.156651,-0.000487864,0,
4,0.039977,-0.159149,-0.156553,-0.000371719,0,
4,0.0356266,-0.160069,-0.156467,-0.000266607,0,
4,0.0317171,-0.160743,-0.156391,-0.000171683,0,
4,0.0282081,-0.161169,-0.156325,-8.61654e-05,0,
4,0.0250617,-0.16134,-0.156269,-9.35046e-06,0,
4,0.0222427,-0.161244,-0.15622,5.93621e-05,0,
4,0.0197189,-0.160859,-0.156178,0.00012044,0,
4,0.0174603,-0.160151,-0.156143,0.000174172,0,
4,0.0154398,-0.159071,-0.156114,0.00022059,0,
4,0.0136326,-0.157545,-0.15609,0.00025935,0,
4,0.0120162,-0.155469,-0.15607,0.000289528,0,
4,0.0105703,-0.152692,-0.156054,0.000309342,0,
4,0.00927657,-0.149001,-0.156043,0.00031585,0,
4,0.00811839,-0.144112,-0.156033,0.000305042,0,
4,0.0070809,-0.13769,-0.156028,0.000273258,0,
4,0.0061507,-0.129437,-0.156023,0.000220927,0,
4,0.00531578,-0.119278,-0.156021,0.0001567,0,
4,0.00456537,-0.107536,-0.156019,9.57113e-05,0,
4,0.00388979,-0.0948867,-0.156019,5.02349e-05,0,
4,0.00328037,-0.0820572,-0.156018,2.28711e-05,0,
4,0.00272934,-0.0695703,-0.156018,9.10246e-06,0,
4,0.0022297,-0.0576942,-0.156017,3.14643e-06,0,
4,0.00177519,-0.0465194,-0.156018,9.17027e-07,0,
4,0.00136016,-0.0360421,-0.156016,2.1122e-07,0,
4,0.000979511,-0.0262165,-0.156018,3.38371e-08,0,
4,0.00062865,-0.0169803,-0.156016,2.88797e-09,0,
4,0.000303409,-0.0082654,-0.156018,7.03933e-11,0,

6,0,0,-0.0177636,0,0,
6,9,0,-0.0746047,0,0,
6,8.99969,0.0135008,-0.0746044,1.85815e-10,0,
6,8.99934,0.0287255,-0.0746046,8.57586e-09,0,
6,8.99895,0.0459117,-0.0746044,1.16271e-07,0,
6,8.9985,0.0653102,-0.0746045,8.37962e-07,0,
6,8.99801,0.0871793,-0.0746043,4.137e-06,0,
6,8.99744,0.111719,-0.0746044,1.56521e-05,0,
6,8.99681,0.138902,-0.0746043,4.7323e-05,0,
6,8.99609,0.168207,-0.0746043,0.000115098,0,
6,8.99529,0.198484,-0.0746041,0.000225703,0,
6,8.99438,0.228303,-0.0746041,0.000364702,0,
6,8.99336,0.256566,-0.0746038,0.000506613,0,
6,8.9922,0.282773,-0.0746036,0.000634064,0,
6,8.9909,0.306923,-0.0746032,0.000737323,0,
6,8.98944,0.329175,-0.0746028,0.000824119,0,
6,8.98779,0.349701,-0.0746022,0.000897127,0,
6,8.98593,0.368748,-0.0746016,0.00095494,0,
6,8.98383,0.386576,-0.0746008,0.00100239,0,
6,8.98147,0.403391,-0.0745998,0.00104258,0,
6,8.97881,0.419357,-0.0745986,0.00107699,0,
6,8.97581,0.434616,-0.0745972,0.00110696,0,
6,8.97244,0.449285,-0.0745955,0.00113349,0,
6,8.96863,0.463465,-0.0745935,0.00115734,0,
6,8.96435,0.477243,-0.0745912,0.00117905,0,
6,8.95953,0.490692,-0.0745884,0.00119903,0,
6,8.95409,0.503877,-0.0745852,0.00121756,0,
6,8.94798,0.516853,-0.0745815,0.00123481,0,
6,8.94109,0.529671,-0.0745772,0.00125087,0,
6,8.93334,0.542373,-0.0745722,0.00126575,0,
6,8.92463,0.554997,-0.0745666,0.00127941,0,
6,8.91482,0.567576,-0.0745602,0.00129174,0,
6,8.90379,0.580139,-0.0745529,0.00130258,0,
6,8.89139,0.592711,-0.0745447,0.00131174,0,
6,8.87746,0.605313,-0.0745355,0.00131898,0,
6,8.86181,0.617961,-0.0745252,0.00132405,0,
6,8.84423,0.63067,-0.0745138,0.00132666,0,
6,8.82452,0.64345,-0.0745014,0.00132655,0,
6,8.80241,0.656311,-0.0744879,0.00132343,0,
6,8.77763,0.669261,-0.0744733,0.00131703,0,
6,8.74989,0.682305,-0.0744576,0.00130711,0,
6,8.71885,0.695454,-0.0744408,0.00129342,0,
6,8.68417,0.708717,-0.074423,0.00127572,0,
6,8.64545,0.72211,-0.0744042,0.00125377,0,
6,8.60229,0.735653,-0.074385,0.00122714,0,
6,8.55423,0.749375,-0.0743656,0.00119581,0,
6,8.50082,0.763318,-0.0743459,0.00115983,0,
6,8.44155,0.777553,-0.0743272,0.00111855,0,
6,8.37592,0.792211,-0.0743096,0.00107084,0,
6,8.30339,0.807485,-0.0742941,0.00101481,0,
6,8.22344,0.823633,-0.0742803,0.000947593,0,
6,8.13555,0.840953,-0.0742691,0.000865479,0,
6,8.0392,0.859696,-0.0742561,0.000765047,0,
6,7.93391,0.879858,-0.0742412,0.000646023,0,
6,7.81927,0.900855,-0.0742131,0.00051489,0,
6,7.6949,0.92131,-0.0741767,0.000386667,0,
6,7.56054,0.939384,-0.0741241,0.000271096,0,
6,7.41603,0.953466,-0.0740583,0.000140292,0,
6,7.26132,0.962573,-0.0739852,5.57784e-05,0,
6,7.09653,0.966949,-0.0738935,1.42703e-05,0,
6,6.92195,0.968045,-0.0737837,7.81502e-07,0,
6,6.73802,0.967618,-0.0736484,-1.01394e-06,0,
6,6.5454,0.966907,-0.0734846,-4.75709e-07,0,
6,6.34489,0.96642,-0.0732886,-1.33157e-07,0,
6,6.1375,0.966177,-0.0730571,-3.57398e-08,0,
6,5.92439,0.966039,-0.0727859,-1.35122e-08,0,
6,5.70687,0.965899,-0.0724702,-7.74172e-09,0,
6,5.48633,0.965711,-0.072105,-6.06422e-09,0,
6,5.26426,0.965473,-0.0716851,-5.82536e-09,0,
6,5.04218,0.965193,-0.0712052,-6.14413e-09,0,
6,4.82159,0.964885,-0.0706605,-6.66167e-09,0,
6,4.60398,0.964561,-0.0700468,-7.30077e-09,0,
6,4.39071,0.964218,-0.0693607,-8.22466e-09,0,
6,4.18307,0.963826,-0.0686002,-9.76498e-09,0,
6,3.98218,0.963325,-0.0677647,-1.21407e-08,0,
6,3.78902,0.962656,-0.0668556,-1.50239e-08,0,
6,3.60438,0.961841,-0.0658764,-1.92126e-08,0,
6,3.42888,0.961052,-0.0648323,-4.00159e-08,0,
6,3.26296,0.960578,-0.0637298,-1.03964e-07,0,
6,3.10691,0.960662,-0.0625759,-1.24515e-07,0,
6,2.96084,0.961288,-0.0613781,6.83061e-08,0,
6,2.82473,0.962075,-0.0601461,-2.60307e-07,0,
6,2.69844,0.962406,-0.0588925,-4.00241e-06,0,
6,2.58172,0.961666,-0.0576324,-1.55728e-05,0,
6,2.47424,0.959457,-0.0563815,-3.86924e-05,0,
6,2.37559,0.955671,-0.0551548,-7.48187e-05,0,
6,2.28535,0.95045,-0.0539658,-0.000122982,0,
6,2.20301,0.94409,-0.0528253,-0.000180395,0,
6,2.1281,0.936944,-0.0517417,-0.000243371,0,
6,2.06009,0.929364,-0.050721,-0.000307996,0,
6,1.99849,0.921658,-0.0497654,-0.00037049,0,
6,1.9428,0.914086,-0.0488785,-0.000427691,0,
6,1.89255,0.906841,-0.048055,-0.000478671,0,
6,1.84728,0.900017,-0.0473013,-0.000522041,0,
6,1.80655,0.893616,-0.0466165,-0.000552476,0,
6,1.76996,0.887633,-0.0459861,-0.000580348,0,
6,1.73712,0.882088,-0.0454135,-0.000605878,0,
6,1.70768,0.876952,-0.0448904,-0.000629516,0,
6,1.67998,0.871998,-0.0443945,-0.00065247,0,
6,1.65329,0.86713,-0.04391,-0.000674912,0,
6,1.62754,0.862346,-0.0434375,-0.000696794,0,
6,1.60265,0.857646,-0.0429754,-0.000718204,0,
6,1.57854,0.853028,-0.0425234,-0.000739092,0,
6,1.55515,0.848491,-0.0420806,-0.000759485,0,
6,1.53242,0.844032,-0.0416465,-0.000779399,0,
6,1.5103,0.839645,-0.0412205,-0.000798816,0,
6,1.48874,0.835316,-0.0408023,-0.000817719,0,
6,1.46769,0.831029,-0.0403912,-0.000836225,0,
6,1.44712,0.826772,-0.0399862,-0.000854698,0,
6,1.42698,0.822554,-0.0395847,-0.000873773,0,
6,1.40725,0.818413,-0.0391851,-0.000893981,0,
6,1.38788,0.814403,-0.0387867,-0.000915532,0,
6,1.36886,0.810543,-0.0383932,-0.00093707,0,
6,1.35015,0.806767,-0.0380131,-0.000941301,0,
6,1.33173,0.803004,-0.03764,-0.000950065,0,
6,1.31357,0.799228,-0.0372675,-0.000961249,0,
6,1.29566,0.795423,-0.036899,-0.000974437,0,
6,1.27797,0.791567,-0.0365327,-0.000990726,0,
6,1.26048,0.787635,-0.0361691,-0.00101136,0,
6,1.24318,0.783594,-0.0358077,-0.00103793,0,
6,1.22605,0.779408,-0.0354486,-0.00107229,0,
6,1.20907,0.775031,-0.0350915,-0.00111661,0,
6,1.19223,0.77041,-0.0347363,-0.00117323,0,
6,1.17551,0.765488,-0.0343831,-0.00124463,0,
6,1.1589,0.760203,-0.0340319,-0.00133319,0,
6,1.14238,0.754492,-0.0336826,-0.00144099,0,
6,1.12595,0.748298,-0.0333356,-0.00156949,0,
6,1.10959,0.741574,-0.0329908,-0.0017193,0,
6,1.09329,0.73429,-0.0326486,-0.00188993,0,
6,1.07704,0.726432,-0.0323094,-0.00207974,0,
6,1.06081,0.718007,-0.031973,-0.00228592,0,
6,1.04459,0.709036,-0.03164,-0.00250486,0,
6,1.02836,0.699562,-0.0313101,-0.00273223,0,
6,1.01211,0.689637,-0.0309844,-0.00296336,0,
6,0.99583,0.67932,-0.0306614,-0.00319361,0,
6,0.97951,0.668672,-0.0303447,-0.00342193,0,
6,0.963136,0.657733,-0.0300271,-0.00365063,0,
6,0.946694,0.646451,-0.0297039,-0.00386058,0,
6,0.930172,0.634726,-0.0293829,-0.00407603,0,
6,0.913555,0.62249,-0.0290651,-0.00429957,0,
6,0.896829,0.609691,-0.0287519,-0.00453298,0,
6,0.879979,0.596287,-0.0284437,-0.00477757,0,
6,0.862989,0.58225,-0.0281413,-0.00503429,0,
6,0.845842,0.567572,-0.0278453,-0.00530386,0,
6,0.828521,0.552268,-0.0275566,-0.00558688,0,
6,0.811008,0.536361,-0.027277,-0.00588039,0,
6,0.793282,0.519869,-0.0270088,-0.0061803,0,
6,0.775322,0.502807,-0.0267528,-0.00648434,0,
6,0.757107,0.485192,-0.0265104,-0.00678979,0,
6,0.738612,0.467055,-0.0262828,-0.00709339,0,
6,0.719813,0.448437,-0.0260712,-0.0073913,0,
6,0.700681,0.429392,-0.0258761,-0.00767917,0,
6,0.681188,0.409979,-0.0256967,-0.00795229,0,
6,0.661304,0.390255,-0.02553,-0.0082056,0,
6,0.640996,0.370261,-0.0253718,-0.00843366,0,
6,0.620228,0.350036,-0.0252204,-0.00863051,0,
6,0.598964,0.329647,-0.0250837,-0.00878961,0,
6,0.577166,0.30925,-0.0249854,-0.00890477,0,
6,0.554791,0.289147,-0.0249717,-0.00897242,0,
6,0.531799,0.269772,-0.0250796,-0.00899292,0,
6,0.508144,0.251525,-0.0253384,-0.00897418,0,
6,0.48378,0.234473,-0.0255077,-0.00891109,0,
6,0.459585,0.218685,-0.0253756,-0.0085284,0,
6,0.436695,0.204365,-0.0251663,-0.00823492,0,
6,0.414961,0.191279,-0.025002,-0.00793936,0,
6,0.394252,0.179248,-0.0248166,-0.00763542,0,
6,0.374445,0.168123,-0.0246355,-0.00732993,0,
6,0.355433,0.157792,-0.0244539,-0.00702343,0,
6,0.337122,0.148157,-0.0242705,-0.00671574,0,
6,0.319433,0.139141,-0.0240836,-0.00640761,0,
6,0.3023,0.130674,-0.0238919,-0.00609969,0,
6,0.28567,0.122701,-0.023694,-0.0057926,0,
6,0.269507,0.115178,-0.0234889,-0.00548698,0,
6,0.253785,0.108067,-0.0232759,-0.00518352,0,
6,0.238493,0.10134,-0.0230544,-0.00488306,0,
6,0.223631,0.0949729,-0.0228242,-0.0045865,0,
6,0.209207,0.0889474,-0.0225855,-0.00429486,0,
6,0.195237,0.0832485,-0.0223389,-0.00400926,0,
6,0.181744,0.077864,-0.0220854,-0.00373083,0,
6,0.168754,0.0727828,-0.0218265,-0.00346072,0,
6,0.156292,0.0679948,-0.0215638,-0.00320003,0,
6,0.144384,0.0634903,-0.0212995,-0.00294978,0,
6,0.133052,0.059259,-0.0210357,-0.00271084,0,
6,0.122315,0.0552906,-0.0207749,-0.00248393,0,
6,0.112183,0.051574,-0.0205194,-0.0022696,0,
6,0.102665,0.0480976,-0.0202715,-0.00206819,0,
6,0.0937597,0.0448494,-0.0200331,-0.00187984,0,
6,0.0854609,0.0418171,-0.019806,-0.00170454,0,
6,0.077757,0.038988,-0.0195915,-0.00154208,0,
6,0.0706309,0.0363495,-0.0193908,-0.00139213,0,
6,0.0640611,0.0338889,-0.0192043,-0.00125422,0,
6,0.0580229,0.0315939,-0.0190325,-0.00112781,0,
6,0.0524888,0.0294523,-0.0188753,-0.00101228,0,
6,0.0474296,0.0274523,-0.0187325,-0.00090696,0,
6,0.042815,0.0255825,-0.0186036,-0.000811168,0,
6,0.0386145,0.0238319,-0.0184878,-0.000724206,0,
6,0.0347975,0.02219,-0.0183846,-0.000645384,0,
6,0.0313344,0.0206466,-0.0182929,-0.000574031,0,
6,0.0281964,0.0191921,-0.0182119,-0.000509496,0,
6,0.0253561,0.0178169,-0.0181407,-0.000451163,0,
6,0.0227875,0.0165119,-0.0180785,-0.000398446,0,
6,0.0204662,0.0152681,-0.0180242,-0.000350792,0,
6,0.0183694,0.0140765,-0.0179774,-0.000307682,0,
6,0.016476,0.0129282,-0.017937,-0.000268629,0,
6,0.0147664,0.011814,-0.0179027,-0.00023317,0,
6,0.0132228,0.010724,-0.0178732,-0.000200865,0,
6,0.0118288,0.00964807,-0.0178491,-0.00017129,0,
6,0.0105693,0.00857533,-0.0178284,-0.000144037,0,
6,0.00943073,0.00749443,-0.0178124,-0.000118718,0,
6,0.00840063,0.00639464,-0.0177986,-9.50036e-05,0,
6,0.00746774,0.00526849,-0.0177893,-7.27353e-05,0,
6,0.00662185,0.0041176,-0.017781,-5.2131e-05,0,
6,0.00585371,0.00296192,-0.0177768,-3.40059e-05,0,
6,0.00515491,0.00184786,-0.0177724,-1.96082e-05,0,
6,0.00451788,0.000842686,-0.0177715,-9.78228e-06,0,
6,0.00393573,9.17986e-06,-0.0177689,-4.17906e-06,0,
6,0.00340221,-0.000620311,-0.0177697,-1.51529e-06,0,
6,0.00291168,-0.00104769,-0.0177675,-4.51822e-07,0,
6,0.00245897,-0.00129544,-0.0177689,-9.86868e-08,0,
6,0.00203939,-0.00139234,-0.0177665,-7.65804e-09,0,
6,0.00164864,-0.00136545,-0.0177685,5.54112e-09,0,
6,0.00128281,-0.00123725,-0.0177656,3.15348e-09,0,
6,0.000938257,-0.00102531,-0.0177683,8.27002e-10,0,
6,0.000611645,-0.000742708,-0.0177646,9.99554e-11,0,
6,0.000299862,-0.000398765,-0.0177682,3.14734e-12,0,

10,0.000296632,0.00843755,0.0296604,-4.89516e-11,0,
10,0.000596102,0.0169525,0.029661,-1.81409e-09,0,
10,0.000900397,0.0256013,0.0296603,-1.84429e-08,0,
10,0.00121153,0.0344406,0.0296609,-9.9098e-08,0,
10,0.00153158,0.0435273,0.0296603,-3.70625e-07,0,
10,0.00186264,0.052917,0.0296607,-1.10167e-06,0,
10,0.00220692,0.0626618,0.0296602,-2.79531e-06,0,
10,0.00256668,0.0728054,0.0296606,-6.30809e-06,0,
10,0.00294431,0.0833751,0.0296601,-1.29692e-05,0,
10,0.00334229,0.0943705,0.0296604,-2.46255e-05,0,
10,0.00376326,0.105749,0.02966,-4.34823e-05,0,
10,0.00421,0.117415,0.0296601,-7.16088e-05,0,
10,0.00468544,0.129213,0.0296597,-0.000110144,0,
10,0.00519274,0.140945,0.0296597,-0.000158552,0,
10,0.00573524,0.152396,0.0296591,-0.000214471,0,
10,0.00631651,0.163371,0.0296588,-0.00027434,0,
10,0.00694041,0.173722,0.029658,-0.000334463,0,
10,0.00761104,0.183358,0.0296572,-0.000391858,0,
10,0.00833284,0.192243,0.0296559,-0.000444621,0,
10,0.00911058,0.200382,0.0296545,-0.000491862,0,
10,0.0099494,0.20781,0.0296525,-0.000533452,0,
10,0.0108548,0.21458,0.0296502,-0.000569754,0,
10,0.0118329,0.220755,0.0296471,-0.000601404,0,
10,0.0128901,0.226399,0.0296436,-0.000629149,0,
10,0.0140333,0.231574,0.0296391,-0.000653754,0,
10,0.0152702,0.23634,0.029634,-0.000675947,0,
10,0.0166089,0.24075,0.0296278,-0.000696385,0,
10,0.0180584,0.244852,0.0296206,-0.000715654,0,
10,0.0196282,0.248689,0.0296122,-0.000734269,0,
10,0.0213288,0.252298,0.0296026,-0.000752679,0,
10,0.0231714,0.255711,0.0295914,-0.000771285,0,
10,0.0251682,0.258959,0.0295787,-0.000790446,0,
10,0.0273326,0.262065,0.0295643,-0.000810488,0,
10,0.0296789,0.265052,0.0295479,-0.000831721,0,
10,0.0322227,0.267942,0.0295294,-0.000854436,0,
10,0.0349809,0.270751,0.0295086,-0.000878922,0,
10,0.0379719,0.273497,0.0294852,-0.000905465,0,
10,0.0412155,0.276196,0.0294591,-0.000934357,0,
10,0.0447333,0.278861,0.02943,-0.000965897,0,
10,0.0485489,0.281506,0.0293977,-0.0010004,0,
10,0.0526875,0.284146,0.0293618,-0.00103819,0,
10,0.0571768,0.286793,0.0293221,-0.00107962,0,
10,0.0620466,0.28946,0.0292784,-0.00112506,0,
10,0.0673295,0.292161,0.0292303,-0.0011749,0,
10,0.0730607,0.294909,0.0291776,-0.00122958,0,
10,0.0792784,0.297719,0.02912,-0.00128954,0,
10,0.0860241,0.300607,0.0290572,-0.00135527,0,
10,0.0933428,0.303588,0.028989,-0.00142728,0,
10,0.101283,0.306681,0.0289152,-0.00150613,0,
10,0.109899,0.309905,0.0288355,-0.00159241,0,
10,0.119247,0.313282,0.0287498,-0.00168674,0,
10,0.12939,0.316835,0.0286581,-0.00178975,0,
10,0.140395,0.320593,0.0285602,-0.00190213,0,
10,0.152337,0.324585,0.0284562,-0.00202455,0,
10,0.165296,0.328846,0.0283462,-0.00215772,0,
10,0.179357,0.333416,0.0282304,-0.0023023,0,
10,0.194615,0.338341,0.0281088,-0.00245892,0,
10,0.211171,0.343673,0.027982,-0.00262814,0,
10,0.229138,0.349472,0.0278499,-0.00281039,0,
10,0.248635,0.355809,0.0277135,-0.00300592,0,
10,0.269793,0.362765,0.0275718,-0.00321468,0,
10,0.292753,0.370433,0.0274271,-0.00343625,0,
10,0.317669,0.378921,0.0272754,-0.00366837,0,
10,0.344708,0.388349,0.0271223,-0.00390769,0,
10,0.372405,0.398266,0.0269728,-0.0041432,0,
10,0.399623,0.408286,0.0268294,-0.00436357,0,
10,0.426397,0.41841,0.0266927,-0.00456565,0,
10,0.452757,0.428642,0.0265611,-0.00475087,0,
10,0.478735,0.438991,0.0264368,-0.00491688,0,
10,0.504358,0.449473,0.0263199,-0.00506261,0,
10,0.529657,0.460111,0.0262118,-0.00518634,0,
10,0.554656,0.470925,0.0261055,-0.00528874,0,
10,0.579382,0.481928,0.0260088,-0.00536918,0,
10,0.603859,0.493129,0.0258977,-0.00544373,0,
10,0.628112,0.504603,0.0258277,-0.00551871,0,
10,0.652163,0.516675,0.0258377,-0.00545083,0,
10,0.676035,0.529676,0.0258415,-0.00535402,0,
10,0.699751,0.543577,0.0258055,-0.00522687,0,
10,0.72333,0.558127,0.0257287,-0.00506891,0,
10,0.746795,0.57301,0.0256195,-0.00488267,0,
10,0.770165,0.587959,0.0254888,-0.00467248,0,
10,0.79346,0.602791,0.0253438,-0.00444341,0,
10,0.816699,0.617392,0.0251881,-0.0042004,0,
10,0.839903,0.631673,0.0250232,-0.00394839,0,
10,0.863088,0.645536,0.0248463,-0.00369569,0,
10,0.886275,0.658865,0.0246561,-0.00345107,0,
10,0.909481,0.671571,0.0244558,-0.00321509,0,
10,0.932723,0.683625,0.0242475,-0.0029882,0,
10,0.956021,0.695044,0.0240328,-0.00277103,0,
10,0.97939,0.705865,0.0238119,-0.00256419,0,
10,1.00285,0.716125,0.0235847,-0.00236823,0,
10,1.02641,0.725852,0.0233505,-0.00218362,0,
10,1.0501,0.735066,0.0231098,-0.00201073,0,
10,1.07392,0.743789,0.0228618,-0.00184981,0,
10,1.0979,0.752048,0.022609,-0.00169989,0,
10,1.12205,0.759873,0.0223506,-0.00155788,0,
10,1.14639,0.767276,0.0220836,-0.00143057,0,
10,1.17093,0.774254,0.0218086,-0.00131658,0,
10,1.19568,0.780823,0.021526,-0.00121663,0,
10,1.22066,0.787015,0.0212353,-0.00113073,0,
10,1.24589,0.79287,0.0209382,-0.00105817,0,
10,1.27137,0.798439,0.0206329,-0.000997747,0,
10,1.29713,0.803775,0.0203232,-0.000951142,0,
10,1.32317,0.808967,0.0200071,-0.000909113,0,
10,1.34951,0.814147,0.019685,-0.000864668,0,
10,1.37616,0.819395,0.0193593,-0.00082341,0,
10,1.40313,0.824688,0.0190257,-0.000785429,0,
10,1.43043,0.829953,0.0186845,-0.000750526,0,
10,1.45807,0.835138,0.0183349,-0.000718116,0,
10,1.48607,0.840231,0.0179781,-0.000687474,0,
10,1.51444,0.845251,0.017614,-0.000658029,0,
10,1.54318,0.850216,0.0172431,-0.000629497,0,
10,1.57231,0.855126,0.0168647,-0.000601808,0,
10,1.60184,0.859962,0.016479,-0.000574986,0,
10,1.63178,0.864695,0.0160854,-0.000549061,0,
10,1.66213,0.869299,0.0156847,-0.000524035,0,
10,1.69292,0.873756,0.0152759,-0.000499819,0,
10,1.72416,0.878066,0.014861,-0.000476094,0,
10,1.75585,0.88227,0.0144366,-0.000448792,0,
10,1.78802,0.886414,0.0140038,-0.000420553,0,
10,1.82067,0.89051,0.0135643,-0.000392471,0,
10,1.85383,0.89454,0.0131161,-0.000363283,0,
10,1.88751,0.898481,0.0126598,-0.000333185,0,
10,1.92173,0.902309,0.0121952,-0.00030254,0,
10,1.95652,0.906,0.0117218,-0.000271776,0,
10,1.9919,0.90953,0.0112402,-0.000241365,0,
10,2.02791,0.912875,0.0107491,-0.00021185,0,
10,2.06456,0.916018,0.0102505,-0.000183455,0,
10,2.10268,0.918995,0.00972985,-0.000155768,0,
10,2.1443,0.921895,0.00916431,-0.000129158,0,
10,2.18977,0.924667,0.00854681,-0.00010376,0,
10,2.23946,0.92723,0.00787561,-7.98847e-05,0,
10,2.29376,0.9295,0.00714526,-5.83588e-05,0,
10,2.35309,0.931395,0.00635352,-3.9881e-05,0,
10,2.4179,0.932845,0.00549642,-2.49748e-05,0,
10,2.48863,0.933805,0.00457225,-1.39151e-05,0,
10,2.56575,0.934273,0.00357884,-6.61436e-06,0,
10,2.64971,0.934304,0.00251585,-2.5677e-06,0,
10,2.74098,0.934018,0.00138311,-9.02006e-07,0,
10,2.83997,0.933594,0.000181949,-5.73197e-07,0,
10,2.94709,0.933235,-0.00108593,-6.7331e-07,0,
10,3.06269,0.933125,-0.00241761,-6.88191e-07,0,
10,3.18706,0.933375,-0.00380947,-5.23734e-07,0,
10,3.3204,0.933987,-0.00525635,-3.0348e-07,0,
10,3.46281,0.934869,-0.00675155,-1.41545e-07,0,
10,3.61427,0.935876,-0.00828623,-6.07239e-08,0,
10,3.77463,0.93687,-0.0098497,-3.11112e-08,0,
10,3.94358,0.937772,-0.0114296,-2.21432e-08,0,
10,4.12067,0.938568,-0.0130125,-1.91331e-08,0,
10,4.30525,0.939289,-0.0145846,-1.77921e-08,0,
10,4.49655,0.93998,-0.0161323,-1.73103e-08,0,
10,4.6936,0.940669,-0.0176425,-1.7666e-08,0,
10,4.89531,0.941357,-0.019103,-1.93513e-08,0,
10,5.10047,0.942031,-0.020503,-2.38148e-08,0,
10,5.30776,0.94267,-0.0218332,-3.42858e-08,0,
10,5.51581,0.943258,-0.0230864,-5.74472e-08,0,
10,5.72323,0.943791,-0.0242571,-1.07674e-07,0,
10,5.92863,0.944293,-0.0253419,-2.20158e-07,0,
10,6.13069,0.944833,-0.0263394,-4.87547e-07,0,
10,6.32816,0.945504,-0.02725,-1.10372e-06,0,
10,6.51991,0.946339,-0.0280759,-2.14895e-06,0,
10,6.70495,0.947106,-0.0288206,-2.31544e-06,0,
10,6.88244,0.94709,-0.0294875,3.74659e-06,0,
10,7.0517,0.945064,-0.0300807,2.69241e-05,0,
10,7.21224,0.939642,-0.0306007,8.05109e-05,0,
10,7.3637,0.929941,-0.0310529,0.000173704,0,
10,7.5059,0.916005,-0.0314418,0.00029688,0,
10,7.63878,0.898421,-0.0317711,0.000404372,0,
10,7.76243,0.878293,-0.0320506,0.000523249,0,
10,7.87701,0.857392,-0.032275,0.000644732,0,
10,7.9828,0.837172,-0.0324606,0.000755026,0,
10,8.08014,0.818345,-0.0326096,0.000849104,0,
10,8.16941,0.800992,-0.032733,0.000927433,0,
10,8.25106,0.784869,-0.0328349,0.000993139,0,
10,8.32554,0.76965,-0.0329214,0.00104943,0,
10,8.39331,0.755057,-0.0329947,0.00109855,0,
10,8.45484,0.740894,-0.0330576,0.00114178,0,
10,8.5106,0.727039,-0.0331112,0.00117973,0,
10,8.56104,0.713432,-0.0331573,0.00121264,0,
10,8.60659,0.700055,-0.0331967,0.00124059,0,
10,8.64767,0.686916,-0.0332309,0.00126371,0,
10,8.68467,0.674019,-0.0332604,0.00128168,0,
10,8.71795,0.661336,-0.033286,0.00129152,0,
10,8.74786,0.648842,-0.0333082,0.00129784,0,
10,8.77471,0.636532,-0.0333273,0.00129986,0,
10,8.79881,0.624401,-0.0333438,0.00129805,0,
10,8.8204,0.612444,-0.0333579,0.00129291,0,
10,8.83975,0.600648,-0.0333702,0.00128497,0,
10,8.85708,0.589,-0.0333806,0.0012747,0,
10,8.87259,0.577483,-0.0333895,0.00126257,0,
10,8.88646,0.566074,-0.033397,0.00124897,0,
10,8.89886,0.554749,-0.0334033,0.00123425,0,
10,8.90995,0.543481,-0.0334087,0.00121869,0,
10,8.91986,0.53224,-0.0334132,0.00120252,0,
10,8.92872,0.520991,-0.0334169,0.00118589,0,
10,8.93663,0.5097,-0.0334201,0.0011689,0,
10,8.94369,0.498327,-0.0334227,0.00115157,0,
10,8.95,0.48683,-0.0334248,0.00113385,0,
10,8.95564,0.475165,-0.0334267,0.00111568,0,
10,8.96067,0.463281,-0.0334281,0.00109689,0,
10,8.96517,0.451124,-0.0334294,0.00107722,0,
10,8.96918,0.438632,-0.0334303,0.00105636,0,
10,8.97276,0.425736,-0.0334312,0.00103385,0,
10,8.97596,0.412356,-0.0334318,0.00100915,0,
10,8.97882,0.398399,-0.0334325,0.000981526,0,
10,8.98137,0.383759,-0.0334327,0.000950044,0,
10,8.98365,0.368307,-0.0334333,0.000913493,0,
10,8.98569,0.351893,-0.0334334,0.00087049,0,
10,8.9875,0.334336,-0.0334339,0.0008187,0,
10,8.98913,0.315401,-0.0334338,0.000753308,0,
10,8.99058,0.294858,-0.0334343,0.000676039,0,
10,8.99188,0.272547,-0.033434,0.000584542,0,
10,8.99304,0.248308,-0.0334345,0.000471954,0,
10,8.99408,0.222101,-0.0334342,0.000345974,0,
10,8.99501,0.194298,-0.0334347,0.000220291,0,
10,8.99583,0.165801,-0.0334342,0.000116708,0,
10,8.99658,0.137877,-0.0334348,5.0096e-05,0,
10,8.99724,0.111635,-0.0334342,1.72837e-05,0,
10,8.99784,0.0876628,-0.0334349,4.74724e-06,0,
10,8.99837,0.0660675,-0.0334342,9.95501e-07,0,
10,8.99885,0.046715,-0.033435,1.42605e-07,0,
10,8.99927,0.029394,-0.0334341,1.08265e-08,0,
10,8.99966,0.0138902,-0.0334351,2.39538e-10,0,
10,0,0,0.0296612,0,0,
10,9,0,-0.033434,0,0,

0.004,0,0,-0.226242,0,-8.33122e-08,
0.00868226,0,0,-0.226238,0,-1.88891e-07,
0.014062,0,0,-0.226241,0,-3.19319e-07,
0.0201548,0,0,-0.22624,0,-7.49219e-07,
0.0269766,0,0,-0.226241,0,-1.26609e-06,
0.0345437,0,0,-0.22624,0,-1.91647e-06,
0.0428729,0,0,-0.226239,0,-2.52103e-06,
0.051981,0,0,-0.226237,0,-2.99174e-06,
0.0618853,0,0,-0.226234,0,-3.1298e-06,
0.0726036,0,0,-0.226231,0,-2.76108e-06,
0.0841536,0,0,-0.226227,0,-1.68025e-06,
0.0965535,0,0,-0.226223,0,2.723e-07,
0.109822,0,0,-0.22622,0,3.18988e-06,
0.123977,0,0,-0.226219,0,7.05752e-06,
0.139037,0,0,-0.22622,0,1.17308e-05,
0.155022,0,0,-0.226226,0,1.69544e-05,
0.171949,0,0,-0.226236,0,2.23846e-05,
0.189839,0,0,-0.226253,0,2.76531e-05,
0.208709,0,0,-0.226273,0,3.24064e-05,
0.228579,0,0,-0.226299,0,3.63607e-05,
0.249467,0,0,-0.226327,0,3.93185e-05,
0.271391,0,0,-0.226357,0,4.11894e-05,
0.29437,0,0,-0.226387,0,4.19827e-05,
0.31842,0,0,-0.226416,0,4.18015e-05,
0.343559,0,0,-0.226443,0,4.08223e-05,
0.369804,0,0,-0.226467,0,3.92774e-05,
0.39717,0,0,-0.226489,0,3.74321e-05,
0.425672,0,0,-0.226508,0,3.55708e-05,
0.455324,0,0,-0.226525,0,3.39789e-05,
0.48614,0,0,-0.226541,0,3.29432e-05,
0.518132,0,0,-0.226557,0,3.27263e-05,
0.551309,0,0,-0.226575,0,3.35116e-05,
0.585683,0,0,-0.226599,0,3.53807e-05,
0.621259,0,0,-0.226631,0,3.83102e-05,
0.658046,0,0,-0.226674,0,4.21863e-05,
0.696047,0,0,-0.226732,0,4.68361e-05,
0.735265,0,0,-0.226809,0,5.2064e-05,
0.7757,0,0,-0.226908,0,5.7688e-05,
0.817352,0,0,-0.227034,0,6.34979e-05,
0.860215,0,0,-0.227195,0,6.91628e-05,
0.904285,0,0,-0.227399,0,7.41616e-05,
0.949552,0,0,-0.227663,0,7.76302e-05,
0.996004,0,0,-0.228004,0,7.82127e-05,
1.04363,0,0,-0.228443,0,7.41104e-05,
1.09241,0,0,-0.229002,0,6.32941e-05,
1.14232,0,0,-0.229697,0,4.38712e-05,
1.19335,0,0,-0.230531,0,1.45918e-05,
1.24546,0,0,-0.231496,0,-2.4702e-05,
1.29863,0,0,-0.232568,0,-7.2941e-05,
1.35283,0,0,-0.233716,0,-0.000128135,
1.40802,0,0,-0.234909,0,-0.000187975,
1.46416,0,0,-0.236114,0,-0.000250417,
1.52121,0,0,-0.237306,0,-0.000314022,
1.57913,0,0,-0.238461,0,-0.000377978,
1.63787,0,0,-0.239561,0,-0.000441931,
1.69739,0,0,-0.240589,0,-0.000505771,
1.75761,0,0,-0.241529,0,-0.000569465,
1.81851,0,0,-0.242366,0,-0.00063298,
1.88,0,0,-0.243087,0,-0.000696249,
1.94204,0,0,-0.243678,0,-0.000759174,
2.00457,0,0,-0.244125,0,-0.000821634,
2.06751,0,0,-0.244416,0,-0.00088349,
2.13081,0,0,-0.244539,0,-0.000944594,
2.19439,0,0,-0.244482,0,-0.00100478,
2.25819,0,0,-0.244236,0,-0.00106389,
2.32214,0,0,-0.24379,0,-0.00112174,
2.38617,0,0,-0.243138,0,-0.00117813,
2.4502,0,0,-0.24227,0,-0.00123288,
2.51418,0,0,-0.241183,0,-0.00128576,
2.57803,0,0,-0.239871,0,-0.00133658,
2.64167,0,0,-0.238333,0,-0.00138511,
2.70505,0,0,-0.236569,0,-0.00143111,
2.76808,0,0,-0.234579,0,-0.00147436,
2.83072,0,0,-0.232368,0,-0.00151461,
2.89288,0,0,-0.229942,0,-0.00155165,
2.95451,0,0,-0.227309,0,-0.00158529,
3.01555,0,0,-0.224482,0,-0.00161536,
3.07594,0,0,-0.221473,0,-0.00164177,
3.13561,0,0,-0.2183,0,-0.00166449,
3.19453,0,0,-0.214978,0,-0.00168354,
3.25262,0,0,-0.211527,0,-0.00169898,
3.30985,0,0,-0.207965,0,-0.00171093,
3.36617,0,0,-0.20431,0,-0.00171953,
3.42154,0,0,-0.200583,0,-0.00172493,
3.47591,0,0,-0.196801,0,-0.00172731,
3.52925,0,0,-0.192982,0,-0.00172688,
3.58152,0,0,-0.189145,0,-0.00172384,
3.6327,0,0,-0.185304,0,-0.00171842,
3.68276,0,0,-0.181475,0,-0.00171083,
3.73167,0,0,-0.177672,0,-0.00170129,
3.77941,0,0,-0.173907,0,-0.00169,
3.82596,0,0,-0.170192,0,-0.00167719,
3.8713,0,0,-0.166537,0,-0.00166304,
3.91543,0,0,-0.162948,0,-0.00164763,
3.95833,0,0,-0.159451,0,-0.00163148,
4,0,0,-0.156016,0,-0.00161447,
4.04167,0,0,-0.152575,0,-0.00159618,
4.08333,0,0,-0.149125,0,-0.00157682,
4.125,0,0,-0.145667,0,-0.00155639,
4.16667,0,0,-0.142206,0,-0.0015349,
4.20833,0,0,-0.138744,0,-0.0015124,
4.25,0,0,-0.135285,0,-0.00148894,
4.29167,0,0,-0.131831,0,-0.00146455,
4.33333,0,0,-0.128386,0,-0.00143928,
4.375,0,0,-0.124952,0,-0.00141317,
4.41667,0,0,-0.121532,0,-0.00138625,
4.45833,0,0,-0.118128,0,-0.00135858,
4.5,0,0,-0.114743,0,-0.00133018,
4.54167,0,0,-0.111379,0,-0.00130111,
4.58333,0,0,-0.108038,0,-0.00127138,
4.625,0,0,-0.104722,0,-0.00124105,
4.66667,0,0,-0.101434,0,-0.00121014,
4.70833,0,0,-0.0981742,0,-0.00117867,
4.75,0,0,-0.0949455,0,-0.00114669,
4.79167,0,0,-0.0917491,0,-0.00111422,
4.83333,0,0,-0.0885867,0,-0.00108129,
4.875,0,0,-0.0854598,0,-0.00104793,
4.91667,0,0,-0.0823697,0,-0.00101417,
4.95833,0,0,-0.0793178,0,-0.000980044,
5,0,0,-0.0763052,0,-0.000945577,
5.04167,0,0,-0.0733332,0,-0.000910799,
5.08333,0,0,-0.0704026,0,-0.000875737,
5.125,0,0,-0.0675145,0,-0.000840415,
5.16667,0,0,-0.0646697,0,-0.000804856,
5.20833,0,0,-0.061869,0,-0.000769084,
5.25,0,0,-0.0591132,0,-0.00073312,
5.29167,0,0,-0.0564029,0,-0.000696986,
5.33333,0,0,-0.0537388,0,-0.000660705,
5.375,0,0,-0.0511215,0,-0.000624299,
5.41667,0,0,-0.0485515,0,-0.000587792,
5.45833,0,0,-0.0460292,0,-0.000551208,
5.5,0,0,-0.0435551,0,-0.000514569,
5.54167,0,0,-0.0411296,0,-0.000477898,
5.58333,0,0,-0.0387529,0,-0.000441211,
5.625,0,0,-0.0364254,0,-0.000404527,
5.66667,0,0,-0.0341473,0,-0.000367858,
5.70833,0,0,-0.0319191,0,-0.000331218,
5.75,0,0,-0.0297413,0,-0.000294623,
5.79167,0,0,-0.0276143,0,-0.000258098,
5.83333,0,0,-0.0255391,0,-0.000221688,
5.875,0,0,-0.0235163,0,-0.000185466,
5.91667,0,0,-0.0215463,0,-0.000149526,
5.95833,0,0,-0.0196291,0,-0.000113959,
6,0,0,-0.0177638,0,-7.88179e-05,
6.04167,0,0,-0.0159491,0,-4.41129e-05,
6.08333,0,0,-0.0141841,0,-9.83356e-06,
6.125,0,0,-0.0124678,0,2.40336e-05,
6.16667,0,0,-0.0107992,0,5.74977e-05,
6.20833,0,0,-0.00917753,0,9.05631e-05,
6.25,0,0,-0.00760183,0,0.000123232,
6.29167,0,0,-0.00607128,0,0.000155507,
6.33333,0,0,-0.00458507,0,0.000187388,
6.375,0,0,-0.00314237,0,0.000218876,
6.41667,0,0,-0.00174238,0,0.000249971,
6.45833,0,0,-0.000384309,0,0.000280671,
6.5,0,0,0.000932644,0,0.000310978,
6.54167,0,0,0.00220927,0,0.000340891,
6.58333,0,0,0.00344635,0,0.00037041,
6.625,0,0,0.00464467,0,0.000399536,
6.66667,0,0,0.005805,0,0.000428269,
6.70833,0,0,0.00692811,0,0.00045661,
6.75,0,0,0.00801475,0,0.00048456,
6.79167,0,0,0.00906568,0,0.00051212,
6.83333,0,0,0.0100817,0,0.00053929,
6.875,0,0,0.0110634,0,0.000566071,
6.91667,0,0,0.0120117,0,0.000592464,
6.95833,0,0,0.0129272,0,0.00061847,
7,0,0,0.0138107,0,0.000644092,
7.04167,0,0,0.0146628,0,0.000669329,
7.08333,0,0,0.0154844,0,0.000694185,
7.125,0,0,0.0162761,0,0.000718659,
7.16667,0,0,0.0170386,0,0.000742754,
7.20833,0,0,0.0177726,0,0.000766472,
7.25,0,0,0.0184787,0,0.000789816,
7.29167,0,0,0.0191578,0,0.000812789,
7.33333,0,0,0.0198103,0,0.000835395,
7.375,0,0,0.0204369,0,0.000857638,
7.41667,0,0,0.0210383,0,0.000879525,
7.45833,0,0,0.0216151,0,0.000901065,
7.5,0,0,0.022168,0,0.000922271,
7.54167,0,0,0.0226976,0,0.000943151,
7.58333,0,0,0.0232045,0,0.000963713,
7.625,0,0,0.023689,0,0.000983958,
7.66667,0,0,0.0241519,0,0.00100389,
7.70833,0,0,0.0245933,0,0.00102351,
7.75,0,0,0.025014,0,0.00104282,
7.79167,0,0,0.0254142,0,0.00106183,
7.83333,0,0,0.0257938,0,0.00108052,
7.875,0,0,0.0261529,0,0.00109895,
7.91667,0,0,0.0265025,0,0.00111768,
7.95833,0,0,0.0267736,0,0.00113523,
8,0,0,0.0271292,0,0.00115273,
8.04171,0,0,0.0275039,0,0.00117126,
8.08368,0,0,0.0277453,0,0.00118955,
8.12617,0,0,0.0280268,0,0.00120609,
8.16946,0,0,0.0282922,0,0.00122271,
8.21382,0,0,0.0285408,0,0.00123934,
8.25952,0,0,0.0287802,0,0.00125599,
8.30685,0,0,0.02901,0,0.00127284,
8.35611,0,0,0.0292303,0,0.00128999,
8.40762,0,0,0.0294411,0,0.0013075,
8.46168,0,0,0.0296419,0,0.00132545,
8.51865,0,0,0.0298318,0,0.00134389,
8.57889,0,0,0.0300095,0,0.00136286,
8.64276,0,0,0.0301734,0,0.00138241,
8.71067,0,0,0.0303214,0,0.00140257,
8.78306,0,0,0.030451,0,0.00142336,
8.86037,0,0,0.0305594,0,0.0014448,
8.94309,0,0,0.0306432,0,0.00146688,
9.03174,0,0,0.0306989,0,0.00148962,
9.12689,0,0,0.0307223,0,0.00151299,
9.22912,0,0,0.0307093,0,0.00153697,
9.33908,0,0,0.0306552,0,0.00156152,
9.45746,0,0,0.0305552,0,0.0015866,
9.58501,0,0,0.0304045,0,0.00161216,
9.72253,0,0,0.0301977,0,0.00163813,
9.87088,0,0,0.0299299,0,0.00166442,
10.031,0,0,0.0295967,0,0.00169094,
10.2039,0,0,0.0291943,0,0.00171758,
10.3906,0,0,0.0287191,0,0.00174425,
10.5924,0,0,0.0281681,0,0.00177081,
10.8105,0,0,0.0275407,0,0.00179714,
11.0463,0,0,0.0268376,0,0.00182313,
11.3012,0,0,0.0260592,0,0.00184866,
11.5769,0,0,0.0252096,0,0.00187363,
11.8751,0,0,0.024294,0,0.00189794,
12.1977,0,0,0.0233189,0,0.00192151,
12.5466,0,0,0.022294,0,0.00194426,
12.9242,0,0,0.0212293,0,0.00196614,
13.3327,0,0,0.0201372,0,0.00198712,
13.7748,0,0,0.0190309,0,0.00200717,
14.2532,0,0,0.0179242,0,0.00202631,
14.7709,0,0,0.0168316,0,0.00204454,
15.3312,0,0,0.0157666,0,0.00206191,
15.9377,0,0,0.0147427,0,0.00207846,
16.594,0,0,0.0137711,0,0.00209426,
17.3044,0,0,0.0128604,0,0.00210939,
18.0733,0,0,0.0120177,0,0.00212388,
18.9056,0,0,0.0112461,0,0.00213764,
19.8064,0,0,0.0105463,0,0.00215062,
20.7816,0,0,0.00991532,0,0.00216301,
21.8371,0,0,0.00934609,0,0.00217513,
22.9796,0,0,0.00882921,0,0.00218718,
24.2163,0,0,0.00835145,0,0.00219924,
25.5551,0,0,0.00789806,0,0.00221138,
27.0042,0,0,0.00745247,0,0.00222368,
28.5729,0,0,0.00699703,0,0.00223621,
30.271,0,0,0.00651373,0,0.00224896,
32.1091,0,0,0.0059849,0,0.00226187,
34.0989,0,0,0.00539542,0,0.00227483,
36.2529,0,0,0.00472753,0,0.00228788,
38.5845,0,0,0.00397298,0,0.00230093,
41.1085,0,0,0.00317033,0,0.0023138,
43.8407,0,0,0.0021617,0,0.00232427,
46.7983,0,0,0.00111366,0,0.00233023,
50,0,0,0.00211184,0,0.0023462,

